# Nsamples: 17  MAD:  0.626  mean:  0.700  variance:  0.599
gfz2013lyko   0.76922
gfz2013malg   1.09170
gfz2013mqmv   2.21130
gfz2013mwbh   1.10660
gfz2013ncjp   0.37209
gfz2013ndin   1.99650
gfz2013nkgj  -0.81365
gfz2013nmac  -0.14274
gfz2013nqgw  -0.15306
gfz2013pfeb   0.98051
gfz2013pndn   0.34717
gfz2013pxsj   0.45551
gfz2013qali   0.29860
gfz2013qmer   1.78850
gfz2013qzdq   0.78102
gfz2013rdoo   0.77074
gfz2013sfto   0.04274
