# Nsamples: 18  MAD:  1.298  mean:  0.346  variance:  1.700
gfz2010eaoy  -1.37230
gfz2010earu   0.31020
gfz2010eavs   0.58032
gfz2010eisx   2.23680
gfz2010eltf  -0.08538
gfz2010elyc  -2.49640
gfz2010excp  -0.40495
gfz2010exdd   0.21704
gfz2010fedq   2.74060
gfz2010fihj   1.34570
gfz2010rqwj  -0.83771
gfz2011adjs  -0.18732
gfz2013jusj   0.84029
gfz2014jcjt   0.86751
gfz2014tute   0.10614
gfz2015enth   1.95480
gfz2015gzja   1.53830
gfz2015sfdy  -1.12780
