# Nsamples: 1095  MAD:  0.477  mean:  0.099  variance:  0.660
gfz2012wtkh   0.37617
gfz2012wtkr   1.94190
gfz2012wtov   0.57446
gfz2012wubh  -0.00000
gfz2012wvfl   2.09730
gfz2012wwdo  -3.22820
gfz2012wxer   2.28940
gfz2012wxlg   1.80060
gfz2012wxnu   0.71121
gfz2012wybs   0.63491
gfz2012wypz   1.19920
gfz2012xbjq  -1.17330
gfz2012xcgk  -0.13026
gfz2012xevt   0.28360
gfz2012xgqm   0.17014
gfz2012xhci  -0.21824
gfz2012xjyv  -1.21640
gfz2012xkkv   0.62116
gfz2012xmxy  -0.05951
gfz2012xpmm  -0.19096
gfz2012xslk  -1.15110
gfz2012xssa  -0.03252
gfz2012xvwn   0.13488
gfz2012xyqp   0.51533
gfz2012xyua   0.27064
gfz2012yhag  -0.77702
gfz2012yldu  -0.03684
gfz2012yoie  -0.47351
gfz2012yqjj   0.51884
gfz2012yxxu  -0.03667
gfz2012yzod   0.98742
gfz2012zemz   1.13190
gfz2012zhmb  -0.57814
gfz2012zhyf  -0.03473
gfz2012ziml  -0.07709
gfz2012zitl   1.57900
gfz2012zjpv   1.39300
gfz2012zjre   2.90150
gfz2012zmbp  -1.22520
gfz2012zsqk   0.03607
gfz2013aahq   0.35071
gfz2013aayj  -0.47201
gfz2013acag   6.78650
gfz2013adey   0.79460
gfz2013aeee   0.16331
gfz2013akgj   0.41788
gfz2013aknp  -0.56379
gfz2013apmm  -0.59338
gfz2013ftso  -0.11845
gfz2013fwxa   0.59196
gfz2013fxge  -0.14611
gfz2013fygc   2.77350
gfz2013gaie   0.01555
gfz2013gbst  -0.09100
gfz2013gdnq  -0.77447
gfz2013geia   0.04426
gfz2013geno  -0.00000
gfz2013ggtf   0.01815
gfz2013gihf  -0.35284
gfz2013gjdc  -0.18617
gfz2013glcr   0.05996
gfz2013gngz   0.13018
gfz2013gock  -0.22009
gfz2013govy   0.03422
gfz2013gvdb   1.38720
gfz2013gvet   0.37648
gfz2013gxsu   0.79344
gfz2013hbkh  -0.60474
gfz2013hbkq  -0.10295
gfz2013hdnc   6.27840
gfz2013hisv  -0.52977
gfz2013hkja  -1.35130
gfz2013hlbe  -0.00000
gfz2013hmbc   0.45225
gfz2013hpfq   0.52281
gfz2013hudi  -0.30350
gfz2013huwr   0.94451
gfz2013hxcx   0.21961
gfz2013iapa  -0.33554
gfz2013iayx  -0.31373
gfz2013icfh   0.12050
gfz2013icqt   0.01219
gfz2013idbb  -0.29888
gfz2013iexo  -0.26765
gfz2013ifpq   3.08740
gfz2013ihcj   0.00818
gfz2013ijsr  -1.57440
gfz2013ijyg   0.24761
gfz2013ilug   1.49890
gfz2013inux   0.61317
gfz2013iodt   1.25680
gfz2013iopd   1.21830
gfz2013ippu   0.28422
gfz2013iqzq  -2.11340
gfz2013itsu   0.38995
gfz2013iunn  -0.97372
gfz2013iynu   0.56559
gfz2013iyqz   0.38821
gfz2013jarl  -0.02587
gfz2013jdrx   0.45961
gfz2013jesk  -0.32298
gfz2013jfah   0.32576
gfz2013jgij   0.21832
gfz2013jgip  -0.85671
gfz2013jjrt   0.31399
gfz2013jjsi  -1.78580
gfz2013jkut   0.46966
gfz2013jlst   0.24365
gfz2013jmcc   0.09729
gfz2013jphq  -0.08223
gfz2013json   1.01820
gfz2013jusj   0.31710
gfz2013jvhy  -0.07292
gfz2013jwcn   0.02885
gfz2013jxoi   0.17998
gfz2013kccc   0.76535
gfz2013kdeo   0.39568
gfz2013kgmj  -0.62552
gfz2013kheb   0.71932
gfz2013khli  -0.63700
gfz2013kilx  -0.59256
gfz2013kkzr  -0.81906
gfz2013krei  -0.03376
gfz2013kvtk   0.60127
gfz2013kwag   0.45878
gfz2013kweg  -0.02951
gfz2013kwps  -0.16406
gfz2013lajg  -0.91349
gfz2013lajn  -0.92983
gfz2013lbiu   1.96680
gfz2013lcos   0.55150
gfz2013ldpc   0.32823
gfz2013ldqb   0.86124
gfz2013lfyb   0.94281
gfz2013lgbb  -0.87058
gfz2013lgnl  -0.01915
gfz2013lgxc  -0.57339
gfz2013limo  -0.07810
gfz2013lixa   0.20867
gfz2013lljw   0.63813
gfz2013lmdy  -0.20825
gfz2013lmrs  -0.07588
gfz2013lsob   0.43031
gfz2013lupg   0.34414
gfz2013lwao   0.44130
gfz2013lwbk   0.70576
gfz2013lyko   0.69423
gfz2013lznu  -0.24999
gfz2013malg  -0.29054
gfz2013mded   0.15577
gfz2013mdiq   0.04211
gfz2013mghe  -0.22378
gfz2013mhjf   0.00000
gfz2013mmlw  -0.02881
gfz2013mnac  -0.72641
gfz2013mnei  -0.48034
gfz2013mqmv  -0.04667
gfz2013mtqd   1.09240
gfz2013mvdm   0.17228
gfz2013mvgr  -1.59410
gfz2013mxee  -0.66860
gfz2013mxrz   0.09674
gfz2013mzwe  -1.57300
gfz2013nabl   0.00000
gfz2013ncjp   0.64265
gfz2013ndin  -2.41080
gfz2013nedo  -1.20770
gfz2013neuc  -1.18810
gfz2013nfwx  -0.07996
gfz2013nhjb  -0.35257
gfz2013nixj   0.02207
gfz2013njnd   0.95873
gfz2013nkgj  -0.30234
gfz2013nlxz  -1.32590
gfz2013nmac  -0.14621
gfz2013nnzf  -0.22369
gfz2013nojf   1.51670
gfz2013npcg  -0.62852
gfz2013nppd  -0.68470
gfz2013nqgw  -0.42513
gfz2013nskg   0.52669
gfz2013nttq   0.46224
gfz2013nuor  -0.40252
gfz2013nvdj  -0.14237
gfz2013nvia   0.52520
gfz2013nwdi   0.61695
gfz2013oejn   1.04790
gfz2013ofls   0.34026
gfz2013oifr   0.06623
gfz2013oilg   0.33442
gfz2013oinc   0.15228
gfz2013ojti   0.06394
gfz2013oksi   1.07860
gfz2013onjy   1.55590
gfz2013oqsc   0.65028
gfz2013orjg  -0.12468
gfz2013ornz   0.40831
gfz2013ouvt   2.21010
gfz2013ovyg  -0.52987
gfz2013ozku   0.33916
gfz2013oznn   3.27820
gfz2013ozqm   0.40508
gfz2013ozrf  -0.04692
gfz2013ozrp   0.39033
gfz2013pakq   0.00822
gfz2013pcos   0.08370
gfz2013pfbx   1.05380
gfz2013pfeb   0.85199
gfz2013pffm   1.52140
gfz2013pfnf  -0.30791
gfz2013pigb   0.08406
gfz2013piwd   0.20628
gfz2013pkbs   0.16014
gfz2013plhp   0.09824
gfz2013pndn  -0.41577
gfz2013poxj   0.07576
gfz2013ppqq   0.28764
gfz2013pqui   0.37082
gfz2013ptit   0.76811
gfz2013pupd   0.28177
gfz2013pweb   0.09016
gfz2013pwjd   1.12310
gfz2013pwyt   0.38444
gfz2013pxsj   2.66070
gfz2013pxtx   0.01816
gfz2013pxya  -0.42597
gfz2013pzgs   0.40957
gfz2013pzgt   0.25471
gfz2013qali  -1.20410
gfz2013qbca   0.63414
gfz2013qbys  -0.03158
gfz2013qcck   0.55825
gfz2013qckf   0.18917
gfz2013qesa   0.24259
gfz2013qfmm  -0.59490
gfz2013qfsq   0.58285
gfz2013qhtx  -0.45528
gfz2013qhwz   0.19209
gfz2013qidm   0.74468
gfz2013qjmk   1.24480
gfz2013qmer   0.63153
gfz2013qnxc   3.40000
gfz2013qpgd   0.29632
gfz2013qpqb   1.66880
gfz2013qrxy  -0.24152
gfz2013qvcr  -0.05197
gfz2013qwgb   0.01105
gfz2013qwin  -1.78440
gfz2013qzdq  -0.05828
gfz2013rait  -0.09782
gfz2013rdmo   0.09174
gfz2013rdoo  -1.66410
gfz2013reav  -2.39670
gfz2013rjgt   0.07544
gfz2013rjsx  -0.23359
gfz2013rluo  -0.11392
gfz2013roki   0.12195
gfz2013rotn   1.03240
gfz2013rqcy  -0.59246
gfz2013rqmp  -0.08795
gfz2013rsnr  -0.21838
gfz2013rsts   0.13028
gfz2013rvsm  -1.31050
gfz2013rwfe  -1.63600
gfz2013ryxm  -0.33648
gfz2013sart  -1.09160
gfz2013scai  -0.96191
gfz2013scub  -0.24490
gfz2013sdus   1.10740
gfz2013sebq  -1.46120
gfz2013sfds  -0.87190
gfz2013sfto  -0.00000
gfz2013shlq  -0.46817
gfz2013shzy  -0.21778
gfz2013skkm   0.35374
gfz2013sllq  -0.49042
gfz2013snbr   0.93463
gfz2013snyf   1.00210
gfz2013sqkb   0.26967
gfz2013stcu   0.76087
gfz2013suln  -0.37111
gfz2013suvn   0.09436
gfz2013svci   1.10020
gfz2013svqv  -0.15437
gfz2013sxbw   0.33801
gfz2013syqk  -0.23913
gfz2013tamc  -0.16173
gfz2013tbzy   0.57523
gfz2013tcxc   1.33920
gfz2013tcxq   2.03400
gfz2013tdkk   1.06170
gfz2013tect   1.17860
gfz2013thtc  -0.97497
gfz2013tjlx  -0.40491
gfz2013toea  -0.01636
gfz2013toxf   1.34850
gfz2013tqbb   0.03396
gfz2013ttoz  -0.01283
gfz2013tusd   1.44750
gfz2013tuzv   1.78290
gfz2013tvmw   0.71134
gfz2013uauo   0.87655
gfz2013ufxk  -0.21065
gfz2013ugax  -1.03390
gfz2013uhlm  -0.09992
gfz2013umya  -0.80084
gfz2013upcc  -0.14253
gfz2013upee  -0.30185
gfz2013upiv  -0.25552
gfz2013uqvu  -0.23358
gfz2013utsh  -0.05998
gfz2013uxej  -0.15122
gfz2013uysr   1.39220
gfz2013vcoa   0.22599
gfz2013vefs   0.77964
gfz2013vfzp   1.32860
gfz2013vgau   2.13180
gfz2013vgev  -0.77428
gfz2013vgrk  -0.13405
gfz2013vhsb   0.64350
gfz2013vhzu   0.25424
gfz2013vijl   1.03970
gfz2013viul   0.13771
gfz2013vjfe   0.83370
gfz2013vjjc   1.56330
gfz2013vlth   1.31990
gfz2013vmro  -1.78620
gfz2013vnfj  -0.71214
gfz2013vpnf  -0.08902
gfz2013vrmy   0.58855
gfz2013vsbl   0.38040
gfz2013vsxi   0.28853
gfz2013vuja   0.60357
gfz2013vvrq   1.55830
gfz2013vxta  -0.90705
gfz2013vzbo   0.94386
gfz2013wbyr  -0.01469
gfz2013wgeu   0.09804
gfz2013whts  -0.05824
gfz2013wjmm  -0.06248
gfz2013wnql   0.23478
gfz2013woze  -0.28266
gfz2013wpga  -0.30663
gfz2013wqhq   0.95137
gfz2013wrgw   0.13733
gfz2013wtzl   0.04636
gfz2013wuml   0.63782
gfz2013wuon  -0.39208
gfz2013wwec  -0.35013
gfz2013xatc   0.02492
gfz2013xcmp   0.40928
gfz2013xgek   0.05860
gfz2013xgmp   0.15960
gfz2013xizq   0.94675
gfz2013xkbh   1.52460
gfz2013xklb   0.41183
gfz2013xkwt   0.15573
gfz2013xmqg   0.12929
gfz2013xmul  -1.29400
gfz2013xpfa  -0.14591
gfz2013xpsm  -0.20937
gfz2013xqnn  -0.07810
gfz2013xsdt  -0.96377
gfz2013xtwj  -0.21159
gfz2013xvqd  -0.41537
gfz2013xvyl  -0.74220
gfz2013xwxn   0.32139
gfz2013xxcc   0.87456
gfz2013xxwv   0.74999
gfz2013xyzb   0.26599
gfz2013yaig   0.09689
gfz2013ydtm  -0.32530
gfz2013yewz   0.01481
gfz2013yhbu   0.48564
gfz2013yhpk   0.18023
gfz2013yixl   0.57090
gfz2013ylbx   0.18487
gfz2013ymky   0.95561
gfz2013ymxs  -0.34429
gfz2013ynmw   0.82520
gfz2013ypdc   1.17110
gfz2013yrmc  -0.15755
gfz2013yulx   0.41995
gfz2013yvqu   0.00907
gfz2013yzte  -0.15953
gfz2013zaxb   0.04242
gfz2013zmoc  -1.51290
gfz2013zmtb   0.29873
gfz2014adjs  -0.87501
gfz2014algk   0.67683
gfz2014alwz  -0.42832
gfz2014amsb  -0.40432
gfz2014ande   0.99147
gfz2014ared   1.10330
gfz2014arnc   0.62884
gfz2014arpf  -1.35280
gfz2014arqr  -3.30720
gfz2014arsr   0.48518
gfz2014atgw  -1.74790
gfz2014azqs  -0.56116
gfz2014bagd  -2.01700
gfz2014bazc  -0.01061
gfz2014bbro  -2.01670
gfz2014bcae   0.16698
gfz2014bdfd  -0.12301
gfz2014bezu  -0.16191
gfz2014bfng   0.66744
gfz2014bfqo  -0.74629
gfz2014bhhv   0.33326
gfz2014bhvd  -1.34820
gfz2014bjgt  -0.93057
gfz2014bjsy   0.06582
gfz2014bldx   0.06285
gfz2014bmdh   0.35803
gfz2014bmfa   0.10314
gfz2014bmfv   0.47768
gfz2014bmta   1.04580
gfz2014bolf   0.21752
gfz2014bqes  -0.19034
gfz2014bwue   0.34626
gfz2014bzna   0.44011
gfz2014bztt  -0.28827
gfz2014bzxy   0.90124
gfz2014caop   0.46805
gfz2014capn   0.69478
gfz2014ccbz  -0.26795
gfz2014cdwi  -0.14916
gfz2014cgog   0.33679
gfz2014chdv   0.05477
gfz2014citw   0.31273
gfz2014claq   1.92360
gfz2014clnj  -0.03573
gfz2014clnq   0.03193
gfz2014cmwb   3.20090
gfz2014cqyo   1.29310
gfz2014crpy   0.00970
gfz2014ctot   0.40385
gfz2014cueu   0.46668
gfz2014cvkm   1.69290
gfz2014cvxx   0.57088
gfz2014cxcj  -0.20155
gfz2014cybg  -0.17633
gfz2014czno  -0.15453
gfz2014czqi   0.57009
gfz2014czua   1.59520
gfz2014dbdf   0.01112
gfz2014dbyx   0.05736
gfz2014dcdy   0.53565
gfz2014dddc   0.85810
gfz2014dffd   0.40215
gfz2014dgiy   0.25837
gfz2014disp  -0.76625
gfz2014dlri  -0.18458
gfz2014dofa   1.05550
gfz2014dpzx  -1.65600
gfz2014duqn  -1.02990
gfz2014dwls   0.18630
gfz2014dwsy   0.64271
gfz2014eage  -0.42494
gfz2014ebmc  -1.40310
gfz2014edfx  -0.36185
gfz2014efkk  -1.04170
gfz2014efsd  -0.15697
gfz2014eght   0.20308
gfz2014egwu   0.26724
gfz2014ehfp  -0.11945
gfz2014ejvf  -0.03792
gfz2014ekdt   0.96610
gfz2014emrg  -0.19759
gfz2014emzb   0.90537
gfz2014eqpl   0.00000
gfz2014eqss   0.12257
gfz2014erbj   0.12825
gfz2014ettc  -2.35610
gfz2014ewcz   0.08445
gfz2014ewrw   0.34962
gfz2014exmv   0.20081
gfz2014exxa  -0.81468
gfz2014fcms   3.58610
gfz2014fcsy   0.53139
gfz2014fedd   2.18700
gfz2014fexu  -0.07180
gfz2014ffdc  -0.57378
gfz2014fgkb  -0.13432
gfz2014fgvi   0.50832
gfz2014fgvr   1.08390
gfz2014fgvz  -1.73040
gfz2014fgwt  -0.41890
gfz2014fgxt  -0.37110
gfz2014fgxz  -0.60495
gfz2014fgyo  -0.05919
gfz2014fgza  -0.61396
gfz2014fhbd  -0.60099
gfz2014fhdw   0.04387
gfz2014fhgb  -0.13445
gfz2014fhhp  -0.59069
gfz2014fhjd   1.16250
gfz2014fhkp  -0.34136
gfz2014fhla   0.09351
gfz2014fhlh  -0.91054
gfz2014fhmb  -0.12005
gfz2014fhoe   0.12564
gfz2014fhpf  -1.32750
gfz2014fhqk  -0.59103
gfz2014fhrq  -0.00000
gfz2014fhsg  -0.30246
gfz2014fhxm  -0.32283
gfz2014fhyb  -0.54877
gfz2014fimn  -0.56606
gfz2014fiuj  -1.36260
gfz2014fiwq  -0.40030
gfz2014fjpb  -0.41402
gfz2014fjxd  -0.38530
gfz2014fjyo  -0.07334
gfz2014fjzd  -0.44335
gfz2014fjzw  -0.21765
gfz2014fkmr  -0.20903
gfz2014fkmx  -0.06983
gfz2014fles  -0.58449
gfz2014flfa   0.02935
gfz2014fmai   0.24447
gfz2014fnbh  -0.06102
gfz2014fnyg  -1.10060
gfz2014foty   1.39250
gfz2014fqpz   0.42752
gfz2014frdz   0.74670
gfz2014frel  -2.06830
gfz2014frfl  -0.05202
gfz2014frfw   0.10898
gfz2014frgm  -0.48304
gfz2014frjr  -0.12975
gfz2014frme  -0.75230
gfz2014frnb   0.04645
gfz2014frwh   0.04267
gfz2014fstx  -0.37300
gfz2014fsuh  -0.32878
gfz2014fszc  -0.52902
gfz2014ftgx  -0.11144
gfz2014ftka   0.17469
gfz2014ftno  -0.45518
gfz2014ftoc   0.29142
gfz2014ftpw   0.01976
gfz2014ftvc   0.48285
gfz2014furx   0.14370
gfz2014fusc   0.25649
gfz2014fusj   0.53216
gfz2014fusu  -0.83569
gfz2014fuup  -0.30996
gfz2014fuvk  -0.82491
gfz2014fuzi  -0.01756
gfz2014fvdx   0.36422
gfz2014fvgh   0.26938
gfz2014fvhp  -0.32754
gfz2014fvpy  -0.22362
gfz2014fvrg   0.73733
gfz2014fvve   0.43422
gfz2014fwdr  -0.16263
gfz2014fwtt   0.98585
gfz2014fwyr  -0.80540
gfz2014fxpu  -0.04192
gfz2014fyfr  -0.27528
gfz2014fzgx  -0.59328
gfz2014gbcz  -0.83300
gfz2014gbdq   0.45173
gfz2014gbjf  -0.41011
gfz2014gcza  -0.13539
gfz2014gdsq  -0.39273
gfz2014gesb  -0.09847
gfz2014geuy  -0.16776
gfz2014gezs   0.20188
gfz2014gfdj  -0.14055
gfz2014gfhf   0.15895
gfz2014ggnq  -0.02713
gfz2014ggpd   0.94720
gfz2014ggsr   0.95184
gfz2014ghoq  -0.09071
gfz2014ghpe  -1.84360
gfz2014gilf  -0.01313
gfz2014gkgf   0.31616
gfz2014gkgl   0.08744
gfz2014gkhp  -1.99350
gfz2014gkjl   0.08965
gfz2014gkjt   0.23603
gfz2014gkjw   0.08262
gfz2014gkjy   0.01250
gfz2014gkln   0.18468
gfz2014gklq  -0.34077
gfz2014gklv   0.25386
gfz2014gkmm   1.00220
gfz2014gkob   0.03932
gfz2014gkpd  -0.18290
gfz2014gkpj   0.04216
gfz2014gkqf   1.01680
gfz2014gkqu   0.70763
gfz2014gkrl   0.24866
gfz2014gkrz  -0.40042
gfz2014gksj   0.06054
gfz2014gksu   0.01989
gfz2014gktn   0.27804
gfz2014gktq   0.68626
gfz2014gkut  -1.21330
gfz2014gkvk   0.07276
gfz2014gkxi  -0.15548
gfz2014gkxm  -0.04835
gfz2014glcu   0.51309
gfz2014glcy   0.20566
gfz2014glfn  -0.71428
gfz2014glgo  -3.05230
gfz2014glhs  -0.71912
gfz2014glov  -0.21858
gfz2014glsh  -0.03376
gfz2014gltj  -0.26963
gfz2014gltx   0.44635
gfz2014glvn   0.79850
gfz2014glvu  -0.34856
gfz2014glxd  -0.46826
gfz2014glxy  -0.21484
gfz2014gmci   0.25112
gfz2014gmes  -0.24953
gfz2014gmge   0.62546
gfz2014gmhp   0.10047
gfz2014gmhr   0.84174
gfz2014gmic   0.34227
gfz2014gmjo   0.21382
gfz2014gmjz  -0.18291
gfz2014gmku   0.17315
gfz2014gmlz   0.15814
gfz2014gmmt  -0.08502
gfz2014gmnb   0.32273
gfz2014gmnw   0.81922
gfz2014gmor  -1.00100
gfz2014gmqw   0.01151
gfz2014gmtb   0.13503
gfz2014gmtj  -0.36033
gfz2014gmto   0.21226
gfz2014gmvr  -0.15187
gfz2014gmzl   0.40690
gfz2014gmzs   0.24052
gfz2014gndq  -0.18672
gfz2014gnfd  -0.26938
gfz2014gnfs  -0.31700
gfz2014gngg   0.03670
gfz2014gnhk  -0.09683
gfz2014gnig   0.11467
gfz2014gnmp   0.47864
gfz2014gnmx  -0.19994
gfz2014gnno  -0.44963
gfz2014gnnt   0.26057
gfz2014gnom  -0.09252
gfz2014gnoz  -0.18441
gfz2014gnqt   0.22974
gfz2014gnsi  -0.17213
gfz2014gnvw  -0.07151
gfz2014gnwg  -0.57782
gfz2014gnxb  -0.02411
gfz2014goba   0.87732
gfz2014goei  -0.08914
gfz2014gogv  -0.07179
gfz2014gohm  -0.24998
gfz2014golz  -0.24539
gfz2014gono   0.06468
gfz2014goqw   0.32964
gfz2014gpac   0.14974
gfz2014gpam   1.02820
gfz2014gpbx  -0.07999
gfz2014gpce   0.20759
gfz2014gpdo  -0.05983
gfz2014gpgd  -0.01723
gfz2014gphr  -0.16095
gfz2014gpmm   0.11704
gfz2014gpnf  -0.80047
gfz2014gpqq   0.20284
gfz2014gpuk   0.33515
gfz2014gpvk  -0.07633
gfz2014gpxl  -0.20470
gfz2014gpxv   0.01148
gfz2014gqbj   0.44501
gfz2014gqco  -0.27095
gfz2014gqed   0.02643
gfz2014gqer  -0.47945
gfz2014gqgf  -0.32573
gfz2014gqhe   0.04625
gfz2014gqiy  -0.33332
gfz2014gqjr   0.85060
gfz2014gqqz  -0.53396
gfz2014gqro  -0.88714
gfz2014gqup   0.07388
gfz2014gqve   0.14100
gfz2014grcv   0.78708
gfz2014grfp  -0.15316
gfz2014grgn  -0.49648
gfz2014grho  -1.02990
gfz2014gsdw   0.30518
gfz2014gsgv  -0.03435
gfz2014gsjg  -0.32599
gfz2014gsqs  -0.10487
gfz2014gtef  -1.61300
gfz2014gtlu   0.70699
gfz2014gtrb   0.01608
gfz2014gtwz   0.09853
gfz2014gufl   0.22418
gfz2014gull  -0.02431
gfz2014gulp  -0.05793
gfz2014gumd  -0.10504
gfz2014gutm  -0.98585
gfz2014gvhw  -0.00000
gfz2014gvqj   0.15808
gfz2014gvrd   0.44763
gfz2014gwab   0.68504
gfz2014gwap   0.00000
gfz2014gwqj   0.26403
gfz2014gxag   0.18619
gfz2014gxkh   0.15015
gfz2014gxqf   0.15931
gfz2014gxqu  -0.03442
gfz2014gxqx   0.08644
gfz2014gxvf   0.21504
gfz2014gxxh  -0.01402
gfz2014gxxo   0.22232
gfz2014gyxd  -0.29301
gfz2014gzrm  -0.51071
gfz2014gzue  -0.35597
gfz2014haey  -0.37716
gfz2014hagb  -0.05255
gfz2014haos  -0.16497
gfz2014hasj   0.12807
gfz2014hauo   3.21250
gfz2014hbjm  -0.11738
gfz2014hbjz  -0.14785
gfz2014hcmj   0.73738
gfz2014hcns   0.27160
gfz2014hetr  -0.93617
gfz2014heum   0.07264
gfz2014heyq   0.26399
gfz2014hfad  -0.32937
gfz2014hfhl   0.64828
gfz2014hfzf  -0.48657
gfz2014hgqo   0.25304
gfz2014hhfs  -0.53878
gfz2014hhwx  -0.15845
gfz2014hifp   0.19476
gfz2014hiih   0.20151
gfz2014hiiz  -1.07170
gfz2014hjgh   0.16602
gfz2014hjgo  -0.16351
gfz2014hjgr   0.27422
gfz2014hjhu  -0.45673
gfz2014hjij   0.07595
gfz2014hjkp  -0.32901
gfz2014hjlx   0.06547
gfz2014hkcf   0.42184
gfz2014hkck  -0.28454
gfz2014hlib   0.29480
gfz2014hmgf  -0.25938
gfz2014hmrs   0.70532
gfz2014hmvx  -0.30494
gfz2014hmzg  -0.20860
gfz2014hnfm  -0.52003
gfz2014hoap  -0.25463
gfz2014hocg   0.24753
gfz2014hodc   0.01898
gfz2014hokj  -0.28257
gfz2014hphw  -0.28887
gfz2014hpqz  -0.96338
gfz2014hqxs   0.31318
gfz2014hqyx  -0.11495
gfz2014hriu   0.14046
gfz2014hrtn   0.19844
gfz2014hsqo  -0.21839
gfz2014hssr  -0.06237
gfz2014hszs  -0.08964
gfz2014htbf   0.11351
gfz2014huaj   1.26680
gfz2014hugz  -0.28294
gfz2014hvdm   0.24231
gfz2014hwan  -0.26790
gfz2014hwsy  -0.20123
gfz2014hwwi  -0.42434
gfz2014hxcl   0.56602
gfz2014hxev   0.08355
gfz2014hyal  -0.28374
gfz2014hymr   0.49264
gfz2014hyvq   0.27155
gfz2014hzdy   0.56189
gfz2014hzfr   0.13311
gfz2014hzfw   0.05032
gfz2014hzgn   0.08090
gfz2014hzht  -0.11065
gfz2014hzig  -0.23582
gfz2014hzze   0.73043
gfz2014iani  -0.18590
gfz2014iazy  -0.78315
gfz2014ieam   0.41136
gfz2014iege  -0.16876
gfz2014ieho   0.01520
gfz2014ifue  -0.11094
gfz2014ifzj  -0.13846
gfz2014igsj   0.10322
gfz2014igur  -0.10039
gfz2014ijvh  -0.76370
gfz2014ikbk  -0.09499
gfz2014ikvd  -0.10366
gfz2014ilwu   0.31212
gfz2014imap   1.67020
gfz2014immt  -0.19326
gfz2014imnn   0.03639
gfz2014inbj   0.15588
gfz2014iobd   0.22486
gfz2014iqzj  -2.70360
gfz2014irci   0.03289
gfz2014ircq  -0.16191
gfz2014irrg   0.00000
gfz2014isdq   0.05932
gfz2014isff  -0.14054
gfz2014issk  -0.63985
gfz2014isub  -0.16591
gfz2014isys  -1.14440
gfz2014itab  -0.07649
gfz2014itbe   0.06259
gfz2014itbu  -0.04109
gfz2014itfc  -0.19574
gfz2014itgh   0.13525
gfz2014itjx   1.50660
gfz2014itkw   0.52783
gfz2014itpj   0.09156
gfz2014iuhq  -0.05384
gfz2014iwnf  -0.88072
gfz2014iwwl   0.12484
gfz2014ixga  -0.12337
gfz2014ixky   0.46866
gfz2014iywt   0.33247
gfz2014jagg   0.07982
gfz2014jass  -0.02777
gfz2014jatq  -1.15330
gfz2014jbyg  -0.03680
gfz2014jcmt   0.21980
gfz2014jdoy  -0.86493
gfz2014jdxj  -0.33114
gfz2014jesb  -0.06717
gfz2014jfis   0.25146
gfz2014jggm  -0.13774
gfz2014jhra   1.39290
gfz2014jird  -0.19650
gfz2014jjhc   1.02200
gfz2014jjkh   0.31105
gfz2014jjln   0.52291
gfz2014jjqk   0.62895
gfz2014jmnk   0.65081
gfz2014jmsy   0.22718
gfz2014jnea   0.37571
gfz2014jnfy  -0.14835
gfz2014jnyv  -0.17884
gfz2014joak   0.54981
gfz2014jomw   0.28485
gfz2014jozl  -0.15437
gfz2014jpep   0.42184
gfz2014jpez  -0.14690
gfz2014jpgu  -0.17304
gfz2014jpxs  -0.42112
gfz2014jtfe  -0.19681
gfz2014jvow   0.67480
gfz2014jwmh  -0.26771
gfz2014kara  -1.78630
gfz2014kblw  -0.04511
gfz2014kbuk  -0.01995
gfz2014kbwm   0.56113
gfz2014khan   0.10288
gfz2014kitm  -0.07001
gfz2014kizt  -0.01904
gfz2014kjee   0.97677
gfz2014kjzb  -0.52239
gfz2014kkhh   0.06910
gfz2014kmmt   1.25490
gfz2014kndc   1.05370
gfz2014knxs   2.06100
gfz2014krlg   0.21880
gfz2014kscf   0.61167
gfz2014ksmz   0.51335
gfz2014kssw   0.13163
gfz2014kwie  -0.18524
gfz2014kwrg   0.07098
gfz2014kwwg  -0.06118
gfz2014kxqf  -0.05372
gfz2014kyan   0.00000
gfz2014kyhe   1.24970
gfz2014kytf   0.13871
gfz2014lbcq   0.59758
gfz2014lbxn  -0.95952
gfz2014lchy  -0.02716
gfz2014lddn  -0.20667
gfz2014lefs   0.80937
gfz2014lehw  -0.02548
gfz2014lgqn   0.72267
gfz2014lhqn   0.66868
gfz2014ljbr   0.28205
gfz2014lnmw   0.27852
gfz2014lnqy   0.46700
gfz2014lpfc  -0.72430
gfz2014lpim  -1.82840
gfz2014lrzx  -0.77302
gfz2014lvgn  -0.48325
gfz2014lwom   0.35647
gfz2014lwsw  -0.02460
gfz2014lwvb   0.01802
gfz2014lxnc   0.56782
gfz2014lxqr  -0.34018
gfz2014lyhk   0.77339
gfz2014lyhp   0.86871
gfz2014lzal  -0.08990
gfz2014lzow  -0.06462
gfz2014macx   0.68229
gfz2014madw   0.21557
gfz2014mawp  -0.06730
gfz2014mcno  -0.96787
gfz2014mcse   0.19684
gfz2014mlqw   0.85847
gfz2014mlrr   0.03952
gfz2014mmbu  -0.04166
gfz2014mmtb   2.45870
gfz2014moaw  -0.11155
gfz2014mogb   0.33116
gfz2014mrbm  -0.10851
gfz2014mtum   0.62582
gfz2014muzd   0.63931
gfz2014mvza  -0.04485
gfz2014mwnj  -0.36998
gfz2014mwor   0.76996
gfz2014mxkr   1.03490
gfz2014myqz   0.56638
gfz2014nafd  -0.05537
gfz2014navw  -0.13283
gfz2014ncub   0.67586
gfz2014ndue   1.12740
gfz2014ngsk   0.58231
gfz2014ngvt   0.55159
gfz2014nhyb   0.29034
gfz2014niqj   0.70114
gfz2014nkdx  -0.80370
gfz2014nnih  -0.51953
gfz2014nnxd   0.82115
gfz2014nowp   1.29470
gfz2014npdk   0.08946
gfz2014npeo  -0.89612
gfz2014nphm  -0.87420
gfz2014npnn   1.48570
gfz2014nqbs  -0.88388
gfz2014nqfm   0.96773
gfz2014nqpk   0.12997
gfz2014nrie   0.44942
gfz2014ntdh   0.09543
gfz2014nvdi   1.85660
gfz2014nvxd  -0.14701
gfz2014nyeh   0.23942
gfz2014nyko  -0.62740
gfz2014nylm   0.16113
gfz2014obbs   0.09213
gfz2014odgv  -0.53966
gfz2014ofhm   0.85283
gfz2014oghp   0.91300
gfz2014oims   0.28512
gfz2014oinz   0.62133
gfz2014ojdg   0.42314
gfz2014okec  -0.10704
gfz2014okxu   0.17022
gfz2014omyn  -2.70050
gfz2014oned   0.52994
gfz2014ooaa   0.54137
gfz2014opqr   0.70226
gfz2014oqhw  -0.05869
gfz2014orgz   0.02766
gfz2014orxs  -0.13114
gfz2014oryw   0.52509
gfz2014osvx  -0.28767
gfz2014osvz   1.20890
gfz2014owii   0.41181
gfz2014owur   0.48404
gfz2014owxc   1.65820
gfz2014oyly   0.63863
gfz2014ozmj   0.15230
gfz2014pghi  -0.67530
gfz2014pjer  -0.27899
gfz2014pjum   0.46012
gfz2014pmxt   0.20953
gfz2014pngj  -0.12172
gfz2014ppyi   1.29770
gfz2014ppzf   0.16178
gfz2014pqqp  -0.75275
gfz2014prdm  -0.05302
gfz2014pvch   4.27000
gfz2014pxbu  -0.18904
gfz2014pzml   0.14336
gfz2014pzni   0.20433
gfz2014qbzi  -1.01190
gfz2014qcxs  -0.32882
gfz2014qfzq  -0.27273
gfz2014qifa   0.41242
gfz2014qjfl   0.92900
gfz2014qjgp   1.14390
gfz2014qlvc  -1.01570
gfz2014qlxd   1.41420
gfz2014qngj   0.83020
gfz2014qqfg  -0.24691
gfz2014qqhm   0.48689
gfz2014qsby   0.51239
gfz2014qtwv   0.69130
gfz2014raau   2.71600
gfz2014rbpx   0.15814
gfz2014rbsl  -1.79480
gfz2014rdoz   0.13666
gfz2014rfeb  -0.29027
gfz2014rffv   0.06897
gfz2014rhju  -0.96153
gfz2014rhnz   0.00000
gfz2014rhwq  -0.21382
gfz2014riel   0.01430
gfz2014rils  -0.89679
gfz2014rnrn   0.61628
gfz2014roba   0.05860
gfz2014romy  -0.39050
gfz2014royq   0.21583
gfz2014rucz   0.09817
gfz2014ryfb   0.54842
gfz2014shid   0.19824
gfz2014sjqw  -0.13730
gfz2014sryn  -0.36546
gfz2014ssds  -0.45732
gfz2014ssmv   0.27676
gfz2014ssvz   0.29979
gfz2014swgt   0.05422
gfz2014tabg  -0.08923
gfz2014tfgn   0.17067
gfz2014tgcw  -0.05958
gfz2014thrw  -0.20341
gfz2014tovs  -0.12297
gfz2014tqdo   2.56960
gfz2014tqly  -0.03217
gfz2014tqsf   0.23583
gfz2014tqth   0.08461
gfz2014tzsd   0.18401
gfz2014uapa  -0.10458
gfz2014ubyq  -0.45387
gfz2014uohh  -0.42962
gfz2014uxyg   0.78473
gfz2014uyrq   0.00821
gfz2014uzaw   0.07729
gfz2014vcev   0.04040
gfz2014vdnh  -0.07964
gfz2014veit   1.93230
gfz2014vhld   0.83589
gfz2014vhms   0.63596
gfz2014vhuy   0.30977
gfz2014vivo  -0.27667
gfz2014vjoh   0.12572
gfz2014vnxu  -0.04064
gfz2014vpus   0.83245
gfz2014vqqa   0.17437
gfz2014waoo  -2.66300
gfz2014watn   1.12780
gfz2014wqcp   0.04409
gfz2014wrkh   0.15421
gfz2014wsjh   0.23691
gfz2014wwib   0.13411
gfz2014xaxx   0.13202
gfz2014xhkc  -0.74189
gfz2014xhwk  -0.33746
gfz2014xjri   0.18161
gfz2014xkdg   0.12013
gfz2014xmnp   0.39395
gfz2014xoji  -0.05297
gfz2014xqby   0.12252
gfz2014xqqd   0.52310
gfz2014yazi  -0.51230
gfz2014yhhm  -0.19246
gfz2014ynhc   0.35938
gfz2014ynzy   0.54428
gfz2014yppv  -0.11353
gfz2014yrug  -0.18137
gfz2014yyiy   0.31177
gfz2014zcgo  -0.21123
gfz2014zdtl   0.11463
gfz2014zkys  -0.03100
gfz2014zlgp   0.42702
gfz2014zplq  -0.20559
gfz2015aide   0.01308
gfz2015ansu  -0.03846
gfz2015apnk   0.55426
gfz2015aqbq   1.71430
gfz2015arpd  -0.24986
gfz2015aruz   0.81387
gfz2015aush  -0.35091
gfz2015bavu  -0.97772
gfz2015bdyd  -0.15150
gfz2015berb   0.73224
gfz2015bfjm   1.11520
gfz2015bfzt  -0.42110
