# Nsamples: 182  MAD:  1.572  mean: -1.118  variance:  4.690
gfz2012mkpn  -3.11800
gfz2012naqz   1.04440
gfz2012nedn  -3.49570
gfz2012oedb  -0.94402
gfz2012pazr   0.19960
gfz2012pkel  -5.07110
gfz2012qtgs  -3.63570
gfz2012quso   0.05304
gfz2012rats  -0.52964
gfz2012rboy  -0.12228
gfz2012rknn  -3.01220
gfz2012royy  -0.63772
gfz2012rwql   6.88720
gfz2012sphd  -2.39780
gfz2012ttoa  -1.17510
gfz2012wklq  -2.80560
gfz2012wrir  -1.92160
gfz2012wvfl  -0.31003
gfz2012wypz  -1.48680
gfz2012xbjq  -0.69802
gfz2012xeul  -0.15769
gfz2012xyua  -0.46532
gfz2012yfrp  -1.26800
gfz2012ziml   0.38532
gfz2012zitl   0.70828
gfz2012zjpv   3.59330
gfz2013apmm   2.86520
gfz2013bnxc   0.05937
gfz2013bouj   0.59747
gfz2013drxz  -3.03880
gfz2013fnzr   0.96606
gfz2013fwxa  -1.62250
gfz2013gihf  -0.70671
gfz2013gock  -0.70241
gfz2013hkja   1.29200
gfz2013huwr  -1.05100
gfz2013iayx  -0.29429
gfz2013idbb  -0.08474
gfz2013iexo   1.37010
gfz2013ifpq  -1.18180
gfz2013ikgo  -3.95020
gfz2013inux   1.12240
gfz2013iqzq   1.44270
gfz2013iunn   0.35406
gfz2013jgip  -1.27160
gfz2013jkut  -0.29072
gfz2013jusj  -0.35858
gfz2013kdeo   0.91475
gfz2013kheb  -3.26960
gfz2013kwps   1.45540
gfz2013ldqb  -2.10430
gfz2013lixa  -1.02570
gfz2013mqik  -1.19820
gfz2013mqmv   0.99684
gfz2014duqn  -1.14150
gfz2014eght  -1.69460
gfz2014ejvf  -0.14646
gfz2014ekcr  -1.85200
gfz2014eqpl  -0.53993
gfz2014fnyg  -0.35522
gfz2014ftka  -0.03658
gfz2014gbcz  -4.51120
gfz2014gltx   2.78050
gfz2014gmge  -1.02190
gfz2014gmhr   0.58684
gfz2014gmic  -0.30936
gfz2014gmip   0.41224
gfz2014gmjo   2.13780
gfz2014gmku   1.87920
gfz2014gmlz   0.75596
gfz2014gmnb   0.57283
gfz2014gmnw   0.52805
gfz2014gmuw   0.42405
gfz2014gnxb   0.79997
gfz2014goba  -1.16190
gfz2014gogv   0.49483
gfz2014gpya  -2.35210
gfz2014gqbj   0.58167
gfz2014gqer   0.58970
gfz2014gqjr  -0.46970
gfz2014gqve   0.86949
gfz2014gsqs   1.01210
gfz2014gull   0.13582
gfz2014gumd   1.59690
gfz2014gvrd   1.42670
gfz2014gwab  -0.89787
gfz2014kmmt  -0.92161
gfz2014kndc  -0.93656
gfz2014knks  -2.00550
gfz2015ansu  -1.70960
gfz2015arpd  -0.45314
gfz2015aruz   0.50668
gfz2015bavu  -0.71497
gfz2015bdyd  -0.86145
gfz2015berb  -2.01920
gfz2015bfzt   0.79830
gfz2015bkbj   0.97410
gfz2015bphe  -0.66753
gfz2015bsnl  -1.38990
gfz2015bucr   0.09312
gfz2015bvsj  -0.10055
gfz2015byfn  -2.37930
gfz2015byjd   0.08898
gfz2015cewd   0.82116
gfz2015cxxk  -3.06340
gfz2015cyjd  -2.03230
gfz2015dskr   1.79240
gfz2015dtqr   0.96099
gfz2015dvbn  -1.66140
gfz2015ecgq   0.14047
gfz2015eiky  -1.19970
gfz2015elgy  -1.11600
gfz2015emin  -1.34790
gfz2015enth  -0.77447
gfz2015fbbk  -1.53700
gfz2015fbew   0.98972
gfz2015fdpr  -0.71903
gfz2015fkgt  -4.15070
gfz2015fkuu   0.34444
gfz2015flis  -3.53180
gfz2015fsjj  -3.02670
gfz2015gckd  -1.41340
gfz2015gkwa   3.14040
gfz2015guhd  -2.27660
gfz2015gzja   0.30050
gfz2015hepg  -2.21650
gfz2015hgbk   0.50489
gfz2015hlfq  -1.28210
gfz2015hvgs   0.14021
gfz2015idho  -0.22517
gfz2015igsy  -0.95639
gfz2015ijmh  -0.32235
gfz2015ixyy  -3.56340
gfz2015jpap  -0.39199
gfz2015kcaa  -0.92966
gfz2015kfsu  -0.52808
gfz2015kkqb  -1.76980
gfz2015lcma   0.82138
gfz2015lfud  -1.61510
gfz2015lhjq  -0.82349
gfz2015lhjy  -0.32046
gfz2015lytv  -8.82280
gfz2015lzad  -2.68310
gfz2015mddr  -0.28228
gfz2015mvzk  -1.07380
gfz2015nwug  -8.30180
gfz2015othd  -1.78220
gfz2015pjgr  -1.57240
gfz2015prlr  -1.55450
gfz2015puah  -1.32240
gfz2015puqp  -1.96000
gfz2015qnho  -3.65210
gfz2015rddx  -1.07340
gfz2015rgrg  -0.72917
gfz2015rkbq  -0.29104
gfz2015rkrg  -3.17090
gfz2015rkzg  -2.19970
gfz2015rxmg  -1.75150
gfz2015sfdd  -5.15330
gfz2015sfdy  -4.14030
gfz2015sfln  -1.65860
gfz2015sfqo  -1.44460
gfz2015sjgk  -3.67330
gfz2015sjjb  -5.70320
gfz2015sjne  -4.77640
gfz2015smym  -6.30750
gfz2015snwh  -5.62980
gfz2015snyd  -0.57786
gfz2015soat  -5.17190
gfz2015soxc  -7.54500
gfz2015sqmy  -0.10085
gfz2015ssoe  -1.58720
gfz2015stfy  -1.90570
gfz2015subz  -1.68360
gfz2015svwm  -4.97240
gfz2015taml  -1.84440
gfz2015teyc  -1.44990
gfz2015thgp  -4.41060
gfz2015tiyc  -7.74480
gfz2015tjys  -0.81213
gfz2015tkol  -4.12240
gfz2015tnjd  -6.28810
