# Nsamples: 506  MAD:  1.393  mean: -0.293  variance:  2.305
gfz2012ostk   1.73630
gfz2012oycg  -2.24540
gfz2012pazr  -0.04225
gfz2012pciw  -2.06170
gfz2012peex   0.63570
gfz2012pofl  -0.16167
gfz2012poju   0.53200
gfz2012pqmk   0.02568
gfz2012priv   1.44760
gfz2012prlt  -0.48822
gfz2012pspd   0.04578
gfz2012qouy  -1.04910
gfz2012qqqp   1.34080
gfz2012qqxg  -0.11004
gfz2012qtgs   0.47000
gfz2012qurq   1.35530
gfz2012quso  -0.55216
gfz2012qxcy   0.04897
gfz2012rats  -1.72410
gfz2012rboy  -0.58502
gfz2012rcds   0.09145
gfz2012repv  -1.74060
gfz2012rknn  -0.15517
gfz2012royy  -1.22730
gfz2012rqlg  -0.80395
gfz2012rtqi  -0.68638
gfz2012rubi   0.72029
gfz2012ruks   0.99234
gfz2012rwov  -2.68400
gfz2012rwql  -0.60513
gfz2012rypu  -3.62170
gfz2012shtg   0.34856
gfz2012sjea  -1.72430
gfz2012spbj  -1.22510
gfz2012sphd  -1.17300
gfz2012szla  -0.26194
gfz2012taou  -0.52687
gfz2012tazz  -1.80690
gfz2012tbbp  -2.93670
gfz2012teic  -2.54080
gfz2012thfx  -0.85935
gfz2012tpzx   0.01560
gfz2012ttoa  -1.18820
gfz2012tzcc  -1.06050
gfz2012tzgb  -0.19798
gfz2012uciv  -1.87650
gfz2012ueqo  -0.25922
gfz2012ufew  -0.53350
gfz2012uqzp  -0.58541
gfz2012usba  -0.87151
gfz2012uvqf  -0.43749
gfz2012uxnz  -2.30060
gfz2012uyie  -0.54572
gfz2012uyxb  -3.44580
gfz2012vceo  -1.02870
gfz2012vnbk   1.03910
gfz2012vntz  -0.24362
gfz2012vpza  -1.49940
gfz2012vrua  -0.12603
gfz2012vsev  -0.01277
gfz2012vtif   0.16583
gfz2012vtxe   0.34942
gfz2012wajj  -1.18520
gfz2012wdyx  -1.21140
gfz2012wecd   0.50924
gfz2012whku  -1.05220
gfz2012wklq  -2.05630
gfz2012wmkd   6.07490
gfz2012wmsg  -1.54600
gfz2012wpeq  -1.61660
gfz2012wqnc  -1.33920
gfz2012wrir  -0.49376
gfz2012wtkr   0.56890
gfz2012wvfl   0.12169
gfz2012wxer   0.23254
gfz2012wxlg  -1.21370
gfz2012wxnu  -2.86410
gfz2012wybs   2.14310
gfz2012wypz  -1.90280
gfz2012xbjq  -1.37750
gfz2012xeul  -0.85416
gfz2012xevt  -0.10039
gfz2012xjyv  -1.90790
gfz2012xkkv  -0.81882
gfz2012xmxy   0.40276
gfz2012xslk   1.57200
gfz2012xyqp   0.05057
gfz2012xyua  -1.70250
gfz2012yfrp  -1.51320
gfz2012yoie   0.31725
gfz2012yxxu  -0.35600
gfz2012zemh   0.50639
gfz2012zfag  -0.61534
gfz2012zhmb   0.01301
gfz2012ziml  -0.15741
gfz2012zitl  -2.83840
gfz2012zjpv  -3.46020
gfz2012zjre   0.18503
gfz2012zklq  -2.23300
gfz2012zmbp   0.45557
gfz2013aayj  -1.74950
gfz2013acag  -0.08062
gfz2013adey  -0.29176
gfz2013apmm  -2.40100
gfz2013axoj  -1.15080
gfz2013azzr  -3.46880
gfz2013biji   1.47150
gfz2013bnxc  -0.09211
gfz2013bouj  -1.22620
gfz2013cbsm  -0.11033
gfz2013ccnr  -1.43350
gfz2013cdan  -0.87640
gfz2013cfyy  -0.87119
gfz2013cgou   1.25060
gfz2013cnhh  -1.94160
gfz2013cnms   0.64521
gfz2013cvad  -0.73755
gfz2013cwpn  -0.18488
gfz2013czeq  -0.10683
gfz2013ddbh  -0.58621
gfz2013dddp   0.91950
gfz2013dkly  -1.85220
gfz2013dkmz  -0.07820
gfz2013dkym   0.90625
gfz2013dnnx  -0.07476
gfz2013dofo  -2.11380
gfz2013dojq  -0.28191
gfz2013drpk  -1.06690
gfz2013drxz  -3.75570
gfz2013dsog   2.21160
gfz2013dspt  -1.22770
gfz2013dsrk  -1.99560
gfz2013dvye  -1.53090
gfz2013dvyh  -2.29350
gfz2013egni  -1.64380
gfz2013egpu  -1.19790
gfz2013ekpm   0.75328
gfz2013enbx  -2.74080
gfz2013esnh  -1.52850
gfz2013eswe   1.42030
gfz2013eulz  -0.34565
gfz2013ewbo  -1.45550
gfz2013fepm  -0.24300
gfz2013ffko  -0.58799
gfz2013figy  -2.25330
gfz2013fiud   0.86396
gfz2013fkii   1.62820
gfz2013flox  -0.36524
gfz2013ftso  -0.01284
gfz2013fwxa  -2.10480
gfz2013fygc   0.60135
gfz2013gbst  -0.83662
gfz2013gdnq  -1.91840
gfz2013geia   1.26130
gfz2013ggtf   0.04543
gfz2013gihf   0.70597
gfz2013gjdc   2.73450
gfz2013gmor   0.48450
gfz2013gngz   3.55820
gfz2013gock  -0.29016
gfz2013gwrd   1.00130
gfz2013hbkh   0.73006
gfz2013hkja  -1.14510
gfz2013hlbe   1.63310
gfz2013hmbc  -0.12742
gfz2013hpfq   0.56571
gfz2013hsfw  -0.61003
gfz2013huwr  -0.65008
gfz2013iayx  -0.29956
gfz2013icfh   0.42650
gfz2013idbb   0.42422
gfz2013iexo   0.90514
gfz2013ifpq  -0.70050
gfz2013ijsr  -1.80580
gfz2013ikgo  -1.18650
gfz2013ilug  -2.15760
gfz2013inux   1.58660
gfz2013iodt  -0.37655
gfz2013iunn  -3.62460
gfz2013jarl  -0.19184
gfz2013jdrx  -0.63369
gfz2013jesk   0.70537
gfz2013jgij   0.15104
gfz2013jgip  -0.49740
gfz2013jjsi  -1.48510
gfz2013jkut   0.49538
gfz2013jlst   2.74490
gfz2013jokw  -2.55980
gfz2013json   0.13672
gfz2013jusj  -0.05323
gfz2013jxoi   0.23048
gfz2013kccc   1.41230
gfz2013kdeo   0.86838
gfz2013kheb  -0.26808
gfz2013kqln   0.11896
gfz2013mded   2.37210
gfz2013mmlw  -0.04294
gfz2013mmwq  -2.64380
gfz2013mnju  -1.11230
gfz2013mqik  -1.13330
gfz2013mqmv   0.92570
gfz2013mwbh  -2.69360
gfz2013oqsc  -0.91455
gfz2013orjg   1.63200
gfz2013ornz   0.31730
gfz2013orzn  -1.34740
gfz2013ouvt   1.53840
gfz2013ozku   1.35670
gfz2013oznn   2.65350
gfz2013ozqm  -1.62070
gfz2013ozrp  -0.79149
gfz2013pakq  -0.67686
gfz2013pcos   0.54746
gfz2013pfbx   1.15900
gfz2013pfeb  -0.18577
gfz2013pffm  -0.58590
gfz2013qzdq  -2.98280
gfz2013rait  -1.75150
gfz2013reym  -0.90401
gfz2013roki  -0.67110
gfz2013rsnr   0.02839
gfz2013rwfe   0.47328
gfz2013saez  -0.21230
gfz2013scai  -1.81770
gfz2013sdus  -0.97984
gfz2013sebq  -2.85500
gfz2013sfds  -1.21270
gfz2013sfto  -0.46315
gfz2013sjhg   0.32532
gfz2013skkm  -1.36010
gfz2013snbr  -0.64356
gfz2013snyf  -2.54620
gfz2013sred   0.51392
gfz2013suln   0.19118
gfz2013suvn  -1.89780
gfz2013svci  -1.23980
gfz2013svqv   1.53940
gfz2013tcbk  -0.59406
gfz2013tcxc  -1.59460
gfz2013tcxq  -1.27630
gfz2013tdau  -1.22850
gfz2013tect  -1.37220
gfz2013tlaf  -1.89260
gfz2013toea  -2.51560
gfz2013toxf  -0.22036
gfz2013tpeb  -0.89288
gfz2013tusd  -1.05950
gfz2013twwf  -1.20650
gfz2013txev  -4.38700
gfz2013txij  -0.88637
gfz2013txtb  -0.99727
gfz2013tyas  -0.21876
gfz2013uauo  -0.82022
gfz2013ufxk  -0.34711
gfz2013ugax  -1.92320
gfz2013uhlm   0.16597
gfz2013upiv   0.23095
gfz2013uqsp  -0.60811
gfz2013utsh  -0.44733
gfz2013uuzn  -2.73900
gfz2013uxej  -0.45009
gfz2013vcoa   1.82660
gfz2013vefs  -1.61820
gfz2013vexx   0.73862
gfz2013vfyw  -1.66480
gfz2013vfzp  -1.22060
gfz2013vgau  -0.96908
gfz2013vgpf  -0.06993
gfz2013vhnk  -0.11768
gfz2013vhzu   1.47960
gfz2013vjfe  -0.04126
gfz2013vjjc  -7.20620
gfz2013vlth   2.95700
gfz2013vnfj  -0.69599
gfz2013vrmy   1.57780
gfz2013vsbl  -0.18382
gfz2013vvjh  -0.03391
gfz2013vvrq  -2.00200
gfz2013vzbo  -1.55570
gfz2013waam   0.89221
gfz2013wjmm   0.97006
gfz2013wkyk  -0.17290
gfz2013wmfd  -1.64850
gfz2013wnpr  -1.02240
gfz2013wrgw   1.00550
gfz2013wtzl  -1.46420
gfz2013wuon  -2.28570
gfz2013wwii   0.39702
gfz2013xcmp   1.81560
gfz2013xgek   0.40631
gfz2013xizq   0.23516
gfz2013xklb  -0.26929
gfz2013xkwt  -0.21441
gfz2013xmqg   1.34950
gfz2013xmul  -2.90100
gfz2013xpfa  -1.14630
gfz2013xpsm   1.49460
gfz2013xqnn   1.29130
gfz2013xsdt  -4.70530
gfz2013xtwj   0.07526
gfz2013xvqd  -2.56160
gfz2013xvxf  -0.54432
gfz2013xwda  -3.27250
gfz2013xxcc   1.08410
gfz2013xxwv  -0.79696
gfz2013xxxq  -1.22570
gfz2013xyzb   0.13591
gfz2013xzcg  -0.43334
gfz2013yaig  -1.06990
gfz2013yctg  -4.30890
gfz2013yewz   0.53674
gfz2013yhpk  -0.67647
gfz2013yixl  -0.11849
gfz2013ylbx  -2.88440
gfz2013ymky  -0.24716
gfz2013ymxs  -0.31118
gfz2013ynmw  -0.69979
gfz2013ypdc  -1.06870
gfz2013yqkv  -1.53760
gfz2013yrmc  -0.08810
gfz2013yyti  -2.01370
gfz2013zmoc  -1.27420
gfz2013zmtb   0.39138
gfz2014algk   0.05703
gfz2014alwz  -0.66063
gfz2014aqbk   0.32080
gfz2014ared   0.75526
gfz2014arpf  -4.39240
gfz2014arqr  -4.55870
gfz2014arsr  -0.95015
gfz2014atgw  -2.61370
gfz2014bagd  -2.13850
gfz2014bbro  -2.56440
gfz2014bekc  -4.99920
gfz2014bezu  -1.22330
gfz2014bfqo   0.27555
gfz2014bhhv  -1.03020
gfz2014bhvd   0.40468
gfz2014bldx  -2.09750
gfz2014bmfv   0.31100
gfz2014fcms  -0.35413
gfz2014fcsy   0.78658
gfz2014femz  -0.53111
gfz2014fexu   2.37780
gfz2014fgvi   0.48614
gfz2014fgvr   1.35260
gfz2014fgvz   0.90419
gfz2014fgwt   0.84736
gfz2014fgxt   1.66720
gfz2014fgyo   0.94709
gfz2014fhbd   1.69580
gfz2014fhdw   0.44525
gfz2014fhla   1.13230
gfz2014fhlh  -0.11092
gfz2014fhrq   0.67804
gfz2014fhsg   1.50400
gfz2014fhwx   1.10200
gfz2014fhxm   0.69613
gfz2014fiuj  -3.49840
gfz2014fjpb   1.84920
gfz2014fjyo   0.07121
gfz2014fjzd   0.92564
gfz2014fjzw   0.21379
gfz2014fkmr   0.27903
gfz2014fkmx   1.05220
gfz2014flfa  -0.62640
gfz2014fnyg  -3.27950
gfz2014foio  -0.75696
gfz2014fqpz   0.33285
gfz2014frdz   1.82510
gfz2014frel   0.15021
gfz2014frez   2.58360
gfz2014fstx   0.05995
gfz2014ftka   1.28740
gfz2014ftoc  -0.41862
gfz2014ftrk   0.92852
gfz2014fusj   0.84598
gfz2014fuub  -1.19110
gfz2014fuvk   1.19790
gfz2014fval   1.77180
gfz2014fvgh   1.23300
gfz2014fvpy   1.45780
gfz2014fvrg   1.32820
gfz2014fvve   0.67638
gfz2014fwdr   1.71310
gfz2014fwtt   0.69786
gfz2014gbcz  -3.12940
gfz2014gbdq  -0.47046
gfz2014geuy   4.24700
gfz2014gkgf  -0.00341
gfz2014gkhp  -1.41380
gfz2014gkjl  -0.19439
gfz2014gkjt  -1.02870
gfz2014gkjw  -1.92370
gfz2014gklq  -0.65529
gfz2014gkmw   8.50610
gfz2014gkob  -1.48610
gfz2014gkok  -1.51030
gfz2014gkpd   0.90816
gfz2014gkpj   0.73352
gfz2014gkqf   0.20152
gfz2014gkqu  -0.37185
gfz2014gksj   0.37437
gfz2014gktq   1.08260
gfz2014gkut  -0.16461
gfz2014gkvk  -2.61050
gfz2014gkxm   2.54790
gfz2014glcu   1.39420
gfz2014glcy  -0.10567
gfz2014glfn  -1.78080
gfz2014glgo   1.23500
gfz2014gltx   0.00000
gfz2014glvu   0.14665
gfz2014gmci   2.03930
gfz2014gmge   0.14276
gfz2014gmhp   1.12440
gfz2014gmhr  -1.60920
gfz2014gmip   0.99839
gfz2014gmjo   0.28344
gfz2014gmjz  -0.21953
gfz2014gmku   0.87374
gfz2014gmmk   2.05460
gfz2014gmmt  -0.21103
gfz2014gmnb  -0.29539
gfz2014gmnw   0.44224
gfz2014gmor  -1.61510
gfz2014gmpy   0.62326
gfz2014gmtb   3.00690
gfz2014gmuk  -0.30668
gfz2014gmuw   0.19046
gfz2014gmzl   1.51180
gfz2014gnfd  -0.41628
gfz2014gngg   1.79030
gfz2014gnno   0.99783
gfz2014gnnt   0.25799
gfz2014gnom   1.22790
gfz2014gnoz  -0.22859
gfz2014gnre   0.82280
gfz2014gnsi   1.41490
gfz2014gntd   0.51572
gfz2014gnvw   0.52386
gfz2014gnwg   0.62895
gfz2014gnxb   1.27030
gfz2014goba   0.38387
gfz2014goei   1.55900
gfz2014gogv  -2.01300
gfz2014gohm   1.25100
gfz2014goqw   1.76710
gfz2014goyx  -1.75860
gfz2014gpac   0.94317
gfz2014gpce   1.07790
gfz2014gpgd   1.14580
gfz2014gphr   1.98200
gfz2014gpnf  -0.13533
gfz2014gpqq   3.41010
gfz2014gpuk   0.84216
gfz2014gpvk   2.09700
gfz2014gpya   0.44602
gfz2014gqbj   0.14252
gfz2014gqco   0.70515
gfz2014gqed   0.32124
gfz2014gqer  -0.55142
gfz2014gqiy  -0.61737
gfz2014gqjr   1.02300
gfz2014gqqz   1.00470
gfz2014gqro   0.49373
gfz2014gqve   0.92834
gfz2014grgn   0.62733
gfz2014grho   0.40205
gfz2014gsqs   0.88558
gfz2014gtef   0.51718
gfz2014gtrb  -0.25042
gfz2014gtwz   0.68508
gfz2014gufl   0.76419
gfz2014gull   0.80253
gfz2014gumd   0.10436
gfz2014gutm   0.28721
gfz2014gvhw   1.30500
gfz2014gvqj   1.18410
gfz2014gvra  -0.58748
gfz2014gvrd   0.51637
gfz2014gwab  -0.63112
gfz2014gwgf  -0.19637
gfz2014gxag  -0.99185
gfz2014gxkh   0.82159
gfz2014gxqx   0.19872
gfz2014gxvf  -0.49216
gfz2014gxxh   0.46103
gfz2014gxxo  -0.21078
gfz2014hcmj  -1.21410
gfz2014hetr  -1.34010
gfz2014heyq  -1.95870
gfz2014hfhl   0.03940
gfz2014hgqo   0.74566
gfz2014hocg  -2.79540
gfz2014hrft  -2.91560
gfz2014hriu  -0.36749
gfz2015jmlu  -3.79110
gfz2015jpap  -2.59410
gfz2015jwgl  -1.75080
gfz2015jxjd  -0.08682
gfz2015jzcv   1.00720
gfz2015kakw  -1.22610
gfz2015kcaa  -0.40842
gfz2015kfsu  -0.46662
gfz2015kphk   1.11370
