# Nsamples: 153  MAD:  0.743  mean:  0.073  variance:  0.821
gfz2013ccnr  -0.94546
gfz2013dofo  -0.44669
gfz2013drxz  -0.65271
gfz2013dsrk   4.38690
gfz2013dvyh   1.81400
gfz2013fiud  -0.93098
gfz2013fygc   0.46388
gfz2013gock  -0.43714
gfz2013hxcx  -3.85230
gfz2013iayx  -0.81240
gfz2013jesk  -0.24461
gfz2013jgij  -0.59522
gfz2013jgip   0.43542
gfz2013jkut   0.11720
gfz2013kdeo   0.32029
gfz2013ldqb  -1.08120
gfz2013lyko   1.82820
gfz2013mqmv   0.56405
gfz2013mwbh   0.24350
gfz2013ncjp  -0.92227
gfz2013nixj  -0.48256
gfz2013nkgj  -0.46322
gfz2013nwdi  -0.68115
gfz2013ojti   1.58610
gfz2013pfbx   0.01387
gfz2013qali  -0.06288
gfz2013qmer  -1.06880
gfz2013yqkv   0.67652
gfz2014afmx  -0.30646
gfz2014ajlk   0.17987
gfz2014algk  -0.81505
gfz2014ande   0.20989
gfz2014azqs  -2.50620
gfz2014bezu  -0.33770
gfz2014bwue  -0.83255
gfz2014bzxy  -0.39780
gfz2014cvxx  -0.41276
gfz2014dffd  -0.51201
gfz2014ekcr   0.54535
gfz2014fgvi   0.37883
gfz2014fgyo   0.93650
gfz2014fhdw   0.20987
gfz2014fhla  -0.65344
gfz2014fhrq   0.34130
gfz2014fhsg  -1.46000
gfz2014fhwx   0.80592
gfz2014fimn  -0.29565
gfz2014fjzd   1.25100
gfz2014fkmr  -0.41364
gfz2014frdz   0.59270
gfz2014frez   0.44296
gfz2014frwh   1.25540
gfz2014ftka  -0.20439
gfz2014ftpw   0.46100
gfz2014ftrk   0.11767
gfz2014furx   0.25409
gfz2014fusc   0.32213
gfz2014fusj   0.31448
gfz2014fuub   0.73503
gfz2014fval   0.65066
gfz2014fvgh   0.81497
gfz2014fvrg   0.87044
gfz2014gbcz  -1.97500
gfz2014ghpe  -0.44659
gfz2014gkgf  -0.26242
gfz2014gkhp  -0.19810
gfz2014gkhy   0.24648
gfz2014gkjl  -0.12790
gfz2014gkjt  -0.67826
gfz2014gkjw  -0.61328
gfz2014gklq   0.11744
gfz2014gklv   0.33212
gfz2014gkmm   0.12647
gfz2014gkob   0.02109
gfz2014gkok  -0.33047
gfz2014gkpd  -0.57671
gfz2014gkpj  -0.13601
gfz2014gkqf   0.58363
gfz2014gkqu   0.79723
gfz2014gktq   0.02004
gfz2014gkxm   1.81680
gfz2014glcu   0.43950
gfz2014glcy  -0.25145
gfz2014glgo  -0.26801
gfz2014gltx   0.43801
gfz2014gmci   0.43268
gfz2014gmge  -0.70666
gfz2014gmhp   1.22020
gfz2014gmhr  -1.80420
gfz2014gmic  -1.53070
gfz2014gmip   0.86088
gfz2014gmjo   0.88179
gfz2014gmku   0.44165
gfz2014gmlz   0.53231
gfz2014gmmt  -0.49442
gfz2014gmnb  -0.31893
gfz2014gmnw  -0.08682
gfz2014gmor   0.26742
gfz2014gmpy   0.12386
gfz2014gmuk   0.10975
gfz2014gmzl   0.89320
gfz2014gnfd   0.73544
gfz2014goba  -0.05321
gfz2014goqw   0.73513
gfz2014gpce   1.21350
gfz2014gphr  -0.13438
gfz2014gpuk   1.29910
gfz2014gqbj  -0.08219
gfz2014gqer   1.06930
gfz2014gqiy  -1.63150
gfz2014gqve   0.39540
gfz2014gsqs   1.40090
gfz2014gull  -0.01210
gfz2014gulp  -0.80040
gfz2014gvrd  -1.15540
gfz2014gwab   0.50371
gfz2014gxkh   1.09440
gfz2014gxxo  -0.09983
gfz2014hagb   1.09510
gfz2014haos   2.08010
gfz2014hasj  -0.13662
gfz2014hbqb  -0.09396
gfz2014hcmj  -0.60469
gfz2014hfhl  -0.22519
gfz2014hgqo   0.43906
gfz2014hjgh   0.39370
gfz2014hjgr   0.01912
gfz2014hjlx   0.97137
gfz2014hkcf   0.10425
gfz2014hocg  -1.33610
gfz2014hqxs   1.73420
gfz2014huaj   0.30750
gfz2014imnn  -0.13648
gfz2014itbe   0.03232
gfz2014itgh   0.75510
gfz2014itkw   0.44986
gfz2014itpj   0.71407
gfz2014jjhc   0.02441
gfz2014jjln   0.66249
gfz2014jnyv  -0.73713
gfz2014jpep   0.21877
gfz2014kndc  -0.62686
gfz2014knks  -0.90893
gfz2014lgqn   0.07427
gfz2014lxnc   0.13779
gfz2014lyhk   0.89020
gfz2014lyhp  -0.01935
gfz2014macx   0.22339
gfz2014nnxd   0.61066
gfz2014npeo  -1.19900
gfz2014nphm  -0.59066
gfz2014nqfm  -0.08189
gfz2014nrie   0.22737
