# Nsamples: 1690  MAD:  1.135  mean: -0.486  variance:  4.887
gfz2010hakh   0.00000
gfz2010hjoc  -0.32812
gfz2010homc  -0.81096
gfz2010hrkr  -3.03400
gfz2010hxgv  -2.51050
gfz2010hxhe  -2.70940
gfz2010hykt  -2.39830
gfz2010hzar   2.86890
gfz2010ibiy  -0.00000
gfz2010ibxj  -1.36970
gfz2010iciq   0.62811
gfz2010iefy  -3.32910
gfz2010ihrq   0.41354
gfz2010ijtk  -0.60418
gfz2010imsh   0.61393
gfz2010iobp  -0.44254
gfz2010iqep  -0.03083
gfz2010iqnm   2.03490
gfz2010iqus   1.00990
gfz2010irvf  -1.57170
gfz2010isrp  -4.16290
gfz2010ited  -0.43081
gfz2010itpb  -0.82178
gfz2010iull  -3.47750
gfz2010izzj  -1.34440
gfz2010jagd  -2.19160
gfz2010jant   0.72190
gfz2010jhie   0.53879
gfz2010jipf  -0.71903
gfz2010jpss   0.20547
gfz2010jssh  -1.83410
gfz2010jsuh  -0.53066
gfz2010jucj  -0.68500
gfz2010jwpy  -0.33950
gfz2010jxbm   2.42960
gfz2010jygz  -0.67817
gfz2010kdyc   0.80765
gfz2010kihf  -0.39631
gfz2010kmgg  -0.25569
gfz2010kmsv   1.34670
gfz2010kqyh  -1.52810
gfz2010kzml   2.09230
gfz2010lcoq   2.42620
gfz2010lczp  -1.33500
gfz2010lepw  -0.88390
gfz2010lfju  -1.88640
gfz2010lgwy   2.28960
gfz2010liqs  -3.07650
gfz2010lkcf  -0.47385
gfz2010lluj  -1.11000
gfz2010lrlk  -0.33862
gfz2010lruw   0.10943
gfz2010lsft  -1.86970
gfz2010lwuq  -0.54732
gfz2010lyfk   1.27430
gfz2010mdpq  -0.57011
gfz2010mipi  -1.00810
gfz2010miqn  -2.28100
gfz2010mncc   0.95614
gfz2010mnsz  -0.54145
gfz2010moyw  -1.71150
gfz2010mpuy  -1.03420
gfz2010msjj   0.79533
gfz2010mzjr   0.12103
gfz2010ncrl   2.65160
gfz2010ndxl  -0.09975
gfz2010nmpc  -4.78880
gfz2010nnny  -2.10130
gfz2010nqwf  -3.23390
gfz2010nqwo  -1.25060
gfz2010nrew  -3.03670
gfz2010nrjo   0.92113
gfz2010nsck   1.82840
gfz2010nsdf   3.19210
gfz2010nsfx   0.20384
gfz2010nsjs  -0.56851
gfz2010nubk   0.61857
gfz2010nwef  -0.02070
gfz2010nxum  -1.96160
gfz2010nzla  -0.17339
gfz2010odpb  -0.71041
gfz2010oedn  -0.25016
gfz2010okdm  -0.92152
gfz2010oluw  -1.04370
gfz2010omla  -0.66942
gfz2010onma  -2.21160
gfz2010osjs   2.41210
gfz2010osqo  -1.27280
gfz2010otbn  -1.16320
gfz2010oyqy  -0.73251
gfz2010pbdz  -0.72298
gfz2010pcxi  -1.64990
gfz2010pdtk   3.31850
gfz2010pets  -1.24790
gfz2010pewa   1.54970
gfz2010pewx  -0.67037
gfz2010pfyu  -2.40110
gfz2010phvg   0.75813
gfz2010pmqd  -1.03280
gfz2010pqck   1.58820
gfz2010pxak  -1.63570
gfz2010pxgh   0.85221
gfz2010pxls  -0.16953
gfz2010qbng  -0.86361
gfz2010qitd  -0.47481
gfz2010qjst  -1.03410
gfz2010qkat  -0.46928
gfz2010qpcq  -0.52648
gfz2010qpum   0.47262
gfz2010rhas  -4.12290
gfz2010rkfp  -2.73800
gfz2010rqwj   2.05010
gfz2010rywq  -2.07260
gfz2010sfee  -1.85930
gfz2010sgzk   0.27312
gfz2010skqo   0.80962
gfz2010skve  -5.56270
gfz2010srdb   0.20605
gfz2010svtn  -1.50290
gfz2010svve  -0.46266
gfz2010swcy  -0.96894
gfz2010sxwt  -1.32890
gfz2010sysw  -0.16084
gfz2010szde  -15.31500
gfz2010szim   0.64254
gfz2010tcbr   0.36732
gfz2010tcrl   3.72400
gfz2010truw  -2.73060
gfz2010uouo   2.33630
gfz2010upfb  -1.88870
gfz2010upiw  -1.56460
gfz2010urlq  -2.08910
gfz2010usho  -2.14720
gfz2010ustq   0.59476
gfz2010utcg  -2.29850
gfz2010utmc   3.58470
gfz2010uvhf  -0.65016
gfz2010veri   0.01903
gfz2010vhuj  -3.33690
gfz2010vjcb  -0.55087
gfz2010vppc  -0.49871
gfz2010vxvs  -1.98400
gfz2010vyxd  -1.31680
gfz2010vzzz  -1.64160
gfz2010wioh  -0.34615
gfz2010wnty  -1.11690
gfz2010wofs  -1.67550
gfz2010wrxx   9.31110
gfz2010xbcr  -0.11989
gfz2010xbdv  -10.02300
gfz2010xbgs   0.40630
gfz2010xcdh  -0.20638
gfz2010xche  -0.50508
gfz2010xcij  -1.70840
gfz2010xden  -0.92078
gfz2010xgfc   0.74293
gfz2010xgzw  -2.74430
gfz2010xjck  -3.59680
gfz2010xjsj  -1.10920
gfz2010xnxk  -0.52089
gfz2010xxdb  -0.75636
gfz2010xxzn   6.23890
gfz2010yfsv   0.03776
gfz2010ygwu  -3.39290
gfz2010yjev   0.72422
gfz2010ymfy  -1.50480
gfz2010ymur  -2.95260
gfz2010yosr  -1.28100
gfz2010yoyx  -0.64366
gfz2010yqqb  -1.44850
gfz2010yqqv   1.82420
gfz2010yqwx  -3.28640
gfz2010ysaj  -0.21794
gfz2010yvwz  -2.14730
gfz2010zdpo  -0.22668
gfz2010zeeh   1.53550
gfz2011aatr  -1.32670
gfz2011adjs  -0.46118
gfz2011adlj   2.14370
gfz2011adne  -0.51395
gfz2011adqk   0.33395
gfz2011ahfw   1.89280
gfz2011alip  -0.83799
gfz2011alsa   6.08020
gfz2011ammu  -0.29352
gfz2011anur  -0.42486
gfz2011aosc   0.10948
gfz2011aqxf   0.16460
gfz2011bapi  -0.11735
gfz2011bhha   0.40897
gfz2011blsi  -2.94740
gfz2011bnzn  -0.57970
gfz2011bpkd  -1.42550
gfz2011bswz   0.18922
gfz2011ccpw   0.68276
gfz2011cfae  -0.38989
gfz2011cndo  -1.77020
gfz2011cnho   0.08933
gfz2011coxh   2.54270
gfz2011crdy  -1.12840
gfz2011csju   2.33210
gfz2011ctbn   1.83090
gfz2011cvcg   0.09860
gfz2011cvfg   1.55710
gfz2011cwgn   2.04730
gfz2011cykd   1.89160
gfz2011cynl   2.57510
gfz2011cyre  -0.06753
gfz2011cyuk   1.25820
gfz2011dbev   0.95256
gfz2011dbig   2.21040
gfz2011dbli   0.11212
gfz2011dbon  -1.94860
gfz2011dcqb  -1.25930
gfz2011deja  -0.54975
gfz2011dldn  -0.67041
gfz2011dllz  -3.29110
gfz2011dlyx  -0.17179
gfz2011dmat  -0.10356
gfz2011dndz   0.23690
gfz2011dpaa   0.91787
gfz2011dpmx  -0.77593
gfz2011dpqx   0.06030
gfz2011dqio  -0.41440
gfz2011duyr   2.66410
gfz2011dvxb  -0.07135
gfz2011eayc  -0.94427
gfz2011ecvr  -0.41629
gfz2011eebc   0.94969
gfz2011efgv  -0.82160
gfz2011ehzq   1.29420
gfz2011ejlp   0.00000
gfz2011ekpr  -2.11650
gfz2011eocc  -0.27503
gfz2011etje   2.57640
gfz2011fdzv  -0.10983
gfz2011fhag   4.69640
gfz2011fhbm  -2.20260
gfz2011fhur   0.52970
gfz2011fkbn  -0.55359
gfz2011flgj  -0.08102
gfz2011fnsw   1.36640
gfz2011gbmx   0.26022
gfz2011gdgh   1.03840
gfz2011ggvf  -0.57390
gfz2011gjlx  -0.75360
gfz2011gzbr  -0.32514
gfz2011haid   1.75740
gfz2011hbex  -0.53919
gfz2011hbqk  -0.64232
gfz2011hebt  -0.63059
gfz2011hlqw  -0.24739
gfz2011hlsa  -0.18888
gfz2011hlth   0.43901
gfz2011hpgx  -5.50930
gfz2011hpqp  -4.68660
gfz2011hrhe  -0.63712
gfz2011hrhu  -0.46772
gfz2011icxe  -1.83230
gfz2011ieie  -5.93390
gfz2011iwte   1.33980
gfz2011ixai   1.61480
gfz2011izqa  -0.79217
gfz2011jbbc  -0.10207
gfz2011jdsj  -0.75432
gfz2011jghb   1.33620
gfz2011jmbn   1.12490
gfz2011jnmi  -0.28664
gfz2011jplh  -0.50122
gfz2011jtlg   6.94560
gfz2011juid  -0.24615
gfz2011knbi  -1.07660
gfz2011knoo  -1.14770
gfz2011kqwo   1.54380
gfz2011kqyg   0.72542
gfz2011ksiu  -0.57451
gfz2011kvxh   0.07034
gfz2011kweu   1.96330
gfz2011kwhq   3.66500
gfz2011kwid  -1.10040
gfz2011kwiy   0.73699
gfz2011kwjx   0.95659
gfz2011kwkw  -1.09670
gfz2011kwld   3.25210
gfz2011kwlq   0.18882
gfz2011kwni  -1.28110
gfz2011kwnu   0.44838
gfz2011kwqc  -0.18640
gfz2011kwrf   0.73228
gfz2011kwsz  -0.21003
gfz2011kxzp   3.01570
gfz2011lczg  -1.60720
gfz2011lzwj  -3.08870
gfz2011nauw  -1.91880
gfz2011necz  -1.40750
gfz2011ntkh   0.22365
gfz2011ntrv  -0.28612
gfz2011nudm  -2.29760
gfz2011ogqk   0.33412
gfz2011ohcy   0.34814
gfz2011oiqe  -0.91764
gfz2011oiwk  -2.34920
gfz2011oolr   0.05040
gfz2011owvz   0.41981
gfz2011ozsl   0.19096
gfz2011pccd  -0.37606
gfz2011pdpt  -0.55109
gfz2011pdst  -0.73908
gfz2011pntf  -1.74500
gfz2011ptus   0.78531
gfz2011qigx  -0.72336
gfz2011qoif  -1.34370
gfz2011qvae   0.56351
gfz2011qyms   0.51321
gfz2011rabm   2.32370
gfz2011rdby   2.63690
gfz2011rewa  -0.32151
gfz2011rgwl  -0.21604
gfz2011rgwp  -2.84700
gfz2011rnut   0.07400
gfz2011rqui  -0.57877
gfz2011runa   0.07594
gfz2011rznl   0.63963
gfz2011sagt  -1.22430
gfz2011sawg  -3.73950
gfz2011shqm  -0.74084
gfz2011socv   0.52912
gfz2011sqoy  -2.27720
gfz2011srka  -0.60267
gfz2011stal   1.78980
gfz2011sthv   0.54549
gfz2011svix  -0.56260
gfz2011syjd   0.37912
gfz2011tbas   1.36200
gfz2011tcij  -0.02128
gfz2011tivu  -1.45960
gfz2011tkfp   0.66123
gfz2011tkog   0.29579
gfz2011tnag  -1.10260
gfz2011toub  -1.24450
gfz2011tpfr  -0.70842
gfz2011tsfd   2.19440
gfz2011tsnp  -0.89171
gfz2011twov  -0.57576
gfz2011ueni   0.03594
gfz2011ugzz  -2.55590
gfz2011ujze  -0.94801
gfz2011ukmp  -0.50462
gfz2011unkx  -1.77190
gfz2011uphh  -0.74490
gfz2011urzu  -1.43880
gfz2011vclt   0.19954
gfz2011vhfi   0.48411
gfz2011vkun   0.79759
gfz2011vldk  -0.66437
gfz2011vnza  -0.01965
gfz2011vqnr  -0.68889
gfz2011vrhg  -1.87930
gfz2011vxns  -3.57270
gfz2011vxod   2.07690
gfz2011vxxg  -0.74404
gfz2011wcic   0.63171
gfz2011wfja  -0.66608
gfz2011wijj  -2.08840
gfz2011wjkf  -2.07580
gfz2011wjul  -0.06234
gfz2011wtmq  -0.19719
gfz2011wvzb  -1.62730
gfz2011wxfs   0.22994
gfz2011wxoj  -0.47737
gfz2011wxtk  -1.57740
gfz2011wype   1.22030
gfz2011xaan   1.28180
gfz2011xcpv   1.47530
gfz2011xesx  -0.87170
gfz2011xqru  -2.16270
gfz2011xyxj   0.41761
gfz2011yfys   1.25670
gfz2011ytnu  -0.58729
gfz2011yybo  -0.42145
gfz2011zjap  -1.80830
gfz2011zlfg  -0.77729
gfz2011zlrd   0.39465
gfz2011zqhh  -1.22540
gfz2012ablh   0.74883
gfz2012ajtq  -0.55241
gfz2012aqgp  -0.66461
gfz2012aqtq  -0.65843
gfz2012attr   0.78840
gfz2012bfyn   0.33202
gfz2012bpkx   0.57069
gfz2012bpwl   0.67222
gfz2012cnod  -1.65690
gfz2012covm  -0.73404
gfz2012cqnl  -2.15530
gfz2012cqtc  -0.38645
gfz2012cuct  -66.82900
gfz2012cxdn   1.13670
gfz2012cyof  -0.07572
gfz2012czlw  -1.58310
gfz2012ddma  -2.14460
gfz2012dimn   1.40760
gfz2012dinb   0.29816
gfz2012divk   0.23839
gfz2012ekda  -1.16830
gfz2012ekzf   0.91046
gfz2012elce   1.95840
gfz2012enno  -0.18098
gfz2012eskt  -0.11256
gfz2012ewkj  -1.87500
gfz2012eykb   0.71816
gfz2012ezvr   0.01571
gfz2012fbfo  -1.78840
gfz2012fgzz  -0.20557
gfz2012fhnh   0.80275
gfz2012fivh  -2.01790
gfz2012foeo   0.17122
gfz2012fqcg   0.06095
gfz2012fwfo  -2.41990
gfz2012fwob  -1.81850
gfz2012fwtr  -1.74840
gfz2012fzfa  -3.73650
gfz2012gemm  -0.34345
gfz2012gill  -0.33764
gfz2012glss   2.33290
gfz2012gnvh  -0.43856
gfz2012gwqb  -0.76284
gfz2012hdbm  -0.39369
gfz2012hnul  -0.14234
gfz2012hogg  -0.65751
gfz2012holl  -2.71960
gfz2012hsex   0.31012
gfz2012htet   0.69515
gfz2012hwyo   1.22750
gfz2012hzbe  -0.54594
gfz2012icmv   0.69134
gfz2012idje  -1.23980
gfz2012iffo  -0.02355
gfz2012iivw  -0.53129
gfz2012ilvn  -0.92620
gfz2012ilxh   0.53669
gfz2012imay  -0.91108
gfz2012imbd   0.24218
gfz2012intn   0.52817
gfz2012iyrb  -1.75660
gfz2012jgvj  -0.13025
gfz2012jhaz  -0.28345
gfz2012jlox  -4.22250
gfz2012joqe   0.35293
gfz2012jpeh  -0.29625
gfz2012jpgs  -0.07356
gfz2012jshk   0.11354
gfz2012jted  -0.22858
gfz2012jupx   0.14717
gfz2012jxiy  -0.26950
gfz2012kanu  -0.24692
gfz2012kbjb  -1.19410
gfz2012kbzj  -0.76485
gfz2012kdmb   1.60730
gfz2012keor   0.66326
gfz2012kiik  -0.02348
gfz2012kkcp   0.00446
gfz2012kkup  -0.18887
gfz2012klba   1.61560
gfz2012klhx   0.25944
gfz2012kuct  -0.36749
gfz2012kudo  -0.68628
gfz2012kvzv  -0.18397
gfz2012kwgo  -0.83249
gfz2012lboz  -0.17250
gfz2012lczo   1.91990
gfz2012ldgs   1.35070
gfz2012ldxg  -3.17980
gfz2012leam  -0.42450
gfz2012lezd  -0.03719
gfz2012lhnc  -0.40144
gfz2012lltr  -0.01325
gfz2012llug  -2.32560
gfz2012lpvn   0.39243
gfz2012lrjq   2.26350
gfz2012lsni   0.80710
gfz2012lsvd  -0.02318
gfz2012lszf  -0.02572
gfz2012lxkv   0.97631
gfz2012lzgv  -0.28709
gfz2012lzmr  -0.32161
gfz2012maxy   0.25967
gfz2012megc  -0.05999
gfz2012mkpn   2.57980
gfz2012mlyf   0.54641
gfz2012mofm  -0.36371
gfz2012mpyl   0.09340
gfz2012mtiu  -0.39190
gfz2012mupa   0.27034
gfz2012mvwr  -0.74588
gfz2012mwij   2.06330
gfz2012myqa   0.38960
gfz2012nben   1.47670
gfz2012nedn   0.22329
gfz2012ngic  -0.78591
gfz2012nivl   0.24712
gfz2012nkdf   0.29040
gfz2012noei  -0.23649
gfz2012nqnk  -2.57430
gfz2012nutf  -0.28974
gfz2012nzpz  -0.56232
gfz2012oazn  -1.57280
gfz2012obgw   2.34270
gfz2012obnq  -0.24369
gfz2012oedb  -0.46739
gfz2012oilt  -0.17600
gfz2012okhx   1.02100
gfz2012omvo   1.60840
gfz2012oqmw  -0.09596
gfz2012ouyp  -1.04350
gfz2012ovqs   0.18550
gfz2012oycg   0.96367
gfz2012pazr   0.08906
gfz2012pcxi  -0.19028
gfz2012peex  -1.27980
gfz2012peki   0.92780
gfz2012pgcl  -1.22150
gfz2012pkel   1.29130
gfz2012plea  -1.37010
gfz2012pofl  -0.10691
gfz2012poju  -0.70237
gfz2012pqlt   0.85605
gfz2012pqmu   0.66497
gfz2012priv  -0.39378
gfz2012prlt  -0.50782
gfz2012pygp   0.00822
gfz2012qqqp  -0.19083
gfz2012rboy   0.07292
gfz2012rcbq   0.06414
gfz2012rcds   0.05785
gfz2012rejq  -0.47666
gfz2012repv   0.49369
gfz2012rjld  -0.26365
gfz2012rkoa   0.51808
gfz2012rmtr   0.07258
gfz2012royy   0.35474
gfz2012rqlg  -0.78918
gfz2012rtqi   0.47101
gfz2012rubi   1.62310
gfz2012ruks  -0.42426
gfz2012rwko   0.28213
gfz2012rwov   0.19428
gfz2012rypu  -2.11680
gfz2012shtg  -0.29811
gfz2012sjea  -0.28155
gfz2012snhi  -2.82710
gfz2012sqmv  -0.08028
gfz2012sqvi  -1.27070
gfz2012svpr   0.07470
gfz2012syvl  -1.47990
gfz2012szla  -0.30425
gfz2012tazz   0.10679
gfz2012tbbp   0.27695
gfz2012tbxt  -0.18226
gfz2012thfx   0.87300
gfz2012tmop  -2.35170
gfz2012ttoa  -1.55660
gfz2012uaqj  -0.52257
gfz2012uciv  -0.88766
gfz2012ulpd  -0.27094
gfz2012uoef   0.20492
gfz2012uqzp  -1.13770
gfz2012uvqf   0.44469
gfz2012uxnz  -0.96077
gfz2012uyie   0.53047
gfz2012uyxb  -1.14140
gfz2012uzom   0.01658
gfz2012uzyj  -0.53945
gfz2012vceo   0.48213
gfz2012vjgl  -0.22615
gfz2012vmeh   1.64600
gfz2012vnbk   1.10810
gfz2012vntz  -1.04840
gfz2012vrua  -1.11790
gfz2012vsev  -1.63690
gfz2012vtif  -0.95230
gfz2012vtxe   2.23340
gfz2012vxvr  -0.83187
gfz2012vyzo  -0.27480
gfz2012wajj  -0.33862
gfz2012wgbb  -0.01564
gfz2012wizz   1.51870
gfz2012wkfw  -0.67384
gfz2012wklq   0.84674
gfz2012wqnc   1.24630
gfz2012wubh   0.39681
gfz2012wwdo  -0.11048
gfz2012wxlg   0.40734
gfz2012wybs  -1.65380
gfz2012wypz  -0.42465
gfz2012xbjq   0.13189
gfz2012xcgk   1.40870
gfz2012xhci  -0.60436
gfz2012xjyv   1.59300
gfz2012xkkv   4.19390
gfz2012xpmm  -0.49860
gfz2012xslk   1.92120
gfz2012xvwn   1.94130
gfz2012xwqa  -2.95450
gfz2012xyqp  -2.85100
gfz2012xyua  -0.31631
gfz2012yhag  -0.26495
gfz2012yldu   2.65260
gfz2012yoie  -0.49982
gfz2012yqjj   0.47395
gfz2012yxxu   0.44049
gfz2012yzod   3.03350
gfz2012zemz  -0.06772
gfz2012zfag  -0.81574
gfz2012zhmb  -0.63134
gfz2012zhyf  -0.25568
gfz2012ziml   0.36675
gfz2012zitl   2.04200
gfz2012zjpv   0.99462
gfz2012zklq  -1.30770
gfz2012zmbp   0.85966
gfz2013aayj   0.16223
gfz2013aeee  -0.23792
gfz2013akgj  -3.23680
gfz2013aknp   0.41448
gfz2013apmm   0.23019
gfz2013bbrc  -0.48808
gfz2013bdpu  -0.12437
gfz2013bhgs  -0.07812
gfz2013biji  -0.43591
gfz2013bobq   1.70090
gfz2013bokp   2.50710
gfz2013bouj   0.98395
gfz2013casg  -5.60470
gfz2013cbsm  -0.29776
gfz2013ccnr   1.17050
gfz2013cdan  -0.19395
gfz2013cfyy  -0.01421
gfz2013cgou  -0.56146
gfz2013cnms  -0.66206
gfz2013cnve   0.55680
gfz2013cnyj  -0.98036
gfz2013comh   0.04794
gfz2013cuoq  -0.20102
gfz2013cvqg   0.30000
gfz2013ddbh   0.28968
gfz2013dddp  -0.02583
gfz2013diuf  -0.12424
gfz2013dkly  -1.81920
gfz2013dkmg  -0.02376
gfz2013dnnx   0.27298
gfz2013dofo   1.52040
gfz2013dqls   1.53590
gfz2013drpk  -0.92816
gfz2013dujm  -1.55290
gfz2013dvye   0.28723
gfz2013dvyh  -0.13067
gfz2013dyop  -0.00000
gfz2013egni  -0.59275
gfz2013egpu  -1.50400
gfz2013ehwe  -0.79485
gfz2013ekpm   0.00000
gfz2013enbx  -0.24331
gfz2013erse   0.37576
gfz2013esnh   0.88682
gfz2013esnt   0.18419
gfz2013eswe  -0.75787
gfz2013eulz  -0.37310
gfz2013evsq  -0.02098
gfz2013fcto  -1.50090
gfz2013fdoo   0.13207
gfz2013ffko  -0.26096
gfz2013fiud   0.54523
gfz2013fkcl  -0.74898
gfz2013flox   0.85838
gfz2013fnzr   1.34640
gfz2013ftso  -2.40640
gfz2013fwxa   0.48203
gfz2013gbcn   0.35093
gfz2013gcfx  -2.15200
gfz2013gdgf  -0.42510
gfz2013gdnq   1.14520
gfz2013geno  -0.18807
gfz2013gihf  -0.54224
gfz2013gjdc   0.07061
gfz2013glcr   0.05996
gfz2013gmor   5.00580
gfz2013gngz   0.21536
gfz2013gock  -0.35143
gfz2013govy   2.00130
gfz2013gras   0.16691
gfz2013gvdb  -0.35248
gfz2013gwrd   0.09403
gfz2013hbkh   0.03699
gfz2013hbkq  -1.84060
gfz2013hfmp   0.57007
gfz2013hisv  -0.13345
gfz2013hklr   5.51090
gfz2013hlbe  -0.24713
gfz2013hpfq   0.71850
gfz2013hudi   0.27306
gfz2013hxcx  -0.42815
gfz2013iapa   0.16402
gfz2013iayx  -0.05629
gfz2013icfh   0.34024
gfz2013idbb   2.99760
gfz2013iexo  -0.14564
gfz2013ihcj   3.02630
gfz2013ijsr   0.74266
gfz2013ijyg   1.45960
gfz2013ilug  -3.93740
gfz2013inux  -1.36700
gfz2013iopd  -1.05330
gfz2013ippu  -0.35181
gfz2013iqzq   1.18050
gfz2013itsu   0.72911
gfz2013iunn   1.08040
gfz2013iynu  -0.24591
gfz2013iyqz  -0.11311
gfz2013jdrx  -1.74200
gfz2013jesk  -0.12002
gfz2013jgij  -1.08590
gfz2013jgip  -0.16541
gfz2013jkut  -1.85980
gfz2013jlst  -0.78854
gfz2013jphq   0.79304
gfz2013jusj   0.76657
gfz2013jwcn   0.05548
gfz2013kccc   0.78048
gfz2013kdeo  -2.55640
gfz2013kgmj  -0.21880
gfz2013khli   1.14810
gfz2013kilx  -0.00000
gfz2013kkzr  -0.08859
gfz2013krei  -0.19828
gfz2013kwps  -0.53263
gfz2013lajn  -1.65520
gfz2013lcos  -2.36570
gfz2013ldpc  -0.18764
gfz2013ldqb  -0.94500
gfz2013lgbb  -0.99682
gfz2013lgxc  -0.32036
gfz2013limo   0.28254
gfz2013lixa  -1.07440
gfz2013lmdy  -2.10700
gfz2013lmrs  -0.55675
gfz2013lsob  -1.14230
gfz2013lwbk  -0.48437
gfz2013lznu  -0.49399
gfz2013malg  -0.22975
gfz2013mded  -0.01351
gfz2013mghe  -0.61154
gfz2013mhjf   0.34137
gfz2013mmlw  -0.24590
gfz2013mnac  -0.03406
gfz2013mnei  -1.10720
gfz2013mnju  -0.28774
gfz2013mqmv  -0.78582
gfz2013mtqd  -1.51770
gfz2013mvdm  -0.12295
gfz2013mvgr   1.58300
gfz2013mxee  -1.60430
gfz2013mzwe   0.08135
gfz2013nabl   1.45540
gfz2013ncjp  -1.31360
gfz2013nedo  -0.19845
gfz2013neuc   1.04260
gfz2013nhjb  -0.19638
gfz2013nlxz  -1.43300
gfz2013nmac  -0.42024
gfz2013nppd   0.18395
gfz2013nqgw   0.56060
gfz2013nttq   0.34946
gfz2013nuor   0.18364
gfz2013nvdj   2.50420
gfz2013nvia   0.52443
gfz2013nwdi  -3.17680
gfz2013ofls  -0.05458
gfz2013ogde  -0.44436
gfz2013oifr   1.08950
gfz2013oilg   2.44610
gfz2013oinc   0.28524
gfz2013ojti  -0.54717
gfz2013oksi  -0.15188
gfz2013onjy  -2.51550
gfz2013orjg  -0.12369
gfz2013ornz  -0.07663
gfz2013ozku  -2.10330
gfz2013oznn   0.97687
gfz2013ozqm  -0.74583
gfz2013ozrf  -0.69195
gfz2013ozrp  -1.25050
gfz2013pcos  -1.25280
gfz2013pfbx  -2.61100
gfz2013phef   1.65390
gfz2013pigb   1.01750
gfz2013piwd   1.60790
gfz2013pkbs  -0.08376
gfz2013plhp  -1.20460
gfz2013pndn  -0.47611
gfz2013puag   0.30272
gfz2013pweb   0.38659
gfz2013pxsj  -2.02900
gfz2013pxya  -1.47740
gfz2013qali   0.34566
gfz2013qbca  20.75900
gfz2013qbys   0.34843
gfz2013qcck  -0.68289
gfz2013qckf  -0.16851
gfz2013qfmm  -0.32974
gfz2013qfsq  -1.29240
gfz2013qhtx  -0.24517
gfz2013qhwz  -0.97598
gfz2013qidm  -1.74040
gfz2013qmer  -1.49550
gfz2013qqrr  -0.81259
gfz2013qrxy  -0.78536
gfz2013qvcr   0.57786
gfz2013qwgb  -1.48490
gfz2013qwin   0.06781
gfz2013rait  -3.14840
gfz2013rdmo  -0.95650
gfz2013rdoo   0.64222
gfz2013reav  -1.89650
gfz2013rjsx  -0.68017
gfz2013rluo  -0.54102
gfz2013rqcy  -0.08030
gfz2013rqmp   0.46811
gfz2013rsts  -0.14180
gfz2013rvsm   0.59878
gfz2013rwfe   1.61690
gfz2013ryxm  -1.62730
gfz2013sart  -0.23227
gfz2013sdus  -2.70920
gfz2013sebq   0.97847
gfz2013sfds  -0.50905
gfz2013sfto  -0.44072
gfz2013shlq  -3.02550
gfz2013shzy  -1.42330
gfz2013skkm  -2.04250
gfz2013sllq  -1.51030
gfz2013snyf  -0.27635
gfz2013sqkb   0.73806
gfz2013sred  -1.71090
gfz2013stcu  -0.45874
gfz2013stht  -1.05510
gfz2013suln  -0.47554
gfz2013svci  -2.80230
gfz2013svqv  -0.40985
gfz2013syqk   0.98457
gfz2013tbzy  -1.74070
gfz2013tdkk  -0.52341
gfz2013thtc  -0.58873
gfz2013tjlx  -0.04343
gfz2013toea  -0.78109
gfz2013toxf  -1.95750
gfz2013tqbb  -0.57212
gfz2013ttoz   0.24188
gfz2013tusd  -1.59230
gfz2013tuzv  -1.05120
gfz2013tvmw  -1.64650
gfz2013txtb   0.76925
gfz2013uauo  -1.62430
gfz2013ufku   1.47760
gfz2013ufxk   0.38486
gfz2013uhlm  -0.36232
gfz2013upcc  -0.02386
gfz2013upee  -1.45860
gfz2013upiv  -0.19161
gfz2013uqvu  -1.78090
gfz2013utsh   1.02970
gfz2013uuzn   0.15827
gfz2013uysr  -0.74734
gfz2013vfyw   0.40092
gfz2013vfzp  -0.40795
gfz2013vgev   0.84324
gfz2013vhsb  -0.42596
gfz2013vhzu   0.19544
gfz2013viul  -0.63661
gfz2013vjjc  -0.71012
gfz2013vjod   0.02074
gfz2013vlth  -1.29660
gfz2013vmro  -0.32594
gfz2013vnfj  -0.48479
gfz2013vpnf   0.17071
gfz2013vqot   1.17050
gfz2013vrmy  -2.71500
gfz2013vsxi  -0.65610
gfz2013vvrq   0.15573
gfz2013vxta  -0.36893
gfz2013vzbo  -0.92346
gfz2013wgeu  -0.06219
gfz2013whts   0.59141
gfz2013wjmm   2.15590
gfz2013wmfd   0.12070
gfz2013wnql  -0.11056
gfz2013woze  -1.06300
gfz2013wpga  -0.43794
gfz2013wrgw   0.91933
gfz2013wuon  -0.34150
gfz2013wwec  -0.01158
gfz2013wwii   0.27036
gfz2013xatc  -0.24967
gfz2013xkbh  -0.39565
gfz2013xklb   0.72816
gfz2013xkwt  -0.49869
gfz2013xmqg  -0.09613
gfz2013xmul   0.94180
gfz2013xpfa  -0.45577
gfz2013xpsm  -0.38574
gfz2013xqnn  -0.60188
gfz2013xsdt  -1.55500
gfz2013xtwj  -2.90730
gfz2013xvqd  -2.35550
gfz2013xvyl   0.96852
gfz2013xwxn   0.90665
gfz2013xwzd  -3.39190
gfz2013xxcc  -1.76270
gfz2013xyzb  -0.00726
gfz2013yach   1.02190
gfz2013yctg  -1.62920
gfz2013ydtm  -0.38349
gfz2013yewz  -0.18020
gfz2013yghj  -0.25459
gfz2013yhbu  -1.34700
gfz2013yhpk  -0.61680
gfz2013ylbx  -0.22986
gfz2013ymxs  -0.05093
gfz2013ynmw  -0.38784
gfz2013yqkv   0.61396
gfz2013yvqu  -0.23732
gfz2013yyhc   0.62101
gfz2013yyti  -1.25180
gfz2013yzte  -3.24840
gfz2013zaxb  -0.06512
gfz2013zfhu  -1.11610
gfz2013ziyr  -1.10000
gfz2013zjel   0.81285
gfz2013zjtw  -1.12760
gfz2014abgd  -0.65524
gfz2014adjs   0.37457
gfz2014afmx  -2.58280
gfz2014afyp  -0.97263
gfz2014agde  -0.88226
gfz2014agyz  -0.26283
gfz2014aidn  -0.40694
gfz2014ajlk  -1.39960
gfz2014ajtf  -0.92302
gfz2014alwz   0.14676
gfz2014amsb  -0.94762
gfz2014ared   1.32400
gfz2014arnc   0.59598
gfz2014arpf   0.64030
gfz2014arqr   0.24979
gfz2014atbl  -0.66326
gfz2014atgw   0.24318
gfz2014azqs  -0.49451
gfz2014bagd   0.74651
gfz2014bbro   0.12655
gfz2014bcae   0.38026
gfz2014bdfd  -1.94290
gfz2014bekc   0.84524
gfz2014bezu  -0.73208
gfz2014bfqo  -0.20935
gfz2014bhvd  -1.26560
gfz2014bjgt   0.36333
gfz2014bjsy  -0.42899
gfz2014bmfa  -0.35153
gfz2014bolf   0.60730
gfz2014bqes  -0.20400
gfz2014buej  -0.06300
gfz2014bwue  -0.69052
gfz2014bzna  -0.09489
gfz2014bztt  -0.62906
gfz2014caop   1.49670
gfz2014ccbz  -2.16500
gfz2014cdwi  -0.88409
gfz2014citw  -0.92970
gfz2014claq   1.03290
gfz2014clnj  -1.13730
gfz2014clnq  -1.01430
gfz2014crpy  -0.90952
gfz2014cueu  -1.58370
gfz2014cybg  -0.83205
gfz2014czno   0.16687
gfz2014czol   1.04610
gfz2014czqi  -1.46210
gfz2014czua   2.42300
gfz2014dbdf  -0.74970
gfz2014dffd   0.34759
gfz2014dgiy  -1.95620
gfz2014disp   2.47570
gfz2014dlri  -0.16271
gfz2014dpzx   2.02290
gfz2014duqn  -0.47744
gfz2014ebmc   1.68060
gfz2014edfx   0.54990
gfz2014efkk   1.53240
gfz2014efsd   0.04705
gfz2014eght   2.53780
gfz2014egwu   0.82301
gfz2014ejmt   1.14010
gfz2014ejvf  -0.11034
gfz2014emrg  -0.71295
gfz2014eqpl  -0.72472
gfz2014erbj   1.19380
gfz2014etqa  -0.31892
gfz2014ettc   0.26378
gfz2014ewcz   0.05451
gfz2014exmv   0.03022
gfz2014exxa   0.38178
gfz2014ezgb   0.33216
gfz2014fcms  -4.74090
gfz2014fexu  -0.95008
gfz2014ffdc  -0.98750
gfz2014ffqx   0.41020
gfz2014fgkb  -0.04016
gfz2014fgvi  -2.96230
gfz2014fgvr  -1.94620
gfz2014fgwt  -0.91089
gfz2014fgxt  -1.46750
gfz2014fgxz  -1.64640
gfz2014fgyo  -5.29110
gfz2014fgza  -2.15220
gfz2014fhbd  -1.55920
gfz2014fhdw  -2.45710
gfz2014fhgb  -1.59160
gfz2014fhhp  -2.70770
gfz2014fhjd  -1.74070
gfz2014fhkp  -1.08780
gfz2014fhla  -2.56390
gfz2014fhlh  -1.92540
gfz2014fhpf  -2.99140
gfz2014fhqk  -0.94337
gfz2014fhrq  -2.20280
gfz2014fhsg  -1.16840
gfz2014fhwx  -1.07240
gfz2014fhxm  -1.38790
gfz2014fhyb  -0.82214
gfz2014fimn  -1.55480
gfz2014fiuj   0.59806
gfz2014fiwq  -0.69211
gfz2014fjdz  -1.27600
gfz2014fjpb  -1.26000
gfz2014fjxd  -1.26960
gfz2014fjyo  -1.14620
gfz2014fjzd  -1.35400
gfz2014fjzw  -1.21090
gfz2014fkmr  -2.66840
gfz2014fles  -1.20410
gfz2014flfa  -1.25150
gfz2014fnyg  -0.19039
gfz2014foty   0.15396
gfz2014fqpz  -2.96930
gfz2014frdz  -1.72160
gfz2014frel  -2.22800
gfz2014frez  -1.88720
gfz2014frfl  -2.80760
gfz2014frjr  -1.12950
gfz2014frnb  -0.37088
gfz2014frwh  -1.01520
gfz2014fstx  -0.29136
gfz2014fsuh  -0.79579
gfz2014fszc  -1.17190
gfz2014ftgx  -0.71106
gfz2014ftka  -2.20880
gfz2014ftno  -2.61450
gfz2014ftoc  -1.33290
gfz2014ftrk  -2.05300
gfz2014ftvc  -0.77143
gfz2014fudl   0.06494
gfz2014furx  -1.70450
gfz2014fusu  -0.84712
gfz2014fuup  -0.71188
gfz2014fuvk  -1.53740
gfz2014fuzi  -2.09580
gfz2014fvaa  -0.97087
gfz2014fval  -1.66310
gfz2014fvdx  -1.11240
gfz2014fvgh  -2.09900
gfz2014fvhp  -0.74364
gfz2014fvpy  -1.77910
gfz2014fvrg  -2.11250
gfz2014fwdr  -1.16950
gfz2014fwtt  -1.91010
gfz2014fwyr   0.45903
gfz2014fxhd   0.63773
gfz2014fxpu  -1.56280
gfz2014fyfr  -1.73230
gfz2014fzgx  -1.48150
gfz2014gbcz   1.43680
gfz2014gbdq  -0.18374
gfz2014gbjf  -1.24830
gfz2014gcza  -1.43850
gfz2014gdsq  -1.33920
gfz2014geuy  -1.32950
gfz2014gezs  -1.27900
gfz2014gfdj  -0.14146
gfz2014ggnq  -0.09608
gfz2014ggsr  -0.01413
gfz2014gilf  -1.94400
gfz2014gkgf  -2.79610
gfz2014gkjt  -4.14030
gfz2014gkln   0.15924
gfz2014gklq  -2.42690
gfz2014gkpd  -1.82950
gfz2014gkpj   0.20551
gfz2014gkqf  -1.56920
gfz2014gktn  -0.47472
gfz2014gkut  -2.25990
gfz2014gkvk   0.01861
gfz2014gkxm  -0.99392
gfz2014glcu  -1.89870
gfz2014glfn  -1.25350
gfz2014glgo  -1.45960
gfz2014glhs  -2.61640
gfz2014glov  -2.20730
gfz2014glsh  -1.70660
gfz2014gltj  -1.19960
gfz2014gltx   0.11179
gfz2014glvn  -0.91738
gfz2014glvu  -0.78267
gfz2014glxy  -3.41670
gfz2014gmci  -1.37300
gfz2014gmes  -0.95455
gfz2014gmge  -2.27850
gfz2014gmhp  -0.50796
gfz2014gmhr  -0.43177
gfz2014gmku  -0.83717
gfz2014gmlz  -0.64410
gfz2014gmmt  -1.19270
gfz2014gmnb  -1.64300
gfz2014gmnw  -2.29890
gfz2014gmpy  -0.94459
gfz2014gmtb   0.21216
gfz2014gmtj  -0.85589
gfz2014gmto  -1.65800
gfz2014gmuw  -2.10440
gfz2014gmvr  -1.13100
gfz2014gmzl  -1.95140
gfz2014gndq  -0.45945
gfz2014gnfd  -1.25830
gfz2014gnfs  -1.16820
gfz2014gngg  -1.28660
gfz2014gnhk  -2.47710
gfz2014gnig  -0.62335
gfz2014gnms  -1.35560
gfz2014gnmx  -1.69970
gfz2014gnno  -2.11740
gfz2014gnnt  -1.59110
gfz2014gnom  -0.62096
gfz2014gnoz  -0.34403
gfz2014gnqt   1.15760
gfz2014gnsi  -1.07050
gfz2014gntd   0.68175
gfz2014gnvw  -1.03710
gfz2014gnwg  -1.16430
gfz2014gnxb  -1.55170
gfz2014goba  -2.12200
gfz2014goei  -1.20440
gfz2014gogv  -0.73239
gfz2014gohm  -1.81810
gfz2014golz  -0.64193
gfz2014goqw  -1.62100
gfz2014gori  -0.24772
gfz2014gpac  -1.82650
gfz2014gpbx  -1.29630
gfz2014gpce  -2.07090
gfz2014gpdo  -1.33750
gfz2014gpgd   0.04596
gfz2014gphr  -1.42290
gfz2014gpmm  -2.11860
gfz2014gpnf  -1.24360
gfz2014gpqq   1.21730
gfz2014gpuk  -0.65581
gfz2014gpvk   0.10254
gfz2014gpxl  -1.13190
gfz2014gpya   2.31250
gfz2014gqbj  -1.76170
gfz2014gqco  -1.45680
gfz2014gqed  -0.90512
gfz2014gqer  -2.64390
gfz2014gqgf  -0.70773
gfz2014gqiy  -0.77403
gfz2014gqqz  -1.41550
gfz2014gqro  -1.39550
gfz2014gqup  -2.07850
gfz2014gqve  -1.54890
gfz2014grcv  -0.21073
gfz2014grfp  -1.76090
gfz2014grgn  -1.59190
gfz2014grho  -0.85155
gfz2014gsdw   2.70790
gfz2014gsgv  -0.82082
gfz2014gsjg  -1.10010
gfz2014gsqs  -1.35720
gfz2014gtef  -1.57200
gfz2014gtlu  -0.81787
gfz2014gtwz  -0.85289
gfz2014gufl  -0.91317
gfz2014gull  -1.60830
gfz2014gumd  -0.88826
gfz2014gutm  -1.13020
gfz2014gvhw  -1.33690
gfz2014gvqj  -0.86997
gfz2014gvra  -0.58526
gfz2014gvrd  -1.25420
gfz2014gwab  -1.03690
gfz2014gwap   0.50339
gfz2014gwqj  -2.77550
gfz2014gxag  -0.85535
gfz2014gxkh  -1.33650
gfz2014gxqu   0.00000
gfz2014gxqx  -0.24559
gfz2014gxvf  -0.33604
gfz2014gxxh  -1.01540
gfz2014gxxo  -1.86760
gfz2014gyxd  -1.34540
gfz2014gzrm   0.12896
gfz2014gzue  -0.29508
gfz2014haey  -0.71141
gfz2014hafk   0.20541
gfz2014hagb  -0.96675
gfz2014haos  -0.58898
gfz2014hasj  -2.13010
gfz2014hauo  -2.28470
gfz2014hbjm  -1.40310
gfz2014hbjz  -1.02980
gfz2014hcmj  -1.01360
gfz2014hcns   0.36101
gfz2014hetr  -0.67033
gfz2014heyq  -1.20530
gfz2014hfad  -1.21180
gfz2014hfhl  -2.14840
gfz2014hfzf  -1.07650
gfz2014hgqo  -1.45120
gfz2014hhfs  -1.24350
gfz2014hhwx  -3.38830
gfz2014hifp  -0.72517
gfz2014hiih  -1.76180
gfz2014hiiz  -2.18140
gfz2014hjgh  -1.40440
gfz2014hjgr  -2.07410
gfz2014hjhu  -1.02630
gfz2014hjij  -1.57410
gfz2014hjkp  -0.59955
gfz2014hjlx  -1.43610
gfz2014hkcf  -1.95120
gfz2014hlib  -2.48570
gfz2014hmgf  -1.29110
gfz2014hmvx  -0.89341
gfz2014hmzg  -0.84951
gfz2014hnfm  -1.75380
gfz2014hoap  -2.20770
gfz2014hodc  -0.59891
gfz2014hokj  -0.99305
gfz2014hphw  -1.23780
gfz2014hppw  -0.16824
gfz2014hqxs  -2.15630
gfz2014hqyx  -1.12550
gfz2014hrft  -0.11983
gfz2014hriu  -0.66908
gfz2014hrtn  -0.87289
gfz2014hscz   0.29597
gfz2014hsqo  -0.47850
gfz2014hssr  -0.42950
gfz2014hszs   0.24105
gfz2014htbf  -0.19607
gfz2014huaj  -2.47780
gfz2014hugz  -1.02190
gfz2014hvdm  -1.52260
gfz2014hwan  -0.75279
gfz2014hwsy  -0.64073
gfz2014hwwi  -1.04140
gfz2014hxcl  -0.15973
gfz2014hyal   0.62787
gfz2014hyvq  -1.60540
gfz2014hzdy  -3.38330
gfz2014hzfr   1.06100
gfz2014hzfw   1.68790
gfz2014hzgn  -1.06170
gfz2014hzht  -0.60253
gfz2014hzig  -0.40302
gfz2014hzze  -0.54159
gfz2014iani  -1.28520
gfz2014ieam  -0.54494
gfz2014iege  -0.07666
gfz2014ieho   0.02888
gfz2014ifue  -1.95820
gfz2014ifzj  -1.16770
gfz2014ikun   0.56568
gfz2014ikvd  -1.04760
gfz2014ilwu  -1.18210
gfz2014imap   0.18011
gfz2014immt  -1.26650
gfz2014imnn  -1.86480
gfz2014inbj  -0.39682
gfz2014iobd  -0.69101
gfz2014iqzj  -0.32627
gfz2014irci  -0.73259
gfz2014ircq  -0.29555
gfz2014isdq   0.42000
gfz2014isff   0.82947
gfz2014issk  -1.01130
gfz2014isub  -1.71200
gfz2014isys   0.48064
gfz2014itab  -1.16920
gfz2014itbe  -1.33830
gfz2014itbu  -0.64559
gfz2014itfc  -0.93755
gfz2014itgh  -1.57410
gfz2014itjx  -0.56206
gfz2014itkw  -2.38440
gfz2014itpj  -1.61720
gfz2014iuhq  -1.22910
gfz2014ivep  -1.25280
gfz2014iwnf  -2.52430
gfz2014iwwl  -0.64401
gfz2014ixga  -1.29860
gfz2014ixky   0.35210
gfz2014iywt  -1.07210
gfz2014jagg  -1.41000
gfz2014jass   0.19171
gfz2014jcjt   4.48080
gfz2014jcmt  -1.38390
gfz2014jdxj  -0.58427
gfz2014jfis  -0.92317
gfz2014jggm  -0.91322
gfz2014jird  -1.75430
gfz2014jjhc  -1.23060
gfz2014jjkh   0.11289
gfz2014jjln  -2.72300
gfz2014jkxe  -1.75100
gfz2014jmnk   0.08553
gfz2014jmsy  -0.82385
gfz2014jnea   0.00652
gfz2014jnfy  -0.25580
gfz2014jnyv  -1.14400
gfz2014joak  -0.77169
gfz2014jomw  -1.57380
gfz2014jozl   0.14040
gfz2014jpep  -2.14860
gfz2014jpez  -0.53193
gfz2014jpfn   0.12790
gfz2014jpgu  -1.23870
gfz2014jpxs  -0.37890
gfz2014jtcz   0.02754
gfz2014jtfe  -1.49920
gfz2014jvow  -2.93170
gfz2014jwmh   0.88331
gfz2014kara   1.37360
gfz2014kbuk   2.48090
gfz2014nowp  -2.12510
gfz2014npeo   0.55844
gfz2014nphm  -0.77991
gfz2014nqbs  -0.32308
gfz2014nqfm  -2.33070
gfz2014nqpk   0.07809
gfz2014nrie  -1.83350
gfz2014nvdi   0.95013
gfz2014nyeh  -0.25627
gfz2014nyfb  -1.36000
gfz2014nylm  -2.18450
gfz2014obbs   0.02113
gfz2014obxm   0.81168
gfz2014odgv  -1.20400
gfz2014ofhm   0.29626
gfz2014oghp   0.32691
gfz2014oims  -1.66000
gfz2014oinz  -1.95290
gfz2014okec  -0.52755
gfz2014okxu  -0.24369
gfz2014omyn   0.77313
gfz2014oned   3.01770
gfz2014opqr   1.50230
gfz2014oqhw  -0.69871
gfz2014orgz  -0.67140
gfz2014orxs  -1.36880
gfz2014oryw   0.00000
gfz2014osvx  -1.73430
gfz2014owii   1.05970
gfz2014owur  -0.57903
gfz2014owxc  -2.64930
gfz2014oxcc  -2.37300
gfz2014oyly  -0.97837
gfz2014oypt  -0.01167
gfz2014ozmj  -0.09571
gfz2014pghi  -0.40987
gfz2014pjer  -0.85867
gfz2014pjum  -2.72250
gfz2014pmxt  -0.66554
gfz2014pngj  -0.44826
gfz2014poap   0.55539
gfz2014ppzf  -0.78366
gfz2014pqqp   2.37510
gfz2014prdm   1.40080
gfz2014pxbu   2.23400
gfz2014pzni  -1.68610
gfz2014qbzi  -2.03900
gfz2014qcxs  -0.51396
gfz2014qfzq  -1.05230
gfz2014qifa   0.43905
gfz2014qjfl  -0.37816
gfz2014qlxd  -2.35650
gfz2014qngj   0.40500
gfz2014qqfg   1.13140
gfz2014qqhm  -1.86510
gfz2014qsby   0.11343
gfz2014qtwv  -2.14970
gfz2014raau   1.36500
gfz2014rcyx   0.31200
gfz2014rfeb   0.01480
gfz2014rffv  -0.04305
gfz2014rghp   0.85223
gfz2014rhju   0.52634
gfz2014rhnz  -0.76886
gfz2014rhwq  -0.98207
gfz2014riel  -1.29940
gfz2014rils   2.04990
gfz2014rnrn  -0.27995
gfz2014roba   0.45699
gfz2014royq  -1.25410
gfz2014rucz   0.45754
gfz2014rwos   0.05393
gfz2014ryfb  -0.82435
gfz2014sadu  -0.66553
gfz2014sryn  -0.86028
gfz2014ssds  -0.23608
gfz2014ssvz  -2.79370
gfz2014swgt   0.06374
gfz2014tabg  -0.35493
gfz2014tgcw  -0.84945
gfz2014tovs   0.68087
gfz2014tqly   0.40872
gfz2014tqsf  -1.66770
gfz2014tqth  -1.63620
gfz2014tzsd  -0.99929
gfz2014uapa  -0.61061
gfz2014ubyq  -0.53210
gfz2014udgg  -1.62380
gfz2014uohh   1.39060
gfz2014utac   0.94754
gfz2014uvrk   0.98796
gfz2014uyrq   0.43936
gfz2014uzaw  -0.18310
gfz2014vcev  -2.99730
gfz2014vdnh  -0.44817
gfz2014veit  -1.25040
gfz2014vhld   0.02165
gfz2014vhms  -2.22910
gfz2014vjoh  -0.95654
gfz2014vljh  -0.96441
gfz2014vnxu   0.52988
gfz2014vpus  -1.57040
gfz2014vqqa  -2.45000
gfz2014waoo   1.27650
gfz2014watn  -1.39800
gfz2014wjko  -2.63800
gfz2014wqcp  -0.23945
gfz2014wrkh  -2.02800
gfz2014wsjh   1.14360
gfz2014wwib  -1.73840
gfz2014xbyr  -1.71900
gfz2014xhkc   0.05145
gfz2014xhwk  -0.58552
gfz2014yazi  -0.23198
gfz2014yhhm  -1.22420
gfz2014ynhc   1.72270
gfz2014yppv  -0.43340
gfz2014yrug  -0.63508
gfz2014yyiy  -0.23099
gfz2014zcgo  -0.69299
gfz2014zdtl  -0.52361
gfz2014zkys   3.42250
gfz2014zlgp  -0.03221
gfz2015aide   0.12393
gfz2015ansu  -0.66907
gfz2015arpd  -0.32939
gfz2015aruz  -1.76470
gfz2015aush  -1.48040
gfz2015bavu   0.77514
gfz2015bdyd  -0.33644
gfz2015berb  -0.81966
gfz2015bfjm  -2.31840
gfz2015bfzt  -0.25359
gfz2015bkbj  -0.89483
gfz2015bnho  -0.12579
gfz2015bohx  -1.02500
gfz2015bphe  -3.16140
gfz2015bpxl  -0.41022
gfz2015bsnl   0.11800
gfz2015bucr  -0.72704
gfz2015byjd   0.72782
gfz2015bzej  -0.87459
gfz2015chhn   0.41741
gfz2015clrp  -0.19693
gfz2015cpuo   0.59475
gfz2015cxrc   0.31740
gfz2015cyjd  -1.40120
gfz2015ddhl  -0.06926
gfz2015dizn  -1.92780
gfz2015drlk  -0.39960
gfz2015dskr  -0.71590
gfz2015dtqr  -0.08879
gfz2015dvbn  -0.98217
gfz2015ednc  -1.00950
gfz2015eezy   0.57259
gfz2015egbk   0.86139
gfz2015egxq   0.79336
gfz2015ehou  -1.34890
gfz2015ehpz   0.16194
gfz2015eljz  -0.96981
gfz2015emcg   3.61070
gfz2015emtg  -0.05726
gfz2015enth   0.64780
gfz2015etai   0.61251
gfz2015eyqs  -2.77590
gfz2015fbbk  -1.26030
gfz2015fbew   0.03802
gfz2015fcua   1.16060
gfz2015fdpr   2.11110
gfz2015fjhk  -2.65030
gfz2015fkbc  -0.20072
gfz2015fkgt   0.81873
gfz2015fkjs  -1.21500
gfz2015flis   0.98234
gfz2015fvoi  -1.00140
gfz2015fwkq  -0.64167
gfz2015fwnf   1.34100
gfz2015fxdi   1.66570
gfz2015gckd  -1.71200
gfz2015gjbr  -0.04069
gfz2015gkwa   0.52686
gfz2015gmgf  -0.65026
gfz2015guhd   0.77207
gfz2015gzja  -0.45458
gfz2015hdbn   0.28530
gfz2015hdcp   0.99061
gfz2015hepg   0.26635
gfz2015hgbk  -1.49520
gfz2015hhbd  -0.07853
gfz2015hlfq  -0.68408
gfz2015hlqo  -1.44690
gfz2015hpmk  -0.86955
gfz2015hslo  -0.15697
gfz2015idho   0.48978
gfz2015igsy   0.00000
gfz2015ijmh  -0.39819
gfz2015imty  -0.59541
gfz2015imyp  -0.14723
gfz2015isim   1.30730
gfz2015ixyy   0.54364
gfz2015jkdw  -0.03940
gfz2015jmlf  -1.54730
gfz2015jmlu   0.95168
gfz2015jpap   0.44155
gfz2015jxbx  -0.23213
gfz2015jzcv  -1.79190
gfz2015kalm  -1.89270
gfz2015kfsu  -1.47310
gfz2015kkth   0.92892
gfz2015kphk  -1.78760
gfz2015kquq  -1.80710
gfz2015lbcg  -0.31023
gfz2015lcma   0.89734
gfz2015lcuo  -0.25319
gfz2015lfma  -1.56810
gfz2015lfos  -1.04780
gfz2015lfud  -0.74488
gfz2015lhjq  -0.59653
gfz2015lhjy  -2.08880
gfz2015ltii  -0.33520
gfz2015ltro  -1.40430
gfz2015lytv   0.74381
gfz2015mddr  -1.33700
gfz2015mfpy   1.28790
gfz2015micz  -0.63717
gfz2015mljd   0.14127
gfz2015mpte  -2.15660
gfz2015npud  -0.70239
gfz2015nuxz  -1.02430
gfz2015nwug   1.23880
gfz2015ocwr  -0.67751
gfz2015ofpd  -0.07940
gfz2015ojut   0.44916
gfz2015okpu   0.39430
gfz2015opjp  -0.74269
gfz2015oumn   0.96217
gfz2015oyfl   0.47651
gfz2015pjgr  -0.55748
gfz2015plal  -4.66890
gfz2015poni  -0.43805
gfz2015prlr  -0.05136
gfz2015puuu  -0.20064
gfz2015qafb   0.31360
gfz2015qnde  -1.35770
gfz2015qnho  -0.41130
gfz2015qnto   5.47210
gfz2015qols   1.61100
gfz2015qprd   1.29520
gfz2015qpvd  -0.96207
gfz2015quzo  -2.29590
gfz2015qvxu  -2.22540
gfz2015rgov   0.32669
gfz2015rgst  -0.95980
gfz2015rkzg  -0.80274
gfz2015rlnh   2.00120
gfz2015rnis  -1.46710
gfz2015roac  -0.05930
gfz2015rpzn   0.69843
gfz2015rtnv  -1.03020
gfz2015rwsb   1.32610
gfz2015saet   0.04067
gfz2015sdeo  -1.80360
gfz2015sdfy  -1.55370
gfz2015seuf  -1.32400
gfz2015sevh  -4.12160
gfz2015sfdd  -0.06975
gfz2015sgdj  -3.24970
gfz2015sgdn  -0.35972
gfz2015sggc  -2.08830
gfz2015sghq  -0.95545
gfz2015sgie  -1.13890
gfz2015sglg   0.39059
gfz2015sgoa   1.13880
gfz2015shwt   0.35113
gfz2015siof  -1.26040
gfz2015sitn  -0.97510
gfz2015sixs  -0.38100
gfz2015sjgk  -0.56832
gfz2015sjjb   0.07672
gfz2015sjne  -0.85779
gfz2015skpv   1.42390
gfz2015sldx  -1.67250
gfz2015slfn   0.29595
gfz2015sljs  -2.91800
gfz2015slun   0.92516
gfz2015smym   0.70571
gfz2015snsf  -0.84515
gfz2015snwh  -0.29532
gfz2015snyd  -0.60457
gfz2015soat   0.42827
gfz2015soxc   0.27902
gfz2015sozw  -0.61553
gfz2015spal   0.11861
gfz2015spxh   0.09773
gfz2015sqmy   1.04570
gfz2015stas  -1.33760
gfz2015susq  -0.24383
gfz2015svjy  -1.23120
gfz2015svwm  -0.36398
gfz2015swgn  -0.31811
gfz2015swjx   1.68500
gfz2015swnc  -1.57570
gfz2015sxgd  -0.34332
gfz2015szcb  -0.15451
gfz2015szfe  -1.23570
gfz2015taml  -1.20820
gfz2015tbdn  -0.05566
gfz2015tcem  -2.20380
gfz2015tchx   0.08103
gfz2015tdbb  -0.91710
gfz2015tdhb  -1.06550
gfz2015teyc  -0.53081
gfz2015teyn  -0.66949
gfz2015tezd  -0.88624
gfz2015tflu   0.52201
gfz2015tghj  -0.84463
gfz2015thfd   0.40382
gfz2015thgp  -1.45390
gfz2015thtd   0.49199
gfz2015thwg  -0.30539
gfz2015thwp  -0.73440
gfz2015tiyc  -0.40511
gfz2015tjhv  -0.30465
gfz2015tkol  -2.22990
gfz2015tlba  -1.40610
gfz2015tlkf  -1.74040
gfz2015tlok  -1.90610
gfz2015tnjd   0.84258
gfz2015tnla  -0.43002
gfz2015tohm   0.77152
gfz2015tojz   0.69984
gfz2015totf   0.70167
gfz2015tpra   0.32919
gfz2015tqff  -3.06990
gfz2015tqjf  -0.29627
gfz2015tqsg  -0.81458
gfz2015truf   0.18318
gfz2015tsdm  -1.28910
