# Nsamples: 1701  MAD:  0.695  mean: -0.202  variance:  1.277
gfz2010ahla   0.02274
gfz2010ahqi   0.07596
gfz2010bedu  -0.01134
gfz2010bgth  -0.07300
gfz2010bhhq  -0.89293
gfz2010bifb   1.03080
gfz2010bjeb  -0.10117
gfz2010bkob   0.58484
gfz2010bkos   1.55540
gfz2010bywj   0.00840
gfz2010caft  -0.49324
gfz2010cbkg  -2.31560
gfz2010cdbt  -0.00000
gfz2010chnv  -0.30836
gfz2010cind  -1.05050
gfz2010cjmx  -0.88370
gfz2010cjrf  -0.58650
gfz2010ckeu  -0.49017
gfz2010cnwc   0.97743
gfz2010cptb  -0.30987
gfz2010cqwl  -0.42878
gfz2010cres  -0.15177
gfz2010czps  -0.77195
gfz2010ddzo  -0.61042
gfz2010dejx  -0.24881
gfz2010dfru  -0.43731
gfz2010dlgc  -0.29366
gfz2010dtmx  -1.00310
gfz2010dumm  -1.06480
gfz2010gjvo  -0.70391
gfz2010glqr   2.90740
gfz2010glxl   1.83700
gfz2010gymo  -1.27780
gfz2010gyqp  -1.48200
gfz2010gzxr  -0.77059
gfz2010hakh   1.64180
gfz2010hbka  -1.40300
gfz2010hcio   3.93640
gfz2010hhls  -0.89477
gfz2010hjoc  -0.32969
gfz2010hllj   1.81320
gfz2010hlln   3.20620
gfz2010hlmq   1.65640
gfz2010hncj  -0.18777
gfz2010homc  -0.12117
gfz2010hufk  -0.48133
gfz2010ibiy   0.71035
gfz2010ibxj  -0.56541
gfz2010iimu   0.33405
gfz2010imfv   1.22560
gfz2010imsh  -0.00000
gfz2010iobp  -0.22755
gfz2010iqep   0.93618
gfz2010iqfm  -4.61720
gfz2010iqnm   0.74788
gfz2010irqr   1.65070
gfz2010irvf   0.05428
gfz2010itpb   1.47020
gfz2010jatq  -0.37466
gfz2010jipf  -1.42460
gfz2010jitt   0.77357
gfz2010jpss   0.79113
gfz2010jtal   2.91890
gfz2010jxbm   1.02670
gfz2010kcoo   0.65100
gfz2010kdyc   2.20030
gfz2010kmsv  -1.13890
gfz2010kqyh  -1.15800
gfz2010lfju  -0.50449
gfz2010lsft  -0.50639
gfz2010lyfk  -0.16817
gfz2010mdpq  -0.58231
gfz2010mfpt  -0.95152
gfz2010mipi   0.50734
gfz2010miqn   1.52350
gfz2010msjj  -0.52022
gfz2010muca  -0.29439
gfz2010mzjr   0.29923
gfz2010ncrl   0.60872
gfz2010nrjo   1.23600
gfz2010ocxq   1.47120
gfz2010oedn   0.29948
gfz2010okdm   3.40400
gfz2010oluw  -1.47620
gfz2010onma  -0.95850
gfz2010otbn  -0.82562
gfz2010oyqy  -0.82970
gfz2010pdtk   1.07770
gfz2010pfyu  -0.52318
gfz2010phvg   2.21120
gfz2010plbg  -0.15675
gfz2010pmqd   1.10000
gfz2010qbng  -0.46255
gfz2010qitd  -1.09570
gfz2010rhas   1.82280
gfz2010rkfp   0.77392
gfz2010rxjw   0.39917
gfz2010rywq   0.51426
gfz2010sfla   0.42638
gfz2010sjwp  -0.32150
gfz2010sniy  -2.14290
gfz2010srdb   0.02188
gfz2010sxwt  -1.19330
gfz2010sysw  -0.42126
gfz2010tcbr   0.65804
gfz2010tlfm   2.11870
gfz2010tzzk   1.90020
gfz2010uouo  -2.67680
gfz2010usho  -0.15999
gfz2010uzon  -0.44074
gfz2010veri  -1.84070
gfz2010vhuj   2.22330
gfz2010vppc  -0.37366
gfz2010vyxd  -1.06890
gfz2010wioh  -0.69032
gfz2010wnty  -0.00594
gfz2010wntz   0.13256
gfz2010xcdh  -1.15850
gfz2010xche   0.26058
gfz2010xcij  -0.98808
gfz2010xgfc   0.04677
gfz2010xgzw   0.30253
gfz2010xjck  -0.96496
gfz2010xjsj  -1.14170
gfz2010xmpr  -1.07390
gfz2010xnxk  -0.88379
gfz2010xxdb  -0.29614
gfz2010xxzn  -1.56780
gfz2010yfsv  -1.03910
gfz2010ygwu   0.09634
gfz2010yjev   0.14585
gfz2010ymfy  -0.43866
gfz2010ymur   0.05685
gfz2010yosr   0.15171
gfz2010yoyx  -0.28903
gfz2010yqqb   0.09497
gfz2010yqqv  -2.39160
gfz2010ysaj  -0.95215
gfz2010yvwz  -0.79770
gfz2010yzgq   0.01435
gfz2010zdpo  -0.51052
gfz2010zeeh  -1.32980
gfz2011aatr   0.22342
gfz2011adjs   1.44920
gfz2011adlj   2.29690
gfz2011adne   0.48252
gfz2011adpw   0.36582
gfz2011adqk   1.57770
gfz2011ahfw  -2.36150
gfz2011alip  -0.32621
gfz2011alsa   0.21075
gfz2011alwf   0.11587
gfz2011ammu  -0.52378
gfz2011anur  -1.25340
gfz2011aosc   0.49000
gfz2011aqxf   2.81160
gfz2011asru  -0.62266
gfz2011aupi   0.07575
gfz2011bnsg  -1.22650
gfz2011bnzn  -0.56366
gfz2011bpkd  -0.85062
gfz2011bswz  -1.16470
gfz2011ccpw  -0.59877
gfz2011cfae   0.13167
gfz2011cndo   0.95920
gfz2011cnho  -0.96695
gfz2011coxh   3.59080
gfz2011crdy   0.31584
gfz2011ctbn  -0.01706
gfz2011cvcg  -0.08901
gfz2011cvfg  -2.09140
gfz2011cwgn   2.00580
gfz2011cykd   0.09858
gfz2011cylz   1.13070
gfz2011cynl   1.61630
gfz2011cyre  -0.57530
gfz2011cyuk   1.03100
gfz2011czwj   2.77310
gfz2011dbev   1.00120
gfz2011dbig  -0.48819
gfz2011dbli   2.39860
gfz2011dbon   1.81350
gfz2011dbwt   1.42830
gfz2011dcqb   0.32520
gfz2011ddao   0.53172
gfz2011dddh  -0.71632
gfz2011deja  -1.05640
gfz2011dkyi  -0.06229
gfz2011dldn  -0.46628
gfz2011dllz   0.00000
gfz2011dlyx  -0.72622
gfz2011dmat  -0.44867
gfz2011dndz  -0.60291
gfz2011dpaa  -0.29277
gfz2011dpmx  -1.41470
gfz2011dpqx  -0.00642
gfz2011dqio  -0.06613
gfz2011dtpy   2.78540
gfz2011duyr   2.78130
gfz2011dvxb  -0.33726
gfz2011eayc  -0.71706
gfz2011ecsc   1.92030
gfz2011ecvr   0.02847
gfz2011efgv  -0.39737
gfz2011ehzq   2.07600
gfz2011eiis   0.65406
gfz2011ejlp  -1.03210
gfz2011ekpr  -0.89034
gfz2011eocc  -0.44216
gfz2011etje  -1.95730
gfz2011fdzv  -0.29963
gfz2011fgvr   0.55341
gfz2011fhag   0.64554
gfz2011fhbm  -0.25262
gfz2011fhur   0.92211
gfz2011fkbn  -0.96585
gfz2011flgj  -0.07068
gfz2011fnsw  -0.82568
gfz2011gcwb   1.20980
gfz2011gdgh  -1.58760
gfz2011ggvf  -0.84080
gfz2011gjlx  -0.58266
gfz2011gkey   3.96370
gfz2011haid   3.20850
gfz2011hbex  -0.60543
gfz2011hebt  -0.80790
gfz2011hfkj   0.63536
gfz2011hlqw   0.05096
gfz2011hlsa   0.17002
gfz2011hlth  -0.24209
gfz2011hpgx   1.35860
gfz2011hpqp   1.18700
gfz2011hrhe  -0.15292
gfz2011hrhu   3.10220
gfz2011hvbu   0.14727
gfz2011ieie   0.47194
gfz2011ixai  -0.55467
gfz2011izqa  -0.57239
gfz2011jbbc  -0.51803
gfz2011jghb   0.25011
gfz2011jmbn  -1.37040
gfz2011jplh   0.39121
gfz2011knbi  -1.21590
gfz2011knoo  -0.08153
gfz2011kqwo  -0.44450
gfz2011kqyg   0.57148
gfz2011kweu   0.64990
gfz2011kwhq  -0.07616
gfz2011kwid   1.11250
gfz2011kwiy  -2.93180
gfz2011kwjx   1.79880
gfz2011kwkw   0.32405
gfz2011kwld   0.97163
gfz2011kwlq   1.14510
gfz2011kwni   0.63219
gfz2011kwnu   0.66905
gfz2011kwqc   1.67010
gfz2011kwrf  -0.46444
gfz2011kwsz   0.74821
gfz2011kxzp   0.80914
gfz2011ldna   0.42449
gfz2011lggq   1.88650
gfz2011lhls   1.38130
gfz2011lzwj   0.88463
gfz2011mdie  -1.51340
gfz2011mivl  -0.57522
gfz2011nauw  -0.02498
gfz2011nkaz  -0.89130
gfz2011nmnq  -2.83740
gfz2011nmqj   0.42172
gfz2011nrwc   0.31534
gfz2011nsex  -0.15098
gfz2011ntkh   0.17054
gfz2011ntrv  -1.36820
gfz2011nudm  -0.46295
gfz2011ogqk   1.17660
gfz2011oiqe  -0.65092
gfz2011orgn   2.37680
gfz2011ornx   1.19790
gfz2011owvz  -1.77750
gfz2011pccd  -1.16530
gfz2011phms   3.17450
gfz2011pntf   5.87350
gfz2011psnq  -0.34495
gfz2011qvae   1.15120
gfz2011rdby  -1.12020
gfz2011rewa   0.46577
gfz2011rgwl  -0.26104
gfz2011rgwp   1.01090
gfz2011rqui   0.14056
gfz2011rsrh   0.17506
gfz2011runa  -0.36712
gfz2011rznl   0.06254
gfz2011sawg   0.47118
gfz2011shqm  -0.92168
gfz2011socv  -0.30483
gfz2011srka  -0.60496
gfz2011stal   0.03660
gfz2011sthv  -0.44149
gfz2011svix  -0.57584
gfz2011syjd   0.02605
gfz2011taps   2.70470
gfz2011tbas   2.18980
gfz2011tcij   0.90770
gfz2011tjrf   1.89300
gfz2011tkfp   0.24368
gfz2011tkog  -0.23939
gfz2011tnag  -0.01519
gfz2011tpfr  -0.47543
gfz2011tsfd  -0.52938
gfz2011tsnp  -0.02726
gfz2011twov  -1.27460
gfz2011unkx   0.02791
gfz2011urxy  -0.58178
gfz2011urzu  -0.01946
gfz2011vclt  -1.27430
gfz2011vhfi  -1.08930
gfz2011vkun  -1.02070
gfz2011vldk  -1.58040
gfz2011vnza  -1.20620
gfz2011vqnr  -0.55792
gfz2011vqrj   2.07610
gfz2011vxns  -7.06970
gfz2011vxod  -1.86640
gfz2011vxxg  -0.06417
gfz2011wfja  -0.64573
gfz2011wijj  -0.14979
gfz2011wjul   0.60756
gfz2011wtmq  -0.76712
gfz2011wvzb  -0.37856
gfz2011wxfs  -0.18375
gfz2011wxtk  -0.81731
gfz2011wype   0.25660
gfz2011xesx   0.20095
gfz2011xqru  -0.28216
gfz2011xyxj  -1.32990
gfz2011yfdx   0.40716
gfz2011yfys  -0.37966
gfz2011yhwz  -1.28390
gfz2011yybo  -0.29806
gfz2011zjap  -0.78651
gfz2011zlfg   0.34394
gfz2011zlrd  -0.36469
gfz2011zqhh   0.81664
gfz2012ablh  -1.18350
gfz2012ajtq   0.87618
gfz2012aqgp   4.32490
gfz2012aqtq  -0.73072
gfz2012attr  -1.63220
gfz2012bfyn   0.22723
gfz2012bgnk  -0.82339
gfz2012bngd   4.43530
gfz2012bpkx  -0.59370
gfz2012bpnl   1.10500
gfz2012bpwl   2.41180
gfz2012brhv   1.34870
gfz2012byad  -0.07525
gfz2012cbed  -0.90634
gfz2012ckxi  -1.54570
gfz2012cmfy   1.39800
gfz2012cnod  -0.47462
gfz2012covm  -0.44650
gfz2012cqtc  -0.50503
gfz2012cxdn   2.41170
gfz2012cyof  -0.40883
gfz2012czlw   0.00000
gfz2012ddma  -0.28273
gfz2012divk   0.16225
gfz2012dves  -2.20400
gfz2012ekzf   1.39300
gfz2012elce   1.54090
gfz2012enno   0.16949
gfz2012eskt  -1.67560
gfz2012ewkj   0.30350
gfz2012ezvr   0.09840
gfz2012fgzz  -0.58345
gfz2012fhnh   2.97450
gfz2012fivh  -0.70119
gfz2012foeo  -1.34230
gfz2012fwfo   1.13600
gfz2012fwob   0.38503
gfz2012fwtr  -0.21288
gfz2012fzfa   0.38044
gfz2012gill  -0.63931
gfz2012glss   0.34184
gfz2012gnvh  -0.09776
gfz2012gocc   4.10440
gfz2012gwqb  -1.19490
gfz2012hdbm  -0.63547
gfz2012hnul   1.53470
gfz2012hogg  -2.13840
gfz2012holl  -0.28587
gfz2012hsex  -0.36390
gfz2012htet  -0.46942
gfz2012hwmz   0.78874
gfz2012hwyo  -0.11093
gfz2012hyaa   0.25178
gfz2012hzbe  -1.03940
gfz2012iamr   0.23101
gfz2012icmv  -0.98165
gfz2012idje   0.09756
gfz2012iffo  -0.92012
gfz2012ihdl  -1.11350
gfz2012iivw  -1.37880
gfz2012ilxh   0.14066
gfz2012imay   1.60010
gfz2012imbd  -1.90630
gfz2012intn  -2.45500
gfz2012iyrb  -1.29710
gfz2012jhaz   0.25507
gfz2012jlox   0.33232
gfz2012jmwd  -0.29816
gfz2012joqe  -0.62217
gfz2012jpeh   1.71790
gfz2012jshk   0.05421
gfz2012jted  -0.88852
gfz2012jupx  -1.33140
gfz2012jxiy  -1.12310
gfz2012kanu  -0.99683
gfz2012kbjb  -0.54911
gfz2012kbzj  -0.83224
gfz2012kdmb  -1.25710
gfz2012keor   0.92492
gfz2012kiik   1.38360
gfz2012kkcp  -0.21950
gfz2012kkup   0.35003
gfz2012klhx   0.08478
gfz2012kuct   0.18277
gfz2012kudo   0.04025
gfz2012nqnk   0.05454
gfz2012nroo  -0.73571
gfz2012nsbz  -0.21461
gfz2012ntzv   0.64302
gfz2012nutf   1.44360
gfz2012oazn   0.65066
gfz2012obgw  -2.81510
gfz2012obnq  -0.85083
gfz2012oedb  -1.88390
gfz2012oilt   0.06706
gfz2012okhx   0.12224
gfz2012omvo  -1.07300
gfz2012oqmw   0.36063
gfz2012ouyp  -0.04737
gfz2012oycg  -1.15650
gfz2012pazr  -0.42326
gfz2012pcxi  -0.48708
gfz2012peex  -0.23029
gfz2012pkel  -2.09270
gfz2012plea  -3.18830
gfz2012pofl  -0.95490
gfz2012poju   0.96621
gfz2012priv  -0.57669
gfz2012prlt  -1.04140
gfz2012pspd  -0.06889
gfz2012qjhs  -0.20538
gfz2012qouy   0.19698
gfz2012qqqp  -0.33868
gfz2012qtgs   1.73240
gfz2012qurq  -0.07280
gfz2012quso  -1.44120
gfz2012qvxn  -0.34063
gfz2012raen   0.17505
gfz2012raex  -0.46747
gfz2012rats   2.17630
gfz2012rboy  -0.53967
gfz2012rcbq   0.21598
gfz2012rcds   0.06044
gfz2012rcnj  -0.00000
gfz2012rejq  -0.88453
gfz2012repv  -1.38810
gfz2012rgkl  -0.30393
gfz2012rjld  -0.82977
gfz2012rkoa  -0.44170
gfz2012rmtr  -0.49377
gfz2012ronz  -0.40598
gfz2012royy  -0.37616
gfz2012rpmb  -0.41007
gfz2012rqlg  -0.30024
gfz2012rtqi  -0.45925
gfz2012rubi  -0.13249
gfz2012ruks  -0.14577
gfz2012rwko  -0.20443
gfz2012rwql   3.41840
gfz2012sfer   0.85867
gfz2012shtg  -0.09603
gfz2012snhi  -0.19654
gfz2012svpr  -0.09611
gfz2012syvl  -0.37224
gfz2012szla  -0.28914
gfz2012tazz  -1.24030
gfz2012tbbp  -2.09010
gfz2012thfx   0.06737
gfz2012tphj  -0.03410
gfz2012tyxl   0.79243
gfz2012uaqj   0.17176
gfz2012uciv  -0.20088
gfz2012ulpd  -0.90719
gfz2012uoef   0.35820
gfz2012uqzp  -0.12339
gfz2012usba  -0.99896
gfz2012uvqf  -0.75877
gfz2012uxnz  -0.56667
gfz2012uyie  -0.41243
gfz2012uzyj   0.74489
gfz2012vjgl   0.27537
gfz2012vmeh   1.54050
gfz2012vntz  -0.04180
gfz2012vpza  -0.78138
gfz2012vrua  -0.24167
gfz2012vsev   0.15218
gfz2012vtif  -0.16037
gfz2012vtxe  -1.74690
gfz2012vwvd   0.36757
gfz2012vxvr  -0.77759
gfz2012vyzo  -0.56927
gfz2012wajj   1.71980
gfz2012wdyx  -0.99750
gfz2012wgbb   0.07349
gfz2012wizz  -1.24670
gfz2012wkfw   1.16900
gfz2012wklq  -0.81995
gfz2012wpah  -1.58520
gfz2012wqnc  -0.09189
gfz2012wrir   2.85830
gfz2012wtkh  -0.66513
gfz2012wtkr   3.00670
gfz2012wtov  -0.11366
gfz2012wubh  -0.46521
gfz2012wvfl   2.72710
gfz2012wwdo   1.09370
gfz2012wxer   2.59810
gfz2012wxlg   2.14040
gfz2012wxnu   0.81616
gfz2012wybs   0.35390
gfz2012wypz   0.71839
gfz2012xbjq  -0.23296
gfz2012xgqm  -0.27023
gfz2012xhci  -0.28102
gfz2012xjyv  -0.04125
gfz2012xkkv   1.26740
gfz2012xpmm  -1.09370
gfz2012xyqp   0.04763
gfz2012xyua  -0.66223
gfz2012yhag  -0.93009
gfz2012yldu  -0.41320
gfz2012yoie  -1.06600
gfz2012yqjj   0.00000
gfz2012yxxu  -0.07932
gfz2012yzod  -0.09403
gfz2012zemz   1.37220
gfz2012zhmb  -1.43320
gfz2012zhyf  -0.31796
gfz2012ziml  -0.29390
gfz2012zitl   1.84470
gfz2012zjpv   0.46715
gfz2012zjre   2.64430
gfz2012zsqk  -0.21474
gfz2013aayj   0.18145
gfz2013acag   5.31470
gfz2013adey   0.67557
gfz2013aeee  -0.34807
gfz2013akgj   0.14067
gfz2013aknp  -0.86336
gfz2013apmm  -1.43880
gfz2013aqaw  -0.79801
gfz2013aspo  -0.25662
gfz2013avic  -0.41847
gfz2013bbrc  -0.22582
gfz2013bdke   1.10110
gfz2013bhgs  -0.52209
gfz2013biji   1.22870
gfz2013bnxc   0.57904
gfz2013bobq  -0.44561
gfz2013bokp  -0.32485
gfz2013bouj   0.55751
gfz2013btjm  -0.80678
gfz2013bzlb  -1.55030
gfz2013bzzm  -2.01060
gfz2013cajk   0.26833
gfz2013cbsm  -1.92520
gfz2013ccnr  -0.35953
gfz2013ccon   8.64830
gfz2013cdfj   2.91470
gfz2013cefm  -0.08672
gfz2013cfyy  -1.80530
gfz2013cgou  -0.55401
gfz2013cnms  -0.72311
gfz2013cnve   1.29140
gfz2013cnyj  -0.23041
gfz2013comh  -0.59259
gfz2013cptb   1.68040
gfz2013cuoq  -0.33584
gfz2013cwpn   4.79710
gfz2013czeq  -0.56239
gfz2013ddbh   2.88950
gfz2013dddp  -0.59427
gfz2013dkly   1.91560
gfz2013dkym  -0.08724
gfz2013dnnx  -0.51718
gfz2013dofo  -0.36872
gfz2013dojq  -0.44915
gfz2013dqls  -0.81909
gfz2013drpk  -0.41208
gfz2013drxz   0.28701
gfz2013dsog  -1.31430
gfz2013dspt   0.61523
gfz2013dsrk   0.05040
gfz2013dujm   0.65935
gfz2013duzp   1.00890
gfz2013dvyh  -1.23850
gfz2013egni   0.74711
gfz2013egpu   0.06916
gfz2013ehwe   0.28855
gfz2013ekpm  -1.08320
gfz2013erse  -0.64489
gfz2013esnh  -0.05928
gfz2013esnt   0.48196
gfz2013eswe  -0.41142
gfz2013evsq  -0.14854
gfz2013fcto   0.35864
gfz2013fdoo   0.62175
gfz2013fepm   1.42230
gfz2013ffko  -1.47420
gfz2013fkcl  -0.28564
gfz2013fkii   4.31750
gfz2013ftso  -0.08248
gfz2013fwxa  -0.50645
gfz2013fxge  -0.15120
gfz2013gaie  -0.00000
gfz2013gdnq   3.22840
gfz2013geia   0.08624
gfz2013gihf  -1.24960
gfz2013gjdc  -0.11811
gfz2013glcr   0.59623
gfz2013gmor  -0.25557
gfz2013gngz  -0.18062
gfz2013gock  -1.11230
gfz2013govy  -0.76708
gfz2013gras   0.40527
gfz2013gvdb  -0.16157
gfz2013gvet  -0.27076
gfz2013gxsu  -0.34387
gfz2013hbkh  -0.61572
gfz2013hbkq  -0.73215
gfz2013hisv  -0.86989
gfz2013hlbe  -1.54120
gfz2013hmbc  -0.61664
gfz2013hpfq  -0.03923
gfz2013hsfw   4.10680
gfz2013hudi   0.29899
gfz2013huwr  -0.41311
gfz2013hxcx  -0.94533
gfz2013iapa  -1.27540
gfz2013iayx  -1.19840
gfz2013icfh  -0.37456
gfz2013icqt   0.18617
gfz2013idbb  -0.09334
gfz2013iexo  -0.97336
gfz2013ihcj  -0.23844
gfz2013ijyg  -0.40129
gfz2013ikgo   0.25966
gfz2013ilug   1.67280
gfz2013inux   0.33770
gfz2013iodt   0.68220
gfz2013iopd   0.72748
gfz2013ippu  -1.22270
gfz2013iunn  -1.07580
gfz2013iynu   0.18541
gfz2013iyqz  -0.34608
gfz2013jarl  -0.04321
gfz2013jdrx  -0.25258
gfz2013jesk  -1.26170
gfz2013jfah  -0.89712
gfz2013jgij  -0.20185
gfz2013jgip  -1.46640
gfz2013jjrt  -0.12054
gfz2013jkut  -0.24793
gfz2013jlst  -1.34400
gfz2013jmcc   0.31324
gfz2013jokw   0.02011
gfz2013jphq  -0.06388
gfz2013json   0.31311
gfz2013jusj   0.77294
gfz2013jvhy  -0.11794
gfz2013jwcn  -0.58604
gfz2013kccc  -0.46676
gfz2013kdeo  -0.40819
gfz2013kgmj  -0.64406
gfz2013kheb   3.16110
gfz2013khli  -1.29250
gfz2013kilx  -0.22524
gfz2013kkzr  -1.13990
gfz2013kwag  -0.78622
gfz2013kweg  -0.03229
gfz2013kwps  -1.04910
gfz2013lcos   1.16170
gfz2013ldpc  -0.02736
gfz2013ldqb  -0.17815
gfz2013lfyb  -0.33519
gfz2013lgbb  -1.77710
gfz2013lgxc  -2.28540
gfz2013limo  -0.81418
gfz2013lixa  -0.23601
gfz2013lmdy  -0.47047
gfz2013lmrs  -0.49560
gfz2013lsob   1.64160
gfz2013lupg  -0.16506
gfz2013lwbk   0.04629
gfz2013lyko   2.32520
gfz2013lznu  -0.49735
gfz2013mded  -0.15394
gfz2013mdiq  -0.37704
gfz2013mghe  -0.43310
gfz2013mhjf   0.10352
gfz2013mmlw  -0.21286
gfz2013mmwq  -0.49536
gfz2013mnac  -0.50102
gfz2013mnei  -1.62230
gfz2013mqmv  -0.69168
gfz2013mtqd  -0.60742
gfz2013mvdm  -0.28444
gfz2013mvgr  -1.89250
gfz2013mxee  -0.74746
gfz2013mxrz   0.15408
gfz2013mzwe  -1.14030
gfz2013nabl  -0.72027
gfz2013ncjp  -0.29169
gfz2013neuc  -2.02720
gfz2013nhjb  -1.52430
gfz2013njnd  -1.66710
gfz2013nlxz  -1.25820
gfz2013nmac  -0.88903
gfz2013nnzf  -0.03354
gfz2013nojf   0.71091
gfz2013nppd  -0.94310
gfz2013nqgw   3.14770
gfz2013nttq   0.41356
gfz2013nuor  -0.52163
gfz2013nvdj  -1.52480
gfz2013nvia  -1.13100
gfz2013nwdi   0.87438
gfz2013ofls  -0.11653
gfz2013ogde   0.33551
gfz2013oifr  -0.52400
gfz2013oilg  -0.45265
gfz2013oinc  -0.44150
gfz2013ojti  -0.55543
gfz2013oksi   0.20386
gfz2013onjy   0.53398
gfz2013oqsc   0.58868
gfz2013orjg  -1.22110
gfz2013ornz  -0.08839
gfz2013ouvt   0.20341
gfz2013ovyg  -0.42896
gfz2013ozku   0.53758
gfz2013oznn   1.17790
gfz2013ozqm  -2.02120
gfz2013ozrf  -0.17783
gfz2013ozrp  -0.20427
gfz2013pakq  -0.68621
gfz2013pcos  -0.38341
gfz2013pfbx  -0.00877
gfz2013pfeb   1.95940
gfz2013pfnf  -0.72736
gfz2013pigb  -0.66201
gfz2013piwd  -0.96967
gfz2013pkbs  -1.06240
gfz2013plhp   0.46942
gfz2013pndn  -0.40111
gfz2013ppqq  -0.39058
gfz2013ptit  -0.02215
gfz2013pupd  -0.54844
gfz2013pweb  -0.28331
gfz2013pwjd  -0.13500
gfz2013pwyt   0.07198
gfz2013pxtx   0.93897
gfz2013pxya  -0.75590
gfz2013pzgs   0.08940
gfz2013pzgt   0.27658
gfz2013qali  -0.78969
gfz2013qbca  -0.38493
gfz2013qbys  -0.26439
gfz2013qcck  -0.47470
gfz2013qckf  -0.69105
gfz2013qesa   0.77357
gfz2013qfmm  -1.31520
gfz2013qfsq   0.09876
gfz2013qhtx  -0.39855
gfz2013qhwz  -0.15327
gfz2013qidm  -1.27210
gfz2013qjmk  -0.08319
gfz2013qmer  -0.53785
gfz2013qnxc   3.68720
gfz2013qpgd   0.01993
gfz2013qpqb   0.51125
gfz2013qqrr  -0.73707
gfz2013qrxy  -0.95617
gfz2013qvcr  -0.63423
gfz2013qwgb  -0.13673
gfz2013qwin   0.46320
gfz2013qzdq  -1.08460
gfz2013rait   1.60380
gfz2013rdmo  -0.19647
gfz2013rdoo  -1.55460
gfz2013reav  -0.39595
gfz2013rjgt   0.48084
gfz2013rjsx  -0.62371
gfz2013rluo  -0.50579
gfz2013rotn  -0.03521
gfz2013rqcy  -0.99583
gfz2013rqmp  -0.19894
gfz2013rsnr  -0.18391
gfz2013rsts  -0.91943
gfz2013rwfe  -2.01870
gfz2013ryxm  -1.07870
gfz2013scub   0.30047
gfz2013sdus   0.48079
gfz2013sebq  -1.57030
gfz2013sfds  -0.95072
gfz2013sfto  -0.51437
gfz2013shlq  -1.37310
gfz2013shzy  -0.16039
gfz2013skkm  -0.42526
gfz2013sllq  -0.47969
gfz2013snbr  -0.05414
gfz2013snyf  -0.09094
gfz2013sqkb  -0.41622
gfz2013suln  -0.17646
gfz2013svci   0.14380
gfz2013svqv   0.45860
gfz2013syqk  -0.21445
gfz2013tamc  -0.23326
gfz2013tcxc   2.12590
gfz2013tcxq   2.04350
gfz2013tdau   0.74777
gfz2013tdkk  -0.18705
gfz2013tect   0.05442
gfz2013thtc   0.20879
gfz2013tjlx  -1.19090
gfz2013toea  -0.48244
gfz2013toxf   0.32781
gfz2013tqbb  -0.56294
gfz2013ttoz  -2.12930
gfz2013tusd  -0.23524
gfz2013tuzv   1.95180
gfz2013tvmw   0.44893
gfz2013uauo   0.25997
gfz2013ufku   0.42776
gfz2013ufxk   0.64793
gfz2013ugax   0.59078
gfz2013uhlm  -0.44954
gfz2013umya  -1.00320
gfz2013upcc  -0.28427
gfz2013upee  -0.41026
gfz2013upiv  -0.46498
gfz2013uqvu   1.87000
gfz2013utsh  -0.42479
gfz2013uxej  -0.57481
gfz2013uysr  -0.51124
gfz2013vcoa  -0.30186
gfz2013vefs   0.26621
gfz2013vfzp   3.46830
gfz2013vgau   3.37390
gfz2013vgev  -1.94000
gfz2013vhsb  -0.54437
gfz2013vhzu  -0.71369
gfz2013vijl   0.20950
gfz2013viul  -0.26957
gfz2013vjjc   1.60700
gfz2013vlth   0.44227
gfz2013vmro  -1.88330
gfz2013vnfj  -1.35470
gfz2013vpnf  -0.19556
gfz2013vqot  -2.17490
gfz2013vrmy  -0.03967
gfz2013vsbl   0.76216
gfz2013vsxi   1.20190
gfz2013vuja   0.02742
gfz2013vvrq   1.79150
gfz2013vxta   0.14745
gfz2013vzbo  -0.08286
gfz2013wbyr  -0.08291
gfz2013wgeu  -1.29550
gfz2013whts  -0.28208
gfz2013wjmm  -1.82700
gfz2013wnql  -0.34601
gfz2013woze  -0.36819
gfz2013wpga  -1.22560
gfz2013wqhq  -0.08028
gfz2013wrgw  -0.19519
gfz2013wtzl  -1.02350
gfz2013wuml  -0.83773
gfz2013wuon  -0.07739
gfz2013wwec   1.39920
gfz2013xatc   0.93255
gfz2013xcmp  -0.23146
gfz2013xgek  -0.10701
gfz2013xkbh   0.52363
gfz2013xkwt  -1.08440
gfz2013xmqg  -0.25089
gfz2013xmul  -0.49645
gfz2013xpfa  -0.95066
gfz2013xpsm  -0.48056
gfz2013xqnn  -0.13907
gfz2013xsdt  -1.74170
gfz2013xtwj  -1.10110
gfz2013xvyl  -1.53550
gfz2013xwxn  -1.56780
gfz2013xxcc   0.10930
gfz2013xxwv   0.32571
gfz2013xyzb   0.00000
gfz2013ydtm  -0.63412
gfz2013yewz  -0.49684
gfz2013yhbu  -2.04400
gfz2013yhpk  -0.48447
gfz2013yixl   0.20063
gfz2013ylbx   0.31929
gfz2013ymky   2.05650
gfz2013ymxs  -0.24175
gfz2013ynmw  -0.45556
gfz2013ypdc   0.23645
gfz2013yrmc   1.23680
gfz2013yulx  -1.21900
gfz2013yvqu   0.04467
gfz2013yyti   2.33900
gfz2013yzte  -0.67737
gfz2013zaxb  -0.22060
gfz2013zfhu  -1.25500
gfz2013ziyr  -0.92168
gfz2013zjtw   0.06211
gfz2013zmtb   0.18966
gfz2014aawc   0.00000
gfz2014abgd  -0.16420
gfz2014adjs   0.02914
gfz2014adoj   2.67810
gfz2014afmx   0.40058
gfz2014agde  -0.15043
gfz2014agyz  -0.48936
gfz2014aidn   0.08078
gfz2014ajlk  -0.02406
gfz2014ajtf  -0.36783
gfz2014alwz   0.00000
gfz2014amsb  -0.53971
gfz2014ande   0.48141
gfz2014arnc  -0.68288
gfz2014arpf  -2.64870
gfz2014atbl  -0.52104
gfz2014azqs  -1.08340
gfz2014bazc  -0.25918
gfz2014bbro  -2.06280
gfz2014bcae  -0.47093
gfz2014bdfd  -0.72523
gfz2014bekc  -2.28340
gfz2014bezu  -1.05340
gfz2014bfng  -0.70083
gfz2014bfqo  -0.13492
gfz2014bhvd  -2.09950
gfz2014bjgt  -2.08530
gfz2014bjsy  -0.53628
gfz2014bmfa  -0.72933
gfz2014buej  -0.76352
gfz2014bwue  -0.13010
gfz2014bzna  -0.13421
gfz2014bztt  -1.75230
gfz2014caop  -0.19700
gfz2014ccbz  -0.84088
gfz2014cdwi  -0.25268
gfz2014cgog   2.61900
gfz2014chdv  -0.58789
gfz2014citw  -0.58530
gfz2014claq   1.63830
gfz2014clnj  -0.98347
gfz2014clnq  -0.88658
gfz2014crpy  -0.90999
gfz2014cueu   0.47501
gfz2014cvkm   2.26780
gfz2014cvxx  -0.39867
gfz2014cxcj  -0.42083
gfz2014cybg  -0.65400
gfz2014czno   0.01503
gfz2014czqi  -0.28797
gfz2014czua   2.29300
gfz2014dbdf  -0.85772
gfz2014dffd  -0.53308
gfz2014dgiy  -0.64480
gfz2014disp  -1.74990
gfz2014dlri  -1.26420
gfz2014dpzx  -1.95810
gfz2014duqn  -1.68670
gfz2014dwls   0.00346
gfz2014dwsy  -0.84755
gfz2014eage   0.88345
gfz2014ebmc  -3.08450
gfz2014edfx   1.57470
gfz2014efkk  -2.74080
gfz2014efsd  -0.34614
gfz2014eght  -0.01979
gfz2014egwu  -0.38076
gfz2014ejvf  -0.42801
gfz2014ekdt   0.31024
gfz2014emrg  -0.26311
gfz2014eqpl  -1.38700
gfz2014eqss  -0.00259
gfz2014erbj   0.51141
gfz2014ettc  -0.68505
gfz2014ewcz   2.52730
gfz2014ewrw  -0.06724
gfz2014exmv  -0.64913
gfz2014exxa  -1.11450
gfz2014fexu  -0.96350
gfz2014ffdc  -0.91996
gfz2014fgvi  -0.29356
gfz2014fgvr   0.11256
gfz2014fgvz   0.83010
gfz2014fgwt  -0.11263
gfz2014fgxt  -0.82401
gfz2014fgxz  -0.54535
gfz2014fgyo  -0.45443
gfz2014fgza  -0.76929
gfz2014fhbd  -0.53906
gfz2014fhdw  -0.47064
gfz2014fhgb  -0.97400
gfz2014fhhp  -0.64043
gfz2014fhjd  -0.03211
gfz2014fhkp  -0.89641
gfz2014fhla  -0.70304
gfz2014fhlh  -1.23110
gfz2014fhmb   0.29255
gfz2014fhoe  -0.46646
gfz2014fhpf  -1.40320
gfz2014fhqk  -1.21060
gfz2014fhrq  -0.25930
gfz2014fhsg  -0.43523
gfz2014fhwx  -0.58399
gfz2014fhxm  -1.21290
gfz2014fhyb  -1.29700
gfz2014fimn  -0.80273
gfz2014fiuj  -1.16150
gfz2014fiwq  -1.18620
gfz2014fjdz   0.60099
gfz2014fjpb  -1.12130
gfz2014fjxd  -1.10580
gfz2014fjyo  -1.21430
gfz2014fjzd  -0.76740
gfz2014fjzw  -0.90938
gfz2014fkmr  -0.18557
gfz2014fkmx  -1.07470
gfz2014fles  -1.31570
gfz2014flfa  -0.59869
gfz2014fmai  -0.31167
gfz2014fnbh   0.08185
gfz2014fnyg  -1.69250
gfz2014foio   0.54244
gfz2014foty  -0.08205
gfz2014fqpz   0.09860
gfz2014frdz   0.14560
gfz2014frel  -1.43710
gfz2014frfl  -0.91907
gfz2014frfw  -0.84144
gfz2014frgm  -1.26630
gfz2014frjr  -0.93838
gfz2014frme  -1.25060
gfz2014frnb  -0.80370
gfz2014frwh  -0.79394
gfz2014fstx  -0.21770
gfz2014fsuh  -1.35250
gfz2014fszc  -1.30790
gfz2014ftgx  -0.43037
gfz2014ftka  -0.85780
gfz2014ftno  -1.40920
gfz2014ftoc  -0.55936
gfz2014ftpw  -0.67566
gfz2014ftvc  -0.32218
gfz2014furx  -0.57300
gfz2014fusc  -0.68350
gfz2014fusj   0.10633
gfz2014fusu  -1.20920
gfz2014fuub  -0.12183
gfz2014fuup  -0.95343
gfz2014fuvk  -1.50390
gfz2014fuzi  -1.04780
gfz2014fvdx  -0.65435
gfz2014fvgh  -0.86588
gfz2014fvhp  -1.38390
gfz2014fvpy  -1.16770
gfz2014fvrg  -0.36377
gfz2014fvve  -0.59340
gfz2014fwdr  -1.20550
gfz2014fwtt  -0.09545
gfz2014fwyr   2.03770
gfz2014fxpu  -1.07650
gfz2014fyfr  -0.97197
gfz2014fzgx  -0.87748
gfz2014gbcz  -2.42490
gfz2014gbjf  -1.02190
gfz2014gcza  -1.17920
gfz2014gdsq  -0.85044
gfz2014gesb  -0.50624
gfz2014geuy  -1.18780
gfz2014gezs  -0.10943
gfz2014gfdj  -0.48620
gfz2014gfhf  -0.18149
gfz2014ggnq  -0.58196
gfz2014ggpd  -0.19326
gfz2014ggsr  -0.18856
gfz2014ghoq  -0.99601
gfz2014gilf  -0.20013
gfz2014gkgf  -0.18972
gfz2014gkgl  -0.15467
gfz2014gkhp  -1.40480
gfz2014gkjl  -0.47970
gfz2014gkjt  -0.40134
gfz2014gkjw  -0.25774
gfz2014gkjy  -0.03164
gfz2014gkln  -0.12997
gfz2014gklq  -1.32170
gfz2014gklv  -1.12940
gfz2014gkmm  -1.42840
gfz2014gkob  -0.56001
gfz2014gkok  -0.20466
gfz2014gkpd  -1.72880
gfz2014gkpj  -0.17917
gfz2014gkqf  -0.03387
gfz2014gkqu   0.14412
gfz2014gkrl  -0.10015
gfz2014gkrz  -0.36611
gfz2014gksj  -0.47296
gfz2014gksu  -0.90221
gfz2014gktn  -0.06121
gfz2014gktq  -0.14865
gfz2014gkut  -1.51020
gfz2014gkvk   0.17813
gfz2014gkxi  -0.06759
gfz2014gkxm  -0.91234
gfz2014glcu   0.10676
gfz2014glcy  -0.24471
gfz2014glfn  -1.06120
gfz2014glgo  -1.44020
gfz2014glhs  -1.44260
gfz2014glov  -0.62781
gfz2014glsh  -0.72152
gfz2014gltj  -0.22351
gfz2014gltx  -0.18776
gfz2014glvn  -0.14377
gfz2014glvu  -0.80738
gfz2014glxd  -1.29270
gfz2014glxy  -0.61811
gfz2014gmci  -0.43226
gfz2014gmes  -0.61886
gfz2014gmge  -0.09062
gfz2014gmhp  -0.22695
gfz2014gmhr   0.04309
gfz2014gmic  -0.20296
gfz2014gmip  -0.79253
gfz2014gmjo   0.25012
gfz2014gmjz  -0.72842
gfz2014gmku  -0.26797
gfz2014gmlz  -0.07613
gfz2014gmmk   0.15271
gfz2014gmmt  -0.57379
gfz2014gmnb   0.33323
gfz2014gmnw   0.33780
gfz2014gmpy  -0.37213
gfz2014gmqw  -0.68765
gfz2014gmrj   0.34276
gfz2014gmtb  -0.19316
gfz2014gmtj  -0.54380
gfz2014gmto  -0.51730
gfz2014gmuk  -0.31474
gfz2014gmuw  -0.06120
gfz2014gmvr  -0.35890
gfz2014gmzl  -0.65250
gfz2014gmzs  -0.10093
gfz2014gnfd  -0.42907
gfz2014gnfs  -0.51338
gfz2014gngg  -0.48943
gfz2014gnhk  -0.56971
gfz2014gnig  -0.60628
gfz2014gnmp  -1.02560
gfz2014gnms  -0.64117
gfz2014gnmx  -0.54109
gfz2014gnno  -1.21920
gfz2014gnnt  -0.81402
gfz2014gnom  -0.63990
gfz2014gnoz  -0.74549
gfz2014gnqt  -0.00000
gfz2014gnre  -0.01655
gfz2014gnsi  -0.75508
gfz2014gntd   1.45180
gfz2014gnvw  -0.22437
gfz2014gnwg  -0.76579
gfz2014gnxb  -0.90740
gfz2014goba   0.24385
gfz2014goei  -0.76488
gfz2014gogv  -0.43278
gfz2014gohm  -0.78926
gfz2014golz  -0.42850
gfz2014gono  -0.31124
gfz2014goqw  -0.01977
gfz2014gpac  -0.81179
gfz2014gpbx  -0.92842
gfz2014gpce  -0.57503
gfz2014gpdo  -0.99341
gfz2014gpgd  -0.78617
gfz2014gphr  -1.31620
gfz2014gpmm   0.09811
gfz2014gpnf  -1.22310
gfz2014gpqq  -0.64443
gfz2014gpuk  -0.40137
gfz2014gpvk  -0.45203
gfz2014gpxl  -0.55582
gfz2014gpxv  -0.33313
gfz2014gqbj   0.14710
gfz2014gqco  -0.51920
gfz2014gqed  -0.57410
gfz2014gqer   0.54215
gfz2014gqgf  -0.90109
gfz2014gqhe  -0.21616
gfz2014gqiy  -0.93931
gfz2014gqqz  -0.54980
gfz2014gqro  -1.54600
gfz2014gqup  -0.81991
gfz2014gqve  -0.96767
gfz2014grcv   0.01451
gfz2014grfp  -0.79238
gfz2014grgn  -0.96206
gfz2014grho  -1.28200
gfz2014gsdw  -0.23403
gfz2014gsgv  -0.24572
gfz2014gsjg  -1.17690
gfz2014gsqs  -0.22448
gfz2014gtef  -1.43750
gfz2014gtwz  -0.14415
gfz2014gufl   0.06036
gfz2014gull  -0.23336
gfz2014gulp  -0.89809
gfz2014gumd  -1.24460
gfz2014gutm  -1.49930
gfz2014gvhw  -0.68322
gfz2014gvqj  -0.77888
gfz2014gvrd  -0.18729
gfz2014gwab   0.48165
gfz2014gwap  -0.26124
gfz2014gwqj   0.12589
gfz2014gxag  -0.30212
gfz2014gxkh  -0.32112
gfz2014gxqf  -0.50717
gfz2014gxqu  -1.08500
gfz2014gxqx  -0.77905
gfz2014gxvf  -1.06180
gfz2014gxxh  -0.53871
gfz2014gxxo   0.05520
gfz2014gyxd  -1.37100
gfz2014gzrm  -0.95491
gfz2014gzue  -0.76685
gfz2014haey  -0.70414
gfz2014hagb  -0.40255
gfz2014haos  -0.33967
gfz2014hasj  -0.49132
gfz2014hauo   2.22870
gfz2014hbjm  -0.36562
gfz2014hbjz  -0.55322
gfz2014hbqb  -0.17580
gfz2014hcmj  -0.39763
gfz2014hcns  -0.43708
gfz2014hetr  -1.72630
gfz2014heyq  -0.07947
gfz2014hfad  -1.05020
gfz2014hfhl   0.08768
gfz2014hfzf  -1.34780
gfz2014hgqo  -0.07884
gfz2014hhfs  -0.89523
gfz2014hhwx  -0.15408
gfz2014hifp  -0.14324
gfz2014hiih  -0.11294
gfz2014hiiz  -1.37430
gfz2014hjgh  -0.43496
gfz2014hjgo  -0.81590
gfz2014hjgr  -0.58430
gfz2014hjhu  -1.19900
gfz2014hjij  -0.52034
gfz2014hjkp  -0.52348
gfz2014hjlx  -0.48639
gfz2014hkcf  -0.63239
gfz2014hkck  -0.74614
gfz2014hlib   0.43377
gfz2014hmgf  -0.74526
gfz2014hmvx  -0.65673
gfz2014hmzg  -0.36533
gfz2014hnfm  -1.06870
gfz2014hoap  -0.62746
gfz2014hocg  -0.04019
gfz2014hodc  -0.42975
gfz2014hokj  -0.66060
gfz2014hphw  -0.45820
gfz2014hppw   0.79565
gfz2014hpqz  -0.03445
gfz2014hqxs  -0.03746
gfz2014hqyx  -0.43754
gfz2014hriu  -0.68403
gfz2014hrtn  -0.25690
gfz2014hsqo  -1.15690
gfz2014hssr  -0.88529
gfz2014hszs  -0.30543
gfz2014htbf  -0.76964
gfz2014huaj   0.20931
gfz2014hugz  -0.58483
gfz2014hvdm   0.73258
gfz2014hwan  -1.18850
gfz2014hwsy  -0.66404
gfz2014hwwi  -0.60726
gfz2014hxcl  -0.12437
gfz2014hxev  -0.39973
gfz2014hyvq  -0.25685
gfz2014hzdy   0.03600
gfz2014hzfr   0.32779
gfz2014hzfw  -0.81189
gfz2014hzgn  -0.24658
gfz2014hzht  -0.45292
gfz2014hzig  -0.60759
gfz2014hzze  -1.12450
gfz2014iani  -0.43804
gfz2014iazy  -1.17510
gfz2014ieam  -0.13404
gfz2014iege  -0.39476
gfz2014ieho  -1.00740
gfz2014ifue  -0.73372
gfz2014ifzj  -1.05930
gfz2014igsj  -0.25769
gfz2014igur  -0.87898
gfz2014ijvh  -1.06880
gfz2014ikbk  -0.42432
gfz2014ikun   2.08940
gfz2014ikvd  -0.69600
gfz2014ilwu  -1.01420
gfz2014immt  -0.40719
gfz2014imnn  -0.34382
gfz2014inbj  -0.16080
gfz2014iobd  -0.11683
gfz2014iqzj  -0.11127
gfz2014irci  -0.34242
gfz2014ircq  -0.48993
gfz2014irrg  -0.47936
gfz2014isdq  -0.44245
gfz2014isff  -0.71556
gfz2014issk  -0.77608
gfz2014isub  -0.75042
gfz2014isys  -1.48770
gfz2014itab  -0.87906
gfz2014itbe  -0.26424
gfz2014itbu  -0.35395
gfz2014itfc  -0.52235
gfz2014itgh  -0.26469
gfz2014itjx   0.21439
gfz2014itkw  -0.30054
gfz2014itpj  -0.21260
gfz2014iuhq  -0.64324
gfz2014ivep  -0.96000
gfz2014iwnf  -1.64130
gfz2014iwwl  -0.80937
gfz2014ixga  -0.45057
gfz2014ixky  -0.57688
gfz2014iywt  -0.75070
gfz2014jagg  -1.07620
gfz2014jass  -0.15880
gfz2014jcmt  -0.06601
gfz2014jdoy   1.16410
gfz2014jdxj  -0.49352
gfz2014jesb  -0.64283
gfz2014jfis  -0.24341
gfz2014jggm  -0.29973
gfz2014jhra   0.29697
gfz2014jipr   1.06580
gfz2014jird  -0.59308
gfz2014jjhc  -0.17741
gfz2014jjkh  -0.35109
gfz2014jjln   0.15136
gfz2014jjqk   0.35129
gfz2014jmnk   0.26012
gfz2014jmsy  -0.30889
gfz2014jnea  -0.49107
gfz2014jnxm   3.08370
gfz2014jnyv  -0.90135
gfz2014joak  -0.39499
gfz2014jomw  -0.70377
gfz2014jozl  -0.06913
gfz2014jpep  -0.07969
gfz2014jpez  -0.75067
gfz2014jpgu  -0.74943
gfz2014jpxs  -1.25960
gfz2014jtfe  -0.09208
gfz2014jvow   0.04306
gfz2014kara  -2.72700
gfz2014kblw   0.55062
gfz2014kbuk  -0.78627
gfz2014kbwm  -0.75778
gfz2014khan  -0.24287
gfz2014kizt  -0.30794
gfz2014kjee   0.43207
gfz2014kjzb  -1.39670
gfz2014kkhh  -0.22923
gfz2014kmmt   1.12020
gfz2014knxs   1.31360
gfz2014krlg  -0.99695
gfz2014kscf  -0.01919
gfz2014ksmz  -0.10130
gfz2014kssw   1.31800
gfz2014kwie  -0.67747
gfz2014kwrg  -0.07172
gfz2014kwwg  -0.37386
gfz2014kxqf  -0.40241
gfz2014kyan  -0.86565
gfz2014kyhe  -0.11354
gfz2014kytf  -0.05584
gfz2014kzzm  -1.86890
gfz2014lbcq  -0.28046
gfz2014lchy  -0.36633
gfz2014lddn   0.49110
gfz2014lehw  -0.55393
gfz2014lgqn   0.14547
gfz2014lhqn  -0.03271
gfz2014ljbr   0.14837
gfz2014lnmw  -0.49172
gfz2014lnqy  -1.11280
gfz2014lpfc  -1.45820
gfz2014lpim  -2.15600
gfz2014lrzx  -1.59080
gfz2014lurd  -0.65957
gfz2014lvgn  -0.66372
gfz2014lwom  -0.59337
gfz2014lwsw  -0.60828
gfz2014lwvb  -0.54065
gfz2014lxnc  -0.14393
gfz2014lxqr  -0.72053
gfz2014lyhk  -0.15152
gfz2014lyhp  -0.31772
gfz2014lzal  -1.67390
gfz2014lzow  -1.54320
gfz2014macx  -0.10769
gfz2014madw  -0.56180
gfz2014mawp  -0.08070
gfz2014mcno   1.16540
gfz2014mcse   0.16512
gfz2014mlqw   0.20038
gfz2014mlrr  -0.28752
gfz2014mmbu  -0.51732
gfz2014mmtb   0.39804
gfz2014moaw  -1.14750
gfz2014mogb   0.26667
gfz2014mrbm  -1.08380
gfz2014mtum   1.98200
gfz2014muzd   0.35670
gfz2014mvza   0.01242
gfz2014mwnj  -1.82470
gfz2014mxkr   0.33801
gfz2014myqz   0.12778
gfz2014nafd  -0.63246
gfz2014navw  -0.39734
gfz2014ngsk   0.25009
gfz2014ngvt  -0.11370
gfz2014nhyb  -0.19240
gfz2014niqj  -0.02291
gfz2014nkdx  -0.75823
gfz2014nnxd   0.29863
gfz2014nowp  -0.14524
gfz2014npeo  -1.56490
gfz2014nphm  -1.18010
gfz2014npnn  -0.13744
gfz2014nqbs  -1.24200
gfz2014nqfm   0.19649
gfz2014nqpk  -0.18701
gfz2014nrie   0.21538
gfz2014nvdi   0.10746
gfz2014nvxd  -1.44470
gfz2014nyeh  -0.31059
gfz2014nyfb  -10.15300
gfz2014nyko  -0.38332
gfz2014nylm  -1.18000
gfz2014obbs   1.01920
gfz2014odgv  -1.13100
gfz2014ofhm   0.37024
gfz2014oghp   0.01174
gfz2014oims   0.00000
gfz2014oinz   0.47228
gfz2014ojdg   0.13494
gfz2014okec  -0.45835
gfz2014okjw   0.40468
gfz2014okxu  -0.48027
gfz2014omyn   1.10280
gfz2014oned   0.01156
gfz2014opqr  -0.13586
gfz2014oqhw  -1.16840
gfz2014orgz  -0.34496
gfz2014orxs  -0.92954
gfz2014oryw   0.04398
gfz2014osvx  -1.10050
gfz2014owii  -0.17182
gfz2014owur   0.06472
gfz2014owxc   0.09398
gfz2014oyly  -0.55601
gfz2014oypt  -1.20290
gfz2014ozmj  -0.36787
gfz2014pghi   0.02189
gfz2014pjer   0.43502
gfz2014pjum   0.03103
gfz2014pmxt   0.07685
gfz2014pngj  -0.26553
gfz2014ppzf  -0.78097
gfz2014pqqp  -1.54360
gfz2014prdm  -0.37188
gfz2014pxbu   0.09427
gfz2014pzni  -0.14578
gfz2014qbzi  -1.07910
gfz2014qcxs  -0.41175
gfz2014qfzq  -0.28525
gfz2014qifa  -0.33879
gfz2014qjfl   0.65315
gfz2014qjgp  -0.36255
gfz2014qlxd  -0.18595
gfz2014qngj   1.62850
gfz2014qqfg  -0.01398
gfz2014qqhm   0.13130
gfz2014qsby   0.13129
gfz2014qtwv  -0.24751
gfz2014raau   0.73251
gfz2014rbsl   2.38170
gfz2014rdoz   0.09864
gfz2014rdsn  -0.73497
gfz2014rfeb  -0.75326
gfz2014rhnz  -1.04310
gfz2014rhwq  -1.01230
gfz2014riel  -0.20678
gfz2014rils  -1.90100
gfz2014rnrn   0.49704
gfz2014romy  -1.21570
gfz2014royq  -0.85493
gfz2014rucz  -0.11036
gfz2014ryfb  -0.35139
gfz2014sryn  -0.97749
gfz2014ssds  -1.38950
gfz2014swgt  -0.29658
gfz2014tabg  -0.67088
gfz2014tfgn   0.54451
gfz2014tgcw  -0.67147
gfz2014tovs  -3.54350
gfz2014tqly  -0.44317
gfz2014tqsf  -0.11412
gfz2014tqth  -0.31479
gfz2014tzsd  -0.90969
gfz2014uapa  -0.69738
gfz2014ubyq  -1.25300
gfz2014uohh  -0.63268
gfz2014uvrk   0.06351
gfz2014uxyg   0.92448
gfz2014uyrq  -0.15153
gfz2014uzaw   0.81893
gfz2014vdnh  -1.75050
gfz2014veit   0.57152
gfz2014vhld   0.30809
gfz2014vhms   0.16700
gfz2014vivo  -0.25303
gfz2014vjoh  -0.22179
gfz2014vjoz   0.34811
gfz2014vnxu  -1.07730
gfz2014vpus   0.73648
gfz2014vqqa  -0.14678
gfz2014waoo  -1.83380
gfz2014watn   0.44501
gfz2014wjko   1.04850
gfz2014wqcp  -0.28598
gfz2014wrkh  -0.51533
gfz2014wsjh  -0.34849
gfz2014wwib  -0.19317
gfz2014xbyr   0.03608
gfz2014xhwk  -1.13240
gfz2014xjri  -0.17217
gfz2014xkdg  -0.23321
gfz2014xmnp  -0.31719
gfz2014xoji  -0.28035
gfz2014xqby  -0.18381
gfz2014yazi  -0.90643
gfz2014yhhm  -0.67834
gfz2014ynhc  -0.43192
gfz2014yppv  -1.18840
gfz2014yrug   0.12045
gfz2014yyiy  -0.56517
gfz2014zcgo  -1.37470
gfz2014zdtl  -0.55678
gfz2014zkys   0.00465
gfz2015gkwa  -1.75580
gfz2015gmgf  -0.26428
gfz2015gnmy   3.87100
gfz2015hdcp   0.53113
gfz2015hepg   1.14370
gfz2015hgbk  -0.05136
gfz2015hhbd  -0.53059
gfz2015hlfq  -1.29510
gfz2015hpmk  -0.13730
gfz2015hslo  -0.49054
gfz2015hvgs   2.30720
gfz2015hwkv   0.64611
gfz2015hwzw  -0.06672
gfz2015idho   2.71800
gfz2015ijmh  -1.10870
gfz2015imty  -0.56932
gfz2015imyp  -1.28710
gfz2015ixyy   1.43440
gfz2015jmlf   0.32593
gfz2015jmlu  -2.36740
gfz2015jpap  -1.87550
gfz2015jxbx  -2.65720
gfz2015jzcv   0.00000
gfz2015kalm  -0.76487
gfz2015kfsu  -0.31118
gfz2015kphk  -0.41371
gfz2015kquq   0.38637
gfz2015lcma  -2.36110
gfz2015lcuo  -0.96734
gfz2015lfma  -1.03530
gfz2015lfos  -0.86004
gfz2015lfud  -0.92617
gfz2015ltii  -0.25447
gfz2015ltro  -0.97746
gfz2015lytv  -0.39328
gfz2015lzad   4.36780
gfz2015mbgr  -0.16792
gfz2015mddr  -0.05853
gfz2015mhym   2.99180
gfz2015micz  -1.00910
gfz2015mpte  -0.20822
gfz2015mvzk   0.60310
gfz2015npud  -1.74300
gfz2015nwug   2.44860
gfz2015ocwr  -1.25760
gfz2015ofpd  -0.50855
gfz2015orkl   0.35941
gfz2015oumn  -0.00000
gfz2015pcvt   3.60070
gfz2015pjgr  -1.30040
gfz2015plal  -0.33611
gfz2015prlr   1.74980
gfz2015puqp   1.25150
gfz2015puuu  -0.64077
gfz2015qnde  -0.72361
gfz2015qols   0.00000
gfz2015qprd   2.20660
gfz2015qpvd  -0.45518
gfz2015quzo   0.92189
gfz2015qvxu   1.03020
gfz2015rgov   1.28220
gfz2015rgrg   2.09140
gfz2015rgst  -1.69470
gfz2015rkbq   2.40260
gfz2015rkrg   1.56780
gfz2015rkzg  -1.01340
gfz2015rlnh   0.85943
gfz2015rnis   0.50220
gfz2015roac   1.70580
gfz2015rtnv  -0.60328
gfz2015saet  -0.91837
gfz2015sdeo  -0.29308
gfz2015sdfy  -0.61462
gfz2015seuf  -0.56868
gfz2015sevh  -0.28585
gfz2015sfdd  -1.49730
gfz2015sfnb   2.46510
gfz2015sggc  -1.49710
gfz2015sghq  -2.47750
gfz2015sitn   1.65940
gfz2015sjgk  -0.88359
gfz2015sjne   1.72740
gfz2015sjvu   2.63610
gfz2015skpv  -1.51790
gfz2015smym  -1.52510
gfz2015snmr   3.12850
gfz2015snsf   2.88230
gfz2015snwh  -0.71348
gfz2015snyd  -1.30400
gfz2015soat  -1.40460
gfz2015soxc  -0.41279
gfz2015spxh  -0.89554
gfz2015sryk  -0.55807
gfz2015svwm  -1.02310
gfz2015taml  -1.19290
gfz2015tbdn  -0.17587
gfz2015tchx  -0.53618
gfz2015tdcu   0.53798
gfz2015tdhb  -0.44777
gfz2015teyc  -0.76287
gfz2015tflu  -1.95030
gfz2015tghj  -0.09970
gfz2015thgp  -1.40060
gfz2015tiyc  -1.32210
gfz2015tkol  -1.28120
gfz2015tlba   1.71790
gfz2015tlkf   0.77403
gfz2015tnjd  -0.97290
gfz2015tohm  -1.19790
gfz2015tojz  -1.64660
gfz2015totf  -2.72700
gfz2015tqff   1.42590
