# Nsamples: 1930  MAD:  0.596  mean: -0.033  variance:  1.282
gfz2010aerk  -0.29276
gfz2010ahla  -0.74785
gfz2010ahqi  -0.46819
gfz2010aphp   0.02322
gfz2010bedu  -0.70525
gfz2010bfzs   0.58941
gfz2010bgth  -1.53040
gfz2010bhhq  -0.19459
gfz2010bifb  -0.99545
gfz2010bjeb   0.10766
gfz2010bjjx   0.13864
gfz2010bjsl   1.92050
gfz2010bkob   0.66007
gfz2010bowy  -0.92110
gfz2010boxo  -0.17668
gfz2010bxxs  -0.33724
gfz2010bywj  -0.12280
gfz2010caft  -0.02271
gfz2010cbkg   0.16523
gfz2010cdbt  -0.54231
gfz2010chnv  -0.41587
gfz2010cind   0.02886
gfz2010civi  -0.03707
gfz2010cjmx  -0.12924
gfz2010cjrf  -0.63992
gfz2010ckeu  -0.16973
gfz2010ckzm   0.08243
gfz2010cnwc  -0.91501
gfz2010cptb  -0.50676
gfz2010cqwl  -0.10985
gfz2010cres  -0.11647
gfz2010ctuw  -0.67504
gfz2010czps   0.70711
gfz2010ddzo   1.67280
gfz2010dejx  -0.21018
gfz2010dfru  -0.15146
gfz2010dlgc  -0.25240
gfz2010dlwv  -0.76761
gfz2010dtmx  -0.27210
gfz2010dumm   0.70218
gfz2010emyz   1.60480
gfz2010enzl   0.00000
gfz2010eoao  -0.63094
gfz2010eohh  -1.75650
gfz2010eomb   1.72350
gfz2010epbe   4.00740
gfz2010epxj  -1.32640
gfz2010eqmu   1.86590
gfz2010eqse  -1.78250
gfz2010eqwl  -3.73310
gfz2010erdi  -0.81212
gfz2010erkn  -0.92999
gfz2010ermi  -6.35120
gfz2010erna  -0.06930
gfz2010erom  -1.16160
gfz2010eruy   0.19682
gfz2010erwn   0.93684
gfz2010erxb   1.38710
gfz2010esid   3.85220
gfz2010esmg   1.81300
gfz2010eted   2.96340
gfz2010euan   1.09690
gfz2010euwb   2.01530
gfz2010euxe   0.52332
gfz2010evco   3.07190
gfz2010evgf  -1.20490
gfz2010evjv  -1.14080
gfz2010ewvc  -1.83980
gfz2010ewyu   0.22746
gfz2010excp  -1.28060
gfz2010exdd  -1.65020
gfz2010exdl   2.78080
gfz2010exel   1.55490
gfz2010exfb  -0.60574
gfz2010exgb   3.48390
gfz2010exhd  -2.52720
gfz2010exhw  -3.20780
gfz2010exjw   0.29367
gfz2010exmc  -0.25175
gfz2010exno   0.28797
gfz2010exou  -0.09450
gfz2010exqu   3.70220
gfz2010exsg   2.59260
gfz2010eyaz  -0.28307
gfz2010eyhh   2.72300
gfz2010eyiv   1.85940
gfz2010eymx  -4.59420
gfz2010eyvq   0.64204
gfz2010eyxe  -0.10228
gfz2010ezax  -4.17600
gfz2010ezck  -2.28530
gfz2010faeu   5.06600
gfz2010falm  -2.45970
gfz2010fauz   6.07830
gfz2010fbeu  -1.34820
gfz2010fcnn  -0.99971
gfz2010fczt  -0.60234
gfz2010fedq  -0.00000
gfz2010fexw   0.28871
gfz2010ffhq  -1.06060
gfz2010ffjb  -0.19101
gfz2010ffui  -5.43870
gfz2010figq   1.20190
gfz2010fihj   0.35493
gfz2010fika   0.60900
gfz2010fixr   3.71590
gfz2010fjal   2.55010
gfz2010fjas  -1.41900
gfz2010fjmu   1.01070
gfz2010fkhd   0.36008
gfz2010flha   0.67822
gfz2010flrt   3.56060
gfz2010flxi   0.33745
gfz2010fmhb   2.16980
gfz2010fmwb  -2.88720
gfz2010fona   0.11635
gfz2010fpqy   1.38790
gfz2010fqdu  -1.42220
gfz2010fqtj   0.06496
gfz2010fser   1.73680
gfz2010fsth  -0.34166
gfz2010ftlm  -2.40810
gfz2010ftsx  -0.95145
gfz2010fupn   1.13530
gfz2010fuuy   2.07840
gfz2010fuwa   3.15840
gfz2010fwkk  -2.98040
gfz2010fwlb  -0.50017
gfz2010fwny   2.49290
gfz2010fyen   1.40820
gfz2010fzsg   0.94889
gfz2010gcrl   1.64770
gfz2010gdch   7.06440
gfz2010gdld   1.43060
gfz2010gdvf  -0.06146
gfz2010ghyk  -0.29815
gfz2010ginm   1.19560
gfz2010gjia   0.07029
gfz2010gjvo  -1.69400
gfz2010glqr  -0.25714
gfz2010glxl   0.28982
gfz2010grss   0.01500
gfz2010grxb   2.03090
gfz2010gslu   2.92810
gfz2010gtqs  -1.81250
gfz2010gvya  -0.90885
gfz2010gwmp   0.28193
gfz2010gyqp   1.26900
gfz2010gzxr   0.89199
gfz2010hakh  -0.07665
gfz2010hbka  -0.51459
gfz2010hcio  -0.65669
gfz2010hevz  -0.12183
gfz2010hhls  -0.84010
gfz2010hjoc  -0.09578
gfz2010hllj  -1.47600
gfz2010hlln  -0.08183
gfz2010hlmq  -0.36761
gfz2010hncj  -0.44179
gfz2010hnnf   0.56634
gfz2010hnpi  -0.17588
gfz2010hnzr  -0.12086
gfz2010homc  -1.00910
gfz2010hptz  -0.21437
gfz2010iibf   1.64390
gfz2010ijtk   0.39487
gfz2010imfv  -0.08313
gfz2010imsh  -1.02050
gfz2010iobp  -1.52240
gfz2010iphd  -2.50600
gfz2010iqep  -0.76321
gfz2010iqnm  -0.45289
gfz2010iqus   0.19466
gfz2010izzj  -5.85270
gfz2010jant  -0.57785
gfz2010jatq   4.81100
gfz2010jipf  -0.85667
gfz2010jitt  -1.42340
gfz2010jkxj   0.60978
gfz2010jpss   0.34312
gfz2010jqxx   6.09670
gfz2010jsuh   0.04208
gfz2010jucj   0.71463
gfz2010jwpy  -0.21149
gfz2010jxbm   0.50069
gfz2010jygz  -0.97920
gfz2010kcoo   2.93070
gfz2010kdyc  -1.80080
gfz2010kihf  -1.17260
gfz2010kmgg   1.75430
gfz2010kown   1.25220
gfz2010kqyh   0.49018
gfz2010kzml   1.63210
gfz2010lcoq  -0.18393
gfz2010lczp  -0.06386
gfz2010lepw  -0.89590
gfz2010lfju  -0.01570
gfz2010lgwy   1.64110
gfz2010liqs  -2.63300
gfz2010lkcf  -0.51190
gfz2010lrlk  -0.87256
gfz2010lruw  -0.25125
gfz2010lsft  -0.45454
gfz2010lwuq  -0.75697
gfz2010nlkh   0.58183
gfz2010nmpc  -2.15920
gfz2010nnny  -0.79909
gfz2010nqwf  -2.55630
gfz2010nqwo   0.79230
gfz2010nrew  -1.18600
gfz2010nrjo  -0.64737
gfz2010nsck  -3.59030
gfz2010nsdf  -3.53400
gfz2010nsfx   1.73960
gfz2010ntuo   3.56330
gfz2010nubk  -0.83826
gfz2010nwef   0.97681
gfz2010nxsy  -0.06987
gfz2010nxum   1.82810
gfz2010nzla   0.16454
gfz2010ocxq  -0.05726
gfz2010odpb   0.46487
gfz2010oedn  -1.11950
gfz2010okdm   3.29670
gfz2010oluw   0.06166
gfz2010omla   0.51660
gfz2010onma   0.11643
gfz2010osjs   1.04080
gfz2010osqo  -0.20413
gfz2010otbn   0.34801
gfz2010pbdz  -0.49401
gfz2010pcxi   0.35650
gfz2010pdtk  -0.00000
gfz2010pets  -0.61556
gfz2010pewa  -0.42679
gfz2010pewx  -1.51380
gfz2010pexf   1.19090
gfz2010pfyu  -1.00570
gfz2010phvg   0.21413
gfz2010pmqd  -1.26340
gfz2010pqck   0.55198
gfz2010pxak  -0.32403
gfz2010pxgh  -0.81739
gfz2010pxls   0.10997
gfz2010qbng  -0.20624
gfz2010qitd   1.05590
gfz2010qjst   0.47506
gfz2010qkat  -0.22595
gfz2010qpcq  -0.52366
gfz2010qpum   0.06725
gfz2010qwwx   4.46020
gfz2010rkfp  -0.97516
gfz2010rlbv  -0.83401
gfz2010rqwj  -0.13593
gfz2010rxjw   0.33533
gfz2010rywq  -2.34370
gfz2010sfee  -0.57842
gfz2010sfla   4.67170
gfz2010sgzk  -0.73102
gfz2010sjwp  -0.44182
gfz2010skqo   0.76964
gfz2010skve   1.30730
gfz2010srdb   1.50370
gfz2010svtn  -0.17765
gfz2010svve   0.15402
gfz2010swcy  -0.25030
gfz2010sxwt  -0.12208
gfz2010sysw  -0.51728
gfz2010szde  -3.57910
gfz2010szim   2.13120
gfz2010tcbr   0.96049
gfz2010tcrl   0.30103
gfz2010tlfm   0.65295
gfz2010truw   1.74110
gfz2010txjs   1.53920
gfz2010uouo   1.99170
gfz2010upfb   0.68159
gfz2010urlq  -0.21492
gfz2010usho  -0.45154
gfz2010ustq   1.62880
gfz2010utcg   0.74587
gfz2010utmc   0.59746
gfz2010veri  -0.13638
gfz2010vhuj   2.63710
gfz2010vjcb   0.33812
gfz2010vppc   0.00000
gfz2010vxvs  -0.98148
gfz2010vyxd   0.37581
gfz2010vzzz   1.25370
gfz2010wioh   0.32256
gfz2010wnty   0.10031
gfz2010wntz   0.12333
gfz2010wofs  -0.59528
gfz2010wrxx  -1.07920
gfz2010wxqa  -0.44644
gfz2010xbcr   0.61171
gfz2010xbdv  -6.48750
gfz2010xbgs   0.88164
gfz2010xcdh   0.60609
gfz2010xche  -0.63204
gfz2010xcij  -0.28605
gfz2010xden   0.37225
gfz2010xgfc  -0.23540
gfz2010xgzw   4.72050
gfz2010xjsj   0.41377
gfz2010xnxk   0.26441
gfz2010xxdb  -0.56898
gfz2010xxzn   3.58840
gfz2010yfsv   2.20440
gfz2010ygwu  -1.15710
gfz2010yjev  -0.61749
gfz2010ymfy  -0.02064
gfz2010ymur  -0.98408
gfz2010yosr  -0.16701
gfz2010yoyx   0.17298
gfz2010yqqb  -0.27539
gfz2010yqqv   0.65079
gfz2010yqwx  -4.50670
gfz2010ysaj   0.38147
gfz2010yvwz  -0.53164
gfz2010zdpo   0.28085
gfz2010zeeh   0.23159
gfz2011aatr  -0.15174
gfz2011adjs  -0.73059
gfz2011adlj  -0.87212
gfz2011adne   2.09900
gfz2011ahfw   1.31430
gfz2011alip   0.55628
gfz2011alwf  -1.63670
gfz2011ammu   0.16539
gfz2011anur   0.39906
gfz2011aqxf   1.69260
gfz2011asru  -0.65149
gfz2011bapi  -0.17517
gfz2011bhha  -1.00880
gfz2011blsi  -0.45453
gfz2011bnzn  -0.34542
gfz2011bpkd  -0.10672
gfz2011bswz   0.20284
gfz2011ccpw   0.41771
gfz2011cfae  -0.66034
gfz2011cndo  -0.73841
gfz2011cnho  -0.10426
gfz2011coxh   0.15983
gfz2011crdy   0.49662
gfz2011csju   1.02830
gfz2011ctbn  -0.79303
gfz2011cvcg  -0.59793
gfz2011cvfg   0.86038
gfz2011cykd   0.58078
gfz2011cynl   1.26470
gfz2011cyre  -0.89613
gfz2011cyuk   0.39756
gfz2011czwj  -1.10870
gfz2011dbev   1.18310
gfz2011dbig   0.53261
gfz2011dbon   0.38334
gfz2011dbwt   0.24891
gfz2011dcqb   1.42140
gfz2011ddao  -1.21170
gfz2011dddh   1.81950
gfz2011deja   1.02210
gfz2011dldn  -0.20572
gfz2011dllz   0.23792
gfz2011dlyx   1.34760
gfz2011dmat  -0.24829
gfz2011dndz  -0.08774
gfz2011dpaa   0.45169
gfz2011dpmx   0.32890
gfz2011dpqx   2.13950
gfz2011dqio  -0.89410
gfz2011dvxb   0.05248
gfz2011eayc   0.54761
gfz2011ecvr   0.79729
gfz2011efgv  -0.09946
gfz2011ehzq  -0.30320
gfz2011eiis   1.04090
gfz2011ejlp   0.32546
gfz2011eocc   0.04591
gfz2011etje   1.09280
gfz2011fdzv   1.02290
gfz2011fgvr   3.05580
gfz2011fhag   1.15740
gfz2011fhbm  -0.47899
gfz2011fhur  -1.56370
gfz2011fkbn   0.68240
gfz2011flgj   0.29159
gfz2011fnsw   0.38709
gfz2011gbmx   0.93657
gfz2011gcwb   1.62080
gfz2011gdgh   0.49847
gfz2011ggvf   0.75830
gfz2011gjlx   0.03774
gfz2011gzbr  -0.39200
gfz2011haid   2.53550
gfz2011hbex   0.89801
gfz2011hbqk   0.55144
gfz2011hebt   0.57129
gfz2011hlqw   0.24213
gfz2011hlsa   0.13872
gfz2011hlth   0.34184
gfz2011hpgx   0.49754
gfz2011hpqp   2.31460
gfz2011hrhe   0.20659
gfz2011hvbu  -0.82734
gfz2011icxe  -0.15554
gfz2011ieie   1.39050
gfz2011iwte  -1.33900
gfz2011ixai  -0.58882
gfz2011izqa   0.38227
gfz2011jbbc   0.30502
gfz2011jdsj  -0.09103
gfz2011jghb   3.73110
gfz2011jmbn   0.45439
gfz2011jnmi   0.13391
gfz2011jplh  -0.65374
gfz2011juid   0.57005
gfz2011knbi   0.32359
gfz2011knoo   0.03857
gfz2011kqyg  -0.59226
gfz2011ksiu   0.06030
gfz2011kvxh   0.04542
gfz2011kwjx  -0.75062
gfz2011kwni  -1.71460
gfz2011kwqc  -1.31910
gfz2011kwrf  -2.09930
gfz2011kwsz  -1.45910
gfz2011kxzp  -0.87900
gfz2011lczg  -0.32120
gfz2011ldna  -0.05989
gfz2011lgsg   0.53675
gfz2011lhls  -8.83240
gfz2011lvjr  -1.32580
gfz2011lzwj  -1.14450
gfz2011mdie   1.51800
gfz2011mepc  -0.46839
gfz2011mivl  -1.00850
gfz2011mjom  -1.70070
gfz2011mllx  -0.38859
gfz2011mlvw   0.56081
gfz2011nauw   0.02040
gfz2011necz  -0.29104
gfz2011nmnq  -0.51305
gfz2011nmqj   0.00864
gfz2011nowp   0.37157
gfz2011npgs  -0.57313
gfz2011nqpd   0.41140
gfz2011nrwc  -1.30190
gfz2011nsex  -0.79358
gfz2011ntkh  -0.75865
gfz2011ntrv   0.24997
gfz2011nudm  -4.87280
gfz2011ohcy  -0.39790
gfz2011oiqe  -0.15451
gfz2011oiwk  -0.78880
gfz2011oolr  -0.27920
gfz2011orgn   2.52740
gfz2011ornx   0.25154
gfz2011owvz   0.56186
gfz2011ozsl  -0.11012
gfz2011pccd   0.47351
gfz2011pdpt   0.23878
gfz2011pdst   0.16132
gfz2011phms   7.90400
gfz2011psnq  -0.78733
gfz2011ptus   0.54141
gfz2011qigx  -0.47812
gfz2011qoif  -1.33080
gfz2011qvae   3.01690
gfz2011qyms  -0.15252
gfz2011rabm   1.13160
gfz2011rdby   0.20876
gfz2011rewa   0.44126
gfz2011rgwl   0.33081
gfz2011rgwp   0.06411
gfz2011rnut  -1.61410
gfz2011rqui   0.02841
gfz2011rsrh  -2.55760
gfz2011runa  -0.09516
gfz2011rznl   0.54347
gfz2011sagt  -1.08330
gfz2011sawg  -1.16010
gfz2011shqm   0.66867
gfz2011socv  -0.69099
gfz2011sqoy  -0.36976
gfz2011srka   0.03980
gfz2011stal  -2.32960
gfz2011sthv   0.06758
gfz2011svix  -0.70566
gfz2011syjd  -0.00000
gfz2011taps  -1.08780
gfz2011tbas   2.34530
gfz2011tcij   0.66479
gfz2011tivu  -0.37369
gfz2011tjrf  -1.13660
gfz2011tkfp   0.72326
gfz2011tkog   0.28674
gfz2011tnag  -0.66660
gfz2011toub   1.15780
gfz2011tpfr   0.38289
gfz2011tsfd  -0.29124
gfz2011tsnp  -1.45740
gfz2011twov   0.25034
gfz2011udsq   0.98353
gfz2011ueni  -0.51930
gfz2011uepx   0.13754
gfz2011ugzz   3.79480
gfz2011uiul  -0.91731
gfz2011ujze   0.20403
gfz2011ukmp   0.44808
gfz2011unkx  -1.73630
gfz2011uphh   0.14272
gfz2011urxy  -1.32620
gfz2011urzu  -0.09382
gfz2011uzqv   0.35255
gfz2011vclt  -0.16822
gfz2011vhfi   0.41868
gfz2011vkun   0.21762
gfz2011vldk   0.36990
gfz2011vnza   1.87740
gfz2011vqnr   0.16276
gfz2011vrhg  -0.06728
gfz2011vusi  -1.01300
gfz2011vxns  -5.61420
gfz2011vxod   0.82288
gfz2011vxxg   0.37558
gfz2011wcic  -0.64032
gfz2011wfja   0.51950
gfz2011wtmq   0.16580
gfz2011wvzb  -1.16410
gfz2011wxfs   0.06510
gfz2011wxtk  -0.08919
gfz2011wype   0.32913
gfz2011xaan   0.62199
gfz2011xcpv   0.54523
gfz2011xesx   0.37454
gfz2011xqru   0.12469
gfz2011xyxj   0.04701
gfz2011yfys  -0.24694
gfz2011ytnu   0.21042
gfz2011yybo  -0.00000
gfz2011zjap  -0.12285
gfz2011zlfg   0.42033
gfz2011zlrd  -0.39074
gfz2011zqhh  -0.03443
gfz2012ablh   0.53572
gfz2012ajtq  -0.15360
gfz2012aqgp  -3.53020
gfz2012aqtq   0.11093
gfz2012attr   1.06230
gfz2012bfyn   0.93216
gfz2012bgnk   0.82238
gfz2012bpkx  -0.12144
gfz2012bpwl  -0.07028
gfz2012brhv  -1.00580
gfz2012bszs   0.23488
gfz2012byad   0.10546
gfz2012cbed   0.32178
gfz2012cgvr  -1.75460
gfz2012cnod  -1.45670
gfz2012covm  -0.11221
gfz2012cqnl  -0.31119
gfz2012cqtc  -0.71533
gfz2012cuct   2.65260
gfz2012cxdn  -0.31594
gfz2012cyof   0.10588
gfz2012czlw  -0.71836
gfz2012ddma  -0.55127
gfz2012deri  -0.37874
gfz2012dinb  -0.07189
gfz2012divk   0.37629
gfz2012ekda  -0.90851
gfz2012enno   0.46437
gfz2012eskt   0.22664
gfz2012ewkj  -0.28955
gfz2012eykb  -0.69269
gfz2012ezvr   0.24727
gfz2012fgzz  -0.06967
gfz2012fhnh  -0.57884
gfz2012foeo   0.42981
gfz2012fqcg   0.31122
gfz2012fwfo  -3.34540
gfz2012fwob  -0.71284
gfz2012fzfa  -0.52466
gfz2012gemm   1.11020
gfz2012gill   0.37382
gfz2012gnvh  -0.06185
gfz2012gwqb   0.24127
gfz2012hdbm   0.09585
gfz2012hnul   0.13801
gfz2012hogg   0.39593
gfz2012holl  -0.35376
gfz2012hsex   0.96197
gfz2012htet  -0.27845
gfz2012hwyo  -0.52725
gfz2012hyaa  -1.69680
gfz2012hzbe   0.60285
gfz2012ibld   0.55661
gfz2012idje  -1.31440
gfz2012iffo  -0.03669
gfz2012iivw   0.01736
gfz2012ilvn  -0.55384
gfz2012ilxh  -0.73041
gfz2012imay  -1.47050
gfz2012imbd  -1.46000
gfz2012intn   0.28677
gfz2012iyrb   0.04238
gfz2012jgvj  -0.07218
gfz2012jhaz  -0.07138
gfz2012jlox  -1.90680
gfz2012jmwd  -0.24003
gfz2012joqe   0.20350
gfz2012jpeh  -1.38430
gfz2012jpgs   0.53286
gfz2012jshk   0.66248
gfz2012jted   0.69752
gfz2012jupx   0.31856
gfz2012jxiy   0.42388
gfz2012kanu  -0.02213
gfz2012kbjb  -1.06130
gfz2012kbzj   0.32369
gfz2012kdmb   0.55528
gfz2012keor  -0.49802
gfz2012kiik  -0.01216
gfz2012kkcp  -0.07670
gfz2012kkup   0.32369
gfz2012klhx   0.36050
gfz2012kuct  -0.31286
gfz2012kudo  -0.60036
gfz2012kvzv  -0.05012
gfz2012kwgo  -0.27968
gfz2012lboz   0.09543
gfz2012lczo   1.48230
gfz2012ldgs  -1.01820
gfz2012ldxg  -2.27820
gfz2012ldzj  -0.59854
gfz2012leam   0.43063
gfz2012lezd   0.61387
gfz2012lhnc  -0.28104
gfz2012lltr   0.67180
gfz2012llug  -1.21400
gfz2012lpvn  -0.32981
gfz2012lqbg  -0.37784
gfz2012lrjq  -0.13528
gfz2012lrol  -1.00540
gfz2012lrtb  -0.16193
gfz2012lsni  -0.42660
gfz2012lsvd  -0.05514
gfz2012lszf  -0.09366
gfz2012lxkv   0.49269
gfz2012lzgv   0.11019
gfz2012lzmr  -0.72160
gfz2012maxy   1.07880
gfz2012megc  -0.31781
gfz2012minr  -0.20208
gfz2012mkpn  -0.33811
gfz2012mofm  -0.76258
gfz2012mpyl  -2.93810
gfz2012mtiu   0.69527
gfz2012mupa  -0.23500
gfz2012mvwr  -0.69443
gfz2012mwij   0.35213
gfz2012myeg  -0.01888
gfz2012myqa  -1.11880
gfz2012nben   0.75811
gfz2012nedn   0.04023
gfz2012nivl  -0.01843
gfz2012nkdf   0.67519
gfz2012noei  -0.06882
gfz2012nojx  -0.98619
gfz2012nolo  -2.95370
gfz2012nqnk  -1.48540
gfz2012nroo   0.06242
gfz2012nutf   0.19888
gfz2012nzpz   0.56433
gfz2012oazn  -0.55190
gfz2012obgw   0.08259
gfz2012obnq  -0.16207
gfz2012oedb   0.52625
gfz2012oilt  -0.32793
gfz2012okhx  -0.83708
gfz2012omvo   1.11580
gfz2012oqmw   0.19166
gfz2012ostk  -0.60970
gfz2012ouyp  -0.01526
gfz2012ovqs  -0.22033
gfz2012oycg   1.29360
gfz2012pazr   0.66926
gfz2012pcxi  -0.01346
gfz2012peex   0.12658
gfz2012peki  -0.41549
gfz2012pgcl   0.83519
gfz2012pkel   0.51556
gfz2012plea   0.89595
gfz2012pofl   0.23103
gfz2012poju  -1.12690
gfz2012pqlt  -0.05499
gfz2012pqmu   0.07233
gfz2012priv   0.53022
gfz2012prlt   0.36205
gfz2012pspd  -1.19340
gfz2012pygp  -0.22986
gfz2012qjhs  -0.02194
gfz2012qqqp  -0.07029
gfz2012qurq   0.88373
gfz2012quso   0.15538
gfz2012qvxn  -0.30563
gfz2012qxcy  -2.81480
gfz2012raex   0.10590
gfz2012rats   0.30479
gfz2012rboy   1.11330
gfz2012rcbq   1.02430
gfz2012rcds   0.31081
gfz2012rejq  -0.00000
gfz2012repv   0.27704
gfz2012rgkl  -0.46536
gfz2012rjld  -0.29331
gfz2012rkoa  -0.07921
gfz2012rmtr  -0.07981
gfz2012royy   0.08894
gfz2012rpmb   0.20384
gfz2012rqlg   0.06912
gfz2012rtqi  -0.20345
gfz2012rubi   0.44462
gfz2012ruks   0.74562
gfz2012rwko   0.38063
gfz2012rwov  -0.60745
gfz2012shtg   0.62048
gfz2012sjea   1.72520
gfz2012sqmv  -0.12636
gfz2012sqvi  -2.37980
gfz2012syvl  -0.16503
gfz2012szla   0.36316
gfz2012tazz   0.31271
gfz2012tbbp   0.81766
gfz2012tbxt   0.12356
gfz2012thfx  -0.08511
gfz2012tmop   0.21294
gfz2012tphj  -0.15017
gfz2012ttoa  -0.00324
gfz2012tyig   0.32491
gfz2012tyxl  -0.47280
gfz2012uaqj  -0.29895
gfz2012uciv   0.34895
gfz2012ufew  -0.09408
gfz2012ulpd   0.23154
gfz2012uoef  -0.45819
gfz2012uqzp   0.00307
gfz2012uvqf   0.68292
gfz2012uxnz   0.12887
gfz2012uyie  -0.69363
gfz2012uyxb   1.41000
gfz2012uzom  -0.04280
gfz2012uzyj  -2.34120
gfz2012vceo   0.81312
gfz2012vjgl   0.03556
gfz2012vmeh   0.54847
gfz2012vnbk   0.28230
gfz2012vntz  -0.50763
gfz2012vpza  -0.82387
gfz2012vrua  -0.15954
gfz2012vsev  -0.23392
gfz2012vtif   0.03425
gfz2012vtxe   0.78991
gfz2012vwvd  -0.65398
gfz2012vxvr   0.06241
gfz2012vyzo   0.14489
gfz2012wgbb   0.01449
gfz2012wizz   0.58327
gfz2012wkfw   0.08533
gfz2012wklq   0.13485
gfz2012wpah  -0.81539
gfz2012wqnc  -0.20409
gfz2012wtkh  -0.71686
gfz2012wtov   0.01755
gfz2012wubh  -0.58174
gfz2012wvfl   2.49580
gfz2012wwdo   0.74262
gfz2012wxlg  -2.75480
gfz2012wybs  -0.42588
gfz2012wypz  -0.31102
gfz2012xbjq   0.30825
gfz2012xcgk  -0.15562
gfz2012xgqm  -1.03940
gfz2012xhci   0.52324
gfz2012xjyv   0.96790
gfz2012xkkv  -0.14314
gfz2012xpmm   0.36577
gfz2012xslk  -0.16407
gfz2012xssa   2.33570
gfz2012xvwn   0.09655
gfz2012xwqa   0.37046
gfz2012xyqp  -1.15340
gfz2012xyua   0.33685
gfz2012yhag  -0.28093
gfz2012yldu   0.20564
gfz2012yoie   0.24743
gfz2012yqjj  -0.03069
gfz2012yxxu  -0.20250
gfz2012yzod   0.04950
gfz2012zemz  -0.21173
gfz2012zfag  -1.25840
gfz2012zhmb   0.50954
gfz2012zhyf   1.13260
gfz2012ziml  -0.16589
gfz2012zitl   0.66028
gfz2012zjpv   2.05780
gfz2012zklq   0.52135
gfz2012zmbp  -0.69365
gfz2012zsqk  -1.05880
gfz2013aayj  -0.30109
gfz2013aeee   0.59590
gfz2013akgj   0.27918
gfz2013aknp   0.27171
gfz2013apmm   1.21260
gfz2013aspo   0.32090
gfz2013avic   0.90085
gfz2013bbrc   5.56860
gfz2013bdke   1.10760
gfz2013bdpu  -3.62390
gfz2013bhgs   0.12605
gfz2013biji   0.20296
gfz2013bobq   0.19072
gfz2013bokp   1.94000
gfz2013bouj   3.10050
gfz2013btjm   0.50189
gfz2013bzlb   1.87800
gfz2013casg  -3.37140
gfz2013cbsm   0.21025
gfz2013ccnr   0.44307
gfz2013ccon  -3.15060
gfz2013cdfj  -2.47430
gfz2013cfyy   0.55166
gfz2013cgou   0.27891
gfz2013ciaf  -8.61100
gfz2013cnms   0.23710
gfz2013cnve  -0.21187
gfz2013cnyj  -0.10261
gfz2013cnyk  -0.02551
gfz2013comh   0.32802
gfz2013cuoq  -0.07364
gfz2013cvad   3.51590
gfz2013ddbh   0.12732
gfz2013dddp  -0.09949
gfz2013diuf   0.17554
gfz2013dkmg  -0.07212
gfz2013dkym  -0.85069
gfz2013dnnx   0.01380
gfz2013dofo   0.34464
gfz2013dqls   0.09328
gfz2013drpk   0.20326
gfz2013drxz   0.63064
gfz2013dujm   0.76901
gfz2013dvye   0.16731
gfz2013dvyh   0.32680
gfz2013dyop  -0.54605
gfz2013egni  -0.58516
gfz2013egpu   0.16432
gfz2013ehwe   0.18280
gfz2013erse   0.13579
gfz2013esnh  -0.16626
gfz2013esnt   0.04928
gfz2013eswe   0.44511
gfz2013eulz  -1.06790
gfz2013evsq   0.03143
gfz2013fcto   0.44747
gfz2013fdoo  -0.02288
gfz2013ffko   0.26398
gfz2013fkcl   0.20865
gfz2013flox   0.26431
gfz2013fnzr   0.74945
gfz2013ftso   0.38081
gfz2013fwxa   0.11547
gfz2013fxge  -0.17049
gfz2013gaie  -0.27249
gfz2013gbcn   0.17788
gfz2013gdnq   0.62590
gfz2013geno  -0.06668
gfz2013gihf   0.37552
gfz2013gjdc  -0.20251
gfz2013glcr  -0.45240
gfz2013gngz  -0.10729
gfz2013gock   0.58052
gfz2013govy   0.06521
gfz2013gras   0.00000
gfz2013gvdb  -0.33034
gfz2013gvet  -0.05778
gfz2013gwrd   0.49483
gfz2013gxsu  -0.18393
gfz2013hbkh   0.05330
gfz2013hbkq  -0.35162
gfz2013hfmp  -0.45493
gfz2013hisv   0.38889
gfz2013hlbe   0.71395
gfz2013hmbc   1.66850
gfz2013hpfq   0.15152
gfz2013hudi   0.06505
gfz2013hxcx   0.55316
gfz2013iapa  -4.55240
gfz2013iayx   0.90720
gfz2013icfh   0.16984
gfz2013icqt  -0.17843
gfz2013idbb   0.07050
gfz2013iexo   0.40758
gfz2013ihcj   0.06952
gfz2013ijsr   0.53255
gfz2013ijyg   0.20901
gfz2013inux  -0.96610
gfz2013iodt  -1.32990
gfz2013iopd  -0.42537
gfz2013ippu   0.41985
gfz2013iqzq   0.83277
gfz2013itsu   0.13698
gfz2013iunn   0.47032
gfz2013iyqz   0.15067
gfz2013jarl  -0.26268
gfz2013jdrx  -0.29953
gfz2013jesk   0.70715
gfz2013jfah  -0.79817
gfz2013jgij   0.06861
gfz2013jgip   0.54282
gfz2013jjrt  -0.11182
gfz2013jjsi   0.99858
gfz2013jkut  -1.36020
gfz2013jlst   0.28724
gfz2013jmcc  -0.65482
gfz2013jphq  -0.37780
gfz2013jusj   1.26920
gfz2013jwcn  -0.32775
gfz2013kdeo  -1.43080
gfz2013kgmj   1.53290
gfz2013kheb  -3.67950
gfz2013khli   0.30383
gfz2013kilx   0.30736
gfz2013kkzr   1.21640
gfz2013krei  -0.06498
gfz2013kweg  -1.35320
gfz2013kwps   0.34604
gfz2013lcos  -0.38843
gfz2013ldpc  -0.10910
gfz2013ldqb   0.18978
gfz2013lgbb  -0.07094
gfz2013lgxc   0.79446
gfz2013limo  -0.03564
gfz2013lixa   0.25010
gfz2013lmdy  -1.43320
gfz2013lmrs   0.29830
gfz2013lsob  -0.05624
gfz2013lupg  -0.12666
gfz2013lwbk   0.11775
gfz2013lznu  -0.09467
gfz2013malg  -0.63053
gfz2013mded  -0.05630
gfz2013mdiq  -1.16250
gfz2013mghe   0.16296
gfz2013mhjf   0.03461
gfz2013mmlw   0.07020
gfz2013mnac  -0.07134
gfz2013mnei   0.49990
gfz2013mnju  -1.01970
gfz2013mqmv  -1.03490
gfz2013mtqd  -0.71915
gfz2013mvdm   0.04584
gfz2013mvgr   0.96532
gfz2013mxee   0.07186
gfz2013mxrz  -0.60008
gfz2013mzwe  -0.15246
gfz2013nabl   0.04009
gfz2013ncjp   0.32915
gfz2013nedo   0.06609
gfz2013neuc   0.61535
gfz2013nhjb   0.18715
gfz2013njnd  -1.01130
gfz2013nlxz  -0.24978
gfz2013nmac   0.56286
gfz2013nnzf   0.42564
gfz2013nojf  -1.15620
gfz2013nppd  -0.35064
gfz2013nqgw  -2.44870
gfz2013nttq  -1.08960
gfz2013nuor   0.29762
gfz2013nvdj   0.85008
gfz2013nvia  -0.72055
gfz2013nwdi  -1.57820
gfz2013ofls   0.06328
gfz2013ogde   0.58671
gfz2013oifr  -0.61133
gfz2013oilg  -0.52072
gfz2013oinc  -0.85423
gfz2013ojti  -0.48491
gfz2013oksi   0.20596
gfz2013onjy  -0.03743
gfz2013orjg   0.22284
gfz2013ornz  -0.48856
gfz2013ouvt  -1.83260
gfz2013ovyg  -0.23204
gfz2013ozku  -0.56460
gfz2013oznn  -0.93934
gfz2013ozqm  -0.90614
gfz2013ozrf  -0.35663
gfz2013ozrp   0.17414
gfz2013pakq   0.09196
gfz2013pcos  -1.04250
gfz2013phef   0.49202
gfz2013pigb   0.05184
gfz2013piwd  -0.14966
gfz2013pkbs   0.38505
gfz2013plhp  -0.02287
gfz2013pndn  -0.02631
gfz2013pupd  -1.08940
gfz2013pweb   1.60880
gfz2013pwyt   2.86290
gfz2013pxsj  -3.43950
gfz2013pxya   0.09035
gfz2013pzgs   2.76310
gfz2013pzgt   0.27097
gfz2013qali  -0.10425
gfz2013qbys   0.04750
gfz2013qcck   0.27716
gfz2013qckf  -0.16461
gfz2013qesa  -1.21780
gfz2013qfmm   0.57007
gfz2013qfsq   0.61537
gfz2013qhtx   0.08181
gfz2013qhwz  -0.39942
gfz2013qidm   0.41938
gfz2013qjmk  -0.09747
gfz2013qmer  -0.27527
gfz2013qnxc  -0.31942
gfz2013qqrr  -0.01256
gfz2013qrxy  -0.13502
gfz2013qvcr   0.26902
gfz2013qwbv   0.05280
gfz2013qwgb  -0.35207
gfz2013qwin  -0.31364
gfz2013qzdq  -0.60036
gfz2013rait  -0.25771
gfz2013rdmo  -0.65658
gfz2013rdoo   0.64967
gfz2013reav  -0.96802
gfz2013rjsx  -0.05193
gfz2013rluo   1.25420
gfz2013rotn  -0.58899
gfz2013rqcy   0.16852
gfz2013rqmp   0.13546
gfz2013rsts   0.02210
gfz2013rvsm  -1.29630
gfz2013rwfe   0.47881
gfz2013ryxm   0.28678
gfz2013sart  -0.22491
gfz2013scub  -0.38209
gfz2013sdus  -1.08290
gfz2013sebq   0.49001
gfz2013sfds   0.39867
gfz2013sfto   0.46568
gfz2013shlq   0.19292
gfz2013shzy   0.52127
gfz2013skkm  -0.32763
gfz2013sllq  -0.20375
gfz2013snbr  -1.14430
gfz2013snyf   0.34543
gfz2013sqkb   0.31198
gfz2013stcu  -1.05860
gfz2013suln  -0.51545
gfz2013suvn  -0.61400
gfz2013svci  -0.41710
gfz2013svqv   0.18122
gfz2013syqk  -0.44425
gfz2013tamc   0.46976
gfz2013tbzy   0.10234
gfz2013tcxc   1.21590
gfz2013tdkk  -0.77380
gfz2013thtc   0.03194
gfz2013tjlx   0.29256
gfz2013toea   0.21060
gfz2013toxf  -1.27370
gfz2013tqbb   0.72296
gfz2013ttoz   0.28470
gfz2013tusd  -0.36276
gfz2013tuzv  -0.64899
gfz2013tvmw  -0.36800
gfz2013txev   3.76880
gfz2013uauo  -0.35010
gfz2013ufku   0.30936
gfz2013ufxk   0.39496
gfz2013uhlm   0.09181
gfz2013upcc   0.21262
gfz2013upee  -0.54773
gfz2013upiv   0.17702
gfz2013uqvu   0.03384
gfz2013utsh   0.18593
gfz2013uuzn   0.25629
gfz2013uysr  -1.30110
gfz2013vcoa  -1.00760
gfz2013vdic   0.10313
gfz2013vefs   1.90270
gfz2013vexx  -2.17190
gfz2013vfyw   1.00960
gfz2013vfzp   2.15830
gfz2013vgev   0.78236
gfz2013vhsb   0.00000
gfz2013vhzu   0.74250
gfz2013viul   0.62248
gfz2013vjjc  -0.99803
gfz2013vjod   2.76400
gfz2013vlth  -0.30663
gfz2013vmro   0.10636
gfz2013vnfj   0.22973
gfz2013vpnf   0.14179
gfz2013vqot   0.33013
gfz2013vrmy  -0.49780
gfz2013vsxi   0.28990
gfz2013vuja  -0.19305
gfz2013vxta   0.19554
gfz2013vzbo   0.10864
gfz2013wbyr  -1.70780
gfz2013wgeu   0.01715
gfz2013whts  -0.08305
gfz2013wjmm   1.13400
gfz2013wnql  -0.24390
gfz2013woze   0.31788
gfz2013wpga   0.29557
gfz2013wqhq  -1.20760
gfz2013wrgw   0.29232
gfz2013wtzl   0.54643
gfz2013wuml  -0.92255
gfz2013wuon   0.09241
gfz2013wwec   0.71456
gfz2013xatc  -0.45569
gfz2013xgek  -0.61410
gfz2013xkbh  -0.11246
gfz2013xkwt   0.36311
gfz2013xmqg   0.26372
gfz2013xmul   0.85460
gfz2013xpfa   0.42768
gfz2013xpsm   0.75371
gfz2013xqnn  -0.07519
gfz2013xsdt   0.94145
gfz2013xtwj   1.15740
gfz2013xvyl   0.01221
gfz2013xwxn  -0.04062
gfz2013xxcc  -0.40335
gfz2013xyzb  -0.28586
gfz2013yach  -0.45760
gfz2013yewz   0.15049
gfz2013yghj  -0.33761
gfz2013yhbu  -0.13074
gfz2013yhpk   0.24030
gfz2013yixl  -0.31553
gfz2013ylbx  -0.34385
gfz2013ymky  -0.21571
gfz2013ymxs   0.20325
gfz2013ynmw   0.06905
gfz2013ypdc  -1.22090
gfz2013yqkv   0.05096
gfz2013yvqu   0.17310
gfz2013yyhc   0.26101
gfz2013yyti  -3.07830
gfz2013yzte  -0.00000
gfz2013zfhu   0.51828
gfz2013ziyr   0.27220
gfz2013zjtw   0.16673
gfz2013zmtb  -0.69924
gfz2014abgd  -0.31925
gfz2014adjs  -0.21540
gfz2014afmx  -1.05720
gfz2014agde   0.08232
gfz2014agyz   0.09591
gfz2014aidn   0.12461
gfz2014ajlk  -0.13369
gfz2014ajtf  -0.17367
gfz2014alwz   0.49132
gfz2014amsb  -0.18272
gfz2014ande  -0.50818
gfz2014arnc  -0.90764
gfz2014arpf   0.32093
gfz2014arqr  -0.17505
gfz2014azqs   0.06854
gfz2014bagd  -0.10908
gfz2014bazc  -0.08244
gfz2014bbro   0.22257
gfz2014bcae  -0.03323
gfz2014bdfd  -1.40060
gfz2014bekc   0.01590
gfz2014bezu   0.53838
gfz2014bfqo   0.22938
gfz2014bhvd   0.27990
gfz2014bjgt   1.91860
gfz2014bjsy   0.05942
gfz2014bmfa  -0.34121
gfz2014bolf  -0.00000
gfz2014bqes   0.08238
gfz2014buej   0.15427
gfz2014bwue  -0.34951
gfz2014bzna   0.08570
gfz2014bztt   0.06731
gfz2014caop  -0.22992
gfz2014cbtl   0.96014
gfz2014ccbz  -1.23980
gfz2014cdwi   0.32360
gfz2014citw  -0.05198
gfz2014clnj  -0.24635
gfz2014clnq  -0.36367
gfz2014crpy  -0.08613
gfz2014cueu  -0.40725
gfz2014cvxx  -0.11553
gfz2014cxcj  -0.12573
gfz2014cybg   0.08339
gfz2014czno  -0.44975
gfz2014czol   0.63201
gfz2014czqi   0.00000
gfz2014dbdf   0.39488
gfz2014dgiy  -0.38835
gfz2014disp   1.23360
gfz2014dlri   0.33014
gfz2014dpzx   1.22980
gfz2014duqn   0.42860
gfz2014dwls   0.09036
gfz2014dwsy  -0.42252
gfz2014eage   0.37057
gfz2014ebmc  -1.57950
gfz2014efkk   1.27750
gfz2014efsd   0.19531
gfz2014eght   0.73246
gfz2014egwu   0.09814
gfz2014ejvf   0.05729
gfz2014emrg   0.08190
gfz2014eqpl   0.68916
gfz2014erbj  -0.07064
gfz2014ettc   0.75319
gfz2014ewrw  -0.47558
gfz2014exmv  -0.12828
gfz2014exxa   0.26864
gfz2014ezgb   2.22000
gfz2014fexu  -0.26475
gfz2014ffdc  -0.09392
gfz2014ffqx   0.20985
gfz2014fgkb   0.15551
gfz2014fgvi  -0.72125
gfz2014fgwn   0.05435
gfz2014fgwt  -0.02924
gfz2014fgxt  -0.24726
gfz2014fgxz  -0.24575
gfz2014fgza   0.43943
gfz2014fhbd  -0.11957
gfz2014fhdw  -0.74093
gfz2014fhhp   0.16169
gfz2014fhjd  -0.88421
gfz2014fhkp   0.60501
gfz2014fhla  -0.75205
gfz2014fhmb   1.00820
gfz2014fhoe   3.83220
gfz2014fhpf   0.52589
gfz2014fhqk  -0.21557
gfz2014fhrq  -0.40826
gfz2014fhsg  -0.01861
gfz2014fhwx  -0.24343
gfz2014fhxm  -0.34429
gfz2014fhyb  -0.70159
gfz2014fimn  -0.07294
gfz2014fiuj   0.11239
gfz2014fiwq  -0.22111
gfz2014fjpb   0.08372
gfz2014fjxd   0.85760
gfz2014fjyo  -0.54391
gfz2014fjzd  -0.59290
gfz2014fjzw  -0.01425
gfz2014fkmr  -0.97606
gfz2014fkmx   0.14867
gfz2014fles  -0.04733
gfz2014flfa   0.08164
gfz2014fnbh  -0.19802
gfz2014fnyg   0.68193
gfz2014foty  -0.86684
gfz2014fqpz  -1.03580
gfz2014frdz  -0.35469
gfz2014frez  -0.83773
gfz2014frme   0.41111
gfz2014frnb  -0.06798
gfz2014frwh  -0.42291
gfz2014fstx   0.57577
gfz2014fsuh  -0.22198
gfz2014ftgx  -0.02459
gfz2014ftka  -0.87230
gfz2014ftno  -0.55827
gfz2014ftoc  -0.34013
gfz2014ftrk  -0.29697
gfz2014ftvc   1.03110
gfz2014fudl  -0.10616
gfz2014furx  -0.57892
gfz2014fusu  -0.22821
gfz2014fuup  -0.30543
gfz2014fuvk  -1.00360
gfz2014fuzi   0.40350
gfz2014fvaa   0.20979
gfz2014fval   0.11138
gfz2014fvdx   2.11020
gfz2014fvgh   1.65010
gfz2014fvhp  -1.12820
gfz2014fvpy   0.16503
gfz2014fvrg  -0.54438
gfz2014fwdr  -0.26350
gfz2014fwtt  -1.14480
gfz2014fwyr   0.13187
gfz2014fxpu  -0.21149
gfz2014fyfr  -0.05051
gfz2014fzgx   0.14088
gfz2014gbcz   0.92337
gfz2014gbdq   0.21038
gfz2014gbjf  -0.06163
gfz2014gdsq   0.16784
gfz2014gesb  -0.00000
gfz2014geuy  -0.20217
gfz2014gezs  -0.26501
gfz2014gfdj  -0.23261
gfz2014gfhf  -1.40860
gfz2014ggnq   0.06616
gfz2014ggpd  -0.59829
gfz2014ggsr  -0.08251
gfz2014ghoq  -0.50335
gfz2014gilf  -0.48237
gfz2014gkgf  -1.27420
gfz2014gkjw  -2.24780
gfz2014gkln  -0.77613
gfz2014gkmm  -0.46037
gfz2014gkpd  -0.77980
gfz2014gkpj  -0.16581
gfz2014gkqf  -0.27457
gfz2014gkqu   1.73290
gfz2014gkrl   5.63470
gfz2014gkrz   5.80010
gfz2014gksu   1.77780
gfz2014gktn  -0.20374
gfz2014gkvk  -0.07923
gfz2014gkxi  -0.43157
gfz2014gkxm  -0.24776
gfz2014glcu  -0.97310
gfz2014glfn  -0.23386
gfz2014glgo  -0.44408
gfz2014glhs   0.26312
gfz2014glov  -0.22185
gfz2014glsh  -0.21088
gfz2014gltj  -0.09123
gfz2014gltx  -0.23751
gfz2014glvn   1.55290
gfz2014glvu  -0.29693
gfz2014glxd   2.36850
gfz2014glxy  -3.80720
gfz2014gmci  -0.59663
gfz2014gmes   0.11554
gfz2014gmge  -0.30551
gfz2014gmhp  -0.14343
gfz2014gmhr   0.05624
gfz2014gmic   0.53803
gfz2014gmip  -0.54995
gfz2014gmjo  -0.22783
gfz2014gmjz  -0.16373
gfz2014gmku   0.00000
gfz2014gmmt  -0.51798
gfz2014gmnb  -0.04143
gfz2014gmnw  -0.44042
gfz2014gmqw  -0.19450
gfz2014gmrj  -0.18956
gfz2014gmtb  -0.36473
gfz2014gmtj  -0.06224
gfz2014gmto   0.89600
gfz2014gmuw  -0.49469
gfz2014gmvr  -0.20175
gfz2014gmzl  -0.49023
gfz2014gmzs  -0.34345
gfz2014gndq   0.06183
gfz2014gnfd  -0.35691
gfz2014gnfs  -0.12945
gfz2014gngg  -0.29263
gfz2014gnhk  -0.37893
gfz2014gnig   0.02768
gfz2014gnmp   0.43935
gfz2014gnms  -0.12958
gfz2014gnmx   0.01329
gfz2014gnno  -0.41175
gfz2014gnnt  -0.22422
gfz2014gnom   0.08305
gfz2014gnoz  -0.40689
gfz2014gnqt  -0.32111
gfz2014gnsi   1.31760
gfz2014gntd  -0.11676
gfz2014gnvw   0.43376
gfz2014gnwg   0.27322
gfz2014gnxb  -0.30757
gfz2014goba  -0.61719
gfz2014goei  -0.09144
gfz2014gogv  -0.57620
gfz2014gohm  -0.33018
gfz2014golz   0.21533
gfz2014gono   1.44630
gfz2014goqw  -0.72279
gfz2014gpac   0.15921
gfz2014gpbx  -0.50430
gfz2014gpce  -0.13164
gfz2014gpdo   0.31390
gfz2014gpgd   0.89678
gfz2014gphr  -0.17932
gfz2014gpmm   0.69617
gfz2014gpnf  -0.28760
gfz2014gpqq   0.31070
gfz2014gpuk   0.09412
gfz2014gpvk  -0.39008
gfz2014gpxl  -0.55383
gfz2014gpxv  -0.46213
gfz2014gqbj  -0.27045
gfz2014gqco  -0.29914
gfz2014gqed   0.01301
gfz2014gqer   0.35239
gfz2014gqgf  -0.23207
gfz2014gqhe  -0.53125
gfz2014gqiy  -0.03336
gfz2014gqqz   0.17122
gfz2014gqro  -0.36466
gfz2014gqup   3.46190
gfz2014gqve  -0.25443
gfz2014grcv   0.01689
gfz2014grfp  -0.04076
gfz2014grgn  -0.11068
gfz2014grho   0.32878
gfz2014gsdw  -0.31800
gfz2014gsgv   0.08523
gfz2014gsjg  -0.29624
gfz2014gsqs  -0.16189
gfz2014gtef  -0.30038
gfz2014gtlu  -0.31545
gfz2014gtwz   0.05261
gfz2014gufl  -0.16342
gfz2014gull  -0.40892
gfz2014gulp  -0.09428
gfz2014gumd  -0.10174
gfz2014gutm   0.10001
gfz2014gvhw   0.14097
gfz2014gvqj  -0.20815
gfz2014gvra  -0.21925
gfz2014gvrd   0.44134
gfz2014gwab   0.05226
gfz2014gwap  -0.19917
gfz2014gwqj  -0.95061
gfz2014gxag  -0.07815
gfz2014gxkh  -0.14966
gfz2014gxqf   0.38900
gfz2014gxqu  -0.22572
gfz2014gxqx  -0.59671
gfz2014gxvf   0.14628
gfz2014gxxh   0.21613
gfz2014gxxo  -0.45956
gfz2014gyxd  -0.14425
gfz2014gzrm   0.05767
gfz2014gzue  -0.22327
gfz2014haey  -0.29176
gfz2014hafk   0.15993
gfz2014hagb  -0.25383
gfz2014haos   0.07799
gfz2014hasj  -0.45125
gfz2014hbjm   0.05443
gfz2014hbjz  -0.32390
gfz2014hcmj  -0.19085
gfz2014hcns   0.03817
gfz2014hetr   0.19934
gfz2014heyq  -0.09472
gfz2014hfad  -0.13592
gfz2014hfhl  -0.67549
gfz2014hfzf   0.39486
gfz2014hgqo  -0.37276
gfz2014hhfs  -0.14034
gfz2014hhwx  -0.61610
gfz2014hifp  -0.82731
gfz2014hiih   0.21954
gfz2014hiiz  -0.79969
gfz2014hjgh  -0.41723
gfz2014hjgr  -0.41668
gfz2014hjhu  -0.24180
gfz2014hjij  -0.56454
gfz2014hjkp   0.23825
gfz2014hjlx  -0.40422
gfz2014hkcf  -0.39406
gfz2014hkck  -0.31739
gfz2014hlib  -0.81661
gfz2014hmgf  -0.13188
gfz2014hmvx   0.07216
gfz2014hmzg  -0.10867
gfz2014hnfm  -0.52015
gfz2014hoap  -0.63522
gfz2014hodc   0.78895
gfz2014hokj  -0.00962
gfz2014hphw  -0.22014
gfz2014hppw   0.34721
gfz2014hpqz  -1.50730
gfz2014hqxs  -0.52693
gfz2014hqyx  -0.33254
gfz2014hrft   0.52493
gfz2014hriu   0.01848
gfz2014hrtn  -0.28053
gfz2014hscz  -0.14674
gfz2014hsqo   0.34989
gfz2014hssr  -0.04064
gfz2014hszs   0.36347
gfz2014htbf  -0.04102
gfz2014huaj  -0.79267
gfz2014hugz  -0.33802
gfz2014hvdm   0.41327
gfz2014hwan   0.62806
gfz2014hwsy   0.25733
gfz2014hwwi   0.76779
gfz2014hxcl   0.12197
gfz2014hyal   0.44619
gfz2014hyvq  -0.38855
gfz2014hzdy  -1.19250
gfz2014hzfr  -0.72052
gfz2014hzgn   0.19524
gfz2014hzht  -0.35433
gfz2014hzig   0.25697
gfz2014hzze  -0.05565
gfz2014iani  -0.34755
gfz2014iazy  -0.24584
gfz2014ieam  -0.15165
gfz2014iege  -0.29494
gfz2014ieho   0.65874
gfz2014ifue  -0.13363
gfz2014ifzj   0.94197
gfz2014igsj  -0.34526
gfz2014igur   0.41657
gfz2014ijvh  -0.63303
gfz2014ikbk  -0.57643
gfz2014ikun  -1.66620
gfz2014ikvd  -0.19779
gfz2014ilwu  -0.20942
gfz2014imap   1.70890
gfz2014immt  -0.21882
gfz2014imnn  -0.60199
gfz2014inbj   0.04324
gfz2014iobd  -0.07627
gfz2014iqzj   0.09507
gfz2014irci  -0.38378
gfz2014ircq   0.06545
gfz2014irrg  -0.19137
gfz2014isdq  -0.03497
gfz2014isff   0.01345
gfz2014issk   0.13905
gfz2014isub   1.70810
gfz2014isys   0.37357
gfz2014itab   0.75707
gfz2014itbe  -0.37337
gfz2014itbu  -0.10151
gfz2014itfc  -0.25629
gfz2014itgh  -0.09491
gfz2014itjx   0.23329
gfz2014itkw   0.13024
gfz2014itpj   0.43949
gfz2014iuhq  -0.22653
gfz2014ivep  -0.32922
gfz2014iwnf   1.40290
gfz2014iwwl   0.57099
gfz2014ixga  -0.40204
gfz2014ixky   0.07669
gfz2014iywt   0.47121
gfz2014jagg  -0.01421
gfz2014jass  -0.26248
gfz2014jcmt  -0.50574
gfz2014jdxj   0.23406
gfz2014jesb  -0.46625
gfz2014jfis  -0.32266
gfz2014jggm  -0.15345
gfz2014jhra  -1.01130
gfz2014jipr  -0.80217
gfz2014jird  -0.94161
gfz2014jjhc   0.00000
gfz2014jjkh   0.06378
gfz2014jjln  -1.03590
gfz2014jjqk  -0.27281
gfz2014jmnk  -0.09725
gfz2014jmsy  -0.20024
gfz2014jnea  -0.15345
gfz2014jnfy  -0.07267
gfz2014jnyv   0.71266
gfz2014joak  -0.55842
gfz2014jomw   0.53586
gfz2014jozl   0.00767
gfz2014jpep  -0.76065
gfz2014jpez  -0.18585
gfz2014jpfn  -2.50000
gfz2014jpgu   0.53981
gfz2014jpxs   0.52953
gfz2014jtcz  -0.06427
gfz2014jtfe   0.13317
gfz2014jvow  -0.69211
gfz2014kara   0.54919
gfz2014kbuk   0.17202
gfz2014kbwm  -2.02910
gfz2014khan  -0.05258
gfz2014kizt  -0.42053
gfz2014kjee  -1.03800
gfz2014kjjq  -1.03030
gfz2014kjzb  -1.22010
gfz2014kkhh  -0.81741
gfz2014kmmt  -0.22335
gfz2014krlg   0.26350
gfz2014kscf  -0.69521
gfz2014ksmz  -0.24967
gfz2014kwie  -0.05086
gfz2014kwrg  -0.51236
gfz2014kwwg  -0.03274
gfz2014kxqf  -0.17255
gfz2014kyan   0.56316
gfz2014kyhe  -1.50230
gfz2014kytf  -0.12902
gfz2014kzzm  -0.56714
gfz2014lbcq  -1.31970
gfz2014lchy   0.78975
gfz2014lddn  -0.42000
gfz2014lefs  -1.51450
gfz2014lehw  -0.66377
gfz2014lgqn  -0.77568
gfz2014lhqn  -0.73999
gfz2014ljbr  -0.24207
gfz2014lkyf  -0.95038
gfz2014lnmw  -0.03184
gfz2014lpfc   0.29841
gfz2014lpim   0.90494
gfz2014lrzx   0.47366
gfz2014lurd  -0.16352
gfz2014lvgn  -0.42978
gfz2014lwom   0.05596
gfz2014lwsw  -0.82250
gfz2014lwvb  -0.35629
gfz2014lxnc  -1.09230
gfz2014lxqr  -0.32487
gfz2014lyhk  -0.52228
gfz2014lzal   1.50280
gfz2014lzow  -0.13963
gfz2014macx  -0.88026
gfz2014madw  -0.92548
gfz2014mawp   0.03617
gfz2014mcno   0.19149
gfz2014mcse  -0.27692
gfz2014mlrr  -0.41651
gfz2014mmbu   0.37504
gfz2014mmtb   0.38609
gfz2014moaw   0.23475
gfz2014mogb  -0.29449
gfz2014mrbm   2.21010
gfz2014muzd  -0.48039
gfz2014mwnj   0.05973
gfz2014mxkr  -1.36740
gfz2014myqz  -1.30520
gfz2014nafd  -0.22851
gfz2014navw  -0.24378
gfz2014ndue  -1.40290
gfz2014ngsk   0.10065
gfz2014nhyb  -1.29320
gfz2014niqj  -0.88822
gfz2014nkdx   0.92323
gfz2014nnxd  -0.62302
gfz2014npeo  -0.37572
gfz2014nphm   0.89222
gfz2014nqbs   0.02851
gfz2014nqfm   0.06086
gfz2014nqpk   0.11095
gfz2014nrie  -0.18010
gfz2014nvdi  -1.68740
gfz2014nvxd  -0.06141
gfz2014nyeh  -0.54521
gfz2014nyfb  -0.51904
gfz2014nylm   0.08012
gfz2014obbs  -0.29753
gfz2014obxm  -0.44977
gfz2014odgv  -0.24616
gfz2014ofhm  -0.40190
gfz2014oghp  -0.77845
gfz2014oims   0.13406
gfz2014oinz  -0.79408
gfz2014ojdg  -0.80161
gfz2014okec  -0.06688
gfz2014okxu   0.11214
gfz2014oned   0.16775
gfz2014opqr   0.23408
gfz2014oqhw   0.38992
gfz2014orgz  -1.13220
gfz2014orxs   0.33623
gfz2014oryw  -0.53638
gfz2014osvx  -0.21991
gfz2014owii   0.12010
gfz2014owur   0.14396
gfz2014owxc  -1.21090
gfz2014oyly   0.18035
gfz2014oypt  -0.03542
gfz2014ozmj  -0.05875
gfz2014pghi   0.81921
gfz2014pjer   0.31442
gfz2014pjum  -1.10950
gfz2014pmxt  -0.71087
gfz2014pngj   0.21006
gfz2014poap  -0.41217
gfz2014ppzf   0.70766
gfz2014pqqp  -0.88212
gfz2014prdm   0.15212
gfz2014pxbu   0.39675
gfz2014pzni  -0.85730
gfz2014qbzi  -0.12579
gfz2014qcxs   0.32779
gfz2014qfzq  -0.21399
gfz2014qifa   0.39180
gfz2014qjfl  -0.67136
gfz2014qjgp  -0.08216
gfz2014qlxd  -0.27227
gfz2014qngj  -0.97222
gfz2014qqfg  -0.07545
gfz2014qqhm  -0.85179
gfz2014qsby   0.05938
gfz2014qtwv   0.07599
gfz2014rcyx   0.49270
gfz2014rdoz  -1.08670
gfz2014rfeb   0.63329
gfz2014rffv  -0.05399
gfz2014rghp  -0.36491
gfz2014rhju   0.91855
gfz2014rhnz   0.67410
gfz2014rhwq   0.46612
gfz2014riel  -0.05216
gfz2014rils   1.13560
gfz2014roba   2.04480
gfz2014romy   0.44758
gfz2014royq  -0.61251
gfz2014rucz  -0.05890
gfz2014rwos   0.14954
gfz2014ryfb  -0.01400
gfz2014sadu   0.28412
gfz2014sryn   0.44213
gfz2014ssds   0.33669
gfz2014ssvz  -0.48854
gfz2014swgt  -0.54757
gfz2014tabg   0.37686
gfz2014tgcw  -0.18173
gfz2014tovs  -0.00000
gfz2014tqly   0.38957
gfz2014tqsf  -0.32820
gfz2014tqth  -0.17773
gfz2014tzsd   0.49053
gfz2014uapa   0.39136
gfz2014ubyq   0.42019
gfz2014utac  -0.03768
gfz2014uyrq   1.38100
gfz2014uzaw  -0.00078
gfz2014vdnh   0.41760
gfz2014veit  -0.63376
gfz2014vhld  -0.60042
gfz2014vhms  -0.96501
gfz2014vjoh  -0.60973
gfz2014vjoz  -0.53173
gfz2014vljh  -0.00000
gfz2014vnxu   0.65077
gfz2014vpus   0.54211
gfz2014vqqa  -0.86232
gfz2014waoo   0.98127
gfz2014watn   0.03781
gfz2014wjko  -0.86389
gfz2014wqcp   0.13660
gfz2014wrkh  -0.72028
gfz2014wsjh  -0.00000
gfz2014wwib  -0.42564
gfz2014xbyr   0.00000
gfz2014xhkc   0.98136
gfz2014xhwk   0.56308
gfz2014xjri  -0.42672
gfz2014xmnp  -0.05674
gfz2014xoji  -0.31623
gfz2014xqby  -0.52943
gfz2014yazi   0.18151
gfz2014yhhm  -0.26496
gfz2014ynhc   0.16235
gfz2014zcgo   0.47504
gfz2015ansu   0.13506
gfz2015bucr  -1.04090
gfz2015chhn   0.36170
gfz2015clrp   0.35577
gfz2015cpuo   0.66907
gfz2015cxrc   0.10851
gfz2015cyjd  -0.01949
gfz2015ddhl   0.38846
gfz2015dizn  -0.84975
gfz2015drlk  -0.04615
gfz2015dskr  -0.48117
gfz2015dtqr   0.30017
gfz2015dvbn   0.04375
gfz2015ednc  -0.40728
gfz2015eezy   0.46369
gfz2015egbk   1.65860
gfz2015egxq   0.28618
gfz2015ehou  -0.15448
gfz2015ehpz   0.24252
gfz2015eljz  -1.01170
gfz2015emcg  -0.23393
gfz2015emin  -1.19050
gfz2015emtg  -0.80051
gfz2015enth   1.00390
gfz2015fbbk  -0.71625
gfz2015fbew  -0.25440
gfz2015fcua   0.31102
gfz2015fdpr   0.05112
gfz2015fjhk  -0.95357
gfz2015fkbc   1.49970
gfz2015fkgt   0.50350
gfz2015fkjs  -0.28785
gfz2015fvoi  -0.10837
gfz2015fwkq   0.10915
gfz2015fwnf   0.22809
gfz2015fxdi  -1.82080
gfz2015gckd  -0.28772
gfz2015gjbr  -0.28076
gfz2015gkwa   0.11354
gfz2015gmgf   0.32334
gfz2015gzja  -0.10044
gfz2015hdbn   0.11471
gfz2015hdcp  -0.75716
gfz2015hgbk  -0.13203
gfz2015hhbd  -0.54327
gfz2015hlfq   0.58989
gfz2015hlqo  -0.67932
gfz2015hpmk   0.31297
gfz2015hslo   0.07765
gfz2015hwkv  -1.17940
gfz2015hwzw  -0.32908
gfz2015idho  -0.08486
gfz2015iele   0.14302
gfz2015igsy   0.07748
gfz2015ijmh   0.13866
gfz2015imty   0.43596
gfz2015imyp   0.29967
gfz2015isim   0.23818
gfz2015ixyy  -1.88360
gfz2015jkdw  -0.55841
gfz2015jmlf  -0.40633
gfz2015jmlu   0.34418
gfz2015jpap   0.32481
gfz2015jxbx   0.59138
gfz2015jzcv  -0.69375
gfz2015kalm  -0.39190
gfz2015kcaa  -0.46620
gfz2015kkth   0.12110
gfz2015kphk  -0.56618
gfz2015kquq  -0.68354
gfz2015lcma   0.73904
gfz2015lcuo   0.50629
gfz2015lfma  -0.75103
gfz2015lfos  -0.17774
gfz2015lfud   0.61680
gfz2015lhjq   0.48916
gfz2015lhjy  -0.14487
gfz2015ltii   0.06920
gfz2015ltro  -0.34850
gfz2015lytv  -0.56137
gfz2015mbgr  -0.43293
gfz2015mddr   0.34062
gfz2015mfpy   0.12912
gfz2015micz   0.27165
gfz2015mljd  -0.82720
gfz2015mpte  -1.05760
gfz2015npud   0.37669
gfz2015nwug   0.74055
gfz2015ocwr   0.29872
gfz2015ofpd   0.01663
gfz2015oumn  -0.00153
gfz2015oyfl  -0.73424
gfz2015pjgr   0.52537
gfz2015plal  -0.06939
gfz2015prlr  -2.05230
gfz2015puuu  -0.02558
gfz2015qafb   0.15478
gfz2015qnde  -0.21919
gfz2015qnho   1.23320
gfz2015qols   0.10394
gfz2015qprd  -1.70890
gfz2015qpvd   0.35333
gfz2015quzo  -0.92183
gfz2015qvxu  -0.62666
gfz2015rgrg   5.10080
gfz2015rgst   0.26028
gfz2015rkzg   0.50929
gfz2015rlnh  -2.10100
gfz2015rnis  -0.25676
gfz2015rpzn   0.14617
gfz2015rtnv   0.08555
gfz2015rwsb  -1.03250
gfz2015saet   0.53440
gfz2015sdeo  -0.62391
gfz2015sdfy  -0.53980
gfz2015sevh   0.34619
gfz2015sfdd  -0.11890
gfz2015sgad  -3.75280
gfz2015sgdn   1.41000
gfz2015sghq  -1.90250
gfz2015siof   0.75973
gfz2015sitn  -1.09930
gfz2015sjgk  -0.69545
gfz2015sjjb  -0.45309
gfz2015skpv  -2.04270
gfz2015slun  -3.75100
gfz2015smym  -1.22560
gfz2015snwh  -0.23958
gfz2015snyd  -0.49568
gfz2015soat   0.23913
gfz2015soxc   0.24437
gfz2015sozw   0.81291
gfz2015spxh   0.26018
gfz2015sryk  -0.27908
gfz2015svjy   0.24972
gfz2015svwm  -0.25263
gfz2015swgn  -0.32055
gfz2015swjx   0.29604
gfz2015szfe  -1.08730
gfz2015taml   0.15560
gfz2015tbdn   0.52309
gfz2015tchx   0.09467
gfz2015tdhb  -1.09300
gfz2015teyc   0.18940
gfz2015teyn  -0.16163
gfz2015tezd   3.63400
gfz2015tflu   0.51946
gfz2015tghj  -1.70040
gfz2015thwp  -0.96086
gfz2015tkol  -1.56030
gfz2015tlkf  -0.86866
gfz2015tnjd  -0.16027
gfz2015tnla  -0.90506
gfz2015tqff  -1.02270
