# Nsamples: 2170  MAD:  0.537  mean: -0.129  variance:  2.146
gfz2010aerk   0.11070
gfz2010ahla   0.01843
gfz2010ahqi  -0.02449
gfz2010aphp  -0.08092
gfz2010bedu  -0.29809
gfz2010bfzs  -0.29850
gfz2010bgth   0.05409
gfz2010bhhq  -2.57620
gfz2010bifb   0.78942
gfz2010bjeb  -0.14434
gfz2010bjjx   0.40690
gfz2010bjsl  -1.68210
gfz2010bkob  -0.92572
gfz2010bkos  -0.49244
gfz2010bowy   0.78010
gfz2010boxo   1.24240
gfz2010bxxs   0.95070
gfz2010bywj  -0.22405
gfz2010caft   0.19248
gfz2010cbkg  -0.59824
gfz2010cdbt  -0.24609
gfz2010chnv  -0.30251
gfz2010cind  -0.15926
gfz2010civi  -0.41622
gfz2010cjmx  -0.34890
gfz2010cjrf   0.01345
gfz2010ckeu  -0.26239
gfz2010ckzm   0.23471
gfz2010cnwc  -0.35072
gfz2010cptb   0.39439
gfz2010cqwl   0.24642
gfz2010cres   0.49048
gfz2010ctuw  -1.39170
gfz2010czps   0.17734
gfz2010ddzo   0.81042
gfz2010dejx   0.03511
gfz2010dfru  -0.68775
gfz2010dlgc   0.69872
gfz2010dlwv   0.04020
gfz2010dtmx  -0.16932
gfz2010dumm  -0.00000
gfz2010engw   5.91800
gfz2010enpa   1.67120
gfz2010ensu  -0.15755
gfz2010enzl   0.01156
gfz2010eoao  -2.11500
gfz2010eohh  -1.18370
gfz2010eomb  -2.27670
gfz2010epbe  -0.31035
gfz2010epud  -3.59670
gfz2010epxj  -1.77110
gfz2010epzk   1.32590
gfz2010eqcn  -0.09405
gfz2010eqjg  -1.41360
gfz2010eqse  -0.64048
gfz2010eqwl   0.80088
gfz2010erda   3.71900
gfz2010erdi  -1.05940
gfz2010erfy  -0.37134
gfz2010erig   0.73301
gfz2010erkn   0.00000
gfz2010erna  -2.98070
gfz2010erom  -2.49680
gfz2010erum   1.34160
gfz2010eruy  -0.25955
gfz2010erwn  -2.98930
gfz2010erxb  -5.09070
gfz2010eryg  -3.82180
gfz2010esid   0.95605
gfz2010esmg  -0.06226
gfz2010esou   0.21838
gfz2010eted  -1.72680
gfz2010etfw  -0.31010
gfz2010euan   0.66067
gfz2010eugj   1.87760
gfz2010eujm  -0.12107
gfz2010euvl   1.67550
gfz2010euxe   0.62756
gfz2010evco   1.46230
gfz2010evgf  -1.05320
gfz2010evjv   0.14665
gfz2010evkd   1.52780
gfz2010ewbc   3.73670
gfz2010ewpq  -0.54554
gfz2010ewvc  -1.93970
gfz2010ewyu  -0.15794
gfz2010excp  -1.72270
gfz2010exdd  -1.35000
gfz2010exdl   1.29470
gfz2010exel   0.87925
gfz2010exfb   0.36021
gfz2010exgb  -0.79228
gfz2010exhd   3.67790
gfz2010exhw  -2.80580
gfz2010exjw  -2.67790
gfz2010exmc  -1.09010
gfz2010exno   2.04280
gfz2010exou   0.88481
gfz2010exqu   1.08520
gfz2010exsg   0.07607
gfz2010exts   2.62600
gfz2010exyp   0.91413
gfz2010eyaz  -1.13660
gfz2010eyhh   0.04386
gfz2010eyiv  -0.48550
gfz2010eymr  -2.28120
gfz2010eymx  -5.38740
gfz2010eyqe  -1.39770
gfz2010eyvq  -4.76050
gfz2010eyxe  -0.00000
gfz2010ezax   0.83896
gfz2010ezck  -2.86440
gfz2010ezig   4.81930
gfz2010ezjk  -0.29932
gfz2010ezvt   0.98637
gfz2010ezwz  -3.16410
gfz2010ezxd  -5.67590
gfz2010faeu  -0.48897
gfz2010falm  -0.35777
gfz2010fauz   0.12887
gfz2010fbeu  -2.30770
gfz2010fbwe   0.54342
gfz2010fcax   2.53170
gfz2010fciw   0.09414
gfz2010fcnn  -0.07983
gfz2010fcnt   2.22930
gfz2010fcxy   0.23497
gfz2010fczt  -0.32518
gfz2010fedq   0.09321
gfz2010fefr   0.33003
gfz2010fexw  -1.19520
gfz2010ffhq   0.54373
gfz2010ffjb  -1.03090
gfz2010ffui  -5.43120
gfz2010fhbl   0.17426
gfz2010figq   0.21274
gfz2010fihj  -1.02400
gfz2010fika   0.01955
gfz2010fisf  -0.85543
gfz2010fjal   0.95361
gfz2010fjas  -0.24134
gfz2010fjmu  -0.29620
gfz2010fjni   1.26760
gfz2010fkhd   0.20175
gfz2010fknh  -0.55511
gfz2010fkvg   1.44290
gfz2010flha  -0.47266
gfz2010flkj  -3.59480
gfz2010floi  -2.52780
gfz2010flxi   0.86841
gfz2010fmhb   0.17215
gfz2010fmip  -1.08100
gfz2010fmpy  -0.84840
gfz2010fmwb   1.11300
gfz2010fnrk  -1.15790
gfz2010fobc   1.56700
gfz2010fpqy   0.00000
gfz2010fqdu  -1.02090
gfz2010fqtj  -0.11995
gfz2010fser   0.50390
gfz2010fsmy   0.30894
gfz2010fsth  -0.90549
gfz2010ftlm  -0.93800
gfz2010fupn  -0.11771
gfz2010fuuy   0.41561
gfz2010fuwa   3.14200
gfz2010fvuc   6.92280
gfz2010fwkk  -0.54868
gfz2010fwlb  -0.14030
gfz2010fwny   2.40340
gfz2010fwpv   0.32256
gfz2010fyed   2.96730
gfz2010fyen   1.94410
gfz2010fzoi   1.88240
gfz2010fzsg  -2.52170
gfz2010fzyt   1.00720
gfz2010gcdn   0.92192
gfz2010gceb   0.13070
gfz2010gcrl  -0.69409
gfz2010gdch  -1.76660
gfz2010gdld   0.38589
gfz2010gdvf  -0.88561
gfz2010geru   1.48980
gfz2010ghyk  -1.00090
gfz2010ginm  -0.21952
gfz2010gjia   0.57799
gfz2010gjvo  -2.64670
gfz2010glqr  -1.68980
gfz2010glxl  -0.83993
gfz2010grss  -0.39352
gfz2010grxb   0.73014
gfz2010gslu  -1.01030
gfz2010gvya  -2.83110
gfz2010gwmp  -0.93077
gfz2010gymo  -4.29800
gfz2010gyqp  -0.05959
gfz2010gzxr   0.26447
gfz2010hakh  -0.28607
gfz2010hbka   0.56631
gfz2010hcio  -1.97060
gfz2010hevz  -0.39887
gfz2010hgld  -2.52490
gfz2010hhls  -0.38851
gfz2010hjoc  -0.45586
gfz2010hllj  -1.44860
gfz2010hlln  -0.38045
gfz2010hlmq  -0.53346
gfz2010hmhm  -2.11830
gfz2010hncj  -0.12800
gfz2010hnnf   0.23192
gfz2010hnzr  -0.64408
gfz2010homc  -0.80154
gfz2010hptz  -0.61188
gfz2010hrkr  -0.67991
gfz2010htdq  -1.26670
gfz2010hufk  -0.40738
gfz2010hxgv   0.59178
gfz2010hxhe  -1.07790
gfz2010hykt  -0.32839
gfz2010hzar  -0.63325
gfz2010ibiy  -2.14230
gfz2010ibxj  -0.03088
gfz2010iciq   0.25575
gfz2010icqq   0.07961
gfz2010iefy  -4.73010
gfz2010ihrq  -2.21140
gfz2010iibf  -1.82940
gfz2010iimu   0.04131
gfz2010ijtk  -0.37827
gfz2010imfv  -3.88260
gfz2010imsh  -0.26901
gfz2010iobp  -2.51130
gfz2010iphd  -2.26240
gfz2010iqep  -0.28695
gfz2010iqfm  -4.96590
gfz2010iqnm  -0.72870
gfz2010iqus   0.39934
gfz2010irqr  -0.05794
gfz2010irvf   0.27489
gfz2010isrp   1.50060
gfz2010ited   0.02324
gfz2010itpb  -0.70486
gfz2010iull  -0.03994
gfz2010ixyc  -1.60510
gfz2010izzj  -3.34100
gfz2010jant  -1.17150
gfz2010jatq   0.17577
gfz2010jhie   0.13049
gfz2010jipf  -2.19940
gfz2010jitt  -1.11390
gfz2010jkxj   0.72954
gfz2010jlhj  -0.73634
gfz2010jpss  -0.45180
gfz2010jpyj  -0.40272
gfz2010jsuh   0.33409
gfz2010jtal  -1.52240
gfz2010jucj   0.27388
gfz2010jwpy  -0.20581
gfz2010jxbm   1.50270
gfz2010jygz  -0.17774
gfz2010kcoo  -0.82363
gfz2010kdyc  -0.40343
gfz2010kgws   0.99352
gfz2010kihf  -2.26780
gfz2010kmgg   0.45481
gfz2010kmsv  -0.22380
gfz2010kown   0.65531
gfz2010kqyh  -0.19582
gfz2010kzml  -1.98360
gfz2010lcoq  -1.72230
gfz2010lczp   0.37292
gfz2010lepw  -0.34609
gfz2010lfju  -0.58041
gfz2010lgwy  -2.36800
gfz2010liqs  -0.44203
gfz2010lkcf  -1.14210
gfz2010lluj   0.30634
gfz2010lrlk   0.73255
gfz2010lruw   0.44989
gfz2010lsft  -0.03973
gfz2010lwuq   0.19177
gfz2010lyfk  -0.18843
gfz2010mant   1.17970
gfz2010mdpq   0.40685
gfz2010mfpt   0.50277
gfz2010mgss  -1.54640
gfz2010miil   2.02110
gfz2010mipi  -0.09440
gfz2010miqn  -4.96330
gfz2010mlta  -1.58370
gfz2010mncc  -0.19529
gfz2010mnhm   1.55740
gfz2010mnsz  -0.24882
gfz2010moyw   0.04040
gfz2010mpuy   1.63310
gfz2010msjj  -0.55786
gfz2010muca  -1.52300
gfz2010mwdq   1.29580
gfz2010mzjr  -0.87761
gfz2010ncrl   0.44848
gfz2010ndxl  -0.07337
gfz2010nfsj   2.46560
gfz2010nlkh  -1.17280
gfz2010nmpc   1.11020
gfz2010nnny   0.21189
gfz2010nqwf   0.22426
gfz2010nqwo   1.10730
gfz2010nrew   0.13702
gfz2010nrjo  -0.64360
gfz2010nsck  -4.18690
gfz2010nsdf  -1.78420
gfz2010nsfx   0.50764
gfz2010ntuo   1.88030
gfz2010nubk   0.14234
gfz2010nwef   0.00000
gfz2010nxsy  -1.33310
gfz2010nxum   2.25190
gfz2010nzha  -6.18080
gfz2010nzla  -1.09560
gfz2010ocxq  -0.32214
gfz2010odpb  -0.10395
gfz2010oedn  -0.86939
gfz2010okdm   1.67760
gfz2010oluw   0.08488
gfz2010omla   0.05122
gfz2010onma   0.15380
gfz2010osjs  -0.84953
gfz2010osqo  -0.43711
gfz2010otbn   0.07491
gfz2010oyqy   0.01577
gfz2010pbdz  -0.54197
gfz2010pcxi   0.21232
gfz2010pdtk  -0.87052
gfz2010pets  -0.16729
gfz2010pewa  -2.47930
gfz2010pewx  -0.33412
gfz2010pexf   0.46224
gfz2010pfyu  -0.14163
gfz2010phvg  -0.15752
gfz2010plbg  -0.50014
gfz2010pmqd  -0.31194
gfz2010pqck   0.53244
gfz2010pxak  -0.31642
gfz2010pxgh   0.33512
gfz2010pxls  -0.07510
gfz2010qbng  -0.27399
gfz2010qitd   0.17655
gfz2010qjst   0.04860
gfz2010qkat  -0.83359
gfz2010qpcq   0.02775
gfz2010qpum   0.60650
gfz2010qwwx   2.47690
gfz2010rkfp  -0.46559
gfz2010rlbv  -1.97830
gfz2010rotv   0.55715
gfz2010rqwj  -0.52437
gfz2010rxjw   0.43100
gfz2010rywq  -4.60380
gfz2010rzrr  -0.39574
gfz2010rzsd  -1.47130
gfz2010sfee   0.36960
gfz2010sfla  -2.39520
gfz2010sgzk  -0.46695
gfz2010sjwp  -0.47667
gfz2010skqo  -0.70259
gfz2010skve  -0.27970
gfz2010sniy   1.65180
gfz2010srdb  -0.61211
gfz2010svtn   0.41356
gfz2010svve  -0.03454
gfz2010swcy   0.01643
gfz2010sxwt   0.24533
gfz2010sysw  -0.15003
gfz2010szde   1.43350
gfz2010szim   0.77213
gfz2010tcbr  -0.03059
gfz2010tcrl  -3.14060
gfz2010titk   0.14262
gfz2010tlfm  -0.34811
gfz2010truw   2.17620
gfz2010uouo  -0.56871
gfz2010upfb  -0.68098
gfz2010urlq   0.38205
gfz2010usho  -0.22075
gfz2010ustq  -2.30170
gfz2010utcg  -0.45047
gfz2010utmc  -0.53235
gfz2010uvhf  -0.09969
gfz2010uyhb  -0.48872
gfz2010uzon  -0.06802
gfz2010veri  -1.43560
gfz2010vhuj   0.93787
gfz2010vjcb  -0.15468
gfz2010vppc  -0.08253
gfz2010vxvs  -0.39225
gfz2010vyxd  -0.07401
gfz2010vzpr  -0.09112
gfz2010vzzz  -0.20230
gfz2010wioh  -0.10091
gfz2010wnty  -0.14953
gfz2010wntz  -0.10589
gfz2010wofs  -0.12432
gfz2010wrxx  -1.32980
gfz2010wxqa   0.02066
gfz2010xbcr  -0.01623
gfz2010xbdv  -1.72980
gfz2010xbgs   0.00000
gfz2010xcdh  -0.15091
gfz2010xche  -0.48504
gfz2010xcij  -0.16771
gfz2010xden   0.07315
gfz2010xgfc   0.37519
gfz2010xgzw   0.46284
gfz2010xjck   0.64504
gfz2010xjsj  -0.20916
gfz2010xmpr   1.16100
gfz2010xnxk  -0.16453
gfz2010xxdb  -0.66608
gfz2010xxzn  -4.43680
gfz2010yfsv   0.42169
gfz2010ygwu  -0.17501
gfz2010yjev  -1.23920
gfz2010ymfy   0.15697
gfz2010ymur  -0.15547
gfz2010yosr   0.01951
gfz2010yoyx  -0.16901
gfz2010yqqb   0.22246
gfz2010yqqv  -0.58488
gfz2010yqwx  -5.89680
gfz2010ysaj  -0.21958
gfz2010yvwz   0.04065
gfz2010yzgq   0.40641
gfz2010zdpo   0.12190
gfz2010zeeh  -0.57686
gfz2011aatr   0.10295
gfz2011adjs   0.72697
gfz2011adlj  -2.43030
gfz2011adpw  -1.63520
gfz2011adqk  -0.63088
gfz2011ahfw  -0.35977
gfz2011alip   0.14899
gfz2011alsa  -2.20740
gfz2011alwf  -2.06250
gfz2011ammu  -0.38157
gfz2011anur  -0.45093
gfz2011aosc  -1.61560
gfz2011aqxf  -0.44281
gfz2011asru   0.55306
gfz2011aupi   1.60800
gfz2011bapi   0.08787
gfz2011bhha  -2.78080
gfz2011blsi   1.05530
gfz2011bnsg  -0.14328
gfz2011bnzn  -0.91079
gfz2011bpkd  -0.67571
gfz2011bswz  -0.15001
gfz2011ccpw  -2.05270
gfz2011cfae  -0.00000
gfz2011cndo  -0.93486
gfz2011cnho  -0.85177
gfz2011coxh  -0.72649
gfz2011crdy  -0.03197
gfz2011csju  -0.26947
gfz2011ctbn  -0.32126
gfz2011cvcg   0.00909
gfz2011cvfg  -0.26431
gfz2011cwgn   1.90980
gfz2011cykd   0.65296
gfz2011cylz  -0.38900
gfz2011cynl  -0.37357
gfz2011cyre  -0.46262
gfz2011cyuk  -0.38357
gfz2011czwj  -0.46896
gfz2011dbev  -0.05992
gfz2011dbig   0.17605
gfz2011dbli   0.03020
gfz2011dbon   0.18062
gfz2011dbwt  -0.29875
gfz2011dcqb   0.95259
gfz2011ddao  -0.85279
gfz2011dddh  -0.18679
gfz2011deja   1.55250
gfz2011dldn  -0.29878
gfz2011dllz  -0.61437
gfz2011dlyx   0.94000
gfz2011dmat   0.05572
gfz2011dndz  -0.47651
gfz2011dpaa  -0.83756
gfz2011dpmx  -0.11765
gfz2011dpqx   1.89470
gfz2011dqio   0.01243
gfz2011dtpy   0.07677
gfz2011duyr  -1.70720
gfz2011dvxb  -0.20567
gfz2011eayc   0.11862
gfz2011ecsc  -0.24059
gfz2011ecvr   0.49578
gfz2011efgv  -0.11697
gfz2011ehzq  -1.03930
gfz2011eiis  -0.01940
gfz2011ejlp   0.05055
gfz2011ekpr   1.75640
gfz2011eocc  -0.59282
gfz2011etje  -0.56643
gfz2011fdzv   0.28255
gfz2011fgvr   0.21268
gfz2011fhag  -0.63614
gfz2011fhbm  -0.42100
gfz2011fhur   5.59470
gfz2011fkbn   0.27029
gfz2011flgj   0.37341
gfz2011fnsw  -0.12012
gfz2011gbmx   0.37729
gfz2011gcwb   2.07870
gfz2011gdgh  -0.66041
gfz2011ggvf   0.13215
gfz2011gjlx  -0.16244
gfz2011gkey   3.51300
gfz2011gzbr  -0.89921
gfz2011haid  -1.24250
gfz2011hbex   0.30143
gfz2011hbqk  -0.16288
gfz2011hebt  -0.07150
gfz2011hlqw  -0.03127
gfz2011hlsa   0.02032
gfz2011hlth  -0.20922
gfz2011hpgx   0.75905
gfz2011hpqp   0.43483
gfz2011hrhe   0.10771
gfz2011hrhu   2.30160
gfz2011hvbu  -1.59790
gfz2011icxe  -0.23805
gfz2011ieie  -0.38267
gfz2011ixai   0.27789
gfz2011izqa   0.33916
gfz2011jbbc  -0.31557
gfz2011jdsj  -0.19008
gfz2011jghb   2.79380
gfz2011jmbn  -0.32688
gfz2011jnmi   0.95858
gfz2011jplh   0.11674
gfz2011knbi  -0.26318
gfz2011knoo  -0.14298
gfz2011kqwo   0.26344
gfz2011kqyg  -0.65187
gfz2011kvxh  -0.22800
gfz2011kwhq  -0.08341
gfz2011kwid   0.61507
gfz2011kwiy   0.16155
gfz2011kwjx   0.79559
gfz2011kwkw   0.98069
gfz2011kwld   0.68237
gfz2011kwlq   0.40368
gfz2011kwni  -0.04416
gfz2011kwnu  -0.33387
gfz2011kwqc   0.55477
gfz2011kwrf   0.67998
gfz2011kwsz   0.89345
gfz2011kxzp   0.85174
gfz2011lczg  -0.12562
gfz2011ldna   0.10106
gfz2011lgsg  -0.24783
gfz2011lhls  -0.58475
gfz2011lvjr  -0.47394
gfz2011lzwj   0.51937
gfz2011mdie   0.02729
gfz2011mepc   0.34715
gfz2011mivl   0.75432
gfz2011mjom  -0.93571
gfz2011mllx   0.24528
gfz2011mlvw  -0.11504
gfz2011mpme   1.07520
gfz2011mprq   0.22951
gfz2011myia   7.09700
gfz2011nauw   0.29427
gfz2011necz  -0.08103
gfz2011nmnq  -2.34470
gfz2011nmqj  -0.46528
gfz2011noud   4.17530
gfz2011nowp   0.03051
gfz2011npgs  -0.50978
gfz2011nqpd  -0.03597
gfz2011nrwc  -0.57681
gfz2011nsex  -0.68536
gfz2011ntkh   0.01961
gfz2011ntrv  -0.41931
gfz2011nudm  -5.01620
gfz2011ogqk   2.27570
gfz2011ohcy  -1.29630
gfz2011oiqe  -0.17448
gfz2011oiwk  -0.15441
gfz2011olkk  -0.07809
gfz2011oolr   0.22155
gfz2011ornx   1.46530
gfz2011owvz  -0.64196
gfz2011ozsl  -1.70870
gfz2011pccd   0.05304
gfz2011pdpt  -0.30355
gfz2011pdst  -0.25801
gfz2011phms   3.97270
gfz2011pntf   1.20660
gfz2011psnq  -0.05298
gfz2011ptus  -0.56080
gfz2011qigx  -0.64584
gfz2011qoif   0.54987
gfz2011qvae   2.42960
gfz2011qyms  -0.72813
gfz2011rabm  -0.16360
gfz2011rdby  -0.61453
gfz2011rewa   0.29074
gfz2011rgwl   0.18752
gfz2011rgwp  -0.20919
gfz2011rnut  -1.52370
gfz2011rqui   1.08890
gfz2011rsrh  -2.30150
gfz2011runa  -0.29202
gfz2011rznl   0.38559
gfz2011sagt  -1.28070
gfz2011sawg  -0.39069
gfz2011shqm   0.08350
gfz2011socv  -0.13121
gfz2011sqoy  -0.02195
gfz2011srka   0.02200
gfz2011stal  -0.20301
gfz2011sthv  -0.06678
gfz2011svix  -0.20458
gfz2011syjd  -0.95066
gfz2011taps  -1.00880
gfz2011tbas   2.37740
gfz2011tcij   0.43793
gfz2011tivu   0.06463
gfz2011tjrf  -1.25180
gfz2011tkfp   1.79970
gfz2011tkog  -0.18192
gfz2011tnag  -0.15925
gfz2011toub   1.41030
gfz2011tpfr   0.32292
gfz2011tsfd  -0.22137
gfz2011tsnp  -0.52833
gfz2011twov   0.23454
gfz2011udsq   1.15650
gfz2011ueni   0.01677
gfz2011uepx  -0.06960
gfz2011ugzz   1.62010
gfz2011uiul  -0.07384
gfz2011ujze   0.10124
gfz2011ukmp   0.29447
gfz2011unkx  -0.91935
gfz2011uphh   0.34122
gfz2011urxy  -0.77548
gfz2011urzu  -0.06504
gfz2011uzqv   1.06280
gfz2011vclt  -0.04573
gfz2011vhfi  -0.15394
gfz2011vkun   0.24555
gfz2011vldk  -0.24811
gfz2011vnza   0.25010
gfz2011vqnr   0.43667
gfz2011vqrj   2.48150
gfz2011vrhg   0.18829
gfz2011vusi  -0.72272
gfz2011vxod  -0.53108
gfz2011vxxg  -0.52211
gfz2011wcic  -0.53554
gfz2011wfja   0.21185
gfz2011wijj  -0.22183
gfz2011wjul   0.79605
gfz2011wtmq  -0.37538
gfz2011wvzb   0.42521
gfz2011wwjs  -1.16990
gfz2011wxfs  -0.44455
gfz2011wxoj  -0.62212
gfz2011wxtk   0.20739
gfz2011wype   0.84883
gfz2011xaan  -1.70830
gfz2011xcpv   0.44834
gfz2011xesx   0.78893
gfz2011xqru   0.44818
gfz2011xyxj  -0.32015
gfz2011yfdx   0.21876
gfz2011yfys  -0.04371
gfz2011yhwz  -0.47883
gfz2011ytnu  -0.24053
gfz2011yybo  -0.31543
gfz2011zjap  -0.08432
gfz2011zlfg  -0.13632
gfz2011zlrd  -0.69748
gfz2011zqhh   0.59373
gfz2012ablh  -0.11539
gfz2012ajtq  -0.71761
gfz2012aqgp   3.95400
gfz2012aqtq   0.25309
gfz2012attr  -0.39868
gfz2012bfah   3.74500
gfz2012bfyn  -0.27714
gfz2012bgnk  -0.76729
gfz2012bngd   0.01983
gfz2012bpkx  -0.43491
gfz2012bpnl  -0.96928
gfz2012bpwl  -0.06438
gfz2012brhv   0.10174
gfz2012byad  -0.08350
gfz2012cbed  -0.01946
gfz2012cnod  -0.83055
gfz2012covm  -0.16320
gfz2012cqnl   0.71464
gfz2012cqtc   0.30628
gfz2012cuct  -2.76730
gfz2012cxdn  -0.43499
gfz2012cyof  -0.44284
gfz2012czlw   0.56194
gfz2012ddma   0.08981
gfz2012deri   0.14635
gfz2012dimn  -0.41542
gfz2012dinb  -0.12017
gfz2012divk  -0.21513
gfz2012dves  -3.06930
gfz2012ekda  -0.42717
gfz2012ekzf   3.45530
gfz2012elce  -3.38900
gfz2012enno   0.20758
gfz2012eskt  -0.76336
gfz2012ewkj   0.40442
gfz2012eykb  -0.70259
gfz2012ezvr  -0.64796
gfz2012fbfo   0.79911
gfz2012fgzz  -0.08292
gfz2012fhnh  -1.36660
gfz2012fivh  -1.84020
gfz2012foeo  -0.55200
gfz2012fqcg  -0.18909
gfz2012fwfo   0.03323
gfz2012fwob   0.18728
gfz2012fwtr  -0.94908
gfz2012fzfa  -0.66283
gfz2012gemm  -1.00410
gfz2012gill  -0.19039
gfz2012gnvh  -0.21194
gfz2012gocc   0.30482
gfz2012gwqb  -0.21993
gfz2012hdbm   0.11781
gfz2012hnul   1.05400
gfz2012hogg  -0.26390
gfz2012holl  -1.79270
gfz2012hsex   0.74312
gfz2012htet  -0.56042
gfz2012hwyo  -0.69516
gfz2012hyaa  -0.54557
gfz2012hzbe   0.01719
gfz2012iamr   0.23987
gfz2012icmv  -1.02110
gfz2012idje  -0.63208
gfz2012iffo  -0.09746
gfz2012iivw  -0.43951
gfz2012ilxh   0.09082
gfz2012imay  -0.02619
gfz2012imbd   0.44199
gfz2012intn   0.01749
gfz2012iyrb   0.46720
gfz2012jgvj   0.22657
gfz2012jhaz  -0.02306
gfz2012jlox  -0.59023
gfz2012jmwd  -0.14884
gfz2012joqe   0.52314
gfz2012jpeh  -0.47729
gfz2012jpgs   0.23506
gfz2012jshk  -0.04044
gfz2012jted  -0.13537
gfz2012jupx  -0.43350
gfz2012jxiy   0.05298
gfz2012kanu  -0.06882
gfz2012kbjb  -0.58665
gfz2012kbzj  -0.13468
gfz2012kdmb  -0.16999
gfz2012keor  -0.09971
gfz2012kiik  -0.48253
gfz2012kkcp   0.01697
gfz2012kkup   0.42964
gfz2012klba   0.96179
gfz2012klhx   0.02645
gfz2012kuct   0.34689
gfz2012kudo   0.11057
gfz2012kvzv  -0.22704
gfz2012kwgo  -0.09908
gfz2012lboz  -0.21012
gfz2012lczo  -0.54630
gfz2012ldgs  -1.47850
gfz2012ldxg  -1.45330
gfz2012ldzj   0.32261
gfz2012leam  -0.17718
gfz2012ledy  -1.29530
gfz2012lezd   0.74358
gfz2012lhnc   0.43398
gfz2012lltr  -0.17757
gfz2012llug  -0.49949
gfz2012lpvn  -0.07915
gfz2012lqbg  -0.46650
gfz2012lrjq  -0.10045
gfz2012lrol  -1.04660
gfz2012lrtb  -0.14893
gfz2012lsni   0.07121
gfz2012lsvd   0.51687
gfz2012lszf  -0.00725
gfz2012lxkv  -0.69305
gfz2012lzgv  -0.34680
gfz2012lzmr   0.04265
gfz2012maxy  -0.25178
gfz2012mcze   1.49160
gfz2012megc  -0.11562
gfz2012minr   0.86435
gfz2012mkpn   0.26596
gfz2012mpvy   1.67400
gfz2012mpyl   3.95550
gfz2012mtiu  -0.01587
gfz2012mupa   0.35493
gfz2012mvwr  -0.08857
gfz2012mwij  -0.39104
gfz2012myeg   0.10929
gfz2012myqa  -1.85690
gfz2012nben  -0.74386
gfz2012nbtn   3.84240
gfz2012nedn  -0.44811
gfz2012ngic  -1.29630
gfz2012nivl  -0.55971
gfz2012nkdf  -0.50959
gfz2012noei   1.08870
gfz2012nojx   0.13899
gfz2012nolo  -0.59965
gfz2012nqnk  -0.57837
gfz2012nroo  -0.31327
gfz2012nsbz   0.71324
gfz2012ntzv   1.45070
gfz2012nutf   0.44530
gfz2012nzpz   0.19342
gfz2012oazn  -1.01110
gfz2012obgw  -1.17490
gfz2012obnq   0.03468
gfz2012oedb  -0.48633
gfz2012okhx   0.02813
gfz2012omvo  -0.41466
gfz2012oqmw  -0.66591
gfz2012ostk   0.05672
gfz2012ouyp  -0.56649
gfz2012ovqs  -0.26040
gfz2012oycg  -0.16074
gfz2012pazr   0.11808
gfz2012pciw   1.08970
gfz2012pcxi  -0.10110
gfz2012peex  -0.03516
gfz2012peki  -1.26500
gfz2012pkel  -1.64690
gfz2012plea  -0.95196
gfz2012pofl   0.26877
gfz2012poju   1.14500
gfz2012pqlt   0.01989
gfz2012pqmu   0.48610
gfz2012priv  -0.05402
gfz2012prlt  -0.26356
gfz2012pspd  -0.21091
gfz2012pygp  -0.45771
gfz2012qjhs   0.03049
gfz2012qouy   0.63733
gfz2012qqqp  -0.38860
gfz2012qtgs   2.59730
gfz2012qurq   0.39971
gfz2012quso   0.01533
gfz2012qvxn   0.03080
gfz2012raen   0.57234
gfz2012raex  -0.06586
gfz2012rats  -0.77795
gfz2012rboy  -0.11345
gfz2012rcbq  -0.19239
gfz2012rcds   0.21186
gfz2012rcnj  -0.49203
gfz2012rejq  -0.24536
gfz2012rgkl  -0.00997
gfz2012rjld   0.45685
gfz2012rkoa  -0.10065
gfz2012rmtr  -0.48323
gfz2012ronz   0.51301
gfz2012royy   0.38266
gfz2012rpmb  -0.25640
gfz2012rqlg   0.16402
gfz2012rubi  -0.56475
gfz2012ruks  -0.67741
gfz2012rwko  -0.34550
gfz2012rwov  -1.55840
gfz2012sfer  -0.90325
gfz2012shtg  -0.23109
gfz2012sjea  -1.44620
gfz2012sqmv   0.06289
gfz2012sqvi   0.55034
gfz2012syvl  -0.04446
gfz2012szla   0.41349
gfz2012tazz   0.32159
gfz2012tbbp  -0.10348
gfz2012tbxt   0.17994
gfz2012tmop   0.30986
gfz2012tphj   0.35243
gfz2012ttoa   0.41485
gfz2012tyxl   1.04150
gfz2012uaqj  -0.33678
gfz2012uciv   0.34329
gfz2012ulpd  -0.67017
gfz2012uoef   1.33620
gfz2012uqzp  -0.00000
gfz2012usba  -0.78503
gfz2012uvqf   0.01901
gfz2012uxnz   0.37694
gfz2012uyie   0.54901
gfz2012uyxb  -3.16580
gfz2012uzom   0.21613
gfz2012uzyj   0.08097
gfz2012vceo  -1.08860
gfz2012vjgl  -0.41736
gfz2012vmeh   0.60214
gfz2012vnbk   0.03818
gfz2012vntz  -0.64957
gfz2012vpza  -0.42195
gfz2012vrua  -0.19211
gfz2012vsev   0.01775
gfz2012vtif   0.13600
gfz2012vtxe  -0.29157
gfz2012vwvd   0.01447
gfz2012vxvr   0.14971
gfz2012vyzo  -0.22785
gfz2012wgbb  -0.26332
gfz2012wizz  -0.74022
gfz2012wkfw  -0.00000
gfz2012wklq  -0.56706
gfz2012wqnc  -0.01300
gfz2012wrir   3.74170
gfz2012wtkh  -0.00000
gfz2012wtov  -0.48335
gfz2012wubh  -0.14976
gfz2012wvfl   1.72310
gfz2012wxer   1.80250
gfz2012wxlg  -3.77140
gfz2012wxnu  -0.60792
gfz2012wybs  -0.27755
gfz2012wypz   0.38984
gfz2012xbjq  -0.40288
gfz2012xcgk   0.06440
gfz2012xgqm  -0.68727
gfz2012xhci  -0.14439
gfz2012xjyv  -0.90672
gfz2012xkkv   0.43895
gfz2012xmxy  -0.41737
gfz2012xpmm  -0.23203
gfz2012xslk  -0.71271
gfz2012xssa   1.80460
gfz2012xvwn  -0.06450
gfz2012xyqp  -0.17087
gfz2012xyua   0.03270
gfz2012yhag   0.14822
gfz2012yldu  -0.63786
gfz2012yoie  -0.27645
gfz2012yqjj  -0.62703
gfz2012yxxu  -0.06692
gfz2012yzod  -0.67009
gfz2012zemz  -1.87760
gfz2012zfag   1.82650
gfz2012zhmb  -0.39330
gfz2012zhyf   0.53772
gfz2012ziml   0.07870
gfz2012zitl  -1.07480
gfz2012zjpv   0.81849
gfz2012zjre   5.16650
gfz2012zmbp  -1.03750
gfz2012zsqk  -0.62327
gfz2013aayj  -0.31347
gfz2013acag   7.54830
gfz2013adey   2.91680
gfz2013aeee   0.61089
gfz2013akgj   0.66362
gfz2013aknp   0.37314
gfz2013apmm  -0.13057
gfz2013aspo  -0.57748
gfz2013avic   0.01154
gfz2013bbrc   0.52979
gfz2013bdke   2.36070
gfz2013bhgs  -0.41559
gfz2013biji  -0.49522
gfz2013bnxc  -0.03881
gfz2013bobq  -0.12395
gfz2013bokp   2.30780
gfz2013bouj   0.22338
gfz2013btjm  -0.25589
gfz2013bzlb  -0.36309
gfz2013bzzm  -0.33013
gfz2013casg   0.18611
gfz2013cbsm  -0.58676
gfz2013ccnr  -0.46107
gfz2013ccon  -0.09602
gfz2013cdfj   0.66506
gfz2013cefm   0.62808
gfz2013cfyy  -0.66919
gfz2013cgou  -0.13248
gfz2013ciaf  -1.23130
gfz2013cnms  -0.13428
gfz2013cnve  -0.30437
gfz2013comh  -0.86763
gfz2013cptb  -0.45142
gfz2013cuoq  -0.19376
gfz2013cvqg  -1.73420
gfz2013cwpn   2.57870
gfz2013czeq   0.16296
gfz2013ddbh  -0.55816
gfz2013dddp   0.20583
gfz2013dfhb   0.42982
gfz2013diuf  -0.05731
gfz2013dkym  -0.43005
gfz2013dnnx   0.02588
gfz2013dofo  -1.09660
gfz2013dojq   0.19382
gfz2013dqls  -0.06707
gfz2013drpk   0.25237
gfz2013drxz   0.29495
gfz2013dsog  -0.05558
gfz2013dspt  -0.40899
gfz2013dsrk  -1.03550
gfz2013dujm  -0.21511
gfz2013dvyh  -0.28510
gfz2013egni   0.28492
gfz2013egpu  -0.17171
gfz2013ehwe  -1.22650
gfz2013ekpm  -0.08461
gfz2013enbx   3.46660
gfz2013erse  -0.24777
gfz2013esnh   0.22939
gfz2013eswe   0.72800
gfz2013evsq  -0.54792
gfz2013fcto   0.33556
gfz2013fdoo   0.07878
gfz2013ffko  -0.56293
gfz2013fkcl  -0.26208
gfz2013flox  -0.90234
gfz2013ftso   0.26357
gfz2013fwxa   0.30171
gfz2013fxge  -0.24227
gfz2013gaie   0.24690
gfz2013gbcn  -0.90239
gfz2013gdnq   0.30786
gfz2013geia  -0.13988
gfz2013geno   0.77264
gfz2013gihf  -0.31753
gfz2013gjdc   0.12853
gfz2013glcr   0.39333
gfz2013gmor   0.05185
gfz2013gngz  -0.76451
gfz2013gock  -0.13800
gfz2013govy   0.07724
gfz2013gras  -1.79630
gfz2013gvet  -0.00362
gfz2013gwrd  -1.10300
gfz2013gxsu   0.31764
gfz2013hbkq   0.96585
gfz2013hfmp  -0.76014
gfz2013hisv  -0.35616
gfz2013hlbe  -0.21817
gfz2013hmbc   0.55320
gfz2013hpfq   0.00000
gfz2013hsfw   3.24260
gfz2013hudi  -0.42845
gfz2013hxcx  -0.01579
gfz2013iapa   0.20191
gfz2013iayx  -0.06255
gfz2013icfh  -0.20027
gfz2013icqt  -0.06724
gfz2013idbb   0.01123
gfz2013iexo  -0.35276
gfz2013ihcj  -0.23128
gfz2013ijsr  -0.64753
gfz2013ijyg  -0.15148
gfz2013ilug   2.66640
gfz2013inux  -0.80201
gfz2013iodt  -0.10651
gfz2013iopd   0.31398
gfz2013ippu   0.64938
gfz2013itsu   0.29672
gfz2013iunn  -0.64504
gfz2013iynu  -0.70711
gfz2013iyqz  -0.26428
gfz2013jarl   0.13487
gfz2013jdrx  -0.61963
gfz2013jesk  -0.21845
gfz2013jfah  -0.66912
gfz2013jgij   0.13554
gfz2013jgip   0.06871
gfz2013jjrt  -0.38502
gfz2013jjsi  -0.79007
gfz2013jkut  -0.57734
gfz2013jlst  -0.20644
gfz2013jmcc   0.43018
gfz2013jokw   1.35780
gfz2013jphq  -0.09871
gfz2013jusj  -2.55210
gfz2013jvhy  -0.42834
gfz2013jwcn   0.13366
gfz2013kccc  -0.45028
gfz2013kdeo  -0.96475
gfz2013kgmj   0.77751
gfz2013kheb   0.40069
gfz2013khli  -0.24471
gfz2013kilx  -0.39184
gfz2013kkzr  -0.11110
gfz2013krei  -1.03880
gfz2013kweg   0.52701
gfz2013kwps  -0.23060
gfz2013lajn  -1.80610
gfz2013lcos  -0.05650
gfz2013ldos  -0.38907
gfz2013ldpc   0.04515
gfz2013ldqb   0.54310
gfz2013lfyb   0.17219
gfz2013lgbb  -0.11207
gfz2013lgxc   0.22677
gfz2013limo  -0.39523
gfz2013lixa   0.35141
gfz2013lmdy   0.23252
gfz2013lmrs   0.02674
gfz2013lsob   0.42426
gfz2013lupg   0.59319
gfz2013lwbk   0.06804
gfz2013lyko   2.08560
gfz2013mded   0.52495
gfz2013mdiq   0.12644
gfz2013mghe   0.55760
gfz2013mmlw  -0.20983
gfz2013mmwq  45.52500
gfz2013mnac  -0.11283
gfz2013mnei  -0.32916
gfz2013mnju  -2.69070
gfz2013mqmv  -1.03370
gfz2013mtqd   0.11795
gfz2013mvdm  -0.00000
gfz2013mvgr  -0.56791
gfz2013mxee   0.41769
gfz2013mxrz   1.72320
gfz2013mzwe  -0.53779
gfz2013nabl  -0.17749
gfz2013ncjp   0.28728
gfz2013nedo   1.15030
gfz2013neuc  -0.84471
gfz2013nhjb  -0.06133
gfz2013njnd  -0.25030
gfz2013nknw  -0.18160
gfz2013nlxz   0.17147
gfz2013nmac  -0.06855
gfz2013nnzf  -0.43074
gfz2013nojf  -0.53890
gfz2013nppd  -1.32410
gfz2013nqgw   0.70866
gfz2013nttq  -0.01693
gfz2013nuor  -0.24890
gfz2013nvdj   0.05882
gfz2013nvia   0.60286
gfz2013nwdi  -0.44740
gfz2013ofls   0.07917
gfz2013ogde  -0.73578
gfz2013oifr  -0.20248
gfz2013oilg   0.07666
gfz2013oinc  -0.06240
gfz2013ojti   0.09235
gfz2013oksi   1.02350
gfz2013onjy   0.05688
gfz2013orjg  -0.23407
gfz2013ornz   0.14531
gfz2013ouvt   0.06970
gfz2013ovyg  -0.26326
gfz2013ozku  -0.06889
gfz2013oznn   0.48307
gfz2013ozqm  -1.16820
gfz2013ozrf  -0.52199
gfz2013ozrp  -0.43508
gfz2013pakq  -0.18932
gfz2013pcos   0.04718
gfz2013pfbx  -0.01859
gfz2013pfeb   0.08622
gfz2013pfnf  -0.73864
gfz2013pigb  -0.27346
gfz2013piwd  -0.06546
gfz2013pkbs  -0.17379
gfz2013plhp   0.69471
gfz2013pndn  -0.28156
gfz2013ptit  -0.35624
gfz2013pupd  -0.81698
gfz2013pweb  -0.64548
gfz2013pwjd   0.00988
gfz2013pwyt  -0.93288
gfz2013pxsj  -3.45780
gfz2013pxtx   1.39260
gfz2013pxya   0.19983
gfz2013pzgs  -0.78275
gfz2013pzgt  -1.72580
gfz2013qali  -0.76185
gfz2013qbca   0.34831
gfz2013qbys  -0.49335
gfz2013qcck   0.33629
gfz2013qckf   0.08221
gfz2013qfmm  -0.29685
gfz2013qfsq  -0.28419
gfz2013qhtx  -0.63166
gfz2013qidm  -0.71109
gfz2013qjmk  -1.14090
gfz2013qmer   0.30549
gfz2013qpgd   1.21560
gfz2013qpqb   1.68830
gfz2013qqrr  -0.12398
gfz2013qrxy   0.10685
gfz2013qvcr  -0.30426
gfz2013qwgb  -0.06491
gfz2013qwin  -0.77837
gfz2013qzdq  -0.92664
gfz2013rait   1.73950
gfz2013rdmo   0.39303
gfz2013rdoo  -0.90047
gfz2013reav   0.22583
gfz2013rjgt  -0.30131
gfz2013rjsx   0.07692
gfz2013rluo  -0.18213
gfz2013rotn  -0.24176
gfz2013rqcy  -0.51068
gfz2013rqmp  -0.15878
gfz2013rsnr  -0.09704
gfz2013rsts  -0.04699
gfz2013ryxm   0.13080
gfz2013sart  -0.15474
gfz2013scub   0.06280
gfz2013sdus  -0.44395
gfz2013sebq  -0.28649
gfz2013sfds  -0.06622
gfz2013sfto   0.03198
gfz2013shlq   0.13561
gfz2013shzy   0.20950
gfz2013skkm   0.32636
gfz2013sllq  -0.05872
gfz2013snbr  -0.62850
gfz2013snyf  -0.21740
gfz2013sqkb  -0.71724
gfz2013stcu   0.36068
gfz2013suln  -0.17391
gfz2013svci  -0.15172
gfz2013svqv  -0.39799
gfz2013syqk  -0.19029
gfz2013tamc  -0.29257
gfz2013tbzy  -1.05280
gfz2013tcbk   4.74990
gfz2013tcxc  -0.10130
gfz2013tcxq   0.32974
gfz2013tdkk   0.25154
gfz2013thtc   0.46485
gfz2013tjlx  -0.34684
gfz2013toea   0.32416
gfz2013toxf  -0.67654
gfz2013tpeb   1.67900
gfz2013tqbb   0.13542
gfz2013ttoz  -0.15125
gfz2013tusd   0.12415
gfz2013tuzv  -0.79302
gfz2013tvmw   0.06580
gfz2013uauo  -0.08011
gfz2013ufku  -1.20330
gfz2013ufxk  -0.22224
gfz2013ugax  -0.92818
gfz2013uhlm  -0.26986
gfz2013umya  -0.35932
gfz2013upcc  -0.29226
gfz2013upee   0.11015
gfz2013upiv   0.08513
gfz2013uqvu   0.37052
gfz2013utsh  -0.99214
gfz2013uysr   0.08716
gfz2013vcoa  -0.10331
gfz2013vefs  -1.00280
gfz2013vexx  -1.37750
gfz2013vfyw   1.94190
gfz2013vfzp  -0.05737
gfz2013vgau  -1.08270
gfz2013vgev  -0.64917
gfz2013vhnk  -1.46780
gfz2013vhsb  -0.42944
gfz2013vhzu   0.15245
gfz2013vijl  -0.58433
gfz2013viul   0.14188
gfz2013vjjc  -1.43860
gfz2013vjod   1.01700
gfz2013vlth   0.11058
gfz2013vmro   0.09143
gfz2013vnfj  -0.46810
gfz2013vpnf  -0.13495
gfz2013vqot  -1.11490
gfz2013vrmy  -0.09078
gfz2013vsbl   1.83470
gfz2013vsxi   0.43759
gfz2013vuja  -0.03694
gfz2013vxta   0.01074
gfz2013vzbo   0.34133
gfz2013wbyr   0.06820
gfz2013wgeu   0.17167
gfz2013whts  -0.02121
gfz2013wjmm  -0.37044
gfz2013wnql  -0.62477
gfz2013woze  -0.20453
gfz2013wpga  -0.26735
gfz2013wqhq  -0.41601
gfz2013wrgw   0.04070
gfz2013wtzl   1.32680
gfz2013wuml  -0.28015
gfz2013wuon  -0.48365
gfz2013wwec  -0.27176
gfz2013wwii   0.20621
gfz2013xatc  -0.28651
gfz2013xcmp  -0.11946
gfz2013xgek  -0.55879
gfz2013xkbh  -0.24267
gfz2013xkwt   0.06299
gfz2013xmqg  -0.36101
gfz2013xmul  -0.73887
gfz2013xpfa   0.00000
gfz2013xpsm   0.98502
gfz2013xqnn  -0.08741
gfz2013xsdt  -0.01885
gfz2013xtwj  -0.62921
gfz2014bzna  -0.01301
gfz2014bztt  -0.53747
gfz2014caop   0.19667
gfz2014ccbz   0.36489
gfz2014cdwi   0.08471
gfz2014cgog  -0.34538
gfz2014chdv  -0.60734
gfz2014citw   0.51375
gfz2014claq   0.54146
gfz2014clnj   0.85573
gfz2014clnq   0.39544
gfz2014crpy   0.03822
gfz2014cueu  -0.06712
gfz2014cvkm  -0.13320
gfz2014cvxx   0.42653
gfz2014cxcj  -0.41076
gfz2014cybg  -0.35462
gfz2014cyvm  -1.17710
gfz2014czno   0.17179
gfz2014czqi   0.61512
gfz2014czua   1.92500
gfz2014dbdf  -0.29563
gfz2014dffd   0.43382
gfz2014dgiy   0.98932
gfz2014disp  -0.10843
gfz2014dlri  -0.53031
gfz2014dpzx  -0.22847
gfz2014duqn   0.01874
gfz2014dwls   0.15085
gfz2014dwsy   0.30012
gfz2014eage  -0.66468
gfz2014ebmc  -0.46161
gfz2014edfx   1.60050
gfz2014efkk  -0.56872
gfz2014efsd  -0.12416
gfz2014eght   0.07415
gfz2014egwu  -0.44771
gfz2014ejvf  -0.99997
gfz2014emrg  -0.47613
gfz2014eqpl  -0.11658
gfz2014eqss  -0.30605
gfz2014ettc  -0.62079
gfz2014ewcz  -0.96362
gfz2014ewrw   0.78422
gfz2014exmv   0.08986
gfz2014exxa  -0.21009
gfz2014ezgb  -0.46442
gfz2014fcms   0.75430
gfz2014fexu   0.12148
gfz2014ffdc   0.15342
gfz2014ffqx  -0.50494
gfz2014fgkb   0.06767
gfz2014fgvi   0.49008
gfz2014fgvr   1.39550
gfz2014fgwn   0.11570
gfz2014fgwt   0.82974
gfz2014fgxt   0.26057
gfz2014fgxz  -0.02206
gfz2014fgyo  -0.22568
gfz2014fgza   0.46796
gfz2014fhbd  -0.35706
gfz2014fhdw   0.17657
gfz2014fhgb   0.09588
gfz2014fhhp  -0.39085
gfz2014fhjd  -0.25876
gfz2014fhkp   0.07132
gfz2014fhla   0.13699
gfz2014fhmb  -2.21300
gfz2014fhoe  -0.34926
gfz2014fhpf  -1.04090
gfz2014fhqk  -0.37564
gfz2014fhrq  -0.24112
gfz2014fhsg  -0.15048
gfz2014fhwx   0.29201
gfz2014fhxm  -0.01450
gfz2014fhyb  -0.04639
gfz2014fimn  -0.34794
gfz2014fiuj  -0.92163
gfz2014fiwq   0.65633
gfz2014fjdz   0.40371
gfz2014fjpb  -0.27514
gfz2014fjxd  -0.16501
gfz2014fjyo  -0.02567
gfz2014fjzd   0.04717
gfz2014fjzw   0.29021
gfz2014fkmr  -0.27755
gfz2014fkmx  -0.08033
gfz2014fles  -0.10644
gfz2014flfa  -1.03190
gfz2014fmai   0.14965
gfz2014fnbh   0.08050
gfz2014fnyg  -0.02574
gfz2014foty  -0.43795
gfz2014fqpz  -0.37063
gfz2014frdz   0.78777
gfz2014frel   0.25598
gfz2014frfl  -0.21707
gfz2014frfw   0.24801
gfz2014frgm  -0.12323
gfz2014frjr   0.03042
gfz2014frme  -0.25151
gfz2014frnb   0.45367
gfz2014frwh   0.13937
gfz2014fstx   0.00000
gfz2014fsuh   0.16441
gfz2014fszc  -0.23999
gfz2014ftgx   0.43084
gfz2014ftka   0.09821
gfz2014ftno   0.00000
gfz2014ftoc   0.31524
gfz2014ftvc  -0.20935
gfz2014fudl  -0.65855
gfz2014furx  -0.00000
gfz2014fusc  -0.38073
gfz2014fusj  -0.13581
gfz2014fusu   0.16871
gfz2014fuub   0.05773
gfz2014fuup   0.18297
gfz2014fuvk  -0.06055
gfz2014fuzi  -0.13140
gfz2014fvaa  -0.16944
gfz2014fvdx   0.55014
gfz2014fvgh   0.05956
gfz2014fvhp   0.15290
gfz2014fvpy  -0.09456
gfz2014fvrg   0.52600
gfz2014fvve  -0.25767
gfz2014fwdr   0.14314
gfz2014fwtt  -0.57516
gfz2014fxpu   0.55874
gfz2014fyfr   0.35037
gfz2014fzgx  -0.37211
gfz2014gbcz  -0.73045
gfz2014gbdq  -1.40110
gfz2014gbjf   0.52448
gfz2014gcza   0.43829
gfz2014gdsq  -0.09562
gfz2014gesb   0.75841
gfz2014geuy   0.40407
gfz2014gezs   0.33007
gfz2014gfdj  -0.01251
gfz2014gfhf  -0.43777
gfz2014ggnq  -0.25909
gfz2014ggpd  -0.03507
gfz2014ggsr   0.14030
gfz2014ghoq  -0.06845
gfz2014gilf  -0.07792
gfz2014gkgf   0.01515
gfz2014gkgl   0.06422
gfz2014gkhp   0.72188
gfz2014gkjy   0.26453
gfz2014gkln   0.87395
gfz2014gklv  -0.59839
gfz2014gkmm  -1.44790
gfz2014gkpd   0.23358
gfz2014gkpj   0.21032
gfz2014gkqf   0.61988
gfz2014gkqu  -1.76080
gfz2014gkrl  -0.70948
gfz2014gkrz  -0.19574
gfz2014gksj   0.16051
gfz2014gksu  -2.20520
gfz2014gktn  -1.68200
gfz2014gktq  -0.50993
gfz2014gkut  -1.75350
gfz2014gkvk  -1.23900
gfz2014gkxi   0.02841
gfz2014gkxm   0.13190
gfz2014glcu   0.00000
gfz2014glcy  -0.85849
gfz2014glfn   0.24990
gfz2014glgo   0.04128
gfz2014glhs  -0.78241
gfz2014glov  -0.63002
gfz2014glsh   0.35218
gfz2014gltj  -0.17430
gfz2014gltx  -0.89835
gfz2014glvn  -0.25243
gfz2014glvu   0.10366
gfz2014glxd  -1.65070
gfz2014gmci   0.16948
gfz2014gmes  -0.06290
gfz2014gmge   0.03347
gfz2014gmhp   0.46875
gfz2014gmhr  -1.13590
gfz2014gmic  -0.45457
gfz2014gmip   0.01698
gfz2014gmjo  -1.02730
gfz2014gmjz  -0.55485
gfz2014gmku  -0.41237
gfz2014gmlz  -0.97123
gfz2014gmmt  -0.00000
gfz2014gmnb  -0.88214
gfz2014gmnw  -0.73614
gfz2014gmpy  -1.13350
gfz2014gmqw  -0.08855
gfz2014gmrj   0.57193
gfz2014gmtb   0.23907
gfz2014gmtj  -0.67505
gfz2014gmto  -0.49003
gfz2014gmuk  -1.14170
gfz2014gmuw  -0.12308
gfz2014gmvr  -0.22682
gfz2014gmzl   0.39110
gfz2014gmzs  -1.75130
gfz2014gndq  -1.08770
gfz2014gnfd  -0.58646
gfz2014gnfs  -0.22783
gfz2014gngg  -0.58254
gfz2014gnhk  -0.93894
gfz2014gnig  -0.05282
gfz2014gnmp  -1.18640
gfz2014gnms   0.07918
gfz2014gnmx  -0.02955
gfz2014gnno   0.40179
gfz2014gnnt  -0.49698
gfz2014gnom  -0.44567
gfz2014gnoz  -0.71789
gfz2014gnqt   0.09450
gfz2014gnre  -0.22791
gfz2014gnsi  -0.48039
gfz2014gntd  -0.90550
gfz2014gnvw  -0.15616
gfz2014gnwg  -0.38973
gfz2014gnxb   0.16204
gfz2014goba  -0.30685
gfz2014goei  -0.77201
gfz2014gogv   0.08395
gfz2014gohm  -0.17458
gfz2014golz  -0.20023
gfz2014gono   0.39508
gfz2014goqw   0.35961
gfz2014gpac   0.05799
gfz2014gpbx  -0.03918
gfz2014gpce   0.40279
gfz2014gpdo  -0.57076
gfz2014gpgd  -0.06342
gfz2014gphr   0.04713
gfz2014gpmm   0.41997
gfz2014gpnf  -1.26250
gfz2014gpqq  -0.74489
gfz2014gpuk  -0.15736
gfz2014gpvk   0.28353
gfz2014gpxl   0.11922
gfz2014gpxv   0.13582
gfz2014gqbj  -0.20308
gfz2014gqco  -0.19980
gfz2014gqed  -0.98610
gfz2014gqer  -2.27410
gfz2014gqgf   0.06768
gfz2014gqhe  -0.29872
gfz2014gqiy   0.22973
gfz2014gqqz  -0.83275
gfz2014gqro  -1.35370
gfz2014gqup  -0.23031
gfz2014gqve  -0.39953
gfz2014grcv   0.15695
gfz2014grfp  -0.93088
gfz2014grgn   0.20610
gfz2014grho  -0.92102
gfz2014gsdw  -1.27030
gfz2014gsgv  -0.69487
gfz2014gsjg   0.33242
gfz2014gsqs   0.20270
gfz2014gtef  -0.59957
gfz2014gtlu   0.05072
gfz2014gtwz  -0.15240
gfz2014gufl  -0.23395
gfz2014gull  -0.35949
gfz2014gulp   0.08400
gfz2014gumd   0.08253
gfz2014gutm  -0.91560
gfz2014gvhw   0.39528
gfz2014gvqj   0.23960
gfz2014gvra  -1.66990
gfz2014gvrd  -0.71647
gfz2014gwab   0.68738
gfz2014gwap   0.02942
gfz2014gwqj  -0.07341
gfz2014gxag  -0.13974
gfz2014gxkh   0.32120
gfz2014gxqf  -0.55525
gfz2014gxqu   0.16497
gfz2014gxqx  -0.36893
gfz2014gxvf  -0.31852
gfz2014gxxh  -0.87238
gfz2014gxxo  -0.23666
gfz2014gyxd  -0.62791
gfz2014gzrm  -0.61678
gfz2014gzue   0.07799
gfz2014haey   0.05717
gfz2014hafk  -0.31121
gfz2014hagb   0.31196
gfz2014haos  -0.10644
gfz2014hasj  -0.98419
gfz2014hauo   2.62560
gfz2014hbjm   0.25378
gfz2014hbjz   0.25180
gfz2014hcmj   0.19570
gfz2014hcns  -0.49009
gfz2014hetr  -0.58161
gfz2014heyq  -0.16004
gfz2014hfad   0.12372
gfz2014hfhl  -0.31935
gfz2014hfzf  -0.46420
gfz2014hgqo  -0.58764
gfz2014hhfs  -1.02770
gfz2014hhwx  -0.34435
gfz2014hifp  -0.10114
gfz2014hiih   0.64396
gfz2014hiiz  -0.78075
gfz2014hjgh   0.34275
gfz2014hjgo   0.08304
gfz2014hjgr  -0.47779
gfz2014hjhu  -0.03179
gfz2014hjij   0.24416
gfz2014hjkp  -0.31953
gfz2014hjlx   0.33414
gfz2014hkcf  -0.15517
gfz2014hkck   0.19984
gfz2014hlib   0.18649
gfz2014hmgf   0.02226
gfz2014hmvx   0.19668
gfz2014hmzg  -0.36496
gfz2014hnfm  -0.26376
gfz2014hoap  -0.04452
gfz2014hodc  -0.43413
gfz2014hokj   0.07252
gfz2014hphw  -0.16681
gfz2014hppw  -0.21843
gfz2014hpqz   0.14811
gfz2014hqxs   0.38502
gfz2014hqyx   0.18417
gfz2014hriu   0.16041
gfz2014hrtn   0.36690
gfz2014hscz  -1.53400
gfz2014hsqo  -0.21372
gfz2014hssr   0.33730
gfz2014hszs  -0.04223
gfz2014htbf   0.15689
gfz2014huaj   0.44629
gfz2014hugz  -1.55810
gfz2014hvdm   0.40954
gfz2014hwan  -0.14228
gfz2014hwsy   0.21452
gfz2014hwwi  -0.55063
gfz2014hxcl  -0.42265
gfz2014hxev  -0.05817
gfz2014hyal  -0.13815
gfz2014hyvq   0.41831
gfz2014hzdy  -0.25668
gfz2014hzfr  -0.37018
gfz2014hzfw   0.89063
gfz2014hzgn   0.65476
gfz2014hzhe   1.81230
gfz2014hzht   0.27133
gfz2014hzig   0.27743
gfz2014hzze  -2.41620
gfz2014iani   0.14584
gfz2014iazy   0.11503
gfz2014icqt   0.15902
gfz2014ieam   0.00413
gfz2014iege   0.03618
gfz2014ieho  -0.04713
gfz2014ifue  -0.24704
gfz2014ifzj  -0.98146
gfz2014igsj   0.04916
gfz2014igur  -0.18359
gfz2014ijvh  -0.28832
gfz2014ikbk   0.27308
gfz2014ikun  -0.41992
gfz2014ikvd   0.61888
gfz2014ilwu  -0.03159
gfz2014immt  -0.39578
gfz2014imnn   0.20966
gfz2014inbj  -0.22082
gfz2014iobd   0.08639
gfz2014iqzj   0.64095
gfz2014irci   0.09301
gfz2014ircq   0.32880
gfz2014irrg   0.01864
gfz2014isdq   0.28288
gfz2014isff   0.30281
gfz2014issk  -0.68288
gfz2014isub  -0.23415
gfz2014isys  -0.30035
gfz2014itab   0.12699
gfz2014itbe   0.13734
gfz2014itbu   0.44491
gfz2014itfc   0.10796
gfz2014itgh   0.00000
gfz2014itjx  -0.94985
gfz2014itkw   0.18634
gfz2014itpj  -0.22001
gfz2014iuhq  -0.12210
gfz2014ivep  -0.56904
gfz2014iwnf  -0.35186
gfz2014iwwl   0.11634
gfz2014ixga   0.14898
gfz2014ixky   0.28170
gfz2014iywt   0.17741
gfz2014jagg  -0.39533
gfz2014jass   0.65748
gfz2014jatq  -0.84415
gfz2014jcjt   3.89870
gfz2014jcmt  -0.23625
gfz2014jdoy   1.37440
gfz2014jdxj  -0.14864
gfz2014jesb   0.05176
gfz2014jfis  -0.57712
gfz2014jggm  -0.24059
gfz2014jhra  -0.38178
gfz2014jipr  -0.20217
gfz2014jird  -0.29446
gfz2014jjhc   0.51757
gfz2014jjkh  -0.30284
gfz2014jjln   0.01966
gfz2014jjqk   0.82368
gfz2014jmnk   0.01363
gfz2014jmsy  -1.53910
gfz2014jnea   0.40576
gfz2014jnfy  -0.13111
gfz2014jnxm  -0.19614
gfz2014joak  -0.19693
gfz2014jomw   0.20928
gfz2014jozl  -0.48502
gfz2014jpep   0.19734
gfz2014jpez   0.29390
gfz2014jpgu   0.09622
gfz2014jpxs  -0.28233
gfz2014jtcz  -1.88620
gfz2014jtfe  -0.56015
gfz2014jvow  -0.20496
gfz2014kara  -1.07630
gfz2014kbuk  -0.60507
gfz2014kbwm  -1.30430
gfz2014khan  -1.39390
gfz2014kizt   0.13525
gfz2014kjee   0.50148
gfz2014kjjq  -2.02560
gfz2014kjzb  -0.77365
gfz2014kkhh   0.11899
gfz2014kmmt   1.27060
gfz2014knxs   3.52500
gfz2014krlg  -0.36322
gfz2014kscf   0.41306
gfz2014ksmz  -0.26127
gfz2014kssw   0.11541
gfz2014kwie   0.20337
gfz2014kwrg  -0.71062
gfz2014kwwg   0.00000
gfz2014kxqf   0.17533
gfz2014kyan   0.09508
gfz2014kyhe   0.43573
gfz2014kytf  -1.04860
gfz2014kzzm  -1.42360
gfz2014lbcq  -0.50236
gfz2014lchy   0.12763
gfz2014lddn   0.13811
gfz2014lehw   0.07216
gfz2014lgqn  -0.08457
gfz2014lhqn  -0.47665
gfz2014ljbr  -0.83830
gfz2014lkyf  -2.16340
gfz2014lnmw   0.33408
gfz2014lpfc  -0.71928
gfz2014lpim  -0.64209
gfz2014lrzx   0.09545
gfz2014lvgn  -0.05828
gfz2014lwom   0.12222
gfz2014lwsw   0.09056
gfz2014lwvb   0.28031
gfz2014lxnc   0.04330
gfz2014lxqr  -0.08163
gfz2014lyhk   0.21115
gfz2014lyhp  -0.82080
gfz2014lzal  -0.36510
gfz2014lzow  -0.64475
gfz2014macx   0.20045
gfz2014madw  -0.03565
gfz2014mawp   0.02849
gfz2014mcno  -0.32742
gfz2014mcse  -0.50387
gfz2014mden   0.47954
gfz2014mlqw   0.53690
gfz2014mlrr   0.06776
gfz2014mmbu   0.41543
gfz2014mmtb  -0.51690
gfz2014moaw   0.60369
gfz2014mogb   0.85525
gfz2014mrbm   0.11368
gfz2014mtum   1.57190
gfz2014muzd   0.61109
gfz2014mvza   0.42640
gfz2014mwnj  -0.38068
gfz2014mxkr  -0.72690
gfz2014myqz   2.00670
gfz2014nafd   0.14004
gfz2014navw  -0.34905
gfz2014ndue  -1.49220
gfz2014ngsk  -0.69360
gfz2014ngvt  -0.10299
gfz2014nhyb   0.50535
gfz2014niqj  -0.58862
gfz2014nkdx  -0.58441
gfz2014nnxd   0.50425
gfz2014nowp   1.30910
gfz2014npdk   0.06067
gfz2014npeo  -1.93420
gfz2014nphm   0.16091
gfz2014npnn   1.26860
gfz2014nqbs  -0.08372
gfz2014nqfm   0.14244
gfz2014nqpk  -0.07374
gfz2014nrie   0.04220
gfz2014nvdi  -0.47415
gfz2014nvxd   0.31478
gfz2014nyeh   0.22049
gfz2014nyfb  -0.08324
gfz2014nyko  -0.20535
gfz2014nylm   0.33831
gfz2014obbs  -0.04568
gfz2014odgv  -0.46784
gfz2014ofhm  -0.64293
gfz2014oghp  -0.13446
gfz2014oims   0.16788
gfz2014oinz  -0.42225
gfz2014ojdg   0.30059
gfz2014okec   0.31687
gfz2014okxu  -0.42543
gfz2014oned  -0.35474
gfz2014opqr   0.00000
gfz2014oqhw  -0.23844
gfz2014orgz  -0.38300
gfz2014orxs  -0.04185
gfz2014oryw  -0.15955
gfz2014osvx  -0.27230
gfz2014owii  -0.30159
gfz2014owur  -1.20070
gfz2014owxc  -0.54756
gfz2014oyly   0.30950
gfz2014oypt   0.24932
gfz2014ozmj  -0.07725
gfz2014pghi   0.21308
gfz2014pjer  -0.16527
gfz2014pjum  -0.27681
gfz2014pkll   1.29290
gfz2014pmxt   0.37620
gfz2014pngj  -0.23906
gfz2014ppzf   0.21591
gfz2014pqqp  -0.20943
gfz2014prdm  -0.75455
gfz2014pxbu  -0.06163
gfz2014pzni   0.18685
gfz2014qbzi  -0.67355
gfz2014qcxs   0.21993
gfz2014qfzq  -0.54616
gfz2014qifa  -0.39709
gfz2014qjfl  -0.63286
gfz2014qjgp  -0.23826
gfz2014qlxd  -0.08609
gfz2014qngj  -2.95350
gfz2014qqfg   0.08412
gfz2014qqhm  -0.07195
gfz2014qsby   0.07909
gfz2014qtwv   0.30415
gfz2014raau   0.42388
gfz2014rbpx   0.53319
gfz2014rcyx  -0.48508
gfz2014rdoz  -0.57433
gfz2014rdsn  -0.36034
gfz2014rfeb   2.05700
gfz2014rffv   0.28593
gfz2014rhju  -0.92035
gfz2014rhnz   0.12746
gfz2014rhwq  -0.04403
gfz2014riel  -1.87650
gfz2014rils  -0.26268
gfz2014rnrn  -0.68883
gfz2014roba  -0.71561
gfz2014romy  -0.37003
gfz2014royq  -0.10651
gfz2014rucz  -0.12372
gfz2014rwos  -0.49798
gfz2014ryfb   0.30258
gfz2014sadu   3.47610
gfz2014sryn  -0.21737
gfz2014ssds  -0.58049
gfz2014ssmv   0.90802
gfz2014swgt   0.29416
gfz2014tabg   0.00000
gfz2014tfgn  -0.31172
gfz2014tgcw  -0.01294
gfz2014tovs  -1.82460
gfz2014tqly  -0.05200
gfz2014tqsf   0.38494
gfz2014tqth   0.38659
gfz2014tzsd   0.22743
gfz2014uapa  -0.07162
gfz2014ubyq  -0.11106
gfz2014uohh  -0.75499
gfz2014utac  -1.58880
gfz2014uuuf   1.90780
gfz2014uvrk   0.10777
gfz2014uyrq  -0.92938
gfz2014uzaw  -0.80333
gfz2014vcev   0.86926
gfz2014vdnh  -0.43900
gfz2014veit   0.33572
gfz2014vhld   0.08824
gfz2014vhms  -0.34672
gfz2014vivo   0.21514
gfz2014vjoh   0.90438
gfz2014vjoz   0.15502
gfz2014vljh  -0.26794
gfz2014vnxu  -0.10437
gfz2014vpus   0.53116
gfz2014vqqa   0.13934
gfz2014waoo  -1.11310
gfz2014watn   0.24960
gfz2014wjko  -0.00000
gfz2014wmsc   0.57955
gfz2014wqcp  -0.28253
gfz2014wrkh   0.01899
gfz2014wsjh  -0.15875
gfz2014wwib   0.55374
gfz2014xbyr  -0.32928
gfz2014xhkc  -0.45793
gfz2014xhwk  -0.14002
gfz2014xjri   0.17116
gfz2014xkdg   0.06013
gfz2014xmnp  -0.13585
gfz2014xoji   0.20415
gfz2014xqby   0.41046
gfz2014yazi  -0.21033
gfz2014yhhm   0.03918
gfz2014ynhc  -0.00000
gfz2014yppv   0.01761
gfz2014yrug  -0.17920
gfz2014yula   1.71600
gfz2014yyiy   0.11797
gfz2014zcgo  -0.27202
gfz2014zdtl   0.01407
gfz2014zkys   0.10063
gfz2014zlgp  -0.83975
gfz2015abpw  -1.77950
gfz2015aide  -0.30700
gfz2015ansu  -0.20497
gfz2015bvsj  -1.43750
gfz2015bvxx  -0.82202
gfz2015byjd   0.04447
gfz2015bzej  -3.56330
gfz2015chhn  -0.49083
gfz2015chqn   1.34550
gfz2015clrp  -0.75565
gfz2015cpuo  -1.29030
gfz2015cxrc  -0.74460
gfz2015cyjd   0.36187
gfz2015dadj  -0.28776
gfz2015ddhl  -0.37457
gfz2015djts  -1.31860
gfz2015drlk   0.27222
gfz2015dskr   1.69270
gfz2015dtqr  -0.54203
gfz2015dvbn   0.51174
gfz2015ecgq  -0.70783
gfz2015ednc   0.09639
gfz2015eeyq  -0.92287
gfz2015eezy  -0.27950
gfz2015egbk  -1.27000
gfz2015egxq  -0.66366
gfz2015ehou   0.07938
gfz2015ehpz  -0.37630
gfz2015elgy   1.86970
gfz2015eljz  -1.06550
gfz2015emcg  -0.55193
gfz2015emin   0.46665
gfz2015emtg   0.24214
gfz2015enth   0.80328
gfz2015etai   1.77100
gfz2015eyqs  -0.36730
gfz2015fbbk  -0.18686
gfz2015fbew  -0.96396
gfz2015fcua  -0.64860
gfz2015fdpr   0.22053
gfz2015fjhk   0.37976
gfz2015fkbc  -0.05469
gfz2015fkgt  -0.02921
gfz2015fkic  -0.92440
gfz2015fkjs  -0.01971
gfz2015fkkd   0.28180
gfz2015fkuu   1.37280
gfz2015flis  -1.55750
gfz2015fvoi  -0.58754
gfz2015fwkq  -0.02849
gfz2015fwnf  -0.00000
gfz2015gckd   0.68308
gfz2015gjbr  -1.05420
gfz2015gkwa  -0.93259
gfz2015gmgf  -0.11369
gfz2015gnmy   5.40250
gfz2015gzja   0.02346
gfz2015hdcp  -0.62585
gfz2015hepg   0.76947
gfz2015hgbk  -0.11510
gfz2015hhbd   0.29131
gfz2015hlfq  -0.37499
gfz2015hlqo  -4.26030
gfz2015hpmk  -0.08626
gfz2015hslo  -0.09442
gfz2015hvgs   3.14840
gfz2015hwkv  -0.32444
gfz2015hwzw  -0.13403
gfz2015ijmh  -0.69777
gfz2015imty  -0.02397
gfz2015imyp  -0.56908
gfz2015isim  -1.26560
gfz2015ixyy  -3.15730
gfz2015jkdw  -0.32015
gfz2015jmlf   0.16380
gfz2015jmlu  -1.10210
gfz2015jpap  -1.16910
gfz2015jxbx   0.25134
gfz2015jxjd   0.22110
gfz2015jzcv   0.51380
gfz2015kalm   0.09412
gfz2015kcaa   0.02005
gfz2015kfsu   0.31154
gfz2015kkqb   0.06060
gfz2015kkth  -0.95395
gfz2015kphk   0.15176
gfz2015kquq   0.03257
gfz2015lcma  -0.81838
gfz2015lcuo  -0.20555
gfz2015lfma  -0.26724
gfz2015lfos   0.05720
gfz2015lfud   0.02564
gfz2015lhjq  -0.41403
gfz2015lhjy   0.75098
gfz2015ltii  -0.26649
gfz2015ltro  -0.17346
gfz2015lytv  -0.67313
gfz2015lzad  -0.10152
gfz2015mbgr   0.37682
gfz2015mddr   0.29032
gfz2015mfpy  -2.78290
gfz2015mhym  -1.47300
gfz2015micz  -0.35128
gfz2015mljd  -1.98270
gfz2015mpte  -0.45704
gfz2015mvzk   2.42670
gfz2015nerz  -2.33600
gfz2015npud  -0.43598
gfz2015nuxz  -1.13860
gfz2015nwug   0.40050
gfz2015ocdz   1.99210
gfz2015ocwr  -0.42060
gfz2015ofpd  -0.99330
gfz2015orkl   1.02330
gfz2015othd  -0.32014
gfz2015oumn  -0.23246
gfz2015oyfl  -2.11440
gfz2015pcvt  -1.33920
gfz2015pjgr  -0.32687
gfz2015plal   0.25573
gfz2015poni  -1.94310
gfz2015prlr  -0.98567
gfz2015puqp  -0.21593
gfz2015puuu  -0.15629
gfz2015qafb  -0.98305
gfz2015qisx  -0.42926
gfz2015qnde  -0.18402
gfz2015qnho   1.02460
gfz2015qols  -0.04250
gfz2015qprd  -1.31810
gfz2015qpvd   0.34672
gfz2015quzo   0.01200
gfz2015qvxu   0.23128
gfz2015rgov   0.14640
gfz2015rgrg  -1.22060
gfz2015rgst  -0.31319
gfz2015rkbq   3.46820
gfz2015rkrg   3.70950
gfz2015rkzg  -0.29593
gfz2015rlnh  -0.32081
gfz2015rnis   0.25748
gfz2015roac  -0.41090
gfz2015rpzn  -1.84080
gfz2015rtnv   0.20645
gfz2015rwsb   4.60090
gfz2015saet   0.26052
gfz2015sdeo   0.06852
gfz2015sdfy   0.22336
gfz2015seuf   0.21385
gfz2015sevh   0.12058
gfz2015sfdd  -1.57810
gfz2015sgad   0.86947
gfz2015sggc  -3.14640
gfz2015sghq  -3.40180
gfz2015siof  -1.06120
gfz2015sitn  -2.41210
gfz2015sjgk  -1.43170
gfz2015sjjb   2.01070
gfz2015sjne  -1.78040
gfz2015skpv  -1.86150
gfz2015smym  -1.33630
gfz2015snmg   0.58480
gfz2015snsf  -1.33180
gfz2015snwh  -2.03150
gfz2015soat   0.22197
gfz2015soxc  -1.66360
gfz2015sozw  -0.41427
gfz2015spjc   0.04384
gfz2015spxh   0.11422
gfz2015sryk   0.10060
gfz2015stso   0.41704
gfz2015susq  -1.64170
gfz2015svjy   0.36998
gfz2015svwm  -1.30140
gfz2015swgn  -0.53601
gfz2015swjx  -1.34350
gfz2015swnc  -4.18540
gfz2015taml  -0.24189
gfz2015tbdn   0.09703
gfz2015tchx  -0.46290
gfz2015tdhb  -0.23499
gfz2015teyc   0.08817
gfz2015tezd  -1.71870
gfz2015tflu  -0.57174
gfz2015tghj  -0.42472
gfz2015thgp  -2.58790
gfz2015thwg  -2.12020
gfz2015thwp  -1.89070
gfz2015tiyc  -2.03510
gfz2015tkol  -2.13140
gfz2015tlkf  -0.02196
gfz2015tlok  -3.04920
gfz2015tnjd  -1.15390
gfz2015tohm  -0.75989
gfz2015tojz   0.01918
gfz2015totf  -3.15220
gfz2015tpra  -2.05960
gfz2015tqff   0.23976
gfz2015tqjf  -0.36392
gfz2015truf  -0.27849
gfz2015tsdm  -2.59280
