# Nsamples: 1610  MAD:  0.472  mean:  0.021  variance:  0.938
gfz2010gvya  -1.03780
gfz2010gwmp  -1.03230
gfz2010gymo   0.21112
gfz2010gyqp  -0.26707
gfz2010gzxr  -0.09198
gfz2010hbka   0.24370
gfz2010hevz   0.38487
gfz2010hgld   4.94230
gfz2010hhls   0.00000
gfz2010hjoc   0.00000
gfz2010hllj   1.45740
gfz2010hlln  -0.69993
gfz2010hlmq   0.01010
gfz2010hncj  -0.10426
gfz2010hnzr   0.16227
gfz2010homc  -0.77107
gfz2010hptz   0.24872
gfz2010hrkr  -0.13980
gfz2010htdq   0.50119
gfz2010hufk  -0.21996
gfz2010hykt   0.87931
gfz2010ibiy   2.44740
gfz2010ibxj   0.14659
gfz2010iciq  -0.50623
gfz2010icqq  -0.91070
gfz2010ihrq   3.47180
gfz2010iimu   0.73106
gfz2010ijtk  -0.39701
gfz2010imsh  -0.00572
gfz2010iobp  -1.95340
gfz2010iqfm   2.02990
gfz2010iqnm  -1.34010
gfz2010iqus   0.82014
gfz2010irvf  -0.09185
gfz2010isrp  -2.18540
gfz2010ited  -0.17153
gfz2010itpb  -0.05383
gfz2010iull  -0.18445
gfz2010ixyc  -0.27516
gfz2010izzj  -2.14930
gfz2010jant  -0.09124
gfz2010jatq   0.95443
gfz2010jkxj  -0.09936
gfz2010jsuh  -0.15898
gfz2010jtal   5.28000
gfz2010jucj   0.75370
gfz2010jwpy   0.57637
gfz2010jxbm   0.97753
gfz2010kdyc   1.10540
gfz2010kmgg   1.64340
gfz2010kmsv  -0.19794
gfz2010kown   1.54160
gfz2010lczp   0.04605
gfz2010lepw  -0.08219
gfz2010lfju  -0.04127
gfz2010lluj   0.59285
gfz2010lrlk   0.91663
gfz2010lruw  -0.51128
gfz2010lwuq   0.10074
gfz2010mdpq   0.84503
gfz2010mncc  -1.05990
gfz2010msjj  -0.56274
gfz2010muca   5.63560
gfz2010ndxl  -0.34285
gfz2010nlkh  -1.22550
gfz2010nmpc  -0.19583
gfz2010nqwf  -1.56670
gfz2010nsck   1.08600
gfz2010nsdf   2.04040
gfz2010nsjs   0.89898
gfz2010nubk   0.28865
gfz2010nwef  -0.31755
gfz2010nxsy  -0.12705
gfz2010nxum   1.40390
gfz2010nzha  -0.65908
gfz2010nzla   0.00000
gfz2010ocxq   1.57920
gfz2010odpb  -0.14401
gfz2010oedn  -0.53697
gfz2010oluw  -0.70774
gfz2010omla   0.04433
gfz2010onma  -0.11175
gfz2010otbn   0.05844
gfz2010oyqy   0.21686
gfz2010pbdz  -0.27667
gfz2010pcxi  -0.10002
gfz2010pdtk  -0.43079
gfz2010pets   0.58032
gfz2010pewa   0.87561
gfz2010pewx   0.70431
gfz2010pexf   1.37300
gfz2010pfyu  -0.30367
gfz2010phvg  -0.61961
gfz2010pmqd  -1.61870
gfz2010pxak  -0.08244
gfz2010pxgh  -1.09350
gfz2010qbng  -0.14772
gfz2010qitd   0.02816
gfz2010qjst  -0.02026
gfz2010qkat  -0.74709
gfz2010qpcq   0.10712
gfz2010rkfp  -0.41529
gfz2010rlbv   3.77130
gfz2010rotv   0.20088
gfz2010rqwj   0.93451
gfz2010rxjw   5.19140
gfz2010rywq   0.76925
gfz2010rzrr   3.65170
gfz2010sfee   0.12166
gfz2010sfla  -1.76430
gfz2010sgzk  -1.24650
gfz2010sjwp   0.36505
gfz2010skqo  -0.44926
gfz2010skve   1.33760
gfz2010sniy  -1.33910
gfz2010srdb   0.82172
gfz2010svtn   0.46069
gfz2010svve  -0.20363
gfz2010swcy   0.25358
gfz2010sxwt   1.05460
gfz2010sysw  -0.46115
gfz2010szde   1.67300
gfz2010szim  -0.93361
gfz2010tcbr   0.37086
gfz2010tcrl   3.12850
gfz2010titk   0.65826
gfz2010tlfm  -0.32256
gfz2010truw   0.96933
gfz2010uouo   0.03284
gfz2010upfb  -0.85703
gfz2010urlq   0.15985
gfz2010usho   0.42099
gfz2010ustq  -0.06614
gfz2010utcg   0.10024
gfz2010utmc  -0.96934
gfz2010uvhf  -0.11570
gfz2010uyhb  -0.14372
gfz2010uzon  -0.01668
gfz2010veri  -0.94153
gfz2010vjcb   0.27176
gfz2010vppc   0.07553
gfz2010vxvs   0.28495
gfz2010vyxd  -0.01700
gfz2010vzzz   0.20899
gfz2010wioh  -0.09265
gfz2010wnty  -0.59996
gfz2010wntz  -0.82274
gfz2010wofs  -0.34471
gfz2010wrxx   1.94710
gfz2010wxqa   8.81810
gfz2010xbcr  -0.12434
gfz2010xbdv   1.26860
gfz2010xbgs  -0.41811
gfz2010xcdh  -0.21513
gfz2010xche  -0.35256
gfz2010xcij   0.87975
gfz2010xden  -0.11587
gfz2010xgzw   1.15450
gfz2010xjck   0.12267
gfz2010xjsj  -0.31881
gfz2010xnxk   0.06636
gfz2010xxdb   0.22000
gfz2010xxzn  -0.92089
gfz2010yfsv   0.64975
gfz2010ygwu  -0.43302
gfz2010yjev   3.13960
gfz2010yvwz   0.06360
gfz2010yzgq  -0.62062
gfz2010zdpo  -0.16703
gfz2010zeeh  -1.15060
gfz2011adjs   0.58609
gfz2011aeay  -0.52905
gfz2011ahfw  -0.76466
gfz2011aldv   3.91360
gfz2011alip   0.17171
gfz2011alsa   3.39110
gfz2011alwf   2.18560
gfz2011anur  -0.26712
gfz2011aqxf   0.95623
gfz2011bapi  -0.29900
gfz2011bhha   1.77800
gfz2011blsi   1.06570
gfz2011bnzn   0.07207
gfz2011bpkd  -0.24538
gfz2011bswz  -0.19856
gfz2011ccpw   0.12117
gfz2011cfae   0.22598
gfz2011cndo   0.25232
gfz2011cnho  -0.15191
gfz2011coxh   1.77030
gfz2011crdy   0.38526
gfz2011csju  -0.65028
gfz2011ctbn  -0.74171
gfz2011cvcg   0.08554
gfz2011cvfg  -0.74911
gfz2011cykd   0.41065
gfz2011cylz  -1.22320
gfz2011cynl  -0.30502
gfz2011cyre  -0.74346
gfz2011cyuk  -0.36749
gfz2011czwj  -0.62372
gfz2011dbon  -0.10539
gfz2011dbwt   1.96480
gfz2011deja   1.49580
gfz2011dldn   0.10907
gfz2011dllz   1.99280
gfz2011dmat   0.39847
gfz2011dndz  -0.23183
gfz2011dpaa  -0.68695
gfz2011dqio  -0.31013
gfz2011dvxb   0.09334
gfz2011eayc  -0.08885
gfz2011ecvr  -0.11879
gfz2011efgv  -0.32989
gfz2011eiis  -0.26663
gfz2011ekpr   1.93670
gfz2011eocc  -0.36601
gfz2011etje  -0.54529
gfz2011fgvr   1.30970
gfz2011fhbm   0.14544
gfz2011fhur  -0.05029
gfz2011fkbn   0.36703
gfz2011fnsw  -0.18085
gfz2011gcwb   0.32310
gfz2011gjlx  -0.24052
gfz2011gzbr  -1.35820
gfz2011haid   6.30580
gfz2011hbex   0.03971
gfz2011hbqk  -0.22271
gfz2011hebt  -0.25423
gfz2011hfkj   2.08030
gfz2011hlqw   0.14734
gfz2011hlsa   0.36224
gfz2011hlth   0.03423
gfz2011hpqp   2.54110
gfz2011hrhe  -0.00000
gfz2011hvbu   3.10880
gfz2011ieie  -0.48490
gfz2011ixai  -0.51292
gfz2011izqa  -0.03944
gfz2011jbbc   0.51220
gfz2011jdsj   0.16146
gfz2011jghb   1.14300
gfz2011jmbn   1.08870
gfz2011juid   2.47780
gfz2011knoo  -0.07443
gfz2011kqwo  -1.74110
gfz2011kqyg  -0.10031
gfz2011kwhq  -1.03180
gfz2011kwjx   0.83310
gfz2011kwkw  -0.99050
gfz2011kwld  -0.13933
gfz2011kwlq  -0.40241
gfz2011kwni  -0.96388
gfz2011kwnu   0.16201
gfz2011kwqc   0.16075
gfz2011kwrf  -0.01957
gfz2011kwsz  -0.95888
gfz2011kxzp   0.36158
gfz2011lczg   0.26561
gfz2011ldna  -0.14167
gfz2011lgsg  -0.31880
gfz2011lhls  -0.06527
gfz2011lvjr  -0.39643
gfz2011lzwj  -0.17100
gfz2011mdie   0.23636
gfz2011mivl   0.67100
gfz2011mjom  -0.11482
gfz2011mllx  -0.03619
gfz2011nauw   0.36460
gfz2011nowp  -0.22470
gfz2011nqpd  -0.01800
gfz2011ntkh  -0.01905
gfz2011ntrv  -0.43833
gfz2011nudm   1.11530
gfz2011ohcy  -1.62490
gfz2011oiqe   0.16314
gfz2011oiwk  -0.32868
gfz2011owvz  -0.47139
gfz2011pccd  -0.07523
gfz2011phms   6.64850
gfz2011pntf   7.25830
gfz2011psnq   0.50429
gfz2011qyms  -0.65652
gfz2011rabm  -0.51549
gfz2011rdby  -2.50530
gfz2011rewa   0.40183
gfz2011rgwl   0.67882
gfz2011rgwp   0.06999
gfz2011rqui   0.97656
gfz2011runa  -0.35880
gfz2011rznl   0.66262
gfz2011sawg  -0.03177
gfz2011shqm  -0.14231
gfz2011srka   0.26227
gfz2011stal   2.52740
gfz2011sthv   0.04879
gfz2011svix  -0.39351
gfz2011syjd  -0.08282
gfz2011taps   0.75384
gfz2011tbas   3.34980
gfz2011tcij   1.24350
gfz2011tjrf   0.11708
gfz2011tkfp   1.25130
gfz2011tkog   0.08582
gfz2011tpfr  -0.02295
gfz2011tsfd  -0.54105
gfz2011tsnp   0.01848
gfz2011twov   0.38561
gfz2011udsq  -0.30680
gfz2011ueni   0.42017
gfz2011uepx  -0.52978
gfz2011uiul   0.04809
gfz2011ujze  -0.27795
gfz2011unkx   0.20289
gfz2011uphh  -0.17325
gfz2011urxy  -0.21722
gfz2011urzu   0.24199
gfz2011vclt   0.07075
gfz2011vhfi  -0.22886
gfz2011vkun   0.13233
gfz2011vldk   0.28224
gfz2011vqnr   0.02865
gfz2011wcic   0.87759
gfz2011wfja   0.07096
gfz2011wtmq  -0.54176
gfz2011wvzb   0.26252
gfz2011wxfs  -0.03130
gfz2011wxoj  -1.41670
gfz2011wxtk  -0.05660
gfz2011wype   0.87206
gfz2011xaan  -1.81960
gfz2011xqru   0.00000
gfz2011xyxj  -0.71187
gfz2011yfdx  -1.19000
gfz2011yfys   0.05101
gfz2011ytnu  -0.38313
gfz2011yybo  -0.06091
gfz2011zjap  -0.34482
gfz2011zlfg  -0.20182
gfz2011zlrd  -0.09438
gfz2011zqhh   0.39002
gfz2012ablh  -0.03239
gfz2012ajtq   0.74052
gfz2012aqgp   1.03650
gfz2012aqtq   0.09302
gfz2012attr  -0.04845
gfz2012bfyn   0.80250
gfz2012bgnk   0.68318
gfz2012bngd   1.84450
gfz2012bpkx  -0.46295
gfz2012brhv   0.04142
gfz2012bszs  -0.73433
gfz2012byad  -0.32087
gfz2012cbed  -0.31495
gfz2012cnod  -0.51715
gfz2012covm  -0.18304
gfz2012cqtc  -0.20366
gfz2012cuct  -0.57498
gfz2012cxdn   2.05770
gfz2012cyof  -0.48083
gfz2012czlw   0.02153
gfz2012ddma   1.70610
gfz2012dimn  -0.41420
gfz2012dinb  -0.35528
gfz2012divk   0.32321
gfz2012dves   1.14280
gfz2012ekzf   4.16780
gfz2012elce   4.50560
gfz2012enno   0.27409
gfz2012eskt  -0.47897
gfz2012ewkj   0.76873
gfz2012eykb   0.19865
gfz2012ezvr   0.12360
gfz2012fgzz   0.10480
gfz2012fhnh   0.40596
gfz2012fivh   1.32420
gfz2012foeo  -0.48988
gfz2012fwfo   0.19261
gfz2012fwob   1.03100
gfz2012fwtr  -0.73853
gfz2012fzfa  -0.41919
gfz2012gemm   0.73000
gfz2012gill  -0.28401
gfz2012gnvh  -0.18619
gfz2012gwqb  -0.28819
gfz2012hdbm  -0.14021
gfz2012hnul   0.62104
gfz2012hogg  -0.47396
gfz2012holl  -0.22562
gfz2012htet   0.49665
gfz2012hwyo  -0.11932
gfz2012hzbe  -0.29756
gfz2012iamr  -0.03217
gfz2012ibld  -1.19790
gfz2012icmv   0.48287
gfz2012idje  -0.50930
gfz2012iffo   0.06787
gfz2012ihdl  -0.82550
gfz2012iivw  -0.60711
gfz2012ilvn   2.07410
gfz2012ilxh   0.00000
gfz2012imay  -0.54420
gfz2012imbd   1.94750
gfz2012intn  -0.32079
gfz2012iyrb   2.76700
gfz2012jhaz  -0.09187
gfz2012jlox  -0.94157
gfz2012jmwd   0.34016
gfz2012joqe   0.13413
gfz2012jpeh  -1.24080
gfz2012jpgs  -0.24951
gfz2012jshk   0.73467
gfz2012jted  -0.28065
gfz2012jupx  -0.63508
gfz2012jxiy  -0.60053
gfz2012kanu  -0.25420
gfz2012kbjb  -0.09290
gfz2012kbzj  -0.29909
gfz2012kdmb  -0.35995
gfz2012keor  -0.43193
gfz2012kiik  -1.08100
gfz2012kkcp   0.11866
gfz2012kkup   0.47102
gfz2012klhx   0.16667
gfz2012kuct   0.43362
gfz2012kudo  -0.02610
gfz2012kvzv  -0.15153
gfz2012kwgo   0.18133
gfz2012lboz  -0.01524
gfz2012lczo  -0.30285
gfz2012ldgs  -0.29855
gfz2012ldxg  -1.42140
gfz2012leam  -0.17341
gfz2012lezd   0.01578
gfz2012lhnc   0.05599
gfz2012lltr   1.64690
gfz2012llug  -0.24920
gfz2012lpvn   0.01988
gfz2012lqbg   0.66133
gfz2012lrjq   0.06349
gfz2012lrol  -0.49653
gfz2012lrtb   0.22759
gfz2012lsni   0.10802
gfz2012lsvd  -0.01082
gfz2012lszf  -0.01646
gfz2012lxkv  -1.53710
gfz2012lzgv  -0.19527
gfz2012lzmr  -0.01582
gfz2012maxy  -0.83796
gfz2012megc   0.20681
gfz2012mkpn   0.36003
gfz2012mlyf   0.66851
gfz2012mtiu   0.02059
gfz2012mupa   0.21552
gfz2012mvwr  -0.54921
gfz2012mwij   0.07645
gfz2012myeg   0.16933
gfz2012nben  -0.01794
gfz2012nedn   0.71580
gfz2012ngic   4.23800
gfz2012nivl  -0.19836
gfz2012nkdf  -0.38688
gfz2012noei   0.19733
gfz2012nojx  -0.58712
gfz2012nolo  -1.32050
gfz2012ntzv   4.41680
gfz2012oazn  -1.35780
gfz2012obgw  -0.88717
gfz2012obnq   0.32694
gfz2012oedb  -0.42263
gfz2012oilt  -0.24239
gfz2012okhx   0.27457
gfz2012omvo  -0.48832
gfz2012oqmw  -0.08763
gfz2012ostk  -0.04269
gfz2012ouyp   0.07604
gfz2012oycg  -0.11220
gfz2012pazr   0.37439
gfz2012pciw   1.09130
gfz2012pcxi  -0.11270
gfz2012peex   0.15641
gfz2012pgcl  -0.87042
gfz2012pkel  -1.91620
gfz2012plea   0.01381
gfz2012pofl   0.85026
gfz2012poju   0.92848
gfz2012pqmu   0.27482
gfz2012priv   0.04849
gfz2012prlt  -0.38325
gfz2012pspd   1.06120
gfz2012pygp   0.96113
gfz2012qjhs   0.15361
gfz2012qqqp   0.17673
gfz2012qurq   0.66613
gfz2012quso  -0.52077
gfz2012qvxn   0.35752
gfz2012raen  -0.12500
gfz2012raex   0.03448
gfz2012rats   0.28174
gfz2012rboy   0.36720
gfz2012rcbq   0.65712
gfz2012rcds   1.55120
gfz2012rcnj   0.38734
gfz2012rejq   0.00751
gfz2012repv  -0.54252
gfz2012rgkl   0.69680
gfz2012rjld   0.43208
gfz2012rkoa  -0.03203
gfz2012rmtr  -0.08502
gfz2012ronz  -1.03350
gfz2012royy   0.36485
gfz2012rpmb   0.14020
gfz2012rqlg  -0.17105
gfz2012rtqi  -0.23971
gfz2012rubi  -0.36494
gfz2012ruks  -0.21816
gfz2012rwko   0.06244
gfz2012rwov  -1.94990
gfz2012shtg   0.43255
gfz2012sjea   0.02867
gfz2012sqmv   0.17691
gfz2012sqvi   0.34735
gfz2012svpr   0.99915
gfz2012syvl   0.33168
gfz2012szla  -0.43629
gfz2012tazz   0.31538
gfz2012tbbp  -0.61821
gfz2012tbxt   0.13624
gfz2012thfx  -0.07087
gfz2012tphj   0.09210
gfz2012ttoa   0.39774
gfz2012tyxl  -0.21895
gfz2012uaqj   0.45032
gfz2012uciv   0.04751
gfz2012ufew   0.66883
gfz2012ulpd   0.00000
gfz2012uoef   0.95959
gfz2012uqzp  -0.16737
gfz2012usba  -0.06490
gfz2012uvqf  -0.02717
gfz2012uxnz   0.55119
gfz2012uyie   0.12115
gfz2012uzom  -0.07238
gfz2012uzyj   1.42040
gfz2012vceo   0.04101
gfz2012vjgl  -0.57167
gfz2012vmeh  -0.55821
gfz2012vnbk  -0.57069
gfz2012vntz  -0.40879
gfz2012vpza   0.24926
gfz2012vrua  -0.41610
gfz2012vsev   0.02105
gfz2012vtif   0.31459
gfz2012vtxe  -0.29656
gfz2012vwvd   0.42940
gfz2012vxvr   0.20847
gfz2012vyzo  -0.27215
gfz2012wgbb   0.53571
gfz2012wizz  -1.40920
gfz2012wkfw  -0.81993
gfz2012wklq  -0.49807
gfz2012wqnc   0.19205
gfz2012wtkh   0.62734
gfz2012wubh   0.14172
gfz2012wvfl   3.91140
gfz2012wwdo  -1.20090
gfz2012wybs  -0.01882
gfz2012wypz   0.27020
gfz2012xbjq  -0.54644
gfz2012xcgk   0.04299
gfz2012xgqm   2.42200
gfz2012xhci  -0.14577
gfz2012xjyv  -0.46920
gfz2012xmxy  -0.08314
gfz2012xpmm  -0.51822
gfz2012xslk  -0.51154
gfz2012xssa   2.39790
gfz2012xvwn  -0.10173
gfz2012xyqp   0.50749
gfz2012xyua  -0.12751
gfz2012yhag   0.94245
gfz2012yldu  -0.15508
gfz2012yoie  -0.28664
gfz2012yqjj  -0.80169
gfz2012yxxu   0.11398
gfz2012yzod  -1.14000
gfz2012zemz  -0.83020
gfz2012zfag  -1.54500
gfz2012zhmb  -0.22248
gfz2012zhyf  -0.26332
gfz2012ziml   0.44920
gfz2012zitl   1.42000
gfz2012zmbp  -0.99840
gfz2012zsqk   1.22240
gfz2013aayj   0.17835
gfz2013adey   3.98430
gfz2013aeee   0.09414
gfz2013akgj  -0.00550
gfz2013aknp   0.15826
gfz2013apmm  -0.35705
gfz2013aspo   0.02343
gfz2013avic   0.89778
gfz2013bbrc   1.21620
gfz2013bhgs  -0.24026
gfz2013bobq  -0.09922
gfz2013bouj   0.91600
gfz2013cbsm  -0.69500
gfz2013cdfj   1.02460
gfz2013cfyy  -0.74376
gfz2013cgou  -0.12093
gfz2013ciaf   2.29140
gfz2013cnms  -0.04234
gfz2013cnve   0.77553
gfz2013cnyj   1.34330
gfz2013cnyk  -0.95114
gfz2013comh   0.40434
gfz2013cptb  -1.35790
gfz2013cuoq  -0.18686
gfz2013cvqg   4.08520
gfz2013czeq   0.09402
gfz2013ddbh  -0.84158
gfz2013dddp   0.24555
gfz2013dfhb   3.91360
gfz2013diuf  -0.19982
gfz2013dkmg  -0.11129
gfz2013dkym  -0.10070
gfz2013dnnx   0.14513
gfz2013dofo  -0.52841
gfz2013dojq  -0.16957
gfz2013dqls  -0.26963
gfz2013drpk   0.31201
gfz2013drxz   0.41626
gfz2013dsog  -0.30696
gfz2013dspt  -1.30980
gfz2013dsrk  -1.82720
gfz2013dujm   0.17473
gfz2013duzp   2.91220
gfz2013dvye   4.74850
gfz2013dvyh  -0.19401
gfz2013dyop  -0.57194
gfz2013egni  -0.14556
gfz2013egpu  -0.02297
gfz2013ehwe  -2.31010
gfz2013ekpm  -0.09618
gfz2013erse  -0.19660
gfz2013esnh  -0.10294
gfz2013esnt   0.06688
gfz2013eswe   0.14475
gfz2013eulz   0.13866
gfz2013evsq   0.16464
gfz2013fcto   0.44158
gfz2013fepm  -2.86120
gfz2013ffko  -0.09891
gfz2013fkcl  -0.02266
gfz2013flox  -1.27500
gfz2013ftso   1.09930
gfz2013fwxa   0.09483
gfz2013fxge   0.12610
gfz2013gaie   0.65689
gfz2013gbcn  -0.71518
gfz2013gdnq   3.22660
gfz2013geia   0.02668
gfz2013gihf  -0.46704
gfz2013gjdc   0.17381
gfz2013glcr  -0.15177
gfz2013gngz  -0.61978
gfz2013gock  -0.22578
gfz2013govy   0.01058
gfz2013gras  -0.33435
gfz2013gvdb  -0.13915
gfz2013gvet   0.10301
gfz2013gwrd  -1.01210
gfz2013hbkh   2.68170
gfz2013hbkq   0.48845
gfz2013hlbe  -0.59421
gfz2013hmbc   1.46840
gfz2013hpfq  -0.01848
gfz2013hudi  -0.55574
gfz2013huwr  -0.74116
gfz2013hxcx  -0.22201
gfz2013iapa  -0.29024
gfz2013iayx  -0.24168
gfz2013icfh  -0.03595
gfz2013icqt   0.74809
gfz2013idbb   0.03162
gfz2013iexo  -0.27121
gfz2013ihcj   0.20665
gfz2013ijsr  -1.16150
gfz2013ijyg  -0.11610
gfz2013ikgo   1.89480
gfz2013inux  -0.33811
gfz2013iodt   0.62849
gfz2013iopd   1.01520
gfz2013ippu  -0.46933
gfz2013itsu   0.75863
gfz2013iunn  -0.97599
gfz2013iynu   0.84829
gfz2013iyqz  -0.24772
gfz2013jarl   0.16346
gfz2013jdrx   0.24390
gfz2013jesk  -0.19667
gfz2013jfah   0.45560
gfz2013jgij   0.38660
gfz2013jgip  -0.46575
gfz2013jjrt   0.56724
gfz2013jjsi  -0.79382
gfz2013jkut  -0.52909
gfz2013jlst  -0.39199
gfz2013jmcc   0.27889
gfz2013jphq  -0.03839
gfz2013json   3.78350
gfz2013jusj  -0.11870
gfz2013jvhy   0.33634
gfz2013jwcn   0.06365
gfz2013kccc  -0.56155
gfz2013kdeo  -0.66996
gfz2013kgmj  -0.01229
gfz2013kheb   0.11020
gfz2013khli  -0.41880
gfz2013kilx  -0.52995
gfz2013kkzr  -0.13974
gfz2013krei  -0.98359
gfz2013kweg   0.10797
gfz2013kwps  -0.07126
gfz2013lajn  -2.12520
gfz2013lcos   0.40337
gfz2013ldpc   0.16299
gfz2013ldqb   0.21222
gfz2013lfyb   0.79540
gfz2013lgbb  -0.15480
gfz2013lgxc  -0.41425
gfz2013limo  -0.22833
gfz2013lixa   0.43562
gfz2013lmdy   0.32698
gfz2013lmrs  -0.29239
gfz2013lsob   0.12831
gfz2013lupg   0.66966
gfz2013lwbk  -0.21260
gfz2013lyko   0.46938
gfz2013lznu  -0.04846
gfz2013mded   0.06908
gfz2013mdiq  -0.49323
gfz2013mghe   0.56731
gfz2013mmlw  -0.29072
gfz2013mmwq  -1.29800
gfz2013mnac  -0.16003
gfz2013mnei  -0.57540
gfz2013mnju  -0.06155
gfz2013mqmv  -0.73185
gfz2013mtqd   0.44346
gfz2013mvdm   0.02429
gfz2013mvgr  -0.87845
gfz2013mxee   0.45584
gfz2013mxrz   0.29604
gfz2013mzwe  -0.15145
gfz2013nabl  -0.15815
gfz2013ncjp  -0.06024
gfz2013nedo   0.47904
gfz2013neuc  -0.68931
gfz2013nhjb  -0.41004
gfz2013njnd   0.13050
gfz2013nlxz   0.16772
gfz2013nmac  -0.05101
gfz2013nnzf   0.04852
gfz2013nojf   0.20747
gfz2013nppd  -0.15399
gfz2013nqgw   0.18869
gfz2013nttq  -1.30150
gfz2013nuor  -0.00000
gfz2013nvdj  -0.02966
gfz2013nvia  -0.27252
gfz2013nwdi  -0.61138
gfz2013ofls   0.19501
gfz2013ogde  -0.77647
gfz2013oifr  -0.45239
gfz2013oilg  -0.63255
gfz2013oinc  -0.72298
gfz2013ojti  -0.48238
gfz2013oksi   0.24771
gfz2013onjy  -0.45043
gfz2013orjg  -0.55880
gfz2013ornz   0.10932
gfz2013ouvt  -0.81444
gfz2013ovyg  -0.06052
gfz2013ozku   0.14890
gfz2013oznn   0.76742
gfz2013ozqm  -1.05240
gfz2013ozrf  -0.29508
gfz2013ozrp  -0.52963
gfz2013pakq  -0.19034
gfz2013pcos   0.01527
gfz2013pfbx  -0.25480
gfz2013pfnf  -1.18170
gfz2013pigb  -0.15854
gfz2013piwd  -0.11713
gfz2013pkbs  -0.40681
gfz2013plhp   0.97378
gfz2013pndn   0.22583
gfz2013ptit  -0.13921
gfz2013pupd  -0.06628
gfz2013pweb  -0.64460
gfz2013pwjd  -0.19544
gfz2013pwyt  -2.42770
gfz2013pxsj   1.39610
gfz2013pxtx   1.28950
gfz2013pxya   0.03227
gfz2013pzgs  -2.27760
gfz2013pzgt  -1.22790
gfz2013qali  -0.56233
gfz2013qbys   0.11469
gfz2013qcck  -0.04077
gfz2013qckf  -0.16380
gfz2013qfmm  -0.17899
gfz2013qfsq   0.57077
gfz2013qhtx   0.59698
gfz2013qhwz   0.38796
gfz2013qidm  -0.06263
gfz2013qjmk   0.01046
gfz2013qmer   0.33847
gfz2013qpgd   0.50312
gfz2013qpqb   0.55087
gfz2013qqrr   0.11669
gfz2013qrxy   0.03412
gfz2013qvcr   0.12499
gfz2013qwbv  -0.33459
gfz2013qwgb   0.15481
gfz2013qwin   0.11895
gfz2013qzdq  -0.34162
gfz2013rait  -0.70249
gfz2013rdmo   0.34376
gfz2013rdoo  -0.56514
gfz2013reav   0.18376
gfz2013rjgt   1.25520
gfz2013rjsx  -0.08378
gfz2013rluo  -0.26412
gfz2013rotn   0.05558
gfz2013rqcy  -0.55440
gfz2013rqmp  -0.05829
gfz2013rsts   0.89321
gfz2013ryxm  -0.14335
gfz2013sart  -0.44196
gfz2013scai  -1.20980
gfz2013scub   0.96089
gfz2013sdus  -0.20152
gfz2013sebq  -0.42905
gfz2013sfds   0.03296
gfz2013sfto   0.06778
gfz2013shlq   0.23169
gfz2013shzy  -0.12848
gfz2013skkm   0.29102
gfz2013sllq   0.27328
gfz2013snbr  -0.57039
gfz2013snyf   0.16920
gfz2013sqkb   0.15622
gfz2013stcu   0.88419
gfz2013suln   0.61899
gfz2013svci  -0.56808
gfz2013svqv  -0.23460
gfz2013syqk   0.35139
gfz2013tamc  -0.03512
gfz2013tbzy  -1.10710
gfz2013tcxc   2.51040
gfz2013tdkk  -0.09796
gfz2013tect  -2.55730
gfz2013thtc  -0.52389
gfz2013tjlx  -0.32042
gfz2013toea   0.31188
gfz2013toxf  -0.56113
gfz2013tqbb   0.02303
gfz2013ttoz  -1.29460
gfz2013tusd  -0.26843
gfz2013tuzv  -0.53828
gfz2013tvmw   0.01979
gfz2013uauo  -0.27040
gfz2013ufku  -0.37386
gfz2013ufxk  -1.59450
gfz2013uhlm  -0.04683
gfz2013umya  -0.14274
gfz2013upcc  -0.09433
gfz2013upee   0.74441
gfz2013upiv   0.11797
gfz2013utsh  -0.80287
gfz2013uysr   0.15147
gfz2013vcoa   0.65254
gfz2013vefs  -0.01351
gfz2013vexx  -1.63630
gfz2013vfzp   3.76490
gfz2013vgau   2.61720
gfz2013vgev  -0.63904
gfz2013vhsb   0.41476
gfz2013vhzu   0.13152
gfz2013vijl  -0.15243
gfz2013viul  -0.20160
gfz2013vjjc   0.17266
gfz2013vjod  -0.19970
gfz2013vlth   0.15731
gfz2013vmro  -0.35815
gfz2013vnfj  -0.16207
gfz2013vpnf   0.06130
gfz2013vqot  -1.13710
gfz2013vrmy   1.62430
gfz2013vsxi   1.14750
gfz2013vuja   0.06990
gfz2013vxta   0.06154
gfz2013vzbo   0.11932
gfz2013wbyr   0.31205
gfz2013wgeu   0.04873
gfz2013whts   0.14426
gfz2013wjmm  -0.09390
gfz2013wnpr  -1.48920
gfz2013wnql  -0.50362
gfz2013woze  -0.13499
gfz2013wpga  -0.50865
gfz2013wqhq   1.03210
gfz2013wrgw   0.16051
gfz2013wtzl   1.26220
gfz2013wuml   0.53481
gfz2013wuon  -0.55224
gfz2013wwec  -0.20055
gfz2013wwii   1.70840
gfz2013xatc  -0.07184
gfz2013xcmp  -0.36499
gfz2013xgek   0.10262
gfz2013xkbh   0.42339
gfz2013xkwt  -0.13310
gfz2013xmqg   0.15086
gfz2013xmul  -0.74106
gfz2013xpfa  -0.13310
gfz2013xpsm  -0.21228
gfz2013xqnn   0.56864
gfz2013xsdt  -0.31651
gfz2013xtwj   0.03009
gfz2013xvxf   1.34300
gfz2013xvyl   0.18534
gfz2013xwxn  -1.58570
gfz2013xxcc  -0.13186
gfz2013yach  -1.20880
gfz2013ydtm  -0.40405
gfz2013ylbx   0.25684
gfz2013ymxs   1.35310
gfz2013ypdc   0.96167
gfz2013yulx   0.77452
gfz2013yyhc  -0.96728
gfz2013yzte  -0.48431
gfz2013zfhu   0.12582
gfz2014bwue   0.10170
gfz2014caop   0.34969
gfz2014ccbz   0.08709
gfz2014cdwi   0.73771
gfz2014cgog   1.84900
gfz2014chdv  -1.10100
gfz2014citw   0.58863
gfz2014clnj   0.37975
gfz2014clnq   0.50804
gfz2014crpy  -0.10368
gfz2014cueu   0.57083
gfz2014cxcj   0.10374
gfz2014cybg  -0.16646
gfz2014czno   0.05523
gfz2014czqi   0.71666
gfz2014czua   1.82600
gfz2014dbdf  -0.61354
gfz2014dffd   0.48541
gfz2014dgiy   0.63899
gfz2014disp  -0.47013
gfz2014dlri  -0.55654
gfz2014dpzx  -0.16715
gfz2014duqn   0.05581
gfz2014dwls   0.80882
gfz2014dwsy   0.20092
gfz2014eage  -0.42431
gfz2014ebmc  -2.57760
gfz2014edfx   0.84903
gfz2014efkk  -0.65476
gfz2014efsd  -0.03474
gfz2014eght  -0.06383
gfz2014egwu   0.42614
gfz2014ejvf  -0.10434
gfz2014ekdt   0.17251
gfz2014emrg   0.28936
gfz2014eqpl   0.18675
gfz2014erbj   0.33594
gfz2014ettc  -0.90122
gfz2014ewcz  -1.48170
gfz2014ewrw   0.50041
gfz2014exmv   0.08955
gfz2014exxa  -0.09492
gfz2014ezgb  -1.00850
gfz2014fexu   0.62785
gfz2014ffdc   0.40709
gfz2014ffqx  -0.93447
gfz2014fgkb  -0.38914
gfz2014fgvi  -0.25313
gfz2014fgvr   0.79416
gfz2014fgwn   0.05597
gfz2014fgwt   1.09590
gfz2014fgxt   0.28717
gfz2014fgxz   0.22521
gfz2014fgyo  -0.57680
gfz2014fgza  -0.00000
gfz2014fhbd  -0.15211
gfz2014fhdw   0.11650
gfz2014fhgb   0.43565
gfz2014fhhp   0.04466
gfz2014fhjd   0.28548
gfz2014fhkp  -0.02088
gfz2014fhla  -0.10160
gfz2014fhlh   0.07042
gfz2014fhmb  -2.63570
gfz2014fhoe  -0.87352
gfz2014fhpf  -1.49510
gfz2014fhqk   0.09809
gfz2014fhrq  -0.18312
gfz2014fhsg  -0.03378
gfz2014fhwx   0.35059
gfz2014fhxm  -0.16701
gfz2014fhyb  -0.71863
gfz2014fimn  -0.16777
gfz2014fiuj  -0.29803
gfz2014fiwq   0.68825
gfz2014fjdz  -0.02969
gfz2014fjpb   0.07835
gfz2014fjxd  -0.20935
gfz2014fjyo   0.15193
gfz2014fjzd  -0.04008
gfz2014fjzw   0.38562
gfz2014fkmr  -0.28860
gfz2014fkmx  -0.73204
gfz2014fles   0.25841
gfz2014flfa   1.07370
gfz2014fmai  -0.24604
gfz2014fnbh   0.28279
gfz2014fnyg  -0.06212
gfz2014foty  -0.50424
gfz2014fqpz   0.34948
gfz2014frdz   0.38398
gfz2014frel  -0.68707
gfz2014frfl  -0.22945
gfz2014frfw   0.15470
gfz2014frgm  -0.06928
gfz2014frjr   0.09026
gfz2014frme  -0.22513
gfz2014frnb   0.51322
gfz2014frwh   0.03837
gfz2014fstx   0.14578
gfz2014fsuh   0.30703
gfz2014fszc  -0.19201
gfz2014ftgx   0.42207
gfz2014ftka  -0.18126
gfz2014ftno   0.17760
gfz2014ftoc   0.09829
gfz2014ftpw  -0.19533
gfz2014ftvc  -0.90132
gfz2014furx  -0.13337
gfz2014fusc  -0.72042
gfz2014fusj  -0.44954
gfz2014fusu   0.43037
gfz2014fuub  -0.73735
gfz2014fuup   0.21730
gfz2014fuvk  -0.07251
gfz2014fuzi   0.00000
gfz2014fvaa   0.40442
gfz2014fvdx   0.61955
gfz2014fvgh   0.03361
gfz2014fvhp   0.43321
gfz2014fvpy   0.00000
gfz2014fvrg   0.21954
gfz2014fvve  -0.26335
gfz2014fwdr   0.28432
gfz2014fwtt   0.31496
gfz2014fxpu   0.66244
gfz2014fyfr   0.30807
gfz2014fzgx  -0.12045
gfz2014gbcz  -1.16140
gfz2014gbdq  -1.85580
gfz2014gbjf   0.26430
gfz2014gcza   0.43301
gfz2014gdsq   0.01878
gfz2014gesb   0.36533
gfz2014geuy   0.40429
gfz2014gezs  -0.06532
gfz2014gfdj  -0.16318
gfz2014gfhf  -0.89528
gfz2014ggnq  -0.29925
gfz2014ggpd   0.93351
gfz2014ggsr   0.21616
gfz2014ghoq  -0.03381
gfz2014gilf  -0.11099
gfz2014gkgf  -0.34143
gfz2014gkgl  -1.74480
gfz2014gkjl   0.15322
gfz2014gkjy  -0.13739
gfz2014gkln   0.09167
gfz2014gklv   0.67488
gfz2014gkob  -1.35750
gfz2014gkpd   0.31285
gfz2014gkpj  -0.06438
gfz2014gkqf  -0.01539
gfz2014gkqu  -1.94680
gfz2014gkrl  -1.49390
gfz2014gkrz  -0.89322
gfz2014gksj  -0.19703
gfz2014gksu  -3.06840
gfz2014gktn  -3.15630
gfz2014gktq  -1.26930
gfz2014gkut  -0.46281
gfz2014gkvk  -0.09996
gfz2014gkxi  -0.08936
gfz2014gkxm   0.04700
gfz2014glcu  -0.52685
gfz2014glcy  -1.75340
gfz2014glfn   0.43975
gfz2014glgo   0.19846
gfz2014glhs  -0.57612
gfz2014glov   0.75996
gfz2014glsh   0.27465
gfz2014gltj  -0.01070
gfz2014gltx  -1.12060
gfz2014glvn  -0.39585
gfz2014glvu   0.13975
gfz2014glxd  -2.43890
gfz2014glxy  -1.53080
gfz2014gmci  -0.05649
gfz2014gmes  -0.16733
gfz2014gmge  -0.06183
gfz2014gmhp   0.23686
gfz2014gmhr  -2.06980
gfz2014gmic  -0.75277
gfz2014gmip  -0.25834
gfz2014gmjo  -1.46340
gfz2014gmjz   0.60863
gfz2014gmku  -0.38713
gfz2014gmlz  -0.14108
gfz2014gmmt   0.25857
gfz2014gmnb  -0.85262
gfz2014gmnw  -1.15900
gfz2014gmpy  -0.07669
gfz2014gmqw   0.56760
gfz2014gmrj   0.15364
gfz2014gmtb   0.01817
gfz2014gmtj   0.59741
gfz2014gmto  -0.53115
gfz2014gmuk  -1.46470
gfz2014gmuw  -0.64991
gfz2014gmvr   0.28417
gfz2014gmzl  -0.00000
gfz2014gmzs  -0.50966
gfz2014gndq  -0.85608
gfz2014gnfd  -0.06394
gfz2014gnfs   0.46667
gfz2014gngg  -0.41812
gfz2014gnhk  -0.13956
gfz2014gnig   0.45846
gfz2014gnmp  -1.59140
gfz2014gnms   0.09370
gfz2014gnmx   0.19520
gfz2014gnno   0.24819
gfz2014gnnt  -0.23969
gfz2014gnom   0.79569
gfz2014gnoz   0.02483
gfz2014gnqt   0.11073
gfz2014gnre  -0.03579
gfz2014gnsi  -0.09058
gfz2014gntd  -0.75300
gfz2014gnvw   0.32367
gfz2014gnwg   0.11386
gfz2014gnxb   0.22676
gfz2014goba  -0.13915
gfz2014goei   0.11891
gfz2014gogv   0.20552
gfz2014gohm   0.25567
gfz2014golz   0.16249
gfz2014gono   0.20532
gfz2014goqw  -0.15728
gfz2014gpac   0.31277
gfz2014gpbx   0.13271
gfz2014gpce   0.17040
gfz2014gpdo  -0.97955
gfz2014gpgd  -0.33641
gfz2014gphr   0.22220
gfz2014gpmm   0.08815
gfz2014gpnf  -0.06559
gfz2014gpqq  -0.51075
gfz2014gpvk   0.05577
gfz2014gpxl  -0.11259
gfz2014gpxv  -0.19743
gfz2014gqbj  -0.72003
gfz2014gqco  -0.13199
gfz2014gqed  -0.52097
gfz2014gqer  -1.67560
gfz2014gqgf  -0.06666
gfz2014gqhe  -0.52090
gfz2014gqiy   0.10671
gfz2014gqqz  -0.42405
gfz2014gqro  -0.22600
gfz2014gqup  -0.23252
gfz2014gqve  -0.05616
gfz2014grcv   0.15958
gfz2014grfp  -0.85571
gfz2014grgn   0.41135
gfz2014grho  -0.06116
gfz2014gsdw   0.26589
gfz2014gsgv  -0.45422
gfz2014gsjg   0.23554
gfz2014gsqs   0.17775
gfz2014gtef   0.24415
gfz2014gtlu   0.49326
gfz2014gtwz  -0.15849
gfz2014gufl  -0.01392
gfz2014gull  -0.27134
gfz2014gulp  -0.71960
gfz2014gumd   0.07335
gfz2014gutm  -0.10522
gfz2014gvhw   0.89002
gfz2014gvqj   0.28435
gfz2014gvra  -0.82737
gfz2014gvrd  -0.57346
gfz2014gwab   0.59412
gfz2014gwap  -0.01166
gfz2014gwqj  -0.35429
gfz2014gxag  -0.05277
gfz2014gxkh   0.14830
gfz2014gxqf  -1.08300
gfz2014gxqu   0.24917
gfz2014gxqx  -0.24381
gfz2014gxvf  -0.37629
gfz2014gxxh  -0.12744
gfz2014gxxo  -0.46680
gfz2014gyxd  -0.31741
gfz2014gzrm  -0.85044
gfz2014gzue  -0.03498
gfz2014haey  -0.03699
gfz2014hafk   0.65776
gfz2014hagb   0.10157
gfz2014haos   0.03013
gfz2014hasj  -0.62503
gfz2014hbjm   0.27158
gfz2014hbjz   0.12864
gfz2014hbqb  -0.19159
gfz2014hcmj  -0.31993
gfz2014hcns  -0.50054
gfz2014hetr  -0.45412
gfz2014heyq   0.27892
gfz2014hfad   0.53196
gfz2014hfhl  -0.69757
gfz2014hfzf  -0.58030
gfz2014hgqo  -0.94945
gfz2014hhfs  -0.13623
gfz2014hhwx   0.00000
gfz2014hifp  -0.47669
gfz2014hiih   0.48131
gfz2014hiiz  -0.45038
gfz2014hjgh   0.03762
gfz2014hjgo  -0.23361
gfz2014hjgr  -0.64221
gfz2014hjhu   0.07295
gfz2014hjij  -0.08629
gfz2014hjkp  -0.08886
gfz2014hjlx   0.06511
gfz2014hkcf  -0.21959
gfz2014hkck  -0.37510
gfz2014hlib   0.00000
gfz2014hmgf   0.01468
gfz2014hmvx   0.11931
gfz2014hmzg  -0.20383
gfz2014hnfm  -0.29358
gfz2014hoap  -0.33002
gfz2014hodc   0.08617
gfz2014hokj   0.00819
gfz2014hphw  -0.09726
gfz2014hppw  -0.61528
gfz2014hpqz   1.04180
gfz2014hqxs  -0.17241
gfz2014hqyx   0.01464
gfz2014hrft   0.80296
gfz2014hriu   0.16736
gfz2014hrtn   0.09530
gfz2014hscz  -1.70670
gfz2014hsqo   0.07481
gfz2014hssr   0.50214
gfz2014hszs   0.07593
gfz2014htbf   0.27627
gfz2014huaj  -0.07850
gfz2014hugz  -0.12623
gfz2014hwan  -0.33357
gfz2014hwsy   0.24158
gfz2014hwwi  -0.45361
gfz2014hxcl  -0.44459
gfz2014hxev   0.33772
gfz2014hyal   0.16071
gfz2014hyvq   0.06254
gfz2014hzdy   0.79557
gfz2014hzfr   0.01083
gfz2014hzfw   1.88280
gfz2014hzgn   0.10881
gfz2014hzht   0.20685
gfz2014hzig   0.28373
gfz2014hzze   0.02434
gfz2014iani  -0.04965
gfz2014iazy   0.16803
gfz2014icqt   1.06840
gfz2014ieam   0.01793
gfz2014iege   0.08202
gfz2014ieho  -0.12360
gfz2014ifue  -0.42768
gfz2014ifzj  -0.70859
gfz2014igsj  -0.12523
gfz2014igur  -0.09258
gfz2014ijvh  -0.38115
gfz2014ikbk   0.06063
gfz2014ikun  -0.40898
gfz2014ikvd   0.69717
gfz2014ilwu  -0.18863
gfz2014immt  -0.05357
gfz2014imnn   0.01907
gfz2014inbj   0.05999
gfz2014iobd   0.25457
gfz2014iqzj   0.49251
gfz2014irci  -0.03702
gfz2014ircq   0.29767
gfz2014irrg   0.57932
gfz2014isdq   0.25411
gfz2014isff   0.29872
gfz2014issk   0.23922
gfz2014isub  -0.40754
gfz2014isys  -0.58027
gfz2014itab   0.01636
gfz2014itbe   0.44434
gfz2014itbu   0.62803
gfz2014itfc   0.40420
gfz2014itgh   0.28338
gfz2014itjx  -0.58675
gfz2014itkw  -0.27162
gfz2014itpj  -0.29212
gfz2014iuhq  -0.31996
gfz2014ivep   0.29684
gfz2014iwnf   0.06664
gfz2014iwwl  -0.04732
gfz2014ixga   0.00000
gfz2014iywt  -0.05351
gfz2014jagg  -0.18337
gfz2014jass  -0.26848
gfz2014jatq   0.65950
gfz2014jcmt   0.03796
gfz2014jdoy   0.34852
gfz2014jdxj   0.03266
gfz2014jesb  -0.24696
gfz2014jfis   0.52438
gfz2014jggm  -0.18613
gfz2014jhra  -0.22435
gfz2014jipr   0.51040
gfz2014jird  -0.57881
gfz2014jjhc   0.03945
gfz2014jjkh  -0.12951
gfz2014jjln  -0.53426
gfz2014jjqk   0.44597
gfz2014jmnk   0.45301
gfz2014jmsy   0.39658
gfz2014jnea  -0.84343
gfz2014joak   1.08540
gfz2014jomw  -0.02161
gfz2014jozl   0.18151
gfz2014jpep  -0.16634
gfz2014jpez   0.22495
gfz2014jpgu   0.09221
gfz2014jpxs  -0.35429
gfz2014jtcz  -2.86570
gfz2014jtfe  -0.76963
gfz2014jvow  -0.14656
gfz2014kara  -1.32880
gfz2014kbuk  -0.80826
gfz2014kbwm  -0.74471
gfz2014khan  -0.61353
gfz2014kizt   0.16558
gfz2014kjee   0.08004
gfz2014kjjq  -0.29968
gfz2014kjzb  -0.74579
gfz2014kkhh  -0.16798
gfz2014kmmt   1.46350
gfz2014krlg  -0.01753
gfz2014kscf  -0.13997
gfz2014ksmz   0.53967
gfz2014kssw   0.61883
gfz2014kwie   0.07058
gfz2014kwrg  -0.38586
gfz2014kwwg  -0.00340
gfz2014kxqf  -0.01119
gfz2014kyan  -0.05674
gfz2014kyhe   0.11862
gfz2014kytf  -0.79772
gfz2014kzzm  -0.18982
gfz2014lbcq  -0.33972
gfz2014lchy   0.05057
gfz2014lehw  -0.29127
gfz2014lhqn  -0.13958
gfz2014lnmw   0.34652
gfz2014lpfc  -0.39174
gfz2014lpim  -0.44711
gfz2014lrzx  -0.09762
gfz2014lurd   0.05245
gfz2014lvgn  -0.24680
gfz2014lwom  -0.23018
gfz2014lwsw  -0.35874
gfz2014lwvb   0.00000
gfz2014lyhk  -0.26746
gfz2014lyhp  -1.38500
gfz2014lzal  -1.18790
gfz2014lzow  -0.01616
gfz2014macx  -0.31743
gfz2014madw  -0.33256
gfz2014mawp   0.49143
gfz2014mcno  -0.89321
gfz2014mcse   0.13538
gfz2014mioi  -0.72782
gfz2014mlqw   0.13708
gfz2014mlrr  -0.26938
gfz2014mmbu  -0.17874
gfz2014mmtb  -0.48032
gfz2014mrbm   0.14959
gfz2014muzd   0.56351
gfz2014mvza   0.09539
gfz2014mwnj  -0.74776
gfz2014mxkr  -0.34722
gfz2014myqz   0.86175
gfz2014nafd  -0.00000
gfz2014navw  -0.16236
gfz2014ndue  -0.32902
gfz2014ngsk  -0.43023
gfz2014ngvt  -0.25646
gfz2014nhyb   0.15014
gfz2014niqj  -0.20206
gfz2014nkdx  -0.64432
gfz2014nnxd  -0.39469
gfz2014nowp   2.09890
gfz2014npdk  -0.32994
gfz2014npeo  -1.75610
gfz2014nphm   0.05013
gfz2014npnn   0.85305
gfz2014nqbs  -0.41982
gfz2014nqfm  -0.46272
gfz2014nqpk  -0.24674
gfz2014pzni  -0.27470
gfz2014qbzi  -0.25918
gfz2014qcxs   0.05456
gfz2014qfzq   0.52210
gfz2014qifa  -0.19721
gfz2014qjfl   0.39223
gfz2014qjgp   0.10808
gfz2014qlxd   0.21860
gfz2014qngj  -2.18230
gfz2014qqfg  -0.56862
gfz2014qqhm  -0.40421
gfz2014qsby  -0.22523
gfz2014qtwv  -0.19733
gfz2014raau   1.66440
gfz2014rcyx  -0.34067
gfz2014rdoz  -0.54748
gfz2014rdsn  -0.76374
gfz2014rhju  -0.50902
gfz2014rhnz  -0.19700
gfz2014rhwq  -0.13431
gfz2014rils  -0.62442
gfz2014roba  -0.75401
gfz2014romy  -0.42127
gfz2014royq   0.47233
gfz2014rucz   0.24064
gfz2014ryfb   0.10731
gfz2014sryn  -0.59403
gfz2014ssds  -0.51575
gfz2014swgt   0.02715
gfz2014tabg   0.18785
gfz2014tfgn   1.49900
gfz2014tgcw   0.03333
gfz2014tovs  -2.10550
gfz2014tqly   0.64561
gfz2014tqsf   0.03812
gfz2014tqth  -0.00000
gfz2014tzsd  -0.03721
gfz2014uapa  -0.00000
gfz2014ubyq   0.07912
gfz2014utac  -1.86610
gfz2014uvrk   1.76790
gfz2014uzaw  -0.71708
gfz2014vdnh  -0.72376
gfz2014vhld   0.02015
gfz2014vhms  -0.42994
gfz2014vivo   0.06935
gfz2014vnxu  -0.41563
gfz2014vpus   0.85681
gfz2014vqqa  -0.38768
gfz2014waoo  -0.91699
gfz2014watn   0.13041
gfz2014wqcp  -0.15185
gfz2014wrkh  -0.42593
gfz2014wwib   0.08757
gfz2014xhwk  -0.22225
gfz2014xjri  -0.33945
gfz2014xkdg  -0.48493
gfz2014ynhc   0.12823
gfz2014yyiy  -0.11653
gfz2014zcgo  -0.25215
gfz2014zdtl  -0.08072
gfz2014zkys  -0.03529
gfz2014zlgp  -1.04640
gfz2015abpw  -0.87694
gfz2015aide  -0.37425
gfz2015ansu  -0.35460
gfz2015arpd  -0.39803
gfz2015aruz   0.27290
gfz2015atxv  -0.64390
gfz2015aush  -0.09616
gfz2015bavu  -0.64556
gfz2015bdyd  -0.33817
gfz2015berb   0.10354
gfz2015bfzt  -0.37824
gfz2015bnho   0.18983
gfz2015bphe  -0.28142
gfz2015bpxl  -0.04774
gfz2015bsnl   0.19483
gfz2015bucr  -0.53165
gfz2015byjd   0.41152
gfz2015chhn  -0.85949
gfz2015clrp  -0.92971
gfz2015cyjd  -0.08276
gfz2015czfv  -0.62428
gfz2015ddhl  -0.39857
gfz2015dizn   1.06110
gfz2015dskr   1.74780
gfz2015ednc   0.46328
gfz2015eeyq  -0.55665
gfz2015eezy  -0.42338
gfz2015npud  -0.33233
gfz2015ocwr  -3.78990
gfz2015ofpd  -0.35725
gfz2015oumn   0.20610
gfz2015oyfl  -2.71510
gfz2015pcvt  -0.12931
gfz2015pjgr  -0.45666
gfz2015plal   0.00602
gfz2015puuu  -0.03415
gfz2015qafb  -1.15580
gfz2015qisx   0.12300
gfz2015qnde   0.48779
gfz2015qnho   3.02960
gfz2015qols   0.17069
gfz2015qprd  -0.30898
gfz2015qpvd   0.08794
gfz2015quzo  -0.25907
gfz2015qvxu   0.06924
gfz2015rgov   5.96810
gfz2015rgst  -0.35321
gfz2015rkzg   1.53950
gfz2015rlnh   0.50751
gfz2015rnis   0.60314
gfz2015roac  -0.88664
gfz2015rpzn  -2.30810
gfz2015rtnv   0.13000
gfz2015saet   0.06904
gfz2015sdeo  -0.38798
gfz2015sdfy  -0.09195
gfz2015seuf   0.02052
gfz2015sevh  -0.28812
gfz2015sfdd  -0.17617
gfz2015sggc   0.29804
gfz2015sghq  -1.44770
gfz2015siof  -0.07269
gfz2015sitn  -0.87390
gfz2015sjgk  -1.65960
gfz2015sjjb  -1.67250
gfz2015sjne  -0.99023
gfz2015skpv   0.76811
gfz2015sljs  -1.04690
gfz2015smym  -0.45874
gfz2015snwh  -1.16820
gfz2015snyd   0.06944
gfz2015soat  -1.32770
gfz2015soxc  -1.13770
gfz2015spjc  -2.11070
gfz2015spxh  -0.26612
gfz2015sryk  -0.01408
gfz2015sudm  -1.07300
gfz2015susq  -0.16607
gfz2015svwm  -0.28511
gfz2015swgn  -0.45101
gfz2015taml  -0.38949
gfz2015tbdn   0.10266
gfz2015tchx  -0.16341
gfz2015tdhb   0.29311
gfz2015teyc  -0.13790
gfz2015tezd   1.37290
gfz2015tflu  -0.29189
gfz2015tghj   0.10924
gfz2015thfm  -0.43594
gfz2015thgp  -0.79015
gfz2015thwg  -1.57670
gfz2015thwp  -0.19630
gfz2015tiyc  -1.93590
gfz2015tjys  -0.38056
gfz2015tkol  -3.22600
gfz2015tlkf   0.06461
gfz2015tlok  -0.68199
gfz2015tnjd  -0.54777
gfz2015tohm  -0.04891
gfz2015tojz  -0.15535
gfz2015totf  -1.11630
gfz2015tqff  -0.01923
gfz2015tqjf   1.58000
gfz2015truf  -0.18826
gfz2015tsdm  -0.94834
