# Nsamples: 36  MAD:  0.553  mean: -0.375  variance:  0.350
gfz2010usho  -0.84357
gfz2010xjsj  -0.69811
gfz2011aatr   0.32494
gfz2011dpqx  -0.28766
gfz2011enva   1.50730
gfz2011gkzt  -1.09450
gfz2011hlsa   0.16917
gfz2011jplh  -0.49701
gfz2011lcxq  -1.11910
gfz2011lzwj  -0.43433
gfz2011mdie  -0.18237
gfz2011ntkh  -0.48314
gfz2011rewa   0.04751
gfz2011toub  -0.94515
gfz2011wxfs  -0.27342
gfz2011wxtk  -0.50357
gfz2011xyxj  -0.23113
gfz2012czlw  -0.11545
gfz2012ekda  -1.13370
gfz2012enno   0.20611
gfz2012jlox  -0.76280
gfz2012kkup   0.10085
gfz2012kudo  -0.17423
gfz2012ldxg  -0.20962
gfz2012oazn  -0.62508
gfz2012sphd  -0.46070
gfz2012ttoa  -1.87410
gfz2012vrgb  -0.30425
gfz2012wypz   0.29538
gfz2013axoj   0.33823
gfz2013ccnr  -0.15062
gfz2013jkut  -0.39853
gfz2013ldqb   0.04967
gfz2013nwdi  -0.82135
gfz2013pfbx  -0.48010
gfz2013qmer  -1.42450
