# Nsamples: 98  MAD:  0.736  mean:  0.291  variance:  1.849
gfz2010bgth  -1.92860
gfz2010bxxs   0.47382
gfz2010czps   0.71396
gfz2010eaoy  -1.35380
gfz2010earu   0.24995
gfz2010eavs   1.45860
gfz2010eawb   1.40710
gfz2010eawu  -7.15160
gfz2010ecua   2.03750
gfz2010eell  -5.62490
gfz2010eisx   1.37050
gfz2010ekyc   0.54191
gfz2010eltf   0.27600
gfz2010elyc   1.64290
gfz2010evgf  -1.58140
gfz2010excp   1.30050
gfz2010exdd   1.09600
gfz2010ezck   1.05280
gfz2010fedq   2.23520
gfz2010gzxr  -0.06709
gfz2010hxgv   0.30370
gfz2010iull   1.41380
gfz2010rqwj   1.27030
gfz2010usho   1.14950
gfz2010ustq   0.25152
gfz2010utcg   0.94313
gfz2010vbmd  -0.78199
gfz2010xden   0.83408
gfz2011cykd   0.18252
gfz2011dcqb  -1.83980
gfz2011dpqx   0.48825
gfz2011enva   1.58530
gfz2011gkzt   0.50792
gfz2011hlqw  -0.10667
gfz2011hlsa   0.04219
gfz2011lcxq   0.87885
gfz2011lzwj   0.55928
gfz2011owvz   0.16518
gfz2011rewa   0.23514
gfz2011toub   0.66657
gfz2011wxfs   0.92658
gfz2012bpkx   0.33748
gfz2012enno   0.04382
gfz2012ewkj  -0.66925
gfz2012fzfa   1.44550
gfz2012jlox   0.54193
gfz2012kkup   0.44556
gfz2012klhx   0.46533
gfz2012kudo   0.69887
gfz2012ldxg  -0.65522
gfz2012rwov   0.83576
gfz2012sphd   0.59716
gfz2012wypz   0.74792
gfz2013ccnr   1.28580
gfz2013drxz   0.32882
gfz2013nkgj   0.57081
gfz2013nwdi   1.46980
gfz2013svci   0.76082
gfz2013tcxc  -3.83430
gfz2013vjjc   1.47750
gfz2014bwue   0.46067
gfz2014clnq  -0.14622
gfz2014fgvi   0.82758
gfz2014fhla  -0.14448
gfz2014ftka   1.72690
gfz2014gkgf   0.61650
gfz2014gkgl   0.84549
gfz2014gmhr  -0.28814
gfz2014gulp   1.30880
gfz2014lyhk  -1.77030
gfz2014ssvz  -0.40971
gfz2015chhn  -1.05280
gfz2015cyjd  -0.22623
gfz2015fkgt   0.01320
gfz2015fsjj   0.05496
gfz2015lhjy   0.48535
gfz2015lytv   0.21406
gfz2015sfdd   0.87905
gfz2015sfdh  -1.21910
gfz2015sfdl   0.72474
gfz2015sfdy   0.14049
gfz2015sfeo   1.66120
gfz2015sfmd   0.24363
gfz2015sfnb   0.98760
gfz2015sfno   0.27189
gfz2015sggc   0.23343
gfz2015sjgk   1.00100
gfz2015sldx  -0.67542
gfz2015smym   1.77820
gfz2015snwh   0.91863
gfz2015soat   1.29100
gfz2015soxc   1.14450
gfz2015svwm   1.45250
gfz2015taml   0.06689
gfz2015tiyc   0.30238
gfz2015tkol  -0.63951
gfz2015tlkf  -0.66923
gfz2015tnjd   1.43130
