# Nsamples: 216  MAD:  0.662  mean: -0.317  variance:  0.563
gfz2010aerk  -1.09260
gfz2010chnv  -0.61121
gfz2010ezax  -0.61396
gfz2010fmhb  -3.19500
gfz2010gzxr  -1.81210
gfz2010hrkr  -0.60334
gfz2010iciq  -0.63120
gfz2010iobp   0.42464
gfz2010iull   0.80895
gfz2010lczp  -0.02599
gfz2010mipi  -0.89278
gfz2010mkuu   0.10296
gfz2010nmpc  -1.17470
gfz2010nqwo  -2.04210
gfz2010nwef  -0.54543
gfz2010onma  -0.80786
gfz2010pfyu  -0.69633
gfz2010qpcq  -0.33706
gfz2010rqwj   0.14965
gfz2010sfee  -0.34038
gfz2010skqo  -0.16480
gfz2010sysw   0.22271
gfz2010upfb  -1.79890
gfz2010usho  -0.51312
gfz2010vtdg  -0.59983
gfz2011aatr  -0.41074
gfz2011adjs   0.63291
gfz2011bgrp  -0.60741
gfz2011dcqb  -1.27630
gfz2011dpqx  -0.34115
gfz2011enva   0.19818
gfz2011flgj  -0.49942
gfz2011fnsw  -1.41520
gfz2011gjlx  -1.31180
gfz2011gkzt  -1.06500
gfz2011hlqw  -0.82688
gfz2011hlsa  -0.90816
gfz2011hlth  -0.52024
gfz2011jplh  -0.40623
gfz2011lcxq  -0.23317
gfz2011lhls  -0.42969
gfz2011lzwj   0.08446
gfz2011mdie  -1.01710
gfz2011nrwv  -0.67650
gfz2011ntkh  -1.30330
gfz2011owvz   0.25388
gfz2011qvae   1.02630
gfz2011rewa  -0.76405
gfz2011rqui  -0.28244
gfz2011tkog   0.87675
gfz2011toub  -0.11113
gfz2011uepx   0.44067
gfz2011ujze  -0.74725
gfz2011vhfi   0.38802
gfz2011vrhg  -1.08400
gfz2011wxfs   0.53082
gfz2011xyxj  -0.68858
gfz2011yybo   0.10546
gfz2012bfah  -0.04640
gfz2012bpkx  -1.26930
gfz2012czlw   0.44263
gfz2012emjg   0.13440
gfz2012enno  -0.44044
gfz2012fzfa  -0.81478
gfz2012hnul  -0.43075
gfz2012jlox   0.23428
gfz2012jupx   0.60212
gfz2012kkup  -0.80371
gfz2012klhx  -1.01680
gfz2012kuct  -0.14146
gfz2012kudo  -0.51579
gfz2012ldxg  -0.03380
gfz2012minr  -0.47555
gfz2012mupa   0.41807
gfz2012nqnk  -1.00970
gfz2012omvo  -0.06866
gfz2012rqlg  -0.37035
gfz2012sphd  -0.52336
gfz2012syvl   0.43628
gfz2012teic  -0.35256
gfz2012ttoa  -0.72589
gfz2012uaqj  -0.62975
gfz2012vrgb  -0.32981
gfz2012wklq   2.40410
gfz2012wypz  -0.42409
gfz2013ccnr  -0.55968
gfz2013drpk   0.17740
gfz2013drxz  -0.74434
gfz2013iodt  -0.58158
gfz2013iunn  -0.57260
gfz2013jkut   0.90443
gfz2013kdeo   0.11322
gfz2013mwbh   0.24951
gfz2013nkgj  -0.00000
gfz2013nknw   0.42514
gfz2013nqgw  -0.82163
gfz2013nwdi  -0.60626
gfz2013pfbx  -0.64689
gfz2013qmer  -0.59847
gfz2013suvn  -0.74570
gfz2013svci   0.40420
gfz2013tusd  -0.39164
gfz2013tvmw   0.26313
gfz2013uauo  -1.10360
gfz2013vjjc   0.77495
gfz2013wjmm  -0.23950
gfz2013xsdt  -0.77798
gfz2014afmx  -0.85244
gfz2014ande  -1.00650
gfz2014arpf  -0.33134
gfz2014bwue  -0.06689
gfz2014bzxy  -0.33901
gfz2014chdv   0.73794
gfz2014czqi   0.00666
gfz2014fedd  -0.26913
gfz2014fgvi   0.22651
gfz2014fhla  -1.33870
gfz2014fhwx   0.12237
gfz2014fimn   0.25739
gfz2014fkmr   0.00294
gfz2014fnyg  -0.44335
gfz2014frdz   0.58464
gfz2014frez  -0.48126
gfz2014ftka   0.06689
gfz2014fval   0.83848
gfz2014gkgf  -0.08220
gfz2014gkgs  -0.58400
gfz2014gkhy   0.56880
gfz2014gkob   1.96620
gfz2014gkqf   0.05519
gfz2014glcu  -1.77100
gfz2014gltx   0.03378
gfz2014gmge   0.29669
gfz2014gmhr  -0.06735
gfz2014gmnb   0.26733
gfz2014gmnw  -0.09318
gfz2014goba   0.95938
gfz2014goqw   0.30036
gfz2014gqer   0.25584
gfz2014gull  -0.38168
gfz2014gwab   0.84999
gfz2014gxxo  -1.05520
gfz2014hagb  -0.74772
gfz2014hasj  -0.25698
gfz2014heyq   0.05769
gfz2014hgqo  -0.41275
gfz2014hjgh  -3.25530
gfz2014hjgr  -0.44249
gfz2014hkcf  -0.25656
gfz2014hkck   0.84306
gfz2014hocg  -0.42225
gfz2014hqxs  -1.55290
gfz2014huaj   0.14033
gfz2014hyvq  -0.07214
gfz2014inbj  -0.95466
gfz2014itkw  -0.11525
gfz2014jjhc  -0.10044
gfz2014jnyv  -0.10991
gfz2014jpep  -0.40992
gfz2014kitm  -0.35973
gfz2014kndc  -0.68444
gfz2014lgqn   1.18220
gfz2014lxnc  -1.26840
gfz2014lyhk  -0.43097
gfz2014lyhp  -0.43260
gfz2014macx  -2.57250
gfz2014ndue  -1.00230
gfz2014nqfm  -0.09002
gfz2014nrie   1.22240
gfz2014oinz  -0.55770
gfz2014owxc  -2.33620
gfz2014pvch  -0.44363
gfz2014qlxd   0.15252
gfz2014qqhm   0.63522
gfz2014rdsn   0.50610
gfz2014ssvz  -0.66749
gfz2014ubwn   0.86721
gfz2014vhms   0.91098
gfz2014watn  -0.23193
gfz2014wrkh   0.46519
gfz2015aruz   0.08994
gfz2015atxv  -0.41170
gfz2015berb  -0.72009
gfz2015chhn  -0.82244
gfz2015chqn   0.57906
gfz2015cxxk  -0.20156
gfz2015cyjd  -0.02701
gfz2015egxq  -0.52814
gfz2015fjhk  -0.15854
gfz2015fsjj   0.29296
gfz2015gckd  -0.92239
gfz2015ggjw  -0.28824
gfz2015igsy  -0.47126
gfz2015kquq  -0.38438
gfz2015kxxs   0.17788
gfz2015lhjy  -0.11280
gfz2015lytv   0.22131
gfz2015mddr   0.02002
gfz2015mpte   0.61316
gfz2015sfdd  -0.82280
gfz2015sfdy  -0.30950
gfz2015sfeo   0.71029
gfz2015sfhz  -1.37960
gfz2015sfnb   0.16817
gfz2015sfno  -1.09960
gfz2015sjgk  -1.34720
gfz2015sjoj  -0.16738
gfz2015sjvu  -1.16410
gfz2015smym  -0.45240
gfz2015snwh  -1.19840
gfz2015soat  -1.59170
gfz2015soxc  -0.69642
gfz2015svwm  -0.54041
gfz2015taml   0.30479
gfz2015tbdn  -0.96074
gfz2015tiyc  -0.86869
