# Nsamples: 122  MAD:  0.818  mean:  0.294  variance:  1.932
gfz2010bfzs   0.92908
gfz2010bgth  -1.92580
gfz2010bjeb   0.59960
gfz2010cqwl   0.73093
gfz2010czps   0.88059
gfz2010eaoy  -0.04985
gfz2010eapn  -5.14160
gfz2010eaqy   1.62190
gfz2010earu  -0.10068
gfz2010eawu  -1.02500
gfz2010ebhc  -0.61559
gfz2010ebnn   1.41350
gfz2010ebvm  -2.02970
gfz2010ebvv   0.14279
gfz2010ecua   0.96453
gfz2010edyi   6.65720
gfz2010eisx   5.94940
gfz2010ekyc  -0.94101
gfz2010eltf  -1.84120
gfz2010elyc   1.25800
gfz2010excp   0.88266
gfz2010exdd   1.85320
gfz2010ezck   0.59537
gfz2010fedq  -2.76760
gfz2010fync   0.85769
gfz2010gzxr   1.47420
gfz2010hxgv  -0.82520
gfz2010iull   0.92531
gfz2010nqwo   0.74710
gfz2010rqwj   0.50405
gfz2010upfb   0.33229
gfz2010usho   2.11190
gfz2010ustq   0.55180
gfz2010utcg   0.02132
gfz2010vzzz   1.35890
gfz2011bgrp   0.97151
gfz2011cykd  -0.45219
gfz2011dcqb   1.69960
gfz2011dpqx   0.34176
gfz2011hlqw  -0.28549
gfz2011hlsa  -0.37592
gfz2011hlth  -0.18469
gfz2011lcxq   0.22625
gfz2011lzwj   0.39964
gfz2011mdie   0.42561
gfz2011owvz  -1.02040
gfz2011rewa  -0.04027
gfz2011toub   0.45783
gfz2011vhfi  -0.03323
gfz2011vxns  -1.03490
gfz2011xyxj   0.41411
gfz2011yybo  -1.83310
gfz2012bfah  -0.15017
gfz2012bpkx  -0.66055
gfz2012enno  -0.15261
gfz2012fzfa  -0.43948
gfz2012jlox   0.70189
gfz2012jupx  -0.61787
gfz2012kkup   0.20387
gfz2012klhx  -0.04103
gfz2012kudo   0.52722
gfz2012ldxg  -0.84377
gfz2012sphd   0.72468
gfz2012ttoa  -0.97369
gfz2012uafg  -1.08150
gfz2012wklq   1.76560
gfz2012wxlg   2.70380
gfz2012wypz   0.63964
gfz2013ccnr   0.02758
gfz2013drxz  -0.04491
gfz2013hmbc  -3.29860
gfz2013nkgj   0.45252
gfz2013nwdi   0.09619
gfz2013svci   0.54417
gfz2013vjjc   2.62760
gfz2014bwue   0.64496
gfz2014fgvi   0.31542
gfz2014fhla   0.77427
gfz2014ftka  -1.40960
gfz2014gkgf  -0.06862
gfz2014gkgl  -0.45282
gfz2014gmhr   0.01381
gfz2014gnfs   2.78920
gfz2014goba   0.29065
gfz2014hocg   0.34663
gfz2014oinz   0.71642
gfz2015fkgt   1.54440
gfz2015lhjy   0.60884
gfz2015lytv  -1.04760
gfz2015sfdd   0.79620
gfz2015sfdl   1.10650
gfz2015sfdv   0.45229
gfz2015sfdy   0.08029
gfz2015sfeo   1.45580
gfz2015sfhz   0.03210
gfz2015sfiq   1.52240
gfz2015sfnb   0.26423
gfz2015sfno   1.18790
gfz2015sfoc   1.16320
gfz2015sfqr   1.48020
gfz2015sgdn   0.58196
gfz2015sggc  -0.67796
gfz2015sgmm  -0.77062
gfz2015shsz  -0.19643
gfz2015sjgk   0.57288
gfz2015sjne   1.60780
gfz2015sjoj   0.35366
gfz2015sjvu   0.28136
gfz2015sldx  -1.56060
gfz2015smym   1.12400
gfz2015snsf   0.47158
gfz2015snwh  -0.17387
gfz2015snyd   0.68300
gfz2015soat   0.65332
gfz2015soxc   0.82438
gfz2015stfy  -0.56362
gfz2015svwm   0.96273
gfz2015taml   0.40416
gfz2015tdcu   0.13356
gfz2015tiyc  -0.24927
gfz2015tkol  -2.78330
gfz2015tnjd   1.06610
