# Nsamples: 23  MAD:  0.301  mean:  0.542  variance:  0.471
gfz2010iull   0.43684
gfz2010nmpc   0.42708
gfz2011aatr   0.48328
gfz2011enva   1.29380
gfz2011hlqw  -0.07108
gfz2011hlsa   0.24482
gfz2011lcxq  -0.18423
gfz2011lzwj   0.05326
gfz2011rewa   0.63998
gfz2012enno   0.45886
gfz2012jlox  -0.48177
gfz2012kkup   0.55247
gfz2012klhx   0.22504
gfz2012kudo   0.62329
gfz2012wypz   1.45700
gfz2013drxz   0.63201
gfz2013nwdi   0.16425
gfz2013svci   0.00000
gfz2014fgvi   0.33916
gfz2014gkgf   0.26499
gfz2014gmhr   2.93290
gfz2015sfdd   0.58429
gfz2015sfdy   1.39640
