# Nsamples: 58  MAD:  0.575  mean: -0.865  variance:  1.282
gfz2010bxxs  -1.10610
gfz2010cqwl  -0.64870
gfz2010grjd  -1.75330
gfz2010iull  -0.48670
gfz2010jucj  -4.70270
gfz2010nmpc  -1.44950
gfz2011aatr  -0.91161
gfz2011enva  -1.18600
gfz2011hlqw  -0.73753
gfz2011hlsa  -1.13790
gfz2011lcxq  -1.99550
gfz2011lzwj  -0.96376
gfz2011rewa  -0.93276
gfz2011toub  -1.19460
gfz2011wxfs  -0.92672
gfz2012ilxh   2.91520
gfz2012kkup  -1.32330
gfz2012klhx  -1.49680
gfz2012kuct  -2.20480
gfz2012kudo  -1.29740
gfz2012teic  -0.95688
gfz2012vrgb  -1.06330
gfz2012wypz  -0.90011
gfz2013ccnr   0.28094
gfz2013drxz  -1.31650
gfz2013nwdi  -1.56370
gfz2013svci  -0.77338
gfz2014fgvi  -0.77621
gfz2014fhla  -2.48410
gfz2014ftka  -2.08790
gfz2014gkgf   0.14885
gfz2014gkqf  -0.54830
gfz2014gmge  -0.86373
gfz2014gmhr   0.75693
gfz2014gmnb  -0.03919
gfz2014goba   0.40913
gfz2014hasj  -1.88580
gfz2014hqxs   0.79213
gfz2014jjhc  -0.27866
gfz2014lkyf  -4.30570
gfz2014lxnc  -0.93085
gfz2014ncub  -0.28800
gfz2014nqfm  -0.94454
gfz2015cxrc  -0.83834
gfz2015cyjd   0.55863
gfz2015fsjj  -1.23560
gfz2015fwkq  -1.08780
gfz2015lhjy  -1.06450
gfz2015sfdd  -0.01948
gfz2015sfdy  -0.83075
gfz2015sfno   0.94012
gfz2015smym  -1.06550
gfz2015snwh  -1.38780
gfz2015soxc  -0.16976
gfz2015sspn   0.89708
gfz2015svwm  -0.89553
gfz2015taml   0.17400
gfz2015tiyc  -0.96554
