# Nsamples: 19  MAD:  0.606  mean:  0.501  variance:  0.468
gfz2010bxxs   0.84227
gfz2010iull   0.50316
gfz2010nmpc   0.09473
gfz2010usho   1.09710
gfz2011cvcg   2.40430
gfz2011gkzt  -0.12099
gfz2011toub   0.49100
gfz2012enno   0.05009
gfz2012jlox  -0.57654
gfz2012kudo   0.36131
gfz2012ldxg  -0.76378
gfz2013drxz   1.24790
gfz2013pfbx   0.22922
gfz2013ypdc   1.01530
gfz2014gkqf   0.57399
gfz2014ssvz   0.72402
gfz2015lhjy   0.60811
gfz2015mpte   0.73151
gfz2015snmg   0.00000
