# Nsamples: 986  MAD:  0.807  mean:  0.313  variance:  0.939
gfz2010aerk  -1.03800
gfz2010ahla   0.91956
gfz2010ahqi   0.11578
gfz2010awfi  -0.26614
gfz2010bgth  -0.18584
gfz2010bifb  -1.25020
gfz2010bjeb  -0.57616
gfz2010bkob  -0.52984
gfz2010bkos   0.17943
gfz2010bowy   0.53857
gfz2010boxo   0.78801
gfz2010bxxs   0.93896
gfz2010caft   0.23841
gfz2010cbkg  -0.47547
gfz2010cdbt   1.04830
gfz2010cjqh  -0.44793
gfz2010ckeu   1.71470
gfz2010ckzm   2.80730
gfz2010cnwc   0.51227
gfz2010cqwl   0.62194
gfz2010cres  -0.34926
gfz2010czps   0.69921
gfz2010dfru  -0.05090
gfz2010dlgc   0.28596
gfz2010eaoy   0.68967
gfz2010eapk  -0.38333
gfz2010eaqe  -1.32650
gfz2010eaqx   0.51211
gfz2010eaqy   0.78712
gfz2010earu   0.03263
gfz2010easf   0.83532
gfz2010easo   0.44580
gfz2010easu  -0.02090
gfz2010eati   0.46090
gfz2010eaty  -0.03981
gfz2010eaul   0.28040
gfz2010eavs   1.84230
gfz2010eawb   0.77875
gfz2010eawu   0.11389
gfz2010eaze   0.32468
gfz2010eazu   1.24950
gfz2010ebbd   0.13762
gfz2010ebeh  -1.40250
gfz2010ebfa  -0.10601
gfz2010ebfx  -0.94525
gfz2010ebhc   0.07510
gfz2010ebih  -0.82021
gfz2010ebin  -1.35700
gfz2010ebjy  -0.15896
gfz2010ebkj   0.29368
gfz2010ebll   0.10858
gfz2010ebmb  -0.07687
gfz2010ebmi  -0.09531
gfz2010ebnn   0.26770
gfz2010ebrm  -0.00216
gfz2010ebsv   1.13920
gfz2010ebvm  -0.66197
gfz2010ebvv  -0.15604
gfz2010ebwp   0.49837
gfz2010ebxl  -0.51370
gfz2010ebzk  -0.92826
gfz2010ebzr   0.19280
gfz2010ecam   0.63013
gfz2010ecbi  -0.05915
gfz2010eccq   1.48630
gfz2010eced   0.86832
gfz2010echc  -0.35798
gfz2010echt   6.94390
gfz2010echy  -0.42073
gfz2010ecls   2.05530
gfz2010ecps   0.39037
gfz2010ecsp  -3.38270
gfz2010ecua  -0.30786
gfz2010ecvt  -0.50348
gfz2010edat   0.73496
gfz2010edbz  -0.24584
gfz2010edcp  -0.11106
gfz2010edhr  -0.53876
gfz2010edim  -0.41218
gfz2010edji   0.07153
gfz2010edqh  -0.30135
gfz2010edsk   0.07731
gfz2010edsn   1.03290
gfz2010edvf  -0.37141
gfz2010edyi  -1.23500
gfz2010edzb  -0.50251
gfz2010eeij   1.30100
gfz2010eekq   0.48326
gfz2010eern  -0.08895
gfz2010eevu   0.79671
gfz2010efbh   1.47350
gfz2010efbi   0.54400
gfz2010efls   0.02196
gfz2010efnf  -0.40262
gfz2010efsq   0.67700
gfz2010efwo  -2.64470
gfz2010efxf  -0.88498
gfz2010egap   0.18138
gfz2010egld   0.55690
gfz2010egmp  -0.40945
gfz2010egsy  -1.49710
gfz2010ehaj  -1.18100
gfz2010ehft   0.13760
gfz2010eimf  -0.86870
gfz2010eioi   0.31563
gfz2010eisx  -1.58570
gfz2010eixj  -0.26391
gfz2010ejco  -0.74927
gfz2010ejjg  -0.61231
gfz2010ejju  -1.47710
gfz2010ejka  -0.08410
gfz2010ekoe  -0.22385
gfz2010ekrv   0.97728
gfz2010ekyc  -0.20268
gfz2010elhv   0.39088
gfz2010elin   0.62316
gfz2010eltf  -0.07452
gfz2010elvp  -0.60079
gfz2010elxi   1.27270
gfz2010elyc  -0.28796
gfz2010elyo  -0.73308
gfz2010elzf  -1.10130
gfz2010emoz  -0.77605
gfz2010emyz   2.47480
gfz2010enzl  -0.09669
gfz2010eoao  -0.68760
gfz2010eomb  -0.44817
gfz2010epbe  -0.19523
gfz2010epud   0.10993
gfz2010epxj   0.03984
gfz2010epzk  -0.14459
gfz2010eqcn   0.63403
gfz2010eqjg   0.33090
gfz2010eqmu  -2.38610
gfz2010eqwl   0.10649
gfz2010erdi   0.57206
gfz2010erkn  -0.04592
gfz2010ermi   2.09490
gfz2010erom   0.35525
gfz2010erum   0.09333
gfz2010eruy  -1.64390
gfz2010erwn   0.52377
gfz2010esid  -1.38370
gfz2010euae   0.66439
gfz2010euan  -0.31022
gfz2010eujm  -0.53548
gfz2010euvl  -0.53249
gfz2010euwb   3.64780
gfz2010evco   1.15510
gfz2010ewvc  -0.25399
gfz2010excp   0.33261
gfz2010exdd  -0.06861
gfz2010exdl   0.24251
gfz2010exgb   0.02794
gfz2010exhd  -0.39604
gfz2010exmc  -0.09624
gfz2010exno  -0.23085
gfz2010exqu  -0.27574
gfz2010exyp  -0.73676
gfz2010eyaz  -0.05864
gfz2010eyhh  -0.68642
gfz2010eyiv  -0.94194
gfz2010eyvq  -0.61583
gfz2010eyxe  -0.37129
gfz2010ezax  -0.34787
gfz2010ezck   0.09363
gfz2010ezvt  -0.38233
gfz2010ezwz  -0.25693
gfz2010fauz  -0.37198
gfz2010fcxy   0.99894
gfz2010fcyj  -0.21443
gfz2010fedq  -0.30234
gfz2010fexw   0.01862
gfz2010ffhq   0.56449
gfz2010ffjb  -0.21430
gfz2010fika   0.92776
gfz2010fkhd  -1.12730
gfz2010fknh   0.05007
gfz2010fkvg  -0.62722
gfz2010flha  -1.01740
gfz2010flrt  -0.33987
gfz2010fmpy   0.14821
gfz2010fnrk   6.59510
gfz2010fona   0.03876
gfz2010fpqy   0.05486
gfz2010fqdu  -0.43987
gfz2010fser  -0.54121
gfz2010ftlm   1.73560
gfz2010fupn  -0.07512
gfz2010fuuy  -0.82678
gfz2010fuwa  -0.23229
gfz2010fvuc   0.17690
gfz2010fwlb   0.44758
gfz2010fwzd   0.17891
gfz2010fync  -0.13721
gfz2010fzoi  -0.07117
gfz2010gcrl  -0.81486
gfz2010gcrp  -0.76524
gfz2010gdld  -0.88871
gfz2010gjia   2.41330
gfz2010gjvo   0.38690
gfz2010gmib   0.40375
gfz2010grjd   0.35789
gfz2010grss   0.48303
gfz2010gyqp  -0.05518
gfz2010gzxr  -0.40689
gfz2010hcio   0.36638
gfz2010hevz  -0.29985
gfz2010hjoc   1.40870
gfz2010hlmq  -0.57729
gfz2010hlvr  -0.04014
gfz2010hnnf  -0.42297
gfz2010hnpi  -0.30930
gfz2010hptz  -0.16296
gfz2010hrkr   0.81164
gfz2010hxgv  -0.31733
gfz2010hxhe  -0.11202
gfz2010ibiy  -0.23200
gfz2010iciq   1.47410
gfz2010icqq  -0.61670
gfz2010ijtk   0.49481
gfz2010imfv   0.27952
gfz2010imsh   0.12102
gfz2010iobp   0.29996
gfz2010irvf  -0.44856
gfz2010ited  -0.42719
gfz2010iull   1.62160
gfz2010izzj   0.48818
gfz2010jpss  -2.70600
gfz2010jucj   0.08094
gfz2010jxbm  -0.26769
gfz2010jygz   1.02210
gfz2010kdyc  -0.33121
gfz2010kihf  -0.67235
gfz2010kmgg   0.26236
gfz2010kqyh  -0.10364
gfz2010kyen  -0.89568
gfz2010lcoq   2.18850
gfz2010lczp   1.40860
gfz2010lfju  -0.46493
gfz2010lluj  -0.97902
gfz2010lopz  -0.09476
gfz2010lyfk  -0.37938
gfz2010mipi   0.60564
gfz2010miqn  -1.77700
gfz2010mkuu   0.21185
gfz2010mncc  -0.77795
gfz2010msjj   0.67235
gfz2010muca   0.97042
gfz2010ncrl  -0.69477
gfz2010nmpc  -0.69597
gfz2010nnny   3.62210
gfz2010nqwf  -0.17808
gfz2010nqwo   0.16306
gfz2010nrjo  -0.62188
gfz2010ntuo  -0.05465
gfz2010nubk  -0.24895
gfz2010nwef  -0.53120
gfz2010nzla  -1.07530
gfz2010okdm  -1.06600
gfz2010onma   0.08372
gfz2010oyqy  -0.11243
gfz2010pcxi  -0.39274
gfz2010pexf  -0.71263
gfz2010pfyu   0.56822
gfz2010phvg  -1.01670
gfz2010pxak   1.17260
gfz2010pxgh  -0.96276
gfz2010qpcq  -0.54084
gfz2010rkfp  -0.35153
gfz2010rqwj  -0.23866
gfz2010rxjw  -3.44400
gfz2010rywq   0.75405
gfz2010rzsd   0.04595
gfz2010sfee  -0.50179
gfz2010sfla  -0.06623
gfz2010skqo  -0.46095
gfz2010skve  -0.16224
gfz2010srdb  -0.20200
gfz2010swcy  -0.50705
gfz2010sxfq   0.58791
gfz2010sysw   1.54020
gfz2010tcbr   0.17675
gfz2010tcrl  -1.37580
gfz2010truw  -0.58864
gfz2010upfb   0.40252
gfz2010upiw  -0.43884
gfz2010urlq   0.36050
gfz2010usho  -0.43590
gfz2010ustq  -0.37821
gfz2010utcg  -0.34432
gfz2010utmc  -0.18899
gfz2010utvp   0.67514
gfz2010vhuj  -0.07554
gfz2010vppc   0.22552
gfz2010vtdg   0.04378
gfz2010vyxd   0.60311
gfz2010vzpr  -0.57375
gfz2010wioh  -1.14120
gfz2010wnty   1.93340
gfz2010wntz   2.17330
gfz2010wofs   1.64570
gfz2010wrxx  -0.50118
gfz2010xbcr  -0.45555
gfz2010xden   0.41413
gfz2010xgzw   0.16701
gfz2010xjck  -0.46387
gfz2010xjsj   0.06948
gfz2010xnxk   0.62197
gfz2010xxzn   1.46420
gfz2010yjev  -0.60216
gfz2010ymur   0.27790
gfz2011aatr   0.65682
gfz2011adjs   0.02857
gfz2011ahfw  -0.89433
gfz2011aldv  -0.08547
gfz2011alip  -0.35934
gfz2011alsa  -0.16455
gfz2011alwf  -2.06180
gfz2011aqxf  -0.45156
gfz2011asru   0.78977
gfz2011bgrp  -0.08487
gfz2011bhha  -0.68267
gfz2011blsi  -0.46411
gfz2011bpkd  -0.40971
gfz2011ccpw   2.69420
gfz2011cndo   0.36994
gfz2011crdy   1.95430
gfz2011csju  -0.91943
gfz2011ctbn   0.11933
gfz2011cvcg  -0.33461
gfz2011cvfg  -1.06080
gfz2011cykd  -0.51926
gfz2011cynl  -0.05050
gfz2011cyre  -0.69205
gfz2011cyuk  -0.63558
gfz2011dbev  -0.78663
gfz2011dbig  -0.51368
gfz2011dbon  -0.21057
gfz2011dcqb   1.20800
gfz2011deaf  -0.74616
gfz2011deja   0.20828
gfz2011dkyi   0.45483
gfz2011dlyx  -0.08813
gfz2011dpaa   0.24082
gfz2011dpqx   1.06610
gfz2011duyr  -0.29476
gfz2011eayc   0.44122
gfz2011ecaj  -0.25914
gfz2011edmm  -0.62960
gfz2011efgv   0.20620
gfz2011ejlp   0.60766
gfz2011eltw   3.83220
gfz2011enva   0.60979
gfz2011etje   1.79040
gfz2011fgvr  -0.23787
gfz2011fhag   1.82030
gfz2011fhur   0.13963
gfz2011fkbn  -0.02629
gfz2011flgj  -0.07299
gfz2011fnsw  -0.73953
gfz2011gbmx  -0.51067
gfz2011gcwb  -0.12691
gfz2011gdgh  -0.10215
gfz2011ggvf  -0.38148
gfz2011gkey   0.02123
gfz2011gkzt  -0.56445
gfz2011haid  -0.11566
gfz2011hbex   0.16056
gfz2011hebt  -0.59733
gfz2011hfkj  -0.52138
gfz2011hlqw  -0.75095
gfz2011hlsa  -0.53885
gfz2011hlth  -0.51801
gfz2011hpgx   0.43340
gfz2011hpqp   0.34970
gfz2011hrhe   0.66966
gfz2011hvbu  -0.63534
gfz2011ieie   0.78251
gfz2011iwte  -0.35582
gfz2011ixai   3.46800
gfz2011izqa  -0.52184
gfz2011jdsj  -0.05540
gfz2011jmbn   0.79421
gfz2011jplh   0.48435
gfz2011jtlg  -0.09684
gfz2011knbi   0.07493
gfz2011kqwo  -0.06004
gfz2011kqyg  -0.57325
gfz2011kxzp  -0.17574
gfz2011lcxq   0.80078
gfz2011lhls   0.03884
gfz2011lvjr  -0.39829
gfz2011lzwj   0.88796
gfz2011mdie   0.55241
gfz2011mjom   0.70489
gfz2011mpme   0.14456
gfz2011mprq   0.40527
gfz2011nauw  -0.59323
gfz2011nmnq  -1.13760
gfz2011nmqj   3.03940
gfz2011nrwv  -0.45112
gfz2011ntkh   0.20124
gfz2011nudm  -0.57872
gfz2011ohcy  -0.23464
gfz2011oiqe   0.23670
gfz2011oiwk   0.89909
gfz2011olkk   0.65879
gfz2011orgn  -0.44923
gfz2011ornx  -0.20358
gfz2011owvz   0.10350
gfz2011pccd  -1.74840
gfz2011qvae  -0.05578
gfz2011qyms   0.54726
gfz2011rewa  -0.11963
gfz2011rgwp   0.49034
gfz2011rqui   0.78762
gfz2011rsrh  -0.84643
gfz2011rznl  -0.97733
gfz2011sagt   0.94511
gfz2011sawg   0.12366
gfz2011shqm   0.70091
gfz2011svix   2.27970
gfz2011tbas  -0.57855
gfz2011tivu  -0.67291
gfz2011tjue   0.55077
gfz2011tkog  -0.15509
gfz2011toub   1.07150
gfz2011tpbl  -1.15340
gfz2011tpfr  -0.92472
gfz2011tsfd  -0.27716
gfz2011udsq  -0.74329
gfz2011uepx   2.50880
gfz2011ujze   0.27973
gfz2011ukmp   1.05880
gfz2011uphh   0.18032
gfz2011vhfi   0.08134
gfz2011vnza  -0.12647
gfz2011vqnr   0.13620
gfz2011vrhg  -0.17126
gfz2011vxns  -1.49160
gfz2011vxod  -0.90233
gfz2011wcic  -0.34388
gfz2011wfja   3.02070
gfz2011wjul   1.17360
gfz2011wvzb   0.75624
gfz2011wwjs  -0.40227
gfz2011wxfs   1.03940
gfz2011wxtk   0.49958
gfz2011xqru   2.77820
gfz2011xyxj   0.69420
gfz2011zqhh   0.66610
gfz2012bfah   0.20425
gfz2012bfyn   2.99860
gfz2012bpkx  -0.23254
gfz2012bpwl   0.11392
gfz2012bszs   1.61050
gfz2012byad   0.33399
gfz2012cgvr   2.07780
gfz2012cnod   0.26141
gfz2012cxdn  -0.33152
gfz2012czlw   1.84710
gfz2012deri  -0.80403
gfz2012dyyh   0.80461
gfz2012ekda  -0.49198
gfz2012ekzf  -0.63798
gfz2012elce  -0.57654
gfz2012emjg   0.10053
gfz2012enno   0.35947
gfz2012ewgo   1.23930
gfz2012ezvr  -0.43716
gfz2012fbfo  -1.32290
gfz2012fwfo   0.84526
gfz2012fwob   1.08760
gfz2012fwtr   1.68540
gfz2012fzfa   0.37741
gfz2012gill  -0.99432
gfz2012gnvh   0.55690
gfz2012gocc  -0.32057
gfz2012gomm  -0.61665
gfz2012gwqb   0.75336
gfz2012hnul   0.06426
gfz2012hwmz   0.02145
gfz2012hzbe  -0.14839
gfz2012iivw   0.74888
gfz2012ilvn   0.02034
gfz2012iyrb   0.62531
gfz2012jgvj  -0.73286
gfz2012jlox   1.00430
gfz2012jted  -1.05470
gfz2012jupx   0.31768
gfz2012keor  -0.94987
gfz2012kkcp  -1.04900
gfz2012kkup  -0.16810
gfz2012klhx  -0.27898
gfz2012kuct   0.41682
gfz2012kudo   0.42012
gfz2012kwgo   0.61118
gfz2012lczo  -0.02840
gfz2012ldxg   0.79007
gfz2012ldzj  -0.43042
gfz2012llug  -0.35541
gfz2012lpvn  -0.90770
gfz2012minr  -0.22572
gfz2012mupa  -0.21998
gfz2012mwij   0.85241
gfz2012naqz  -0.47428
gfz2012nbtn   0.65594
gfz2012nojx   3.00160
gfz2012nolo   0.98024
gfz2012nqnk   0.26339
gfz2012nsbz   2.32080
gfz2012oazn   0.62399
gfz2012omvo  -0.68846
gfz2012pkel   0.05817
gfz2012pspd  -0.33658
gfz2012rats  -0.65260
gfz2012ronz   1.51400
gfz2012royy   0.07250
gfz2012rqlg  -0.79454
gfz2012rwko   0.21543
gfz2012rwov   0.84189
gfz2012sphd   0.62737
gfz2012sqmv  -0.18475
gfz2012svpr   0.33977
gfz2012syvl   0.20211
gfz2012szla  -0.58882
gfz2012teic   0.17739
gfz2012tmop   3.06380
gfz2012ttoa  -0.04809
gfz2012tvmv  -0.10757
gfz2012tzcc   0.22969
gfz2012uaqj   0.14466
gfz2012uciv  -0.26121
gfz2012uhup   0.11696
gfz2012uqzp  -0.42526
gfz2012uvqf   0.45907
gfz2012uyie   0.33093
gfz2012vceo  -0.76340
gfz2012vpza  -0.48347
gfz2012vrgb   1.18380
gfz2012vsev  -1.00310
gfz2012whku   0.27949
gfz2012wklq  -0.73483
gfz2012wmsg  -0.34874
gfz2012wpeq   3.55490
gfz2012wtkh   0.56598
gfz2012wtkr  -0.18387
gfz2012wvfl   0.15638
gfz2012wxer   0.79215
gfz2012wxlg  -0.64852
gfz2012wxnu   1.29520
gfz2012wypz   0.21628
gfz2012xbjq   0.55650
gfz2012xjyv  -0.33328
gfz2012xyqp  -0.32504
gfz2012yxxu  -0.21700
gfz2012zfag  -0.17907
gfz2012zitl  -0.06834
gfz2012zjpv  -0.04242
gfz2013aahq  -0.00000
gfz2013aayj  -0.69898
gfz2013aknp   0.28638
gfz2013aqaw  -0.08800
gfz2013axoj  -0.03419
gfz2013bokp  -0.90104
gfz2013btjm   1.37970
gfz2013ccnr  -1.33670
gfz2013cwpn   0.94795
gfz2013dofo   0.32682
gfz2013drpk  -0.39477
gfz2013drxz  -0.30715
gfz2013dspt   4.92630
gfz2013dsrk   4.39560
gfz2013dvyh  -0.86025
gfz2013egni   1.11230
gfz2013egpu  -1.04190
gfz2013fiud   0.30179
gfz2013fkii   0.50762
gfz2013fnzr  -1.96710
gfz2013gdgf  -0.40311
gfz2013gdnq  -0.24740
gfz2013gock   0.56573
gfz2013iayx   1.39400
gfz2013ifpq   0.81375
gfz2013ippu   0.34437
gfz2013iqzq   0.72094
gfz2013iunn  -0.11934
gfz2013jesk  -0.28631
gfz2013jgij   0.22804
gfz2013jgip  -0.25623
gfz2013jkut   2.17810
gfz2013kdeo   0.65791
gfz2013ldpc  -0.19101
gfz2013ldqb  -0.58507
gfz2013lixa  -0.15173
gfz2013lyko   0.06313
gfz2013mqmv   1.95160
gfz2013mwbh   0.20248
gfz2013nabl  -0.18223
gfz2013ncjp  -0.17267
gfz2013ndin   0.20158
gfz2013nmac  -0.74137
gfz2013nqgw  -0.62293
gfz2013nwdi   0.96088
gfz2013ogde  -0.85085
gfz2013oifr   0.61957
gfz2013oilg   0.23134
gfz2013oinc   0.13462
gfz2013ojti   0.86057
gfz2013pfbx   0.88586
gfz2013pxya  -0.16454
gfz2013qali   0.73036
gfz2013qcck  -0.15745
gfz2013qfmm  -0.49245
gfz2013qmer   0.39955
gfz2013qzdq   0.08896
gfz2013roki   1.13860
gfz2013rwfe   0.05404
gfz2013sdus   0.85632
gfz2013sfds  -0.10679
gfz2013skkm   0.19929
gfz2013suvn  -0.04096
gfz2013svci   2.02280
gfz2013tcxc   0.07561
gfz2013tcxq   0.01580
gfz2013tdau   0.34942
gfz2013toxf   1.09010
gfz2013tusd   0.41102
gfz2013tvmw   0.40757
gfz2013txev   1.65410
gfz2013tyas  -0.95470
gfz2013uauo  -0.85200
gfz2013ufxk   0.89156
gfz2013ufxm   1.78280
gfz2013uqvu   0.75237
gfz2013vexx   1.69960
gfz2013vfyw  -0.76041
gfz2013vfzp  -1.49450
gfz2013viul   0.45016
gfz2013vjjc   0.96459
gfz2013vvrq   0.02989
gfz2013vzbo   0.71853
gfz2013wjmm   1.14830
gfz2013wkyk   3.19770
gfz2013wnql   0.54103
gfz2013wtzl   0.96711
gfz2013xizq  -0.46329
gfz2013xmul   0.99973
gfz2013xsdt  -0.40410
gfz2013xxxq   1.19030
gfz2013yach   2.29960
gfz2013yctg  -0.41542
gfz2013yhbu   0.63786
gfz2013ypdc   0.83038
gfz2013yqkv   0.44927
gfz2014adoj   0.50330
gfz2014afmx   0.03942
gfz2014ajlk   0.75878
gfz2014ajtf   0.39490
gfz2014algk   0.95236
gfz2014ande   1.15590
gfz2014arpf  -0.03519
gfz2014azqs   0.45817
gfz2014bbro   0.84298
gfz2014bezu   0.49725
gfz2014bfng   0.85183
gfz2014bwue   0.37523
gfz2014bzxy  -0.15229
gfz2014chdv   2.29390
gfz2014cmwb   0.79115
gfz2014cvxx   0.08200
gfz2014czqi   0.23726
gfz2014czua   0.20506
gfz2014dhxt  -0.55211
gfz2014ehsf   0.48315
gfz2014enhi  -1.52930
gfz2014eqpl   1.44280
gfz2014femz   0.36919
gfz2014fexu   0.41377
gfz2014ffdc  -0.01703
gfz2014fgvi   1.05540
gfz2014fgvz   2.11620
gfz2014fgxt   0.59604
gfz2014fgxz   0.42919
gfz2014fgyo   0.88147
gfz2014fgza   0.76573
gfz2014fhbd   1.13810
gfz2014fhdw   0.81456
gfz2014fhhp   1.17030
gfz2014fhla  -0.10068
gfz2014fhlh  -0.09620
gfz2014fhrq   1.24570
gfz2014fhsg   1.45500
gfz2014fhwx   1.00710
gfz2014fhxm   0.73234
gfz2014fimn   1.05250
gfz2014fjpb   0.32323
gfz2014fjzd   0.95515
gfz2014fkmr   0.23942
gfz2014fkmx   1.09720
gfz2014fnyg   0.29586
gfz2014frdz   0.69454
gfz2014frez   0.47648
gfz2014frjr   0.82959
gfz2014frwh   0.65415
gfz2014ftka   0.08397
gfz2014ftoc   0.37602
gfz2014ftrk   1.25130
gfz2014furx   0.73935
gfz2014fusc   0.84530
gfz2014fusj   0.76028
gfz2014fuub   1.23150
gfz2014fuup   0.82113
gfz2014fval   1.46440
gfz2014fvgh   0.49817
gfz2014fvpy   0.48116
gfz2014fvrg   0.56907
gfz2014fwtt   0.62002
gfz2014fzgx   0.95612
gfz2014gbcz   0.09754
gfz2014gbdq  -1.32440
gfz2014geuy   0.43369
gfz2014gezs  -0.53036
gfz2014gfdj   1.13520
gfz2014ghpe  -0.96035
gfz2014gilf  -0.30630
gfz2014gkgf   0.07047
gfz2014gkgs   1.89810
gfz2014gkhy   0.86592
gfz2014gkjl   1.12600
gfz2014gkjt   0.27822
gfz2014gkjy  -2.27780
gfz2014gklq   0.08474
gfz2014gklv   0.39812
gfz2014gkmm   0.79771
gfz2014gkob   0.97274
gfz2014gkok   1.66410
gfz2014gkpd   0.56618
gfz2014gkpj  -0.04584
gfz2014gkqf   1.41850
gfz2014gkqu   0.56806
gfz2014gkrz  -0.18117
gfz2014gksu   0.99325
gfz2014gktn  -2.90930
gfz2014gktq   0.65297
gfz2014gkxm   1.20950
gfz2014glcu   0.98570
gfz2014glcy   0.65855
gfz2014glgo  -0.57727
gfz2014glhs   0.62812
gfz2014gltx   1.12580
gfz2014glvu   0.65700
gfz2014glxd   0.75456
gfz2014glxy   0.50555
gfz2014gmci   0.67899
gfz2014gmge   0.42973
gfz2014gmhp   0.98533
gfz2014gmhr  -0.16974
gfz2014gmip   3.01690
gfz2014gmjo   1.38210
gfz2014gmku   1.25560
gfz2014gmlz   0.78072
gfz2014gmmk   1.60210
gfz2014gmmt   1.22980
gfz2014gmnb   0.92125
gfz2014gmnw   1.27800
gfz2014gmpy   0.40313
gfz2014gmrj   2.60540
gfz2014gmtb   1.38530
gfz2014gmuk   1.50460
gfz2014gmvr   1.00310
gfz2014gmzl   0.95766
gfz2014gnfd   0.80096
gfz2014gnfs   0.48561
gfz2014gngg   0.95556
gfz2014gnmx   0.05351
gfz2014gnnt   1.05940
gfz2014gnqt  -1.22070
gfz2014gnre   1.99480
gfz2014gnwg  -0.17220
gfz2014gnxb   0.74545
gfz2014goba   0.89869
gfz2014gogv   0.42914
gfz2014gohm   0.32006
gfz2014goqw   1.27980
gfz2014goyx  -0.01628
gfz2014gpce   1.12620
gfz2014gphr   0.79018
gfz2014gpuk   0.99261
gfz2014gpvk   0.44575
gfz2014gpxl   0.85559
gfz2014gpxv   0.65458
gfz2014gpya   1.19340
gfz2014gqbj   1.60650
gfz2014gqer   2.47750
gfz2014gqgf   1.26070
gfz2014gqiy   0.40670
gfz2014gqqz   0.83659
gfz2014gqve   1.00730
gfz2014grfp   0.69095
gfz2014grho   2.48480
gfz2014gsqs   1.98830
gfz2014gtwz  -0.73768
gfz2014gufl  -1.36600
gfz2014gull   1.03350
gfz2014gulp  -0.13242
gfz2014gumd   0.25584
gfz2014gutm  -0.03456
gfz2014gvhw   1.48160
gfz2014gvqj   0.10774
gfz2014gvra  -0.12736
gfz2014gvrd   0.60205
gfz2014gwab   2.03070
gfz2014gxkh   1.24770
gfz2014gxxh   0.55605
gfz2014gxxo   1.17930
gfz2014gyxd   0.87390
gfz2014gzue   1.11290
gfz2014haey   1.05660
gfz2014hagb   1.13590
gfz2014hauo   0.77643
gfz2014hbjz   0.76457
gfz2014hbqb   1.05230
gfz2014hcmj   0.08262
gfz2014hhwx   0.49136
gfz2014hifp   0.70557
gfz2014hjgh   0.68159
gfz2014hjgo   0.79315
gfz2014hjgr   0.90970
gfz2014hjhu   0.82157
gfz2014hjij   0.82043
gfz2014hjlx   0.56707
gfz2014hkcf   1.19640
gfz2014hkck   0.65481
gfz2014hmrs   0.09172
gfz2014hoap   0.54965
gfz2014hocg   0.47177
gfz2014hphw   1.29620
gfz2014hpqz   0.20128
gfz2014hqxs   0.14268
gfz2014hqyx   1.29390
gfz2014huaj   1.20970
gfz2014hyvq   1.75270
gfz2014hzfw   0.17082
gfz2014hzgn   1.77610
gfz2014iani   0.86570
gfz2014ifue   0.28214
gfz2014ifzj   1.36120
gfz2014imnn   1.02030
gfz2014ixga   0.67533
gfz2014jggm   0.81579
gfz2014jjhc   0.32750
gfz2014jjln   1.43780
gfz2014jjqk   1.83050
gfz2014jmnk  -0.26517
gfz2014jnyv   0.52402
gfz2014jomw  -1.50270
gfz2014jpep   0.79994
gfz2014jpez   0.87152
gfz2014jpgu   1.19470
gfz2014jwmh   0.57273
gfz2014khan   0.39470
gfz2014kitm   0.40903
gfz2014kjzb   0.52481
gfz2014kkhh   1.56320
gfz2014kndc   0.49522
gfz2014knxs   0.34672
gfz2014kwrg   1.00880
gfz2014kxqf   1.19980
gfz2014kyan   0.72602
gfz2014kytf   0.15335
gfz2014lehw   0.83517
gfz2014lgqn   2.09980
gfz2014lwom  -0.50480
gfz2014lwsw   0.47737
gfz2014lxnc   0.93805
gfz2014lxqr   1.45190
gfz2014lyhk   0.69400
gfz2014lyhp   1.11560
gfz2014macx   1.33870
gfz2014madw   0.26377
gfz2014mlrr   1.15400
gfz2014mtum   0.55578
gfz2014mwnj   1.35180
gfz2014nafd   0.96507
gfz2014navw   0.50462
gfz2014ngsk   0.76200
gfz2014nnxd   2.65870
gfz2014nowp   0.15742
gfz2014npeo   0.52434
gfz2014nqfm   1.16190
gfz2014nrie   2.61860
gfz2014nyeh   1.14130
gfz2014nyfb   0.98499
gfz2014odgv   0.05388
gfz2014oinz   0.45276
gfz2014orgz   0.10557
gfz2014orxs   0.85227
gfz2014oryw  -0.51539
gfz2014owxc   0.52650
gfz2014oxcc   0.05068
gfz2014oyly   0.07498
gfz2014pkll   0.18742
gfz2014ppzf   0.44293
gfz2014pvch   0.58609
gfz2014pzml   0.24979
gfz2014pzni   0.84656
gfz2014qbzi   0.73154
gfz2014qfzq   0.39095
gfz2014qlvc  -1.46330
gfz2014qlxd   0.91633
gfz2014qqhm   1.47580
gfz2014rbsl  -0.86093
gfz2014rdsn   1.80040
gfz2014rhju   0.12175
gfz2014rhnz   0.40779
gfz2014riel  -0.04625
gfz2014romy  -0.09066
gfz2014ryfb  -0.87146
gfz2014ssmv   0.60552
gfz2014ssvz  -0.12915
gfz2014swgt   0.93059
gfz2014szzf   0.24799
gfz2014tfgn   3.57770
gfz2014tovs   0.28966
gfz2014uyrq  -0.07655
gfz2014vdnh   0.15227
gfz2014vhld   0.22260
gfz2014vhms   1.99510
gfz2014vhuy  -0.06187
gfz2014vjoz   0.09935
gfz2014vqqa   0.45508
gfz2014watn   0.33702
gfz2014wjko   1.05460
gfz2014wqcp  -0.27566
gfz2014wrkh   2.51970
gfz2014wwib   0.59245
gfz2014xbyr   1.05410
gfz2014xjri   0.69842
gfz2014xkdg   0.22523
gfz2014xoji   1.09990
gfz2014xqby   0.52039
gfz2014yhhm   0.40705
gfz2014yppv   2.09330
gfz2014yrug   0.41106
gfz2014yyiy   0.12702
gfz2014zkys   0.17067
gfz2015ansu  -0.37428
gfz2015apnk  -0.72529
gfz2015aqbq  -0.95678
gfz2015aruz   1.08620
gfz2015atxv   1.03700
gfz2015berb   0.55678
gfz2015bfjm  -0.24125
gfz2015bkbj   0.17598
gfz2015bphe   0.53465
gfz2015cewd  -0.06012
gfz2015chhn   0.32264
gfz2015chqn   1.48950
gfz2015cxxk   1.16840
gfz2015cyjd   0.87043
gfz2015drlk   1.03440
gfz2015dskr   0.04744
gfz2015dtqr  -0.29184
gfz2015dvbn   0.47989
gfz2015egxq  -0.30699
gfz2015ehou   1.70590
gfz2015eiky   0.51851
gfz2015elgy   0.53458
gfz2015esrj   0.19075
gfz2015fjhk   0.75525
gfz2015fkgt  -0.52377
gfz2015fkic  -0.47344
gfz2015fkjs  -0.01423
gfz2015fsjj   0.94782
gfz2015fvoi   1.33240
gfz2015fwkq   1.82180
gfz2015fxdi   0.13844
gfz2015gckd   0.58066
gfz2015ggjw   0.11640
gfz2015gjbr   0.70998
gfz2015gmgf   0.46067
gfz2015hgbk   0.30879
gfz2015hpmk   0.06318
gfz2015hwzw   2.70630
