# Nsamples: 79  MAD:  0.836  mean:  1.484  variance:  0.997
gfz2010bgth  -0.12993
gfz2010bxxs   1.95690
gfz2010cqwl  -1.87110
gfz2010czps   1.26850
gfz2010eaoy   1.11880
gfz2010eapk   1.21560
gfz2010eapn   2.68740
gfz2010eaqe   2.02680
gfz2010eaqy   0.78857
gfz2010earu   2.52960
gfz2010easo   1.88670
gfz2010eavs   1.86750
gfz2010eaxa   1.61400
gfz2010ebhc   1.35140
gfz2010ecua   2.05060
gfz2010ekyc   1.17580
gfz2010eltf   1.25860
gfz2010elyc   0.41026
gfz2010evco   0.90111
gfz2010excp   1.85150
gfz2010exdd   2.17380
gfz2010exdl   0.80342
gfz2010ezck   1.50770
gfz2010fedq   0.12273
gfz2010ffhq  -0.04785
gfz2010fync   1.40140
gfz2010hxgv   1.41760
gfz2010iobp   1.64510
gfz2010iull   2.07140
gfz2010nqwo   0.46716
gfz2010rqwj   0.80109
gfz2011aatr   1.68590
gfz2011adjs   1.86570
gfz2011dbig   2.41640
gfz2011dcqb   0.05380
gfz2011dpqx   0.09459
gfz2011enva   2.41220
gfz2011gkzt   1.52660
gfz2011lzwj   1.89590
gfz2011rewa   0.95527
gfz2011toub  -0.25432
gfz2011vrhg   1.95650
gfz2011wxfs   2.09520
gfz2012enno   1.31180
gfz2012fzfa   1.88800
gfz2012hnul  -0.11463
gfz2012kkup   1.45760
gfz2012minr   2.67430
gfz2012ttoa   1.11660
gfz2012vrgb   2.50190
gfz2012wklq   2.80290
gfz2012wypz   3.16900
gfz2013ccnr   4.22520
gfz2013drxz   2.76310
gfz2013zjel  -0.66086
gfz2014fgvi   2.14670
gfz2014fhla   3.74460
gfz2014gmhr   2.80650
gfz2014hocg   1.37590
gfz2014ssvz   0.89712
gfz2014tqdo   2.47810
gfz2015chhn   1.29110
gfz2015cyjd   1.97000
gfz2015fkgt   1.49490
gfz2015fsjj   2.09190
gfz2015gckd   2.20450
gfz2015kfsu   1.01430
gfz2015lhjy   1.56980
gfz2015lytv   0.47195
gfz2015sfdd  -0.28007
gfz2015sfnb   0.67077
gfz2015sjoj   1.88120
gfz2015smym   0.94806
gfz2015snwh   1.03110
gfz2015soxc   1.36100
gfz2015svwm   1.03360
gfz2015taml   2.68060
gfz2015tiyc   1.85130
gfz2015tnjd   2.35770
