# Nsamples: 17  MAD:  0.698  mean: -0.600  variance:  0.678
gfz2010iull  -0.65672
gfz2011aatr  -1.66270
gfz2011lcxq  -0.18612
gfz2011lzwj  -1.51600
gfz2011rewa  -0.90861
gfz2011wxfs  -1.12180
gfz2012jlox  -1.46710
gfz2012kudo  -0.48363
gfz2013drxz   0.53137
gfz2013jkut  -0.16050
gfz2013nwdi  -1.77470
gfz2013svci  -0.94560
gfz2014fgvi  -0.59567
gfz2014gkgf  -0.69033
gfz2014gmhr   0.57093
gfz2015iwqk   1.37060
gfz2015sfdd  -0.49597
