# Nsamples: 36  MAD:  0.540  mean: -0.345  variance:  0.691
gfz2010bxxs  -0.22329
gfz2010cqwl  -0.20176
gfz2010ebhc   0.19809
gfz2010grjd   0.57543
gfz2010iull  -0.22693
gfz2010lluj  -1.41100
gfz2010nmpc  -0.47795
gfz2011aatr  -0.06071
gfz2011enva  -0.78548
gfz2011gkzt  -0.99380
gfz2011hlqw  -0.44481
gfz2011hlsa  -0.64942
gfz2011hlth   0.30466
gfz2011rewa   0.62238
gfz2011toub  -0.54181
gfz2012enno   0.33057
gfz2012kkup  -0.17415
gfz2012klhx   0.13663
gfz2012kudo  -0.59219
gfz2012ldxg  -1.59810
gfz2012ldzj  -0.49358
gfz2012vrgb  -0.15325
gfz2012wypz  -0.26498
gfz2013ccnr   1.00670
gfz2013jkut  -0.01327
gfz2013pfbx  -0.17361
gfz2014afmx  -0.36160
gfz2014bwue  -1.26450
gfz2014frdz   2.06730
gfz2014ftka  -0.66768
gfz2014gkqf  -0.00679
gfz2014gmge   0.04041
gfz2014hjgh  -2.39790
gfz2014hqxs  -0.64996
gfz2014nqfm  -0.39898
gfz2014tfgn  -2.49000
