# Nsamples: 43  MAD:  0.446  mean: -0.675  variance:  1.083
gfz2010bjeb  -0.33480
gfz2010bxxs  -0.32196
gfz2010ebhc  -0.39208
gfz2010grjd  -1.00850
gfz2010iull  -0.51177
gfz2010nmpc  -1.25620
gfz2011aatr  -0.40474
gfz2011dpqx  -1.16780
gfz2011enva  -0.98455
gfz2011hlqw  -0.98775
gfz2011hlsa  -1.05220
gfz2011jplh  -0.89273
gfz2011lcxq  -1.63740
gfz2011lzwj  -0.66345
gfz2011rewa  -0.40540
gfz2011toub  -0.81246
gfz2012enno  -0.20083
gfz2012jlox  -0.87733
gfz2012kkcp  -4.98600
gfz2012kkup  -0.72287
gfz2012klhx  -0.78753
gfz2012kuct  -0.98499
gfz2012kudo  -0.96690
gfz2012wypz  -0.82648
gfz2013ccnr   0.50164
gfz2013drxz  -0.56303
gfz2013pfbx  -0.85063
gfz2013xsdt  -1.51760
gfz2014bwue  -0.77314
gfz2014frdz   3.47770
gfz2014ftka  -1.21860
gfz2014gkqf  -0.97253
gfz2014gmge  -0.82598
gfz2014gmnb  -0.53331
gfz2014goba   0.16837
gfz2014jjhc  -0.17037
gfz2014jpep  -0.97643
gfz2014nqfm  -1.09940
gfz2014ssvz  -1.14920
gfz2014vhld   0.60477
gfz2015chhn  -0.31777
gfz2015mpte  -0.25979
gfz2015taml   0.64989
