# Nsamples: 40  MAD:  0.555  mean:  0.039  variance:  0.387
gfz2010bxxs   0.05944
gfz2010grjd   0.82180
gfz2010iull   0.32030
gfz2010usho   1.17030
gfz2011aatr  -0.79905
gfz2011enva  -0.19660
gfz2011gkzt  -0.28020
gfz2011hlqw   0.19406
gfz2011hlsa  -0.02643
gfz2012enno  -0.01630
gfz2012klhx   1.05270
gfz2012ldxg  -0.13762
gfz2012vrgb   0.67956
gfz2013ifpq  -0.96217
gfz2013jkut   0.48882
gfz2013kdeo   0.37456
gfz2013pfbx  -0.41829
gfz2014bwue  -0.50775
gfz2014frdz   0.83347
gfz2014ftoc  -0.38194
gfz2014fusj  -0.21916
gfz2014gkqf   0.21279
gfz2014glcu   0.24752
gfz2014gltx   0.26854
gfz2014gmnb   0.23644
gfz2014gmnw  -0.15830
gfz2014goba   0.52116
gfz2014gull   1.05480
gfz2014hasj  -0.18755
gfz2014itkw   0.44978
gfz2014jpep   0.14467
gfz2014nqfm   0.15020
gfz2014pvch  -0.26989
gfz2014qlxd  -1.33080
gfz2014qqhm  -0.34704
gfz2014ubwn   0.39234
gfz2015igsy  -1.82980
gfz2015jzcv  -0.55175
gfz2015mpte   0.77727
gfz2015tlkf  -0.27462
