# Nsamples: 8  MAD:  0.912  mean: -0.076  variance:  4.146
gfz2012vrgb  -0.39000
gfz2013pfbx  -0.53645
gfz2014bwue  -0.90726
gfz2014gmvr   4.15360
gfz2014jpep  -3.78510
gfz2014ssvz   0.00810
gfz2014ubwn   0.35311
gfz2015mpte   0.49495
