# Nsamples: 19  MAD:  0.628  mean:  0.234  variance:  0.532
gfz2011toub  -0.39880
gfz2012enno   0.13907
gfz2012klhx   1.48950
gfz2012ldxg   0.08703
gfz2012ldzj  -0.28484
gfz2012teic   1.28820
gfz2012vrgb   0.54808
gfz2013jkut   0.53073
gfz2013kdeo   0.48114
gfz2014bwue  -0.39761
gfz2014ftoc  -0.28279
gfz2014gkhy   0.02818
gfz2014gkqf   0.57399
gfz2014gmvr  -1.49700
gfz2014goba  -0.14639
gfz2014gyxd   1.62120
gfz2014nqfm   0.23034
gfz2015berb  -0.31713
gfz2015mpte   0.75857
