# Nsamples: 21  MAD:  0.473  mean:  0.248  variance:  0.718
gfz2010bxxs  -0.04187
gfz2010ebhc   0.10401
gfz2010grjd  -0.45983
gfz2010iull   0.40880
gfz2010nmpc  -0.43295
gfz2011aatr  -0.87089
gfz2011enva  -0.23648
gfz2011gkzt  -0.85243
gfz2011hlqw   1.96810
gfz2011hlsa   0.10137
gfz2011toub  -0.10499
gfz2012enno   0.27994
gfz2012ldxg   0.14935
gfz2012ldzj   2.01070
gfz2012ttoa   2.30320
gfz2013jkut   0.87271
gfz2013pfbx   0.00227
gfz2014gkqf   0.06946
gfz2014goba   0.08226
gfz2014nqfm  -0.31280
gfz2014qqhm   0.17260
