# Nsamples: 1052  MAD:  0.741  mean:  0.459  variance:  0.894
gfz2010aerk   0.22794
gfz2010ahqi   0.15484
gfz2010bfzs   0.23763
gfz2010bhhq  -0.51747
gfz2010bifb   0.34571
gfz2010bjeb  -0.04799
gfz2010bjsl   0.19378
gfz2010bkob   1.31720
gfz2010bkos   1.05230
gfz2010bowy  -0.21696
gfz2010boxo  -0.32731
gfz2010bxxs   0.59998
gfz2010caft  -0.35195
gfz2010cbkg  -0.53614
gfz2010chnv   1.93040
gfz2010cqwl  -0.18084
gfz2010ctuw  -0.16565
gfz2010czps   0.17481
gfz2010eaoy   0.03800
gfz2010eapk   0.09317
gfz2010eapn   2.05160
gfz2010eaqe   0.04884
gfz2010eaqx  -0.03418
gfz2010eaqy   0.00000
gfz2010earq  -0.50260
gfz2010earu  -0.49186
gfz2010easf   0.74646
gfz2010eask  -0.92786
gfz2010easo   0.15760
gfz2010easu   0.09383
gfz2010eati   0.27904
gfz2010eatt  -1.41900
gfz2010eaty  -0.27012
gfz2010eaul   1.17950
gfz2010eavd   1.27690
gfz2010eavp  -0.13978
gfz2010eavs   0.12903
gfz2010eawb   0.25701
gfz2010eawu  -0.81478
gfz2010eayp   0.22164
gfz2010eayx   0.09609
gfz2010eaze   0.48361
gfz2010eazu  -0.11735
gfz2010ebbd  -0.45537
gfz2010ebbx   3.16370
gfz2010ebby   0.33700
gfz2010ebdl  -0.16276
gfz2010ebfa  -0.98979
gfz2010ebgj  -0.37255
gfz2010ebhc  -0.59989
gfz2010ebih  -0.41635
gfz2010ebin   0.22805
gfz2010ebiv  -0.03638
gfz2010ebjy  -0.16085
gfz2010ebkj   0.10189
gfz2010ebkx   0.25827
gfz2010ebla   0.59256
gfz2010ebll   1.05780
gfz2010ebmb  -0.96302
gfz2010ebmi   0.88842
gfz2010ebnn  -0.41318
gfz2010ebqt   0.30592
gfz2010ebrm   0.01746
gfz2010ebsv  -0.10229
gfz2010ebvm  -1.70950
gfz2010ebvv  -0.18824
gfz2010ebwp   0.06330
gfz2010ebxl  -0.26686
gfz2010ebze   0.71578
gfz2010ebzk  -0.48933
gfz2010ebzr   0.10425
gfz2010ecam  -0.15079
gfz2010ecay  -1.03530
gfz2010ecbi   0.07166
gfz2010ecdu   0.27974
gfz2010eced   0.71404
gfz2010ecfx   0.28752
gfz2010ecgh  -0.34289
gfz2010echc  -0.31743
gfz2010echt  -0.25021
gfz2010echy   1.37390
gfz2010ecls   1.00830
gfz2010ecml  -0.31568
gfz2010ecns   0.15556
gfz2010ecps   0.25053
gfz2010ecro   0.68465
gfz2010ecsp  -0.37757
gfz2010ectq  -0.24215
gfz2010ecua  -0.67352
gfz2010ecuv   0.20497
gfz2010ecvt  -0.61385
gfz2010edad   0.25849
gfz2010edat   0.33786
gfz2010eday   1.87600
gfz2010edbz   0.77817
gfz2010edcp   1.07110
gfz2010edde   0.02348
gfz2010edhr  -0.00000
gfz2010edhv   0.49316
gfz2010edim  -0.32634
gfz2010edji   0.06745
gfz2010edkp  -0.29450
gfz2010edoq  -0.89783
gfz2010edpb   0.32177
gfz2010edqd   0.29305
gfz2010edqh  -0.24848
gfz2010edsk   0.41422
gfz2010edsn   0.08662
gfz2010edvf  -0.10080
gfz2010edyi  -0.56245
gfz2010edzb   0.14462
gfz2010eedz  -0.07760
gfz2010eeia   0.24925
gfz2010eeij   0.36661
gfz2010eekq  -0.28931
gfz2010eell   0.57955
gfz2010eeng  -0.11465
gfz2010eeqy  -1.22840
gfz2010eerh   0.29201
gfz2010eern   0.06435
gfz2010eesf   1.08840
gfz2010eevu   0.54559
gfz2010eexz   0.37961
gfz2010eeyh   0.70009
gfz2010efak   0.55477
gfz2010efbi  -0.65748
gfz2010efls   0.63968
gfz2010efnf   0.19981
gfz2010efsq  -0.04395
gfz2010efwo   0.53578
gfz2010efxf   0.90458
gfz2010eghq   0.41714
gfz2010egld   1.07730
gfz2010egmp   0.08506
gfz2010egqh  -1.23660
gfz2010egsw   0.35571
gfz2010egyy  -0.11368
gfz2010ehaj  -0.48585
gfz2010ehrq   0.58240
gfz2010ehsy  -0.24520
gfz2010ehxz   0.45041
gfz2010eisx   1.10940
gfz2010ejjg  -0.04195
gfz2010ejka   0.91604
gfz2010ejxf  -0.06347
gfz2010ekaw   0.49100
gfz2010elhv  -0.33442
gfz2010elin   0.34153
gfz2010eljf   0.76769
gfz2010elpu   0.28277
gfz2010elsw   0.52846
gfz2010eltf  -0.57160
gfz2010elvp  -0.31129
gfz2010elxi  -2.43480
gfz2010elyc  -1.30090
gfz2010elyo  -0.33314
gfz2010elzf  -0.07257
gfz2010elzl   0.32538
gfz2010emoz   2.50430
gfz2010emyz   0.32791
gfz2010encm  -0.52482
gfz2010enpa  -0.29140
gfz2010ensu  -1.00890
gfz2010eoao  -0.86775
gfz2010eomb   0.08859
gfz2010epbe   0.43116
gfz2010epud   0.06644
gfz2010epxj  -0.00000
gfz2010epzk   0.11143
gfz2010eqcn  -0.49582
gfz2010eqjg  -0.22874
gfz2010eqmu  -0.62701
gfz2010eqwl  -1.12870
gfz2010erda   0.81096
gfz2010erdi  -0.23144
gfz2010erfy   1.39170
gfz2010erig   1.03460
gfz2010erkn   0.29207
gfz2010erna   0.74850
gfz2010erom  -0.01978
gfz2010erum   0.02197
gfz2010eruy  -0.46859
gfz2010erwn  -0.07164
gfz2010erxk   0.47941
gfz2010eryg  -0.05857
gfz2010esid  -0.32843
gfz2010euae  -0.24300
gfz2010euan   0.33406
gfz2010euii   0.87861
gfz2010eujm  -0.36341
gfz2010euvl  -0.11806
gfz2010euwb  -2.42880
gfz2010euxe  -0.88422
gfz2010evco   1.48170
gfz2010evgf  -0.22553
gfz2010evkd   0.29510
gfz2010ewpq  -0.57756
gfz2010ewvc   0.65056
gfz2010ewyu   0.83848
gfz2010excp   0.56117
gfz2010exdd  -0.99774
gfz2010exdl   0.80305
gfz2010exed  -0.58237
gfz2010exel  -0.00000
gfz2010exgb   0.49541
gfz2010exhd  -0.13440
gfz2010exhw   0.64005
gfz2010exjw   0.16523
gfz2010exlm   0.06262
gfz2010exmc   0.58575
gfz2010exno  -0.25614
gfz2010exou   0.38433
gfz2010exqu   0.18391
gfz2010exsg  -0.16156
gfz2010exts   1.28850
gfz2010exyp   0.24935
gfz2010eyaz   1.18660
gfz2010eymr   0.13203
gfz2010eymx   0.46739
gfz2010eyqe   0.41216
gfz2010ezuj  -0.10963
gfz2010ezvg   0.64430
gfz2010ezvt   0.45651
gfz2010ezwz   0.05661
gfz2010ezxd   0.28669
gfz2010fauz   0.14050
gfz2010ffui  10.40000
gfz2010figq  -0.33256
gfz2010fihj  -0.11128
gfz2010fika  -0.11132
gfz2010fixr   0.02188
gfz2010fjal  -0.04693
gfz2010fjas   0.16392
gfz2010fjmu   0.29784
gfz2010fkhd   0.15092
gfz2010fkia   0.02697
gfz2010fknh   0.42255
gfz2010fkvg   0.43220
gfz2010flha  -0.65328
gfz2010floi   0.60954
gfz2010flrt   0.51917
gfz2010flxi   0.28374
gfz2010fmhb   0.25602
gfz2010fmpy  -0.62266
gfz2010fneu   0.00862
gfz2010fnrk  -0.69434
gfz2010fona   0.18946
gfz2010fpqy   0.44037
gfz2010fser   0.48305
gfz2010fupn   0.13620
gfz2010fuuy  -0.65160
gfz2010fuwa   0.61846
gfz2010fvuc   1.25850
gfz2010fwkk   0.52212
gfz2010fwlb   0.27929
gfz2010fwny   1.70770
gfz2010fwpv   0.04983
gfz2010fwzd   1.02100
gfz2010fyen  -0.32659
gfz2010fync   0.25624
gfz2010fzoi   0.41287
gfz2010gdch  -0.74576
gfz2010ghyk  -1.22980
gfz2010gjia   1.08570
gfz2010gjvo   0.94219
gfz2010glqr  -0.34640
gfz2010grjd   1.08570
gfz2010gslu  -0.54752
gfz2010gtzt  -0.07852
gfz2010gvya   0.70487
gfz2010gymo   0.76609
gfz2010gyqp  -0.19455
gfz2010gzxr  -0.44439
gfz2010hbka   0.17049
gfz2010hcio  -1.25150
gfz2010hevz   0.22949
gfz2010hgld  -0.05253
gfz2010hlco  -0.49993
gfz2010hlmq  -0.08945
gfz2010hmhm  -0.41618
gfz2010hnnf   0.74332
gfz2010hnpi   0.78650
gfz2010hnzr   1.81970
gfz2010homc   0.21804
gfz2010hptz  -0.23631
gfz2010hrpr  -0.89032
gfz2010htdq  -2.48140
gfz2010hufk   0.90374
gfz2010hxgv  -0.72737
gfz2010ibiy   0.48065
gfz2010icqq   0.44293
gfz2010iefy  -0.15482
gfz2010iibf   0.24627
gfz2010iimu   0.80651
gfz2010iobp   0.77439
gfz2010iqfm  -0.06400
gfz2010iqnm  -0.10930
gfz2010iqus   1.70580
gfz2010irqr   0.06201
gfz2010irvf   1.10980
gfz2010ited  -0.41169
gfz2010izzj   0.67925
gfz2010jagd   1.68540
gfz2010jatq  -0.42899
gfz2010jhie   0.87909
gfz2010jpss   0.56207
gfz2010jtal  -0.29301
gfz2010jucj   1.31340
gfz2010jxbm   0.07433
gfz2010kcoo   0.40255
gfz2010kdyc  -0.35499
gfz2010kgws   0.48000
gfz2010kihf   0.13227
gfz2010kmgg   0.06096
gfz2010kown  -1.00460
gfz2010lfju   0.64830
gfz2010liqs   0.03371
gfz2010lkcf   0.87641
gfz2010lluj  -0.21922
gfz2010lopz   1.94290
gfz2010lruw  -0.00000
gfz2010lyfk   0.03985
gfz2010mant   1.52820
gfz2010mbje   0.87354
gfz2010mcrx   0.69637
gfz2010mfpt  -0.62626
gfz2010mgss  -0.99901
gfz2010miil   0.25996
gfz2010miqn  -1.02000
gfz2010mkuu   0.21694
gfz2010mlkz  -0.60334
gfz2010mlta  -0.26682
gfz2010mncc  -0.13131
gfz2010moyw  -0.37255
gfz2010mpuy   0.15768
gfz2010ncrl  -0.32142
gfz2010nfsj   0.20441
gfz2010nmpc  -0.16323
gfz2010nqwf  -0.16218
gfz2010nqwo   0.01516
gfz2010nrjo  -0.25513
gfz2010nsck  -0.70371
gfz2010nsdf   0.42808
gfz2010ntuo   0.36047
gfz2010nwef   0.22463
gfz2010nxsy   0.09048
gfz2010nxum  -1.04040
gfz2010nzha  -0.27618
gfz2010ocxq  -0.51212
gfz2010onma  -0.07488
gfz2010osqo   0.39630
gfz2010pbdz   1.85210
gfz2010pcxi  -0.59892
gfz2010pdtk   0.61283
gfz2010pewa   0.35512
gfz2010pewx  -0.76243
gfz2010pexf  -0.21580
gfz2010pmqd  -0.77434
gfz2010pqck   0.92853
gfz2010pxgh  -0.75396
gfz2010qjst   0.10998
gfz2010qpcq   1.39060
gfz2010qwwx  -0.51197
gfz2010rhas   0.46961
gfz2010rkfp   0.95926
gfz2010rywq  -0.83150
gfz2010rzrr  -0.31871
gfz2010sfee   0.30390
gfz2010sfla   7.16300
gfz2010skqo   0.18299
gfz2010skve   0.29856
gfz2010srdb  -0.33368
gfz2010svtn  -0.46384
gfz2010sxwt  -0.34237
gfz2010szim   0.33709
gfz2010tcbr  -0.51067
gfz2010tcrl  -0.68958
gfz2010tlfm  -0.29192
gfz2010txjs  -0.09573
gfz2010tzzk   0.65509
gfz2010upfb   0.33854
gfz2010upiw   0.30999
gfz2010usho   0.47789
gfz2010ustq  -0.06095
gfz2010utcg  -0.28995
gfz2010utmc   0.10433
gfz2010vhuj   0.47261
gfz2010vppc   1.53170
gfz2010wrxx   0.25442
gfz2010wxqa  -0.49409
gfz2010xbdv   1.52570
gfz2010xden  -0.41762
gfz2010xgzw  -0.17708
gfz2010xjck   0.01929
gfz2010xjsj   0.17983
gfz2010yjev  -0.33623
gfz2010yosr   0.65134
gfz2010yqwx  -0.38158
gfz2011aatr   0.21073
gfz2011alsa   1.29760
gfz2011blsi  -0.49235
gfz2011cndo  -0.04511
gfz2011coxh   0.82727
gfz2011cvcg  -0.29978
gfz2011cvfg   0.65756
gfz2011cwgn   0.19897
gfz2011cykd  -0.51963
gfz2011cylz   0.01958
gfz2011cynl   0.18677
gfz2011cyre  -0.92473
gfz2011cyuk  -0.74865
gfz2011czwj   0.62959
gfz2011deaf   1.55860
gfz2011dlyx   0.33090
gfz2011dtpy   1.48360
gfz2011duyr  -0.00000
gfz2011ecsc   0.70704
gfz2011edmm   1.01530
gfz2011ehzq  -0.23044
gfz2011eiis   0.86621
gfz2011etje   0.77462
gfz2011fgvr   0.52420
gfz2011fhag  -1.06250
gfz2011fhbm   0.46939
gfz2011fhur   0.00000
gfz2011fkbn   0.79462
gfz2011flgj   1.28560
gfz2011fnsw   0.69355
gfz2011gbmx   0.00000
gfz2011gcwb   0.79341
gfz2011gdgh   0.17693
gfz2011ggvf   2.02760
gfz2011gkey   1.51720
gfz2011hbex   0.97471
gfz2011hebt   1.09530
gfz2011hfkj   0.42224
gfz2011hlqw  -0.20812
gfz2011hlsa  -0.07508
gfz2011hlth   0.44654
gfz2011hpgx   1.31860
gfz2011hpqp   0.78416
gfz2011hrhu   0.05927
gfz2011hryk   0.84115
gfz2011hvbu   0.30002
gfz2011iwte   0.33867
gfz2011izqa   0.44920
gfz2011jdsj   0.49200
gfz2011jplh   0.07775
gfz2011jtlg   0.49542
gfz2011juid  -0.37336
gfz2011knbi   0.34357
gfz2011kqwo  -1.99620
gfz2011kqyg   0.61500
gfz2011kwid  -0.17686
gfz2011kwjx   0.46254
gfz2011kwkw  -0.19317
gfz2011kwlq   0.44709
gfz2011kwqc   0.34268
gfz2011kxzp   0.06271
gfz2011lczg   0.75756
gfz2011lhls   0.32437
gfz2011lzwj   1.40820
gfz2011mlvw   0.44033
gfz2011mpme   0.46881
gfz2011mprq   0.91842
gfz2011myia   0.44879
gfz2011nauw   0.62557
gfz2011nmnq  -0.59971
gfz2011noud   0.25765
gfz2011nrwc   1.98400
gfz2011nrwv  -0.07214
gfz2011ntkh   1.01180
gfz2011nudm  -0.14897
gfz2011ohcy  -0.06112
gfz2011oiqe   1.93160
gfz2011olkk   0.51795
gfz2011orgn   0.14263
gfz2011ornx   0.45848
gfz2011owvz   0.43653
gfz2011pccd  -0.28037
gfz2011phms   1.26860
gfz2011qigx   0.17896
gfz2011qvae   0.62100
gfz2011rewa   0.20469
gfz2011rqui   1.72570
gfz2011rsrh   0.41968
gfz2011taps  -0.28086
gfz2011tbas   0.11786
gfz2011tcij   1.44410
gfz2011tjue   6.07700
gfz2011tkfp   0.34758
gfz2011tkog   1.07260
gfz2011toub   1.04390
gfz2011tpbl   0.29108
gfz2011tpfr   5.66510
gfz2011udsq   0.40967
gfz2011ueni   1.53920
gfz2011ujze   0.68745
gfz2011ukmp   0.19290
gfz2011urxy   1.50110
gfz2011urzu   2.26600
gfz2011vhfi   0.61694
gfz2011vldk   0.50383
gfz2011vnza   0.84900
gfz2011vrhg   0.99233
gfz2011vxns  -0.55456
gfz2011vxod   0.66572
gfz2011vxxg  -0.50849
gfz2011wcic  -0.09217
gfz2011wjul   1.67980
gfz2011wwjs  -0.09841
gfz2011wxtk   0.53621
gfz2011xaan   0.42846
gfz2011xcpv   0.30930
gfz2011xesx   1.32320
gfz2011xyxj   0.30061
gfz2011yfdx  -0.15469
gfz2011yhwz  -0.54707
gfz2011zklv   0.06931
gfz2011zqhh   0.76658
gfz2012ablh  -0.24136
gfz2012ajtq   0.22706
gfz2012aqgp  -0.17557
gfz2012aqtq   1.43300
gfz2012attr   0.30124
gfz2012bfah   0.60796
gfz2012bfyn  -0.91105
gfz2012bpkx   0.15232
gfz2012byad   1.57300
gfz2012cmfy   0.57982
gfz2012covm   1.39760
gfz2012cqnl   0.83706
gfz2012cxdn   0.09994
gfz2012deri   0.52723
gfz2012dimn   1.81940
gfz2012ekzf   0.62939
gfz2012emjg   1.53700
gfz2012enno   1.10430
gfz2012ezvr   0.05328
gfz2012fbfo   0.23349
gfz2012fhnh   0.93763
gfz2012fivh   0.21663
gfz2012fzfa   0.40709
gfz2012gocc   0.72659
gfz2012hnul   0.03032
gfz2012hnuw   0.82980
gfz2012ihdl  -0.09237
gfz2012ilvn  -0.16138
gfz2012intn   0.24209
gfz2012jgvj  -0.93026
gfz2012jjzc   2.07950
gfz2012jlox   1.66340
gfz2012jshk  -1.26220
gfz2012jupx   0.54937
gfz2012keor  -0.85160
gfz2012kkcp   0.32328
gfz2012kkup   0.38140
gfz2012klba   0.30047
gfz2012klhx   0.43532
gfz2012kuct   0.16905
gfz2012kudo   0.14345
gfz2012kvzv   0.63941
gfz2012kwgo   0.78170
gfz2012ldxg   1.57890
gfz2012ldzj  -0.24770
gfz2012lxkv   0.69176
gfz2012minr   0.50619
gfz2012mwij   0.39684
gfz2012naqz  -0.10304
gfz2012nedn  -1.18480
gfz2012nkdf   0.26132
gfz2012ntzv   3.59940
gfz2012oazn   2.40760
gfz2012obgw  -0.99841
gfz2012oedb   0.88305
gfz2012omvo   0.75625
gfz2012pciw  -0.41802
gfz2012pgcl   0.55383
gfz2012qjhs   0.37808
gfz2012quso   2.25130
gfz2012rats   0.64144
gfz2012repv  -0.78770
gfz2012royy   2.90200
gfz2012rwov   0.90190
gfz2012rypu   0.83725
gfz2012sphd   1.07120
gfz2012syvl   1.36110
gfz2012teic   0.48809
gfz2012tmop   0.00022
gfz2012ttoa   1.19990
gfz2012tvmv  -0.57866
gfz2012tzcc   0.75870
gfz2012uafg   1.65170
gfz2012uaqj   0.21998
gfz2012uciv   1.29540
gfz2012uhup   0.81420
gfz2012uqzp   0.71377
gfz2012uvqf   0.49084
gfz2012vrgb   3.00310
gfz2012wdyx   2.22770
gfz2012wklq  -0.73115
gfz2012wmkd   0.72605
gfz2012wtkr   0.91878
gfz2012wybs   1.78760
gfz2012xkkv   1.40230
gfz2012yxxu   0.29164
gfz2012zemh   0.72584
gfz2012zitl  -0.08971
gfz2012zjpv   0.31567
gfz2013aayj   0.61340
gfz2013acag   1.19020
gfz2013axoj   0.68737
gfz2013bokp  -0.10469
gfz2013bouj  -0.51089
gfz2013ccnr  -0.96475
gfz2013cwpn   1.59430
gfz2013dkly   0.17406
gfz2013dnnx   0.72983
gfz2013dofo   0.54763
gfz2013drpk   0.88702
gfz2013drxz   0.11584
gfz2013dvyh   0.23912
gfz2013egpu   0.76494
gfz2013fiud   1.30560
gfz2013fkii   0.46324
gfz2013fwxa   0.97246
gfz2013gdnq   0.55271
gfz2013ippu   1.17340
gfz2013iunn   0.59256
gfz2013jesk  -0.90380
gfz2013jgij   0.96203
gfz2013jgip  -0.34398
gfz2013jjsi   0.73714
gfz2013jkut   1.93830
gfz2013jokw  -0.72663
gfz2013jusj  -0.04881
gfz2013jwvc   0.29366
gfz2013kdeo   1.94480
gfz2013kheb  -0.00000
gfz2013kvtk  -0.23406
gfz2013ldpc   1.08080
gfz2013ldqb   1.40510
gfz2013lgnl   3.25020
gfz2013lixa   1.30430
gfz2013lyko   0.54591
gfz2013mqmv   2.63180
gfz2013mwbh   1.63430
gfz2013nabl   1.62270
gfz2013ncjp   0.19461
gfz2013ndin   1.20710
gfz2013ngnt  -0.31775
gfz2013nkgj   1.32620
gfz2013nknw   2.36770
gfz2013nmac  -0.90120
gfz2013nnzf   1.00400
gfz2013nqgw   0.99010
gfz2013nwdi   1.58290
gfz2013ogde   0.05452
gfz2013pfbx   1.68350
gfz2013pfeb   0.69269
gfz2013pxsj   0.14244
gfz2013qali   1.65700
gfz2013qmer   1.62610
gfz2013qzdq   0.25365
gfz2013scai   0.37703
gfz2013shlq   0.01348
gfz2013shzy   1.13960
gfz2013suvn   0.71010
gfz2013svci   1.08150
gfz2013tcxc   0.41580
gfz2013tcxq   0.66864
gfz2013tdau   0.61580
gfz2013tlaf  -0.80702
gfz2013tusd   1.42320
gfz2013tvmw   1.16640
gfz2013txtb   0.80702
gfz2013tyas  -0.08782
gfz2013uauo   0.69922
gfz2013ufku   0.08420
gfz2013uqsp   1.18880
gfz2013vfyw   1.39250
gfz2013vfzp   0.77806
gfz2013viul   1.33240
gfz2013vjjc   0.15467
gfz2013vqot   0.66392
gfz2013vsxi   1.08930
gfz2013vvrq   0.85149
gfz2013vxta   1.36260
gfz2013vzbo   1.10950
gfz2013wjmm   1.08150
gfz2013xizq   0.90023
gfz2013xmul   0.86355
gfz2013xsdt   0.85234
gfz2013xvqd  -0.42898
gfz2013xwda   0.15925
gfz2013xxwv   1.42390
gfz2013xxxq   1.13600
gfz2013xzcg   1.48270
gfz2013yctg   0.24128
gfz2013ylbx   0.50898
gfz2013ymxs   0.96168
gfz2013yqkv  -0.11005
gfz2013yyhc   1.37140
gfz2013zmoc  -0.47595
gfz2014aawc   0.71939
gfz2014afmx   1.34930
gfz2014algk   2.34550
gfz2014alwz   0.70177
gfz2014ande   1.42600
gfz2014ared  -0.39908
gfz2014arpf   0.38164
gfz2014atgw   1.22400
gfz2014bagd   1.69970
gfz2014bzxy   1.19570
gfz2014cbtl  -0.59215
gfz2014cgog  -0.18137
gfz2014claq   0.37647
gfz2014cvkm  -0.18292
gfz2014cyvm   0.10804
gfz2014czqi   1.64730
gfz2014czua   0.86847
gfz2014dhxt   0.59329
gfz2014disp   0.27987
gfz2014duqn   0.85703
gfz2014ebmc   0.37619
gfz2014edfx   1.33260
gfz2014efkk   1.62870
gfz2014eght   0.04721
gfz2014ehsf   1.69180
gfz2014ejmt   0.90030
gfz2014ekcr   0.51400
gfz2014ekdt   0.29234
gfz2014enhi   0.87126
gfz2014etqa   0.26726
gfz2014fedd   0.77738
gfz2014femz   0.76600
gfz2014fgvi   0.96574
gfz2014fhdw   1.28290
gfz2014fhla   1.77260
gfz2014fkmr   2.54190
gfz2014fnyg   0.88473
gfz2014frdz   2.42860
gfz2014ftka   1.46020
gfz2014ftoc   2.17840
gfz2014furx   2.40810
gfz2014fusj   1.11630
gfz2014fuup   1.72500
gfz2014fval   2.37910
gfz2014fvjl   0.80323
gfz2014fvrg   2.00800
gfz2014gbcz   0.83870
gfz2014ghpe  -0.21275
gfz2014gkgf   2.10070
gfz2014gkhy  -0.06896
gfz2014gkqf   2.34830
gfz2014gltx   0.81006
gfz2014gmge   1.75090
gfz2014gmhr   1.28340
gfz2014gmnb   1.94710
gfz2014gmnw   1.99730
gfz2014goba   1.55160
gfz2014gori   2.37200
gfz2014gpya   2.18970
gfz2014gqer   2.43970
gfz2014gull   2.12740
gfz2014gulp   1.84470
gfz2014gwab   4.11190
gfz2014gxxo   2.52690
gfz2014haos   2.74380
gfz2014hasj   1.58340
gfz2014hauo   1.15770
gfz2014hbqb   2.56640
gfz2014heyq   1.53230
gfz2014hfhl   1.98590
gfz2014hgqo   1.47920
gfz2014hjgr   2.79840
gfz2014hmzg   3.24570
gfz2014hocg   0.97053
gfz2014hqxs   2.39510
gfz2014hrft   0.89919
gfz2014huaj   2.14230
gfz2014icqt   1.36550
gfz2014ikun  -0.37143
gfz2014inbj   0.50141
gfz2014itkw   1.95450
gfz2014jjhc   0.87499
gfz2014jlwb  -0.17233
gfz2014jnyv   0.98082
gfz2014jpep   0.95532
gfz2014jwmh   0.89959
gfz2014kara  -0.01657
gfz2014khlk   0.39346
gfz2014knks   0.21011
gfz2014knxs   0.35534
gfz2014krlg   0.11412
gfz2014ksdv   0.76167
gfz2014kyan   0.91574
gfz2014lbxn  -0.51582
gfz2014lddn  -0.03157
gfz2014ldhu   0.33013
gfz2014lefs  -0.04620
gfz2014lkyf  -0.19207
gfz2014lpim   0.61103
gfz2014lxnc   2.80160
gfz2014lyhk   1.29190
gfz2014mawp   0.41900
gfz2014mden   0.22712
gfz2014mhgg  -0.49784
gfz2014ngnd   0.81644
gfz2014nkdx  -0.19833
gfz2014nowp   0.09130
gfz2014npdk   0.24737
gfz2014npeo   0.57115
gfz2014nqfm   1.78980
gfz2014nrie   2.70360
gfz2014oinz   1.70300
gfz2014osvz   0.36092
gfz2014oxcc   0.00000
gfz2014pkll   0.91444
gfz2014pvch   0.52509
gfz2014qdog   0.09970
gfz2014qlxd   1.92740
gfz2014qngj   0.97914
gfz2014qqhm   1.50360
gfz2014raau  -0.77676
gfz2014rbsl   1.85750
gfz2014riel  -0.50645
gfz2014rkwl   0.26244
gfz2014roba   1.12910
gfz2014ryfb   0.85649
gfz2014sjqw   0.16432
gfz2014sptq   1.01040
gfz2014ssmv   1.08630
gfz2014ssvz  -0.61795
gfz2014szzf   0.53309
gfz2014tqdo   1.26860
gfz2014tute  -0.01929
gfz2014tzsd   0.24810
gfz2014ubwn   1.41130
gfz2014uohh   0.17783
gfz2014uuuf  -0.09911
gfz2014uvji   0.87396
gfz2014uvrk  -0.24743
gfz2014uxyg   1.24490
gfz2014vjoz   0.02922
gfz2014vpus  -0.50773
gfz2014wqcp   0.49976
gfz2014xbyr   1.81790
gfz2014yhhm   1.07700
gfz2015aqbq   0.66532
gfz2015aruz   1.52750
gfz2015bavu   1.15570
gfz2015berb   0.22139
gfz2015bfjm   0.16502
gfz2015bohx   1.06760
gfz2015bsnl  -0.14218
gfz2015bvsj   1.82690
gfz2015chhn   0.54023
gfz2015cxhx   0.40435
gfz2015cxxk   1.07550
gfz2015cyjd   0.98337
gfz2015dizn   2.58370
gfz2015djts   0.25359
gfz2015eezy   0.86413
gfz2015egxq   0.02044
gfz2015eiky   1.76780
gfz2015elgy   0.79236
gfz2015eljz   0.16876
gfz2015emtg   0.48971
gfz2015etai   0.63643
gfz2015eyqs  -0.05858
gfz2015fbew  -0.15587
gfz2015fcua  -0.15253
gfz2015fjhk   1.12490
gfz2015fkgt   0.53847
gfz2015fkic   0.63666
gfz2015fkuu   0.76987
gfz2015flis   0.47027
gfz2015fsjj   0.69921
gfz2015fxbv   0.98821
gfz2015fxdi   0.16451
gfz2015fyvk   1.02010
gfz2015gckd   1.82680
gfz2015ggjw  -0.21633
gfz2015gjbr   0.81166
gfz2015gkwa   0.30165
gfz2015gmgf   2.21550
gfz2015guhd  -0.29206
gfz2015hdcp   0.49271
gfz2015hepg  -0.40105
gfz2015hgbk   1.49900
gfz2015hpmk   1.13510
gfz2015hvgs   1.00880
gfz2015igsy   0.78209
gfz2015ixyy  -0.11133
gfz2015jkdw  -0.14721
gfz2015jwgl   0.70912
gfz2015jxjd   0.19641
gfz2015jzcv   2.79480
gfz2015kkqb   0.39347
gfz2015kkth  -0.34547
gfz2015ksni   1.24070
gfz2015lcma  -1.62870
gfz2015lhjq   0.40841
gfz2015lhjy   1.67140
gfz2015lytv   0.34854
gfz2015lzad   0.81520
gfz2015mddr   1.46470
gfz2015mfpy   0.39928
gfz2015mhym   1.29750
gfz2015nwug   1.81830
gfz2015ocdz   0.22910
gfz2015okmq   1.55870
gfz2015okpu  -0.50957
gfz2015opjp  -0.44941
gfz2015orkl   0.44975
gfz2015oyfl  -2.80460
gfz2015plal   1.04500
gfz2015qnho   0.86334
gfz2015qnto   0.75657
gfz2015qprd  -0.54322
gfz2015qvxu   2.14590
gfz2015rkrg  -0.63875
gfz2015sfdd   0.73275
gfz2015sfdh  -0.71354
gfz2015sfdl  -0.50773
gfz2015sfdv  -0.15374
gfz2015sfdy  -0.11564
gfz2015sfeo   0.07845
gfz2015sffn  -0.52707
gfz2015sfga   0.19662
gfz2015sfhz   0.50494
gfz2015sfiq  -0.49937
gfz2015sfjf   0.54359
gfz2015sfkz  -1.00960
gfz2015sflf  -0.18009
gfz2015sfln   0.68367
gfz2015sfmd   2.19940
gfz2015sfnb  -1.01430
gfz2015sfno   0.11270
gfz2015sfnv  -0.20003
gfz2015sfoc  -0.63948
gfz2015sfoh  -0.00484
gfz2015sfoq   2.38600
gfz2015sfpj  -0.29065
gfz2015sfqo  -0.55927
gfz2015sfqr  -0.17642
gfz2015sfrc  -1.73850
gfz2015sfte   0.70615
gfz2015sftu   0.14969
gfz2015sfuc  -0.90488
gfz2015sfwf   0.40418
gfz2015sfxn   0.54342
gfz2015sfzm   1.00780
gfz2015sgad   0.39444
gfz2015sgdj   0.02454
gfz2015sgdn   0.92146
gfz2015sggc   0.45792
gfz2015sghq   0.13936
gfz2015sglg   0.32457
gfz2015sgmm  -0.35068
gfz2015sgmr   2.09130
gfz2015sgoa   0.21842
gfz2015sgpu  -0.77430
gfz2015sguf   0.62379
gfz2015sgyd  -0.44928
gfz2015shel  -0.25699
gfz2015shhg  -0.35721
gfz2015shhu  -0.56326
gfz2015shjn  -0.20242
gfz2015shlp   0.24853
gfz2015shrg   0.78390
gfz2015shsz   2.25870
gfz2015sicf   0.43071
gfz2015sicu  -0.51279
gfz2015siem  -0.25443
gfz2015siyy   0.92861
gfz2015sjbx   0.19823
gfz2015sjfi   1.55900
gfz2015sjgk   1.09950
gfz2015sjjb   1.01270
gfz2015sjne   0.34275
gfz2015sjoj   0.51788
gfz2015sjpn  -0.34643
gfz2015sjvu   0.72346
gfz2015sjwi   1.09710
gfz2015skab   0.09266
gfz2015skgj   0.09405
gfz2015skia  -1.31340
gfz2015skpv  -0.16746
gfz2015skuk   1.62410
gfz2015skxu   0.39089
gfz2015sldx  -0.77201
gfz2015sljs  -2.95920
gfz2015slun   0.56490
gfz2015smym   0.52802
gfz2015snhn   0.30556
gfz2015snmr   1.04030
gfz2015snsf   0.47027
gfz2015snwh   0.13925
gfz2015snyd   0.96968
gfz2015soat   1.03120
gfz2015solh  -0.20218
gfz2015sowu   0.70998
gfz2015soxc   0.56291
gfz2015spal  -0.03625
gfz2015sqmy   0.50791
gfz2015srat   0.18387
gfz2015srxe   0.67109
gfz2015stas  -0.85649
gfz2015stcv  -0.15361
gfz2015stfy  -0.50180
gfz2015stso   0.00000
gfz2015subg   1.05100
gfz2015sunp   0.94321
gfz2015susq  -0.12604
gfz2015svjy  -0.25921
gfz2015svwm   1.24980
gfz2015swgn   1.07860
gfz2015swjx   0.09503
gfz2015sxmh   0.28125
gfz2015sxxu  -0.16349
gfz2015sydc   0.70003
gfz2015szcb   0.56821
gfz2015taml   0.80966
gfz2015tbdn   0.40627
gfz2015tbje   0.44786
gfz2015tcem   0.54964
gfz2015tchx  -0.11771
gfz2015tdbb   0.19257
gfz2015tdcu   0.48991
gfz2015tesj   0.07714
gfz2015tezd   1.51560
gfz2015tfxb   1.64350
gfz2015tgbp   0.23227
gfz2015thgc   0.70552
gfz2015thgp  -0.13231
gfz2015thwg   0.79074
gfz2015thwp   1.39430
gfz2015tixi  -0.18384
gfz2015tiyc  -0.27621
gfz2015tjhv   0.93236
gfz2015tkol  -0.68078
gfz2015tlba   0.50212
gfz2015tlkf   0.81671
gfz2015tnjd   0.69781
gfz2015tnla   0.54132
gfz2015tojz   0.45085
gfz2015totf   0.06111
gfz2015tpra  -0.07889
gfz2015tqjf   1.74400
gfz2015tsdm   0.36993
