# Nsamples: 64  MAD:  0.803  mean:  0.711  variance:  1.790
gfz2010bjeb   0.93335
gfz2010cqwl   0.77063
gfz2010eaoy  -0.48656
gfz2010eazu  -0.73377
gfz2010ecua   0.61546
gfz2010edcp  -1.35000
gfz2010eeij   0.18385
gfz2010eisx   1.09160
gfz2010ekyc   0.81690
gfz2010eltf   0.22480
gfz2010elyc  -0.00000
gfz2010excp  -0.08699
gfz2010exdd   2.04500
gfz2010ffhq   0.32283
gfz2010fync   2.32260
gfz2010gcdn  -0.38216
gfz2010iull   1.55410
gfz2010nmpc  -0.01608
gfz2010nwef   0.29502
gfz2010qpvi   0.44572
gfz2010rqwj   0.00000
gfz2010usho   1.23530
gfz2010yjev   1.53290
gfz2011aatr   0.82497
gfz2011adjs  -0.13489
gfz2011cykd   0.48038
gfz2011enva   3.41630
gfz2011gkzt   0.68808
gfz2011hlsa   0.61343
gfz2011lcxq   0.69035
gfz2011lzwj   0.99687
gfz2011mdie  -0.13592
gfz2011owvz   1.36870
gfz2011pdpt   2.65300
gfz2011rewa   0.38810
gfz2011toub   0.80138
gfz2011vhfi  -0.86575
gfz2011vrhg   0.07333
gfz2011wxfs   1.47160
gfz2011xyxj   0.83896
gfz2012bpkx  -0.43021
gfz2012enno   0.42347
gfz2012fzfa  -0.21894
gfz2012hnul  -1.29530
gfz2012jlox   1.35790
gfz2012kkup   0.06103
gfz2012klhx  -0.03554
gfz2012kudo   0.83273
gfz2012ldxg   1.41730
gfz2012minr   1.00220
gfz2012teic   0.57129
gfz2012ttoa   0.28040
gfz2012tvmv   0.09414
gfz2012wxlg   1.36520
gfz2012wypz   0.66499
gfz2012xssa   8.70790
gfz2013cajk  -1.06590
gfz2013ccnr   0.28467
gfz2013drxz   0.58612
gfz2013jkut   1.88260
gfz2013ldqb   0.99172
gfz2013nkgj   1.75070
gfz2013nwdi   0.72166
gfz2013qmer   0.05563
