# Nsamples: 22  MAD:  0.717  mean:  0.675  variance:  1.400
gfz2010iull   1.72080
gfz2010jkxj   0.09624
gfz2010nmpc   0.15950
gfz2011aatr   0.50407
gfz2011lcxq   0.48259
gfz2011lzwj   0.48090
gfz2011wxfs   1.29430
gfz2012jlox   0.12941
gfz2012kudo   0.51291
gfz2012oazn   0.11951
gfz2013nwdi   0.15694
gfz2013svci   0.65990
gfz2014bwue   1.02280
gfz2014fgvi  -0.30347
gfz2014gkgf   1.57770
gfz2014gmge   3.16580
gfz2014gmhr   2.35030
gfz2014gmnb   1.47310
gfz2014goba   1.25730
gfz2014nqfm   1.14960
gfz2014pvch   0.05611
gfz2014qlxd  -3.22610
