# Nsamples: 849  MAD:  1.443  mean:  1.434  variance:  3.468
gfz2010aban   0.02776
gfz2010ahla   0.02330
gfz2010ahqi   0.58167
gfz2010bedu   0.06098
gfz2010bfzs   3.30700
gfz2010bifb  -2.20880
gfz2010bjeb   1.06540
gfz2010bkob   1.51410
gfz2010bowy   2.11370
gfz2010boxo   2.06790
gfz2010bpda  -0.13347
gfz2010bxxs   1.47360
gfz2010caft   1.62010
gfz2010cdbt  -0.32376
gfz2010civi   2.38970
gfz2010ckeu   0.46194
gfz2010ckzm   3.80250
gfz2010cnwc   6.09450
gfz2010cqwl   0.92491
gfz2010ctuw   4.25660
gfz2010czps   0.63699
gfz2010dejx   1.13780
gfz2010diqn   1.48500
gfz2010dtmx   2.01040
gfz2010eaoy   1.16760
gfz2010eapk   2.22090
gfz2010eapn   0.86302
gfz2010eaqe   2.40370
gfz2010eaqx   0.62782
gfz2010eaqy   1.50670
gfz2010earq   1.77880
gfz2010earu   2.08870
gfz2010easf   4.10990
gfz2010eask   1.88740
gfz2010easo   1.67110
gfz2010easu   3.98780
gfz2010eato  -0.10270
gfz2010eatt  -2.01560
gfz2010eaty   2.82860
gfz2010eaul   0.99794
gfz2010eavd   0.02026
gfz2010eavp   2.37640
gfz2010eavs   1.22540
gfz2010eawb   3.17140
gfz2010eawu   3.06200
gfz2010eaxa   0.31098
gfz2010eaxn   2.19690
gfz2010eaya  -1.47040
gfz2010eayd   1.41260
gfz2010eayp   0.07487
gfz2010eaze   0.91245
gfz2010eazu   4.23140
gfz2010ebbd   0.00000
gfz2010ebby   1.83870
gfz2010ebdl   3.69740
gfz2010ebeh   0.48298
gfz2010ebek   1.96520
gfz2010ebfa   2.77990
gfz2010ebfx   1.64890
gfz2010ebhc  -1.99970
gfz2010ebih   0.22244
gfz2010ebin   0.27117
gfz2010ebiv   1.78030
gfz2010ebjg   1.27810
gfz2010ebkj   1.22700
gfz2010ebkx   2.45650
gfz2010ebla   0.24577
gfz2010ebll   4.07730
gfz2010ebmb   0.69340
gfz2010ebmi   0.19266
gfz2010ebnn   4.52720
gfz2010ebqt   0.22091
gfz2010ebqz   2.05640
gfz2010ebrm  -0.04209
gfz2010ebvm   0.82902
gfz2010ebvv   2.97030
gfz2010ebwp   2.70010
gfz2010ebxl   3.84100
gfz2010ebzk   0.60175
gfz2010ebzr   4.27340
gfz2010ecam   0.85206
gfz2010ecay   0.43133
gfz2010ecbi   0.75029
gfz2010eced  -0.37609
gfz2010ecfx   1.95560
gfz2010ecfy   1.32160
gfz2010echc   0.16226
gfz2010echy   1.25110
gfz2010ecka   2.38290
gfz2010ecns   1.75030
gfz2010ecps   3.73790
gfz2010ecro   1.77720
gfz2010ecua   2.05890
gfz2010ecvt   1.03830
gfz2010edat   0.93356
gfz2010eday   1.81610
gfz2010edbz   1.85960
gfz2010edcp  -0.25687
gfz2010edde   0.87421
gfz2010edhr   1.66870
gfz2010edim   3.46100
gfz2010edkp   2.50490
gfz2010edpb   3.27490
gfz2010edsk   0.52703
gfz2010edvf   1.79750
gfz2010edyi   1.65840
gfz2010eedu   1.32840
gfz2010eefo   2.55730
gfz2010eegn  -0.02059
gfz2010eeia   0.21698
gfz2010eeij   0.37211
gfz2010eekq   1.35310
gfz2010eeqy   1.45670
gfz2010eerh   1.77420
gfz2010eern   2.42490
gfz2010eevu   2.29230
gfz2010efkc   3.09330
gfz2010efsq   1.35560
gfz2010egld   1.86150
gfz2010egln   1.57610
gfz2010egmp   0.08880
gfz2010egsw   0.91396
gfz2010egyy   0.60878
gfz2010ehft   1.57870
gfz2010ehnm   0.81358
gfz2010ehrq   2.16920
gfz2010ehvj   1.71730
gfz2010eimf   0.19541
gfz2010eioi   0.77344
gfz2010eisx  -1.52010
gfz2010eixj   2.78930
gfz2010ejjg   2.14610
gfz2010ejju   2.25380
gfz2010ejka   1.64630
gfz2010ekoe   0.11694
gfz2010ekrv  -1.06460
gfz2010ekyc  -1.11250
gfz2010elhv   1.57740
gfz2010elin   2.15100
gfz2010eljf   3.31120
gfz2010eltf   0.75548
gfz2010elyc  -0.62062
gfz2010encm  -0.09723
gfz2010eoao   1.31730
gfz2010epbe   0.89627
gfz2010epxj   0.61508
gfz2010eqcn   0.80404
gfz2010eqjg   1.60210
gfz2010eqmu   0.89613
gfz2010erfy   2.48490
gfz2010erkn   1.40690
gfz2010erom   2.69930
gfz2010eruy   3.36410
gfz2010erwn   0.90368
gfz2010eryg   2.28820
gfz2010euan   0.71674
gfz2010eujm   0.10887
gfz2010evco   1.93250
gfz2010excp   1.10990
gfz2010exdd   1.20280
gfz2010exdl   1.51870
gfz2010exed   2.47020
gfz2010exel  -0.14952
gfz2010exfb   0.67597
gfz2010exgb   1.25000
gfz2010exhd   2.53040
gfz2010exhw   2.81760
gfz2010exmc   1.74440
gfz2010exno   1.47420
gfz2010exou   1.25070
gfz2010exqu   2.10030
gfz2010exsg   0.90982
gfz2010exyp   0.55683
gfz2010eyhh   0.71766
gfz2010eyiv   1.78700
gfz2010eyvq   2.29160
gfz2010ezax   1.94300
gfz2010ezck   2.21180
gfz2010ezwz   1.16590
gfz2010ezxd   0.13202
gfz2010faeu   0.96023
gfz2010falm  -0.53731
gfz2010fauz   1.79140
gfz2010fbpi   3.57110
gfz2010fcax   2.03190
gfz2010fczt   0.40366
gfz2010fdxr  -3.92170
gfz2010fedq   0.92936
gfz2010ffhq   0.08409
gfz2010ffjb   0.69778
gfz2010ffui   0.90843
gfz2010fhbl   0.71266
gfz2010figq   0.50731
gfz2010fjal   2.04510
gfz2010fkvg   1.53100
gfz2010flha   2.19560
gfz2010flrt   0.82395
gfz2010flxi   1.08610
gfz2010fneu   1.70990
gfz2010fobc   1.57320
gfz2010fona   1.55410
gfz2010fpmv   3.93160
gfz2010fpqy   0.35231
gfz2010fqdu   2.43870
gfz2010fqtj   0.76790
gfz2010fser   3.60230
gfz2010ftlm   1.56080
gfz2010fwzd   0.87343
gfz2010gdld   1.54970
gfz2010gjia   1.15020
gfz2010glqr   0.82506
gfz2010glxl   1.10460
gfz2010grjd   1.26760
gfz2010gslu   1.00390
gfz2010gtzt  -0.48730
gfz2010gyqp   3.19590
gfz2010gzxr   1.77120
gfz2010hlmq   1.47130
gfz2010hnnf   0.49253
gfz2010homc   3.35570
gfz2010hrkr   0.58858
gfz2010hufk   0.36136
gfz2010hxgv   0.76359
gfz2010hxhe  -1.09660
gfz2010hykt  -0.20057
gfz2010ibiy   0.95663
gfz2010ibxj  -0.22741
gfz2010iciq   0.30424
gfz2010imfv   4.18300
gfz2010iobp   2.78190
gfz2010iqnm   1.28070
gfz2010irqr   2.92350
gfz2010isrp   0.24983
gfz2010ited   1.44640
gfz2010iull   0.67506
gfz2010izzj   1.31840
gfz2010jssh  -0.23376
gfz2010jxbm  -0.97665
gfz2010kdyc   0.32305
gfz2010lczp   7.96260
gfz2010lepw  -0.89396
gfz2010liqs   1.48300
gfz2010lkcf   3.11920
gfz2010lopz   2.13710
gfz2010lsft   0.43701
gfz2010lwuq  -0.59959
gfz2010mkuu  -0.18976
gfz2010moyw   0.39707
gfz2010mwdq   3.30740
gfz2010ncrl   1.72530
gfz2010nlkh   0.98584
gfz2010nmpc   4.24530
gfz2010nqwf   0.77233
gfz2010nqwo   1.04030
gfz2010nrew   0.26931
gfz2010nrjo   0.87919
gfz2010nsck   1.73920
gfz2010osjs   1.78580
gfz2010pcxi   2.84140
gfz2010pewa  -0.87812
gfz2010pewx  -0.50130
gfz2010pxgh  -0.93864
gfz2010qkat  -0.20286
gfz2010rkfp  -0.69809
gfz2010rqwj   0.46582
gfz2010sfee   5.14160
gfz2010skqo   2.00090
gfz2010skve   2.16810
gfz2010upfb   1.08570
gfz2010upiw   1.48330
gfz2010usho   0.55980
gfz2010ustq   1.89140
gfz2010utcg   0.11337
gfz2010uyhb   0.73701
gfz2010vbmd   0.50164
gfz2010vxvs   0.12171
gfz2010wioh   1.48240
gfz2010wntz  -0.15077
gfz2010wofs   3.91100
gfz2010yqqb   0.68042
gfz2010zdpo   1.58110
gfz2011alip   2.29380
gfz2011aqxf   0.50455
gfz2011aupi  -0.11758
gfz2011blsi  -0.15120
gfz2011bnzn  -0.15242
gfz2011cndo   3.10800
gfz2011csju   2.22290
gfz2011ctbn  -0.18732
gfz2011cvcg   0.66412
gfz2011cvfg   4.04630
gfz2011cykd  -0.54823
gfz2011cylz   0.88823
gfz2011cynl   1.21480
gfz2011cyre   2.00510
gfz2011cyuk   0.45690
gfz2011dbev   1.08070
gfz2011dbig   0.64253
gfz2011dbon   1.75260
gfz2011dcqb  -2.32030
gfz2011dcqf   1.34460
gfz2011ddao   0.27485
gfz2011deaf   1.47220
gfz2011dkyi   0.70333
gfz2011dldn  -0.02539
gfz2011dlyx   2.46200
gfz2011dpqx  -0.04174
gfz2011dqio   0.14515
gfz2011duyr   0.81101
gfz2011eltw  10.63700
gfz2011enva  -2.29870
gfz2011etje   2.96660
gfz2011fdzv   1.97930
gfz2011fgvr   1.56060
gfz2011fkbn   2.11580
gfz2011fnsw  -0.56042
gfz2011gbmx   1.27100
gfz2011ggvf   2.12000
gfz2011gkzt  -1.77230
gfz2011haid   7.82200
gfz2011hbex   2.70730
gfz2011hebt   1.98140
gfz2011hfkj   1.03710
gfz2011hlsa   1.05120
gfz2011hlth   1.94200
gfz2011hpgx   2.14550
gfz2011hpqp   1.35030
gfz2011hvbu   3.09800
gfz2011ieie   0.95112
gfz2011ixai   0.35856
gfz2011izqa   1.94510
gfz2011jplh   0.95890
gfz2011knoo   0.44623
gfz2011kxzp   0.91963
gfz2011lcxq  -3.32810
gfz2011ldna   0.31716
gfz2011lzwj  -0.69346
gfz2011mdie   0.55401
gfz2011mjom   1.33510
gfz2011mpme   1.98170
gfz2011nauw  -0.71229
gfz2011nrwc   4.22930
gfz2011nsex   6.33970
gfz2011ntkh   0.19565
gfz2011nudm   1.22830
gfz2011ohcy   2.26840
gfz2011oiqe   3.52600
gfz2011oiwk   0.12108
gfz2011olkk   0.32219
gfz2011ornx   0.18961
gfz2011owvz   3.18740
gfz2011qoif   0.32347
gfz2011qvae   2.31380
gfz2011rdby   1.78400
gfz2011rewa   0.24722
gfz2011rgwp   2.01200
gfz2011sagt   3.70010
gfz2011sawg   0.04810
gfz2011sqoy   0.15965
gfz2011svix  -0.18224
gfz2011tivu   3.76870
gfz2011tjue   3.09630
gfz2011tnag   0.10378
gfz2011toub  -0.54574
gfz2011tpfr   1.35800
gfz2011tsnp   1.63420
gfz2011uepx   0.38010
gfz2011uiul   0.06051
gfz2011ujze   1.22170
gfz2011ukmp   0.70851
gfz2011uphh   0.61114
gfz2011urxy  -0.72040
gfz2011vhfi   3.27450
gfz2011vkun   1.24270
gfz2011vqnr   1.15450
gfz2011vrhg  -1.88680
gfz2011vxns   0.34122
gfz2011wcic  -0.01359
gfz2011wijj   0.56678
gfz2011wjul   0.44880
gfz2011xqru  -1.00350
gfz2011xyxj   2.11640
gfz2011yfdx   0.75631
gfz2011yybo   0.46711
gfz2011zlrd  -0.45316
gfz2011zqhh  -4.81410
gfz2012aqgp   3.65740
gfz2012aqtq   0.43705
gfz2012bfah   2.58660
gfz2012bgnk   0.68932
gfz2012bpkx   0.09816
gfz2012bpwl   0.85066
gfz2012bszs   2.44990
gfz2012byad   0.94919
gfz2012cbed   1.01550
gfz2012cgvr   0.29696
gfz2012cnod   1.79750
gfz2012cxdn   0.50837
gfz2012cyof   0.00000
gfz2012czlw   2.44160
gfz2012ddma   0.42071
gfz2012dinb   1.17560
gfz2012dyyh  -0.39016
gfz2012ekda   2.05180
gfz2012emjg  -0.11459
gfz2012enno   0.46028
gfz2012ewgo   0.12467
gfz2012ewkj   1.04660
gfz2012fwfo   1.36960
gfz2012fwob   2.41060
gfz2012fwtr   0.54202
gfz2012fzfa   0.57344
gfz2012gocc   1.36370
gfz2012hzbe  -1.39800
gfz2012iamr  -0.09202
gfz2012idje   0.30595
gfz2012jmwd   0.01687
gfz2012joqe   0.76052
gfz2012jshk   1.68490
gfz2012jupx   1.61020
gfz2012keor   0.06911
gfz2012kkup   0.40087
gfz2012klhx   0.33293
gfz2012kuct   2.10470
gfz2012kudo   0.40825
gfz2012lboz   1.49480
gfz2012lczo   1.75790
gfz2012ldzj   2.36240
gfz2012llug   5.34910
gfz2012lpvn   0.06895
gfz2012lxkv   1.11090
gfz2012minr   1.89750
gfz2012mpyl   3.26490
gfz2012nojx   2.05220
gfz2012nolo   0.85227
gfz2012nqnk  -0.75224
gfz2012oilt  -0.01101
gfz2012ostk   0.66184
gfz2012peex  12.17900
gfz2012plbw   1.14360
gfz2012pqmu   1.07840
gfz2012priv   3.05970
gfz2012pspd  -2.04190
gfz2012rboy   0.15611
gfz2012rgkl  -0.33587
gfz2012ronz   2.94160
gfz2012rqlg   2.05430
gfz2012ruks  -0.49021
gfz2012rypu   0.46787
gfz2012sfer   0.09538
gfz2012svpr   8.14450
gfz2012syvl   5.52190
gfz2012tbbp  -0.05630
gfz2012teic   0.80655
gfz2012tphj   0.03161
gfz2012tyxl   0.33737
gfz2012uafg   1.65420
gfz2012uaqj   1.98200
gfz2012uciv   4.67280
gfz2012uhup   2.27810
gfz2012uqzp   0.19120
gfz2012uyie  -0.32477
gfz2012vpza  14.44900
gfz2012vrgb  -1.17230
gfz2012vsev   0.52605
gfz2012vwvd   0.12037
gfz2012wizz   1.37270
gfz2012wklq   4.24810
gfz2012wtkr   2.99800
gfz2012wvfl   3.32540
gfz2012wxer   3.08920
gfz2012wxlg   2.08910
gfz2012wxnu   1.70020
gfz2012wybs  -0.30896
gfz2012xmxy  -0.18525
gfz2012yxxu   1.11750
gfz2012zitl   0.18548
gfz2012zjpv  -0.12677
gfz2013aahq   0.05280
gfz2013akgj   0.16672
gfz2013aqaw   5.54820
gfz2013axoj   8.88360
gfz2013bdke   0.23234
gfz2013bokp   2.12190
gfz2013bouj  -0.98322
gfz2013ccnr   3.66980
gfz2013cnyk  -0.31259
gfz2013cwpn   2.03210
gfz2013czeq   0.20943
gfz2013dkly   0.93087
gfz2013dkym   0.28921
gfz2013dofo   2.91140
gfz2013dojq   0.77051
gfz2013drxz   0.74701
gfz2013dspt   3.84400
gfz2013dsrk   1.59330
gfz2013dvyh   3.52810
gfz2013egni   4.36030
gfz2013egpu   0.21856
gfz2013fcto   0.81360
gfz2013fkcl   0.08767
gfz2013huwr   2.23300
gfz2013iayx   0.28981
gfz2013ikgo   0.64220
gfz2013inux   3.96310
gfz2013iodt   0.16634
gfz2013iopd   2.06220
gfz2013jdrx  10.65600
gfz2013jfah   0.38495
gfz2013jgij   2.47970
gfz2013jgip   1.33080
gfz2013jkut  -0.69393
gfz2013jokw   2.59350
gfz2013jusj   0.22276
gfz2013jvhy  -0.15564
gfz2013jwvc   1.51070
gfz2013kdeo  -0.40311
gfz2013kheb   0.75147
gfz2013kwag   0.03446
gfz2013kweg  -0.69351
gfz2013ldqb   0.83449
gfz2013lfyb  -0.07598
gfz2013lixa   2.35310
gfz2013lljw  -0.05863
gfz2013lyko   2.44400
gfz2013mqmv   1.16030
gfz2013mtqd   0.53107
gfz2013mvdm   0.06202
gfz2013mwbh   1.79220
gfz2013ncjp   2.37300
gfz2013nixj   0.68470
gfz2013nkgj  -1.31290
gfz2013nuvi   0.48804
gfz2013nwdi   1.16370
gfz2013oksi   0.10429
gfz2013onjy  -0.10411
gfz2013oqsc   0.36949
gfz2013ornz   1.02780
gfz2013orzn   4.14760
gfz2013ouvt   0.05389
gfz2013ozku   0.27588
gfz2013pfbx   2.30130
gfz2013pfnf   0.18991
gfz2013qcck   1.66730
gfz2013qfsq  -0.25960
gfz2013qmer  -1.58350
gfz2013qzdq   1.02700
gfz2013reav   0.37519
gfz2013roki   0.39643
gfz2013rsnr   2.02220
gfz2013scub  -0.05430
gfz2013sdus   3.58340
gfz2013snbr  -1.64070
gfz2013sqkb  -0.07767
gfz2013suvn   2.06200
gfz2013svci   1.03430
gfz2013tcxc   2.42480
gfz2013tect   0.19853
gfz2013toxf   2.64210
gfz2013uauo   1.31010
gfz2013umya   0.13935
gfz2013uthl   8.54750
gfz2013vcoa  -0.56871
gfz2013vexx  -0.42381
gfz2013vfyw   1.00480
gfz2013vfzp   0.39114
gfz2013vhsb   0.21626
gfz2013vijl   0.54216
gfz2013vjjc   1.06850
gfz2013vlth   1.03100
gfz2013vrmy  -0.43822
gfz2013vvrq   0.28108
gfz2013wbyr  -1.06450
gfz2013wjmm   0.83308
gfz2013wkyk   3.52490
gfz2013wnpr  -2.81550
gfz2013wqhq   0.27983
gfz2013wuml   0.01959
gfz2013xgek  -0.59903
gfz2013xizq   0.77137
gfz2013xkbh  -0.64777
gfz2013xpsm   3.22930
gfz2013xsdt   0.27347
gfz2013xtwj  -0.02255
gfz2013xxcc   0.98521
gfz2013xxwv   1.98410
gfz2013xxxq   2.21970
gfz2013xyzb  -0.61902
gfz2013yhpk   1.91670
gfz2013yixl   0.57199
gfz2013ylbx  -0.34665
gfz2013ypdc   0.31905
gfz2013yqkv   2.13330
gfz2013yulx   0.03834
gfz2013yzte  -1.73480
gfz2013zaxb  -0.12294
gfz2014abgd   1.97080
gfz2014adjs  -0.41922
gfz2014afmx   2.77190
gfz2014ajlk   2.94850
gfz2014algk  -0.93155
gfz2014alwz  -0.19187
gfz2014ande   1.15270
gfz2014arnc   0.03404
gfz2014bagd   1.48940
gfz2014bdfd   0.01541
gfz2014bezu   2.26530
gfz2014bfng   1.50500
gfz2014bhhv   2.37590
gfz2014bmta   3.61290
gfz2014bwue   1.37890
gfz2014bzxy  -0.98808
gfz2014capn  -0.17241
gfz2014chdv   4.01370
gfz2014claq   0.70256
gfz2014cueu   0.52967
gfz2014czua   2.27310
gfz2014dddc  -0.59636
gfz2014dffd   4.17250
gfz2014ebmc   3.73720
gfz2014eght  -0.95812
gfz2014egwu   1.29240
gfz2014ehfp  -0.58449
gfz2014ehsf   2.85210
gfz2014ekcr   2.29950
gfz2014ekdn   1.72410
gfz2014enhi   2.98030
gfz2014ettc   1.40250
gfz2014fcsy   2.42630
gfz2014femz   2.46360
gfz2014fgvi  -1.76410
gfz2014fgwt   0.07978
gfz2014fgxt   3.45560
gfz2014fhdw   1.43480
gfz2014fhla   2.02490
gfz2014fhrq   2.09570
gfz2014fjdz   0.28091
gfz2014fjyo   3.71300
gfz2014fkmr   2.84830
gfz2014fkmx   3.00970
gfz2014fnbh   0.13409
gfz2014frdz   5.24730
gfz2014ftka   1.73730
gfz2014ftoc   2.13970
gfz2014ftpw   1.93920
gfz2014ftrk   4.06180
gfz2014furx   5.02890
gfz2014fusj   1.57830
gfz2014fuub   6.06700
gfz2014fval   3.42090
gfz2014fvrg   3.24350
gfz2014fyfr   0.93248
gfz2014gbcz   1.50750
gfz2014ghpe  -1.61720
gfz2014gkgf   1.57320
gfz2014gkjt   5.42900
gfz2014gktq   2.21780
gfz2014gltx   1.75900
gfz2014glvn   2.80240
gfz2014gmge   1.53820
gfz2014gmhr   0.59694
gfz2014gmip   3.80170
gfz2014gmku   1.72210
gfz2014gmnb   1.02940
gfz2014gmnw   1.55170
gfz2014gmor  -0.94922
gfz2014gmuw  -0.06345
gfz2014gmzl   2.18080
gfz2014goba   3.82930
gfz2014gogv   2.44590
gfz2014gphr   2.59490
gfz2014gpya   2.54940
gfz2014gqer   4.96190
gfz2014gsqs   2.77370
gfz2014gtlu   1.10770
gfz2014gull   0.80286
gfz2014gumd   2.88880
gfz2014gwab   0.18165
gfz2014gxvf   2.39200
gfz2014gxxo   3.65120
gfz2014gzrm   1.16320
gfz2014hasj  -0.06352
gfz2014hbqb   5.65970
gfz2014hcmj   1.10690
gfz2014hfhl   0.78956
gfz2014hgqo  -0.62625
gfz2014hkcf   0.48312
gfz2014hlib   0.09730
gfz2014hocg   1.40770
gfz2014hqxs   4.87300
gfz2014huaj   2.09010
gfz2014hvdm   5.76640
gfz2014hxev  -0.02365
gfz2014hzdy   0.49261
gfz2014hzfw   1.40120
gfz2014ieam   8.48660
gfz2014itjx   3.01800
gfz2014itkw   2.56650
gfz2014itpj   0.03655
gfz2014jcjt   1.31450
gfz2014jfis  -0.16009
gfz2014jhra   0.14684
gfz2014jipr  -1.54390
gfz2014jjhc   1.64920
gfz2014jjkh  -2.83660
gfz2014jtfe   1.03540
gfz2014jvow  -0.55170
gfz2014jwmh   3.60540
gfz2014kbuk   2.14850
gfz2014kbwm   0.47875
gfz2014khlk   3.56120
gfz2014kndc   0.64034
gfz2014knks  -0.61667
gfz2014knxs  -1.47890
gfz2014ksmz   0.91161
gfz2014kssw   1.07640
gfz2014kyan   2.22920
gfz2014lbcq   9.31290
gfz2014lgqn   3.64950
gfz2014lhqn   6.79700
gfz2014lnqy   0.42994
gfz2014lwom   2.18240
gfz2014lyhk   3.17160
gfz2014macx   1.66210
gfz2014madw   6.73760
gfz2014mlqw   0.37792
gfz2014mtum   3.67990
gfz2014mvza  -0.48489
gfz2014mxkr   8.85480
gfz2014ndue   1.42770
gfz2014ngvt   1.73820
gfz2014nnxd   3.00430
gfz2014nowp   2.72300
gfz2014npeo   3.20180
gfz2014nphm   4.16870
gfz2014nqfm   2.21150
gfz2014nrie   2.85220
gfz2014oyly   1.98350
gfz2014qlxd  -1.78910
gfz2014qngj   2.96970
gfz2014qqhm   3.58760
gfz2014qtwv   0.92724
gfz2014rbpx  -0.09259
gfz2014rdsn   0.89709
gfz2014rnrn   5.94940
gfz2014romy   1.04710
gfz2014ssvz   1.31780
gfz2014tqdo   0.22407
gfz2014tqsf   4.91490
gfz2014tzsd   2.93420
gfz2014ubwn  -0.70749
gfz2014udgg   1.95960
gfz2014uohh   0.87081
gfz2014uuuf   3.23590
gfz2014uvji   1.22130
gfz2014uxyg   0.02057
gfz2014vhms   1.53360
gfz2014vivo  -0.00000
gfz2014vjoz   0.79782
gfz2014watn  -1.99500
gfz2014wjko   0.58204
gfz2014wrkh   3.38200
gfz2014wwib   3.33700
gfz2014xqqd   1.99700
gfz2014yula   1.31980
gfz2015apnk  -2.08450
gfz2015aruz   2.29440
gfz2015atxv   9.19650
gfz2015berb   1.75550
gfz2015bphe   0.02431
gfz2015bsnl   1.84990
gfz2015bucr   1.36900
gfz2015cewd   0.22802
gfz2015chhn   0.60327
gfz2015chqn   5.10040
gfz2015cxxk   0.66040
gfz2015cyjd   1.54390
gfz2015czfv   1.03400
gfz2015dizn   1.87310
gfz2015dskr   2.99710
gfz2015dvbn   1.14530
gfz2015ednc   0.12143
gfz2015eiky  -0.45613
gfz2015elgy   2.52000
gfz2015etai   0.42781
gfz2015fbbk   1.88330
gfz2015fjhk   3.38280
gfz2015fkgt   0.26107
gfz2015fkic   0.43869
gfz2015fkjs   7.30520
gfz2015flis  -1.01710
gfz2015fsjj  -1.61240
gfz2015ggjw   1.54660
gfz2015hpmk  -0.68414
gfz2015hwkv  -0.85625
gfz2015hwzw   1.03590
gfz2015iwqk  -0.14717
gfz2015ixyy   1.02950
gfz2015jmlf   0.59479
gfz2015kakw   0.59609
gfz2015kfsu   0.71923
gfz2015ksni  -0.85968
gfz2015lfud   1.80610
gfz2015lhjy  -0.22188
gfz2015lytv   0.75621
gfz2015mbgr   1.02680
gfz2015mpte   5.62150
gfz2015okmq   2.80550
gfz2015oyfl   2.00420
gfz2015qpvd   0.89410
gfz2015qvxu   0.92155
gfz2015rddx  -0.77218
gfz2015rnis   0.13048
gfz2015sfdd   2.40330
gfz2015sfdy   3.73620
gfz2015sffn   2.02640
gfz2015sfnb   2.75900
gfz2015sfno   5.45000
gfz2015sfoc   2.00470
gfz2015sfqo   1.28210
gfz2015sfrc   1.93540
gfz2015sfuc   3.51270
gfz2015sfwf   2.97690
gfz2015sgad   2.02940
gfz2015sgdj   2.63050
gfz2015sgdn   2.41760
gfz2015sggc   3.84590
gfz2015sghq   1.20780
gfz2015sglg  -0.99110
gfz2015shjn   3.53200
gfz2015shrg   1.25300
gfz2015shsz   1.80080
gfz2015sjgk   2.40750
gfz2015sjvu   2.38630
gfz2015sjwi   3.27110
gfz2015skxu   4.05810
gfz2015sldx   1.50820
gfz2015slun   3.96280
gfz2015snsf   1.14580
gfz2015snwh   1.06600
gfz2015snyd   2.49780
gfz2015soat   3.34340
gfz2015soxc   1.90270
gfz2015ssoe  -0.13817
gfz2015svwm   1.57580
gfz2015szcb   3.46160
gfz2015taml   2.49160
gfz2015teyc  -0.77242
gfz2015tqff   0.90953
