# Nsamples: 125  MAD:  0.943  mean:  1.334  variance:  1.106
gfz2010ahqi   0.11427
gfz2010bxxs   0.67218
gfz2010cqwl   1.04150
gfz2010eaoy   2.02950
gfz2010eapk   0.80905
gfz2010eaqe   3.54630
gfz2010eaqy   1.27890
gfz2010earu   1.78140
gfz2010easo   2.45460
gfz2010eawu   0.76814
gfz2010ebhc   1.16000
gfz2010ebkj   2.83110
gfz2010ebnn   1.47540
gfz2010ebvv   1.33010
gfz2010ecua   1.47030
gfz2010edyi   2.20110
gfz2010egmp   0.99780
gfz2010ehsy   3.44430
gfz2010eioi   1.04790
gfz2010eisx   0.95583
gfz2010eixj  -0.42597
gfz2010ejjg   1.69730
gfz2010ekaw   0.88553
gfz2010ekyc   0.42398
gfz2010elhv   2.02530
gfz2010eltf   0.37032
gfz2010elyc   0.26055
gfz2010erkn   0.55404
gfz2010erom   0.32582
gfz2010eryg  -0.11162
gfz2010excp   2.29320
gfz2010exdd   0.52413
gfz2010exdl   1.33840
gfz2010ezck   1.23160
gfz2010ezwz   1.37560
gfz2010fedq   2.17180
gfz2010ffhq   2.02960
gfz2010fkhd   1.84110
gfz2010fync   2.88270
gfz2010gcrp   1.71890
gfz2010gdld  -0.56612
gfz2010iobp  -2.04710
gfz2010iqnm   2.55860
gfz2010ited   0.25667
gfz2010iull   1.91380
gfz2010mkuu   0.02145
gfz2010onma  -0.22116
gfz2010rqwj   1.83600
gfz2011aatr   1.23330
gfz2011adjs   0.94626
gfz2011alip   1.61660
gfz2011lcxq   1.39480
gfz2011lzwj   0.67386
gfz2011nudm  -0.63030
gfz2011rewa   1.60070
gfz2011vrhg  -1.57710
gfz2011wxfs   1.55970
gfz2011xyxj   1.73510
gfz2012enno   1.53020
gfz2012hnul   1.44510
gfz2012jgvj   0.90859
gfz2012jlox   2.16280
gfz2012keor   2.03610
gfz2012kkup   2.48130
gfz2012kuct   1.98610
gfz2012kudo   2.12060
gfz2012ostk   3.52990
gfz2012tzcc   1.10440
gfz2012wklq   1.24620
gfz2012wypz   2.18470
gfz2012zjpv   3.63150
gfz2013cwpn   3.37340
gfz2013drxz   1.78150
gfz2013jusj   1.56530
gfz2013jwvc   2.68930
gfz2013lixa   1.12080
gfz2013qmer   1.10440
gfz2013svci   1.66170
gfz2013uauo   2.85560
gfz2013vfyw   2.36910
gfz2013vfzp   2.48330
gfz2013vjjc   0.74700
gfz2014clnq   0.93124
gfz2014cvxx   1.29070
gfz2014czqi   1.79620
gfz2014dhxt  -0.61443
gfz2014fgvi   2.63140
gfz2014fhla   1.04010
gfz2014ftka   2.27010
gfz2014gkgf   2.31170
gfz2014gmhr   3.06610
gfz2014hasj   1.31570
gfz2014hocg  -0.01993
gfz2014ntdh  -0.45451
gfz2014oinz   1.95570
gfz2014ssvz  -0.07969
gfz2014watn   1.33570
gfz2015chhn   1.32500
gfz2015cyjd   0.34492
gfz2015fjhk  -0.44643
gfz2015fkgt   0.21956
gfz2015fsjj   0.94361
gfz2015gckd   1.85520
gfz2015kfsu   0.31129
gfz2015lhjy   1.39380
gfz2015lytv   2.72620
gfz2015qnho   1.14810
gfz2015sfdd   1.79110
gfz2015sfdl   1.53130
gfz2015sfdv   1.23040
gfz2015sfdy   1.84790
gfz2015sfeo   0.76944
gfz2015sfhz   0.08612
gfz2015sfno   1.94160
gfz2015sjne   1.65580
gfz2015skpv  -0.89348
gfz2015smym   2.19410
gfz2015snwh   2.18790
gfz2015soat   0.48208
gfz2015soxc   1.68170
gfz2015svwm   2.36330
gfz2015swgn   2.19480
gfz2015taml   0.03877
gfz2015tiyc  -0.08588
gfz2015tnjd   1.85630
