# Nsamples: 461  MAD:  0.733  mean:  1.429  variance:  1.731
gfz2010ahqi   1.16790
gfz2010bfzs   1.37820
gfz2010bgth   1.97160
gfz2010bhhq   0.25757
gfz2010bjeb   1.18720
gfz2010bjsl   0.68942
gfz2010bowy   1.14250
gfz2010bxxs   1.45240
gfz2010cbkg   1.50060
gfz2010cqwl   1.08840
gfz2010czps   0.33258
gfz2010dlgc   1.45050
gfz2010eaoy   0.86437
gfz2010eapk   0.14521
gfz2010eapn   2.21860
gfz2010eaqe   0.39461
gfz2010eaqx   0.22897
gfz2010eaqy   1.21830
gfz2010earu   0.17297
gfz2010easf   1.37320
gfz2010eask  -1.44590
gfz2010easo   1.35590
gfz2010easu   1.04560
gfz2010eati  -1.73970
gfz2010eato   1.53600
gfz2010eaul   1.63180
gfz2010eavs   0.91307
gfz2010eawb   2.11700
gfz2010eawu   1.64010
gfz2010eaxn   0.12902
gfz2010eayx   1.23550
gfz2010eaze   1.94500
gfz2010eazu  -0.68529
gfz2010ebbd   0.13414
gfz2010ebby  -0.47613
gfz2010ebeh   1.61800
gfz2010ebfx  -0.10774
gfz2010ebhc  -1.10330
gfz2010ebih   0.75554
gfz2010ebin   1.23530
gfz2010ebiv   1.63690
gfz2010ebjg   1.12190
gfz2010ebjy   0.65949
gfz2010ebkj   0.90820
gfz2010ebla   2.46010
gfz2010ebll   1.32190
gfz2010ebmb   0.71814
gfz2010ebmi   1.74600
gfz2010ebnn   1.79160
gfz2010ebrm   0.93988
gfz2010ebsv   1.75080
gfz2010ebtk   0.27389
gfz2010ebvm  -0.72125
gfz2010ebvv   1.57390
gfz2010ebwp   1.28130
gfz2010ebxl   1.53590
gfz2010ebzk   1.15860
gfz2010ebzr   1.40180
gfz2010ecay   1.53110
gfz2010ecbi  -0.55892
gfz2010eccq   1.31040
gfz2010echc   1.29770
gfz2010echy   1.20840
gfz2010ecns   0.77455
gfz2010ecua   0.73021
gfz2010edbz   1.24110
gfz2010edcp   1.00890
gfz2010edde   0.85085
gfz2010edkp   0.53131
gfz2010edpb   1.29560
gfz2010edvf   1.90730
gfz2010edyi   0.73261
gfz2010eeij  -0.24593
gfz2010eern   1.62040
gfz2010eevu   1.26410
gfz2010efak   1.89670
gfz2010egmp   1.24980
gfz2010ehaj   1.82780
gfz2010eioi   2.08840
gfz2010eisx  -2.10690
gfz2010eixj   2.18490
gfz2010ejjg   1.74690
gfz2010ekaw   1.70600
gfz2010ekoe   1.19720
gfz2010ekyc   1.01110
gfz2010elhv   0.30924
gfz2010eltf   1.18070
gfz2010elyc   0.45281
gfz2010encm   1.22840
gfz2010eoao   1.17460
gfz2010epbe   2.04530
gfz2010eqjg   1.30560
gfz2010eqmu   1.20140
gfz2010erdi   0.93532
gfz2010erkn   1.16010
gfz2010erna   3.24180
gfz2010erom   0.97835
gfz2010erum   1.67150
gfz2010erxk   1.31140
gfz2010eryg   0.74613
gfz2010eujm   1.27810
gfz2010evco   2.25090
gfz2010ewvc   1.41420
gfz2010ewyu   0.84486
gfz2010excp   1.71200
gfz2010exdd   0.59892
gfz2010exdl   1.88560
gfz2010exed   0.70357
gfz2010exgb   1.21500
gfz2010exhd   1.47210
gfz2010exhw   1.63250
gfz2010exjw   0.38579
gfz2010exmc   0.51089
gfz2010exno   1.52810
gfz2010exsg   0.56161
gfz2010eyaz   2.28380
gfz2010eyiv   0.32626
gfz2010ezax   1.47920
gfz2010ezck   1.08480
gfz2010ezwz   0.87753
gfz2010ezxd   0.67123
gfz2010falm   1.56460
gfz2010fcax   2.77480
gfz2010fcxy  -5.21200
gfz2010fedq   2.36700
gfz2010ffhq   1.20630
gfz2010ffjb   2.00640
gfz2010figq   0.59881
gfz2010fika   0.20037
gfz2010fjal   1.54940
gfz2010fjas   1.61860
gfz2010flha   0.35816
gfz2010fpqy   2.15850
gfz2010fqdu   3.04970
gfz2010fupn   0.23932
gfz2010fync   0.35123
gfz2010gcrl  -0.55963
gfz2010gcrp  -3.53830
gfz2010gdld   0.16716
gfz2010glxl   1.39200
gfz2010grjd   2.04070
gfz2010gtzt   1.37030
gfz2010gyqp   1.21030
gfz2010gzxr  -0.05599
gfz2010hbka   0.73222
gfz2010hllj   1.26850
gfz2010hlmq   0.98686
gfz2010hptz   0.87805
gfz2010hxgv   1.42720
gfz2010icqq   0.69743
gfz2010iibf   1.88590
gfz2010imfv   0.86718
gfz2010iobp   2.30530
gfz2010iqnm   1.71740
gfz2010iull   2.42490
gfz2010jpyj   0.42427
gfz2010jssh   0.20198
gfz2010jxbm   1.47250
gfz2010kdyc   2.00570
gfz2010mant  -0.61987
gfz2010mgss   0.99777
gfz2010moyw   1.25260
gfz2010mpuy   1.58960
gfz2010mwdq   0.61678
gfz2010nmpc   1.00410
gfz2010nqwo   1.39580
gfz2010nrjo   1.82890
gfz2010nsck   0.82538
gfz2010nwef   1.50080
gfz2010nxsy   0.73146
gfz2010onma   0.69323
gfz2010pbdz   3.48250
gfz2010pewx   1.68980
gfz2010pfyu   1.56220
gfz2010pxgh  -0.40435
gfz2010qpvi   0.95865
gfz2010rhas   0.95681
gfz2010rqwj   0.69805
gfz2010rywq   0.97245
gfz2010sfee   1.26300
gfz2010srdb   1.04250
gfz2010tcrl   1.43280
gfz2010upfb   0.49042
gfz2010usho   2.16790
gfz2010ustq   1.86640
gfz2010utcg   1.35150
gfz2010vyxd   1.23800
gfz2010yjev   1.22110
gfz2010yosr   2.15630
gfz2011aatr   1.07980
gfz2011adjs   0.56898
gfz2011alip   1.66730
gfz2011aqxf   9.27880
gfz2011bgrp   0.71318
gfz2011bhha   0.37172
gfz2011cndo   1.50950
gfz2011csju   1.02850
gfz2011cvfg   1.19480
gfz2011cykd   0.73854
gfz2011cynl   1.93830
gfz2011cyre   1.92920
gfz2011cyuk   0.79490
gfz2011dbev   1.22610
gfz2011dbig   1.12590
gfz2011dbon   1.01950
gfz2011dbwt   1.74130
gfz2011dcqb   0.28879
gfz2011dkyi   2.51390
gfz2011dpqx   2.01660
gfz2011ecaj   1.10300
gfz2011ehzq   1.49330
gfz2011enva   0.57944
gfz2011etje   1.52650
gfz2011gbmx   1.45140
gfz2011gcwb   2.61930
gfz2011gjlx   1.31130
gfz2011gkzt   1.05010
gfz2011hfkj   1.25590
gfz2011hlqw   1.13440
gfz2011hlsa   1.12080
gfz2011hlth   1.81150
gfz2011hpqp   2.74240
gfz2011jplh   1.07340
gfz2011kxzp   1.34110
gfz2011lcxq   1.53060
gfz2011lzwj   2.20990
gfz2011mdie   1.94570
gfz2011mpme   1.18330
gfz2011nrwc   3.13410
gfz2011nrwv   1.49130
gfz2011ntkh   1.37170
gfz2011nudm   1.13270
gfz2011olkk   1.64200
gfz2011orgn   1.41900
gfz2011ornx   1.41640
gfz2011owvz   0.86395
gfz2011rewa   1.27330
gfz2011rsrh   1.12310
gfz2011sagt   1.91290
gfz2011toub   2.14520
gfz2011tpbl   2.35810
gfz2011vhfi   2.17540
gfz2011vnza   1.42360
gfz2011vrhg   1.13520
gfz2011vxns  -0.10289
gfz2011wxfs   1.24380
gfz2011wxtk   1.55320
gfz2011xaan   0.77926
gfz2011xyxj   2.02220
gfz2012aqgp   1.48200
gfz2012attr   0.90087
gfz2012bfah   2.10190
gfz2012bpkx   1.33690
gfz2012bpwl  -0.68092
gfz2012cxdn   2.10410
gfz2012ekda   1.59110
gfz2012fzfa   1.61810
gfz2012hnul   1.64730
gfz2012jgvj   1.11720
gfz2012jlox   2.53530
gfz2012jupx   0.31673
gfz2012keor   1.26730
gfz2012kkup   1.55520
gfz2012klhx   1.54860
gfz2012kuct   1.00580
gfz2012kudo   1.08040
gfz2012lczo   2.37710
gfz2012ldxg   2.44680
gfz2012ldzj   2.37950
gfz2012nkdf   1.33700
gfz2012oazn   1.57360
gfz2012qjhs   0.24253
gfz2012rwov   2.17220
gfz2012sphd   1.52320
gfz2012tvmv   0.64676
gfz2012uafg   1.37170
gfz2012vrgb   1.99230
gfz2012wklq   1.20680
gfz2012wxlg   1.81920
gfz2012wypz   1.47970
gfz2012zfag   1.76470
gfz2012zitl   1.68280
gfz2013axoj   3.72430
gfz2013bokp   1.51660
gfz2013ccnr   0.14294
gfz2013cwpn   3.14670
gfz2013dkly   1.69110
gfz2013drpk   2.68960
gfz2013drxz   1.19810
gfz2013jgip   0.79580
gfz2013jkut   2.75850
gfz2013jusj   0.80951
gfz2013jwvc   1.43860
gfz2013kdeo   2.97700
gfz2013lajn   0.77389
gfz2013mqmv   4.17600
gfz2013ngnt   0.86438
gfz2013nkgj   2.44680
gfz2013nnzf   1.90330
gfz2013nwdi   1.43820
gfz2013pfbx   2.28060
gfz2013pxsj   1.10600
gfz2013qmer   2.76280
gfz2013svci   0.25144
gfz2013tcxc   1.72910
gfz2013twwf   4.87400
gfz2013uauo   2.18340
gfz2013vfyw   0.17456
gfz2013vfzp   1.75290
gfz2013vjjc   2.18200
gfz2013vzbo   3.94280
gfz2013xsdt   1.80360
gfz2013xxxq   1.43420
gfz2014afmx   2.67150
gfz2014bekc   1.26770
gfz2014bldx   1.30530
gfz2014bwue   1.40850
gfz2014bzxy   2.05810
gfz2014cvxx   0.72114
gfz2014czqi   2.68850
gfz2014czua   1.47830
gfz2014dhxt   1.26000
gfz2014ekcr   2.34780
gfz2014enhi   1.68860
gfz2014femz   0.24085
gfz2014ffdc   2.80870
gfz2014fgvi   3.24800
gfz2014fhla   1.38480
gfz2014fkmr   4.53130
gfz2014frdz   3.33500
gfz2014ftka   3.16100
gfz2014furx   1.46360
gfz2014fusj   2.76470
gfz2014gbcz   2.07120
gfz2014gkgf   1.97550
gfz2014gkqf   3.57270
gfz2014gmge   0.42674
gfz2014gmhr   1.27640
gfz2014gmnb   3.04410
gfz2014gmnw   3.51720
gfz2014gnfd   2.25300
gfz2014gnwg   1.17520
gfz2014goba   2.30710
gfz2014gpya   3.59590
gfz2014gull   2.78520
gfz2014gulp   1.32310
gfz2014gvrd  -0.54377
gfz2014gwab   3.84210
gfz2014gxxo   1.86630
gfz2014hasj   2.75120
gfz2014hauo   1.72780
gfz2014hbqb   2.10590
gfz2014hcmj   0.39950
gfz2014hfhl   3.15950
gfz2014hgqo   2.85090
gfz2014hmzg   2.89600
gfz2014hocg   1.98740
gfz2014ijvh   1.63450
gfz2014inbj   1.11110
gfz2014jnyv   1.01250
gfz2014jwmh   1.80500
gfz2014kjee  -0.67137
gfz2014lddn   1.13140
gfz2014ldhu   1.69680
gfz2014lyhk   3.10750
gfz2014mden   1.19730
gfz2014npeo   0.48514
gfz2014nqfm   3.31030
gfz2014nrie   3.69290
gfz2014oinz   2.69360
gfz2014oxcc   0.72677
gfz2014pvch   1.49710
gfz2014qlxd   3.37510
gfz2014qngj   2.14340
gfz2014qqhm   2.51910
gfz2014rkwl   1.02890
gfz2014ssmv  -0.11945
gfz2014ssvz   0.37714
gfz2014tqdo   2.20150
gfz2014watn   2.02260
gfz2015aruz   2.58970
gfz2015berb   1.07310
gfz2015chhn   1.71540
gfz2015cyjd   1.54120
gfz2015fjhk   1.59720
gfz2015fkgt   2.71180
gfz2015fkic  -0.12685
gfz2015fsjj   1.27450
gfz2015gckd   3.08890
gfz2015ggjw   0.78806
gfz2015gjbr   1.96770
gfz2015guhd   0.80360
gfz2015hdcp   1.85290
gfz2015hgbk   2.36360
gfz2015igsy   1.91240
gfz2015lhjy   2.38450
gfz2015lytv   1.76790
gfz2015nuxz   1.70100
gfz2015prlr  -0.70419
gfz2015qnho   2.10410
gfz2015sfdd   2.16350
gfz2015sfdh  -0.99527
gfz2015sfdl   0.94315
gfz2015sfdv   1.49970
gfz2015sfdy   1.05830
gfz2015sfeo   1.43370
gfz2015sfhz   1.69750
gfz2015sfiq   1.09450
gfz2015sfnb   1.39330
gfz2015sfno   1.68360
gfz2015sfnv   0.76413
gfz2015sfoc   1.12420
gfz2015sfoh   0.50572
gfz2015sfoq   3.37850
gfz2015sfqr  -0.34258
gfz2015sfte   1.29460
gfz2015sfwf   1.37310
gfz2015sfzm   2.67660
gfz2015sgdj   1.46330
gfz2015sgdn   2.30660
gfz2015sggc   1.29630
gfz2015sghq   0.98306
gfz2015sgie   0.57438
gfz2015sgoa   1.04810
gfz2015shhg   0.95202
gfz2015shsz  -1.81120
gfz2015sjbx   1.05630
gfz2015sjgk   1.92300
gfz2015sjjb   1.17790
gfz2015sjne   2.75060
gfz2015sjoj   1.93200
gfz2015sjvu   1.70770
gfz2015sjwi   0.75972
gfz2015skpv   0.99146
gfz2015slun   1.65940
gfz2015smym   1.04750
gfz2015snhn   1.47340
gfz2015snsf   1.58040
gfz2015snwh   1.74250
gfz2015snyd   2.22640
gfz2015soat   2.28160
gfz2015soxc  17.92300
gfz2015srat   1.19850
gfz2015stfy   0.55948
gfz2015stso   1.00400
gfz2015susq  -0.63962
gfz2015svjy   1.57300
gfz2015svwm   2.14110
gfz2015swgn   1.85670
gfz2015szcb   1.92300
gfz2015taml   1.17450
gfz2015tbdn   0.78524
gfz2015tdcu   1.00780
gfz2015tixi   1.09920
gfz2015tiyc   0.33031
gfz2015tlba   1.50230
gfz2015tlkf   1.17840
gfz2015tlok   0.22664
gfz2015tnjd   1.81380
gfz2015totf   1.32250
gfz2015tsdm   1.67480
