# Nsamples: 553  MAD:  0.682  mean:  0.141  variance:  1.571
gfz2010aerk  -1.26220
gfz2010ahqi  -0.38534
gfz2010bfzs   0.03913
gfz2010bifb  -2.65670
gfz2010bjeb   0.21382
gfz2010bkob   1.59070
gfz2010bowy  -0.29686
gfz2010bxxs   0.23865
gfz2010caft  -0.52375
gfz2010cbkg   0.47441
gfz2010czps   0.26732
gfz2010eaoy  -1.45400
gfz2010eapk   0.24171
gfz2010eapn   0.32747
gfz2010eaqe   0.36377
gfz2010eaqx  -0.11109
gfz2010eaqy  -1.25950
gfz2010earu  -1.10290
gfz2010easf   0.66801
gfz2010easo  -0.23664
gfz2010eato  -3.03710
gfz2010eatt   2.24480
gfz2010eaty  -0.23178
gfz2010eavd   2.68000
gfz2010eavs   0.22930
gfz2010eawb  -0.94114
gfz2010eawu  -0.38894
gfz2010eaxa   0.06333
gfz2010eaxn  -0.48707
gfz2010eayp  -0.17940
gfz2010eaze  -0.26720
gfz2010eazu  -0.07671
gfz2010ebbx   3.27690
gfz2010ebby   0.15798
gfz2010ebdl   1.05830
gfz2010ebhc  -0.90872
gfz2010ebin   3.41020
gfz2010ebjy   0.10644
gfz2010ebkj   0.27724
gfz2010ebla   0.60140
gfz2010ebll  -0.95374
gfz2010ebmb   0.49774
gfz2010ebnn   2.42930
gfz2010ebrm  -0.46843
gfz2010ebvm   0.04050
gfz2010ebwp   0.24747
gfz2010ebxl  -1.26440
gfz2010ebze   7.62650
gfz2010ebzk  -0.53895
gfz2010ebzr  -0.32320
gfz2010ecam   1.05130
gfz2010ecay   0.24640
gfz2010ecbi   1.60100
gfz2010eccq   0.27217
gfz2010ecft   0.99351
gfz2010ecfx  -0.40134
gfz2010ecfy  -0.34183
gfz2010echc   1.00750
gfz2010echt   1.09750
gfz2010ecls   0.87520
gfz2010ecns  -0.68252
gfz2010ecps   0.02147
gfz2010ecro   0.70435
gfz2010ecsp  -1.00050
gfz2010ectq  -0.27626
gfz2010ecua  -0.40160
gfz2010ecuv  -2.59790
gfz2010ecvt   0.64591
gfz2010eday  -0.46800
gfz2010edcp  -1.37600
gfz2010edhr   0.99573
gfz2010edim  -1.10810
gfz2010edkp   0.47235
gfz2010edyi  -0.16377
gfz2010eedu   1.13260
gfz2010eern  -1.00300
gfz2010efsq   0.45220
gfz2010egap   0.42367
gfz2010eisx  -0.44002
gfz2010eixj  -1.13050
gfz2010ejae  -0.18755
gfz2010ejjg  -0.23821
gfz2010ejju   2.76780
gfz2010ekoe  -0.14397
gfz2010ekrv   0.67368
gfz2010ekyc  -1.19140
gfz2010elhv   0.76886
gfz2010elin   1.11150
gfz2010eltf   0.91079
gfz2010elyc  -0.02125
gfz2010elyo  -0.02007
gfz2010emyz   0.39577
gfz2010epxj   0.47125
gfz2010eqmu   1.71780
gfz2010erkn  -1.00720
gfz2010erom  -0.53028
gfz2010eruy  -0.10390
gfz2010erwn   0.65954
gfz2010erxb   1.00340
gfz2010eujm   0.29647
gfz2010euxe  -0.62971
gfz2010evgf  -2.11990
gfz2010ewvc  -0.71981
gfz2010excp   0.00000
gfz2010exdd  -0.46397
gfz2010exdl   0.29884
gfz2010exel  -0.28098
gfz2010exfb  -1.33380
gfz2010exgb  -0.34447
gfz2010exhd  -0.33063
gfz2010exhw  -1.17240
gfz2010exmc   0.18263
gfz2010exno   0.07647
gfz2010exqu   0.76714
gfz2010exsg   1.58510
gfz2010ezck   0.30226
gfz2010faeu   2.34940
gfz2010falm  -1.13280
gfz2010fauz   1.87070
gfz2010fcax  -0.00541
gfz2010fcnn   0.07926
gfz2010fczt  -0.33288
gfz2010fdab  -1.12130
gfz2010fedq  -0.02929
gfz2010ffhq  -1.09050
gfz2010ffjb   0.82350
gfz2010figq  -0.72493
gfz2010fihj  -0.14472
gfz2010fjal   1.07800
gfz2010fkvg   5.76380
gfz2010flha  -2.65340
gfz2010flrt  -0.38647
gfz2010flxi   0.20433
gfz2010fmhb   0.51456
gfz2010fneu   3.58430
gfz2010fpqy   0.86550
gfz2010fqdu   0.85283
gfz2010fqtj  -0.53259
gfz2010fser   1.35720
gfz2010ftlm  -0.23303
gfz2010fync  -0.30283
gfz2010gcrl  -1.81340
gfz2010gdld  -0.63876
gfz2010gjia   1.28500
gfz2010glxl  -0.12680
gfz2010grjd   0.06509
gfz2010gyqp  -0.31022
gfz2010gzxr  -0.53289
gfz2010hcio   2.08430
gfz2010homc  -0.01931
gfz2010hptz  -1.78070
gfz2010hxgv  -0.24719
gfz2010iibf   1.04650
gfz2010iobp   0.61144
gfz2010iqnm   1.27540
gfz2010irvf  -1.16930
gfz2010iull   0.20293
gfz2010izzj   0.97768
gfz2010jxbm   0.40415
gfz2010lepw  -0.52190
gfz2010lkcf  -0.20040
gfz2010mkuu   0.35254
gfz2010mncc   0.10550
gfz2010mnsz  -0.15795
gfz2010moyw  -0.83497
gfz2010nmpc  -2.27290
gfz2010nqwo  -1.04900
gfz2010nrjo   0.57738
gfz2010nsck  -0.37066
gfz2010nsdf  -2.67380
gfz2010nubk  -0.54297
gfz2010nwef  -0.79426
gfz2010nxsy  -0.35406
gfz2010nzla   0.04805
gfz2010okdm  -0.43832
gfz2010onma  -0.55998
gfz2010qjst   0.29088
gfz2010rhas   0.28303
gfz2010rkfp   0.16538
gfz2010rqwj   3.96210
gfz2010rxjw   0.99443
gfz2010sfee  -0.31279
gfz2010svtn   0.23046
gfz2010swcy  -0.42052
gfz2010sxwt   0.21405
gfz2010szde   0.45992
gfz2010tcrl   0.00000
gfz2010truw  -0.14687
gfz2010upfb   0.07199
gfz2010usho   1.65970
gfz2010ustq   0.85224
gfz2010utcg  -0.30714
gfz2010vbmd   0.13370
gfz2010vhuj   1.77370
gfz2010vtdg   0.19926
gfz2010wioh  -0.64233
gfz2010wrxx   5.25310
gfz2010xbdv   1.30760
gfz2010xjsj  -0.06773
gfz2010xmpr   0.13841
gfz2010xnxk  -0.37596
gfz2010yjev   0.51885
gfz2011aatr   0.12353
gfz2011adjs  -0.64754
gfz2011ahfw   1.22250
gfz2011alip  -0.30312
gfz2011bgrp  -0.22669
gfz2011bhha   1.15020
gfz2011blsi   2.47130
gfz2011bpkd   0.52835
gfz2011ccpw   1.28570
gfz2011ecaj  -0.36822
gfz2011ehzq   0.77657
gfz2011enva  -0.15953
gfz2011fgvr   0.18796
gfz2011fhbm   1.78610
gfz2011fhur   0.49866
gfz2011flgj   0.74043
gfz2011fnsw   0.30180
gfz2011gbmx  -1.49580
gfz2011gcwb  -0.82181
gfz2011gkzt  -0.64398
gfz2011hbex   0.11816
gfz2011hebt  -0.41966
gfz2011hfkj  -0.15697
gfz2011hlqw  -0.19579
gfz2011hlsa  -0.06951
gfz2011hlth   0.27499
gfz2011hpqp   1.41370
gfz2011icxe  -0.88078
gfz2011ieie   1.17670
gfz2011iwte  -1.19430
gfz2011izqa  -0.86779
gfz2011jmbn   0.56514
gfz2011jnmi  -0.25971
gfz2011jplh  -0.00319
gfz2011lcxq  -0.02939
gfz2011ugzz   2.09770
gfz2011ujze  -0.46959
gfz2011uphh  -0.25681
gfz2011urxy   0.05815
gfz2011urzu   0.14588
gfz2011vhfi   0.02046
gfz2011vnza  -0.35571
gfz2011vxns  -0.76210
gfz2011wcic  -0.95355
gfz2011wijj  -0.78356
gfz2011wjul  -1.15820
gfz2011wxfs   0.59301
gfz2011wxtk  -0.68640
gfz2011xyxj   0.14980
gfz2011zklv   0.24297
gfz2011zqhh  -1.43650
gfz2012bfah  -0.54000
gfz2012ekda   0.03194
gfz2012gomm   3.30500
gfz2012hnul  -0.36908
gfz2012ilvn   0.28360
gfz2012intn   0.30524
gfz2012jlox  -0.64669
gfz2012jshk   1.28830
gfz2012jupx  -0.38924
gfz2012kkup  -0.35896
gfz2012klhx   0.26803
gfz2012kudo  -0.09134
gfz2012kwgo  -0.17429
gfz2012lczo  -0.36724
gfz2012ldxg  -0.73500
gfz2012ldzj  -0.07020
gfz2012lxkv  -0.87999
gfz2012minr  -0.49283
gfz2012mwij  -0.47343
gfz2012nojx  -0.17512
gfz2012nolo  -1.56490
gfz2012oazn  -0.27915
gfz2012pgcl   0.38848
gfz2012pkel   0.37873
gfz2012pqmk  -0.31503
gfz2012quso  -0.10489
gfz2012royy  -0.83290
gfz2012rwov   0.32184
gfz2012sphd  -0.11909
gfz2012syvl  -0.25399
gfz2012teic   1.21990
gfz2012tmop  -0.31517
gfz2012ttoa  -0.49990
gfz2012uafg  -0.51645
gfz2012uciv  -0.76528
gfz2012uhup  -0.30501
gfz2012uxnz  -1.01450
gfz2012vrgb  -0.53069
gfz2012wklq  -0.39115
gfz2012wmsg   0.52388
gfz2012wvfl   1.55760
gfz2012wxlg  -0.08278
gfz2012wxnu   1.37210
gfz2012wybs  -0.31279
gfz2012wypz  -0.30133
gfz2012xbjq  -0.24009
gfz2013dkly   1.83500
gfz2013dofo  -0.01724
gfz2013drxz  -0.31670
gfz2013dvyh  -0.02000
gfz2013egpu   1.86210
gfz2013ijsr  -2.57830
gfz2013jesk   0.45771
gfz2013jgij  -0.28864
gfz2013jgip   0.30771
gfz2013jkut   0.37349
gfz2013jusj   2.02160
gfz2013kccc   0.81661
gfz2013kdeo   0.33288
gfz2013ldpc   0.04336
gfz2013ldqb  -0.68188
gfz2013lixa   0.05207
gfz2013lyko   0.24724
gfz2013mqmv   0.52843
gfz2013mwbh  -0.12097
gfz2013ncjp  -0.68625
gfz2013ndin  -0.08932
gfz2013nixj  -0.16038
gfz2013nkgj  -0.22423
gfz2013nknw  -0.04837
gfz2013nqgw  -0.05331
gfz2013nwdi  -0.36453
gfz2013ozrp  -0.18284
gfz2013pfbx   0.17536
gfz2013qali   1.07130
gfz2013qmer  -0.67746
gfz2013qzdq   0.13862
gfz2013roki   0.37989
gfz2013suvn   0.73638
gfz2013svci  -0.22755
gfz2013tusd  -0.21079
gfz2013tvmw  -0.26268
gfz2013txij   1.39050
gfz2013ufxk  -0.13648
gfz2013ufxm   0.94092
gfz2013ugax   0.69271
gfz2013vfzp   0.10561
gfz2013vjjc  -0.63139
gfz2013wjmm  -0.95423
gfz2013wkyk   0.65123
gfz2013xsdt  -0.93910
gfz2013yctg   0.06493
gfz2013yqkv   0.55839
gfz2013ziyr  -3.46620
gfz2013zjel   0.36494
gfz2014afmx  -0.52580
gfz2014algk  -0.48002
gfz2014ande   0.99894
gfz2014bagd   0.31251
gfz2014bwue   0.60813
gfz2014bzxy  -0.09952
gfz2014chdv  -0.19122
gfz2014cvkm   0.04968
gfz2014cvxx  -0.17162
gfz2014czqi  -0.47581
gfz2014disp   0.23310
gfz2014ekcr   0.42766
gfz2014enhi   0.09174
gfz2014fgvi   0.27777
gfz2014fhdw   0.42299
gfz2014fhla  -0.85462
gfz2014fhrq  -0.03708
gfz2014fimn   1.24670
gfz2014fjzd   0.58941
gfz2014fkmr  -0.42727
gfz2014frdz   1.55990
gfz2014frel   0.35058
gfz2014frez   1.41450
gfz2014frwh   1.42180
gfz2014ftka   0.84365
gfz2014ftrk   1.13600
gfz2014furx   1.08530
gfz2014fusc  -2.15570
gfz2014fusj   0.19477
gfz2014fval   0.70513
gfz2014fvgh   0.80986
gfz2014fvrg   0.57508
gfz2014gbcz  -0.50876
gfz2014gbdq   0.95472
gfz2014ghpe   0.03142
gfz2014gkgf  -0.29115
gfz2014gkgs   0.44041
gfz2014gkhp   1.06070
gfz2014gkhy   1.00870
gfz2014gkjl  -0.04394
gfz2014gkjt   0.18356
gfz2014gkmm   0.57785
gfz2014gkob   0.91107
gfz2014gkpj   3.19810
gfz2014gkqf   0.64961
gfz2014gkqu  -1.87660
gfz2014gksu   0.35111
gfz2014gktq   0.29753
gfz2014glcu  -2.56170
gfz2014glgo  -0.10154
gfz2014gltx  -2.95380
gfz2014gmge   0.00483
gfz2014gmhr  -0.37953
gfz2014gmip   0.51857
gfz2014gmku  -0.43990
gfz2014gmnb  -0.01486
gfz2014gmnw   0.48991
gfz2014gmor   0.86030
gfz2014goba   0.23717
gfz2014goqw   0.31064
gfz2014gpya   0.09367
gfz2014gqer   0.22835
gfz2014gqve   0.69826
gfz2014gsqs   0.30034
gfz2014gull   0.62130
gfz2014gvhw  -0.04084
gfz2014gvrd  -0.34657
gfz2014gwab   0.09383
gfz2014gxkh   0.91329
gfz2014gxxo   0.35999
gfz2014hasj  -0.25971
gfz2014hbqb  -0.20794
gfz2014hgqo   0.72138
gfz2014hjgr   0.63390
gfz2014hkcf  -0.05366
gfz2014hocg   0.23911
gfz2014hqxs   0.70372
gfz2014hrft  -0.25515
gfz2014huaj   0.14640
gfz2014imnn   0.59254
gfz2014issk   0.69916
gfz2014itgh   0.84465
gfz2014itkw   3.94570
gfz2014jjhc  -0.58631
gfz2014jnyv  -0.48975
gfz2014jpep   0.36545
gfz2014jwmh   0.17941
gfz2014kndc   0.15296
gfz2014knks  -0.28575
gfz2014kyan  -0.07394
gfz2014kytf  -0.11672
gfz2014lgqn   0.43980
gfz2014lxnc   0.41925
gfz2014lyhk   0.31363
gfz2014lyhp  -0.44875
gfz2014macx   0.81415
gfz2014madw   0.36365
gfz2014nkdx  -2.09880
gfz2014nnxd   1.01750
gfz2014nowp  -0.02050
gfz2014npeo  -0.14201
gfz2014nphm  -0.24911
gfz2014nqfm  -0.03067
gfz2014nrie  -0.35068
gfz2014oinz   0.02554
gfz2014oryw   0.23407
gfz2014ppzf  -0.40072
gfz2014pvch   0.49943
gfz2014qlxd  -0.23896
gfz2014qngj  -0.00994
gfz2014qqhm   0.75689
gfz2014riel  -3.03230
gfz2014shid  -2.45130
gfz2014ssmv  -2.78130
gfz2014ssvz  -1.04970
gfz2014tovs   0.63449
gfz2014tqdo  -0.06955
gfz2014tqsf   0.77213
gfz2014utac  -0.25838
gfz2014vhld   0.19273
gfz2014vjoz  -0.02056
gfz2014watn  -0.61613
gfz2014wjko   0.28897
gfz2014xbyr  -0.27936
gfz2014xqqd  -0.90569
gfz2014yhhm   1.02610
gfz2015apnk  -0.06142
gfz2015aruz  -0.82354
gfz2015berb   0.19653
gfz2015bfjm   0.45789
gfz2015bucr   0.02906
gfz2015chhn  -0.71006
gfz2015cxxk  -0.61202
gfz2015cyjd   0.32824
gfz2015dskr  -0.11172
gfz2015dvbn  -0.23632
gfz2015egxq   0.55819
gfz2015eiky   0.15224
gfz2015etai  -0.61741
gfz2015fcua  -0.89865
gfz2015fjhk   0.52544
gfz2015fkgt  -0.43637
gfz2015fkic   2.26490
gfz2015fsjj   0.11467
gfz2015gckd  -0.02126
gfz2015gkwa   0.95288
gfz2015jzcv   0.43452
gfz2015kfsu  -0.43672
gfz2015kkth   0.13640
gfz2015kphk   0.22101
gfz2015kquq   1.04310
gfz2015ksni   0.18099
gfz2015lhjy   0.03972
gfz2015okmq  -0.01903
gfz2015oyfl  -0.25474
gfz2015rddx  -0.67148
gfz2015rkzg  -0.80246
gfz2015sfdd  -0.73658
gfz2015sfdl   0.41178
gfz2015sfdy  -0.89666
gfz2015sfeo   0.03938
gfz2015sffn   0.07156
gfz2015sfhz   0.23012
gfz2015sfiq   1.69690
gfz2015sflf   0.37742
gfz2015sfnb  -0.00490
gfz2015sfno   2.40690
gfz2015sfnv   0.73324
gfz2015sfoc  -0.31858
gfz2015sfps  -0.24585
gfz2015sfqo   0.57885
gfz2015sfqr   1.97600
gfz2015sfsi   1.73580
gfz2015sgad   0.01713
gfz2015sghq  -0.61929
gfz2015sgyd   0.43328
gfz2015shhu   0.54895
gfz2015shjn  -0.06215
gfz2015shrg   0.56353
gfz2015sjfi   0.49993
gfz2015sjgk  -0.29384
gfz2015sjne   0.99086
gfz2015sjoj   0.15009
gfz2015sjvu   0.34966
gfz2015skpv   0.62246
gfz2015skxu   0.49637
gfz2015sldx  -0.86900
gfz2015sljs  -1.03610
gfz2015smym   0.09536
gfz2015snsf   0.64711
gfz2015snwh  -0.53444
gfz2015snyd   0.57926
gfz2015soat   0.66592
gfz2015soxc  16.08100
gfz2015stfy  -1.90200
gfz2015svwm  -0.49610
gfz2015szcb   0.68386
gfz2015taml   0.72716
gfz2015tixi  -0.80296
gfz2015tiyc  -0.37579
gfz2015tkol   0.61721
gfz2015tlkf   0.41526
gfz2015tnjd   0.22452
gfz2015tpra   0.70402
gfz2015tqff   0.93301
