# Nsamples: 404  MAD:  0.595  mean: -0.091  variance:  0.752
gfz2010ahqi  -0.39052
gfz2010bfzs  -0.51254
gfz2010bifb  -0.67953
gfz2010bjeb  -0.34227
gfz2010bowy   1.13050
gfz2010boxo   0.62392
gfz2010bxxs   0.42936
gfz2010caft   0.03861
gfz2010cdbt   0.26490
gfz2010chnv   0.07811
gfz2010ckeu   0.15090
gfz2010ckzm   1.63030
gfz2010cqwl  -0.34376
gfz2010czps  -0.06825
gfz2010dlgc  -0.22277
gfz2010eaoy  -0.77795
gfz2010eaqe  -0.69203
gfz2010eaqy  -1.35320
gfz2010earu   1.00090
gfz2010eawb  -1.55990
gfz2010eawu   1.27170
gfz2010eazu   0.98635
gfz2010ebhc   0.23969
gfz2010ebnn  -1.64170
gfz2010ecua  -0.23489
gfz2010edyi   5.84360
gfz2010eevu  -0.35913
gfz2010eisx  -0.38715
gfz2010ekyc  -0.17822
gfz2010eltf  -0.10058
gfz2010elyc   0.84391
gfz2010erkn  -1.05890
gfz2010eruy  -0.37773
gfz2010excp  -0.09855
gfz2010exdd   1.68080
gfz2010fpqy  -0.96715
gfz2010fqdu   4.35480
gfz2010ftlm   0.65607
gfz2010fync  -1.18970
gfz2010grjd   0.33610
gfz2010gzxr  -1.09790
gfz2010homc  -0.50213
gfz2010hrkr  -0.41577
gfz2010hxhe  -0.19460
gfz2010iciq  -0.72893
gfz2010iobp  -0.82448
gfz2010irvf  -0.40799
gfz2010jucj  -0.86510
gfz2010lczp   0.01973
gfz2010lluj  -0.72633
gfz2010mipi  -0.60640
gfz2010mkuu  -0.10666
gfz2010nlkh  -0.13489
gfz2010nnny   1.18000
gfz2010nqwo  -0.87700
gfz2010nwef  -0.78041
gfz2010onma  -0.35275
gfz2010pbdz  -0.41387
gfz2010pcxi  -0.56333
gfz2010qpcq  -0.85201
gfz2010rkfp  -0.75907
gfz2010rqwj   0.55292
gfz2010sxfq   0.32970
gfz2010sxwt   0.63175
gfz2010sysw  -0.09579
gfz2010upfb  -0.35162
gfz2010urlq   0.10825
gfz2010usho  -0.68125
gfz2010ustq  -1.30030
gfz2010vbmd   1.31320
gfz2010vppc  -0.09426
gfz2010vtdg  -0.47635
gfz2010wofs   2.07910
gfz2010xjsj  -0.05150
gfz2010yosr  -0.92879
gfz2011aatr  -0.09405
gfz2011adjs  -0.98667
gfz2011bgrp   0.24272
gfz2011cfae  -0.26895
gfz2011cvcg  -1.00800
gfz2011dcqb  -0.76401
gfz2011dpqx  -0.99928
gfz2011enva   0.47781
gfz2011fkbn  -0.31987
gfz2011flgj  -0.56435
gfz2011fnsw  -0.75552
gfz2011ggvf  -0.19807
gfz2011gjlx  -1.24530
gfz2011gkzt  -0.80970
gfz2011hbex   0.09447
gfz2011hlqw  -0.49468
gfz2011hlsa  -0.83286
gfz2011hlth  -0.08683
gfz2011izqa  -0.62026
gfz2011jplh  -0.00128
gfz2011kxzp  -1.99180
gfz2011lcxq  -0.04831
gfz2011lhls   0.29733
gfz2011lvjr   0.17770
gfz2011lzwj   0.34681
gfz2011mdie  -0.45851
gfz2011mjom  -0.17804
gfz2011nqpd  -1.08020
gfz2011nrwv  -0.80913
gfz2011ntkh  -0.20229
gfz2011nudm  -1.48570
gfz2011oiqe  -0.69454
gfz2011owvz  -0.12672
gfz2011qoif  -0.36918
gfz2011qvae   4.39850
gfz2011rewa  -0.64193
gfz2011rqui   0.14242
gfz2011sawg  -0.70286
gfz2011tivu  -1.43370
gfz2011tjue   0.02158
gfz2011toub   0.15646
gfz2011tpfr  -0.61586
gfz2011uepx   0.95384
gfz2011ujze  -0.27654
gfz2011uphh  -0.14781
gfz2011urxy  -0.28221
gfz2011urzu  -0.49849
gfz2011vhfi   0.11885
gfz2011vrhg  -0.90331
gfz2011wvzb  -0.23905
gfz2011wxfs   0.74875
gfz2011wxtk  -0.85083
gfz2011xyxj   0.70547
gfz2012bfah  -0.09243
gfz2012bpkx  -1.67800
gfz2012bszs  -0.50920
gfz2012cgvr   0.70783
gfz2012czlw   0.21771
gfz2012deri  -0.76454
gfz2012dyyh   0.09319
gfz2012emjg   0.32106
gfz2012enno  -0.50505
gfz2012ezvr  -2.12450
gfz2012fzfa  -0.67000
gfz2012gill  -0.00548
gfz2012gomm  -0.87425
gfz2012gwqb   0.32894
gfz2012hnul  -0.93716
gfz2012ilvn   0.22207
gfz2012jlox   0.18242
gfz2012jupx   0.31026
gfz2012kkcp  -1.37200
gfz2012kkup  -0.70679
gfz2012klhx  -1.00480
gfz2012kuct   0.15139
gfz2012kudo  -0.23276
gfz2012ldxg  -0.10082
gfz2012ldzj  -0.38168
gfz2012llug  -0.26396
gfz2012minr  -0.41037
gfz2012mupa  -0.05042
gfz2012nojx   0.37850
gfz2012nqnk  -0.32744
gfz2012oazn  -0.03932
gfz2012oedb  -0.26255
gfz2012omvo   1.02130
gfz2012ostk   0.73303
gfz2012ronz   0.56359
gfz2012royy   0.32395
gfz2012rqlg  -1.03210
gfz2012rwko  -0.74788
gfz2012rwov   0.48986
gfz2012sphd  -0.38580
gfz2012syvl   0.31418
gfz2012teic  -0.30608
gfz2012ttoa  -0.62303
gfz2012uafg  -0.94997
gfz2012uaqj  -0.26494
gfz2012uciv  -0.48984
gfz2012uqzp   0.95039
gfz2012vrgb   0.36434
gfz2012wklq   1.33150
gfz2012wxlg   1.71450
gfz2012wypz  -0.27431
gfz2012yxxu  -0.03858
gfz2013aknp   0.28704
gfz2013aqaw  -0.22506
gfz2013axoj   0.32963
gfz2013btjm   1.66950
gfz2013ccnr  -0.77398
gfz2013drpk  -0.63128
gfz2013drxz  -0.41746
gfz2013ifpq   0.59857
gfz2013iodt  -0.73666
gfz2013jgij  -0.13248
gfz2013jkut   1.36940
gfz2013jwvc   0.47517
gfz2013kdeo  -0.10842
gfz2013kweg  -0.24035
gfz2013ldpc  -0.56322
gfz2013ldqb  -0.90606
gfz2013lixa  -0.60625
gfz2013lljw   0.36650
gfz2013mqmv   0.05670
gfz2013mwbh  -0.09891
gfz2013nabl  -0.45272
gfz2013ncjp   0.35791
gfz2013ndin  -0.00000
gfz2013nixj   0.79624
gfz2013nkgj  -0.20358
gfz2013nknw   0.01450
gfz2013nqgw  -0.49156
gfz2013nwdi  -0.18283
gfz2013oifr  -0.13510
gfz2013ojti   0.34453
gfz2013pfbx  -0.37281
gfz2013qmer  -0.34028
gfz2013sdus  -0.25818
gfz2013snbr   0.43432
gfz2013suvn  -0.56764
gfz2013svci   0.66443
gfz2013tusd  -0.16249
gfz2013tvmw  -0.39621
gfz2013uauo  -1.03510
gfz2013vjjc  -1.22010
gfz2013vzbo   2.21830
gfz2013wtzl  -0.18658
gfz2013xsdt  -0.50235
gfz2013ypdc  -0.12001
gfz2013yqkv   0.25499
gfz2013zmtb  -0.31264
gfz2014afmx  -0.70118
gfz2014ande   0.02309
gfz2014arpf  -0.20458
gfz2014bhvd   0.30828
gfz2014bldx  -0.99292
gfz2014bmta   0.27215
gfz2014bwue   0.31243
gfz2014bzxy  -0.47343
gfz2014chdv   1.14400
gfz2014czqi   0.13838
gfz2014eqpl   0.99712
gfz2014fedd  -0.02417
gfz2014fgvi   0.09894
gfz2014fgvz   1.48460
gfz2014fgza  -0.16785
gfz2014fhdw  -0.34208
gfz2014fhla  -1.08800
gfz2014fhlh  -0.45906
gfz2014fhrq  -0.03049
gfz2014fhwx  -0.05895
gfz2014fimn   0.48296
gfz2014fjzd  -1.37400
gfz2014fkmr  -0.23642
gfz2014fnyg  -0.04296
gfz2014fqpz   0.07838
gfz2014frdz   0.21230
gfz2014frez  -0.28725
gfz2014ftka  -0.74444
gfz2014ftpw  -0.30042
gfz2014furx  -0.31982
gfz2014fusj   0.27283
gfz2014fval   1.07310
gfz2014fvgh  -0.63139
gfz2014fvrg   0.05577
gfz2014fxpu   0.79590
gfz2014ghpe  -0.73228
gfz2014gkgf  -0.58652
gfz2014gkgs  -0.08190
gfz2014gkhp  -4.78590
gfz2014gkhy   0.51332
gfz2014gkjl   0.32801
gfz2014gkjt  -0.54829
gfz2014gkob   0.20348
gfz2014gkqf   0.27549
gfz2014gkqu   0.53859
gfz2014gktq  -0.72289
gfz2014glcu  -0.05066
gfz2014glcy  -2.05270
gfz2014gltx   0.32802
gfz2014glvu  -0.65614
gfz2014gmge   0.33352
gfz2014gmhr  -1.12180
gfz2014gmnb  -0.18993
gfz2014gmnw   0.43655
gfz2014goba   0.86619
gfz2014goqw   0.45394
gfz2014gqer   1.64550
gfz2014gqve   0.24937
gfz2014gsqs   1.13940
gfz2014gull  -0.20703
gfz2014gulp  -0.00000
gfz2014gvqj  -0.38976
gfz2014gwab   0.44759
gfz2014gxkh   1.30730
gfz2014gxxo   0.31154
gfz2014hagb   0.11165
gfz2014haos   0.42747
gfz2014hasj   0.02659
gfz2014hbqb   0.33224
gfz2014hfhl  -1.23960
gfz2014hgqo  -0.44326
gfz2014hhfs   1.09860
gfz2014hhwx  -0.39563
gfz2014hocg  -0.35358
gfz2014hqxs  -0.22845
gfz2014huaj   0.22315
gfz2014hyvq   0.29846
gfz2014imnn   0.13635
gfz2014irci   0.50344
gfz2014issk  -0.69460
gfz2014itkw   0.14045
gfz2014ixga  -0.08017
gfz2014jcmt  -0.07918
gfz2014jfis   2.12840
gfz2014jjhc   0.25497
gfz2014jjln   0.67161
gfz2014jnyv  -0.11552
gfz2014jpep  -0.26642
gfz2014kbuk   1.22860
gfz2014kitm   0.29682
gfz2014kkhh   0.33560
gfz2014kndc  -0.66596
gfz2014knks   0.28448
gfz2014kwrg   0.25430
gfz2014kytf  -0.83962
gfz2014lgqn   0.82554
gfz2014lwom  -0.10007
gfz2014lxnc  -0.05112
gfz2014lyhk  -0.38703
gfz2014lyhp   0.05721
gfz2014macx   0.27067
gfz2014madw  -0.44536
gfz2014ncub  -0.03599
gfz2014niqj   0.82670
gfz2014npeo  -1.58040
gfz2014nqfm   0.07480
gfz2014nrie   1.22180
gfz2014oinz  -0.20359
gfz2014owxc  -0.06041
gfz2014ppzf  -0.04794
gfz2014pvch  -0.11757
gfz2014pzni  -0.05534
gfz2014qlxd   0.03907
gfz2014qqhm   0.18111
gfz2014rdsn   0.47990
gfz2014rnrn  -0.86003
gfz2014ryfb  -0.85052
gfz2014ssvz  -0.34389
gfz2014tqdo   1.97430
gfz2014ubwn   0.70943
gfz2014vhms   0.45049
gfz2014vjoz  -0.43740
gfz2014watn   0.02566
gfz2014wrkh  -3.28900
gfz2014wwib  -0.41655
gfz2014yyiy  -0.29632
gfz2015aruz   0.26947
gfz2015atxv   0.38931
gfz2015berb   0.04399
gfz2015bphe   0.38378
gfz2015bpxl  -0.66071
gfz2015chhn  -0.78708
gfz2015cxxk   0.18920
gfz2015cyjd   0.41986
gfz2015dvbn   0.79361
gfz2015egxq  -0.24004
gfz2015fjhk   0.20886
gfz2015fsjj   0.59724
gfz2015gckd   0.35309
gfz2015ggjw  -0.19921
gfz2015hgbk  -1.29160
gfz2015hpmk  -0.04448
gfz2015igsy  -0.89688
gfz2015ijmh   0.45203
gfz2015iwqk   0.94523
gfz2015jzcv   0.10958
gfz2015kakw   1.19930
gfz2015kphk   0.03074
gfz2015kquq   0.11273
gfz2015kxxs  -0.06550
gfz2015lfud   0.32170
gfz2015lhjy   0.08948
gfz2015ltii  -2.39830
gfz2015lytv  -0.25739
gfz2015mddr   0.08535
gfz2015mpte   0.68315
gfz2015okmq   0.22231
gfz2015qvxu  -0.03594
gfz2015rddx  -0.26188
gfz2015rkzg   0.04030
gfz2015sfdd  -0.86641
gfz2015sfdy  -0.71635
gfz2015sfnb   0.17706
gfz2015sfno  -0.42132
gfz2015sjgk   0.16791
gfz2015sjoj  -0.01756
gfz2015slun  -1.32750
gfz2015smym  -0.32428
gfz2015snwh  -0.45222
gfz2015snyd  -0.19217
gfz2015soat  -0.28140
gfz2015soxc   0.17333
gfz2015svwm  -0.32120
gfz2015szcb  -0.77534
gfz2015taml   0.21617
gfz2015tiyc  -0.66254
gfz2015tkol  -3.04590
gfz2015tlkf  -0.23814
