# Nsamples: 1049  MAD:  0.963  mean: -1.091  variance:  1.830
gfz2010cbkg  -1.24570
gfz2010ckeu  -2.89410
gfz2010ckzm  -1.90370
gfz2010cnwc  -1.83550
gfz2010cqwl  -1.46600
gfz2010cres  -3.05280
gfz2010czps  -1.07490
gfz2010ddzo  -1.35030
gfz2010dejx  -0.93749
gfz2010diqn  -1.96050
gfz2010dlgc  -3.21320
gfz2010eaoy   0.71520
gfz2010egld  -1.25340
gfz2010egmp  -1.44920
gfz2010egqh  -1.14600
gfz2010egsw  -0.11681
gfz2010egsy  -0.78719
gfz2010egyy  -1.64850
gfz2010ehaj  -1.70530
gfz2010ehft  -1.42430
gfz2010ehnl  -2.99850
gfz2010ehnm  -1.56700
gfz2010ehrq  -1.64900
gfz2010ehsy  -1.30920
gfz2010ehvj  -1.65640
gfz2010ehwg   1.79400
gfz2010ehxz  -0.73009
gfz2010eimf  -1.21910
gfz2010eioi  -2.03250
gfz2010eiqi  -1.42760
gfz2010eisx  -0.10039
gfz2010ejae  -2.26330
gfz2010ejjg  -0.34072
gfz2010ejka  -1.00020
gfz2010ejma  -1.36780
gfz2010ekaw  -0.76806
gfz2010ekoe  -1.14420
gfz2010ekrv  -1.03400
gfz2010elhv  -0.79222
gfz2010elin  -2.35810
gfz2010eljf  -3.76700
gfz2010elpu  -0.44562
gfz2010elsw  -0.96050
gfz2010eltf  -0.57599
gfz2010elvp  -1.40770
gfz2010elxi  -1.30340
gfz2010elyc  -1.73090
gfz2010elyo  -1.04870
gfz2010elzf  -1.97660
gfz2010elzl  -2.41510
gfz2010emyz  -1.54320
gfz2010encm   0.73670
gfz2010engw   8.28470
gfz2010enpa   0.66057
gfz2010ensu  -0.98863
gfz2010enzl  -1.84400
gfz2010eoao  -5.21130
gfz2010eohh   0.64399
gfz2010eomb  -1.82540
gfz2010epbe  -2.23410
gfz2010epud  -2.69370
gfz2010epxj  -1.68900
gfz2010epzk  -0.89851
gfz2010eqmu  -5.95910
gfz2010eqse  -2.09260
gfz2010erda  -2.74600
gfz2010erdi   0.67549
gfz2010erkn  -0.61821
gfz2010erna  -0.92108
gfz2010erom   0.16805
gfz2010erum  -1.55040
gfz2010eruy  -2.87570
gfz2010erwn  -0.80374
gfz2010erxb   0.48292
gfz2010erxk  -3.07190
gfz2010eryg  -0.85175
gfz2010esid  -2.16140
gfz2010eted  -2.29150
gfz2010euae  -1.66580
gfz2010euan  -0.27707
gfz2010eujm  -1.41760
gfz2010euvl  -1.30040
gfz2010euwb  -0.35305
gfz2010euxe  -0.54714
gfz2010evco  -0.07216
gfz2010evgf  -1.28320
gfz2010evjv   3.06970
gfz2010evkd  -3.23560
gfz2010ewbc  -2.49490
gfz2010ewvc  -0.67193
gfz2010ewyu  -1.20500
gfz2010excp   0.11621
gfz2010exdd  -0.60297
gfz2010exdl  -1.11730
gfz2010exed  -0.90266
gfz2010exel  -0.51311
gfz2010exfb  -3.09310
gfz2010exgb  -0.68381
gfz2010exhd  -0.40608
gfz2010exhw  -0.58177
gfz2010exjw   0.44420
gfz2010exmc  -1.39000
gfz2010exno  -0.96068
gfz2010exou  -1.90840
gfz2010exqu  -2.20580
gfz2010exsg  -1.11570
gfz2010exts  -1.87700
gfz2010exyp  -0.80817
gfz2010eyaz  -0.85463
gfz2010eybj   0.59105
gfz2010eyhh  -1.49390
gfz2010eyiv  -1.50790
gfz2010eymx  -0.51105
gfz2010eyvq  -0.60012
gfz2010eyxe  -1.69020
gfz2010ezck  -0.18484
gfz2010ezvt  -0.96470
gfz2010ezwz  -0.96517
gfz2010fcnn  -0.82617
gfz2010fcnt  -2.26450
gfz2010fcxy  -1.12330
gfz2010fcyj  -0.68993
gfz2010fczt  -1.01740
gfz2010fedq  -1.06100
gfz2010fefr   6.05300
gfz2010ffhq   0.03576
gfz2010ffjb  -1.46590
gfz2010ffui  -0.24700
gfz2010fhbl  -1.77340
gfz2010fihj  -2.44600
gfz2010fika  -0.71335
gfz2010fisf  -0.73877
gfz2010fixr  -2.55520
gfz2010fjmu  -1.83140
gfz2010fjni   0.95928
gfz2010fkia  -1.33890
gfz2010fknh  -1.48710
gfz2010fkvg  -1.84340
gfz2010flha  -2.25120
gfz2010flxi  -1.83100
gfz2010fmhb  -2.79200
gfz2010fmip   1.45380
gfz2010fmpy  -2.25450
gfz2010fmwb   2.06310
gfz2010fneu  -1.51930
gfz2010fnrk  -2.91710
gfz2010fobc   0.04093
gfz2010fona   0.12335
gfz2010fpmv   1.44400
gfz2010fpqy  -1.08860
gfz2010fqdu  -1.49900
gfz2010fqtj  -1.82960
gfz2010fser  -1.94810
gfz2010fsth  -1.51240
gfz2010ftlm  -1.12910
gfz2010ftsx   3.51210
gfz2010fupn  -1.34600
gfz2010fuuy  -1.58660
gfz2010fuwa  -2.07750
gfz2010fvuc  -1.07800
gfz2010fwkk  -0.62303
gfz2010fwlb  -1.85470
gfz2010fwzd  -4.89250
gfz2010fyed   0.61029
gfz2010fyen  -1.49750
gfz2010fync  -0.83473
gfz2010fzoi  -1.60160
gfz2010fzsg   1.68990
gfz2010gcdn  -1.34100
gfz2010gcrl  -1.61460
gfz2010gcrp  -0.81935
gfz2010gdch  -2.46090
gfz2010gdld  -1.52540
gfz2010ghyk  -3.33580
gfz2010gjia  -0.36170
gfz2010gjvo  -0.74429
gfz2010glqr  -2.20900
gfz2010glxl  -1.39630
gfz2010gmib  -0.08442
gfz2010grjd   0.33571
gfz2010gslu  -2.08200
gfz2010gtzt   0.19808
gfz2010gwmp  -1.05280
gfz2010gymo  -3.12260
gfz2010gyqp  -1.29760
gfz2010gzxr  -0.77840
gfz2010hakh  -4.04650
gfz2010hbka  -0.29740
gfz2010hcio  -1.20310
gfz2010hevz  -2.78030
gfz2010hjoc  -2.88580
gfz2010hllj  -2.73240
gfz2010hlln  -3.20570
gfz2010hmhm  -3.14960
gfz2010hnnf  -0.98728
gfz2010hnpi  -1.73430
gfz2010hnzr  -1.66710
gfz2010homc  -0.55640
gfz2010hptz  -1.24910
gfz2010hxbs  -0.00715
gfz2010hxgv  -0.50422
gfz2010hxhe  -1.01290
gfz2010hzar  -1.02470
gfz2010ibiy  -2.33800
gfz2010ibxj  -4.51620
gfz2010icqq  -0.87065
gfz2010iibf  -0.34563
gfz2010iimu  -0.42233
gfz2010imfv  -0.62073
gfz2010iobp   0.54309
gfz2010iphd  -2.15280
gfz2010ipsg   0.57464
gfz2010iqep  -0.09974
gfz2010iqfm   0.32606
gfz2010iqus  -4.10020
gfz2010irqr  -1.69070
gfz2010irvf  -2.42990
gfz2010iull  -1.45330
gfz2010izzj  -0.41082
gfz2010jagd  -1.30410
gfz2010jatq  -1.10910
gfz2010jhie  -1.36720
gfz2010jipf  -5.40480
gfz2010jitt  -1.45850
gfz2010jpss  -1.68170
gfz2010jpyj  -2.12590
gfz2010jssh  -0.19271
gfz2010jsuh  -1.57710
gfz2010jtal  -1.89100
gfz2010jwpy  -3.49960
gfz2010jxbm  -1.39710
gfz2010jygz  -1.82200
gfz2010kcoo  -1.80540
gfz2010kgws  -2.28850
gfz2010kihf  -2.22730
gfz2010kjmp  -0.76503
gfz2010kmgg  -4.51230
gfz2010kmsv  -1.97560
gfz2010kown  -0.65924
gfz2010kyvj  -2.15330
gfz2010lczp  -1.04030
gfz2010lgwy  -2.54880
gfz2010liqs  -0.86406
gfz2010lkcf  -1.38470
gfz2010lluj  -2.81020
gfz2010lopz  -0.82742
gfz2010lrlk  -1.25860
gfz2010lyfk   1.20980
gfz2010mant  -0.62870
gfz2010mbje  -2.05480
gfz2010mcrx  -0.43387
gfz2010mdpq  -4.06200
gfz2010mgss  -0.88884
gfz2010mhjt  -1.23230
gfz2010miil  -3.46840
gfz2010miqn  -0.49990
gfz2010mkuu  -0.72054
gfz2010mlkz   0.72142
gfz2010mlta  -1.82070
gfz2010mncc  -1.69700
gfz2010mnhm  -0.89789
gfz2010mnsz  -2.07010
gfz2010mpuy  -0.12943
gfz2010msjj  -2.25470
gfz2010muca  -0.49236
gfz2010mwdq  -1.10560
gfz2010mzjr  -0.40296
gfz2010nfsj  -1.05550
gfz2010nlkh  -1.30320
gfz2010nmpc  -2.44670
gfz2010nnny   1.38710
gfz2010nqwf  -0.51265
gfz2010nqwo  -0.81294
gfz2010nrew  -0.84136
gfz2010nrjo  -1.37400
gfz2010nsck  -0.32085
gfz2010nsdf  -2.06940
gfz2010ntuo  -0.73502
gfz2010nubk  -0.42558
gfz2010nwef  -2.58420
gfz2010nxum  -1.22370
gfz2010nzla   6.19240
gfz2010ocxq  -2.37340
gfz2010odpb  -2.55310
gfz2010onma  -2.05500
gfz2010pcxi  -2.52460
gfz2010pdtk  -0.74884
gfz2010pfyu  -1.76610
gfz2010phvg  -2.15480
gfz2010pmqd  -0.71593
gfz2010pqck  -0.45438
gfz2010pxgh  -1.25680
gfz2010qitd  -0.25604
gfz2010qjst  -0.54732
gfz2010qkat  -0.75983
gfz2010qpcq  -1.90630
gfz2010qpvi  -0.70209
gfz2010qwwx  -2.45630
gfz2010rkfp  -2.45910
gfz2010rlbv   2.50990
gfz2010rqwj  -0.46892
gfz2010rzrr  -1.31320
gfz2010sfee  -1.69510
gfz2010svtn  -2.05770
gfz2010sysw  -0.80459
gfz2010tcbr  -0.73001
gfz2010tcrl  -4.49290
gfz2010upfb  -0.04089
gfz2010usho  -2.42930
gfz2010ustq  -1.47650
gfz2010utcg  -1.12620
gfz2010utmc  -1.03320
gfz2010utvp   1.19320
gfz2010uyhb  -3.18880
gfz2010vbmd  -1.33870
gfz2010vhuj  -0.98485
gfz2010vxvs  -0.07510
gfz2010wnty   2.07890
gfz2010wntz   0.66633
gfz2010wrxx   0.17783
gfz2010xbdv  -0.62527
gfz2010xden  -2.38880
gfz2010xgzw  -0.89783
gfz2010xjck  -1.11710
gfz2010xjsj  -1.84110
gfz2010yjev   0.63343
gfz2010ymur   0.42306
gfz2010yoyx  -1.88720
gfz2011aatr  -1.27110
gfz2011adjs  -0.76911
gfz2011adpw  -1.44360
gfz2011aeay   0.07678
gfz2011ahfw  -0.52852
gfz2011alip  -0.92755
gfz2011alsa  -2.39420
gfz2011alwf  -4.20720
gfz2011aosc  -1.75980
gfz2011aqxf  -1.37410
gfz2011asru   1.95210
gfz2011aupi   0.04324
gfz2011bgrp  -0.57783
gfz2011bhha   0.18979
gfz2011blsi  -0.62170
gfz2011bpkd  -0.70132
gfz2011ccpw  -3.19350
gfz2011cndo  -1.27690
gfz2011coxh  -1.45720
gfz2011csju  -1.75270
gfz2011ctbn  -1.62810
gfz2011cvfg  -2.09510
gfz2011cwgn  -3.85930
gfz2011cykd  -1.34050
gfz2011cylz  -1.47480
gfz2011cynl  -1.31760
gfz2011cyre  -1.80640
gfz2011cyuk  -2.20150
gfz2011czwj  -1.72190
gfz2011dbev  -1.21230
gfz2011dbig  -1.32770
gfz2011dbli  -0.54405
gfz2011dbon  -1.00810
gfz2011dbwt  -1.25660
gfz2011dcqb  -1.51110
gfz2011dcqf  -0.88621
gfz2011ddao  -1.38190
gfz2011dddh   0.18250
gfz2011deaf   0.02183
gfz2011dkyi  -1.07210
gfz2011dldn   0.10796
gfz2011dllz   0.13988
gfz2011dlyx  -1.81030
gfz2011dpaa  -2.35800
gfz2011dpqx  -2.72250
gfz2011dtpy  -1.96350
gfz2011duyr  -2.08330
gfz2011eayc  -2.02000
gfz2011ecaj  -0.56405
gfz2011ecsc  -0.65674
gfz2011edmm  -2.16540
gfz2011eebc  -0.87000
gfz2011ehzq  -1.38990
gfz2011eltw  -1.62020
gfz2011enva  -1.48420
gfz2011etje  -1.52750
gfz2011fgvr  -1.95450
gfz2011fhag   0.61391
gfz2011fhbm  -2.56870
gfz2011fhur   0.38435
gfz2011fkbn   3.22610
gfz2011fnsw  -2.27250
gfz2011gbmx  -1.44290
gfz2011gcwb  -1.54890
gfz2011gdgh  -2.02630
gfz2011gkey  -1.01940
gfz2011gkzt  -2.16770
gfz2011hbex  -2.24570
gfz2011hebt  -2.50470
gfz2011hfkj  -1.36420
gfz2011hlqw  -0.84350
gfz2011hlsa  -1.91240
gfz2011hvbu   1.85020
gfz2011ieie  -0.74566
gfz2011ixai   0.77141
gfz2011izqa  -2.07530
gfz2011jghb  -3.64060
gfz2011jplh  -1.43450
gfz2011kqwo  -2.06600
gfz2011kqyg  -2.12200
gfz2011kxzp  -0.48958
gfz2011lcxq  -2.60070
gfz2011lvjr  -0.17326
gfz2011mdie  -1.65380
gfz2011noud   1.06850
gfz2011npgs   0.03419
gfz2011nrwc   0.25230
gfz2011nrwv  -0.04277
gfz2011ntkh  -1.88240
gfz2011nudm  -1.09890
gfz2011ogqk   0.25343
gfz2011ohcy  -0.76861
gfz2011oiqe  -1.53380
gfz2011olkk  -1.39390
gfz2011orgn  -3.39670
gfz2011ornx  -0.85818
gfz2011owvz  -2.06640
gfz2011ozsl  -2.97050
gfz2011phms  -1.22690
gfz2011ptus   0.46785
gfz2011qvae  -0.58731
gfz2011qyms  -2.46140
gfz2011rabm  -0.15598
gfz2011rdby  -3.49100
gfz2011rewa  -2.11970
gfz2011sagt   0.32010
gfz2011svix   0.91005
gfz2011tbas  -2.02070
gfz2011tcij  -1.69450
gfz2011tjue   5.16380
gfz2011tkfp  -0.76046
gfz2011tkog  -2.93000
gfz2011toub  -2.94380
gfz2011tpbl  -1.99620
gfz2011tpfr  -1.55620
gfz2011tsnp  -1.40980
gfz2011tuea  -1.39340
gfz2011udsq  -1.46890
gfz2011uepx   1.54360
gfz2011ugzz   3.89340
gfz2011ujze  -2.21450
gfz2011uphh  -2.24160
gfz2011urzu  -2.29580
gfz2011vhfi  -1.18590
gfz2011vkun  -3.49600
gfz2011wjkf   2.50650
gfz2011wjul  -4.34480
gfz2011wvzb   0.66800
gfz2011wwjs  -1.48330
gfz2011wxfs   0.84192
gfz2011wxoj  -2.09880
gfz2011wxtk  -3.01460
gfz2011wype  -2.12860
gfz2011xaan  -1.54450
gfz2011xcpv  -1.51150
gfz2011xesx  -1.83910
gfz2011xyxj  -0.88922
gfz2011yfdx  -1.82660
gfz2011zklv  -1.84890
gfz2011zqhh  -1.58130
gfz2012aqgp  -1.38300
gfz2012cgvr  -1.20740
gfz2012cnod  -0.48908
gfz2012covm  -2.09550
gfz2012cqnl  -1.45120
gfz2012cxdn  -1.39300
gfz2012czlw   0.26314
gfz2012deri  -2.13170
gfz2012dimn  -0.85288
gfz2012dinb   0.73967
gfz2012djwi  -1.70480
gfz2012dves   0.28776
gfz2012dyyh  -1.36700
gfz2012ekda  -1.28290
gfz2012ekzf  -2.33290
gfz2012elce  -2.59310
gfz2012emjg  -2.23210
gfz2012enno  -2.21950
gfz2012ewgo  -0.46073
gfz2012fhnh  -1.07720
gfz2012fivh   1.48210
gfz2012fqcg  -1.37880
gfz2012fwfo  -1.42310
gfz2012fwtr  -1.41860
gfz2012fzfa  -0.73219
gfz2012gcgn   0.05017
gfz2012glss  -1.53160
gfz2012gomm  -2.05490
gfz2012gukw   1.20220
gfz2012gwqb  -1.57630
gfz2012hdbm  -1.49980
gfz2012hnul  -1.06230
gfz2012hnuw   3.79380
gfz2012holl   0.21336
gfz2012iamr  -1.17740
gfz2012icmv   1.20700
gfz2012idje  -0.42264
gfz2012ihdl  -1.68330
gfz2012iivw  -1.83990
gfz2012ilvn  -1.71110
gfz2012ilxh  -0.45756
gfz2012jgvj  -1.69130
gfz2012jjzc   3.52210
gfz2012jlox  -2.50880
gfz2012jqvn  -0.43998
gfz2012jshk  -0.86315
gfz2012jupx  -2.22910
gfz2012kbjb  -0.86906
gfz2012keor  -2.71130
gfz2012kkup  -2.73640
gfz2012klhx  -2.75070
gfz2012kuct  -1.40350
gfz2012kudo  -1.69020
gfz2012kvzv  -2.53200
gfz2012kwgo  -1.72000
gfz2012lboz  -0.66153
gfz2012lczo  -1.99010
gfz2012ldxg  -1.06280
gfz2012ldzj  -0.78187
gfz2012ledy  -1.11970
gfz2012minr   3.25300
gfz2012mupa  -2.53130
gfz2012mvwr  -0.35693
gfz2012mwij  -1.11510
gfz2012nedn  -1.51320
gfz2012nojx  -0.80893
gfz2012nsbz   0.89894
gfz2012oazn  -1.31120
gfz2012omvo  -1.94320
gfz2012pgcl  -1.03550
gfz2012pqlt  -0.87044
gfz2012rats  -1.28360
gfz2012ronz   0.44015
gfz2012rqlg   2.48810
gfz2012rwov  -2.04580
gfz2012snhi   0.21036
gfz2012sphd  -1.07320
gfz2012syvl  -2.54050
gfz2012teic  -1.50210
gfz2012tmop  -1.95060
gfz2012ttoa  -2.50330
gfz2012tvmv  -1.34920
gfz2012uafg  -0.99708
gfz2012uciv  -2.44200
gfz2012uhup  -2.18320
gfz2012vceo  -3.93660
gfz2012vpza   0.06064
gfz2012vrgb  -1.14840
gfz2012vsev  -2.83000
gfz2012whku  -0.24865
gfz2012wklq  -1.47930
gfz2012wmkd   1.36440
gfz2012wpeq  -1.50280
gfz2012wtkr  -1.34960
gfz2012wvfl  -0.87050
gfz2012wxer  -0.99941
gfz2012wxlg  -1.12780
gfz2012wxnu  -1.31850
gfz2012wybs  -2.77700
gfz2012wypz  -1.53770
gfz2012xjyv  -2.45250
gfz2012xslk  -2.23780
gfz2012xyqp  -2.97980
gfz2012xyua  -0.34690
gfz2012zemh  -1.13990
gfz2012zitl  -1.71250
gfz2012zjpv  -1.74610
gfz2013aayj  -3.06380
gfz2013acag  -0.80036
gfz2013akgj   6.27800
gfz2013aqaw  -1.51970
gfz2013axoj  -0.20732
gfz2013bdke   0.06561
gfz2013bdpu  -3.02160
gfz2013bokp  -3.07500
gfz2013bouj  -1.01020
gfz2013btjm  -2.48070
gfz2013ccnr  -2.42330
gfz2013cwpn  -0.73759
gfz2013czeq  -0.62530
gfz2013dkly  -0.61978
gfz2013dkym  -1.97350
gfz2013dofo  -2.45570
gfz2013dojq   1.11540
gfz2013drpk  -1.63370
gfz2013drxz  -2.47070
gfz2013dsog   1.12500
gfz2013dspt  -1.33680
gfz2013dsrk  -2.84290
gfz2013dvyh  -2.24630
gfz2013egpu  -0.97385
gfz2013ekpm  -1.78230
gfz2013hmbc  -1.91070
gfz2013huwr   0.95759
gfz2013hxcx  -2.26220
gfz2013idbb  -2.48860
gfz2013ifpq  -0.68187
gfz2013ijsr  -0.12678
gfz2013ikgo  -1.49410
gfz2013inux   0.13602
gfz2013iunn  -3.57670
gfz2013jdrx   0.01699
gfz2013jesk  -2.19620
gfz2013jfah  -1.12330
gfz2013jgij  -1.09590
gfz2013jgip  -3.03190
gfz2013jkut  -0.45286
gfz2013jokw  -1.41480
gfz2013jusj  -0.97751
gfz2013jwvc  -1.29480
gfz2013kdeo  -2.63960
gfz2013kheb  -0.92166
gfz2013kvtk  -1.23050
gfz2013kwag  -2.81080
gfz2013ldpc  -2.24800
gfz2013ldqb  -2.19850
gfz2013lyko  -1.40470
gfz2013mqmv  -1.58520
gfz2013mwbh  -1.23440
gfz2013ncjp  -2.39400
gfz2013ndin  -0.63837
gfz2013neuc  -2.11330
gfz2013nixj  -0.70359
gfz2013nkgj  -1.50840
gfz2013nqgw  -3.09670
gfz2013nuvi   0.24054
gfz2013nwdi  -0.56554
gfz2013onjy  -1.84970
gfz2013orzn  -0.36139
gfz2013pfbx  -1.58480
gfz2013reav   1.19960
gfz2013roki  -0.78358
gfz2013rsnr  -0.60438
gfz2013sart  -1.76120
gfz2013suvn  -1.89380
gfz2013svci   0.09573
gfz2013tcxc  -0.43035
gfz2013tcxq  -0.48044
gfz2013tusd  -1.91230
gfz2013tvmw   1.81180
gfz2013uauo  -0.62691
gfz2013ufxk  -0.52430
gfz2013uqvu   0.34942
gfz2013vexx   0.29752
gfz2013vfyw  -0.46234
gfz2013vfzp  -2.37780
gfz2013viul  -1.33130
gfz2013vjjc  -1.43940
gfz2013vqot  -1.01410
gfz2013vvrq  -0.96960
gfz2013waam   0.17206
gfz2013wjmm  -1.67660
gfz2013wkyk   0.47708
gfz2013xizq  -2.19790
gfz2013xklb  -0.90940
gfz2013xmul  -2.34560
gfz2013xsdt  -2.48780
gfz2013xvqd  -1.62780
gfz2013yhbu  -2.00710
gfz2013ylbx  -2.72580
gfz2013ypdc  -2.38230
gfz2013yqkv  -0.87346
gfz2013yyhc  -1.92720
gfz2013yyti  -0.89549
gfz2013zjel  -0.31529
gfz2014afmx  -0.69378
gfz2014ajlk  -1.41700
gfz2014algk  -1.69560
gfz2014alwz  -0.96077
gfz2014ande  -1.02860
gfz2014arpf  -2.28800
gfz2014arqr  -2.01500
gfz2014bagd  -1.39050
gfz2014bbro  -2.83120
gfz2014bekc  -3.31640
gfz2014bezu  -1.75760
gfz2014bfng  -0.90884
gfz2014bmta  -0.83633
gfz2014bwue  -0.39287
gfz2014bzxy  -2.93320
gfz2014caop  -2.62590
gfz2014cbtl  -0.86886
gfz2014cgog  -1.00370
gfz2014chdv   0.34518
gfz2014cmwb  -1.71260
gfz2014cvkm  -1.54440
gfz2014czqi  -2.19510
gfz2014czua  -0.46324
gfz2014dddc  -1.06980
gfz2014dhxt  -0.54741
gfz2014ebmc  -0.99875
gfz2014efkk  -2.05410
gfz2014eght  -0.96762
gfz2014ehsf  -0.76563
gfz2014ekcr  -1.26320
gfz2014ekdt  -1.01190
gfz2014enhi  -0.10063
gfz2014eqpl  -1.33230
gfz2014etqa   0.25309
gfz2014ettc  -1.67050
gfz2014fcms  -2.34390
gfz2014fedd  -1.27770
gfz2014femz  -0.23597
gfz2014fexu   0.72684
gfz2014fgvi  -1.37730
gfz2014fgxt   1.92170
gfz2014fgyo  -1.42930
gfz2014fgza   2.11550
gfz2014fhbd  -1.25280
gfz2014fhdw  -1.81020
gfz2014fhla  -2.93390
gfz2014fhrq  -1.51610
gfz2014fhsg   3.20980
gfz2014fhwx  -0.75747
gfz2014fimn  -0.68367
gfz2014fjpb  -1.22460
gfz2014fjyo   0.25701
gfz2014fkmr  -0.76968
gfz2014fnbh  -0.05125
gfz2014fnyg  -2.55600
gfz2014foio   0.79183
gfz2014frdz  -1.80200
gfz2014frel   0.62255
gfz2014frez  -0.70107
gfz2014frgm  -1.33230
gfz2014frwh  -0.82592
gfz2014ftka  -2.22470
gfz2014ftpw  -0.97350
gfz2014ftrk   3.56430
gfz2014furx  -1.16930
gfz2014fusj  -1.08730
gfz2014fuub  -1.87610
gfz2014fval  -0.92093
gfz2014fvgh  -0.86445
gfz2014fvpy  -1.45190
gfz2014fvrg  -2.18280
gfz2014fzgx   0.19402
gfz2014gbcz  -2.31760
gfz2014gbdq  -0.74140
gfz2014geuy   0.61135
gfz2014gezs  -1.27990
gfz2014ghpe  -1.81870
gfz2014gkgf  -1.87670
gfz2014gkhy   0.81466
gfz2014gkjl  -3.11110
gfz2014gkjt   2.28820
gfz2014gkmm  -1.07470
gfz2014gkob  -1.45320
gfz2014gkpd  -0.71781
gfz2014gkqf  -1.16990
gfz2014gkqu  -2.34600
gfz2014gksj  -2.18530
gfz2014gksu  -0.79148
gfz2014gktn  -5.17930
gfz2014gktq  -3.10730
gfz2014gkut  -1.28790
gfz2014gkxm  -3.07500
gfz2014glcu  -0.97253
gfz2014glgo  -1.57430
gfz2014gltx  -1.16090
gfz2014glvn  -1.22560
gfz2014gmci  -1.16550
gfz2014gmge  -1.43080
gfz2014gmhp  -1.36310
gfz2014gmhr  -1.82960
gfz2014gmjo  -0.91999
gfz2014gmku  -2.41850
gfz2014gmlz  -0.76062
gfz2014gmnb  -1.71400
gfz2014gmnw  -1.57460
gfz2014gmor  -0.40974
gfz2014gmpy  -1.19800
gfz2014gmuk  -1.40430
gfz2014gmuw  -2.50250
gfz2014gmzl  -1.48690
gfz2014gnfd  -0.40267
gfz2014gngg  -0.94023
gfz2014gnnt  -1.61020
gfz2014gnre  -0.97454
gfz2014gnxb  -1.41140
gfz2014goba  -1.27380
gfz2014gono  -0.19223
gfz2014goqw  -1.35740
gfz2014gori   0.42548
gfz2014gpam   1.50490
gfz2014gpce  -1.51880
gfz2014gphr  -1.81050
gfz2014gpuk  -0.65400
gfz2014gpvk   2.25420
gfz2014gpya   0.38077
gfz2014gqbj  -0.74291
gfz2014gqer  -1.47340
gfz2014gsqs  -0.79277
gfz2014gtwz  -2.02210
gfz2014gufl  -0.77097
gfz2014gull  -1.60730
gfz2014gvqj  -1.59460
gfz2014gvrd  -0.79957
gfz2014gwab   2.29000
gfz2014gwqj  -2.77550
gfz2014gxkh  -0.65122
gfz2014gxqu  -0.43009
gfz2014gxxo  -1.98430
gfz2014hfhl  -1.89130
gfz2014hgqo  -0.88292
gfz2014hjgh  -1.99520
gfz2014hjgr  -1.60010
gfz2014hjij  -1.45470
gfz2014hjlx  -0.89598
gfz2014hkcf  -1.81200
gfz2014hmgf  -0.55990
gfz2014hmzg  -1.04200
gfz2014hoap   1.61320
gfz2014hocg  -1.48290
gfz2014hpqz   0.32316
gfz2014hscz  -2.48530
gfz2014hzfw  -0.88037
gfz2014hzgn   0.74420
gfz2014ieam   0.83211
gfz2014ifue   0.01920
gfz2014imnn   3.25200
gfz2014inbj  -1.99110
gfz2014irci   1.57540
gfz2014itkw  -1.57000
gfz2014iuhq  -1.96440
gfz2014jcjt  -0.01963
gfz2014jjhc  -0.91899
gfz2014jjln  -1.32380
gfz2014jnxm  -0.02067
gfz2014jnyv  -2.03180
gfz2014jomw  -1.72760
gfz2014jpep  -2.06910
gfz2014jwmh   0.19667
gfz2014kbuk  -0.37788
gfz2014kbwm  -2.71020
gfz2014khan  -1.82360
gfz2014khlk  -0.49212
gfz2014kmmt  -1.89720
gfz2014kndc  -1.62840
gfz2014knks  -1.18360
gfz2014knxs  -0.31108
gfz2014ksdv  -0.66270
gfz2014kwrg  -0.53502
gfz2014kwwg  -1.68690
gfz2014kxqf   3.40230
gfz2014kyan  -1.51620
gfz2014kytf  -1.11350
gfz2014ldhu   0.20937
gfz2014lgqn  -0.36151
gfz2014lxnc  -0.60781
gfz2014lyhk   2.71260
gfz2014oinz  -1.38310
gfz2014owxc   1.43720
gfz2014qlxd  -1.30470
gfz2014qngj  -0.64864
gfz2014qqhm  -0.37900
gfz2014rdsn   0.01809
gfz2014riel  -1.99010
gfz2014rkwl  -1.54100
gfz2014sjqw  -1.94750
gfz2014ssmv  -1.16520
gfz2014ssvz  -2.27010
gfz2014szzf  -0.50804
gfz2014tovs  -0.93319
gfz2014tqdo  -0.70821
gfz2014tqsf  -1.27130
gfz2014tqth   2.88560
gfz2014ubwn   0.65239
gfz2014udgg  -1.26900
gfz2014uohh  -1.43660
gfz2014utac  -1.12270
gfz2014uuuf  -1.50740
gfz2014uvji  -0.93580
gfz2014uvrk  -2.30370
gfz2014uxyg  -1.51870
gfz2014uyrq  -1.98940
gfz2014vhld  -1.51540
gfz2014vhms  -0.58761
gfz2014vhuy  -0.62781
gfz2014vjoz  -1.77150
gfz2014vqqa   1.59070
gfz2014waoo  -1.42420
gfz2014watn  -2.09580
gfz2014wjko  -2.78240
gfz2014wmsc  -1.03500
gfz2014wqcp  -2.55350
gfz2014wrkh  -0.68394
gfz2014wwib   1.93130
gfz2014xbyr  -2.17560
gfz2014xjri  -1.64140
gfz2014xqby  -2.26030
gfz2014yhhm  -1.17240
gfz2014ynzy  -0.94420
gfz2014yppv  -1.45200
gfz2014yrug  -2.12420
gfz2014yula  -0.88187
gfz2014yyiy   2.20040
gfz2014zkys  -2.39000
gfz2014zplq  -4.08750
gfz2015apnk  -1.52990
gfz2015aqbq  -6.47970
gfz2015aruz  -2.19830
gfz2015atxv   0.41780
gfz2015berb  -1.38340
gfz2015bfjm  -0.48739
gfz2015bkbj  -1.71520
gfz2015bphe  -1.79990
gfz2015bpxl   0.11488
gfz2015bucr  -0.07620
gfz2015bvsj  -1.67730
gfz2015bvxx  -1.04840
gfz2015byjd  -1.90070
gfz2015bzej  -0.13022
gfz2015chhn  -1.71000
gfz2015chqn  -1.42380
gfz2015cxhx  -0.79376
gfz2015cxrc  -0.35787
gfz2015cxxk   0.03136
gfz2015cyjd  -1.49110
gfz2015dizn  -1.34650
gfz2015dskr  -2.22410
gfz2015dvbn  -1.27470
gfz2015ednc  -0.18215
gfz2015eeyq  -0.78441
gfz2015egxq  -0.68315
gfz2015eiky  -1.08710
gfz2015elgy  -0.53729
gfz2015emtg  -0.24241
gfz2015enth  -3.14990
gfz2015etai  -1.26970
gfz2015evpl  -0.51648
gfz2015fbbk  -1.15810
gfz2015fbew  -2.69170
gfz2015fcua  -0.75694
gfz2015fjhk  -1.50970
gfz2015fkgt  -0.74477
gfz2015fkic  -2.68980
gfz2015fkjs  -1.02690
gfz2015fkkd  -1.00130
gfz2015fkuu  -0.67396
gfz2015flis  -2.36570
gfz2015fpez  -1.27790
gfz2015fsjj  -1.67990
gfz2015fvoi  -1.02330
gfz2015fxbv  -0.85209
gfz2015fxdi  -1.64150
gfz2015gckd  -1.85480
gfz2015gjbr  -0.15246
gfz2015gkwa  -0.65346
gfz2015hdbn  -0.63726
gfz2015igsy  -1.67050
gfz2015ixyy  -1.89630
gfz2015jkdw  -0.55387
gfz2015jpap   0.31051
gfz2015jwgl   0.02460
gfz2015jxbx  -0.93555
gfz2015jxjd  -0.49018
gfz2015jzcv  -1.32690
gfz2015kakw  -1.98520
gfz2015kfsu  -2.90270
gfz2015kkth  -1.49290
gfz2015kphk  -1.06610
gfz2015kquq  -0.87764
gfz2015lhjy  -0.94310
gfz2015lytv   0.38449
gfz2015mpte   1.26110
gfz2015ocdz  -0.91616
gfz2015oyfl  -2.97610
gfz2015qnho  -0.99991
gfz2015quzo  -0.02017
gfz2015rddx  -1.15210
gfz2015rkzg  -2.96300
gfz2015sevh   2.47100
gfz2015sfdd  -0.52312
gfz2015sfdy   0.35357
gfz2015sffn  -0.24078
gfz2015sfho  -0.74412
gfz2015sfhz   0.16516
gfz2015sfiq  -0.51756
gfz2015sfkh  -0.37158
gfz2015sfko  -0.82328
gfz2015sfks   0.48455
gfz2015sfkz  -0.72709
gfz2015sflf  -0.94579
gfz2015sfln   0.05140
gfz2015sfmd   0.16291
gfz2015sfnb  -0.33232
gfz2015sfno  -0.29533
gfz2015sfnv  -0.24900
gfz2015sfoc  -0.67021
gfz2015sfom  -0.23656
gfz2015sfqo  -0.60678
gfz2015sfqr   1.51620
gfz2015sfsi  -0.61380
gfz2015sfzm   0.18286
gfz2015sgad  -0.66400
gfz2015sggc  -0.89170
gfz2015sgyd  -0.74858
gfz2015shhg   0.39709
gfz2015shjn  -0.29175
gfz2015shsz  -2.15040
gfz2015sitn   0.28095
gfz2015sjgk  -0.45076
gfz2015sjne   0.64714
gfz2015sjoj   0.03853
gfz2015sjvu  -0.16408
gfz2015sjwi  -0.82999
gfz2015skgj  -1.00660
gfz2015skxu  -0.75681
gfz2015sldx  -1.57820
gfz2015slun   0.80113
gfz2015smym   0.01941
gfz2015snsf  -0.70097
gfz2015snwh  -1.47420
gfz2015snyd  -0.39945
gfz2015soat  -0.01929
gfz2015soxc  -1.05000
gfz2015sqmy   0.76795
gfz2015srat  -1.09100
gfz2015stfy  -0.19372
gfz2015subz  -1.40460
gfz2015svjy  -0.10431
gfz2015svwm  -0.61505
gfz2015szcb   0.19702
gfz2015sztx  -0.87876
gfz2015taml  -1.30040
gfz2015tbje  -0.70956
gfz2015tcem  -1.15300
gfz2015tdcu  -1.43330
gfz2015teje  -1.30280
gfz2015tezd   0.27605
gfz2015tghj  -1.71500
gfz2015thwg  -0.71626
gfz2015tiyc  -1.02670
gfz2015tkol  -1.34050
gfz2015tlba  -0.54717
gfz2015tlkf  -0.12784
gfz2015tnjd  -0.26252
gfz2015tpra  -1.28660
gfz2015tqff  -1.28560
gfz2015tsdm  -0.45490
