# Nsamples: 1118  MAD:  0.648  mean:  0.526  variance:  0.904
gfz2010aban  -1.16740
gfz2010aerk   0.14607
gfz2010ahqi   0.64254
gfz2010aykj   0.03961
gfz2010bfzs   0.03845
gfz2010bgth   0.40792
gfz2010bhhq   0.86573
gfz2010bifb  -1.44600
gfz2010bjeb   0.71533
gfz2010bjjx  -2.75900
gfz2010bkob   0.72250
gfz2010bkos   0.64355
gfz2010bowy   0.13749
gfz2010boxo  -0.02013
gfz2010bxxs   0.50929
gfz2010caft   0.60229
gfz2010cbkg   0.87069
gfz2010ckzm   0.01763
gfz2010cqwl   1.04760
gfz2010ctuw   0.33078
gfz2010dlgc   0.77363
gfz2010eaoy  -0.07448
gfz2010eapk   0.15218
gfz2010eapn   1.14630
gfz2010eaqe   1.14550
gfz2010eaqx   0.14449
gfz2010eaqy   0.72371
gfz2010earq   1.29510
gfz2010earu  -0.49450
gfz2010easf   1.55290
gfz2010eask  -0.99582
gfz2010easo   0.06367
gfz2010easu  -0.33975
gfz2010eato   0.87742
gfz2010eatt  -0.24860
gfz2010eaty  -0.06833
gfz2010eaul   0.18219
gfz2010eavp   0.74897
gfz2010eavs   1.38810
gfz2010eawb   0.58966
gfz2010eawu  -7.34640
gfz2010eaxa   0.60175
gfz2010eaxn  -0.18573
gfz2010eayd   0.82628
gfz2010eayp  -0.17901
gfz2010eaze   0.92367
gfz2010eazu  -1.11970
gfz2010ebbd  -0.07243
gfz2010ebbx  -0.54765
gfz2010ebdl   0.68274
gfz2010ebeh  -0.12101
gfz2010ebek  -0.51170
gfz2010ebfa   0.14771
gfz2010ebgj   0.90167
gfz2010ebhc   0.72748
gfz2010ebih   0.73694
gfz2010ebin  -0.40411
gfz2010ebiv   1.41460
gfz2010ebjy   0.32172
gfz2010ebkj  -0.38901
gfz2010ebla   0.94463
gfz2010ebll   0.76689
gfz2010ebmb   0.37526
gfz2010ebmi   0.12484
gfz2010ebnn   0.57742
gfz2010ebpa   0.43556
gfz2010ebqz  -0.09929
gfz2010ebrm   0.78509
gfz2010ebsv   1.60190
gfz2010ebtk   2.13210
gfz2010ebvm   1.16660
gfz2010ebvv   0.09821
gfz2010ebwp   0.68802
gfz2010ebxl   0.20052
gfz2010ebze  -0.14412
gfz2010ebzk   0.97972
gfz2010ebzr   0.76917
gfz2010ecay   0.36092
gfz2010ecbi  -0.11290
gfz2010eccq   1.69670
gfz2010eced   1.43220
gfz2010ecfx   1.02470
gfz2010ecfy   0.22926
gfz2010ecgh   0.80047
gfz2010echt   0.42896
gfz2010echy   1.49700
gfz2010ecsp   0.55171
gfz2010ecua   0.28158
gfz2010ecuv   1.88740
gfz2010ecvt   0.19049
gfz2010edat   0.49298
gfz2010eday   0.63688
gfz2010edbz   1.32240
gfz2010edcp   3.80330
gfz2010edim   0.70104
gfz2010edkp   0.51186
gfz2010edqd   0.84899
gfz2010edqh   1.02770
gfz2010edsk   1.05230
gfz2010edsn   2.38730
gfz2010edsy   1.08240
gfz2010edun   0.77008
gfz2010edvf   1.10370
gfz2010edyi  -4.88550
gfz2010edzb   0.77167
gfz2010eedu  -0.27754
gfz2010eefh   0.79498
gfz2010eefo  -1.26150
gfz2010eegn  -0.67266
gfz2010eeia   0.86642
gfz2010eeij   0.76484
gfz2010eekg   1.95020
gfz2010eekq   0.97125
gfz2010eeng   0.62234
gfz2010eerh   0.24459
gfz2010eern   0.96435
gfz2010eesf   0.96365
gfz2010eevu  -0.08011
gfz2010eexz  -3.78740
gfz2010eeyh   0.84200
gfz2010efbh   0.86821
gfz2010efbi   0.74938
gfz2010efsq  -0.08987
gfz2010efwo   1.32660
gfz2010efxf   0.97644
gfz2010egap   0.38357
gfz2010eghq   0.32963
gfz2010egld   0.90667
gfz2010egln   0.20679
gfz2010egmp   1.03840
gfz2010egyy   0.62439
gfz2010ehaj   1.95850
gfz2010ehft   0.09878
gfz2010ehnl   0.00793
gfz2010ehnm   0.69158
gfz2010ehrq  -0.88118
gfz2010ehsy   0.82750
gfz2010ehvj   0.59334
gfz2010ehwg   1.29510
gfz2010ehxz   1.73010
gfz2010eioi   0.33906
gfz2010eisx  -1.11530
gfz2010eixj   1.30770
gfz2010ejae   1.29840
gfz2010ejjg  -0.10125
gfz2010ejju  -1.76080
gfz2010ejka   0.47275
gfz2010ejma  -0.31326
gfz2010ejxf   0.88018
gfz2010ekaw   0.23562
gfz2010ekoe   0.73959
gfz2010ekrv   0.33780
gfz2010ekyc  -0.56187
gfz2010elhv   0.40812
gfz2010elin   0.29177
gfz2010eljf  -0.64253
gfz2010elpu   0.40629
gfz2010eltf  -0.06017
gfz2010elvp   1.34100
gfz2010elxi   0.35699
gfz2010elyc  -1.42760
gfz2010elyo   1.38920
gfz2010elzf   0.57979
gfz2010elzl   1.55830
gfz2010emyz   0.11088
gfz2010encm  -0.90925
gfz2010enpa   3.41910
gfz2010enzl   1.16100
gfz2010eoao   0.77232
gfz2010epbe   1.53990
gfz2010epxj   0.50559
gfz2010eqjg   0.37163
gfz2010eqmu  -4.73460
gfz2010erfy   1.39200
gfz2010erkn   0.24666
gfz2010erna  -0.81272
gfz2010erom   0.87307
gfz2010erum   1.81460
gfz2010eruy   0.99700
gfz2010erwn   0.34499
gfz2010erxb   1.09040
gfz2010eryg   0.11659
gfz2010esid   0.72642
gfz2010eted   1.41150
gfz2010eujm   0.03927
gfz2010eutw  -0.62395
gfz2010euvl   0.34972
gfz2010euwb   0.76511
gfz2010euxe   1.10810
gfz2010evco  -0.55669
gfz2010evgf   0.52567
gfz2010evjv   1.83770
gfz2010evkd  -0.21324
gfz2010ewpq   1.34790
gfz2010ewvc   0.08069
gfz2010ewyu   1.14310
gfz2010excp  -0.58950
gfz2010exdd  -0.15089
gfz2010exel   0.67776
gfz2010exfb   1.13290
gfz2010exgb   0.96061
gfz2010exhd   0.87574
gfz2010exhw  -0.18264
gfz2010exjw   0.71132
gfz2010exlm   0.31983
gfz2010exmc   0.39572
gfz2010exno  -0.15600
gfz2010exou  -0.75880
gfz2010exqu   0.37802
gfz2010exsg   0.81347
gfz2010exts   0.07930
gfz2010exyp   0.33698
gfz2010eyaz  -0.06660
gfz2010eyhh   0.52498
gfz2010eyiv  -2.01250
gfz2010eyvq   0.60822
gfz2010ezvt   0.73856
gfz2010ezxd   1.12700
gfz2010faeu  -0.40669
gfz2010falm   0.50754
gfz2010fauz   0.43818
gfz2010fbeu   0.65271
gfz2010fbpi   3.32260
gfz2010fcax   0.21157
gfz2010fcdw   1.54150
gfz2010fciw   0.13804
gfz2010fcnn   0.59518
gfz2010fcnt   0.10709
gfz2010fcxy   1.39590
gfz2010fcyj  -0.04822
gfz2010fczt   0.44993
gfz2010fdab  -1.47550
gfz2010fedq  -1.17550
gfz2010fefr   0.13137
gfz2010fexw   2.46080
gfz2010ffhq  -0.10830
gfz2010ffjb   1.71820
gfz2010ffui   0.89669
gfz2010figq   0.19571
gfz2010fihj   1.76570
gfz2010fika   0.87903
gfz2010fixr  -0.17692
gfz2010fjal   1.59210
gfz2010fjni   0.33131
gfz2010fknh   0.35803
gfz2010fkvg   5.60050
gfz2010flha  -0.26079
gfz2010flkj  -2.08380
gfz2010flrt   0.40172
gfz2010flxi   0.33244
gfz2010fmhb  -0.45164
gfz2010fmwb  -0.72660
gfz2010fneu   0.53316
gfz2010fnrk   0.98967
gfz2010fpmv   0.81944
gfz2010fpqy   0.28151
gfz2010fqdu   0.60200
gfz2010fqtj   1.10150
gfz2010fser   0.49581
gfz2010ftlm  -0.34847
gfz2010fupn   0.24960
gfz2010fuuy  -0.28119
gfz2010fwkk   0.00000
gfz2010fwny   0.55143
gfz2010fwpv   0.57389
gfz2010fyen   0.18844
gfz2010fync   0.09679
gfz2010fzoi   0.99349
gfz2010gcdn  -0.76476
gfz2010gcrl  -0.78617
gfz2010gcrp  -0.03948
gfz2010geru  -1.22470
gfz2010ginm   2.15020
gfz2010gjia   0.51003
gfz2010glqr   0.14392
gfz2010glxl   0.09324
gfz2010gslu   0.51861
gfz2010gymo   1.28280
gfz2010gyqp   0.17859
gfz2010gzxr   0.24417
gfz2010hcio   0.85908
gfz2010hgld   0.66885
gfz2010hjoc   0.75265
gfz2010hllj   1.99660
gfz2010hlmq   0.61742
gfz2010hmhm   0.56717
gfz2010hndk   0.74923
gfz2010hnnf   0.18031
gfz2010hnpi   0.44885
gfz2010hnzr  -0.02000
gfz2010homc   0.70999
gfz2010hptz  -0.50094
gfz2010hxbs   0.39822
gfz2010hxgv   0.69500
gfz2010hzar   0.72432
gfz2010ibiy   0.59507
gfz2010iciq   1.03520
gfz2010icqq   0.93829
gfz2010iibf   0.81857
gfz2010iimu   1.23210
gfz2010imfv   0.53232
gfz2010imsh   0.74970
gfz2010iobp   0.59051
gfz2010iphd   1.08440
gfz2010ipsg   0.51363
gfz2010iqep   0.17128
gfz2010iqfm  -0.30121
gfz2010iqnm   0.10043
gfz2010irvf  -0.19912
gfz2010itpb   0.16773
gfz2010iull   0.24562
gfz2010jagd   0.05282
gfz2010jant   1.98050
gfz2010jatq  -0.15619
gfz2010jhie   0.43360
gfz2010jipf  -0.68462
gfz2010jkxj   0.31490
gfz2010jlhj   2.74240
gfz2010jpyj   0.00000
gfz2010jssh   0.04296
gfz2010jsuh  -0.04810
gfz2010jsuo   1.03980
gfz2010jxbm  -0.37313
gfz2010jygz   0.34270
gfz2010jzku   1.34590
gfz2010kcoo   1.02070
gfz2010kdyc   1.25990
gfz2010kihf  -1.30540
gfz2010kmgg  -0.53174
gfz2010kyvj   1.01600
gfz2010kzml  -2.52640
gfz2010lcoq   0.46959
gfz2010lkcf   1.17770
gfz2010lopz  -0.22318
gfz2010lrlk   0.94033
gfz2010lyfk   1.45240
gfz2010mdpq   0.44534
gfz2010mlkz   0.14013
gfz2010mpuy   0.24382
gfz2010ncrl   0.51206
gfz2010nfsj   0.06765
gfz2010nqwf   0.53433
gfz2010nqwo  -0.71293
gfz2010nrjo   0.99169
gfz2010nsck   0.46515
gfz2010nsdf  -5.36040
gfz2010ntuo   0.56262
gfz2010nxsy  -0.15805
gfz2010nxum   0.51981
gfz2010odpb   0.93552
gfz2010oedn   0.84365
gfz2010onma   0.10287
gfz2010osjs   0.22695
gfz2010pfyu   0.61660
gfz2010plbg  -0.38124
gfz2010pxgh  -0.80268
gfz2010suww  -0.56925
gfz2010svtn   0.49637
gfz2010svve   1.16590
gfz2010swcy   0.21402
gfz2010sxwt   1.03590
gfz2010sysw   0.44874
gfz2010tcrl  -0.42771
gfz2010tlfm   0.01743
gfz2010truw   0.55131
gfz2010txjs   1.01290
gfz2010upfb   0.34525
gfz2010usho   1.08700
gfz2010ustq   1.61990
gfz2010utcg   0.69089
gfz2010utmc   0.84642
gfz2010uvhf   0.89738
gfz2010uyhb   0.02229
gfz2010vbmd   0.23611
gfz2010vhuj   0.98462
gfz2010vtdg   0.26423
gfz2010wioh   0.48893
gfz2010wnty   1.00130
gfz2010wofs   1.51610
gfz2010wrxx   0.41004
gfz2010wxqa   1.34490
gfz2010xgzw   0.92611
gfz2010xjck  -0.75133
gfz2010xjsj   1.33530
gfz2010xnxk   0.90576
gfz2010yjev  -0.64167
gfz2010ymfy   0.75288
gfz2010yosr   0.87448
gfz2010yqwx  -0.82429
gfz2011aatr   0.41031
gfz2011adjs  -0.39674
gfz2011aeay   1.31470
gfz2011ahfw   1.73330
gfz2011alip   0.67878
gfz2011alsa   0.38845
gfz2011anur   0.97510
gfz2011aosc   0.46376
gfz2011aqxf   0.23546
gfz2011aupi   1.31810
gfz2011bgrp  -0.15335
gfz2011bhha   0.14370
gfz2011blsi  -0.92833
gfz2011cndo   0.32742
gfz2011csju  -0.92800
gfz2011cykd   0.46837
gfz2011cynl   2.58750
gfz2011cyre  -0.64451
gfz2011cyuk  -1.83490
gfz2011czwj   0.98842
gfz2011dbev   0.60392
gfz2011dbig   0.06756
gfz2011dbon   0.48784
gfz2011dbwt   0.58475
gfz2011dcqb   1.05400
gfz2011dcqf   0.58266
gfz2011dddh  -0.78793
gfz2011dkyi   0.68405
gfz2011dlyx   0.49360
gfz2011dmat   1.63280
gfz2011dpqx  -0.48580
gfz2011duyr   0.93167
gfz2011ecaj   0.75489
gfz2011eebc   1.36130
gfz2011ehzq   0.76039
gfz2011eltw   1.15200
gfz2011enva  -0.37213
gfz2011etje   0.56662
gfz2011fgvr   0.19134
gfz2011fhag   0.80315
gfz2011fhbm   0.59651
gfz2011fhur   0.69099
gfz2011fkbn   0.43696
gfz2011flgj   0.41625
gfz2011fnsw   1.95530
gfz2011gbmx   1.20990
gfz2011gcwb   0.52445
gfz2011gdgh   0.55939
gfz2011ggvf   1.14260
gfz2011gkzt  -0.22065
gfz2011gzbr   1.53480
gfz2011haid   0.30527
gfz2011hbex   0.41561
gfz2011hebt   0.45398
gfz2011hfkj   0.07404
gfz2011hlqw   0.14474
gfz2011hlsa   0.05887
gfz2011hlth   0.62971
gfz2011hpgx  -0.16314
gfz2011hpqp   0.37219
gfz2011hrhu  -0.41274
gfz2011hryk   0.74343
gfz2011hsfj  -1.64280
gfz2011hvbu   0.02186
gfz2011ieie  -0.02118
gfz2011iwte   1.00390
gfz2011ixai   0.53534
gfz2011izqa  -0.05396
gfz2011izto  -0.08100
gfz2011jghb  -1.09160
gfz2011jmbn   0.54314
gfz2011jnmi   1.26880
gfz2011jplh  -0.25190
gfz2011jtlg   0.34751
gfz2011juid   0.50534
gfz2011jxpl   1.31310
gfz2011knoo   1.16280
gfz2011kqwo  -1.14040
gfz2011kqyg   0.14872
gfz2011kwid   0.44911
gfz2011kwjx   0.10571
gfz2011kwrf   1.36380
gfz2011kwsz   0.03924
gfz2011kxzp   0.74445
gfz2011lcxq  -0.22016
gfz2011lczg   1.34020
gfz2011lgsg   1.55740
gfz2011lhls   1.35480
gfz2011lvjr   1.44730
gfz2011lzwj   0.77952
gfz2011mdie   0.82471
gfz2011mepc  -0.16561
gfz2011mllx   0.59306
gfz2011myia   1.32460
gfz2011nauw   1.39400
gfz2011noud   1.02110
gfz2011nrwc   1.20260
gfz2011nudm  -0.18036
gfz2011ogqk  -0.37517
gfz2011ohcy   1.29420
gfz2011olkk   1.95910
gfz2011oolr   1.20430
gfz2011orgn   0.19985
gfz2011ornx   0.93170
gfz2011owvz   1.71610
gfz2011pccd   1.11130
gfz2011phms   0.33561
gfz2011ptus   0.94291
gfz2011qvae   0.20619
gfz2011qyms   2.29620
gfz2011rabm   1.48100
gfz2011rewa  -0.42455
gfz2011rgwp   0.97081
gfz2011rqui   0.84410
gfz2011rsrh   1.24910
gfz2011sagt   0.81143
gfz2011shqm   0.67145
gfz2011stal   0.72488
gfz2011tbas  -0.24685
gfz2011tcij   0.99926
gfz2011tjue   0.78396
gfz2011tkfp   0.47729
gfz2011tkog   0.30581
gfz2011toub  -0.39168
gfz2011tpfr   0.82879
gfz2011tsfd   1.38500
gfz2011udsq   3.28680
gfz2011ugzz   1.93780
gfz2011ujze   0.66944
gfz2011uphh   0.66784
gfz2011urxy   0.43143
gfz2011urzu   0.95749
gfz2011uzqv  -0.05672
gfz2011vhfi   1.17400
gfz2011vnza   1.06090
gfz2011vqnr   3.36790
gfz2011vrhg  -0.78629
gfz2011vxns  -0.57753
gfz2011wcic  -0.49706
gfz2011wfja   1.05270
gfz2011wijj   0.44787
gfz2011wjul   0.04387
gfz2011wtmq   1.14430
gfz2011wwjs   0.54585
gfz2011wxfs   0.84177
gfz2011wxoj   0.29264
gfz2011wxtk   0.65428
gfz2011xcpv   0.88592
gfz2011xesx   0.88241
gfz2011xqru   4.10020
gfz2011xyxj   0.64691
gfz2011yfdx   0.12588
gfz2011ytnu   1.52500
gfz2011yybo   0.93464
gfz2011zklv   0.71283
gfz2011zqhh  -0.83862
gfz2012ablh  -2.16940
gfz2012ajtq   0.43265
gfz2012aqtq   0.70745
gfz2012bfah   0.83824
gfz2012bngd   1.13850
gfz2012bpkx   0.10786
gfz2012bpnl   0.74288
gfz2012bpwl   0.55725
gfz2012bszs   1.50740
gfz2012byad  -0.13073
gfz2012cgvr  -0.14840
gfz2012ckxi   1.49120
gfz2012covm   1.08610
gfz2012cqnl  -1.02340
gfz2012cxdn   0.45907
gfz2012czlw  -0.25883
gfz2012deri   1.03040
gfz2012dimn   1.83700
gfz2012dyyh   0.97815
gfz2012ekda   0.87582
gfz2012ekzf   0.55559
gfz2012emjg   1.79930
gfz2012enno   0.26150
gfz2012ewgo   0.89322
gfz2012foeo   0.54132
gfz2012fwfo   0.55547
gfz2012fzfa  -0.00000
gfz2012gkvr   0.98962
gfz2012gocc  -0.54851
gfz2012gukw   0.78535
gfz2012hdbm   1.94140
gfz2012hnul  -0.23406
gfz2012hogg   1.42010
gfz2012hwmz   0.72380
gfz2012iamr   1.37620
gfz2012iivw   1.26450
gfz2012ilvn   0.87656
gfz2012imay  -0.51749
gfz2012intn   1.23370
gfz2012jjzc   1.07000
gfz2012jlox  -0.30785
gfz2012jshk   0.82494
gfz2012jupx   0.78277
gfz2012keor   0.75969
gfz2012kkup   0.00000
gfz2012klhx   0.14056
gfz2012kuct   1.18040
gfz2012kudo   0.51360
gfz2012kwgo   0.64579
gfz2012lczo   0.14371
gfz2012ldxg  -0.86050
gfz2012ldzj   0.39945
gfz2012lrsv  -0.04236
gfz2012lxkv  -0.28321
gfz2012minr   0.34196
gfz2012mvwr   1.17850
gfz2012mwij   0.23233
gfz2012naqz   0.74626
gfz2012nedn   0.36137
gfz2012nojx  -1.11530
gfz2012nolo  -1.19700
gfz2012nsbz   0.77513
gfz2012nutf   2.25320
gfz2012nxog   0.66789
gfz2012oazn   0.33351
gfz2012oedb   0.24981
gfz2012omvo   0.81391
gfz2012oqmw   1.75990
gfz2012pgcl   0.83491
gfz2012pqlt  -0.72679
gfz2012pqmu  -0.02989
gfz2012priv   1.14080
gfz2012quso  -1.70520
gfz2012rats   0.23972
gfz2012repv   1.05810
gfz2012royy  -0.06387
gfz2012rqlg   0.85349
gfz2012rwov   0.61189
gfz2012rypu  -1.57410
gfz2012snhi  -1.00010
gfz2012sphd   0.34489
gfz2012sqmv   0.40241
gfz2012syvl   0.78780
gfz2012teic   0.52852
gfz2012tmop   0.13833
gfz2012ttoa   0.33178
gfz2012tvmv   0.82653
gfz2012uafg  -0.33512
gfz2012uciv  -0.14025
gfz2012uhup   0.20187
gfz2012uvqf   1.02940
gfz2012uzyj   1.24110
gfz2012vrgb  -0.11392
gfz2012whku   0.86812
gfz2012wklq  -0.30866
gfz2012wmsg   1.27120
gfz2012wtkr   1.07320
gfz2012wvfl   1.71000
gfz2012wxlg   0.42157
gfz2012wxnu   1.07050
gfz2012wybs   0.85220
gfz2012wypz   0.40814
gfz2012xbjq   0.51344
gfz2012xslk   2.91160
gfz2012xvwn   1.80700
gfz2012zemh   1.06960
gfz2012zfag   2.56270
gfz2012zitl   0.37575
gfz2012zjpv  -0.16286
gfz2013axoj   0.79377
gfz2013bokp   0.22691
gfz2013btjm   2.63220
gfz2013cbsm   1.14250
gfz2013ccnr  -0.63729
gfz2013cwpn   1.42860
gfz2013dkly   1.50570
gfz2013dofo   1.32940
gfz2013drxz  -0.06183
gfz2013dspt   2.09620
gfz2013dsrk  -0.64041
gfz2013dvyh   1.09090
gfz2013egni   0.33792
gfz2013egpu   0.89685
gfz2013ewbo   1.34360
gfz2013fiud   1.61950
gfz2013fygc   0.42891
gfz2013gdnq   0.55486
gfz2013gihf   1.08950
gfz2013gjdc   0.06151
gfz2013gngz   1.00610
gfz2013gock   0.73115
gfz2013hxcx   0.71805
gfz2013iayx   1.10610
gfz2013ijsr   0.58915
gfz2013ikgo   0.64788
gfz2013ilug  -0.64860
gfz2013ippu   0.75966
gfz2013jesk   1.15130
gfz2013jgij   0.24876
gfz2013jgip   0.74797
gfz2013jkut   0.30817
gfz2013jokw   0.50503
gfz2013jusj   0.20359
gfz2013jwvc  -0.03687
gfz2013kccc   1.29730
gfz2013kdeo   0.47745
gfz2013kheb   1.99930
gfz2013khli   0.49939
gfz2013kilx   1.95690
gfz2013ldos  -3.19020
gfz2013ldpc   0.86498
gfz2013ldqb   0.05970
gfz2013lgnl   1.35840
gfz2013lixa   0.58330
gfz2013lwbk   1.01760
gfz2013lyko   0.64857
gfz2013mmwq   1.53370
gfz2013mqmv   0.71416
gfz2013mwbh   0.57824
gfz2013ncjp   0.27650
gfz2013ndin   0.68195
gfz2013neuc   0.16805
gfz2013nixj   0.24616
gfz2013nkgj   0.26182
gfz2013nknw   1.20210
gfz2013nmac   0.41956
gfz2013nqgw   3.04840
gfz2013nwdi  -0.50731
gfz2013oejn   1.00940
gfz2013ogde   1.32540
gfz2013oqsc   0.17692
gfz2013ozrp   0.53988
gfz2013pcos   1.29530
gfz2013pfeb   0.94768
gfz2013ppqq  -0.36074
gfz2013pxsj  -0.10228
gfz2013pxya   2.17050
gfz2013qali   1.87120
gfz2013qfmm   0.33630
gfz2013qmer   0.34839
gfz2013qnxc   0.77692
gfz2013qzdq   0.83798
gfz2013reym   0.50402
gfz2013rsnr   1.02920
gfz2013sart   3.15940
gfz2013sdus   0.86023
gfz2013sfto   0.97638
gfz2013skkm   0.43776
gfz2013snbr   1.55290
gfz2013snyf   0.71796
gfz2013sred  -3.49270
gfz2013suvn   1.27540
gfz2013svci  -0.22983
gfz2013tcbk   0.79510
gfz2013tcxc   0.65316
gfz2013tcxq   0.71245
gfz2013tdau  -0.00000
gfz2013tusd   1.34250
gfz2013tvmw   0.48019
gfz2013txij   0.83453
gfz2013txtb   0.67085
gfz2013uauo   0.24778
gfz2013ufxk  -0.61198
gfz2013ufxm   0.92588
gfz2013uqsp   1.36500
gfz2013uqvu   0.87937
gfz2013vexx   0.00000
gfz2013vfyw   0.95080
gfz2013vfzp  -0.40457
gfz2013vgrk   0.29744
gfz2013vhzu   1.90330
gfz2013viul   0.89881
gfz2013vjjc  -1.07970
gfz2013vzbo   0.07382
gfz2013waam   0.10940
gfz2013wjmm  -0.37320
gfz2013wnpr   0.63530
gfz2013xmul   1.61600
gfz2013xsdt   0.22222
gfz2013xwda   0.16696
gfz2013xxwv   1.13500
gfz2013xxxq   1.16490
gfz2013yaig  -1.58500
gfz2013yctg   0.32744
gfz2013yqkv   1.34480
gfz2014adoj   0.80402
gfz2014afmx   0.38666
gfz2014ande   1.43850
gfz2014bagd   0.70797
gfz2014bezu   1.11350
gfz2014bfng  -0.70372
gfz2014bmta  -0.26630
gfz2014bwue   0.80360
gfz2014bzxy   0.38532
gfz2014chdv   0.22200
gfz2014claq  -0.31333
gfz2014cmwb   1.26360
gfz2014cqyo   1.01900
gfz2014cvkm  -0.56187
gfz2014cvxx   0.83504
gfz2014czno   0.50229
gfz2014czqi   0.55550
gfz2014czua   2.13190
gfz2014dhxt   0.92376
gfz2014disp   1.18130
gfz2014duqn   1.50740
gfz2014ehsf   1.77870
gfz2014ekcr   0.70727
gfz2014ekdn   0.19854
gfz2014enhi   0.00000
gfz2014femz   1.02410
gfz2014fgvi   0.82463
gfz2014fgvr   1.66790
gfz2014fhdw   0.60574
gfz2014fhla   0.00807
gfz2014fhrq   0.60960
gfz2014fhsg   1.25450
gfz2014fhwx   2.23100
gfz2014fimn   1.64680
gfz2014fkmr  -0.13515
gfz2014fnyg   0.70979
gfz2014gbcz   0.07673
gfz2014gbdq  -2.19920
gfz2014ghpe   0.45494
gfz2014gkgf  -0.43533
gfz2014gkgs   0.63851
gfz2014gkhp  -0.76189
gfz2014gkhy   1.26070
gfz2014gkjl   0.90965
gfz2014gkjt   0.09281
gfz2014gkmm   0.17165
gfz2014gkob   2.13920
gfz2014gkqf   1.49780
gfz2014gkqu   1.00910
gfz2014gksj   1.00430
gfz2014gksu   0.35355
gfz2014gktq   1.51430
gfz2014glcu   1.67860
gfz2014gltx   1.45640
gfz2014gmge   0.34846
gfz2014gmhr   0.51038
gfz2014gmip   1.49770
gfz2014gmku   1.35360
gfz2014gmnb   0.73543
gfz2014gmnw   1.45500
gfz2014gmor   1.28760
gfz2014gmuk   1.24360
gfz2014gnnt   0.97350
gfz2014gnsi   0.37298
gfz2014goba   0.57871
gfz2014gogv   1.14910
gfz2014goqw   1.46890
gfz2014gori   2.13800
gfz2014gphr   0.76105
gfz2014gpya   1.31770
gfz2014gqer   0.49600
gfz2014gqve   1.44080
gfz2014gsqs   1.29480
gfz2014gull   0.52012
gfz2014gvrd   1.91650
gfz2014gwab  -0.86005
gfz2014gxxo   1.55250
gfz2014hasj   0.61394
gfz2014hauo   1.29890
gfz2014hbjm   1.47900
gfz2014hbqb   0.63608
gfz2014hcmj   0.95976
gfz2014hetr   0.59131
gfz2014hfhl   2.16000
gfz2014hgqo   0.70095
gfz2014hjgh   1.50270
gfz2014hjgr   0.79501
gfz2014hjij   1.78050
gfz2014hkcf   0.91613
gfz2014hmrs   1.19200
gfz2014hocg   0.49590
gfz2014hqxs   1.50740
gfz2014hrft   0.55619
gfz2014hriu   0.00617
gfz2014hzfw   0.07190
gfz2014hzgn   0.52991
gfz2014ilwu  -0.07197
gfz2014iobd   1.05460
gfz2014irci   0.45272
gfz2014itkw   2.56960
gfz2014itpj   1.72090
gfz2014iywt   1.18480
gfz2014jcjt   0.42115
gfz2014jird  -1.41470
gfz2014jjhc   0.71539
gfz2014jnxm   0.87597
gfz2014jnyv   0.75919
gfz2014jomw   1.45770
gfz2014jpep   1.00320
gfz2014jtfe  -1.25970
gfz2014jwmh   1.51800
gfz2014kbuk   0.03486
gfz2014khlk  -1.30270
gfz2014kmmt   1.01670
gfz2014kndc   0.75372
gfz2014knks   0.54244
gfz2014knxs   1.46500
gfz2014kscf   3.78480
gfz2014kwie   0.49697
gfz2014kyan   1.09280
gfz2014kytf   0.88322
gfz2014lefs  -0.34626
gfz2014lgqn  -0.14108
gfz2014lrzx   0.84067
gfz2014lxnc   0.95789
gfz2014lyhk   1.01180
gfz2014lyhp   0.58142
gfz2014macx   0.37456
gfz2014madw   2.29930
gfz2014moaw   0.46613
gfz2014mtum   0.83702
gfz2014mxkr   1.04440
gfz2014nnxd   2.10430
gfz2014nowp  -0.20705
gfz2014npeo   0.16737
gfz2014nphm   1.07860
gfz2014nqfm   0.78273
gfz2014nrie   0.22685
gfz2014ofhm  -0.09277
gfz2014oinz   0.58408
gfz2014owxc   0.69129
gfz2014oyly   0.97595
gfz2014pjer  -0.60098
gfz2014pkll  -0.16491
gfz2014ppzf   0.56404
gfz2014pvch   0.88624
gfz2014qlxd   0.46213
gfz2014qngj   0.20132
gfz2014qqhm   0.36328
gfz2014raau   0.63772
gfz2014rdsn  -0.57090
gfz2014riel   0.11869
gfz2014romy  -0.93294
gfz2014rtcu  -3.47880
gfz2014rwos   0.79012
gfz2014sadu   1.62910
gfz2014sjqw   0.93942
gfz2014sptq   0.73230
gfz2014sryn   0.51215
gfz2014ssmv  -0.03800
gfz2014ssvz  -0.33575
gfz2014szzf  -3.01430
gfz2014tovs  -0.12613
gfz2014tqdo   0.34701
gfz2014tqly   1.16100
gfz2014tqsf   1.41940
gfz2014tzsd   0.70793
gfz2014uapa  -0.02860
gfz2014ubwn   0.69111
gfz2014udgg  -0.38671
gfz2014uohh   1.24870
gfz2014uuuf   3.61160
gfz2014uvji   2.01690
gfz2014uvrk  -0.00000
gfz2014vhld   0.71347
gfz2014vhms  -0.17516
gfz2014vjoz   0.57950
gfz2014waoo   0.18228
gfz2014watn   0.25764
gfz2014wjko   0.47725
gfz2014wrkh  -0.91269
gfz2014xbyr   0.90418
gfz2014xjri   1.65620
gfz2014xoji   4.79760
gfz2014xqqd   0.35463
gfz2014ynhc   1.68080
gfz2014ynzy  -3.34170
gfz2014yppv   1.33930
gfz2014yyiy   0.93412
gfz2015apnk   0.53986
gfz2015arpd   0.61466
gfz2015aruz   0.26390
gfz2015atxv   0.74528
gfz2015bdyd   0.72709
gfz2015berb   0.76642
gfz2015bfjm   0.91279
gfz2015bkbj   1.19750
gfz2015bsnl  -1.21770
gfz2015bvsj   1.85050
gfz2015bvxx  -2.27390
gfz2015byfn   0.64926
gfz2015chhn  -0.45401
gfz2015chqn   0.97568
gfz2015cxhx   0.60170
gfz2015cxxk   0.35385
gfz2015cyjd   1.11700
gfz2015dizn   0.20794
gfz2015dskr   1.01340
gfz2015ecgq   0.96363
gfz2015egxq   1.59990
gfz2015ehpz   1.05220
gfz2015eiky   0.93940
gfz2015elgy  -0.55529
gfz2015etai   0.19185
gfz2015fbbk   1.48840
gfz2015fcua   0.91479
gfz2015fdpr   0.61300
gfz2015fjhk   0.64175
gfz2015fkgt  -0.57492
gfz2015fkuu   0.33150
gfz2015flis   0.41802
gfz2015fpez   0.41823
gfz2015fsjj   0.27154
gfz2015fxbv  -0.43248
gfz2015fxdi   0.90174
gfz2015gckd   0.52287
gfz2015ggjw   0.91274
gfz2015gkwa   1.61580
gfz2015gmgf   1.18060
gfz2015gnmy   1.39150
gfz2015gzja  -0.61301
gfz2015hgbk   0.86773
gfz2015hlqo   0.27178
gfz2015hpmk   0.66344
gfz2015iele   1.46280
gfz2015imty   0.67208
gfz2015jkdw   0.96402
gfz2015jwgl  -0.00000
gfz2015jxbx   0.41645
gfz2015jzcv   1.49840
gfz2015kakw   0.30531
gfz2015kcaa   0.82538
gfz2015kfsu   0.29775
gfz2015kkqb   1.10430
gfz2015kkth   1.27770
gfz2015ksni   0.84606
gfz2015lfud   0.60827
gfz2015lhjq  -0.29947
gfz2015lhjy   1.18570
gfz2015ltii   1.45450
gfz2015lytv  -0.52398
gfz2015lzad   0.18506
gfz2015mddr   0.90376
gfz2015mhym   0.47841
gfz2015mpte  -0.43718
gfz2015nerz  -0.05562
gfz2015nuxz   0.61121
gfz2015nwug   0.75271
gfz2015ocdz   0.24660
gfz2015okmq   0.80272
gfz2015oyfl   0.22269
gfz2015poni   0.15922
gfz2015puah   0.93714
gfz2015puqp   0.08002
gfz2015qnho   0.36827
gfz2015qpvd   0.99705
gfz2015quzo   0.93639
gfz2015rgrg   1.46470
gfz2015rkbq   0.96975
gfz2015rkrg  -0.08123
gfz2015rkzg   0.88517
gfz2015rxmg   0.42942
gfz2015saet   1.45510
gfz2015sfdd  -0.45959
gfz2015sfdy   0.53679
gfz2015sfeo   0.54859
gfz2015sfga  -0.61139
gfz2015sfhz   0.16546
gfz2015sfiq  -0.97640
gfz2015sfko   0.19933
gfz2015sflf   0.47484
gfz2015sfln  -1.13320
gfz2015sfnb   0.04437
gfz2015sfno  -0.41669
gfz2015sfnv   0.53248
gfz2015sfoc   0.06633
gfz2015sfom   0.96209
gfz2015sfoq   1.70180
gfz2015sfpj   0.53776
gfz2015sfps   0.46608
gfz2015sfqo   0.26337
gfz2015sfqr   0.79312
gfz2015sftu   0.17465
gfz2015sfuz   0.17874
gfz2015sfwf   1.06340
gfz2015sgad   0.49243
gfz2015sgdn  -2.02840
gfz2015sghq  -0.72112
gfz2015sgna   0.41783
gfz2015sgyd   0.67941
gfz2015shhu   0.98212
gfz2015shjn  -0.04482
gfz2015shlp   0.11570
gfz2015shrg  -0.23269
gfz2015shsz  -0.39898
gfz2015sist  -0.26197
gfz2015sitn   0.64982
gfz2015sjbx   0.50714
gfz2015sjfi   1.81230
gfz2015sjgk   0.38934
gfz2015sjjb   1.31850
gfz2015sjne   0.94027
gfz2015sjoj   0.17072
gfz2015sjvu   0.55181
gfz2015sjwi  -0.57442
gfz2015skuk  -1.11030
gfz2015skxu   0.83200
gfz2015sldx   0.76348
gfz2015sljs   0.46565
gfz2015smym   0.65140
gfz2015snhn  -0.17294
gfz2015snsf   0.19065
gfz2015snwh  -0.57022
gfz2015snyd   0.70450
gfz2015soat   1.01690
gfz2015soxc  -0.33902
gfz2015sqmy  -0.16105
gfz2015srat   0.24152
gfz2015sryk   0.40828
gfz2015sspn  -0.11835
gfz2015stfy  -0.28337
gfz2015subz   0.79042
gfz2015svwm  -0.30215
gfz2015sxmh   0.54840
gfz2015szcb   0.55146
gfz2015taml   2.13810
gfz2015teyc   0.00000
gfz2015teyn   1.15690
gfz2015tezd   1.23530
gfz2015tghj   0.77841
gfz2015thwp   1.08160
gfz2015tixi  -0.23289
gfz2015tiyc   0.24982
gfz2015tkol   0.41132
gfz2015tlkf   0.44857
gfz2015tnjd   0.51451
gfz2015tpra   0.68523
gfz2015tqff  -1.95230
