# Nsamples: 546  MAD:  0.702  mean: -0.458  variance:  0.746
gfz2010aerk  -1.55030
gfz2010ahqi  -1.14930
gfz2010bfzs  -0.12583
gfz2010bgth  -1.01130
gfz2010bhhq   0.71915
gfz2010bifb  -4.40120
gfz2010bjeb  -0.60448
gfz2010bjjx  -1.71960
gfz2010bjsl  -3.26410
gfz2010bkob  -0.35127
gfz2010bowy  -1.63260
gfz2010bxxs  -1.21270
gfz2010caft  -0.66335
gfz2010cbkg  -0.06073
gfz2010civi  -0.97108
gfz2010cjqh  -0.67210
gfz2010cqwl  -1.02640
gfz2010ctuw   0.80009
gfz2010czps  -0.75235
gfz2010dejx  -0.13621
gfz2010diqn  -0.46993
gfz2010dlgc  -1.06020
gfz2010eaoy  -0.34197
gfz2010eapk  -1.64540
gfz2010eapn   0.46919
gfz2010eaqe  -1.21180
gfz2010eaqx  -0.47041
gfz2010eaqy  -0.62222
gfz2010earq   0.03729
gfz2010earu  -1.33090
gfz2010easo  -0.49530
gfz2010easu  -0.43107
gfz2010eato  -0.34487
gfz2010eatt   1.75500
gfz2010eaty   0.07344
gfz2010eaul  -0.72239
gfz2010eavp  -0.05809
gfz2010eavs  -1.08780
gfz2010eawb  -1.59120
gfz2010eawu  -0.63321
gfz2010eaxa  -0.96707
gfz2010eayx  -0.91293
gfz2010eaze  -1.01080
gfz2010eazu   0.84550
gfz2010ebbd  -0.57948
gfz2010ebdl   0.02357
gfz2010ebek   0.21229
gfz2010ebhc  -1.36650
gfz2010ebla   0.18884
gfz2010ebmb  -1.65830
gfz2010ebnn  -0.55473
gfz2010ebvm   0.30629
gfz2010ebwp  -0.43350
gfz2010ebzr  -0.26203
gfz2010ecam  -0.04877
gfz2010ecay  -0.68484
gfz2010eced  -0.38984
gfz2010echc   0.49177
gfz2010ecns  -0.39558
gfz2010ecps   0.46549
gfz2010ecua  -0.28708
gfz2010ecuv  -0.26084
gfz2010ecvt  -0.35888
gfz2010edat   0.23993
gfz2010eday  -0.31477
gfz2010edbz  -0.20765
gfz2010edcp   4.55590
gfz2010edpb  -0.00000
gfz2010edsk  -0.77013
gfz2010edvf   0.08091
gfz2010edyi  -1.82560
gfz2010edzb  -0.92563
gfz2010eedu  -1.00800
gfz2010eedz   0.15297
gfz2010eeij  -1.03010
gfz2010eekq  -0.70375
gfz2010eerh  -1.22950
gfz2010eern   0.51073
gfz2010eevu  -0.97823
gfz2010egld  -0.92262
gfz2010ehft  -0.05325
gfz2010ehnm  -0.28069
gfz2010eltf  -1.05460
gfz2010elvp  -1.40140
gfz2010elyc  -0.22492
gfz2010epbe  -0.44441
gfz2010epxj  -0.31702
gfz2010eqmu   0.09030
gfz2010erkn  -0.99409
gfz2010erna  -1.44380
gfz2010erom   0.13504
gfz2010erum   6.21250
gfz2010eruy  -0.35286
gfz2010erwn  -0.25574
gfz2010erxb  -0.36815
gfz2010eryg  -1.68880
gfz2010eujm  -0.43456
gfz2010evco   0.39517
gfz2010ewvc  -1.48320
gfz2010excp  -0.49042
gfz2010exdd  -0.82591
gfz2010exel  -0.22891
gfz2010exgb  -0.74586
gfz2010exhw  -0.53200
gfz2010exmc  -0.45712
gfz2010exno  -1.07990
gfz2010exsg  -1.01900
gfz2010eymr  -0.48387
gfz2010eymx  -0.68129
gfz2010eyqe  -2.23710
gfz2010eyvq  -1.67820
gfz2010ezck  -0.22393
gfz2010fcax  -0.91216
gfz2010fciw  -0.50468
gfz2010fczt  -1.30870
gfz2010fedq  -0.63202
gfz2010ffhq  -0.82471
gfz2010ffjb  -0.46302
gfz2010fika  -0.26232
gfz2010fjas  -0.60005
gfz2010flrt  -0.73944
gfz2010flxi  -0.61521
gfz2010fobc   0.00000
gfz2010fona  -0.76765
gfz2010fpqy  -1.34670
gfz2010fser   0.06732
gfz2010ftlm  -1.27330
gfz2010fuuy  -0.46378
gfz2010fwpv   0.04788
gfz2010fyen  -0.21853
gfz2010fync  -0.84798
gfz2010gcdn  -0.78883
gfz2010gcrl  -1.51890
gfz2010gcrp   0.12309
gfz2010gjia   0.06386
gfz2010glqr  -1.00320
gfz2010glxl  -0.62279
gfz2010gslu  -1.30660
gfz2010gyqp  -0.81505
gfz2010gzxr  -0.82153
gfz2010hbka  -0.11996
gfz2010hcio  -0.19876
gfz2010hlmq  -1.08910
gfz2010hnnf  -0.23753
gfz2010homc  -1.86320
gfz2010hptz  -1.07190
gfz2010hrkr  -0.23220
gfz2010hrpr  -0.80708
gfz2010hufk  -1.32520
gfz2010hxgv  -0.73343
gfz2010ibiy  -0.90963
gfz2010icqq  -0.16707
gfz2010iobp   0.18553
gfz2010iqnm  -1.71670
gfz2010irqr  -0.38040
gfz2010irvf  -1.15930
gfz2010itpb  -0.75713
gfz2010iull  -0.14817
gfz2010izzj  -0.06396
gfz2010jkxj  -1.01900
gfz2010jxbm  -0.74104
gfz2010kcoo  -0.41935
gfz2010kdyc  -0.40282
gfz2010kihf   1.01650
gfz2010kmgg  -0.48758
gfz2010lepw   1.23660
gfz2010liqs   0.91135
gfz2010lkcf  -0.27466
gfz2010mant  -0.19285
gfz2010mkuu   0.14269
gfz2010moyw  -1.21270
gfz2010nnny   0.81868
gfz2010nqwf  -3.98980
gfz2010nqwo  -0.88369
gfz2010nrjo   0.02815
gfz2010nsck  -0.79568
gfz2010nsdf  -0.46422
gfz2010nsjs   0.33390
gfz2010ntuo  -0.01965
gfz2010nwef  -0.75952
gfz2010nxsy  -0.43792
gfz2010nxum  -0.95384
gfz2010odpb  -0.95031
gfz2010oedn  -1.62990
gfz2010okdm  -0.55567
gfz2010onma  -1.20440
gfz2010osjs  -1.24830
gfz2010otbn   0.16134
gfz2010pcxi  -1.25610
gfz2010pfyu  -1.15960
gfz2010plbg  -2.05050
gfz2010pmqd  -0.27708
gfz2010pxgh  -2.34710
gfz2010qjst   0.07450
gfz2010qpvi  -0.47260
gfz2010rkfp  -0.67647
gfz2010rqwj  -0.96163
gfz2010sfee  -0.55252
gfz2010srdb  -0.38806
gfz2010szde  -1.15930
gfz2010szim  -0.65288
gfz2010txjs  -0.18851
gfz2010upfb  -0.08725
gfz2010usho   1.62720
gfz2010ustq  -0.81510
gfz2010utcg  -0.07821
gfz2010veri   0.45557
gfz2010wioh  -1.52250
gfz2010yjev   0.02181
gfz2011aatr  -0.96948
gfz2011adjs  -1.46370
gfz2011ahfw  -0.40962
gfz2011alip  -1.07100
gfz2011bgrp  -0.16665
gfz2011bhha  -0.29008
gfz2011blsi   2.78690
gfz2011bnzn  -2.65490
gfz2011ccpw   0.94249
gfz2011csju  -1.32480
gfz2011cykd  -1.53550
gfz2011cyre   0.40639
gfz2011dbev  -0.53229
gfz2011dbig  -0.46547
gfz2011dbon  -0.54435
gfz2011dcqb  -1.21680
gfz2011dcqf  -0.83241
gfz2011dlyx  -1.42120
gfz2011dpqx  -1.86800
gfz2011eayc  -0.77415
gfz2011eazf   0.17209
gfz2011ecaj  -0.67185
gfz2011ehzq  -0.35769
gfz2011enva  -0.40262
gfz2011etje  -0.53195
gfz2011fgvr   0.09870
gfz2011gbmx   0.24186
gfz2011gcwb  -0.49081
gfz2011gkzt  -0.96362
gfz2011gzbr  -0.30910
gfz2011hfkj  -0.80697
gfz2011hlqw  -1.17260
gfz2011hlsa  -0.99236
gfz2011hpgx  -1.79850
gfz2011hpqp  -0.45657
gfz2011ieie  -0.77461
gfz2011izqa  -1.82680
gfz2011jmbn  -0.03621
gfz2011jnmi  -0.30370
gfz2011jplh  -1.43010
gfz2011kqwo   1.58180
gfz2011kxzp  -1.10670
gfz2011lcxq  -0.43473
gfz2011lvjr   0.05526
gfz2011mdie  -0.39138
gfz2011mpme  -0.62613
gfz2011myia   0.46571
gfz2011necz   0.20761
gfz2011phms  -0.63083
gfz2011ptus  -0.92541
gfz2011qvae  -1.20270
gfz2011rsrh  -0.32738
gfz2011sagt   0.62522
gfz2011uphh  -0.88204
gfz2011urxy   0.50379
gfz2011vhfi  -0.25693
gfz2011vldk  -2.33690
gfz2011wwjs   0.21794
gfz2011wxfs  -0.92711
gfz2011wxtk  -1.56780
gfz2011xaan  -0.67380
gfz2011xyxj   0.55597
gfz2012bfah   2.18180
gfz2012bfyn   0.41902
gfz2012bngd  -1.80390
gfz2012bpkx  -1.30600
gfz2012bpwl  -0.51085
gfz2012byad  -0.96398
gfz2012cevz   0.87409
gfz2012covm  -0.46772
gfz2012cxdn  -0.30441
gfz2012dinb  -0.73713
gfz2012dyyh   0.22144
gfz2012ekda  -0.45200
gfz2012enno  -1.26130
gfz2012ewgo   0.14358
gfz2012fwfo  -0.77334
gfz2012fzfa  -1.86040
gfz2012fzsq  -2.22000
gfz2012glss   0.43616
gfz2012hnul  -1.50440
gfz2012hnuw   0.29213
gfz2012ihdl  -0.15800
gfz2012ilvn  -0.51762
gfz2012intn   0.43556
gfz2012jgvj  -1.10950
gfz2012jlox  -0.66829
gfz2012jupx  -0.61443
gfz2012kudo  -1.17000
gfz2012lczo  -0.93100
gfz2012ldxg  -0.66745
gfz2012ldzj  -0.05213
gfz2012llug   0.50077
gfz2012rjsd  -0.52267
gfz2012rwov  -0.59013
gfz2012rypu  -1.79250
gfz2012sjea   0.43101
gfz2012spbj  -0.85360
gfz2012syvl  -0.73211
gfz2012teic   0.26894
gfz2012thfx   0.04775
gfz2012ttoa  -0.96024
gfz2012tvmv   0.15455
gfz2012tzcc  -0.34243
gfz2012uafg  -0.81737
gfz2012uaqj  -0.57905
gfz2012uhup  -1.26220
gfz2012uzyj   1.24990
gfz2012vrgb  -0.14716
gfz2012wklq  -0.96509
gfz2012wtkr  -0.26026
gfz2012wvfl  -0.44487
gfz2012wxer  -0.31976
gfz2012wxlg  -0.73792
gfz2012wxnu  -0.93772
gfz2012wypz  -1.27690
gfz2012xyqp  -0.86011
gfz2012zitl  -0.58985
gfz2012zmbp   0.05596
gfz2013axoj   0.89348
gfz2013ccnr  -1.25370
gfz2013cwpn   1.58340
gfz2013dkly   0.07912
gfz2013dofo  -1.02510
gfz2013drxz  -1.24200
gfz2013huwr   0.16488
gfz2013ifpq   0.93243
gfz2013ijsr  -0.03821
gfz2013ikgo  -2.54900
gfz2013jesk   0.87031
gfz2013jgij   0.30795
gfz2013jgip  -1.24870
gfz2013jkut   0.32880
gfz2013lajn   0.37501
gfz2013lbiu   0.05606
gfz2013lixa  -1.21170
gfz2013lmrs  -1.40610
gfz2013lwbk  -0.66998
gfz2013lyko  -0.35581
gfz2013mvgr  -0.94017
gfz2013mwbh  -0.24312
gfz2013ncjp  -1.20900
gfz2013neuc  -0.39645
gfz2013nfwx  -0.58662
gfz2013nixj   0.22476
gfz2013nkgj  -0.22481
gfz2013nnzf  -0.57886
gfz2013nqgw   0.47366
gfz2013nvdj   0.89647
gfz2013nwdi  -0.39273
gfz2013ozrf  -1.69530
gfz2013ozrp  -0.64555
gfz2013pfbx   0.36608
gfz2013pxsj   0.62340
gfz2013qali   0.82980
gfz2013qmer  -1.11330
gfz2013qzdq  -0.33549
gfz2013skkm  -0.39889
gfz2013stht  -0.30082
gfz2013svci  -0.12832
gfz2013tcbk  -0.59139
gfz2013tcxc  -1.33140
gfz2013tcxq  -1.60880
gfz2013tlaf  -1.45940
gfz2013tusd  -0.69910
gfz2013tvmw  -0.71135
gfz2013tyas  -1.37650
gfz2013ugax  -0.20104
gfz2013vfyw  -0.37484
gfz2013vfzp  -0.64541
gfz2013vjjc  -1.26080
gfz2013wjmm  -0.88967
gfz2013wmfd  -0.38854
gfz2013wnpr   0.53156
gfz2013xmqg   0.23960
gfz2013xpsm   0.43846
gfz2013xsdt  -1.45630
gfz2013xvqd  -0.88583
gfz2013xvxf  -0.31325
gfz2013xwda  -0.75714
gfz2013xxwv   0.00000
gfz2013xxxq  -0.21210
gfz2013xyzb   0.37222
gfz2013yctg  -0.71593
gfz2013yqkv   0.21738
gfz2013zmoc  -0.68445
gfz2014adoj  -0.91140
gfz2014algk  -0.39663
gfz2014arpf  -0.84066
gfz2014arqr  -0.87530
gfz2014arsr  -0.72655
gfz2014bagd  -0.82619
gfz2014bekc  -1.24160
gfz2014bldx  -0.28620
gfz2014cmwb  -0.20035
gfz2014cvkm  -0.33460
gfz2014czno  -1.25370
gfz2014czol  -0.05618
gfz2014czqi  -0.50350
gfz2014czua   0.37416
gfz2014dddc   1.71570
gfz2014dffd  -0.77976
gfz2014ebmc   1.03110
gfz2014ekcr  -0.04783
gfz2014ekdt   0.56521
gfz2014enhi  -0.11423
gfz2014ettc  -0.65269
gfz2014ezgb   0.25754
gfz2014femz   0.22808
gfz2014fgvi   0.00000
gfz2014fhla  -1.22990
gfz2014fjxd   0.57740
gfz2014fkmr   0.14181
gfz2014fkmx  -0.05181
gfz2014flfa   0.60023
gfz2014frdz   0.64240
gfz2014frel  -0.15957
gfz2014frez   0.30211
gfz2014ftka   0.16404
gfz2014fvaa   0.36982
gfz2014fval   0.89959
gfz2014fvjl  -0.08531
gfz2014fvrg  -0.15419
gfz2014gbcz  -1.40010
gfz2014gbdq  -0.46810
gfz2014ghpe  -0.06744
gfz2014gkgf  -0.28071
gfz2014gkgs  -1.02050
gfz2014gkok   0.88254
gfz2014gkqf   0.68322
gfz2014gktq  -2.68570
gfz2014gmge  -0.80878
gfz2014gmhr  -1.17430
gfz2014gmnb   0.54518
gfz2014gmnw   0.28544
gfz2014gmuw  -0.63645
gfz2014goba   0.21466
gfz2014gpya  -0.68933
gfz2014gull  -0.51252
gfz2014hbqb  -0.39402
gfz2014hfhl   0.17644
gfz2014hgqo   0.02229
gfz2014hjgr   0.41375
gfz2014hocg  -0.75168
gfz2014hqxs   1.53040
gfz2014hscz  -0.48157
gfz2014huaj   0.22291
gfz2014hyvq   0.99865
gfz2014hzdy  -0.09839
gfz2014hzfw  -0.83222
gfz2014hzgn   0.42971
gfz2014icqt  -0.54962
gfz2014inbj  -0.32564
gfz2014itfc  -0.06609
gfz2014itjx  -0.51238
gfz2014itkw   0.25628
gfz2014itpj  -0.30713
gfz2014jjhc  -0.52009
gfz2014jwmh   0.69268
gfz2014kara  -0.18619
gfz2014kbuk   0.36380
gfz2014kndc  -0.56964
gfz2014knks   0.05574
gfz2014ksdv  -0.20289
gfz2014lddn  -1.72080
gfz2014lefs  -0.29011
gfz2014lgqn  -0.23231
gfz2014lkyf  -0.03838
gfz2014lxnc  -0.30063
gfz2014lyhk   0.48713
gfz2014lyhp  -0.76051
gfz2014lynp   0.24597
gfz2014macx  -0.18799
gfz2014madw  -0.33073
gfz2014mhgg  -1.07780
gfz2014nkdx  -0.21320
gfz2014nowp  -0.27173
gfz2014npdk  -0.57694
gfz2014npeo   0.12116
gfz2014nqfm  -0.12423
gfz2014nrie  -0.38845
gfz2014ntdh   0.42368
gfz2014oinz  -0.10728
gfz2014owxc   1.22640
gfz2014oxcc   0.45858
gfz2014oyly  -0.83719
gfz2014pkll  -0.42517
gfz2014ppzf  -0.65682
gfz2014pvch   0.44422
gfz2014qlxd  -0.60795
gfz2014qngj  -0.42370
gfz2014qqhm  -0.21065
gfz2014rbsl  -1.51630
gfz2014ssmv  -0.93779
gfz2014ssvz  -1.58710
gfz2014szzf   0.05158
gfz2014tovs  -1.59800
gfz2014tqdo  -0.13728
gfz2014ubwn  -1.21810
gfz2014uvji  -1.47040
gfz2014vhld  -0.93198
gfz2014vhms  -0.64630
gfz2014watn  -1.08630
gfz2014wmsc  -0.08432
gfz2014xbyr  -0.64842
gfz2014xqqd  -2.57560
gfz2014yula  -0.64877
gfz2014zlgp   0.44927
gfz2015alzx  -1.92120
gfz2015apnk  -0.78703
gfz2015aruz  -1.79650
gfz2015berb  -1.17030
gfz2015bucr  -0.19053
gfz2015chhn  -1.24990
gfz2015chqn  -0.04250
gfz2015cxhx  -0.06140
gfz2015cxrc   0.22206
gfz2015cxxk  -1.33680
gfz2015cyjd  -0.38599
gfz2015dizn  -2.21450
gfz2015dvbn  -1.04280
gfz2015egxq   0.38074
gfz2015eiky   0.18219
gfz2015elgy  -0.72940
gfz2015eljz  -0.97078
gfz2015emtg   1.01530
gfz2015etai  -0.75913
gfz2015eyqs  -0.06523
gfz2015fcua   0.11769
gfz2015fjhk   0.41770
gfz2015fkbc  -0.30286
gfz2015fkgt  -1.49380
gfz2015fkic  -0.67725
gfz2015fsjj  -0.37936
gfz2015fxdi  -0.24673
gfz2015gckd  -0.53929
gfz2015gkwa   0.63453
