# Nsamples: 1119  MAD:  1.255  mean: -1.111  variance:  5.524
gfz2010aban   0.02984
gfz2010aerk  -3.24960
gfz2010ahla  -0.73680
gfz2010ahqi  -5.45040
gfz2010aphp  -1.93150
gfz2010bgth  -0.00000
gfz2010bhhq   0.66841
gfz2010bifb  -2.39710
gfz2010bjjx  -4.35410
gfz2010bjsl   0.42722
gfz2010bkob  -0.60848
gfz2010bkos  -0.24601
gfz2010boxo  -3.45880
gfz2010bpda  -1.33750
gfz2010bxxs  -6.92010
gfz2010bywj   0.37861
gfz2010caft  -6.01010
gfz2010chnv  -2.02310
gfz2010cind  -5.61370
gfz2010civi   0.21099
gfz2010cjmx  -0.31635
gfz2010cjqh  -0.77511
gfz2010cjrf  -5.22420
gfz2010ckeu  -0.23181
gfz2010cqwl  -5.00670
gfz2010cres  -1.60730
gfz2010ctuw  -4.38320
gfz2010czps  -1.74630
gfz2010ddzo  -7.36640
gfz2010dejx  -0.26295
gfz2010dfru  -1.37810
gfz2010diqn   0.42910
gfz2010dlgc  -2.77220
gfz2010dlwv  -0.04094
gfz2010dtmx  -1.72500
gfz2010dumm  -2.46870
gfz2010eaoy  -0.79028
gfz2010eapk   0.23972
gfz2010eapn  -0.43259
gfz2010eaqe   1.57020
gfz2010eaqx  -6.11240
gfz2010eaqy  -0.42296
gfz2010earq   1.32060
gfz2010earu   0.78176
gfz2010easf  -3.66810
gfz2010easu   0.05937
gfz2010eati  -0.43800
gfz2010eaty   1.06510
gfz2010eaul  -2.41450
gfz2010eavd  -4.01700
gfz2010eavs   0.01992
gfz2010eawb  -0.52192
gfz2010eawu  -2.92190
gfz2010eaxa   1.34320
gfz2010eaxn  -0.24548
gfz2010eaya   0.89200
gfz2010eayx   0.03947
gfz2010eaze  -0.39253
gfz2010eazu  -5.53480
gfz2010ebbx  -0.67820
gfz2010ebby  -0.17764
gfz2010ebdl  -8.27120
gfz2010ebfa   0.72128
gfz2010ebfx  -1.79910
gfz2010ebhc  -7.71090
gfz2010ebih   1.04540
gfz2010ebjg   0.20364
gfz2010ebjy   0.57000
gfz2010ebkj  -1.50590
gfz2010ebkx   0.04160
gfz2010ebll  -0.47716
gfz2010ebpa  -1.50170
gfz2010ebqt  -5.69400
gfz2010ebrm  -1.81170
gfz2010ebsv  -0.18608
gfz2010ebvm   0.42217
gfz2010ebvv   0.59864
gfz2010ebwp  -1.58410
gfz2010ebxl   0.12445
gfz2010ebze  -1.41510
gfz2010ebzk  -0.22129
gfz2010ebzr  -1.29780
gfz2010ecam  -0.67932
gfz2010ecbi  -0.75948
gfz2010eccq  -0.64174
gfz2010ecdu   1.12760
gfz2010eced  -1.12040
gfz2010ecft  -0.42789
gfz2010ecfx  -0.71395
gfz2010ecfy  -0.14830
gfz2010ecgh  10.85700
gfz2010echt  -0.21559
gfz2010echy   1.03880
gfz2010ecka  -0.02226
gfz2010ecls  -1.94100
gfz2010ecml  -0.18890
gfz2010ecnm  -0.60828
gfz2010ecns  -2.39930
gfz2010ecpg   0.08264
gfz2010ecps  -0.19160
gfz2010ecro  -10.90500
gfz2010ecsp  -0.49866
gfz2010ectq   0.08233
gfz2010ecua   0.00000
gfz2010ecuv  -0.30389
gfz2010ecvt   0.53427
gfz2010ecyr  -0.38427
gfz2010edad   0.72940
gfz2010edat  -7.49800
gfz2010eday  -0.87009
gfz2010edbz  -0.33252
gfz2010edcp   0.44343
gfz2010edde   1.22530
gfz2010edhr  -0.30182
gfz2010edhv  -0.71685
gfz2010edji  -0.89606
gfz2010edkp  -0.24851
gfz2010edoq   0.24015
gfz2010edpb  -0.48962
gfz2010edqh  -0.82139
gfz2010edvf  -0.47958
gfz2010edyi  -0.63559
gfz2010edzb  -0.59873
gfz2010eedu  -1.99580
gfz2010eedz  -0.44326
gfz2010eefo  -1.84100
gfz2010eeia   0.09832
gfz2010eeij  -12.20200
gfz2010eekg   0.73160
gfz2010eekq  -3.63110
gfz2010eell   0.51910
gfz2010eeng  -0.59101
gfz2010eeqy   0.24295
gfz2010eern   0.20230
gfz2010eesf   1.40000
gfz2010eevu  -0.64240
gfz2010eexz  -0.83514
gfz2010eeyh  -0.30739
gfz2010efak   0.15684
gfz2010efbh  -0.77098
gfz2010efkc  -0.75341
gfz2010efnf  -0.84147
gfz2010efsq  -0.56375
gfz2010efxf  -2.44520
gfz2010eghq  -1.93320
gfz2010egld  -0.90259
gfz2010egln  -0.10073
gfz2010egmp  -0.95090
gfz2010egqh  -0.06947
gfz2010egsw  -1.53760
gfz2010egyy  -0.36585
gfz2010ehaj   0.36830
gfz2010eher  -0.09382
gfz2010ehft  -2.04920
gfz2010ehnm  -0.36276
gfz2010ehrq  -0.10412
gfz2010ehsy  -0.28738
gfz2010ehvj   0.26764
gfz2010ehwg  -0.07190
gfz2010ehxz   0.62216
gfz2010eimf  -0.71184
gfz2010eioi  -1.86850
gfz2010eiqi  -0.53970
gfz2010eisx  -1.86150
gfz2010eixj  -1.20150
gfz2010ejae   0.72178
gfz2010ejco  -0.29315
gfz2010ejjg  -1.22020
gfz2010ejju   1.27650
gfz2010ejka  -0.82574
gfz2010ekaw  -1.03530
gfz2010ekoe  -3.22940
gfz2010ekrv  -1.29140
gfz2010ekyc  -6.78040
gfz2010elhv  -4.38660
gfz2010eljf  -2.83490
gfz2010elpu  -0.51976
gfz2010elsw  -1.03930
gfz2010eltf   0.68763
gfz2010elvp  -1.15880
gfz2010elxi  -1.57890
gfz2010elyo   1.06770
gfz2010elzf  -0.65493
gfz2010elzl  -0.20001
gfz2010emoz  -0.12292
gfz2010emyz  -12.78800
gfz2010encm  -0.29496
gfz2010engw  -0.41762
gfz2010enpa   2.25700
gfz2010ensu  -0.73404
gfz2010eoao   9.14920
gfz2010eohh  -1.51140
gfz2010eomb  -6.79440
gfz2010epbe  -2.94030
gfz2010epud  -1.80530
gfz2010epxj  -0.37826
gfz2010epzk  -1.02910
gfz2010eqjg  -7.79960
gfz2010eqmu  -1.12670
gfz2010eqse   0.06844
gfz2010erda  -2.45390
gfz2010erfy  -1.78380
gfz2010erig  -0.67166
gfz2010erkn  -2.34810
gfz2010ermi  -0.92832
gfz2010erna  -1.65900
gfz2010erom  -0.40510
gfz2010erum  -2.05470
gfz2010eruy  -7.21570
gfz2010erwn  -9.99010
gfz2010erxb   0.30233
gfz2010eryg  -1.49220
gfz2010esmg  -0.42324
gfz2010esou   0.25313
gfz2010eted  -1.72350
gfz2010etfw  -0.09645
gfz2010euae  -0.53112
gfz2010euan  -0.44487
gfz2010euii  -1.17890
gfz2010eujm   1.26860
gfz2010eutw  -0.88028
gfz2010euvl  -0.77673
gfz2010euwb  -0.73456
gfz2010euxe   1.27620
gfz2010evco  -3.41840
gfz2010evgf  -0.11608
gfz2010evjv   1.59230
gfz2010evkd  -0.14151
gfz2010ewbc  -0.28802
gfz2010ewpq   1.21580
gfz2010ewvc  -1.46090
gfz2010ewyu  -0.55462
gfz2010excp  -0.38330
gfz2010exdd  -0.31717
gfz2010exdl  -1.45630
gfz2010exed   0.33966
gfz2010exel  -1.29330
gfz2010exfb   0.18482
gfz2010exgb  -2.67240
gfz2010exhd  -0.30689
gfz2010exjw  -0.95709
gfz2010exlm  -1.07920
gfz2010exmc  -0.25888
gfz2010exno  -0.59579
gfz2010exou  -0.45566
gfz2010exqu  -0.28344
gfz2010exsg  -0.32238
gfz2010exts  -0.93865
gfz2010exyp  -0.12143
gfz2010eyaz  -0.97766
gfz2010eybj  -1.14430
gfz2010eyhh  -0.37190
gfz2010eyiv  -0.89699
gfz2010eymr  -1.38780
gfz2010eyqe  -1.03430
gfz2010eyvq   0.05077
gfz2010eyxe  -0.07439
gfz2010ezuj  -10.77500
gfz2010ezvg  -1.31740
gfz2010ezvt  -1.22300
gfz2010ezwz  -6.12220
gfz2010faeu  -0.88878
gfz2010falm   0.15901
gfz2010fauz  -0.98726
gfz2010faxg  -1.31720
gfz2010fbeu  -0.11428
gfz2010fbpi   0.27618
gfz2010fcax  -1.25810
gfz2010fcdw   0.49055
gfz2010fciw  -0.13086
gfz2010fcnn   1.57060
gfz2010fcxy   2.35980
gfz2010fcyj  -1.96520
gfz2010fczt  -1.46320
gfz2010fdxr  -4.55520
gfz2010fedq  -1.81280
gfz2010fefr  -0.89966
gfz2010fexw   3.79940
gfz2010ffhq  -2.39050
gfz2010ffjb  -0.37954
gfz2010ffui  -14.56600
gfz2010fhbl   1.05880
gfz2010figq  -1.15310
gfz2010fihj   0.87601
gfz2010fika   0.00002
gfz2010fisf   0.12176
gfz2010fixr  -2.12110
gfz2010fjal  -0.94604
gfz2010fjas  -0.00000
gfz2010fjmu  -2.36970
gfz2010fkhd  -1.88910
gfz2010fkia   0.20613
gfz2010fknh  -0.47690
gfz2010fkvg  -0.47180
gfz2010flha  -1.05520
gfz2010flkj  -0.71990
gfz2010floi   0.49220
gfz2010flrt  -0.44239
gfz2010flxi  -0.60272
gfz2010fmhb  -1.28500
gfz2010fmip   0.38139
gfz2010fmpy   0.88986
gfz2010fmwb  -0.43126
gfz2010fneu  -0.98057
gfz2010fnrk   3.00410
gfz2010fobc  -0.53947
gfz2010fona  -8.74560
gfz2010fpmv   0.70948
gfz2010fpqy   0.09541
gfz2010fqdu  -0.98377
gfz2010fser  -1.01040
gfz2010fsmy   0.10369
gfz2010fsth   0.07903
gfz2010ftsx   2.86940
gfz2010fupn  -1.24250
gfz2010fuuy   0.59769
gfz2010fuwa  -1.07140
gfz2010fvuc  -0.08339
gfz2010fwkk   0.01621
gfz2010fwny   0.07844
gfz2010fwpv   0.02017
gfz2010fwzd  -2.56900
gfz2010fyed  -0.78648
gfz2010fyen  -0.83925
gfz2010fync  -3.29480
gfz2010fzoi  -0.02013
gfz2010fzyt   0.55413
gfz2010gcdn   0.18271
gfz2010gceb  -0.36806
gfz2010gcrl  -2.37520
gfz2010gcrp   0.68280
gfz2010gdch   7.48640
gfz2010gdld  -1.52740
gfz2010ghyk  -1.08240
gfz2010ginm   1.14780
gfz2010gjia  -1.29520
gfz2010gjvo  -0.79904
gfz2010glqr  -0.67289
gfz2010glxl  -1.19980
gfz2010gmib  -0.26979
gfz2010govu  -2.19040
gfz2010grss  -1.61260
gfz2010grxb  -0.32257
gfz2010gslu  -0.54932
gfz2010gtqs   0.01936
gfz2010gtzt  -1.34270
gfz2010gvya  -4.53700
gfz2010gwmp  -0.09445
gfz2010gymo  -11.36000
gfz2010gyqp  -6.69240
gfz2010gzxr  -7.61180
gfz2010hakh  -0.25050
gfz2010hbka  -0.99482
gfz2010hcio  -7.62640
gfz2010hevz  -3.51820
gfz2010hgld   0.31182
gfz2010hhls  -1.58970
gfz2010hjoc  -1.89930
gfz2010hllj   0.02935
gfz2010hndk  -0.24825
gfz2010hnnf   0.01982
gfz2010hnpi  -0.30049
gfz2010hnzr  -1.00270
gfz2010homc  -4.68980
gfz2010hptz  -1.02020
gfz2010hrkr  -1.08220
gfz2010htdq   1.87280
gfz2010hufk  -1.43820
gfz2010hxgv   0.72071
gfz2010hxhe   0.24715
gfz2010hykt  -0.21618
gfz2010hzar   0.72541
gfz2010iauj   0.82036
gfz2010ibiy  -0.14743
gfz2010icqq   0.95535
gfz2010iefy  -0.45579
gfz2010ihrq   0.20383
gfz2010iibf  -1.29320
gfz2010iimu   0.96213
gfz2010ijtk  -0.87011
gfz2010imfv  -0.48261
gfz2010iobp   0.54898
gfz2010iphd  -0.46396
gfz2010iqep   0.69716
gfz2010iqfm  -1.44130
gfz2010iqnm   1.51990
gfz2010iqus  -2.92840
gfz2010irqr  -0.08149
gfz2010irvf  -2.42630
gfz2010isrp   0.00000
gfz2010itpb  -0.23350
gfz2010iull  -1.30320
gfz2010ixyc  -0.96824
gfz2010jhie  -0.35953
gfz2010jitt   0.67182
gfz2010jlhj   0.54656
gfz2010jpss  -0.08143
gfz2010jpyj   1.01380
gfz2010jsuh   1.15150
gfz2010jsuo   0.26174
gfz2010jucj  -0.44270
gfz2010jwpy  -0.65424
gfz2010jxbm  -0.47326
gfz2010jygz   1.67420
gfz2010jzku   0.57172
gfz2010kcoo  -0.65287
gfz2010kdyc   0.38973
gfz2010kgws  -1.39500
gfz2010kihf  -2.77520
gfz2010kjmp   0.16340
gfz2010kmgg  -1.47410
gfz2010kown   0.42858
gfz2010kyen   0.70055
gfz2010kyvj   0.40346
gfz2010lcoq  -0.70126
gfz2010lfju  -0.47565
gfz2010liqs  -0.27929
gfz2010lkcf  -1.79750
gfz2010lopz  -0.19493
gfz2010lwuq  -2.60880
gfz2010lyfk   0.52732
gfz2010mant  -0.24834
gfz2010mbje  -0.54086
gfz2010mcrx  -0.37834
gfz2010mdpq  -1.82630
gfz2010mlkz  -1.02260
gfz2010mpuy  -1.88580
gfz2010ncrl  -0.52594
gfz2010ndxl  -1.61250
gfz2010nfsj  -2.14220
gfz2010nrew  -0.21071
gfz2010nrjo   0.28677
gfz2010nsck  -1.28440
gfz2010nsdf  -2.55910
gfz2010nsfx  -4.99230
gfz2010ntuo  -0.76601
gfz2010nxsy  -2.98300
gfz2010nxum   0.59118
gfz2010ocxq   0.20906
gfz2010odpb  -0.55578
gfz2010oedn  -2.63990
gfz2010okdm  -0.73441
gfz2010oluw  -0.82628
gfz2010onma  -6.47140
gfz2010osjs  -1.07200
gfz2010osqo  -2.97710
gfz2010otbn  -7.42120
gfz2010oyqy   0.63820
gfz2010pfyu  -0.38862
gfz2010phvg   0.74721
gfz2010plbg  -2.44580
gfz2010pmqd  -0.06113
gfz2010pqck  -1.47230
gfz2010pxgh  -7.01600
gfz2010pxls  -2.75790
gfz2010qbng  -2.50560
gfz2010qpum  -0.92683
gfz2010qpvi  -6.72160
gfz2010qwwx  -0.20658
gfz2010rkfp  -1.95080
gfz2010rlbv  -0.42771
gfz2010rqwj  -0.55714
gfz2010rywq  -2.36410
gfz2010rzrr  -8.60960
gfz2010sfee  -3.94980
gfz2010sfla  -0.79798
gfz2010sgzk  -2.30480
gfz2010skqo  -3.21760
gfz2010skve  -3.31440
gfz2010srdb  -4.34410
gfz2010suww  -0.39477
gfz2010svtn  -1.56260
gfz2010svve   1.67060
gfz2010swcy  -1.80540
gfz2010sxfq  -1.53460
gfz2010sxwt  -9.70190
gfz2010sysw  -0.84537
gfz2010szde  -8.62050
gfz2010szim  -1.35170
gfz2010tlfm  -0.55360
gfz2010truw  -1.23670
gfz2010txjs  -0.75314
gfz2010tzzk   0.26841
gfz2010uept  -2.06260
gfz2010upfb  -0.38680
gfz2010upiw   1.16840
gfz2010urlq   0.05403
gfz2010usho  -2.33920
gfz2010ustq  -3.36820
gfz2010utcg  -0.12494
gfz2010utmc  -0.45628
gfz2010utvp   0.08504
gfz2010uvhf  -0.33033
gfz2010uyhb   1.97780
gfz2010uzon  -6.22950
gfz2010vbmd  -1.47810
gfz2010veri  -1.50230
gfz2010vhuj  -0.71127
gfz2010vppc  -0.92431
gfz2010vtdg  -1.57120
gfz2010vxvs   1.32110
gfz2010vzpr   1.53190
gfz2010vzzz  -4.73510
gfz2010wnty  -0.89697
gfz2010wofs   1.19150
gfz2010wrxx   0.20556
gfz2010xbdv  -13.97700
gfz2010xbgs  -1.00100
gfz2010xcdh   0.12189
gfz2010xden  -2.27430
gfz2010xgzw  -3.60270
gfz2010xjck  -1.74740
gfz2010xjsj  -4.64760
gfz2010xmpr   0.03747
gfz2010xnxk   0.06152
gfz2010xxzn  -1.90400
gfz2010yfsv   0.19758
gfz2010yjev  -8.16180
gfz2010ymfy  -1.11750
gfz2010ymur   0.66436
gfz2010yosr  -0.91393
gfz2010yoyx   0.61957
gfz2010yqqv  -0.81896
gfz2010yvwz  -0.06164
gfz2010zdpo   0.51715
gfz2010zeeh   0.54186
gfz2011aatr  -7.29660
gfz2011adjs  -1.94400
gfz2011adlj  -1.30920
gfz2011adne  -0.76403
gfz2011adpw  -0.64733
gfz2011adqk   2.10720
gfz2011aeay   2.95540
gfz2011ahfw  -6.49160
gfz2011aldv  -0.05687
gfz2011alip  -3.23870
gfz2011alsa  -2.66920
gfz2011alwf   0.68889
gfz2011anur   0.77576
gfz2011aosc   0.41773
gfz2011aqxf  -1.49440
gfz2011aupi   0.14227
gfz2011blsi   0.65737
gfz2011bnsg  -0.24953
gfz2011bswz  -1.84340
gfz2011coxh  -2.04690
gfz2011crdy   0.31586
gfz2011csju  -1.24310
gfz2011ctbn  -0.29213
gfz2011cvfg  -2.31950
gfz2011cwgn  -1.03620
gfz2011cykd   0.24657
gfz2011cylz   0.67333
gfz2011cynl   0.66219
gfz2011cyre   0.37049
gfz2011cyuk   0.45494
gfz2011czwj   0.10428
gfz2011deaf  -0.10591
gfz2011deja  -0.00000
gfz2011dkyi  -0.72750
gfz2011dllz  -6.36650
gfz2011dlyx  -0.38715
gfz2011dpaa  -0.98983
gfz2011dpmx   1.42790
gfz2011dpqx  -2.05910
gfz2011dtpy  -0.35435
gfz2011duyr   0.51888
gfz2011eayc  -3.97600
gfz2011eazf  -1.96860
gfz2011ecaj   0.31265
gfz2011ecsc  -0.29193
gfz2011edmm  -2.15790
gfz2011efgv  -2.88320
gfz2011ehzq  -0.20304
gfz2011eiis  -0.31776
gfz2011ejlp  -2.08950
gfz2011ekpr   0.24175
gfz2011eltw   0.04347
gfz2011enva  -4.74800
gfz2011eocc  -1.26810
gfz2011etje  -5.30010
gfz2011fgvr  -2.66800
gfz2011fhbm   1.76070
gfz2011fhur   0.44613
gfz2011fkbn   0.46040
gfz2011flgj  -0.97469
gfz2011flhp  -0.41877
gfz2011fnsw  -2.62780
gfz2011gbmx  -0.69090
gfz2011gcwb  -0.81105
gfz2011gdgh  -1.36470
gfz2011ggvf  -3.86880
gfz2011ghky  -0.33096
gfz2011gjlx  -1.74770
gfz2011gkey   0.72441
gfz2011gkzt  -1.39650
gfz2011hebt  -3.03050
gfz2011hfkj  -0.61112
gfz2011hlqw  -4.88220
gfz2011hlsa  -4.79570
gfz2011hlth  -2.63040
gfz2011hpgx  -0.14642
gfz2011hpqp  -1.25150
gfz2011hrhe  -2.12420
gfz2011hrhu   0.74308
gfz2011hryk  -0.32167
gfz2011hsfj   1.04580
gfz2011hvbu  -0.27699
gfz2011ieie  -1.90540
gfz2011iwte   0.93752
gfz2011izqa  -2.59620
gfz2011izto   0.92952
gfz2011jbbc   0.10162
gfz2011jdsj   0.81614
gfz2011jghb  -0.02022
gfz2011jmbn  -2.05510
gfz2011jnmi  -3.10600
gfz2011jplh  -5.11870
gfz2011jtlg  -0.59722
gfz2011juid  -0.24651
gfz2011jxpl  -0.59219
gfz2011knbi  -5.04010
gfz2011knoo  -0.75950
gfz2011kqwo   0.13768
gfz2011kqyg  -0.69027
gfz2011ksiu   0.99170
gfz2011kwhq   1.44050
gfz2011kwld  -0.41434
gfz2011kwlq  -0.39128
gfz2011kwni  -0.30709
gfz2011kwqc  -1.15830
gfz2011kxzp  -0.72232
gfz2011lcxq  -4.93850
gfz2011lczg  -1.80300
gfz2011lggq   1.04470
gfz2011lgsg  -1.24010
gfz2011lhls  -0.38976
gfz2011lvjr  -0.70473
gfz2011lzwj  -3.76650
gfz2011mdie  -4.74420
gfz2011mepc  -0.47051
gfz2011mjom  -0.21596
gfz2011mllx  -0.87661
gfz2011mlvw  -1.61770
gfz2011mpme  -0.09954
gfz2011mprq  -0.04886
gfz2011myia  -0.10808
gfz2011nauw  -0.98076
gfz2011necz  -2.88020
gfz2011nmnq  -2.72140
gfz2011nmqj  -1.54410
gfz2011noud   1.71880
gfz2011nowp   0.00000
gfz2011nqpd  -0.22213
gfz2011nrwc  -1.62400
gfz2011nsex  -0.28154
gfz2011ntkh  -1.74720
gfz2011nudm  -1.71300
gfz2011ogqk  -1.36070
gfz2011ohcy  -5.16790
gfz2011oiqe  -0.30188
gfz2011oiwk   0.22051
gfz2011olkk  -0.43778
gfz2011oolr  -1.85440
gfz2011orgn  -0.73053
gfz2011ornx  -1.39610
gfz2011owvz  -5.92130
gfz2011ozsl  -1.11610
gfz2011pccd  -3.86170
gfz2011pdpt  -3.65580
gfz2011pdst  -2.70260
gfz2011phms  -0.02158
gfz2011pntf  -2.20250
gfz2011ptus  -1.27060
gfz2011qvae   0.20769
gfz2011qyms  -3.32390
gfz2011rabm  -0.98514
gfz2011rdby   2.34120
gfz2011rewa  -4.14010
gfz2011rgwp   0.45169
gfz2011rnut   0.75357
gfz2011rqui  -3.91010
gfz2011rsrh  -0.13487
gfz2011runa   0.48755
gfz2011rznl   0.00000
gfz2011sagt  -0.22488
gfz2011sawg  -1.00110
gfz2011shqm  -2.19680
gfz2011stal  -0.18278
gfz2011sthv  -0.53410
gfz2011tbas  -1.03590
gfz2011tcij  -0.12531
gfz2011tivu   0.07860
gfz2011tjrf   0.49973
gfz2011tjue  -0.40223
gfz2011tkfp  -1.09550
gfz2011tkog  -3.21350
gfz2011toub  -5.40110
gfz2011tpbl  -2.09980
gfz2011tpfr  -1.49060
gfz2011tuea  -0.57803
gfz2011twov  -1.18880
gfz2011udsq   1.00940
gfz2011ueni  -1.37700
gfz2011ugzz   2.88800
gfz2011ujze  -3.67300
gfz2011ukmp  -2.77370
gfz2011unkx  -1.63900
gfz2011uphh  -2.79530
gfz2011urxy  -1.00830
gfz2011urzu  -0.79825
gfz2011uzqv   1.07890
gfz2011vclt  -4.83490
gfz2011vhfi  -3.47730
gfz2011vkun   0.77069
gfz2011vldk  -2.72160
gfz2011vnza  -3.16640
gfz2011vqrj   1.11500
gfz2011vrhg  -4.77160
gfz2011vxns  -1.44200
gfz2011vxod  -2.72750
gfz2011vxxg  -0.52408
gfz2011wfja  -2.75210
gfz2011wijj   0.82449
gfz2011wjkf   0.76616
gfz2011wjul  -1.54920
gfz2011wwjs  -1.76790
gfz2011wxfs  -1.95670
gfz2011wxoj  -1.27920
gfz2011wxtk  -4.28990
gfz2011wype  -1.26640
gfz2011xaan  -4.16230
gfz2011xcpv  -0.82921
gfz2011xesx  -0.52112
gfz2011xqru   1.47020
gfz2011xyxj  -1.97130
gfz2011yfdx  -1.74630
gfz2011ytnu  -0.15877
gfz2011yybo  -1.74310
gfz2011yzwq  -33.35700
gfz2011zjap  -3.35240
gfz2011zklv  -3.57360
gfz2011zlfg  -0.22835
gfz2011zqhh  -4.79700
gfz2012ablh  -0.53273
gfz2012ajtq  -1.32500
gfz2012attr  -1.67510
gfz2012bfah  -0.66374
gfz2012bpkx  -0.37986
gfz2012bpnl   0.33268
gfz2012bpwl   0.24276
gfz2012bqeb  -0.17735
gfz2012brhv   0.36072
gfz2012byad   0.12710
gfz2012cevz   1.71920
gfz2012cgvr  -0.84177
gfz2012ckxi   0.39337
gfz2012cmfy  -1.65880
gfz2012covm  -1.34110
gfz2012cqnl  -5.00270
gfz2012cxdn  -0.01060
gfz2012czlw  -1.18100
gfz2012ddma   0.22933
gfz2012dimn   1.11510
gfz2012divk   0.56749
gfz2012djwi  -3.83600
gfz2012dyyh  -0.99987
gfz2012ekda  -2.21710
gfz2012ekzf  -2.71380
gfz2012elce   1.03190
gfz2012emjg  -2.31570
gfz2012enno  -4.18160
gfz2012eskt   0.92806
gfz2012ewgo  -0.08182
gfz2012eykb   1.72870
gfz2012ezvr  -1.50030
gfz2012fbfo  -1.31220
gfz2012fhnh  -0.64636
gfz2012fivh   0.17019
gfz2012foeo  -1.81430
gfz2012fwfo  -0.02800
gfz2012fzfa  -0.13027
gfz2012fzsq  -1.45300
gfz2012gcgn   0.03903
gfz2012gemm   1.03810
gfz2012gkvr  -1.39760
gfz2012glss  -0.50473
gfz2012gukw  -0.40672
gfz2012gwmu  -1.00620
gfz2012gwqb  -5.36690
gfz2012hdbm  -1.01930
gfz2012hnul  -0.33627
gfz2012hogg  -0.81198
gfz2012hsex  -0.61549
gfz2012hwmz  -0.71662
gfz2012hwyo  -0.60986
gfz2012hzbe  -0.95822
gfz2012ihdl  -1.09000
gfz2012iivw  -2.00410
gfz2012ilvn  -1.98510
gfz2012imay  -1.53840
gfz2012imbd   0.16703
gfz2012jgvj  -5.85860
gfz2012jjzc   3.57480
gfz2012jlox  -1.49060
gfz2012jpeh  -0.22099
gfz2012jpgs  -0.19976
gfz2012jqvn   0.98961
gfz2012jshk   0.06698
gfz2012jted   0.23481
gfz2012jupx  -3.53010
gfz2012jxiy  -0.52667
gfz2012kbzj  -4.44580
gfz2012kdmb  -2.84260
gfz2012keor  -1.32070
gfz2012kiik  -0.27962
gfz2012kkup  -4.09650
gfz2012klba  -1.02520
gfz2012klhx  -3.91220
gfz2012kuct  -5.51970
gfz2012kudo  -5.39410
gfz2012kvzv  -4.07970
gfz2012kwgo  -1.75370
gfz2012lczo  -1.96250
gfz2012ldgs  -0.24082
gfz2012ldxg  -0.39792
gfz2012ledy  -0.13311
gfz2012lltr   0.02000
gfz2012llug  -0.84327
gfz2012lrsv   0.05887
gfz2012lsni  -3.29900
gfz2012lxkv  -1.96680
gfz2012lzgv   0.42954
gfz2012lzmr  -1.13540
gfz2012maxy  -1.21270
gfz2012mcze  -0.23747
gfz2012mdmy  -1.20770
gfz2012mkpn   0.28035
gfz2012mlyf  -1.23720
gfz2012mofm   3.37750
gfz2012mpvy  -0.30710
gfz2012mtiu  -0.74618
gfz2012mupa  -1.38210
gfz2012mwij  -1.41320
gfz2012myqa   0.29224
gfz2012naqz   0.91487
gfz2012nbtn   1.54090
gfz2012nedn   0.19515
gfz2012ngic   1.17260
gfz2012nivl   0.10007
gfz2012njha  -1.14320
gfz2012nkdf  -3.33090
gfz2012noei   1.12630
gfz2012nojx   0.09727
gfz2012nqnk  -1.96420
gfz2012nsbz  -2.11450
gfz2012ntzv  -1.92350
gfz2012nutf  -1.67210
gfz2012nxog   1.44780
gfz2012nxyt  -1.64470
gfz2012oazn  -0.83672
gfz2012obgw  -4.99100
gfz2012obnq  -0.47542
gfz2012oedb  -3.69560
gfz2012omvo  -2.25780
gfz2012ostk   0.43465
gfz2012ovqs  -0.32276
gfz2012oycg   1.37610
gfz2012pkel  -3.05170
gfz2012plbw   0.24602
gfz2012plea  -0.67461
gfz2012pofl  -0.34455
gfz2012pqlt  -4.15630
gfz2012pqmk  -4.89060
gfz2012pqmu  -2.51130
gfz2012pspd  -1.43000
gfz2012pygp   1.56580
gfz2012qjhs  -4.78520
gfz2012qouy  -0.09338
gfz2012qqxg   4.66280
gfz2012qtgs   0.49272
gfz2012quso  -0.20407
gfz2012qxcy   0.40890
gfz2012rats  -1.32580
gfz2012rboy  -1.05520
gfz2012rcbq  -0.72118
gfz2012rcds   1.18910
gfz2012rcnj  -0.41482
gfz2012repv  -2.67260
gfz2012rjld   1.38280
gfz2012rjsd  -0.76481
gfz2012rknn  -0.03980
gfz2012ronz  -0.51361
gfz2012royy  -1.86020
gfz2012rqlg  -0.65272
gfz2012rtqi  -1.30630
gfz2012rubi   0.35258
gfz2012ruks   0.04694
gfz2012rwko  -0.92768
gfz2012rwov  -1.50010
gfz2012rwql   4.13430
gfz2012rypu  -1.00350
gfz2012sfer  -1.18450
gfz2012shtg   0.90597
gfz2012sjea   1.56230
gfz2012snhi   0.28769
gfz2012spbj  -1.04310
gfz2012sphd  -1.06310
gfz2012ssyn  -1.06110
gfz2012syvl  -0.90337
gfz2012tazz  -0.45373
gfz2012tbbp  -1.05970
gfz2012teic  -2.30090
gfz2012thfx  -2.59070
gfz2012tpzx   0.46071
gfz2012ttoa  -4.20340
gfz2012tyig   0.02634
gfz2012tzcc   1.61260
gfz2012tzgb   4.37560
gfz2012uafg  -2.93640
gfz2012uciv  -1.50150
gfz2012ueqo   0.71664
gfz2012ufew   1.43040
gfz2012ulpd  -0.97763
gfz2012uqzp  -1.00360
gfz2012usba  -0.14964
gfz2012uvqf  -2.42900
gfz2012uxnz  -0.79535
gfz2012uyxb   0.15226
gfz2012uzom  -4.00980
gfz2012vceo  -0.22666
gfz2012vdbt  -0.21451
gfz2012vjgl   0.00000
gfz2012vmeh   0.54613
gfz2012vnbk  -0.22618
gfz2012vntz  -0.17498
gfz2012vwvd  -0.30303
gfz2012vxvr  -1.12410
gfz2012wajj  -0.01724
gfz2012wdyx  -0.66883
gfz2012whku  -2.64530
gfz2012wizz  -0.92129
gfz2012wklq  -1.65100
gfz2012wmkd   2.70910
gfz2012wmsg  -2.35870
gfz2012wpeq  -1.40640
gfz2012wqnc  -0.42002
gfz2012wrir   1.46280
gfz2012wtkh  -0.04678
gfz2012wubh  -0.97560
gfz2012wvfl   1.29390
gfz2012wxer   2.14360
gfz2012wxlg   0.25528
gfz2012wxnu   0.32094
gfz2012wybs  -0.39119
gfz2012wypz  -4.21880
gfz2012xbjq   0.95327
gfz2012xevt   0.21047
gfz2012xjyv   0.32974
gfz2012xkkv  -7.55280
gfz2012xvwn  -0.99920
gfz2012xwqa   0.65379
gfz2012xyqp  -0.87781
gfz2012xyua  -0.91815
gfz2012yqjj   0.06410
gfz2013acag  -0.96553
gfz2013adey  -0.29143
gfz2013apmm  -0.89050
gfz2013azzr   0.19146
gfz2013casg   0.16050
gfz2013ccnr  -1.20160
gfz2013cnve   6.28800
gfz2013drpk  -1.59250
gfz2013drxz  -3.87530
gfz2013dvye   0.19665
gfz2013dvyh  -1.32220
gfz2013nttq  -0.43547
gfz2013oqsc  -4.87550
gfz2013poxj   0.47277
gfz2013wrgw  -2.88710
gfz2013xyzb  -4.46410
gfz2015plal  -2.31760
gfz2015poni  -2.03350
gfz2015puah  -0.26932
gfz2015puqp   0.11822
gfz2015qafb  -1.80690
gfz2015qbme  -1.66910
gfz2015qiit  -0.28635
gfz2015qisx   1.27030
gfz2015qnho  -0.85151
gfz2015qnlv  -2.02510
gfz2015qnto  -2.17070
gfz2015qprd  -0.95341
gfz2015qpvd  -1.58430
gfz2015quzo  -0.28822
gfz2015qvxu   0.24221
gfz2015rddx  -1.43010
gfz2015rgov  -1.31540
gfz2015rgrg   0.22804
gfz2015rgst  -2.76180
gfz2015rkbq   0.17578
gfz2015rkrg  -1.20040
gfz2015rkzg  -9.98100
gfz2015rnis   1.01730
gfz2015roac  -0.21494
gfz2015rpzn  -1.83110
gfz2015rwsb  -0.24695
gfz2015rxmg  -0.00000
gfz2015saet   2.37450
gfz2015sdeo   0.84232
gfz2015sdfy   1.23890
gfz2015seuf  -0.30629
gfz2015sevh   1.29000
gfz2015sfdd   0.09900
gfz2015sfdy   0.57416
gfz2015sfga  -2.18600
gfz2015sfks   0.23082
gfz2015sfln  -2.68230
gfz2015sfqo  -0.07425
gfz2015sfte  -1.19940
gfz2015sftu   0.30489
gfz2015sfwf  -0.49704
gfz2015sfzm   0.46683
gfz2015sgad  -3.25930
gfz2015sghq  -1.72630
gfz2015sgmm  -0.37812
gfz2015shel  -1.12850
gfz2015shlp  -1.08740
gfz2015shov   2.04930
gfz2015shwt  -1.02140
gfz2015sicf  -0.70372
gfz2015sicu  -1.06740
gfz2015siem  -1.02360
gfz2015siof  -0.09627
gfz2015sist  -0.36975
gfz2015sitn  -0.56841
gfz2015siyy  -0.16424
gfz2015sjbx  -1.97800
gfz2015sjeq   0.15622
gfz2015sjgk  -1.88400
gfz2015sjjb  -1.93690
gfz2015sjne  -2.45410
gfz2015sjvu  -0.38970
gfz2015skab  -2.10900
gfz2015skgj  -1.02030
gfz2015sklu  -3.69540
gfz2015skpv  -2.63410
gfz2015sldx  -1.32970
gfz2015slfn   0.11276
gfz2015sljs  -0.68067
gfz2015slun  -1.62960
gfz2015smgj   0.64030
gfz2015smym   0.01160
gfz2015snhn  -1.87000
gfz2015snmg  -0.44780
gfz2015snmr  -1.96550
gfz2015snsf  -2.04600
gfz2015snwh   0.22280
gfz2015snyd  -0.69545
gfz2015soat  -0.44396
gfz2015sowu   1.45860
gfz2015soxc  -0.55653
gfz2015sozw  -0.91351
gfz2015spal  -0.16117
gfz2015spxh   0.24630
gfz2015sqbg  -1.40540
gfz2015sqmy  -1.31860
gfz2015sqwv  -0.48056
gfz2015sqyh  -0.90512
gfz2015srat  -2.82320
gfz2015srgf  -1.58740
gfz2015srxe  -0.42081
gfz2015srxm   1.66460
gfz2015ssaf  -0.39341
gfz2015ssoe  -1.44530
gfz2015stas  -0.61156
gfz2015stso   0.60429
gfz2015subg  -0.92920
gfz2015sunp  -0.40677
gfz2015susq  -0.26725
gfz2015svjy  -3.25180
gfz2015svwm  -0.94714
gfz2015swgn  -1.11370
gfz2015swjx  -1.61480
gfz2015swnc  -1.77700
gfz2015sxgd  -1.04820
gfz2015sxxu  -1.06510
gfz2015sydc  -0.11726
gfz2015szcb  -4.46200
gfz2015szfe  -1.10040
gfz2015sztx   0.08132
gfz2015taml  -5.38630
gfz2015tbje  -0.44501
gfz2015tbxe  -0.31947
gfz2015tcem  -1.32580
gfz2015tdbb  -1.51720
gfz2015tdcu  -1.70750
gfz2015teyc  -1.80860
gfz2015tezd  -1.96490
gfz2015tflu  -0.20070
gfz2015tgbp  -0.38037
gfz2015thfd   1.39250
gfz2015thgp  -1.68180
gfz2015thtd   0.56736
gfz2015thwg   0.04738
gfz2015thwp  -0.95735
gfz2015tiyc  -2.37870
gfz2015tjhv  -0.50721
gfz2015tkol  -1.93280
gfz2015tlba  -1.62980
gfz2015tlok  -2.60950
gfz2015tnjd  -1.00770
gfz2015tnla  -1.53710
gfz2015tpra  -2.06360
gfz2015tqff  -0.79107
gfz2015tqjf  -1.58130
gfz2015tqsg  -0.61548
gfz2015truf  -3.12590
gfz2015tsdm  -1.93830
