# Nsamples: 147  MAD:  0.659  mean:  1.485  variance:  0.832
gfz2013dkly   0.07044
gfz2013dofo   1.87170
gfz2013dspt   2.11430
gfz2013dsrk   0.75264
gfz2013dvyh   1.34790
gfz2013ewbo   1.66640
gfz2013ijsr   1.26640
gfz2013ikgo   1.57060
gfz2013ilug   1.30810
gfz2013ippu   0.83558
gfz2013jwvc   2.03880
gfz2013kccc   3.83530
gfz2013kdeo   1.83080
gfz2013ldpc   1.65620
gfz2013ldqb   0.30750
gfz2013lixa   1.65130
gfz2013lyko   1.62470
gfz2013mqmv   2.05140
gfz2013mwbh   1.94540
gfz2013ncjp   0.90614
gfz2013ndin   1.17940
gfz2013oqsc   0.51666
gfz2013ozrp   1.03820
gfz2013pfbx   1.90520
gfz2013qali   1.58080
gfz2013qmer   0.99148
gfz2013qzdq   1.46170
gfz2013sdus   2.40740
gfz2013svci   1.50460
gfz2013tlaf   0.95331
gfz2013tusd   1.58940
gfz2013tvmw   0.83379
gfz2013txij   1.55500
gfz2013ufxk   1.91790
gfz2013ufxm   1.55960
gfz2013vexx   1.07370
gfz2013vfzp   0.15459
gfz2013vjjc  -0.53561
gfz2013vsxi   1.33680
gfz2013wjmm   0.74594
gfz2013xsdt   0.67946
gfz2013yctg   1.27090
gfz2014adoj   1.06140
gfz2014afmx  -1.42390
gfz2014algk   1.28480
gfz2014ande   1.47400
gfz2014bagd   1.65550
gfz2014chdv   2.08290
gfz2014czqi   1.48610
gfz2014ekcr   1.31910
gfz2014femz   2.35220
gfz2014fhdw   1.72200
gfz2014fhla   1.50590
gfz2014fhrq   2.18790
gfz2014fkmr   1.34530
gfz2014frel   1.65430
gfz2014frez   2.86760
gfz2014ftka   0.93897
gfz2014ftoc   2.14690
gfz2014fusc   2.92350
gfz2014fval   2.97820
gfz2014fvrg   2.53920
gfz2014gbcz   0.64789
gfz2014gbdq   1.80280
gfz2014ghpe   1.62340
gfz2014gmge   0.91339
gfz2014gmhr   1.21130
gfz2014gmip   1.57810
gfz2014gmnb   2.30380
gfz2014gmuw   1.08260
gfz2014goba   1.41630
gfz2014gqve   2.00250
gfz2014gsqs   1.88680
gfz2014gull   1.51010
gfz2014gvrd   1.22750
gfz2014gwab   3.07410
gfz2014hasj   1.36460
gfz2014hbqb   1.76780
gfz2014hfhl   2.43720
gfz2014hgqo   1.93330
gfz2014hjgr   2.00400
gfz2014hkcf   1.95990
gfz2014hocg   1.19280
gfz2014hqxs   4.32380
gfz2014huaj   2.03240
gfz2014hzfw  -0.23084
gfz2014igur   0.27174
gfz2014itkw   3.41720
gfz2014itpj   1.27620
gfz2014jjhc   1.01280
gfz2014jnyv   1.26470
gfz2014jpep   2.31730
gfz2014jwmh   2.57940
gfz2014kbuk   1.95390
gfz2014kndc   1.57530
gfz2014knks   0.69291
gfz2014kwwg   2.25330
gfz2014lgqn   2.18520
gfz2014lxnc   1.24760
gfz2014lyhk   1.68140
gfz2014macx   2.15600
gfz2014madw   4.04880
gfz2014mwor   1.17850
gfz2014mxkr   2.89230
gfz2014npeo   1.51780
gfz2014nqfm   1.60300
gfz2014nrie   1.82750
gfz2014oinz   1.48960
gfz2014owxc   2.67440
gfz2014pvch   2.34150
gfz2014qlxd   1.19100
gfz2014qngj   0.64692
gfz2014qqhm   1.67220
gfz2014rdsn   1.39900
gfz2014ssmv   0.81191
gfz2014ssvz   0.26400
gfz2014tovs  -2.60280
gfz2014tqdo   1.46740
gfz2014tqsf  -1.77210
gfz2014vhld   1.35630
gfz2014vhms   1.59140
gfz2014vjoz   0.86685
gfz2014waoo   0.63687
gfz2014watn   0.93350
gfz2014wjko   2.35980
gfz2014wrkh   1.76160
gfz2014xjri   2.06220
gfz2014xqqd   1.42060
gfz2014yhhm   2.99380
gfz2015aruz   0.89719
gfz2015berb   0.86084
gfz2015chhn   0.79599
gfz2015chqn   1.27080
gfz2015cxxk   0.62904
gfz2015cyjd   1.46610
gfz2015dizn   1.27910
gfz2015dskr   1.43000
gfz2015dvbn   1.07280
gfz2015egxq   2.57220
gfz2015eiky   1.58670
gfz2015etai   0.38887
gfz2015fbbk  -0.01984
gfz2015fcua   2.02160
gfz2015fsjj   1.40760
gfz2015gckd   1.53530
gfz2015gjbr   1.55860
gfz2015hgbk   1.55020
