# Nsamples: 90  MAD:  1.252  mean:  1.045  variance:  1.819
gfz2010bfzs   1.19650
gfz2010czps   1.50230
gfz2010eaoy  -2.39260
gfz2010eapk  -0.04008
gfz2010eapn  -0.07048
gfz2010eaqe  -0.86255
gfz2010eaqx   0.93958
gfz2010eaqy  -0.14044
gfz2010earu   1.09500
gfz2010easo   0.44348
gfz2010easu  -0.04990
gfz2010eati  -0.02008
gfz2010eatt   1.27310
gfz2010eavs  -0.77752
gfz2010eawb   0.65958
gfz2010eawu   1.30220
gfz2010eaxa   0.80813
gfz2010eazu   0.67888
gfz2010ebbd   1.30850
gfz2010ebkj   2.09990
gfz2010ecsp   0.36720
gfz2010ecua   0.11671
gfz2010edyi   1.90550
gfz2010eeij  -1.46220
gfz2010eevu   0.62387
gfz2010egap   0.33853
gfz2010eisx  -0.36312
gfz2010eltf   1.53850
gfz2010elyc   0.27907
gfz2010erom   3.32500
gfz2010eujm   1.08210
gfz2010excp   0.09969
gfz2010exdd   1.14770
gfz2010exdl   0.78388
gfz2010ezck  -0.36388
gfz2010ffhq   0.90992
gfz2010fuuy   1.11300
gfz2010fync  -0.16390
gfz2010gjia   1.98090
gfz2010glxl   1.53160
gfz2010gyqp   1.73290
gfz2010gzxr   0.57740
gfz2010iull   1.42940
gfz2010jxbm  -0.04175
gfz2010nmpc   1.44740
gfz2010nqwf   1.40950
gfz2010nqwo   0.40207
gfz2010rqwj   0.09799
gfz2010upfb  -0.29556
gfz2011aatr  -0.23730
gfz2011adjs   1.43960
gfz2011cykd   2.74010
gfz2011dbev   2.03250
gfz2011dbig   0.60944
gfz2011dbon   2.51870
gfz2011dcqb   2.94270
gfz2011dpqx   0.80375
gfz2011hfkj   0.71043
gfz2011rewa   0.92330
gfz2011vhfi   5.29530
gfz2012bpkx   1.14520
gfz2012fzfa   1.96010
gfz2012hnul   1.14030
gfz2012nkdf   0.88876
gfz2012uafg   0.68652
gfz2012wklq   2.56180
gfz2013ccnr   4.49170
gfz2013jusj   4.48780
gfz2013vjjc   2.24930
gfz2013wjmm   1.06050
gfz2014claq   1.78680
gfz2014enhi   1.89350
gfz2014qngj  -2.21240
gfz2014qqhm  -0.46870
gfz2015chhn   0.81533
gfz2015elgy   2.18670
gfz2015fkgt   5.39990
gfz2015lytv   1.80990
gfz2015qnho   1.96070
gfz2015sfdd   0.55860
gfz2015sfdy  -0.32378
gfz2015sfkh   1.84440
gfz2015sfno   3.05090
gfz2015sfzm   1.86150
gfz2015sjgk   0.39320
gfz2015smym   2.25490
gfz2015snwh  -0.06656
gfz2015soxc  -0.48706
gfz2015svwm   0.90147
gfz2015tnjd  -0.08325
