# Nsamples: 52  MAD:  1.214  mean:  1.209  variance:  2.592
gfz2010czps   0.66908
gfz2010eaoy   0.72231
gfz2010eapn  -0.42924
gfz2010eaqx  -3.06080
gfz2010eaqy   0.12435
gfz2010earq   1.09600
gfz2010earu   0.43141
gfz2010easo   1.67850
gfz2010eavs   0.41888
gfz2010eaxa   0.57901
gfz2010ecua  -0.56944
gfz2010eevu  -0.18261
gfz2010efsq   2.68170
gfz2010eisx   5.52620
gfz2010eltf   0.34595
gfz2010elyc   1.59500
gfz2010excp  -0.48630
gfz2010exdd  -0.24277
gfz2010ffhq   2.83340
gfz2010fync   1.41630
gfz2010hxgv   4.29900
gfz2010moyw   1.58890
gfz2010nqwo   1.59780
gfz2010pewa   1.55330
gfz2010rqwj  -0.39516
gfz2010upfb   0.09857
gfz2011adjs   1.74010
gfz2011cykd   1.34340
gfz2011dbev   3.93930
gfz2011ecaj  -0.96013
gfz2012cqnl   1.13900
gfz2012cxdn   2.03760
gfz2012hnul   2.53970
gfz2012keor   3.28110
gfz2012wklq   2.58220
gfz2013jusj  -2.45110
gfz2013vjjc   1.36240
gfz2013ylbx   1.98340
gfz2014jcjt   5.16950
gfz2014qngj  -0.58286
gfz2015byjd   2.93980
gfz2015chhn   0.03034
gfz2015fkgt   0.99167
gfz2015lytv   0.72687
gfz2015sfdd   0.90679
gfz2015sfdy   1.11970
gfz2015sfhz   0.96035
gfz2015sfnb   2.92380
gfz2015sfno   1.55930
gfz2015smym   1.21330
gfz2015snwh   1.51660
gfz2015svwm   0.95080
