# Nsamples: 76  MAD:  0.940  mean:  1.056  variance:  2.402
gfz2010bxxs   1.27460
gfz2010czps   1.09390
gfz2010eaoy  -1.70630
gfz2010eapk   0.47123
gfz2010eapn  -0.48133
gfz2010eaqe  -0.11260
gfz2010eaqx   0.44237
gfz2010eaqy  -0.16482
gfz2010earu   0.79167
gfz2010easo   0.41574
gfz2010easu   0.28160
gfz2010eato  -0.17853
gfz2010eatt   2.47470
gfz2010eaty   0.62523
gfz2010eavs  -1.43210
gfz2010eawu   0.79037
gfz2010eaxa   0.56183
gfz2010eazu   0.88472
gfz2010ebla   0.18740
gfz2010ebll   3.11430
gfz2010eltf  -1.08320
gfz2010elyc  -0.42337
gfz2010elyo   2.96560
gfz2010epxj   9.65700
gfz2010excp  -1.18310
gfz2010exdd  -0.19989
gfz2010exdl   0.43909
gfz2010ezck   0.23786
gfz2010fedq  -0.85144
gfz2010fync   0.34405
gfz2010fzoi   1.39010
gfz2010glxl   0.58704
gfz2010gyqp   0.65365
gfz2010tcrl   3.23770
gfz2010upfb   0.83931
gfz2011aatr  -0.49113
gfz2011adjs   1.08510
gfz2011cykd   3.71780
gfz2011dcqb   1.08510
gfz2011owvz   2.09930
gfz2011rewa   1.16590
gfz2011vhfi   3.08030
gfz2012fzfa   1.38680
gfz2012hnul   2.03460
gfz2012tzcc   2.44530
gfz2012uafg   0.60211
gfz2012wklq   1.51360
gfz2013ccnr   4.59460
gfz2013drxz   1.92750
gfz2013jusj  -0.04328
gfz2013stht   0.12242
gfz2013vfzp   1.14210
gfz2013vjjc   2.25340
gfz2013xsdt   2.03640
gfz2014enhi   0.31433
gfz2014gmge   3.47720
gfz2014osvz   0.65601
gfz2014qngj  -0.36778
gfz2015chhn   1.05400
gfz2015cyjd   0.78358
gfz2015gzja   0.86514
gfz2015lytv   1.91790
gfz2015qnho   0.85409
gfz2015sfdd   0.65964
gfz2015sfdl  -0.05004
gfz2015sfdy   0.50782
gfz2015sfhz   0.98025
gfz2015sfnb   2.22130
gfz2015sfno   0.94025
gfz2015sfnv   1.04120
gfz2015sfoc   1.31370
gfz2015sghq  -0.29802
gfz2015smym   1.62770
gfz2015snwh   1.08160
gfz2015soxc   1.70310
gfz2015svwm   1.29250
