# Nsamples: 7  MAD:  0.771  mean: -0.512  variance:  0.738
gfz2010bowy  -1.30810
gfz2010bxxs   0.28104
gfz2010grjd  -1.96130
gfz2010nmpc  -1.07450
gfz2011gkzt   0.40114
gfz2012enno   0.19504
gfz2014jomw  -0.11864
