# Nsamples: 62  MAD:  0.481  mean:  0.073  variance:  0.826
gfz2010ahqi  -0.16935
gfz2010bjeb   0.06700
gfz2010bxxs   0.21248
gfz2010cqwl   0.49384
gfz2010ebhc  -0.99241
gfz2010grjd  -0.09188
gfz2010iull   0.07444
gfz2010nmpc  -0.88585
gfz2010pcxi   5.20560
gfz2010usho  -1.21530
gfz2011aatr   0.03660
gfz2011cfae  -0.04045
gfz2011dpqx  -0.60378
gfz2011enva  -0.32207
gfz2011gkzt   1.74140
gfz2011hlqw  -0.41599
gfz2011hlsa  -0.27692
gfz2011lcxq  -1.19670
gfz2011mdie   0.53607
gfz2011rewa  -0.25459
gfz2011toub  -0.37791
gfz2011xyxj   0.75205
gfz2012enno   0.06356
gfz2012kkup  -0.38368
gfz2012klhx  -0.25237
gfz2012kuct   0.43843
gfz2012kudo  -0.37964
gfz2012ldxg  -0.09280
gfz2012ldzj  -0.51450
gfz2012teic   0.32372
gfz2012ttoa   0.21617
gfz2012vrgb   0.26797
gfz2012wypz  -0.27708
gfz2013ccnr   0.54525
gfz2013jkut   0.27435
gfz2013ldqb   1.95160
gfz2013pfbx  -0.77148
gfz2014afmx  -0.36897
gfz2014ande  -0.02505
gfz2014bwue  -0.46410
gfz2014ftka   0.27939
gfz2014gkqf   0.21909
gfz2014gmge   0.94731
gfz2014gmnb  -0.17714
gfz2014goba   1.80500
gfz2014hjgr  -1.24970
gfz2014jjhc   0.09435
gfz2014jpep  -0.73939
gfz2014lgqn   0.57062
gfz2014lxnc  -0.10299
gfz2014nqfm  -0.50214
gfz2014nrie   0.85887
gfz2014oinz  -0.49219
gfz2014qqhm   0.07104
gfz2014ssvz  -0.30891
gfz2014ubwn  -0.16602
gfz2015berb   0.04260
gfz2015chhn  -0.00000
gfz2015gckd   0.07493
gfz2015mpte   0.44042
gfz2015taml   0.13420
gfz2015tlkf  -0.12858
