# Nsamples: 71  MAD:  0.762  mean:  0.441  variance:  0.855
gfz2010bpda  -0.78005
gfz2010eaoy   0.19067
gfz2010eaqe  -1.91460
gfz2010earu  -0.25152
gfz2010ecfx   0.49917
gfz2010ecua  -0.70679
gfz2010elyc   1.07610
gfz2010excp   1.68410
gfz2010exdd  -0.10592
gfz2010exdl   0.88464
gfz2010exno   0.27667
gfz2010grjd   0.41543
gfz2010iull   1.01120
gfz2010ncrl  -0.24089
gfz2010nwef  -0.32981
gfz2010rqwj   0.80038
gfz2011aatr   0.91527
gfz2011enva   2.23910
gfz2011hlsa   0.93633
gfz2011lzwj   0.94357
gfz2011mdie   1.00260
gfz2011owvz   1.26650
gfz2011rewa  -0.07333
gfz2011toub  -0.48779
gfz2012fzfa  -1.77500
gfz2012hnul  -0.11013
gfz2012kkup   0.52740
gfz2012klhx   0.61341
gfz2012kudo   0.26434
gfz2012ldxg   0.77220
gfz2012uafg   1.30300
gfz2012uaqj  -0.30904
gfz2012wypz   0.40237
gfz2013ccnr   2.30140
gfz2013drxz   0.64718
gfz2013jdrx   0.78516
gfz2013kdeo   0.10495
gfz2013lyko   0.24284
gfz2013nkgj   1.16120
gfz2013nwdi  -0.16866
gfz2013pxsj  -0.11834
gfz2013vjjc   3.37680
gfz2013ziyr  -1.00040
gfz2014bwue   0.57489
gfz2014fgvi   0.28748
gfz2014fhla   2.06710
gfz2014frfl  -0.53638
gfz2014ftka  -0.38261
gfz2014gkgf   0.98551
gfz2014gmhr   0.01687
gfz2014jjhc   0.38718
gfz2014nqfm   0.44577
gfz2014pvch   0.62842
gfz2014ssvz   0.17253
gfz2015chhn  -0.05124
gfz2015cyjd   0.79088
gfz2015fkgt  -1.52860
gfz2015fsjj   1.08110
gfz2015lytv   1.01310
gfz2015sfdd   0.77909
gfz2015sfdl   1.51820
gfz2015sfdy   0.18497
gfz2015sfnb   0.40860
gfz2015sfno   1.86840
gfz2015slun  -1.41150
gfz2015smym   1.05470
gfz2015snwh   0.81536
gfz2015soxc   0.77909
gfz2015svwm   1.03470
gfz2015sxmh  -0.77937
gfz2015tnjd   0.85361
