# Nsamples: 30  MAD:  0.717  mean: -0.868  variance:  0.400
gfz2013nkgj   0.26321
gfz2013nwdi  -1.57240
gfz2013svci  -0.93877
gfz2013xsdt  -1.41700
gfz2014bwue  -1.08150
gfz2014fgvi  -0.78399
gfz2014fhla   0.08825
gfz2014ftka  -1.26520
gfz2014gkgf  -1.57210
gfz2014gkqf  -1.02170
gfz2014gmge  -1.36760
gfz2014gmhr  -1.34390
gfz2014gmnb  -1.42880
gfz2014goba  -0.95533
gfz2014hocg  -0.41605
gfz2014lgqn  -2.18960
gfz2014nqfm  -0.96666
gfz2014oinz  -1.66110
gfz2014qqhm  -0.72709
gfz2014ssvz  -1.21100
gfz2015chhn  -0.46139
gfz2015cyjd  -0.22886
gfz2015kxxs  -0.50418
gfz2015lhjy  -0.42555
gfz2015mpte  -0.42057
gfz2015sfdy  -0.28713
gfz2015sfno   0.53026
gfz2015smym  -0.12242
gfz2015taml  -0.80153
gfz2015tiyc  -1.75210
