# Nsamples: 51  MAD:  0.502  mean: -0.485  variance:  0.425
gfz2013nkgj  -0.59741
gfz2013nwdi  -1.61290
gfz2013svci  -0.36797
gfz2013uauo  -0.12631
gfz2013xsdt  -0.78741
gfz2014afmx  -0.38366
gfz2014ande  -0.38568
gfz2014bwue  -0.67490
gfz2014fgvi  -0.53163
gfz2014fhla  -0.95347
gfz2014fkmr  -1.14840
gfz2014ftka   0.19926
gfz2014gkgf  -0.39136
gfz2014gkqf   0.02089
gfz2014gmhr   1.81890
gfz2014gmnb  -0.81783
gfz2014goba  -0.70268
gfz2014gull  -0.54077
gfz2014hasj   0.11758
gfz2014hocg  -0.16641
gfz2014jjhc  -0.47924
gfz2014jpep  -0.86673
gfz2014lgqn   0.36769
gfz2014lxnc  -1.23010
gfz2014lyhk  -0.86521
gfz2014macx  -0.77018
gfz2014nqfm  -0.37563
gfz2014nrie   0.74673
gfz2014oinz  -0.84991
gfz2014owxc  -2.26990
gfz2014qlxd  -0.58472
gfz2014qqhm  -1.91130
gfz2014ssvz  -0.60273
gfz2014ubwn  -0.06048
gfz2015chhn  -0.68143
gfz2015cyjd   0.06926
gfz2015gckd   0.40107
gfz2015kquq  -0.88958
gfz2015kxxs   0.10491
gfz2015lhjy  -0.76133
gfz2015mpte  -0.35666
gfz2015sfdd  -1.34610
gfz2015sfdy  -0.42249
gfz2015sfno  -0.30035
gfz2015sjgk  -1.33480
gfz2015smym  -0.03825
gfz2015snwh  -0.17439
gfz2015soxc   0.17675
gfz2015svwm  -0.31151
gfz2015taml  -0.40157
gfz2015tiyc  -0.68583
