# Nsamples: 1273  MAD:  0.562  mean: -1.369  variance:  0.647
gfz2010aban  -0.04904
gfz2010aerk  -2.06060
gfz2010ahqi  -1.01290
gfz2010bfzs  -1.38300
gfz2010bgth  -0.56269
gfz2010bhhq  -1.69570
gfz2010bifb  -3.69080
gfz2010bjeb  -1.06410
gfz2010bjjx  -1.41840
gfz2010bkob  -1.72070
gfz2010bowy  -2.33270
gfz2010boxo  -2.06760
gfz2010bxxs  -1.02340
gfz2010caft  -1.35890
gfz2010cbkg  -1.28080
gfz2010cdbt  -1.45960
gfz2010cind  -1.04810
gfz2010civi  -0.79864
gfz2010ckeu  -1.99790
gfz2010ckzm  -0.51002
gfz2010cnwc  -0.13179
gfz2010cqwl  -1.51550
gfz2010ctuw  -0.85304
gfz2010ddzo  -0.17694
gfz2010dejx  -0.29026
gfz2010dfru  -0.98930
gfz2010diqn  -0.95451
gfz2010dumm  -1.52260
gfz2010eaoy  -1.62320
gfz2010eapk  -1.70170
gfz2010eapn  -0.65655
gfz2010eaqe  -1.81510
gfz2010eaqx  -1.19430
gfz2010eaqy  -1.77900
gfz2010earq  -0.86516
gfz2010earu  -2.14810
gfz2010easf  -2.51350
gfz2010eask  -2.94460
gfz2010easo  -1.77650
gfz2010easu  -2.04040
gfz2010eati  -1.10430
gfz2010eato  -0.69113
gfz2010eatt  -2.73030
gfz2010eaty  -1.65570
gfz2010eaul  -1.25760
gfz2010eavd  -2.40940
gfz2010eavp  -1.30600
gfz2010eavs  -1.75450
gfz2010eawb  -1.32830
gfz2010eawu  -7.27530
gfz2010eaxa  -0.93886
gfz2010eaya   3.85760
gfz2010eayd  -1.74400
gfz2010eayp  -1.57580
gfz2010eaze  -1.11890
gfz2010eazu  -3.04570
gfz2010ebbd  -1.39470
gfz2010ebbx  -0.26210
gfz2010ebby  -0.99267
gfz2010ebdl  -1.05770
gfz2010ebek  -1.65520
gfz2010ebfa  -1.24110
gfz2010ebfx  -1.63350
gfz2010ebgj  -1.31900
gfz2010ebhc  -1.87900
gfz2010ebih  -2.10760
gfz2010ebiv  -0.94264
gfz2010ebjy  -1.47740
gfz2010ebkj  -1.69390
gfz2010ebkx  -1.37950
gfz2010ebla  -1.16490
gfz2010ebmb  -1.93910
gfz2010ebmi  -0.81345
gfz2010ebnn  -1.84160
gfz2010ebpa  -2.09950
gfz2010ebqt  -1.43700
gfz2010ebrm  -1.27400
gfz2010ebsv  -1.03130
gfz2010ebtk  -1.29920
gfz2010ebvm  -1.95680
gfz2010ebvv  -1.54590
gfz2010ebwp  -1.49890
gfz2010ebxl  -1.32290
gfz2010ebze  -0.93697
gfz2010ebzk  -2.01520
gfz2010ebzr  -1.67970
gfz2010ecam  -1.57650
gfz2010ecay  -1.19680
gfz2010ecbi  -1.79900
gfz2010eccq  -0.78657
gfz2010eced  -0.82887
gfz2010ecfx  -1.18960
gfz2010ecgh  -0.95866
gfz2010echc  -1.33940
gfz2010echt  -1.58880
gfz2010echy  -0.43386
gfz2010ecls  -0.58249
gfz2010ecml  -0.92432
gfz2010ecnm  -1.48570
gfz2010ecps  -1.17720
gfz2010ecro  -0.04195
gfz2010ecsp  -0.64517
gfz2010ectq   0.23568
gfz2010ecua  -2.04400
gfz2010ecuv  -0.93620
gfz2010ecvt  -1.38970
gfz2010edad  -2.62030
gfz2010eday  -1.21710
gfz2010edhr  -0.47819
gfz2010edhv  -1.13560
gfz2010edim  -2.98100
gfz2010edji  -1.17940
gfz2010edkp  -0.26815
gfz2010edqh  -1.33850
gfz2010edsk  -1.14490
gfz2010edsn  -0.87293
gfz2010edsy  -0.59775
gfz2010edvf  -1.26570
gfz2010edyi  -3.02460
gfz2010edzb  -1.84380
gfz2010eedu  -2.40320
gfz2010eedz  -0.39258
gfz2010eefh  -1.06340
gfz2010eegn  -1.81270
gfz2010eeia  -1.07170
gfz2010eeij  -1.27380
gfz2010eekg  -0.92966
gfz2010eekq  -1.95300
gfz2010eevu  -1.58670
gfz2010efak  -1.33930
gfz2010efbh  -2.12850
gfz2010efbi  -1.45310
gfz2010efkc  -1.51230
gfz2010efls  -2.12110
gfz2010efnf  -0.62227
gfz2010efsq  -1.09310
gfz2010efwo  -0.80750
gfz2010efxf  -2.42250
gfz2010egap  -0.85541
gfz2010eghq  -1.54100
gfz2010egld  -1.30850
gfz2010egln  -1.55720
gfz2010egsw  -1.23940
gfz2010egsy  -0.88204
gfz2010egyy  -1.90870
gfz2010ehaj  -2.20190
gfz2010ehft  -1.22820
gfz2010ehnl   0.57518
gfz2010ehsy  -1.61570
gfz2010ehvj  -1.06800
gfz2010ehwg  -0.26402
gfz2010ehxz  -1.08370
gfz2010eimf  -1.52090
gfz2010eioi  -1.30140
gfz2010eisx  -2.85440
gfz2010eixj  -2.67860
gfz2010ejjg  -2.06450
gfz2010ejju  -3.57030
gfz2010ejka  -1.07430
gfz2010ejxf  -1.30000
gfz2010ekaw  -0.94793
gfz2010ekoe  -1.67710
gfz2010ekyc  -2.36580
gfz2010elhv  -1.49980
gfz2010elin  -2.32490
gfz2010eljf  -3.65510
gfz2010elpu  -1.28810
gfz2010eltf  -1.40710
gfz2010elvp  -1.92050
gfz2010elxi  -1.97890
gfz2010elyc  -3.24240
gfz2010elyo  -1.90170
gfz2010elzl  -1.30290
gfz2010emoz   0.08332
gfz2010emyz  -1.46940
gfz2010encm  -0.80145
gfz2010enpa   1.84640
gfz2010eoao   0.88048
gfz2010eohh  -0.39567
gfz2010epbe  -1.48040
gfz2010epud  -1.49680
gfz2010epxj  -2.08190
gfz2010eqjg  -1.53070
gfz2010eqmu   0.49472
gfz2010eqwl   2.34150
gfz2010erdi  -0.84428
gfz2010erfy  -1.65640
gfz2010erig  -1.57680
gfz2010erkn  -1.65550
gfz2010erna  -1.46820
gfz2010erom  -1.66330
gfz2010erum  -1.62550
gfz2010eruy  -0.41977
gfz2010erwn  -1.30020
gfz2010erxk  -1.62720
gfz2010eryg  -0.85964
gfz2010esid  -1.61280
gfz2010esmg  -0.20897
gfz2010eted  -1.69220
gfz2010etfw  -0.38015
gfz2010euii  -1.44620
gfz2010eujm  -2.17390
gfz2010euvl  -1.84540
gfz2010euwb  -1.65190
gfz2010euxe  -1.60050
gfz2010evco  -1.30510
gfz2010evgf  -1.35590
gfz2010evjv  -1.14490
gfz2010evkd  -1.17570
gfz2010ewbc  -1.34440
gfz2010ewpq  -0.96709
gfz2010ewvc  -1.73080
gfz2010ewyu  -2.49970
gfz2010excp  -1.42440
gfz2010exdd  -1.72110
gfz2010exdl  -1.65380
gfz2010exed  -1.49470
gfz2010exel  -1.33970
gfz2010exfb  -1.77520
gfz2010exgb  -1.42900
gfz2010exhd  -1.69410
gfz2010exhw  -1.65140
gfz2010exjw  -1.12360
gfz2010exlm  -1.72370
gfz2010exmc  -1.89740
gfz2010exno  -2.10010
gfz2010exou  -1.24690
gfz2010exqu  -2.15830
gfz2010exts  -1.25700
gfz2010exyp  -1.45550
gfz2010eyaz  -2.13950
gfz2010eyhh  -1.61970
gfz2010eyiv  -1.34740
gfz2010eymr  -1.73150
gfz2010eymx  -1.01430
gfz2010eyvq  -1.57200
gfz2010eyxe  -1.25520
gfz2010ezax  -1.39280
gfz2010ezck  -1.26740
gfz2010ezig  -1.64800
gfz2010ezvg  -1.52740
gfz2010ezwz  -1.61720
gfz2010faeu  -2.62430
gfz2010falm  -2.04530
gfz2010fauz  -2.37300
gfz2010fbeu  -2.20700
gfz2010fbpi  -0.52371
gfz2010fcax  -1.62290
gfz2010fcdw  -2.02910
gfz2010fciw  -1.83960
gfz2010fcnt  -2.03010
gfz2010fcxy  -1.01570
gfz2010fcyj  -1.70210
gfz2010fczt  -1.12720
gfz2010fdab   0.95874
gfz2010fedq  -0.94200
gfz2010fefr  -0.16854
gfz2010fexw  -1.93570
gfz2010ffhq  -1.53960
gfz2010ffjb  -2.05910
gfz2010ffui  -1.06700
gfz2010fhbl  -0.65456
gfz2010figq  -2.08320
gfz2010fjal  -2.06640
gfz2010fjmu  -3.22900
gfz2010flha  -2.89030
gfz2010flrt  -1.69390
gfz2010flxi  -1.72530
gfz2010fmwb  -2.80300
gfz2010fneu  -1.83820
gfz2010fnrk   0.38412
gfz2010fpmv  -1.85230
gfz2010fpqy  -1.63820
gfz2010fqdu  -2.51560
gfz2010fser  -2.04170
gfz2010ftlm  -1.98810
gfz2010fupn  -2.07780
gfz2010fuuy  -1.63100
gfz2010fwpv  -1.43260
gfz2010fwzd  -1.81720
gfz2010fyen  -1.72060
gfz2010fync  -1.63790
gfz2010gcdn  -1.97570
gfz2010gcrl  -2.36980
gfz2010gcrp  -1.70280
gfz2010gdch  -0.52870
gfz2010gdld  -2.27650
gfz2010gjia  -1.72870
gfz2010gjvo  -0.81406
gfz2010glqr  -2.32030
gfz2010glxl  -2.18870
gfz2010grjd  -0.79998
gfz2010grxb  -1.48530
gfz2010gslu  -2.09730
gfz2010gtqs  -0.87760
gfz2010gtzt  -0.94739
gfz2010gymo  -1.79980
gfz2010gyqp  -1.81080
gfz2010gzxr  -1.53620
gfz2010hbka  -0.81250
gfz2010hcio  -1.56510
gfz2010hevz   1.80570
gfz2010hjoc  -1.61720
gfz2010hlln  -2.23670
gfz2010hlmq  -2.84550
gfz2010hmhm  -1.99530
gfz2010hndk  -1.00990
gfz2010hnnf  -1.88140
gfz2010hnpi  -1.75080
gfz2010homc  -1.72710
gfz2010hptz  -1.61910
gfz2010hrkr  -1.50750
gfz2010hrpr  -1.11940
gfz2010hxbs   0.17608
gfz2010hxgv  -1.49730
gfz2010hxhe  -1.61370
gfz2010hzar  -0.92486
gfz2010ibiy  -1.77840
gfz2010iciq  -1.04940
gfz2010imfv  -1.44550
gfz2010imsh  -2.25170
gfz2010iobp  -1.38920
gfz2010iphd  -2.18350
gfz2010iqep  -5.41510
gfz2010iqfm  -0.84453
gfz2010iqus  -3.63760
gfz2010irqr  -1.80810
gfz2010irvf  -2.54690
gfz2010itpb  -2.18010
gfz2010iull  -1.21920
gfz2010izzj  -1.16850
gfz2010jagd  -0.54381
gfz2010jhie  -2.10630
gfz2010jkxj  -1.33710
gfz2010jlhj  -1.02470
gfz2010jpss  -1.58640
gfz2010jqxx  -1.73230
gfz2010jssh  -1.16740
gfz2010jsuo  -1.28060
gfz2010jwpy  -2.64860
gfz2010jxbm  -2.29240
gfz2010jygz  -1.79050
gfz2010kcoo  -1.84690
gfz2010kdyc  -2.82620
gfz2010kihf  -3.54760
gfz2010kjmp   0.24124
gfz2010kmgg  -0.85936
gfz2010kmsv  -0.34558
gfz2010kyvj  -0.61200
gfz2010kzml  -2.48960
gfz2010lcoq  -1.31820
gfz2010lczp  -1.97760
gfz2010lepw  -0.60557
gfz2010lgwy  -1.18680
gfz2010lkcf  -2.09460
gfz2010lopz  -1.17230
gfz2010lrlk  -0.60186
gfz2010lyfk  -1.13380
gfz2010mant  -1.16620
gfz2010mbje  -0.45989
gfz2010mcrx   0.09639
gfz2010mdpq  -1.66630
gfz2010mgss  -0.83271
gfz2010mhjt  -1.48640
gfz2010miil  -2.65050
gfz2010miqn  -1.46720
gfz2010mkuu  -1.40760
gfz2010mlkz  -2.07480
gfz2010mlta  -3.02960
gfz2010mncc  -1.90180
gfz2010moyw  -2.27520
gfz2010mpuy  -1.54850
gfz2010msjj  -1.15090
gfz2010mwdq  -1.36410
gfz2010mzjr  -1.12690
gfz2010nfsj  -1.44120
gfz2010nlkh  -2.24270
gfz2010nmpc  -3.35280
gfz2010nnny  -1.14170
gfz2010nqwf  -1.33790
gfz2010nqwo  -1.90970
gfz2010nrjo  -1.04290
gfz2010nsck  -1.26730
gfz2010nsdf  -2.73550
gfz2010ntuo  -1.16400
gfz2010nubk  -2.05070
gfz2010nwef  -2.08830
gfz2010nxsy  -1.46170
gfz2010nxum  -2.27280
gfz2010nzha   1.30100
gfz2010nzla  -1.77930
gfz2010ocxq  -1.53120
gfz2010odpb  -1.15950
gfz2010oedn  -2.05380
gfz2010okdm  -1.56620
gfz2010oluw  -1.96100
gfz2010omla  -1.38080
gfz2010onma  -1.59750
gfz2010osjs  -1.15240
gfz2010otbn  -0.88348
gfz2010pbdz  -1.91700
gfz2010pcxi  -2.22980
gfz2010pdtk  -1.58690
gfz2010pets  -1.15340
gfz2010pewa  -2.07550
gfz2010pewx  -3.06470
gfz2010pfyu  -2.73840
gfz2010phvg  -2.14050
gfz2010pmqd  -1.13590
gfz2010pxak  -2.22620
gfz2010pxgh  -0.46146
gfz2010qjst  -1.43380
gfz2010qpcq  -1.49260
gfz2010qpvi  -0.98490
gfz2010qwwx  -2.09550
gfz2010rhas  -6.56680
gfz2010rkfp  -2.36470
gfz2010rqwj  -1.98960
gfz2010sfee  -1.78210
gfz2010sfla  -2.33780
gfz2010skqo  -0.90936
gfz2010skve  -2.16490
gfz2010srdb  -0.94154
gfz2010svtn  -1.47230
gfz2010svve  -1.25330
gfz2010swcy  -2.05320
gfz2010sxfq   0.97316
gfz2010sxwt  -1.17400
gfz2010sysw  -1.34150
gfz2010szde   0.49784
gfz2010szim  -1.90750
gfz2010tcrl  -2.80490
gfz2010txjs  -1.43430
gfz2010uept  -1.45720
gfz2010upfb  -1.65630
gfz2010usho  -1.11000
gfz2010ustq  -0.88778
gfz2010utcg  -1.49920
gfz2010utmc  -1.38040
gfz2010uyhb  -1.76370
gfz2010veri  -1.61370
gfz2010vhuj  -1.22280
gfz2010vtdg  -1.08900
gfz2010vyxd  -1.17400
gfz2010wnty  -1.06750
gfz2010wntz  -3.01890
gfz2010wofs  -1.54240
gfz2010xche  -0.14878
gfz2010xden  -1.60210
gfz2010xgfc  -0.79617
gfz2010xgzw  -1.33680
gfz2010xjck  -0.98414
gfz2010xjsj  -0.91481
gfz2010xnxk  -1.19090
gfz2010yjev  -2.18950
gfz2010ymfy  -1.73560
gfz2010ymur  -2.63150
gfz2010yosr  -1.46720
gfz2010yqwx   0.05732
gfz2011aatr  -0.55736
gfz2011adjs  -2.07180
gfz2011alip  -1.40220
gfz2011alsa  -1.70690
gfz2011aqxf  -1.68120
gfz2011ccpw  -0.39289
gfz2011cfae  -0.97950
gfz2011cndo  -1.85600
gfz2011coxh  -1.38220
gfz2011csju  -2.19810
gfz2011cvfg  -0.16863
gfz2011cykd  -2.92180
gfz2011cynl  -1.25760
gfz2011cyre  -0.95670
gfz2011cyuk  -2.81830
gfz2011dbev  -1.62770
gfz2011dbig  -1.86200
gfz2011dbon  -1.29290
gfz2011dbwt  -0.65477
gfz2011dcqb  -0.74517
gfz2011dddh   0.20518
gfz2011deaf  -2.48230
gfz2011dkyi  -0.84556
gfz2011dlyx  -2.01520
gfz2011dpqx  -1.72140
gfz2011dtpy  -1.44020
gfz2011duyr  -1.94160
gfz2011eayc  -1.18130
gfz2011eazf  -1.26560
gfz2011ecaj  -1.43010
gfz2011edmm  -1.93150
gfz2011ehzq  -1.50200
gfz2011eltw  -1.89220
gfz2011enva  -1.85880
gfz2011eocc  -0.92361
gfz2011etje  -0.51962
gfz2011fgvr  -2.18270
gfz2011fhag  -0.91556
gfz2011fhbm  -2.11280
gfz2011fhur  -1.59150
gfz2011fkbn  -1.37210
gfz2011flgj  -1.15480
gfz2011fnsw  -1.00810
gfz2011gbmx  -1.32840
gfz2011gcwb  -1.70930
gfz2011ggvf  -1.88640
gfz2011gkey  -0.85713
gfz2011gkzt  -2.54750
gfz2011gzbr  -1.05080
gfz2011haid  -1.33730
gfz2011hbex  -1.80360
gfz2011hebt  -1.61890
gfz2011hlqw  -1.29150
gfz2011hlsa  -1.33390
gfz2011hlth  -1.30770
gfz2011hpgx  -2.26230
gfz2011hpqp  -1.81700
gfz2011hryk  -2.37500
gfz2011hvbu  -2.07870
gfz2011icxe  -3.87470
gfz2011ieie  -1.29140
gfz2011lgsg  -1.29410
gfz2011lhls  -1.25510
gfz2011lvjr  -2.41820
gfz2011lzwj  -1.25820
gfz2011mdie  -1.12380
gfz2011mepc  -1.66820
gfz2011mjom  -1.83180
gfz2011mllx  -1.49310
gfz2011mpme  -2.31430
gfz2011mprq  -0.71917
gfz2011myia  -1.16160
gfz2011nauw  -1.93590
gfz2011nkaz  -1.55180
gfz2011noud  -3.38010
gfz2011npgs  -1.71500
gfz2011nrwc  -1.74270
gfz2011nrwv  -0.93114
gfz2011nsex  -2.40580
gfz2011ntkh  -1.21860
gfz2011nudm  -2.00100
gfz2011ogqk  -3.25290
gfz2011ohcy  -0.77844
gfz2011oiqe  -2.20210
gfz2011oiwk  -1.37620
gfz2011olkk  -0.66011
gfz2011orgn  -1.24570
gfz2011ornx  -1.05240
gfz2011pccd  -0.92892
gfz2011pdpt  -1.35650
gfz2011pdst  -1.31160
gfz2011phms  -1.04930
gfz2011pntf  -0.91615
gfz2011qvae  -2.86660
gfz2011qyms  -1.14710
gfz2011rabm  -2.43860
gfz2011rewa  -1.69480
gfz2011rgwp  -0.07480
gfz2011rqui  -1.30340
gfz2011rsrh  -1.64610
gfz2011sagt  -1.05310
gfz2011shqm  -1.55840
gfz2011svix  -1.12380
gfz2011tbas  -1.76920
gfz2011tcij   0.10203
gfz2011tjue  -1.47960
gfz2011tkfp  -2.43850
gfz2011tkog  -1.15890
gfz2011tnag  -0.36403
gfz2011tsnp  -3.74640
gfz2011tuea  -1.49230
gfz2011uepx  -1.12670
gfz2011ugzz  -0.71538
gfz2011ujze  -1.58040
gfz2011uphh  -1.33690
gfz2011urxy  -2.05720
gfz2011urzu  -1.57900
gfz2011uzqv  -1.69270
gfz2011vhfi  -1.14260
gfz2011vnza  -0.99310
gfz2011vxns  -2.17850
gfz2011wcic  -1.77160
gfz2011wjul  -1.27600
gfz2011wvzb  -0.13070
gfz2011wwjs  -1.44660
gfz2011wxfs  -1.09430
gfz2011wxtk  -1.89180
gfz2011xaan  -1.52670
gfz2011xcpv  -1.32440
gfz2011xesx  -0.94274
gfz2011xyxj  -1.02320
gfz2011yfdx  -1.73410
gfz2011yybo  -1.62560
gfz2011yzwq   0.54115
gfz2011zklv  -1.34040
gfz2011zlrd  -1.02490
gfz2011zqhh  -2.43630
gfz2012ajtq  -1.65020
gfz2012aqgp  -1.80880
gfz2012bfah  -1.32140
gfz2012bpkx  -1.77020
gfz2012bpwl  -1.22950
gfz2012bszs  -1.50610
gfz2012byad  -1.64420
gfz2012cgvr  -1.45580
gfz2012cmfy  -1.60540
gfz2012cnod  -1.21680
gfz2012cxdn  -1.72390
gfz2012czlw  -0.97878
gfz2012dfhq  -0.35221
gfz2012dimn  -1.10090
gfz2012dinb  -1.18140
gfz2012dves   0.97983
gfz2012dyyh  -1.30080
gfz2012ekda  -1.39820
gfz2012ekzf  -1.93590
gfz2012elce  -1.62500
gfz2012emjg  -1.18530
gfz2012enno  -1.01710
gfz2012eskt  -0.58080
gfz2012ewgo  -1.36410
gfz2012fbfo  -1.58070
gfz2012fhnh  -0.20539
gfz2012foeo  -1.51100
gfz2012fwfo  -3.14420
gfz2012fwtr  -3.26230
gfz2012fzfa  -1.70970
gfz2012fzsq  -1.27700
gfz2012gkvr  -1.32430
gfz2012glss  -1.49540
gfz2012gocc  -1.86430
gfz2012gomm  -1.40030
gfz2012gukw   0.47382
gfz2012hnul  -2.08970
gfz2012hnuw  -0.83158
gfz2012hyaa  -2.03250
gfz2012iamr  -1.29670
gfz2012ilvn  -1.39360
gfz2012imay  -2.56340
gfz2012jjzc  -1.06450
gfz2012jlox  -1.94630
gfz2012kbjb  -0.25794
gfz2012kbzj  -0.77607
gfz2012keor  -2.72410
gfz2012kkup  -1.48400
gfz2012klba  -0.19003
gfz2012klhx  -1.18980
gfz2012kuct  -0.94222
gfz2012kudo  -1.53090
gfz2012kvzv  -1.01180
gfz2012kwgo  -1.93100
gfz2012lczo  -2.01100
gfz2012ldxg  -2.62440
gfz2012ldzj  -1.51850
gfz2012llug  -1.25540
gfz2012lrsv  -3.25480
gfz2012lxkv  -1.50880
gfz2012lzmr  -0.26058
gfz2012mdmy   0.77303
gfz2012minr  -1.79620
gfz2012mpyl  -1.42080
gfz2012mupa  -0.22206
gfz2012mvwr  -1.75980
gfz2012mwij  -1.34230
gfz2012naqz  -2.10780
gfz2012nedn  -1.86350
gfz2012ngic  -1.01710
gfz2012nkdf  -1.00440
gfz2012nojx  -0.71777
gfz2012nolo  -3.72480
gfz2012nqnk  -0.81777
gfz2012nsbz  -1.80730
gfz2012ntzv   3.20060
gfz2012nutf  -1.21770
gfz2012nxog  -0.78550
gfz2012nxyt  -1.01360
gfz2012oazn  -1.72100
gfz2012obgw  -1.42590
gfz2012oedb  -2.02270
gfz2012ostk  -0.27395
gfz2012peex  -0.61355
gfz2012pgcl  -0.52698
gfz2012ronz  -1.86530
gfz2012royy   0.36148
gfz2012rwko  -1.56340
gfz2012rwov  -1.54430
gfz2012rypu  -2.26330
gfz2012sphd  -0.98521
gfz2012syvl  -1.68720
gfz2012taou  -0.03797
gfz2012tazz  -1.06730
gfz2012teic  -1.45900
gfz2012tmop  -1.59080
gfz2012ttoa  -1.86840
gfz2012tvmv  -1.20860
gfz2012uciv  -1.48770
gfz2012uhup  -1.63220
gfz2012usba  -1.33680
gfz2012uvqf  -0.76865
gfz2012vpza  -1.08880
gfz2012vrgb  -1.56890
gfz2012whku  -1.53560
gfz2012wklq  -2.23210
gfz2012wmsg  -0.97072
gfz2012wvfl  -1.39500
gfz2012wxer  -0.84559
gfz2012wxlg  -1.90880
gfz2012wxnu  -1.21810
gfz2012wybs  -2.07390
gfz2012wypz  -0.93961
gfz2012xjyv  -1.32730
gfz2012xslk  -1.23530
gfz2012zitl  -1.58180
gfz2012zjpv  -2.05340
gfz2013aayj  -1.00200
gfz2013aqaw  -0.04172
gfz2013axoj  -1.50180
gfz2013dofo  -1.70200
gfz2013dojq  -1.55380
gfz2013drxz  -1.65230
gfz2013dsog  -0.13535
gfz2013dspt  -1.76480
gfz2013dsrk  -2.58920
gfz2013dvyh  -1.81310
gfz2013egni  -1.62360
gfz2013egpu  -2.21460
gfz2013ewbo  -1.63670
gfz2013fiud  -1.51530
gfz2013fygc  -1.11560
gfz2013gdgf  -1.56340
gfz2013gdnq  -2.43340
gfz2013gngz  -0.99818
gfz2013gock  -1.57560
gfz2013hbkq  -0.24952
gfz2013hmbc  -2.43690
gfz2013huwr  -2.21100
gfz2013iayx  -1.24270
gfz2013ifpq  -0.77472
gfz2013ijsr  -0.29753
gfz2013ikgo  -1.14880
gfz2013ilug  -1.54120
gfz2013inux  -0.24236
gfz2013ippu  -0.74435
gfz2013iunn  -1.45640
gfz2013jesk  -0.87682
gfz2013jgij  -2.00610
gfz2013jgip  -1.27480
gfz2013jkut  -0.98806
gfz2013jokw  -1.68060
gfz2013json   0.72042
gfz2013jwvc  -1.47190
gfz2013kccc  -1.69260
gfz2013kdeo  -1.89430
gfz2013kheb  -0.96266
gfz2013khli  -1.02570
gfz2013kvtk  -1.35310
gfz2013kwag  -0.31188
gfz2013lbiu  -0.18805
gfz2013ldpc  -1.64520
gfz2013ldqb  -2.15740
gfz2013lixa  -1.77650
gfz2013lmqe  -1.36700
gfz2013lsob   0.30891
gfz2013lyko  -1.50380
gfz2013malg  -0.42387
gfz2013mmwq  -1.14660
gfz2013mqik  -1.61220
gfz2013mqmv  -2.08830
gfz2013mwbh  -1.58640
gfz2013ncjp  -1.98420
gfz2013ndin  -1.81060
gfz2013neuc  -0.20288
gfz2013nixj  -1.80380
gfz2013nkgj  -2.26890
gfz2013nknw  -1.84720
gfz2013nqgw  -1.77800
gfz2013nuor  -0.86095
gfz2013nuvi  -0.67481
gfz2013nwdi  -1.52870
gfz2013ogde  -0.05794
gfz2013ojti  -0.53608
gfz2013ozrp  -1.85610
gfz2013pfbx  -1.23440
gfz2013pffm  -0.99728
gfz2013pfnf  -1.37810
gfz2013phef  -1.55100
gfz2013pkbs  -0.41001
gfz2013puag  -1.51860
gfz2013pupd   0.34761
gfz2013pxsj  -1.61930
gfz2013qali  -0.42550
gfz2013qesa  -3.17670
gfz2013qmer  -1.68240
gfz2013qnxc  -0.74282
gfz2013qzdq  -1.39500
gfz2013reym  -1.37840
gfz2013roki  -0.91409
gfz2013sdus  -2.20800
gfz2013sfto  -1.22430
gfz2013snbr  -1.76260
gfz2013suvn  -1.03210
gfz2013svci  -1.76020
gfz2013tcxc  -1.42710
gfz2013tcxq  -1.46250
gfz2013tdau  -0.22787
gfz2013toxf  -1.69920
gfz2013tusd  -1.07200
gfz2013tvmw  -1.96010
gfz2013txij  -1.83910
gfz2013txtb  -1.12810
gfz2013ufxk  -0.92350
gfz2013uqsp  -1.49370
gfz2013vexx  -1.25050
gfz2013vfyw  -1.09500
gfz2013vfzp  -0.96760
gfz2013viul  -1.40010
gfz2013vjjc  -1.66830
gfz2013vrmy  -0.26429
gfz2013vvrq  -2.05880
gfz2013vzbo   0.56740
gfz2013wjmm  -1.80440
gfz2013wkyk  -0.42840
gfz2013wmfd  -0.82213
gfz2013wnpr  -0.87415
gfz2013wpga   0.44279
gfz2013xqnn  -0.86897
gfz2013xsdt  -1.88270
gfz2013ypdc  -1.07070
gfz2013yqkv  -0.48422
gfz2013yyhc  -1.01510
gfz2014afmx  -2.12520
gfz2014arpf  -1.63200
gfz2014atgw  -1.17310
gfz2014bezu  -1.11810
gfz2014bfng  -1.27690
gfz2014dffd  -1.70270
gfz2014dhxt  -0.77069
gfz2014disp  -1.29960
gfz2014duqn  -0.99307
gfz2014ekdt  -0.61858
gfz2014enhi  -1.56880
gfz2014etqa  -0.39982
gfz2014ettc  -0.72149
gfz2014femz  -0.81170
gfz2014fexu  -0.49108
gfz2014ffdc  -0.67470
gfz2014fgvi  -1.17430
gfz2014fhdw  -1.52320
gfz2014fhla  -2.38170
gfz2014fhlh  -1.37970
gfz2014fhrq  -1.60010
gfz2014fhsg  -1.43660
gfz2014fhwx  -0.74182
gfz2014fimn  -0.37922
gfz2014fiuj  -1.88520
gfz2014fjpb  -0.90475
gfz2014fkmr  -1.33370
gfz2014fkmx  -0.95578
gfz2014frez  -1.13640
gfz2014frwh  -0.45077
gfz2014ftka  -1.93100
gfz2014ftoc  -1.62390
gfz2014ftpw  -1.21450
gfz2014ftrk  -0.17654
gfz2014fusc  -1.14160
gfz2014fusj  -1.73790
gfz2014fuub  -0.52358
gfz2014fvaa  -0.41356
gfz2014fval  -0.84255
gfz2014fvgh  -0.97433
gfz2014fvrg  -0.93769
gfz2014fwtt   0.40924
gfz2014gbcz  -2.06640
gfz2014gbdq  -0.08845
gfz2014ghpe  -1.53510
gfz2014gkgf  -2.21300
gfz2014gkgs  -2.10630
gfz2014gkhp  -1.66350
gfz2014gkhy  -0.71522
gfz2014gkjl  -0.84767
gfz2014gkjt  -1.91530
gfz2014gklq  -1.89390
gfz2014gklv  -1.16800
gfz2014gkmm  -1.32740
gfz2014gkob  -1.62820
gfz2014gkpd  -1.57370
gfz2014gkpj  -0.87641
gfz2014gkqf  -0.89674
gfz2014gkqu  -0.52736
gfz2014gksj  -0.62594
gfz2014gksu  -1.04130
gfz2014gktq  -1.15380
gfz2014glcu  -1.03710
gfz2014glcy  -1.13980
gfz2014gltx  -1.33450
gfz2014glvu  -1.28270
gfz2014gmci  -0.68352
gfz2014gmge  -2.17290
gfz2014gmhp  -0.43925
gfz2014gmhr  -3.52090
gfz2014gmip  -0.98950
gfz2014gmjo  -1.00050
gfz2014gmku  -1.38680
gfz2014gmlz  -0.67218
gfz2014gmmk  -0.67346
gfz2014gmmt  -1.36280
gfz2014gmnb  -1.58550
gfz2014gmnw  -1.39120
gfz2014gmor  -0.70819
gfz2014gmpy  -1.30170
gfz2014gmrj  -0.01904
gfz2014gmtb  -0.48630
gfz2014gmto  -1.29800
gfz2014gmuk  -1.41850
gfz2014gmvr  -3.71560
gfz2014gmzl  -1.40340
gfz2014gnfd  -1.07200
gfz2014gnfs   3.38080
gfz2014gngg  -1.22070
gfz2014gnnt  -1.06620
gfz2014gnre  -0.26719
gfz2014gnxb  -1.95200
gfz2014goba  -1.87140
gfz2014goei  -2.95990
gfz2014goqw  -0.93788
gfz2014gori  -0.17960
gfz2014gpce  -0.96740
gfz2014gphr  -1.69110
gfz2014gpmm  -0.12170
gfz2014gpuk  -0.94561
gfz2014gpya  -0.61925
gfz2014gqbj  -1.33450
gfz2014gqed  -1.03230
gfz2014gqer  -1.17090
gfz2014gqve  -1.24550
gfz2014gsgv  -4.79790
gfz2014gsqs  -1.00560
gfz2014gufl  -1.59860
gfz2014gull  -0.86665
gfz2014gulp  -1.74520
gfz2014gumd  -0.13824
gfz2014gvhw  -0.92748
gfz2014gvqj  -1.13310
gfz2014gvra  -0.53634
gfz2014gvrd  -0.97046
gfz2014gwab  -0.36377
gfz2014gxkh  -0.42936
gfz2014gxxo  -1.18970
gfz2014hagb  -0.71462
gfz2014hasj  -1.52170
gfz2014hauo  -0.80265
gfz2014hbjm  -1.03500
gfz2014hbjz  -1.09690
gfz2014hbqb  -1.60380
gfz2014hcmj  -1.26490
gfz2014hfhl  -1.11760
gfz2014hgqo  -0.96342
gfz2014hjgh  -0.99081
gfz2014hjgr  -1.40420
gfz2014hjij  -1.29970
gfz2014hjlx  -1.10210
gfz2014hkcf  -0.92769
gfz2014hocg  -0.62641
gfz2014hphw  -1.24410
gfz2014hqxs  -0.80766
gfz2014hrft  -1.41260
gfz2014hrtn  -0.95929
gfz2014hscz  -1.29080
gfz2014huaj  -1.24040
gfz2014hyal  -0.31803
gfz2014hyvq  -0.31885
gfz2014hzdy  -0.96312
gfz2014hzfw  -1.54940
gfz2014hzgn  -1.08830
gfz2014icqt  -0.63204
gfz2014imnn  -1.42660
gfz2014inbj  -0.12935
gfz2014irci  -1.24610
gfz2014issk  -1.06860
gfz2014isub  -0.87757
gfz2014isys  -0.42099
gfz2014itbe  -1.88170
gfz2014itgh  -1.64100
gfz2014itjx  -0.81372
gfz2014itkw  -1.47790
gfz2014itpj  -0.49280
gfz2014iuhq  -0.88996
gfz2014iywt  -0.90029
gfz2014jatq  -0.97991
gfz2014jcjt  -2.21660
gfz2014jcmt  -1.01810
gfz2014jfis  -1.25700
gfz2014jggm  -0.13908
gfz2014jjhc  -0.93622
gfz2014jjln  -1.05000
gfz2014jnyv  -1.47960
gfz2014jomw  -0.83195
gfz2014jpep  -1.32750
gfz2014jpgu  -0.90818
gfz2014jpxs  -1.15450
gfz2014jwmh  -0.45317
gfz2014khan  -1.96420
gfz2014khlk  -1.68130
gfz2014kjee  -1.21800
gfz2014kjzb  -1.73050
gfz2014kkhh  -1.62310
gfz2014kndc  -1.77500
gfz2014knks  -1.59500
gfz2014knxs  -1.16320
gfz2014kscf  -1.67120
gfz2014ksdv  -1.57060
gfz2014ksmz  -2.02580
gfz2014kwrg  -0.84962
gfz2014kyan  -0.96948
gfz2014kytf  -1.33320
gfz2014lddn  -2.84820
gfz2014ldhu  -1.82740
gfz2014lefs  -1.83550
gfz2014lgqn  -1.45450
gfz2014lkyf  -0.96682
gfz2014lnqy  -1.99890
gfz2014lpim  -0.95753
gfz2014lrzx  -1.53250
gfz2014lxnc  -1.00280
gfz2014lyhk  -1.42730
gfz2014lyhp  -1.58980
gfz2014lzal  -1.27850
gfz2014lzow  -1.23080
gfz2014macx  -1.20930
gfz2014madw  -1.00080
gfz2014mcno  -1.97550
gfz2014mtum  -1.18500
gfz2014niqj  -0.86925
gfz2014nnxd  -1.50450
gfz2014nowp  -1.36820
gfz2014npdk  -1.54800
gfz2014npeo  -1.10800
gfz2014nphm  -1.12300
gfz2014nqfm  -1.55200
gfz2014nrie  -1.42740
gfz2014nvdi  -0.63385
gfz2014nyeh  -0.77186
gfz2014nyko  -1.16140
gfz2014odgv  -1.53500
gfz2014oinz  -1.42300
gfz2014omyn  -1.49240
gfz2014orxs  -2.08930
gfz2014owxc  -1.18480
gfz2014oxcc  -1.13290
gfz2014oyly  -1.40410
gfz2014pjum   0.27941
gfz2014pkll  -1.89970
gfz2014ppzf  -1.41590
gfz2014pvch  -1.22400
gfz2014pzni  -2.07100
gfz2014qlxd  -1.29700
gfz2014qngj  -1.38970
gfz2014qqhm  -2.02400
gfz2014rdsn  -1.84970
gfz2014rkwl  -2.37870
gfz2014ssmv  -2.19700
gfz2014ssvz  -2.08030
gfz2014szzf  -1.06170
gfz2014tovs  -1.47270
gfz2014tqdo  -1.55340
gfz2014tqsf  -0.82992
gfz2014tzsd  -1.28180
gfz2014ubwn  -0.89421
gfz2014udgg  -1.85580
gfz2014uohh  -3.14450
gfz2014utac  -1.29810
gfz2014veit  -0.29134
gfz2014vhld  -1.00480
gfz2014vhms  -1.30630
gfz2014waoo  -1.21250
gfz2014watn  -1.99760
gfz2014wjko  -1.29970
gfz2014wqcp  -3.47200
gfz2014wrkh  -1.81730
gfz2014xjri  -1.28880
gfz2014xqqd  -1.83470
gfz2014yhhm  -1.20580
gfz2014zlgp  -0.84837
gfz2015arpd  -1.47290
gfz2015aruz  -2.09510
gfz2015atxv  -1.24920
gfz2015berb  -1.01250
gfz2015bfjm  -1.18360
gfz2015bkbj  -1.47190
gfz2015bphe  -3.78540
gfz2015bucr  -1.92820
gfz2015byfn  -1.00750
gfz2015byjd  -2.98810
gfz2015cxhx  -1.36070
gfz2015cyjd  -0.84970
gfz2015dskr  -1.12090
gfz2015dvbn  -1.50510
gfz2015ednc   0.32641
gfz2015eeyq  -0.83064
gfz2015eezy  -0.48532
gfz2015egxq  -0.89027
gfz2015eiky  -1.16710
gfz2015emtg  -0.73573
gfz2015etai  -1.68610
gfz2015fbbk  -1.71880
gfz2015fcua  -1.06320
gfz2015fjhk  -1.53580
gfz2015fkgt  -1.32580
gfz2015fkic  -1.79010
gfz2015fkuu  -1.01960
gfz2015flis  -1.31780
gfz2015fpez  -1.07580
gfz2015fsjj  -1.29920
gfz2015fvoi  -0.61175
gfz2015fwkq  -1.17820
gfz2015fxdi  -1.24920
gfz2015fyvk  -0.53261
gfz2015gckd  -1.26880
gfz2015ggjw  -1.33330
gfz2015gjbr  -0.90370
gfz2015gkwa  -0.15685
gfz2015gmgf  -1.23980
gfz2015gzja   0.05585
gfz2015hgbk  -1.49080
gfz2015hvgs  -0.60534
gfz2015igsy  -0.05326
gfz2015iwqk   0.04213
gfz2015ixyy  -3.02680
gfz2015jkdw  -1.01630
gfz2015jmlf  -1.68870
gfz2015jmlu  -0.52983
gfz2015jpap  -3.32130
gfz2015jwgl  -1.27650
gfz2015jxbx  -1.40290
gfz2015jxjd  -0.84294
gfz2015jzcv  -1.54370
gfz2015kakw  -1.23080
gfz2015kalm  -1.27320
gfz2015kcaa  -0.96640
gfz2015kfsu  -2.07370
gfz2015kkqb  -1.33560
gfz2015kkth  -1.23960
gfz2015kphk  -0.97880
gfz2015kquq  -0.79297
gfz2015ksni  -1.05330
gfz2015kvwz  -0.92276
gfz2015kxxs   0.09751
gfz2015lfma  -1.12780
gfz2015lfud  -0.99021
gfz2015lhjq  -1.36500
gfz2015lhjy  -0.98140
gfz2015ltii  -1.15200
gfz2015ltro  -1.39710
gfz2015lytv  -2.30330
gfz2015lzad  -1.10280
gfz2015mbgr  -0.65449
gfz2015mddr  -1.57190
gfz2015mfpy  -0.96930
gfz2015mhym  -3.73230
gfz2015mpte  -1.90800
gfz2015nerz  -1.81950
gfz2015nqgf  -1.13210
gfz2015ntpk  -1.35510
gfz2015nuxz  -1.58240
gfz2015nwug  -0.89385
gfz2015ocdz  -1.33270
gfz2015okmq  -1.45020
gfz2015okpu  -1.03560
gfz2015oyfl  -1.17990
gfz2015pdri  -1.81870
gfz2015poni  -1.46590
gfz2015puqp  -2.60350
gfz2015qnho  -1.30060
gfz2015qnto  -1.16170
gfz2015quzo  -2.00290
gfz2015rgrg  -1.10770
gfz2015rkbq  -0.99726
gfz2015rkrg  -1.87420
gfz2015rkzg  -0.95232
gfz2015rxmg  -1.54110
gfz2015saet  -1.04380
gfz2015sfdd  -1.74920
gfz2015sfdy  -2.12300
gfz2015sfeo  -1.39170
gfz2015sffn  -1.29060
gfz2015sfga  -1.56320
gfz2015sfhz  -1.43330
gfz2015sfiq  -1.87920
gfz2015sfjf  -0.78314
gfz2015sfkh  -1.58440
gfz2015sfks  -2.66920
gfz2015sfkz  -2.17540
gfz2015sflf  -1.40260
gfz2015sfln  -1.11920
gfz2015sfmd  -0.08035
gfz2015sfnb  -2.23230
gfz2015sfno  -2.21430
gfz2015sfnv  -0.97849
gfz2015sfoc  -2.13660
gfz2015sfoq  -0.27019
gfz2015sfpj  -0.62333
gfz2015sfqo  -1.77090
gfz2015sfqr  -1.67880
gfz2015sfrf  -1.17730
gfz2015sfsi  -0.67183
gfz2015sfte  -1.72910
gfz2015sftu  -1.49020
gfz2015sfuc  -1.63050
gfz2015sfuz  -1.54680
gfz2015sfwf  -1.31800
gfz2015sfzm  -0.31701
gfz2015sgad  -1.22500
gfz2015sghq  -2.47760
gfz2015sgmm  -1.02940
gfz2015sgmr  -0.17486
gfz2015sgna  -0.80555
gfz2015sgyd  -1.11890
gfz2015shel  -1.50070
gfz2015shhg  -0.83214
gfz2015shhu  -1.66640
gfz2015shjn  -1.75570
gfz2015shrg   1.99460
gfz2015shsz  -1.18470
gfz2015siem  -0.55878
gfz2015sitn  -0.69309
gfz2015sjbx  -1.36130
gfz2015sjfi  -0.29296
gfz2015sjgk  -1.13100
gfz2015sjjb  -0.28765
gfz2015sjne  -0.97480
gfz2015sjoj  -1.18430
gfz2015sjvu  -1.31170
gfz2015sjwi  -2.82460
gfz2015sklu  -1.35200
gfz2015skpv  -1.02370
gfz2015skxu  -1.16440
gfz2015sldx  -2.14100
gfz2015sljs  -2.14340
gfz2015slun  -0.52265
gfz2015smym  -0.99664
gfz2015snhn  -1.08270
gfz2015snmg  -0.85999
gfz2015snmr  -1.77760
gfz2015snsf  -1.41120
gfz2015snwh  -2.16900
gfz2015snyd  -1.15710
gfz2015soat  -0.84146
gfz2015soxc  -1.78610
gfz2015sqbg  -1.50290
gfz2015sqmy  -1.53170
gfz2015srat  -2.55700
gfz2015stfy  -1.02240
gfz2015stso  -1.21460
gfz2015susq  -0.85082
gfz2015svjy  -1.34150
gfz2015svwm  -1.52650
gfz2015swjx  -0.64464
gfz2015sxxu  -1.19400
gfz2015szcb  -1.17670
gfz2015taml  -0.97357
gfz2015tbdn  -0.57215
gfz2015tdhb  -1.96120
gfz2015tezd   0.17967
gfz2015tghj  -1.47100
gfz2015thwg  -0.64780
gfz2015thwp  -0.68452
gfz2015tixi  -1.25300
gfz2015tiyc  -1.92890
gfz2015tkol  -3.37910
gfz2015tlba  -1.15720
gfz2015tlkf  -1.13520
gfz2015tnjd  -1.11590
gfz2015tpra  -1.31800
gfz2015tsdm  -0.90500
