# Nsamples: 1255  MAD:  0.677  mean: -0.177  variance:  0.762
gfz2010czps  -1.56770
gfz2010ddzo   1.77910
gfz2010dfru   0.51002
gfz2010dlgc   0.27563
gfz2010ebgj  -0.43468
gfz2010ebhc   0.31973
gfz2010ebiv   0.15442
gfz2010ebjy  -0.79929
gfz2010ebll  -0.32733
gfz2010ebmb  -0.84446
gfz2010ebmi  -0.71063
gfz2010ebqt   0.27993
gfz2010ebvm  -0.63081
gfz2010ebvv  -0.77129
gfz2010ebwp  -0.54597
gfz2010ebxl  -0.49355
gfz2010ebze  -0.96420
gfz2010ebzk  -0.68899
gfz2010ebzr  -0.74956
gfz2010ecam  -0.78416
gfz2010ecay  -0.68970
gfz2010ecbi  -0.78830
gfz2010eccq   0.41176
gfz2010ecdu  -1.20890
gfz2010eced  -0.02046
gfz2010ecft  -0.88890
gfz2010ecfx  -0.91894
gfz2010ecgh   0.55867
gfz2010echc  -0.32800
gfz2010echt  -0.71398
gfz2010echy   0.37746
gfz2010ecka   1.53320
gfz2010ecls  -1.94670
gfz2010ecml   0.04181
gfz2010ecns  -0.95214
gfz2010ecpg   0.62116
gfz2010ecps  -0.33699
gfz2010ecro  -3.22350
gfz2010ecsp  -0.92292
gfz2010ectq  -0.28122
gfz2010ecua  -1.35800
gfz2010ecuv  -0.07010
gfz2010ecvt  -0.60864
gfz2010ecyr  -0.65319
gfz2010edbz  -0.02073
gfz2010edcp  -0.73768
gfz2010edde  -1.74370
gfz2010edhr  -0.13073
gfz2010edhv  -0.08421
gfz2010edim  -0.98682
gfz2010edji   0.77743
gfz2010edkp   0.53773
gfz2010edoq  -0.40757
gfz2010edpb  -1.04480
gfz2010edqd  -1.23390
gfz2010edqh  -0.50731
gfz2010edsk  -0.02236
gfz2010edsn   0.10573
gfz2010edun  -0.92153
gfz2010edvf  -0.21080
gfz2010edyi  -2.02950
gfz2010edzb  -0.41622
gfz2010eexz  -0.55046
gfz2010eeyh  -0.78161
gfz2010efak   0.86715
gfz2010efbi  -0.80238
gfz2010efkc   0.04967
gfz2010efls  -0.61686
gfz2010efnf  -0.82500
gfz2010efsq  -1.15930
gfz2010eher  -0.90511
gfz2010ehft  -0.58378
gfz2010ehnl  -0.76093
gfz2010ehsy  -0.02220
gfz2010ehvj   0.00000
gfz2010ehwg  -6.72380
gfz2010ehxz   0.56336
gfz2010eimf  -0.42158
gfz2010eioi  -0.46005
gfz2010eisx  -2.21740
gfz2010eixj  -1.38030
gfz2010ejae  -0.80197
gfz2010ejco   0.33532
gfz2010ejjg  -1.43740
gfz2010ejka  -0.29554
gfz2010ejma   0.78056
gfz2010ejxf  -0.23523
gfz2010ekoe  -0.89135
gfz2010ekrv  -0.75205
gfz2010ekyc  -1.19720
gfz2010elhv  -0.91976
gfz2010elin  -1.20920
gfz2010eljf  -2.15180
gfz2010elpu  -0.44759
gfz2010elsw  -0.43632
gfz2010eltf  -0.96952
gfz2010elvp  -1.43110
gfz2010elxi  -1.03000
gfz2010elyc  -2.64860
gfz2010elyo  -0.27110
gfz2010elzf   1.20160
gfz2010elzl  -0.33024
gfz2010emoz   0.26178
gfz2010emyz  -0.76138
gfz2010encm   5.25770
gfz2010eohh  -1.57170
gfz2010epbe  -0.41133
gfz2010epxj  -1.27960
gfz2010epzk  -0.78985
gfz2010eqjg  -0.72648
gfz2010eqmu  -6.09360
gfz2010eqse  -0.10050
gfz2010eqwl   2.11140
gfz2010erda  -0.62667
gfz2010erdi   0.29699
gfz2010erfy  -1.00720
gfz2010erig  -0.22123
gfz2010erkn  -0.28647
gfz2010ermi  -6.01230
gfz2010erna  -0.97639
gfz2010erom  -0.58222
gfz2010erum  -0.42501
gfz2010eruy  -0.33657
gfz2010erwn  -0.54072
gfz2010erxk   0.19435
gfz2010eryg  -0.80499
gfz2010esid  -0.58919
gfz2010esmg   1.06690
gfz2010esou  -1.07730
gfz2010euan  -0.06686
gfz2010euii   0.01918
gfz2010eujm  -1.24320
gfz2010eutw  -1.59210
gfz2010euvl  -0.66106
gfz2010euwb  -1.28340
gfz2010euxe  -0.24917
gfz2010ewbc   0.60665
gfz2010exhd  -0.73674
gfz2010exhw  -1.13620
gfz2010exjw   0.30676
gfz2010exlm  -0.57098
gfz2010exmc  -0.98351
gfz2010exno  -1.27470
gfz2010exou  -0.65405
gfz2010exqu  -1.09890
gfz2010exts  -0.44532
gfz2010exyp  -0.30749
gfz2010eyaz   0.46545
gfz2010ezax  -0.23991
gfz2010ezck  -0.67841
gfz2010ezig  -1.45270
gfz2010ezuj  -1.65360
gfz2010ezvg  -0.95262
gfz2010ezvt  -0.78137
gfz2010ezwz  -0.14130
gfz2010ezxd  -0.66931
gfz2010faeu  -1.68910
gfz2010fauz  -1.73630
gfz2010faxg  -2.93690
gfz2010fbeu  -1.61580
gfz2010fbpi  -1.50520
gfz2010fcax  -1.01750
gfz2010fcdw  -0.40283
gfz2010fciw  -0.61464
gfz2010fcnn  -0.39038
gfz2010fcnt  -1.00580
gfz2010fcxy   0.48824
gfz2010fcyj  -1.55740
gfz2010fczt  -0.53537
gfz2010fdab   0.30040
gfz2010fexw  -0.46588
gfz2010ffhq  -0.91731
gfz2010ffjb  -0.97046
gfz2010ftlm  -1.03550
gfz2010fyen  -0.57559
gfz2010fync  -0.34787
gfz2010fzoi  -1.10310
gfz2010fzyt   0.51140
gfz2010gcdn  -0.77274
gfz2010gcrl  -1.11190
gfz2010gcrp  -0.50158
gfz2010gdch  -0.42718
gfz2010gdld  -0.86359
gfz2010geru  -0.35488
gfz2010ginm   0.19916
gfz2010gjvo  -0.26068
gfz2010grjd   0.14786
gfz2010gslu  -0.77005
gfz2010gwmp   0.88261
gfz2010gymo  -0.74758
gfz2010gyqp  -1.02880
gfz2010gzxr  -0.57109
gfz2010hbka   0.50370
gfz2010hcio  -0.57071
gfz2010hevz  -0.08181
gfz2010hgld  -0.57213
gfz2010hhls  -0.87414
gfz2010hjoc  -0.51121
gfz2010hlco  -1.40850
gfz2010hllj  -0.42174
gfz2010hlln  -0.85454
gfz2010hlmq  -2.01780
gfz2010hlvr  -0.18024
gfz2010hmhm  -1.40150
gfz2010hndk   0.24947
gfz2010hnnf  -0.75769
gfz2010hnpi   0.04883
gfz2010hnzr  -1.13280
gfz2010homc  -0.04281
gfz2010hptz  -0.55996
gfz2010hrkr   0.27289
gfz2010hrpr  -0.74255
gfz2010htdq  -0.55356
gfz2010hxbs   0.53597
gfz2010hxgv  -0.63072
gfz2010hzar   0.13471
gfz2010ibiy  -0.60394
gfz2010iciq   0.71604
gfz2010icqq  -0.79446
gfz2010iefy  -0.15896
gfz2010iibf  -0.41919
gfz2010iimu  -0.34107
gfz2010ijtk   0.25058
gfz2010imfv  -0.54218
gfz2010imsh  -0.90127
gfz2010iobp  -0.86318
gfz2010iphd  -1.26450
gfz2010ipsg  -1.13130
gfz2010iqep   0.00000
gfz2010iqfm  -0.22571
gfz2010iqus  -0.01999
gfz2010irvf  -1.11160
gfz2010iull  -0.17291
gfz2010ixyc   0.26776
gfz2010izzj  -0.19758
gfz2010jagd  -0.79341
gfz2010jatq  -1.00350
gfz2010jhie  -0.59229
gfz2010jipf  -0.53279
gfz2010jitt   0.85307
gfz2010jkxj   0.27696
gfz2010jpss   0.25234
gfz2010jpyj  -0.37055
gfz2010jqxx  -0.28877
gfz2010jssh   0.05882
gfz2010jsuh   0.74748
gfz2010jsuo  -0.33678
gfz2010jtal   1.72330
gfz2010jwpy   1.30260
gfz2010jxbm  -1.54660
gfz2010jygz   0.10794
gfz2010jzku  -0.39510
gfz2010kcoo  -0.14147
gfz2010kdyc  -0.74624
gfz2010kgws  -0.56083
gfz2010kihf  -2.22850
gfz2010kmgg   0.14795
gfz2010kmsv   0.85190
gfz2010kown  -1.52080
gfz2010kyen  -1.84180
gfz2010kzml  -2.50660
gfz2010lcoq  -0.37099
gfz2010lczp   0.32663
gfz2010lepw   0.69773
gfz2010lfju   0.86839
gfz2010lgwy   0.03706
gfz2010liqs  -0.95654
gfz2010lkcf  -0.99158
gfz2010lopz   0.21894
gfz2010lrlk   0.56779
gfz2010lyfk  -0.44717
gfz2010mant   1.55480
gfz2010mbje   0.66581
gfz2010mdpq   0.20058
gfz2010mfpt   0.68737
gfz2010mgss  -0.20226
gfz2010mhjt  -0.06370
gfz2010miil  -0.33013
gfz2010miqn   0.22528
gfz2010mkuu  -0.09756
gfz2010mlkz  -1.18310
gfz2010mlta  -1.38720
gfz2010mncc  -0.73126
gfz2010mnhm  -0.11047
gfz2010mnsz   1.46350
gfz2010moyw  -1.54690
gfz2010mpuy  -0.28310
gfz2010msjj  -0.02167
gfz2010mtab  -1.02860
gfz2010muca  -0.21702
gfz2010mwdq  -0.76728
gfz2010mzjr   0.45047
gfz2010ncrl  -0.76491
gfz2010nfsj  -0.20290
gfz2010nlkh  -0.64811
gfz2010nmpc  -2.55720
gfz2010nnny   0.69384
gfz2010nqwf  -0.27203
gfz2010nqwo  -0.91251
gfz2010nrew   0.01994
gfz2010nrjo  -0.13532
gfz2010nsck  -0.66535
gfz2010nsdf   0.75874
gfz2010nsjs   0.27487
gfz2010ntuo  -0.33948
gfz2010nubk  -0.94270
gfz2010nwef  -0.62929
gfz2010nxsy  -0.35048
gfz2010nxum  -0.68627
gfz2010nzha  -0.22480
gfz2010nzla  -0.51149
gfz2010ocxq  -0.16340
gfz2010odpb   0.22252
gfz2010oedn  -0.78556
gfz2010okdm  -0.82927
gfz2010oluw   0.20479
gfz2010omla   0.24158
gfz2010onma  -0.16053
gfz2010osjs   0.05405
gfz2010pbdz  -0.16466
gfz2010pcxi  -0.75663
gfz2010pdtk  -0.40982
gfz2010pewa  -0.93138
gfz2010pewx  -1.09800
gfz2010pexf  -0.97250
gfz2010pfyu   0.10521
gfz2010phvg  -0.90832
gfz2010plbg  -0.69910
gfz2010pmqd   0.07535
gfz2010pqck  -1.43640
gfz2010pxak   0.83953
gfz2010pxgh   0.00000
gfz2010qjst  -0.49584
gfz2010qpcq  -0.22342
gfz2010qpum  -0.25489
gfz2010qpvi   0.39587
gfz2010qwwx  -1.47230
gfz2010rhas  -1.06300
gfz2010rkfp  -0.50702
gfz2010rlbv  -0.91798
gfz2010rqwj  -1.24850
gfz2010rzrr  -0.56489
gfz2010rzsd  -3.57740
gfz2010sfee  -0.30368
gfz2010sfla  -1.57820
gfz2010sgzk  -1.07690
gfz2010skqo  -0.79530
gfz2010skve  -1.26710
gfz2010srdb  -0.81230
gfz2010suww  -1.10000
gfz2010svtn  -0.76197
gfz2010swcy  -0.67110
gfz2010sxwt  -0.43115
gfz2010szde  -0.49156
gfz2010szim   0.17075
gfz2010tcbr  -0.51726
gfz2010tcrl  -1.18060
gfz2010titk   0.25355
gfz2010tlfm  -0.39315
gfz2010truw  -1.19690
gfz2010txjs  -0.12522
gfz2010uept  -0.08362
gfz2010upfb  -1.05900
gfz2010upiw   0.19416
gfz2010urlq   0.05578
gfz2010usho   0.18787
gfz2010ustq  -0.58422
gfz2010utcg  -0.70536
gfz2010utmc  -0.37389
gfz2010utvp   0.28101
gfz2010uyhb   0.51279
gfz2010veri   0.34274
gfz2010vhuj  -0.49745
gfz2010vppc   1.45570
gfz2010vtdg  -0.39080
gfz2010vyxd   0.21671
gfz2010vzpr  -0.27124
gfz2010wioh   0.60952
gfz2010wnty   0.57454
gfz2010wntz  -1.29110
gfz2010wofs  -0.68842
gfz2010wrxx  -1.30040
gfz2010xgfc   1.79350
gfz2010xgzw  -0.55889
gfz2010xmpr   0.13717
gfz2010xnxk   0.15886
gfz2010xxdb   0.33066
gfz2010xxzn   0.30384
gfz2010yjev   0.84826
gfz2010ymfy   0.49012
gfz2010ymur  -0.01926
gfz2010yosr   0.04000
gfz2010yqwx  -0.12221
gfz2011aosc   0.35079
gfz2011ccpw   0.67945
gfz2011cndo  -0.54279
gfz2011ctbn  -4.06350
gfz2011cykd  -1.91540
gfz2011cylz  -0.68822
gfz2011cynl  -0.45460
gfz2011cyre  -0.87816
gfz2011dbwt   0.36336
gfz2011deaf  -0.18233
gfz2011dllz   0.11923
gfz2011dndz   0.08012
gfz2011dpaa  -0.17811
gfz2011dpmx  -0.03294
gfz2011dpqx  -0.71482
gfz2011eayc  -0.06789
gfz2011eazf   0.23296
gfz2011edmm   0.16317
gfz2011ehzq  -0.55748
gfz2011ejlp  -0.84516
gfz2011enva  -0.79869
gfz2011eocc   0.77878
gfz2011etje   0.32012
gfz2011fdzv   0.42648
gfz2011fgvr  -1.07410
gfz2011fhag  -0.31108
gfz2011gbmx  -0.43581
gfz2011gcwb  -0.81575
gfz2011ggvf   0.99814
gfz2011gkey   0.11746
gfz2011gkzt  -0.72788
gfz2011gzbr  -0.05920
gfz2011haid  -1.17110
gfz2011hbex  -0.49021
gfz2011hebt  -0.68529
gfz2011hfkj  -0.87327
gfz2011hlqw  -0.56929
gfz2011hlsa  -0.84503
gfz2011hlth  -0.39624
gfz2011hpgx  -1.03130
gfz2011hpqp  -0.91764
gfz2011hrhe   0.54015
gfz2011hrhu   0.15054
gfz2011hvbu  -1.01050
gfz2011ieie  -1.24340
gfz2011iwte  -0.47553
gfz2011ixai  -0.29939
gfz2011izqa  -1.04010
gfz2011izto   0.99926
gfz2011jdsj   0.19127
gfz2011jghb  -0.61379
gfz2011jmbn  -0.24535
gfz2011jnmi   0.84226
gfz2011jplh  -0.46937
gfz2011jtlg  -0.19412
gfz2011juid  -0.54628
gfz2011jxpl   0.27458
gfz2011knoo   0.38627
gfz2011kqwo  -2.07070
gfz2011kqyg  -0.54207
gfz2011kwhq   1.91040
gfz2011kwid  -0.97387
gfz2011kwiy   0.09791
gfz2011kwjx  -1.39320
gfz2011kwkw  -0.66419
gfz2011kwld  -0.18612
gfz2011kwlq  -0.43290
gfz2011kwni  -0.10194
gfz2011kwqc  -1.14930
gfz2011kwsz  -0.32147
gfz2011kxzp  -0.54707
gfz2011lcxq  -0.59850
gfz2011lczg   0.17805
gfz2011lgsg   0.05752
gfz2011lhls   0.07282
gfz2011lvjr  -0.37913
gfz2011lzwj   0.13295
gfz2011mdie  -0.00000
gfz2011mepc  -0.82582
gfz2011mjom   0.25940
gfz2011mllx  -0.10207
gfz2011mpme  -1.48020
gfz2011mprq   0.17366
gfz2011myia  -0.21320
gfz2011nauw   1.49470
gfz2011nmnq  -0.27362
gfz2011noud  -1.43300
gfz2011nrwc   0.24354
gfz2011nrwv   2.81520
gfz2011ntkh   0.12213
gfz2011nudm  -1.00530
gfz2011ogqk  -0.91653
gfz2011ohcy   0.16907
gfz2011oiqe  -0.28156
gfz2011oiwk   0.37601
gfz2011olkk   0.11342
gfz2011oolr   0.72191
gfz2011orgn  -0.65440
gfz2011ornx  -0.04281
gfz2011pccd   0.12669
gfz2011phms  -0.91652
gfz2011pntf  -0.29295
gfz2011ptus  -0.34086
gfz2011qigx  -0.02375
gfz2011qvae  -1.16730
gfz2011qyms  -0.18946
gfz2011rabm   1.75320
gfz2011rdby  -0.89612
gfz2011rewa  -0.98945
gfz2011rgwp  -0.18336
gfz2011rqui  -0.03044
gfz2011rsrh  -0.02916
gfz2011rznl  -2.43110
gfz2011sagt  -0.72663
gfz2011shqm  -0.18455
gfz2011stal  -0.25652
gfz2011svix   0.24696
gfz2011taps  -0.07344
gfz2011tbas  -0.25601
gfz2011tcij   0.29748
gfz2011tivu  -0.20928
gfz2011tjue  -0.04019
gfz2011tkfp  -0.73908
gfz2011tkog  -0.71196
gfz2011toub  -0.75841
gfz2011tpbl  -0.06025
gfz2011tpfr  -0.30917
gfz2011tsfd   1.24480
gfz2011tsnp   0.51232
gfz2011tuea   0.81687
gfz2011twov   0.88046
gfz2011uepx   0.89596
gfz2011ugzz   0.06238
gfz2011ujze   0.11626
gfz2011ukmp  -0.29425
gfz2011uphh   0.31216
gfz2011urxy  -0.46373
gfz2011urzu  -0.17330
gfz2011vclt   0.15994
gfz2011vhfi   0.26509
gfz2011vxns  -1.35170
gfz2011wfja   0.07362
gfz2011wijj  -0.11478
gfz2011wjkf   1.29910
gfz2011wjul  -0.24205
gfz2011wxfs   0.26955
gfz2011wxoj  -0.40751
gfz2011wxtk  -0.01860
gfz2011xesx   0.45107
gfz2011yhwz  -0.08193
gfz2012attr   0.34315
gfz2012bpnl  -0.16252
gfz2012bqeb  -0.00000
gfz2012cnod   0.93877
gfz2012cxdn  -0.76500
gfz2012czlw   0.30178
gfz2012deri   1.42660
gfz2012dfhq   0.09868
gfz2012emjg   0.25959
gfz2012eskt   1.32100
gfz2012ewgo   0.08368
gfz2012fhnh   0.58619
gfz2012foeo  -0.18073
gfz2012fqcg   0.56386
gfz2012fwfo  -2.08970
gfz2012fwtr   2.91760
gfz2012fzfa  -1.08440
gfz2012fzsq  -0.36096
gfz2012gkvr   0.14373
gfz2012gocc  -1.26320
gfz2012gukw   1.27030
gfz2012hdbm   0.01767
gfz2012hnul  -1.56470
gfz2012hogg   0.53725
gfz2012holl  -1.11940
gfz2012hwmz  -0.71800
gfz2012iamr   1.02240
gfz2012ibld  -0.43041
gfz2012icmv  -1.04320
gfz2012ihdl  -0.53379
gfz2012iivw   0.27590
gfz2012ilvn  -0.48343
gfz2012imay  -0.88838
gfz2012iyrb   0.89270
gfz2012jgvj   0.33724
gfz2012jjzc  -0.07751
gfz2012jlox  -0.86455
gfz2012jqvn  -1.03000
gfz2012jshk  -0.33226
gfz2012jupx  -0.35914
gfz2012kbjb   1.25840
gfz2012kbzj   0.28097
gfz2012kdmb   1.75170
gfz2012keor  -1.47770
gfz2012kkup  -0.73603
gfz2012klba   0.45179
gfz2012klhx  -0.28060
gfz2012kuct   0.71337
gfz2012kudo  -0.25082
gfz2012kvzv  -0.27866
gfz2012kwgo  -0.23316
gfz2012lczo  -1.21210
gfz2012ldxg  -1.22140
gfz2012ldzj  -0.41861
gfz2012lpvn  -0.17245
gfz2012lrsv  -1.87410
gfz2012lsni   0.43887
gfz2012lxkv  -0.96114
gfz2012mdmy  -0.91676
gfz2012minr  -0.50690
gfz2012mkpn   1.01710
gfz2012mlyf  -0.45485
gfz2012mpvy  -0.24787
gfz2012mpyl  -0.50184
gfz2012mupa   0.42749
gfz2012mvwr   0.03969
gfz2012mwij  -0.27641
gfz2012myqa  -0.39210
gfz2012naqz  -0.59435
gfz2012nedn  -0.48003
gfz2012ngic  -0.28871
gfz2012njha  -0.61545
gfz2012nkdf  -0.78146
gfz2012nolo  -1.28780
gfz2012nqnk   2.10090
gfz2012nsbz  -0.40576
gfz2012ntzv  -0.81509
gfz2012nutf  -0.42228
gfz2012nxog  -0.44611
gfz2012nxyt   0.42580
gfz2012oazn   0.39801
gfz2012obgw   0.38276
gfz2012oedb  -0.25979
gfz2012omvo  -1.27410
gfz2012oqmw  -0.25484
gfz2012ovqs  -0.24712
gfz2012pciw  -0.15092
gfz2012pgcl   0.04917
gfz2012pkel  -0.16447
gfz2012plbw  -0.75856
gfz2012plea   1.86750
gfz2012pqlt  -1.01090
gfz2012pqmu  -0.61764
gfz2012qurq   0.92530
gfz2012qxcy  -0.43739
gfz2012rats  -0.49046
gfz2012rcnj  -0.59269
gfz2012snhi  -0.06520
gfz2012spbj  -0.20587
gfz2012sphd   0.14326
gfz2012sqmv  -0.87581
gfz2012ssyn   0.19055
gfz2012syvl  -0.13205
gfz2012tazz  -0.22555
gfz2012teic  -0.23348
gfz2012thfx  -1.80550
gfz2012tmop  -0.57094
gfz2012ttoa  -0.39838
gfz2012tvmv  -0.21856
gfz2012uciv  -0.19905
gfz2012ufew   0.27475
gfz2012uhup  -0.86931
gfz2012usba  -0.78298
gfz2012uyxb  -0.60289
gfz2012uzyj   0.92544
gfz2012vceo   2.99420
gfz2012vjgl   0.36419
gfz2012vntz  -0.23932
gfz2012vrgb  -0.54749
gfz2012vrua  -0.43540
gfz2012vsev  -0.89218
gfz2012vxvr  -0.56233
gfz2012whku  -0.38940
gfz2012wklq  -1.81630
gfz2012wmsg   0.00000
gfz2012wpeq  -0.52598
gfz2012wrir  -0.38469
gfz2012wtkr  -0.45442
gfz2012wubh  -0.34573
gfz2012wvfl  -0.43271
gfz2012wxer   0.09073
gfz2012wxlg  -0.87278
gfz2012wybs   0.33296
gfz2012wypz  -0.12099
gfz2012xbjq  -0.62738
gfz2012xeul   0.95486
gfz2012xjyv   0.01868
gfz2012xslk   0.68011
gfz2012zemh  -0.27071
gfz2012zfag  -0.23036
gfz2012zjpv  -1.14910
gfz2012zjre  -0.75931
gfz2013apmm  -1.58780
gfz2013bnxc  -0.05517
gfz2013cdan  -0.24741
gfz2013cnve   0.35777
gfz2013cwpn   0.08014
gfz2013dsrk  -0.62552
gfz2013ewbo   1.21730
gfz2013fiud   0.26547
gfz2013gdnq   4.66800
gfz2013gjdc   0.62854
gfz2013gngz   0.57111
gfz2013gock   0.04981
gfz2013ijsr   0.63857
gfz2013ikgo  -0.09589
gfz2013ilug  -0.83540
gfz2013iunn   0.14954
gfz2013jesk  -0.08039
gfz2013jgij  -0.36890
gfz2013jgip   0.33563
gfz2013jkut  -0.07879
gfz2013jokw   0.09638
gfz2013jusj   0.48780
gfz2013jwvc  -0.48443
gfz2013jxoi  -0.44703
gfz2013kccc  -0.10828
gfz2013kdeo   0.00000
gfz2013kheb   0.80541
gfz2013ldpc   0.20105
gfz2013ldqb  -0.35076
gfz2013lgnl   0.11086
gfz2013lixa  -0.09165
gfz2013lyko  -0.33307
gfz2013mmlw  -0.31098
gfz2013mmwq   0.93078
gfz2013mnei   0.84165
gfz2013mqik   0.10271
gfz2013mqmv   0.42056
gfz2013mwbh   0.52654
gfz2013ncjp  -0.34922
gfz2013neuc  -0.20031
gfz2013nixj  -0.46430
gfz2013nkgj  -0.41224
gfz2013nknw  -0.38342
gfz2013nmac  -0.20316
gfz2013nnzf  -0.10308
gfz2013nppd  -0.50809
gfz2013nqgw   1.23690
gfz2013nuvi   0.16801
gfz2013nwdi  -0.97686
gfz2013ogde   0.35198
gfz2013oifr   1.00030
gfz2013oilg   0.10185
gfz2013oinc   0.19096
gfz2013ojti   2.22760
gfz2013oqsc  -1.03360
gfz2013orjg   0.33287
gfz2013orzn   1.91770
gfz2013ozrf   1.93950
gfz2013ozrp   1.59410
gfz2013pcos   0.41230
gfz2013pfbx   0.53140
gfz2013pfeb   0.26926
gfz2013phef  -0.29648
gfz2013pkbs   2.18000
gfz2013puag   0.34409
gfz2013pxsj  -0.40626
gfz2013qali   0.48209
gfz2013qmer  -0.07336
gfz2013qnxc  -0.83021
gfz2013qzdq  -0.21631
gfz2013rait  -0.59911
gfz2013rdoo   0.63917
gfz2013reym  -0.51383
gfz2013roki   0.61486
gfz2013rsnr  -0.39210
gfz2013rwfe  -1.52990
gfz2013sart   0.14132
gfz2013sdus   0.29180
gfz2013sebq   1.15290
gfz2013sfto   0.06784
gfz2013shzy   0.79073
gfz2013skkm  -0.22915
gfz2013xmul  -0.47381
gfz2013xpfa  -0.57544
gfz2013xqnn   0.32603
gfz2013ylbx  -0.50870
gfz2013yyhc  -0.06032
gfz2014adoj  -0.47736
gfz2014afmx   0.12993
gfz2014amsb   1.44430
gfz2014atgw  -0.36825
gfz2014bezu   0.11441
gfz2014bmdh  -0.12427
gfz2014cvkm  -0.02407
gfz2014dffd   0.01122
gfz2014duqn   0.23097
gfz2014egwu   1.03110
gfz2014ehsf  -0.06370
gfz2014fcms  -0.08701
gfz2014femz   0.23850
gfz2014fexu   1.13170
gfz2014ffdc   1.64270
gfz2014fgvi   0.51187
gfz2014fgvr   0.93653
gfz2014fgwt   1.92130
gfz2014fgxt   0.49600
gfz2014fgxz   0.50292
gfz2014fgyo   0.44435
gfz2014fgza  -0.31673
gfz2014fhbd   0.67248
gfz2014fhdw   0.19199
gfz2014fhhp   0.40223
gfz2014fhjd   0.67165
gfz2014fhrq   0.52743
gfz2014fhsg  -0.04585
gfz2014fhwx   1.61020
gfz2014fkmr  -0.03221
gfz2014fkmx  -0.22672
gfz2014fnyg  -0.10402
gfz2014foio  -0.05539
gfz2014frez   0.66592
gfz2014frwh   1.00010
gfz2014ftka   0.21268
gfz2014ftno   0.29528
gfz2014ftoc   0.43709
gfz2014ftpw   0.53548
gfz2014ftrk   0.30641
gfz2014fusc  -0.01974
gfz2014fusj   0.21782
gfz2014fuub   0.76973
gfz2014fuup  -1.88680
gfz2014fvaa   1.42030
gfz2014fval   0.87293
gfz2014fvgh   0.80480
gfz2014fvjl   0.00000
gfz2014fvpy  -0.80458
gfz2014fvrg   0.58226
gfz2014fwyr  -0.55753
gfz2014fxhd   1.48000
gfz2014geuy   0.87498
gfz2014gezs   0.61903
gfz2014gkgf  -0.56173
gfz2014gkgs   0.38728
gfz2014gkhy   0.76755
gfz2014gkjl   1.39010
gfz2014gkjt  -0.09874
gfz2014gkjw  -1.88580
gfz2014gkok  -0.09753
gfz2014glcu   0.73274
gfz2014glcy   0.59240
gfz2014glov  -0.03056
gfz2014glsh   0.67204
gfz2014gltx   0.51725
gfz2014glvn  -0.10444
gfz2014glvu   0.93282
gfz2014glxy   0.23845
gfz2014gmci   1.31940
gfz2014gmhr  -1.29040
gfz2014gmzl   0.67392
gfz2014gmzs  -0.43077
gfz2014gnig  -0.22629
gfz2014gnnt   0.66753
gfz2014gnre   1.86880
gfz2014gnvw   0.32957
gfz2014gnwg   1.50510
gfz2014gnxb   0.69116
gfz2014goba  -0.17026
gfz2014gphr  -0.10114
gfz2014gpya   0.29854
gfz2014grcv  -0.06880
gfz2014grgn  -0.15227
gfz2014grho  -0.40196
gfz2014gsqs   0.97390
gfz2014gutm   0.26327
gfz2014gvhw  -0.45324
gfz2014gwgf  -0.15612
gfz2014gxkh   0.53416
gfz2014gxxh  -0.16722
gfz2014gxxo   0.92864
gfz2014gyxd  -0.27130
gfz2014hagb   0.81564
gfz2014hasj   0.14051
gfz2014hauo   0.31470
gfz2014hbqb   0.10721
gfz2014hcmj   0.23207
gfz2014hcns  -0.05643
gfz2014hfhl   0.10171
gfz2014hjgh   0.36646
gfz2014hjgr   0.35220
gfz2014hjij   0.86824
gfz2014hjlx   0.70551
gfz2014hkcf   0.52867
gfz2014hkck   0.22662
gfz2014hoap  -0.59417
gfz2014hocg   0.04233
gfz2014hphw   0.57957
gfz2014hqxs   0.42642
gfz2014hrft  -0.17681
gfz2014hriu  -0.43544
gfz2014hrtn   1.26700
gfz2014hscz   0.09502
gfz2014huaj   1.32460
gfz2014hyal   1.80230
gfz2014hymr   0.12390
gfz2014iani   0.49643
gfz2014icqt   0.38314
gfz2014ifue  -0.02756
gfz2014imnn   0.48240
gfz2014inbj   0.73598
gfz2014irci   1.16510
gfz2014issk   0.41890
gfz2014isys   1.46120
gfz2014itab   1.19690
gfz2014itbe   0.27731
gfz2014itgh   0.63394
gfz2014itjx   0.04583
gfz2014itkw   0.73778
gfz2014itpj   0.99977
gfz2014iuhq   1.00690
gfz2014iwnf   0.45599
gfz2014ixga  -0.60540
gfz2014iywt   0.58271
gfz2014jagg   0.05139
gfz2014jatq   0.18302
gfz2014jcjt   0.12850
gfz2014jfis   0.40575
gfz2014jjhc  -0.21976
gfz2014jkxe  -0.16866
gfz2014jmnk  -0.67878
gfz2014jnxm  -0.12769
gfz2014jnyv   0.04572
gfz2014jomw   0.53911
gfz2014jpep   0.55832
gfz2014jpxs   1.23470
gfz2014jwmh   0.59549
gfz2014kara  -0.50506
gfz2014kbuk  -0.68681
gfz2014khan   0.24375
gfz2014khlk  -0.92296
gfz2014kjzb  -1.85800
gfz2014kkhh   1.93280
gfz2014kmmt  -0.08143
gfz2014kndc   0.04157
gfz2014knks  -0.06432
gfz2014knxs  -0.49208
gfz2014ksdv  -0.55092
gfz2014ksmz   0.80022
gfz2014kwrg   1.51550
gfz2014kyan   0.45192
gfz2014kytf   0.23728
gfz2014kzzm   0.90875
gfz2014lddn  -2.32450
gfz2014lefs  -0.51026
gfz2014lehw   0.13477
gfz2014lgqn  -0.70216
gfz2014lhqn   0.14906
gfz2014lkyf  -0.05417
gfz2014lmge  -0.03444
gfz2014lnqy  -0.26170
gfz2014lpim  -0.13434
gfz2014lrzx   0.11514
gfz2014lurd  -2.11190
gfz2014lxnc  -0.13199
gfz2014lyhk   0.87236
gfz2014lyhp   0.43235
gfz2014lynp   0.64389
gfz2014lzow   0.79994
gfz2014macx   0.28377
gfz2014madw   0.50943
gfz2014mcno   0.70862
gfz2014mcse   1.43310
gfz2014moaw  -0.18311
gfz2014mtum  -0.08448
gfz2014mwor  -0.60287
gfz2014mxkr   0.04820
gfz2014navw   0.12464
gfz2014nhyb   0.84208
gfz2014nkdx   0.51222
gfz2014nnxd  -0.16087
gfz2014nowp  -0.33584
gfz2014npdk  -0.05948
gfz2014npeo  -0.54872
gfz2014nphm   0.24577
gfz2014nqfm   0.21630
gfz2014nrie  -0.27327
gfz2014ntdh   0.12201
gfz2014nyeh   0.99209
gfz2014nyfb  -0.10596
gfz2014nylm   0.60808
gfz2014odgv   0.75078
gfz2014oinz   0.13294
gfz2014omyn   0.95067
gfz2014oqhw   1.42860
gfz2014orxs   0.62174
gfz2014oryw   0.15470
gfz2014osvx  -0.17964
gfz2014osvz  -1.82290
gfz2014owxc  -0.17657
gfz2014oyly   0.24433
gfz2014pkll  -0.94120
gfz2014ppzf  -0.02416
gfz2014pqrc  -0.16710
gfz2014pvch   0.25760
gfz2014pzml   0.34054
gfz2014pzni   0.42186
gfz2014qlvc  -0.19344
gfz2014qlxd  -0.14625
gfz2014qngj  -0.52984
gfz2014qqhm  -0.96407
gfz2014raau  -0.54241
gfz2014rdsn  -1.11280
gfz2014rfeb   0.05399
gfz2014rghp  -0.48803
gfz2014riel   0.08378
gfz2014rils   0.14612
gfz2014romy  -0.73466
gfz2014rtcu   0.30997
gfz2014ryfb  -0.19597
gfz2014sadu   0.37002
gfz2014shid   0.15423
gfz2014sjqw  -0.33654
gfz2014sptq  -1.24160
gfz2014sryn  -0.17616
gfz2014ssds   0.77820
gfz2014ssmv  -1.02090
gfz2014ssvz  -0.77256
gfz2014szzf   0.01430
gfz2014tabg  -0.20285
gfz2014tovs  -0.07079
gfz2014tqdo  -0.29988
gfz2014tqly   0.71309
gfz2014tqsf   0.49500
gfz2014tzsd   0.14462
gfz2014ubwn   0.05315
gfz2014uohh  -0.21571
gfz2014utac  -0.56139
gfz2014uvji  -0.25757
gfz2014uvrk  -0.91683
gfz2014uxyg  -1.98280
gfz2014uyrq  -0.30272
gfz2014vcev  -0.97272
gfz2014vhld   0.39708
gfz2014vhms  -0.38594
gfz2014vjoz   0.17128
gfz2014vpus  -0.75167
gfz2014vqqa   2.77140
gfz2014waoo  -0.88792
gfz2014watn  -0.26271
gfz2014wqcp   0.01922
gfz2014wrkh  -1.06350
gfz2014wwib   0.37620
gfz2014xjri   0.08093
gfz2014xoji   0.68173
gfz2014xqby  -0.21331
gfz2014ynhc   0.89557
gfz2015aqbq  -0.02134
gfz2015arpd  -0.01705
gfz2015aruz  -0.35371
gfz2015atxv  -0.22293
gfz2015berb   0.34083
gfz2015bkbj   0.21713
gfz2015bphe   2.57050
gfz2015byfn  -0.17419
gfz2015byjd  -0.56509
gfz2015evpl   0.35262
gfz2015eyqs   0.73802
gfz2015fbbk   0.36691
gfz2015fbew  -1.40510
gfz2015fcua   0.47591
gfz2015fdpr   0.07100
gfz2015fjhk   0.49286
gfz2015fkbc   0.84199
gfz2015fkgt  -0.55491
gfz2015fkic  -0.72296
gfz2015fkkd  -0.00000
gfz2015fpez  -0.32773
gfz2015fsjj  -0.08575
gfz2015fwnf  -0.07611
gfz2015fxbv   0.54202
gfz2015fxdi  -0.08706
gfz2015fyvk   0.41371
gfz2015gckd  -0.23530
gfz2015ggjw   0.05901
gfz2015gjbr   0.41582
gfz2015hdbn  -3.79700
gfz2015hdcp  -0.18294
gfz2015hgbk   0.21105
gfz2015hhbd  -0.25583
gfz2015hlqo   0.27021
gfz2015hpmk   0.49226
gfz2015hvgs   0.60524
gfz2015igsy   1.00400
gfz2015imty   0.39777
gfz2015imyp   0.60478
gfz2015isim   0.02014
gfz2015ixyy  -0.68325
gfz2015jmlf   0.89229
gfz2015jmlu   0.62634
gfz2015jpap  -2.46260
gfz2015jwgl  -0.76143
gfz2015jxbx  -0.28181
gfz2015jzcv   0.44564
gfz2015kakw  -0.16298
gfz2015kalm   0.71625
gfz2015kcaa   0.30211
gfz2015kkth   0.14485
gfz2015kphk   0.83354
gfz2015kquq   0.77924
gfz2015ksni  -0.45976
gfz2015kvwz   0.26503
gfz2015lcma  -0.39423
gfz2015lfma   0.79382
gfz2015lfud   0.22766
gfz2015lhjq   0.01885
gfz2015lhjy   0.33648
gfz2015ltii   0.75975
gfz2015ltro   1.05180
gfz2015lytv  -1.43290
gfz2015lzad  -0.69840
gfz2015mddr   0.25805
gfz2015mfpy   0.10885
gfz2015mhym   1.95340
gfz2015mpte  -0.88842
gfz2015nerz  -0.69776
gfz2015nqgf   0.23406
gfz2015ntpk  -0.29817
gfz2015nuxz  -0.52207
gfz2015nwug  -0.29272
gfz2015ocdz  -0.67318
gfz2015ofpd   0.76973
gfz2015okmq   0.17112
gfz2015okpu   0.83266
gfz2015orkl   0.08587
gfz2015othd   0.15415
gfz2015oyfl  -0.32707
gfz2015pcvt  -0.04283
gfz2015pdri   0.50486
gfz2015plal   0.09771
gfz2015poni  -0.43710
gfz2015puah  -0.08833
gfz2015puqp  -0.58416
gfz2015qafb  -0.18442
gfz2015qiit  -0.07518
gfz2015qnho  -0.33509
gfz2015qnlv  -0.38626
gfz2015qnto  -0.40664
gfz2015qols   0.88833
gfz2015qprd   0.40371
gfz2015qpvd   0.18505
gfz2015quzo  -0.40770
gfz2015rgov   0.70518
gfz2015rgrg   0.04207
gfz2015rkbq   0.02116
gfz2015rkrg  -0.87430
gfz2015rkzg   0.11535
gfz2015roac   0.11221
gfz2015rwsb  -1.41690
gfz2015rxmg  -1.01930
gfz2015saet   0.32631
gfz2015sdfy   0.16535
gfz2015seuf   0.49558
gfz2015sfdd  -1.24060
gfz2015sfdl  -0.57244
gfz2015sfdv   0.30692
gfz2015sfdy  -0.64663
gfz2015sfeo  -0.35553
gfz2015sffn  -0.71391
gfz2015sfga  -1.30530
gfz2015sfhz  -0.75621
gfz2015sfiq  -1.74070
gfz2015sfkh  -0.37841
gfz2015sfko  -0.95780
gfz2015sfks  -0.26206
gfz2015sfkz  -0.58676
gfz2015sflf  -0.32534
gfz2015sfln  -1.00310
gfz2015sfmd   1.31160
gfz2015sfnb  -0.63210
gfz2015sfno  -1.93510
gfz2015sfnv  -0.07543
gfz2015sfoc  -1.04090
gfz2015sfoh  -0.24050
gfz2015sfoq   0.67099
gfz2015sfpj   0.05779
gfz2015sfps  -0.45898
gfz2015sfqo  -0.46566
gfz2015sfqr  -1.07220
gfz2015sfrc  -1.50660
gfz2015sfrf   0.11158
gfz2015sfsi   1.45150
gfz2015sfte  -0.30510
gfz2015sftu  -0.77696
gfz2015sfuc  -0.48508
gfz2015sfuz   0.26607
gfz2015sfwf   0.33949
gfz2015sfxn  -0.24621
gfz2015sfzm   0.57371
gfz2015sgad  -0.34688
gfz2015sgdn  -0.65528
gfz2015sggc   0.32911
gfz2015sghq  -1.41370
gfz2015sgmm  -0.54620
gfz2015sgmr   0.61297
gfz2015sgxc   0.14062
gfz2015sgyd  -0.19639
gfz2015shaq  -0.51206
gfz2015shhg   0.14294
gfz2015shhu   0.00000
gfz2015shjn  -0.90427
gfz2015shjo  -0.50742
gfz2015shlp  -0.58944
gfz2015shqe  -1.28230
gfz2015shrg  -0.66018
gfz2015shsz  -0.16428
gfz2015sicf  -0.74313
gfz2015siem   0.71150
gfz2015siky  -0.68167
gfz2015sing  -0.32930
gfz2015siof   0.14897
gfz2015sist  -1.52090
gfz2015sitn  -0.00863
gfz2015sixi   0.18950
gfz2015siyy  -0.65775
gfz2015sjbx  -0.96110
gfz2015sjeq   1.24620
gfz2015sjfi   0.45884
gfz2015sjgk  -0.48734
gfz2015sjjb   0.73924
gfz2015sjne  -0.32675
gfz2015sjoj  -0.56430
gfz2015sjpn  -0.54488
gfz2015sjvu  -0.35778
gfz2015sjwi  -1.16830
gfz2015skab  -1.24740
gfz2015skgj  -0.35832
gfz2015skhf  -3.13010
gfz2015sklu  -0.36519
gfz2015skpv   0.20907
gfz2015skuk  -0.41711
gfz2015skxu  -0.34329
gfz2015sldx  -1.06390
gfz2015slfn   0.20683
gfz2015sljs  -1.29220
gfz2015slun   0.35529
gfz2015smgj  -0.34128
gfz2015smym  -0.49894
gfz2015snhn   0.13290
gfz2015snmg   0.23854
gfz2015snmr  -0.95850
gfz2015snsf  -0.34438
gfz2015snwh  -1.68850
gfz2015snyd  -0.01613
gfz2015soat  -0.05458
gfz2015sopc   0.50817
gfz2015soxc  -1.35300
gfz2015sqbg   0.08196
gfz2015sqmy  -0.24300
gfz2015sqvx   0.52171
gfz2015srat  -0.26623
gfz2015ssrl   0.05780
gfz2015stfy   0.06483
gfz2015stso  -0.17860
gfz2015subz  -0.12822
gfz2015supa  -0.28590
gfz2015susq   0.02590
gfz2015svjy  -0.80747
gfz2015svwm  -0.95834
gfz2015swgn   0.56379
gfz2015swjx   0.61561
gfz2015swnc  -1.13330
