# Nsamples: 155  MAD:  0.728  mean:  1.086  variance:  2.752
gfz2010bfzs   1.85760
gfz2010bjeb   0.56533
gfz2010bxxs   0.13081
gfz2010cqwl   1.95210
gfz2010czps   1.19660
gfz2010eaoy   1.10540
gfz2010eapk   0.15016
gfz2010eapn   1.81520
gfz2010eaqe  -1.93010
gfz2010eaqy   0.44987
gfz2010earu   1.67950
gfz2010easo   0.60415
gfz2010eavs   1.05360
gfz2010eawb  -0.65772
gfz2010eawu  -1.87010
gfz2010eaxa   1.58570
gfz2010ebhc   0.07083
gfz2010ebnn   0.85158
gfz2010ebvv   1.56990
gfz2010ebzr   1.09740
gfz2010ecps   1.69170
gfz2010ecua   1.69760
gfz2010eegn  -1.20370
gfz2010eisx  -0.16066
gfz2010ejjg   0.48516
gfz2010ekyc   0.31442
gfz2010elhv   1.87570
gfz2010eltf  -3.23700
gfz2010elyc   1.42910
gfz2010eqjg   2.02010
gfz2010excp   0.81441
gfz2010exdd   1.29420
gfz2010fczt   0.22040
gfz2010fpqy  -0.56097
gfz2010hxgv   2.35550
gfz2010iobp   1.36380
gfz2010iqnm   2.35350
gfz2010iull   1.09950
gfz2010jxbm   0.35620
gfz2010pcxi   0.65693
gfz2010pxls  -0.51379
gfz2010rqwj   3.59610
gfz2010upfb   1.05700
gfz2011aatr   1.13450
gfz2011adjs   1.64470
gfz2011aeay   3.98120
gfz2011alip   1.70380
gfz2011cykd   1.70930
gfz2011dbig   2.31760
gfz2011dcqb   0.79721
gfz2011dpqx  -0.20859
gfz2011enva   1.11460
gfz2011gkzt   0.02701
gfz2011hlqw   1.40290
gfz2011hlsa   1.51900
gfz2011mdie   0.44029
gfz2011nudm   0.97108
gfz2011olkk   1.89830
gfz2011rewa   0.78953
gfz2011ujze   0.38374
gfz2011vhfi   1.16410
gfz2011wxfs   1.46210
gfz2012bpkx   0.31939
gfz2012dyyh   1.18860
gfz2012enno   0.35216
gfz2012ewgo   0.50092
gfz2012fzfa   0.26331
gfz2012hnul  -0.12134
gfz2012jlox   0.83291
gfz2012kbzj   0.76975
gfz2012kkup   1.16250
gfz2012kudo   1.13210
gfz2012lczo   2.16320
gfz2012ldxg   0.67746
gfz2012lxkv   0.62328
gfz2012minr   0.82128
gfz2012pgcl   0.81042
gfz2012rwov   1.69130
gfz2012ttoa   1.20700
gfz2012vrgb   0.91203
gfz2012wklq   1.49010
gfz2012wypz   0.91577
gfz2013axoj   3.01900
gfz2013ccnr   3.20280
gfz2013drxz   1.16220
gfz2013ldqb   0.94962
gfz2013lyko   2.48070
gfz2013ncjp   1.29250
gfz2013nkgj   0.45002
gfz2013nwdi   0.61492
gfz2013ojti  -1.81080
gfz2013qmer   0.43765
gfz2013qzdq   1.49390
gfz2013rdoo  -1.94270
gfz2013svci   1.00550
gfz2013vjjc   1.40980
gfz2013wjmm   0.93648
gfz2013yqkv   1.83670
gfz2014algk   1.02090
gfz2014bzxy   1.32850
gfz2014ehfp  -0.59712
gfz2014enhi   1.14990
gfz2014fgvi   1.20240
gfz2014ftka   1.96770
gfz2014gbcz   1.29310
gfz2014gkgf   0.97623
gfz2014gkgs   1.50080
gfz2014gmge   1.17880
gfz2014gmhr   0.73269
gfz2014goba   0.79230
gfz2014hasj   0.84364
gfz2014hocg   0.90764
gfz2014jjhc   1.76130
gfz2014kytf  -1.22930
gfz2014lgqn   1.58080
gfz2014npeo   1.09510
gfz2014nqfm   1.42660
gfz2014nrie   1.42740
gfz2014qlxd   1.15980
gfz2014qngj   0.93103
gfz2014rdsn   1.05540
gfz2014ssvz   0.31295
gfz2014tqdo   1.04010
gfz2014watn   0.28920
gfz2015berb   1.14710
gfz2015chhn   0.69786
gfz2015cyjd   1.21120
gfz2015dvbn   1.33630
gfz2015fsjj   0.95934
gfz2015gckd   0.98567
gfz2015kfsu   0.10645
gfz2015lhjy   1.21000
gfz2015lytv   1.73980
gfz2015mpte   1.27190
gfz2015oyfl   0.25382
gfz2015qnho   0.44575
gfz2015sfdd   0.45554
gfz2015sfdy   1.65370
gfz2015sfiq   3.59750
gfz2015sfnb  -0.37499
gfz2015sfno   2.45340
gfz2015sghq   0.05638
gfz2015sjgk   0.75583
gfz2015sjoj   1.89320
gfz2015smym  -0.21833
gfz2015snsf   1.64010
gfz2015snwh   1.09660
gfz2015snyd   1.48750
gfz2015soat   1.83150
gfz2015soxc  17.47200
gfz2015svwm   0.88457
gfz2015taml   2.36080
gfz2015tiyc   0.38806
gfz2015tlkf   2.20460
gfz2015tnjd   1.38790
