# Nsamples: 33  MAD:  0.667  mean:  0.474  variance:  0.609
gfz2010bjeb   1.37020
gfz2010eaoy   1.14610
gfz2010eltf   0.27169
gfz2010ftlm   0.17292
gfz2010grjd  -0.09395
gfz2010iull   0.39514
gfz2010rqwj   3.09500
gfz2011csju  -0.58151
gfz2011hlqw   0.84495
gfz2011hlsa   0.45528
gfz2011lcxq  -0.61963
gfz2011lzwj   0.37680
gfz2011mdie   1.22290
gfz2011owvz   0.47347
gfz2011rewa   0.53387
gfz2011toub   0.37843
gfz2011wxfs  -0.03378
gfz2012ttoa   1.16710
gfz2012wypz   0.43597
gfz2013ccnr   1.44680
gfz2013drxz   0.97800
gfz2013nkgj  -0.20114
gfz2013nwdi  -0.97191
gfz2013qmer  -0.58166
gfz2013svci   0.12151
gfz2014fgvi   0.30483
gfz2014fhla   0.97345
gfz2014ftka   0.36638
gfz2014lxnc  -0.71087
gfz2015cyjd   1.35050
gfz2015lhjy   0.08901
gfz2015lytv   0.80200
gfz2015mpte   0.66384
