# Nsamples: 36  MAD:  0.468  mean:  0.063  variance:  0.841
gfz2010excp  -0.22102
gfz2010exdd   1.04080
gfz2010iull   0.70598
gfz2010nmpc   0.42905
gfz2011aatr   0.38261
gfz2011dcqb  -2.96810
gfz2011lzwj  -0.08860
gfz2011olkk  -3.14830
gfz2011toub   0.14912
gfz2012enno   0.19771
gfz2012jlox   0.25018
gfz2012kkup   0.41579
gfz2012kudo   0.60720
gfz2012ttoa  -1.26560
gfz2012uaqj   0.06500
gfz2012wypz   0.20987
gfz2013ccnr   1.10510
gfz2013drxz   0.33408
gfz2013jkut   1.10110
gfz2013nwdi  -0.43027
gfz2013svci   0.32664
gfz2014gkgf   0.31820
gfz2014gmhr   0.47254
gfz2014hgqo  -0.90678
gfz2014jcmt  -0.24061
gfz2014kwie   0.90421
gfz2014ssvz   0.95362
gfz2015fsjj   0.49470
gfz2015lhjy   0.07220
gfz2015lytv   1.01960
gfz2015sfdd  -0.08303
gfz2015sfdy  -0.20839
gfz2015slun  -0.36569
gfz2015snwh   0.11754
gfz2015soxc   0.33956
gfz2015svwm   0.17728
