%!PS-Adobe-3.0
%%BoundingBox: 0 0 204 652
%%HiResBoundingBox: 0 0 204.094 651.969
%%Title: GMT v5.2.1 (r15220) [64-bit] [MP] Document from psxy
%%Creator: GMT5
%%For: nooshiri
%%DocumentNeededResources: font Helvetica
%%CreationDate: Wed Mar 30 13:27:59 2016
%%LanguageLevel: 2
%%DocumentData: Clean7Bit
%%Orientation: Portrait
%%Pages: 1
%%EndComments

%%BeginProlog
250 dict begin
/! {bind def} bind def
/# {load def}!
/A /setgray #
/B /setdash #
/C /setrgbcolor #
/D /rlineto #
/E {dup stringwidth pop}!
/F /fill #
/G /rmoveto #
/H /sethsbcolor #
/I /setpattern #
/K /setcmykcolor #
/L /lineto #
/M /moveto #
/N /newpath #
/P /closepath #
/R /rotate #
/S /stroke #
/T /translate #
/U /grestore #
/V /gsave #
/W /setlinewidth #
/Y {findfont exch scalefont setfont}!
/Z /show #
/FP {true charpath flattenpath}!
/MU {matrix setmatrix}!
/MS {/SMat matrix currentmatrix def}!
/MR {SMat setmatrix}!
/edef {exch def}!
/FS {/fc edef /fs {V fc F U} def}!
/FQ {/fs {} def}!
/O0 {/os {N} def}!
/O1 {/os {P S} def}!
/FO {fs os}!
/Sa {M MS dup 0 exch G 0.726542528 mul -72 R dup 0 D 4 {72 R dup 0 D -144 R dup 0 D} repeat pop MR FO}!
/Sb {M dup 0 D exch 0 exch D neg 0 D FO}!
/SB {MS T /BoxR edef /BoxW edef /BoxH edef BoxR 0 M
  BoxW 0 BoxW BoxH BoxR arct BoxW BoxH 0 BoxH BoxR arct 0 BoxH 0 0 BoxR arct 0 0 BoxW 0 BoxR arct MR FO}!
/Sc {N 3 -1 roll 0 360 arc FO}!
/Sd {M 4 {dup} repeat 0 G neg dup dup D exch D D FO}!
/Se {N MS T R scale 0 0 1 0 360 arc MR FO}!
/Sg {M MS 22.5 R dup 0 exch G -22.5 R 0.765366865 mul dup 0 D 6 {-45 R dup 0 D} repeat pop MR FO}!
/Sh {M MS dup 0 G -120 R dup 0 D 4 {-60 R dup 0 D} repeat pop MR FO}!
/Si {M MS dup neg 0 exch G 60 R 1.732050808 mul dup 0 D 120 R 0 D MR FO}!
/Sj {M MS R dup -2 div 2 index -2 div G dup 0 D exch 0 exch D neg 0 D MR FO}!
/Sn {M MS dup 0 exch G -36 R 1.175570505 mul dup 0 D 3 {-72 R dup 0 D} repeat pop MR FO}!
/Sp {N 3 -1 roll 0 360 arc fs N}!
/SP {M {D} repeat FO}!
/Sr {M dup -2 div 2 index -2 div G dup 0 D exch 0 exch D neg 0 D FO}!
/SR {MS T /BoxR edef /BoxW edef /BoxH edef BoxR BoxW -2 div BoxH -2 div T BoxR 0 M
  BoxW 0 BoxW BoxH BoxR arct BoxW BoxH 0 BoxH BoxR arct 0 BoxH 0 0 BoxR arct 0 0 BoxW 0 BoxR arct MR FO}!
/Ss {M 1.414213562 mul dup dup dup -2 div dup G 0 D 0 exch D neg 0 D FO}!
/St {M MS dup 0 exch G -60 R 1.732050808 mul dup 0 D -120 R 0 D MR FO}!
/SV {0 exch M 0 D D D D D 0 D FO}!
/Sv {0 0 M D D 0 D D D D D 0 D D FO}!
/Sw {2 copy M 5 2 roll arc FO}!
/Sx {M 1.414213562 mul 5 {dup} repeat -2 div dup G D neg 0 G neg D S}!
/Sy {M dup 0 exch G dup -2 mul dup 0 exch D S}!
/S+ {M dup 0 G dup -2 mul dup 0 D exch dup G 0 exch D S}!
/S- {M dup 0 G dup -2 mul dup 0 D S}!
/sw {stringwidth pop}!
/sh {V MU 0 0 M FP pathbbox N 4 1 roll pop pop pop U}!
/sd {V MU 0 0 M FP pathbbox N pop pop exch pop U}!
/sH {V MU 0 0 M FP pathbbox N exch pop exch sub exch pop U}!
/sb {E exch sh}!
/bl {}!
/bc {E -2 div 0 G}!
/br {E neg 0 G}!
/ml {dup 0 exch sh -2 div G}!
/mc {dup E -2 div exch sh -2 div G}!
/mr {dup E neg exch sh -2 div G}!
/tl {dup 0 exch sh neg G}!
/tc {dup E -2 div exch sh neg G}!
/tr {dup E neg exch sh neg G}!
/mx {2 copy lt {exch} if pop}!
/PSL_xorig 0 def /PSL_yorig 0 def
/TM {2 copy T PSL_yorig add /PSL_yorig edef PSL_xorig add /PSL_xorig edef}!
/PSL_reencode {findfont dup length dict begin
  {1 index /FID ne {def}{pop pop} ifelse} forall
  exch /Encoding edef currentdict end definefont pop
}!
/PSL_eps_begin {
  /PSL_eps_state save def
  /PSL_dict_count countdictstack def
  /PSL_op_count count 1 sub def
  userdict begin
  /showpage {} def
  0 setgray 0 setlinecap 1 setlinewidth
  0 setlinejoin 10 setmiterlimit [] 0 setdash newpath
  /languagelevel where
  {pop languagelevel 1 ne {false setstrokeadjust false setoverprint} if} if
}!
/PSL_eps_end {
  count PSL_op_count sub {pop} repeat
  countdictstack PSL_dict_count sub {end} repeat
  PSL_eps_state restore
}!
/PSL_transp {
  /.setopacityalpha where {pop .setblendmode .setopacityalpha}{
  /pdfmark where {pop [ /BM exch /CA exch dup /ca exch /SetTransparency pdfmark}
  {pop pop} ifelse} ifelse
}!
/ISOLatin1+_Encoding [
/.notdef	/.notdef	/.notdef	/.notdef	/.notdef	/.notdef	/.notdef	/.notdef
/.notdef	/.notdef	/.notdef	/.notdef	/.notdef	/.notdef	/.notdef	/.notdef
/.notdef	/.notdef	/.notdef	/.notdef	/.notdef	/.notdef	/.notdef	/.notdef
/.notdef	/bullet		/ellipsis	/trademark	/emdash		/endash		/fi		/zcaron
/space		/exclam		/quotedbl	/numbersign	/dollar		/percent	/ampersand	/quoteright
/parenleft	/parenright	/asterisk	/plus		/comma		/minus		/period		/slash
/zero		/one		/two		/three		/four		/five		/six		/seven
/eight		/nine		/colon		/semicolon	/less		/equal		/greater	/question
/at		/A		/B		/C		/D		/E		/F		/G
/H		/I		/J		/K		/L		/M		/N		/O
/P		/Q		/R		/S		/T		/U		/V		/W
/X		/Y		/Z		/bracketleft	/backslash	/bracketright	/asciicircum	/underscore
/quoteleft	/a		/b		/c 		/d		/e		/f		/g
/h		/i		/j		/k		/l		/m		/n		/o
/p		/q		/r		/s		/t		/u		/v		/w
/x		/y		/z		/braceleft	/bar		/braceright	/asciitilde	/scaron
/OE		/dagger		/daggerdbl	/Lslash		/fraction	/guilsinglleft	/Scaron		/guilsinglright
/oe		/Ydieresis	/Zcaron		/lslash		/perthousand	/quotedblbase	/quotedblleft	/quotedblright
/dotlessi	/grave		/acute		/circumflex	/tilde		/macron		/breve		/dotaccent
/dieresis	/quotesinglbase	/ring		/cedilla	/quotesingle	/hungarumlaut	/ogonek		/caron
/space		/exclamdown	/cent		/sterling	/currency	/yen		/brokenbar	/section
/dieresis	/copyright	/ordfeminine	/guillemotleft	/logicalnot	/hyphen		/registered	/macron
/degree		/plusminus	/twosuperior	/threesuperior	/acute		/mu		/paragraph	/periodcentered
/cedilla	/onesuperior	/ordmasculine	/guillemotright	/onequarter	/onehalf	/threequarters	/questiondown
/Agrave		/Aacute		/Acircumflex	/Atilde		/Adieresis	/Aring		/AE		/Ccedilla
/Egrave		/Eacute		/Ecircumflex	/Edieresis	/Igrave		/Iacute		/Icircumflex	/Idieresis
/Eth		/Ntilde		/Ograve		/Oacute		/Ocircumflex	/Otilde		/Odieresis	/multiply
/Oslash		/Ugrave		/Uacute		/Ucircumflex	/Udieresis	/Yacute		/Thorn		/germandbls
/agrave		/aacute		/acircumflex	/atilde		/adieresis	/aring		/ae		/ccedilla
/egrave		/eacute		/ecircumflex	/edieresis	/igrave		/iacute		/icircumflex	/idieresis
/eth		/ntilde		/ograve		/oacute		/ocircumflex	/otilde		/odieresis	/divide
/oslash		/ugrave		/uacute		/ucircumflex	/udieresis	/yacute		/thorn		/ydieresis
] def
/PSL_font_encode 0 0 0 0 0 0 0 0 0 0 0 0 0 0 0 0 0 0 0 0 0 0 0 0 0 0 0 0 0 0 0 0 0 0 0 0 0 0 0 39 array astore def
/F0 {/Helvetica Y}!
/F1 {/Helvetica-Bold Y}!
/F2 {/Helvetica-Oblique Y}!
/F3 {/Helvetica-BoldOblique Y}!
/F4 {/Times-Roman Y}!
/F5 {/Times-Bold Y}!
/F6 {/Times-Italic Y}!
/F7 {/Times-BoldItalic Y}!
/F8 {/Courier Y}!
/F9 {/Courier-Bold Y}!
/F10 {/Courier-Oblique Y}!
/F11 {/Courier-BoldOblique Y}!
/F12 {/Symbol Y}!
/F13 {/AvantGarde-Book Y}!
/F14 {/AvantGarde-BookOblique Y}!
/F15 {/AvantGarde-Demi Y}!
/F16 {/AvantGarde-DemiOblique Y}!
/F17 {/Bookman-Demi Y}!
/F18 {/Bookman-DemiItalic Y}!
/F19 {/Bookman-Light Y}!
/F20 {/Bookman-LightItalic Y}!
/F21 {/Helvetica-Narrow Y}!
/F22 {/Helvetica-Narrow-Bold Y}!
/F23 {/Helvetica-Narrow-Oblique Y}!
/F24 {/Helvetica-Narrow-BoldOblique Y}!
/F25 {/NewCenturySchlbk-Roman Y}!
/F26 {/NewCenturySchlbk-Italic Y}!
/F27 {/NewCenturySchlbk-Bold Y}!
/F28 {/NewCenturySchlbk-BoldItalic Y}!
/F29 {/Palatino-Roman Y}!
/F30 {/Palatino-Italic Y}!
/F31 {/Palatino-Bold Y}!
/F32 {/Palatino-BoldItalic Y}!
/F33 {/ZapfChancery-MediumItalic Y}!
/F34 {/ZapfDingbats Y}!
/F35 {/Ryumin-Light-EUC-H Y}!
/F36 {/Ryumin-Light-EUC-V Y}!
/F37 {/GothicBBB-Medium-EUC-H Y}!
/F38 {/GothicBBB-Medium-EUC-V Y}!
/PSL_pathtextdict 26 dict def
/PSL_pathtext
  {PSL_pathtextdict begin
    /ydepth exch def
    /textheight exch def
    /just exch def
    /offset exch def
    /str exch def
    /pathdist 0 def
    /setdist offset def
    /charcount 0 def
    /justy just 4 idiv textheight mul 2 div neg ydepth sub def
    V flattenpath
	{movetoproc} {linetoproc}
	{curvetoproc} {closepathproc}
	pathforall
    U N
    end
  } def
PSL_pathtextdict begin
/movetoproc
  { /newy exch def /newx exch def
    /firstx newx def /firsty newy def
    /ovr 0 def
    newx newy transform
    /cpy exch def /cpx exch def
  } def
/linetoproc
  { /oldx newx def /oldy newy def
    /newy exch def /newx exch def
    /dx newx oldx sub def
    /dy newy oldy sub def
    /dist dx dup mul dy dup mul add sqrt def
    dist 0 ne
    { /dsx dx dist div ovr mul def
      /dsy dy dist div ovr mul def
      oldx dsx add oldy dsy add transform
      /cpy exch def /cpx exch def
      /pathdist pathdist dist add def
      {setdist pathdist le
	  {charcount str length lt
	      {setchar} {exit} ifelse}
	  { /ovr setdist pathdist sub def
	    exit}
	  ifelse
      } loop
    } if
  } def
/curvetoproc
  { (ERROR: No curveto's after flattenpath!)
    print
  } def
/closepathproc
  {firstx firsty linetoproc
    firstx firsty movetoproc
  } def
/setchar
  { /char str charcount 1 getinterval def
    /charcount charcount 1 add def
    /charwidth char stringwidth pop def
    V cpx cpy itransform T
      dy dx atan R
      0 justy M
      char show
      0 justy neg G
      currentpoint transform
      /cpy exch def /cpx exch def
    U /setdist setdist charwidth add def
  } def
end
/PSL_set_label_heights
{
  /PSL_n_labels_minus_1 PSL_n_labels 1 sub def
  /PSL_heights PSL_n_labels array def
  0 1 PSL_n_labels_minus_1
  { /psl_k exch def
    /psl_label PSL_label_str psl_k get def
    PSL_label_font psl_k get cvx exec
    psl_label sH /PSL_height edef
    PSL_heights psl_k PSL_height put
  } for
} def
%%%%%%%%%%%%%%%%%%% CURVED BASELINE TEXT PLACEMENT FUNCTIONS
/PSL_curved_path_labels
{ /psl_bits exch def
  /PSL_placetext psl_bits 2 and 2 eq def
  /PSL_clippath psl_bits 4 and 4 eq def
  /PSL_strokeline false def
  /PSL_fillbox psl_bits 128 and 128 eq def
  /PSL_drawbox psl_bits 256 and 256 eq def
  /PSL_n_paths1 PSL_n_paths 1 sub def
  /PSL_usebox PSL_fillbox PSL_drawbox or def
  PSL_clippath {clipsave N clippath} if
  /psl_k 0 def
  /psl_p 0 def
  0 1 PSL_n_paths1
  { /psl_kk exch def
    /PSL_n PSL_path_n  psl_kk get def
    /PSL_m PSL_label_n psl_kk get def
    /PSL_x PSL_path_x psl_k PSL_n getinterval def
    /PSL_y PSL_path_y psl_k PSL_n getinterval def
    /PSL_node_tmp PSL_label_node psl_p PSL_m getinterval def
    /PSL_angle_tmp PSL_label_angle psl_p PSL_m getinterval def
    /PSL_str_tmp PSL_label_str psl_p PSL_m getinterval def
    /PSL_fnt_tmp PSL_label_font psl_p PSL_m getinterval def
    PSL_curved_path_label
    /psl_k psl_k PSL_n add def
    /psl_p psl_p PSL_m add def
  } for
  PSL_clippath {PSL_eoclip} if N
} def
/PSL_curved_path_label
{
  /PSL_n1 PSL_n 1 sub def
  /PSL_m1 PSL_m 1 sub def
  PSL_CT_calcstringwidth
  PSL_CT_calclinedist
  PSL_CT_excludelabels
  PSL_CT_addcutpoints
  /PSL_nn1 PSL_nn 1 sub def
  /n 0 def
  /k 0 def
  /j 0 def
  /PSL_seg 0 def
  /PSL_xp PSL_nn array def
  /PSL_yp PSL_nn array def
  PSL_xp 0 PSL_xx 0 get put
  PSL_yp 0 PSL_yy 0 get put
  1 1 PSL_nn1
  { /i exch def
    /node_type PSL_kind i get def
    /j j 1 add def
    PSL_xp j PSL_xx i get put
    PSL_yp j PSL_yy i get put
    node_type 1 eq
    {n 0 eq
      {PSL_CT_drawline}
      {	PSL_CT_reversepath
	PSL_CT_textline} ifelse
      /j 0 def
      PSL_xp j PSL_xx i get put
      PSL_yp j PSL_yy i get put
    } if
  } for
  n 0 eq {PSL_CT_drawline} if
} def
/PSL_CT_textline
{ PSL_fnt k get cvx exec
  /PSL_height PSL_heights k get def
  PSL_placetext	{PSL_CT_placelabel} if
  PSL_clippath {PSL_CT_clippath} if
  /n 0 def /k k 1 add def
} def
/PSL_CT_calcstringwidth
{ /PSL_width_tmp PSL_m array def
  0 1 PSL_m1
  { /i exch def
    PSL_fnt_tmp i get cvx exec
    PSL_width_tmp i PSL_str_tmp i get stringwidth pop put
  } for
} def
/PSL_CT_calclinedist
{ /PSL_newx PSL_x 0 get def
  /PSL_newy PSL_y 0 get def
  /dist 0.0 def
  /PSL_dist PSL_n array def
  PSL_dist 0 0.0 put
  1 1 PSL_n1
  { /i exch def
    /PSL_oldx PSL_newx def
    /PSL_oldy PSL_newy def
    /PSL_newx PSL_x i get def
    /PSL_newy PSL_y i get def
    /dx PSL_newx PSL_oldx sub def
    /dy PSL_newy PSL_oldy sub def
    /dist dist dx dx mul dy dy mul add sqrt add def
    PSL_dist i dist put
  } for
} def
/PSL_CT_excludelabels
{ /k 0 def
  /PSL_width PSL_m array def
  /PSL_angle PSL_m array def
  /PSL_node PSL_m array def
  /PSL_str PSL_m array def
  /PSL_fnt PSL_m array def
  /lastdist PSL_dist PSL_n1 get def
  0 1 PSL_m1
  { /i exch def
    /dist PSL_dist PSL_node_tmp i get get def
    /halfwidth PSL_width_tmp i get 2 div PSL_gap_x add def
    /L_dist dist halfwidth sub def
    /R_dist dist halfwidth add def
    L_dist 0 gt R_dist lastdist lt and
    {
      PSL_width k PSL_width_tmp i get put
      PSL_node k PSL_node_tmp i get put
      PSL_angle k PSL_angle_tmp i get put
      PSL_str k PSL_str_tmp i get put
      PSL_fnt k PSL_fnt_tmp i get put
      /k k 1 add def
    } if
  } for
  /PSL_m k def
  /PSL_m1 PSL_m 1 sub def
} def
/PSL_CT_addcutpoints
{ /k 0 def
  /PSL_nc PSL_m 2 mul 1 add def
  /PSL_cuts PSL_nc array def
  /PSL_nc1 PSL_nc 1 sub def
  0 1 PSL_m1
  { /i exch def
    /dist PSL_dist PSL_node i get get def
    /halfwidth PSL_width i get 2 div PSL_gap_x add def
    PSL_cuts k dist halfwidth sub put
    /k k 1 add def
    PSL_cuts k dist halfwidth add put
    /k k 1 add def
  } for
  PSL_cuts k 100000.0 put
  /PSL_nn PSL_n PSL_m 2 mul add def
  /PSL_xx PSL_nn array def
  /PSL_yy PSL_nn array def
  /PSL_kind PSL_nn array def
  /j 0 def
  /k 0 def
  /dist 0.0 def
  0 1 PSL_n1
  { /i exch def
    /last_dist dist def
    /dist PSL_dist i get def
    k 1 PSL_nc1
    { /kk exch def
      /this_cut PSL_cuts kk get def
      dist this_cut gt
      { /ds dist last_dist sub def
	/f ds 0.0 eq {0.0} {dist this_cut sub ds div} ifelse def
	/i1 i 0 eq {0} {i 1 sub} ifelse def
	PSL_xx j PSL_x i get dup PSL_x i1 get sub f mul sub put
	PSL_yy j PSL_y i get dup PSL_y i1 get sub f mul sub put
	PSL_kind j 1 put
	/j j 1 add def
	/k k 1 add def
      } if
    } for
    dist PSL_cuts k get le
    {PSL_xx j PSL_x i get put PSL_yy j PSL_y i get put
      PSL_kind j 0 put
      /j j 1 add def
    } if
  } for
} def
/PSL_CT_reversepath
{PSL_xp j get PSL_xp 0 get lt
  {0 1 j 2 idiv
    { /left exch def
      /right j left sub def
      /tmp PSL_xp left get def
      PSL_xp left PSL_xp right get put
      PSL_xp right tmp put
      /tmp PSL_yp left get def
      PSL_yp left PSL_yp right get put
      PSL_yp right tmp put
    } for
  } if
} def
/PSL_CT_placelabel
{
  /PSL_just PSL_label_justify k get def
  /PSL_height PSL_heights k get def
  /psl_label PSL_str k get def
  /psl_depth psl_label sd def
  PSL_usebox
  {PSL_CT_clippath
    PSL_fillbox
    {V PSL_setboxrgb fill U} if
    PSL_drawbox
    {V PSL_setboxpen S U} if N
  } if
  PSL_CT_placeline psl_label PSL_gap_x PSL_just PSL_height psl_depth PSL_pathtext
} def
/PSL_CT_clippath
{
  /H PSL_height 2 div PSL_gap_y add def
  /xoff j 1 add array def
  /yoff j 1 add array def
  /angle 0 def
  0 1 j {
    /ii exch def
    /x PSL_xp ii get def
    /y PSL_yp ii get def
    ii 0 eq {
      /x1 PSL_xp 1 get def
      /y1 PSL_yp 1 get def
      /dx x1 x sub def
      /dy y1 y sub def
    }
    { /i1 ii 1 sub def
      /x1 PSL_xp i1 get def
      /y1 PSL_yp i1 get def
      /dx x x1 sub def
      /dy y y1 sub def
    } ifelse
    dx 0.0 eq dy 0.0 eq and not
    { /angle dy dx atan 90 add def} if
    /sina angle sin def
    /cosa angle cos def
    xoff ii H cosa mul put
    yoff ii H sina mul put
  } for
  PSL_xp 0 get xoff 0 get add PSL_yp 0 get yoff 0 get add M
  1 1 j {
    /ii exch def
    PSL_xp ii get xoff ii get add PSL_yp ii get yoff ii get add L
  } for
  j -1 0 {
    /ii exch def
    PSL_xp ii get xoff ii get sub PSL_yp ii get yoff ii get sub L
  } for P
} def
/PSL_CT_drawline
{
  /str 20 string def
  PSL_strokeline
  {PSL_CT_placeline S} if
  /PSL_seg PSL_seg 1 add def
  /n 1 def
} def
/PSL_CT_placeline
{PSL_xp 0 get PSL_yp 0 get M
  1 1 j { /ii exch def PSL_xp ii get PSL_yp ii get L} for
} def
%%%%%%%%%%%%%%%%%%% DRAW BASELINE TEXT SEGMENT LINES
/PSL_draw_path_lines
{
  /PSL_n_paths1 PSL_n_paths 1 sub def
  V
  /psl_start 0 def
  0 1 PSL_n_paths1
  { /psl_k exch def
    /PSL_n PSL_path_n psl_k get def
    /PSL_n1 PSL_n 1 sub def
    PSL_path_pen psl_k get cvx exec
    N
    PSL_path_x psl_start get PSL_path_y psl_start get M
    1 1 PSL_n1
    { /psl_i exch def
      /psl_kk psl_i psl_start add def
      PSL_path_x psl_kk get PSL_path_y psl_kk get L
    } for
    /psl_xclose PSL_path_x psl_kk get PSL_path_x psl_start get sub def
    /psl_yclose PSL_path_y psl_kk get PSL_path_y psl_start get sub def
    psl_xclose 0 eq psl_yclose 0 eq and { P } if
    S
    /psl_start psl_start PSL_n add def
  } for
  U
} def
%%%%%%%%%%%%%%%%%%% STRAIGHT BASELINE TEXT PLACEMENT FUNCTIONS
/PSL_straight_path_labels
{
  /psl_bits exch def
  /PSL_placetext psl_bits 2 and 2 eq def
  /PSL_rounded psl_bits 32 and 32 eq def
  /PSL_fillbox psl_bits 128 and 128 eq def
  /PSL_drawbox psl_bits 256 and 256 eq def
  /PSL_n_labels_minus_1 PSL_n_labels 1 sub def
  /PSL_usebox PSL_fillbox PSL_drawbox or def
  0 1 PSL_n_labels_minus_1
  { /psl_k exch def
    PSL_ST_prepare_text
    PSL_usebox
    {  PSL_rounded
        {PSL_ST_textbox_round}
        {PSL_ST_textbox_rect}
      ifelse
      PSL_fillbox {V PSL_setboxrgb fill U} if
      PSL_drawbox {V PSL_setboxpen S U} if
      N
    } if
    PSL_placetext {PSL_ST_place_label} if
  } for
} def
/PSL_straight_path_clip
{
  /psl_bits exch def
  /PSL_rounded psl_bits 32 and 32 eq def
  /PSL_n_labels_minus_1 PSL_n_labels 1 sub def
  N clipsave clippath
  0 1 PSL_n_labels_minus_1
  { /psl_k exch def
    PSL_ST_prepare_text
    PSL_rounded
      {PSL_ST_textbox_round}
      {PSL_ST_textbox_rect}
    ifelse
  } for
  PSL_eoclip N
} def
/PSL_ST_prepare_text
{
  /psl_xp PSL_txt_x psl_k get def
  /psl_yp PSL_txt_y psl_k get def
  /psl_label PSL_label_str psl_k get def
  PSL_label_font psl_k get cvx exec
  /PSL_height PSL_heights psl_k get def
  /psl_boxH PSL_height PSL_gap_y 2 mul add def
  /PSL_just PSL_label_justify psl_k get def
  /PSL_justx PSL_just 4 mod 1 sub 2 div neg def
  /PSL_justy PSL_just 4 idiv 2 div neg def
  /psl_SW psl_label stringwidth pop def
  /psl_boxW psl_SW PSL_gap_x 2 mul add def
  /psl_x0 psl_SW PSL_justx mul def
  /psl_y0 PSL_justy PSL_height mul def
  /psl_angle PSL_label_angle psl_k get def
} def
/PSL_ST_textbox_rect
{
  psl_xp psl_yp T psl_angle R psl_x0 psl_y0 T
  PSL_gap_x neg PSL_gap_y neg M
  0 psl_boxH D psl_boxW 0 D 0 psl_boxH neg D P
  psl_x0 neg psl_y0 neg T psl_angle neg R psl_xp neg psl_yp neg T
} def
/PSL_ST_textbox_round
{
  /psl_BoxR PSL_gap_x PSL_gap_y lt {PSL_gap_x} {PSL_gap_y} ifelse def
  /psl_xd PSL_gap_x psl_BoxR sub def
  /psl_yd PSL_gap_y psl_BoxR sub def
  /psl_xL PSL_gap_x neg def
  /psl_yB PSL_gap_y neg def
  /psl_yT psl_boxH psl_yB add def
  /psl_H2 PSL_height psl_yd 2 mul add def
  /psl_W2 psl_SW psl_xd 2 mul add def
  /psl_xR psl_xL psl_boxW add def
  /psl_x0 psl_SW PSL_justx mul def
  psl_xp psl_yp T psl_angle R psl_x0 psl_y0 T
  psl_xL psl_yd M
  psl_xL psl_yT psl_xR psl_yT psl_BoxR arct psl_W2 0 D
  psl_xR psl_yT psl_xR psl_yB psl_BoxR arct 0 psl_H2 neg D
  psl_xR psl_yB psl_xL psl_yB psl_BoxR arct psl_W2 neg 0 D
  psl_xL psl_yB psl_xL psl_yd psl_BoxR arct P
  psl_x0 neg psl_y0 neg T psl_angle neg R psl_xp neg psl_yp neg T
} def
/PSL_ST_place_label
{
    V psl_xp psl_yp T psl_angle R
    psl_SW PSL_justx mul psl_y0 M
    psl_label dup sd neg 0 exch G show
    U
} def
/PSL_nclip 0 def
/PSL_clip {clip /PSL_nclip PSL_nclip 1 add def} def
/PSL_eoclip {eoclip /PSL_nclip PSL_nclip 1 add def} def
/PSL_cliprestore {cliprestore /PSL_nclip PSL_nclip 1 sub def} def
%%EndProlog

%%BeginSetup
/PSLevel /languagelevel where {pop languagelevel} {1} ifelse def
PSLevel 1 gt { << /PageSize [204.094 651.969] /ImagingBBox null >> setpagedevice } if
%%EndSetup

%%Page: 1 1

%%BeginPageSetup
V 0.06 0.06 scale
%%EndPageSetup

/PSL_page_xsize 3402 def
/PSL_page_ysize 10866 def
0 A
FQ
O0
0 0 TM

% PostScript produced by:
%%GMT: psxy -R-174.0/-16.2/-171.5/-14.0r -JM2c -T -X0 -Y0 -K
%%PROJ: merc -174.00000000 -171.50000000 -16.20000000 -14.00000000 -139149.363 139149.363 -1815981.193 -1563885.697 +proj=merc +lon_0=-172.75 +k=1 +x_0=0 +y_0=0 +a=6378137.000 +b=6356752.314245 +ellps=WGS84 +datum=WGS84 +units=m +no_defs
%%BeginObject PSL_Layer_1
0 setlinecap
0 setlinejoin
3.32551 setmiterlimit
%%EndObject
0 A
FQ
O0
142 5669 TM

% PostScript produced by:
%%GMT: pscoast -R-174.0/-16.2/-171.5/-14.0r -JM2c -G150 -Di -N1 -Wthinnest -X0.3c -Y12.0c -O -K
%%PROJ: merc -174.00000000 -171.50000000 -16.20000000 -14.00000000 -139149.363 139149.363 -1815981.193 -1563885.697 +proj=merc +lon_0=-172.75 +k=1 +x_0=0 +y_0=0 +a=6378137.000 +b=6356752.314245 +ellps=WGS84 +datum=WGS84 +units=m +no_defs
%%BeginObject PSL_Layer_2
0 setlinecap
0 setlinejoin
3.32551 setmiterlimit
4 W
834 841 M
9 -2 D
20 5 D
42 -7 D
37 3 D
3 -1 D
0 17 D
-139 0 D
11 -1 D
P
{0.588 A} FS
FO
806 856 M
11 -1 D
17 -14 D
9 -2 D
20 5 D
42 -7 D
37 3 D
3 -1 D
S
88 93 M
9 -8 D
11 20 D
P
FO
106 136 M
7 -2 D
-5 7 D
P
FO
86 97 M
4 1 D
-4 0 D
P
FO
88 93 M
9 -8 D
11 20 D
P S
106 136 M
7 -2 D
-5 7 D
P S
86 97 M
4 1 D
-4 0 D
P S
%%EndObject
0 A
FQ
O0
0 0 TM

% PostScript produced by:
%%GMT: psbasemap -R-174.0/-16.2/-171.5/-14.0r -JM2c -B1000 '-Bewns+tSE Loc.' -O -K
%%PROJ: merc -174.00000000 -171.50000000 -16.20000000 -14.00000000 -139149.363 139149.363 -1815981.193 -1563885.697 +proj=merc +lon_0=-172.75 +k=1 +x_0=0 +y_0=0 +a=6378137.000 +b=6356752.314245 +ellps=WGS84 +datum=WGS84 +units=m +no_defs
%%BeginObject PSL_Layer_3
0 setlinecap
0 setlinejoin
3.32551 setmiterlimit
25 W
8 W
/PSL_H_y -33 PSL_font_encode 0 get 0 eq {ISOLatin1+_Encoding /Helvetica /Helvetica PSL_reencode PSL_font_encode 0 1 put} if
167 F0
(100\312) sh add def
472 856 PSL_H_y add M
(SE Loc.) bc Z
25 W
0 0 M
945 0 D
0 856 D
-945 0 D
0 -856 D
P S
%%EndObject
0 A
FQ
O0
0 0 TM

% PostScript produced by:
%%GMT: psxy -R-174.0/-16.2/-171.5/-14.0r -JM2c -Sf0.36/0.12+l+t -Gblack -O -K
%%PROJ: merc -174.00000000 -171.50000000 -16.20000000 -14.00000000 -139149.363 139149.363 -1815981.193 -1563885.697 +proj=merc +lon_0=-172.75 +k=1 +x_0=0 +y_0=0 +a=6378137.000 +b=6356752.314245 +ellps=WGS84 +datum=WGS84 +units=m +no_defs
%%BeginObject PSL_Layer_4
0 setlinecap
0 setlinejoin
3.32551 setmiterlimit
4 W
643 0 M
0 78 D
-8 43 D
-1 47 D
-10 70 D
-27 74 D
-19 31 D
-22 30 D
-38 44 D
-46 32 D
-43 40 D
-28 30 D
-42 19 D
-45 23 D
-38 24 D
-30 27 D
-38 19 D
-87 12 D
S
{0 A} FS
O1
10 setmiterlimit
50 -28 -50 -28 2 643 28 SP
52 -23 -46 -33 2 629 211 SP
56 8 -21 -53 2 553 376 SP
54 17 -12 -55 2 418 498 SP
50 27 -2 -57 2 263 593 SP
35 45 21 -53 2 93 647 SP
3.32551 setmiterlimit
%%EndObject
0 A
FQ
O0
0 0 TM

% PostScript produced by:
%%GMT: psxy -R-174.0/-16.2/-171.5/-14.0r -JM2c -Sc0.11 -Ct.cpt -Wthinnest,gray5 -O -K
%%PROJ: merc -174.00000000 -171.50000000 -16.20000000 -14.00000000 -139149.363 139149.363 -1815981.193 -1563885.697 +proj=merc +lon_0=-172.75 +k=1 +x_0=0 +y_0=0 +a=6378137.000 +b=6356752.314245 +ellps=WGS84 +datum=WGS84 +units=m +no_defs
%%BeginObject PSL_Layer_5
0 setlinecap
0 setlinejoin
3.32551 setmiterlimit
clipsave
0 0 M
945 0 D
0 856 D
-945 0 D
PSL_clip N
4 W
0.051 A
V
{1 0 0 C} FS
O1
26 365 391 Sc
26 348 334 Sc
{1 0.302 0 C} FS
26 332 271 Sc
{1 0.439 0 C} FS
26 41 656 Sc
{1 0 0 C} FS
26 554 44 Sc
{1 0.302 0 C} FS
26 354 328 Sc
{1 0 0 C} FS
26 343 368 Sc
26 315 317 Sc
{1 0.439 0 C} FS
26 513 375 Sc
{1 0 0 C} FS
26 304 317 Sc
{1 0.439 0 C} FS
26 27 420 Sc
{1 0.302 0 C} FS
26 808 288 Sc
{1 0 0 C} FS
26 377 361 Sc
26 314 401 Sc
{1 0.302 0 C} FS
26 632 133 Sc
{1 0 0 C} FS
26 442 465 Sc
26 769 385 Sc
{1 0.541 0 C} FS
26 113 411 Sc
{1 0.302 0 C} FS
26 240 5 Sc
{1 0 0 C} FS
26 184 472 Sc
{1 0.302 0 C} FS
26 404 277 Sc
{1 0.439 0 C} FS
26 127 220 Sc
{1 0 0 C} FS
26 65 432 Sc
{1 0.302 0 C} FS
26 309 14 Sc
{1 0 0 C} FS
26 249 357 Sc
{1 0.302 0 C} FS
26 66 105 Sc
{1 0 0 C} FS
26 725 260 Sc
{1 0.302 0 C} FS
26 143 505 Sc
{1 0.541 0 C} FS
26 224 297 Sc
{1 0.302 0 C} FS
26 160 420 Sc
{1 0 0 C} FS
26 448 43 Sc
{1 0.302 0 C} FS
26 329 257 Sc
{1 0 0 C} FS
26 343 414 Sc
26 430 253 Sc
26 359 345 Sc
26 625 522 Sc
26 260 391 Sc
{1 0.439 0 C} FS
26 107 667 Sc
{1 0 0 C} FS
26 262 485 Sc
26 273 383 Sc
26 348 260 Sc
{1 0.439 0 C} FS
26 88 54 Sc
26 22 374 Sc
{1 0.541 0 C} FS
26 229 348 Sc
{1 0 0 C} FS
26 175 387 Sc
26 381 254 Sc
{1 0.302 0 C} FS
26 99 88 Sc
{1 0.439 0 C} FS
26 112 21 Sc
26 99 380 Sc
{1 0 0 C} FS
26 592 186 Sc
{1 0.302 0 C} FS
26 572 474 Sc
26 683 268 Sc
26 871 348 Sc
26 149 243 Sc
{1 0 0 C} FS
26 498 459 Sc
26 141 474 Sc
{1 0.541 0 C} FS
26 251 451 Sc
{1 0 0 C} FS
26 309 357 Sc
26 232 374 Sc
26 271 380 Sc
26 188 88 Sc
26 442 226 Sc
{1 0.439 0 C} FS
26 70 295 Sc
{1 0 0 C} FS
26 780 402 Sc
26 177 477 Sc
26 514 226 Sc
26 271 425 Sc
26 249 437 Sc
{1 0.439 0 C} FS
26 528 154 Sc
{1 0 0 C} FS
26 769 180 Sc
{1 0.439 0 C} FS
26 60 397 Sc
{1 0 0 C} FS
26 303 73 Sc
26 704 176 Sc
26 453 88 Sc
26 321 94 Sc
26 520 431 Sc
{1 0.541 0 C} FS
26 268 343 Sc
{1 0.302 0 C} FS
26 177 454 Sc
26 69 228 Sc
{1 0 0 C} FS
26 397 304 Sc
26 296 303 Sc
26 359 294 Sc
{1 0.302 0 C} FS
26 190 416 Sc
{1 0 0 C} FS
26 171 431 Sc
{1 0.302 0 C} FS
26 293 420 Sc
{1 0 0 C} FS
26 354 402 Sc
{1 0.302 0 C} FS
26 442 408 Sc
{1 0.439 0 C} FS
26 94 14 Sc
26 131 333 Sc
{1 0.302 0 C} FS
26 459 237 Sc
26 370 414 Sc
{1 0 0 C} FS
26 171 420 Sc
{1 0.659 0 C} FS
26 268 320 Sc
{1 0 0 C} FS
26 376 414 Sc
{1 0.439 0 C} FS
26 664 77 Sc
U
PSL_cliprestore
%%EndObject
0 A
FQ
O0
0 0 TM

% PostScript produced by:
%%GMT: pstext -R-174.0/-16.2/-171.5/-14.0r -JM2c -F+f10p,Helvetica-Bold,BLACK+j -O -K rectangle_labels.txt
%%PROJ: merc -174.00000000 -171.50000000 -16.20000000 -14.00000000 -139149.363 139149.363 -1815981.193 -1563885.697 +proj=merc +lon_0=-172.75 +k=1 +x_0=0 +y_0=0 +a=6378137.000 +b=6356752.314245 +ellps=WGS84 +datum=WGS84 +units=m +no_defs
%%BeginObject PSL_Layer_6
0 setlinecap
0 setlinejoin
3.32551 setmiterlimit
clipsave
0 0 M
945 0 D
0 856 D
-945 0 D
PSL_clip N
907 778 M PSL_font_encode 1 get 0 eq {ISOLatin1+_Encoding /Helvetica-Bold /Helvetica-Bold PSL_reencode PSL_font_encode 1 1 put} if
167 F1
(1) tr Z
PSL_cliprestore
%%EndObject
0 A
FQ
O0
0 -1039 TM

% PostScript produced by:
%%GMT: pscoast -R-175.0/-21.5/-172.5/-19.4r -JM2c -G150 -Di -N1 -Wthinnest -X0 -Y-2.2c -O -K
%%PROJ: merc -175.00000000 -172.50000000 -21.50000000 -19.40000000 -139149.363 139149.363 -2435945.645 -2187900.510 +proj=merc +lon_0=-173.75 +k=1 +x_0=0 +y_0=0 +a=6378137.000 +b=6356752.314245 +ellps=WGS84 +datum=WGS84 +units=m +no_defs
%%BeginObject PSL_Layer_7
0 setlinecap
0 setlinejoin
3.32551 setmiterlimit
4 W
233 672 M
17 -1 D
-2 25 D
-5 -17 D
P
{0.588 A} FS
FO
217 636 M
3 -2 D
7 9 D
-5 8 D
P
FO
250 699 M
20 2 D
0 13 D
-20 -14 D
P
FO
262 740 M
14 -16 D
-10 21 D
P
FO
217 661 M
12 7 D
P
FO
189 747 M
6 3 D
-6 -2 D
P
FO
105 622 M
4 3 D
-4 -2 D
P
FO
217 653 M
4 -1 D
-4 2 D
P
FO
100 678 M
6 -1 D
-6 2 D
P
FO
166 672 M
5 -2 D
-5 3 D
P
FO
203 761 M
1 5 D
P
FO
192 616 M
5 2 D
-5 -1 D
P
FO
233 672 M
17 -1 D
-2 25 D
-5 -17 D
P S
217 636 M
3 -2 D
7 9 D
-5 8 D
P S
250 699 M
20 2 D
0 13 D
-20 -14 D
P S
262 740 M
14 -16 D
-10 21 D
P S
217 661 M
12 7 D
P S
189 747 M
6 3 D
-6 -2 D
P S
105 622 M
4 3 D
-4 -2 D
P S
217 653 M
4 -1 D
-4 2 D
P S
100 678 M
6 -1 D
-6 2 D
P S
166 672 M
5 -2 D
-5 3 D
P S
203 761 M
1 5 D
P S
192 616 M
5 2 D
-5 -1 D
P S
9 46 M
8 -15 D
18 -13 D
-3 71 D
-23 -39 D
P
FO
6 154 M
3 -3 D
1 6 D
-4 -2 D
P
FO
69 501 M
11 -6 D
3 13 D
P
FO
70 490 M
3 -4 D
-2 5 D
P
FO
116 589 M
4 -2 D
P
FO
173 441 M
5 5 D
-5 -4 D
P
FO
177 461 M
3 5 D
P
FO
83 597 M
5 -2 D
-3 5 D
P
FO
105 472 M
5 -4 D
P
FO
9 46 M
8 -15 D
18 -13 D
-3 71 D
-23 -39 D
P S
6 154 M
3 -3 D
1 6 D
-4 -2 D
P S
69 501 M
11 -6 D
3 13 D
P S
70 490 M
3 -4 D
-2 5 D
P S
116 589 M
4 -2 D
P S
173 441 M
5 5 D
-5 -4 D
P S
177 461 M
3 5 D
P S
83 597 M
5 -2 D
-3 5 D
P S
105 472 M
5 -4 D
P S
%%EndObject
0 A
FQ
O0
0 0 TM

% PostScript produced by:
%%GMT: psbasemap -R-175.0/-21.5/-172.5/-19.4r -JM2c -B1000 -Bewns -O -K
%%PROJ: merc -175.00000000 -172.50000000 -21.50000000 -19.40000000 -139149.363 139149.363 -2435945.645 -2187900.510 +proj=merc +lon_0=-173.75 +k=1 +x_0=0 +y_0=0 +a=6378137.000 +b=6356752.314245 +ellps=WGS84 +datum=WGS84 +units=m +no_defs
%%BeginObject PSL_Layer_8
0 setlinecap
0 setlinejoin
3.32551 setmiterlimit
25 W
8 W
25 W
0 0 M
945 0 D
0 842 D
-945 0 D
0 -842 D
P S
%%EndObject
0 A
FQ
O0
0 0 TM

% PostScript produced by:
%%GMT: psxy -R-175.0/-21.5/-172.5/-19.4r -JM2c -Sf0.36/0.12+l+t -Gblack -O -K
%%PROJ: merc -175.00000000 -172.50000000 -21.50000000 -19.40000000 -139149.363 139149.363 -2435945.645 -2187900.510 +proj=merc +lon_0=-173.75 +k=1 +x_0=0 +y_0=0 +a=6378137.000 +b=6356752.314245 +ellps=WGS84 +datum=WGS84 +units=m +no_defs
%%BeginObject PSL_Layer_9
0 setlinecap
0 setlinejoin
3.32551 setmiterlimit
4 W
450 0 M
15 32 D
31 84 D
10 21 D
31 77 D
11 36 D
55 118 D
11 21 D
50 110 D
28 69 D
31 87 D
10 24 D
23 99 D
18 64 D
S
{0 A} FS
O1
10 setmiterlimit
-29 -49 -28 49 2 478 0 SP
36 -44 -56 -9 2 528 194 SP
33 -46 -57 -5 2 600 360 SP
34 -45 -56 -7 2 675 524 SP
34 -45 -56 -7 2 739 693 SP
41 -38 -54 -17 2 780 870 SP
3.32551 setmiterlimit
%%EndObject
0 A
FQ
O0
0 0 TM

% PostScript produced by:
%%GMT: psxy -R-175.0/-21.5/-172.5/-19.4r -JM2c -Sc0.11 -Ct.cpt -Wthinnest,gray5 -O -K
%%PROJ: merc -175.00000000 -172.50000000 -21.50000000 -19.40000000 -139149.363 139149.363 -2435945.645 -2187900.510 +proj=merc +lon_0=-173.75 +k=1 +x_0=0 +y_0=0 +a=6378137.000 +b=6356752.314245 +ellps=WGS84 +datum=WGS84 +units=m +no_defs
%%BeginObject PSL_Layer_10
0 setlinecap
0 setlinejoin
3.32551 setmiterlimit
clipsave
0 0 M
945 0 D
0 842 D
-945 0 D
PSL_clip N
4 W
0.051 A
V
{1 0 0 C} FS
O1
26 394 31 Sc
{1 0.302 0 C} FS
26 494 836 Sc
26 495 53 Sc
{1 0 0 C} FS
26 175 52 Sc
{1 0.302 0 C} FS
26 285 656 Sc
{1 0 0 C} FS
26 405 654 Sc
26 300 173 Sc
26 387 465 Sc
26 376 489 Sc
26 423 509 Sc
26 459 506 Sc
{1 0.302 0 C} FS
26 487 521 Sc
26 459 518 Sc
{1 0 0 C} FS
26 472 543 Sc
{1 0.439 0 C} FS
26 341 511 Sc
{1 0 0 C} FS
26 508 511 Sc
{1 0.302 0 C} FS
26 521 508 Sc
{1 0 0 C} FS
26 318 451 Sc
26 463 464 Sc
26 408 628 Sc
{1 0.302 0 C} FS
26 531 671 Sc
{1 0 0 C} FS
26 388 379 Sc
{1 0.439 0 C} FS
26 466 567 Sc
26 430 581 Sc
{1 0 0 C} FS
26 698 736 Sc
{1 0.302 0 C} FS
26 178 243 Sc
26 199 180 Sc
{1 0 0 C} FS
26 416 61 Sc
26 282 130 Sc
26 705 410 Sc
{1 0.302 0 C} FS
26 328 502 Sc
{1 0 0 C} FS
26 510 402 Sc
26 339 296 Sc
{1 0.302 0 C} FS
26 406 383 Sc
{1 0 0 C} FS
26 667 348 Sc
26 754 443 Sc
26 510 25 Sc
26 405 161 Sc
{1 0.302 0 C} FS
26 311 55 Sc
{1 0 0 C} FS
26 283 114 Sc
{1 0.439 0 C} FS
26 175 134 Sc
{1 0 0 C} FS
26 532 502 Sc
26 339 438 Sc
26 261 267 Sc
26 521 666 Sc
26 337 310 Sc
{1 0.302 0 C} FS
26 254 162 Sc
{1 0 0 C} FS
26 431 168 Sc
26 350 149 Sc
26 289 226 Sc
26 543 391 Sc
26 438 320 Sc
{1 0.302 0 C} FS
26 351 271 Sc
{1 0 0 C} FS
26 438 684 Sc
26 466 349 Sc
{1 0.302 0 C} FS
26 422 361 Sc
{1 0 0 C} FS
26 494 355 Sc
{1 0.302 0 C} FS
26 312 374 Sc
{1 0 0 C} FS
26 452 158 Sc
26 510 361 Sc
26 516 343 Sc
{1 0.302 0 C} FS
26 238 732 Sc
{1 0 0 C} FS
26 485 311 Sc
{1 0.659 0 C} FS
26 452 663 Sc
{1 0 0 C} FS
26 372 302 Sc
26 278 208 Sc
26 527 531 Sc
{1 0.302 0 C} FS
26 549 485 Sc
{1 0 0 C} FS
26 627 438 Sc
{1 0.659 0 C} FS
26 117 508 Sc
{1 0 0 C} FS
26 638 666 Sc
26 449 49 Sc
26 245 143 Sc
{1 0.302 0 C} FS
26 261 149 Sc
{1 0 0 C} FS
26 638 619 Sc
26 449 613 Sc
{1 0.302 0 C} FS
26 119 324 Sc
{1 0.749 0 C} FS
26 20 687 Sc
{1 0.302 0 C} FS
26 394 690 Sc
U
PSL_cliprestore
%%EndObject
0 A
FQ
O0
0 0 TM

% PostScript produced by:
%%GMT: pstext -R-175.0/-21.5/-172.5/-19.4r -JM2c -F+f10p,Helvetica-Bold,BLACK+j -O -K rectangle_labels.txt
%%PROJ: merc -175.00000000 -172.50000000 -21.50000000 -19.40000000 -139149.363 139149.363 -2435945.645 -2187900.510 +proj=merc +lon_0=-173.75 +k=1 +x_0=0 +y_0=0 +a=6378137.000 +b=6356752.314245 +ellps=WGS84 +datum=WGS84 +units=m +no_defs
%%BeginObject PSL_Layer_11
0 setlinecap
0 setlinejoin
3.32551 setmiterlimit
clipsave
0 0 M
945 0 D
0 842 D
-945 0 D
PSL_clip N
907 762 M PSL_font_encode 1 get 0 eq {ISOLatin1+_Encoding /Helvetica-Bold /Helvetica-Bold PSL_reencode PSL_font_encode 1 1 put} if
167 F1
(2) tr Z
PSL_cliprestore
%%EndObject
0 A
FQ
O0
0 -1512 TM

% PostScript produced by:
%%GMT: pscoast -R+180.0/-22.5/-176.5/-19.4r -JM3c -G150 -Di -N1 -Wthinnest -X0 -Y-3.2c -O -K
%%PROJ: merc 180.00000000 183.50000000 -22.50000000 -19.40000000 -194809.109 194809.109 -2555318.012 -2187900.510 +proj=merc +lon_0=181.75 +k=1 +x_0=0 +y_0=0 +a=6378137.000 +b=6356752.314245 +ellps=WGS84 +datum=WGS84 +units=m +no_defs
%%BeginObject PSL_Layer_12
0 setlinecap
0 setlinejoin
3.32551 setmiterlimit
4 W
715 1149 M
12 7 D
-2 5 D
P
{0.588 A} FS
FO
715 1149 M
12 7 D
-2 5 D
P S
511 793 M
11 -2 D
-8 7 D
2 6 D
-5 -6 D
P
FO
522 804 M
5 -3 D
-5 4 D
P
FO
511 793 M
11 -2 D
-8 7 D
2 6 D
-5 -6 D
P S
522 804 M
5 -3 D
-5 4 D
P S
%%EndObject
0 A
FQ
O0
0 0 TM

% PostScript produced by:
%%GMT: psbasemap -R+180.0/-22.5/-176.5/-19.4r -JM3c -B1000 -Bewns -O -K
%%PROJ: merc 180.00000000 183.50000000 -22.50000000 -19.40000000 -194809.109 194809.109 -2555318.012 -2187900.510 +proj=merc +lon_0=181.75 +k=1 +x_0=0 +y_0=0 +a=6378137.000 +b=6356752.314245 +ellps=WGS84 +datum=WGS84 +units=m +no_defs
%%BeginObject PSL_Layer_13
0 setlinecap
0 setlinejoin
3.32551 setmiterlimit
25 W
8 W
25 W
0 0 M
1417 0 D
0 1337 D
-1417 0 D
0 -1337 D
P S
%%EndObject
0 A
FQ
O0
0 0 TM

% PostScript produced by:
%%GMT: psxy -R+180.0/-22.5/-176.5/-19.4r -JM3c -Sf0.36/0.12+l+t -Gblack -O -K
%%PROJ: merc 180.00000000 183.50000000 -22.50000000 -19.40000000 -194809.109 194809.109 -2555318.012 -2187900.510 +proj=merc +lon_0=181.75 +k=1 +x_0=0 +y_0=0 +a=6378137.000 +b=6356752.314245 +ellps=WGS84 +datum=WGS84 +units=m +no_defs
%%BeginObject PSL_Layer_14
0 setlinecap
0 setlinejoin
3.32551 setmiterlimit
4 W
%%EndObject
0 A
FQ
O0
0 0 TM

% PostScript produced by:
%%GMT: psxy -R+180.0/-22.5/-176.5/-19.4r -JM3c -Sc0.11 -Ct.cpt -Wthinnest,gray5 -O -K
%%PROJ: merc 180.00000000 183.50000000 -22.50000000 -19.40000000 -194809.109 194809.109 -2555318.012 -2187900.510 +proj=merc +lon_0=181.75 +k=1 +x_0=0 +y_0=0 +a=6378137.000 +b=6356752.314245 +ellps=WGS84 +datum=WGS84 +units=m +no_defs
%%BeginObject PSL_Layer_15
0 setlinecap
0 setlinejoin
3.32551 setmiterlimit
clipsave
0 0 M
1417 0 D
0 1337 D
-1417 0 D
PSL_clip N
4 W
0.051 A
V
{0.125 0.376 1 C} FS
O1
26 509 690 Sc
{0.498 1 1 C} FS
26 1011 1073 Sc
{0.125 0.376 1 C} FS
26 555 764 Sc
{0.498 1 1 C} FS
26 931 1032 Sc
{0.125 0.624 1 C} FS
26 848 856 Sc
26 626 689 Sc
{0.125 0.749 1 C} FS
26 998 942 Sc
{0.125 0.624 1 C} FS
26 1005 1092 Sc
{0.125 0.376 1 C} FS
26 1029 1173 Sc
26 208 274 Sc
{0.165 1 1 C} FS
26 599 414 Sc
{0.125 0.624 1 C} FS
26 620 657 Sc
{0.125 0.376 1 C} FS
26 836 1233 Sc
{0.165 1 1 C} FS
26 979 1258 Sc
{0.125 0.376 1 C} FS
26 219 236 Sc
{0.125 0.624 1 C} FS
26 979 1333 Sc
{0.125 0.376 1 C} FS
26 300 131 Sc
{0.165 1 1 C} FS
26 739 480 Sc
{0.125 0.376 1 C} FS
26 234 245 Sc
{0.498 1 1 C} FS
26 1198 191 Sc
{0 0.812 1 C} FS
26 353 118 Sc
{0.125 0.376 1 C} FS
26 457 108 Sc
26 270 105 Sc
{0.125 0.624 1 C} FS
26 780 916 Sc
{0.125 0.376 1 C} FS
26 350 692 Sc
{0.333 1 1 C} FS
26 887 676 Sc
{0.125 0.376 1 C} FS
26 217 175 Sc
{0.333 1 1 C} FS
26 919 1057 Sc
26 922 480 Sc
{0.125 0.376 1 C} FS
26 742 1157 Sc
26 350 414 Sc
26 439 572 Sc
{0.333 1 1 C} FS
26 964 1167 Sc
{0.125 0.376 1 C} FS
26 326 439 Sc
26 555 815 Sc
26 234 398 Sc
26 439 648 Sc
26 528 793 Sc
{0.333 1 1 C} FS
26 991 1220 Sc
{0.125 0.376 1 C} FS
26 276 309 Sc
26 329 277 Sc
26 525 682 Sc
26 386 742 Sc
{0 0.812 1 C} FS
26 922 790 Sc
{0.125 0.624 1 C} FS
26 685 878 Sc
{0.498 1 1 C} FS
26 1026 1019 Sc
{0.125 0.749 1 C} FS
26 988 1010 Sc
{0.125 0.376 1 C} FS
26 258 309 Sc
26 647 805 Sc
{0 0.812 1 C} FS
26 916 916 Sc
{0.125 0.376 1 C} FS
26 489 607 Sc
{0.125 0.624 1 C} FS
26 896 919 Sc
26 890 1051 Sc
{0.125 0.376 1 C} FS
26 329 398 Sc
{0.125 0.624 1 C} FS
26 365 143 Sc
26 578 550 Sc
26 952 1016 Sc
{0.498 1 1 C} FS
26 991 1170 Sc
{0.125 0.376 1 C} FS
26 217 226 Sc
{1 0.941 0 C} FS
26 1258 585 Sc
{0.125 0.376 1 C} FS
26 596 758 Sc
26 661 853 Sc
26 169 252 Sc
26 543 1022 Sc
{0.333 1 1 C} FS
26 974 1128 Sc
{0.125 0.376 1 C} FS
26 661 978 Sc
{0.125 0.749 1 C} FS
26 958 934 Sc
{0.125 0.624 1 C} FS
26 733 966 Sc
{0.125 0.376 1 C} FS
26 899 1211 Sc
26 329 341 Sc
{0.125 0.624 1 C} FS
26 658 780 Sc
{0.333 1 1 C} FS
26 919 1195 Sc
{0.125 0.624 1 C} FS
26 394 385 Sc
{0.125 0.376 1 C} FS
26 305 632 Sc
{0.125 0.624 1 C} FS
26 813 944 Sc
{0.125 0.376 1 C} FS
26 305 531 Sc
26 618 1052 Sc
26 786 1217 Sc
26 397 705 Sc
26 501 897 Sc
{0.125 0.624 1 C} FS
26 661 897 Sc
{1 0.749 0 C} FS
26 1284 372 Sc
{0.125 0.376 1 C} FS
26 389 701 Sc
{0.333 1 1 C} FS
26 988 790 Sc
{0.125 0.376 1 C} FS
26 264 461 Sc
26 374 931 Sc
26 282 398 Sc
{0.165 1 1 C} FS
26 813 1132 Sc
{0.125 0.749 1 C} FS
26 916 1016 Sc
{0.125 0.376 1 C} FS
26 406 777 Sc
26 199 379 Sc
26 614 771 Sc
{0.125 0.749 1 C} FS
26 1000 947 Sc
{0.125 0.376 1 C} FS
26 246 213 Sc
{1 0.659 0 C} FS
26 1381 186 Sc
{0.125 0.376 1 C} FS
26 234 322 Sc
{0.125 0.624 1 C} FS
26 1032 1151 Sc
26 632 664 Sc
{0 0.812 1 C} FS
26 970 1117 Sc
{0.125 0.376 1 C} FS
26 667 1217 Sc
26 175 233 Sc
{0 0.812 1 C} FS
26 985 1051 Sc
{0.125 0.376 1 C} FS
26 221 301 Sc
26 338 401 Sc
{0.125 0.624 1 C} FS
26 871 952 Sc
{0.125 0.376 1 C} FS
26 196 337 Sc
26 374 755 Sc
{0.333 1 1 C} FS
26 872 1308 Sc
{0.125 0.376 1 C} FS
26 528 956 Sc
{0.125 0.624 1 C} FS
26 596 638 Sc
26 756 909 Sc
26 881 1035 Sc
{0.125 0.376 1 C} FS
26 561 1004 Sc
26 709 752 Sc
{0.125 0.624 1 C} FS
26 478 486 Sc
{0.333 1 1 C} FS
26 1017 853 Sc
{0.125 0.376 1 C} FS
26 513 607 Sc
{0.125 0.624 1 C} FS
26 798 802 Sc
26 958 947 Sc
{0.125 0.749 1 C} FS
26 988 991 Sc
{0.125 0.376 1 C} FS
26 682 1095 Sc
{0 0.812 1 C} FS
26 896 793 Sc
{0.125 0.376 1 C} FS
26 463 799 Sc
{0.125 0.624 1 C} FS
26 314 388 Sc
{0.125 0.376 1 C} FS
26 203 253 Sc
{0.125 0.624 1 C} FS
26 771 975 Sc
26 911 1004 Sc
26 303 223 Sc
26 605 774 Sc
26 205 163 Sc
{1 0.941 0 C} FS
26 1287 1007 Sc
{0.125 0.376 1 C} FS
26 590 953 Sc
26 350 603 Sc
{1 0.659 0 C} FS
26 1385 302 Sc
{0.125 0.376 1 C} FS
26 219 108 Sc
26 644 783 Sc
{0.125 0.624 1 C} FS
26 374 452 Sc
26 651 782 Sc
{0.125 0.376 1 C} FS
26 325 637 Sc
26 433 603 Sc
{0.125 0.749 1 C} FS
26 979 982 Sc
{0.125 0.376 1 C} FS
26 279 1320 Sc
{0 0.812 1 C} FS
26 693 671 Sc
{0.125 0.749 1 C} FS
26 460 499 Sc
{0.125 0.376 1 C} FS
26 543 972 Sc
26 374 477 Sc
{0.125 0.624 1 C} FS
26 679 802 Sc
{0.165 1 1 C} FS
26 896 856 Sc
{0 0.812 1 C} FS
26 804 588 Sc
{0.125 0.624 1 C} FS
26 742 956 Sc
26 749 961 Sc
26 715 815 Sc
{0.125 0.376 1 C} FS
26 756 1204 Sc
{0 0.812 1 C} FS
26 991 994 Sc
{0.125 0.749 1 C} FS
26 566 442 Sc
{1 0.941 0 C} FS
26 1261 859 Sc
{0.125 0.376 1 C} FS
26 679 960 Sc
{0.125 0.624 1 C} FS
26 501 512 Sc
{0.125 0.376 1 C} FS
26 323 746 Sc
{0.125 0.624 1 C} FS
26 528 705 Sc
{1 0.941 0 C} FS
26 1203 857 Sc
{0.125 0.376 1 C} FS
26 240 461 Sc
{0.125 0.624 1 C} FS
26 905 1248 Sc
{0.125 0.376 1 C} FS
26 440 829 Sc
{0.125 0.624 1 C} FS
26 955 1032 Sc
{0.125 0.376 1 C} FS
26 596 865 Sc
{1 0.941 0 C} FS
26 1355 347 Sc
{0.125 0.624 1 C} FS
26 836 755 Sc
26 187 150 Sc
{0.125 0.376 1 C} FS
26 507 562 Sc
{0 0.812 1 C} FS
26 1175 1276 Sc
{0.125 0.624 1 C} FS
26 839 978 Sc
{0.125 0.376 1 C} FS
26 294 531 Sc
{0.125 0.749 1 C} FS
26 541 580 Sc
{0.165 1 1 C} FS
26 848 755 Sc
{0 0.812 1 C} FS
26 1198 420 Sc
{0.125 0.376 1 C} FS
26 623 931 Sc
26 227 275 Sc
26 199 233 Sc
{0.125 0.749 1 C} FS
26 925 887 Sc
{0.125 0.376 1 C} FS
26 222 137 Sc
{0.125 0.624 1 C} FS
26 658 793 Sc
26 887 1186 Sc
26 566 714 Sc
26 626 720 Sc
{0.333 1 1 C} FS
26 893 309 Sc
{0.125 0.624 1 C} FS
26 513 764 Sc
{0.125 0.376 1 C} FS
26 234 277 Sc
{0.125 0.624 1 C} FS
26 916 1173 Sc
{0.125 0.376 1 C} FS
26 205 182 Sc
{0.125 0.749 1 C} FS
26 534 1001 Sc
{0.333 1 1 C} FS
26 1002 768 Sc
26 887 575 Sc
{0.125 0.376 1 C} FS
26 528 616 Sc
{0.125 0.624 1 C} FS
26 556 624 Sc
{0.125 0.376 1 C} FS
26 270 360 Sc
{0 0.812 1 C} FS
26 433 210 Sc
{0.125 0.749 1 C} FS
26 905 985 Sc
{0.125 0.624 1 C} FS
26 489 543 Sc
{0.125 0.749 1 C} FS
26 635 654 Sc
{0.125 0.376 1 C} FS
26 276 499 Sc
{0.333 1 1 C} FS
26 973 534 Sc
{0.125 0.376 1 C} FS
26 626 752 Sc
26 300 543 Sc
26 397 641 Sc
26 528 768 Sc
{0.125 0.749 1 C} FS
26 833 853 Sc
{0.125 0.624 1 C} FS
26 785 945 Sc
{0.125 0.376 1 C} FS
26 596 796 Sc
26 1041 916 Sc
{0.125 0.624 1 C} FS
26 575 705 Sc
{0 0.812 1 C} FS
26 994 928 Sc
{0.125 0.376 1 C} FS
26 635 881 Sc
{0 0.812 1 C} FS
26 21 1167 Sc
{0.125 0.624 1 C} FS
26 611 477 Sc
26 872 1019 Sc
{0.125 0.376 1 C} FS
26 347 720 Sc
26 430 632 Sc
26 353 524 Sc
26 709 1179 Sc
26 295 358 Sc
26 543 846 Sc
{0.333 1 1 C} FS
26 958 903 Sc
26 1023 619 Sc
{0.125 0.624 1 C} FS
26 771 850 Sc
{1 0.439 0 C} FS
26 1415 80 Sc
{0.125 0.624 1 C} FS
26 871 892 Sc
{0.125 0.376 1 C} FS
26 703 1148 Sc
{0.125 0.624 1 C} FS
26 612 798 Sc
{0.125 0.376 1 C} FS
26 193 143 Sc
26 239 431 Sc
{0.165 1 1 C} FS
26 952 1254 Sc
{0.498 1 1 C} FS
26 1177 1186 Sc
{0.125 0.624 1 C} FS
26 798 865 Sc
{0.333 1 1 C} FS
26 863 417 Sc
{0.125 0.624 1 C} FS
26 811 993 Sc
{0.125 0.376 1 C} FS
26 532 813 Sc
{0.125 0.624 1 C} FS
26 988 1016 Sc
{0.125 0.376 1 C} FS
26 667 972 Sc
{0.125 0.624 1 C} FS
26 768 960 Sc
{0.333 1 1 C} FS
26 988 853 Sc
{0.125 0.376 1 C} FS
26 507 878 Sc
26 519 746 Sc
26 785 1143 Sc
{0.333 1 1 C} FS
26 964 966 Sc
{0.125 0.624 1 C} FS
26 750 727 Sc
{0.333 1 1 C} FS
26 841 304 Sc
{0.125 0.624 1 C} FS
26 805 898 Sc
26 658 717 Sc
{0.125 0.376 1 C} FS
26 219 248 Sc
26 704 980 Sc
{0.125 0.749 1 C} FS
26 1059 922 Sc
{0.125 0.624 1 C} FS
26 473 494 Sc
{0.125 0.376 1 C} FS
26 730 919 Sc
{0.333 1 1 C} FS
26 916 80 Sc
{0.125 0.749 1 C} FS
26 931 944 Sc
{0.667 1 1 C} FS
26 1000 226 Sc
{0.125 0.376 1 C} FS
26 479 842 Sc
26 537 821 Sc
26 495 834 Sc
{0.333 1 1 C} FS
26 1029 360 Sc
{0.125 0.376 1 C} FS
26 786 1261 Sc
26 436 429 Sc
{0.333 1 1 C} FS
26 1071 1123 Sc
26 1175 1001 Sc
{0.125 0.376 1 C} FS
26 718 1170 Sc
{0.333 1 1 C} FS
26 1100 1229 Sc
{0.125 0.624 1 C} FS
26 786 922 Sc
26 584 708 Sc
{0.333 1 1 C} FS
26 881 537 Sc
{0.125 0.376 1 C} FS
26 578 764 Sc
{0.125 0.624 1 C} FS
26 888 1103 Sc
{0.125 0.376 1 C} FS
26 329 207 Sc
26 424 651 Sc
{0.165 1 1 C} FS
26 952 1311 Sc
{1 0 0 C} FS
26 1394 1145 Sc
U
PSL_cliprestore
%%EndObject
0 A
FQ
O0
0 0 TM

% PostScript produced by:
%%GMT: pstext -R+180.0/-22.5/-176.5/-19.4r -JM3c -F+f10p,Helvetica-Bold,BLACK+j -O -K rectangle_labels.txt
%%PROJ: merc 180.00000000 183.50000000 -22.50000000 -19.40000000 -194809.109 194809.109 -2555318.012 -2187900.510 +proj=merc +lon_0=181.75 +k=1 +x_0=0 +y_0=0 +a=6378137.000 +b=6356752.314245 +ellps=WGS84 +datum=WGS84 +units=m +no_defs
%%BeginObject PSL_Layer_16
0 setlinecap
0 setlinejoin
3.32551 setmiterlimit
clipsave
0 0 M
1417 0 D
0 1337 D
-1417 0 D
PSL_clip N
40 1294 M PSL_font_encode 1 get 0 eq {ISOLatin1+_Encoding /Helvetica-Bold /Helvetica-Bold PSL_reencode PSL_font_encode 1 1 put} if
167 F1
(3) tl Z
PSL_cliprestore
%%EndObject
0 A
FQ
O0
0 -1654 TM

% PostScript produced by:
%%GMT: pscoast -R+178.0/-26.0/-178.3/-22.5r -JM3c -G150 -Di -N1 -Wthinnest -X0 -Y-3.5c -O -K
%%PROJ: merc 178.00000000 181.70000000 -26.00000000 -22.50000000 -205941.058 205941.058 -2980355.483 -2555318.012 +proj=merc +lon_0=179.85 +k=1 +x_0=0 +y_0=0 +a=6378137.000 +b=6356752.314245 +ellps=WGS84 +datum=WGS84 +units=m +no_defs
%%BeginObject PSL_Layer_17
0 setlinecap
0 setlinejoin
3.32551 setmiterlimit
4 W
%%EndObject
0 A
FQ
O0
0 0 TM

% PostScript produced by:
%%GMT: psbasemap -R+178.0/-26.0/-178.3/-22.5r -JM3c -B1000 -Bewns -O -K
%%PROJ: merc 178.00000000 181.70000000 -26.00000000 -22.50000000 -205941.058 205941.058 -2980355.483 -2555318.012 +proj=merc +lon_0=179.85 +k=1 +x_0=0 +y_0=0 +a=6378137.000 +b=6356752.314245 +ellps=WGS84 +datum=WGS84 +units=m +no_defs
%%BeginObject PSL_Layer_18
0 setlinecap
0 setlinejoin
3.32551 setmiterlimit
25 W
8 W
25 W
0 0 M
1417 0 D
0 1463 D
-1417 0 D
0 -1463 D
P S
%%EndObject
0 A
FQ
O0
0 0 TM

% PostScript produced by:
%%GMT: psxy -R+178.0/-26.0/-178.3/-22.5r -JM3c -Sf0.36/0.12+l+t -Gblack -O -K
%%PROJ: merc 178.00000000 181.70000000 -26.00000000 -22.50000000 -205941.058 205941.058 -2980355.483 -2555318.012 +proj=merc +lon_0=179.85 +k=1 +x_0=0 +y_0=0 +a=6378137.000 +b=6356752.314245 +ellps=WGS84 +datum=WGS84 +units=m +no_defs
%%BeginObject PSL_Layer_19
0 setlinecap
0 setlinejoin
3.32551 setmiterlimit
4 W
%%EndObject
0 A
FQ
O0
0 0 TM

% PostScript produced by:
%%GMT: psxy -R+178.0/-26.0/-178.3/-22.5r -JM3c -Sc0.11 -Ct.cpt -Wthinnest,gray5 -O -K
%%PROJ: merc 178.00000000 181.70000000 -26.00000000 -22.50000000 -205941.058 205941.058 -2980355.483 -2555318.012 +proj=merc +lon_0=179.85 +k=1 +x_0=0 +y_0=0 +a=6378137.000 +b=6356752.314245 +ellps=WGS84 +datum=WGS84 +units=m +no_defs
%%BeginObject PSL_Layer_20
0 setlinecap
0 setlinejoin
3.32551 setmiterlimit
clipsave
0 0 M
1417 0 D
0 1463 D
-1417 0 D
PSL_clip N
4 W
0.051 A
V
{0 0.812 1 C} FS
O1
26 808 699 Sc
{0.125 0.749 1 C} FS
26 803 417 Sc
{0.125 0.624 1 C} FS
26 843 1189 Sc
26 873 1154 Sc
26 850 1057 Sc
26 831 944 Sc
26 850 1008 Sc
26 800 1087 Sc
26 853 932 Sc
26 859 1108 Sc
26 794 910 Sc
{0.125 0.749 1 C} FS
26 758 601 Sc
26 662 189 Sc
{0.125 0.624 1 C} FS
26 617 1120 Sc
26 500 1205 Sc
26 887 907 Sc
26 895 1154 Sc
26 791 938 Sc
{0 0.812 1 C} FS
26 702 614 Sc
{0.125 0.624 1 C} FS
26 601 220 Sc
26 787 1009 Sc
26 884 1142 Sc
26 637 469 Sc
26 775 962 Sc
{0.125 0.749 1 C} FS
26 749 727 Sc
{0.125 0.624 1 C} FS
26 410 791 Sc
26 528 1175 Sc
26 477 816 Sc
26 871 1152 Sc
{0.125 0.749 1 C} FS
26 752 614 Sc
26 794 898 Sc
{0.125 0.624 1 C} FS
26 836 1151 Sc
26 853 1163 Sc
26 226 29 Sc
26 884 1032 Sc
{0.125 0.749 1 C} FS
26 702 355 Sc
{0.125 0.624 1 C} FS
26 763 877 Sc
26 985 690 Sc
{0.125 0.749 1 C} FS
26 859 675 Sc
{0.125 0.624 1 C} FS
26 752 1029 Sc
26 775 730 Sc
{0.125 0.749 1 C} FS
26 822 941 Sc
{0.125 0.624 1 C} FS
26 912 574 Sc
{0.125 0.749 1 C} FS
26 895 751 Sc
{0.333 1 1 C} FS
26 1256 774 Sc
{0.125 0.624 1 C} FS
26 557 707 Sc
{0.125 0.749 1 C} FS
26 752 503 Sc
{0.165 1 1 C} FS
26 960 846 Sc
{0.125 0.749 1 C} FS
26 775 712 Sc
{0.125 0.624 1 C} FS
26 445 1043 Sc
{0.125 0.376 1 C} FS
26 185 405 Sc
{0.498 1 1 C} FS
26 1218 803 Sc
{0.125 0.749 1 C} FS
26 703 1046 Sc
{0.125 0.624 1 C} FS
26 825 1102 Sc
{0.125 0.749 1 C} FS
26 805 923 Sc
{0.125 0.624 1 C} FS
26 417 942 Sc
{0.125 0.749 1 C} FS
26 748 572 Sc
{0.125 0.624 1 C} FS
26 943 1405 Sc
26 878 1148 Sc
{0.125 0.749 1 C} FS
26 786 644 Sc
26 881 926 Sc
26 797 687 Sc
26 738 617 Sc
{0.125 0.624 1 C} FS
26 704 457 Sc
26 357 837 Sc
26 746 974 Sc
{0.125 0.749 1 C} FS
26 662 331 Sc
26 836 846 Sc
26 724 669 Sc
{0.333 1 1 C} FS
26 1270 1271 Sc
{0.125 0.749 1 C} FS
26 702 552 Sc
{0.125 0.624 1 C} FS
26 679 577 Sc
26 237 860 Sc
26 819 1120 Sc
26 410 1169 Sc
{0.125 0.376 1 C} FS
26 244 518 Sc
{0.125 0.624 1 C} FS
26 704 580 Sc
{0.125 0.749 1 C} FS
26 615 210 Sc
{0.125 0.624 1 C} FS
26 738 457 Sc
26 786 1047 Sc
26 786 1041 Sc
26 710 1233 Sc
26 528 1084 Sc
{0.333 1 1 C} FS
26 1271 475 Sc
{0.125 0.749 1 C} FS
26 772 825 Sc
26 850 861 Sc
{0.125 0.624 1 C} FS
26 772 1032 Sc
26 699 709 Sc
26 749 764 Sc
26 472 1041 Sc
26 466 993 Sc
{0.125 0.749 1 C} FS
26 690 300 Sc
26 800 770 Sc
26 876 1023 Sc
{0.125 0.624 1 C} FS
26 850 297 Sc
{0.125 0.749 1 C} FS
26 665 130 Sc
{0.125 0.624 1 C} FS
26 727 1008 Sc
26 842 1108 Sc
26 805 1057 Sc
26 455 1217 Sc
{0.125 0.749 1 C} FS
26 805 996 Sc
{0.125 0.624 1 C} FS
26 401 825 Sc
{0.333 1 1 C} FS
26 1108 1044 Sc
{0.125 0.624 1 C} FS
26 264 164 Sc
{0.125 0.376 1 C} FS
26 152 232 Sc
{0.125 0.749 1 C} FS
26 881 522 Sc
{0 0.812 1 C} FS
26 971 608 Sc
{0.125 0.624 1 C} FS
26 881 1157 Sc
{0.125 0.749 1 C} FS
26 718 540 Sc
{0.125 0.624 1 C} FS
26 533 669 Sc
{0.165 1 1 C} FS
26 775 503 Sc
{0.333 1 1 C} FS
26 1100 761 Sc
{0.125 0.749 1 C} FS
26 803 895 Sc
{0.125 0.624 1 C} FS
26 361 836 Sc
26 710 525 Sc
{0.125 0.376 1 C} FS
26 135 65 Sc
{0.125 0.624 1 C} FS
26 682 358 Sc
{0.125 0.749 1 C} FS
26 960 1005 Sc
26 909 1060 Sc
{0.125 0.624 1 C} FS
26 780 614 Sc
{0.165 1 1 C} FS
26 937 96 Sc
{0.125 0.749 1 C} FS
26 1041 935 Sc
26 845 1087 Sc
{0.125 0.624 1 C} FS
26 797 1060 Sc
26 654 855 Sc
26 371 938 Sc
{0.125 0.749 1 C} FS
26 862 813 Sc
{0 0.812 1 C} FS
26 769 306 Sc
{0.333 1 1 C} FS
26 1282 611 Sc
{0.125 0.624 1 C} FS
26 859 1108 Sc
26 449 840 Sc
{0.125 0.749 1 C} FS
26 685 127 Sc
{0.125 0.624 1 C} FS
26 853 907 Sc
26 805 1117 Sc
{0 0.812 1 C} FS
26 716 420 Sc
{0.125 0.624 1 C} FS
26 814 638 Sc
{0.125 0.749 1 C} FS
26 662 294 Sc
{0.125 0.624 1 C} FS
26 926 1011 Sc
26 864 1145 Sc
26 831 1187 Sc
26 406 979 Sc
26 573 318 Sc
26 870 1133 Sc
{0.125 0.749 1 C} FS
26 741 675 Sc
{0.125 0.624 1 C} FS
26 791 956 Sc
26 763 1066 Sc
26 769 724 Sc
26 1010 1399 Sc
26 455 1254 Sc
26 775 846 Sc
{0 0.812 1 C} FS
26 923 315 Sc
{0.125 0.749 1 C} FS
26 794 702 Sc
{0.125 0.624 1 C} FS
26 867 549 Sc
{0.125 0.749 1 C} FS
26 645 145 Sc
{0.125 0.624 1 C} FS
26 486 229 Sc
26 253 589 Sc
{0.498 1 1 C} FS
26 1254 272 Sc
{0.125 0.749 1 C} FS
26 864 1023 Sc
{0.125 0.624 1 C} FS
26 859 1169 Sc
26 1038 558 Sc
26 425 1025 Sc
{0.125 0.376 1 C} FS
26 522 1417 Sc
{0.125 0.624 1 C} FS
26 522 840 Sc
{0.125 0.749 1 C} FS
26 755 598 Sc
26 741 712 Sc
{0.125 0.624 1 C} FS
26 516 779 Sc
26 494 712 Sc
26 1021 1120 Sc
{0.125 0.376 1 C} FS
26 94 292 Sc
{0.125 0.624 1 C} FS
26 850 1093 Sc
{0.125 0.749 1 C} FS
26 859 767 Sc
26 1235 1254 Sc
{0.125 0.624 1 C} FS
26 898 755 Sc
26 988 926 Sc
26 472 1047 Sc
26 1052 1117 Sc
26 539 852 Sc
{0.125 0.749 1 C} FS
26 662 485 Sc
26 859 693 Sc
26 904 712 Sc
{0.125 0.624 1 C} FS
26 817 1081 Sc
26 892 1217 Sc
26 898 999 Sc
{0.125 0.749 1 C} FS
26 920 968 Sc
{0.125 0.624 1 C} FS
26 902 878 Sc
{0.125 0.749 1 C} FS
26 657 294 Sc
{0.125 0.376 1 C} FS
26 185 275 Sc
{0.125 0.624 1 C} FS
26 803 1175 Sc
{0.125 0.749 1 C} FS
26 521 20 Sc
26 560 7 Sc
{0.125 0.624 1 C} FS
26 876 785 Sc
{0.125 0.749 1 C} FS
26 758 238 Sc
{0.125 0.624 1 C} FS
26 1094 1120 Sc
{0.125 0.749 1 C} FS
26 758 65 Sc
{0.125 0.624 1 C} FS
26 836 974 Sc
26 436 606 Sc
{0.125 0.376 1 C} FS
26 101 121 Sc
26 97 122 Sc
{0.125 0.624 1 C} FS
26 859 755 Sc
U
PSL_cliprestore
%%EndObject
0 A
FQ
O0
0 0 TM

% PostScript produced by:
%%GMT: pstext -R+178.0/-26.0/-178.3/-22.5r -JM3c -F+f10p,Helvetica-Bold,BLACK+j -O -K rectangle_labels.txt
%%PROJ: merc 178.00000000 181.70000000 -26.00000000 -22.50000000 -205941.058 205941.058 -2980355.483 -2555318.012 +proj=merc +lon_0=179.85 +k=1 +x_0=0 +y_0=0 +a=6378137.000 +b=6356752.314245 +ellps=WGS84 +datum=WGS84 +units=m +no_defs
%%BeginObject PSL_Layer_21
0 setlinecap
0 setlinejoin
3.32551 setmiterlimit
clipsave
0 0 M
1417 0 D
0 1463 D
-1417 0 D
PSL_clip N
38 1421 M PSL_font_encode 1 get 0 eq {ISOLatin1+_Encoding /Helvetica-Bold /Helvetica-Bold PSL_reencode PSL_font_encode 1 1 put} if
167 F1
(4) tl Z
PSL_cliprestore
%%EndObject
0 A
FQ
O0
1606 4205 TM

% PostScript produced by:
%%GMT: pscoast -R-174.0/-16.2/-171.5/-14.0r -JM2c -G150 -Di -N1 -Wthinnest -X3.4c -Y8.9c -O -K
%%PROJ: merc -174.00000000 -171.50000000 -16.20000000 -14.00000000 -139149.363 139149.363 -1815981.193 -1563885.697 +proj=merc +lon_0=-172.75 +k=1 +x_0=0 +y_0=0 +a=6378137.000 +b=6356752.314245 +ellps=WGS84 +datum=WGS84 +units=m +no_defs
%%BeginObject PSL_Layer_22
0 setlinecap
0 setlinejoin
3.32551 setmiterlimit
4 W
834 841 M
9 -2 D
20 5 D
42 -7 D
37 3 D
3 -1 D
0 17 D
-139 0 D
11 -1 D
P
{0.588 A} FS
FO
806 856 M
11 -1 D
17 -14 D
9 -2 D
20 5 D
42 -7 D
37 3 D
3 -1 D
S
88 93 M
9 -8 D
11 20 D
P
FO
106 136 M
7 -2 D
-5 7 D
P
FO
86 97 M
4 1 D
-4 0 D
P
FO
88 93 M
9 -8 D
11 20 D
P S
106 136 M
7 -2 D
-5 7 D
P S
86 97 M
4 1 D
-4 0 D
P S
%%EndObject
0 A
FQ
O0
0 0 TM

% PostScript produced by:
%%GMT: psbasemap -R-174.0/-16.2/-171.5/-14.0r -JM2c -B1000 '-Bewns+tSSST Loc.' -O -K
%%PROJ: merc -174.00000000 -171.50000000 -16.20000000 -14.00000000 -139149.363 139149.363 -1815981.193 -1563885.697 +proj=merc +lon_0=-172.75 +k=1 +x_0=0 +y_0=0 +a=6378137.000 +b=6356752.314245 +ellps=WGS84 +datum=WGS84 +units=m +no_defs
%%BeginObject PSL_Layer_23
0 setlinecap
0 setlinejoin
3.32551 setmiterlimit
25 W
8 W
/PSL_H_y -33 PSL_font_encode 0 get 0 eq {ISOLatin1+_Encoding /Helvetica /Helvetica PSL_reencode PSL_font_encode 0 1 put} if
167 F0
(100\312) sh add def
472 856 PSL_H_y add M
(SSST Loc.) bc Z
25 W
0 0 M
945 0 D
0 856 D
-945 0 D
0 -856 D
P S
%%EndObject
0 A
FQ
O0
0 0 TM

% PostScript produced by:
%%GMT: psxy -R-174.0/-16.2/-171.5/-14.0r -JM2c -Sf0.36/0.12+l+t -Gblack -O -K
%%PROJ: merc -174.00000000 -171.50000000 -16.20000000 -14.00000000 -139149.363 139149.363 -1815981.193 -1563885.697 +proj=merc +lon_0=-172.75 +k=1 +x_0=0 +y_0=0 +a=6378137.000 +b=6356752.314245 +ellps=WGS84 +datum=WGS84 +units=m +no_defs
%%BeginObject PSL_Layer_24
0 setlinecap
0 setlinejoin
3.32551 setmiterlimit
4 W
643 0 M
0 78 D
-8 43 D
-1 47 D
-10 70 D
-27 74 D
-19 31 D
-22 30 D
-38 44 D
-46 32 D
-43 40 D
-28 30 D
-42 19 D
-45 23 D
-38 24 D
-30 27 D
-38 19 D
-87 12 D
S
{0 A} FS
O1
10 setmiterlimit
50 -28 -50 -28 2 643 28 SP
52 -23 -46 -33 2 629 211 SP
56 8 -21 -53 2 553 376 SP
54 17 -12 -55 2 418 498 SP
50 27 -2 -57 2 263 593 SP
35 45 21 -53 2 93 647 SP
3.32551 setmiterlimit
%%EndObject
0 A
FQ
O0
0 0 TM

% PostScript produced by:
%%GMT: psxy -R-174.0/-16.2/-171.5/-14.0r -JM2c -Sc0.11 -Ct.cpt -Wthinnest,gray5 -O -K
%%PROJ: merc -174.00000000 -171.50000000 -16.20000000 -14.00000000 -139149.363 139149.363 -1815981.193 -1563885.697 +proj=merc +lon_0=-172.75 +k=1 +x_0=0 +y_0=0 +a=6378137.000 +b=6356752.314245 +ellps=WGS84 +datum=WGS84 +units=m +no_defs
%%BeginObject PSL_Layer_25
0 setlinecap
0 setlinejoin
3.32551 setmiterlimit
clipsave
0 0 M
945 0 D
0 856 D
-945 0 D
PSL_clip N
4 W
0.051 A
V
{1 0.302 0 C} FS
O1
26 362 383 Sc
{1 0 0 C} FS
26 326 323 Sc
{1 0.302 0 C} FS
26 326 311 Sc
{1 0 0 C} FS
26 105 630 Sc
{1 0.302 0 C} FS
26 532 87 Sc
26 528 74 Sc
26 334 388 Sc
{1 0 0 C} FS
26 334 411 Sc
26 309 363 Sc
{1 0.439 0 C} FS
26 482 418 Sc
{1 0 0 C} FS
26 321 328 Sc
{1 0.439 0 C} FS
26 55 397 Sc
{1 0.302 0 C} FS
26 780 351 Sc
26 387 351 Sc
26 340 394 Sc
26 665 121 Sc
{1 0 0 C} FS
26 329 451 Sc
{1 0.302 0 C} FS
26 725 368 Sc
{1 0 0 C} FS
26 337 402 Sc
26 203 472 Sc
{1 0.439 0 C} FS
26 415 260 Sc
26 121 231 Sc
{1 0 0 C} FS
26 51 461 Sc
{1 0.302 0 C} FS
26 333 21 Sc
26 287 328 Sc
{1 0.439 0 C} FS
26 74 108 Sc
{1 0.302 0 C} FS
26 725 243 Sc
26 204 482 Sc
{1 0.541 0 C} FS
26 229 280 Sc
{1 0.302 0 C} FS
26 177 414 Sc
26 442 54 Sc
{1 0 0 C} FS
26 373 280 Sc
{1 0.302 0 C} FS
26 362 394 Sc
{1 0 0 C} FS
26 430 284 Sc
{1 0.302 0 C} FS
26 387 345 Sc
{1 0 0 C} FS
26 642 397 Sc
{1 0.302 0 C} FS
26 273 371 Sc
{1 0 0 C} FS
26 282 522 Sc
26 276 488 Sc
{1 0.302 0 C} FS
26 351 348 Sc
{1 0 0 C} FS
26 333 293 Sc
{1 0.439 0 C} FS
26 107 51 Sc
26 33 374 Sc
26 307 371 Sc
{1 0 0 C} FS
26 160 391 Sc
{1 0.439 0 C} FS
26 393 243 Sc
26 105 83 Sc
26 100 44 Sc
26 27 77 Sc
{1 0.541 0 C} FS
26 127 368 Sc
{1 0.302 0 C} FS
26 581 168 Sc
{1 0.439 0 C} FS
26 617 474 Sc
{1 0.302 0 C} FS
26 905 108 Sc
{1 0.439 0 C} FS
26 705 303 Sc
26 193 220 Sc
{1 0.302 0 C} FS
26 445 434 Sc
{1 0 0 C} FS
26 262 428 Sc
{1 0.439 0 C} FS
26 351 394 Sc
{1 0.302 0 C} FS
26 329 383 Sc
26 265 357 Sc
{1 0 0 C} FS
26 309 442 Sc
{1 0.302 0 C} FS
26 179 68 Sc
{1 0 0 C} FS
26 437 260 Sc
{1 0.439 0 C} FS
26 59 310 Sc
{1 0 0 C} FS
26 841 351 Sc
26 175 526 Sc
{1 0.439 0 C} FS
26 548 214 Sc
{1 0 0 C} FS
26 251 474 Sc
26 246 479 Sc
{1 0.439 0 C} FS
26 495 177 Sc
{1 0.302 0 C} FS
26 791 180 Sc
{1 0.439 0 C} FS
26 66 402 Sc
{1 0 0 C} FS
26 317 73 Sc
26 745 127 Sc
26 437 151 Sc
{1 0.439 0 C} FS
26 343 65 Sc
{1 0.302 0 C} FS
26 520 397 Sc
26 204 71 Sc
{1 0.941 0 C} FS
26 379 228 Sc
{1 0.302 0 C} FS
26 238 391 Sc
{1 0.439 0 C} FS
26 81 218 Sc
{1 0 0 C} FS
26 380 333 Sc
{1 0.439 0 C} FS
26 395 223 Sc
{1 0.302 0 C} FS
26 404 283 Sc
26 184 425 Sc
26 177 414 Sc
26 221 408 Sc
{1 0 0 C} FS
26 304 380 Sc
{1 0.439 0 C} FS
26 426 391 Sc
{1 0.541 0 C} FS
26 121 8 Sc
{1 0.439 0 C} FS
26 159 295 Sc
26 459 220 Sc
{1 0.302 0 C} FS
26 293 431 Sc
26 215 397 Sc
{1 0.659 0 C} FS
26 512 525 Sc
{1 0.302 0 C} FS
26 398 385 Sc
26 503 31 Sc
U
PSL_cliprestore
%%EndObject
0 A
FQ
O0
0 0 TM

% PostScript produced by:
%%GMT: pstext -R-174.0/-16.2/-171.5/-14.0r -JM2c -F+f10p,Helvetica-Bold,BLACK+j -O -K rectangle_labels.txt
%%PROJ: merc -174.00000000 -171.50000000 -16.20000000 -14.00000000 -139149.363 139149.363 -1815981.193 -1563885.697 +proj=merc +lon_0=-172.75 +k=1 +x_0=0 +y_0=0 +a=6378137.000 +b=6356752.314245 +ellps=WGS84 +datum=WGS84 +units=m +no_defs
%%BeginObject PSL_Layer_26
0 setlinecap
0 setlinejoin
3.32551 setmiterlimit
clipsave
0 0 M
945 0 D
0 856 D
-945 0 D
PSL_clip N
907 778 M PSL_font_encode 1 get 0 eq {ISOLatin1+_Encoding /Helvetica-Bold /Helvetica-Bold PSL_reencode PSL_font_encode 1 1 put} if
167 F1
(1) tr Z
PSL_cliprestore
%%EndObject
0 A
FQ
O0
0 -1039 TM

% PostScript produced by:
%%GMT: pscoast -R-175.0/-21.5/-172.5/-19.4r -JM2c -G150 -Di -N1 -Wthinnest -X0 -Y-2.2c -O -K
%%PROJ: merc -175.00000000 -172.50000000 -21.50000000 -19.40000000 -139149.363 139149.363 -2435945.645 -2187900.510 +proj=merc +lon_0=-173.75 +k=1 +x_0=0 +y_0=0 +a=6378137.000 +b=6356752.314245 +ellps=WGS84 +datum=WGS84 +units=m +no_defs
%%BeginObject PSL_Layer_27
0 setlinecap
0 setlinejoin
3.32551 setmiterlimit
4 W
233 672 M
17 -1 D
-2 25 D
-5 -17 D
P
{0.588 A} FS
FO
217 636 M
3 -2 D
7 9 D
-5 8 D
P
FO
250 699 M
20 2 D
0 13 D
-20 -14 D
P
FO
262 740 M
14 -16 D
-10 21 D
P
FO
217 661 M
12 7 D
P
FO
189 747 M
6 3 D
-6 -2 D
P
FO
105 622 M
4 3 D
-4 -2 D
P
FO
217 653 M
4 -1 D
-4 2 D
P
FO
100 678 M
6 -1 D
-6 2 D
P
FO
166 672 M
5 -2 D
-5 3 D
P
FO
203 761 M
1 5 D
P
FO
192 616 M
5 2 D
-5 -1 D
P
FO
233 672 M
17 -1 D
-2 25 D
-5 -17 D
P S
217 636 M
3 -2 D
7 9 D
-5 8 D
P S
250 699 M
20 2 D
0 13 D
-20 -14 D
P S
262 740 M
14 -16 D
-10 21 D
P S
217 661 M
12 7 D
P S
189 747 M
6 3 D
-6 -2 D
P S
105 622 M
4 3 D
-4 -2 D
P S
217 653 M
4 -1 D
-4 2 D
P S
100 678 M
6 -1 D
-6 2 D
P S
166 672 M
5 -2 D
-5 3 D
P S
203 761 M
1 5 D
P S
192 616 M
5 2 D
-5 -1 D
P S
9 46 M
8 -15 D
18 -13 D
-3 71 D
-23 -39 D
P
FO
6 154 M
3 -3 D
1 6 D
-4 -2 D
P
FO
69 501 M
11 -6 D
3 13 D
P
FO
70 490 M
3 -4 D
-2 5 D
P
FO
116 589 M
4 -2 D
P
FO
173 441 M
5 5 D
-5 -4 D
P
FO
177 461 M
3 5 D
P
FO
83 597 M
5 -2 D
-3 5 D
P
FO
105 472 M
5 -4 D
P
FO
9 46 M
8 -15 D
18 -13 D
-3 71 D
-23 -39 D
P S
6 154 M
3 -3 D
1 6 D
-4 -2 D
P S
69 501 M
11 -6 D
3 13 D
P S
70 490 M
3 -4 D
-2 5 D
P S
116 589 M
4 -2 D
P S
173 441 M
5 5 D
-5 -4 D
P S
177 461 M
3 5 D
P S
83 597 M
5 -2 D
-3 5 D
P S
105 472 M
5 -4 D
P S
%%EndObject
0 A
FQ
O0
0 0 TM

% PostScript produced by:
%%GMT: psbasemap -R-175.0/-21.5/-172.5/-19.4r -JM2c -B1000 -Bewns -O -K
%%PROJ: merc -175.00000000 -172.50000000 -21.50000000 -19.40000000 -139149.363 139149.363 -2435945.645 -2187900.510 +proj=merc +lon_0=-173.75 +k=1 +x_0=0 +y_0=0 +a=6378137.000 +b=6356752.314245 +ellps=WGS84 +datum=WGS84 +units=m +no_defs
%%BeginObject PSL_Layer_28
0 setlinecap
0 setlinejoin
3.32551 setmiterlimit
25 W
8 W
25 W
0 0 M
945 0 D
0 842 D
-945 0 D
0 -842 D
P S
%%EndObject
0 A
FQ
O0
0 0 TM

% PostScript produced by:
%%GMT: psxy -R-175.0/-21.5/-172.5/-19.4r -JM2c -Sf0.36/0.12+l+t -Gblack -O -K
%%PROJ: merc -175.00000000 -172.50000000 -21.50000000 -19.40000000 -139149.363 139149.363 -2435945.645 -2187900.510 +proj=merc +lon_0=-173.75 +k=1 +x_0=0 +y_0=0 +a=6378137.000 +b=6356752.314245 +ellps=WGS84 +datum=WGS84 +units=m +no_defs
%%BeginObject PSL_Layer_29
0 setlinecap
0 setlinejoin
3.32551 setmiterlimit
4 W
450 0 M
15 32 D
31 84 D
10 21 D
31 77 D
11 36 D
55 118 D
11 21 D
50 110 D
28 69 D
31 87 D
10 24 D
23 99 D
18 64 D
S
{0 A} FS
O1
10 setmiterlimit
-29 -49 -28 49 2 478 0 SP
36 -44 -56 -9 2 528 194 SP
33 -46 -57 -5 2 600 360 SP
34 -45 -56 -7 2 675 524 SP
34 -45 -56 -7 2 739 693 SP
41 -38 -54 -17 2 780 870 SP
3.32551 setmiterlimit
%%EndObject
0 A
FQ
O0
0 0 TM

% PostScript produced by:
%%GMT: psxy -R-175.0/-21.5/-172.5/-19.4r -JM2c -Sc0.11 -Ct.cpt -Wthinnest,gray5 -O -K
%%PROJ: merc -175.00000000 -172.50000000 -21.50000000 -19.40000000 -139149.363 139149.363 -2435945.645 -2187900.510 +proj=merc +lon_0=-173.75 +k=1 +x_0=0 +y_0=0 +a=6378137.000 +b=6356752.314245 +ellps=WGS84 +datum=WGS84 +units=m +no_defs
%%BeginObject PSL_Layer_30
0 setlinecap
0 setlinejoin
3.32551 setmiterlimit
clipsave
0 0 M
945 0 D
0 842 D
-945 0 D
PSL_clip N
4 W
0.051 A
V
{1 0.439 0 C} FS
O1
26 375 63 Sc
{1 0.302 0 C} FS
26 490 68 Sc
26 186 28 Sc
26 233 678 Sc
26 427 619 Sc
26 250 202 Sc
{1 0 0 C} FS
26 406 451 Sc
26 398 474 Sc
26 451 495 Sc
26 476 498 Sc
{1 0.302 0 C} FS
26 526 548 Sc
26 506 562 Sc
{1 0 0 C} FS
26 505 537 Sc
26 433 520 Sc
26 527 479 Sc
{1 0.302 0 C} FS
26 523 512 Sc
{1 0 0 C} FS
26 323 442 Sc
{1 0.302 0 C} FS
26 427 461 Sc
26 441 593 Sc
26 534 668 Sc
{1 0 0 C} FS
26 390 383 Sc
{1 0.439 0 C} FS
26 333 561 Sc
{1 0 0 C} FS
26 494 567 Sc
26 607 722 Sc
{1 0.302 0 C} FS
26 199 227 Sc
26 224 186 Sc
26 328 108 Sc
{1 0 0 C} FS
26 293 106 Sc
26 711 410 Sc
{1 0.302 0 C} FS
26 341 487 Sc
{1 0 0 C} FS
26 472 414 Sc
{1 0.302 0 C} FS
26 322 302 Sc
26 423 389 Sc
26 654 338 Sc
{1 0.439 0 C} FS
26 715 508 Sc
{1 0 0 C} FS
26 361 102 Sc
26 278 208 Sc
{1 0.302 0 C} FS
26 354 124 Sc
{1 0 0 C} FS
26 300 108 Sc
{1 0.302 0 C} FS
26 203 152 Sc
{1 0 0 C} FS
26 505 479 Sc
{1 0.302 0 C} FS
26 339 426 Sc
{1 0 0 C} FS
26 286 264 Sc
{1 0.302 0 C} FS
26 541 652 Sc
{1 0.439 0 C} FS
26 211 7 Sc
{1 0 0 C} FS
26 352 299 Sc
{1 0.302 0 C} FS
26 279 168 Sc
{1 0 0 C} FS
26 373 174 Sc
{1 0.302 0 C} FS
26 355 143 Sc
{1 0 0 C} FS
26 267 208 Sc
{1 0.439 0 C} FS
26 496 405 Sc
{1 0 0 C} FS
26 449 308 Sc
{1 0.302 0 C} FS
26 395 286 Sc
26 411 678 Sc
26 460 332 Sc
26 463 335 Sc
26 394 367 Sc
26 315 357 Sc
{1 0.439 0 C} FS
26 386 229 Sc
{1 0.302 0 C} FS
26 444 326 Sc
26 466 338 Sc
{1 0.439 0 C} FS
26 232 726 Sc
{1 0.302 0 C} FS
26 184 25 Sc
{1 0.439 0 C} FS
26 474 288 Sc
{1 0 0 C} FS
26 571 613 Sc
{1 0.302 0 C} FS
26 300 291 Sc
26 272 202 Sc
{1 0 0 C} FS
26 532 508 Sc
{1 0.302 0 C} FS
26 549 520 Sc
26 541 440 Sc
26 555 649 Sc
{1 0 0 C} FS
26 333 120 Sc
26 264 146 Sc
{1 0.302 0 C} FS
26 267 137 Sc
{1 0 0 C} FS
26 297 40 Sc
26 566 637 Sc
{1 0.302 0 C} FS
26 460 596 Sc
26 121 327 Sc
26 245 713 Sc
U
PSL_cliprestore
%%EndObject
0 A
FQ
O0
0 0 TM

% PostScript produced by:
%%GMT: pstext -R-175.0/-21.5/-172.5/-19.4r -JM2c -F+f10p,Helvetica-Bold,BLACK+j -O -K rectangle_labels.txt
%%PROJ: merc -175.00000000 -172.50000000 -21.50000000 -19.40000000 -139149.363 139149.363 -2435945.645 -2187900.510 +proj=merc +lon_0=-173.75 +k=1 +x_0=0 +y_0=0 +a=6378137.000 +b=6356752.314245 +ellps=WGS84 +datum=WGS84 +units=m +no_defs
%%BeginObject PSL_Layer_31
0 setlinecap
0 setlinejoin
3.32551 setmiterlimit
clipsave
0 0 M
945 0 D
0 842 D
-945 0 D
PSL_clip N
907 762 M PSL_font_encode 1 get 0 eq {ISOLatin1+_Encoding /Helvetica-Bold /Helvetica-Bold PSL_reencode PSL_font_encode 1 1 put} if
167 F1
(2) tr Z
PSL_cliprestore
%%EndObject
0 A
FQ
O0
0 -1512 TM

% PostScript produced by:
%%GMT: pscoast -R+180.0/-22.5/-176.5/-19.4r -JM3c -G150 -Di -N1 -Wthinnest -X0 -Y-3.2c -O -K
%%PROJ: merc 180.00000000 183.50000000 -22.50000000 -19.40000000 -194809.109 194809.109 -2555318.012 -2187900.510 +proj=merc +lon_0=181.75 +k=1 +x_0=0 +y_0=0 +a=6378137.000 +b=6356752.314245 +ellps=WGS84 +datum=WGS84 +units=m +no_defs
%%BeginObject PSL_Layer_32
0 setlinecap
0 setlinejoin
3.32551 setmiterlimit
4 W
715 1149 M
12 7 D
-2 5 D
P
{0.588 A} FS
FO
715 1149 M
12 7 D
-2 5 D
P S
511 793 M
11 -2 D
-8 7 D
2 6 D
-5 -6 D
P
FO
522 804 M
5 -3 D
-5 4 D
P
FO
511 793 M
11 -2 D
-8 7 D
2 6 D
-5 -6 D
P S
522 804 M
5 -3 D
-5 4 D
P S
%%EndObject
0 A
FQ
O0
0 0 TM

% PostScript produced by:
%%GMT: psbasemap -R+180.0/-22.5/-176.5/-19.4r -JM3c -B1000 -Bewns -O -K
%%PROJ: merc 180.00000000 183.50000000 -22.50000000 -19.40000000 -194809.109 194809.109 -2555318.012 -2187900.510 +proj=merc +lon_0=181.75 +k=1 +x_0=0 +y_0=0 +a=6378137.000 +b=6356752.314245 +ellps=WGS84 +datum=WGS84 +units=m +no_defs
%%BeginObject PSL_Layer_33
0 setlinecap
0 setlinejoin
3.32551 setmiterlimit
25 W
8 W
25 W
0 0 M
1417 0 D
0 1337 D
-1417 0 D
0 -1337 D
P S
%%EndObject
0 A
FQ
O0
0 0 TM

% PostScript produced by:
%%GMT: psxy -R+180.0/-22.5/-176.5/-19.4r -JM3c -Sf0.36/0.12+l+t -Gblack -O -K
%%PROJ: merc 180.00000000 183.50000000 -22.50000000 -19.40000000 -194809.109 194809.109 -2555318.012 -2187900.510 +proj=merc +lon_0=181.75 +k=1 +x_0=0 +y_0=0 +a=6378137.000 +b=6356752.314245 +ellps=WGS84 +datum=WGS84 +units=m +no_defs
%%BeginObject PSL_Layer_34
0 setlinecap
0 setlinejoin
3.32551 setmiterlimit
4 W
%%EndObject
0 A
FQ
O0
0 0 TM

% PostScript produced by:
%%GMT: psxy -R+180.0/-22.5/-176.5/-19.4r -JM3c -Sc0.11 -Ct.cpt -Wthinnest,gray5 -O -K
%%PROJ: merc 180.00000000 183.50000000 -22.50000000 -19.40000000 -194809.109 194809.109 -2555318.012 -2187900.510 +proj=merc +lon_0=181.75 +k=1 +x_0=0 +y_0=0 +a=6378137.000 +b=6356752.314245 +ellps=WGS84 +datum=WGS84 +units=m +no_defs
%%BeginObject PSL_Layer_35
0 setlinecap
0 setlinejoin
3.32551 setmiterlimit
clipsave
0 0 M
1417 0 D
0 1337 D
-1417 0 D
PSL_clip N
4 W
0.051 A
V
{0.125 0.376 1 C} FS
O1
26 485 697 Sc
{0.498 1 1 C} FS
26 979 1107 Sc
{0.125 0.376 1 C} FS
26 528 793 Sc
{0.333 1 1 C} FS
26 940 1098 Sc
{0.125 0.624 1 C} FS
26 816 865 Sc
{0.125 0.376 1 C} FS
26 602 701 Sc
{0.125 0.749 1 C} FS
26 954 971 Sc
{0.333 1 1 C} FS
26 715 35 Sc
{0.125 0.624 1 C} FS
26 863 1167 Sc
{0.125 0.376 1 C} FS
26 869 1242 Sc
26 208 287 Sc
{0.165 1 1 C} FS
26 590 499 Sc
{0.125 0.624 1 C} FS
26 596 626 Sc
{0.125 0.376 1 C} FS
26 822 1248 Sc
{0.333 1 1 C} FS
26 922 1211 Sc
{0.125 0.376 1 C} FS
26 217 233 Sc
{0.125 0.749 1 C} FS
26 982 1330 Sc
{0.125 0.376 1 C} FS
26 175 163 Sc
{1 0.749 0 C} FS
26 1332 474 Sc
{0.333 1 1 C} FS
26 709 499 Sc
{0.125 0.376 1 C} FS
26 219 261 Sc
{0.498 1 1 C} FS
26 1269 217 Sc
{0 0.812 1 C} FS
26 335 118 Sc
{0.125 0.624 1 C} FS
26 303 185 Sc
{0.125 0.376 1 C} FS
26 222 213 Sc
{0.125 0.624 1 C} FS
26 753 982 Sc
{0.125 0.376 1 C} FS
26 353 657 Sc
{0.165 1 1 C} FS
26 872 654 Sc
{0.125 0.376 1 C} FS
26 184 198 Sc
{0.333 1 1 C} FS
26 905 1054 Sc
26 911 474 Sc
{0.125 0.376 1 C} FS
26 694 1120 Sc
26 329 417 Sc
26 469 515 Sc
{0.333 1 1 C} FS
26 922 1110 Sc
{0.125 0.376 1 C} FS
26 288 480 Sc
{1 0.941 0 C} FS
26 1145 6 Sc
{0.125 0.376 1 C} FS
26 537 827 Sc
26 231 401 Sc
26 365 651 Sc
26 509 788 Sc
{0.165 1 1 C} FS
26 964 1217 Sc
{0.125 0.376 1 C} FS
26 264 302 Sc
26 282 290 Sc
26 492 692 Sc
26 409 679 Sc
{0 0.812 1 C} FS
26 897 782 Sc
{0.125 0.624 1 C} FS
26 655 878 Sc
{0.498 1 1 C} FS
26 1074 1032 Sc
{0.125 0.749 1 C} FS
26 970 1066 Sc
{0.125 0.376 1 C} FS
26 234 322 Sc
26 587 742 Sc
{0 0.812 1 C} FS
26 916 909 Sc
{0.125 0.376 1 C} FS
26 436 600 Sc
{0.125 0.624 1 C} FS
26 839 1010 Sc
26 887 1016 Sc
{0.125 0.376 1 C} FS
26 322 383 Sc
{1 0.749 0 C} FS
26 1391 493 Sc
{0.125 0.624 1 C} FS
26 329 137 Sc
26 565 551 Sc
{1 0.941 0 C} FS
26 1370 768 Sc
{0.125 0.624 1 C} FS
26 922 1041 Sc
{0.333 1 1 C} FS
26 988 1173 Sc
{0.125 0.376 1 C} FS
26 205 220 Sc
{1 0.941 0 C} FS
26 1207 645 Sc
{0.125 0.376 1 C} FS
26 584 746 Sc
26 626 922 Sc
26 196 198 Sc
26 549 1010 Sc
{0.333 1 1 C} FS
26 974 1118 Sc
{0.125 0.376 1 C} FS
26 639 986 Sc
{0.125 0.749 1 C} FS
26 964 934 Sc
{0.125 0.624 1 C} FS
26 709 922 Sc
{0.125 0.376 1 C} FS
26 851 1217 Sc
26 317 410 Sc
{0.125 0.624 1 C} FS
26 667 758 Sc
{0.333 1 1 C} FS
26 908 1170 Sc
{0.125 0.624 1 C} FS
26 389 360 Sc
{0.125 0.376 1 C} FS
26 353 594 Sc
{0.125 0.624 1 C} FS
26 795 925 Sc
{0.125 0.376 1 C} FS
26 305 512 Sc
26 615 1033 Sc
26 785 1193 Sc
26 356 686 Sc
26 504 868 Sc
{0.125 0.624 1 C} FS
26 663 879 Sc
{1 0.749 0 C} FS
26 1271 361 Sc
{0.125 0.376 1 C} FS
26 394 695 Sc
{0.333 1 1 C} FS
26 994 815 Sc
{0.125 0.376 1 C} FS
26 258 455 Sc
26 383 922 Sc
26 276 423 Sc
{0.333 1 1 C} FS
26 866 1151 Sc
{0.125 0.749 1 C} FS
26 918 986 Sc
{0.125 0.376 1 C} FS
26 365 764 Sc
26 234 347 Sc
26 578 739 Sc
{0.125 0.749 1 C} FS
26 965 955 Sc
{0.125 0.376 1 C} FS
26 217 283 Sc
{1 0.659 0 C} FS
26 1385 226 Sc
{0.125 0.376 1 C} FS
26 240 322 Sc
{0.125 0.624 1 C} FS
26 1035 1135 Sc
26 584 733 Sc
{0.125 0.749 1 C} FS
26 967 1095 Sc
{0.125 0.376 1 C} FS
26 678 1231 Sc
26 187 194 Sc
{0.125 0.749 1 C} FS
26 943 1095 Sc
{0.125 0.376 1 C} FS
26 228 277 Sc
26 300 442 Sc
{0.125 0.624 1 C} FS
26 853 961 Sc
{0.125 0.376 1 C} FS
26 219 325 Sc
26 350 629 Sc
{0.333 1 1 C} FS
26 896 1195 Sc
{0.125 0.376 1 C} FS
26 540 906 Sc
{0.125 0.624 1 C} FS
26 555 670 Sc
26 756 878 Sc
26 893 941 Sc
{0.125 0.376 1 C} FS
26 555 997 Sc
{0.125 0.624 1 C} FS
26 673 790 Sc
26 472 474 Sc
{0.333 1 1 C} FS
26 964 903 Sc
{0.125 0.376 1 C} FS
26 467 633 Sc
{0.125 0.624 1 C} FS
26 774 815 Sc
26 921 983 Sc
{0.125 0.749 1 C} FS
26 976 997 Sc
{0.125 0.376 1 C} FS
26 652 1076 Sc
{0 0.812 1 C} FS
26 893 733 Sc
{0.125 0.376 1 C} FS
26 457 780 Sc
{0.125 0.624 1 C} FS
26 338 312 Sc
{0.125 0.376 1 C} FS
26 197 244 Sc
{0.125 0.624 1 C} FS
26 771 950 Sc
26 916 978 Sc
{0.125 0.376 1 C} FS
26 264 264 Sc
{0.125 0.624 1 C} FS
26 558 749 Sc
26 193 143 Sc
{1 0.749 0 C} FS
26 1269 975 Sc
{0.125 0.376 1 C} FS
26 596 909 Sc
26 347 562 Sc
{1 0.659 0 C} FS
26 1398 307 Sc
{0.125 0.376 1 C} FS
26 193 131 Sc
26 620 777 Sc
26 350 414 Sc
{0.125 0.624 1 C} FS
26 651 769 Sc
{0.125 0.376 1 C} FS
26 331 605 Sc
26 445 566 Sc
{0.125 0.624 1 C} FS
26 943 1032 Sc
{0.125 0.376 1 C} FS
26 326 1270 Sc
{0 0.812 1 C} FS
26 693 668 Sc
{0.125 0.624 1 C} FS
26 454 499 Sc
{0.125 0.376 1 C} FS
26 543 953 Sc
26 374 464 Sc
{0.125 0.624 1 C} FS
26 669 798 Sc
{0 0.812 1 C} FS
26 884 856 Sc
26 798 588 Sc
{0.125 0.624 1 C} FS
26 733 953 Sc
26 761 930 Sc
26 691 821 Sc
{0.125 0.376 1 C} FS
26 753 1182 Sc
{0.125 0.749 1 C} FS
26 988 1016 Sc
26 555 442 Sc
{1 0.941 0 C} FS
26 1219 890 Sc
{0.125 0.376 1 C} FS
26 650 985 Sc
{0.125 0.624 1 C} FS
26 479 516 Sc
{0.125 0.376 1 C} FS
26 341 701 Sc
{0.125 0.624 1 C} FS
26 526 671 Sc
{1 0.941 0 C} FS
26 1209 854 Sc
{0.125 0.376 1 C} FS
26 252 404 Sc
{0.125 0.624 1 C} FS
26 916 1223 Sc
{0.125 0.376 1 C} FS
26 442 809 Sc
{0.125 0.624 1 C} FS
26 945 1008 Sc
{0.125 0.376 1 C} FS
26 566 878 Sc
{1 0.941 0 C} FS
26 1341 369 Sc
{0.125 0.624 1 C} FS
26 819 850 Sc
26 188 158 Sc
{0.125 0.376 1 C} FS
26 518 535 Sc
{0.125 0.624 1 C} FS
26 991 1195 Sc
26 839 991 Sc
{0.125 0.376 1 C} FS
26 289 520 Sc
{0.125 0.624 1 C} FS
26 535 573 Sc
26 801 654 Sc
{0.165 1 1 C} FS
26 1180 414 Sc
{0.125 0.376 1 C} FS
26 587 919 Sc
26 222 258 Sc
26 169 220 Sc
{0.125 0.749 1 C} FS
26 872 982 Sc
{0.125 0.376 1 C} FS
26 202 140 Sc
{0.125 0.624 1 C} FS
26 626 752 Sc
26 893 1229 Sc
26 574 741 Sc
26 595 703 Sc
{0.333 1 1 C} FS
26 836 287 Sc
{0.125 0.624 1 C} FS
26 519 720 Sc
{0.125 0.376 1 C} FS
26 240 239 Sc
{0.125 0.624 1 C} FS
26 930 1159 Sc
{0.125 0.376 1 C} FS
26 200 171 Sc
26 528 730 Sc
{0.333 1 1 C} FS
26 985 799 Sc
26 899 543 Sc
{0.125 0.376 1 C} FS
26 495 556 Sc
{0.125 0.624 1 C} FS
26 547 627 Sc
{0.125 0.376 1 C} FS
26 252 341 Sc
{0.125 0.749 1 C} FS
26 397 185 Sc
26 893 960 Sc
{0.125 0.624 1 C} FS
26 466 505 Sc
{0.125 0.749 1 C} FS
26 635 667 Sc
{0.125 0.376 1 C} FS
26 303 439 Sc
{0.333 1 1 C} FS
26 979 603 Sc
{0.125 0.376 1 C} FS
26 584 777 Sc
26 298 539 Sc
26 389 613 Sc
26 531 733 Sc
{0.125 0.749 1 C} FS
26 863 796 Sc
{0.125 0.624 1 C} FS
26 773 923 Sc
{0.125 0.376 1 C} FS
26 578 790 Sc
{0.125 0.624 1 C} FS
26 940 1010 Sc
{0.125 0.376 1 C} FS
26 572 701 Sc
{0.125 0.749 1 C} FS
26 982 922 Sc
{0.125 0.376 1 C} FS
26 549 865 Sc
{0.125 0.624 1 C} FS
26 501 512 Sc
26 869 953 Sc
{0.125 0.376 1 C} FS
26 365 664 Sc
26 389 657 Sc
26 317 524 Sc
26 691 1129 Sc
26 289 333 Sc
26 537 834 Sc
{0.333 1 1 C} FS
26 964 903 Sc
26 1005 626 Sc
{0.125 0.376 1 C} FS
26 605 749 Sc
{1 0.541 0 C} FS
26 1410 2 Sc
{0.125 0.624 1 C} FS
26 865 873 Sc
{0.125 0.376 1 C} FS
26 707 1118 Sc
{0.125 0.624 1 C} FS
26 618 750 Sc
26 175 143 Sc
{0.125 0.376 1 C} FS
26 243 401 Sc
{0.165 1 1 C} FS
26 922 1261 Sc
{0.667 1 1 C} FS
26 1124 1192 Sc
{0.125 0.624 1 C} FS
26 779 927 Sc
{0.333 1 1 C} FS
26 857 410 Sc
{0.125 0.624 1 C} FS
26 820 971 Sc
{0.125 0.376 1 C} FS
26 526 810 Sc
{0.125 0.624 1 C} FS
26 946 1060 Sc
{0.125 0.376 1 C} FS
26 654 977 Sc
{0.125 0.624 1 C} FS
26 721 947 Sc
{0.333 1 1 C} FS
26 970 853 Sc
{0.125 0.376 1 C} FS
26 509 829 Sc
{0.125 0.624 1 C} FS
26 525 733 Sc
{0.125 0.376 1 C} FS
26 758 1150 Sc
{0.333 1 1 C} FS
26 918 989 Sc
{0.125 0.624 1 C} FS
26 703 783 Sc
{0.333 1 1 C} FS
26 820 323 Sc
{0.125 0.624 1 C} FS
26 780 909 Sc
26 618 712 Sc
{0.125 0.376 1 C} FS
26 225 217 Sc
26 679 934 Sc
{0.125 0.749 1 C} FS
26 964 928 Sc
{0.125 0.624 1 C} FS
26 455 482 Sc
{0.125 0.376 1 C} FS
26 638 1041 Sc
{0.333 1 1 C} FS
26 881 143 Sc
{0.125 0.749 1 C} FS
26 905 991 Sc
{0.667 1 1 C} FS
26 964 277 Sc
{0.125 0.376 1 C} FS
26 478 834 Sc
26 501 834 Sc
26 483 815 Sc
{0.333 1 1 C} FS
26 899 398 Sc
{0.125 0.376 1 C} FS
26 774 1254 Sc
{0.125 0.624 1 C} FS
26 414 437 Sc
{0.498 1 1 C} FS
26 1028 1171 Sc
26 1074 1057 Sc
{0.125 0.376 1 C} FS
26 650 1123 Sc
{0.333 1 1 C} FS
26 1060 1215 Sc
{0.125 0.624 1 C} FS
26 780 890 Sc
26 561 689 Sc
{0.333 1 1 C} FS
26 841 558 Sc
{0.125 0.376 1 C} FS
26 541 782 Sc
{0.125 0.624 1 C} FS
26 879 1090 Sc
26 243 236 Sc
{0.125 0.376 1 C} FS
26 375 630 Sc
{0.165 1 1 C} FS
26 940 1286 Sc
{1 0.302 0 C} FS
26 1370 1145 Sc
U
PSL_cliprestore
%%EndObject
0 A
FQ
O0
0 0 TM

% PostScript produced by:
%%GMT: pstext -R+180.0/-22.5/-176.5/-19.4r -JM3c -F+f10p,Helvetica-Bold,BLACK+j -O -K rectangle_labels.txt
%%PROJ: merc 180.00000000 183.50000000 -22.50000000 -19.40000000 -194809.109 194809.109 -2555318.012 -2187900.510 +proj=merc +lon_0=181.75 +k=1 +x_0=0 +y_0=0 +a=6378137.000 +b=6356752.314245 +ellps=WGS84 +datum=WGS84 +units=m +no_defs
%%BeginObject PSL_Layer_36
0 setlinecap
0 setlinejoin
3.32551 setmiterlimit
clipsave
0 0 M
1417 0 D
0 1337 D
-1417 0 D
PSL_clip N
40 1294 M PSL_font_encode 1 get 0 eq {ISOLatin1+_Encoding /Helvetica-Bold /Helvetica-Bold PSL_reencode PSL_font_encode 1 1 put} if
167 F1
(3) tl Z
PSL_cliprestore
%%EndObject
0 A
FQ
O0
0 -1654 TM

% PostScript produced by:
%%GMT: pscoast -R+178.0/-26.0/-178.3/-22.5r -JM3c -G150 -Di -N1 -Wthinnest -X0 -Y-3.5c -O -K
%%PROJ: merc 178.00000000 181.70000000 -26.00000000 -22.50000000 -205941.058 205941.058 -2980355.483 -2555318.012 +proj=merc +lon_0=179.85 +k=1 +x_0=0 +y_0=0 +a=6378137.000 +b=6356752.314245 +ellps=WGS84 +datum=WGS84 +units=m +no_defs
%%BeginObject PSL_Layer_37
0 setlinecap
0 setlinejoin
3.32551 setmiterlimit
4 W
%%EndObject
0 A
FQ
O0
0 0 TM

% PostScript produced by:
%%GMT: psbasemap -R+178.0/-26.0/-178.3/-22.5r -JM3c -B1000 -Bewns -O -K
%%PROJ: merc 178.00000000 181.70000000 -26.00000000 -22.50000000 -205941.058 205941.058 -2980355.483 -2555318.012 +proj=merc +lon_0=179.85 +k=1 +x_0=0 +y_0=0 +a=6378137.000 +b=6356752.314245 +ellps=WGS84 +datum=WGS84 +units=m +no_defs
%%BeginObject PSL_Layer_38
0 setlinecap
0 setlinejoin
3.32551 setmiterlimit
25 W
8 W
25 W
0 0 M
1417 0 D
0 1463 D
-1417 0 D
0 -1463 D
P S
%%EndObject
0 A
FQ
O0
0 0 TM

% PostScript produced by:
%%GMT: psxy -R+178.0/-26.0/-178.3/-22.5r -JM3c -Sf0.36/0.12+l+t -Gblack -O -K
%%PROJ: merc 178.00000000 181.70000000 -26.00000000 -22.50000000 -205941.058 205941.058 -2980355.483 -2555318.012 +proj=merc +lon_0=179.85 +k=1 +x_0=0 +y_0=0 +a=6378137.000 +b=6356752.314245 +ellps=WGS84 +datum=WGS84 +units=m +no_defs
%%BeginObject PSL_Layer_39
0 setlinecap
0 setlinejoin
3.32551 setmiterlimit
4 W
%%EndObject
0 A
FQ
O0
0 0 TM

% PostScript produced by:
%%GMT: psxy -R+178.0/-26.0/-178.3/-22.5r -JM3c -Sc0.11 -Ct.cpt -Wthinnest,gray5 -O -K
%%PROJ: merc 178.00000000 181.70000000 -26.00000000 -22.50000000 -205941.058 205941.058 -2980355.483 -2555318.012 +proj=merc +lon_0=179.85 +k=1 +x_0=0 +y_0=0 +a=6378137.000 +b=6356752.314245 +ellps=WGS84 +datum=WGS84 +units=m +no_defs
%%BeginObject PSL_Layer_40
0 setlinecap
0 setlinejoin
3.32551 setmiterlimit
clipsave
0 0 M
1417 0 D
0 1463 D
-1417 0 D
PSL_clip N
4 W
0.051 A
V
{0 0.812 1 C} FS
O1
26 807 707 Sc
{0.125 0.749 1 C} FS
26 769 479 Sc
{0.125 0.624 1 C} FS
26 840 1173 Sc
26 854 1170 Sc
26 819 1157 Sc
26 758 1023 Sc
26 847 1078 Sc
{0.125 0.749 1 C} FS
26 833 1099 Sc
{0.125 0.624 1 C} FS
26 831 987 Sc
26 842 1139 Sc
26 822 916 Sc
{0.125 0.749 1 C} FS
26 763 644 Sc
{0.125 0.624 1 C} FS
26 612 238 Sc
26 556 1163 Sc
26 476 1207 Sc
26 873 910 Sc
26 831 1242 Sc
26 769 999 Sc
{0.125 0.749 1 C} FS
26 702 614 Sc
{0.125 0.624 1 C} FS
26 573 287 Sc
26 779 1009 Sc
26 870 1151 Sc
26 648 518 Sc
26 775 993 Sc
{0.125 0.749 1 C} FS
26 753 744 Sc
{0.125 0.624 1 C} FS
26 328 868 Sc
26 488 1205 Sc
26 432 889 Sc
26 874 1143 Sc
26 724 644 Sc
26 772 935 Sc
26 836 1163 Sc
26 825 1187 Sc
26 204 14 Sc
26 850 1142 Sc
{0.125 0.749 1 C} FS
26 704 358 Sc
{0.125 0.624 1 C} FS
26 755 892 Sc
26 791 730 Sc
{0.125 0.749 1 C} FS
26 828 727 Sc
{0.125 0.624 1 C} FS
26 752 1060 Sc
26 763 755 Sc
{0.125 0.749 1 C} FS
26 772 1032 Sc
{0.125 0.624 1 C} FS
26 800 598 Sc
{0.125 0.749 1 C} FS
26 836 785 Sc
{0.333 1 1 C} FS
26 1239 781 Sc
{0.125 0.624 1 C} FS
26 559 690 Sc
{0.125 0.749 1 C} FS
26 752 515 Sc
{0.165 1 1 C} FS
26 951 861 Sc
{0.125 0.624 1 C} FS
26 758 730 Sc
26 442 1034 Sc
26 176 455 Sc
{0.333 1 1 C} FS
26 1240 791 Sc
{0.125 0.749 1 C} FS
26 700 1012 Sc
{0.125 0.624 1 C} FS
26 814 1108 Sc
{0.125 0.749 1 C} FS
26 786 974 Sc
{0.125 0.624 1 C} FS
26 415 926 Sc
{0.125 0.749 1 C} FS
26 756 585 Sc
{0.125 0.624 1 C} FS
26 944 1392 Sc
26 884 1117 Sc
{0.125 0.749 1 C} FS
26 776 664 Sc
{0.125 0.624 1 C} FS
26 864 980 Sc
{0.125 0.749 1 C} FS
26 752 730 Sc
26 749 641 Sc
{0.125 0.624 1 C} FS
26 707 460 Sc
26 323 886 Sc
26 745 979 Sc
{0.125 0.749 1 C} FS
26 657 349 Sc
26 803 901 Sc
26 728 686 Sc
{0.333 1 1 C} FS
26 1267 1283 Sc
{0.125 0.749 1 C} FS
26 702 589 Sc
{0.125 0.624 1 C} FS
26 662 644 Sc
26 229 884 Sc
26 821 1128 Sc
26 399 1181 Sc
{0.125 0.376 1 C} FS
26 234 502 Sc
{0.125 0.624 1 C} FS
26 665 623 Sc
26 619 224 Sc
{0.125 0.749 1 C} FS
26 746 479 Sc
{0.125 0.624 1 C} FS
26 775 1060 Sc
26 775 1053 Sc
{0.125 0.376 1 C} FS
26 648 1166 Sc
{0.125 0.624 1 C} FS
26 528 1084 Sc
{0.333 1 1 C} FS
26 1235 509 Sc
{0.125 0.624 1 C} FS
26 716 825 Sc
{0.125 0.749 1 C} FS
26 822 916 Sc
{0.125 0.624 1 C} FS
26 727 1044 Sc
26 732 721 Sc
{0.125 0.749 1 C} FS
26 749 776 Sc
{0.125 0.624 1 C} FS
26 462 1046 Sc
26 438 1023 Sc
{0.125 0.749 1 C} FS
26 682 321 Sc
{0.125 0.624 1 C} FS
26 763 846 Sc
{0.125 0.749 1 C} FS
26 870 1017 Sc
26 732 352 Sc
26 648 148 Sc
{0.125 0.624 1 C} FS
26 742 991 Sc
26 819 1139 Sc
26 803 1072 Sc
26 438 1224 Sc
{0.125 0.749 1 C} FS
26 797 1017 Sc
{0.125 0.376 1 C} FS
26 357 874 Sc
{0.333 1 1 C} FS
26 1131 1044 Sc
{0.125 0.624 1 C} FS
26 244 198 Sc
{0.125 0.376 1 C} FS
26 97 237 Sc
{0.125 0.749 1 C} FS
26 881 534 Sc
{0 0.812 1 C} FS
26 963 617 Sc
{0.125 0.624 1 C} FS
26 857 1164 Sc
{0.125 0.749 1 C} FS
26 730 565 Sc
{0.125 0.624 1 C} FS
26 500 663 Sc
{0.125 0.749 1 C} FS
26 763 534 Sc
{0.333 1 1 C} FS
26 1083 755 Sc
{0.125 0.749 1 C} FS
26 797 919 Sc
{0.125 0.624 1 C} FS
26 354 828 Sc
26 710 475 Sc
{0.125 0.376 1 C} FS
26 90 83 Sc
{0.125 0.624 1 C} FS
26 693 457 Sc
{0.125 0.749 1 C} FS
26 887 1060 Sc
{0.125 0.624 1 C} FS
26 876 1066 Sc
26 763 669 Sc
{0.165 1 1 C} FS
26 926 139 Sc
{0.125 0.624 1 C} FS
26 963 971 Sc
26 794 1069 Sc
26 797 1060 Sc
26 660 837 Sc
26 359 944 Sc
{0.125 0.749 1 C} FS
26 836 865 Sc
26 770 326 Sc
{0.125 0.624 1 C} FS
26 654 660 Sc
26 863 1119 Sc
26 427 858 Sc
{0.125 0.749 1 C} FS
26 671 161 Sc
{0.125 0.624 1 C} FS
26 847 919 Sc
26 839 1081 Sc
{0.125 0.749 1 C} FS
26 727 395 Sc
{0.125 0.624 1 C} FS
26 797 736 Sc
{0.125 0.749 1 C} FS
26 668 300 Sc
{0.125 0.624 1 C} FS
26 853 1041 Sc
26 852 1149 Sc
26 836 1163 Sc
26 417 955 Sc
{0.125 0.749 1 C} FS
26 581 334 Sc
{0.125 0.624 1 C} FS
26 871 1149 Sc
26 727 702 Sc
26 761 983 Sc
26 769 1035 Sc
26 752 755 Sc
26 988 1405 Sc
26 455 1242 Sc
26 780 865 Sc
{0 0.812 1 C} FS
26 486 130 Sc
{0.125 0.749 1 C} FS
26 791 724 Sc
{0.125 0.624 1 C} FS
26 671 568 Sc
{0.125 0.749 1 C} FS
26 651 189 Sc
{0.125 0.624 1 C} FS
26 467 224 Sc
26 243 585 Sc
{0.333 1 1 C} FS
26 1257 263 Sc
{0.125 0.624 1 C} FS
26 842 1060 Sc
26 869 1161 Sc
{0.125 0.749 1 C} FS
26 948 626 Sc
{0.125 0.624 1 C} FS
26 422 1009 Sc
{0.125 0.376 1 C} FS
26 449 1441 Sc
{0.125 0.624 1 C} FS
26 472 846 Sc
{0.125 0.749 1 C} FS
26 758 638 Sc
26 753 732 Sc
{0.125 0.624 1 C} FS
26 421 816 Sc
26 469 739 Sc
26 1038 1181 Sc
{0.125 0.376 1 C} FS
26 97 289 Sc
{0.125 0.624 1 C} FS
26 843 1110 Sc
{0.125 0.749 1 C} FS
26 831 767 Sc
26 1235 1290 Sc
26 843 787 Sc
26 926 938 Sc
{0.125 0.624 1 C} FS
26 441 1087 Sc
26 870 1187 Sc
26 488 895 Sc
{0.125 0.749 1 C} FS
26 617 485 Sc
26 814 761 Sc
26 842 736 Sc
{0.125 0.624 1 C} FS
26 818 1110 Sc
26 828 1227 Sc
26 842 1047 Sc
{0.125 0.749 1 C} FS
26 884 996 Sc
26 871 927 Sc
26 671 346 Sc
{0.125 0.376 1 C} FS
26 129 331 Sc
{0.125 0.624 1 C} FS
26 796 1183 Sc
{0.125 0.749 1 C} FS
26 521 10 Sc
26 550 9 Sc
26 557 20 Sc
{0.125 0.624 1 C} FS
26 870 791 Sc
{0.125 0.749 1 C} FS
26 741 300 Sc
{0.125 0.624 1 C} FS
26 1092 1160 Sc
{0.125 0.749 1 C} FS
26 718 90 Sc
{0.125 0.624 1 C} FS
26 843 979 Sc
26 417 600 Sc
{0.125 0.376 1 C} FS
26 96 114 Sc
26 103 128 Sc
{0.125 0.624 1 C} FS
26 814 791 Sc
U
PSL_cliprestore
%%EndObject
0 A
FQ
O0
0 0 TM

% PostScript produced by:
%%GMT: pstext -R+178.0/-26.0/-178.3/-22.5r -JM3c -F+f10p,Helvetica-Bold,BLACK+j -O -K rectangle_labels.txt
%%PROJ: merc 178.00000000 181.70000000 -26.00000000 -22.50000000 -205941.058 205941.058 -2980355.483 -2555318.012 +proj=merc +lon_0=179.85 +k=1 +x_0=0 +y_0=0 +a=6378137.000 +b=6356752.314245 +ellps=WGS84 +datum=WGS84 +units=m +no_defs
%%BeginObject PSL_Layer_41
0 setlinecap
0 setlinejoin
3.32551 setmiterlimit
clipsave
0 0 M
1417 0 D
0 1463 D
-1417 0 D
PSL_clip N
38 1421 M PSL_font_encode 1 get 0 eq {ISOLatin1+_Encoding /Helvetica-Bold /Helvetica-Bold PSL_reencode PSL_font_encode 1 1 put} if
167 F1
(4) tl Z
PSL_cliprestore
%%EndObject
0 A
FQ
O0
0 -850 TM

% PostScript produced by:
%%GMT: psscale -Dx-3.4c/1.5+w6.4c/0.25+jTL+h+ef '-Ba120f30:Depth [km]:' -Ct.cpt -Y-1.8c -O -K
%%PROJ: xy 0.00000000 600.00000000 0.00000000 0.09842520 0.000 600.000 0.000 0.098 +xy +a=6378137.000 +b=6356752.314245 +ellps=WGS84 +datum=WGS84 +units=m +no_defs
%%BeginObject PSL_Layer_42
0 setlinecap
0 setlinejoin
3.32551 setmiterlimit
-1606 591 T
25 W
V N 0 0 T 3024 118 scale [/Indexed /DeviceRGB 15 <
FF0000FF4D00FF7000FF8A00FFA800FFBF00FFF000FFFF54AAFFFF7FFFFF55FFFF2AFFFF00CFFF20BFFF209FFF2060FF
>] setcolorspace
<< /ImageType 1 /Decode [0 15] /Width 20 /Height 1 /BitsPerComponent 4
   /ImageMatrix [20 0 0 -1 0 1] /DataSource currentfile /ASCII85Decode filter
>> image
!?s@$B8NY$hX:~>
U
{0.125 0.376 1 C} FS
-63 -63 63 -63 2 3027 122 SP
3027 122 M
63 -63 D
-63 -63 D
S
2 setlinecap
N 0 118 M 3024 0 D S
N 0 0 M 0 118 D S
N 3024 0 M 0 118 D S
N 0 0 M 3024 0 D S
/PSL_A0_y 50 def
/PSL_A1_y 0 def
8 W
N 0 0 M 0 -50 D S
N 605 0 M 0 -50 D S
N 1209 0 M 0 -50 D S
N 1814 0 M 0 -50 D S
N 2419 0 M 0 -50 D S
N 3024 0 M 0 -50 D S
/PSL_AH0 0
/MM {neg M} def
PSL_font_encode 0 get 0 eq {ISOLatin1+_Encoding /Helvetica /Helvetica PSL_reencode PSL_font_encode 0 1 put} if
167 F0
(0) sh mx
(120) sh mx
(240) sh mx
(360) sh mx
(480) sh mx
(600) sh mx
def
/PSL_A0_y PSL_A0_y 50 add PSL_AH0 add def
0 PSL_A0_y MM
(0) bc Z
605 PSL_A0_y MM
(120) bc Z
1209 PSL_A0_y MM
(240) bc Z
1814 PSL_A0_y MM
(360) bc Z
2419 PSL_A0_y MM
(480) bc Z
3024 PSL_A0_y MM
(600) bc Z
N 151 0 M 0 -33 D S
N 302 0 M 0 -33 D S
N 454 0 M 0 -33 D S
N 756 0 M 0 -33 D S
N 907 0 M 0 -33 D S
N 1058 0 M 0 -33 D S
N 1361 0 M 0 -33 D S
N 1512 0 M 0 -33 D S
N 1663 0 M 0 -33 D S
N 1965 0 M 0 -33 D S
N 2117 0 M 0 -33 D S
N 2268 0 M 0 -33 D S
N 2570 0 M 0 -33 D S
N 2721 0 M 0 -33 D S
N 2872 0 M 0 -33 D S
/PSL_LH 0 def /PSL_L_y PSL_A0_y PSL_A1_y mx def
1512 -288 M PSL_font_encode 1 get 0 eq {ISOLatin1+_Encoding /Helvetica-Bold /Helvetica-Bold PSL_reencode PSL_font_encode 1 1 put} if
167 F1
(Depth \[km\]) tc Z
0 setlinecap
1606 -591 T
%%EndObject
0 A
FQ
O0
0 0 TM

% PostScript produced by:
%%GMT: psxy -R+178.0/-26.0/-178.3/-22.5r -JM3c -T -O
%%PROJ: merc 178.00000000 181.70000000 -26.00000000 -22.50000000 -205941.058 205941.058 -2980355.483 -2555318.012 +proj=merc +lon_0=179.85 +k=1 +x_0=0 +y_0=0 +a=6378137.000 +b=6356752.314245 +ellps=WGS84 +datum=WGS84 +units=m +no_defs
%%BeginObject PSL_Layer_43
0 setlinecap
0 setlinejoin
3.32551 setmiterlimit
%%EndObject
%%PageTrailer
U
showpage

%%Trailer

end
%%EOF
