%!PS-Adobe-3.0
%%BoundingBox: 0 0 595 842
%%HiResBoundingBox: 0 0 595 842
%%Title: GMT v5.1.1 (r12968) [64-bit] Document from psbasemap
%%Creator: GMT5
%%For: nooshiri
%%DocumentNeededResources: font Helvetica
%%CreationDate: Tue Nov  3 22:08:26 2015
%%LanguageLevel: 2
%%DocumentData: Clean7Bit
%%Orientation: Portrait
%%Pages: 1
%%EndComments

%%BeginProlog
250 dict begin
/! {bind def} bind def
/# {load def}!
/A /setgray #
/B /setdash #
/C /setrgbcolor #
/D /rlineto #
/E {dup stringwidth pop}!
/F /fill #
/G /rmoveto #
/H /sethsbcolor #
/I /setpattern #
/K /setcmykcolor #
/L /lineto #
/M /moveto #
/N /newpath #
/P /closepath #
/R /rotate #
/S /stroke #
/T /translate #
/U /grestore #
/V /gsave #
/W /setlinewidth #
/Y {findfont exch scalefont setfont}!
/Z /show #
/FP {true charpath flattenpath}!
/MU {matrix setmatrix}!
/MS {/SMat matrix currentmatrix def}!
/MR {SMat setmatrix}!
/edef {exch def}!
/FS {/fc edef /fs {V fc F U} def}!
/FQ {/fs {} def}!
/O0 {/os {N} def}!
/O1 {/os {P S} def}!
/FO {fs os}!
/Sa {M MS dup 0 exch G 0.726542528 mul -72 R dup 0 D 4 {72 R dup 0 D -144 R dup 0 D} repeat pop MR FO}!
/Sb {M dup 0 D exch 0 exch D neg 0 D FO}!
/SB {MS T /BoxR edef /BoxW edef /BoxH edef BoxR 0 M
  BoxW 0 BoxW BoxH BoxR arct BoxW BoxH 0 BoxH BoxR arct 0 BoxH 0 0 BoxR arct 0 0 BoxW 0 BoxR arct MR FO}!
/Sc {N 3 -1 roll 0 360 arc FO}!
/Sd {M 4 {dup} repeat 0 G neg dup dup D exch D D FO}!
/Se {N MS T R scale 0 0 1 0 360 arc MR FO}!
/Sg {M MS 22.5 R dup 0 exch G -22.5 R 0.765366865 mul dup 0 D 6 {-45 R dup 0 D} repeat pop MR FO}!
/Sh {M MS dup 0 G -120 R dup 0 D 4 {-60 R dup 0 D} repeat pop MR FO}!
/Si {M MS dup neg 0 exch G 60 R 1.732050808 mul dup 0 D 120 R 0 D MR FO}!
/Sj {M MS R dup -2 div 2 index -2 div G dup 0 D exch 0 exch D neg 0 D MR FO}!
/Sn {M MS dup 0 exch G -36 R 1.175570505 mul dup 0 D 3 {-72 R dup 0 D} repeat pop MR FO}!
/Sp {N 3 -1 roll 0 360 arc fs N}!
/SP {M {D} repeat FO}!
/Sr {M dup -2 div 2 index -2 div G dup 0 D exch 0 exch D neg 0 D FO}!
/SR {MS T /BoxR edef /BoxW edef /BoxH edef BoxR BoxW -2 div BoxH -2 div T BoxR 0 M
  BoxW 0 BoxW BoxH BoxR arct BoxW BoxH 0 BoxH BoxR arct 0 BoxH 0 0 BoxR arct 0 0 BoxW 0 BoxR arct MR FO}!
/Ss {M 1.414213562 mul dup dup dup -2 div dup G 0 D 0 exch D neg 0 D FO}!
/St {M MS dup 0 exch G -60 R 1.732050808 mul dup 0 D -120 R 0 D MR FO}!
/SV {0 exch M 0 D D D D D 0 D FO}!
/Sv {0 0 M D D 0 D D D D D 0 D D FO}!
/Sw {2 copy M 5 2 roll arc FO}!
/Sx {M 1.414213562 mul 5 {dup} repeat -2 div dup G D neg 0 G neg D S}!
/Sy {M dup 0 exch G dup -2 mul dup 0 exch D S}!
/S+ {M dup 0 G dup -2 mul dup 0 D exch dup G 0 exch D S}!
/S- {M dup 0 G dup -2 mul dup 0 D S}!
/sw {stringwidth pop}!
/sh {V MU 0 0 M FP pathbbox N 4 1 roll pop pop pop U}!
/sd {V MU 0 0 M FP pathbbox N pop pop exch pop U}!
/sH {V MU 0 0 M FP pathbbox N exch pop exch sub exch pop U}!
/sb {E exch sh}!
/bl {}!
/bc {E -2 div 0 G}!
/br {E neg 0 G}!
/ml {dup 0 exch sh -2 div G}!
/mc {dup E -2 div exch sh -2 div G}!
/mr {dup E neg exch sh -2 div G}!
/tl {dup 0 exch sh neg G}!
/tc {dup E -2 div exch sh neg G}!
/tr {dup E neg exch sh neg G}!
/mx {2 copy lt {exch} if pop}!
/PSL_xorig 0 def /PSL_yorig 0 def
/TM {2 copy T PSL_yorig add /PSL_yorig edef PSL_xorig add /PSL_xorig edef}!
/PSL_reencode {findfont dup length dict begin
  {1 index /FID ne {def}{pop pop} ifelse} forall
  exch /Encoding edef currentdict end definefont pop
}!
/PSL_eps_begin {
  /PSL_eps_state save def
  /PSL_dict_count countdictstack def
  /PSL_op_count count 1 sub def
  userdict begin
  /showpage {} def
  0 setgray 0 setlinecap 1 setlinewidth
  0 setlinejoin 10 setmiterlimit [] 0 setdash newpath
  /languagelevel where
  {pop languagelevel 1 ne {false setstrokeadjust false setoverprint} if} if
}!
/PSL_eps_end {
  count PSL_op_count sub {pop} repeat
  countdictstack PSL_dict_count sub {end} repeat
  PSL_eps_state restore
}!
/PSL_transp {
  /.setopacityalpha where {pop .setblendmode .setopacityalpha}{
  /pdfmark where {pop [ /BM exch /CA exch dup /ca exch /SetTransparency pdfmark}
  {pop pop} ifelse} ifelse
}!
/ISOLatin1+_Encoding [
/.notdef	/.notdef	/.notdef	/.notdef	/.notdef	/.notdef	/.notdef	/.notdef
/.notdef	/.notdef	/.notdef	/.notdef	/.notdef	/.notdef	/.notdef	/.notdef
/.notdef	/.notdef	/.notdef	/.notdef	/.notdef	/.notdef	/.notdef	/.notdef
/.notdef	/bullet		/ellipsis	/trademark	/emdash		/endash		/fi		/zcaron
/space		/exclam		/quotedbl	/numbersign	/dollar		/percent	/ampersand	/quoteright
/parenleft	/parenright	/asterisk	/plus		/comma		/minus		/period		/slash
/zero		/one		/two		/three		/four		/five		/six		/seven
/eight		/nine		/colon		/semicolon	/less		/equal		/greater	/question
/at		/A		/B		/C		/D		/E		/F		/G
/H		/I		/J		/K		/L		/M		/N		/O
/P		/Q		/R		/S		/T		/U		/V		/W
/X		/Y		/Z		/bracketleft	/backslash	/bracketright	/asciicircum	/underscore
/quoteleft	/a		/b		/c 		/d		/e		/f		/g
/h		/i		/j		/k		/l		/m		/n		/o
/p		/q		/r		/s		/t		/u		/v		/w
/x		/y		/z		/braceleft	/bar		/braceright	/asciitilde	/scaron
/OE		/dagger		/daggerdbl	/Lslash		/fraction	/guilsinglleft	/Scaron		/guilsinglright
/oe		/Ydieresis	/Zcaron		/lslash		/perthousand	/quotedblbase	/quotedblleft	/quotedblright
/dotlessi	/grave		/acute		/circumflex	/tilde		/macron		/breve		/dotaccent
/dieresis	/quotesinglbase	/ring		/cedilla	/quotesingle	/hungarumlaut	/ogonek		/caron
/space		/exclamdown	/cent		/sterling	/currency	/yen		/brokenbar	/section
/dieresis	/copyright	/ordfeminine	/guillemotleft	/logicalnot	/hyphen		/registered	/macron
/degree		/plusminus	/twosuperior	/threesuperior	/acute		/mu		/paragraph	/periodcentered
/cedilla	/onesuperior	/ordmasculine	/guillemotright	/onequarter	/onehalf	/threequarters	/questiondown
/Agrave		/Aacute		/Acircumflex	/Atilde		/Adieresis	/Aring		/AE		/Ccedilla
/Egrave		/Eacute		/Ecircumflex	/Edieresis	/Igrave		/Iacute		/Icircumflex	/Idieresis
/Eth		/Ntilde		/Ograve		/Oacute		/Ocircumflex	/Otilde		/Odieresis	/multiply
/Oslash		/Ugrave		/Uacute		/Ucircumflex	/Udieresis	/Yacute		/Thorn		/germandbls
/agrave		/aacute		/acircumflex	/atilde		/adieresis	/aring		/ae		/ccedilla
/egrave		/eacute		/ecircumflex	/edieresis	/igrave		/iacute		/icircumflex	/idieresis
/eth		/ntilde		/ograve		/oacute		/ocircumflex	/otilde		/odieresis	/divide
/oslash		/ugrave		/uacute		/ucircumflex	/udieresis	/yacute		/thorn		/ydieresis
] def
/PSL_font_encode 0 0 0 0 0 0 0 0 0 0 0 0 0 0 0 0 0 0 0 0 0 0 0 0 0 0 0 0 0 0 0 0 0 0 0 0 0 0 0 39 array astore def
/F0 {/Helvetica Y}!
/F1 {/Helvetica-Bold Y}!
/F2 {/Helvetica-Oblique Y}!
/F3 {/Helvetica-BoldOblique Y}!
/F4 {/Times-Roman Y}!
/F5 {/Times-Bold Y}!
/F6 {/Times-Italic Y}!
/F7 {/Times-BoldItalic Y}!
/F8 {/Courier Y}!
/F9 {/Courier-Bold Y}!
/F10 {/Courier-Oblique Y}!
/F11 {/Courier-BoldOblique Y}!
/F12 {/Symbol Y}!
/F13 {/AvantGarde-Book Y}!
/F14 {/AvantGarde-BookOblique Y}!
/F15 {/AvantGarde-Demi Y}!
/F16 {/AvantGarde-DemiOblique Y}!
/F17 {/Bookman-Demi Y}!
/F18 {/Bookman-DemiItalic Y}!
/F19 {/Bookman-Light Y}!
/F20 {/Bookman-LightItalic Y}!
/F21 {/Helvetica-Narrow Y}!
/F22 {/Helvetica-Narrow-Bold Y}!
/F23 {/Helvetica-Narrow-Oblique Y}!
/F24 {/Helvetica-Narrow-BoldOblique Y}!
/F25 {/NewCenturySchlbk-Roman Y}!
/F26 {/NewCenturySchlbk-Italic Y}!
/F27 {/NewCenturySchlbk-Bold Y}!
/F28 {/NewCenturySchlbk-BoldItalic Y}!
/F29 {/Palatino-Roman Y}!
/F30 {/Palatino-Italic Y}!
/F31 {/Palatino-Bold Y}!
/F32 {/Palatino-BoldItalic Y}!
/F33 {/ZapfChancery-MediumItalic Y}!
/F34 {/ZapfDingbats Y}!
/F35 {/Ryumin-Light-EUC-H Y}!
/F36 {/Ryumin-Light-EUC-V Y}!
/F37 {/GothicBBB-Medium-EUC-H Y}!
/F38 {/GothicBBB-Medium-EUC-V Y}!
/PSL_pathtextdict 26 dict def
/PSL_pathtext
  {PSL_pathtextdict begin
    /textheight exch def
    /just exch def
    /offset exch def
    /str exch def
    /pathdist 0 def
    /setdist offset def
    /charcount 0 def
    /justy just 4 idiv textheight mul 2 div neg def
    V flattenpath
	{movetoproc} {linetoproc}
	{curvetoproc} {closepathproc}
	pathforall
    U N
    end
  } def
PSL_pathtextdict begin
/movetoproc
  { /newy exch def /newx exch def
    /firstx newx def /firsty newy def
    /ovr 0 def
    newx newy transform
    /cpy exch def /cpx exch def
  } def
/linetoproc
  { /oldx newx def /oldy newy def
    /newy exch def /newx exch def
    /dx newx oldx sub def
    /dy newy oldy sub def
    /dist dx dup mul dy dup mul add sqrt def
    dist 0 ne
    { /dsx dx dist div ovr mul def
      /dsy dy dist div ovr mul def
      oldx dsx add oldy dsy add transform
      /cpy exch def /cpx exch def
      /pathdist pathdist dist add def
      {setdist pathdist le
	  {charcount str length lt
	      {setchar} {exit} ifelse}
	  { /ovr setdist pathdist sub def
	    exit}
	  ifelse
      } loop
    } if
  } def
/curvetoproc
  { (ERROR: No curveto's after flattenpath!)
    print
  } def
/closepathproc
  {firstx firsty linetoproc
    firstx firsty movetoproc
  } def
/setchar
  { /char str charcount 1 getinterval def
    /charcount charcount 1 add def
    /charwidth char stringwidth pop def
    V cpx cpy itransform T
      dy dx atan R
      0 justy M
      char show
      0 justy neg G
      currentpoint transform
      /cpy exch def /cpx exch def
    U /setdist setdist charwidth add def
  } def
end
/PSL_curved_text_labels
{ /bits exch def
  /PSL_clippath bits 1 and 1 eq def
  /PSL_placetext bits 2 and 0 eq def
  /PSL_strokeline bits 4 and 4 eq def
  /PSL_firstcall bits 32 and 32 eq def
  /PSL_lastcall bits 64 and 64 eq def
  /PSL_fillbox bits 128 and 128 eq def
  /PSL_drawbox bits 256 and 256 eq def
  /PSL_n1 PSL_n 1 sub def
  /PSL_m1 PSL_m 1 sub def
  /PSL_usebox PSL_fillbox PSL_drawbox or def
  PSL_CT_calcstringwidth
  PSL_CT_calclinedist
  PSL_CT_addcutpoints
  PSL_clippath PSL_firstcall and
  {clipsave N clippath} if
  PSL_setlinepen
  /PSL_nn1 PSL_nn 1 sub def
  /n 0 def
  /k 0 def
  /j 0 def
  /PSL_seg 0 def
  /PSL_xp PSL_nn array def
  /PSL_yp PSL_nn array def
  PSL_xp 0 PSL_xx 0 get put
  PSL_yp 0 PSL_yy 0 get put
  1 1 PSL_nn1
  { /i exch def
    /node_type PSL_kind i get def
    /j j 1 add def
    PSL_xp j PSL_xx i get put
    PSL_yp j PSL_yy i get put
    node_type 1 eq
    {n 0 eq
      {PSL_CT_drawline}
      {	PSL_CT_reversepath
	PSL_CT_textline} ifelse
      /j 0 def
      PSL_xp j PSL_xx i get put
      PSL_yp j PSL_yy i get put
    } if
  } for
  n 0 eq {PSL_CT_drawline} if
  PSL_lastcall
  {PSL_clippath
    {PSL_clip} if N
  } if
} def
/PSL_CT_textline
{PSL_placetext
  {PSL_clippath
    {PSL_CT_clippath} {PSL_CT_placelabel} ifelse
  } if
  /n 0 def /k k 1 add def PSL_setlinepen
} def
/PSL_CT_calcstringwidth
{ /PSL_width PSL_m array def
  0 1 PSL_m1
  { /i exch def
    PSL_width i PSL_str i get stringwidth pop put
  } for
} def
/PSL_CT_calclinedist
{ /PSL_newx PSL_x 0 get def
  /PSL_newy PSL_y 0 get def
  /dist 0.0 def
  /PSL_dist PSL_n array def
  PSL_dist 0 0.0 put
  1 1 PSL_n1
  { /i exch def
    /PSL_oldx PSL_newx def
    /PSL_oldy PSL_newy def
    /PSL_newx PSL_x i get def
    /PSL_newy PSL_y i get def
    /dx PSL_newx PSL_oldx sub def
    /dy PSL_newy PSL_oldy sub def
    /dist dist dx dx mul dy dy mul add sqrt add def
    PSL_dist i dist put
  } for
} def
/PSL_CT_addcutpoints
{ /k 0 def
  /PSL_nc PSL_m 2 mul 1 add def
  /PSL_cuts PSL_nc array def
  /PSL_nc1 PSL_nc 1 sub def
  0 1 PSL_m1
  { /i exch def
    /dist PSL_dist PSL_node i get get def
    /halfwidth PSL_width i get 2 div PSL_gap_x add def
    PSL_cuts k dist halfwidth sub put
    /k k 1 add def
    PSL_cuts k dist halfwidth add put
    /k k 1 add def
  } for
  PSL_cuts k 100000.0 put
  /PSL_nn PSL_n PSL_m 2 mul add def
  /PSL_xx PSL_nn array def
  /PSL_yy PSL_nn array def
  /PSL_kind PSL_nn array def
  /j 0 def
  /k 0 def
  /dist 0.0 def
  0 1 PSL_n1
  { /i exch def
    /last_dist dist def
    /dist PSL_dist i get def
    k 1 PSL_nc1
    { /kk exch def
      /this_cut PSL_cuts kk get def
      dist this_cut gt
      { /ds dist last_dist sub def
	/f ds 0.0 eq {0.0} {dist this_cut sub ds div} ifelse def
	/i1 i 0 eq {0} {i 1 sub} ifelse def
	PSL_xx j PSL_x i get dup PSL_x i1 get sub f mul sub put
	PSL_yy j PSL_y i get dup PSL_y i1 get sub f mul sub put
	PSL_kind j 1 put
	/j j 1 add def
	/k k 1 add def
      } if
    } for
    dist PSL_cuts k get le
    {PSL_xx j PSL_x i get put PSL_yy j PSL_y i get put
      PSL_kind j 0 put
      /j j 1 add def
    } if
  } for
} def
/PSL_CT_reversepath
{PSL_xp j get PSL_xp 0 get lt
  {0 1 j 2 idiv
    { /left exch def
      /right j left sub def
      /tmp PSL_xp left get def
      PSL_xp left PSL_xp right get put
      PSL_xp right tmp put
      /tmp PSL_yp left get def
      PSL_yp left PSL_yp right get put
      PSL_yp right tmp put
    } for
  } if
} def
/PSL_CT_placelabel
{
  PSL_usebox
  {PSL_CT_clippath
    PSL_fillbox
    {V PSL_setboxrgb fill U} if
    PSL_drawbox
    {PSL_setboxpen S} if N
  } if
  PSL_settxtrgb PSL_CT_placeline PSL_str k get PSL_gap_x PSL_just PSL_height PSL_pathtext
} def
/PSL_CT_clippath
{
  /H PSL_height 2 div PSL_gap_y add def
  /xoff j 1 add array def
  /yoff j 1 add array def
  /angle 0 def
  0 1 j {
    /ii exch def
    /x PSL_xp ii get def
    /y PSL_yp ii get def
    ii 0 eq {
      /x1 PSL_xp 1 get def
      /y1 PSL_yp 1 get def
      /dx x1 x sub def
      /dy y1 y sub def
    }
    { /i1 ii 1 sub def
      /x1 PSL_xp i1 get def
      /y1 PSL_yp i1 get def
      /dx x x1 sub def
      /dy y y1 sub def
    } ifelse
    dx 0.0 ne dy 0.0 ne and
    { /angle dy dx atan 90 add def} if
    /sina angle sin def
    /cosa angle cos def
    xoff ii H cosa mul put
    yoff ii H sina mul put
  } for
  PSL_xp 0 get xoff 0 get add PSL_yp 0 get yoff 0 get add M
  1 1 j {
    /ii exch def
    PSL_xp ii get xoff ii get add PSL_yp ii get yoff ii get add L
  } for
  j -1 0 {
    /ii exch def
    PSL_xp ii get xoff ii get sub PSL_yp ii get yoff ii get sub L
  } for P
} def
/PSL_CT_drawline
{
  /str 20 string def
  PSL_strokeline
  {PSL_CT_placeline PSL_setlinepen S} if
  /PSL_seg PSL_seg 1 add def
  /n 1 def
} def
/PSL_CT_placeline
{PSL_xp 0 get PSL_yp 0 get M
  1 1 j { /ii exch def PSL_xp ii get PSL_yp ii get L} for
} def
/PSL_straight_text_labels
{
  /bits exch def
  /PSL_clippath bits 1 and 0 eq def
  /PSL_rounded bits 16 and 16 eq def
  /PSL_fillbox bits 128 and 128 eq def
  /PSL_drawbox bits 256 and 256 eq def
  /PSL_m1 PSL_m 1 sub def
  /PSL_justx PSL_just 4 mod 1 sub 2 div neg def
  /PSL_justy PSL_just 4 idiv PSL_height mul 2 div neg def
  /PSL_usebox PSL_fillbox PSL_drawbox or def
  PSL_clippath
  {PSL_ST_clippath}
  {PSL_usebox {PSL_ST_clippath} if
    PSL_ST_placelabel
  } ifelse
} def
/PSL_ST_placelabel
{PSL_settxtrgb
  0 1 PSL_m1
  { /k exch def
    /xp PSL_txt_x k get def
    /yp PSL_txt_y k get def
    V PSL_txt_x k get PSL_txt_y k get T
    PSL_angle k get R
    /BoxW PSL_str k get stringwidth pop def
    BoxW PSL_justx mul PSL_justy M
    PSL_str k get show
    U
  } for
} def
/PSL_ST_clippath
{N
  PSL_usebox not {clipsave clippath} if
  PSL_rounded {PSL_ST_clippath_round} {PSL_ST_clippath_rect} ifelse
  PSL_usebox
  {PSL_fillbox
    {V PSL_setboxrgb fill U} if
    PSL_drawbox
    {PSL_setboxpen S} if N
  }
  {PSL_clip
  } ifelse
  N
} def
/PSL_ST_clippath_rect
{
  /BoxH PSL_height PSL_gap_y 2 mul add def
  /DelY BoxH BoxH 0 3 array astore def
  0 1 PSL_m1
  { /k exch def
    /xp PSL_txt_x k get def
    /yp PSL_txt_y k get def
    /MAT PSL_angle k get matrix R def
    /BoxW PSL_str k get stringwidth pop PSL_gap_x 2 mul add def
    /x0 0 BoxW PSL_justx mul add def
    /y0 0 PSL_justy add PSL_gap_y sub def
    /DelX 0 BoxW BoxW 3 array astore def
    x0 y0 MAT transform
    /dy exch def /dx exch def
    xp dx add yp dy add M
    0 1 2
    {
      /ii exch def
      x0 DelX ii get add y0 DelY ii get add MAT transform
      /dy exch def /dx exch def
      xp dx add yp dy add L
    } for P
  } for
} def
/PSL_ST_clippath_round
{
  /PSL_justy2 PSL_just 4 idiv 2 div neg def
  /BoxR PSL_gap_x PSL_gap_y lt {PSL_gap_x} {PSL_gap_y} ifelse def
  /BoxH PSL_height PSL_gap_y 2 mul add def
  /y0 PSL_height PSL_gap_y 2 mul add PSL_justy2 mul def
  0 1 PSL_m1
  { /k exch def
    /xp PSL_txt_x k get def
    /yp PSL_txt_y k get def
    /BoxW PSL_str k get stringwidth pop PSL_gap_x 2 mul add def
    /x0 BoxW PSL_justx mul def
    xp yp T PSL_angle k get R x0 y0 T
    BoxR 0 M
    BoxW 0 BoxW BoxH BoxR arct BoxW BoxH 0 BoxH BoxR arct 0 BoxH 0 0 BoxR arct 0 0 BoxW 0 BoxR arct P
    x0 neg y0 neg T PSL_angle k get neg R xp neg yp neg T
  } for
} def
/PSL_nclip 0 def
/PSL_clip {clip /PSL_nclip PSL_nclip 1 add def} def
/PSL_eoclip {eoclip /PSL_nclip PSL_nclip 1 add def} def
/PSL_cliprestore {cliprestore /PSL_nclip PSL_nclip 1 sub def} def
%%EndProlog

%%BeginSetup
/PSLevel /languagelevel where {pop languagelevel} {1} ifelse def
PSLevel 1 gt { << /PageSize [595 842] /ImagingBBox null >> setpagedevice } if
%%EndSetup

%%Page: 1 1

%%BeginPageSetup
V 0.06 0.06 scale
%%EndPageSetup

/PSL_page_xsize 9917 def
/PSL_page_ysize 14033 def
0 A
FQ
O0
3000 11400 TM

% PostScript produced by:
%%GMT: psbasemap -R-90.5/-62/0/650 -JX4i/-1.25i -Bxa5 -Bya100f50+lDepth [km] -BWeSn -X2.5i -Y9.5i -P -K
%%PROJ: xy -90.50000000 -62.00000000 0.00000000 650.00000000 -90.500 -62.000 650.000 -0.000 +xy +a=6378137.000 +b=6356752.314245
%%BeginObject PSL_Layer_1
0 setlinecap
0 setlinejoin
3.32551 setmiterlimit
2 setlinecap
/MM {neg exch M} def
/PSL_A0_y 83 def
/PSL_A1_y 0 def
25 W
0 1500 M 0 -1500 D S
8 W
0 1500 M -83 0 D S
0 1269 M -83 0 D S
0 1038 M -83 0 D S
0 808 M -83 0 D S
0 577 M -83 0 D S
0 346 M -83 0 D S
0 115 M -83 0 D S
/PSL_AH0 0
PSL_font_encode 0 get 0 eq {ISOLatin1+_Encoding /Helvetica /Helvetica PSL_reencode PSL_font_encode 0 1 put} if
200 F0
(0) sw mx
(100) sw mx
(200) sw mx
(300) sw mx
(400) sw mx
(500) sw mx
(600) sw mx
def
/PSL_A0_y PSL_A0_y 83 add def
1500 PSL_A0_y MM
(0) mr Z
1269 PSL_A0_y MM
(100) mr Z
1038 PSL_A0_y MM
(200) mr Z
808 PSL_A0_y MM
(300) mr Z
577 PSL_A0_y MM
(400) mr Z
346 PSL_A0_y MM
(500) mr Z
115 PSL_A0_y MM
(600) mr Z
/PSL_A0_y PSL_A0_y PSL_AH0 add def
0 1385 M -42 0 D S
0 1154 M -42 0 D S
0 923 M -42 0 D S
0 692 M -42 0 D S
0 462 M -42 0 D S
0 231 M -42 0 D S
0 0 M -42 0 D S
/PSL_LH 267 F0
(M) sh def
/PSL_L_y PSL_A0_y PSL_A1_y mx 133 add def
750 PSL_L_y MM
V 90 R (Depth \[km\]) bc Z U
4800 0 T
/MM {exch M} def
/PSL_A0_y 83 def
/PSL_A1_y 0 def
25 W
0 1500 M 0 -1500 D S
8 W
0 1500 M 83 0 D S
0 1269 M 83 0 D S
0 1038 M 83 0 D S
0 808 M 83 0 D S
0 577 M 83 0 D S
0 346 M 83 0 D S
0 115 M 83 0 D S
0 1385 M 42 0 D S
0 1154 M 42 0 D S
0 923 M 42 0 D S
0 692 M 42 0 D S
0 462 M 42 0 D S
0 231 M 42 0 D S
0 0 M 42 0 D S
/PSL_LH 0 def /PSL_L_y PSL_A0_y PSL_A1_y mx def
-4800 0 T
/MM {neg M} def
/PSL_A0_y 83 def
/PSL_A1_y 0 def
25 W
0 0 M 4800 0 D S
8 W
84 0 M 0 -83 D S
926 0 M 0 -83 D S
1768 0 M 0 -83 D S
2611 0 M 0 -83 D S
3453 0 M 0 -83 D S
4295 0 M 0 -83 D S
/PSL_AH0 0
200 F0
(-90) sh mx
(-85) sh mx
(-80) sh mx
(-75) sh mx
(-70) sh mx
(-65) sh mx
def
/PSL_A0_y PSL_A0_y 83 add PSL_AH0 add def
84 PSL_A0_y MM
(-90) bc Z
926 PSL_A0_y MM
(-85) bc Z
1768 PSL_A0_y MM
(-80) bc Z
2611 PSL_A0_y MM
(-75) bc Z
3453 PSL_A0_y MM
(-70) bc Z
4295 PSL_A0_y MM
(-65) bc Z
/PSL_LH 0 def /PSL_L_y PSL_A0_y PSL_A1_y mx def
0 1500 T
/MM {M} def
/PSL_A0_y 83 def
/PSL_A1_y 0 def
25 W
0 0 M 4800 0 D S
8 W
84 0 M 0 83 D S
926 0 M 0 83 D S
1768 0 M 0 83 D S
2611 0 M 0 83 D S
3453 0 M 0 83 D S
4295 0 M 0 83 D S
/PSL_LH 0 def /PSL_L_y PSL_A0_y PSL_A1_y mx def
0 -1500 T
0 setlinecap
%%EndObject
0 A
FQ
O0
0 0 TM

% PostScript produced by:
%%GMT: psxy -R-90.5/-62/0/650 -JX4i/-1.25i -Sc0.07 -GTHISTLE4 -Wthinnest -N -O -K
%%PROJ: xy -90.50000000 -62.00000000 0.00000000 650.00000000 -90.500 -62.000 650.000 -0.000 +xy +a=6378137.000 +b=6356752.314245
%%BeginObject PSL_Layer_2
0 setlinecap
0 setlinejoin
3.32551 setmiterlimit
4 W
V
{0.545 0.482 0.545 C} FS
O1
17 3573 1218 Sc
17 3443 1315 Sc
17 4480 1470 Sc
17 4492 1477 Sc
17 3488 1140 Sc
17 4249 524 Sc
17 3513 1222 Sc
17 3445 1222 Sc
17 3329 1424 Sc
17 3937 879 Sc
17 3591 1224 Sc
17 3530 1267 Sc
17 3840 1058 Sc
17 3830 1079 Sc
17 3581 1185 Sc
17 3532 1245 Sc
17 3210 1450 Sc
17 3491 1305 Sc
17 3533 1258 Sc
17 3586 1189 Sc
17 3256 1250 Sc
17 3529 1225 Sc
17 3508 1253 Sc
17 3462 1274 Sc
17 3534 1263 Sc
17 3532 1234 Sc
17 3514 1227 Sc
17 3532 1203 Sc
17 3522 1268 Sc
17 3554 1169 Sc
17 3423 1485 Sc
17 3481 1272 Sc
17 3476 1259 Sc
17 3495 1220 Sc
17 3539 1222 Sc
17 3542 1190 Sc
17 3585 1237 Sc
17 3345 1378 Sc
17 3843 1044 Sc
17 3483 1193 Sc
17 3531 1222 Sc
17 3421 1275 Sc
17 3464 1232 Sc
17 3085 1385 Sc
17 3534 1254 Sc
17 3600 1240 Sc
17 3505 1253 Sc
17 3549 1244 Sc
17 3209 1451 Sc
17 3482 1158 Sc
17 3530 1202 Sc
17 4099 828 Sc
17 3317 1496 Sc
17 3547 1268 Sc
17 3592 1243 Sc
17 3547 1249 Sc
17 3541 1204 Sc
17 3565 1239 Sc
17 3496 1168 Sc
17 3275 1463 Sc
17 3445 1360 Sc
17 3520 1072 Sc
17 3636 1195 Sc
17 4590 1412 Sc
17 4572 1416 Sc
17 4636 1468 Sc
17 3345 1408 Sc
17 4566 1374 Sc
17 3599 1139 Sc
17 3478 1319 Sc
17 3559 1194 Sc
17 3568 1181 Sc
17 3422 1374 Sc
17 3488 1266 Sc
17 3520 1223 Sc
17 3510 1201 Sc
17 3260 1500 Sc
17 3254 1494 Sc
17 3266 1482 Sc
17 3438 1192 Sc
17 3525 1197 Sc
17 3267 1483 Sc
17 3969 937 Sc
17 3556 1240 Sc
17 2992 1465 Sc
17 3266 1488 Sc
17 3262 1490 Sc
17 3347 1300 Sc
17 3264 1486 Sc
17 3526 1215 Sc
17 3315 1332 Sc
17 3282 1475 Sc
17 3307 1464 Sc
17 3340 1436 Sc
17 3554 1256 Sc
17 3295 1500 Sc
17 3537 1470 Sc
17 3308 1472 Sc
17 2998 1418 Sc
17 3299 1477 Sc
17 3134 1500 Sc
17 3279 1410 Sc
17 4508 1311 Sc
17 4546 1319 Sc
17 3527 1145 Sc
17 3544 1193 Sc
17 3431 1184 Sc
17 3270 1477 Sc
17 3261 1487 Sc
17 3261 1486 Sc
17 3270 1478 Sc
17 3186 1500 Sc
17 3938 891 Sc
17 3576 1178 Sc
17 3549 1191 Sc
17 3266 1419 Sc
17 3971 908 Sc
17 4516 1486 Sc
17 4493 1402 Sc
17 3518 1204 Sc
17 2865 1500 Sc
17 4524 1345 Sc
17 3189 1500 Sc
17 3552 1167 Sc
17 3581 1110 Sc
17 3044 1401 Sc
17 3419 1270 Sc
17 3581 1235 Sc
17 3589 1216 Sc
17 3534 1225 Sc
17 3566 1235 Sc
17 3490 1146 Sc
17 3227 1451 Sc
17 3571 1203 Sc
17 3579 1249 Sc
17 3463 1094 Sc
17 3542 1167 Sc
17 3573 1224 Sc
17 3231 1454 Sc
17 3571 1265 Sc
17 3581 1500 Sc
U
%%EndObject
0 A
FQ
O0
0 0 TM

% PostScript produced by:
%%GMT: pstext -R-90.5/-62/0/650 -JX4i/-1.25i -F+f14,31,+j -N -O -K
%%PROJ: xy -90.50000000 -62.00000000 0.00000000 650.00000000 -90.500 -62.000 650.000 -0.000 +xy +a=6378137.000 +b=6356752.314245
%%BeginObject PSL_Layer_3
0 setlinecap
0 setlinejoin
3.32551 setmiterlimit
0 1615 M PSL_font_encode 31 get 0 eq {ISOLatin1+_Encoding /Palatino-Bold /Palatino-Bold PSL_reencode PSL_font_encode 31 1 put} if
233 F31
(1) Z
4800 1615 M V MU 0 0 M (1) FP 0 82 G 163 F31 (') FP 0 -82 G pathbbox N pop exch pop add U neg 0 G
(1) Z
0 82 G 163 F31 (') Z
0 -82 G %%EndObject
0 A
FQ
O0
0 -2400 TM

% PostScript produced by:
%%GMT: psbasemap -R-90.5/-62/0/650 -JX4i/-1.25i -Bxa5 -Bya100f50+lDepth [km] -BWeSn -Y-2i -O -K
%%PROJ: xy -90.50000000 -62.00000000 0.00000000 650.00000000 -90.500 -62.000 650.000 -0.000 +xy +a=6378137.000 +b=6356752.314245
%%BeginObject PSL_Layer_4
0 setlinecap
0 setlinejoin
3.32551 setmiterlimit
2 setlinecap
/MM {neg exch M} def
/PSL_A0_y 83 def
/PSL_A1_y 0 def
25 W
0 1500 M 0 -1500 D S
8 W
0 1500 M -83 0 D S
0 1269 M -83 0 D S
0 1038 M -83 0 D S
0 808 M -83 0 D S
0 577 M -83 0 D S
0 346 M -83 0 D S
0 115 M -83 0 D S
/PSL_AH0 0
PSL_font_encode 0 get 0 eq {ISOLatin1+_Encoding /Helvetica /Helvetica PSL_reencode PSL_font_encode 0 1 put} if
200 F0
(0) sw mx
(100) sw mx
(200) sw mx
(300) sw mx
(400) sw mx
(500) sw mx
(600) sw mx
def
/PSL_A0_y PSL_A0_y 83 add def
1500 PSL_A0_y MM
(0) mr Z
1269 PSL_A0_y MM
(100) mr Z
1038 PSL_A0_y MM
(200) mr Z
808 PSL_A0_y MM
(300) mr Z
577 PSL_A0_y MM
(400) mr Z
346 PSL_A0_y MM
(500) mr Z
115 PSL_A0_y MM
(600) mr Z
/PSL_A0_y PSL_A0_y PSL_AH0 add def
0 1385 M -42 0 D S
0 1154 M -42 0 D S
0 923 M -42 0 D S
0 692 M -42 0 D S
0 462 M -42 0 D S
0 231 M -42 0 D S
0 0 M -42 0 D S
/PSL_LH 267 F0
(M) sh def
/PSL_L_y PSL_A0_y PSL_A1_y mx 133 add def
750 PSL_L_y MM
V 90 R (Depth \[km\]) bc Z U
4800 0 T
/MM {exch M} def
/PSL_A0_y 83 def
/PSL_A1_y 0 def
25 W
0 1500 M 0 -1500 D S
8 W
0 1500 M 83 0 D S
0 1269 M 83 0 D S
0 1038 M 83 0 D S
0 808 M 83 0 D S
0 577 M 83 0 D S
0 346 M 83 0 D S
0 115 M 83 0 D S
0 1385 M 42 0 D S
0 1154 M 42 0 D S
0 923 M 42 0 D S
0 692 M 42 0 D S
0 462 M 42 0 D S
0 231 M 42 0 D S
0 0 M 42 0 D S
/PSL_LH 0 def /PSL_L_y PSL_A0_y PSL_A1_y mx def
-4800 0 T
/MM {neg M} def
/PSL_A0_y 83 def
/PSL_A1_y 0 def
25 W
0 0 M 4800 0 D S
8 W
84 0 M 0 -83 D S
926 0 M 0 -83 D S
1768 0 M 0 -83 D S
2611 0 M 0 -83 D S
3453 0 M 0 -83 D S
4295 0 M 0 -83 D S
/PSL_AH0 0
200 F0
(-90) sh mx
(-85) sh mx
(-80) sh mx
(-75) sh mx
(-70) sh mx
(-65) sh mx
def
/PSL_A0_y PSL_A0_y 83 add PSL_AH0 add def
84 PSL_A0_y MM
(-90) bc Z
926 PSL_A0_y MM
(-85) bc Z
1768 PSL_A0_y MM
(-80) bc Z
2611 PSL_A0_y MM
(-75) bc Z
3453 PSL_A0_y MM
(-70) bc Z
4295 PSL_A0_y MM
(-65) bc Z
/PSL_LH 0 def /PSL_L_y PSL_A0_y PSL_A1_y mx def
0 1500 T
/MM {M} def
/PSL_A0_y 83 def
/PSL_A1_y 0 def
25 W
0 0 M 4800 0 D S
8 W
84 0 M 0 83 D S
926 0 M 0 83 D S
1768 0 M 0 83 D S
2611 0 M 0 83 D S
3453 0 M 0 83 D S
4295 0 M 0 83 D S
/PSL_LH 0 def /PSL_L_y PSL_A0_y PSL_A1_y mx def
0 -1500 T
0 setlinecap
%%EndObject
0 A
FQ
O0
0 0 TM

% PostScript produced by:
%%GMT: psxy -R-90.5/-62/0/650 -JX4i/-1.25i -Sc0.07 -GTHISTLE4 -Wthinnest -N -O -K
%%PROJ: xy -90.50000000 -62.00000000 0.00000000 650.00000000 -90.500 -62.000 650.000 -0.000 +xy +a=6378137.000 +b=6356752.314245
%%BeginObject PSL_Layer_5
0 setlinecap
0 setlinejoin
3.32551 setmiterlimit
4 W
V
{0.545 0.482 0.545 C} FS
O1
17 3665 1257 Sc
17 4518 244 Sc
17 4040 962 Sc
17 3983 1003 Sc
17 3994 1084 Sc
17 3974 1061 Sc
17 4094 918 Sc
17 3956 1076 Sc
17 3925 1044 Sc
17 3919 1044 Sc
17 4544 412 Sc
17 4038 1008 Sc
17 3970 1022 Sc
17 4104 951 Sc
17 3720 1237 Sc
17 3930 1066 Sc
17 3560 1302 Sc
17 3991 1036 Sc
17 4509 277 Sc
17 3686 1260 Sc
17 3584 1273 Sc
17 3942 1077 Sc
17 3922 1106 Sc
17 3648 1275 Sc
17 3932 1108 Sc
17 3924 927 Sc
17 3940 1050 Sc
17 4028 928 Sc
17 3963 1039 Sc
17 3550 1307 Sc
17 3922 1068 Sc
17 4133 864 Sc
17 3935 1080 Sc
17 3991 1043 Sc
17 3974 1050 Sc
17 3975 1069 Sc
17 4012 942 Sc
17 3604 1330 Sc
17 3340 1443 Sc
17 3963 1072 Sc
17 3954 1098 Sc
17 3975 1004 Sc
17 3970 1033 Sc
17 3907 1071 Sc
17 4004 1029 Sc
17 3974 1053 Sc
17 4055 985 Sc
17 3573 1279 Sc
17 3869 1096 Sc
17 3925 1122 Sc
17 3633 1263 Sc
17 3678 1254 Sc
17 4000 1039 Sc
17 4109 923 Sc
17 4016 1001 Sc
17 3908 1043 Sc
17 3929 1092 Sc
17 3980 1054 Sc
17 3973 1051 Sc
17 4132 877 Sc
17 3990 1051 Sc
17 4021 978 Sc
17 4035 1021 Sc
17 4059 996 Sc
17 3948 1007 Sc
17 4518 240 Sc
17 3901 1089 Sc
17 3526 1294 Sc
17 3897 903 Sc
17 4028 985 Sc
17 4103 930 Sc
17 3974 1078 Sc
17 3978 1059 Sc
17 3979 1038 Sc
17 3961 1015 Sc
17 3981 1059 Sc
17 3954 965 Sc
17 3935 1109 Sc
17 4437 1468 Sc
17 4040 1003 Sc
17 4398 1366 Sc
17 3369 1398 Sc
17 3996 1023 Sc
17 3962 1081 Sc
17 4052 955 Sc
17 3568 1317 Sc
17 3952 1108 Sc
17 3596 1290 Sc
17 4112 961 Sc
17 3380 1410 Sc
17 3982 1017 Sc
17 4430 1408 Sc
17 3971 1035 Sc
17 3766 1189 Sc
17 3674 1240 Sc
17 3944 1038 Sc
17 4016 1062 Sc
17 3938 1087 Sc
17 4436 1453 Sc
17 3944 1047 Sc
17 4080 956 Sc
17 3965 1068 Sc
17 4099 927 Sc
17 3907 1083 Sc
17 3951 1028 Sc
17 3981 1035 Sc
17 3573 1295 Sc
17 4055 913 Sc
17 3987 1042 Sc
17 4022 1001 Sc
17 3927 1143 Sc
17 4061 1115 Sc
17 3983 1054 Sc
17 3357 1454 Sc
17 3348 1456 Sc
17 4528 240 Sc
17 3901 1124 Sc
17 4009 1019 Sc
17 4138 899 Sc
17 4494 261 Sc
17 3945 1028 Sc
17 3964 1037 Sc
17 3619 1265 Sc
17 3938 1084 Sc
17 3900 1073 Sc
17 3596 1310 Sc
17 4033 1011 Sc
17 3679 1227 Sc
17 4006 1019 Sc
17 3601 1254 Sc
17 3573 1308 Sc
17 3928 1130 Sc
17 4041 1006 Sc
17 3939 1092 Sc
17 4040 1094 Sc
17 3647 1260 Sc
17 3929 1083 Sc
17 3793 1201 Sc
17 3941 1093 Sc
17 3707 1214 Sc
17 4529 305 Sc
17 3497 1347 Sc
17 4322 1387 Sc
17 4093 921 Sc
17 4510 264 Sc
17 3761 1214 Sc
17 3986 1032 Sc
17 3991 1027 Sc
17 4502 272 Sc
17 4136 893 Sc
17 3929 972 Sc
17 4054 898 Sc
17 3557 1298 Sc
17 3575 1296 Sc
17 3748 1224 Sc
17 4264 1401 Sc
17 3946 1056 Sc
17 3604 1290 Sc
17 3744 1220 Sc
17 3937 1004 Sc
17 3707 1233 Sc
17 3980 1013 Sc
17 3922 1077 Sc
17 3375 1401 Sc
17 3979 1052 Sc
17 3927 1080 Sc
17 3956 1043 Sc
17 3614 1285 Sc
17 3852 1056 Sc
17 3946 1076 Sc
17 3698 1255 Sc
17 3983 1048 Sc
17 3684 1261 Sc
17 4402 1474 Sc
17 3922 1073 Sc
17 4286 1295 Sc
17 3921 1084 Sc
17 3778 1224 Sc
17 3987 1021 Sc
17 3777 1191 Sc
17 3972 1089 Sc
17 3920 1080 Sc
17 3959 996 Sc
17 3413 1386 Sc
17 3971 1029 Sc
17 3929 1092 Sc
17 3982 1038 Sc
17 3758 1209 Sc
17 3953 1154 Sc
17 3969 1021 Sc
17 3975 1012 Sc
17 4014 1002 Sc
17 3707 1249 Sc
17 4027 1014 Sc
17 3519 1294 Sc
17 3979 1034 Sc
17 3739 1210 Sc
17 3676 1260 Sc
17 3668 1285 Sc
17 3840 942 Sc
17 3996 1053 Sc
17 3621 1259 Sc
17 4079 951 Sc
17 3959 1038 Sc
17 4049 855 Sc
17 3342 1361 Sc
17 4035 893 Sc
17 4083 894 Sc
17 3979 1035 Sc
17 3502 1309 Sc
17 3973 1063 Sc
17 3737 1191 Sc
17 3887 1159 Sc
17 3641 1300 Sc
17 3998 1053 Sc
17 3649 1268 Sc
17 3924 1072 Sc
17 4064 927 Sc
17 4035 975 Sc
17 3337 1443 Sc
17 3622 1279 Sc
17 3960 1086 Sc
17 3810 1228 Sc
17 3964 1032 Sc
17 4038 898 Sc
17 4003 1081 Sc
17 3791 1023 Sc
17 3686 1273 Sc
17 3921 1021 Sc
17 3985 1031 Sc
17 4048 892 Sc
17 3924 1102 Sc
17 4016 1044 Sc
17 3599 1304 Sc
17 3990 1011 Sc
17 3931 1085 Sc
17 3996 1041 Sc
17 4103 901 Sc
17 3422 1393 Sc
17 4000 981 Sc
17 3950 1071 Sc
17 3672 1281 Sc
17 3823 1185 Sc
17 4070 915 Sc
17 3922 809 Sc
17 3689 1292 Sc
17 3988 1008 Sc
17 3978 1036 Sc
17 3943 1057 Sc
17 3801 1212 Sc
17 3848 1079 Sc
17 4034 874 Sc
17 3863 1096 Sc
17 3668 1256 Sc
17 3912 1062 Sc
17 3986 1075 Sc
17 3676 1268 Sc
17 3861 1160 Sc
17 3907 1092 Sc
17 3936 1100 Sc
17 3983 1006 Sc
17 3410 1374 Sc
17 3586 1278 Sc
17 3832 1071 Sc
17 3633 1298 Sc
17 4026 997 Sc
17 3758 1160 Sc
17 3615 1283 Sc
17 3907 1081 Sc
17 3983 1028 Sc
17 3912 1105 Sc
17 3922 1055 Sc
17 3761 1209 Sc
17 3996 1025 Sc
17 4006 1029 Sc
17 4043 992 Sc
17 3673 1262 Sc
17 3982 1086 Sc
17 3994 1030 Sc
17 3297 1472 Sc
17 3927 1080 Sc
17 3304 1471 Sc
17 3962 1071 Sc
17 3735 1187 Sc
17 3969 1032 Sc
17 3519 1299 Sc
17 4067 962 Sc
17 3983 1060 Sc
17 3359 1432 Sc
17 3593 1271 Sc
17 3316 1460 Sc
17 4324 1380 Sc
17 3793 1224 Sc
17 3668 1224 Sc
17 3624 1280 Sc
17 4040 959 Sc
17 3460 1380 Sc
17 3954 1050 Sc
17 4521 244 Sc
17 4005 1026 Sc
17 3985 1007 Sc
17 3989 1030 Sc
17 3727 1202 Sc
17 3951 1013 Sc
17 3568 1305 Sc
17 3531 1225 Sc
17 3961 1017 Sc
17 3991 1000 Sc
17 3966 1047 Sc
17 3631 1262 Sc
17 3974 1043 Sc
17 3946 1054 Sc
17 4019 1009 Sc
17 3599 1305 Sc
17 3764 1207 Sc
17 3702 1212 Sc
17 3932 1085 Sc
17 4502 263 Sc
17 4497 275 Sc
17 4014 1044 Sc
17 3975 1050 Sc
17 3395 1357 Sc
17 3734 1181 Sc
17 3932 1098 Sc
17 3979 1041 Sc
17 3946 1061 Sc
17 3966 994 Sc
17 3987 1052 Sc
17 3966 1003 Sc
17 3974 1081 Sc
17 3938 1085 Sc
17 4601 209 Sc
17 3917 1122 Sc
17 3324 1432 Sc
17 3939 1062 Sc
17 3993 1007 Sc
17 3994 1013 Sc
17 3959 1012 Sc
17 3914 1126 Sc
17 3959 1044 Sc
17 3980 1024 Sc
17 3504 1312 Sc
17 4094 934 Sc
17 3386 1353 Sc
17 3978 1068 Sc
17 3816 1134 Sc
17 3762 1166 Sc
17 3991 1017 Sc
17 3995 1024 Sc
17 3938 1090 Sc
17 3940 1082 Sc
17 4000 1025 Sc
17 3982 1034 Sc
17 3975 1050 Sc
17 4025 959 Sc
17 3932 1086 Sc
17 4038 970 Sc
17 3763 1212 Sc
17 3982 1002 Sc
U
%%EndObject
0 A
FQ
O0
0 0 TM

% PostScript produced by:
%%GMT: pstext -R-90.5/-62/0/650 -JX4i/-1.25i -F+f14,31,+j -N -O -K
%%PROJ: xy -90.50000000 -62.00000000 0.00000000 650.00000000 -90.500 -62.000 650.000 -0.000 +xy +a=6378137.000 +b=6356752.314245
%%BeginObject PSL_Layer_6
0 setlinecap
0 setlinejoin
3.32551 setmiterlimit
0 1615 M PSL_font_encode 31 get 0 eq {ISOLatin1+_Encoding /Palatino-Bold /Palatino-Bold PSL_reencode PSL_font_encode 31 1 put} if
233 F31
(2) Z
4716 1615 M V MU 0 0 M (2) FP 0 82 G 163 F31 (') FP 0 -82 G pathbbox N pop exch pop add U neg 0 G
(2) Z
0 82 G 163 F31 (') Z
0 -82 G %%EndObject
0 A
FQ
O0
0 -2400 TM

% PostScript produced by:
%%GMT: psbasemap -R-90.5/-62/0/650 -JX4i/-1.25i -Bxa5 -Bya100f50+lDepth [km] -BWeSn -Y-2i -O -K
%%PROJ: xy -90.50000000 -62.00000000 0.00000000 650.00000000 -90.500 -62.000 650.000 -0.000 +xy +a=6378137.000 +b=6356752.314245
%%BeginObject PSL_Layer_7
0 setlinecap
0 setlinejoin
3.32551 setmiterlimit
2 setlinecap
/MM {neg exch M} def
/PSL_A0_y 83 def
/PSL_A1_y 0 def
25 W
0 1500 M 0 -1500 D S
8 W
0 1500 M -83 0 D S
0 1269 M -83 0 D S
0 1038 M -83 0 D S
0 808 M -83 0 D S
0 577 M -83 0 D S
0 346 M -83 0 D S
0 115 M -83 0 D S
/PSL_AH0 0
PSL_font_encode 0 get 0 eq {ISOLatin1+_Encoding /Helvetica /Helvetica PSL_reencode PSL_font_encode 0 1 put} if
200 F0
(0) sw mx
(100) sw mx
(200) sw mx
(300) sw mx
(400) sw mx
(500) sw mx
(600) sw mx
def
/PSL_A0_y PSL_A0_y 83 add def
1500 PSL_A0_y MM
(0) mr Z
1269 PSL_A0_y MM
(100) mr Z
1038 PSL_A0_y MM
(200) mr Z
808 PSL_A0_y MM
(300) mr Z
577 PSL_A0_y MM
(400) mr Z
346 PSL_A0_y MM
(500) mr Z
115 PSL_A0_y MM
(600) mr Z
/PSL_A0_y PSL_A0_y PSL_AH0 add def
0 1385 M -42 0 D S
0 1154 M -42 0 D S
0 923 M -42 0 D S
0 692 M -42 0 D S
0 462 M -42 0 D S
0 231 M -42 0 D S
0 0 M -42 0 D S
/PSL_LH 267 F0
(M) sh def
/PSL_L_y PSL_A0_y PSL_A1_y mx 133 add def
750 PSL_L_y MM
V 90 R (Depth \[km\]) bc Z U
4800 0 T
/MM {exch M} def
/PSL_A0_y 83 def
/PSL_A1_y 0 def
25 W
0 1500 M 0 -1500 D S
8 W
0 1500 M 83 0 D S
0 1269 M 83 0 D S
0 1038 M 83 0 D S
0 808 M 83 0 D S
0 577 M 83 0 D S
0 346 M 83 0 D S
0 115 M 83 0 D S
0 1385 M 42 0 D S
0 1154 M 42 0 D S
0 923 M 42 0 D S
0 692 M 42 0 D S
0 462 M 42 0 D S
0 231 M 42 0 D S
0 0 M 42 0 D S
/PSL_LH 0 def /PSL_L_y PSL_A0_y PSL_A1_y mx def
-4800 0 T
/MM {neg M} def
/PSL_A0_y 83 def
/PSL_A1_y 0 def
25 W
0 0 M 4800 0 D S
8 W
84 0 M 0 -83 D S
926 0 M 0 -83 D S
1768 0 M 0 -83 D S
2611 0 M 0 -83 D S
3453 0 M 0 -83 D S
4295 0 M 0 -83 D S
/PSL_AH0 0
200 F0
(-90) sh mx
(-85) sh mx
(-80) sh mx
(-75) sh mx
(-70) sh mx
(-65) sh mx
def
/PSL_A0_y PSL_A0_y 83 add PSL_AH0 add def
84 PSL_A0_y MM
(-90) bc Z
926 PSL_A0_y MM
(-85) bc Z
1768 PSL_A0_y MM
(-80) bc Z
2611 PSL_A0_y MM
(-75) bc Z
3453 PSL_A0_y MM
(-70) bc Z
4295 PSL_A0_y MM
(-65) bc Z
/PSL_LH 0 def /PSL_L_y PSL_A0_y PSL_A1_y mx def
0 1500 T
/MM {M} def
/PSL_A0_y 83 def
/PSL_A1_y 0 def
25 W
0 0 M 4800 0 D S
8 W
84 0 M 0 83 D S
926 0 M 0 83 D S
1768 0 M 0 83 D S
2611 0 M 0 83 D S
3453 0 M 0 83 D S
4295 0 M 0 83 D S
/PSL_LH 0 def /PSL_L_y PSL_A0_y PSL_A1_y mx def
0 -1500 T
0 setlinecap
%%EndObject
0 A
FQ
O0
0 0 TM

% PostScript produced by:
%%GMT: psxy -R-90.5/-62/0/650 -JX4i/-1.25i -Sc0.07 -GTHISTLE4 -Wthinnest -N -O -K
%%PROJ: xy -90.50000000 -62.00000000 0.00000000 650.00000000 -90.500 -62.000 650.000 -0.000 +xy +a=6378137.000 +b=6356752.314245
%%BeginObject PSL_Layer_8
0 setlinecap
0 setlinejoin
3.32551 setmiterlimit
4 W
V
{0.545 0.482 0.545 C} FS
O1
17 4185 1461 Sc
17 3307 1408 Sc
17 3900 1195 Sc
17 3295 1399 Sc
17 3299 1385 Sc
17 3747 1246 Sc
17 4593 190 Sc
17 3734 1361 Sc
17 3241 1419 Sc
17 4210 1437 Sc
17 3897 1202 Sc
17 4050 1147 Sc
17 3279 1165 Sc
17 3551 1264 Sc
17 3238 1389 Sc
17 3187 1419 Sc
17 3526 1254 Sc
17 3189 1394 Sc
17 4016 1122 Sc
17 4564 195 Sc
17 4580 203 Sc
17 4570 205 Sc
17 3310 1398 Sc
17 4003 1128 Sc
17 3223 1419 Sc
17 3446 1237 Sc
17 3989 1126 Sc
17 3839 1207 Sc
17 3851 1170 Sc
17 4601 136 Sc
17 3253 1420 Sc
17 4585 134 Sc
17 3880 1231 Sc
17 3248 1496 Sc
17 3349 1345 Sc
17 3233 1500 Sc
17 3533 1105 Sc
17 4569 218 Sc
17 3997 1076 Sc
17 3551 1264 Sc
17 3066 1500 Sc
17 3255 1409 Sc
17 4602 133 Sc
17 3235 1449 Sc
17 4598 122 Sc
17 4573 126 Sc
17 3398 1324 Sc
17 3249 1421 Sc
17 3344 1352 Sc
17 3565 1109 Sc
17 3214 1414 Sc
17 4013 1141 Sc
17 3355 1362 Sc
17 3177 1396 Sc
17 3955 1385 Sc
17 3427 1301 Sc
17 3552 1218 Sc
17 3248 1339 Sc
17 4003 1130 Sc
17 3207 1368 Sc
17 4019 1097 Sc
17 3415 1313 Sc
17 3393 1310 Sc
17 3180 1433 Sc
17 3233 1407 Sc
17 3533 1275 Sc
17 3311 1397 Sc
17 3251 1408 Sc
17 3877 1186 Sc
17 3248 1500 Sc
17 4025 1104 Sc
17 4605 157 Sc
17 3542 1405 Sc
17 3958 1126 Sc
17 3534 1265 Sc
17 3830 1277 Sc
17 3557 1266 Sc
17 3628 1257 Sc
17 4539 80 Sc
17 4393 1453 Sc
17 3385 1281 Sc
17 3060 1500 Sc
17 3961 1138 Sc
17 4016 1108 Sc
17 3160 1500 Sc
17 4000 1107 Sc
17 3988 1115 Sc
17 3853 1196 Sc
17 3470 1301 Sc
17 3107 1499 Sc
17 3670 1249 Sc
17 3618 1249 Sc
17 3243 1417 Sc
17 3333 1268 Sc
17 3876 1172 Sc
17 3858 1166 Sc
17 4207 1461 Sc
17 4307 1458 Sc
17 3241 1368 Sc
17 3882 1191 Sc
17 3887 1186 Sc
17 3199 1399 Sc
17 3858 1213 Sc
17 1572 1369 Sc
17 3995 1133 Sc
17 3939 1163 Sc
17 3951 1179 Sc
17 4009 1115 Sc
17 3853 1246 Sc
17 3971 1112 Sc
17 3977 1139 Sc
17 3988 1398 Sc
17 4011 1079 Sc
17 3856 1136 Sc
17 3491 1282 Sc
17 3806 1252 Sc
17 3979 1084 Sc
17 3221 1467 Sc
17 4046 1085 Sc
17 3211 1379 Sc
17 3949 1192 Sc
17 3256 1412 Sc
17 3648 1409 Sc
17 3679 1500 Sc
17 4658 74 Sc
17 3613 1255 Sc
17 3872 1227 Sc
17 4057 1098 Sc
17 3170 1419 Sc
17 3214 1423 Sc
17 3658 1287 Sc
17 4057 1286 Sc
17 3482 1283 Sc
17 3278 1375 Sc
17 3249 1432 Sc
17 4035 1189 Sc
17 3520 1229 Sc
17 3589 1275 Sc
17 3635 1278 Sc
17 4566 175 Sc
17 4008 1122 Sc
17 4001 1094 Sc
17 4037 1105 Sc
17 3266 1442 Sc
17 3218 1419 Sc
17 3280 1417 Sc
17 3541 1248 Sc
17 3162 1452 Sc
17 3269 1403 Sc
17 3875 1201 Sc
17 3008 1500 Sc
17 4620 81 Sc
17 3190 1495 Sc
17 4060 1089 Sc
17 3805 1453 Sc
17 3308 1391 Sc
17 3182 1460 Sc
17 3199 1498 Sc
17 3900 1371 Sc
17 3682 1245 Sc
17 3639 1273 Sc
17 3165 1472 Sc
17 3261 1288 Sc
17 3227 1417 Sc
17 3885 1199 Sc
17 3224 1426 Sc
17 3231 1393 Sc
17 3356 1354 Sc
17 3123 1500 Sc
17 3185 1389 Sc
U
%%EndObject
0 A
FQ
O0
0 0 TM

% PostScript produced by:
%%GMT: pstext -R-90.5/-62/0/650 -JX4i/-1.25i -F+f14,31,+j -N -O -K
%%PROJ: xy -90.50000000 -62.00000000 0.00000000 650.00000000 -90.500 -62.000 650.000 -0.000 +xy +a=6378137.000 +b=6356752.314245
%%BeginObject PSL_Layer_9
0 setlinecap
0 setlinejoin
3.32551 setmiterlimit
0 1615 M PSL_font_encode 31 get 0 eq {ISOLatin1+_Encoding /Palatino-Bold /Palatino-Bold PSL_reencode PSL_font_encode 31 1 put} if
233 F31
(3) Z
4716 1615 M V MU 0 0 M (3) FP 0 82 G 163 F31 (') FP 0 -82 G pathbbox N pop exch pop add U neg 0 G
(3) Z
0 82 G 163 F31 (') Z
0 -82 G %%EndObject
0 A
FQ
O0
0 -2400 TM

% PostScript produced by:
%%GMT: psbasemap -R-90.5/-62/0/650 -JX4i/-1.25i -Bxa5 -Bya100f50+lDepth [km] -BWeSn -Y-2i -O -K
%%PROJ: xy -90.50000000 -62.00000000 0.00000000 650.00000000 -90.500 -62.000 650.000 -0.000 +xy +a=6378137.000 +b=6356752.314245
%%BeginObject PSL_Layer_10
0 setlinecap
0 setlinejoin
3.32551 setmiterlimit
2 setlinecap
/MM {neg exch M} def
/PSL_A0_y 83 def
/PSL_A1_y 0 def
25 W
0 1500 M 0 -1500 D S
8 W
0 1500 M -83 0 D S
0 1269 M -83 0 D S
0 1038 M -83 0 D S
0 808 M -83 0 D S
0 577 M -83 0 D S
0 346 M -83 0 D S
0 115 M -83 0 D S
/PSL_AH0 0
PSL_font_encode 0 get 0 eq {ISOLatin1+_Encoding /Helvetica /Helvetica PSL_reencode PSL_font_encode 0 1 put} if
200 F0
(0) sw mx
(100) sw mx
(200) sw mx
(300) sw mx
(400) sw mx
(500) sw mx
(600) sw mx
def
/PSL_A0_y PSL_A0_y 83 add def
1500 PSL_A0_y MM
(0) mr Z
1269 PSL_A0_y MM
(100) mr Z
1038 PSL_A0_y MM
(200) mr Z
808 PSL_A0_y MM
(300) mr Z
577 PSL_A0_y MM
(400) mr Z
346 PSL_A0_y MM
(500) mr Z
115 PSL_A0_y MM
(600) mr Z
/PSL_A0_y PSL_A0_y PSL_AH0 add def
0 1385 M -42 0 D S
0 1154 M -42 0 D S
0 923 M -42 0 D S
0 692 M -42 0 D S
0 462 M -42 0 D S
0 231 M -42 0 D S
0 0 M -42 0 D S
/PSL_LH 267 F0
(M) sh def
/PSL_L_y PSL_A0_y PSL_A1_y mx 133 add def
750 PSL_L_y MM
V 90 R (Depth \[km\]) bc Z U
4800 0 T
/MM {exch M} def
/PSL_A0_y 83 def
/PSL_A1_y 0 def
25 W
0 1500 M 0 -1500 D S
8 W
0 1500 M 83 0 D S
0 1269 M 83 0 D S
0 1038 M 83 0 D S
0 808 M 83 0 D S
0 577 M 83 0 D S
0 346 M 83 0 D S
0 115 M 83 0 D S
0 1385 M 42 0 D S
0 1154 M 42 0 D S
0 923 M 42 0 D S
0 692 M 42 0 D S
0 462 M 42 0 D S
0 231 M 42 0 D S
0 0 M 42 0 D S
/PSL_LH 0 def /PSL_L_y PSL_A0_y PSL_A1_y mx def
-4800 0 T
/MM {neg M} def
/PSL_A0_y 83 def
/PSL_A1_y 0 def
25 W
0 0 M 4800 0 D S
8 W
84 0 M 0 -83 D S
926 0 M 0 -83 D S
1768 0 M 0 -83 D S
2611 0 M 0 -83 D S
3453 0 M 0 -83 D S
4295 0 M 0 -83 D S
/PSL_AH0 0
200 F0
(-90) sh mx
(-85) sh mx
(-80) sh mx
(-75) sh mx
(-70) sh mx
(-65) sh mx
def
/PSL_A0_y PSL_A0_y 83 add PSL_AH0 add def
84 PSL_A0_y MM
(-90) bc Z
926 PSL_A0_y MM
(-85) bc Z
1768 PSL_A0_y MM
(-80) bc Z
2611 PSL_A0_y MM
(-75) bc Z
3453 PSL_A0_y MM
(-70) bc Z
4295 PSL_A0_y MM
(-65) bc Z
/PSL_LH 0 def /PSL_L_y PSL_A0_y PSL_A1_y mx def
0 1500 T
/MM {M} def
/PSL_A0_y 83 def
/PSL_A1_y 0 def
25 W
0 0 M 4800 0 D S
8 W
84 0 M 0 83 D S
926 0 M 0 83 D S
1768 0 M 0 83 D S
2611 0 M 0 83 D S
3453 0 M 0 83 D S
4295 0 M 0 83 D S
/PSL_LH 0 def /PSL_L_y PSL_A0_y PSL_A1_y mx def
0 -1500 T
0 setlinecap
%%EndObject
0 A
FQ
O0
0 0 TM

% PostScript produced by:
%%GMT: psxy -R-90.5/-62/0/650 -JX4i/-1.25i -Sc0.07 -GTHISTLE4 -Wthinnest -N -O -K
%%PROJ: xy -90.50000000 -62.00000000 0.00000000 650.00000000 -90.500 -62.000 650.000 -0.000 +xy +a=6378137.000 +b=6356752.314245
%%BeginObject PSL_Layer_11
0 setlinecap
0 setlinejoin
3.32551 setmiterlimit
4 W
V
{0.545 0.482 0.545 C} FS
O1
17 3637 1167 Sc
17 2989 1436 Sc
17 3069 1432 Sc
17 3129 1433 Sc
17 3098 1442 Sc
17 3009 1448 Sc
17 2998 1450 Sc
17 2830 1479 Sc
17 3156 1449 Sc
17 3016 1451 Sc
17 3050 1422 Sc
17 3072 1428 Sc
17 3044 1439 Sc
17 2759 1485 Sc
17 3105 1441 Sc
17 2938 1448 Sc
17 3196 1370 Sc
17 3037 1416 Sc
17 3085 1444 Sc
17 3065 1451 Sc
17 3160 1399 Sc
17 3110 1466 Sc
17 2910 1425 Sc
17 3099 1433 Sc
17 3050 1442 Sc
17 3078 1449 Sc
17 2761 1396 Sc
17 2982 1446 Sc
17 2937 1466 Sc
17 3066 1479 Sc
17 3092 1480 Sc
17 3076 1465 Sc
17 3702 1463 Sc
17 3114 1456 Sc
17 3042 1412 Sc
17 2858 1405 Sc
17 2873 1461 Sc
17 3029 1480 Sc
17 3034 1461 Sc
17 3053 1456 Sc
17 2945 1472 Sc
17 2802 1416 Sc
17 2858 1456 Sc
17 2871 1467 Sc
17 2780 1487 Sc
17 3086 1443 Sc
17 2810 1462 Sc
17 2719 1388 Sc
17 3176 1407 Sc
17 2736 1463 Sc
17 3002 1449 Sc
17 2836 1447 Sc
17 2774 1457 Sc
17 3100 1446 Sc
17 3085 1439 Sc
17 3082 1468 Sc
17 3140 1432 Sc
17 2894 1448 Sc
17 3178 1437 Sc
17 2995 1430 Sc
17 3117 1428 Sc
17 3067 1450 Sc
17 3066 1457 Sc
17 2994 1426 Sc
17 3052 1433 Sc
17 3079 1451 Sc
17 2932 1469 Sc
17 3135 1406 Sc
17 3072 1452 Sc
17 3082 1499 Sc
17 2963 1454 Sc
17 3058 1456 Sc
17 2988 1281 Sc
17 3120 1352 Sc
17 3129 1332 Sc
17 3111 1342 Sc
17 3129 899 Sc
17 3115 1459 Sc
17 3047 1394 Sc
17 3060 1408 Sc
17 3101 1346 Sc
17 2783 1469 Sc
17 3163 1500 Sc
17 2738 1439 Sc
17 3010 1442 Sc
17 3029 1427 Sc
17 2999 1442 Sc
17 3132 1441 Sc
17 3124 1484 Sc
17 3113 1475 Sc
17 3080 1431 Sc
17 3090 1449 Sc
17 3125 1400 Sc
17 3036 1436 Sc
17 3119 1415 Sc
17 3105 1458 Sc
17 3118 1475 Sc
17 3123 1442 Sc
17 3105 1440 Sc
17 3110 1447 Sc
17 3105 1435 Sc
17 3095 1463 Sc
17 3090 1438 Sc
17 3081 1475 Sc
17 3057 1499 Sc
17 3083 1479 Sc
17 3061 1456 Sc
17 3113 1458 Sc
17 3113 1480 Sc
17 3080 1453 Sc
17 3095 1456 Sc
17 3109 1450 Sc
17 3122 1500 Sc
17 3264 1456 Sc
17 3127 1451 Sc
17 3136 1403 Sc
17 3130 1417 Sc
17 3520 1412 Sc
17 3121 1430 Sc
17 3127 1400 Sc
17 3113 1493 Sc
17 3108 1400 Sc
17 3114 1475 Sc
17 3103 1449 Sc
17 3061 1424 Sc
17 3032 1462 Sc
17 3093 1440 Sc
17 3118 1428 Sc
17 3126 1436 Sc
17 3071 1433 Sc
17 3092 1420 Sc
17 2752 1454 Sc
17 3504 841 Sc
17 3068 1486 Sc
17 3110 1431 Sc
17 3126 1376 Sc
17 3101 1433 Sc
17 3110 1351 Sc
17 3106 1406 Sc
17 3199 1407 Sc
17 3090 1500 Sc
17 3082 1444 Sc
17 3119 1459 Sc
17 3098 1463 Sc
17 2858 1500 Sc
17 3034 1437 Sc
17 3090 1443 Sc
17 3093 1454 Sc
17 2878 1437 Sc
17 3179 1428 Sc
17 2951 1455 Sc
17 3052 1418 Sc
17 3121 1423 Sc
17 3032 1373 Sc
17 3130 1403 Sc
17 3230 1102 Sc
17 3085 1444 Sc
17 2848 1434 Sc
17 3019 1451 Sc
17 3113 1424 Sc
17 2757 1441 Sc
17 3156 1376 Sc
17 3091 1443 Sc
17 3069 1421 Sc
17 3021 1457 Sc
17 3079 1393 Sc
17 3098 1428 Sc
17 3140 1333 Sc
17 3066 1450 Sc
17 3100 1441 Sc
17 2797 1500 Sc
17 2766 1474 Sc
17 3083 1396 Sc
17 3083 1407 Sc
17 3109 1404 Sc
17 2889 1369 Sc
17 3256 1500 Sc
17 3088 1448 Sc
17 3128 1444 Sc
17 3081 1420 Sc
17 3039 1450 Sc
17 3093 1412 Sc
17 3147 1376 Sc
17 3088 1395 Sc
17 3090 1442 Sc
17 3054 1433 Sc
17 3053 1398 Sc
17 2895 1450 Sc
17 3068 1368 Sc
17 3029 1439 Sc
17 3164 1367 Sc
17 3063 1399 Sc
17 3084 1433 Sc
17 3633 1183 Sc
17 3076 1454 Sc
17 3070 1457 Sc
17 3064 1442 Sc
17 3060 1447 Sc
17 3119 1409 Sc
17 3100 1415 Sc
17 3110 1403 Sc
17 3110 1410 Sc
17 3085 1466 Sc
17 3287 1356 Sc
17 3063 1396 Sc
17 3691 1446 Sc
17 3732 1158 Sc
17 3856 1039 Sc
17 3067 1485 Sc
17 3401 1243 Sc
17 3037 1454 Sc
17 3471 1249 Sc
17 3039 1459 Sc
17 3062 1452 Sc
17 3372 1286 Sc
17 3026 1460 Sc
17 3441 1270 Sc
17 3103 1424 Sc
17 3865 1032 Sc
17 3085 1447 Sc
17 3079 1471 Sc
17 3049 1449 Sc
17 3053 1454 Sc
17 3053 1445 Sc
17 3076 1447 Sc
17 3085 1419 Sc
17 3039 1441 Sc
17 3631 1472 Sc
17 3099 1419 Sc
17 3467 1255 Sc
17 3101 1446 Sc
17 3102 1440 Sc
17 3048 1451 Sc
17 3032 1436 Sc
17 3103 1413 Sc
17 3112 1404 Sc
17 3319 1299 Sc
17 3106 1411 Sc
17 3062 1443 Sc
17 3341 1252 Sc
17 2987 1367 Sc
17 3559 1304 Sc
17 3113 1426 Sc
17 3394 1243 Sc
17 3108 1443 Sc
17 3881 1451 Sc
17 3055 1431 Sc
17 3033 1460 Sc
17 3031 1458 Sc
17 3048 1457 Sc
17 3333 1297 Sc
17 3399 1237 Sc
17 3196 1367 Sc
17 3051 1500 Sc
17 3110 1403 Sc
17 3064 1445 Sc
17 3113 1400 Sc
17 3113 1432 Sc
17 3120 1454 Sc
17 3103 1438 Sc
17 3079 1455 Sc
17 3232 1363 Sc
17 3138 1402 Sc
17 2994 1443 Sc
17 3080 1442 Sc
17 2982 1448 Sc
17 2988 1438 Sc
17 3078 1409 Sc
17 3832 1021 Sc
17 3153 1388 Sc
17 3443 1256 Sc
17 3084 1451 Sc
17 3092 1414 Sc
17 3048 1416 Sc
17 3125 1392 Sc
17 3043 1444 Sc
17 3199 1400 Sc
17 3074 1417 Sc
17 3110 1414 Sc
17 3084 1432 Sc
17 2854 1415 Sc
17 3100 1457 Sc
17 3071 1454 Sc
17 3060 1459 Sc
17 3077 1403 Sc
17 3352 1283 Sc
17 2928 1411 Sc
17 3058 1440 Sc
17 3058 1419 Sc
17 3221 1341 Sc
17 3107 1399 Sc
17 3925 1103 Sc
17 3116 1407 Sc
17 3007 1416 Sc
17 3787 1077 Sc
17 2849 1480 Sc
17 2852 1456 Sc
17 3858 1086 Sc
17 3033 1447 Sc
17 3379 1249 Sc
17 3399 1240 Sc
17 3074 1417 Sc
17 3095 1449 Sc
17 3090 1496 Sc
U
%%EndObject
0 A
FQ
O0
0 0 TM

% PostScript produced by:
%%GMT: pstext -R-90.5/-62/0/650 -JX4i/-1.25i -F+f14,31,+j -N -O -K
%%PROJ: xy -90.50000000 -62.00000000 0.00000000 650.00000000 -90.500 -62.000 650.000 -0.000 +xy +a=6378137.000 +b=6356752.314245
%%BeginObject PSL_Layer_12
0 setlinecap
0 setlinejoin
3.32551 setmiterlimit
0 1615 M PSL_font_encode 31 get 0 eq {ISOLatin1+_Encoding /Palatino-Bold /Palatino-Bold PSL_reencode PSL_font_encode 31 1 put} if
233 F31
(4) Z
4716 1615 M V MU 0 0 M (4) FP 0 82 G 163 F31 (') FP 0 -82 G pathbbox N pop exch pop add U neg 0 G
(4) Z
0 82 G 163 F31 (') Z
0 -82 G %%EndObject
0 A
FQ
O0
0 -2400 TM

% PostScript produced by:
%%GMT: psbasemap -R-90.5/-62/0/650 -JX4i/-1.25i -Bxa5+lLongitude [deg] -Bya100f50+lDepth [km] -BWeSn -Y-2i -O -K
%%PROJ: xy -90.50000000 -62.00000000 0.00000000 650.00000000 -90.500 -62.000 650.000 -0.000 +xy +a=6378137.000 +b=6356752.314245
%%BeginObject PSL_Layer_13
0 setlinecap
0 setlinejoin
3.32551 setmiterlimit
2 setlinecap
/MM {neg exch M} def
/PSL_A0_y 83 def
/PSL_A1_y 0 def
25 W
0 1500 M 0 -1500 D S
8 W
0 1500 M -83 0 D S
0 1269 M -83 0 D S
0 1038 M -83 0 D S
0 808 M -83 0 D S
0 577 M -83 0 D S
0 346 M -83 0 D S
0 115 M -83 0 D S
/PSL_AH0 0
PSL_font_encode 0 get 0 eq {ISOLatin1+_Encoding /Helvetica /Helvetica PSL_reencode PSL_font_encode 0 1 put} if
200 F0
(0) sw mx
(100) sw mx
(200) sw mx
(300) sw mx
(400) sw mx
(500) sw mx
(600) sw mx
def
/PSL_A0_y PSL_A0_y 83 add def
1500 PSL_A0_y MM
(0) mr Z
1269 PSL_A0_y MM
(100) mr Z
1038 PSL_A0_y MM
(200) mr Z
808 PSL_A0_y MM
(300) mr Z
577 PSL_A0_y MM
(400) mr Z
346 PSL_A0_y MM
(500) mr Z
115 PSL_A0_y MM
(600) mr Z
/PSL_A0_y PSL_A0_y PSL_AH0 add def
0 1385 M -42 0 D S
0 1154 M -42 0 D S
0 923 M -42 0 D S
0 692 M -42 0 D S
0 462 M -42 0 D S
0 231 M -42 0 D S
0 0 M -42 0 D S
/PSL_LH 267 F0
(M) sh def
/PSL_L_y PSL_A0_y PSL_A1_y mx 133 add def
750 PSL_L_y MM
V 90 R (Depth \[km\]) bc Z U
4800 0 T
/MM {exch M} def
/PSL_A0_y 83 def
/PSL_A1_y 0 def
25 W
0 1500 M 0 -1500 D S
8 W
0 1500 M 83 0 D S
0 1269 M 83 0 D S
0 1038 M 83 0 D S
0 808 M 83 0 D S
0 577 M 83 0 D S
0 346 M 83 0 D S
0 115 M 83 0 D S
0 1385 M 42 0 D S
0 1154 M 42 0 D S
0 923 M 42 0 D S
0 692 M 42 0 D S
0 462 M 42 0 D S
0 231 M 42 0 D S
0 0 M 42 0 D S
/PSL_LH 0 def /PSL_L_y PSL_A0_y PSL_A1_y mx def
-4800 0 T
/MM {neg M} def
/PSL_A0_y 83 def
/PSL_A1_y 0 def
25 W
0 0 M 4800 0 D S
8 W
84 0 M 0 -83 D S
926 0 M 0 -83 D S
1768 0 M 0 -83 D S
2611 0 M 0 -83 D S
3453 0 M 0 -83 D S
4295 0 M 0 -83 D S
/PSL_AH0 0
200 F0
(-90) sh mx
(-85) sh mx
(-80) sh mx
(-75) sh mx
(-70) sh mx
(-65) sh mx
def
/PSL_A0_y PSL_A0_y 83 add PSL_AH0 add def
84 PSL_A0_y MM
(-90) bc Z
926 PSL_A0_y MM
(-85) bc Z
1768 PSL_A0_y MM
(-80) bc Z
2611 PSL_A0_y MM
(-75) bc Z
3453 PSL_A0_y MM
(-70) bc Z
4295 PSL_A0_y MM
(-65) bc Z
/PSL_LH 267 F0
(M) sh def
/PSL_L_y PSL_A0_y PSL_A1_y mx 133 add PSL_LH add def
2400 PSL_L_y MM
(Longitude \[deg\]) bc Z
0 1500 T
/MM {M} def
/PSL_A0_y 83 def
/PSL_A1_y 0 def
25 W
0 0 M 4800 0 D S
8 W
84 0 M 0 83 D S
926 0 M 0 83 D S
1768 0 M 0 83 D S
2611 0 M 0 83 D S
3453 0 M 0 83 D S
4295 0 M 0 83 D S
/PSL_LH 0 def /PSL_L_y PSL_A0_y PSL_A1_y mx def
0 -1500 T
0 setlinecap
%%EndObject
0 A
FQ
O0
0 0 TM

% PostScript produced by:
%%GMT: psxy -R-90.5/-62/0/650 -JX4i/-1.25i -Sc0.07 -GTHISTLE4 -Wthinnest -N -O -K
%%PROJ: xy -90.50000000 -62.00000000 0.00000000 650.00000000 -90.500 -62.000 650.000 -0.000 +xy +a=6378137.000 +b=6356752.314245
%%BeginObject PSL_Layer_14
0 setlinecap
0 setlinejoin
3.32551 setmiterlimit
4 W
V
{0.545 0.482 0.545 C} FS
O1
17 2831 1366 Sc
17 2533 1438 Sc
17 2807 1454 Sc
17 2799 1400 Sc
17 2777 1431 Sc
17 2772 1444 Sc
17 2806 1459 Sc
17 2733 1439 Sc
17 2804 1463 Sc
17 2852 1325 Sc
17 2762 1460 Sc
17 2809 1456 Sc
17 2787 1469 Sc
17 2821 1441 Sc
17 2839 1456 Sc
17 2525 1471 Sc
17 2858 1458 Sc
17 2794 1444 Sc
17 2781 1385 Sc
17 2736 1391 Sc
17 2787 1468 Sc
17 3214 1500 Sc
17 2753 1447 Sc
17 3346 1383 Sc
17 2782 1454 Sc
17 2921 1339 Sc
17 2881 1391 Sc
17 2815 1499 Sc
17 2912 1292 Sc
17 2784 1476 Sc
17 2565 1480 Sc
17 2863 1428 Sc
17 2743 1462 Sc
17 2754 1217 Sc
17 2782 1500 Sc
17 2730 1419 Sc
17 2807 1401 Sc
17 2939 1365 Sc
17 2786 1446 Sc
17 2792 1419 Sc
17 2905 1376 Sc
17 2560 1500 Sc
17 2958 1394 Sc
17 2850 1385 Sc
17 2544 1488 Sc
17 2648 1499 Sc
17 2858 1447 Sc
17 2789 1419 Sc
17 2775 1455 Sc
17 2879 1347 Sc
17 2818 1451 Sc
17 2834 1455 Sc
17 3097 1174 Sc
17 2894 1442 Sc
17 2724 1419 Sc
17 2817 1441 Sc
17 2861 1442 Sc
17 2813 1444 Sc
17 2838 1430 Sc
17 2750 1452 Sc
17 2880 1455 Sc
17 2831 1461 Sc
17 2895 1421 Sc
17 2628 1315 Sc
17 2770 1452 Sc
17 2813 1412 Sc
17 2885 1418 Sc
17 2782 1460 Sc
17 2772 1459 Sc
17 2775 1456 Sc
17 2863 1446 Sc
17 2809 1460 Sc
17 2860 1433 Sc
17 2775 1432 Sc
17 2772 1444 Sc
17 3067 1304 Sc
17 2783 1500 Sc
17 2730 1451 Sc
17 2806 1498 Sc
17 2911 1429 Sc
17 2535 1491 Sc
17 2532 1498 Sc
17 2895 1500 Sc
17 2555 1500 Sc
17 2763 1433 Sc
17 2577 1422 Sc
17 2593 1499 Sc
17 2953 1385 Sc
17 2796 1490 Sc
17 2794 1457 Sc
17 2940 1407 Sc
17 2577 1420 Sc
17 2797 1461 Sc
17 2617 1446 Sc
17 2538 1500 Sc
17 2537 1488 Sc
17 2821 1416 Sc
17 2548 1500 Sc
17 2897 1432 Sc
17 2832 1454 Sc
17 2817 1500 Sc
17 2593 1445 Sc
17 2535 1443 Sc
17 2543 1500 Sc
U
%%EndObject
0 A
FQ
O0
0 0 TM

% PostScript produced by:
%%GMT: pstext -R-90.5/-62/0/650 -JX4i/-1.25i -F+f14,31,+j -N -O -K
%%PROJ: xy -90.50000000 -62.00000000 0.00000000 650.00000000 -90.500 -62.000 650.000 -0.000 +xy +a=6378137.000 +b=6356752.314245
%%BeginObject PSL_Layer_15
0 setlinecap
0 setlinejoin
3.32551 setmiterlimit
0 1615 M PSL_font_encode 31 get 0 eq {ISOLatin1+_Encoding /Palatino-Bold /Palatino-Bold PSL_reencode PSL_font_encode 31 1 put} if
233 F31
(5) Z
4716 1615 M V MU 0 0 M (5) FP 0 82 G 163 F31 (') FP 0 -82 G pathbbox N pop exch pop add U neg 0 G
(5) Z
0 82 G 163 F31 (') Z
0 -82 G %%EndObject
0 A
FQ
O0
0 0 TM

% PostScript produced by:
%%GMT: psxy -R-90.5/-62/0/650 -JX4i/-1.25i -T -O
%%PROJ: xy -90.50000000 -62.00000000 0.00000000 650.00000000 -90.500 -62.000 650.000 -0.000 +xy +a=6378137.000 +b=6356752.314245
%%BeginObject PSL_Layer_16
0 setlinecap
0 setlinejoin
3.32551 setmiterlimit
%%EndObject
%%PageTrailer
U
showpage

%%Trailer

end
%%EOF
