# Nsamples: 1068  MAD:  0.646  mean: -0.729  std:  0.854
gfz2010abfc  -0.87076
gfz2010afyi  -0.36842
gfz2010aggj   0.13723
gfz2010aimm  -0.35140
gfz2010amec  -2.44790
gfz2010aseg  -0.53422
gfz2010asxa  -0.65058
gfz2010azji  -0.30430
gfz2010bgrt  -3.03080
gfz2010bkfi  -0.49010
gfz2010bklj  -1.42670
gfz2010bmls   0.74413
gfz2010bnqr  -0.71556
gfz2010bofe  -0.81789
gfz2010bqnk  -0.29966
gfz2010brlc  -0.22674
gfz2010brrm  -0.13612
gfz2010btme   0.11658
gfz2010bukb   0.03982
gfz2010bvit  -0.35363
gfz2010byau   1.48040
gfz2010bytu  -0.93385
gfz2010cbnp  -0.89030
gfz2010ccse  -0.73224
gfz2010ccwc  -0.72360
gfz2010ccye  -0.15156
gfz2010clbw  -0.44161
gfz2010cnhd   0.38317
gfz2010cphq  -1.60460
gfz2010cpig  -0.87374
gfz2010cqoq   0.00000
gfz2010crgy  -0.58416
gfz2010crir  -1.35760
gfz2010csle  -1.02870
gfz2010csmw  -0.04096
gfz2010csqy   0.11606
gfz2010ctak  -0.29299
gfz2010cthm  -0.53017
gfz2010cyid  -1.37700
gfz2010dask  -1.29270
gfz2010depd  -0.63306
gfz2010djib  -0.10180
gfz2010dmij  -1.54910
gfz2010dmkd  -0.73355
gfz2010dpgt   0.62915
gfz2010drit  -1.34850
gfz2010drml  -2.35710
gfz2010drmq  -2.35710
gfz2010drpv  -0.14539
gfz2010drun  -1.20790
gfz2010dslu  -2.42400
gfz2010dtgc   0.16374
gfz2010dumv  -1.00010
gfz2010dwgy  -0.86334
gfz2010dxhq  -1.10220
gfz2010ehgf  -1.27620
gfz2010eibh  -0.26639
gfz2010ekvl  -1.22700
gfz2010elge  -1.75030
gfz2010ethu  -0.59276
gfz2010ewyj  -1.05830
gfz2010fgbo  -0.79877
gfz2010fjio  -0.65832
gfz2010fjme  -1.58490
gfz2010fkff  -0.70630
gfz2010fnkr  -0.83850
gfz2010fopf  -0.48844
gfz2010fqnn  -0.49134
gfz2010fqzh   0.07847
gfz2010ftfq  -0.82881
gfz2010fvfz  -0.12376
gfz2010fxhh  -0.89417
gfz2010fxut  -2.53950
gfz2010gcqp  -0.37536
gfz2010gnvp   0.47403
gfz2010gonu  -0.73528
gfz2010gooc  -1.09760
gfz2010guwa  -1.13300
gfz2010habf  -0.82619
gfz2010hesh   0.00978
gfz2010hexh  -0.78379
gfz2010hllp  -0.30574
gfz2010hnuo  -1.12180
gfz2010hsgv  -0.12757
gfz2010hueh  -2.75700
gfz2010huzl  -0.76701
gfz2010hxan  -1.02210
gfz2010iaay  -0.89489
gfz2010ifhd  -0.27808
gfz2010ifru  -0.84717
gfz2010inbs  -0.26257
gfz2010inkz  -0.65911
gfz2010ioad  -0.07754
gfz2010izag  -0.23489
gfz2010izgb  -0.17102
gfz2010jcby  -0.27268
gfz2010jcpq   1.00410
gfz2010jgwj  -0.39884
gfz2010jlvp  -0.45319
gfz2010jpkn  -1.17040
gfz2010juke  -0.92211
gfz2010jyvd  -0.68732
gfz2010kuzb   0.28549
gfz2010kwks  -1.21480
gfz2010ljmp  -0.36760
gfz2010ljzf  -1.23860
gfz2010mdti  -0.50327
gfz2010mjdl  -3.16840
gfz2010mqzz  -0.70992
gfz2010mvmb  -3.11760
gfz2010myqg  -0.44768
gfz2010ncwu  -0.51567
gfz2010nlai   0.04212
gfz2010nwbd  -0.63632
gfz2010nwyk  -1.32160
gfz2010oguu  -0.43272
gfz2010ogwn  -0.80932
gfz2010oibn   0.19874
gfz2010ojhe  -0.97349
gfz2010okpc  -2.90360
gfz2010okww  -0.81262
gfz2010osaq   0.50529
gfz2010ouvm  -0.75574
gfz2010ovvg  -0.34597
gfz2010pclq  -0.33229
gfz2010pcya  -1.95870
gfz2010pgrf  -1.23190
gfz2010prnw  -0.04405
gfz2010pvnn  -1.59910
gfz2010qbcy  -0.76681
gfz2010qdqk  -1.61500
gfz2010qrix  -1.76550
gfz2010qrta  -0.09657
gfz2010qzvf  -1.22570
gfz2010rdip  -0.30174
gfz2010rkuu  -1.52140
gfz2010rljv  -0.80111
gfz2010rnqa   0.57446
gfz2010rnwt  -0.43654
gfz2010rpbz  -1.72030
gfz2010rpjd  -1.33170
gfz2010schp  -0.81055
gfz2010scht  -0.70233
gfz2010sdfs  -1.06670
gfz2010shvn  -0.47473
gfz2010swqy  -0.80369
gfz2010tcgh  -1.86240
gfz2010tfar  -0.85787
gfz2010tmba  -1.23710
gfz2010tmne  -0.65950
gfz2010tpcj  -1.55060
gfz2010tqyo   0.37750
gfz2010tzlz  -2.02200
gfz2010tzma  -0.57281
gfz2010ugws  -1.24000
gfz2010uhjy  -1.65850
gfz2010ujqn  -0.24621
gfz2010uogw  -1.95460
gfz2010uopf   0.04319
gfz2010upod  -3.24830
gfz2010utsc  -1.52710
gfz2010uveo  -1.51590
gfz2010uyng   0.09928
gfz2010vhzx  -1.02370
gfz2010vong  -1.21760
gfz2010vxwv  -1.27230
gfz2010vybx  -0.93781
gfz2010wakc  -0.48647
gfz2010wigk  -3.06450
gfz2010wwhf  -0.65599
gfz2010wwnq  -0.44233
gfz2010wyso   0.50460
gfz2010xamh  -1.58180
gfz2010xaxw  -1.38210
gfz2010xhqq  -1.37080
gfz2010xkbz  -1.67220
gfz2010xnbn   0.46322
gfz2010xney  -0.13681
gfz2010xpzq  -0.58080
gfz2010xvev  -0.26748
gfz2010xzah  -1.57560
gfz2010xzte  -0.66293
gfz2010yczp  -0.77421
gfz2010yfdr  -1.08070
gfz2010yhdn  -0.28859
gfz2010yhhj  -1.76050
gfz2010yilf  -0.94110
gfz2010ymih  -1.25890
gfz2010yrex  -0.45809
gfz2010ytzb  -0.27117
gfz2010zhvj  -1.64160
gfz2010zjun  -1.44200
gfz2010zkle  -2.12980
gfz2011afyc  -1.99740
gfz2011ahvh  -0.72150
gfz2011aksu  -1.28550
gfz2011ameb  -0.22498
gfz2011amst  -1.17530
gfz2011aqpp  -0.93327
gfz2011awsv  -1.38680
gfz2011bazz  -0.56916
gfz2011bcvc  -1.58970
gfz2011bffb  -1.15180
gfz2011biin  -0.65478
gfz2011bpqm  -1.09670
gfz2011bqbx  -1.43690
gfz2011bsvr  -0.40871
gfz2011bvog  -1.16160
gfz2011bwsm  -0.14644
gfz2011bygu  -0.30774
gfz2011bzio  -0.83328
gfz2011cdge  -2.67970
gfz2011cfyy   0.05708
gfz2011chsa  -1.40010
gfz2011cjuz  -1.37650
gfz2011cwsm  -1.12690
gfz2011cwzi  -0.87403
gfz2011cxdj  -0.83394
gfz2011dabj  -0.96822
gfz2011dhfg  -0.33102
gfz2011dhqk  -1.11260
gfz2011dmdv  -0.69365
gfz2011dpyu  -0.69869
gfz2011drmu  -0.52236
gfz2011duvm  -1.31980
gfz2011dwae  -0.51187
gfz2011dzmf  -1.32380
gfz2011emzr  -1.15720
gfz2011etkc  -0.87011
gfz2011exxq  -1.89850
gfz2011fbsl  -1.62470
gfz2011ffdh   1.12650
gfz2011fges  -0.11843
gfz2011fnie  -1.48080
gfz2011fnuk  -0.27269
gfz2011fszl  -0.74473
gfz2011fxmf  -0.40985
gfz2011fyfu  -0.90908
gfz2011fzcw  -1.75610
gfz2011gaax  -1.25020
gfz2011gdrl   0.10490
gfz2011gfer  -0.70867
gfz2011ggnl   0.85277
gfz2011ggsz   0.34803
gfz2011glpg  -0.94132
gfz2011gnbk  -0.54644
gfz2011gpyr  -0.95759
gfz2011hatg  -0.49069
gfz2011hffq   0.72285
gfz2011hibi  -1.58180
gfz2011hjof  -1.08870
gfz2011hmnw  -0.85222
gfz2011hqjs  -0.94343
gfz2011hrgt  -1.14540
gfz2011hvzo   1.21290
gfz2011hyct  -0.99419
gfz2011hyuh   2.85950
gfz2011iamf  -0.72682
gfz2011ibew  -1.14950
gfz2011ifta  -0.34663
gfz2011ioch  -1.01760
gfz2011iryz  -0.71680
gfz2011itcv  -1.63710
gfz2011ituo  -1.69210
gfz2011ixpj  -0.72200
gfz2011jdoz  -0.96443
gfz2011jphj  -1.98180
gfz2011jryv  -0.80905
gfz2011jtij  -0.73584
gfz2011kfch   0.17095
gfz2011kgvq  -0.08312
gfz2011kjzt  -1.66710
gfz2011kjzv  -1.87500
gfz2011kmge  -0.02078
gfz2011kujo  -0.85751
gfz2011kylu  -0.18352
gfz2011kyzy  -1.13210
gfz2011lbnn   0.33278
gfz2011lkkf  -0.03082
gfz2011lmug  -0.70411
gfz2011lrpv  -0.17405
gfz2011lwmg  -0.89543
gfz2011lxga  -0.48974
gfz2011mdyq  -1.12550
gfz2011mjje  -1.10110
gfz2011mllb  -1.19770
gfz2011mntq  -0.47357
gfz2011mror  -3.79690
gfz2011ndhh  -1.02060
gfz2011ndki  -0.57353
gfz2011nejg  -2.29110
gfz2011nejw  -1.21020
gfz2011nerb  -1.82170
gfz2011nfcz  -0.35532
gfz2011nfgt  -0.30110
gfz2011nftw  -0.40220
gfz2011nfww  -0.53306
gfz2011nhby  -0.51681
gfz2011nhhd  -0.81104
gfz2011nhvt  -2.48820
gfz2011nhwf  -1.78480
gfz2011nifi  -1.39290
gfz2011nihq  -1.40300
gfz2011nijp  -1.91440
gfz2011nilw  -0.07581
gfz2011nimp  -0.80011
gfz2011nioi  -1.35380
gfz2011nisj  -1.38630
gfz2011niuw   0.33973
gfz2011nlmf  -0.45776
gfz2011nlnl   0.54989
gfz2011nlum  -1.90870
gfz2011nlyw  -1.49890
gfz2011nmdz  -0.95063
gfz2011nnda  -0.47864
gfz2011nnos  -0.73617
gfz2011npaf  -0.93986
gfz2011npeu  -3.46340
gfz2011nsrx  -1.44420
gfz2011nssr  -1.30670
gfz2011nsyi   0.59656
gfz2011ntyd  -1.65450
gfz2011nuqo  -2.26000
gfz2011nyzk  -1.76140
gfz2011oadm  -1.09760
gfz2011oazk  -0.61574
gfz2011ocif  -0.38516
gfz2011oekz  -1.15990
gfz2011oesd  -1.67530
gfz2011ofpj  -1.34600
gfz2011ohgj  -1.78420
gfz2011okza  -2.63420
gfz2011omxt  -0.88578
gfz2011oqjl  -1.18990
gfz2011oslk  -0.54499
gfz2011osmp  -1.12620
gfz2011osuy  -1.00290
gfz2011owqa  -0.97020
gfz2011paqj  -0.26539
gfz2011pbgh   1.02390
gfz2011pbjh  -0.82957
gfz2011pcqr   0.64073
gfz2011pdgq  -0.42548
gfz2011pdsn  -0.17852
gfz2011pfls  -0.76212
gfz2011pgzk  -0.08917
gfz2011pivq  -0.24513
gfz2011pmuv  -0.16517
gfz2011poug  -0.06900
gfz2011pphc  -1.68770
gfz2011ppsc  -1.20410
gfz2011prrq  -1.63590
gfz2011ptgd  -2.42190
gfz2011pulu  -0.30274
gfz2011pwbw  -1.36400
gfz2011pwld  -0.02216
gfz2011qasw   0.10106
gfz2011qenl  -1.93560
gfz2011qgea  -0.58587
gfz2011qgvh  -0.67049
gfz2011qgvx  -1.14190
gfz2011qidi  -1.54140
gfz2011qklh   0.09968
gfz2011qlkj  -0.44625
gfz2011qtoy  -0.72730
gfz2011qukj  -1.23960
gfz2011rczb  -0.77039
gfz2011rkau  -0.75379
gfz2011rnny  -1.74860
gfz2011rnsp   0.30178
gfz2011rqut  -0.47949
gfz2011scma  -0.54727
gfz2011sdax  -0.67407
gfz2011sdpl  -0.23924
gfz2011sfmu  -0.19896
gfz2011sfph   0.19152
gfz2011sqco  -2.00460
gfz2011sskq  -1.30600
gfz2011stzi  -0.21188
gfz2011swfp  -0.65073
gfz2011sxno  -0.86723
gfz2011sylg  -0.41245
gfz2011syvj   0.26731
gfz2011syzr  -1.00040
gfz2011szau  -0.64672
gfz2011szbb   1.90210
gfz2011szcj   2.52360
gfz2011taqr   2.96190
gfz2011tfor  -1.19620
gfz2011tgon  -1.61300
gfz2011tjpv  -1.39210
gfz2011tozo   0.37964
gfz2011tqgg   0.61939
gfz2011tsgl  -0.29472
gfz2011tssv  -0.64512
gfz2011tvuv  -1.38360
gfz2011twpz  -1.78600
gfz2011txxs  -1.24920
gfz2011tzcv  -0.16981
gfz2011ugbt  -2.23470
gfz2011uowi  -0.61206
gfz2011uqlz  -1.33040
gfz2011uqry  -1.39850
gfz2011urwz  -0.62092
gfz2011vahy  -0.10775
gfz2011varl  -0.45113
gfz2011vcyx  -0.27283
gfz2011vimn  -1.09630
gfz2011vsag   0.08052
gfz2011vtzv  -0.87717
gfz2011vxek  -0.42713
gfz2011wbtc  -0.40686
gfz2011wcvs  -1.94380
gfz2011wfsk  -1.12080
gfz2011wgoa  -0.10807
gfz2011wgvh  -1.50850
gfz2011wkja  -0.67909
gfz2011wkyx  -0.58187
gfz2011wngi  -0.10013
gfz2011wnjg  -1.69040
gfz2011wpzt  -0.23266
gfz2011wqup  -0.78393
gfz2011wucg  -1.12110
gfz2011wwze  -0.46642
gfz2011wzss  -0.56599
gfz2011xawm  -0.62786
gfz2011xdox  -0.68674
gfz2011xgbc  -1.17730
gfz2011xgwy  -1.20620
gfz2011xlod  -0.29416
gfz2011xnui  -0.49730
gfz2011xpcq  -0.28998
gfz2011xxng  -1.24020
gfz2011yexx  -0.85800
gfz2011ytob   0.53694
gfz2011zdyf  -0.47563
gfz2011zghc  -0.76707
gfz2011zgxn   0.65591
gfz2011ziyk  -0.19239
gfz2011zkbt  -1.24190
gfz2012adja   0.28089
gfz2012ahac  -0.93124
gfz2012alti  -1.04020
gfz2012amjx  -0.53795
gfz2012amvs  -0.17322
gfz2012arlo  -1.25700
gfz2012avvc  -1.20840
gfz2012bcvn  -0.81886
gfz2012beae   0.06291
gfz2012bity   0.08312
gfz2012bjhl  -1.03650
gfz2012bnwa   0.19045
gfz2012bolx   0.32773
gfz2012bovy  -0.85629
gfz2012bqcf  -0.53437
gfz2012byrq  -1.74170
gfz2012bysu  -0.09834
gfz2012bytv  -0.72110
gfz2012byuk   0.26851
gfz2012cdju  -0.41080
gfz2012cksh  -1.45370
gfz2012cmww  -0.18256
gfz2012cntu  -0.46513
gfz2012crpb  -0.81109
gfz2012cvfr  -0.41275
gfz2012cwhl  -1.20910
gfz2012cxhw  -2.21360
gfz2012dcjd  -0.57487
gfz2012dejg  -1.11440
gfz2012dleg  -0.12834
gfz2012dnig  -0.57680
gfz2012dpnu  -0.81349
gfz2012dpwv  -1.53150
gfz2012drld  -0.27774
gfz2012drqd   0.77645
gfz2012dtlu  -0.00000
gfz2012dttl  -0.30584
gfz2012dwwu  -1.37490
gfz2012dyck  -0.02872
gfz2012dysu   0.71984
gfz2012dzot  -0.68462
gfz2012eajr   0.00000
gfz2012eeft   0.23058
gfz2012ekfp  -1.89080
gfz2012ekro  -0.42066
gfz2012elek  -0.61328
gfz2012enio  -0.76638
gfz2012enrg  -0.10541
gfz2012erds  -1.35590
gfz2012evav  -0.02140
gfz2012evxn  -1.48060
gfz2012eyti  -1.19950
gfz2012facv   0.21547
gfz2012fbgz  -0.94027
gfz2012fhaf  -0.60954
gfz2012fiiz   1.05830
gfz2012flqf   0.02026
gfz2012foih   2.68160
gfz2012fuyd  -0.26153
gfz2012fyny  -0.75153
gfz2012gbrs  -0.30880
gfz2012gdye  -0.68584
gfz2012gjdg  -0.90548
gfz2012gjtd   2.49610
gfz2012gmsr  -0.91694
gfz2012gnow  -0.24406
gfz2012gpcd  -1.29750
gfz2012gubu  -1.69440
gfz2012hdny  -1.27810
gfz2012heih   0.13271
gfz2012hlya   4.25310
gfz2012hmcv  -1.04050
gfz2012hnyy   0.28172
gfz2012hvfw  -0.73034
gfz2012hvtu   2.87030
gfz2012hzur   0.02769
gfz2012iblo  -2.74690
gfz2012ibyd  -0.17437
gfz2012icjo  -0.37714
gfz2012iijk  -1.48000
gfz2012imsm  -2.58250
gfz2012ipdc  -0.08616
gfz2012iroy  -1.01980
gfz2012ivyg  -1.83460
gfz2012iyoi   1.34820
gfz2012izke  -1.22160
gfz2012jlez  -1.48700
gfz2012jnlt  -0.13478
gfz2012juem  -0.13409
gfz2012kadi  -0.57524
gfz2012kbub  -0.54108
gfz2012klpl  -0.37726
gfz2012kmbo  -1.71200
gfz2012kmmz  -1.22480
gfz2012kqjb  -0.67742
gfz2012kstg  -0.79859
gfz2012kwmx  -0.35941
gfz2012ldjj  -1.09350
gfz2012lqhw  -0.37173
gfz2012luzm  -0.48369
gfz2012lvwx  -1.88010
gfz2012lwha  -1.79950
gfz2012lyqs  -2.91920
gfz2012lyyr  -1.11350
gfz2012mdzf  -0.73651
gfz2012mjuu  -1.19610
gfz2012mjzl  -0.40578
gfz2012mmiw  -0.96558
gfz2012movv   0.37115
gfz2012mowv  -0.46365
gfz2012mpzo   0.17667
gfz2012mrqk  -1.55790
gfz2012mrwu  -1.13380
gfz2012mvgu  -0.18293
gfz2012mwhe  -0.76696
gfz2012mxdk   0.08423
gfz2012mxvk  -2.75510
gfz2012mzqx   0.10059
gfz2012ndwt  -0.55073
gfz2012nfos   0.09429
gfz2012nfzc  -0.75894
gfz2012nldz   1.12280
gfz2012nmja  -0.58548
gfz2012nnqu  -2.36440
gfz2012nqvd   0.51040
gfz2012nsxc   0.21778
gfz2012oafg  -0.83757
gfz2012oehy  -0.41085
gfz2012ofnx   0.36619
gfz2012ohgd  -0.41999
gfz2012ojmv  -2.70920
gfz2012oork  -0.95675
gfz2012oozp  -0.78137
gfz2012oyja  -0.72455
gfz2012pdav  -1.09320
gfz2012pgmw   0.22269
gfz2012phns  -0.86325
gfz2012pira  -0.25329
gfz2012pmuj  -2.19800
gfz2012pokk  -0.59625
gfz2012ppcq  -0.73828
gfz2012prke  -0.28922
gfz2012pryl  -0.91566
gfz2012pumy  -0.52732
gfz2012pvve  -0.37727
gfz2012qfah   0.25700
gfz2012qfov  -2.29210
gfz2012qhqp  -3.03510
gfz2012roan  -0.36767
gfz2012rzwp   0.71237
gfz2012sfao   0.27369
gfz2012sjdy  -0.85910
gfz2012sjox  -0.02038
gfz2012smyn  -0.98212
gfz2012socz  -1.03580
gfz2012sopp  -0.96526
gfz2012sqsc  -1.54580
gfz2012stxx   0.00921
gfz2012suqd  -1.65210
gfz2012svwz  -0.55543
gfz2012swbz  -0.82949
gfz2012sxbo  -2.58350
gfz2012sxzs  -1.03230
gfz2012syum  -1.81690
gfz2012taph  -1.10770
gfz2012tisj  -1.47750
gfz2012touh  -1.78120
gfz2012tqjc  -1.78640
gfz2012trfq  -0.62547
gfz2012trss  -1.59240
gfz2012tsdz  -1.45770
gfz2012ttnf  -0.39428
gfz2012tvgw  -1.06100
gfz2012twec  -0.79094
gfz2012tyoz  -0.70608
gfz2012udeo   2.22320
gfz2012uegq  -2.15040
gfz2012uhsx  -0.93878
gfz2012uhtc  -0.65233
gfz2012ukzg  -1.98030
gfz2012ulei  -2.89130
gfz2012unxc  -0.83769
gfz2012uovh  -0.54168
gfz2012urtu  -0.69298
gfz2012uvoa  -0.69880
gfz2012uzww  -0.70532
gfz2012vcqw  -0.88696
gfz2012vdsl  -3.35060
gfz2012vgot  -0.67378
gfz2012vile  -1.85460
gfz2012vioy  -1.48510
gfz2012vitw  -0.47438
gfz2012vlzv  -1.17020
gfz2012vnve   0.50234
gfz2012vqjw  -0.56280
gfz2012vqmq  -1.03840
gfz2012vrqz  -0.06153
gfz2012vurc  -0.27458
gfz2012wdvt   0.02208
gfz2012wdxk  -0.39515
gfz2012wgdv  -0.88638
gfz2012wgmg  -1.37150
gfz2012wjsi  -1.33590
gfz2012wkki  -0.69734
gfz2012wmmw  -0.67004
gfz2012wowu  -1.42700
gfz2012woxj  -0.86452
gfz2012wpen  -0.75290
gfz2012wqfz  -0.41747
gfz2012wugc  -0.64028
gfz2012wysg  -0.39678
gfz2012xask  -0.32946
gfz2012xbna  -1.52180
gfz2012xfsl  -0.75863
gfz2012xkln  -0.88422
gfz2012xlas  -1.36470
gfz2012xlfo  -1.26830
gfz2012xncm  -1.72870
gfz2012xrmq  -1.14700
gfz2012xtvu  -0.62575
gfz2012xxdj  -0.70458
gfz2012yegw  -1.03110
gfz2012yihn  -0.63278
gfz2012ylai  -0.49986
gfz2012yncm  -2.41610
gfz2012zhyz  -1.00910
gfz2012zido  -0.54879
gfz2012zkhu  -1.88610
gfz2012zktj   1.05500
gfz2012zmdf   0.51083
gfz2012znou  -1.30500
gfz2012zqis  -1.41150
gfz2013adih  -0.25469
gfz2013agbm  -0.43051
gfz2013aggr  -0.00825
gfz2013agmt  -0.25037
gfz2013ajxz  -0.30133
gfz2013akkd  -0.63078
gfz2013ascz  -0.77785
gfz2013atak  -0.72342
gfz2013atec  -0.65305
gfz2013aymi  -1.57100
gfz2013bqfc   0.11058
gfz2013bwgw  -1.31090
gfz2013byyy  -0.66966
gfz2013cinv  -0.62647
gfz2013ciof   0.00000
gfz2013cqak  -0.91894
gfz2013cvve  -1.56040
gfz2013cyvx  -0.37135
gfz2013ddrx  -1.22020
gfz2013delq  -1.21470
gfz2013dftb   0.07885
gfz2013dfvx  -0.88219
gfz2013djfi  -0.46030
gfz2013dksc   0.30604
gfz2013dmzh  -0.03089
gfz2013dngd  -0.44776
gfz2013dnot   0.00000
gfz2013dzvr  -0.97929
gfz2013eavq   0.18634
gfz2013eazm  -0.78237
gfz2013efct  -0.56683
gfz2013egfv  -3.22970
gfz2013eidd  -0.76330
gfz2013ektd  -0.94994
gfz2013enga  -1.50000
gfz2013enjr   1.20880
gfz2013enqo  -0.39583
gfz2013enrh  -0.20578
gfz2013evcl   0.64981
gfz2013eyyo  -1.64380
gfz2013fhzy  -0.43533
gfz2013fmcd  -0.13068
gfz2013fnpa  -0.60275
gfz2013frxd  -0.33527
gfz2013fskp  -0.47163
gfz2013fthi  -0.44640
gfz2013fulo  -0.36887
gfz2013fvht   0.45624
gfz2013fvyr  -1.29360
gfz2013fxyr   0.90141
gfz2013fybd  -0.53541
gfz2013gaqx  -1.76590
gfz2013gkyn  -0.20646
gfz2013glkq   0.20571
gfz2013glpz   0.07610
gfz2013gomv  -0.68787
gfz2013grle   1.05650
gfz2013gugi  -1.20840
gfz2013gurk  -0.29228
gfz2013gxye  -0.28635
gfz2013gyce  -0.39469
gfz2013gywl  -1.46730
gfz2013havw  -0.54429
gfz2013hbmi  -0.44658
gfz2013hbtm   0.38105
gfz2013hbwy  -5.63280
gfz2013hduf  -0.53216
gfz2013hiam  -1.50670
gfz2013hinw  -0.69727
gfz2013hqaa  -0.99303
gfz2013hvzv   0.05714
gfz2013hwps  -0.90162
gfz2013icgx   0.00000
gfz2013icql  -0.66292
gfz2013ikic  -0.94913
gfz2013ivvw  -0.87822
gfz2013iwzn  -0.67176
gfz2013iybg  -0.67165
gfz2013jfcn  -0.42097
gfz2013jhog  -0.02696
gfz2013jjfw  -0.63097
gfz2013jobl  -0.32919
gfz2013jrqf  -1.06740
gfz2013jzcf   0.20521
gfz2013kats  -1.26450
gfz2013kbbg  -1.84020
gfz2013kbbn  -1.29390
gfz2013kcdb  -2.12420
gfz2013kdfy  -0.93911
gfz2013kqab  -1.33530
gfz2013ksaz  -0.00000
gfz2013kslp  -0.53022
gfz2013kxlr  -0.87221
gfz2013kxof  -0.85272
gfz2013lbod  -1.99860
gfz2013lbvl  -0.87822
gfz2013lgvf  -0.83853
gfz2013ljdu  -0.29446
gfz2013ljwt  -0.56002
gfz2013lnts  -0.64574
gfz2013lqjj  -0.78799
gfz2013lvxe  -0.37576
gfz2013lwtr  -0.86468
gfz2013lxed  -0.75123
gfz2013mdxj  -0.02242
gfz2013mimp  -0.48311
gfz2013muqm  -0.85634
gfz2013mvgq  -0.54588
gfz2013mzaw  -0.30733
gfz2013nkgd   0.13305
gfz2013nkgt  -1.03210
gfz2013nnai  -1.24710
gfz2013noqf  -0.49637
gfz2013ntfc   0.48056
gfz2013ntiu  -1.90980
gfz2013oeni  -1.32270
gfz2013ohdt  -0.72440
gfz2013ohnj  -0.48953
gfz2013oizq  -1.52520
gfz2013ojza  -0.73142
gfz2013okac  -0.12329
gfz2013okxa  -0.48386
gfz2013olos  -1.00410
gfz2013onvl  -0.99952
gfz2013orot  -0.22842
gfz2013ortl  -0.02010
gfz2013oruq  -0.66398
gfz2013osmj   0.00000
gfz2013otuj   0.19042
gfz2013oywh  -1.22180
gfz2013pegj  -0.33461
gfz2013phhi  -0.72918
gfz2013phly  -0.97205
gfz2013pizm   0.08403
gfz2013pkmz  -1.50570
gfz2013puiy  -1.54760
gfz2013qdks   0.19816
gfz2013qdno  -0.06900
gfz2013qdpv   0.19183
gfz2013qdzg  -0.62911
gfz2013qigb  -1.01200
gfz2013qmkt  -3.57460
gfz2013qnqr  -0.24260
gfz2013qntl  -1.20930
gfz2013qoak  -1.98700
gfz2013qogb  -0.43498
gfz2013quwz  -1.46030
gfz2013quyn  -0.23849
gfz2013qwnm   0.61642
gfz2013qxof  -0.17821
gfz2013rdmn  -0.20800
gfz2013rfik  -0.29302
gfz2013rhbx  -0.19519
gfz2013rhxf  -1.02310
gfz2013rnsa   0.00182
gfz2013rocs  -0.81320
gfz2013rtvy  -0.72116
gfz2013rwkj  -1.04740
gfz2013rwog  -0.19461
gfz2013ryfc   0.31945
gfz2013ryph  -0.27557
gfz2013sdkg  -0.31426
gfz2013sdym  -2.45680
gfz2013skay  -0.73580
gfz2013skvq  -0.49094
gfz2013stou  -0.13752
gfz2013stup  -0.96708
gfz2013swnj  -0.81501
gfz2013syqp  -0.21325
gfz2013taeb  -1.33120
gfz2013tcju  -0.69551
gfz2013tdsx  -0.95632
gfz2013tekq  -0.25227
gfz2013tgia   0.07442
gfz2013tgyb  -0.33458
gfz2013timw   0.06644
gfz2013tjub  -0.28526
gfz2013tkcg  -0.68404
gfz2013tmnf  -0.70206
gfz2013tmyj   0.01970
gfz2013tnff  -1.13110
gfz2013tnrp  -0.67634
gfz2013trsq  -0.16597
gfz2013ubgt   0.75573
gfz2013udtw   0.10078
gfz2013uenl   2.01490
gfz2013uepl  -0.75956
gfz2013ummt  -2.68300
gfz2013unuv  -0.64512
gfz2013upqj   0.05862
gfz2013utqa  -1.38220
gfz2013uugc  -0.22214
gfz2013uwjo  -1.20500
gfz2013uxzw   1.27220
gfz2013uzmf   0.01210
gfz2013vcgd  -0.14616
gfz2013vdam  -0.43651
gfz2013veoz  -1.04950
gfz2013veug  -0.78329
gfz2013vfix  -0.31842
gfz2013vjrr  -1.14190
gfz2013vjsz  -0.33832
gfz2013vldx  -0.78857
gfz2013vmrv  -0.81004
gfz2013vmsg   1.69330
gfz2013vnwa  -1.27220
gfz2013voai  -0.16609
gfz2013vojy  -0.54512
gfz2013vsdd  -1.53760
gfz2013vvre  -0.32550
gfz2013vwkh  -0.52526
gfz2013vxht  -0.59986
gfz2013vzel  -0.96919
gfz2013vzet  -0.56100
gfz2013wgwz  -0.85383
gfz2013wigs   0.70442
gfz2013wpns  -0.55804
gfz2013wwee  -0.87555
gfz2013wyfl  -0.96705
gfz2013xahp  -0.85001
gfz2013xbdc  -0.01965
gfz2013xjmo  -0.09085
gfz2013xmzw  -1.12870
gfz2013xodn  -0.23803
gfz2013xofz  -0.54156
gfz2013xswc  -0.88158
gfz2013xupg  -1.29430
gfz2013xuxr  -1.11290
gfz2013xvps  -0.69603
gfz2013xxbf   0.46867
gfz2013xycz  -1.15230
gfz2013xzxe  -0.56843
gfz2013yfwz  -1.97640
gfz2013yihv  -0.99959
gfz2013ykkf  -1.76640
gfz2013ykqw  -2.45000
gfz2013yktj  -0.03746
gfz2013ylxm  -1.91540
gfz2013ylxn  -0.55697
gfz2013ymhx  -1.38390
gfz2013yodm  -0.78326
gfz2013yqkz  -0.58830
gfz2013yqtu  -0.70917
gfz2013ytfm  -0.22549
gfz2013yvnj  -0.19662
gfz2013yxhf   0.15127
gfz2013yxif  -0.26079
gfz2013yywh  -0.06400
gfz2013zedt  -0.26795
gfz2013zeye  -1.41780
gfz2013zfbz  -0.59478
gfz2013zkgm  -0.79815
gfz2013zkzb  -0.85696
gfz2013zlak  -1.91980
gfz2013zlij  -0.72343
gfz2013zpwk  -0.55861
gfz2013zqan  -0.76481
gfz2014aapq  -0.59510
gfz2014aedl  -0.16840
gfz2014aejh  -0.74983
gfz2014ajgi  -0.40230
gfz2014aluc  -3.88730
gfz2014amgk  -0.61796
gfz2014aqax  -0.95676
gfz2014aqop  -1.36670
gfz2014ascp   0.32418
gfz2014ateb   0.13284
gfz2014avag  -0.39879
gfz2014avmd  -0.59057
gfz2014avux  -2.66910
gfz2014avzp  -0.91648
gfz2014ayxf  -1.90340
gfz2014azfu  -0.66588
gfz2014bdju  -1.02720
gfz2014befl  -0.75783
gfz2014bgyv  -0.27708
gfz2014bkra  -0.86926
gfz2014bmch  -0.43067
gfz2014bmqw   3.57340
gfz2014bnea  -0.73096
gfz2014bppg  -0.98555
gfz2014bqpm  -0.55275
gfz2014brkk  -0.27977
gfz2014bumr  -0.19517
gfz2014buyz  -1.30160
gfz2014byes  -0.88682
gfz2014bzus  -0.73682
gfz2014cbfo   0.50744
gfz2014cgoi  -0.38033
gfz2014cjao  -0.18349
gfz2014ckqv  -0.27197
gfz2014club  -0.14609
gfz2014cncl  -2.10940
gfz2014cokw  -0.74851
gfz2014crac  -0.50005
gfz2014ctdl  -0.49520
gfz2014cvnb  -0.48285
gfz2014cwti  -0.21900
gfz2014dbqi  -1.02250
gfz2014dece  -1.07950
gfz2014dggw  -0.80624
gfz2014dihl  -2.09040
gfz2014diuu  -1.53520
gfz2014djyj  -0.34742
gfz2014dmrw  -0.84021
gfz2014dpps  -0.17711
gfz2014dsqr  -0.44809
gfz2014dtth  -1.36210
gfz2014dtto  -0.52241
gfz2014dudd  -1.63290
gfz2014dutu  -0.95494
gfz2014dwcp   0.03572
gfz2014dykt  -1.06100
gfz2014edjm  -0.39703
gfz2014edmd  -1.82300
gfz2014eflc   0.48927
gfz2014eiav   0.32259
gfz2014eirs  -0.22534
gfz2014ejfx  -0.92880
gfz2014emlw  -0.51473
gfz2014eoay  -0.71983
gfz2014epfm  -0.94483
gfz2014epnq  -0.66365
gfz2014epue   2.09390
gfz2014esez  -0.38420
gfz2014etgp  -0.51271
gfz2014eunw  -0.90513
gfz2014evgu   0.47790
gfz2014evhm  -0.94556
gfz2014exxj  -0.78805
gfz2014eysf  -0.22917
gfz2014ezvj   0.04496
gfz2014fbli   0.04605
gfz2014fbnr  -2.32260
gfz2014fjfz  -0.03347
gfz2014flxk  -0.20967
gfz2014fmdc  -0.65492
gfz2014fqas  -0.50105
gfz2014fsir  -0.26401
gfz2014fsje  -0.00000
gfz2014fskh  -0.15992
gfz2014fsvc  -1.42780
gfz2014fvza  -0.10203
gfz2014fwuf  -1.18670
gfz2014fwxt  -0.07971
gfz2014fxte  -0.46581
gfz2014fxtv  -0.53071
gfz2014fxuy  -0.84881
gfz2014gbxg  -1.40640
gfz2014gdbh   0.24851
gfz2014geln  -0.93173
gfz2014gnbw  -0.39651
gfz2014grwv  -0.31504
gfz2014gsfc  -0.81292
gfz2014gtee  -0.70054
gfz2014gtoj  -0.14342
gfz2014gutd  -2.97660
gfz2014gypw  -0.65831
gfz2014gzlm  -0.57278
gfz2014hapg  -2.22440
gfz2014happ  -1.72300
gfz2014herz  -0.23576
gfz2014hgjb  -0.44608
gfz2014hhey  -0.99307
gfz2014hhis  -0.86796
gfz2014hjmc  -1.60440
gfz2014hkcw  -1.13280
gfz2014hotu  -1.91070
gfz2014hqhv  -0.77985
gfz2014huqh  -1.57680
gfz2014hyea  -0.82189
gfz2014hzzf  -0.70376
gfz2014iaqm  -1.13600
gfz2014iayo  -1.72410
gfz2014icov  -1.70460
gfz2014igrp  -0.38744
gfz2014ijsa  -0.99997
gfz2014iltl   0.33535
gfz2014ined  -2.33390
gfz2014ipfu  -0.41936
gfz2014irlf  -0.50860
gfz2014irly  -0.47690
gfz2014isjg  -0.29916
gfz2014isov  -0.87662
gfz2014itlx  -0.42350
gfz2014iusw  -0.38264
gfz2014ivgm  -0.70918
gfz2014ixlc  -0.48343
gfz2014iyuc  -0.12187
gfz2014jarg  -0.77688
gfz2014jaxy  -0.44979
gfz2014jayh  -0.12903
gfz2014jbfp  -0.94166
gfz2014jckg  -1.61690
gfz2014jffe  -4.35050
gfz2014jfmc  -1.87340
