# Nsamples: 753  MAD:  0.515  mean: -0.008  std:  0.750
gfz2010bkfi   0.08953
gfz2010clbw  -0.15674
gfz2010cnhd   0.18024
gfz2010csle  -0.62865
gfz2010csqy   0.75101
gfz2010dmij  -0.00000
gfz2010dumv  -1.32690
gfz2010eepd   0.53736
gfz2010ewyj  -0.97752
gfz2010extu  -0.81796
gfz2010faly  -0.03272
gfz2010fgbo  -0.11811
gfz2010fkff  -0.11971
gfz2010fopf   0.19787
gfz2010fpvw  -1.48660
gfz2010fqzh   0.19279
gfz2010ftfq  -0.19626
gfz2010fxut  -2.01810
gfz2010gcqp   0.30429
gfz2010hesh   0.26820
gfz2010iaay  -0.24389
gfz2010ifhd  -0.58782
gfz2010jcpq   1.07490
gfz2010jgwj   0.12592
gfz2010ljol   0.71995
gfz2010onxm  -0.35228
gfz2010pclq  -0.20545
gfz2010pcya  -0.35948
gfz2010qdqk  -0.50861
gfz2010qqqx  -0.84039
gfz2010qrix   0.22072
gfz2010qrta   0.53319
gfz2010qzvf   0.42802
gfz2010rdip  -0.80794
gfz2010rkuu  -0.49866
gfz2010rljv  -0.09880
gfz2010rnwt   0.24123
gfz2010rpbz  -0.89878
gfz2010rpjd  -1.02690
gfz2010shvn   0.25619
gfz2010swqy  -0.20545
gfz2010syqh  -0.71482
gfz2010tfar   0.11107
gfz2010tgmo  -0.26706
gfz2010tzlz   0.03385
gfz2010tzma  -0.66582
gfz2010uidg  -0.15282
gfz2010vgfu   0.36187
gfz2010vong  -0.38892
gfz2010vxwv   1.14940
gfz2010vybx  -0.48808
gfz2010wakc  -0.82609
gfz2010wtin   0.42399
gfz2010wwhf  -0.22577
gfz2010wwnq  -0.03100
gfz2010xamh  -0.47006
gfz2010xaxw  -0.13920
gfz2010xcdd  -0.96250
gfz2010xhqq  -0.67284
gfz2010xnbn   0.63005
gfz2010xpzq   0.11464
gfz2010xvev  -0.02500
gfz2010xytc  -0.10980
gfz2010xzah  -0.18483
gfz2010xzte  -1.03030
gfz2010yczp  -0.66899
gfz2010yfdr  -0.45649
gfz2010yhhj  -1.59320
gfz2010yilf   0.19105
gfz2010ymih  -0.13446
gfz2010yrex   1.35940
gfz2010ytzb  -0.02846
gfz2011bcvc  -0.32552
gfz2011bffb   1.25240
gfz2011biin   0.15271
gfz2011bpqm  -0.20538
gfz2011bqbx   0.08604
gfz2011bsvr   0.14763
gfz2011bwsm   0.35172
gfz2011bzio  -0.39111
gfz2011caca   0.20215
gfz2011cfyy   0.22883
gfz2011chsa  -0.37194
gfz2011cjcv  -0.12186
gfz2011cjuz  -0.60041
gfz2011cwsm  -0.40122
gfz2011dabj   0.18130
gfz2011dhfg   0.21058
gfz2011dhqk   0.69808
gfz2011dpyu   0.34357
gfz2011drmu   0.18149
gfz2011duvm  -0.33570
gfz2011dwae   0.03001
gfz2011edrq   0.22005
gfz2011ekty   0.18464
gfz2011emzr  -0.12300
gfz2011etkc   0.04104
gfz2011fnie  -0.48183
gfz2011fnuk  -0.26814
gfz2011fszl  -0.14138
gfz2011fxmf   2.45150
gfz2011fyfu   0.20644
gfz2011fzcw  -1.07160
gfz2011gaax  -0.06667
gfz2011gcct  -0.30000
gfz2011gdli   0.70567
gfz2011gfer  -0.20120
gfz2011ggnl  -1.50060
gfz2011glpg   0.20723
gfz2011gnbk  -0.10298
gfz2011gzde  -1.38590
gfz2011haaa   0.02117
gfz2011hatg  -0.37230
gfz2011hbqc  -0.34732
gfz2011hffq   1.30620
gfz2011hibi   3.15140
gfz2011hjof  -0.22023
gfz2011hmnw   0.02509
gfz2011hqjs  -0.15137
gfz2011hrgt   1.73730
gfz2011hvzo  -1.47850
gfz2011hwbn   2.41230
gfz2011hyct   0.25298
gfz2011iamf  -0.03679
gfz2011ibew  -0.70475
gfz2011ifta  -0.11341
gfz2011ioch  -1.07810
gfz2011iryz  -0.03909
gfz2011itcv   0.08631
gfz2011ituo  -0.25602
gfz2011jdoz   0.07590
gfz2011jghq  -1.32470
gfz2011jpob  -0.32047
gfz2011jrgh   1.08900
gfz2011jryv  -0.24029
gfz2011jtij   0.07468
gfz2011kgvq  -0.40443
gfz2011kjzt  -0.72530
gfz2011kujo  -0.29425
gfz2011kylu   1.39480
gfz2011kymm  -2.82100
gfz2011kyzy  -0.19990
gfz2011ldgl  -0.40658
gfz2011lkkf   0.90509
gfz2011lmug  -0.17309
gfz2011lwmg  -0.33317
gfz2011mdyq  -0.13970
gfz2011mjje  -0.09068
gfz2011mllb  -0.91178
gfz2011mntq  -0.13828
gfz2011mror   0.62828
gfz2011mrpy  -0.38269
gfz2011mryu  -1.07480
gfz2011mzvn  -0.98407
gfz2011nblt   1.36150
gfz2011ncyw   0.71329
gfz2011ndhh  -0.46216
gfz2011ndki  -0.82935
gfz2011ndlh   4.16140
gfz2011ndoe  -1.62740
gfz2011ndse  -0.89468
gfz2011ndtp  -0.67143
gfz2011ndvj  -0.47802
gfz2011ndyk  -1.11010
gfz2011neai  -0.52530
gfz2011nejg  -0.29483
gfz2011nerb  -1.23490
gfz2011nfcz   0.16048
gfz2011nfih   0.38148
gfz2011nfln  -1.22420
gfz2011nfww  -1.92190
gfz2011nhby   0.57994
gfz2011nhvt  -1.52780
gfz2011nhwf   0.29381
gfz2011nifi  -0.10515
gfz2011nihq  -0.27632
gfz2011nijp  -0.50083
gfz2011nilw  -0.29874
gfz2011nimp  -0.70133
gfz2011nioi  -0.36825
gfz2011nisj   0.04128
gfz2011niuw  -0.09953
gfz2011nivw   0.45875
gfz2011nkda   0.57025
gfz2011nkou   1.80660
gfz2011nlmf  -0.52080
gfz2011nlnl  -0.29842
gfz2011nlum  -0.46872
gfz2011nmdz   0.30051
gfz2011npaf  -1.74090
gfz2011npeu  -1.56790
gfz2011nsej   1.03880
gfz2011nsiy  -0.66414
gfz2011nsrx  -0.22814
gfz2011nssr  -0.49346
gfz2011nsyi   0.20038
gfz2011ntyd  -0.94561
gfz2011nuqo  -0.30658
gfz2011nvty  -0.41584
gfz2011nyzk  -0.65977
gfz2011oadm  -0.10940
gfz2011oazk   0.08876
gfz2011ocif   0.06307
gfz2011oekz   0.35193
gfz2011oesd  -1.06330
gfz2011ofpj  -0.49623
gfz2011ohgj  -0.56415
gfz2011okza  -1.88210
gfz2011omxt  -0.14851
gfz2011oosp   0.24470
gfz2011oqjl  -1.89060
gfz2011oslk   0.49154
gfz2011osmp  -0.13462
gfz2011ovvj  -1.11160
gfz2011owqa   0.65847
gfz2011paqj   0.23949
gfz2011pbgh   1.04940
gfz2011pbjh  -0.42110
gfz2011pdgq  -0.04392
gfz2011pdsn  -0.81381
gfz2011pfls  -0.01988
gfz2011pfwq  -1.31640
gfz2011pgzk   0.10638
gfz2011pimj  -0.15638
gfz2011pivq   0.49786
gfz2011plzc  -0.77212
gfz2011pmuv   0.52163
gfz2011poug  -0.00000
gfz2011prrq  -0.06574
gfz2011ptgd   2.35600
gfz2011pwld   0.16000
gfz2011qgvh   0.36013
gfz2011qklh  -0.89409
gfz2011qlkj   1.54180
gfz2011qtoy  -1.94780
gfz2011qukj  -0.64092
gfz2011rbuo  -0.02924
gfz2011rczb  -0.39465
gfz2011rkau   0.04191
gfz2011rkzx  -0.73394
gfz2011rnny   0.59147
gfz2011rnsp   0.40998
gfz2011rplo   2.28880
gfz2011scma   0.24937
gfz2011sdax  -0.49766
gfz2011sdpl   0.30660
gfz2011uowi   0.46480
gfz2011uqlz  -0.45806
gfz2011uqry  -0.36916
gfz2011vbxv  -0.07181
gfz2012dejg  -0.22155
gfz2012dleg  -0.87499
gfz2012dnig   0.05390
gfz2012dpnu  -0.52243
gfz2012dpwv   0.15109
gfz2012dtlu   1.94090
gfz2012dttl   0.03268
gfz2012dwwu  -0.31895
gfz2012dyck   0.33261
gfz2012dzjo  -1.40310
gfz2012dzot   0.15228
gfz2012eajr  -1.46130
gfz2012ebrr  -0.51394
gfz2012eeft   0.32660
gfz2012ekro   0.53450
gfz2012fyny  -0.14245
gfz2012gbrs   5.84870
gfz2012gnow   0.00134
gfz2012heih   0.23259
gfz2012iijk  -0.53963
gfz2012imuo  -0.78071
gfz2012ipdc   0.07497
gfz2012iphs  -1.16800
gfz2012iroy   2.16180
gfz2012ivyg  -0.85170
gfz2012izke  -0.59381
gfz2012kadi   0.18440
gfz2012kbub  -1.17550
gfz2012klpl   0.20894
gfz2012kstg   0.10340
gfz2012ldjj  -0.27953
gfz2012luzm  -0.35573
gfz2012lvlr  -0.54454
gfz2012lvwx  -2.21140
gfz2012lyyr  -0.28102
gfz2012mmiw   0.46888
gfz2012mowv   0.07897
gfz2012mrqk   0.40745
gfz2012mrwu   0.23684
gfz2012mtyn   0.07291
gfz2012mvgu  -0.01995
gfz2012ndwt   0.98312
gfz2012nfos   0.92166
gfz2012nldz   0.96598
gfz2012nmja   0.00000
gfz2012nnqu  -0.16041
gfz2012oehy   0.38290
gfz2012ofnx   0.99340
gfz2012pdav  -0.08369
gfz2012pdjt  -2.02020
gfz2012phns  -0.27277
gfz2012pmuj   0.13153
gfz2012pmuq   1.31830
gfz2012pokk   0.20374
gfz2012pryl  -0.15197
gfz2012pumy   0.15657
gfz2012pvve  -0.02897
gfz2012qbbt  -0.00000
gfz2012qfah   0.17370
gfz2012qhqp   1.58460
gfz2012qllj  -0.77060
gfz2012qmhz  -0.53392
gfz2012rmvx   0.66777
gfz2012roan  -0.92886
gfz2012rzwp  -0.17468
gfz2012sfao   0.71710
gfz2012sgfd  -0.64483
gfz2012sjdy  -1.11980
gfz2012smyn  -0.22443
gfz2012socz  -0.30772
gfz2012sopp  -0.32694
gfz2012sqsc  -0.87035
gfz2012ssnb  -1.96730
gfz2012ssvn   0.39463
gfz2012stxx   0.00000
gfz2012suqd  -0.33277
gfz2012swbz  -0.37907
gfz2012sxbo  -0.74119
gfz2012sxzs  -0.00730
gfz2012syum  -0.13489
gfz2012taph   0.04913
gfz2012tisj  -0.53351
gfz2012touh  -0.33563
gfz2012tqjc  -0.76179
gfz2012trss  -0.24103
gfz2012ttnf   0.39604
gfz2012twec   0.19490
gfz2012tyoz  -0.87422
gfz2012uegq  -1.19430
gfz2012uhsx  -0.07389
gfz2012uhtc   0.00567
gfz2012umob  -0.00000
gfz2012uovh  -0.17879
gfz2012urtu  -0.89913
gfz2012uvoa  -0.24387
gfz2012uzww  -0.29249
gfz2012vcqw  -0.10713
gfz2012vgot   1.06310
gfz2012vile  -0.87765
gfz2012vioy  -0.58594
gfz2012vitw   0.10052
gfz2012vkjw  -0.11796
gfz2012vlzv  -0.55482
gfz2012vnve   1.11430
gfz2012vqjw  -0.48621
gfz2012vqmq   0.17265
gfz2012vrqz  -0.27094
gfz2012vsav   0.26942
gfz2012vurc   0.00000
gfz2012wgdv  -0.03916
gfz2012wgmg  -0.40085
gfz2012wiyv   2.94330
gfz2012wkki   0.12814
gfz2012wmmw   0.01442
gfz2012wowu  -0.08889
gfz2012woxj   0.43330
gfz2012wpen  -0.62017
gfz2012wqfz   0.14232
gfz2012wugc  -0.73257
gfz2012wysg   0.15514
gfz2012xask   0.11487
gfz2012xbna   0.78170
gfz2012xcsf   0.39932
gfz2012xfnu  -0.24443
gfz2012xfsk   0.53751
gfz2012xfsl  -0.12434
gfz2012xkln  -0.18291
gfz2012xkvu  -0.21948
gfz2012xlas  -0.34084
gfz2012xlfo   1.03140
gfz2012xncm  -0.65118
gfz2012yytb  -1.96190
gfz2012zhyz  -0.24002
gfz2012zkhu   0.36985
gfz2012znou  -0.12544
gfz2012zqis  -0.02009
gfz2013agbm  -0.70323
gfz2013aggr  -0.63495
gfz2013akkd  -0.27860
gfz2013atak   0.71174
gfz2013aymi  -0.10446
gfz2013bqfc   0.17476
gfz2013bwgw   0.02909
gfz2013byyy   0.17412
gfz2013bzwa   0.74912
gfz2013cinv  -0.19530
gfz2013cvve  -0.65090
gfz2013cyvx  -0.05069
gfz2013dbhl  -0.02010
gfz2013ddrx   0.97225
gfz2013delq  -0.07175
gfz2013dftb   0.42378
gfz2013dfvx  -0.68078
gfz2013dksc   0.91412
gfz2013dmzh  -0.14489
gfz2013dngd   1.10680
gfz2013dnot   0.19962
gfz2013dzvr   0.09462
gfz2013eavq   0.38296
gfz2013eazm   0.40508
gfz2013efct   0.40533
gfz2013eidd   0.27422
gfz2013enjr   0.06647
gfz2013enqo   0.00000
gfz2013eyyo   0.85031
gfz2013ffjt   0.01446
gfz2013fmcd   0.45711
gfz2013fmcp   0.73727
gfz2013fndg   0.13511
gfz2013fnpa   0.08952
gfz2013foto  -0.35296
gfz2013frxd  -0.85866
gfz2013fskp   0.51655
gfz2013fthi  -0.32269
gfz2013fulo   0.54146
gfz2013fvht   0.38138
gfz2013fvyr  -0.51984
gfz2013fxyr   0.57031
gfz2013fybd   0.35294
gfz2013ghpd   0.28987
gfz2013gkyn   0.57831
gfz2013glkq  -1.86180
gfz2013glpz  -0.00000
gfz2013gomv   0.36181
gfz2013grle  -0.97447
gfz2013gsnl   2.58340
gfz2013gugi  -0.08594
gfz2013gurk   0.35224
gfz2013gxye   0.41353
gfz2013gyce  -0.77508
gfz2013gywl   1.04500
gfz2013hbmi   0.54698
gfz2013hbtm   0.69327
gfz2013hdbp  -0.68050
gfz2013hduf   0.33327
gfz2013hiam   0.73565
gfz2013hinw   0.85551
gfz2013hqaa  -0.34072
gfz2013hvkg  -0.66661
gfz2013hvzv   0.57423
gfz2013icgx   0.26137
gfz2013icql   0.12981
gfz2013ikic   0.40121
gfz2013irme   0.08669
gfz2013iuyv  -0.48812
gfz2013iwhc  -0.02360
gfz2013iwzn   0.08569
gfz2013iybg  -0.03977
gfz2013iybv   0.84394
gfz2013jfcn  -0.01690
gfz2013jhog   0.66189
gfz2013jlli   0.80451
gfz2013jrqf  -0.34685
gfz2013jtsg   0.02229
gfz2013jzcf   0.55664
gfz2013jzfz   0.23644
gfz2013kats   0.63227
gfz2013kbbg  -0.21223
gfz2013kcdb   0.05797
gfz2013kdfy   0.17858
gfz2013kxlr   0.22553
gfz2013lbod   0.49930
gfz2013lgvf   0.31418
gfz2013ljdu   0.56447
gfz2013ljwt   0.03666
gfz2013lnts   0.22905
gfz2013lvxe   0.62684
gfz2013lxed   0.27233
gfz2013mdxj   0.48059
gfz2013phhi  -0.45440
gfz2013phly  -0.21264
gfz2013pizm   0.62788
gfz2013pkmz   0.05292
gfz2013pqkp  -0.18957
gfz2013pvsa   1.74530
gfz2013qaex   0.00000
gfz2013qapj   1.07090
gfz2013qdks   0.57151
gfz2013qdno   0.13938
gfz2013qdpv   0.52530
gfz2013qear  -1.79660
gfz2013qigb   0.26895
gfz2013qmkt  -0.82517
gfz2013qnqr   0.42111
gfz2013qntl  -0.19197
gfz2013qoak  -0.34743
gfz2013qogb   0.17969
gfz2013quwz  -0.51061
gfz2013quyn   0.48556
gfz2013qwnm   0.74339
gfz2013qxof  -0.13954
gfz2013rdmn  -0.57185
gfz2013rfik   0.55704
gfz2013rgcc  -0.11001
gfz2013rhbx   1.11010
gfz2013rhxf  -0.02210
gfz2013rnsa   0.88059
gfz2013rocs   0.34376
gfz2013rtvy   0.11235
gfz2013rwkj   0.03462
gfz2013rwog   0.39993
gfz2013ryfc   0.52031
gfz2013ryph   0.39070
gfz2013sbsl  -0.02654
gfz2013sbsp  -0.70148
gfz2013sdkg   0.38231
gfz2013sdym   0.06330
gfz2013skay  -0.11583
gfz2013skvq   0.17934
gfz2013stou   0.31836
gfz2013stup  -1.05240
gfz2013swnj  -0.12144
gfz2013tcju   0.15851
gfz2013tdsx  -0.26735
gfz2013tekq   0.15712
gfz2013tert   0.92895
gfz2013tgia   0.48810
gfz2013timw  -0.45264
gfz2013tjub  -0.71197
gfz2013tkcg   0.01839
gfz2013tmnf   0.11855
gfz2013tmyj   0.60152
gfz2013tnrp   0.16153
gfz2013trsq   0.21554
gfz2013ttmk   1.00740
gfz2013twbc   1.44090
gfz2013uafv   0.51369
gfz2013ubgt   1.06350
gfz2013udtw   0.32083
gfz2013uenl  -1.83690
gfz2013uepl  -0.08450
gfz2013uhio   0.17065
gfz2013ummt  -1.56000
gfz2013unuv   0.30853
gfz2013upqj  -0.59883
gfz2013utqa   0.55956
gfz2013uugc   0.47354
gfz2013uwjo  -0.40677
gfz2013uwxi   0.85810
gfz2013uxzw  -1.18540
gfz2013uzmf   0.35036
gfz2013vcgd  -0.64605
gfz2013vdam   0.19352
gfz2013veoz   0.06060
gfz2013veug  -0.35673
gfz2013vfix   0.34190
gfz2013vjrr  -0.14710
gfz2013vjsz  -1.23370
gfz2013vldx  -0.16061
gfz2013vmrv   0.57733
gfz2013vnwa   0.19023
gfz2013voai   0.15878
gfz2013vojy   0.21318
gfz2013vsdd  -0.35956
gfz2013vvre  -0.85765
gfz2013vwkh   0.32800
gfz2013vxht   0.18905
gfz2013vzel  -0.14151
gfz2013vzet  -0.41458
gfz2013wgwz   0.87301
gfz2013wigs  -0.01101
gfz2013wpns   0.19152
gfz2013wwee   0.15074
gfz2013wyfl  -0.14562
gfz2013xacx   0.21842
gfz2013xahp   0.12551
gfz2013xbdc   0.93837
gfz2013xjmo   1.82680
gfz2013xjmy  -1.95070
gfz2013xlic   0.56666
gfz2013xmzw  -0.31718
gfz2013xodn   0.01981
gfz2013xofz   0.27782
gfz2013xswc  -0.02941
gfz2013xupg  -0.23838
gfz2013xuxr   0.21966
gfz2013xvps   0.33638
gfz2013xxbf   1.06660
gfz2013xycz   0.28440
gfz2013xzxe   0.30516
gfz2013yapz   2.01020
gfz2013ygsj  -2.44840
gfz2013yihv   0.14361
gfz2013ykkf  -0.84166
gfz2013ykqw  -0.91394
gfz2013yktj  -0.06686
gfz2013ylxm   0.12063
gfz2013ylxn  -0.26542
gfz2013ymhx   0.53331
gfz2013yodm  -0.12351
gfz2013yqkz   0.91763
gfz2013yqtu  -0.32348
gfz2013ytfm  -0.78946
gfz2013yvnj  -0.07379
gfz2013yxhf   0.07358
gfz2013yxif   0.20795
gfz2013zbfb  -2.61150
gfz2013zeye  -0.35978
gfz2013zfbz  -0.22576
gfz2013zghn   0.33103
gfz2013zkta  -0.06162
gfz2013zkzb  -0.78958
gfz2013zlak  -0.09710
gfz2013zlij  -0.01948
gfz2013zpwk  -0.05722
gfz2013zqan   0.07610
gfz2014aapq  -0.07481
gfz2014aedl   0.39505
gfz2014aejh   0.13372
gfz2014afbt   0.19415
gfz2014ajgi   0.68676
gfz2014amgk   0.09342
gfz2014aqax   0.14561
gfz2014arox  -1.26750
gfz2014ateb   0.32956
gfz2014azfu   0.43156
gfz2014befl   0.38366
gfz2014bgxe   0.47360
gfz2014bgyv   0.74403
gfz2014bkra   0.34387
gfz2014bmch   0.16382
gfz2014bmqw  -1.34490
gfz2014bnea   1.16480
gfz2014bppg   0.58538
gfz2014bqpm   0.21512
gfz2014buyz  -0.58021
gfz2014bycg  -0.08800
gfz2014byes  -0.34287
gfz2014bzus   0.29224
gfz2014cgoi   0.19267
gfz2014cjao   0.24350
gfz2014ckqv   0.48752
gfz2014cncl   0.44107
gfz2014cokw   0.10952
gfz2014crac   0.86432
gfz2014ctdl   0.01398
gfz2014dbqi  -0.50766
gfz2014dece   0.70596
gfz2014dggw   0.24591
gfz2014dihl  -0.76396
gfz2014djhi   0.49944
gfz2014djyj  -0.12785
gfz2014dmrw   0.08508
gfz2014dpps   0.12708
gfz2014dsqr   0.13634
gfz2014dtth  -0.25000
gfz2014dtto   0.23491
gfz2014dutu   0.67522
gfz2014dwcp   0.09406
gfz2014edjm   0.29682
gfz2014edmd   0.31985
gfz2014eflc   1.35720
gfz2014egvg  -0.20989
gfz2014eiav   0.64564
gfz2014eirs   0.25387
gfz2014ejfx  -0.19214
gfz2014emlw  -0.11442
gfz2014eoay   0.08022
gfz2014epfm   0.11553
gfz2014epnq  -0.19081
gfz2014esez   0.33549
gfz2014etgp   0.36363
gfz2014etqu   0.91687
gfz2014eunw   0.47199
gfz2014evgu   0.44794
gfz2014evhm   0.23491
gfz2014exxj   0.08145
gfz2014eyne  -0.77509
gfz2014ezjq  -1.04580
gfz2014ezld  -0.08801
gfz2014ezvj   0.16289
gfz2014fbef   0.21586
gfz2014fbli   0.35449
gfz2014fbnr  -0.83220
gfz2014fhki   0.02436
gfz2014fjfz   0.16112
gfz2014flxk   0.45226
gfz2014fsir   0.11986
gfz2014fsje   0.24615
gfz2014fskh   0.30759
gfz2014fsvc  -0.89169
gfz2014fvza  -0.03957
gfz2014fwuf  -1.39570
gfz2014fwxt   0.21666
gfz2014fxim  -0.84436
gfz2014fxte   0.07123
gfz2014fxuy  -0.10493
gfz2014gasb   0.46777
gfz2014gbxg   0.49099
gfz2014gcgf   0.35885
gfz2014geln   0.34056
gfz2014ggie   0.19711
gfz2014gjfd   0.02956
gfz2014gnbw   0.12494
gfz2014grwv   0.42354
gfz2014gsfc   0.34582
gfz2014gssz   0.32942
gfz2014gtee  -0.19766
gfz2014gtoj   0.88278
gfz2014gypw   0.75150
gfz2014hapg  -0.38651
gfz2014happ  -0.61950
gfz2014herz   0.51646
gfz2014hgjb   0.34481
gfz2014hhey   0.32235
gfz2014hhis   0.12939
gfz2014hjmc  -0.50838
gfz2014hkcw  -0.31627
gfz2014hotu  -0.53630
gfz2014hqhv  -0.41945
gfz2014huah  -1.08120
gfz2014huqh  -0.15461
gfz2014hyea   0.03048
gfz2014hzzf   0.21484
gfz2014iaqm   0.34644
gfz2014iayo  -0.38030
gfz2014icov  -0.32996
gfz2014igrp   0.18571
gfz2014ijsa   0.98540
gfz2014iltl   0.68735
gfz2014imqh  -0.43207
gfz2014ined   0.21327
gfz2014inrg  -0.19575
gfz2014ipfu   0.74648
gfz2014ipwk  -0.80283
gfz2014irlf   0.57981
gfz2014irln  -0.02652
gfz2014irly   0.27164
gfz2014isjg  -0.30477
gfz2014isov  -0.09372
gfz2014itlx   0.48762
gfz2014iusw   0.15021
gfz2014ivgm   0.46655
gfz2014ixlc   0.24873
gfz2014iyuc   0.29109
gfz2014jarg   0.42551
gfz2014jaxy   0.76461
gfz2014jayh   0.29307
gfz2014jbfp   0.08826
gfz2014jbgm   0.41589
gfz2014jcbj  -1.37870
gfz2014jckg  -0.11883
gfz2014jfmc  -1.53100
