# Nsamples: 532  MAD:  0.792  mean:  0.496  std:  0.911
gfz2010azji   0.46200
gfz2010djib   0.28642
gfz2010drml   2.01980
gfz2010drmq   2.01980
gfz2010habf   1.28780
gfz2010hllp   0.80192
gfz2010hnuo   2.90370
gfz2010hueh   0.86457
gfz2010huzl   1.35860
gfz2010iaay   0.95740
gfz2010izag   0.58823
gfz2010jgwj   0.54682
gfz2010jkrp   1.32250
gfz2010jlvp   1.45160
gfz2010jpkn   0.66539
gfz2010jvsi  -0.22369
gfz2010kcdq   0.13135
gfz2010kuzb  -0.74353
gfz2010kwks   0.22971
gfz2010kzzm   3.11080
gfz2010ljol   0.81139
gfz2010mvmb   0.91310
gfz2010mwmd   2.07220
gfz2010nccu   0.74046
gfz2010ncwu   0.94923
gfz2010nteg   0.49090
gfz2010nwyk  -0.12477
gfz2010oguu   0.34070
gfz2010ogwn   1.73290
gfz2010okpc   1.26670
gfz2010osrl   0.62299
gfz2010pcya  -0.42529
gfz2010qbcy   1.22960
gfz2010qdqk  -0.46921
gfz2010qqqx   2.01710
gfz2010qrta   0.99487
gfz2010qykh   1.61720
gfz2010rkuu   0.26937
gfz2010rljv  -0.02368
gfz2010rnwt  -0.90731
gfz2010rpbz   1.29450
gfz2010rpjd   0.05917
gfz2010sdfs  -0.57947
gfz2010tcgh  -0.62595
gfz2010tgmo   1.29040
gfz2010tmba  -0.46392
gfz2010tpcj   1.02950
gfz2010tzlz   0.36434
gfz2010tzma   0.61345
gfz2010ugws   0.15835
gfz2010uhjy   1.24860
gfz2010uidg   0.53252
gfz2010umxj   1.27470
gfz2010umyp   0.66251
gfz2010utsc  -0.29779
gfz2010vdcf   0.89876
gfz2010viyi   0.82325
gfz2010vjac   0.62450
gfz2010vkca   0.23605
gfz2010vong   1.39350
gfz2010vyri   0.47863
gfz2010wakc  -0.53350
gfz2010xamh  -0.09040
gfz2010xezr   0.38137
gfz2010xnbn   0.72430
gfz2010xpzq   0.52695
gfz2010xytc   0.04687
gfz2010yfdr   0.21423
gfz2010ymih   1.69790
gfz2010yspe   0.08575
gfz2010ytzb  -0.39882
gfz2011awsv   0.05511
gfz2011bcvc   1.21530
gfz2011bffb   0.15031
gfz2011bpqm   0.42792
gfz2011bsvr  -1.13680
gfz2011bygs   0.28637
gfz2011bygu   0.06302
gfz2011cdge  -1.49790
gfz2011chsa   0.52464
gfz2011cjcv   1.63800
gfz2011cjuz   2.08620
gfz2011dabj   0.36371
gfz2011dpyu   0.20547
gfz2011drmu   4.43850
gfz2011exxq  -1.10740
gfz2011fnie   0.06323
gfz2011fszl   0.20349
gfz2011fzcw  -2.17790
gfz2011ggnl   2.08380
gfz2011gnbk   0.33727
gfz2011gpyr   0.01736
gfz2011hbqc   0.39511
gfz2011hffq  -0.43148
gfz2011hibi   1.23140
gfz2011hjof   0.82447
gfz2011hvzo  -0.70606
gfz2011hyct   0.65038
gfz2011inan  -1.73900
gfz2011ioch   0.30160
gfz2011iryz   1.05210
gfz2011ituo   0.39336
gfz2011jphj   0.47444
gfz2011jpob   0.10604
gfz2011jryv   1.58240
gfz2011kymm   0.25594
gfz2011kyzy   0.54589
gfz2011lkkf   0.20023
gfz2011lmug   0.85239
gfz2011lwmg   0.73506
gfz2011lykm   0.45252
gfz2011melb   0.84340
gfz2011mjje  -0.30949
gfz2011mllb   0.56576
gfz2011mror  -0.13764
gfz2011mrpy   1.06590
gfz2011nblt   3.77660
gfz2011ndhh   0.61192
gfz2011ndlh  -0.23647
gfz2011ndoe  -0.84067
gfz2011ndse   1.40740
gfz2011ndtp   0.79077
gfz2011ndvj   1.90890
gfz2011ndyk   0.87705
gfz2011neai   0.73790
gfz2011nejg   0.72156
gfz2011nejw   1.29280
gfz2011nerb   1.60970
gfz2011nfcz   0.17910
gfz2011nfgt   2.82700
gfz2011nfih   0.70291
gfz2011nfln   1.08860
gfz2011nftw   1.09820
gfz2011nfww  -0.34453
gfz2011nhby  -0.14758
gfz2011nhvt   1.12620
gfz2011nhwf   2.04140
gfz2011nijp   0.31133
gfz2011nilw   0.27200
gfz2011nioi   1.95440
gfz2011nisj   2.61210
gfz2011niuw   0.91757
gfz2011nkda   3.17110
gfz2011nkou  -2.33450
gfz2011nlmf   0.67658
gfz2011nlnl   0.77390
gfz2011nlok   1.16610
gfz2011nlum   0.64265
gfz2011nlyw   1.44600
gfz2011nnos   1.35620
gfz2011npaf   1.04040
gfz2011npeu   1.91860
gfz2011nsiy  -0.09804
gfz2011nsrx  -0.17642
gfz2011nsyi   1.84880
gfz2011nuqo  -0.38258
gfz2011nvty  -0.17680
gfz2011oadm  -0.42202
gfz2011oazk  -0.38243
gfz2011ocif   1.97920
gfz2011oekz   1.44800
gfz2011ofpj  -1.05510
gfz2011ohgj  -1.20950
gfz2011okza  -0.31925
gfz2011oqjl   1.79330
gfz2011oslk   0.26060
gfz2011owqa   0.10666
gfz2011paqj  -0.67461
gfz2011pdsn   0.33690
gfz2011pfls   0.32082
gfz2011pfwq  -0.85975
gfz2011pgzk   0.45979
gfz2011pivq  -0.02101
gfz2011plzc   0.62872
gfz2011pmuv  -0.35985
gfz2011poug   0.45017
gfz2011ppsc  -0.20328
gfz2011prrq   0.05586
gfz2011pwbw   0.25805
gfz2011qenl  -0.52367
gfz2011qgvx   0.71342
gfz2011qukj   0.18915
gfz2011rkau   0.48917
gfz2011rnny   0.08331
gfz2011rplo   1.09570
gfz2011scma  -0.23424
gfz2011sdax  -0.99276
gfz2011sdpl  -0.23116
gfz2011sfmu   0.73044
gfz2011sqco   0.53080
gfz2011sxno  -0.12893
gfz2011sylg   0.93760
gfz2011syvj   2.05580
gfz2011syzr   0.07493
gfz2011szbb   2.52730
gfz2011szcj   2.17040
gfz2011szis   0.15117
gfz2011taqr   0.64331
gfz2011tarj   1.88660
gfz2011tlwl   1.63350
gfz2011tozo   4.59810
gfz2011txdb   0.37421
gfz2011txxs   0.12777
gfz2011unud   1.38540
gfz2011uowi   0.58088
gfz2011uqry   0.85487
gfz2011vahy   0.18468
gfz2011vbxv   0.15901
gfz2011vcyx  -0.32171
gfz2011vsag   1.30120
gfz2011vswj   0.37133
gfz2011wgoa   1.91590
gfz2011wkja   0.30193
gfz2011wngi   0.19115
gfz2011wqup   0.50146
gfz2011wtfn   1.77730
gfz2011wucg   1.07010
gfz2011wyei   0.39193
gfz2011wzss   0.28394
gfz2011xawm  -0.05553
gfz2011xdox   0.03998
gfz2011xlod   0.07740
gfz2011yexx   0.47668
gfz2011ykbd   0.42618
gfz2011ymji   0.63141
gfz2011zdyf   0.14726
gfz2011zghc   0.63092
gfz2012adja   0.86281
gfz2012alti   0.47292
gfz2012amjx   1.04210
gfz2012bjhl  -0.00000
gfz2012bolx   0.51247
gfz2012bqcf   0.39178
gfz2012byrq  -0.19919
gfz2012cdju  -0.14891
gfz2012cvfr   0.67203
gfz2012ekfp  -0.42211
gfz2012fxgc   0.75619
gfz2012fyny   0.14366
gfz2012gdye   0.11191
gfz2012gjdg  -0.24868
gfz2012gnow   0.46308
gfz2012gpcd   1.43210
gfz2012hzhn   1.31920
gfz2012hzur   0.12145
gfz2012iblo   1.06850
gfz2012iijk   1.13590
gfz2012imsm   0.76148
gfz2012imuo   1.37270
gfz2012ipdc  -0.11726
gfz2012iphs   0.62219
gfz2012jodg   0.08329
gfz2012jyhb   0.22421
gfz2012kadi   0.70048
gfz2012kbub   1.27980
gfz2012kmbo   0.76089
gfz2012kstg  -0.22323
gfz2012ldjj   0.27831
gfz2012luzm  -0.14305
gfz2012lyqs   3.89490
gfz2012lyyr   0.24635
gfz2012mjuu  -0.96788
gfz2012mmiw   1.32820
gfz2012mrqk  -0.13949
gfz2012mrwu   0.19612
gfz2012mxdk   1.78330
gfz2012mxvk   0.59308
gfz2012nfos   1.33320
gfz2012nldz   1.16510
gfz2012nnqu  -1.47430
gfz2012oehy   0.37986
gfz2012ofnx   1.78940
gfz2012qfah   0.30492
gfz2012qllj   0.20431
gfz2012rzwp   0.02839
gfz2012sfao  -0.59858
gfz2012sgfd   0.58260
gfz2012sjdy  -0.94686
gfz2012sjox   1.01480
gfz2012socz  -0.48927
gfz2012sopp   0.85172
gfz2012sqsc   0.13210
gfz2012ssnb   1.43890
gfz2012ssvn  -0.48729
gfz2012stxx  -0.40505
gfz2012suqd   0.38407
gfz2012svwz   0.97326
gfz2012swbz   0.30483
gfz2012sxbo   1.88130
gfz2012sxzs   0.47477
gfz2012syum   0.10337
gfz2012thyh   0.29002
gfz2012tisj   1.36690
gfz2012tqjc  -0.70935
gfz2012trfq   0.13381
gfz2012trss   0.70236
gfz2012tsdz  -0.28190
gfz2012ttnf   0.38943
gfz2012tvgw   1.34120
gfz2012twec   0.52676
gfz2012tyoz  -0.77537
gfz2012uegq   1.13020
gfz2012uhtc  -0.47636
gfz2012ukzg   1.14170
gfz2012ulei   0.89898
gfz2012uovh  -0.29450
gfz2012urtu  -0.13146
gfz2012uvoa   0.00868
gfz2012uzww  -1.13070
gfz2012vgot   0.69454
gfz2012vile   0.19413
gfz2012vitw  -0.30230
gfz2012vnve   0.73941
gfz2012vqmq   0.96115
gfz2012vrqz   0.28499
gfz2012wgdv   0.31856
gfz2012wgmg  -0.44127
gfz2012wkki   0.48073
gfz2012wmmw   0.45871
gfz2012wowu  -0.72793
gfz2012wpen  -0.40162
gfz2012wysg   0.08723
gfz2012xask  -0.00862
gfz2012xcsf   0.57935
gfz2012xlas  -0.77965
gfz2012xncm   0.25145
gfz2012xqxw   0.07714
gfz2012zhyz   1.47720
gfz2012znou   0.77821
gfz2012zqis   0.61433
gfz2013adih   0.18609
gfz2013agbm   1.00450
gfz2013bwgw   1.11810
gfz2013fndg   0.26573
gfz2013fnpa  -0.24878
gfz2013gbki   0.57925
gfz2013gkyn   0.66286
gfz2013gomv  -0.05749
gfz2013gqtl   0.67546
gfz2013gsnl  -0.68272
gfz2013gyce  -0.28270
gfz2013havw  -0.13501
gfz2013hbtm   1.20150
gfz2013hdbp   0.11449
gfz2013icql  -1.05730
gfz2013iwzn   1.71330
gfz2013jfcn   0.86721
gfz2013jobl   0.68154
gfz2013kats   0.54395
gfz2013kbbg  -0.31728
gfz2013kbbn   0.96123
gfz2013kcdb   0.59028
gfz2013kpcb   0.70582
gfz2013kqab   0.71435
gfz2013ksaz   0.43215
gfz2013kslp   0.74308
gfz2013kxlr  -0.38866
gfz2013kxof   0.76704
gfz2013lbod   1.13850
gfz2013lbvl  -0.54759
gfz2013ljdu   0.41632
gfz2013lnts   0.31390
gfz2013lvxe   0.25667
gfz2013lxed   0.98312
gfz2013mdxj   0.64250
gfz2013mimp   1.27860
gfz2013mvgq  -0.25718
gfz2013mzaw  -0.57061
gfz2013njck   1.13480
gfz2013nkgd   0.01743
gfz2013nkgt   0.72317
gfz2013nnai  -0.04097
gfz2013oeni  -0.17908
gfz2013ohdt   0.72507
gfz2013oizq  -0.24657
gfz2013ojza   0.54560
gfz2013okac  -0.38017
gfz2013okxa  -0.14721
gfz2013olos   0.77935
gfz2013opkx   1.09360
gfz2013orot   0.75931
gfz2013oruq   0.20703
gfz2013oywh   0.44020
gfz2013pegj   1.58080
gfz2013phhi   0.13200
gfz2013phly   1.02640
gfz2013pkmz   0.16203
gfz2013qapj   0.87761
gfz2013qdzg   2.51880
gfz2013qigb   0.35276
gfz2013qmkt   1.80610
gfz2013qoak   0.64885
gfz2013qogb   0.94626
gfz2013quwz  -1.43160
gfz2013quyn  -0.33001
gfz2013qxof  -0.60565
gfz2013rdmn   0.62327
gfz2013rgcc  -0.75388
gfz2013rhbx   0.45810
gfz2013rnsa   0.06498
gfz2013rocs  -0.26344
gfz2013rsyt   0.34460
gfz2013rwkj   0.00363
gfz2013ryph  -0.16798
gfz2013sbsl  -0.06640
gfz2013sbsp  -0.04076
gfz2013sdkg   0.05657
gfz2013skay   0.33037
gfz2013stou   0.13528
gfz2013stup  -0.13146
gfz2013suck   1.18190
gfz2013taeb   0.99269
gfz2013tcju   0.78398
gfz2013tdsx   0.40639
gfz2013tert  -0.02085
gfz2013tgyb  -0.83313
gfz2013tjub  -0.27877
gfz2013tmnf  -0.39468
gfz2013tmyj   0.99911
gfz2013tnrp  -0.11448
gfz2013ttmk   2.50480
gfz2013uafv   0.04803
gfz2013ubgt  -0.50946
gfz2013udtw   0.17844
gfz2013uepl   0.54237
gfz2013uhio   0.73546
gfz2013unuv  -0.28612
gfz2013upqj   0.70488
gfz2013uwjo   0.12376
gfz2013uxzw   0.65558
gfz2013vcgd  -0.80384
gfz2013veoz   0.09508
gfz2013veug  -1.19090
gfz2013vldx  -0.67172
gfz2013vmsg  -1.70710
gfz2013vnwa  -0.08727
gfz2013voai   0.47582
gfz2013vojy  -0.36950
gfz2013vvre  -0.53931
gfz2013vwkh   0.25614
gfz2013vxht   0.84572
gfz2013vzel   1.08270
gfz2013vzet   1.71380
gfz2013wgwz   1.25150
gfz2013wpns   0.59309
gfz2013wyfl  -0.11737
gfz2013wyho   2.12530
gfz2013xacx   1.03400
gfz2013xjmo   2.59470
gfz2013xjmy   1.97710
gfz2013xlic   1.40240
gfz2013xmzw  -0.66766
gfz2013xofz  -0.11513
gfz2013xswc  -0.75409
gfz2013xuxr   1.68300
gfz2013xvps  -0.61366
gfz2013xycz   0.87896
gfz2013yawe  -0.12335
gfz2013ygsj  -2.14560
gfz2013ylxm  -1.08660
gfz2013yqkz   1.50250
gfz2013yqtu   1.42360
gfz2013ytfm  -0.13074
gfz2013yxhf   1.71880
gfz2013zfbz  -0.14163
gfz2013zkgm   0.79921
gfz2013zkta   0.73279
gfz2014ajgi   0.76182
gfz2014ayxf   0.83574
gfz2014bfjb  -0.16932
gfz2014bgxe   0.23315
gfz2014bgyv   1.92180
gfz2014bkra  -0.11029
gfz2014bmqw   0.81370
gfz2014bnea   0.88322
gfz2014bppg   1.45720
gfz2014bumr   0.84305
gfz2014bycg   0.96153
gfz2014byes   1.61140
gfz2014cgxj   0.84948
gfz2014cncl   1.34880
gfz2014cokw   0.95279
gfz2014cwti  -0.09513
gfz2014djhi   1.21940
gfz2014edmd  -0.14706
gfz2014epnq   1.14560
gfz2014eysf   0.88738
gfz2014ezjq   2.48850
gfz2014fbli   0.70914
gfz2014fjfz   1.33800
gfz2014flxk   0.80506
gfz2014fsir  -0.31399
gfz2014fwxt  -0.31847
gfz2014fxim   0.97893
gfz2014fxte  -0.20350
gfz2014fxtv  -0.02297
gfz2014fxuy   0.58819
gfz2014ggie   0.33063
gfz2014gnbw  -0.21905
gfz2014gnvp  -0.08212
gfz2014grwv   0.07542
gfz2014gsfc   0.95980
gfz2014gutd   1.20480
gfz2014gypw   0.17648
gfz2014herz  -1.08940
gfz2014hgjb  -0.49751
gfz2014hqhv  -0.32250
gfz2014huah   1.84740
gfz2014huqh   1.83480
gfz2014hyea   0.23687
gfz2014hzzf   0.53220
gfz2014iaqm   1.38070
gfz2014icov   2.00570
gfz2014ijsa   0.35394
gfz2014imqh   1.59700
gfz2014ined  -2.95130
gfz2014inrg   1.51630
gfz2014ipfu   0.72070
gfz2014irlf   0.47203
gfz2014irln  -3.12100
gfz2014isov   2.34940
gfz2014itlx   0.59210
gfz2014iusw   0.15126
gfz2014iyuc   0.28585
gfz2014jarg   1.18280
gfz2014jaxy   0.68220
gfz2014jayh  -0.01929
gfz2014jbfp  -0.27335
gfz2014jbgm   1.53790
gfz2014jckg   1.24720
gfz2014jffe  -0.62431
gfz2014jfmc  -0.29746
