# Nsamples: 277  MAD:  1.647  mean:  0.432  std:  2.480
gfz2010aggj   0.99665
gfz2010aldp  -4.07640
gfz2010asxa   1.21540
gfz2010bqnk  -3.71540
gfz2010bukb   1.11640
gfz2010bvit   1.24640
gfz2010ccse  -0.48573
gfz2010crir   1.57520
gfz2010cvkn  -2.89110
gfz2010cyid  -2.17970
gfz2010dask   2.53660
gfz2010depd   0.14701
gfz2010drit   0.12031
gfz2010dumv   1.55640
gfz2010dxhq   3.33880
gfz2010fgbo   1.03470
gfz2010fjme  -1.93710
gfz2010habf   0.44657
gfz2010hllp   0.72867
gfz2010hxan  -0.20317
gfz2010iaay  -2.58340
gfz2010kuzb  -1.07160
gfz2010ljmp  -0.28138
gfz2010ljzf  -3.52130
gfz2010mdti   3.46670
gfz2010mqzz   2.15320
gfz2010msss  -0.03400
gfz2010ncwu  -4.82790
gfz2010oibn  -2.74830
gfz2010pcya   0.54793
gfz2010pzza   0.89570
gfz2010rkuu   1.96790
gfz2010rljv   2.92210
gfz2010rnwt   2.68320
gfz2010rpbz  -1.51100
gfz2010rpjd  -0.94452
gfz2010tpcj   0.44683
gfz2010ugws   0.20212
gfz2010uogw  -5.73070
gfz2010uvpz  -0.89468
gfz2010vong   1.47550
gfz2010wakc   1.35720
gfz2010wplk  -2.04800
gfz2010xcdd  -0.66674
gfz2010xnbn   1.67510
gfz2010xytc   1.35040
gfz2010yfdr   0.55884
gfz2010yilf   1.79170
gfz2010ymih   0.22627
gfz2010ytzb   1.05440
gfz2010zhvj   8.36230
gfz2010zjun   0.22780
gfz2011ahvh  -0.78173
gfz2011ameb  -4.54150
gfz2011aqpp   5.63570
gfz2011awsv   1.55410
gfz2011bpqm   1.65480
gfz2011bsvr   3.24730
gfz2011dabj   3.58860
gfz2011dpyu   0.87133
gfz2011emzr  -2.95930
gfz2011fyfu   2.07480
gfz2011fzcw   3.36460
gfz2011gnbk   0.95882
gfz2011gpyr   1.22510
gfz2011hibi   2.29410
gfz2011hjof   1.92330
gfz2011iryz   0.07365
gfz2011ituo   1.73130
gfz2011kjzt   3.71300
gfz2011kjzv   1.64500
gfz2011kylu   2.86120
gfz2011kymm   0.18747
gfz2011lkkf   0.40062
gfz2011mdyq   0.75304
gfz2011mjje   1.94390
gfz2011ndhh   4.99290
gfz2011nejg   0.07869
gfz2011nfcz  -2.67560
gfz2011nijp   1.45150
gfz2011niuw  -1.05750
gfz2011nuqo   1.32050
gfz2011oadm   2.38650
gfz2011ofpj   0.85063
gfz2011ohgj   6.72400
gfz2011oqjl   1.94660
gfz2011oslk   1.16910
gfz2011owqa  -1.51540
gfz2011paqj   0.69904
gfz2011pivq   1.47970
gfz2011qenl   0.02871
gfz2011rkau   0.91733
gfz2011rnny   4.12240
gfz2011scma   1.27750
gfz2011sdax   2.07700
gfz2011sqco   1.32880
gfz2011sxno   1.49830
gfz2011syvj  -5.24090
gfz2011syzr  -3.64050
gfz2011taqr  -4.68790
gfz2011tlwl  -0.86872
gfz2011tqgg  -1.62510
gfz2011tsgl  -0.64301
gfz2011urwz  12.47300
gfz2011vahy   1.36100
gfz2011vemg  -3.65710
gfz2011wcvs  -2.20370
gfz2011wkyx   1.46520
gfz2011wnjg  -5.40640
gfz2011wqup   0.45703
gfz2011wwze   0.13535
gfz2011xlod   2.18940
gfz2011xwum   3.25270
gfz2011yexx   2.39950
gfz2011ypfh   0.57490
gfz2011zcwn   0.14579
gfz2011zhih  -0.72775
gfz2011ziyk   0.48552
gfz2012amvs   1.11750
gfz2012aqpa  -0.50321
gfz2012bjhl   1.70750
gfz2012bqcf   1.37790
gfz2012cdju   1.07560
gfz2012cvfr   0.60817
gfz2012dejg   1.98970
gfz2012dleg   3.68170
gfz2012dpnu   1.70840
gfz2012dwwu   2.99430
gfz2012eeft   1.81380
gfz2012ekfp  -4.86900
gfz2012ekro  -4.54530
gfz2012enio  -4.29650
gfz2012fiiz  -0.78638
gfz2012foih   1.49300
gfz2012ftks   1.10440
gfz2012gbrs  -0.31990
gfz2012gftg   0.70165
gfz2012ghiv   1.17710
gfz2012gjdg   2.65090
gfz2012hvtu   0.17251
gfz2012hzur   1.30670
gfz2012iijk   2.36610
gfz2012iroy   1.43360
gfz2012kmbo   0.39821
gfz2012kmmz   0.42829
gfz2012luzm   0.25856
gfz2012mdzf   1.59590
gfz2012mmiw  -1.37830
gfz2012mtyn  -0.42289
gfz2012mwhe   1.29480
gfz2012nnqu   3.61960
gfz2012nqvd   4.04260
gfz2012pdjt   0.62880
gfz2012pira   0.00000
gfz2012pvve  -0.99108
gfz2012qllj   3.54910
gfz2012socz   1.48720
gfz2012ssvn  -0.56201
gfz2012svwz   0.57451
gfz2012syum  -10.09700
gfz2012tgta  -0.93838
gfz2012uvoa  -1.01570
gfz2012vdra   0.09166
gfz2012vlzv   4.46450
gfz2012vrqz  -2.36020
gfz2012wgmg   4.22170
gfz2012wmmw   0.76510
gfz2012wowu  -1.57750
gfz2012woxj   1.11380
gfz2012wpen  -0.63661
gfz2012xbna  -0.48420
gfz2012xkln   1.96060
gfz2012xkvu  -0.34550
gfz2012xncm   1.22360
gfz2012xrmq  -0.72831
gfz2012xwkx  -1.12140
gfz2012zhyz   0.40728
gfz2013akkd   0.24302
gfz2013aymi   1.88900
gfz2013cvve  -4.32500
gfz2013cyvx   0.89541
gfz2013delq   2.33780
gfz2013dftb   0.87210
gfz2013dzvr   1.32730
gfz2013eazm  -1.48600
gfz2013efct   1.49430
gfz2013enjr  -0.16523
gfz2013enqo   1.33750
gfz2013fmcd  -4.11710
gfz2013fulo  -0.44080
gfz2013fvht  -3.22580
gfz2013grle  -6.73410
gfz2013gugi   4.08580
gfz2013gywl  -4.28980
gfz2013hbwy   1.05440
gfz2013hqaa   2.23080
gfz2013icql   3.98680
gfz2013iuyv   1.19550
gfz2013iwzn  -0.23095
gfz2013jfcn   1.67720
gfz2013jobl   0.53632
gfz2013kats   4.24290
gfz2013kbbg   1.29060
gfz2013kcdb   1.76880
gfz2013kqab   0.83392
gfz2013kuno  -0.60580
gfz2013lbvl   1.79730
gfz2013lvxe   1.26450
gfz2013ohnj   1.28200
gfz2013onvl   1.58490
gfz2013oywh  -0.37045
gfz2013phhi  -3.02980
gfz2013qigb  -1.28750
gfz2013qoak   3.96640
gfz2013qogb  -0.39339
gfz2013quwz   1.78230
gfz2013qxof   1.74640
gfz2013rdmn   0.37657
gfz2013rocs   0.16841
gfz2013rsyt   2.48590
gfz2013taeb  -0.35907
gfz2013timw   1.45580
gfz2013tmyj  -0.09925
gfz2013uafv  -2.06130
gfz2013ubgt   2.32430
gfz2013udtw   1.46630
gfz2013unuv   0.91334
gfz2013upqj   3.50950
gfz2013utqa   2.26900
gfz2013uugc   0.69125
gfz2013uwjo   2.84100
gfz2013vfix   0.54540
gfz2013vmrv  -0.38002
gfz2013vnwa   0.37158
gfz2013vvre  -0.56054
gfz2013vwkh   0.43929
gfz2013wyfl   0.48969
gfz2013xacx  -2.74070
gfz2013xahp   0.21600
gfz2013xofz  -0.40754
gfz2013xswc   1.68120
gfz2013xxbf  -7.47440
gfz2013yapz  -2.25240
gfz2013yqtu   1.70940
gfz2013yxhf  -1.74320
gfz2013zedt   0.66617
gfz2013zfbz   0.27737
gfz2013ziix   1.56510
gfz2013zpwk   0.16763
gfz2014ajgi  -0.86486
gfz2014aqop   1.69540
gfz2014avzp   1.81400
gfz2014bgyv   1.12760
gfz2014bkra  -2.77560
gfz2014bmqw  -0.20711
gfz2014bnea  -2.51100
gfz2014djhi  -3.70000
gfz2014eirs  -7.14790
gfz2014fbli   1.10080
gfz2014fjfz   1.02160
gfz2014fsir   1.46410
gfz2014fwxt   0.66440
gfz2014fxte   2.01490
gfz2014fxuy   1.90690
gfz2014gssz   0.42633
gfz2014hzzf   4.48750
gfz2014icov   2.32780
gfz2014iltl  -1.58450
gfz2014imqh   4.33840
gfz2014ined   2.07960
gfz2014ipfu   0.97959
gfz2014irlf   1.22700
gfz2014irln   1.82100
gfz2014iyuc  -2.78070
gfz2014jarg   1.09350
gfz2014jaxy  -3.08600
gfz2014jayh  -2.35020
