# Nsamples: 857  MAD:  0.634  mean: -0.350  std:  1.026
gfz2010cyid  -1.38630
gfz2010dask  -1.01750
gfz2010djib   0.33910
gfz2010dmij  -0.57192
gfz2010drit  -1.74590
gfz2010drml  -1.56900
gfz2010drmq  -1.56900
gfz2010drng  -1.31360
gfz2010drpv  -0.76720
gfz2010drun  -0.51164
gfz2010dslu  -1.75870
gfz2010dtgc  -0.59347
gfz2010dumv  -0.56728
gfz2010dwgy  -0.58964
gfz2010dxhq  -0.78088
gfz2010eibh  -1.64170
gfz2010ekvl  -0.11654
gfz2010elge  -3.73210
gfz2010ethu  -0.91849
gfz2010euue   0.11646
gfz2010ewyj  -1.05570
gfz2010extu  -1.47070
gfz2010fgbo  -1.27970
gfz2010fjio   0.13318
gfz2010fjme  -8.33950
gfz2010fkff  -0.17508
gfz2010fkpa  -0.45087
gfz2010fqnn  -0.24371
gfz2010fqzh  -0.84518
gfz2010ftfq  -1.88420
gfz2010fuky   0.18999
gfz2010gnvp   2.46950
gfz2010gonu  -0.57607
gfz2010guwa  -1.00070
gfz2010habf  -0.38399
gfz2010hdxn  -0.04174
gfz2010hesh  -0.20595
gfz2010hllp  -0.48865
gfz2010hsgv   0.00000
gfz2010hxan  -0.17287
gfz2010iaay  -0.78609
gfz2010iawy  -0.94332
gfz2010ioad   0.01568
gfz2010izag  -0.83672
gfz2010jlvp   0.12314
gfz2010juke  -0.22179
gfz2010kcyz  -0.43486
gfz2010kwks  -0.71437
gfz2010ljmp  -0.81128
gfz2010mdti  -0.80663
gfz2010mguv  -0.06039
gfz2010mjdl   0.00000
gfz2010mqzz  -0.30679
gfz2010ncwu  -0.74400
gfz2010ngge  -0.72403
gfz2010nkrw   2.51500
gfz2010novb  -0.19145
gfz2010nwyk  -2.35030
gfz2010oguu  -0.52725
gfz2010oibn   1.25950
gfz2010ojhe   1.93420
gfz2010okpc  -5.49500
gfz2010ouvm  -0.02206
gfz2010pclq  -0.80699
gfz2010pcya  -0.23468
gfz2010pgpo  -0.56182
gfz2010prnw  -0.18755
gfz2010pvnn  -0.19759
gfz2010pzza  -0.78698
gfz2010qbcy  -0.05989
gfz2010qdqk   0.65935
gfz2010qloa  -0.06141
gfz2010qqqx   0.12024
gfz2010qrta  -0.64447
gfz2010qykh   0.14995
gfz2010qzvf  -1.75030
gfz2010rdip  -0.46777
gfz2010rkuu  -0.95366
gfz2010rljv  -0.84985
gfz2010rnwt  -0.27596
gfz2010rpbz   4.45440
gfz2010rpjd  -2.17100
gfz2010schp  -0.73813
gfz2010sdfs   0.46731
gfz2010shvn  -0.52377
gfz2010sylk  -0.38887
gfz2010tcgh  -1.21170
gfz2010tfar   0.40038
gfz2010tmba  -1.09660
gfz2010tmne  -0.53894
gfz2010tpcj  -1.00370
gfz2010tqyo  -0.42200
gfz2010tzma  -1.70510
gfz2010ugws  -0.95949
gfz2010uhjy  -1.86980
gfz2010ujqn   0.00882
gfz2010uogw  -2.38640
gfz2010upod  -0.47002
gfz2010vgfu   0.00000
gfz2010vhzx  -0.42239
gfz2010vong  -1.32260
gfz2010vybx  -0.90594
gfz2010wakc  -0.13103
gfz2010wwhf  -0.08380
gfz2010wwnq  -0.81967
gfz2010wyuj  -0.41108
gfz2010xamh  -0.44345
gfz2010xaxw   0.30030
gfz2010xhqq  -1.56710
gfz2010xjsv  -0.71743
gfz2010xnbn  -0.24615
gfz2010xpzq  -0.78926
gfz2010xvev  -0.33449
gfz2010xzah   2.62190
gfz2010xzte   1.16970
gfz2010yczp   0.01179
gfz2010yfdr  -1.08910
gfz2010ygrd   0.16910
gfz2010yhhj  -0.68989
gfz2010yilf  -1.12770
gfz2010ymih  -0.70497
gfz2010yrex  -0.51534
gfz2010yspe  -0.85830
gfz2010ytzb  -1.01420
gfz2010zhvj  -0.81492
gfz2010zjun  -0.70078
gfz2011ahvh  -1.08800
gfz2011ameb  -0.58769
gfz2011amst  -1.05730
gfz2011aqpp  -0.04135
gfz2011awsv   0.42982
gfz2011bffb  -0.11172
gfz2011biin  -0.09579
gfz2011bpqm  -0.03701
gfz2011bqbx  -0.93584
gfz2011bsvr   0.75757
gfz2011bvog   0.13291
gfz2011bwsm  -1.12380
gfz2011bygs  -0.73615
gfz2011bygu  -0.65360
gfz2011bzio  -0.61847
gfz2011caca   0.17064
gfz2011cdge  -0.98241
gfz2011cfyy   0.59719
gfz2011chsa  -0.62221
gfz2011cjuz  -1.76870
gfz2011cwhx   2.06460
gfz2011cwsm   0.28827
gfz2011cwzi  -0.76318
gfz2011cxdj  -0.17101
gfz2011dabj   0.15779
gfz2011dhfg  -0.76163
gfz2011dhqk   1.23560
gfz2011dpyu   0.08327
gfz2011drmu   1.26860
gfz2011duvm   0.09364
gfz2011dwae  -0.24873
gfz2011dzmf   0.10515
gfz2011etkc  -1.15690
gfz2011fges  -0.83398
gfz2011fnie  -1.03760
gfz2011fnuk  -1.36280
gfz2011fnxz  -0.79693
gfz2011fxmf   0.38725
gfz2011fyfu   3.61540
gfz2011fzcw  -2.07850
gfz2011gaax  -0.56894
gfz2011gdrl  -0.54083
gfz2011gfer   0.10509
gfz2011ggnl  -2.34570
gfz2011ggsz   0.89693
gfz2011glpg   0.17504
gfz2011gnbk  -1.22820
gfz2011gpyr  -1.44080
gfz2011haaa  -0.42895
gfz2011hatg  -0.84607
gfz2011hbqc  -2.25960
gfz2011hffq  -0.95498
gfz2011hibi  -1.58790
gfz2011hjof  -1.05330
gfz2011hmnw  -0.49660
gfz2011hqjs  -1.60760
gfz2011hrgt   0.51949
gfz2011ioch   0.50305
gfz2011iryz  -0.60606
gfz2011itcv  -0.75461
gfz2011ituo  -0.20679
gfz2011ixpj   0.76294
gfz2011jdoz  -0.45244
gfz2011jghq  -1.09320
gfz2011jphj  -2.81280
gfz2011jryv  -0.55625
gfz2011jtij   0.69813
gfz2011kfch  -2.03800
gfz2011kjzt  -0.57030
gfz2011kjzv  -0.58761
gfz2011kmge   0.18117
gfz2011kujo  -1.05630
gfz2011kylu  -0.36417
gfz2011kymm  -0.04350
gfz2011kyzy  -0.62891
gfz2011lkkf   0.08716
gfz2011lmug  -0.77877
gfz2011lrpv  -1.20910
gfz2011lwmg  -0.31060
gfz2011lykm   2.50120
gfz2011mdyq  -0.67301
gfz2011melb  -2.51530
gfz2011mjje  -0.18910
gfz2011mror   0.19649
gfz2011mrpy   0.79157
gfz2011mzvn  -0.80849
gfz2011nblt  -1.56680
gfz2011ncyw   1.62990
gfz2011ndhh  -0.22145
gfz2011ndki   2.22600
gfz2011ndlh  -0.50107
gfz2011neai  -0.51562
gfz2011nejg   0.50822
gfz2011nejw   0.90704
gfz2011nerb   0.65602
gfz2011nfcz  -0.89110
gfz2011nftw  -0.03471
gfz2011nhby  -0.76964
gfz2011nhvt   0.00000
gfz2011nifi  -0.44197
gfz2011nihq   0.60447
gfz2011nijp   0.80099
gfz2011nilw   0.69880
gfz2011nimp   1.01490
gfz2011nioi  -0.43344
gfz2011nisj  -0.72817
gfz2011niuw   1.31200
gfz2011nivw  -0.36111
gfz2011nlmf   1.01830
gfz2011nlnl  -0.11048
gfz2011nlou   0.62066
gfz2011nlum  -1.30050
gfz2011nnos  -1.66740
gfz2011nsej   0.09837
gfz2011nsiy  -1.26390
gfz2011nsrx  -0.24996
gfz2011nsyi   0.62980
gfz2011nuqo  -1.16690
gfz2011oadm  -0.44318
gfz2011oazk  -0.18859
gfz2011ocif   0.48469
gfz2011ofpj  -0.76374
gfz2011ohgj  -0.09754
gfz2011okza  -0.62442
gfz2011omxt  -0.31272
gfz2011oqjl  -2.25520
gfz2011oslk   0.18286
gfz2011osmp  -0.39886
gfz2011osuy   0.02197
gfz2011owqa   1.14690
gfz2011paqj   0.59471
gfz2011pbjh   1.17040
gfz2011pdgq   4.19880
gfz2011pdsn   0.56435
gfz2011pfls  -0.41512
gfz2011pfwq  -0.25713
gfz2011pivq  -0.12449
gfz2011plzc  -0.68542
gfz2011pmuv  -0.54459
gfz2011poug  -0.73658
gfz2011ppsc  -0.58385
gfz2011prrq   0.07325
gfz2011ptgd   3.14390
gfz2011pulu  -1.45330
gfz2011pwbw  -0.46580
gfz2011pwld   0.03959
gfz2011qenl  -1.11470
gfz2011qgea  -0.36264
gfz2011qgvx   1.61370
gfz2011qklh   0.86734
gfz2011qlkj  -0.56902
gfz2011qtoy   2.35750
gfz2011qukj  -0.81083
gfz2011rbuo  -0.78686
gfz2011rczb  -0.76267
gfz2011rkau  -0.63314
gfz2011rkzx  -0.50740
gfz2011rnny   0.04408
gfz2011rnsp  -0.69932
gfz2011rpoo   1.03450
gfz2011scma  -0.41403
gfz2011sdax  -0.42441
gfz2011sfph   0.20620
gfz2011sqco  -1.91720
gfz2011sskq   2.32820
gfz2011stzi  -0.65685
gfz2011sxno  -0.95229
gfz2011sylg  -1.23960
gfz2011syvj  -0.62562
gfz2011syzr  -0.55111
gfz2011taqr   0.12288
gfz2011tarj  -3.17150
gfz2011tgon  -0.90684
gfz2011tjpv  -1.05430
gfz2011tlwl  -0.07556
gfz2011tozo   0.90985
gfz2011tqgg  -0.07268
gfz2011tsgl  -1.01240
gfz2011tssv  -0.81369
gfz2011twpz   0.32438
gfz2011txdb   0.25410
gfz2011txxs   1.08740
gfz2011tzcv   0.85529
gfz2011uqlz  -1.99420
gfz2011uqry  -0.16572
gfz2011urwz  -1.27920
gfz2011uvsi  -1.17900
gfz2011vahy  -0.75103
gfz2011varl  -0.14666
gfz2011vbxv  -1.15450
gfz2011vcyx  -0.90576
gfz2011vimn  -0.80446
gfz2011vsag   0.33193
gfz2011vtdl   0.39145
gfz2011vxek  -0.28309
gfz2011wbtc  -0.24633
gfz2011wcvs  -2.96200
gfz2011wfsk   0.43771
gfz2011wgoa   0.49011
gfz2011wkja  -0.38520
gfz2011wngi  -1.12100
gfz2011wnjg   4.52370
gfz2011wpzt  -0.93679
gfz2011wqup  -1.33080
gfz2011wtfn  -0.08214
gfz2011wucg  -0.27861
gfz2011wwze  -1.22900
gfz2011wyei  -1.19420
gfz2011wzss  -0.55452
gfz2011xagc  -0.00000
gfz2011xgwy  -0.64812
gfz2011xkka  -0.67140
gfz2011xlod  -0.60195
gfz2011xnui  -1.26350
gfz2011xpcq  -0.98578
gfz2011xxng  -0.45676
gfz2011yeck  -0.18239
gfz2011yexx  -0.16561
gfz2011yjtx  -0.42922
gfz2011yntu   0.23186
gfz2011yrfa  -0.85916
gfz2011ytob  -0.62807
gfz2011ywtj  -3.36200
gfz2011zghc  -0.98761
gfz2011zkbt  -0.82577
gfz2012adja   0.14409
gfz2012ahac  -0.45995
gfz2012alti  -0.73848
gfz2012amjx   0.52812
gfz2012amvs  -0.65351
gfz2012aqpa   0.45978
gfz2012bity  -1.25570
gfz2012bjhl  -0.46684
gfz2012bolx   0.35658
gfz2012bovy  -0.40311
gfz2012bqcf   0.37088
gfz2012byrq  -0.17293
gfz2012bysu   0.32072
gfz2012bytv   1.34930
gfz2012byuk   0.36123
gfz2012cdju  -0.19213
gfz2012cfdw  -0.69514
gfz2012cmww  -0.29357
gfz2012cntu  -0.63244
gfz2012crpb  -1.00750
gfz2012cvfr  -0.67463
gfz2012cwhl  -1.04410
gfz2012cxhw  -1.20450
gfz2012dcjd  -0.50075
gfz2012dgfk   0.05421
gfz2012dkdy   0.35189
gfz2012dleg   0.00000
gfz2012dnig  -0.43866
gfz2012dpnu  -0.84880
gfz2012drak   0.70233
gfz2012drqd   1.83540
gfz2012dtlu  -0.12668
gfz2012dttl  -0.72840
gfz2012duwm   0.67576
gfz2012dwwu  -0.67709
gfz2012dyfw   1.06980
gfz2012dysj  -0.61396
gfz2012dysu   0.80791
gfz2012dyua  -0.86476
gfz2012dzat  -1.14590
gfz2012dzen  -0.46879
gfz2012dzjo   0.32516
gfz2012dzoh   0.02233
gfz2012dzot  -0.57315
gfz2012dzul   0.16473
gfz2012dzva  -0.00000
gfz2012eajr  -1.67820
gfz2012eary  -0.61521
gfz2012ebgo  -0.04055
gfz2012ebhf  -0.79378
gfz2012ebrr  -0.67269
gfz2012ekfp  -0.88051
gfz2012elek  -1.06750
gfz2012erds  -0.33992
gfz2012evxn  -0.42811
gfz2012eyti   0.70673
gfz2012fcyq  -0.71228
gfz2012fcyr  -0.72335
gfz2012foih  -3.57830
gfz2012fpyo  -0.56230
gfz2012ftks  -0.48498
gfz2012fyny  -0.83835
gfz2012fyop  -0.29576
gfz2012gdye  -0.80280
gfz2012ghiv  -0.54648
gfz2012gjdg  -0.61988
gfz2012gnow  -1.23830
gfz2012gpcd  -0.43764
gfz2012gvxc  -0.63233
gfz2012gzuk  -0.10476
gfz2012hlya  -0.26560
gfz2012hmcv  -0.08426
gfz2012hvtu   1.19640
gfz2012hwph   0.40657
gfz2012hyqh  -1.25130
gfz2012hysb   1.47620
gfz2012hzhn   0.07547
gfz2012hzur   0.50568
gfz2012iabn   0.52478
gfz2012iblo  -0.78610
gfz2012ibyd  -0.02219
gfz2012icjo  -0.22790
gfz2012iedy  -2.17740
gfz2012iijk  -1.14520
gfz2012iroy  -0.64444
gfz2012ivyg  -1.10350
gfz2012iyhs   0.13546
gfz2012iyoi  -0.98330
gfz2012izke   3.02560
gfz2012jaun  -2.24810
gfz2012jodg  -0.55022
gfz2012jqxx   0.43689
gfz2012kbub   2.52270
gfz2012klpl  -0.27353
gfz2012kmbo  -0.27683
gfz2012kmmz  -0.92968
gfz2012kqjb  -0.06998
gfz2012kstg  -0.48092
gfz2012kwmx  -0.72135
gfz2012kyhj  -2.78980
gfz2012ldjj  -0.73580
gfz2012lngq  -0.59875
gfz2012lqhw  -0.10294
gfz2012lyyr  -0.24907
gfz2012mcrb  -0.97956
gfz2012mdzf  -1.20940
gfz2012mjuu   0.51506
gfz2012mmiw   0.37352
gfz2012mowv  -0.55055
gfz2012mrqk   0.32952
gfz2012mrwu  -0.25757
gfz2012mtyn  -0.32242
gfz2012mwhe  -0.43723
gfz2012ndwt   0.45208
gfz2012nldz   1.28720
gfz2012nlrb   0.73321
gfz2012nmja   0.43691
gfz2012nnqu   1.07550
gfz2012nqvd   2.24040
gfz2012oafg  -0.91357
gfz2012oehy  -0.20996
gfz2012ofaj  -0.47712
gfz2012ofnx   0.25627
gfz2012onhu   2.19030
gfz2012oork  -1.10310
gfz2012oyja  -0.44135
gfz2012pdav  -0.98524
gfz2012pdfi   3.66810
gfz2012pekf   0.03543
gfz2012phns  -0.63579
gfz2012pira   0.36627
gfz2012pmuj  -0.73130
gfz2012pokk  -0.33661
gfz2012qbbt  -0.08029
gfz2012qfah  -0.03879
gfz2012qfov  -1.83530
gfz2012qllj  -1.35110
gfz2012rfhw  -1.85210
gfz2012roan   0.15977
gfz2012rzwp   1.39480
gfz2012sgfd  -1.16150
gfz2012sjdy   0.07647
gfz2012smyn  -0.56991
gfz2012socz  -0.76451
gfz2012sopp  -0.39914
gfz2012sqsc  -1.20380
gfz2012ssnb  -2.45700
gfz2012ssvn  -0.22724
gfz2012suqd  -1.11300
gfz2012svwz  -0.65824
gfz2012swbz  -0.48106
gfz2012sxbo  -2.55920
gfz2012sxzs  -0.80298
gfz2012syum   0.54926
gfz2012tgta  -0.60758
gfz2012thyh  -0.60449
gfz2012tisj  -0.64952
gfz2012tqjc   0.43523
gfz2012ttnf  -0.56010
gfz2012twec  -0.52497
gfz2012tyoz  -0.37478
gfz2012uegq  -0.58560
gfz2012uhtc  -0.59939
gfz2012ulei  -1.09700
gfz2012umob  -0.54390
gfz2012unxc  -0.27703
gfz2012urtu  -0.38963
gfz2012uvea  -0.41399
gfz2012uvoa  -0.66990
gfz2012uzww  -0.74821
gfz2012vaqd   3.71980
gfz2012vcqw  -0.54068
gfz2012vgot  -0.09113
gfz2012vioy  -0.21058
gfz2012vitw  -0.59353
gfz2012vlzv  -0.54627
gfz2012vnve   1.45440
gfz2012vqmq   0.58728
gfz2012vrqz   1.51150
gfz2012vurc  -0.31881
gfz2012wgdv  -0.22638
gfz2012wgmg  -0.54253
gfz2012wgxf   0.02182
gfz2012wkki  -0.50172
gfz2012wmas   0.13231
gfz2012wowu  -2.33870
gfz2012woxj  -0.17833
gfz2012wpen  -0.29214
gfz2012wqfz  -2.52910
gfz2012wysg  -0.60478
gfz2012xask   0.26909
gfz2012xbna  -0.35506
gfz2012xcsf   0.37901
gfz2012xfnu  -0.80964
gfz2012xfsl  -0.62770
gfz2012xkln  -0.49663
gfz2012xlas   0.43624
gfz2012xncm  -0.65710
gfz2012xrmq  -0.23788
gfz2012xtvu  -0.28449
gfz2012xwgb  -0.44986
gfz2012xxdj  -0.49655
gfz2012yegw   0.45692
gfz2012yihn  -1.47920
gfz2012yncm  -1.43570
gfz2012zhyz  -0.77379
gfz2012zido  -0.36619
gfz2012zkhu  -1.01770
gfz2012zktj   4.55930
gfz2012zmdf   1.41990
gfz2012znou   1.03380
gfz2013aclz   2.74810
gfz2013agbm   0.27632
gfz2013aggr   0.93082
gfz2013akkd  -1.07080
gfz2013atak  -0.13982
gfz2013aymi  -0.75598
gfz2013bwgw  -0.38210
gfz2013byyy  -0.53185
gfz2013ccng   0.28159
gfz2013cfls  -1.25370
gfz2013cinv  -0.22763
gfz2013cvve  -1.33750
gfz2013cyvx  -1.03240
gfz2013delq  -1.25920
gfz2013dftb  -0.85781
gfz2013dfvx  -0.90700
gfz2013djfi  -0.80195
gfz2013dksc   0.32347
gfz2013dngd   4.01890
gfz2013dnot  -0.49246
gfz2013dwsp   0.26861
gfz2013dzvr  -0.74669
gfz2013eavq  -0.69449
gfz2013eazm  -0.45143
gfz2013efct  -0.30722
gfz2013efys   0.25666
gfz2013eidd   0.55497
gfz2013ektd   0.09098
gfz2013enga  -0.19665
gfz2013enqo   2.00640
gfz2013ewht  -1.06930
gfz2013ezmc   0.34217
gfz2013ffjt   0.54035
gfz2013fmcd  -0.14530
gfz2013fndg  -0.69771
gfz2013fnpa  -0.52321
gfz2013foto   0.36801
gfz2013frxd  -0.17489
gfz2013fulo  -0.30596
gfz2013fvht  -0.02158
gfz2013fvyr  -0.74786
gfz2013fybd  -0.00000
gfz2013gaqx  -0.88083
gfz2013gbma   0.19689
gfz2013ghpd   0.08211
gfz2013gkyn   0.18479
gfz2013gomv  -0.29322
gfz2013gugi  -0.66131
gfz2013gurk  -0.19182
gfz2013gxye  -0.45512
gfz2013hbmi  -0.66499
gfz2013hbtm  -0.31443
gfz2013hbwy   0.52748
gfz2013hduf  -0.51882
gfz2013hiam  -0.62725
gfz2013hqaa  -0.81545
gfz2013hvzv  -0.85758
gfz2013hwps  -0.41517
gfz2013icgx  -0.63711
gfz2013icql   0.14699
gfz2013ikic   0.16158
gfz2013iuyv  -0.37340
gfz2013ivvw  -0.13963
gfz2013iwhc   0.21947
gfz2013iwzn   0.52327
gfz2013jfcn  -1.21820
gfz2013jlli  -0.40596
gfz2013jobl  -0.38053
gfz2013jrqf  -0.46904
gfz2013jzcf  -0.70411
gfz2013kats   0.47979
gfz2013kbbg  -1.26940
gfz2013kbkp  -0.08528
gfz2013kcdb  -0.45836
gfz2013kdfy  -0.60819
gfz2013kpcb   0.60702
gfz2013kqab  -0.55787
gfz2013kslp  -0.43361
gfz2013kuno   1.82160
gfz2013kxlr  -0.23761
gfz2013kxof  -0.40193
gfz2013lbod   0.33028
gfz2013lbvl   0.09346
gfz2013lcrk  -0.68939
gfz2013lgvf   0.04993
gfz2013ljdu  -0.47753
gfz2013lxed  -1.15030
gfz2013mktp   3.41700
gfz2013muqm  -0.45689
gfz2013mvgq   0.52598
gfz2013mynb  -0.46031
gfz2013mzaw  -0.70749
gfz2013nkgd   1.28580
gfz2013nkgt   0.91842
gfz2013nnai  -0.25852
gfz2013ntiu  -2.22880
gfz2013oeni  -0.21369
gfz2013ohdt  -1.06500
gfz2013oizq  -0.45990
gfz2013okxa   0.07006
gfz2013olos   1.05080
gfz2013onvl  -0.28559
gfz2013orot  -0.41341
gfz2013oruq  -0.94439
gfz2013osmj   1.08360
gfz2013otuj  -0.52121
gfz2013oywh  -1.24250
gfz2013phhi  -1.38420
gfz2013pizm  -0.44950
gfz2013pkmz  -0.32262
gfz2013qapj   0.39786
gfz2013qdks  -0.07509
gfz2013qear  -1.18900
gfz2013qigb  -0.67458
gfz2013qmkt  -2.23040
gfz2013qoak  -0.88465
gfz2013qqyo  -0.58919
gfz2013quwz  -0.46620
gfz2013quyn  -0.16856
gfz2013qwnm  -0.20699
gfz2013qxof  -0.67966
gfz2013rdmn  -0.94773
gfz2013rfik   0.42843
gfz2013rnsa  -0.69991
gfz2013rocs  -0.62702
gfz2013rtvy  -0.19214
gfz2013rwkj  -0.23693
gfz2013ryph   0.06193
gfz2013sbsp  -1.12210
gfz2013sdym  -0.63635
gfz2013skay  -0.58881
gfz2013skvq  -0.69365
gfz2013stup  -0.64939
gfz2013swnj  -0.96869
gfz2013taeb  -1.23130
gfz2013tcju   1.37030
gfz2013tdsx  -0.64818
gfz2013tekq  -0.42132
gfz2013tgia   0.01992
gfz2013tjub   0.52636
gfz2013tkcg   0.71503
gfz2013tnff  -0.90143
gfz2013tnrp  -0.43422
gfz2013trsq  -0.15973
gfz2013twbc  -0.07181
gfz2013ubgt   2.40940
gfz2013udtw  -0.36488
gfz2013uenl  -0.33158
gfz2013uepl  -0.64068
gfz2013unuv  -0.17212
gfz2013utqa  -0.25822
gfz2013uugc   0.14804
gfz2013uwjo  -1.14990
gfz2013uxzw   0.39228
gfz2013uzmf  -0.71032
gfz2013vdam  -0.41215
gfz2013veoz   0.54909
gfz2013veug  -0.99724
gfz2013vgfb  -0.52894
gfz2013vjrr  -0.44840
gfz2013vldx  -0.40502
gfz2013vmrv  -1.61280
gfz2013vmsg  -0.31823
gfz2013vnwa  -0.65044
gfz2013vojy   0.06766
gfz2013vvre  -0.28477
gfz2013vwkh  -0.44939
gfz2013vzel   0.02147
gfz2013wegs  -1.05210
gfz2013wigs  -0.27565
gfz2013wwee  -0.84238
gfz2013wyfl  -1.49910
gfz2013xacx  -0.17345
gfz2013xahp  -0.61588
gfz2013xjmo   1.18500
gfz2013xjmy  -0.60729
gfz2013xlic   0.86742
gfz2013xmzw  -1.41610
gfz2013xodn  -1.02010
gfz2013xswc  -0.19004
gfz2013xvps  -0.27554
gfz2013xzxe   1.29310
gfz2013ygsj  -0.63821
gfz2013ylxm  -1.06570
gfz2013yodm  -0.63843
gfz2013yqtu  -1.13590
gfz2013ytfm   0.58943
gfz2013yxhf  -0.42656
gfz2013zbfb  -0.17703
gfz2013zfbz  -0.84977
gfz2013zghn  -0.58310
gfz2013ziix  -1.35480
gfz2013zkta  -0.84164
gfz2013zlak  -0.71629
gfz2013zpwk  -0.58382
gfz2014aapq  -1.19500
gfz2014aedl  -0.33924
gfz2014aejh   0.46916
gfz2014ajgi   2.46310
gfz2014amgk  -0.36238
gfz2014aqax   2.41180
gfz2014aqop  -1.20870
gfz2014avag  -0.39814
gfz2014befl  -1.53260
gfz2014bfjb  -1.06870
gfz2014bkra  -2.53380
gfz2014bmqw  -1.98390
gfz2014bppg  -0.31601
gfz2014bqpm  -0.10772
gfz2014byes  -0.41347
gfz2014bzus  -0.24847
gfz2014cgxj   0.50734
gfz2014cjao  -1.03870
gfz2014cokw  -0.17996
gfz2014crac  -0.50203
gfz2014ctdl  -0.96783
gfz2014cwti   0.19030
gfz2014dbqi  -1.68940
gfz2014dece   1.33150
gfz2014dggw  -0.49456
gfz2014dihl  -0.80685
gfz2014djyj  -1.08540
gfz2014dmrw  -0.71714
gfz2014dtth  -0.85104
gfz2014dykt  -1.46100
gfz2014edmd   0.50928
gfz2014eflc   1.69780
gfz2014egvg  -1.12480
gfz2014eiav   0.26856
gfz2014eirs  -0.78787
gfz2014emlw  -0.84692
gfz2014eoay  -0.73986
gfz2014epfm  -1.31640
gfz2014epnq   0.77184
gfz2014esez  -0.24483
gfz2014etqu   0.16038
gfz2014eunw  -0.10740
gfz2014evgu  -1.05120
gfz2014evhm  -1.14310
gfz2014exxj  -0.09176
gfz2014eyne  -0.00000
gfz2014ezjq  -2.01120
gfz2014ezld  -1.05040
gfz2014faex  -0.66079
gfz2014fbli  -0.91661
gfz2014fjfz  -1.27240
gfz2014flxk   1.41320
gfz2014fsir  -0.28301
gfz2014fsje  -0.22859
gfz2014fvza  -0.64520
gfz2014fwuf  -1.09100
gfz2014fwxt  -1.84590
gfz2014fxte  -0.00970
gfz2014fxtv  -0.25912
gfz2014fxuy  -0.22932
gfz2014gasb   0.05940
gfz2014gbxg  -0.29509
gfz2014gcgf  -0.39350
gfz2014ggie  -0.19687
gfz2014gnbw  -0.78219
gfz2014gnvp  -0.16762
gfz2014gpnr   0.66676
gfz2014grwv  -0.84247
gfz2014gsfc  -0.72825
gfz2014gypw  -0.19901
gfz2014hapg  -1.57150
gfz2014hjmc  -1.03290
gfz2014hkcw  -1.21300
gfz2014hotu  -0.69683
gfz2014hqhv  -0.75420
gfz2014huqh  -0.46117
gfz2014hyea  -0.32374
gfz2014hzzf   0.42853
gfz2014icov  -1.12060
gfz2014igrp  -1.16520
gfz2014ijsa  -0.28657
gfz2014iltl   0.27708
gfz2014imqh  -0.64321
gfz2014inrg  -1.24010
gfz2014ipfu  -0.86599
gfz2014irlf   0.03773
gfz2014irln  -0.39339
gfz2014irly   0.16266
gfz2014isjg  -1.07430
gfz2014isov  -1.21880
gfz2014itlx  -0.35946
gfz2014iusw  -0.51222
gfz2014ivgm  -1.24050
gfz2014ixlc  -0.86822
gfz2014iyuc  -0.36807
gfz2014jarg  -0.36063
gfz2014jaxy  -0.32764
gfz2014jayh  -0.62296
gfz2014jbfp  -1.00950
gfz2014jfmc  -1.88310
