# Nsamples: 49  MAD:  0.508  mean: -0.204  std:  0.738
gfz2013aymi  -1.16900
gfz2013dngd  -0.45525
gfz2013eazm  -0.69349
gfz2013gqtl  -0.09513
gfz2013hjtt  -0.51320
gfz2013iuyv   1.25060
gfz2013jcnn   0.16316
gfz2013jfcn  -0.09864
gfz2013kats   0.32519
gfz2013kcdb   0.14152
gfz2013kqab   0.27253
gfz2013lbvl   2.26000
gfz2013mvgq  -0.94314
gfz2013mzaw  -0.62165
gfz2013njwj  -0.08630
gfz2013ohnj   0.36151
gfz2013oizq   1.32890
gfz2013ojza   0.21780
gfz2013okac  -0.61740
gfz2013onvl  -0.12701
gfz2013oywh  -0.62431
gfz2013phhi  -0.51012
gfz2013pkmz  -0.55320
gfz2013qoak   0.38307
gfz2013qxof  -0.28223
gfz2013rocs  -0.41458
gfz2013ryph  -0.02059
gfz2013ubgt   0.04134
gfz2013udtw  -0.43040
gfz2013ujze  -0.17529
gfz2013unuv  -0.05972
gfz2013upqj  -0.53191
gfz2013uwjo  -0.06192
gfz2013uxzw   0.28571
gfz2013uzmf  -0.45851
gfz2013veug  -0.63569
gfz2013vmrv  -1.41340
gfz2013wyfl  -0.24888
gfz2013xmzw   0.22114
gfz2013xuxr  -0.59117
gfz2013yawe   0.16702
gfz2014bqpm  -0.14949
gfz2014fbli  -0.51818
gfz2014fsir  -0.49881
gfz2014gnbw  -0.20111
gfz2014icov  -0.41181
gfz2014imqh   0.22353
gfz2014iusw  -3.05220
gfz2014jarg  -0.36569
