# Nsamples: 184  MAD:  0.667  mean: -1.456  std:  0.822
gfz2012xxdj  -2.59970
gfz2012yegw  -1.17390
gfz2012ylai  -1.79090
gfz2012yncm   0.97939
gfz2012yytb  -0.31877
gfz2012yzih  -1.20040
gfz2012zhyz  -2.00200
gfz2012zkhu  -2.03310
gfz2013adih  -1.17340
gfz2013agbm  -1.29390
gfz2013agmt  -2.27690
gfz2013atak  -1.82070
gfz2013bwgw  -1.77560
gfz2013cinv  -2.70190
gfz2013cokc  -0.96924
gfz2013cvve  -2.31630
gfz2013ddrx  -1.52730
gfz2013dftb  -2.09000
gfz2013dfvx  -1.67960
gfz2013djfi  -2.41370
gfz2013dksc  -2.34220
gfz2013dngd  -1.83880
gfz2013dwsp   1.02250
gfz2013eavq  -0.94179
gfz2013efct  -2.04500
gfz2013esef  -1.27630
gfz2013evcl  -0.62234
gfz2013ezmc  -1.88300
gfz2013fhzy  -1.69160
gfz2013fmcp  -1.25760
gfz2013fnpa  -2.30350
gfz2013fskp  -0.85373
gfz2013fthi  -0.63139
gfz2013fvyr  -2.88010
gfz2013fwbm  -2.43160
gfz2013fxyr  -1.47100
gfz2013gjmk  -0.31220
gfz2013gqtl  -0.92291
gfz2013gsnl  -1.98530
gfz2013gxye  -0.84690
gfz2013gyce  -0.39649
gfz2013havw  -1.72060
gfz2013hbmi  -1.53440
gfz2013hdbp  -0.21039
gfz2013hduf  -2.44740
gfz2013hjtt  -2.34730
gfz2013hqaa  -2.29330
gfz2013hvzv  -1.84370
gfz2013ikic  -1.52420
gfz2013irme  -2.23130
gfz2013iuyv  -0.75391
gfz2013iwzn  -2.54100
gfz2013iybv  -0.95579
gfz2013jcnn  -1.83450
gfz2013jhog  -2.15630
gfz2013jjae  -1.23830
gfz2013jkqn  -2.10120
gfz2013jpir  -0.19475
gfz2013jqsk  -1.24850
gfz2013kbbg  -1.20460
gfz2013kbbn  -1.87540
gfz2013kdfy  -0.79022
gfz2013kjgh  -1.41220
gfz2013kqab  -1.30110
gfz2013lcrk  -0.98077
gfz2013ljdu  -1.60750
gfz2013lnne   0.90591
gfz2013lqjj  -1.57150
gfz2013lrkp  -0.90118
gfz2013lwtr  -0.44603
gfz2013lxnd  -0.34627
gfz2013mbna   0.57980
gfz2013mdnp  -0.15021
gfz2013mimp  -2.29260
gfz2013mvgq  -1.96720
gfz2013mzaw  -2.03530
gfz2013ntiu  -2.24970
gfz2013ohnj  -1.90330
gfz2013okac  -1.07840
gfz2013onvl  -1.96000
gfz2013ortl  -1.50990
gfz2013oruq  -1.62240
gfz2013otuj  -1.27560
gfz2013oywh  -1.42800
gfz2013pizm  -1.02230
gfz2013pkmz  -1.92190
gfz2013qdno  -1.85370
gfz2013qdpv  -1.59600
gfz2013qnqr  -1.02890
gfz2013qxof  -2.43300
gfz2013rocs  -1.90890
gfz2013ryph  -1.23360
gfz2013taeb  -2.30420
gfz2013tgyb  -1.28260
gfz2013tmnf  -1.55150
gfz2013ubgt  -2.14820
gfz2013udtw  -1.75570
gfz2013upqj  -0.50421
gfz2013uxzw  -0.28269
gfz2013uzmf  -1.72010
gfz2013veug  -2.19740
gfz2013vjrr  -2.34690
gfz2013vmsg  -2.94800
gfz2013vmsn  -1.09160
gfz2013vnwa  -1.45570
gfz2013voai  -1.64630
gfz2013vojy  -1.96680
gfz2013vsdd  -0.96318
gfz2013vxht  -1.04860
gfz2013wgwz  -1.93530
gfz2013xahp  -2.13320
gfz2013xmzw  -2.26520
gfz2013xofz  -2.46820
gfz2013xuxr  -1.72710
gfz2013xvps  -1.95460
gfz2013xzxe  -1.37120
gfz2013yawe  -0.84806
gfz2013yihv  -1.76280
gfz2013yktj  -1.72880
gfz2013yodm  -2.17020
gfz2013yvpn  -1.30770
gfz2013zedt  -0.79770
gfz2013zfbz  -4.11390
gfz2013zpse  -0.55006
gfz2014aedl  -1.03390
gfz2014ajgi  -1.69860
gfz2014alzg  -2.16480
gfz2014aqax  -2.14360
gfz2014aqop  -1.83090
gfz2014ateb  -1.37290
gfz2014ayxf  -1.50020
gfz2014bdju  -1.46380
gfz2014bkra  -1.37310
gfz2014bmqw   1.71950
gfz2014bnea  -1.78050
gfz2014bqpm  -1.80470
gfz2014bumr  -0.36774
gfz2014club  -1.88240
gfz2014cncl  -0.72278
gfz2014cokw   0.04291
gfz2014cvnb  -1.66750
gfz2014dbmu  -1.26860
gfz2014dggw  -1.21910
gfz2014dihl  -0.45084
gfz2014diuu  -1.56250
gfz2014dmrw  -1.73710
gfz2014dpps  -2.38970
gfz2014dtth  -1.13340
gfz2014dtto  -0.77421
gfz2014dykt  -1.14060
gfz2014ecor  -2.60280
gfz2014eglj  -2.45860
gfz2014egvg  -1.21840
gfz2014eirs  -1.76800
gfz2014eoay  -2.13460
gfz2014etgp  -0.82244
gfz2014etqu  -1.83190
gfz2014exxj  -1.34890
gfz2014eysf  -0.47700
gfz2014fbli  -1.69580
gfz2014ffqg  -1.97910
gfz2014fjfz  -0.82033
gfz2014flxk  -0.78825
gfz2014fmdc  -1.15990
gfz2014fsje  -2.26920
gfz2014fskh  -1.75110
gfz2014gbxg  -0.99701
gfz2014gnbw  -1.87440
gfz2014gnvp  -2.00770
gfz2014gsfc  -1.79390
gfz2014gssz  -1.70550
gfz2014gypw  -1.92200
gfz2014hapg  -1.24340
gfz2014happ  -2.01290
gfz2014hkcw  -1.34590
gfz2014huqh   0.00015
gfz2014iaqm  -0.99656
gfz2014inrg  -1.26660
gfz2014ipfu  -1.62710
gfz2014irly   2.20310
gfz2014iusw  -1.75530
gfz2014jayh  -2.27700
gfz2014jbfp  -1.35620
gfz2014jffe  -1.09260
