# Nsamples: 23  MAD:  0.684  mean:  1.010  std:  0.915
gfz2010rhvu   1.26580
gfz2010sdfs   1.91700
gfz2010tpcj   1.22150
gfz2010tzma  -0.21177
gfz2010ugws   2.85510
gfz2010xpzq   0.63746
gfz2011cdge  -0.12343
gfz2011mllb   1.00420
gfz2011nlum   0.50764
gfz2011rkau   1.18940
gfz2011scma   0.76790
gfz2011sqco   0.03934
gfz2011tsgl   0.45231
gfz2011wzss   0.71208
gfz2012dleg   1.16770
gfz2012gmsr   2.65920
gfz2013dngd   0.30667
gfz2013kbbg  -0.04276
gfz2013kcdb   0.50860
gfz2013mvgq   0.39202
gfz2013oywh   3.00270
gfz2013taeb   1.65510
gfz2013vnwa   1.33910
