# Nsamples: 11  MAD:  0.680  mean:  0.234  std:  1.126
gfz2010colm  -2.11650
gfz2010dmij  -0.83767
gfz2011melb   0.72733
gfz2011ndki   0.85472
gfz2011nejg   1.14960
gfz2011nhvt   1.18580
gfz2011nsiy   0.76926
gfz2011nsyi  -0.37538
gfz2011oekz  -0.81494
gfz2011pfwq   0.44408
gfz2011twpz   1.58650
