# Nsamples: 12  MAD:  0.552  mean:  1.410  std:  0.898
gfz2011ymji   1.12720
gfz2012hzur   1.27370
gfz2012imuo   1.74700
gfz2012ulei   1.00020
gfz2012wowu   1.70350
gfz2013njwj   1.30490
gfz2013tert   1.03490
gfz2013veug   2.99090
gfz2013vmsg   1.62000
gfz2013xahp   2.91490
gfz2014dihl   0.17514
gfz2014ijsa   0.02176
