# Nsamples: 11  MAD:  1.156  mean:  0.529  std:  1.025
gfz2011nejg   0.83794
gfz2011nejw   1.61740
gfz2011nhvt  -0.33459
gfz2011nsiy   0.57843
gfz2011tsgl   1.47110
gfz2012bnwa  -1.02290
gfz2012byrq  -0.00000
gfz2012hzur   0.95901
gfz2012suqd   1.84130
gfz2013kcdb   1.01180
gfz2013ntiu  -1.13510
