# Nsamples: 876  MAD:  1.718  mean:  0.781  std:  1.919
gfz2010gcqp  -1.06320
gfz2010rhvu   2.17450
gfz2010rkuu   0.95856
gfz2010rljv   2.15130
gfz2010rmua   6.22470
gfz2010tgmo   1.86300
gfz2010tmba   0.43968
gfz2010tzki   2.44240
gfz2010tzlz   1.98060
gfz2010tzma   3.38000
gfz2010uogw   1.51170
gfz2010upod   3.30580
gfz2010uqba   1.91160
gfz2010uraq   1.67080
gfz2010ussf   0.63601
gfz2010uvpz  -0.75736
gfz2010uyng   0.95366
gfz2010vdcf   4.81310
gfz2010vhzx   2.16430
gfz2010vong   3.57100
gfz2010vybx  -0.84129
gfz2010wplk   1.14840
gfz2010wyuj   3.55740
gfz2010xamh   1.46770
gfz2010xhqq   0.09627
gfz2010xkbz   4.83390
gfz2010xytc   3.99630
gfz2010yczp   0.44903
gfz2010yfdr  -0.54098
gfz2010ygrd  -0.59686
gfz2010yhdn   3.08980
gfz2010yhhj   5.99480
gfz2010ymih  -0.33723
gfz2010yrex   0.80405
gfz2010yspe   0.33404
gfz2010ytzb  -0.15225
gfz2011kfch  -2.94570
gfz2011kgvq  -1.36440
gfz2011knht   0.22872
gfz2011ksxc  -1.58970
gfz2011kyzy   1.02590
gfz2011lbnn  -2.44710
gfz2011lkkf   0.03341
gfz2011lmug  -2.32740
gfz2011lwmg   3.15480
gfz2011lykm   1.25640
gfz2011lywj   1.76300
gfz2011mjje   1.46190
gfz2011mllb   1.10500
gfz2011mntq   0.70799
gfz2011mrfm   1.24990
gfz2011mryu   4.36740
gfz2011mzvn   0.94281
gfz2011nblt   1.09000
gfz2011ndhh   4.25850
gfz2011ndlh   1.34470
gfz2011ndoe   2.02120
gfz2011ndse   2.22590
gfz2011ndtp   1.25630
gfz2011ndvj   1.38990
gfz2011neai   1.27580
gfz2011nejg   3.78530
gfz2011nfcz  -2.15670
gfz2011nfgt   3.31520
gfz2011nfih  -0.80030
gfz2011nfln   3.93430
gfz2011nftw   3.21780
gfz2011nfww   1.14640
gfz2011nhby  -0.42414
gfz2011nhhd  -1.99930
gfz2011nhjv   0.68113
gfz2011nhvt  -0.29709
gfz2011nhwf  -2.34830
gfz2011nifi   0.50173
gfz2011nihq   3.60800
gfz2011nijp   3.91320
gfz2011nimp   0.59658
gfz2011nioi   0.33850
gfz2011nisj   4.17200
gfz2011niuw   1.86060
gfz2011nivw   0.72192
gfz2011nkda   1.36220
gfz2011nkou   0.66631
gfz2011nlmf   3.72930
gfz2011nlnl   4.56660
gfz2011nlou   2.05700
gfz2011nlum   1.73550
gfz2011nmdz   0.27304
gfz2011nnda  -2.19020
gfz2011nnos   0.09137
gfz2011npaf   4.22930
gfz2011npeu   1.85540
gfz2011nsej  -0.05969
gfz2011nsiy   1.40520
gfz2011nsrx   1.34420
gfz2011nssr  -0.92482
gfz2011nsyi  -0.01972
gfz2011ntyd   3.29430
gfz2011nuqo   2.70720
gfz2011nyzk   0.90112
gfz2011oadm   2.08360
gfz2011oazk   0.08948
gfz2011ocif   1.64460
gfz2011oekz   2.06360
gfz2011oesd   4.08960
gfz2011ofpj  -2.37400
gfz2011ohgj   3.91470
gfz2011okza   0.64807
gfz2011omxt   0.71162
gfz2011oqjl  -0.02119
gfz2011oslk   0.65617
gfz2011osmp   0.52057
gfz2011osuy   3.40860
gfz2011ovvj   2.10730
gfz2011owqa  -5.17540
gfz2011paqj   1.63510
gfz2011pbgh   0.38082
gfz2011pdsn   1.01580
gfz2011pfls   2.74060
gfz2011pfwq   3.70880
gfz2011pgzk   0.50356
gfz2011pivq  -0.20192
gfz2011pmuv  -1.64940
gfz2011poug   2.78870
gfz2011pphc  -1.03340
gfz2011ppsc   1.57670
gfz2011prrq   3.25350
gfz2011ptgd   3.01180
gfz2011pulu   4.71100
gfz2011pwbw   3.11880
gfz2011pwld   2.84910
gfz2011qasw  -2.32560
gfz2011qenl  -2.84080
gfz2011qgea   3.39930
gfz2011qgvh  -1.47060
gfz2011qgvx   0.69159
gfz2011qhjw   1.99390
gfz2011qklh   4.48630
gfz2011qowe   0.90789
gfz2011qukj   0.86003
gfz2011rbuo  -0.12993
gfz2011rczb  -2.92730
gfz2011rnsp  -0.34937
gfz2011rpoo   0.33643
gfz2011rqut   0.54024
gfz2011scma   0.30882
gfz2011sdax  -1.46370
gfz2011sdpl  -1.02680
gfz2011sfmu  -3.63450
gfz2011sfph  -1.23620
gfz2011sqco   1.18880
gfz2011sqxp  -0.91100
gfz2011sskq  -1.64210
gfz2011swfp   2.32600
gfz2011sxno  -2.87850
gfz2011sylg   3.48620
gfz2011syvj  -1.13050
gfz2011szbb  -0.26039
gfz2011szcj  -1.29750
gfz2011szis   1.02350
gfz2011taqr  -1.13970
gfz2011tarj   0.38228
gfz2011tdjj  -7.14230
gfz2011tfor   0.79518
gfz2011tgon  -0.49252
gfz2011tjpv   0.06476
gfz2011tlwl  -0.46678
gfz2011tozo   1.07150
gfz2011tqgg  -0.81935
gfz2011twpz   1.05820
gfz2011txdb   4.70090
gfz2011txxs   1.82350
gfz2011tzcv  -1.10400
gfz2011udjs  -0.22994
gfz2011udxo  -0.64884
gfz2011ugbt   5.24690
gfz2011unud   4.35300
gfz2011uowi  -0.50442
gfz2011uqlz   1.81800
gfz2011uqry   6.23470
gfz2011urwz   5.38120
gfz2011vahy  -0.74731
gfz2011vaoi  -0.59333
gfz2011varl   0.72473
gfz2011vbxv   0.00562
gfz2011vemg   0.00000
gfz2011vimn  -0.82835
gfz2011vswj  -0.56292
gfz2011vtdl   0.66717
gfz2011vxek   1.50160
gfz2011wcvs  -1.47960
gfz2011wgoa   1.48620
gfz2011wkja   2.58530
gfz2011wkyx   1.45460
gfz2011wngi   0.22598
gfz2011wpzt  -1.48090
gfz2011wqup  -0.24110
gfz2011wtfn  -0.56831
gfz2011wwze  -1.17020
gfz2011wzss  -0.42471
gfz2011xagc  -1.57220
gfz2011xawm   0.97759
gfz2011xdox  -0.17926
gfz2011xgbc   0.59170
gfz2011xgwy   1.63540
gfz2011xlod   2.54340
gfz2011xnui  -0.85644
gfz2011xpcq  -0.19104
gfz2011xwdv   1.29140
gfz2011xxng   1.42780
gfz2011yeck   1.07210
gfz2011yjtx   0.75544
gfz2011ykbd  -0.46365
gfz2011ymji   0.19387
gfz2011yntu  -1.27560
gfz2011ypfh  -0.56344
gfz2011yrfa   1.47740
gfz2011ytob  -0.76959
gfz2011ytwk  -8.85550
gfz2011ywtj  -2.73320
gfz2011zcwn   0.40914
gfz2011zghc  -1.85640
gfz2011zhih   0.26956
gfz2011ziyk   0.00273
gfz2011zkbt   1.55630
gfz2011zlga   0.12978
gfz2011znyq   0.77680
gfz2012adja   1.23420
gfz2012agwh  -0.19713
gfz2012ahac   1.66990
gfz2012aisj   0.56697
gfz2012alti   3.00950
gfz2012amvs  -0.47545
gfz2012aqpa  -1.49740
gfz2012arlo  -0.85496
gfz2012asin   0.06708
gfz2012asld   0.63412
gfz2012atjr   2.00180
gfz2012auqr  -0.29119
gfz2012avvc   0.74978
gfz2012bcvn   1.57460
gfz2012beae   2.32710
gfz2012bity   1.05350
gfz2012bjhl   2.70860
gfz2012bnwa   0.22235
gfz2012bolx  -2.16320
gfz2012bqcf   2.30390
gfz2012bysu   4.51320
gfz2012bytv   2.66590
gfz2012cdju   0.38200
gfz2012cfdw   0.24939
gfz2012cksh   1.08430
gfz2012cmww   0.35446
gfz2012crpb  -1.91800
gfz2012cwhl   1.99080
gfz2012cxhw   2.46230
gfz2012czvh   0.58165
gfz2012dbgt   1.73610
gfz2012dcjd  -0.79305
gfz2012dejg   1.61060
gfz2012dgfk  -0.58205
gfz2012dleg  -1.19860
gfz2012dluf   2.73420
gfz2012dnig   1.19140
gfz2012dpem   3.94910
gfz2012dpwv   1.08500
gfz2012drak  -0.99002
gfz2012drqd   0.84322
gfz2012dsei   1.35160
gfz2012dtdt   1.35420
gfz2012dttl   0.69039
gfz2012dtvr   0.36120
gfz2012dugf   3.94520
gfz2012duvf   0.70883
gfz2012dwwu   1.73180
gfz2012dyck   0.51081
gfz2012dysj   0.05737
gfz2012dysu   1.66560
gfz2012dyua  -0.95663
gfz2012dzjo   0.12174
gfz2012dzoh  -0.38162
gfz2012dzot   0.83223
gfz2012eajr  -0.01634
gfz2012ebff  -0.28638
gfz2012ebgo   3.82290
gfz2012ebhf   2.41070
gfz2012eeft  -1.02230
gfz2012ekfp  -4.55110
gfz2012ekro  -1.36480
gfz2012enio  -4.10080
gfz2012enrg   0.49192
gfz2012erds   3.73140
gfz2012evav   0.09196
gfz2012evxn   0.96266
gfz2012facv  -2.65670
gfz2012fcyq   2.14200
gfz2012fcyr   2.01710
gfz2012fhaf  -0.90614
gfz2012fiiz  -3.12170
gfz2012flqf  -1.64930
gfz2012foih   0.47059
gfz2012fpyo   2.47580
gfz2012ftcq  -1.90470
gfz2012ftks   0.97679
gfz2012fuyd   0.54248
gfz2012gbrs  -4.37820
gfz2012gftg   0.22165
gfz2012ghyd  -1.37780
gfz2012gjdg   3.44270
gfz2012gjtd   4.90680
gfz2012gnow  -1.55310
gfz2012grmf  -2.63480
gfz2012gubu   1.85630
gfz2012gvxc  -0.90691
gfz2012gzuk   0.31546
gfz2012hdny   0.92374
gfz2012heih  -1.34400
gfz2012hhlx   1.79720
gfz2012hvtu  -2.07720
gfz2012hwph  -0.34306
gfz2012hyba  -0.20549
gfz2012hysb   0.12725
gfz2012hzhn   6.00630
gfz2012hzur   3.34710
gfz2012iabn   0.42174
gfz2012iblo   3.46970
gfz2012ibyd   0.80660
gfz2012icjo   3.75660
gfz2012idxu   2.04970
gfz2012iedy   2.24810
gfz2012ieln   0.59951
gfz2012iijk   2.37950
gfz2012ikke   4.37520
gfz2012imsm   1.95240
gfz2012imuo   2.56920
gfz2012inns   1.56340
gfz2012iphs   4.76860
gfz2012iroy   2.30840
gfz2012ivyg   4.53190
gfz2012iyhs   2.43500
gfz2012iyoi  -0.04363
gfz2012izke   0.12548
gfz2012jawj   0.12305
gfz2012jopi   4.21090
gfz2012jvei  -0.11459
gfz2012klpl  -0.63311
gfz2012kmbo   2.23040
gfz2012kmmz  -0.75058
gfz2012kvlx   1.91120
gfz2012kwmx  -0.01584
gfz2012kyhj   1.72590
gfz2012lcro   2.69190
gfz2012ldjj   3.46750
gfz2012luzm   4.19170
gfz2012lvlr   2.02930
gfz2012lwha   2.07160
gfz2012lyqs   0.55994
gfz2012lyyr  -1.03570
gfz2012mcrb   0.92560
gfz2012mdzf  -0.06276
gfz2012mhik  -0.13582
gfz2012mmiw   5.29520
gfz2012moul   1.86530
gfz2012mout  -0.39868
gfz2012movu   1.77210
gfz2012movv   1.50270
gfz2012mpzo  -0.63439
gfz2012mrqk   5.25920
gfz2012mrwu   1.26340
gfz2012mtyn   0.15333
gfz2012mvgu  -0.26081
gfz2012mxdk  -3.25000
gfz2012mxvk  -0.02008
gfz2012mzco  -0.30099
gfz2012mzqx  -0.89467
gfz2012ndsk   2.67720
gfz2012nfos  -0.73215
gfz2012nldz  -0.31560
gfz2012nnck   1.05020
gfz2012nnqu   8.67050
gfz2012nqvd   0.69546
gfz2012oafg  -0.19610
gfz2012ofaj   1.74900
gfz2012ofnx  -1.92570
gfz2012ohgd  -0.95410
gfz2012oiez   4.36890
gfz2012ojmv   0.48648
gfz2012ooij   0.14804
gfz2012oork   1.32520
gfz2012oozp   3.01920
gfz2012oyja   1.37450
gfz2012pdav   0.14864
gfz2012pdfi   1.43790
gfz2012pgmw  -1.41270
gfz2012phns   0.77855
gfz2012pifb   0.52685
gfz2012pira  -0.62946
gfz2012pmuj  -1.10040
gfz2012ppcq   1.31280
gfz2012prke  -0.20676
gfz2012pryl   1.83280
gfz2012pumy   0.99105
gfz2012pvve   0.90600
gfz2012pziw   2.45960
gfz2012qbbt  -1.55470
gfz2012qfah   1.86020
gfz2012qfov  -1.06300
gfz2012qhqp   1.86060
gfz2012qibe   2.24390
gfz2012qllj   0.99505
gfz2012qoev   0.54189
gfz2012qvwy  -0.82938
gfz2012rduv  -1.97060
gfz2012rfhw   1.12630
gfz2012rjlp   1.07160
gfz2012rknz   1.26770
gfz2012rnml  -1.37790
gfz2012rslf   1.38120
gfz2012rugl   3.30560
gfz2012rzwp  -1.16930
gfz2012sfao  -1.23680
gfz2012sgfd   2.60860
gfz2012sjdy  -0.00000
gfz2012smyn   2.46110
gfz2012socz   0.09467
gfz2012sopp   0.35386
gfz2012sqsc   3.29220
gfz2012ssnb   0.47076
gfz2012ssvn  -0.58113
gfz2012suqd   1.95160
gfz2012svwz  -0.03542
gfz2012swbz   0.90272
gfz2012sxbo  -0.89398
gfz2012sxpr   1.83830
gfz2012sxzs   2.63840
gfz2012syum   3.90360
gfz2012taph   2.28360
gfz2012tbho   0.91333
gfz2012tgta   0.75856
gfz2012thyh   2.42070
gfz2012tyoz   2.41220
gfz2012udxg   1.98540
gfz2012uegq   0.71341
gfz2012unxc   1.89600
gfz2012uovh   0.26212
gfz2012utdu   0.45378
gfz2012uvea   1.56630
gfz2012uwne  -0.28421
gfz2012uzww   1.91050
gfz2012vaqd   1.94360
gfz2012vdra  -3.67420
gfz2012vdsl   0.71494
gfz2012vgot   1.33200
gfz2012vile   1.86780
gfz2012vioy   3.45640
gfz2012vitw  -0.05181
gfz2012vkjw   2.39460
gfz2012vlzv   1.31410
gfz2012vrqz  -0.72586
gfz2012vsav   2.48950
gfz2012vzkm   1.81560
gfz2012wbeu   1.64410
gfz2012wgmg   2.73010
gfz2012wgmp   2.72110
gfz2012wgxf   0.00000
gfz2012wicr   1.15820
gfz2012wiyv   2.30840
gfz2012wjsi   4.24420
gfz2012wmmw  -1.03980
gfz2012wmrf   0.89232
gfz2012wowu  -1.70600
gfz2012woxj   0.67565
gfz2012wpen  -0.97650
gfz2012wqfz  -0.07683
gfz2012wysg  -1.15130
gfz2012wzja  -0.44124
gfz2012xask  -0.47819
gfz2012xfnu  -0.52798
gfz2012xkln   1.56880
gfz2012xkvu  -0.43279
gfz2012xlfo   3.54120
gfz2012xmwt   1.65280
gfz2012xncm   1.94650
gfz2012xppl   0.96346
gfz2012xqxw   1.03740
gfz2012xrmq  -0.65982
gfz2012xwgb  -0.37832
gfz2012xwkx   1.46610
gfz2012yegw   0.03068
gfz2012yihn   0.89369
gfz2012ylai   1.23270
gfz2012yncm   0.90450
gfz2012yvwc   1.25800
gfz2012ywei   0.82361
gfz2012yygz   1.70510
gfz2012yytb   2.27320
gfz2012yzcf   0.38627
gfz2012zido  -0.50195
gfz2012zkhu   1.66320
gfz2012zktj   0.91526
gfz2012zmdf   0.85654
gfz2012zqis   3.60520
gfz2013afzh  -0.78115
gfz2013aggr   2.82340
gfz2013akkd  -0.15797
gfz2013ascz   0.38198
gfz2013atak   4.24770
gfz2013aymi   1.42000
gfz2013bdvi   4.06330
gfz2013bgyg   0.43059
gfz2013bwgw   0.72229
gfz2013byyy  -0.01092
gfz2013cinv  -0.06537
gfz2013ciof   1.24010
gfz2013cpjc  -0.18207
gfz2013cqee  -0.48840
gfz2013cyvx  -1.55820
gfz2013ddrx  -0.38980
gfz2013delq   2.95110
gfz2013dftb  -0.64715
gfz2013dfvx   2.15490
gfz2013djfi   3.08790
gfz2013dksc   0.08170
gfz2013dmzh  -0.09470
gfz2013dngd   3.89690
gfz2013dnot   0.94050
gfz2013dtjl   0.22509
gfz2013dwsp   2.13270
gfz2013dznt   1.31410
gfz2013dzvr   0.20745
gfz2013esef   3.29540
gfz2013evcl  -0.73109
gfz2013ewht   0.45732
gfz2013ezmc   0.94254
gfz2013ffjt   2.06140
gfz2013fhzy   1.09220
gfz2013fmcd  -0.64390
gfz2013fmcp  -3.94280
gfz2013fnpa   0.50089
gfz2013foto   1.82450
gfz2013fulo  -0.44811
gfz2013fwbm   1.78520
gfz2013fxyr  -1.41530
gfz2013fybd   2.40950
gfz2013gaqx   1.85370
gfz2013gbki   3.01540
gfz2013gglk  -0.24430
gfz2013gjmk   2.18980
gfz2013gkcx   0.55837
gfz2013glkq   0.62005
gfz2013gomv   1.10830
gfz2013gqtl   2.56880
gfz2013grle  -1.40860
gfz2013gsnl  -1.11910
gfz2013gugi   1.25980
gfz2013gurk   0.44165
gfz2013gxye  -0.15351
gfz2013gywl  -2.42890
gfz2013havw  -2.59780
gfz2013hbmi  -1.10130
gfz2013hbtm  -1.11050
gfz2013hbwy  -6.88570
gfz2013hduf  -0.91955
gfz2013hjtt  -0.22880
gfz2013hvkg   3.49700
gfz2013hvzv  -0.93248
gfz2013hwps   3.49870
gfz2013icgx   2.74810
gfz2013icql   3.94790
gfz2013irme  -0.90837
gfz2013ivvw   1.60460
gfz2013iwhc  -2.12470
gfz2013iwzn  -0.34487
gfz2013iybg  -0.33138
gfz2013jdwo  -0.92123
gfz2013jfcn  -0.21436
gfz2013jjae   1.03980
gfz2013jkqn   2.63720
gfz2013jobl  -0.61332
gfz2013jtsg   0.95573
gfz2013jzcf  -1.34710
gfz2013kats   5.69200
gfz2013kbbg   4.33390
gfz2013kbbn   2.90010
gfz2013kbkp   1.37640
gfz2013kcdb   3.30740
gfz2013kdfy   1.25710
gfz2013kjgh   2.64410
gfz2013kqab   2.42250
gfz2013kruh   0.15499
gfz2013kslp   1.47120
gfz2013kuno  -0.18626
gfz2013kxof   6.95030
gfz2013lbod   3.69230
gfz2013lbvl   1.90190
gfz2013lcrk   1.96910
gfz2013lgvf   1.21630
gfz2013ljdu  -0.03327
gfz2013ljwt  -0.11907
gfz2013lnne   0.08042
gfz2013lqjj  -0.46874
gfz2013lwtr   5.97890
gfz2013lxed   1.89930
gfz2013lxnd   1.61010
gfz2013mdxj  -0.81651
gfz2013mimp   1.88940
gfz2013mktp   0.64069
gfz2013mnux  -2.73770
gfz2013msmy  -1.69610
gfz2013mynb   2.03690
gfz2013mzaw  -1.03110
gfz2013nhkw   0.80495
gfz2013njwj   3.90760
gfz2013nkgd   5.74950
gfz2013ntfc  -0.69231
gfz2013ntiu   1.49340
gfz2013obof   0.06112
gfz2013ohdt   1.18900
gfz2013ohnj  -1.77940
gfz2013ojza  -0.38192
gfz2013okxa  -0.96696
gfz2013olos   4.31820
gfz2013onvl   1.16660
gfz2013orot   0.90647
gfz2013oruq   0.72863
gfz2013otxp   0.74072
gfz2013oywh   0.52673
gfz2013phhi   0.95821
gfz2013phly  -0.53455
gfz2013pifg  -0.87393
gfz2013pizm  -0.10085
gfz2013pkmz   2.99630
gfz2013pqkp   2.29700
gfz2013puiy   1.28430
gfz2013pzdr  -0.35293
gfz2013qaex   0.85865
gfz2013qaov   2.83350
gfz2013qapj   0.96869
gfz2013qdks  -1.55320
gfz2013qdno  -2.33320
gfz2013qdpv  -1.68410
gfz2013qdzg   0.08690
gfz2013qear   2.81290
gfz2013qigb   0.48572
gfz2013qntl   1.47380
gfz2013qoak  -1.38900
gfz2013qogb  -1.13590
gfz2013quwz   2.10800
gfz2013quyn   0.66191
gfz2013qwnm  -1.41970
gfz2013qxof   2.12510
gfz2013rdmn  -0.14564
gfz2013rfik   0.31523
gfz2013rhbx   1.33040
gfz2013rhxf   3.00290
gfz2013rnsa  -0.48718
gfz2013rocs   0.67401
gfz2013rofg   2.09990
gfz2013rsyt   0.90822
gfz2013rtvy   1.57360
gfz2013rwog   1.68930
gfz2013ryfc  -0.67587
gfz2013ryph   2.51950
gfz2013sbsp   2.43260
gfz2013skvq  -0.46616
gfz2013stou  -0.09795
gfz2013stup   2.38180
gfz2013suck   0.80537
gfz2013swnj   0.65033
gfz2013syqp  -0.90552
gfz2013syqv   0.07410
gfz2013taeb  -1.03860
gfz2013tekq  -0.31436
gfz2013tgyb  -0.39489
gfz2013timw  -2.25710
gfz2013tjub   4.26680
gfz2013tmyj  -1.09110
gfz2013tnrp   0.66200
gfz2013tpwl  -1.91400
gfz2013trsq  -0.06328
gfz2013ttmk   1.17870
gfz2013twbc  -1.30390
gfz2013uafv  -0.38404
gfz2013udtw  -1.09430
gfz2013uenl   2.09190
gfz2013uepl   1.24540
gfz2013unuv   0.99802
gfz2013upqj   4.10540
gfz2013urla   1.63040
gfz2013utqa   1.82560
gfz2013uugc  -1.60280
gfz2013uwjo   3.26400
gfz2013uwxb   1.77540
gfz2013uxzw   2.46020
gfz2013vdam  -0.08371
gfz2013veug   2.29470
gfz2013vgfb   1.38550
gfz2013vjrr  -0.16693
gfz2013vmrv  -0.68209
gfz2013vmsg  -0.46164
gfz2013vmsn   0.36146
gfz2013vnwa   0.66222
gfz2013voai  -0.34435
gfz2013vsdd  -1.50400
gfz2013vvre  -1.25230
gfz2013vwkh   0.08409
gfz2013vxht  -2.16890
gfz2013vzel   4.38110
gfz2013wegs  -0.20720
gfz2013wgwz  -2.61010
gfz2013wigs   1.37540
gfz2013wwee  -0.02014
gfz2013wyfl  -0.65464
gfz2013wyho   0.45975
gfz2013xahp  -0.75830
gfz2013xbdc   1.30080
gfz2013xddu   1.62670
gfz2013xjmy   2.67450
gfz2013xlic   5.31720
gfz2013xmzw  -1.40400
gfz2013xodn   0.63062
gfz2013xofz   0.09108
gfz2013xswc   1.91730
gfz2013xupg   0.83466
gfz2013xuxr   3.23910
gfz2013xvps   1.04170
gfz2013xxbf  -7.29740
gfz2013xycz   1.10580
gfz2013yapz   0.00000
gfz2013ygsj   3.41760
gfz2013yihv  -0.33374
gfz2013ykkf   1.59900
gfz2013ykqw   0.48378
gfz2013yktj  -0.15976
gfz2013ylxm   1.01990
gfz2013ymhx   1.29790
gfz2013yodm   0.81714
gfz2013yqkz   1.03730
gfz2013yqtu   1.17930
gfz2013ytmi   2.50480
gfz2013yvnj  -0.33130
gfz2013yxhf  -1.99090
gfz2013yxif  -2.75580
gfz2013yywh  -1.71650
gfz2013zedt   1.50520
gfz2013zfbz  -0.02849
gfz2013zghn   0.47512
gfz2013ziix   1.48340
gfz2013zkgm  -2.08830
gfz2013zkta   0.41055
gfz2013zkzb  -2.42800
gfz2013zlak   2.44540
gfz2013zpse   3.24110
gfz2013zpwk  -1.29390
gfz2014aaae   2.51020
gfz2014aedl  -1.48710
gfz2014aejh  -0.55456
gfz2014ajgi  -1.91330
gfz2014alzg  -3.74390
gfz2014amgk   1.36010
gfz2014amsy   1.42790
gfz2014aqax  -1.82350
gfz2014aqop   0.71032
gfz2014arox  -0.10756
gfz2014ascp  -0.34566
gfz2014avag   0.23686
gfz2014avmd   1.20090
gfz2014ayxf   1.73110
gfz2014azfu   0.40145
gfz2014bdju  -1.24260
gfz2014befl  -0.61679
gfz2014bfjb   0.82600
gfz2014bgxe   2.45410
gfz2014bgyv  -0.74881
gfz2014bkra   0.72104
gfz2014bmch   0.20485
gfz2014bmdf  -0.14068
gfz2014bmqw   0.31123
gfz2014bnea  -1.03010
gfz2014bqpm   1.31280
gfz2014buyz   0.56717
gfz2014bycg   1.36670
gfz2014byes   1.78310
gfz2014bzus   1.09770
gfz2014cgoi  -1.38310
gfz2014cgxj   3.06260
gfz2014cjao  -1.40200
gfz2014ckqv   0.56710
gfz2014club  -1.77590
gfz2014cncl   2.89590
gfz2014cokw   1.63920
gfz2014crac  -1.16270
gfz2014ctdl  -0.91936
gfz2014cvnb  -0.00000
gfz2014dbqi  -1.51060
gfz2014dggw   1.71750
gfz2014dpps  -2.17410
gfz2014dsqr  -0.51093
gfz2014dtth  -1.10460
gfz2014dutu   0.02127
gfz2014dwcp   1.02680
gfz2014dykt  -0.77251
gfz2014edjm  -3.11500
gfz2014edmd   0.77467
gfz2014eflc  -1.28030
gfz2014eglj   0.98806
gfz2014egvg   2.83000
gfz2014eiav   0.74458
gfz2014eirs  -1.48190
gfz2014eoay  -0.74675
gfz2014epfm   2.31570
gfz2014esez   2.12700
gfz2014etgp   0.56716
gfz2014eunw   1.08630
gfz2014evgu  -0.31720
gfz2014evhm  -0.45651
gfz2014eyne  -0.19813
gfz2014ezvd   1.51000
gfz2014fbli  -1.95400
gfz2014fbnr   4.02100
gfz2014fdhk   0.49984
gfz2014ffqg   3.30870
gfz2014fhki   4.76360
gfz2014fjfz  -1.79710
gfz2014fqas  -0.77351
gfz2014fsir  -0.39268
gfz2014fsvc   1.65460
gfz2014fvza  -2.39380
gfz2014fwuf   0.64810
gfz2014fwxt  -0.20155
gfz2014fxim   3.13490
gfz2014fxte   2.29950
gfz2014fxtv   2.16660
gfz2014fxuy   2.20820
gfz2014gbxg  -0.00000
gfz2014gcgf   2.38390
gfz2014gcia   0.02227
gfz2014geln  -0.27245
gfz2014ginr   0.59518
gfz2014gjfd  -0.29288
gfz2014gqxg   0.17461
gfz2014gsfc   2.27440
gfz2014gtee   1.64510
gfz2014gtoj   0.01396
gfz2014gutd   1.47970
gfz2014gypw   0.83540
gfz2014happ   1.12060
gfz2014herz   1.27080
gfz2014hgjb   2.13430
gfz2014hjmc   2.50860
gfz2014hotu   0.05290
gfz2014hqhv   0.59549
gfz2014huah   0.35638
gfz2014hyea   3.19240
gfz2014hzzf   4.53340
gfz2014iaqm   2.93460
gfz2014iayo   2.18150
gfz2014icov   3.90620
gfz2014igrp  -1.24450
gfz2014ijov  -0.00000
gfz2014ikvw   1.02130
gfz2014iltl  -0.52784
gfz2014imqh   4.31390
gfz2014ined   1.06440
gfz2014inrg   0.95359
gfz2014iolv  -3.06540
gfz2014ipfu  -1.25650
gfz2014ipwk   0.42636
gfz2014irlf   1.79280
gfz2014irln   1.94030
gfz2014irly   1.57170
gfz2014isjg  -0.84154
gfz2014isov   5.09400
gfz2014itlx  -0.03372
gfz2014iusw  -0.39820
gfz2014ivgm  -2.11590
