# Nsamples: 307  MAD:  0.633  mean: -0.662  std:  0.883
gfz2010aggj  -1.02700
gfz2010cllh  -1.23080
gfz2010dask  -0.25178
gfz2010ddan  -0.52975
gfz2010djib  -1.37140
gfz2010drit   1.48090
gfz2010drml   1.18210
gfz2010drmq   1.18210
gfz2010drun  -1.02820
gfz2010dumv  -1.38840
gfz2010fjme  -2.64190
gfz2010fkpa  -1.09030
gfz2010habf  -0.63717
gfz2010hueh  -0.24443
gfz2010izag  -0.62580
gfz2010jlvp  -0.88336
gfz2010mdti   0.63166
gfz2010mjdl   0.77397
gfz2010mpvc   0.19266
gfz2010mqaj  -2.31880
gfz2010ncwu   0.19031
gfz2010ngge  -0.36743
gfz2010okpc   0.50264
gfz2010pclq  -0.27731
gfz2010pcya  -2.53090
gfz2010pgpo  -0.98623
gfz2010pzza  -1.67060
gfz2010qrix  -0.51617
gfz2010rhvu  -0.13326
gfz2010rkuu  -0.72854
gfz2010rljv   0.23163
gfz2010rnwt  -2.68510
gfz2010rpjd   1.47790
gfz2010tgmo  -2.05400
gfz2010tmba  -0.71784
gfz2010tpcj  -0.26864
gfz2010tzlz  -0.22306
gfz2010tzma  -0.26820
gfz2010ugws   0.61808
gfz2010uhjy  -0.33588
gfz2010vong  -0.14465
gfz2010wakc  -1.72640
gfz2010wplk  -0.55789
gfz2010xkbz   0.91348
gfz2010xnbn  -3.07280
gfz2010xpzq  -0.59721
gfz2010yczp  -0.45993
gfz2010yfdr   0.01429
gfz2010yhhj  -1.39120
gfz2010zjun  -0.88019
gfz2011ahvh  -1.81820
gfz2011amst   0.06653
gfz2011awsv  -0.54416
gfz2011bpqm  -1.23950
gfz2011bqbx   0.30978
gfz2011bsvr   0.27210
gfz2011bygs  -1.02500
gfz2011cdge  -0.27938
gfz2011chsa  -1.55760
gfz2011cjuz  -0.97341
gfz2011dabj  -0.88625
gfz2011dpyu  -1.36390
gfz2011drmu  -0.47165
gfz2011duvm  -0.33113
gfz2011fzcw   1.45650
gfz2011ggnl   0.31993
gfz2011gnbk  -1.06020
gfz2011gpyr  -0.40074
gfz2011hibi   4.67460
gfz2011hjof  -0.80794
gfz2011hmnw  -0.87414
gfz2011hqjs  -0.85886
gfz2011hvzo   0.42391
gfz2011hyct  -0.48365
gfz2011ioch  -2.83980
gfz2011iryz  -1.05140
gfz2011ituo  -1.80220
gfz2011jryv  -1.31650
gfz2011kjzt  -1.07410
gfz2011kjzv  -0.40414
gfz2011kylu  -0.18185
gfz2011lmug   0.04268
gfz2011lwmg   0.10704
gfz2011mjje  -1.25550
gfz2011ndhh  -0.07988
gfz2011nejg  -0.44259
gfz2011nejw  -0.45179
gfz2011nerb  -0.98253
gfz2011nfln  -0.92052
gfz2011nftw  -1.02770
gfz2011nhvt  -0.95574
gfz2011nhwf  -1.84930
gfz2011nijp  -0.46513
gfz2011nilw   0.16009
gfz2011nimp  -0.80059
gfz2011nisj  -1.48910
gfz2011niuw  -0.75454
gfz2011nkou  -2.08290
gfz2011nlmf  -2.74320
gfz2011nlnl  -1.29270
gfz2011nlum   0.24854
gfz2011nnda  -1.05590
gfz2011nsiy  -0.32254
gfz2011ntyd   0.05232
gfz2011nuqo   0.67542
gfz2011ofpj  -1.01620
gfz2011ohgj  -1.23200
gfz2011oslk  -0.16518
gfz2011owqa  -1.16050
gfz2011pfls  -0.91276
gfz2011pfwq  -1.26340
gfz2011pivq   0.70039
gfz2011pmuv  -1.43360
gfz2011poug   0.10032
gfz2011prrq  -1.56420
gfz2011pwbw  -0.57387
gfz2011qklh   0.23873
gfz2011rkau  -0.97207
gfz2011rnny  -0.74309
gfz2011sdax  -1.11960
gfz2011sskq  -0.56937
gfz2011tozo  -0.96489
gfz2011tqgg  -0.58362
gfz2011tsgl  -0.47407
gfz2011txdb  -0.75651
gfz2011uqry  -0.30431
gfz2011urwz  -0.48909
gfz2011vahy  -0.89273
gfz2011vcyx  -0.16004
gfz2011vsag  -0.73386
gfz2011vxek  -1.34930
gfz2011wcvs  -1.22520
gfz2011wkja  -1.58180
gfz2011xgbc  -1.56310
gfz2011yjtx  -2.18120
gfz2011ytob  -0.55033
gfz2011zghc  -0.68196
gfz2012amjx  -0.53208
gfz2012bqcf  -0.85271
gfz2012byrq  -0.59858
gfz2012byuk  -0.89237
gfz2012cdju  -1.01930
gfz2012cksh   0.07416
gfz2012cntu  -0.96321
gfz2012cvfr  -0.69276
gfz2012dbgt  -0.26382
gfz2012dwwu  -1.52270
gfz2012ebrr  -0.31108
gfz2012ekfp  -0.91224
gfz2012ekro  -0.70308
gfz2012erds   0.53267
gfz2012fyny   0.73005
gfz2012ghiv  -1.00930
gfz2012hhlx  -0.77329
gfz2012hzhn  -1.20560
gfz2012hzur  -1.34600
gfz2012iblc   2.82900
gfz2012iblo  -0.52632
gfz2012ibyd  -0.13375
gfz2012icjo  -0.09574
gfz2012iijk  -0.80359
gfz2012ivyg  -0.17805
gfz2012iyhs  -1.49770
gfz2012jnlt  -0.92767
gfz2012kmbo  -1.12220
gfz2012kmmz  -1.77950
gfz2012kstg  -0.30680
gfz2012lcca  -1.64450
gfz2012ldjj  -0.89848
gfz2012lwha  -0.12597
gfz2012lyyr  -0.23894
gfz2012mcrb  -1.92340
gfz2012mrqk  -1.36240
gfz2012nnqu  -0.25989
gfz2012nqvd  -0.67140
gfz2012oafg  -0.94587
gfz2012oehy  -0.88496
gfz2012ohgd  -1.05520
gfz2012ojmv  -0.28872
gfz2012oork  -2.13870
gfz2012oozp   1.04460
gfz2012phns  -0.52026
gfz2012pmuj   1.72430
gfz2012qmhz   1.06690
gfz2012qpoc  -0.60170
gfz2012rzwp  -0.61582
gfz2012socz  -0.77267
gfz2012sqsc  -0.24639
gfz2012suqd  -0.93267
gfz2012svwz  -0.84024
gfz2012sxbo  -0.73232
gfz2012tisj  -0.20180
gfz2012tyoz  -1.59060
gfz2012uhtc  -0.16590
gfz2012uvoa  -1.33470
gfz2012uzww  -1.45330
gfz2012vrqz  -0.69470
gfz2012vsav  -0.33087
gfz2012wgmg  -1.27680
gfz2012wkki  -0.01861
gfz2012wowu   0.37744
gfz2012xlfo  -1.42870
gfz2012xncm  -1.12560
gfz2012xqxw  -0.41315
gfz2012xrmq  -0.95442
gfz2012xxdj  -0.05353
gfz2013akkd  -0.80634
gfz2013bwgw  -0.67774
gfz2013byyy  -1.72620
gfz2013cyvx  -0.24941
gfz2013delq  -0.62475
gfz2013dftb  -0.98936
gfz2013dzvr  -1.05850
gfz2013efct  -0.67034
gfz2013eidd  -0.11571
gfz2013frxd  -1.82350
gfz2013fulo  -0.16849
gfz2013fvht  -0.32751
gfz2013fvyr  -0.89346
gfz2013gbma  -1.38400
gfz2013gglk  -0.41756
gfz2013hqaa  -0.15121
gfz2013hwps   0.26949
gfz2013icql  -0.29890
gfz2013irme  -0.11435
gfz2013iuyv  -1.05900
gfz2013iwzn  -0.57513
gfz2013jfcn  -0.66712
gfz2013jlli  -0.89499
gfz2013jzfz  -1.60780
gfz2013kats  -0.88656
gfz2013kbbg  -0.24368
gfz2013kcdb  -0.37216
gfz2013kpcb  -1.21230
gfz2013kqab  -1.05660
gfz2013kruh   0.10115
gfz2013lbvl  -0.40735
gfz2013lcrk  -0.37616
gfz2013ljdu  -1.00650
gfz2013nkgd   0.44848
gfz2013ntiu  -1.11020
gfz2013oeni  -0.51653
gfz2013oizq  -0.82651
gfz2013phhi  -1.60400
gfz2013pkmz  -3.58450
gfz2013pqkp  -1.04140
gfz2013qdks   0.49324
gfz2013qigb  -1.19780
gfz2013qoak  -0.33893
gfz2013qogb  -0.64313
gfz2013quwz  -1.70490
gfz2013quyn  -1.24770
gfz2013rdmn   2.25130
gfz2013rwkj  -1.44040
gfz2013ryph  -0.77615
gfz2013tdsx  -0.45338
gfz2013tjub  -0.86980
gfz2013utqa  -0.41951
gfz2013uxzw   0.35330
gfz2013vjrr  -0.61747
gfz2013vmrv  -0.06430
gfz2013vmsg   0.25361
gfz2013vnwa  -0.00019
gfz2013vojy  -0.76473
gfz2013vvre  -1.74410
gfz2013vzel  -0.88683
gfz2013wyfl  -0.96420
gfz2013xacx  -1.16680
gfz2013xahp  -0.92792
gfz2013xjmo  -1.22560
gfz2013xjmy  -0.37403
gfz2013xlic  -1.65070
gfz2013xmzw  -0.35627
gfz2013xofz  -2.37560
gfz2013xswc  -1.06530
gfz2013yqtu  -0.16636
gfz2013yxhf   0.46790
gfz2013zfbz  -0.62168
gfz2013zlak  -0.53541
gfz2014bdju  -0.81688
gfz2014bppg  -0.54185
gfz2014cokw  -0.65449
gfz2014diuu  -0.75843
gfz2014eoay  -0.96051
gfz2014epnq  -0.56000
gfz2014epue   2.30820
gfz2014evyu  -0.43955
gfz2014flxk   0.28417
gfz2014fsir  -0.99660
gfz2014fsje  -0.71404
gfz2014fxte  -1.12260
gfz2014gsfc  -0.15836
gfz2014gypw  -0.60694
gfz2014hkcw  -0.77101
gfz2014huqh  -2.86680
gfz2014hyea  -1.37450
gfz2014hzzf  -0.76341
gfz2014icov  -0.87069
gfz2014igrp  -0.38710
gfz2014iltl  -0.86923
gfz2014imqh  -1.77320
gfz2014irlf  -0.83342
gfz2014irln  -1.14510
gfz2014irly  -1.50210
gfz2014iusw  -1.04100
gfz2014jarg  -0.56783
gfz2014jayh  -1.42600
