# Nsamples: 53  MAD:  0.910  mean:  0.927  std:  1.200
gfz2010clbw   0.60908
gfz2010cphq   1.05670
gfz2010crgy  -0.60017
gfz2010dask   1.25220
gfz2010iaay   0.50843
gfz2010mqzz   3.23230
gfz2010pclq   3.23240
gfz2010rljv   1.58490
gfz2010rnwt   6.13940
gfz2010tmba   1.52490
gfz2010ugws   1.97010
gfz2010uhjy   0.90001
gfz2010vong   1.95410
gfz2010xnbn   2.03810
gfz2011ahvh   0.91206
gfz2011bpqm  -0.18623
gfz2011dabj  -0.38476
gfz2011dpyu  -0.56222
gfz2011fnie   1.30180
gfz2011gnbk   0.94324
gfz2011ndhh  -0.49786
gfz2011niuw   0.38195
gfz2011oslk  -0.44833
gfz2011uqry  -0.26880
gfz2011vahy  -0.11598
gfz2011zghc   1.75470
gfz2012cntu   1.47380
gfz2012cvfr   0.82248
gfz2012ekfp   0.05770
gfz2012kmbo   0.85993
gfz2012ldjj   2.42270
gfz2012mdzf   1.08270
gfz2012suqd   1.22510
gfz2012sxbo  -0.19764
gfz2012uzww   0.47310
gfz2013cyvx   2.00080
gfz2013jfcn   0.78418
gfz2013kats  -0.36762
gfz2013mvgq   0.48400
gfz2013qigb  -0.14179
gfz2013qoak   0.19863
gfz2013quwz   0.67079
gfz2013vmrv   1.20240
gfz2013wyfl   1.82690
gfz2013xmzw   0.66358
gfz2013yqtu   1.33030
gfz2013zlak   1.25990
gfz2014ayxf   1.37700
gfz2014faex  -1.43110
gfz2014icov   1.39850
gfz2014iltl   0.43118
gfz2014irlf   0.45179
gfz2014irln   0.56581
