# Nsamples: 10  MAD:  0.450  mean: -0.594  std:  1.984
gfz2010abfc  -0.69866
gfz2010ccye   0.53398
gfz2010crgy  -1.24360
gfz2010dask  -0.40692
gfz2010ehgf  -5.17770
gfz2010fkff   2.92410
gfz2010habf  -0.11913
gfz2010jlvp  -0.72631
gfz2010ngge  -0.40095
gfz2010pzza  -0.62184
