# Nsamples: 93  MAD:  0.509  mean:  0.542  std:  1.696
gfz2010aggj  -0.15080
gfz2010aseg   0.38621
gfz2010ccwc   1.21470
gfz2010ccye   0.27791
gfz2010clbw  -0.15671
gfz2010cllh   0.16683
gfz2010cphq   0.26128
gfz2010crgy  -0.63829
gfz2010dask  -0.02954
gfz2010djib  -0.57855
gfz2010drit   0.68369
gfz2010fgbo  -0.18819
gfz2010fjme   0.71233
gfz2010fkff   0.61979
gfz2010gpjl   6.26210
gfz2010gxki   6.16550
gfz2010habf  -0.00000
gfz2010hesh   0.20208
gfz2010hllp   1.19190
gfz2010iaay  -0.25892
gfz2010izag   0.42733
gfz2010jlvp  -0.12273
gfz2010ngge   0.09397
gfz2010pclq   5.87930
gfz2010rljv   0.18475
gfz2010rnwt  -2.33400
gfz2010rpjd  -1.20330
gfz2010schp   6.11870
gfz2010tcgh   4.33630
gfz2010tmba  -0.03166
gfz2010tzma   0.39774
gfz2010uhjy   0.15953
gfz2010vong   0.00562
gfz2010wakc  -0.38419
gfz2010xnbn  -0.26115
gfz2010xpzq   0.25703
gfz2011ahvh   0.51011
gfz2011bpqm  -0.44371
gfz2011bygs   0.12386
gfz2011bygu  -0.06731
gfz2011bzio   0.59947
gfz2011cdge  -0.14624
gfz2011dabj  -0.41463
gfz2011dpyu   0.02811
gfz2011exxq   0.89697
gfz2011fnie  -0.32806
gfz2011fszl  -0.08583
gfz2011fzcw   0.79853
gfz2011ggnl   2.80140
gfz2011gnbk  -0.01853
gfz2011gpyr   0.20601
gfz2011hqjs  -0.00000
gfz2011kjzt  -0.06120
gfz2011lkkf  -0.21959
gfz2011mjje   0.00000
gfz2011ndhh   0.05863
gfz2011nftw   0.40242
gfz2011nijp  -1.04650
gfz2011nilw  -0.53234
gfz2011niuw  -1.20620
gfz2011nuqo  -0.25679
gfz2011ofpj   0.18790
gfz2011ohgj   5.67380
gfz2011oslk   0.13276
gfz2011owqa   0.74185
gfz2011pfls   0.05421
gfz2011pivq  -1.87430
gfz2011ppsc   3.92240
gfz2011qenl   0.26159
gfz2011rbuo   5.98290
gfz2011rkau  -1.63560
gfz2011sdax   0.39139
gfz2011tsgl   0.04521
gfz2011zghc   1.01710
gfz2012alti  -0.78984
gfz2012arlo   1.01410
gfz2012bcvn   0.53723
gfz2012bqcf  -0.16831
gfz2012byrq   0.61405
gfz2012cdju   0.18576
gfz2012cvfr   0.07579
gfz2012dejg   0.78234
gfz2012dtlu   0.38493
gfz2012dttl   0.07320
gfz2012dwwu   0.07052
gfz2012dyck   0.01981
gfz2012dysu  -0.09881
gfz2012eajr   0.84101
gfz2012ekfp   0.28600
gfz2012fuyd   0.92620
gfz2012ldjj   0.59629
gfz2013iuyv  -0.70771
gfz2013kbbg  -0.39700
