# Nsamples: 147  MAD:  0.643  mean:  0.855  std:  1.257
gfz2010abfc   0.32557
gfz2010aggj   0.56334
gfz2010aimm   0.98136
gfz2010aseg   1.33400
gfz2010bgrt   1.12100
gfz2010bqnk   1.25780
gfz2010brrm   1.55880
gfz2010clbw   0.47564
gfz2010cllh   1.13420
gfz2010cphq   1.37870
gfz2010crgy   0.38611
gfz2010crir  -0.04685
gfz2010csle  -0.99080
gfz2010cyid  -0.31434
gfz2010dask   0.50023
gfz2010ddan  -4.09590
gfz2010depd   0.11784
gfz2010djib  -0.43326
gfz2010dmij   0.46607
gfz2010drit   0.91719
gfz2010drml   0.57007
gfz2010drmq   0.57007
gfz2010drun   0.19788
gfz2010dumv  -0.43896
gfz2010dwgy   0.68560
gfz2010dxhq   0.21577
gfz2010faly   1.50400
gfz2010fgbo   0.84144
gfz2010fjio   2.34610
gfz2010fjme   1.10760
gfz2010fkff   1.84520
gfz2010fqnn   4.61800
gfz2010ftfq   1.77330
gfz2010fvfz   1.08830
gfz2010fxhh   5.51720
gfz2010fxut   1.29300
gfz2010gcqp   0.39190
gfz2010gpjl   4.25890
gfz2010guwa   4.70030
gfz2010habf   0.81422
gfz2010hdxn   0.13031
gfz2010hllp  -1.26660
gfz2010hsgv   1.29810
gfz2010hueh   2.72470
gfz2010hxan   0.03912
gfz2010iaay   1.88600
gfz2010iawy   1.85770
gfz2010ifhd  -0.00000
gfz2010izag   1.52900
gfz2010jlvp   0.30051
gfz2010jvsi   6.35660
gfz2010kwks   3.61580
gfz2010mdti   0.83740
gfz2010mzfb  -0.61231
gfz2010nwyk   2.63150
gfz2010okpc   0.73262
gfz2010rljv   1.22350
gfz2010rnwt  -0.54050
gfz2010rpjd  -0.41658
gfz2010schp   0.72336
gfz2010tcgh   1.34010
gfz2010tfar   1.33860
gfz2010tmba   0.42058
gfz2010tpcj   0.54229
gfz2010tzlz   0.43340
gfz2010tzma   0.60262
gfz2010ugws   1.02100
gfz2010uhjy   1.00660
gfz2010uidg   0.25167
gfz2010umyp   0.78509
gfz2010uogw   0.49749
gfz2010uopf   0.30903
gfz2010vdcf  -0.61861
gfz2010vong   0.85671
gfz2010wakc  -0.06889
gfz2010xamh   0.02139
gfz2010xnbn   0.53194
gfz2010xpzq   0.90958
gfz2010yczp   5.41380
gfz2010yfdr   0.76921
gfz2010zjun   1.07720
gfz2011ahvh   0.21655
gfz2011amst   2.49650
gfz2011awsv  -0.12278
gfz2011bpqm   0.77469
gfz2011bsvr   0.28599
gfz2011bygs   0.67610
gfz2011bygu   0.85518
gfz2011caca   1.25060
gfz2011cdge   1.06450
gfz2011cfyy   1.59360
gfz2011cjuz   0.47869
gfz2011dabj   0.23745
gfz2011dhfg   0.35571
gfz2011dpyu   0.49543
gfz2011emzr   0.87148
gfz2011fnie   0.51835
gfz2011fnuk   0.26485
gfz2011fszl   0.51212
gfz2011fzcw   0.52443
gfz2011ggnl   0.71626
gfz2011gnbk   0.77095
gfz2011gpyr   0.79558
gfz2011hqjs   0.73057
gfz2011kfch   0.34980
gfz2011kjzt  -0.01797
gfz2011kylu   3.12290
gfz2011kymm   2.37240
gfz2011kyzy   1.19300
gfz2011lkkf   0.20477
gfz2011lwmg   0.90760
gfz2011mjje   0.85661
gfz2011mllb   0.41527
gfz2011mntq   0.57838
gfz2011mror  -1.76790
gfz2011nblt   2.41380
gfz2011ndhh   0.47472
gfz2011nejg   1.86340
gfz2011nejw   0.80060
gfz2011nfcz   0.64849
gfz2011nftw  -0.46275
gfz2011nhby   1.12420
gfz2011nhwf   0.42223
gfz2011nijp  -0.72010
gfz2011nilw   0.11999
gfz2011niuw  -0.05701
gfz2011nkou   0.03308
gfz2011nlmf  -0.49220
gfz2011nlnl   0.70088
gfz2011nlum   0.70073
gfz2011nsiy   0.49575
gfz2011nuqo   0.62905
gfz2011oadm   0.30824
gfz2011oazk   0.39210
gfz2011ofpj   0.52918
gfz2011ohgj  -0.15163
gfz2011oslk   0.62789
gfz2011paqj   0.80928
gfz2011pfls   1.04860
gfz2011pivq   0.21391
gfz2011pmuv   0.73965
gfz2011poug   1.50370
gfz2011ppsc   0.15860
gfz2011pwbw   1.45330
gfz2011qenl   1.06960
gfz2011rqut   1.83900
gfz2011sxno   0.91251
