# Nsamples: 99  MAD:  0.720  mean:  0.800  std:  0.991
gfz2010aggj  -0.06376
gfz2010btme   2.15410
gfz2010clbw   0.86758
gfz2010cllh   0.79896
gfz2010crgy  -0.34886
gfz2010crir  -1.01280
gfz2010dask   0.23012
gfz2010djib  -0.10822
gfz2010drit   1.30940
gfz2010dxhq   1.55350
gfz2010fgbo   0.41631
gfz2010fjme   0.66850
gfz2010fxut   0.21563
gfz2010gcqp   0.10844
gfz2010habf   0.57131
gfz2010hsgv   0.70633
gfz2010hueh   3.07440
gfz2010iawy   0.55830
gfz2010izag   0.82821
gfz2010ngge   0.79068
gfz2010okpc   4.39680
gfz2010rkuu   1.28360
gfz2010rljv   1.17240
gfz2010rnwt   3.69830
gfz2010tpcj   0.80656
gfz2010tzlz   1.66160
gfz2010tzma   0.79311
gfz2010xpzq   0.74198
gfz2011ahvh   0.58046
gfz2011amst   0.02158
gfz2011gpyr   0.33673
gfz2011hqjs  -0.09160
gfz2011kfch   0.03243
gfz2011kjzt   0.44639
gfz2011kjzv  -1.27320
gfz2011lkkf   0.64188
gfz2011lwmg   0.45427
gfz2011mjje   0.84889
gfz2011mntq   1.44470
gfz2011oslk   0.10928
gfz2011owqa   2.15730
gfz2011pivq   0.85374
gfz2011pwbw   1.43560
gfz2011qenl   0.96264
gfz2011syzr   1.31950
gfz2011tqgg   1.16390
gfz2011uqry   0.28828
gfz2011vahy   0.14784
gfz2011wcvs   0.12781
gfz2011wwze   0.49377
gfz2012alti   1.53430
gfz2012arlo   2.07210
gfz2012cdju   0.38626
gfz2012cksh   1.54990
gfz2012cvfr   0.16913
gfz2012iijk   0.83268
gfz2012ldjj   0.74307
gfz2012mdzf   0.23708
gfz2012mmiw   0.08929
gfz2012nqvd   0.21712
gfz2012oafg   0.83445
gfz2012oehy  -0.03240
gfz2012phns   1.66060
gfz2012pmuj   5.52440
gfz2012sgfd   0.74039
gfz2012suqd   2.11470
gfz2012svwz   1.45450
gfz2012sxzs   0.39174
gfz2012tisj   0.60176
gfz2012trfq   0.80728
gfz2012uhtc   0.40095
gfz2012ulei   1.30670
gfz2012uvoa   0.09498
gfz2012vile   1.25950
gfz2012vitw   0.57041
gfz2012xlas   1.21830
gfz2012xncm   1.60130
gfz2012xrmq   1.09650
gfz2013bwgw   0.95119
gfz2013byyy   0.41530
gfz2013cvve   0.36433
gfz2013cyvx   0.12673
gfz2013delq  -0.31538
gfz2013dftb   0.19267
gfz2013dngd   0.18466
gfz2013dzvr   0.73730
gfz2013fmcp   0.92898
gfz2013fnpa   0.19522
gfz2013fulo   0.86722
gfz2013fvht   0.69317
gfz2013gsnl   0.70157
gfz2013icql   0.42082
gfz2013iuyv   1.94750
gfz2013iwzn   0.90963
gfz2013jfcn   0.60583
gfz2013jobl   0.02951
gfz2013lbvl  -0.07662
gfz2013lgvf  -1.95740
gfz2013qwnm   1.38610
