# Nsamples: 192  MAD:  0.482  mean:  0.502  std:  0.786
gfz2010inbs   0.63032
gfz2010izag   0.97631
gfz2010jlvp  -0.15898
gfz2010mdti   0.49782
gfz2010mpvc   2.50090
gfz2010mqaj   3.91250
gfz2010ncwu   0.62433
gfz2010ngge   0.04303
gfz2010okpc   2.14440
gfz2010pclq   0.98311
gfz2010pcya  -1.24570
gfz2010pgpo   0.30571
gfz2010rljv   0.70657
gfz2010rnwt   4.09060
gfz2010rpjd   1.96840
gfz2010schp   0.44835
gfz2010tfar   1.03510
gfz2010tmba   0.20347
gfz2010tzlz   0.48207
gfz2010tzma   1.01270
gfz2011fnie   0.35331
gfz2011fnuk   0.02916
gfz2011fszl   0.15590
gfz2011fzcw   0.65174
gfz2011ggnl   1.12410
gfz2011gnbk   0.51398
gfz2011gpyr   0.25312
gfz2011hqjs   0.37256
gfz2011ndhh   0.61887
gfz2011nejg  -0.41044
gfz2011nejw   0.35667
gfz2011nerb   0.79304
gfz2011nftw   0.76403
gfz2011nhby   0.39472
gfz2011nijp  -0.72906
gfz2011nilw  -0.27251
gfz2011niuw   0.02001
gfz2011nlmf  -0.74413
gfz2011nlnl  -0.18683
gfz2011nlum   0.24543
gfz2011nnda   0.32315
gfz2011nuqo   0.35122
gfz2011oadm  -0.03109
gfz2011oazk   0.61254
gfz2011ofpj   0.23218
gfz2011ohgj  -0.63479
gfz2011okza   1.07020
gfz2011oslk   0.25254
gfz2011owqa   0.26161
gfz2011paqj   0.38897
gfz2011pfls  -0.20144
gfz2011pivq  -0.06688
gfz2011pmuv  -0.40815
gfz2011ppsc  -0.06661
gfz2011pwbw   0.02986
gfz2011qenl   0.72414
gfz2011qukj  -0.24889
gfz2011rkau  -0.21812
gfz2011rqut   0.13806
gfz2011sdax   0.22123
gfz2011udjs   1.80000
gfz2011uqry   0.63885
gfz2011vahy  -0.47453
gfz2011vcyx   0.07429
gfz2011wcvs   0.86471
gfz2011wgvh   1.92670
gfz2011wqup   0.29160
gfz2011wucg   0.11946
gfz2011wwze   0.58242
gfz2011xawm   1.15510
gfz2011xdox   0.64773
gfz2011xkka   0.76934
gfz2012dttl   0.37889
gfz2012dwwu  -0.05660
gfz2012dyck   0.38119
gfz2012ekfp   0.84566
gfz2012fuyd   1.37990
gfz2012hvtu   2.33040
gfz2012hzur   0.39653
gfz2012iijk   0.67933
gfz2012kmbo   0.14566
gfz2012ldjj  -0.06428
gfz2012lyyr   0.86220
gfz2012mdzf   0.05502
gfz2012mjuu   0.30390
gfz2012mmiw  -0.28927
gfz2012mrwu   0.24509
gfz2012mtyn  -1.87830
gfz2012nqvd   0.04741
gfz2012oafg   0.49526
gfz2012oehy   0.20929
gfz2012pmuj  -0.19218
gfz2012qfah   0.46253
gfz2012qpoc  -0.12039
gfz2012rzwp   0.93245
gfz2012sgfd   0.58831
gfz2012socz   1.10010
gfz2012suqd   0.40700
gfz2012svwz   0.79351
gfz2012tisj  -0.46896
gfz2012trfq   0.88270
gfz2012twec   0.24398
gfz2012uegq   0.96133
gfz2012uhtc   0.57726
gfz2012uvoa   0.43913
gfz2012uzww  -0.01776
gfz2012vile   0.99040
gfz2012vitw   0.50450
gfz2012vkjw   0.35299
gfz2012vrqz   0.32847
gfz2012vsav  -0.07641
gfz2012wkki   0.50129
gfz2012wysg   0.97764
gfz2012xask   0.38116
gfz2012xcsf   0.43391
gfz2012xkln   0.29647
gfz2012xlas   0.32465
gfz2012xncm   0.22076
gfz2012xrmq   0.31559
gfz2012yncm   3.22260
gfz2013bwgw   0.48706
gfz2013byyy  -0.07898
gfz2013cvve   0.20105
gfz2013cyvx   0.55363
gfz2013delq   0.39518
gfz2013dftb   0.48225
gfz2013dzvr  -0.03964
gfz2013enqo   1.10950
gfz2013fmcd   0.06188
gfz2013fnpa   0.50471
gfz2013fulo   0.67176
gfz2013fvht   1.06490
gfz2013gsnl   1.41230
gfz2013hbmi   0.99253
gfz2013icql  -1.07550
gfz2013iuyv  -0.02079
gfz2013iwzn   1.91230
gfz2013jfcn   0.55798
gfz2013jobl   0.43617
gfz2013jzcf   1.31920
gfz2013kats  -0.00473
gfz2013kbbg   0.54425
gfz2013kbbn  -2.40810
gfz2013kcdb   0.69475
gfz2013kpcb   0.32743
gfz2013kqab   1.24030
gfz2013lvxe  -0.19016
gfz2013mdxj   0.97201
gfz2013mzaw   0.50254
gfz2013pkmz   0.92777
gfz2013quwz  -0.12243
gfz2013qxof   0.42013
gfz2013rwkj   0.13506
gfz2013swnj   0.36869
gfz2013ubgt   0.31839
gfz2013utqa  -0.00000
gfz2013uwjo  -0.12702
gfz2013uxzw   0.26378
gfz2013vdam   0.62919
gfz2013vjrr   0.94851
gfz2013zfbz   0.40789
gfz2013zlak   1.02710
gfz2014aqax   3.69380
gfz2014ayxf   0.70193
gfz2014bkra   2.01360
gfz2014cokw   0.39249
gfz2014cwcj   1.31680
gfz2014dggw   0.71371
gfz2014dihl   0.50408
gfz2014dtth   0.74932
gfz2014dwcp   0.34175
gfz2014eoay   0.38654
gfz2014fsir   0.21745
gfz2014fsje   0.31779
gfz2014fxte   0.56978
gfz2014gnvp  -0.62395
gfz2014grwv  -0.26901
gfz2014gsfc   0.44503
gfz2014hapg   1.42220
gfz2014hkcw   0.22304
gfz2014huqh   1.27490
gfz2014hzzf   0.35213
gfz2014icov   0.82825
gfz2014igrp   0.49220
gfz2014iltl   1.04190
gfz2014ined   0.64587
gfz2014inrg  -0.17655
gfz2014irlf   0.37504
gfz2014irln   0.66050
gfz2014irly   0.10474
gfz2014iusw   0.53933
gfz2014jarg   0.83751
