# Nsamples: 59  MAD:  0.656  mean:  0.742  std:  0.914
gfz2010drit  -0.84849
gfz2010drun  -0.87006
gfz2010dtgc   3.44420
gfz2010fqnn  -0.40537
gfz2010fxut   1.33160
gfz2010huzl   2.64790
gfz2010izag   1.51480
gfz2010mqaj   2.27870
gfz2010rljv   1.13010
gfz2010tzma   1.04460
gfz2010wakc  -0.17199
gfz2010xpzq   0.70910
gfz2011bygs   1.33190
gfz2011dpyu   0.09351
gfz2011fszl   0.72375
gfz2011gnbk   0.80402
gfz2011qenl   1.33370
gfz2011scma   1.35220
gfz2011taqr   1.08470
gfz2011tsgl   0.84753
gfz2011vtzv   0.65360
gfz2011zghc   0.79230
gfz2012cvfr   1.04060
gfz2012ghiv   1.50970
gfz2012iijk   1.00660
gfz2012ldjj   0.71453
gfz2012nnqu  -0.19364
gfz2012ofnx   0.61718
gfz2012phns   0.51145
gfz2012sgfd   1.83670
gfz2012suqd   1.67780
gfz2012uhtc   0.48754
gfz2012uvoa   0.00000
gfz2012wpen   0.24101
gfz2012xncm   0.59840
gfz2012xxdj   0.35881
gfz2013akkd   1.11590
gfz2013byyy  -2.88460
gfz2013dzvr   0.91181
gfz2013efct   0.60650
gfz2013fulo   0.69263
gfz2013hbmi   1.20650
gfz2013iwzn   2.32730
gfz2013kbbg   0.67520
gfz2013kbbn   0.29370
gfz2013kcdb  -0.19407
gfz2013kpcb   0.47123
gfz2013lbvl   0.52711
gfz2013qigb   0.17458
gfz2013qoak   0.98065
gfz2013quwz   0.16467
gfz2013qxof   1.49090
gfz2013rwkj   0.27209
gfz2013utqa   0.24062
gfz2013wyfl   1.17860
gfz2013xahp   0.40758
gfz2013xswc  -0.12949
gfz2013yqtu   0.93775
gfz2013zfbz   1.07050
