# Nsamples: 243  MAD:  0.382  mean: -0.408  std:  0.969
gfz2010abfc  -0.52005
gfz2010aggj  -0.79880
gfz2010azji  -0.37078
gfz2010bkfi  -0.42780
gfz2010bklj   4.58920
gfz2010bqnk  -0.55319
gfz2010brrm  -0.62635
gfz2010btme   1.03350
gfz2010bukb   1.09870
gfz2010ccye   0.03011
gfz2010clbw  -0.65301
gfz2010cllh  -0.57929
gfz2010cphq  -3.46340
gfz2010crgy  -0.76125
gfz2010crir  -1.24730
gfz2010csle  -1.31300
gfz2010csmw  -0.38460
gfz2010csqy  -1.16470
gfz2010cthm   5.55850
gfz2010cvam  -0.13849
gfz2010cyid  -0.69959
gfz2010dask  -0.19829
gfz2010drit  -0.31554
gfz2010dwgy   0.86140
gfz2010eibh  -0.29785
gfz2010fgbo  -0.80374
gfz2010fjme  -0.19777
gfz2010fkff   0.45096
gfz2010fnkr  -0.89720
gfz2010fqnn  -0.66387
gfz2010fxhh  -0.57622
gfz2010gcqp  -0.45092
gfz2010habf  -0.52081
gfz2010izag  -0.46392
gfz2010jlvp  -0.52468
gfz2010mdti   0.06583
gfz2010ncwu   4.39490
gfz2010ngge  -0.86721
gfz2010oguu  -0.44528
gfz2010tmba  -0.49888
gfz2010tzlz  -0.33529
gfz2010tzma  -0.89702
gfz2011dpyu  -0.47507
gfz2011edrq  -0.67218
gfz2011fnie  -0.84671
gfz2011fnuk  -1.53540
gfz2011gnbk  -0.63588
gfz2011gpyr  -0.91090
gfz2011hqjs  -0.44710
gfz2011kjzt  -0.73853
gfz2011kjzv  -0.16406
gfz2011kyzy  -1.10820
gfz2011lkkf  -0.76487
gfz2011mjje  -0.95481
gfz2011ndhh  -0.34377
gfz2011nejg   1.46320
gfz2011nejw  -0.54728
gfz2011nfcz  -0.75869
gfz2011nfgt  -0.34968
gfz2011nftw  -0.79374
gfz2011nhby  -0.94597
gfz2011nhvt   2.23730
gfz2011nijp  -1.26970
gfz2011nilw  -0.24724
gfz2011nisj  -0.79133
gfz2011niuw  -1.81970
gfz2011nlmf  -1.40180
gfz2011nlnl  -1.57040
gfz2011nlum  -0.28288
gfz2011nsej   0.53650
gfz2011nuqo  -0.40210
gfz2011oadm  -0.35086
gfz2011oazk  -0.19874
gfz2011ofpj  -0.52968
gfz2011ohgj  -1.28910
gfz2011oslk  -0.59706
gfz2011paqj   0.11186
gfz2011pfls  -0.05915
gfz2011pgzk  -0.48725
gfz2011pivq  -1.50120
gfz2011ppsc  -0.70141
gfz2011pwbw  -0.44108
gfz2011qenl  -0.44456
gfz2011qukj  -0.59927
gfz2011rkau   0.83398
gfz2011rnsp  -0.44371
gfz2011sdax  -0.65212
gfz2011sdpl   0.62359
gfz2011sfph  -0.67293
gfz2011sqco   1.09200
gfz2011sxno  -0.96255
gfz2011sylg  -1.02020
gfz2011tqgg  -0.45282
gfz2011tsgl  -0.46285
gfz2011xgbc  -0.42752
gfz2011yexx  -0.96788
gfz2011ytob   0.92169
gfz2012adja   0.19953
gfz2012ahac  -1.36750
gfz2012alti  -0.43348
gfz2012amjx  -1.86860
gfz2012bity  -0.91420
gfz2012bqcf  -0.37828
gfz2012cvfr  -0.62090
gfz2012dcjd  -0.46866
gfz2012dnig  -0.24860
gfz2012dttl  -0.33049
gfz2012duwm   2.35230
gfz2012dwwu  -1.07610
gfz2012dyck  -0.99241
gfz2012dysu   0.26074
gfz2012ekfp  -0.85803
gfz2012gdye  -0.57891
gfz2012gftg  -1.74100
gfz2012ghiv   0.20034
gfz2012hzur  -1.03940
gfz2012iijk  -0.72691
gfz2012ipdc  -1.03110
gfz2012klpl  -0.18641
gfz2012kmbo  -1.07050
gfz2012ldjj  -0.32144
gfz2012luzm  -0.92208
gfz2012mjuu  -0.43912
gfz2012mmiw  -1.47940
gfz2012mpzo   0.32014
gfz2012mrqk  -0.99363
gfz2012mrwu  -0.48331
gfz2012nnqu  -0.82159
gfz2012nqvd  -1.27400
gfz2012oehy  -0.72252
gfz2012ofnx  -1.22300
gfz2012phns  -0.09396
gfz2012pumy  -0.79217
gfz2012pvve  -0.96119
gfz2012qllj  -1.08100
gfz2012qpoc  -0.55541
gfz2012rzwp   1.48300
gfz2012sgfd   0.29853
gfz2012swbz  -0.78101
gfz2012sxzs  -1.08210
gfz2012syum  -1.21630
gfz2012taph  -0.42175
gfz2012tgta  -0.99688
gfz2012tisj  -0.79555
gfz2012uzww  -0.33931
gfz2012vitw  -0.62214
gfz2012vkjw  -0.61287
gfz2012vnve   0.43919
gfz2012wkki   3.71440
gfz2012wmmw  -0.03931
gfz2012wowu  -0.12626
gfz2012wugc  -1.37510
gfz2012znou  -1.09590
gfz2012zqis  -1.01030
gfz2013bwgw  -0.15448
gfz2013byyy  -0.66072
gfz2013cvve  -0.64271
gfz2013cyvx  -0.60885
gfz2013delq  -0.90361
gfz2013dftb  -0.57227
gfz2013fulo  -0.34944
gfz2013fvht  -0.25398
gfz2013gxye  -0.29578
gfz2013hbmi  -0.29574
gfz2013hbtm  -0.04478
gfz2013ikic  -0.73579
gfz2013iuyv   2.90660
gfz2013jlli  -0.38313
gfz2013jobl  -0.40227
gfz2013jzcf   0.74617
gfz2013kats  -0.63422
gfz2013lgvf  -0.51341
gfz2013ljdu  -0.64822
gfz2013ljwt  -1.21190
gfz2013oeni  -0.53444
gfz2013okac  -0.65383
gfz2013oywh  -1.30730
gfz2013qigb  -0.03657
gfz2013qnqr  -0.11821
gfz2013qoak   0.43112
gfz2013quwz  -0.81400
gfz2013quyn  -0.57521
gfz2013qwnm   0.31104
gfz2013qxof  -1.18430
gfz2013rtvy  -1.11500
gfz2013rwkj  -0.80771
gfz2013tekq  -0.67720
gfz2013tjub  -0.68318
gfz2013tkcg  -0.21012
gfz2013ubgt  -0.91020
gfz2013udtw  -0.39125
gfz2013ujze  -0.61462
gfz2013utqa  -0.91546
gfz2013uxzw  -0.34625
gfz2013vcgd  -0.97680
gfz2013vdam  -0.33515
gfz2013veoz  -0.65074
gfz2013vjrr   4.10500
gfz2013vldx  -0.89671
gfz2013vmrv   0.16154
gfz2013voai  -0.53625
gfz2013vwkh  -0.75773
gfz2013xddu   0.36338
gfz2013xmzw  -0.30826
gfz2013xodn  -0.79083
gfz2013xswc  -0.61056
gfz2013xvps  -0.54336
gfz2013ykkf  -1.10850
gfz2013yktj  -0.56085
gfz2013yodm  -0.81869
gfz2013yqkz  -0.49796
gfz2013yvnj  -0.92009
gfz2013zqan  -0.35648
gfz2014aedl  -0.34682
gfz2014ayxf  -0.43716
gfz2014bgxe  -0.50498
gfz2014bkra   0.88289
gfz2014bqpm  -0.67168
gfz2014bzus  -0.70392
gfz2014cjao  -0.56178
gfz2014cokw  -0.65712
gfz2014crac  -0.76389
gfz2014cvnb  -0.62509
gfz2014dpps  -0.54395
gfz2014dtth  -0.85128
gfz2014edjm  -0.43681
gfz2014eirs  -0.31032
gfz2014emlw  -0.10239
gfz2014eoay  -1.04290
gfz2014epnq  -0.41774
gfz2014esez  -0.50202
gfz2014eunw  -0.86667
gfz2014fbli  -0.51511
gfz2014flxk  -0.10285
gfz2014fsir  -0.57408
gfz2014fsje  -0.68492
gfz2014fwxt  -0.45918
gfz2014fxte  -1.09370
gfz2014fxtv  -0.49844
gfz2014fxuy  -0.63979
gfz2014geln  -1.19110
gfz2014gnbw  -0.47143
gfz2014grwv  -0.54662
