# Nsamples: 109  MAD:  0.748  mean: -0.472  std:  0.836
gfz2010abfc  -1.08110
gfz2010abvu  -1.20230
gfz2010aggj  -0.49806
gfz2010aimm  -0.30443
gfz2010aldp  -0.03239
gfz2010aseg  -0.24596
gfz2010azji  -0.05181
gfz2010bkfi  -0.21377
gfz2010bnqr   0.14666
gfz2010brlc   0.00000
gfz2010brrm   1.42220
gfz2010btme   2.95530
gfz2010byau  -1.43670
gfz2010cbnp  -1.53180
gfz2010ccse   0.54787
gfz2010ccwc  -0.15067
gfz2010clbw  -0.83194
gfz2010cllh  -0.60868
gfz2010crgy  -0.85593
gfz2010crir  -0.88196
gfz2010csle  -1.88910
gfz2010csqy  -1.85120
gfz2010cthm  -0.38312
gfz2010cyid  -1.58180
gfz2010dask  -0.62007
gfz2010diid   0.12576
gfz2010djib  -1.85970
gfz2010ethu  -1.66880
gfz2010euue  -0.84683
gfz2010faly   0.60468
gfz2010fgbo   0.67589
gfz2010fjio   0.47333
gfz2010fjme  -1.22310
gfz2010fkff  -0.62130
gfz2010fnkr  -0.67829
gfz2010fqnn  -1.50200
gfz2010fqzh  -0.51241
gfz2010fvfz   0.02127
gfz2010fxhh   0.89093
gfz2010fxut  -0.51390
gfz2010gnvp  -0.12936
gfz2010gonu  -0.79604
gfz2010habf  -0.46792
gfz2010hdxn  -1.28250
gfz2010ifru  -1.80950
gfz2010qbcy  -1.59220
gfz2010qdqk  -0.36375
gfz2010qloa  -0.74536
gfz2010qqqx  -1.10220
gfz2010qrix   0.60273
gfz2010qrta  -0.54594
gfz2010qylh  -0.96706
gfz2010qzvf   1.19530
gfz2010rkuu  -1.42180
gfz2010rljv   0.09604
gfz2010rnwt  -2.47100
gfz2010rpbz  -0.86542
gfz2010rpjd  -2.07930
gfz2010schp  -0.18135
gfz2010tcgh   0.26344
gfz2010tfar  -1.41470
gfz2010tgmo   0.66463
gfz2010tmba  -0.67502
gfz2010tpcj  -0.60193
gfz2010tqyo  -0.40450
gfz2010uhjy   0.24901
gfz2010uidg  -1.21130
gfz2010umxj   0.62318
gfz2010umyp  -0.30652
gfz2010uogw  -0.79366
gfz2010uopf   0.37848
gfz2010ussf  -0.39152
gfz2010vong  -0.50464
gfz2010wakc  -1.10050
gfz2010wwnq  -0.10425
gfz2010xamh  -1.38100
gfz2010xnbn   0.30009
gfz2010xpzq  -1.00700
gfz2010xvev   0.29640
gfz2010xytc  -1.13260
gfz2010yczp  -0.25045
gfz2010yfdr  -0.36761
gfz2010ymih  -1.16240
gfz2010ytzb  -0.19371
gfz2010zjun  -1.18380
gfz2011ahvh  -1.16330
gfz2011ameb  -0.55523
gfz2011amst   0.26386
gfz2011awsv  -0.97319
gfz2011bcvc   0.40684
gfz2011bffb   0.29973
gfz2011bpqm  -0.03950
gfz2011bsvr  -1.04400
gfz2011bygs  -0.38675
gfz2011bygu  -0.22278
gfz2011bzio   1.63720
gfz2011cdge   0.25631
gfz2011cjuz  -1.42930
gfz2011dabj  -0.42712
gfz2011dhfg  -0.89571
gfz2011dpyu  -0.92591
gfz2011lkkf  -0.27490
gfz2011oslk  -0.72026
gfz2011owqa  -0.87415
gfz2011pgzk  -0.06724
gfz2011pmuv  -0.24411
gfz2011poug   0.60879
gfz2011sdax  -0.54892
gfz2011syzr  -0.00042
