# Nsamples: 121  MAD:  0.510  mean: -0.050  std:  0.702
gfz2010brrm   0.06599
gfz2010clbw  -0.24738
gfz2010cllh  -0.66652
gfz2010crgy  -0.44239
gfz2010crir  -0.63983
gfz2010csle  -1.22520
gfz2010csqy  -0.25150
gfz2010cthm   0.44723
gfz2010cvam   0.13523
gfz2010cyid  -0.23235
gfz2010dask  -0.20290
gfz2010djib  -0.31214
gfz2010drit   0.10126
gfz2010dwgy   0.03012
gfz2010eibh   0.63678
gfz2010fgbo  -0.14365
gfz2010fjme   0.67430
gfz2010fkff   0.86000
gfz2010fxhh   0.59431
gfz2010gonu   1.46390
gfz2010habf  -0.09830
gfz2010iawy  -0.83164
gfz2010izag   0.56156
gfz2010jlvp  -0.12553
gfz2010mdti   0.59482
gfz2010ngge  -0.16091
gfz2010pgpo   0.40357
gfz2010qdqk   1.05730
gfz2010qrta  -0.10662
gfz2010rkuu   0.77637
gfz2010rljv   0.06273
gfz2010rnwt  -1.26770
gfz2010tcgh   0.54375
gfz2010tmba  -0.14846
gfz2010tzma  -0.06797
gfz2010uhjy  -0.20916
gfz2010vong  -0.13845
gfz2010wakc  -0.00816
gfz2010xamh   0.10119
gfz2010xezr  -0.14985
gfz2010xnbn  -0.71570
gfz2010xpzq  -0.06857
gfz2010yczp   0.93538
gfz2010yfdr   0.64717
gfz2010zjun   0.97761
gfz2011ahvh  -0.01325
gfz2011amst  -1.68560
gfz2011bpqm  -0.38583
gfz2011nuqo   0.11173
gfz2011oslk  -0.11089
gfz2011owqa  -0.37202
gfz2011sdax  -0.02124
gfz2011sqco  -0.82030
gfz2011tsgl   0.69575
gfz2011uqry   0.01319
gfz2011vahy  -0.54509
gfz2011vimn  -0.14889
gfz2012ahac  -0.62831
gfz2012cdju  -0.08340
gfz2012dttl   0.09563
gfz2012dyck  -0.39909
gfz2012dzou  -2.78790
gfz2012eyti  -1.14280
gfz2012mmiw  -0.32653
gfz2012mpzo   0.72365
gfz2012mrqk  -0.10559
gfz2012nfos  -1.08880
gfz2012pvve  -0.24067
gfz2012syum  -0.52634
gfz2012tqjc  -0.22909
gfz2012uvoa  -0.12728
gfz2012vitw  -0.24037
gfz2012vnve   0.79438
gfz2012wysg   0.34372
gfz2012xrmq  -2.69070
gfz2012znou  -0.82301
gfz2012zqis  -0.40012
gfz2013bwgw  -0.04607
gfz2013byyy  -0.27612
gfz2013icql  -0.01779
gfz2013kats  -0.22695
gfz2013kqab   0.82574
gfz2013lbod   0.36950
gfz2013lbvl   0.24215
gfz2013ljwt   0.14752
gfz2013phhi   0.42050
gfz2013qxof  -0.35169
gfz2013rwkj   0.47763
gfz2013swnj   0.76727
gfz2013tnrp  -0.13030
gfz2013ubgt   0.26579
gfz2013upqj  -0.19635
gfz2013utqa  -0.53117
gfz2013uwjo  -0.49552
gfz2013uxzw  -0.52215
gfz2013veoz  -0.65152
gfz2013vjrr  -0.02226
gfz2013vldx  -0.06621
gfz2013vmrv   0.85059
gfz2013vojy  -0.43062
gfz2013vvre   1.32250
gfz2013wyfl   0.04809
gfz2013xacx   0.46353
gfz2013xahp  -0.13133
gfz2013xmzw  -0.36646
gfz2013xswc   0.54708
gfz2013xvps  -1.62430
gfz2013yodm  -0.20435
gfz2013yqtu  -0.54495
gfz2013yxhf   0.93573
gfz2013zlak  -0.05115
gfz2014amgk  -1.15850
gfz2014bzus   0.11517
gfz2014cokw   0.31506
gfz2014diuu   0.68444
gfz2014djhi   1.73160
gfz2014eflc   1.45650
gfz2014eirs   0.33601
gfz2014eoay  -0.15366
gfz2014fbli   0.51906
gfz2014ffqg  -0.73809
