# Nsamples: 166  MAD:  0.495  mean:  0.492  std:  0.703
gfz2010abfc   0.31899
gfz2010aggj   0.18323
gfz2010aimm   0.03099
gfz2010ckoc  -0.28752
gfz2010clbw   0.11982
gfz2010cllh   0.31367
gfz2010crgy   0.06517
gfz2010crir  -0.23380
gfz2010csmw   0.27039
gfz2010csqy  -0.38857
gfz2010cyid  -0.07857
gfz2010dask   0.54121
gfz2010djib  -0.32504
gfz2010drit   1.49320
gfz2010dwgy   0.13201
gfz2010eibh   1.31700
gfz2010fgbo   0.07392
gfz2010fjme   0.61766
gfz2010fnkr  -0.41420
gfz2010fqnn   0.12496
gfz2010guwa   0.51018
gfz2010habf   0.29918
gfz2010jlvp   0.07659
gfz2010ncwu   0.76934
gfz2010ngge   0.05286
gfz2010pcya  -0.87627
gfz2010qdqk   1.86440
gfz2010rkuu   1.61480
gfz2010rljv   0.51577
gfz2010rnwt   2.60950
gfz2010rpjd  -0.96615
gfz2010schp   1.43630
gfz2010tcgh   1.93650
gfz2010tmba   0.31963
gfz2010tzlz   0.02869
gfz2010tzma   0.17578
gfz2010uhjy   0.64037
gfz2010vong   0.07720
gfz2010xamh   0.69190
gfz2010xnbn   1.29910
gfz2010xpzq   0.59037
gfz2010ytzb  -0.15780
gfz2010zjun   1.28940
gfz2011ahvh   0.10143
gfz2011bpqm  -0.35848
gfz2011bsvr   0.67609
gfz2011bygs   1.63140
gfz2011bygu   0.49543
gfz2011cdge  -0.56801
gfz2011dabj  -0.17802
gfz2011dhfg   0.22870
gfz2011dpyu   0.49190
gfz2011exxq   0.79057
gfz2011paqj   1.03370
gfz2011pfls   0.63643
gfz2011ppsc   1.58980
gfz2011pwbw   0.56926
gfz2011qenl   1.22570
gfz2011sdax   0.74658
gfz2011sqco  -0.09372
gfz2011syzr  -0.29166
gfz2011tqgg   1.64540
gfz2011tsgl   0.07270
gfz2011uqry   0.49238
gfz2011vahy   0.06862
gfz2011vswj   0.45994
gfz2011wcvs   0.79429
gfz2011wkja   0.07105
gfz2011wngi   0.43471
gfz2011wtfn   0.64601
gfz2011wucg   0.37885
gfz2011wwze   0.78505
gfz2011yexx   0.11847
gfz2011zghc   0.24298
gfz2012ahac  -0.06741
gfz2012bqcf   0.47634
gfz2012byrq   1.01560
gfz2012cdju   0.29534
gfz2012cmww   0.05141
gfz2012crpb   0.89355
gfz2012cvfr   0.43284
gfz2012dejg   1.02590
gfz2012dttl   0.63684
gfz2012duwm  -0.44280
gfz2012dwwu  -0.43068
gfz2012dyck   0.24286
gfz2012dzou   1.35360
gfz2012eajr   1.23690
gfz2012ekfp   1.02690
gfz2012fuyd   1.32570
gfz2012gftg   0.00000
gfz2012ghiv   0.75248
gfz2012heih   0.77090
gfz2012qpoc   0.88708
gfz2012swbz   0.36138
gfz2012syum  -0.18256
gfz2012tisj   0.29964
gfz2012uhtc   0.05316
gfz2012umob   0.24904
gfz2012uvoa   0.50268
gfz2012wgdv   0.77510
gfz2012wgmg   0.59655
gfz2012wkki   1.81800
gfz2012wysg   0.48588
gfz2012xkln   0.51970
gfz2012xlas   1.61130
gfz2012xncm   0.50040
gfz2012xrmq   0.16094
gfz2012ylai   0.97908
gfz2013agmt   0.72728
gfz2013akkd   1.05510
gfz2013byyy  -0.07412
gfz2013cqak  -1.44830
gfz2013cvve  -0.00800
gfz2013cyvx   0.30666
gfz2013delq   0.66126
gfz2013dzvr   0.52728
gfz2013eazm   0.90975
gfz2013fnpa   0.51089
gfz2013fulo   0.24749
gfz2013fvht   0.06645
gfz2013fybd   0.25899
gfz2013gkyn   0.39386
gfz2013gxye   0.69737
gfz2013hbmi   0.50893
gfz2013hbtm   0.97728
gfz2013jfcn   0.21848
gfz2013jobl   0.39614
gfz2013kats   0.16091
gfz2013kbbg  -0.32088
gfz2013kcdb   0.40021
gfz2013kpcb   0.70331
gfz2013kqab   0.21720
gfz2013kslp   0.61072
gfz2013lbod   1.05440
gfz2013lbvl   0.65875
gfz2013lwtr   3.66510
gfz2013mdxj   0.52413
gfz2013mzaw   0.52337
gfz2013oeni   0.64394
gfz2013oizq   1.45130
gfz2013quwz   0.30780
gfz2013quyn   0.15318
gfz2013rtvy   0.10643
gfz2013rwkj   0.24175
gfz2013ryph   0.41693
gfz2013utqa   0.06591
gfz2013vmrv   0.38527
gfz2013wyfl   0.74815
gfz2013xahp   0.41018
gfz2013xmzw   0.21814
gfz2013xswc  -0.04662
gfz2013yvnj  -2.35220
gfz2013zlak   0.53832
gfz2014dihl   0.74830
gfz2014edjm   1.35130
gfz2014eflc   3.35050
gfz2014eoay  -0.13100
gfz2014eysf   1.52750
gfz2014hzzf   0.08750
gfz2014icov  -0.17870
gfz2014iltl   0.60160
gfz2014irlf   0.51343
gfz2014irln   0.84106
gfz2014irly   0.37714
gfz2014jarg   0.40114
