# Nsamples: 144  MAD:  0.549  mean:  0.138  std:  1.249
gfz2010abfc  -1.18790
gfz2010aggj  -0.43799
gfz2010azji  -0.07316
gfz2010crgy  -0.92339
gfz2010dask  -0.98991
gfz2010djib  -0.76303
gfz2010drit  -0.49826
gfz2010drun  -0.24088
gfz2010fkff   6.29300
gfz2010gcqp   0.04415
gfz2010habf   0.15983
gfz2010jlvp  -0.02987
gfz2010kcdq  -0.06635
gfz2010mdti  -0.17824
gfz2010mqaj   2.47760
gfz2010mqzz  -0.95614
gfz2010ngge  -0.19933
gfz2010pclq   0.40326
gfz2010pgpo   5.12660
gfz2010pzza  -0.66107
gfz2010qdqk   0.72933
gfz2010qrta  -0.18849
gfz2010rkuu   5.88550
gfz2010rljv   5.97190
gfz2010rnwt  -0.14231
gfz2010schp   5.07030
gfz2010tcgh   0.19060
gfz2010tmba   0.31552
gfz2010tpcj  -0.46961
gfz2010tqyo   0.98909
gfz2010ugws   1.94690
gfz2010uhjy  -0.69734
gfz2010umyp  -1.15960
gfz2010vong  -0.73787
gfz2010wwnq  -0.42301
gfz2010xamh  -0.59238
gfz2010xnbn   0.49533
gfz2011fnie  -0.24908
gfz2011mjje  -0.99236
gfz2011ndhh  -0.66124
gfz2011nfcz  -0.79681
gfz2011nhby  -0.11058
gfz2011nijp  -1.02950
gfz2011nilw  -1.61730
gfz2011niuw  -1.08710
gfz2011nuqo  -0.88665
gfz2011qenl   0.29299
gfz2011sdax   0.21092
gfz2011sxno   0.11934
gfz2011uqry  -0.82390
gfz2011vahy   0.21084
gfz2011wcvs  -0.67917
gfz2011xgbc   0.02264
gfz2011zghc   0.18399
gfz2012amjx  -1.77170
gfz2012bcvn  -0.06810
gfz2012bqcf  -0.43973
gfz2012byrq   0.17796
gfz2012cksh  -0.02438
gfz2012cntu   0.59904
gfz2012cvfr   0.03761
gfz2012dyck   0.49708
gfz2012ekfp   1.56290
gfz2012lyyr   1.30930
gfz2012mdzf  -0.22522
gfz2012nnqu   0.36635
gfz2012nqvd  -0.26073
gfz2012oafg  -0.06468
gfz2012oehy  -0.33730
gfz2012oork   1.97870
gfz2012phns  -0.59395
gfz2012suqd   0.43472
gfz2012sxbo  -0.66375
gfz2012syum  -0.20376
gfz2012tisj  -0.23569
gfz2012trfq   0.48209
gfz2012uhsx  -0.45522
gfz2012uhtc   0.00000
gfz2012ulei  -0.32815
gfz2012uvoa  -0.23599
gfz2012uzww  -0.35013
gfz2012vrqz   1.79460
gfz2012wkki  -0.05890
gfz2012wysg   0.03704
gfz2012xcsf  -0.48061
gfz2012xncm   0.12634
gfz2012xqxw  -0.91818
gfz2012xxdj   0.82434
gfz2012yncm   0.84793
gfz2012zhyz   0.21064
gfz2013agmt  -0.11819
gfz2013akkd   0.41807
gfz2013cvve  -0.99587
gfz2013cyvx  -0.10583
gfz2013delq  -0.40726
gfz2013dftb  -0.12867
gfz2013dzvr  -0.23360
gfz2013fnpa  -0.12216
gfz2013fvht   0.53281
gfz2013gurk   0.07808
gfz2013hbtm   0.54093
gfz2013icql   0.95666
gfz2013iuyv  -0.71058
gfz2013iwzn  -0.84028
gfz2013jfcn   0.19512
gfz2013jobl  -0.36568
gfz2013kats  -0.40191
gfz2013kbbg   0.95362
gfz2013kcdb   0.56004
gfz2013kpcb  -0.31290
gfz2013rocs  -0.20224
gfz2013udtw  -0.13879
gfz2013utqa  -0.19490
gfz2013uwjo   0.21262
gfz2013uxzw  -0.53487
gfz2013vjrr   0.68799
gfz2013vmrv   0.17840
gfz2013vnwa   0.56342
gfz2013vojy  -0.03852
gfz2013vvre   0.56831
gfz2013vzel  -1.38670
gfz2013yqtu  -0.24665
gfz2013yxhf   0.92077
gfz2013zfbz  -0.10474
gfz2013zlak   0.20784
gfz2014amgk   0.70677
gfz2014ayxf   0.23828
gfz2014eirs   0.34513
gfz2014flxk  -0.87121
gfz2014fsir  -0.18699
gfz2014fxte  -0.43712
gfz2014fxuy  -0.52211
gfz2014gnbw  -0.12319
gfz2014hqhv  -0.54187
gfz2014huqh   0.04564
gfz2014hzzf  -0.08060
gfz2014icov   1.08180
gfz2014igrp  -0.01427
gfz2014iltl  -0.07067
gfz2014irlf  -0.28597
gfz2014irln   0.00000
gfz2014iusw   0.04410
gfz2014jarg   0.29441
gfz2014jayh   0.06964
