# Nsamples: 281  MAD:  0.760  mean: -0.200  std:  0.881
gfz2010cuzg   0.10577
gfz2010cvam  -0.75584
gfz2010cyid  -1.60080
gfz2010dask  -0.34917
gfz2010diid   1.83460
gfz2010djib  -0.84024
gfz2010dmij  -0.78268
gfz2010dmkd   0.36755
gfz2010drit  -0.29323
gfz2010drml  -0.81248
gfz2010drmq  -0.81248
gfz2010drng  -1.68170
gfz2010drpv  -2.03920
gfz2010drun  -1.44280
gfz2010dsjq  -0.81835
gfz2010dslu  -1.83350
gfz2010dtgc   1.31030
gfz2010dtyx   1.03140
gfz2010dumv  -1.55600
gfz2010dwgy  -0.24576
gfz2010dxhq  -2.12380
gfz2010eibh   0.88089
gfz2010euue   1.58370
gfz2010ewyj   0.15107
gfz2010extu  -1.60300
gfz2010faly  -0.42709
gfz2010fjio   1.50850
gfz2010fjme  -1.00810
gfz2010fkff  -0.41585
gfz2010fkpa   2.77330
gfz2010fnkr   0.36430
gfz2010fopf   0.18438
gfz2010fpvw  -0.30051
gfz2010fqnn  -0.70954
gfz2010fqzh   0.02060
gfz2010ftfq  -0.25088
gfz2010fvfz  -0.37855
gfz2010fxhh  -0.48437
gfz2010gcrn  -1.32830
gfz2010gnvp  -0.48878
gfz2010gonu  -0.79505
gfz2010gooc   0.01329
gfz2010gpjl  -1.69630
gfz2010guwa  -1.34470
gfz2010habf  -0.12710
gfz2010hdgr  -0.61848
gfz2010hdxn  -1.84570
gfz2010hesh  -1.32440
gfz2010hexh  -1.65680
gfz2010hllp  -0.42613
gfz2010hsgv  -0.15388
gfz2010hueh   1.01380
gfz2010huzl   1.72040
gfz2010hxan  -0.21473
gfz2010iaay  -0.08999
gfz2010ifhd   0.04299
gfz2010ifru  -0.17540
gfz2010ixjl  -0.45401
gfz2010izag   0.34318
gfz2010izgb   0.06437
gfz2010jcby  -0.49294
gfz2010jcpq   0.48878
gfz2010jdhk   0.45104
gfz2010jkrp  -1.80120
gfz2010jlvp  -0.17380
gfz2010jpkn  -0.28794
gfz2010juke   1.73170
gfz2010jvsi  -0.57162
gfz2010kcdq  -0.59968
gfz2010kcyz  -0.47675
gfz2010kuzb  -1.69280
gfz2010ljmp   0.54135
gfz2010ljol  -1.82300
gfz2010ljzf  -1.65220
gfz2010lswe   1.11380
gfz2010mdti  -0.73174
gfz2010mjdl  -1.04320
gfz2010mpvc   1.36780
gfz2010mqaj  -2.92750
gfz2010mqzz  -1.10150
gfz2010mvmb  -0.80275
gfz2010mvtj  -0.71746
gfz2010myqg   0.12056
gfz2010mzfb  -2.60840
gfz2010ncwu  -1.30710
gfz2010ngge  -0.98763
gfz2010nlai   0.09886
gfz2010nwyk   0.14603
gfz2010ocug  -0.88415
gfz2010oguu  -0.07998
gfz2010oibn  -1.95290
gfz2010ojhe  -0.36102
gfz2010okpc  -1.32940
gfz2010osaq   0.58860
gfz2010ovvg  -0.33580
gfz2010pclq  -1.01300
gfz2010pcya  -2.13060
gfz2010pgrf  -0.13256
gfz2010pngv  -0.19844
gfz2010prnw   0.54908
gfz2010pvnn  -0.72158
gfz2010pxoi   0.04198
gfz2010qbcy  -0.98777
gfz2010qdqk  -0.30335
gfz2010qloa   0.28929
gfz2010qrix   0.63514
gfz2010qrta   0.20810
gfz2010qylh  -0.19404
gfz2010rdip  -0.32264
gfz2010rkuu  -1.20800
gfz2010tmba  -0.36564
gfz2010tpcj  -0.50122
gfz2010tqyo  -0.82721
gfz2010tzki   1.36850
gfz2010tzlz   0.17373
gfz2010tzma  -0.30169
gfz2010ugws  -0.43106
gfz2010uhjy  -0.20009
gfz2010uidg  -1.18140
gfz2010ujqn  -0.23748
gfz2010umxj  -0.02626
gfz2010umyp  -0.22035
gfz2010uogw  -0.47128
gfz2010uopf  -0.30868
gfz2010ussf  -0.17461
gfz2010utsc   0.30261
gfz2010vdcf  -0.21036
gfz2010vkca  -0.99460
gfz2010vong  -0.26275
gfz2010vyri  -0.21843
gfz2010wakc  -1.05380
gfz2010wplk  -0.35553
gfz2010wwhf  -0.26587
gfz2010wwnq  -0.67636
gfz2010wyso   0.57146
gfz2010xamh  -1.15730
gfz2010xezr   0.70316
gfz2010xnbn  -0.19373
gfz2010xvev  -0.50856
gfz2010xytc  -1.12770
gfz2010yfdr  -0.85772
gfz2010yilf   0.36623
gfz2010yspe   2.28320
gfz2010zjun  -0.66598
gfz2011ahvh  -1.13680
gfz2011ameb   0.64746
gfz2011amst  -1.69100
gfz2011awsv  -0.66352
gfz2011bcvc  -0.74607
gfz2011bffb   0.42638
gfz2011bpqm   0.40371
gfz2011bsvr  -1.02790
gfz2011bygs  -0.46760
gfz2011bygu  -0.18534
gfz2011cdge  -0.37765
gfz2011cfyy   0.34261
gfz2011cjuz  -0.25872
gfz2011dabj   0.16002
gfz2011dhfg  -0.78936
gfz2011dhqk  -0.77553
gfz2011emzr  -0.91496
gfz2011etkc  -0.19432
gfz2011fnie  -0.36454
gfz2011fnuk  -0.58137
gfz2011fszl   0.08045
gfz2011fzcw  -2.51390
gfz2011gcct  -0.26884
gfz2011gdli  -0.18012
gfz2011gfer  -0.25361
gfz2011ggnl  -1.19800
gfz2011gkdx   1.06410
gfz2011gnbk  -0.24528
gfz2011gpyr  -0.57422
gfz2011grby  -0.39879
gfz2011hbqc  -0.77064
gfz2011hffq  -0.39181
gfz2011hqjs  -0.37992
gfz2011jdoz   0.06237
gfz2011ofpj   2.81850
gfz2011qenl   0.50132
gfz2011qtoy   2.62580
gfz2011qukj  -0.84873
gfz2011rbuo  -0.77906
gfz2011rkau  -0.12381
gfz2011rnny   0.95758
gfz2011rnsp   0.34072
gfz2011scma   0.80153
gfz2011sdax  -0.06696
gfz2011sdpl   0.84868
gfz2011sqco  -0.00825
gfz2011sxno   0.04244
gfz2011syvj  -0.10440
gfz2011syzr  -0.39717
gfz2011taqr  -0.57955
gfz2011tgon  -0.81994
gfz2011tlwl   0.07527
gfz2011tqgg  -0.37714
gfz2011tsgl   0.22471
gfz2011udjs  -0.10781
gfz2011uqlz   0.23281
gfz2011uqry  -0.59298
gfz2011vahy  -0.41138
gfz2011vimn  -0.61578
gfz2011wcvs  -0.83908
gfz2011wkja  -0.45105
gfz2011wpzt  -0.09217
gfz2011wucg  -0.62827
gfz2011wwze   0.34039
gfz2011xdox  -0.26867
gfz2011xgbc   0.29621
gfz2011ytob   0.97309
gfz2012vqmq   0.36263
gfz2012vrqz  -0.76575
gfz2012wgmg  -0.52010
gfz2012wkki   0.67586
gfz2013mdxj   0.58716
gfz2013mvgq   1.51350
gfz2013mzaw   0.30214
gfz2013ntiu   0.58042
gfz2013ohnj   0.51397
gfz2013oizq  -0.24888
gfz2013okac   0.26034
gfz2013okxa  -0.96478
gfz2013orot  -0.07888
gfz2013oruq   0.68697
gfz2013phhi   0.66864
gfz2013pkmz   0.27824
gfz2013qapj  -0.17334
gfz2013qigb  -0.43554
gfz2013qmkt  -1.42940
gfz2013qoak  -0.63758
gfz2013qogb   0.08504
gfz2013quwz  -0.32943
gfz2013quyn  -0.23325
gfz2013qxof   1.53670
gfz2013rfik   0.20595
gfz2013rocs   0.08581
gfz2013rtvy  -0.78470
gfz2013rwkj  -0.53235
gfz2013sbsp   0.30689
gfz2013skvq   0.38686
gfz2013stup  -1.25260
gfz2013swnj   0.39903
gfz2013taeb   1.12160
gfz2013tdsx   0.20894
gfz2013tekq  -0.00000
gfz2013tert   0.51683
gfz2013tkcg   0.02066
gfz2013tmyj   1.07000
gfz2013tnrp   0.51481
gfz2013trsq   0.10088
gfz2013ubgt   1.02570
gfz2013udtw   0.56783
gfz2013ujze   2.33720
gfz2013unuv   0.02859
gfz2013upqj   1.11600
gfz2013utqa  -0.13521
gfz2013uwjo  -0.73554
gfz2013uxzw  -0.75062
gfz2013vdam  -0.02813
gfz2013vjrr   0.16220
gfz2013vwkh  -0.32627
gfz2013wyfl   0.22626
gfz2013xacx   0.32895
gfz2013xahp  -0.02687
gfz2013xmzw   0.24408
gfz2013xofz   0.31507
gfz2013yxhf   0.13630
gfz2013zfbz   0.45187
gfz2013ziix  -0.58315
gfz2014ajgi  -0.34483
gfz2014amgk   0.30740
gfz2014aqop   0.03118
gfz2014ayxf   0.34584
gfz2014bdju   0.28828
gfz2014bgxe  -0.73209
gfz2014bkra   0.63613
gfz2014cncl   1.57990
gfz2014cokw   0.13528
gfz2014cwcj  -1.86160
gfz2014dggw   0.36596
