# Nsamples: 118  MAD:  0.640  mean: -0.369  std:  0.758
gfz2010aggj  -0.90049
gfz2010aseg  -0.06075
gfz2010bklj  -0.71158
gfz2010btme   2.28190
gfz2010ccwc   0.00000
gfz2010ccye  -0.66105
gfz2010clbw  -0.65635
gfz2010cllh  -0.58735
gfz2010crgy  -1.40900
gfz2010crir  -1.34300
gfz2010dask   0.18613
gfz2010djib  -1.31350
gfz2010drit  -0.74334
gfz2010dxhq   0.92548
gfz2010gxki   0.49737
gfz2010habf  -0.48985
gfz2010hueh   0.50154
gfz2010iaay  -0.49001
gfz2010jlvp  -0.76303
gfz2010mdti  -0.48986
gfz2010ncwu   0.70127
gfz2010ngge  -0.61466
gfz2010pclq   0.10955
gfz2010pcya  -1.98320
gfz2010rkuu  -0.24547
gfz2010rljv  -0.00688
gfz2010rnwt   2.68280
gfz2010tmba  -0.52047
gfz2010tpcj  -0.40380
gfz2010xnbn   0.61638
gfz2010xpzq  -0.73699
gfz2010yfdr  -0.09519
gfz2010zjun  -1.48320
gfz2011ahvh  -1.06070
gfz2011amst   1.32200
gfz2011bcvc   0.36572
gfz2011bpqm  -0.88243
gfz2011bsvr  -1.50870
gfz2011bygs  -0.13357
gfz2011bygu  -0.76692
gfz2011cdge  -1.22520
gfz2011dabj  -1.11580
gfz2011dhfg  -0.81479
gfz2011dpyu  -0.84296
gfz2011fnie  -0.81270
gfz2011fszl  -0.10705
gfz2011fzcw  -0.08181
gfz2011ggnl   0.27551
gfz2011gnbk  -0.59494
gfz2011gpyr  -0.33879
gfz2011hbqc  -0.49519
gfz2011hqjs  -0.35136
gfz2011kjzt  -1.04630
gfz2011kjzv  -0.94300
gfz2011lmug  -0.20916
gfz2011ndhh  -0.49622
gfz2011nejw  -0.60111
gfz2011nhvt   0.70834
gfz2011nijp  -1.57190
gfz2011nilw  -1.16720
gfz2011niuw  -1.04320
gfz2011nlum   0.49044
gfz2011nsiy   0.52532
gfz2011nuqo  -0.68003
gfz2011oazk  -1.11240
gfz2011ofpj  -0.85880
gfz2011ohgj  -0.97003
gfz2011oslk  -0.91933
gfz2011paqj  -0.77163
gfz2011ppsc  -0.87945
gfz2011pwbw  -0.07906
gfz2011uqry  -0.11721
gfz2011vahy  -0.64884
gfz2011vbxv   0.63585
gfz2011vcyx  -0.79153
gfz2011vtzv  -0.88767
gfz2011wucg  -0.68845
gfz2012phns  -0.64175
gfz2012socz   0.04684
gfz2012sqsc   0.20645
gfz2012suqd   0.40365
gfz2012sxbo   0.20659
gfz2012syum  -1.40960
gfz2012tvgw   0.92385
gfz2012uhtc  -0.30708
gfz2013byyy  -1.10630
gfz2013cvve   0.51820
gfz2013cyvx  -0.04986
gfz2013delq  -0.37647
gfz2013dzvr  -0.71425
gfz2013efct  -0.66755
gfz2013fnpa  -0.81519
gfz2013fulo  -1.00760
gfz2013lbvl  -0.60750
gfz2013mdxj   0.07925
gfz2013mvgq   0.95956
gfz2013mzaw  -0.60159
gfz2013oizq  -0.06943
gfz2013oywh  -0.37894
gfz2013pkmz   0.07860
gfz2013qdpv  -0.42485
gfz2013qigb  -1.12580
gfz2013qoak  -0.80007
gfz2013quwz  -1.15990
gfz2013rdmn   0.40545
gfz2013taeb   1.21640
gfz2013tjub  -1.38120
gfz2013utqa  -0.87522
gfz2013uwjo   0.61388
gfz2013uxzw  -0.01719
gfz2013vmrv  -0.14852
gfz2013vvre   0.74597
gfz2013vzel  -1.27570
gfz2013xjmo  -0.37132
gfz2013xlic   0.00000
gfz2013xmzw  -0.89737
gfz2013xswc  -0.86523
gfz2013yqtu  -0.33372
