# Nsamples: 151  MAD:  0.740  mean: -0.119  std:  1.197
gfz2010abfc  -0.20783
gfz2010aggj  -0.04942
gfz2010ccye   0.59374
gfz2010clbw  -0.94663
gfz2010crir  -0.55527
gfz2010cyid   1.60820
gfz2010dask  -0.16679
gfz2010djib  -1.30000
gfz2010drit   0.51300
gfz2010drml   6.46860
gfz2010drmq   6.46860
gfz2010drun  -0.10821
gfz2010dxhq   0.77408
gfz2010iaay   0.86305
gfz2010izag   1.53190
gfz2010jlvp  -0.62152
gfz2010pcya  -0.88821
gfz2010rljv   1.53550
gfz2010uidg   0.87819
gfz2010wakc  -1.19800
gfz2010xpzq  -0.99491
gfz2010yfdr   0.38206
gfz2010zjun   0.10926
gfz2011ahvh  -0.80374
gfz2011bcvc   0.50521
gfz2011bpqm  -0.58538
gfz2011bsvr  -1.40260
gfz2011bygs   0.00000
gfz2011bygu  -0.10873
gfz2011cdge  -0.45246
gfz2011dabj  -1.52880
gfz2011dpyu  -0.61848
gfz2011emzr  -0.04191
gfz2011exxq   2.02730
gfz2011fnie   0.22286
gfz2011fszl  -0.14826
gfz2011gnbk  -0.17853
gfz2011gpyr   1.08140
gfz2011hqjs  -0.28230
gfz2011kjzt  -0.87734
gfz2011kjzv  -0.56936
gfz2011kyzy   0.27729
gfz2011paqj  -0.32009
gfz2011pfwq  -0.75235
gfz2011ppsc   0.73696
gfz2011qenl   3.03810
gfz2011qukj  -1.07270
gfz2011rnny  -0.58779
gfz2011sdax  -0.37434
gfz2011sqco  -0.12354
gfz2011sxno   0.84207
gfz2011taqr   0.35090
gfz2011tdjj  -0.27770
gfz2011tlwl   3.05880
gfz2011tqgg  -0.40042
gfz2011tsgl  -1.11030
gfz2011txxs  -2.05350
gfz2011unud  -1.76710
gfz2011uqry  -0.05877
gfz2011vahy  -0.30250
gfz2011vbxv  -0.20100
gfz2011vcyx  -0.50644
gfz2011vsag  -1.43280
gfz2011vtzv  -0.51454
gfz2011wcvs   0.08346
gfz2011wucg  -0.67566
gfz2011yexx  -0.60156
gfz2011ymji   0.27982
gfz2011ytob   0.64911
gfz2011zghc   0.31845
gfz2012amjx  -0.58239
gfz2012bytv  -1.97550
gfz2012byuk  -0.71726
gfz2012cdju  -0.72515
gfz2012cksh   0.95767
gfz2012cntu  -0.20371
gfz2012crpb   0.77318
gfz2012cvfr  -0.54521
gfz2012dejg   1.58920
gfz2012dwwu  -1.14650
gfz2012dysu  -1.33270
gfz2012ekfp  -0.01494
gfz2012gpcd  -0.26583
gfz2012hzur  -1.39400
gfz2012iblo  -0.37610
gfz2012iijk  -1.18410
gfz2012imuo  -0.67225
gfz2012kmbo  -0.21003
gfz2012ldjj  -0.76145
gfz2012lyyr   0.02856
gfz2012mdzf   0.20967
gfz2012mjuu  -0.89527
gfz2012mmiw  -0.68180
gfz2012mrqk  -1.76340
gfz2012nnqu  -1.06620
gfz2012oafg  -0.14931
gfz2012oehy  -0.39274
gfz2012ofnx  -0.63895
gfz2012phns   0.47195
gfz2012socz   0.00836
gfz2012sopp  -0.53808
gfz2012sqsc   0.22319
gfz2012suqd  -0.79534
gfz2012swbz  -0.65155
gfz2012sxbo   0.84130
gfz2012syum  -0.91596
gfz2012tisj   1.32980
gfz2012trfq   1.04200
gfz2012tyoz  -0.66027
gfz2012uegq   0.11722
gfz2012uhtc   0.06747
gfz2012uvoa  -0.63274
gfz2012uzww  -0.15211
gfz2012vnve  -0.21913
gfz2012vrqz   0.13390
gfz2012wgmg  -0.77898
gfz2012wowu   1.38400
gfz2012wysg  -0.89916
gfz2012xcsf  -0.10313
gfz2012xlas  -0.64376
gfz2012xncm  -2.63580
gfz2012xxdj  -0.67677
gfz2013akkd   0.03394
gfz2013bwgw   0.92055
gfz2013byyy  -0.76461
gfz2013cvve  -1.32880
gfz2013cyvx   0.49258
gfz2013delq  -0.85509
gfz2013dzvr  -0.23533
gfz2013rdmn  -0.15017
gfz2013rtvy  -0.61184
gfz2013rwkj  -0.28806
gfz2013skvq   0.67265
gfz2013tdsx  -0.29887
gfz2013tjub  -1.16830
gfz2013tmyj  -2.37890
gfz2013tnff  -2.33490
gfz2013ttmk   1.05350
gfz2013uwjo   0.59924
gfz2013uxzw   1.87030
gfz2013vjrr   0.16740
gfz2013vvre   0.79853
gfz2013vwkh  -0.21537
gfz2013vzel  -0.16666
gfz2013wyfl   0.09211
gfz2013xahp  -0.36548
gfz2013xmzw   0.03031
gfz2013xswc  -1.16030
gfz2013xycz  -0.13394
gfz2013zfbz   0.48391
gfz2013ziix  -1.38950
