# Nsamples: 70  MAD:  0.588  mean: -0.283  std:  0.951
gfz2010fjme   1.75650
gfz2010fkff   1.90890
gfz2010mdti  -0.47978
gfz2010ncwu  -0.88133
gfz2010ngge  -0.93794
gfz2010pzza  -1.18820
gfz2010qdqk   0.47176
gfz2012alti  -0.68965
gfz2012wkki  -0.29866
gfz2012xcsf   0.39782
gfz2012xlfo   0.20526
gfz2012xncm  -0.91935
gfz2012xxdj  -0.09810
gfz2013agmt  -0.12973
gfz2013cvve  -1.80460
gfz2013cyvx  -0.21298
gfz2013delq   0.02642
gfz2013dzvr  -0.66721
gfz2013efct  -0.62337
gfz2013enqo   0.56002
gfz2013fmcd  -1.07250
gfz2013fnpa   1.04870
gfz2013fulo  -0.55556
gfz2013fvht  -0.22596
gfz2013gurk  -0.76746
gfz2013icql  -0.54383
gfz2013iuyv  -0.10382
gfz2013iwzn   1.22700
gfz2013jfcn  -0.83048
gfz2013jobl  -0.82967
gfz2013kats  -0.68588
gfz2013kbbg   0.77838
gfz2013kbbn  -0.53172
gfz2013lbod  -0.26162
gfz2013lbvl  -0.32782
gfz2013mvgq  -0.13453
gfz2013nkgt  -0.99188
gfz2013oizq  -0.10587
gfz2013oywh   0.13199
gfz2013phhi  -0.95722
gfz2013pkmz  -2.18520
gfz2013qigb  -0.25581
gfz2013qoak  -0.87992
gfz2013qogb   0.60339
gfz2013quwz  -0.31015
gfz2013tjub  -0.43850
gfz2013uafv  -0.56344
gfz2013utqa  -1.18440
gfz2013uwjo  -0.00000
gfz2013uxzw   4.85100
gfz2013vmrv  -0.22162
gfz2013vojy  -0.83513
gfz2013vvre  -1.71230
gfz2013wyfl  -0.24301
gfz2013xmzw  -0.83296
gfz2013xswc  -0.47595
gfz2013yqtu  -1.26710
gfz2013yxhf  -0.13981
gfz2013zlak  -0.01934
gfz2014flxk  -0.80404
gfz2014huqh  -0.16164
gfz2014hzzf  -1.08840
gfz2014icov  -0.03814
gfz2014igrp  -0.44878
gfz2014iltl   0.07024
gfz2014irlf  -0.86584
gfz2014irln  -0.71536
gfz2014iusw  -0.56598
gfz2014jarg   0.52225
gfz2014jayh  -0.27840
