# Nsamples: 95  MAD:  0.669  mean:  0.034  std:  0.976
gfz2010abfc  -0.51316
gfz2010crgy  -0.38896
gfz2010crir  -1.15830
gfz2010cyid   1.62880
gfz2010dask   0.24182
gfz2010diid  -0.90007
gfz2010djib  -0.75430
gfz2010fjme   0.06165
gfz2010habf   0.27263
gfz2010hdxn  -0.07356
gfz2010hueh   2.14360
gfz2010izag  -0.27306
gfz2010jcpq  -1.61920
gfz2010jlvp  -0.65928
gfz2010mdti   0.70101
gfz2010mqaj   4.24280
gfz2010ngge  -0.40196
gfz2010pclq   0.31139
gfz2010pgpo   0.80935
gfz2010pgrf   2.33150
gfz2010rkuu   0.43496
gfz2010rljv   0.76491
gfz2010tmba   0.90528
gfz2010wakc  -0.56671
gfz2010xamh  -0.32445
gfz2010xpzq   0.45509
gfz2010yfdr   0.46282
gfz2010zjun   0.55208
gfz2011ahvh  -0.15720
gfz2011bpqm   0.26617
gfz2011bsvr  -0.09958
gfz2011cjuz   0.69194
gfz2011dabj   0.02459
gfz2011dpyu  -0.28865
gfz2011fnuk  -0.38633
gfz2011mjje  -0.66075
gfz2011ndhh  -0.29748
gfz2011nijp  -1.12860
gfz2011nilw  -0.31422
gfz2011niuw  -0.80004
gfz2011nuqo  -0.28293
gfz2011oslk  -0.14747
gfz2011owqa  -3.00380
gfz2012suqd   0.46187
gfz2012swbz  -0.28845
gfz2012sxbo  -1.62370
gfz2012syum  -0.65981
gfz2012wmmw  -1.64190
gfz2012wysg   0.78589
gfz2013byyy  -0.25271
gfz2013cpjc  -0.07940
gfz2013cvve   0.15218
gfz2013fulo   0.24968
gfz2013fybd  -0.79116
gfz2013hbmi   0.76725
gfz2013icql  -0.15586
gfz2013iuyv   0.88519
gfz2013iwzn   0.24480
gfz2013jfcn   0.49201
gfz2013jobl  -0.06179
gfz2013kats   0.03525
gfz2013kcdb   0.25147
gfz2013kpcb  -0.24280
gfz2013kqab   0.57794
gfz2013lbvl   0.41387
gfz2013mdxj   0.40359
gfz2013mzaw   0.97834
gfz2013oeni  -0.29538
gfz2013oizq   0.27369
gfz2013phhi   0.74695
gfz2013qigb   0.17003
gfz2013qoak  -0.40544
gfz2013quwz  -0.29348
gfz2013tjub  -0.78973
gfz2013utqa  -0.36169
gfz2013uwjo  -1.85910
gfz2013vmrv   1.22710
gfz2013vvre  -0.11289
gfz2013wpns  -0.51139
gfz2013wyfl   0.78336
gfz2013xahp   0.04141
gfz2013xmzw   1.02510
gfz2013xswc   0.15812
gfz2013yqtu  -0.58711
gfz2013yxhf   2.19970
gfz2013zlak  -0.16362
gfz2014ayxf   1.04790
gfz2014bgxe   0.03415
gfz2014bkra   0.15324
gfz2014byes  -2.86480
gfz2014djhi   1.19890
gfz2014esez  -0.20060
gfz2014evyu  -0.21475
gfz2014flxk  -0.44959
gfz2014fsir   0.26679
