# Nsamples: 474  MAD:  0.649  mean: -0.452  std:  0.750
gfz2010ddan   1.48980
gfz2010diid  -0.44240
gfz2010djib  -1.65960
gfz2010dmij  -0.31752
gfz2010dmkd   1.00970
gfz2010drit  -0.28992
gfz2010drml  -1.88940
gfz2010drmq  -1.88940
gfz2010dslu  -0.76044
gfz2010dtgc  -0.53665
gfz2010dtyx   0.40301
gfz2010dumv  -1.19310
gfz2010dwgy  -0.41228
gfz2010dxhq  -1.84290
gfz2010eepd  -0.29338
gfz2010eibh   0.95518
gfz2010ekvl   1.27400
gfz2010ethu  -1.26460
gfz2010ewyj   0.17517
gfz2010extu  -1.90420
gfz2010faly  -0.45921
gfz2010fgbo  -0.24751
gfz2010fjio  -0.37002
gfz2010fjme  -1.65640
gfz2010fkff  -0.60393
gfz2010fnkr  -0.54091
gfz2010fpvw  -0.87567
gfz2010fqnn  -1.39110
gfz2010ftfq   0.08212
gfz2010fvfz   0.11113
gfz2010fxhh  -0.30040
gfz2010fxut   0.39466
gfz2010gcqp  -0.35735
gfz2010gcrn  -1.46190
gfz2010gnvp  -0.23565
gfz2010gonu  -1.03270
gfz2010habf  -0.31090
gfz2010hdgr  -0.31610
gfz2010hdxn  -1.33490
gfz2010hesh  -1.27140
gfz2010hllp  -1.21710
gfz2010hsgv  -0.42537
gfz2010hueh  -0.32519
gfz2010huzl   4.27690
gfz2010hxan  -0.37862
gfz2010iaay  -0.90194
gfz2010iawy  -0.59677
gfz2010ifhd  -0.42475
gfz2010inbs  -0.04677
gfz2010ioad  -1.53310
gfz2010ixjl  -0.72470
gfz2010izag   0.32581
gfz2010jcby  -0.90624
gfz2010jcpq   0.12044
gfz2010jdhk   0.38217
gfz2010jgwj  -0.17124
gfz2010jlvp  -0.99438
gfz2010jpkn  -0.23898
gfz2010juke  -0.08836
gfz2010jvsi  -0.92394
gfz2010kcdq  -1.13210
gfz2010kcyz  -0.73199
gfz2010kuzb  -0.73447
gfz2010kwks  -2.06110
gfz2010ljmp   0.59778
gfz2010ljol  -1.52840
gfz2010ljzf  -1.68120
gfz2010lswe   0.78840
gfz2010mdti  -0.74507
gfz2010mpvc   0.32544
gfz2010mqaj  -1.79950
gfz2010myqg  -0.23029
gfz2010ncwu  -0.56623
gfz2010ngge  -1.31900
gfz2010nkrw  -1.24710
gfz2010nlai   0.28829
gfz2010nteg  -1.52240
gfz2010oguu   0.03955
gfz2010ogwn   1.51620
gfz2010okpc  -0.93397
gfz2010onxm  -1.31000
gfz2010ovvg  -0.72023
gfz2010pclq  -0.35458
gfz2010pcya  -2.30800
gfz2010pgpo  -0.49386
gfz2010pvnn  -1.45140
gfz2010qdqk  -0.52336
gfz2010qqqx  -1.73390
gfz2010qrix   0.52166
gfz2010qrta  -0.07042
gfz2010rkuu  -1.40570
gfz2010rljv   0.03616
gfz2010rmua  -0.81273
gfz2010rnwt  -2.52010
gfz2010rpjd  -1.52420
gfz2010schp  -0.69996
gfz2010scht  -0.35230
gfz2010tcgh  -0.16845
gfz2010tfar   0.13982
gfz2010tgmo  -0.43721
gfz2010vong  -0.21574
gfz2010xamh  -1.74940
gfz2010xaxw  -0.32599
gfz2010xnbn  -0.95571
gfz2010xpzq  -0.16760
gfz2010yfdr  -0.82513
gfz2010yilf   0.32547
gfz2011udjs   0.31684
gfz2011uowi  -0.51561
gfz2011uqlz  -0.57876
gfz2011uqry  -0.62402
gfz2011vahy  -0.27362
gfz2011vbxv  -0.43572
gfz2011vcyx  -1.10350
gfz2011vimn  -0.51338
gfz2011vtzv  -0.27054
gfz2011wcvs  -0.94851
gfz2011wgoa  -0.26637
gfz2011wgvh   1.19200
gfz2011wkja  -1.03240
gfz2011wkyx  -0.19719
gfz2011wwze   0.01437
gfz2011wyei  -1.22010
gfz2011wzss  -0.02081
gfz2011xdox  -0.45228
gfz2011xgbc  -0.14113
gfz2011xkka  -0.12270
gfz2011xpcq  -0.55155
gfz2011xxng  -0.37618
gfz2011yexx  -1.13230
gfz2011ypfh  -0.06115
gfz2011zdyf   0.18579
gfz2011zghc  -0.41945
gfz2011zkbt  -1.55860
gfz2012adja   0.69750
gfz2012ahac  -1.05000
gfz2012aisj  -1.21880
gfz2012alti   0.19415
gfz2012amjx  -0.56554
gfz2012arlo   0.23656
gfz2012atjr  -0.64766
gfz2012bnwa  -0.11042
gfz2012bqcf  -0.66315
gfz2012byrq  -1.14040
gfz2012bytv  -0.18531
gfz2012byuk  -1.95910
gfz2012cdju  -0.56455
gfz2012cksh  -0.47717
gfz2012cmww  -0.86050
gfz2012crpb  -0.85201
gfz2012cvfr  -0.21628
gfz2012dcjd  -0.18529
gfz2012dnig   0.00000
gfz2012dttl   0.17940
gfz2012dwwu  -1.59880
gfz2012dyck  -0.10102
gfz2012dysu  -1.98580
gfz2012dzou  -2.03170
gfz2012eajr  -2.26930
gfz2012ekfp  -0.30013
gfz2012ekro   0.57471
gfz2012enio  -1.02820
gfz2012evxn  -1.43960
gfz2012fuyd   0.72450
gfz2012gdye  -0.32850
gfz2012gnow  -0.07227
gfz2012gpcd  -1.68650
gfz2012heih   0.08844
gfz2012hvtu   0.45371
gfz2012hzhn  -1.23730
gfz2012hzur  -1.18620
gfz2012imsm  -1.84050
gfz2012iphs  -1.73990
gfz2012juem   0.35266
gfz2012kadi  -1.07060
gfz2012ldjj  -0.54977
gfz2012luzm  -1.01960
gfz2012lyqs   1.30720
gfz2012lyyr  -0.60903
gfz2012mjuu  -0.87147
gfz2012mjzl   0.27043
gfz2012mmiw   0.44011
gfz2012mowv  -0.88173
gfz2012mpzo   0.44912
gfz2012mrqk  -1.40000
gfz2012mrwu  -0.34492
gfz2012mvgu  -0.31953
gfz2012mxvk  -0.66297
gfz2012nfos   1.15080
gfz2012nldz  -0.59145
gfz2012nnqu  -1.73760
gfz2012nnsl  -1.65950
gfz2012nqvd  -0.72569
gfz2012oafg  -0.48602
gfz2012oehy  -0.33309
gfz2012ofnx   0.31343
gfz2012ohgd   0.05117
gfz2012onhu  -0.88595
gfz2012oozp  -0.26889
gfz2012pdav   0.59014
gfz2012phns  -0.24044
gfz2012pmuj  -3.74200
gfz2012pokk  -0.62112
gfz2012ppcq  -0.36443
gfz2012pumy  -0.53785
gfz2012qfah  -0.37715
gfz2012qllj  -1.26570
gfz2012qpoc  -1.31580
gfz2012rzwp  -0.21757
gfz2012sgfd  -1.00600
gfz2012sopp  -0.28370
gfz2012sqsc  -0.59235
gfz2012ssnb   0.36446
gfz2012stxx   0.50087
gfz2012suqd  -0.44910
gfz2012svwz  -0.13391
gfz2012swbz  -0.91768
gfz2012sxbo  -0.39705
gfz2012sxzs  -0.11479
gfz2012syum  -0.93809
gfz2012taph  -1.13180
gfz2012tgta  -0.97558
gfz2012tisj  -0.68625
gfz2012tjwg  -0.02079
gfz2012touh   0.61908
gfz2012tqjc  -1.05540
gfz2012trfq   0.62730
gfz2012tsdz   1.83460
gfz2012ttnf  -0.14679
gfz2012tvgw   0.38615
gfz2012twec  -0.84537
gfz2012tyoz  -1.08490
gfz2012uegq   0.67389
gfz2012uhtc  -0.51902
gfz2012ulei   0.06065
gfz2012umob  -0.61335
gfz2012uovh  -0.64480
gfz2012uvoa  -0.49861
gfz2012vdra   0.14026
gfz2012vgot  -0.38025
gfz2012vitw  -0.21937
gfz2012vkjw  -0.46760
gfz2012vnve  -1.38780
gfz2012vqjw  -0.18249
gfz2012vqmq  -1.36780
gfz2012vrqz  -0.52595
gfz2012vsav   0.03721
gfz2012wjxc   0.91312
gfz2012wkki  -0.38785
gfz2012wmmw   0.20601
gfz2012wpen  -1.17650
gfz2012wqfz   0.51453
gfz2012wysg  -0.08461
gfz2012xask   0.15228
gfz2012xcsf  -0.40051
gfz2012xfsl  -0.89454
gfz2012xkln  -0.74243
gfz2012xlas  -0.94204
gfz2012xlfo  -0.56966
gfz2012xncm  -0.47803
gfz2012xqxw  -0.42203
gfz2012xrmq  -0.40145
gfz2012xxdj  -0.69340
gfz2012ylai  -0.30049
gfz2012yvwc  -1.15740
gfz2012zktj  -0.37730
gfz2012znou  -0.88855
gfz2012zqis  -0.62750
gfz2013agmt  -0.46645
gfz2013akkd  -1.13560
gfz2013cvve  -0.91039
gfz2013cyvx  -0.19001
gfz2013dbhl   0.32338
gfz2013ddrx   1.59210
gfz2013delq  -0.38460
gfz2013dftb   0.22665
gfz2013dksc   0.00000
gfz2013dmzh  -0.72466
gfz2013dngd   0.07796
gfz2013dnot   0.77569
gfz2013dzvr  -1.24480
gfz2013eavq   0.28304
gfz2013eazm   0.03282
gfz2013efct  -0.42297
gfz2013eidd  -0.54240
gfz2013enqo  -0.59562
gfz2013fmcd  -0.38042
gfz2013fmcp   0.69331
gfz2013fndg  -0.34391
gfz2013fnpa  -0.69763
gfz2013fskp   0.20505
gfz2013fthi   0.44754
gfz2013fulo  -0.48743
gfz2013fvht   0.05441
gfz2013fxyr  -0.03940
gfz2013fybd  -1.29970
gfz2013gkyn  -1.04430
gfz2013glpz  -0.19536
gfz2013gsnl  -0.42077
gfz2013gurk  -0.31899
gfz2013gxye   0.31856
gfz2013gywl   0.96024
gfz2013hbmi   0.30191
gfz2013hbtm   0.58602
gfz2013hiam   0.24066
gfz2013hinw  -0.22427
gfz2013hvzv   0.14492
gfz2013icgx  -0.31546
gfz2013icql  -0.70401
gfz2013iuyv  -0.83473
gfz2013iwhc  -1.03950
gfz2013iwzn  -0.40466
gfz2013jfcn  -0.13862
gfz2013jhog   0.11654
gfz2013jobl  -0.46488
gfz2013jzcf   0.14324
gfz2013kats  -0.40535
gfz2013kbbg  -0.31402
gfz2013kbbn  -0.32242
gfz2013kcdb   0.27701
gfz2013kjgh  -0.54518
gfz2013kpcb  -0.53976
gfz2013kqab  -1.49650
gfz2013kslp  -0.74406
gfz2013kuno  -0.08880
gfz2013kxof  -1.77370
gfz2013lbvl  -0.55854
gfz2013ljdu  -0.00668
gfz2013ljwt  -1.04670
gfz2013lqjj  -0.06568
gfz2013lvxe  -1.02010
gfz2013mdxj   0.09543
gfz2013mimp  -0.98964
gfz2013mvgq   0.01511
gfz2013mzaw   0.23768
gfz2013vvre  -1.25920
gfz2013vwkh  -0.71741
gfz2013vzel  -0.59593
gfz2013wigs   0.68595
gfz2013wpns  -0.95091
gfz2013wwee  -0.60662
gfz2013xbdc   2.13280
gfz2013xddu  -0.26044
gfz2013xodn  -0.60582
gfz2013xvps  -0.62392
gfz2013xycz  -0.71170
gfz2013xzxe   0.42041
gfz2013yapz   0.63420
gfz2013ylxm   0.14306
gfz2013ylxn  -0.67457
gfz2013ymhx  -0.66000
gfz2013yodm  -0.45722
gfz2013yqkz  -0.51428
gfz2013yqtu  -0.86237
gfz2013yvnj  -0.36230
gfz2013yxhf   0.23410
gfz2013zeye  -1.10180
gfz2013zfbz  -0.06797
gfz2013zkgm   0.49939
gfz2013zlak  -0.01373
gfz2013zlij  -0.36048
gfz2013zpwk  -0.45246
gfz2013zqan   0.11381
gfz2014aaae  -0.21898
gfz2014aapq  -0.56436
gfz2014aedl   0.33185
gfz2014aejh  -0.44387
gfz2014afbt  -0.27814
gfz2014ajgi  -0.15946
gfz2014amgk  -0.25812
gfz2014aqax  -0.16515
gfz2014aqop  -0.01113
gfz2014avzp  -1.73390
gfz2014ayxf  -0.09444
gfz2014azfu  -0.09954
gfz2014bdju   0.04207
gfz2014befl   0.04936
gfz2014bgxe  -0.86364
gfz2014bkra  -0.26255
gfz2014bmdf  -0.05549
gfz2014bnea  -0.13235
gfz2014bppg  -0.96992
gfz2014bqpm  -0.12916
gfz2014brkk   0.13041
gfz2014buyz  -0.49699
gfz2014byes  -0.86081
gfz2014bzus  -0.93519
gfz2014cgoi  -0.81504
gfz2014cjao  -0.09159
gfz2014cokw  -0.45946
gfz2014crac  -1.78970
gfz2014ctdl  -0.19467
gfz2014cvnb  -0.09625
gfz2014dbmu  -0.20938
gfz2014dbqi  -0.62536
gfz2014dece  -0.99376
gfz2014dggw   0.22543
gfz2014dihl  -0.33448
gfz2014diuu  -0.85592
gfz2014djhi  -0.79464
gfz2014djyj  -0.15834
gfz2014dtth  -0.06790
gfz2014dtto  -0.13894
gfz2014dwcp  -0.54413
gfz2014dykt  -0.11211
gfz2014edjm   0.14322
gfz2014eirs   0.22435
gfz2014ejfx  -0.24764
gfz2014eoay  -0.61063
gfz2014esez  -0.54059
gfz2014etgp   0.73394
gfz2014eunw  -1.42000
gfz2014exxj  -0.38271
gfz2014faex  -0.92715
gfz2014fbef  -0.23124
gfz2014fbli   0.16472
gfz2014fbnr  -1.36020
gfz2014fdhk  -0.62711
gfz2014fjfz   0.20030
gfz2014flxk  -0.88470
gfz2014fmdc   0.65345
gfz2014fqas  -0.31215
gfz2014fsir  -0.48501
gfz2014fsje  -0.34442
gfz2014fwuf  -0.30528
gfz2014fwxt  -0.59037
gfz2014fxim  -1.67260
gfz2014fxte  -1.02100
gfz2014fxtv  -0.89264
gfz2014fxuy  -1.09220
gfz2014geln   0.19848
gfz2014gjfd  -1.65640
gfz2014gnbw   0.07432
gfz2014gnvp  -0.16210
gfz2014grwv  -0.11824
gfz2014gsfc   0.04183
gfz2014gtee  -0.44336
gfz2014gtoj  -0.03213
gfz2014gypw   0.88570
gfz2014hapg   0.70469
gfz2014happ  -0.52598
gfz2014herz  -0.30406
gfz2014hhey  -0.15568
gfz2014hkcw  -0.25635
gfz2014hotu  -1.50750
gfz2014hqhv  -0.95325
gfz2014huqh  -0.07450
gfz2014hzzf  -0.60290
gfz2014iaqm  -1.44570
gfz2014iayo   0.55927
gfz2014icov   0.01997
gfz2014igrp   0.00000
gfz2014ijsa  -1.18350
gfz2014iltl   0.17797
gfz2014ined  -0.64514
gfz2014inrg  -1.30880
gfz2014ipwk  -0.25626
gfz2014irlf  -0.70680
gfz2014irln  -1.07500
gfz2014irly  -1.13980
gfz2014isjg  -0.40959
gfz2014isov  -1.65210
gfz2014iusw  -0.15066
gfz2014ivgm  -0.84360
gfz2014ixlc  -0.65425
gfz2014iyuc  -0.20735
gfz2014jarg   0.12541
gfz2014jaxy  -0.43348
gfz2014jayh  -0.20949
gfz2014jbgm  -1.07120
gfz2014jcbj  -2.19720
gfz2014jckg  -1.24890
gfz2014jffe  -1.79760
gfz2014jfmc  -3.01750
