# Nsamples: 9  MAD:  0.416  mean: -0.667  std:  0.353
gfz2010clbw  -1.06060
gfz2010cllh  -0.81866
gfz2010crgy  -0.78030
gfz2010crir  -1.07600
gfz2010dask  -0.66642
gfz2010djib  -0.86023
gfz2010drit  -0.11229
gfz2010fgbo  -0.46856
gfz2010fjme  -0.15984
