# Nsamples: 135  MAD:  0.529  mean:  1.752  std:  0.908
gfz2010abvu   0.61079
gfz2010aggj   1.45140
gfz2010aseg   1.70420
gfz2010btme   1.63790
gfz2010clbw   1.46260
gfz2010cllh   1.87520
gfz2010cphq   2.20780
gfz2010crgy   1.18350
gfz2010crir   1.40460
gfz2010cthm   6.56960
gfz2010dask   1.99690
gfz2010djib   1.09760
gfz2010drit   1.68370
gfz2010drun   1.11480
gfz2010fjme   1.70490
gfz2010fxut   1.84310
gfz2010gcqp   1.50540
gfz2010mpvc  -0.79552
gfz2010mqaj   0.13046
gfz2010ngge   1.57220
gfz2010qdqk   2.18030
gfz2010rkuu   2.79170
gfz2010rljv   1.89300
gfz2010rnwt   3.98130
gfz2010tmba   1.75810
gfz2010tpcj   2.05170
gfz2010tzlz   2.73020
gfz2010tzma   1.96680
gfz2010uhjy   2.05970
gfz2010vong   1.54090
gfz2010wakc   0.96032
gfz2010xnbn   2.15780
gfz2010xpzq   1.66440
gfz2010yfdr   1.68440
gfz2010zjun   1.03430
gfz2011ahvh   2.14580
gfz2011bpqm   1.61390
gfz2011bygu   2.05110
gfz2011cdge   4.18050
gfz2011dabj   1.14980
gfz2011dpyu   1.56190
gfz2011fnie   1.61300
gfz2011fszl   1.41000
gfz2011gfer   1.43040
gfz2011ggnl   3.04590
gfz2011gnbk   1.80640
gfz2011gpyr   1.93740
gfz2011hqjs   1.50090
gfz2011jghq   0.35910
gfz2011jphj   0.12244
gfz2011kfch   1.77300
gfz2011kjzt   1.68500
gfz2011kyzy   1.02800
gfz2011lwmg   0.82737
gfz2011mjje   1.48340
gfz2011mllb   2.40630
gfz2011ndhh   1.36530
gfz2011nhby   1.82610
gfz2011nijp   0.26082
gfz2011nilw   1.59560
gfz2011nlmf   0.93325
gfz2011nlnl   2.60970
gfz2011nuqo   2.36460
gfz2011ofpj   1.77450
gfz2011oslk   1.58150
gfz2011owqa   0.96943
gfz2011paqj   2.37540
gfz2011ppsc   2.78050
gfz2011pwbw   2.35560
gfz2011qenl   2.22630
gfz2011rkau   1.37500
gfz2011rqut   1.37340
gfz2011sdax   1.82220
gfz2011sqco   4.27300
gfz2011sxno   1.88430
gfz2011taqr   2.38840
gfz2011tqgg   1.88500
gfz2011tsgl   1.92220
gfz2012iijk   1.79030
gfz2012kmbo   1.65610
gfz2012kmmz   2.47660
gfz2012ldjj   1.67500
gfz2012mdzf   2.01490
gfz2012mjuu   2.36250
gfz2012mrwu   0.63163
gfz2012nqvd   2.02020
gfz2012oafg   1.27140
gfz2012oehy   0.59604
gfz2012phns   2.30490
gfz2012qpoc   1.77790
gfz2012uhtc   1.14540
gfz2012uvoa   2.05450
gfz2012uzww   1.50080
gfz2012wgmg   1.76630
gfz2012xncm   1.71130
gfz2012xxdj   2.08480
gfz2012ylai   0.24425
gfz2012zhyz   2.06530
gfz2013bwgw   1.91170
gfz2013byyy   1.05470
gfz2013cokc   2.25870
gfz2013cvve   0.44712
gfz2013cyvx   1.76120
gfz2013delq   1.42180
gfz2013dngd   1.59970
gfz2013dzvr   2.07480
gfz2013fnpa   1.51900
gfz2013jfcn   2.11440
gfz2013jobl   1.63660
gfz2013kats   1.43650
gfz2013kqab   3.13250
gfz2013lbvl   2.12840
gfz2013mzaw   2.33300
gfz2013oizq   2.64010
gfz2013pkmz   1.31400
gfz2013qnqr   0.87778
gfz2013qoak   2.25220
gfz2013quwz   1.63930
gfz2013uafv  -0.82720
gfz2013unuv  -0.53855
gfz2013utqa   1.28370
gfz2013vldx   2.04940
gfz2013vmrv   1.98030
gfz2013vmsg   4.22510
gfz2013vojy   1.39370
gfz2013xmzw   2.14810
gfz2013xswc   1.78210
gfz2013yqtu   0.54407
gfz2013zfbz   1.84010
gfz2013zlak   1.16250
gfz2014amgk   2.25410
gfz2014aqop   3.01460
gfz2014ayxf   1.82040
gfz2014bdju   2.21200
gfz2014cokw   1.99240
