# Nsamples: 370  MAD:  0.530  mean: -0.067  std:  0.679
gfz2010abfc   0.68944
gfz2010aggj  -0.08060
gfz2010aimm   0.27765
gfz2010aseg   0.17694
gfz2010azji   0.48124
gfz2010bkfi   0.29360
gfz2010brrm   0.45371
gfz2010ccwc   1.68820
gfz2010ccye   0.40934
gfz2010cllh  -0.21978
gfz2010cphq   2.50850
gfz2010crgy  -0.46540
gfz2010crir  -0.50741
gfz2010cyid  -0.73985
gfz2010dask  -0.70557
gfz2010diid   0.92969
gfz2010djib  -0.54063
gfz2010drit  -0.39227
gfz2010drml  -0.02226
gfz2010drmq  -0.02226
gfz2010drpv  -0.29124
gfz2010drun  -1.01840
gfz2010fjme  -0.71267
gfz2010fkff  -0.00000
gfz2010fopf   0.75595
gfz2010fqzh  -0.96465
gfz2010fvfz  -0.01131
gfz2010gonu  -0.21991
gfz2010habf   0.18210
gfz2010hesh  -0.93222
gfz2010hllp   0.15589
gfz2010hsgv   0.15421
gfz2010hxan   0.52490
gfz2010iaay  -0.42164
gfz2010ifhd  -0.29810
gfz2010ioad  -0.88509
gfz2010izag   0.46750
gfz2010izgb  -0.28353
gfz2010jdhk   0.40496
gfz2010jlvp  -0.01621
gfz2010jpkn   0.09968
gfz2010mdti  -0.03718
gfz2010mqaj  -0.71695
gfz2010mqzz  -0.62182
gfz2010ncwu   0.52719
gfz2010ngge  -0.80957
gfz2010nlai   0.09995
gfz2010okpc  -0.81271
gfz2010osaq   0.19974
gfz2010pclq   0.51615
gfz2010pvnn   1.47410
gfz2010qdqk   1.26780
gfz2010qrta   0.27780
gfz2010rdip  -0.55438
gfz2010rkuu  -0.84903
gfz2010rljv   0.37327
gfz2010rmua  -0.41617
gfz2010rnwt  -1.76790
gfz2010rpjd   1.07260
gfz2010schp  -0.44731
gfz2010scht   0.13579
gfz2010tcgh   0.54044
gfz2010tmba  -0.18520
gfz2010tqyo  -0.54676
gfz2010tzma  -0.11784
gfz2010ugws   0.25897
gfz2010uhjy  -0.00397
gfz2010uidg  -1.59680
gfz2010ujqn   0.04970
gfz2010umxj  -0.51010
gfz2010umyp  -0.31100
gfz2010uogw  -0.67855
gfz2010vong  -0.18679
gfz2010xamh  -0.76089
gfz2010xezr   0.79456
gfz2010xnbn  -0.88012
gfz2010xpzq   0.26035
gfz2010xvev  -0.25477
gfz2010xytc  -0.14168
gfz2010yfdr   0.08698
gfz2010yilf   0.59821
gfz2010ymih  -0.17975
gfz2010zjun  -0.32986
gfz2011ahvh  -0.23053
gfz2011awsv  -0.59654
gfz2011bcvc  -0.13604
gfz2011bffb   0.47209
gfz2011boaz   0.59058
gfz2011bpqm   0.20064
gfz2011bsvr  -0.50498
gfz2011bygs  -0.03078
gfz2011bygu  -0.11595
gfz2011cdge   0.20765
gfz2011cjuz  -0.74970
gfz2011cwzi   0.12344
gfz2011dabj   0.07290
gfz2011dhfg  -0.48264
gfz2011dhqk   0.48374
gfz2011dpyu  -0.29284
gfz2011emzr   0.08019
gfz2011etkc  -0.16218
gfz2011fnie  -0.19651
gfz2011fnuk  -0.44918
gfz2011fszl   0.70126
gfz2011fzcw  -1.40620
gfz2011ggnl  -1.42380
gfz2011gnbk  -0.07457
gfz2011gpyr  -0.29862
gfz2011hqjs  -0.18573
gfz2011kfch   0.03266
gfz2011kgvq  -0.85344
gfz2011lkkf   1.17670
gfz2011lwmg   0.31045
gfz2011mror  -0.35275
gfz2011ndhh  -0.55795
gfz2011nejg   0.18432
gfz2011nejw  -0.10596
gfz2011nfcz   0.29393
gfz2011nijp  -0.97523
gfz2011nilw  -1.80600
gfz2011niuw  -1.09570
gfz2011nkou   1.44190
gfz2011nlum  -0.52692
gfz2011nuqo  -0.27117
gfz2011oadm   0.23301
gfz2011oazk  -0.19494
gfz2011ofpj   0.21244
gfz2011ohgj  -0.97601
gfz2011owqa  -0.41297
gfz2011paqj  -0.73685
gfz2011pmuv   0.07498
gfz2011poug  -0.37349
gfz2011ppsc  -0.51688
gfz2011prrq  -0.56351
gfz2011qenl   0.21531
gfz2011qukj  -0.33227
gfz2011rkau  -0.40346
gfz2011rnsp   0.28437
gfz2011sqco  -0.11919
gfz2011sxno   0.01591
gfz2011syvj  -0.36414
gfz2011taqr   0.17001
gfz2011tarj  -0.44792
gfz2011tgon  -0.66394
gfz2011tlwl   0.29546
gfz2011tqgg   1.18090
gfz2011tsgl  -0.60897
gfz2011uowi  -0.05652
gfz2011uqry  -0.61134
gfz2011vahy   0.05688
gfz2011vbxv  -0.19688
gfz2011vcyx  -0.85878
gfz2011vimn  -0.56628
gfz2011vtzv  -0.70997
gfz2011wcvs  -0.90235
gfz2011wpzt  -0.48803
gfz2011wtfn  -1.16590
gfz2011wucg  -0.24775
gfz2011wwze   0.43030
gfz2011xgbc   0.57932
gfz2011xgwy  -0.76487
gfz2011xkka   0.08736
gfz2011yexx  -0.36098
gfz2011ypfh   0.57687
gfz2011zghc   0.44995
gfz2012alti   0.15062
gfz2012aqpa   0.92916
gfz2012arlo  -0.02549
gfz2012bity  -0.51218
gfz2012byrq   0.53729
gfz2012bysu   0.81832
gfz2012bytv  -1.74960
gfz2012byuk  -1.49010
gfz2012cdju  -0.08675
gfz2012cksh  -0.95044
gfz2012cmww  -0.26356
gfz2012cvfr   0.23716
gfz2012dejg   1.35610
gfz2012dnig   0.33315
gfz2012dttl   0.53002
gfz2012duwm   0.16777
gfz2012dwwu  -0.96161
gfz2012dyck   0.49243
gfz2012dysu   0.55547
gfz2012eajr   1.37270
gfz2012ekfp  -1.08610
gfz2012evxn  -0.78000
gfz2012gdye  -0.13133
gfz2012ghiv  -0.45456
gfz2012ghyd  -1.21120
gfz2012gjdg  -0.48811
gfz2012gnow   0.27275
gfz2012hvtu   1.54010
gfz2012hzur  -1.81030
gfz2012iblo  -0.20407
gfz2012kmbo  -0.20752
gfz2012kmmz   0.14321
gfz2012ldjj   0.51107
gfz2012lyyr   0.12242
gfz2012mdzf  -0.30759
gfz2012mrqk   0.68028
gfz2012mrwu  -0.00000
gfz2012mtyn   0.63587
gfz2012nnqu  -1.02050
gfz2012nqvd  -0.19448
gfz2012oehy   0.13160
gfz2012oork   0.74600
gfz2012pdav   0.01367
gfz2012pmuj  -1.18010
gfz2012sgfd  -0.30360
gfz2012socz   1.35270
gfz2012suqd  -0.13310
gfz2012svwz   0.19681
gfz2012swbz  -0.43200
gfz2012sxbo  -0.53440
gfz2012sxpr  -1.20950
gfz2012sxzs  -0.39256
gfz2012syum   0.84702
gfz2012wgmg  -0.69318
gfz2012wkki   0.42954
gfz2012wmmw   0.68982
gfz2012wysg   0.79557
gfz2012xask   0.50806
gfz2012xcsf  -0.05644
gfz2012xkln  -0.25544
gfz2012xlas  -0.28921
gfz2012xlfo  -0.40148
gfz2012xncm  -0.56853
gfz2012xqxw  -0.35520
gfz2012xrmq   0.04782
gfz2012yihn   0.64531
gfz2012ylai   0.00000
gfz2013agmt  -0.03795
gfz2013akkd   0.21738
gfz2013bqfc   0.06633
gfz2013bwgw   0.32438
gfz2013byyy  -0.29394
gfz2013cpjc   0.66423
gfz2013cvve   0.16260
gfz2013cyvx   0.20857
gfz2013delq  -0.20131
gfz2013dftb   0.50290
gfz2013dngd   0.07483
gfz2013dzvr  -0.19317
gfz2013eavq   0.40322
gfz2013efct   0.27844
gfz2013enqo   0.28142
gfz2013fmcd   0.79651
gfz2013fndg   0.38912
gfz2013fnpa  -0.07622
gfz2013lvxe  -0.66924
gfz2013mvgq   0.54064
gfz2013mzaw   0.41397
gfz2013nkgt   0.00000
gfz2013oeni   0.28631
gfz2013oizq  -0.01692
gfz2013phhi  -1.03980
gfz2013pkmz  -0.42625
gfz2013qapj   0.11377
gfz2013qigb  -0.14194
gfz2013qoak  -0.38598
gfz2013quwz  -0.12909
gfz2013quyn  -0.30929
gfz2013qxof   1.96680
gfz2013rtvy  -0.87361
gfz2013ryph   0.85395
gfz2013skvq  -0.09227
gfz2013stou   0.38788
gfz2013stup  -1.14170
gfz2013swnj  -0.15009
gfz2013taeb   3.15060
gfz2013tcju  -0.93113
gfz2013tdsx   0.24678
gfz2013tekq  -0.03610
gfz2013tert   0.54971
gfz2013tgia   0.33427
gfz2013tjub  -0.13334
gfz2013tnrp  -0.24141
gfz2013trsq   0.11145
gfz2013ubgt   0.89714
gfz2013udtw   0.43050
gfz2013uepl  -0.03898
gfz2013unuv   0.02503
gfz2013upqj  -3.77550
gfz2013utqa  -0.38318
gfz2013uwjo  -1.61770
gfz2013uxzw   0.19133
gfz2013vcgd  -0.38051
gfz2013vdam   0.36918
gfz2013veug   0.94418
gfz2013vjrr  -0.05393
gfz2013vldx   1.65210
gfz2013vmrv   0.26599
gfz2013voai  -0.00000
gfz2013vojy   0.25573
gfz2013vvre  -0.22114
gfz2013wyfl   0.07563
gfz2013xacx   0.20098
gfz2013xahp  -0.08751
gfz2013xbdc   1.62560
gfz2013xmzw   0.10139
gfz2013xodn  -0.46193
gfz2013xofz   0.32050
gfz2013xswc  -0.72452
gfz2013xvps   0.45242
gfz2013xycz  -0.16502
gfz2013ylxm   0.38924
gfz2013ylxn  -0.81421
gfz2013yodm   0.08745
gfz2013yqtu  -0.32778
gfz2013yxhf   0.46250
gfz2013zkzb  -1.11120
gfz2013zlak  -0.53199
gfz2014aaae  -0.23541
gfz2014aedl   0.76788
gfz2014ajgi  -0.13151
gfz2014amgk  -1.04690
gfz2014aqop   0.07577
gfz2014ateb   0.11394
gfz2014ayxf  -0.53500
gfz2014bdju   0.39708
gfz2014bkra   0.15498
gfz2014cjao   0.27325
gfz2014cokw  -0.15381
gfz2014crac  -0.05381
gfz2014ctdl  -0.25639
gfz2014cvnb   0.38941
gfz2014dbqi  -0.49393
gfz2014dihl  -0.48497
gfz2014edjm   0.49552
gfz2014eirs   0.48497
gfz2014eoay  -0.30180
gfz2014esez  -2.35060
gfz2014fbli   0.35778
gfz2014fbnr  -0.04217
gfz2014fdhk  -0.63739
gfz2014fjfz   0.49110
gfz2014flxk   0.07698
gfz2014fsir   0.28360
gfz2014fsje  -0.08657
gfz2014fwuf  -0.19985
gfz2014fwxt  -0.06275
gfz2014fxte  -0.30293
gfz2014fxuy  -0.50664
gfz2014gnbw   0.42792
gfz2014grwv   0.29742
gfz2014happ  -0.29622
gfz2014hhey  -0.37296
gfz2014hhis   0.15776
gfz2014hjmc  -0.18682
gfz2014hkcw   0.09291
gfz2014hqhv  -0.26089
gfz2014huqh  -0.12296
gfz2014hyea  -0.54335
gfz2014hzzf  -0.13876
gfz2014iaqm   1.39010
gfz2014iayo  -0.20449
gfz2014icov  -0.15895
gfz2014igrp   0.30518
gfz2014ijsa  -1.28110
gfz2014iltl   0.31521
gfz2014ined  -0.28107
gfz2014irlf  -0.05968
gfz2014irln   0.22755
gfz2014irly  -0.55670
gfz2014isjg  -0.27637
gfz2014iusw  -0.32563
gfz2014ixlc  -0.52326
gfz2014jarg   0.36946
gfz2014jayh   0.23043
