# Nsamples: 221  MAD:  0.564  mean: -0.357  std:  0.733
gfz2012bqcf  -0.01809
gfz2012byrq  -0.64400
gfz2012cdju  -0.26396
gfz2012cksh   0.12021
gfz2012cmww  -0.65413
gfz2012cntu  -0.36343
gfz2012crpb  -1.36080
gfz2012cvfr   0.03419
gfz2012dcjd  -0.15671
gfz2012dnig   0.25132
gfz2012dtlu  -0.04437
gfz2012dttl   0.24896
gfz2012dwwu  -0.94144
gfz2012dyck  -0.18748
gfz2012dysu  -0.85958
gfz2012dzou  -2.05480
gfz2012ekfp  -0.14318
gfz2012ekro   0.93086
gfz2012evxn  -1.36860
gfz2012eyti   0.08594
gfz2012foih   0.34380
gfz2012fpyo  -1.29630
gfz2012ftcq  -1.49850
gfz2012gdye   0.15330
gfz2012ghiv  -0.98450
gfz2012ghyd  -0.88801
gfz2012gjdg  -1.02630
gfz2012gnow  -0.08746
gfz2012gpcd  -1.16460
gfz2012hvfw  -0.29962
gfz2012hvtu  -1.90540
gfz2012hzhn  -2.00440
gfz2012hzur  -1.80840
gfz2012iblo  -2.07300
gfz2012iijk  -0.48486
gfz2012imuo  -1.23410
gfz2012ipdc  -0.64512
gfz2012iphs  -0.64876
gfz2012jnlt  -1.06830
gfz2012jodg  -1.50390
gfz2012kadi  -0.45742
gfz2012klpl  -0.43478
gfz2012kmbo  -0.44447
gfz2012kqjb   0.54218
gfz2012ldjj   0.19818
gfz2012luzm  -0.51829
gfz2012lyyr  -0.36727
gfz2012mdzf  -0.48762
gfz2012mjuu  -0.60846
gfz2012mmiw   0.03056
gfz2012mowv  -0.76217
gfz2012mpzo   0.73823
gfz2012mrqk   0.71089
gfz2012mrwu  -0.22942
gfz2012mtyn  -0.12495
gfz2012mvgu  -0.41543
gfz2012mzqx   0.09183
gfz2012nldz  -1.62210
gfz2012nnqu  -0.55005
gfz2012nqvd  -0.67468
gfz2012oafg  -0.22439
gfz2012oehy  -0.10836
gfz2012ofnx   2.92080
gfz2012onhu  -0.54627
gfz2012phns  -0.06255
gfz2012pmuj  -0.76489
gfz2012pokk  -0.29830
gfz2012pumy  -0.32845
gfz2012pvve   0.29501
gfz2012qfah   0.65979
gfz2012qllj  -0.59694
gfz2012qpoc   2.11140
gfz2012rmvx   0.27663
gfz2012rzwp   2.06340
gfz2012sbix  -0.60607
gfz2012sgfd  -0.68898
gfz2012sqsc  -0.18168
gfz2012suqd  -0.42642
gfz2012svwz   0.14896
gfz2012swbz  -0.90126
gfz2012sxbo  -1.30330
gfz2012sxpr  -2.10050
gfz2012sxzs   0.07933
gfz2012syum   0.11502
gfz2012tgta  -0.73895
gfz2012tisj  -0.59924
gfz2012touh  -0.14013
gfz2012tqjc  -0.69105
gfz2012trfq   0.61878
gfz2012ttnf   0.10227
gfz2012twec  -0.61081
gfz2012tyoz  -1.65960
gfz2012uegq  -0.17350
gfz2012uhsx  -0.41125
gfz2012uhtc  -0.38305
gfz2012ukzg   0.80419
gfz2012umob  -0.42311
gfz2012uovh   0.44564
gfz2012uvoa  -0.00858
gfz2012uzww  -0.35912
gfz2012vgot  -0.19586
gfz2012vile  -1.11780
gfz2012vioy  -2.53780
gfz2012vitw   0.06751
gfz2012vkjw  -0.06588
gfz2012vnve  -0.71967
gfz2012vqmq  -0.47416
gfz2012vrqz  -0.09622
gfz2012wgdv  -0.89673
gfz2012wgmg  -1.12960
gfz2012wkki  -0.07483
gfz2012wmmw   0.40307
gfz2012wpen  -0.60239
gfz2012wugc  -0.99713
gfz2012wysg   0.29984
gfz2012xask   0.17219
gfz2012xcsf  -0.15812
gfz2012xfsl  -0.75360
gfz2012xlas  -1.03660
gfz2012xlfo  -0.59525
gfz2012xqxw  -0.20103
gfz2012xrmq   0.07823
gfz2012yihn  -0.44061
gfz2012ylai  -0.08342
gfz2012yncm  -0.40628
gfz2012zhyz  -0.39939
gfz2012zqis  -0.54658
gfz2013adih   0.74841
gfz2013agbm   0.26207
gfz2013agmt  -0.35629
gfz2013akkd  -1.53320
gfz2013auew  -1.22370
gfz2013aymi  -2.01140
gfz2013bqfc   0.50447
gfz2013byyy  -0.88266
gfz2013cinv  -0.46738
gfz2013cvve  -0.76926
gfz2013delq  -0.12875
gfz2013eidd  -0.55495
gfz2013fmcd   0.01470
gfz2013fmcp  -0.06096
gfz2013fndg   0.14198
gfz2013fnpa  -0.37259
gfz2013fthi   0.38771
gfz2013fulo   0.18962
gfz2013fvht   0.43640
gfz2013ghpd  -0.44153
gfz2013gkyn  -0.73928
gfz2013glpz  -0.31702
gfz2013gomv  -0.51090
gfz2013gsnl  -0.10253
gfz2013gxye   0.17065
gfz2013hinw  -0.12022
gfz2013noqf   0.59618
gfz2013obof   0.42786
gfz2013ohdt  -0.62847
gfz2013oizq  -0.47328
gfz2013pkmz  -1.18320
gfz2013qapj  -0.21283
gfz2013qigb   0.15378
gfz2013qntl  -1.57020
gfz2013qoak  -0.71849
gfz2013rwkj  -0.65189
gfz2013rwog   0.21948
gfz2013sdym   0.77563
gfz2013skvq  -0.02380
gfz2013tert   0.22130
gfz2013trsq   0.03812
gfz2013ttmk   0.03245
gfz2013ubgt   0.66943
gfz2013uepl  -0.80655
gfz2013ujze  -0.22912
gfz2013unuv  -0.57184
gfz2013vjrr  -0.34956
gfz2013vldx  -0.42038
gfz2013vwkh  -0.54225
gfz2013wwee  -0.44311
gfz2013xddu  -0.11634
gfz2014fxte  -0.43572
gfz2014gcia  -0.32293
gfz2014geln   0.20144
gfz2014gjfd  -1.11120
gfz2014gnbw   0.22664
gfz2014gnvp  -0.89133
gfz2014grwv   0.14835
gfz2014gsfc  -0.50948
gfz2014gssz  -0.65847
gfz2014gtoj  -0.34240
gfz2014gutd  -3.30530
gfz2014hapg  -0.08256
gfz2014happ   0.04201
gfz2014herz  -0.16333
gfz2014hhey  -0.24646
gfz2014hhis  -0.00000
gfz2014hjmc  -1.43140
gfz2014hkcw  -0.08842
gfz2014hotu  -1.10310
gfz2014hqhv  -0.57536
gfz2014huqh  -0.09403
gfz2014hyea  -0.67569
gfz2014hzzf  -0.29830
gfz2014icov   0.42386
gfz2014igrp   0.27291
gfz2014ijsa   0.38428
gfz2014iltl   0.69627
gfz2014imqh  -1.39310
gfz2014ined  -0.51956
gfz2014irlf  -0.23575
gfz2014irln  -0.31489
gfz2014isjg  -0.28655
gfz2014isov  -1.17280
gfz2014iusw  -0.07454
gfz2014ivgm  -0.97712
gfz2014ixlc  -0.52356
gfz2014iyuc   0.39846
gfz2014jarg   0.20466
gfz2014jaxy   0.77965
gfz2014jayh   0.10891
gfz2014jbfp   0.60257
gfz2014jbgm  -0.94848
gfz2014jckg  -1.05400
