# Nsamples: 59  MAD:  0.507  mean: -0.166  std:  0.701
gfz2010pgpo   0.32248
gfz2010rljv  -0.03237
gfz2010rnwt   1.53130
gfz2010tmba  -0.16172
gfz2010uhjy   0.03068
gfz2010vong  -0.83263
gfz2010xnbn  -1.73500
gfz2010xpzq  -0.16454
gfz2010yfdr  -0.09767
gfz2011ahvh   0.17360
gfz2011amst  -1.15360
gfz2011bpqm  -0.85498
gfz2011cdge   2.16590
gfz2011dabj  -1.17170
gfz2011dpyu  -0.44396
gfz2011gnbk  -0.36549
gfz2011gpyr  -0.52794
gfz2011kjzt   0.67579
gfz2011mjje   0.11356
gfz2011ndhh  -0.36235
gfz2011nhby  -0.46986
gfz2011nuqo  -0.21078
gfz2011ofpj   0.62390
gfz2011oslk  -0.77480
gfz2011qenl   0.86357
gfz2011sdax  -0.37705
gfz2011sqco  -1.51270
gfz2011sxno  -0.47160
gfz2011yexx  -0.43699
gfz2011zghc   0.06073
gfz2012bqcf  -0.57270
gfz2012cdju  -0.56821
gfz2012cvfr  -0.47308
gfz2012dnig  -0.04666
gfz2012dttl  -0.39042
gfz2012dyck   0.13614
gfz2012ekfp   1.43520
gfz2012iijk  -0.22830
gfz2012kmbo  -0.37315
gfz2012kmmz  -0.80174
gfz2012ldjj  -0.17035
gfz2012nqvd  -0.59419
gfz2012oafg  -0.86418
gfz2012uzww  -0.25011
gfz2013bwgw   0.68989
gfz2013kats  -0.80081
gfz2013kbbg  -1.04160
gfz2013oizq   0.71836
gfz2013phhi  -0.76272
gfz2013qigb  -0.10056
gfz2013qoak   0.56262
gfz2013quwz   0.12981
gfz2013quyn  -0.41132
gfz2013tnrp  -0.31557
gfz2013udtw  -0.01835
gfz2013unuv   0.05414
gfz2013utqa   0.61041
gfz2013uwjo   0.45456
gfz2013vcgd  -0.20157
