# Nsamples: 72  MAD:  0.485  mean:  0.445  std:  0.566
gfz2010abfc   0.43996
gfz2010aggj   0.24617
gfz2010cllh  -1.26810
gfz2010crgy  -0.42172
gfz2010cyid  -0.17507
gfz2010dask  -0.04519
gfz2010djib  -0.07194
gfz2010drit   0.25467
gfz2010fjme   0.36935
gfz2010fkff  -0.08104
gfz2010habf   0.90820
gfz2010hdxn  -0.30638
gfz2010jlvp  -0.14881
gfz2010kwks  -0.77514
gfz2010mqzz   0.15313
gfz2010ncwu   0.51545
gfz2010ngge   0.19509
gfz2010pvnn   0.53018
gfz2010rkuu   0.84000
gfz2010tmba   1.71180
gfz2012kmbo   0.46566
gfz2012kmmz   1.39440
gfz2012ldjj   1.64260
gfz2012nnqu   0.63323
gfz2012oafg   1.19200
gfz2012oehy   0.73274
gfz2012uvoa   0.34016
gfz2012uzww   0.53841
gfz2012wgdv   0.71620
gfz2012wgmg  -0.06589
gfz2012wkki   0.67300
gfz2012xcsf   0.51847
gfz2012yncm   0.83323
gfz2012zhyz   1.39940
gfz2013akkd   0.07790
gfz2013cvve  -0.45987
gfz2013cyvx   0.83561
gfz2013dftb   0.54307
gfz2013dzvr   0.08283
gfz2013fmcd   0.96975
gfz2013fnpa   0.61392
gfz2013fulo   0.61584
gfz2013fvht   0.42490
gfz2013fvyr   1.05570
gfz2013gglk   0.12494
gfz2013lbvl   0.37663
gfz2013mdxj   1.04640
gfz2013phhi   0.68814
gfz2013pkmz   0.93529
gfz2013qigb   0.26341
gfz2013qoak   0.67194
gfz2013quwz   0.92767
gfz2013rdmn   0.13203
gfz2013rfik   0.60694
gfz2013tekq   0.14950
gfz2013twbc   1.30490
gfz2013utqa   0.47623
gfz2013uwjo   0.78706
gfz2013vmrv  -0.09123
gfz2013vojy   0.48657
gfz2013vvre  -0.92659
gfz2013wyfl   1.24040
gfz2013xahp   0.44146
gfz2013xmzw   0.80995
gfz2013yxhf   0.83041
gfz2014bkra  -0.18974
gfz2014iltl   0.22223
gfz2014irlf   0.68140
gfz2014irln   0.50610
gfz2014irly  -0.49610
gfz2014jarg   0.85893
gfz2014jayh   0.55869
