# Nsamples: 48  MAD:  0.409  mean:  0.534  std:  0.621
gfz2010aggj   0.25757
gfz2010clbw  -0.05204
gfz2010cllh   0.31438
gfz2010crgy   0.01069
gfz2010crir  -0.46533
gfz2010djib   1.55470
gfz2010drit   0.76859
gfz2010gonu   0.97686
gfz2010jlvp   0.19044
gfz2010ncwu   1.17670
gfz2010ngge   0.55046
gfz2010rljv   0.98487
gfz2010rpjd  -0.97859
gfz2010tmba   0.68570
gfz2010tzma   0.20475
gfz2010uhjy   0.91829
gfz2010uogw   0.57381
gfz2010vong   0.35711
gfz2010xpzq   0.55889
gfz2010yilf  -0.19488
gfz2010zjun   1.77040
gfz2011ahvh   1.21700
gfz2011bpqm  -0.12106
gfz2011bygu   0.85652
gfz2011dabj   0.06496
gfz2011dpyu   0.75633
gfz2011fnie   0.25742
gfz2011gnbk   2.88300
gfz2011hqjs  -0.11739
gfz2011jphj  -0.18963
gfz2011ndhh   0.06185
gfz2011oekz   0.28983
gfz2011ofpj   1.56810
gfz2011uqry   0.43034
gfz2011vahy   0.33790
gfz2011vimn   0.29569
gfz2011wcvs   0.66366
gfz2011wucg   0.33808
gfz2011zghc   0.71946
gfz2014eirs   0.69097
gfz2014fsir   0.61990
gfz2014fxte   0.38595
gfz2014gnbw   0.38699
gfz2014iltl   0.99793
gfz2014ined   0.30568
gfz2014irlf   0.59802
gfz2014irln   0.51922
gfz2014jarg   0.64750
