# Nsamples: 272  MAD:  0.485  mean:  0.362  std:  0.721
gfz2010aseg   1.10990
gfz2010clbw  -0.05323
gfz2010cllh   0.24660
gfz2010cnhd   0.39984
gfz2010cphq   0.00000
gfz2010crgy  -0.07766
gfz2010crir  -0.45046
gfz2010cyid   0.61376
gfz2010dask   0.10088
gfz2010djib  -0.59292
gfz2010dmij   0.37342
gfz2010drit   0.58179
gfz2010drml   0.68515
gfz2010drmq   0.68515
gfz2010drun   0.15684
gfz2010dxhq  -0.99363
gfz2010fgbo   0.42269
gfz2010fjme   0.27621
gfz2010fkff   0.73137
gfz2010fxut   1.57130
gfz2010gcqp   0.59675
gfz2010gonu   0.27982
gfz2010habf   0.15111
gfz2010hesh  -0.03479
gfz2010hsgv   0.18711
gfz2010huzl   0.79491
gfz2010hxan  -0.66095
gfz2010iawy   2.15270
gfz2010ljzf   0.06466
gfz2010pclq   0.71320
gfz2010pgpo   0.27828
gfz2010qdqk   1.94970
gfz2010qqqx   3.41140
gfz2010qrix  -0.25250
gfz2010rkuu  -0.23748
gfz2010rljv   0.45738
gfz2010rnwt   1.75680
gfz2010rpjd   2.78380
gfz2010schp   1.12600
gfz2010tcgh   3.53190
gfz2010tfar   0.74322
gfz2010tmba   0.16131
gfz2010ugws   3.18170
gfz2010uhjy   0.77883
gfz2010vong   0.15558
gfz2010wakc  -0.10220
gfz2010xamh   0.65079
gfz2010xnbn   0.93791
gfz2010xpzq   0.72654
gfz2010yfdr   0.25075
gfz2010zjun   0.57953
gfz2011ahvh   0.01457
gfz2011bffb   1.06580
gfz2011bpqm  -0.01448
gfz2011bsvr   0.34441
gfz2011bygs   0.86266
gfz2011bygu   0.47464
gfz2011cdge  -0.34766
gfz2011cjuz   0.72475
gfz2011dabj  -0.34078
gfz2011dpyu   0.91161
gfz2011fnie  -0.18265
gfz2011fnuk  -0.54231
gfz2011gfer  -0.38676
gfz2011ggnl   0.31950
gfz2011gnbk   0.39748
gfz2011gpyr   0.32843
gfz2011hqjs  -0.05015
gfz2011ndhh   0.04877
gfz2011nejg  -0.42390
gfz2011nejw  -0.22945
gfz2011nerb   0.81340
gfz2011nfgt  -0.53228
gfz2011nftw   0.14729
gfz2011nhby   0.23297
gfz2011nhvt   1.74620
gfz2011nijp  -0.57746
gfz2011nilw  -0.24291
gfz2011nimp   0.59393
gfz2011niuw  -0.91986
gfz2011nlnl  -0.22278
gfz2011nlum   0.05002
gfz2011oadm  -0.18462
gfz2011oazk   0.01477
gfz2011oekz  -0.88098
gfz2011qenl   0.26230
gfz2011qukj   0.23173
gfz2011rkau  -0.10449
gfz2011rnsp   0.96511
gfz2011sdax   0.07828
gfz2011sdpl   0.48637
gfz2011sqco   1.33220
gfz2012hvtu   2.75950
gfz2012hzur   1.02310
gfz2012iijk  -0.00000
gfz2012imuo  -0.54303
gfz2012kmbo  -0.28756
gfz2012lyyr   0.07060
gfz2012mjuu   0.28064
gfz2012mmiw  -0.33144
gfz2012mrqk  -0.56059
gfz2012mrwu  -0.09698
gfz2012nnqu   1.10030
gfz2012nqvd  -0.23855
gfz2012oafg   0.27551
gfz2012oehy   0.12346
gfz2012ofnx   1.66320
gfz2012pmuj  -0.18111
gfz2012rzwp   1.32920
gfz2012sgfd  -0.19420
gfz2012socz   2.26300
gfz2012suqd   1.62850
gfz2012svwz   0.60607
gfz2012swbz  -0.00697
gfz2012tisj  -0.11438
gfz2012uzww  -0.15378
gfz2012vitw   0.20990
gfz2012vnve   1.09140
gfz2012vrqz   0.35176
gfz2012wkki   0.50833
gfz2012wpen  -0.12422
gfz2012wugc  -0.52215
gfz2012wysg   0.51292
gfz2012xask   0.20236
gfz2012xkln  -0.36279
gfz2012xlas  -0.09644
gfz2012xncm   0.11117
gfz2012xrmq   0.58250
gfz2012yihn   0.16033
gfz2012ylai   0.13546
gfz2012zqis  -0.14067
gfz2013aggr   1.41210
gfz2013byyy  -0.06908
gfz2013cinv   0.07090
gfz2013cvve   0.53916
gfz2013cyvx   0.38677
gfz2013delq   0.18904
gfz2013dzvr   0.51958
gfz2013fmcd   1.14140
gfz2013fmcp   0.81681
gfz2013fnpa   0.29621
gfz2013gkyn  -0.10180
gfz2013glpz   0.14615
gfz2013gsnl  -0.04920
gfz2013gurk   0.02619
gfz2013havw   0.64697
gfz2013hbtm   1.16780
gfz2013hinw   0.73212
gfz2013icql   0.39633
gfz2013iuyv   0.92109
gfz2013iwzn   0.76175
gfz2013jfcn   0.56605
gfz2013jobl   0.33082
gfz2013jzcf   1.23930
gfz2013kats   0.04627
gfz2013kbbg   0.36729
gfz2013kbbn  -0.89934
gfz2013kcdb   0.76941
gfz2013kpcb   0.30008
gfz2013kqab   0.55962
gfz2013kslp   0.40778
gfz2013ljwt  -1.08830
gfz2013lvxe  -0.21610
gfz2013mvgq   0.11256
gfz2013mzaw   0.63535
gfz2013ntiu   2.15870
gfz2013oeni   0.24093
gfz2013oizq   0.55435
gfz2013oywh   1.08280
gfz2013qigb   0.44737
gfz2013qoak   0.78444
gfz2013quwz  -0.19270
gfz2013quyn   0.05044
gfz2013qxof   0.22690
gfz2013rdmn  -0.17080
gfz2013rhbx   0.49951
gfz2013rtvy   0.03981
gfz2013rwkj   0.19671
gfz2013sdkg   0.01551
gfz2013skvq   0.34352
gfz2013swnj  -0.02428
gfz2013tdsx   2.59730
gfz2013tekq   0.20644
gfz2013tjub   0.10574
gfz2013tnrp  -0.06221
gfz2013ubgt   0.13703
gfz2013ujze   0.41690
gfz2013ummt   0.05401
gfz2013unuv  -0.06868
gfz2013utqa  -0.08476
gfz2013uwjo  -0.23121
gfz2013uxzw   0.16024
gfz2013vcgd  -0.09817
gfz2013vdam   0.14258
gfz2013vjrr   0.74143
gfz2013vldx  -0.10269
gfz2013vmrv   1.05780
gfz2013voai   0.33929
gfz2013vojy  -0.12171
gfz2013wyfl  -0.19015
gfz2013xacx  -0.82178
gfz2013xodn   0.19963
gfz2013xofz   1.09770
gfz2013xswc  -0.11426
gfz2013xvps  -0.14830
gfz2013xycz   0.19664
gfz2013yodm   0.05930
gfz2013yqkz   0.55190
gfz2013yqtu  -0.55711
gfz2013zfbz   0.18852
gfz2013zlak   0.42727
gfz2014aedl   0.44601
gfz2014amgk  -1.35220
gfz2014ayxf   0.51072
gfz2014bdju   0.10036
gfz2014bgxe   0.50973
gfz2014bzus  -0.20761
gfz2014cjao   0.32400
gfz2014cokw   0.67136
gfz2014ctdl   0.00501
gfz2014cvnb   0.48276
gfz2014dbqi  -0.15889
gfz2014dihl   0.42519
gfz2014dtth   0.13705
gfz2014dwcp   0.04372
gfz2014dykt   1.88260
gfz2014ecor   1.08170
gfz2014edjm   0.62195
gfz2014eirs   0.43222
gfz2014ejfx   0.03977
gfz2014eoay   0.21280
gfz2014epnq   0.39193
gfz2014esez   0.53303
gfz2014etgp   0.91527
gfz2014eunw  -0.31480
gfz2014evgu   0.52916
gfz2014evhm   1.03460
gfz2014fbli   0.64131
gfz2014fdhk  -1.45860
gfz2014ffqg  -1.56190
gfz2014fjfz   0.99141
gfz2014flxk   0.48207
gfz2014fsir   0.17950
gfz2014fsje   0.17476
gfz2014fwxt   0.41621
gfz2014fxte   0.13882
gfz2014fxuy   0.80563
gfz2014geln   0.69502
gfz2014grwv   0.35592
gfz2014gsfc   0.49903
gfz2014gtoj  -0.02019
gfz2014gypw   1.17110
gfz2014hapg   0.68570
gfz2014happ  -0.51091
gfz2014hkcw   0.07802
gfz2014hqhv  -0.35104
gfz2014hzzf   0.39319
gfz2014iaqm   0.16569
gfz2014icov   0.58477
gfz2014igrp   0.32929
gfz2014iltl   0.79209
gfz2014ined   0.37901
gfz2014inrg   2.91670
gfz2014irlf   0.24247
gfz2014irln   0.54454
gfz2014irly   0.18539
gfz2014isjg   0.03123
gfz2014iusw   0.30161
gfz2014ixlc   0.35489
gfz2014jarg   0.63884
gfz2014jayh   0.27744
gfz2014jfmc  -0.06104
