# Nsamples: 53  MAD:  0.478  mean:  0.335  std:  0.562
gfz2010crgy  -0.34571
gfz2010dask  -0.50083
gfz2010djib  -0.00650
gfz2010drit  -0.06898
gfz2010fjme   0.46188
gfz2010habf  -0.09001
gfz2010pgpo   0.72434
gfz2010rkuu   0.89791
gfz2010rljv   1.50450
gfz2010xnbn   0.89013
gfz2010xpzq   0.27319
gfz2010yfdr   0.29682
gfz2010zjun   1.42900
gfz2011ahvh   0.40357
gfz2011bpqm  -0.27577
gfz2011bygu   0.52587
gfz2011lkkf   0.50578
gfz2011ndhh   0.08864
gfz2011nfcz   0.24071
gfz2011tsgl   1.21780
gfz2011vahy  -0.13831
gfz2011zghc   0.73915
gfz2012cdju  -0.36731
gfz2012mpzo   1.06770
gfz2013fvht  -0.24931
gfz2013iuyv  -1.34200
gfz2013jfcn   0.22929
gfz2013jobl   0.48803
gfz2013kats  -0.19788
gfz2013lbod  -0.05614
gfz2013lbvl   0.12765
gfz2013lqjj   0.35608
gfz2013mzaw   0.04615
gfz2013oizq   1.11650
gfz2013qigb   0.13347
gfz2013qoak   0.77474
gfz2013quwz   0.33545
gfz2013udtw   0.26347
gfz2013unuv   0.14961
gfz2013utqa   0.39091
gfz2013uwjo   0.73526
gfz2013vmrv   0.00000
gfz2013vvre   1.93840
gfz2013wyfl   0.31979
gfz2013xmzw   0.00893
gfz2013xswc   1.05110
gfz2013yodm   0.11992
gfz2013yqtu   0.48087
gfz2013zlak  -0.10241
gfz2014aedl   0.36356
gfz2014iltl   0.61949
gfz2014ined  -0.18175
gfz2014irlf   0.38674
