# Nsamples: 291  MAD:  0.597  mean: -0.001  std:  0.786
gfz2010aggj  -0.66008
gfz2010axdz   3.08300
gfz2010bqnk  -0.12528
gfz2010clbw  -0.68380
gfz2010cllh   0.04671
gfz2010cphq   1.26450
gfz2010crir  -0.74210
gfz2010csle  -1.34250
gfz2010dask   0.40686
gfz2010djib  -0.93911
gfz2010fgbo  -0.02757
gfz2010habf  -0.66190
gfz2010hueh   3.05240
gfz2010jlvp  -0.55005
gfz2010mqzz  -0.84061
gfz2010ncwu  -0.16810
gfz2010okpc   1.66620
gfz2010pclq  -0.66909
gfz2010pcya  -0.83733
gfz2010pgrf  -0.68002
gfz2010qrta   1.07330
gfz2010qzvf   0.90421
gfz2010rhvu   0.28403
gfz2010rljv   0.90625
gfz2010rnqa  -1.62400
gfz2010rnwt   2.76980
gfz2010sdfs  -0.12046
gfz2010shvn   0.66330
gfz2010tmba  -0.10143
gfz2010tpcj   0.47131
gfz2010tqyo   0.02227
gfz2010tzlz   0.72305
gfz2010tzma   1.10560
gfz2010vong   0.84134
gfz2010wplk   0.13970
gfz2010xaxw  -0.16746
gfz2010xjsv  -0.55411
gfz2010xpzq   0.41548
gfz2010yczp  -0.28252
gfz2010yfdr   0.05312
gfz2010yhhj  -0.30073
gfz2010zjun  -0.36911
gfz2011amst   0.21469
gfz2011aqpp   1.22110
gfz2011bsvr   1.43210
gfz2011bvog   1.70200
gfz2011bygs  -0.71104
gfz2011bzio  -0.23607
gfz2011cdge  -0.15526
gfz2011chsa  -1.00600
gfz2011cjuz  -0.11868
gfz2011cwsm  -0.17256
gfz2011cwzi  -0.74370
gfz2011dabj  -0.54269
gfz2011duvm   0.80610
gfz2011dwae   1.39150
gfz2011exxq   0.20998
gfz2011fnie  -0.38151
gfz2011fszl  -0.20789
gfz2011fzcw  -0.17871
gfz2011ggnl   0.70772
gfz2011gnbk  -0.46402
gfz2011gpyr  -0.43488
gfz2011hibi   2.69530
gfz2011hjof   0.26469
gfz2011hmnw  -0.29851
gfz2011hqjs  -0.58746
gfz2011hvzo   1.96100
gfz2011hyct  -0.16497
gfz2011ibew   0.86873
gfz2011iryz  -0.66587
gfz2011ituo   0.09759
gfz2011jeta   0.04354
gfz2011jphj  -1.37540
gfz2011jryv   0.34287
gfz2011kfch   0.03291
gfz2011kylu  -0.04036
gfz2011lnzf   0.41639
gfz2011lwmg  -0.02200
gfz2011mdyq  -0.17694
gfz2011mjje  -0.54375
gfz2011mllb  -0.05192
gfz2011ncyw   0.18771
gfz2011nejg  -0.34997
gfz2011nejw   0.69525
gfz2011nerb  -0.13395
gfz2011nftw   0.02669
gfz2011nhhd   1.33120
gfz2011nhvt   0.74663
gfz2011nijp   0.76465
gfz2011nilw   0.10270
gfz2011niuw   1.07120
gfz2011nlmf   0.77834
gfz2011nmdz   0.32123
gfz2011nnda  -0.47004
gfz2011nsiy   0.35234
gfz2011nuqo   1.79260
gfz2011oadm  -0.49286
gfz2011ofpj  -0.56666
gfz2011omxt  -0.35065
gfz2011ovvj   0.24913
gfz2011owqa  -0.22055
gfz2011paqj  -0.37580
gfz2011pfls   0.41414
gfz2011pfwq  -0.20502
gfz2011pivq   2.00540
gfz2011pphc   1.90610
gfz2011pwbw  -0.42608
gfz2011qenl   0.22109
gfz2011qgea   0.06158
gfz2011rkau   0.68756
gfz2011sqco  -0.64659
gfz2011sskq  -0.34043
gfz2011tsgl   0.61336
gfz2011ugbt  -0.42062
gfz2011urwz   1.49980
gfz2011vahy  -0.43110
gfz2011wcvs   0.86002
gfz2011wwze   0.30056
gfz2011yjtx  -0.62588
gfz2011zghc   0.20967
gfz2011zgxn  -0.40008
gfz2012agwh  -1.13510
gfz2012ahac  -1.14250
gfz2012amjx   0.02767
gfz2012aqpa  -1.18480
gfz2012arlo  -1.43520
gfz2012auqr   0.94508
gfz2012bovy  -0.64204
gfz2012byrq   0.14813
gfz2012byuk  -0.27662
gfz2012cdju  -0.26953
gfz2012cntu  -0.55889
gfz2012cvfr  -0.24439
gfz2012cwhl  -0.16729
gfz2012dbgt   0.00000
gfz2012dejg   0.24110
gfz2012dleg  -0.23204
gfz2012dtdt  -0.37492
gfz2012dwwu  -0.47030
gfz2012ebff   0.48604
gfz2012ebrr  -0.73263
gfz2012elek  -0.47427
gfz2012erds  -0.08265
gfz2012foih  -1.09610
gfz2012ftks  -0.54249
gfz2012fyny  -0.23628
gfz2012ghiv  -0.58258
gfz2012gjdg  -0.48603
gfz2012gjtd   0.07775
gfz2012hzur  -0.51636
gfz2012ibyd  -0.43449
gfz2012icjo   0.23998
gfz2012iphs   0.80442
gfz2012kmbo  -0.51386
gfz2012kmmz  -0.07053
gfz2012kstg   0.10886
gfz2012moul   2.11400
gfz2012ndwt  -0.01264
gfz2012nmja  -0.47761
gfz2012nnck  -0.61556
gfz2012nqvd  -0.74359
gfz2012oafg  -0.27386
gfz2012ofnx   0.58573
gfz2012oieq   0.12747
gfz2012phns  -0.08048
gfz2012pziw   0.36006
gfz2012qfah   0.64732
gfz2012qfov   0.09491
gfz2012qpoc   0.24430
gfz2012rzwp   0.41953
gfz2012sbix   0.11670
gfz2012smyn   0.19072
gfz2012sqsc   2.29490
gfz2012ssnb   0.83275
gfz2012suqd   0.73890
gfz2012svwz  -0.20777
gfz2012syum   1.04080
gfz2012tisj  -1.64880
gfz2012tsdz   1.09700
gfz2012uegq   0.64714
gfz2012uhtc  -0.65373
gfz2012ukzg   0.77665
gfz2012uzww  -0.88044
gfz2012vrqz  -0.17340
gfz2012vurc  -0.48874
gfz2012wgmg  -0.73137
gfz2012wowu   0.24885
gfz2012woxj   0.02218
gfz2012wpen  -1.40870
gfz2012xncm   0.21205
gfz2012xtvu  -0.55114
gfz2012xxdj  -0.50480
gfz2012yegw   1.21470
gfz2012zhyz  -0.47950
gfz2013akkd   0.04242
gfz2013ascz  -2.33060
gfz2013atak  -0.40051
gfz2013bqfc   0.45311
gfz2013bwgw   0.18749
gfz2013byyy  -0.90095
gfz2013cinv  -0.48495
gfz2013cqee   0.60027
gfz2013cvve  -0.19799
gfz2013cyvx  -0.21804
gfz2013delq   0.08271
gfz2013djfi  -0.82674
gfz2013dngd   0.36037
gfz2013dwsp  -2.57500
gfz2013dzvr  -0.89229
gfz2013eazm  -0.22687
gfz2013efct  -0.34443
gfz2013frxd  -0.73220
gfz2013fulo  -0.25110
gfz2013fvht   0.18314
gfz2013fvyr  -0.66424
gfz2013gkcx  -0.81540
gfz2013gywl   0.55010
gfz2013hbmi   0.27460
gfz2013hduf   0.13243
gfz2013hqaa   0.53682
gfz2013irme  -0.00000
gfz2013iuyv  -1.61450
gfz2013jfcn   0.20990
gfz2013jhog  -0.65587
gfz2013jlli   0.12953
gfz2013jobl  -0.18665
gfz2013kpcb   0.16010
gfz2013kqab  -0.21885
gfz2013kxlr  -0.34876
gfz2013kxof   0.08245
gfz2013lcrk   0.19803
gfz2013ljwt  -0.65987
gfz2013mdxj   0.25208
gfz2013oizq   0.42147
gfz2013ojza   0.38342
gfz2013oywh   0.63503
gfz2013phhi   0.51506
gfz2013pkmz  -0.49493
gfz2013pqkp   0.78648
gfz2013qigb  -0.62791
gfz2013qoak   0.07221
gfz2013quyn  -0.04718
gfz2013rnsa  -0.47055
gfz2013rocs  -0.57590
gfz2013rwkj  -0.41787
gfz2013skay   0.87045
gfz2013taeb   0.52922
gfz2013tdsx  -0.10050
gfz2013tkcg  -0.75814
gfz2013trsq  -0.60967
gfz2013ubgt  -0.65259
gfz2013vdam  -0.04668
gfz2013vjrr   0.59697
gfz2013vldx   0.21388
gfz2013vmsg   0.79461
gfz2013vojy  -0.32540
gfz2013vsdd   0.15033
gfz2013xahp  -0.30507
gfz2013xmzw  -0.08640
gfz2013ylxm   1.27670
gfz2013yodm  -0.14398
gfz2013yxhf  -0.07069
gfz2013zfbz  -0.15428
gfz2013ziix  -1.21830
gfz2014ajgi  -0.67638
gfz2014aqop   0.10569
gfz2014ayxf   0.23034
gfz2014bdju  -0.27321
gfz2014bkra   0.39515
gfz2014bmqw  -1.36230
gfz2014bqpm  -0.19317
gfz2014bztn   0.81538
gfz2014cgxj  -0.59569
gfz2014cjao  -0.85020
gfz2014cokw  -0.21643
gfz2014ctdl  -0.39588
gfz2014eoay  -0.31831
gfz2014epfm  -0.90612
gfz2014evyu  -0.58402
gfz2014fsir  -0.63198
gfz2014fsje  -0.45126
gfz2014fxuy  -0.67337
gfz2014gnvp  -0.07837
gfz2014gypw   0.82608
gfz2014hkcw   0.04879
gfz2014huqh   1.14850
gfz2014iayo  -0.33182
gfz2014irly  -0.27870
gfz2014iusw  -0.30087
gfz2014jayh  -0.27971
