# Nsamples: 447  MAD:  0.614  mean: -0.059  std:  0.792
gfz2010aggj  -0.14100
gfz2010bgrt  -0.36096
gfz2010bqnk   0.82130
gfz2010ccye  -0.70182
gfz2010clbw  -0.70833
gfz2010cllh   0.04150
gfz2010cnyi  -0.29865
gfz2010cphq   0.75284
gfz2010crir  -0.18578
gfz2010csle  -0.59102
gfz2010csmw  -0.21926
gfz2010cwrk  -1.19870
gfz2010dask   0.54820
gfz2010ddan   0.27931
gfz2010djib  -0.29507
gfz2010drit   0.91878
gfz2010drml   0.40874
gfz2010drmq   0.40874
gfz2010dumv   1.11010
gfz2010dxhq   0.65559
gfz2010fgbo  -0.21848
gfz2010fkff   0.76242
gfz2010fpvw  -0.99413
gfz2010habf  -0.11778
gfz2010hueh   0.59811
gfz2010izag   0.27787
gfz2010jlvp  -0.11427
gfz2010mjdl  -0.35320
gfz2010mqzz  -1.20980
gfz2010msss   2.12450
gfz2010nteg   1.51010
gfz2010okpc   0.00459
gfz2010pclq  -1.26790
gfz2010pcya  -0.55953
gfz2010pdip  -0.51215
gfz2010qrta  -0.20851
gfz2010qylh   0.72599
gfz2010qzvf   0.62220
gfz2010rhvu  -0.00144
gfz2010rljv   0.46993
gfz2010rnqa  -0.34754
gfz2010rnwt  -0.31768
gfz2010schp   0.11303
gfz2010sdfs  -0.55226
gfz2010swqy  -0.71331
gfz2010tfar  -0.43619
gfz2010tmba   0.07479
gfz2010tmne  -0.63994
gfz2010tpcj  -0.04742
gfz2010tqyo  -0.89561
gfz2010tzlz   0.16336
gfz2010tzma   0.88256
gfz2010uidg   1.39420
gfz2010vong   0.70463
gfz2010wplk  -0.29446
gfz2010wwhf   0.58494
gfz2010wyuj  -0.31243
gfz2010xaxw   0.17070
gfz2010xkbz   0.75356
gfz2010xpzq  -0.27270
gfz2010xvev   0.31477
gfz2010yczp  -0.30035
gfz2010yfdr  -0.02223
gfz2010yhdn  -0.28394
gfz2010yhhj  -1.15300
gfz2010zjun  -0.63190
gfz2011amst   1.57720
gfz2011aqpp  -0.08156
gfz2011bpqm  -0.67787
gfz2011bqbx   4.71280
gfz2011bsvr  -0.58562
gfz2011bygs  -0.60188
gfz2011bzio  -0.25576
gfz2011cdge   0.07442
gfz2011chsa  -1.26030
gfz2011cjuz   0.08232
gfz2011cwzi   0.06936
gfz2011dabj  -0.25154
gfz2011dhfg  -0.74526
gfz2011dhqk   1.36020
gfz2011dmdv   0.95371
gfz2011dpyu  -0.43613
gfz2011duvm   0.20008
gfz2011dwae  -0.15156
gfz2011ffdh  -0.49491
gfz2011fnie   0.03009
gfz2011fszl  -0.32164
gfz2011fyfu   0.66027
gfz2011fzcw  -0.31025
gfz2011gaax   0.24223
gfz2011gfer  -0.02685
gfz2011ggnl   0.56502
gfz2011glpg  -0.66893
gfz2011gnbk  -0.48372
gfz2011gpyr  -0.49113
gfz2011haaa  -0.35229
gfz2011hatg  -0.89148
gfz2011hibi   2.19200
gfz2011hjof   0.14251
gfz2011hmnw  -0.42259
gfz2011hqjs  -0.47811
gfz2011hrgt   0.04420
gfz2011hvzo   0.86965
gfz2011hyct  -0.04020
gfz2011iamf   0.60145
gfz2011ibew   0.02215
gfz2011iryz  -0.70679
gfz2011ituo  -0.50748
gfz2011jdoz   0.22749
gfz2011jeta  -0.35617
gfz2011jghq  -0.90584
gfz2011jpob  -0.36803
gfz2011jryv  -0.32332
gfz2011kbzo   0.16380
gfz2011kylu  -0.20491
gfz2011kyzy  -0.23617
gfz2011lkkf   0.28299
gfz2011lmug  -0.54518
gfz2011lwmg  -0.04417
gfz2011lxga  -0.39465
gfz2011mdyq  -0.04685
gfz2011mjje  -0.66376
gfz2011mllb  -0.07516
gfz2011mrfm   0.50890
gfz2011mzvn  -0.14402
gfz2011ndse  -0.77095
gfz2011neai   0.73394
gfz2011nejg  -0.84667
gfz2011nejw  -0.72773
gfz2011nerb  -0.04345
gfz2011nftw  -0.07480
gfz2011nhhd   0.18793
gfz2011nhvt   0.62179
gfz2011nihq   3.67920
gfz2011nijp   0.81911
gfz2011nilw  -0.18927
gfz2011nioi  -0.63856
gfz2011nisj  -0.01121
gfz2011niuw   0.37111
gfz2011nlmf  -0.10088
gfz2011nnda  -0.58947
gfz2011npeu   0.45464
gfz2011nsiy   0.88733
gfz2011oadm  -0.50872
gfz2011oazk  -1.24710
gfz2011ofpj  -0.33677
gfz2011okza   0.24024
gfz2011omxt  -0.49367
gfz2011osmp  -0.02594
gfz2011ovvj  -0.32906
gfz2011owqa  -0.51269
gfz2011paqj  -0.48733
gfz2011pbgh   4.68330
gfz2011pdsn  -1.88110
gfz2011pfls   0.61917
gfz2011pfwq   1.10460
gfz2011ppsc  -0.61806
gfz2011prrq  -0.76351
gfz2011pwbw  -0.53899
gfz2011sdax  -0.21789
gfz2011sdpl   0.18350
gfz2011sqco  -0.97895
gfz2011sskq  -0.38754
gfz2011sxno   0.36868
gfz2011tsgl  -0.14562
gfz2011ugbt  -1.06180
gfz2011unud  -0.91611
gfz2011urwz  -0.56345
gfz2011vahy  -0.25793
gfz2011vsag  -0.61323
gfz2011vtdl  -0.64983
gfz2011wcvs  -0.52489
gfz2011wkyx   0.08552
gfz2011wtfn   1.16330
gfz2011wwze   0.29133
gfz2011wyei   0.77745
gfz2011xgwy   0.74576
gfz2011xkka  -0.67220
gfz2011xnui  -0.04566
gfz2011yexx  -0.76462
gfz2011zghc  -1.08030
gfz2011zgxn  -0.57084
gfz2011zkbt  -1.71470
gfz2012amjx  -0.25936
gfz2012aqpa  -1.11180
gfz2012arlo   0.24117
gfz2012atjr  -0.47192
gfz2012byrq   0.18817
gfz2012byuk  -0.33192
gfz2012cdju  -0.05269
gfz2012cntu  -0.53922
gfz2012cvfr   0.04118
gfz2012cwhl  -1.44860
gfz2012czvh  -0.69471
gfz2012dbgt   0.30127
gfz2012dejg  -0.39254
gfz2012dleg   0.26307
gfz2012dpnu  -0.41219
gfz2012drak   0.51424
gfz2012dtdt  -0.02934
gfz2012dtvr  -0.73432
gfz2012duwm  -0.77063
gfz2012dwwu  -0.73032
gfz2012dzot   0.94734
gfz2012ebff   0.29295
gfz2012ebrr  -0.65710
gfz2012elek  -0.58304
gfz2012emin  -0.00000
gfz2012erds   0.34774
gfz2012fbgz  -0.20001
gfz2012fcyq  -0.52883
gfz2012fcyr  -0.56744
gfz2012fhaf  -0.44035
gfz2012ftks  -0.21835
gfz2012fyny  -0.26071
gfz2012gjdg  -0.71315
gfz2012gjtd   0.18658
gfz2012gnow  -0.14398
gfz2012gubu   2.08930
gfz2012gvxc   0.65991
gfz2012hdny  -0.47213
gfz2012hhlx  -0.38610
gfz2012hwph   0.40789
gfz2012hyqh   0.47839
gfz2012hzur  -0.94301
gfz2012ibyd  -0.43353
gfz2012icjo  -0.25538
gfz2012idxu   0.75261
gfz2012iijk   0.21261
gfz2012imuo  -0.82084
gfz2012iotw   0.03798
gfz2012iphs   1.05230
gfz2012iroy  -0.47156
gfz2012ivyg   1.03760
gfz2012jaun  -0.41271
gfz2012jopi  -0.13050
gfz2012kmbo  -0.30742
gfz2012kmmz  -0.23859
gfz2012krcm  -0.05116
gfz2012kstg  -0.24639
gfz2012mhik  -0.74830
gfz2012mmiw  -0.47339
gfz2012mzco  -0.08806
gfz2012ndwt  -0.21975
gfz2012nldz  -1.34070
gfz2012nmja  -0.74406
gfz2012nqvd  -0.75787
gfz2012oafg  -0.21657
gfz2012oieq   0.36808
gfz2012ojmv   0.33293
gfz2012oork   1.54130
gfz2012oozp  -0.42878
gfz2012phns  -0.17864
gfz2012pmws   0.14070
gfz2012ppcq   0.60678
gfz2012qbbt   0.36105
gfz2012qfah   2.81200
gfz2012qfov  -0.53542
gfz2012qpoc  -0.98625
gfz2012qvwy   0.99654
gfz2012rzwp  -0.34959
gfz2012smyn  -0.41527
gfz2012sqsc   0.67553
gfz2012suqd   0.98209
gfz2012svwz  -0.39550
gfz2012sxpr   0.73291
gfz2012syum   0.16407
gfz2012taph  -0.81495
gfz2012tisj  -0.19716
gfz2012tyoz  -0.34559
gfz2012udxg  -0.31811
gfz2012uhtc  -0.42889
gfz2012unxc  -0.02225
gfz2012uovh  -0.55662
gfz2012uzww  -0.78848
gfz2012vitw  -0.34616
gfz2012vrqz  -0.93744
gfz2012wbeu  -1.18770
gfz2012wgmg  -0.92548
gfz2012wiyv   2.02800
gfz2012wjpf   1.75570
gfz2012wowu   0.28008
gfz2012woxj  -0.72061
gfz2012wysg   0.36146
gfz2012xcsf  -0.50794
gfz2012xkln  -0.09211
gfz2012xlas  -0.16085
gfz2012xncm   0.13096
gfz2012xqxw   0.57825
gfz2012xtvu  -0.26373
gfz2012xxdj  -0.28785
gfz2012yytb   0.16574
gfz2012zhyz  -0.28855
gfz2012zido  -0.74860
gfz2012zmfc   0.06745
gfz2013akkd  -0.74862
gfz2013atak  -0.51739
gfz2013bdvi   0.48956
gfz2013bwgw  -1.33260
gfz2013byyy  -0.65191
gfz2013cfls   0.25455
gfz2013cinv  -0.46139
gfz2013cvve   0.25280
gfz2013cyvx  -0.18419
gfz2013djfi  -0.67776
gfz2013dngd  -0.04898
gfz2013dzvr  -0.76416
gfz2013efct   0.27647
gfz2013ezmc   0.34885
gfz2013frxd  -0.23316
gfz2013fulo   0.63183
gfz2013fvht   0.00819
gfz2013fvyr  -0.50154
gfz2013gbki  -0.11918
gfz2013gjmk  -0.47842
gfz2013gkcx  -0.72059
gfz2013hbmi   0.10680
gfz2013hdbp  -0.89905
gfz2013hduf  -0.25268
gfz2013hqaa  -0.01198
gfz2013hwps  -0.35073
gfz2013icql  -0.39537
gfz2013irme  -0.11313
gfz2013iuyv  -0.83380
gfz2013iwzn  -1.15870
gfz2013jfcn   0.13927
gfz2013jhog  -0.19521
gfz2013jlli  -0.02972
gfz2013jobl  -0.29901
gfz2013jtsg  -0.73131
gfz2013kats  -0.02042
gfz2013kdfy   0.82690
gfz2013kjgh   1.12410
gfz2013kpcb  -0.36611
gfz2013kqab  -0.89055
gfz2013kruh   0.48100
gfz2013kxlr   0.40255
gfz2013lcrk   0.42926
gfz2013lqjj   0.92429
gfz2013mdxj   0.33111
gfz2013mimp   0.66408
gfz2013mktp  -0.27318
gfz2013mzaw   0.56812
gfz2013oeni   0.01144
gfz2013oizq  -0.60126
gfz2013olos  -0.22531
gfz2013onvl  -0.58138
gfz2013orot  -0.34449
gfz2013oywh   0.51979
gfz2013phhi  -0.97002
gfz2013pkmz  -0.88705
gfz2013pqkp  -0.24150
gfz2013qaov   2.88320
gfz2013qigb  -0.94435
gfz2013qmkt   0.38609
gfz2013qoak   1.19530
gfz2013quwz  -0.63089
gfz2013quyn  -0.31117
gfz2013rgcc  -0.50609
gfz2013rocs  -0.14976
gfz2013rwkj   0.00000
gfz2013ryph  -0.34864
gfz2013skvq   0.61584
gfz2013stup   0.68356
gfz2013tdsx   0.14367
gfz2013tert   0.96765
gfz2013tgyb   0.46928
gfz2013tjub   0.26181
gfz2013tkcg  -0.96898
gfz2013tmyj   0.91357
gfz2013ubgt  -0.06538
gfz2013udtw  -0.05210
gfz2013unuv  -0.64159
gfz2013upqj   0.95934
gfz2013vdam  -0.12107
gfz2013vjrr  -0.05389
gfz2013vldx  -0.42722
gfz2013vmrv   0.46378
gfz2013vmsg   0.35205
gfz2013vojy  -0.41288
gfz2013vzel  -0.07873
gfz2013xahp  -0.24535
gfz2013xjmo  -0.37992
gfz2013xmzw  -0.04252
gfz2013xodn  -0.80059
gfz2013xofz   0.24015
gfz2013yihv   0.48281
gfz2013ylxm  -0.84799
gfz2013yodm   0.15969
gfz2013yxhf   0.26993
gfz2013zedt   0.64854
gfz2013zfbz  -0.08287
gfz2014ajgi  -4.53530
gfz2014aqop   0.06930
gfz2014ayxf  -0.25365
gfz2014bdju   0.00000
gfz2014bkra  -0.16544
gfz2014bppg   0.38333
gfz2014bqpm  -0.00919
gfz2014cgoi  -0.85123
gfz2014cgxj  -0.63512
gfz2014club  -0.11812
gfz2014cokw  -0.81167
gfz2014ctdl   0.01377
gfz2014cvnb   0.42414
gfz2014dbqi  -0.23454
gfz2014egvg  -0.81036
gfz2014eirs   0.76422
gfz2014eoay  -0.34900
gfz2014evyu   0.24095
gfz2014exxj   0.35608
gfz2014ezld  -0.27006
gfz2014faex   1.18880
gfz2014fbli   0.34914
gfz2014fbnr   0.93690
gfz2014fdhk   0.96713
gfz2014ffqg  -0.55024
gfz2014fgbn   1.04530
gfz2014fjfz   0.39353
gfz2014fsir  -0.46483
gfz2014fsje  -0.34046
gfz2014fskh  -0.14717
gfz2014fwxt  -0.05473
gfz2014fxte  -0.76682
gfz2014fxuy  -0.13586
gfz2014gasb   0.59164
gfz2014gnvp  -0.13607
gfz2014grwv  -1.84520
gfz2014gsfc   0.39109
gfz2014gssz  -0.06750
gfz2014gutd  -1.09500
gfz2014gypw   0.22558
gfz2014hapg   0.55691
gfz2014happ   0.63468
gfz2014hkcw   0.07133
gfz2014hqhv  -1.42640
gfz2014huah   0.62489
gfz2014huqh   0.56396
gfz2014icov   0.44089
gfz2014ijov   0.31707
gfz2014ijsa   0.88351
gfz2014ined  -3.05620
gfz2014irly  -0.56043
gfz2014iusw  -0.02373
gfz2014ixlc   0.41800
gfz2014jayh  -0.13842
gfz2014jbfp   0.46387
