# Nsamples: 48  MAD:  0.744  mean:  0.861  std:  0.908
gfz2010cllh   1.04490
gfz2010mqzz   0.56394
gfz2010okpc   2.73420
gfz2010pclq   2.19510
gfz2010rljv   1.61170
gfz2010wakc   0.51529
gfz2011bpqm   1.25720
gfz2011dabj   0.44731
gfz2011dhfg  -0.54188
gfz2011dpyu  -0.02796
gfz2011fnie   0.56706
gfz2011gnbk   0.54834
gfz2011jryv   0.94561
gfz2011ndhh   1.80100
gfz2011nejg  -1.32340
gfz2011ofpj   0.24847
gfz2011paqj  -0.86064
gfz2011rkau   0.62257
gfz2011sdax   0.40914
gfz2011tjpv  -0.42584
gfz2012cvfr   0.74113
gfz2012dejg   1.25160
gfz2012dttl   0.80010
gfz2012iijk   1.98190
gfz2012oafg   0.06662
gfz2012rzwp   1.31200
gfz2012sqsc   1.08470
gfz2012ssnb   1.56700
gfz2012suqd   1.63230
gfz2013cyvx   1.03800
gfz2013delq   0.35487
gfz2013fulo   0.63519
gfz2013fvht   1.68350
gfz2013fvyr   2.56320
gfz2013iuyv   1.71160
gfz2013jfcn   1.26850
gfz2013kats   0.36054
gfz2013kpcb   0.43741
gfz2013oizq   3.57640
gfz2013pqkp   0.35604
gfz2013qigb   0.03886
gfz2013qoak   1.38490
gfz2013quwz   0.39734
gfz2013vdam   0.92540
gfz2014cjao   0.34328
gfz2014fxte   0.41491
gfz2014iltl   0.97991
gfz2014irlf   0.09122
