# Nsamples: 71  MAD:  1.123  mean:  0.304  std:  1.292
gfz2010djib  -1.60660
gfz2010habf  -0.63865
gfz2010jlvp  -4.89510
gfz2010mdti   1.53150
gfz2010mqzz  -0.06764
gfz2010ngge   1.56380
gfz2010okpc   1.29220
gfz2010pcya  -0.18904
gfz2010pgpo   0.73031
gfz2010pzza   0.36768
gfz2010sdfs   2.20520
gfz2010uhjy   0.01450
gfz2010vong   0.47730
gfz2010zjun  -0.38411
gfz2011cjuz  -0.00907
gfz2011dpyu  -0.17949
gfz2011gnbk   1.19200
gfz2011hjof   1.08740
gfz2011lwmg  -1.16390
gfz2011mllb  -0.40848
gfz2011ndhh   1.29620
gfz2011neai  -1.14670
gfz2011nejg   0.57401
gfz2011nejw   0.59053
gfz2011nfcz  -0.37529
gfz2011nftw   0.59982
gfz2011nhwf  -0.52102
gfz2011nijp   0.00000
gfz2011nilw   0.70119
gfz2011niuw   0.69319
gfz2011nlmf  -0.67741
gfz2011nlum   2.39700
gfz2011nnda   2.24820
gfz2011nuqo   1.30520
gfz2011ofpj  -0.06523
gfz2011oslk   0.89873
gfz2011osmp   1.55110
gfz2011owqa  -0.90739
gfz2011pfwq   0.92597
gfz2011pwbw   1.46580
gfz2011sdax   0.20355
gfz2011tsgl   0.04257
gfz2012iijk  -0.86252
gfz2012kmbo  -0.30011
gfz2012ldjj   1.99440
gfz2012mhik   1.36520
gfz2012oafg  -0.52285
gfz2012qpoc  -0.28393
gfz2012syum  -0.53552
gfz2013dzvr   1.85390
gfz2013icql   0.75079
gfz2013iuyv  -0.18219
gfz2013jlli   2.47800
gfz2013kats  -0.29818
gfz2013kbbg   0.06858
gfz2013kcdb   1.19500
gfz2013lbvl   0.49878
gfz2013phhi  -0.50308
gfz2013qoak  -1.12780
gfz2013quwz   0.94850
gfz2013vmrv  -0.38966
gfz2013wyfl   1.19700
gfz2013xahp   1.82310
gfz2014fsir   0.12005
gfz2014fxte   1.12250
gfz2014icov   0.05797
gfz2014iltl  -0.73326
gfz2014irlf   0.75330
gfz2014irln   2.03540
gfz2014jarg   0.87417
gfz2014jfmc  -4.53350
