# Nsamples: 717  MAD:  1.232  mean:  1.591  std:  2.442
gfz2010axdz  -1.89590
gfz2010azji   0.37618
gfz2010bgrt   1.20600
gfz2010bkfi   0.70958
gfz2010bklj   2.53550
gfz2010ckoc   0.71600
gfz2010clbw   1.05800
gfz2010cllh   6.94860
gfz2010cngg   0.61270
gfz2010cnhd   0.18863
gfz2010cnyi   0.38172
gfz2010colm   0.01895
gfz2010cphq   5.07130
gfz2010cpig   4.46860
gfz2010cqoq  -0.45479
gfz2010crgy   2.51120
gfz2010crir   1.83780
gfz2010csle   1.84850
gfz2010csmw   0.11463
gfz2010csqg  -0.00000
gfz2010csqy  -0.14173
gfz2010ctak   4.86510
gfz2010cthm   6.25630
gfz2010cuzg   0.02210
gfz2010cvam   0.04419
gfz2010cvkn   5.64580
gfz2010cwrk   0.36190
gfz2010cyid   5.65780
gfz2010dask   9.01910
gfz2010ddan   9.31660
gfz2010depd   0.32430
gfz2010diid   0.04426
gfz2010djib   5.70100
gfz2010drit   5.47710
gfz2010drml   8.48710
gfz2010drmq   8.48710
gfz2010drng   3.97740
gfz2010drpv   2.70910
gfz2010drun   0.95627
gfz2010dtgc   0.97484
gfz2010dtyx   2.75710
gfz2010dxhq   5.07040
gfz2010eepd  -0.05759
gfz2010ehgf  -0.08764
gfz2010eibh   0.88565
gfz2010ekvl   0.17080
gfz2010elge  -6.48400
gfz2010eqyj   8.23620
gfz2010ethu  -0.13412
gfz2010extu   7.04190
gfz2010faly   0.33716
gfz2010fgbo   1.12130
gfz2010fjio   0.17739
gfz2010fjme  -2.67320
gfz2010fkff   0.36135
gfz2010fnkr   0.63029
gfz2010fopf   0.80664
gfz2010fpvw   0.28702
gfz2010fqzh   0.16274
gfz2010ftfq   0.49596
gfz2010fxhh  -0.05731
gfz2010fxut   2.88350
gfz2010gcqp   0.68766
gfz2010gnvp   0.11719
gfz2010gonu  -0.44802
gfz2010gpjl   0.11062
gfz2010guwa  -0.34665
gfz2010hdgr   0.37046
gfz2010hdxn   0.31913
gfz2010hexh   0.92546
gfz2010hllp   5.69940
gfz2010hnuo   1.48340
gfz2010hueh   7.36670
gfz2010hxan   0.21105
gfz2010iaay   2.75210
gfz2010ifru   0.39142
gfz2010ihef   1.22610
gfz2010inbs   0.85261
gfz2010inkz   0.06283
gfz2010ioad   0.58589
gfz2010jcby   0.37095
gfz2010jcpq   0.44404
gfz2010jdhk   2.33060
gfz2010jgwj   1.98170
gfz2010jkrp  -1.89040
gfz2010jpkn   1.32480
gfz2010juke   0.41097
gfz2010jyvd   3.37970
gfz2010kcdq  10.00100
gfz2010kcyz   1.61320
gfz2010kuzb   0.08746
gfz2010kwks   0.55307
gfz2010kzzm   0.15129
gfz2010ljmp   0.94714
gfz2010ljol   1.72850
gfz2010ljzf  -0.05078
gfz2010lswe   0.66282
gfz2010lvnj   2.07130
gfz2010mdti   0.55984
gfz2010mguv   0.02159
gfz2010mjdl  10.57200
gfz2010mnoc   0.68027
gfz2010mpvc   7.61850
gfz2010mqaj   2.15940
gfz2010mqzz   1.28750
gfz2010msss   1.46640
gfz2010mvmb   2.93970
gfz2010mvtj   0.69207
gfz2010mwmd   4.22270
gfz2010myqg  -0.00000
gfz2010mzfb  -0.23186
gfz2010nbcr   1.23660
gfz2010nccu   1.97750
gfz2010ncwu   0.70852
gfz2010ngge   1.36490
gfz2010nkrw   5.64790
gfz2010novb   1.10210
gfz2010nteg   8.83620
gfz2010nwbd   0.22982
gfz2010nwyk   0.28028
gfz2010ocug  -0.06640
gfz2010oguu   1.10700
gfz2010osaq  -0.73036
gfz2010ouvm   1.84110
gfz2010pclq   0.16978
gfz2010pcya   3.96280
gfz2010pdip   3.11290
gfz2010pgpo   0.48132
gfz2010prnw  -0.29595
gfz2010sook  -0.59337
gfz2010swqy   1.14720
gfz2010sylk   0.29670
gfz2010syqh   0.39198
gfz2010szxo   1.14250
gfz2010tcgh   4.30310
gfz2010tfar   0.70658
gfz2010tmba   2.42700
gfz2010tmne   2.19740
gfz2010tvit   0.90549
gfz2010tzki  -0.12057
gfz2010tzlz   9.05120
gfz2010tzma   7.19130
gfz2010ujqn  -0.02606
gfz2010uopf   0.07870
gfz2010upod   1.86970
gfz2010uqba   0.36133
gfz2010uraq   7.70710
gfz2010uveo   0.97927
gfz2010uvpz   1.01520
gfz2010uyng   0.49220
gfz2010vdcf  -0.75589
gfz2010vgfu   0.02593
gfz2010vhzx  -0.14240
gfz2010viyi   1.61620
gfz2010vjac   0.35363
gfz2010vxwv   0.90160
gfz2010vybx   0.64529
gfz2010wakc   1.39330
gfz2010wdav  -0.47233
gfz2010wigk   6.61550
gfz2010wplk   0.74524
gfz2010wtin   8.01840
gfz2010wwhf   0.17245
gfz2010wwnq   0.39006
gfz2010wyuj   0.32331
gfz2010xamh   0.60681
gfz2010xcdd   0.23406
gfz2010xhqq   0.32869
gfz2010xjsv   9.62860
gfz2010xkbz   3.98460
gfz2010xkku   1.19160
gfz2010xnbn  -1.81240
gfz2010xney  -0.58438
gfz2010xnwf   1.25610
gfz2010xvev   0.31766
gfz2010xytc   0.43098
gfz2010xzah  10.70900
gfz2010xzte   8.85680
gfz2010yczp   1.43240
gfz2010yfdr   1.92150
gfz2010ygrd   0.82632
gfz2010yhdn   0.76038
gfz2010yhhj   5.72580
gfz2010ymih   0.35812
gfz2010zhvj   8.90410
gfz2010zjun   2.24300
gfz2010zkle   9.83080
gfz2011etkc   1.15900
gfz2011exxq   7.29470
gfz2011fbsl   4.11170
gfz2011ffdh   0.45194
gfz2011fges  -0.06170
gfz2011fnie   6.26540
gfz2011fnuk   0.57897
gfz2011fnxz   0.33052
gfz2011fxmf   0.26086
gfz2011fyfu   1.07780
gfz2011fzcw  -8.58320
gfz2011gaax   0.79457
gfz2011gcct   0.09130
gfz2011gdli   0.43300
gfz2011gdrl   0.33667
gfz2011gfer   0.09051
gfz2011ggnl  -2.17930
gfz2011ggsz  -0.79465
gfz2011gkdx   1.68390
gfz2011glpg   0.13881
gfz2011gnbk   1.05960
gfz2011gpyr   0.70501
gfz2011grby   4.81270
gfz2011gzde   1.61180
gfz2011haaa   0.22755
gfz2011hatg   3.16930
gfz2011hbqc   2.83360
gfz2011hffq  -0.08039
gfz2011hibi   8.14240
gfz2011hjof   2.80110
gfz2011hmnw   1.19400
gfz2011hqjs   1.07910
gfz2011hrgt   0.25856
gfz2011huon  -0.43468
gfz2011hvzo   5.48720
gfz2011hwbn  -0.15638
gfz2011hyct   1.31510
gfz2011hyuh   1.05100
gfz2011iamf   1.13410
gfz2011ibew   0.15495
gfz2011ifta   0.89086
gfz2011inan   0.57463
gfz2011ioch   1.36960
gfz2011iryz   1.75120
gfz2011itcv   1.00400
gfz2011ituo   0.56191
gfz2011ixpj   0.45316
gfz2011iybf   0.85728
gfz2011jdoz   5.96520
gfz2011jeta   0.56868
gfz2011jfyb   0.97745
gfz2011jghq   1.65090
gfz2011jphj   1.25770
gfz2011jqyc   0.72857
gfz2011jrgh  -0.48483
gfz2011jryv   5.25230
gfz2011kbzo  -0.03708
gfz2011kgvq   1.16630
gfz2011kjzt   1.89030
gfz2011kjzv   2.61300
gfz2011knht   2.11980
gfz2011kujo   6.55740
gfz2011kylu  -3.59570
gfz2011kymm  -1.91320
gfz2011kyzy   0.73592
gfz2011lbnn   0.65954
gfz2011ldgl   0.14111
gfz2011lkkf   1.40770
gfz2011lmug   1.27550
gfz2011lnzf   0.77787
gfz2011lrpv   1.07930
gfz2011lxga   0.53704
gfz2011lykm  -0.44394
gfz2011lywj   0.18155
gfz2011mdyq   1.31260
gfz2011mimz   0.45334
gfz2011mjje   2.09990
gfz2011mntq  -0.52283
gfz2011moob  11.90700
gfz2011mrfm   1.34090
gfz2011mror   9.71660
gfz2011mryu   6.38950
gfz2011mzvn   1.75830
gfz2011nblt   1.57260
gfz2011ncyw  -2.25010
gfz2011ndhh   4.84190
gfz2011ndki   1.72090
gfz2011ndlh   1.57030
gfz2011ndoe  -0.68210
gfz2011ndse   1.52870
gfz2011ndvj   2.81940
gfz2011neai   3.00230
gfz2011nejg   2.92950
gfz2011nejw   3.32720
gfz2011nerb  -0.06001
gfz2011nfcz   3.30500
gfz2011nfgt   1.71890
gfz2011nfih  -0.31640
gfz2011nfln   1.37550
gfz2011nftw  -1.01390
gfz2011nfwd  -0.19926
gfz2011nhby   0.90861
gfz2011nhhd   2.76460
gfz2011nhjv  -0.28026
gfz2011nifi   0.48020
gfz2011nihq  -0.44970
gfz2011nijp   4.72450
gfz2011nilw   4.03080
gfz2011nimp  -1.05660
gfz2011nioi   0.91986
gfz2011nisj   2.32110
gfz2011nivw  -1.04670
gfz2011nkda  -0.07960
gfz2011nkou  -0.05774
gfz2011nlmf   1.72110
gfz2011nlnl   3.08160
gfz2011nlou   3.75000
gfz2011nlum   7.61030
gfz2011nlyw   3.36150
gfz2011nmdz   1.30060
gfz2011nmhg  -0.73307
gfz2011nnda   2.08050
gfz2011npaf   0.66103
gfz2011npeu   3.69140
gfz2011nsej   0.21294
gfz2011nssr   0.23688
gfz2011nswi   0.60152
gfz2011nsyi  -0.02769
gfz2011ntyd  -0.20296
gfz2011nvty   1.16420
gfz2011oadm   0.89061
gfz2011oazk  -0.44992
gfz2011ocif   0.97319
gfz2011oesd  -0.93755
gfz2011ofpj   1.38100
gfz2011ohgj   2.62020
gfz2011okza   7.19600
gfz2011omxt   1.78740
gfz2011oosp   0.37814
gfz2011oslk   2.65900
gfz2011osmp   0.21063
gfz2011osuy  -0.53883
gfz2011ovvj   1.96490
gfz2011owqa   2.42610
gfz2011paqj   1.87230
gfz2011pbjh   0.52278
gfz2011pcqr   0.27627
gfz2011pdgq   0.89040
gfz2011pfls   7.12410
gfz2011pfwq   4.43020
gfz2011pgzk   1.43080
gfz2011pimj  -0.02216
gfz2011pivq  -0.46030
gfz2011plzc  -0.10297
gfz2011pmuv   3.03050
gfz2011pphc   8.41050
gfz2011ppsc   0.75231
gfz2011prrq   4.43570
gfz2011ptgd   0.45176
gfz2011pulu   6.39170
gfz2011pwbw   1.49140
gfz2011qasw   2.03900
gfz2011qenl   0.78338
gfz2011qgea   7.78240
gfz2011qgvh   0.32469
gfz2011qgvx  -1.85080
gfz2011qhjw   0.67729
gfz2011qidi   1.13800
gfz2011qklh   1.99560
gfz2011qlkj   0.12543
gfz2011qowe   0.43544
gfz2011qtoy  -0.86809
gfz2011qukj   1.22010
gfz2011rbuo   1.50350
gfz2011rczb   1.83590
gfz2011rkau   2.66080
gfz2011rkzx   1.32950
gfz2011rnny   4.81290
gfz2011rnsp   0.36207
gfz2011rpoo  -0.14877
gfz2011scma   3.16690
gfz2011sdax   1.93000
gfz2011sdpl   0.08023
gfz2011sfmu   1.32850
gfz2011sfph   5.34600
gfz2011sqco   0.89566
gfz2011sskq   2.33080
gfz2011stzi   0.21666
gfz2011swfp  10.08700
gfz2011sxno   2.00510
gfz2011sylg   5.10780
gfz2011szau   0.06563
gfz2011szbb   0.41525
gfz2011szcj   0.58540
gfz2011taqr   3.28360
gfz2011tarj   6.23860
gfz2011tdjj   0.68953
gfz2011tgey  -0.56080
gfz2011tgon  -0.04588
gfz2011tjpv   3.02130
gfz2011tlwl   2.72140
gfz2011tozo  -0.39161
gfz2011tqgg   4.31540
gfz2011tsgl   4.39060
gfz2011tssv   1.04960
gfz2011tvuv   2.14750
gfz2011twpz   0.56605
gfz2011tzcv   1.03800
gfz2011ugbt   5.77250
gfz2011unud   1.00950
gfz2011uowi   1.89040
gfz2011uqlz  -0.15146
gfz2011uqry   5.42250
gfz2011urwz   6.17050
gfz2011vahy   2.26640
gfz2011vaoi   0.12344
gfz2011vbxv   0.22132
gfz2011vcyx   0.22219
gfz2011vemg  -0.45294
gfz2011vimn  -0.60852
gfz2011vsag  -0.26470
gfz2011vtdl  -0.01963
gfz2011vtzv   1.06930
gfz2011vxek   0.14632
gfz2011wbtc  -0.03950
gfz2011wkja   1.42710
gfz2011wngi   2.86910
gfz2011wnvu   0.58498
gfz2011wpzt   0.70868
gfz2011wqth  -0.00000
gfz2011wqup   0.84212
gfz2011wucg   0.84767
gfz2011wwze   0.68689
gfz2011xagc   0.18704
gfz2011xdox  -1.55210
gfz2011xgbc   3.74890
gfz2011xgwy   0.66337
gfz2011xlod   1.33310
gfz2011xnui   1.49200
gfz2011xpcq   0.58749
gfz2011xwum  -0.80044
gfz2011xxng   2.80200
gfz2011yeck  -0.47021
gfz2011yjtx   0.12476
gfz2011ykbd  -0.78163
gfz2011ymji   0.67530
gfz2011yntu   1.92880
gfz2011ypfh   8.92200
gfz2011ywtj  -0.45534
gfz2011zcwn  -1.15510
gfz2011zghc   5.73580
gfz2011ziyk   1.28800
gfz2011zkbt   0.57350
gfz2011zlga   0.84739
gfz2011znyq   0.73019
gfz2012agwh   0.52947
gfz2012ahac   1.58720
gfz2012ahkl   6.28130
gfz2012facv   0.53369
gfz2012fbgz   0.98826
gfz2012fcyq   0.93907
gfz2012fcyr   0.62066
gfz2012fhaf   1.38170
gfz2012fiiz   2.03000
gfz2012flqf   0.36680
gfz2012foih  -0.70857
gfz2012fpyo   6.07000
gfz2012ftcq   2.86910
gfz2012fyop   0.17424
gfz2012gbrs   2.76850
gfz2012gdye   1.20930
gfz2012gftg  -0.26721
gfz2012ghiv   1.08100
gfz2012ghyd   0.45534
gfz2012gjtd  10.45900
gfz2012gnow   3.28040
gfz2012grmf  -0.03967
gfz2012gubu   5.35430
gfz2012gvxc   0.94611
gfz2012gzuk  -0.07508
gfz2012hdny   2.05930
gfz2012heih   1.12880
gfz2012hhlx   0.32057
gfz2012hqlo  -0.00000
gfz2012hvfw   0.23907
gfz2012hvtu   1.81240
gfz2012hwph   0.29085
gfz2012hyba   0.64324
gfz2012hyqh   7.29260
gfz2012hysb   0.90873
gfz2012hzai   0.25920
gfz2012hzhn   6.72880
gfz2012hzur   0.95763
gfz2012iblc  -0.26401
gfz2012iblo   5.34340
gfz2012icjo   6.77490
gfz2012idxu  -0.23691
gfz2012iedy   1.91890
gfz2012ieln   0.25264
gfz2012iijk   5.08140
gfz2012imsm   3.32540
gfz2012imuo   1.00730
gfz2012inns  -0.47701
gfz2012iotw   0.16886
gfz2012ipdc   0.13997
gfz2012itxz  -0.01942
gfz2012iyhs   0.30969
gfz2012jaun   4.09270
gfz2012jawj  -0.00000
gfz2012jbzr  -0.34171
gfz2012jksz  -5.22730
gfz2012jlez   0.89345
gfz2012jnlt  -0.58489
gfz2012jodg   6.67200
gfz2012jopi   1.99520
gfz2012jqxx   0.23588
gfz2012juem   0.65006
gfz2012jvei   2.84530
gfz2012kadi   5.17810
gfz2012kjzx   0.04081
gfz2012klpl   0.32000
gfz2012kmbo   3.47760
gfz2012kmmz   0.49775
gfz2012kqjb  -0.11882
gfz2012kvlx  -0.24259
gfz2013bgyg  -0.23921
gfz2013bwgw   7.07790
gfz2013byyy   0.87794
gfz2013vsdd   1.29500
gfz2013vvre   1.87680
gfz2013vwkh   1.48380
gfz2013vxht   0.52797
gfz2013vzel  -0.31167
gfz2013wegs  -0.40654
gfz2013wgwz   0.69055
gfz2013wigs  -0.75891
gfz2013wpns   0.60633
gfz2013wwee   0.02167
gfz2013wyfl   3.92820
gfz2013xacx   1.59360
gfz2013xahp   1.20620
gfz2013xbdc   0.32746
gfz2013xddu   0.99720
gfz2013xjmo   4.37510
gfz2013xjmy   3.13000
gfz2013xlic   0.77697
gfz2013xmzw   1.22020
gfz2013xodn   1.68190
gfz2013xofz   4.57370
gfz2013xupg   0.54010
gfz2013xvps   1.03810
gfz2013xxbf   0.95519
gfz2013xycz   0.24628
gfz2013yapz   0.22458
gfz2013yawe   2.96580
gfz2013yfwz  -2.97560
gfz2013yihv   0.94133
gfz2013ykkf   0.15269
gfz2013ykqw   0.00000
gfz2013yktj   1.41590
gfz2013ylxm   3.21900
gfz2013ylxn   1.11480
gfz2013ymhx   0.56109
gfz2013yodm   2.05820
gfz2013yqkz   0.14193
gfz2013yqtu   3.61810
gfz2013ytfm  -2.54340
gfz2013ytmi   1.27890
gfz2013yvnj   1.33620
gfz2013yvpn   0.92750
gfz2013yxhf   1.61150
gfz2013yxif   0.43343
gfz2013yywh   1.25810
gfz2013zedt  -0.33834
gfz2013zeye   0.58496
gfz2013zfbz   1.61680
gfz2013zghn   0.78154
gfz2013ziix  -1.23510
gfz2013zkgm   1.22000
gfz2013zkta   4.04970
gfz2013zkzb   0.02023
gfz2013zlij   0.04805
gfz2013zpse   5.61940
gfz2013zpwk   1.79000
gfz2013zqan   0.17007
gfz2014aaae   5.46610
gfz2014aapq   0.23429
gfz2014aedl   1.27380
gfz2014aejh   1.27310
gfz2014afbt   0.02034
gfz2014ajgi   2.16500
gfz2014alzg   0.03733
gfz2014amgk  -1.41400
gfz2014aqax   1.45600
gfz2014aqop   0.62865
gfz2014arox   0.09195
gfz2014ascp   0.26188
gfz2014ateb   2.24690
gfz2014avmd   1.74590
gfz2014avzp  -0.05620
gfz2014azfu   0.15640
gfz2014bdju   1.27800
gfz2014befl   0.37232
gfz2014bfjb   0.56789
gfz2014bgxe   0.57297
gfz2014bgyv   1.93790
gfz2014bhch   0.39491
gfz2014bkra   0.13725
gfz2014bmch  -0.39308
gfz2014bmqw   0.92082
gfz2014bnea   1.06190
gfz2014bppg   2.20660
gfz2014bqpm   1.07690
gfz2014brkk   5.47010
gfz2014buyz   0.52923
gfz2014bycg   0.61342
gfz2014byes   1.88960
gfz2014bztn   0.81217
gfz2014bzus   0.16930
gfz2014cgoi   0.45311
gfz2014cgxj   3.62940
gfz2014cjao   1.38020
gfz2014ckqv   0.05840
gfz2014club   1.30240
gfz2014cokw   0.32044
gfz2014ctdl   1.59720
gfz2014cvnb   0.48229
gfz2014cwti   2.90110
gfz2014dbqi   0.18241
gfz2014dece  -0.37863
gfz2014djhi   0.57112
gfz2014djyj   0.24328
gfz2014dmrw   1.74760
gfz2014dpny   0.05727
gfz2014dpps   0.85347
gfz2014dsqr   0.15686
gfz2014dtth   0.81388
gfz2014dtto   1.53720
gfz2014dudd   3.84770
gfz2014dutu  -0.28404
gfz2014dwcp   0.89434
gfz2014dykt  -0.80316
gfz2014ecor   1.63200
gfz2014edjm   0.31289
gfz2014eflc   0.85399
gfz2014eglj  -0.86774
gfz2014eiav   0.91968
gfz2014eirs   2.46600
gfz2014ejfx   0.12410
gfz2014eoay   1.45270
gfz2014epfm   0.37471
gfz2014epnq   4.24470
gfz2014esez  -1.10630
gfz2014etgp   0.23566
gfz2014eunw  -1.22240
gfz2014exxj   5.69320
gfz2014eyne  -1.02340
gfz2014ezjq   7.75980
gfz2014ezld   0.93037
gfz2014ezvd   0.04088
gfz2014ezvj   0.00000
gfz2014fbef  -0.08797
gfz2014fbli   1.08830
gfz2014fbnr   5.09200
gfz2014fdhk   0.87190
gfz2014ffqg  -0.34721
gfz2014fgbn  -2.00000
gfz2014fhki   8.33870
gfz2014fjfz   1.94770
gfz2014fqas   0.49189
gfz2014fsir   2.59090
gfz2014fsvc   0.69624
gfz2014fvza   0.05229
gfz2014fwuf   0.71847
gfz2014fwxt   1.21870
gfz2014fxim   2.92140
gfz2014fxte   1.07800
gfz2014fxtv   0.23845
gfz2014fxuy   0.91647
gfz2014gasb   0.13731
gfz2014gbxg   1.07190
gfz2014gcgf  -0.23918
gfz2014geln  -0.06475
gfz2014ggie  -0.04390
gfz2014ginr  -0.08069
gfz2014gnbw   1.08470
gfz2014gpnr   0.73525
gfz2014grwv   0.14204
gfz2014gsfc   2.55080
gfz2014gssz   2.52490
gfz2014gtee   0.09789
gfz2014gutd   1.40500
gfz2014gypw   2.71840
gfz2014gzlm  -0.03797
gfz2014happ   0.71297
gfz2014hgjb  -1.13180
gfz2014hhey   0.47360
gfz2014hhis   1.31090
gfz2014hjmc   1.03420
gfz2014hkcw   0.62025
gfz2014hotu   0.14323
gfz2014hqhv   1.23240
gfz2014hyea   1.67810
gfz2014hzzf   8.13870
gfz2014iayo  -0.08174
gfz2014icov   9.16210
gfz2014igrp   2.06310
gfz2014ikvw   0.58544
gfz2014iltl   5.10630
gfz2014imqh   1.16280
gfz2014ined   0.13876
gfz2014inrg   1.56970
gfz2014iolv   0.73466
gfz2014ipfu   1.91060
gfz2014ipwk  -0.53352
gfz2014irlf   1.28420
gfz2014irln   0.11094
gfz2014irly  -0.11977
gfz2014isjg   1.73750
gfz2014isov   6.11720
gfz2014itlx   1.67810
gfz2014iusw   2.38490
gfz2014ivgm   0.77890
gfz2014ixlc   0.52838
gfz2014iyuc   4.98140
gfz2014jayh   4.12550
gfz2014jbfp   1.09970
gfz2014jbgm   8.66770
gfz2014jckg   0.64577
gfz2014jffe   1.96140
