# Nsamples: 892  MAD:  1.436  mean: -1.380  std:  2.188
gfz2010abfc  -1.80500
gfz2010afyi  -0.09499
gfz2010aggj  -1.03590
gfz2010aimm   0.23737
gfz2010aseg  -0.73907
gfz2010asxa  -0.77922
gfz2010axdz  -4.05860
gfz2010azji  -0.58695
gfz2010bgrt  -5.65580
gfz2010bkfi  -1.16630
gfz2010bklj  -4.13780
gfz2010bnbr  -0.34884
gfz2010bnqr  -0.48663
gfz2010bofe  -4.89840
gfz2010bqnk  -0.18067
gfz2010brlc  -0.01136
gfz2010btme  -0.78848
gfz2010bukb  -0.46639
gfz2010bvit  -0.37332
gfz2010cbnp  -2.04340
gfz2010ccwc  -1.31750
gfz2010ccye   0.19256
gfz2010cdnv  -0.15893
gfz2010ckoc  -0.04595
gfz2010clbw  -2.26770
gfz2010cllh  -5.12020
gfz2010cngg  -2.51150
gfz2010cnhd   0.03611
gfz2010cphq  -6.40220
gfz2010cpig  -7.93890
gfz2010cqoq   0.01797
gfz2010crgy  -2.46400
gfz2010crir  -3.17680
gfz2010csle  -5.87870
gfz2010cyid  -2.72480
gfz2010dask  -4.70660
gfz2010djib  -6.14050
gfz2010dmij  -1.95480
gfz2010dmkd  -3.85210
gfz2010eibh  -1.41150
gfz2010ekvl  -1.09870
gfz2010eqyj   1.75020
gfz2010ewyj  -4.32790
gfz2010fgbo  -1.85710
gfz2010fjme  -11.77400
gfz2010fkpa  -0.76804
gfz2010fnkr  -2.62610
gfz2010fopf  -0.78586
gfz2010ftfq  -0.37911
gfz2010fuky   0.41582
gfz2010fvfz  -3.14430
gfz2010fxut  -8.59280
gfz2010gnvp  -0.05862
gfz2010gonu   3.20850
gfz2010gooc  -1.43280
gfz2010gpjl  12.63700
gfz2010guwa  -0.29876
gfz2010habf  -1.26790
gfz2010hexh  -2.85050
gfz2010hllp  -1.14570
gfz2010hnuo  -6.70270
gfz2010hsgv   0.02759
gfz2010hueh  -0.45625
gfz2010huzl  -1.68580
gfz2010iaay  -8.51220
gfz2010iawy  -0.56102
gfz2010ifhd  -0.12511
gfz2010ifru  -3.72910
gfz2010ihef  -0.03794
gfz2010inbs  -0.92255
gfz2010inkz  -0.90794
gfz2010ioad  -1.53750
gfz2010izag  -0.21455
gfz2010izgb  -0.35148
gfz2010jdhk  -1.03950
gfz2010jgwj  -2.69910
gfz2010jlvp  -0.79294
gfz2010jvsi  -0.08835
gfz2010jyvd  -0.03608
gfz2010kcyz  -2.33320
gfz2010ljmp  -1.01280
gfz2010ljol  -0.84960
gfz2010lvnj  -1.99660
gfz2010mdti  -1.44180
gfz2010mguv  -0.25496
gfz2010mjdl  -0.40985
gfz2010mnoc  -1.10260
gfz2010mpvc  -0.45270
gfz2010mqaj  -2.13330
gfz2010mqzz  -2.61700
gfz2010msss   0.76298
gfz2010mvmb  -2.26540
gfz2010mzfb  -3.26030
gfz2010nbcr  -1.82520
gfz2010nccu  -0.13370
gfz2010ngge  -3.72020
gfz2010novb  -1.68090
gfz2010nteg  -1.28600
gfz2010oguu  -1.06910
gfz2010ogwn  -4.94680
gfz2010okpc  -8.12720
gfz2010okww  -0.55036
gfz2010onxm  -0.80879
gfz2010osrl   0.19240
gfz2010pclq  -0.36548
gfz2010pcya  -5.90840
gfz2010pdip   0.93860
gfz2010pgpo   2.29030
gfz2010pgrf   0.23306
gfz2010pngv  -0.56606
gfz2010prnw   0.02105
gfz2010pvnn  -1.43600
gfz2010pxoi  -2.75260
gfz2010pzza  -1.29930
gfz2010qdqk   0.51060
gfz2010qloa   1.76650
gfz2010qrix  -0.14597
gfz2010qrta  -0.31396
gfz2010qykh  -3.86580
gfz2010qylh  -0.78408
gfz2010qzvf  -5.94930
gfz2010rdep   0.22896
gfz2010rdip  -0.12700
gfz2010rhvu   0.89157
gfz2010rkuu  -0.47203
gfz2010rljv  -0.46391
gfz2010rmua   0.08041
gfz2010rnqa  -3.17690
gfz2010rnwt  -3.90920
gfz2010rpbz  -1.15560
gfz2010rpjd  -2.12230
gfz2010scht  -0.56570
gfz2010sdfs   0.67107
gfz2010sftm  -0.56599
gfz2010shvn   0.33464
gfz2010sook   0.10177
gfz2010swqy  -1.60970
gfz2010szxo  -0.54226
gfz2010tcgh  -0.66880
gfz2010tfar  -6.66730
gfz2010tgmo  -5.16010
gfz2010tmba  -2.46310
gfz2010tpcj  -7.56870
gfz2010tqyo   0.15921
gfz2010tvit  -2.04090
gfz2010tzlz  -2.94400
gfz2010tzma  -1.16380
gfz2010ugws  -3.65660
gfz2010uhjy  -2.84960
gfz2010ujqn   0.02118
gfz2010umxj  -6.60040
gfz2010umyp  -7.29200
gfz2010uogw  -3.58160
gfz2010upod  -4.79660
gfz2010uraq  -1.90960
gfz2010ussf  -4.56140
gfz2010utsc   0.02049
gfz2010uveo  -4.13890
gfz2010uyng  -1.36810
gfz2010vfyu   0.43678
gfz2010viyi  -0.78965
gfz2010vjac  -0.94356
gfz2010vkca   0.39710
gfz2010vong  -1.50820
gfz2010vxwv  -2.25420
gfz2010vybx  -0.76607
gfz2010wakc  -4.31710
gfz2010wdav  -0.62579
gfz2010wigk  -1.70350
gfz2010wplk  -2.13090
gfz2010wyso  -0.05696
gfz2010xamh  -0.39483
gfz2010xaxw  -0.95929
gfz2010xezr  -0.04027
gfz2010xhqq  -3.70280
gfz2010xjsv   0.16923
gfz2010xkbz  -1.08920
gfz2010xkku  -1.79110
gfz2010xnbn  -1.84870
gfz2010xney  -1.62550
gfz2010xnwf  -2.40120
gfz2010xpzq  -0.31719
gfz2010xytc  -3.13080
gfz2010xzah   0.81962
gfz2010yczp  -1.42590
gfz2010yfdr  -2.29640
gfz2010yhhj  -3.67980
gfz2010yilf  -0.15521
gfz2010yrex  -0.46771
gfz2010yspe  -2.23260
gfz2010ytzb  -1.44010
gfz2010zaxv   0.11032
gfz2010zhvj   2.44140
gfz2011afyc  -2.41300
gfz2011ahvh   0.93177
gfz2011aksu  -0.37871
gfz2011ameb   0.50218
gfz2011amst  -3.77390
gfz2011aqpp  -0.78661
gfz2011awsv  -1.50440
gfz2011bazz  -0.30762
gfz2011bcvc  -2.64290
gfz2011bffb  -0.18980
gfz2011bpqm  -0.93412
gfz2011bqbx   0.97125
gfz2011bsvr   1.38310
gfz2011byec  -0.04421
gfz2011bygs  -0.57465
gfz2011bygu  -0.19440
gfz2011bzio  -0.37694
gfz2011cdge  -4.33690
gfz2011cfyy   3.75950
gfz2011cjcv  -1.24150
gfz2011cjuz  -5.75290
gfz2011cwsm  -1.12010
gfz2011cwzi  -0.00000
gfz2011cxbw  -0.74708
gfz2011cxdj  -0.65383
gfz2011dabj   0.45204
gfz2011dhfg  -1.05720
gfz2011dhqk  -0.97776
gfz2011dmdv  -0.60846
gfz2011dpyu  -3.08020
gfz2011duvm  -0.43437
gfz2011dwae  -0.27432
gfz2011dzmf  -0.49142
gfz2011ecce  -0.48412
gfz2011emzr   2.77450
gfz2011hvzo  -2.57800
gfz2011hwbn   1.96010
gfz2011hyct  -0.83447
gfz2011iamf  -1.26950
gfz2011ifta  -0.88675
gfz2011inan  -0.56171
gfz2011ioch  -3.74710
gfz2011iryz  -1.98430
gfz2011itcv  -4.49740
gfz2011ixpj  -1.86820
gfz2011iybf  -1.71300
gfz2011jdoz  -0.82106
gfz2011jeta  -3.76840
gfz2011jghq  -1.90600
gfz2011jphj  -3.44370
gfz2011jpob  -1.55430
gfz2011kjzt  -2.14360
gfz2011kjzv  -1.20610
gfz2011kmge  -0.10390
gfz2011knht  -2.91380
gfz2011ksxc   0.05873
gfz2011kujo  -0.22996
gfz2011kylu  -1.13100
gfz2011kymm  -1.14890
gfz2011lbnn   0.34610
gfz2011lkkf   0.65768
gfz2011lmug  -1.50990
gfz2011lnzf  -6.02420
gfz2011lrpv  -0.94071
gfz2011lwmg  -0.24074
gfz2011lxga  -2.47960
gfz2011lykm  -1.20750
gfz2011lywj  -16.59900
gfz2011mdyq  -1.31070
gfz2011melb  -5.66110
gfz2011mimz  -0.37654
gfz2011mjje  -3.71740
gfz2011mllb  -3.06590
gfz2011moob  -2.57370
gfz2011mrfm   0.93896
gfz2011mror  -2.38860
gfz2011mrpy   0.11996
gfz2011mryu  -0.26127
gfz2011nblt  -6.73250
gfz2011ncyw  12.37600
gfz2011ndhh  -1.07270
gfz2011nejw  -1.71040
gfz2011nfcz  -0.67646
gfz2011nftw   3.85200
gfz2011nhby  -0.07795
gfz2011nhhd  -1.93380
gfz2011nhjv   8.49120
gfz2011nhvt  -1.25150
gfz2011nhwf  -3.97990
gfz2011nijp  -2.78650
gfz2011nilw  -3.97150
gfz2011niuw  -0.32663
gfz2011nlnl  -2.40930
gfz2011nlou  -0.62942
gfz2011nlum  -2.21620
gfz2011nlyw  -0.33220
gfz2011nmdz  -1.97610
gfz2011nnda  -2.85490
gfz2011nnos  -3.60780
gfz2011npeu  -3.38690
gfz2011nsiy  -2.73890
gfz2011nsrx  -1.45040
gfz2011nswi  -1.39290
gfz2011nuqo  -2.68770
gfz2011oadm  -2.94200
gfz2011oazk  -4.84760
gfz2011oekz  -0.21364
gfz2011ofpj  -1.25840
gfz2011ohgj  -4.09310
gfz2011okza  -1.55910
gfz2011omxt  -1.47860
gfz2011oslk  -2.19070
gfz2011osmp   0.79393
gfz2011owqa   2.53370
gfz2011paqj  -3.07630
gfz2011pbgh   0.23841
gfz2011pbjh  -1.43670
gfz2011pcqr   0.75395
gfz2011pdgq  -0.40204
gfz2011pfls  -1.16280
gfz2011pfwq  -3.26810
gfz2011pgzk  -2.40610
gfz2011pivq   0.63939
gfz2011pmuv  -0.81563
gfz2011poug  -1.75040
gfz2011pphc   0.24129
gfz2011ppsc  -2.38280
gfz2011prrq   0.24187
gfz2011pulu  -0.16990
gfz2011pwbw  -3.05420
gfz2011qasw  -1.20630
gfz2011qenl  -2.95990
gfz2011qgea  -0.83412
gfz2011qidi  -2.55330
gfz2011qlkj  -0.09609
gfz2011qtoy   3.33360
gfz2011qukj  -2.29770
gfz2011rbuo  -3.53840
gfz2011rczb  -1.67080
gfz2011rkau  -2.40580
gfz2011rkzx  -2.28550
gfz2011rnny  -1.00610
gfz2011rqut   0.83929
gfz2011scma  -0.48283
gfz2011sdax  -1.73080
gfz2011sfph  -0.54623
gfz2011sqco  -6.24620
gfz2011sskq  -1.62220
gfz2011swfp   1.31890
gfz2011sxno  -2.24220
gfz2011sylg  -0.90166
gfz2011szis   0.28598
gfz2011tfor  -0.50624
gfz2011tgon  -0.24461
gfz2011tjpv  -3.68440
gfz2011tqgg   0.30650
gfz2011tsgl  -4.45600
gfz2011tssv  -2.37950
gfz2011tvuv  -2.63740
gfz2011txdb  -7.08740
gfz2011udjs  -0.34795
gfz2011ugbt  -2.17140
gfz2011uowi  -1.88710
gfz2011uqry  -0.27488
gfz2011urwz  -0.98696
gfz2011vahy  -2.08340
gfz2011vbxv  -0.13162
gfz2011vswj  -0.34763
gfz2011vtdl  -0.68776
gfz2011vtzv  -1.57190
gfz2011wcvs  -5.40600
gfz2011wgvh  -5.62090
gfz2011wkja  -2.93730
gfz2011wkyx  -5.84030
gfz2011wngi  -0.93163
gfz2011wnjg  -1.75010
gfz2011wnvu  -6.46820
gfz2011wpzt  -1.59000
gfz2011wqth  -0.12537
gfz2011wqup  -2.49090
gfz2011wwze   0.37832
gfz2011wyei  -4.19030
gfz2011wzss   0.00000
gfz2011xawm  -0.08921
gfz2011xgbc  -7.30700
gfz2011xgwy  -4.16880
gfz2011xkka  -1.65820
gfz2011xlod  -8.97780
gfz2011xnui  -1.51800
gfz2011xpcq  -1.58960
gfz2011xwum   1.39430
gfz2011xxng  -1.88650
gfz2011yeck   2.92180
gfz2011yexx  -3.55690
gfz2011ykbd  -2.61750
gfz2011yrfa   0.44916
gfz2011zdyf   0.46366
gfz2011zghc  -4.87670
gfz2011zgxn  -2.63190
gfz2011ziyk  -0.82299
gfz2011zlga  -0.06497
gfz2012adja   0.11787
gfz2012agwh  -2.60910
gfz2012ahac  -3.02960
gfz2012aioo  -0.19090
gfz2012aisj  -0.66465
gfz2012alti   0.39274
gfz2012amvs  -0.15063
gfz2012arlo  -5.87760
gfz2012asld  -0.61025
gfz2012atjr  -1.19240
gfz2012auqr  -2.52520
gfz2012avvc  -5.15700
gfz2012azel  -1.44450
gfz2012bcvn  -5.21230
gfz2012beae   0.61021
gfz2012bity  -0.29622
gfz2012bjhl  -2.33810
gfz2012bolx   0.06938
gfz2012bqcf  -2.96960
gfz2012brrg  -0.12502
gfz2012btbq   0.75874
gfz2012cdju  -1.26890
gfz2012cfdw   0.49655
gfz2012cmww  -0.20950
gfz2012cntu  -1.00420
gfz2012cvfr  -0.21242
gfz2012cxhw  -1.73060
gfz2012dbgt  -3.12530
gfz2012dejg  -3.31270
gfz2012dgfk   0.81445
gfz2012dleg  -1.15650
gfz2012dluf  -0.07756
gfz2012dnig  -1.55980
gfz2012dpem  -1.06030
gfz2012dpnu  -1.05050
gfz2012dpwv   0.74398
gfz2012drak  -0.65840
gfz2012drqd   0.01968
gfz2012dsei  -2.29960
gfz2012dtlu  -0.35343
gfz2012dttl   0.03504
gfz2012dtvr  -0.76508
gfz2012duwm  -1.67020
gfz2012dyck  -0.58006
gfz2012dysu  -0.51933
gfz2012dzot  -0.15734
gfz2012ebff  -0.68504
gfz2012ebhf   2.61140
gfz2012ebrr  -1.41780
gfz2012eeft  -0.54229
gfz2012ekfp  -0.06119
gfz2012elek  -2.19390
gfz2012emin  -0.69903
gfz2012enrg   0.35665
gfz2012erds  -0.77307
gfz2012eyti  -2.49400
gfz2012facv   0.64006
gfz2012fbgz  -1.20330
gfz2012fcyq  -2.78850
gfz2012fcyr  -3.02010
gfz2012fhaf  -2.16850
gfz2012fiiz   0.02178
gfz2012flqf  -1.38590
gfz2012foih  -5.05030
gfz2012ftcq   0.01969
gfz2012fuyd  -1.77580
gfz2012fxgc   0.75415
gfz2012fyny  -1.95420
gfz2012gdye  -1.44210
gfz2012gftg  -4.02520
gfz2012ghiv  -1.94470
gfz2012ghyd   0.46522
gfz2012gjtd  -0.05816
gfz2012gmsr   0.44624
gfz2012gnow  -0.93716
gfz2012gpcd  -2.67850
gfz2012gubu  -7.98440
gfz2012hdny  -0.96460
gfz2012heih  -1.66690
gfz2012hmcv  -2.80120
gfz2012hnyy  -0.13342
gfz2012hqlo  -0.38897
gfz2012hvfw  -0.62785
gfz2012hvtu   2.89120
gfz2012hwph  -2.95580
gfz2012hyqh  -1.41350
gfz2012hysb  -0.94338
gfz2012hzhn  -6.92010
gfz2012iblo  -3.43600
gfz2012ibyd  -0.95004
gfz2012icjo  -0.29109
gfz2012iedy  -3.39630
gfz2012iijk  -4.78440
gfz2012imsm  -0.67607
gfz2012ipdc  -3.97180
gfz2012iphs  -0.57235
gfz2012ivyg  -1.12170
gfz2012iyhs  -1.56940
gfz2012iyoi   0.15448
gfz2012izke   0.60809
gfz2012jaun  -0.68783
gfz2012jbzr   0.90482
gfz2012jetp  -0.08559
gfz2012jihg  -2.02300
gfz2012jjxm  -0.16158
gfz2012jnlt   0.89942
gfz2012jodg  -3.21100
gfz2012jopi  -1.06720
gfz2012jqxx  -0.14995
gfz2012juem  -2.23480
gfz2012jvei  -1.65330
gfz2012jxxe  -0.00000
gfz2012kadi  -0.29882
gfz2012kmbo  -5.23370
gfz2012kmmz  -3.52730
gfz2012kqjb  -6.52560
gfz2012kstg  -2.82740
gfz2012lcca  -3.39730
gfz2012ldjj  -1.79330
gfz2012lngq  -1.88760
gfz2012lqhw  -0.65963
gfz2012luzm  -1.47860
gfz2012lvlr  -1.17160
gfz2012lvxx  -0.01973
gfz2012lwha   0.26388
gfz2012lyqs  -5.38220
gfz2012mekv   0.85812
gfz2012mjzl   0.03868
gfz2012mnth   0.27290
gfz2012moul  -0.77586
gfz2012mout  -9.55640
gfz2012mpvl   0.02160
gfz2012mpzo  -0.41577
gfz2012mrqk  -4.96880
gfz2012mtyn  -1.03330
gfz2012mvgu  -0.58423
gfz2012mwhe  -3.27480
gfz2012mxvk  -2.17830
gfz2012mzco  -1.08510
gfz2012mzqx  -0.17085
gfz2012ndsk   0.42413
gfz2012ndwt  -1.52070
gfz2012nfos   0.00698
gfz2012nfzc  -0.61308
gfz2012nldz  -2.78010
gfz2012nnqu  -1.23300
gfz2012nnsl  -0.17623
gfz2012nsxc   0.23530
gfz2012oafg  -2.60350
gfz2012oehy  -1.17060
gfz2012ofnx   0.44316
gfz2012ogqu  -7.35490
gfz2012ohgd  -0.08241
gfz2012oieq  -0.73207
gfz2012oiez   1.17330
gfz2012ojfv  -0.15761
gfz2012ojmv   0.23297
gfz2012onhu   1.90300
gfz2012oork  -0.09539
gfz2012oozp  -2.74200
gfz2012ormy   6.21640
gfz2012pdav  -3.90320
gfz2012pekf  -0.07637
gfz2012pgmw  -1.15870
gfz2012phns  -3.23040
gfz2012pifb   0.33335
gfz2012pmuj  -1.70510
gfz2012prke   0.12521
gfz2012pumy  -1.07310
gfz2012pvve  -0.64954
gfz2012pziw  -0.54654
gfz2012qbbt   0.77243
gfz2012qfov  -5.58360
gfz2012qhqp  -0.16423
gfz2012qibe  -0.14515
gfz2012qmhz  -1.30370
gfz2012qoev  -1.46730
gfz2012rduv   1.64740
gfz2012rknz  -2.56330
gfz2012roan   0.07250
gfz2012sbix  -0.80403
gfz2012scuk   0.15450
gfz2012sgfd  -1.91500
gfz2012sjox   0.25710
gfz2012smyn   0.83998
gfz2012socz  -0.56823
gfz2012sqsc  -1.47370
gfz2012ssnb   5.45170
gfz2012svwz  -0.80826
gfz2012swbz  -0.62979
gfz2012sxbo  -0.84651
gfz2012sxpr   0.64828
gfz2012sxzs  -1.51150
gfz2012taph  -2.19490
gfz2012tgta   2.00670
gfz2012thyh  -1.82040
gfz2012tjih  -3.14110
gfz2012tjwg  -0.08815
gfz2012touh   0.70501
gfz2012tqjc  -3.14180
gfz2012trfq  -0.33710
gfz2012trss  -2.39580
gfz2012tsdz  -2.04670
gfz2012twec  -0.15517
gfz2012tyoz   2.18320
gfz2012udeo   0.16238
gfz2012udxg  -0.53834
gfz2012uhsx  -0.96445
gfz2012uhtc  -1.38900
gfz2012ukzg  -4.96810
gfz2012ulei  -0.84791
gfz2012umob  -0.33309
gfz2012unxc  -0.25222
gfz2012utdu   0.06008
gfz2012uvoa   0.97820
gfz2012uzuu   0.02196
gfz2012uzww  -0.71819
gfz2012vaqd  -0.28856
gfz2012vdra   0.77195
gfz2012vdsl  -0.42069
gfz2012vile  -10.04700
gfz2012vioy  -1.77190
gfz2012vitw  -0.17038
gfz2012vkjw  -1.16490
gfz2012vlzv  -1.90410
gfz2012vnve  -0.87333
gfz2012vqjw   1.45270
gfz2012vsav  -1.79380
gfz2012vurc  -0.17045
gfz2012wgmg  -2.51480
gfz2012wgmp  -0.03359
gfz2012wicr  -0.13181
gfz2012wiyv  -0.37500
gfz2012wjpf  -0.32793
gfz2012wkki   1.07920
gfz2012wmas   1.44550
gfz2012wmmw  -0.60367
gfz2012wowu  -4.22330
gfz2012woxj  -1.23240
gfz2012wqfz  -4.31620
gfz2012wysg   0.24827
gfz2012xask  -0.51800
gfz2012xcsf  -2.19550
gfz2012xfsk   0.01670
gfz2012xfsl  -0.15283
gfz2012xjgb   0.05577
gfz2012xkln  -1.17800
gfz2012xkvu  -0.23009
gfz2012xlfo  -0.15544
gfz2012xmwt  -0.29007
gfz2012xppl  -0.28555
gfz2012xqxw  -1.66720
gfz2012xwgb  -3.97160
gfz2012xwkx  -4.72730
gfz2012xxdj  -0.63758
gfz2012yegw  -1.20800
gfz2012yihn   1.52660
gfz2013otuj   0.29579
gfz2013oywh  -3.05910
gfz2013pegj   0.49672
gfz2013phhi  -1.65720
gfz2013pifg  -0.01932
gfz2013pizm  -0.49353
gfz2013pkmz  -1.20850
gfz2013pqkp   0.05036
gfz2013puiy  -0.03777
gfz2013pvsa   0.07345
gfz2013pwsm   0.28069
gfz2013pzdr  -0.29703
gfz2013qaov  -0.18794
gfz2013qdzg  -0.11066
gfz2013qear  -2.20860
gfz2013qigb   2.44280
gfz2013qmkt  -3.04880
gfz2013qnqr  -0.11677
gfz2013qogb   3.63230
gfz2013quyn   1.11600
gfz2013qwnm  -3.62320
gfz2013qxof  -0.41611
gfz2013rfik  -0.43268
gfz2013rgcc  -0.04963
gfz2013rhbx  -0.69359
gfz2013rhxf  -0.83819
gfz2013rnsa  -0.26835
gfz2013rocs  -0.04346
gfz2013rofg  -0.00000
gfz2013rsyt  -1.69600
gfz2013rwkj  -2.49730
gfz2013rwog  -0.28460
gfz2013ryph  -1.96570
gfz2013sbsl   0.08875
gfz2013sbsp  -3.02810
gfz2013sdkg   0.34906
gfz2013skay   0.11230
gfz2013stou  -0.56215
gfz2013stup  -1.45470
gfz2013suck  -0.04860
gfz2013swnj  -0.38454
gfz2013syqp   0.13496
gfz2013taeb  -6.96840
gfz2013tcju  -0.40685
gfz2013tdsx  -1.12770
gfz2013tekq  -0.95967
gfz2013tert  -1.39170
gfz2013tgyb  -1.00470
gfz2013timw  -2.44970
gfz2013tjub  -1.16040
gfz2013tkcg  -0.46899
gfz2013tmnf  -0.55058
gfz2013tmyj  -0.06406
gfz2013tnrp  -1.19100
gfz2013trsq  -1.35300
gfz2013twbc   0.15127
gfz2013ubgt   0.41273
gfz2013udtw  -0.15565
gfz2013uepl  -0.32449
gfz2013uhio   1.03420
gfz2013ummt  -3.20110
gfz2013unuv  -2.95670
gfz2013upqj   0.07497
gfz2013urla   0.45021
gfz2013utqa  -4.86140
gfz2013uugc  -1.85760
gfz2013uwjo  -0.27226
gfz2013uwxb   0.03979
gfz2013uwxi   4.15220
gfz2013uxzw  -1.34170
gfz2013uzmf  -0.60226
gfz2013vcgd  -1.34300
gfz2013vdam  -0.35314
gfz2013veug  -0.35511
gfz2013vfix  -1.20370
gfz2013vgfb  -1.54010
gfz2013vjrr  -0.05936
gfz2013vldx  -0.76497
gfz2013vmrv  -5.53720
gfz2013vnwa  -0.52886
gfz2013vojy  -0.12860
gfz2013vsdd  -0.51551
gfz2013vvre  -1.26490
gfz2013vwkh  -2.63450
gfz2013vxht  -0.18834
gfz2013vzel  -9.67910
gfz2013vzet  -1.69540
gfz2013wegs  -4.45680
gfz2013wgwz   0.11788
gfz2013wigs  -0.19504
gfz2013wwee  -1.89370
gfz2013wyfl  -1.38220
gfz2013wyho  -0.03820
gfz2013xacx  -2.86050
gfz2013xahp   1.17890
gfz2013xbdc   1.78380
gfz2013xjmo  -6.48170
gfz2013xjmy  -1.41420
gfz2013xmzw  -2.80640
gfz2013xodn  -1.42880
gfz2013xofz   0.58374
gfz2013xswc  -3.50150
gfz2013xupg  -1.73040
gfz2013xuxr   0.73091
gfz2013xxbf  -0.13241
gfz2013xycz  -0.85992
gfz2013yawe  -5.20390
gfz2013yihv  -3.38270
gfz2013ykkf  -3.35580
gfz2013ykqw  -1.68370
gfz2013yktj  -3.21650
gfz2013ylxn  -3.11280
gfz2013yodm  -2.24530
gfz2013yqkz  -0.46084
gfz2013yqtu  -1.64750
gfz2013yvnj  -2.06650
gfz2013yvpn  -0.33382
gfz2013yxhf   0.78458
gfz2013yxif  -0.70276
gfz2013yywh  -0.56857
gfz2013zbfb   0.53549
gfz2013zeye  -1.51980
gfz2013zfbz  -1.42580
gfz2013zghn  -0.84542
gfz2013ziix  -2.01640
gfz2013zkgm  -0.91650
gfz2013zkzb  -2.78770
gfz2013zlij  -1.90700
gfz2013zpse  -0.02166
gfz2013zpwk  -2.12620
gfz2013zqan  -1.44070
gfz2014aaae  -1.48690
gfz2014aapq  -1.25180
gfz2014aedl  -1.18150
gfz2014aejh  -0.74014
gfz2014aluc  -2.47780
gfz2014amgk  -0.84375
gfz2014amsy   0.03835
gfz2014aqop  -3.60770
gfz2014ateb  -2.58840
gfz2014avmd  -0.88122
gfz2014avux   0.01919
gfz2014avzp  -3.27780
gfz2014bdju  -1.71660
gfz2014bfjb  -2.66400
gfz2014bgxe  -0.02204
gfz2014bkra  -3.55310
gfz2014bmch  -1.82730
gfz2014bmdf   0.01940
gfz2014bmqw  -3.83300
gfz2014bnea   0.21489
gfz2014bppg  -0.64474
gfz2014bqpm  -1.28490
gfz2014brkk  -0.11202
gfz2014bumr  -1.02630
gfz2014buyz  -2.73840
gfz2014bycg  -0.93952
gfz2014byes  -1.00660
gfz2014bztn  -0.34386
gfz2014cgxj  -4.42470
gfz2014cjao  -1.20590
gfz2014ckqv  -0.32363
gfz2014club  -0.90040
gfz2014cokw  -3.74670
gfz2014ctdl  -1.75570
gfz2014cvnb  -2.02320
gfz2014dbmu  -1.68200
gfz2014dbqi  -3.12650
gfz2014dggw  -1.51610
gfz2014dihl   0.42036
gfz2014diuu  -0.38250
gfz2014djyj  -0.40217
gfz2014dmrw  -2.34990
gfz2014dpps  -1.44960
gfz2014dsqr  -0.88278
gfz2014dtth  -1.50370
gfz2014dtto  -7.02010
gfz2014dudd  -0.90822
gfz2014dutu  -1.46360
gfz2014dwcp  -1.93350
gfz2014dykt   1.02460
gfz2014ecor   0.26872
gfz2014eglj   0.14202
gfz2014eirs  -1.55470
gfz2014ejfx  -0.56543
gfz2014emlw  -1.87090
gfz2014eoay  -1.80890
gfz2014epfm  -2.30760
gfz2014fqas  -0.53721
gfz2014fsir  -1.47750
gfz2014fskh  -0.00000
gfz2014fvza  -2.04450
gfz2014fwuf  -2.36470
gfz2014fwxt  -2.56470
gfz2014fxte  -2.75280
gfz2014fxuy  -3.03160
gfz2014gasb   1.61000
gfz2014gdbh   0.14727
gfz2014geln   0.09241
gfz2014ggie  -8.85430
gfz2014gnvp   0.59317
gfz2014gqxg   0.02172
gfz2014gsfc  -0.98324
gfz2014gssz  -2.16430
gfz2014gzlm   0.12905
gfz2014hapg  -1.04060
gfz2014happ  -2.87560
gfz2014herz  -0.75620
gfz2014hhis  -2.44370
gfz2014hjmc  -2.48480
gfz2014hkcw  -0.84011
gfz2014hotu  -3.27510
gfz2014hqhv  -1.30600
gfz2014hyea  -3.29330
gfz2014hzzf  -5.91300
gfz2014iaqm  -0.76431
gfz2014icov  -3.81780
gfz2014igrp  -2.09120
gfz2014ijov  -0.06808
gfz2014ijsa  -1.03590
gfz2014ikvw  -0.86422
gfz2014iltl   0.16303
gfz2014ined  -4.40740
gfz2014inrg  -2.78790
gfz2014iolv  -0.04901
gfz2014ipfu  -1.97920
gfz2014ipwk  -2.18340
gfz2014irlf  -2.84220
gfz2014irln  -1.48570
gfz2014irly  -1.02710
gfz2014isjg  -1.15410
gfz2014itlx   0.42678
gfz2014iusw  -1.12750
gfz2014ivgm  -0.90440
gfz2014ixlc  -1.86960
gfz2014iyuc  -0.31161
gfz2014jaxy   1.24450
gfz2014jayh  -1.52380
gfz2014jbfp  -2.72950
gfz2014jckg  -1.39200
gfz2014jffe  -0.80883
