# Nsamples: 91  MAD:  0.759  mean: -0.400  std:  1.169
gfz2010amec  -3.52590
gfz2010crgy  -0.96439
gfz2010crir  -1.26300
gfz2010cyid  -1.71950
gfz2010djib   0.85141
gfz2010drit  -0.74240
gfz2010habf  -0.41265
gfz2010hueh  -0.29943
gfz2010jlvp   0.09082
gfz2010jyvd  -2.36320
gfz2010mqzz   2.30860
gfz2010ngge   0.51401
gfz2010pcya   0.38569
gfz2010pdip   5.72670
gfz2010qrta  -0.12661
gfz2010vong  -1.31070
gfz2010zjun  -0.96908
gfz2011cdge  -1.13830
gfz2011dabj  -0.87661
gfz2011dpyu   0.04609
gfz2011gnbk   0.02227
gfz2011hibi  -0.95876
gfz2011hjof  -1.48190
gfz2011hqjs  -1.61590
gfz2011mllb  -0.57784
gfz2011ndhh   0.63200
gfz2011nfcz  -1.07110
gfz2011nlum  -1.28980
gfz2011ofpj  -0.51416
gfz2011oslk  -0.25849
gfz2011paqj  -0.23362
gfz2011prrq  -1.80230
gfz2011qenl   0.99254
gfz2011rkau  -0.02586
gfz2011rnny   0.69299
gfz2011scma  -0.25715
gfz2011sdax  -0.48084
gfz2011sqco  -2.86560
gfz2011tsgl  -0.76644
gfz2011uqry   0.07000
gfz2011vahy  -0.42766
gfz2011wkyx   0.15427
gfz2011zghc  -0.62789
gfz2012amvs  -0.07835
gfz2012arlo  -3.25850
gfz2012bqcf   0.48259
gfz2012cksh  -0.17130
gfz2012cvfr  -0.24940
gfz2012ekfp  -1.08050
gfz2012iijk   0.64547
gfz2012kmmz  -0.97308
gfz2012ldjj   0.47438
gfz2012oafg  -1.08220
gfz2012phns  -1.11850
gfz2012socz  -0.18450
gfz2012wysg  -0.92736
gfz2012xlfo  -0.07891
gfz2012xncm  -1.21260
gfz2013fnpa  -0.85698
gfz2013iuyv   1.65030
gfz2013jfcn  -0.12038
gfz2013jhog  -0.88184
gfz2013kats   0.08526
gfz2013kcdb  -0.85623
gfz2013kqab   0.26983
gfz2013lbvl  -1.04810
gfz2013mzaw  -0.28210
gfz2013ntiu   0.69647
gfz2013oizq   2.69290
gfz2013oywh  -0.47224
gfz2013phhi   0.17740
gfz2013quwz  -0.65506
gfz2013qxof  -0.70030
gfz2013udtw  -0.64400
gfz2013utqa  -0.00068
gfz2013vmrv  -1.61660
gfz2013wyfl  -0.35251
gfz2013xmzw  -0.18562
gfz2013xswc  -0.05053
gfz2013xvps  -2.14660
gfz2014aedl   0.33242
gfz2014eirs  -0.71310
gfz2014epnq  -0.89274
gfz2014flxk   0.31184
gfz2014fsir  -0.41546
gfz2014fxte  -0.11034
gfz2014icov  -0.81420
gfz2014iltl  -0.35087
gfz2014irlf   0.21076
gfz2014irln  -0.96701
gfz2014irly  -0.44460
