# Nsamples: 16  MAD:  1.427  mean:  2.245  std:  1.100
gfz2010cnyi   0.92104
gfz2010zjun   0.70253
gfz2011dabj   2.08690
gfz2011ndhh   1.82380
gfz2011nuqo   1.58710
gfz2011scma   2.00760
gfz2011tsgl   1.05400
gfz2012dysu   3.21750
gfz2012dzen   4.65670
gfz2012dzot   3.28290
gfz2013mvgq   1.11610
gfz2013oizq   3.36860
gfz2013vmrv   1.66940
gfz2013vwkh   3.17470
gfz2014epnq   2.44360
gfz2014flxk   2.80060
