# Nsamples: 847  MAD:  0.811  mean:  1.086  std:  1.016
gfz2010abfc   1.45880
gfz2010abvu   1.11470
gfz2010aggj   2.57760
gfz2010cnhd  -0.77549
gfz2010crgy   1.55470
gfz2010crir   2.27900
gfz2010dask   2.85370
gfz2010dslu   1.73630
gfz2010dumv   1.95760
gfz2010eqyj   2.42800
gfz2010ewyj   1.99250
gfz2010faly   0.99262
gfz2010fgbo   1.06400
gfz2010fqzh   2.07450
gfz2010fuky   1.50830
gfz2010fvfz   1.77670
gfz2010fxut   0.25290
gfz2010gcrn  -3.49840
gfz2010gooc   1.40990
gfz2010gpjl   2.53870
gfz2010guwa   1.92460
gfz2010gxki  -0.90044
gfz2010habf   2.87940
gfz2010hdxn   0.89441
gfz2010hexh   2.33120
gfz2010hueh   1.82290
gfz2010huzl   2.74820
gfz2010iaay   1.06040
gfz2010ifhd   1.32360
gfz2010ihef   0.53463
gfz2010inbs   1.79840
gfz2010ioad   1.92810
gfz2010izag   1.92070
gfz2010izgb   0.80216
gfz2010jcby   2.31610
gfz2010jcpq  -0.11589
gfz2010jdhk   1.93180
gfz2010jgwj   1.77520
gfz2010jkrp   0.66613
gfz2010jlvp   2.21690
gfz2010jpkn   1.55010
gfz2010juke   1.63210
gfz2010jvsi  -0.06951
gfz2010kcdq   1.05180
gfz2010kuzb   1.51490
gfz2010kzzm   0.25556
gfz2010ljol   1.48080
gfz2010ljzf   1.95880
gfz2010lswe   1.77780
gfz2010lvnj   3.40040
gfz2010mdti   2.03770
gfz2010mnoc   1.19060
gfz2010mpvc   1.64300
gfz2010mqaj   2.32600
gfz2010mqzz   0.95795
gfz2010msss  -0.08200
gfz2010mvmb   1.80030
gfz2010mvtj   0.85236
gfz2010mwmd   3.62690
gfz2010nbcr   1.40020
gfz2010nccu   0.30970
gfz2010nteg   1.26290
gfz2010nwbd   1.26240
gfz2010nwyk   2.13800
gfz2010ocug  -0.22791
gfz2010oguu   0.92345
gfz2010ogwn   2.26600
gfz2010oibn   0.51706
gfz2010ojhe   0.78749
gfz2010okpc   2.16590
gfz2010onxm   1.04090
gfz2010osaq   1.50650
gfz2010osrl   1.62600
gfz2010pclq  -0.09089
gfz2010pcya   1.13770
gfz2010pdip   0.97164
gfz2010pgrf   0.85975
gfz2010pvnn   0.62316
gfz2010pxoi   0.21003
gfz2010pzza   0.07591
gfz2010qbcy   0.46132
gfz2010qdqk   0.82151
gfz2010qqqx   0.80977
gfz2010qrix   1.84210
gfz2010qrta   1.91520
gfz2010qykh   1.40700
gfz2010qylh   1.42790
gfz2010qzvf   2.39780
gfz2010rdep   0.84183
gfz2010rhvu   0.11136
gfz2010rkuu   0.51678
gfz2010rljv   1.16530
gfz2010rmua   1.36700
gfz2010rnqa   0.54655
gfz2010rpjd  -0.30751
gfz2010schp   0.90747
gfz2010scht   2.37370
gfz2010sdfs   0.47405
gfz2010sftm   1.64640
gfz2010shvn   1.59180
gfz2010sook   0.53249
gfz2010swqy   1.22120
gfz2010syqh   1.01430
gfz2010szxo   1.51210
gfz2010tcgh  -0.09893
gfz2010tmba   1.37500
gfz2010tmne   3.04990
gfz2010tpcj   2.57140
gfz2010tqyo   0.72961
gfz2010tvit   1.48750
gfz2010tzki   0.57449
gfz2010tzlz   0.97374
gfz2010tzma   1.15150
gfz2010ugws   0.74710
gfz2010uhjy   1.60120
gfz2010uidg   0.52973
gfz2010umxj   1.11450
gfz2010umyp   0.94561
gfz2010uogw   0.59267
gfz2010upod   0.89211
gfz2010uqba   0.58934
gfz2010uraq   0.58865
gfz2010ussf   1.67070
gfz2010utsc   0.65772
gfz2010uveo   1.17030
gfz2010uvpz  -0.10225
gfz2010vfyu   0.89096
gfz2010vgfu   1.20870
gfz2010vhzx   1.00610
gfz2010viyi   1.22770
gfz2010vong   2.25410
gfz2010vybx   0.39198
gfz2010vyri   0.82581
gfz2010wakc   0.94072
gfz2010wdav   1.20150
gfz2010wplk  -2.11130
gfz2010wtin   1.90150
gfz2010wwhf   0.73155
gfz2010wyso   5.17580
gfz2010wyuj   0.54025
gfz2010xamh   0.40750
gfz2010xcdd  -0.67290
gfz2010xezr   1.92200
gfz2010xkku   1.66500
gfz2010xpzq   1.63910
gfz2010yfdr   1.63300
gfz2010yilf   1.62820
gfz2010yspe   0.90034
gfz2010ytzb   0.65284
gfz2010zaxv   1.34450
gfz2010zhvj   1.21800
gfz2011ahvh  -0.33541
gfz2011amst   0.06844
gfz2011aqpp   2.73240
gfz2011awsv   1.87370
gfz2011bcvc   2.11950
gfz2011bffb   1.44690
gfz2011bpqm   0.39592
gfz2011bsvr  -0.50614
gfz2011bygs   1.55710
gfz2011cdge   1.61080
gfz2011cjuz   2.45690
gfz2011dabj   1.81650
gfz2011dpyu   1.30430
gfz2011etkc   0.71171
gfz2011exxq  -0.07068
gfz2011fbsl   1.13980
gfz2011fnie   1.03380
gfz2011fyfu   0.78523
gfz2011fzcw   1.40450
gfz2011gaax   1.05140
gfz2011gcct   0.48456
gfz2011gfer   0.60954
gfz2011ggnl   1.16420
gfz2011glpg   2.06800
gfz2011gnbk   0.85005
gfz2011gpyr   0.88056
gfz2011grby   2.47560
gfz2011gzde   2.73490
gfz2011hatg   0.49110
gfz2011hbqc   0.71712
gfz2011hffq  -3.25170
gfz2011hibi   3.82820
gfz2011hjof   1.97710
gfz2011hmnw   0.74782
gfz2011huon   0.39957
gfz2011hvzo  -0.43027
gfz2011hwbn   0.47144
gfz2011hyct   0.79749
gfz2011hyuh   0.71673
gfz2011iamf   0.19217
gfz2011ibew   1.74680
gfz2011iryz   0.99705
gfz2011itcv   0.61976
gfz2011ituo   0.92932
gfz2011iybf   0.34374
gfz2011jdoz   1.05690
gfz2011jghq   0.73236
gfz2011jphj   0.08591
gfz2011jpob   0.77491
gfz2011jqyc   1.22400
gfz2011kfch   1.50160
gfz2011kgvq   2.27720
gfz2011kjzt   1.23300
gfz2011kjzv   1.54460
gfz2011kmge   2.82410
gfz2011knht   1.95950
gfz2011kujo   0.74013
gfz2011kylu   0.99727
gfz2011kymm  -0.05872
gfz2011kyzy   1.49210
gfz2011lbnn   0.34825
gfz2011lkkf   1.55900
gfz2011lmug   0.72600
gfz2011lrpv   1.98540
gfz2011lwmg  -0.30536
gfz2011lxga   1.08260
gfz2011lykm   1.29580
gfz2011mdyq   1.02020
gfz2011melb  -0.04128
gfz2011mimz   1.21110
gfz2011mjje   0.31582
gfz2011mllb   0.97172
gfz2011mntq  -0.80664
gfz2011moob   1.82280
gfz2011mrfm   2.48820
gfz2011mror   0.63228
gfz2011mrpy   1.16620
gfz2011mryu   1.16400
gfz2011mzvn   0.79959
gfz2011nblt   0.96191
gfz2011ncyw   0.20265
gfz2011ndhh   1.62810
gfz2011ndki   1.68880
gfz2011ndlh   1.42970
gfz2011ndoe   1.11160
gfz2011ndse   2.57380
gfz2011ndtp   0.92641
gfz2011ndvj   1.79690
gfz2011ndyk   1.38530
gfz2011neai   1.37230
gfz2011nejg   0.50882
gfz2011nejw   1.46190
gfz2011nerb   1.46910
gfz2011nfcz   1.71870
gfz2011nfgt   5.02950
gfz2011nfih   0.66678
gfz2011nfln   1.94110
gfz2011nftw   1.75570
gfz2011nfwd   0.41634
gfz2011nfww   1.23770
gfz2011nhby   0.88151
gfz2011nhhd   0.46736
gfz2011nhjv   1.03670
gfz2011nhvt   0.55803
gfz2011nhwf   1.75390
gfz2011nifi   0.24739
gfz2011nihq   0.35095
gfz2011nijp   0.71361
gfz2011nilw   1.10680
gfz2011nimp  -0.02032
gfz2011nisj   2.64700
gfz2011niuw  -2.76670
gfz2011nivw   0.79803
gfz2011nkda   4.09530
gfz2011nkou  -0.89609
gfz2011nlmf   1.80920
gfz2011nlnl   2.94330
gfz2011nlok   0.87467
gfz2011nlou   0.89398
gfz2011nlum   0.54466
gfz2011nlyw  -0.01963
gfz2011nmhg   0.60815
gfz2011nnda   0.43550
gfz2011nnos   2.68270
gfz2011npaf   2.07740
gfz2011nsiy  -0.05224
gfz2011nsrx   0.89915
gfz2011nssr  -0.66222
gfz2011nswi   0.35258
gfz2011nsyi   2.54660
gfz2011ntyd   1.92450
gfz2011nuqo   1.05640
gfz2011nvty   0.56729
gfz2011nyzk   0.14781
gfz2011ocif   3.86110
gfz2011oekz   2.10880
gfz2011oesd   0.77774
gfz2011ofpj  -0.35358
gfz2011ohgj  -0.16995
gfz2011okza   1.24720
gfz2011omxt   0.40033
gfz2011oslk   0.97770
gfz2011osmp   1.73340
gfz2011osuy   1.14360
gfz2011ovvj   1.12390
gfz2011owqa   0.12286
gfz2011paqj  -0.45229
gfz2011pbgh   1.39010
gfz2011pbjh   0.91315
gfz2011pcqr   2.39900
gfz2011pdgq   0.81228
gfz2011pdsn   1.60950
gfz2011pfls   1.81230
gfz2011pfwq   0.15391
gfz2011pgzk   1.48140
gfz2011pimj  -0.06226
gfz2011pivq   0.69194
gfz2011plzc   1.89620
gfz2011pmuv   0.97006
gfz2011poug   1.78950
gfz2011pphc   0.51352
gfz2011ppsc   0.59053
gfz2011prrq   2.15790
gfz2011ptgd   0.99701
gfz2011pulu   1.13180
gfz2011pwbw   0.54735
gfz2011qasw   1.32680
gfz2011qenl   0.37222
gfz2011qgea  -0.26873
gfz2011qgvh   0.78055
gfz2011qgvx   0.97377
gfz2011qidi   0.62150
gfz2011qowe   1.92970
gfz2011qtoy  -0.20228
gfz2011qukj   1.33090
gfz2011rczb   1.48700
gfz2011rkau   2.60660
gfz2011rnny   1.45820
gfz2011scma   0.32292
gfz2011sfmu   1.78360
gfz2011sqco   1.13550
gfz2011sqxp  -2.64880
gfz2011sskq   1.05350
gfz2011stzi   1.14040
gfz2011swfp   1.03720
gfz2011sxno   0.81954
gfz2011sylg   1.23600
gfz2011syvj   0.18628
gfz2011syzr   0.50906
gfz2011szau   0.93582
gfz2011szbb  -3.78930
gfz2011szcj  -0.11975
gfz2011szis   1.56900
gfz2011taqr   0.19074
gfz2011tarj   1.51370
gfz2011tdjj   1.05790
gfz2011tfor   0.27267
gfz2011tgey  -7.27350
gfz2011tjpv   1.43030
gfz2011tlwl   1.33410
gfz2011tqgg   0.02757
gfz2011tsgl   1.69620
gfz2011tssv   0.70158
gfz2011tvuv   1.16140
gfz2011twpz   0.06673
gfz2011txdb   1.17280
gfz2011txxs   0.90105
gfz2011tzcv   1.31520
gfz2011udjs   0.34224
gfz2011udxo  -1.42780
gfz2011ugbt   0.44432
gfz2011unud   2.55090
gfz2011uqry   1.85580
gfz2011uvsi   2.71720
gfz2011vahy   0.97167
gfz2011vaoi   0.24629
gfz2011varl   0.86727
gfz2011vbxv   1.61180
gfz2011vcyx   0.29026
gfz2011vemg  -0.83671
gfz2011vsag   2.57730
gfz2011vswj   0.35340
gfz2011vxek   0.86410
gfz2011wkja   1.56310
gfz2011wkyx   1.30440
gfz2011wngi   1.08490
gfz2011wnjg   1.01670
gfz2011wpzt   2.04490
gfz2011wqup   2.12720
gfz2011wtfn   1.74140
gfz2011wucg   2.15690
gfz2011wzss   1.16020
gfz2011xlod   2.01130
gfz2011xnui   1.32750
gfz2011xpcq   1.79570
gfz2011xwdv   1.72890
gfz2011yexx   0.59495
gfz2011yjtx  -0.10098
gfz2011ymji   0.59917
gfz2011zdyf   1.64140
gfz2011zghc   2.87150
gfz2011ziyk   0.77646
gfz2012adja   1.64930
gfz2012ahac   1.37690
gfz2012alti   1.03030
gfz2012amjx   0.94387
gfz2012amvs   1.03030
gfz2012aqpa   0.44981
gfz2012auqr   0.20809
gfz2012beae   2.58380
gfz2012bjhl   1.16380
gfz2012bolx   1.20050
gfz2012bqcf   0.39950
gfz2012byrq   1.20440
gfz2012cvfr   0.89240
gfz2012ekfp   0.29340
gfz2012ftks   1.28680
gfz2012fuyd   1.88480
gfz2012fxgc   0.60297
gfz2012fyny   0.60586
gfz2012fyop   1.05510
gfz2012gjdg   1.84210
gfz2012gjtd   1.34080
gfz2012gmsr   0.02210
gfz2012gnow   1.20200
gfz2012gvxc   1.18640
gfz2012gzuk  -0.98167
gfz2012hnyy   2.53080
gfz2012hqlo   0.47833
gfz2012hvjc   3.48480
gfz2012hvtu   0.41417
gfz2012hyba   3.48410
gfz2012hzhn   2.48050
gfz2012hzur   1.32850
gfz2012iabn   0.23718
gfz2012iblo   1.33810
gfz2012idxu   1.21710
gfz2012ieln   1.03160
gfz2012iijk   2.89860
gfz2012ikke   0.50471
gfz2012imuo   2.82380
gfz2012iotw  -0.03956
gfz2012ipdc   1.08730
gfz2012iphs   0.63414
gfz2012iroy   1.14940
gfz2012ivyg   0.73329
gfz2012jihg   1.05390
gfz2012jjxm   0.46316
gfz2012jksz   1.35980
gfz2012jlez   1.02360
gfz2012jodg   0.81795
gfz2012jopi   1.03840
gfz2012jvei   0.85060
gfz2012jxnm  -0.47505
gfz2012kstg   0.84854
gfz2012kvlx   0.66263
gfz2012kwmx   2.49560
gfz2012lcca   0.17113
gfz2012lcro   1.06240
gfz2012ldjj   0.50793
gfz2012lngq   0.47825
gfz2012lqhw   0.56097
gfz2012lwha   1.62240
gfz2012lyqs   0.32347
gfz2012lyyr   0.19104
gfz2012mdzf   0.12379
gfz2012mhik   0.19200
gfz2012mjuu  -0.06131
gfz2012mjzl   1.68700
gfz2012mmiw   2.38580
gfz2012mnth   0.99170
gfz2012moul  -0.10010
gfz2012mout   0.83581
gfz2012movu   0.61609
gfz2012movv   3.62690
gfz2012mpvl  -0.08036
gfz2012mpzo   1.29180
gfz2012mrqk   0.42050
gfz2012mrwu   0.88059
gfz2012mtyn   0.87667
gfz2012mwhe   0.78340
gfz2012mxdk   0.44236
gfz2012mxvk   1.87860
gfz2012mzqx   1.09110
gfz2012ndsk   0.32425
gfz2012ndwt   0.85444
gfz2012nfos   2.57730
gfz2012nfzc   2.37310
gfz2012nldz  -0.24879
gfz2012nlrb   0.50849
gfz2012nmja   1.66120
gfz2012nnqu  -0.58103
gfz2012nnsl   1.19670
gfz2012nqvd   0.83743
gfz2012nsxc   0.29198
gfz2012oafg   0.94612
gfz2012oehy   0.63035
gfz2012ofaj   1.71320
gfz2012ofnx   0.29246
gfz2012ogqu   3.32500
gfz2012ogwe   0.38165
gfz2012oieq   0.72604
gfz2012oiez   1.65930
gfz2012ojfv   2.27110
gfz2012ojmv   1.04570
gfz2012onhu   1.59660
gfz2012ooij   1.60510
gfz2012oork   2.21790
gfz2012oozp   0.87662
gfz2012ormy   2.52920
gfz2012oxnh   0.92308
gfz2012oyja   1.31600
gfz2012pcui   1.02640
gfz2012pdfi   1.71990
gfz2012pdjt   1.84910
gfz2012pgmw   2.17020
gfz2012phns   1.22800
gfz2012pifb   0.72787
gfz2012pira  -0.04381
gfz2012pmuj   0.40943
gfz2012pmuq  -0.21979
gfz2012pmws   0.58970
gfz2012pokk   1.09990
gfz2012ppcq   0.92885
gfz2012ppsw  -0.30331
gfz2012pryl   0.99198
gfz2012pumy   1.40330
gfz2012pvve   0.95122
gfz2012pziw   0.81939
gfz2012qbbt   1.03780
gfz2012qfah   0.50385
gfz2012qfov   1.75970
gfz2012qmhz   2.02910
gfz2012qmxz   1.54730
gfz2012qpoc   0.46173
gfz2012qvwy   2.21620
gfz2012rduv  -1.09900
gfz2012rfhw   0.15753
gfz2012rjlp  -0.85132
gfz2012rknz   0.89311
gfz2012rugl   1.35370
gfz2012rzwp  -0.79530
gfz2012sbix   0.90358
gfz2012scuk   1.50180
gfz2012sfao  -1.13890
gfz2012sgfd   1.73560
gfz2012sjdy   0.33045
gfz2012sjox   2.34830
gfz2012slfd   1.38320
gfz2012smyn   1.22700
gfz2012socz   1.15830
gfz2012sopp   1.66740
gfz2012sqsc   1.36980
gfz2012ssnb  -0.60232
gfz2012ssvn   1.24270
gfz2012stxx   1.89570
gfz2012suqd   1.58000
gfz2012svwz   2.22720
gfz2012swbz   1.09010
gfz2012sxbo   1.59750
gfz2012sxpr   1.05910
gfz2012sxzs   1.60910
gfz2012syum   0.34683
gfz2012taph   1.58150
gfz2012tbho   1.68500
gfz2012tfij   1.09930
gfz2012tgta   1.42890
gfz2012thyh   0.81658
gfz2012tisj   1.57560
gfz2012tjih   1.17620
gfz2012tjwg   0.50080
gfz2012touh   2.29780
gfz2012trfq   0.08859
gfz2012trss   1.56310
gfz2012tvgw   1.82830
gfz2012twec   1.84340
gfz2012tyoz   1.28160
gfz2012udeo   0.43610
gfz2012udxg   0.89832
gfz2012uegq  -0.31285
gfz2012uhtc   0.63975
gfz2012ulei   1.28140
gfz2012umob   1.74210
gfz2012unxc   0.85671
gfz2012uovh  -0.32170
gfz2012urtu   0.71009
gfz2012uvea   0.37524
gfz2012uvoa  -0.27876
gfz2012uzww  -0.11080
gfz2012vcqw   0.84414
gfz2012vdsl   3.08680
gfz2012vgot   1.60140
gfz2012vile  -0.73458
gfz2012vioy   1.34530
gfz2012vitw   0.51955
gfz2012vlzv   0.86868
gfz2012vqjw   2.47310
gfz2012vqmq   2.20350
gfz2012vrqz  -0.04480
gfz2012vsav   1.75790
gfz2012vurc   2.03180
gfz2012vzkm  -0.43389
gfz2012wdvt   0.79919
gfz2012wdxk   0.96762
gfz2012wgdv   1.18980
gfz2012wgmg  -0.83155
gfz2012wgmp   1.87760
gfz2012wgxf   0.61651
gfz2012wiyv   0.43625
gfz2012wjpf   1.04890
gfz2012wjsi   1.87500
gfz2012wjxc   0.02020
gfz2012wkki   0.82311
gfz2012wmas   1.54910
gfz2012wowu  -0.49427
gfz2012woxj   1.46530
gfz2012wpen  -0.91794
gfz2012wzja   0.33503
gfz2012xcsf   2.30540
gfz2012xkln   1.14270
gfz2012xkvu   0.29191
gfz2012xlas   0.49908
gfz2012xlfo   0.60460
gfz2012xncm   0.89607
gfz2012xqxw   1.41010
gfz2012xrmq   0.39868
gfz2012xtvu   0.71970
gfz2012xxdj   0.71040
gfz2012yegw   2.30570
gfz2012yihn  -2.16380
gfz2012ylai   1.90700
gfz2012yncm   0.25997
gfz2012yygz   1.38410
gfz2012yytb   1.53330
gfz2012zkhu   3.11020
gfz2012zmfc   1.73350
gfz2012zqis   2.28210
gfz2013aclz  -0.58739
gfz2013adih   0.56203
gfz2013agbm  -2.31930
gfz2013ajxz   1.01520
gfz2013akkd   1.34280
gfz2013ascz  -0.05127
gfz2013atak   0.60614
gfz2013atec   1.91750
gfz2013bdvi   1.68600
gfz2013cinv   1.21550
gfz2013ciof   1.80240
gfz2013cvve   1.51490
gfz2013cyvx   1.83370
gfz2013dzvr   1.60700
gfz2013eazm   0.96099
gfz2013eidd   1.81550
gfz2013enga   0.76510
gfz2013esef   1.22510
gfz2013evcl   1.87840
gfz2013exow  -0.09926
gfz2013ezmc   0.94685
gfz2013fmcp   1.21390
gfz2013fndg   2.36570
gfz2013fnpa   0.59361
gfz2013foto   1.89330
gfz2013frxd   1.83710
gfz2013fskp   1.74820
gfz2013fulo   0.97000
gfz2013fvht   0.84459
gfz2013fwbm   1.62440
gfz2013gaqx   4.40830
gfz2013gbki   1.46430
gfz2013gglk  -0.90577
gfz2013gkcx   0.64992
gfz2013gkyn   1.61110
gfz2013glpz   1.25970
gfz2013gomv   1.72570
gfz2013gqtl   1.71410
gfz2013gsnl   0.79945
gfz2013gugi   0.95096
gfz2013gurk   1.91520
gfz2013gxye   2.27110
gfz2013gyce   1.23060
gfz2013gywl   0.83045
gfz2013havw   0.71196
gfz2013hbmi   0.75459
gfz2013hbwy  -3.86820
gfz2013hdbp  -1.11720
gfz2013hduf   0.93083
gfz2013hiam   1.83120
gfz2013hjtt   0.61781
gfz2013hqaa   0.35095
gfz2013hqcd   1.03390
gfz2013hvkg   0.85309
gfz2013hwps   1.70120
gfz2013icgx   1.27230
gfz2013icql   0.67004
gfz2013idqu  -0.10640
gfz2013ifag   0.20747
gfz2013irme   0.18296
gfz2013isqh   0.52501
gfz2013iuyv   1.32550
gfz2013ivvw   1.21520
gfz2013iwzn   0.09767
gfz2013iybv  -0.48247
gfz2013jfcn   2.57990
gfz2013jhog   1.36990
gfz2013jjae   1.17740
gfz2013jjfw   1.65560
gfz2013jkqn   1.46320
gfz2013jlli  -0.48782
gfz2013jrqf   2.56060
gfz2013jtsg   1.77420
gfz2013kats   0.92832
gfz2013kbbg   0.61419
gfz2013kbbn   2.06920
gfz2013kcdb   0.99747
gfz2013kjgh   0.77626
gfz2013kpes   2.00510
gfz2013kqab   1.66940
gfz2013ksaz   1.42590
gfz2013kslp   1.69040
gfz2013kuno   1.99090
gfz2013kxlr   0.32929
gfz2013kxof   1.74230
gfz2013lbod   1.19170
gfz2013lbvl   0.17639
gfz2013lcrk   0.26730
gfz2013ljdu   1.49600
gfz2013ljwt   0.93467
gfz2013lnne   0.54954
gfz2013lqjj   1.55700
gfz2013lvxe   1.41070
gfz2013lwtr   0.80129
gfz2013lxnd   1.18080
gfz2013mbna   0.11656
gfz2013mdnp   0.37015
gfz2013mdxj   1.53570
gfz2013mimp   2.13490
gfz2013mktp   0.90684
gfz2013mnux   1.27120
gfz2013mvgq   1.21900
gfz2013mynb   1.75200
gfz2013mzaw   0.06878
gfz2013nhkw   0.75444
gfz2013njwj   1.20460
gfz2013nkgd   2.16740
gfz2013nkgt   1.16320
gfz2013nnai   1.16740
gfz2013noqf   1.96710
gfz2013ntfc   1.21140
gfz2013ntiu   2.07290
gfz2013ntxw   0.54585
gfz2013oeni   1.12560
gfz2013ohdt   1.50610
gfz2013ohnj   1.41050
gfz2013oizq   0.04710
gfz2013okac   1.30900
gfz2013okxa   0.81957
gfz2013olos   1.09290
gfz2013onvl   0.69996
gfz2013opkx   1.76880
gfz2013orot   1.06820
gfz2013oruq   0.68066
gfz2013otxp   1.06950
gfz2013oywh   2.02720
gfz2013pegj   3.33340
gfz2013rdmn   1.28480
gfz2013rfik   1.38720
gfz2013rgcc   1.13680
gfz2013rhbx   1.74560
gfz2013rhxf   0.56972
gfz2013rocs   1.43430
gfz2013rofg  -0.55004
gfz2013rsyt   0.65180
gfz2013rtvy   0.61484
gfz2013rwkj   0.83677
gfz2013rwog   2.08480
gfz2013ryph   0.85664
gfz2013sbsl   1.96860
gfz2013sbsp   1.48350
gfz2013sdkg   2.37450
gfz2013sdym   0.64668
gfz2013skay   1.14840
gfz2013skvq   2.04970
gfz2013stup   0.09992
gfz2013suck   2.39200
gfz2013taeb   2.51050
gfz2013tcju   2.04410
gfz2013tert   0.66816
gfz2013tgia   2.53360
gfz2013tgyb   0.37212
gfz2013tjub   1.55340
gfz2013tkcg   0.80334
gfz2013tmnf   0.72631
gfz2013tmyj   1.98990
gfz2013tnff   0.10980
gfz2013tnrp   1.95090
gfz2013tpwl   1.80190
gfz2013ttmk   1.74890
gfz2013twbc   6.37280
gfz2013uafv   1.96900
gfz2013ubgt   1.85080
gfz2013udtw   1.40010
gfz2013uenl   0.37963
gfz2013uepl   2.65480
gfz2013uhio   1.66230
gfz2013ujze   0.96367
gfz2013unuv   0.31750
gfz2013upqj   1.22190
gfz2013utqa   2.77530
gfz2013uwjo   1.36520
gfz2013uwxb   0.28007
gfz2013uwxi   1.24110
gfz2013uzmf   1.03680
gfz2013vcgd   0.87668
gfz2013veoz   1.09310
gfz2013veug  -0.28058
gfz2013vgfb   1.03270
gfz2013vjrr   0.45734
gfz2013vjsz   1.65970
gfz2013vldx   0.76414
gfz2013vmrv   2.11220
gfz2013vmsg  -1.13940
gfz2013vmsn   1.72380
gfz2013vnwa   0.53983
gfz2013voai   1.55760
gfz2013vojy   1.02930
gfz2013vsdd   0.93631
gfz2013vvre  -0.72481
gfz2013vxht   1.50960
gfz2013vzel   1.17460
gfz2013vzet   0.78286
gfz2013wegs   0.76372
gfz2013wgwz   1.73630
gfz2013wpns   1.17960
gfz2013wyfl   1.22760
gfz2013xmzw   0.59480
gfz2013xofz  -0.00000
gfz2013xswc   0.66918
gfz2013xzxe   2.01140
gfz2013ygsj   2.11000
gfz2013ykkf   1.17460
gfz2013ymhx   1.57070
gfz2013yqtu   1.25490
gfz2013ytfm   0.64461
gfz2013yxhf   1.14360
gfz2013zkta   0.66124
gfz2014aejh   1.78470
gfz2014ajgi   2.07720
gfz2014aqax   0.73567
gfz2014ateb   1.97250
gfz2014bnea   1.85150
gfz2014bqpm   1.95200
gfz2014bztn  -0.54425
gfz2014epnq  -0.00887
gfz2014fbli   1.62780
gfz2014fhki   1.79290
gfz2014fsir   0.98815
