# Nsamples: 159  MAD:  0.992  mean: -1.462  std:  1.298
gfz2010aseg  -1.54690
gfz2010axdz  -3.02000
gfz2010azji  -2.56600
gfz2010bofe  -2.60170
gfz2010bqnk  -1.68010
gfz2010btme   0.77846
gfz2010bukb  -2.51280
gfz2010bvit  -1.93240
gfz2010ccwc  -1.28610
gfz2010clbw  -2.46360
gfz2010cllh  -0.79008
gfz2010cphq  -0.08619
gfz2010cthm   0.04757
gfz2010cyid  -0.55323
gfz2010drml   0.12304
gfz2010drmq   0.12304
gfz2010dtyx  -0.72872
gfz2010ewyj  -1.20750
gfz2010fgbo  -2.67690
gfz2010fopf  -1.92780
gfz2010iaay  -1.68980
gfz2010izgb  -1.92930
gfz2010mqzz  -2.38590
gfz2010xpzq  -2.25970
gfz2011awsv  -2.41950
gfz2011bazz  -1.93680
gfz2011bcvc   0.45038
gfz2011bygs  -1.04930
gfz2011bzio  -2.52030
gfz2011cdge  -0.85950
gfz2011cjuz  -0.77050
gfz2011cwzi  -2.75310
gfz2011duvm  -1.51550
gfz2011exxq  -0.82187
gfz2011fnie  -2.47770
gfz2011fszl  -1.59680
gfz2011fyfu  -2.07570
gfz2011fzcw  -2.31480
gfz2011gkdx  -2.03960
gfz2011hffq  -1.67350
gfz2011hibi  -2.36060
gfz2011hjof  -2.06920
gfz2011hmnw  -1.95700
gfz2011hqjs  -2.64560
gfz2011hyct  -2.37890
gfz2011ibew  -1.74470
gfz2011inan   2.50430
gfz2011ioch   0.00000
gfz2011iryz  -2.35460
gfz2011jeta  -0.72201
gfz2011jphj  -5.22740
gfz2011kfch  -1.86910
gfz2011kylu  -1.97820
gfz2011kymm  -0.83277
gfz2011lbnn  -0.51947
gfz2011lwmg  -2.18860
gfz2011lykm  -1.56450
gfz2011mllb  -2.03090
gfz2011nkou   2.87650
gfz2011nlou  -1.85360
gfz2011nlum   0.63428
gfz2011ofpj  -1.59660
gfz2011owqa  -2.07020
gfz2011qenl  -2.00620
gfz2011rkau  -0.59137
gfz2011sqco  -3.19260
gfz2011wkyx  -0.23892
gfz2011wwze  -2.23760
gfz2011ykbd  -0.08488
gfz2011zgxn  -2.67530
gfz2012cksh  -0.43477
gfz2012cntu  -1.02640
gfz2012dejg  -2.97000
gfz2012dleg  -1.27460
gfz2012dpem   0.67364
gfz2012dpwv  -1.60620
gfz2012dtdt  -1.25410
gfz2012ebrr  -1.85390
gfz2012fbgz  -2.13110
gfz2012foih   0.40676
gfz2012fyny  -2.63270
gfz2012gjtd  -1.41680
gfz2012gnow  -2.19280
gfz2012hwph  -2.34470
gfz2012ibyd  -2.87110
gfz2012kstg  -1.03640
gfz2012lvlr  -1.83670
gfz2012lwha  -0.57613
gfz2012mdzf  -2.90420
gfz2012mekv  -1.91080
gfz2012moul   2.58490
gfz2012pmuj  -2.79830
gfz2012svwz   0.18243
gfz2012uhtc  -1.91900
gfz2012ukzg   0.12283
gfz2012uzww  -2.71330
gfz2012vitw  -2.45650
gfz2012wgmg  -0.96333
gfz2012wgmp  -0.34866
gfz2012wiyv   1.24200
gfz2012wkki  -2.23380
gfz2012wowu   2.36320
gfz2012woxj  -1.42860
gfz2012xncm  -1.92870
gfz2012xxdj  -2.19110
gfz2012yncm  -1.90570
gfz2013ascz  -2.78700
gfz2013bqfc  -0.22199
gfz2013bwgw  -1.57920
gfz2013exow  -0.88735
gfz2013ezmc  -1.77510
gfz2013fthi  -1.20410
gfz2013fvht  -2.16710
gfz2013fvyr  -3.12940
gfz2013hbwy  -5.87070
gfz2013hdbp   1.25760
gfz2013hduf  -2.57720
gfz2013hjtt  -2.62340
gfz2013hqaa   2.51930
gfz2013hqcd  -1.28920
gfz2013irme  -2.52130
gfz2013iwzn  -2.05620
gfz2013jjae  -0.94542
gfz2013jkqn  -0.51033
gfz2013kjgh  -0.22870
gfz2013kqab  -2.00150
gfz2013mvgq  -1.54520
gfz2013mzaw  -2.23310
gfz2013ntiu  -0.15316
gfz2013taeb  -1.11030
gfz2013tgyb  -0.48608
gfz2013udtw  -2.09320
gfz2013uwjo  -1.46220
gfz2013xahp  -2.41520
gfz2013xmzw  -2.50600
gfz2013xofz  -2.29300
gfz2013xzxe  -0.47518
gfz2013yawe   0.19027
gfz2013zpse  -0.95929
gfz2014aqop  -1.63960
gfz2014ayxf  -1.40640
gfz2014bkra  -2.64650
gfz2014bmqw   0.27100
gfz2014cokw  -1.87990
gfz2014dggw  -1.83950
gfz2014eirs  -1.71790
gfz2014epfm  -2.31210
gfz2014fgbn  -0.58225
gfz2014gnbw  -1.87640
gfz2014gnvp  -2.14720
gfz2014gypw  -2.25170
gfz2014hkcw  -2.31650
gfz2014huah  -0.64815
gfz2014huqh  -0.20895
gfz2014igrp  -2.05760
gfz2014inrg  -3.29030
gfz2014iusw  -2.02190
gfz2014jayh  -2.62370
gfz2014jbfp  -1.47650
