# Nsamples: 571  MAD:  0.686  mean: -0.269  std:  0.821
gfz2010aggj  -0.75581
gfz2010aseg  -0.62352
gfz2010bgrt  -0.82529
gfz2010bmls  -0.53371
gfz2010bqnk   0.02059
gfz2010btme  -1.78040
gfz2010ccwc  -0.81445
gfz2010cdnv   0.02052
gfz2010clbw  -1.14370
gfz2010cllh   0.09644
gfz2010cngg  -0.52923
gfz2010cnyi  -1.08440
gfz2010cphq  -0.92710
gfz2010cpig  -0.86260
gfz2010crgy  -0.70456
gfz2010crir  -0.80852
gfz2010csle  -1.73930
gfz2010csqg  -1.14770
gfz2010cthm  -0.94689
gfz2010cyid   0.79738
gfz2010dask  -0.14304
gfz2010ddan  -0.74470
gfz2010depd  -1.81320
gfz2010djib  -0.53549
gfz2010dmij   1.32870
gfz2010dmkd  -0.49635
gfz2010drit  -0.15428
gfz2010drml   0.16603
gfz2010drmq   0.16603
gfz2010drng  -0.92481
gfz2010drpv  -0.51189
gfz2010drun  -0.37429
gfz2010dtgc  -0.11745
gfz2010dtyx  -0.57893
gfz2010dumv   1.08920
gfz2010dxhq   0.25649
gfz2010eepd  -0.71026
gfz2010ewyj   0.57295
gfz2010extu   0.12938
gfz2010fgbo  -0.47511
gfz2010gcqp  -0.47774
gfz2010habf  -0.20551
gfz2010hueh  -3.30930
gfz2010hxan  -0.07278
gfz2010iaay  -1.59970
gfz2010iawy   0.40285
gfz2010ifhd  -0.73322
gfz2010izgb   0.40137
gfz2010jlvp  -0.18694
gfz2010jpkn  -0.83656
gfz2010jvsi   0.75795
gfz2010mdti  -0.47482
gfz2010mqzz  -0.98630
gfz2010mvmb  -1.89920
gfz2010mvtj   0.60928
gfz2010mwmd   0.72837
gfz2010ncwu  -0.41741
gfz2010ngge  -0.17031
gfz2010nwbd   1.59960
gfz2010nwyk   0.60353
gfz2010okpc   0.38835
gfz2010ouvm  -0.99511
gfz2010pclq  -0.31658
gfz2010pcya  -0.90659
gfz2010pdip  -1.09360
gfz2010pgpo  -0.38644
gfz2010pngv   0.76765
gfz2010pzza  -1.15480
gfz2010qdqk  -0.75140
gfz2010qqqx   0.84329
gfz2010rhvu  -1.09590
gfz2010rkuu  -0.29715
gfz2010rljv  -0.05008
gfz2010rmua  -0.56216
gfz2010rnqa  -2.43830
gfz2010rnwt   3.16440
gfz2010scht   0.00000
gfz2010sdfs  -1.15340
gfz2010syqh  -0.85309
gfz2010tmba  -0.03533
gfz2010tpcj  -0.85106
gfz2010tqyo  -0.98623
gfz2010tzlz   0.05204
gfz2010tzma   0.09840
gfz2010ugws   0.73361
gfz2010uhjy   0.17182
gfz2010uidg   0.33666
gfz2010umxj   0.74771
gfz2010uogw   0.18105
gfz2010upod  -1.75690
gfz2010uqba  -0.68403
gfz2010uraq   0.63901
gfz2010xnbn  -0.05760
gfz2010xpzq  -0.76115
gfz2010yczp  -0.28797
gfz2010yhhj  -0.30559
gfz2010zjun  -0.47162
gfz2011ahvh  -1.41580
gfz2011aqpp   0.00000
gfz2011awsv  -0.79625
gfz2011bcvc  -2.52790
gfz2011bpqm  -1.07180
gfz2011bsvr   0.50695
gfz2011bwsm   1.83220
gfz2011bygs  -0.76551
gfz2011bygu   0.08166
gfz2011bzio  -0.51490
gfz2011cdge   0.24165
gfz2011cfyy   0.64824
gfz2011chsa  -1.04720
gfz2011cjuz  -0.39534
gfz2011cwzi  -0.92304
gfz2011dabj  -0.54560
gfz2011dhqk   0.54826
gfz2011dmdv  -0.69652
gfz2011dpyu   0.15477
gfz2011duvm  -0.58426
gfz2011emzr  -0.82711
gfz2011exxq  -1.06880
gfz2011fnie  -0.64398
gfz2011gfer   0.45515
gfz2011ggnl   0.34591
gfz2011gnbk  -0.86784
gfz2011gpyr   0.58728
gfz2011haaa  -0.12103
gfz2011hbqc  -0.76248
gfz2011hibi  -0.76546
gfz2011hjof  -0.42485
gfz2011hmnw  -0.49889
gfz2011hqjs  -0.87271
gfz2011hvzo  -0.93959
gfz2011hyct   0.39900
gfz2011ibew   2.22750
gfz2011iryz  -0.95604
gfz2011ituo  -0.08378
gfz2011kjzt  -0.03149
gfz2011kylu  -2.10910
gfz2011kymm  -0.79583
gfz2011lkkf  -0.05944
gfz2011lmug  -0.71780
gfz2011lwmg  -0.51251
gfz2011lxga  -0.33084
gfz2011mjje  -0.79808
gfz2011mllb  -0.30578
gfz2011mntq  -1.38530
gfz2011mrfm  -0.24514
gfz2011mror   0.10014
gfz2011mryu  -0.68998
gfz2011mzvn   0.64487
gfz2011nblt  -0.94980
gfz2011ndhh   0.90865
gfz2011ndki  -0.55275
gfz2011neai  -1.41510
gfz2011nejg   0.03660
gfz2011nejw   0.03172
gfz2011nerb  -0.77401
gfz2011nfcz  -0.96453
gfz2011nfgt   0.95975
gfz2011nftw  -0.02002
gfz2011nhhd   0.50071
gfz2011nhjv   2.26770
gfz2011nhvt  -0.94457
gfz2011nhwf  -0.83093
gfz2011nijp   0.76042
gfz2011nilw   0.29772
gfz2011nimp  -0.31935
gfz2011nioi   0.00000
gfz2011nisj   0.17089
gfz2011niuw   1.56660
gfz2011nkda   0.35281
gfz2011nkou   0.14983
gfz2011nlmf  -0.09715
gfz2011nlnl   0.04828
gfz2011nlok   0.33702
gfz2011nlum   0.33935
gfz2011nlyw   1.10200
gfz2011nmdz  -0.14567
gfz2011nnda  -0.58361
gfz2011nnos  -0.86498
gfz2011npaf   0.16935
gfz2011npeu  -0.55717
gfz2011nsiy   1.29840
gfz2011nssr  -0.54665
gfz2011nsyi  -1.88570
gfz2011nuqo   1.22080
gfz2011nvty  -0.40798
gfz2011oadm  -0.37905
gfz2011oazk  -1.08440
gfz2011ocif  -3.07380
gfz2011ofpj  -0.74781
gfz2011ohgj  -1.07820
gfz2011okza   0.69661
gfz2011omxt  -0.58810
gfz2011oslk   0.34683
gfz2011osmp  -0.18146
gfz2011ovvj  -0.43403
gfz2011owqa  -0.70966
gfz2011paqj  -0.22107
gfz2011pbgh   2.72730
gfz2011pdsn  -1.15790
gfz2011pfls  -0.64348
gfz2011pfwq  -0.70171
gfz2011pimj  -0.18907
gfz2011pivq   0.41317
gfz2011pmuv  -0.66137
gfz2011pphc  -1.09240
gfz2011ppsc  -0.25962
gfz2011prrq  -0.60788
gfz2011pwbw   0.87420
gfz2011qenl  -0.29052
gfz2011qgea  -0.09303
gfz2011qgvh   1.79330
gfz2011qowe   0.51502
gfz2011qukj   0.11226
gfz2011rkau  -0.13110
gfz2011rnny   0.10160
gfz2011rqut  -0.61944
gfz2011scma  -0.39492
gfz2011sdax  -0.59762
gfz2011sdpl  -0.64266
gfz2011sqco  -0.27037
gfz2011sskq  -0.97647
gfz2011taqr  -0.59421
gfz2011tgey  -3.90600
gfz2011tqgg  -0.79743
gfz2011tsgl  -0.32072
gfz2011ugbt  -1.17250
gfz2011uqry   0.45830
gfz2011urwz  -0.46803
gfz2011vahy   0.08634
gfz2011vcyx   0.54547
gfz2011vsag   0.20724
gfz2011vtdl  -0.78343
gfz2011vtzv   0.09205
gfz2011wcvs  -0.03986
gfz2011wgoa  -0.66114
gfz2011wyei   0.57019
gfz2011xxng   0.37017
gfz2011yjtx  -1.05220
gfz2011ykbd  -0.39770
gfz2011ymji  -0.94412
gfz2011zghc  -0.67026
gfz2011zgxn  -0.38236
gfz2011znyq  -0.86318
gfz2012amjx  -0.25758
gfz2012arlo   0.21224
gfz2012byrq  -0.27546
gfz2012bysu  -0.66225
gfz2012bytv  -0.79256
gfz2012byuk  -0.49976
gfz2012cdju  -0.51453
gfz2012cksh   0.07005
gfz2012cntu  -0.76592
gfz2012czvh  -1.17440
gfz2012dbgt  -0.90294
gfz2012dejg  -0.50460
gfz2012dleg  -0.75400
gfz2012dluf   0.69931
gfz2012dpwv  -0.28159
gfz2012dtdt  -0.51917
gfz2012dtvr   0.34624
gfz2012duvf   0.86304
gfz2012duwm  -1.36630
gfz2012dwwu  -0.78809
gfz2012dysu   0.33405
gfz2012dzot   0.59179
gfz2012ebrr  -0.92358
gfz2012ekfp  -0.56118
gfz2012ekro   0.29543
gfz2012erds  -0.06264
gfz2012fbgz  -0.32406
gfz2012fcyq  -0.35244
gfz2012fcyr  -0.40433
gfz2012fhaf  -0.87117
gfz2012fiiz  -0.08471
gfz2012foih  -0.97540
gfz2012fpyo  -1.51430
gfz2012ftcq  -0.71951
gfz2012ftks  -1.31730
gfz2012fyny  -0.60854
gfz2012fyop   2.29130
gfz2012ghiv   1.73630
gfz2012gjdg  -0.69431
gfz2012gjtd   0.17722
gfz2012hdny  -1.15950
gfz2012heih  -1.45670
gfz2012hhlx  -0.87571
gfz2012hyqh   0.09259
gfz2012hzhn  -0.21433
gfz2012hzur  -1.30440
gfz2012iblc  -0.17252
gfz2012iblo  -0.23205
gfz2012ibyd  -0.41588
gfz2012idxu  -0.33814
gfz2012iedy  -0.59799
gfz2012iijk  -0.78603
gfz2012imsm  -0.73082
gfz2012iotw   1.18520
gfz2012iphs   0.17352
gfz2012jaun  -0.15095
gfz2012jodg   0.45159
gfz2012jopi  -0.25816
gfz2012jvei   0.95821
gfz2012jyhb   0.02019
gfz2012kbub  -1.11560
gfz2012kmbo  -0.72888
gfz2012kmmz  -0.07483
gfz2012kstg  -0.55253
gfz2012kyhj  -2.02290
gfz2012lcca  -1.50460
gfz2012lcro   0.49733
gfz2012ldjj  -0.71352
gfz2012lngq   0.73793
gfz2012lqhw   0.02826
gfz2012lvlr  -1.10180
gfz2012lvwx   0.93427
gfz2012lwha  -0.52755
gfz2012lyyr  -0.58019
gfz2012mdzf  -0.91964
gfz2012mjuu   0.42058
gfz2012mmiw  -0.78040
gfz2012moul  -0.11495
gfz2012mrqk  -0.30290
gfz2012mtyn   0.55576
gfz2012mxvk  -0.67701
gfz2012mzco  -0.41333
gfz2012ndwt   0.23856
gfz2012nldz   0.37622
gfz2012nmja  -0.57938
gfz2012nnck   0.79588
gfz2012nnqu  -0.90389
gfz2012nqvd   0.29274
gfz2012oafg  -0.50788
gfz2012oehy   0.03794
gfz2012ofnx  -0.65561
gfz2012ogqu   0.59407
gfz2012ogwe   1.61950
gfz2012oieq  -0.47721
gfz2012ojfv   0.37564
gfz2012ojmv  -0.09846
gfz2012onfs  -1.94240
gfz2012oork   2.84910
gfz2012oozp  -0.52488
gfz2012pdfi   0.34895
gfz2012phns  -0.28588
gfz2012pmuj  -0.47987
gfz2012ppcq  -0.52539
gfz2012qbbt   0.33295
gfz2012qpoc  -0.05070
gfz2012rfhw  -0.46908
gfz2012roan  -0.66453
gfz2012rslf   3.50490
gfz2012rzwp  -0.64286
gfz2012sbix  -0.69325
gfz2012sgfd  -1.29550
gfz2012socz  -1.33700
gfz2012sqsc  -0.06021
gfz2012suqd  -0.15714
gfz2012svwz  -0.51302
gfz2012sxzs  -1.10620
gfz2012syum   0.05039
gfz2012taph  -0.33801
gfz2012tisj  -1.01570
gfz2012tjih  -1.18630
gfz2012trfq  -1.23550
gfz2012uvoa  -0.60278
gfz2012uzww  -1.05050
gfz2012vdra  -2.09290
gfz2012vgot   0.71860
gfz2012wgmg   0.39369
gfz2012wmas  -0.75868
gfz2012wowu  -0.49364
gfz2012woxj  -1.06160
gfz2012wzja  -0.30318
gfz2012xlfo  -1.01210
gfz2012xncm  -0.41769
gfz2012xqxw   0.39555
gfz2012xtvu  -0.11066
gfz2012xxdj  -0.08260
gfz2012ylai  -0.57761
gfz2012yncm   2.41780
gfz2012zkhu   0.53057
gfz2013atak  -0.94059
gfz2013bwgw  -0.50620
gfz2013byyy  -0.84518
gfz2013ciof  -0.46265
gfz2013cokc  -0.05951
gfz2013cpjc   0.73345
gfz2013cqee  -1.89530
gfz2013cvve  -0.68911
gfz2013cyvx  -0.13938
gfz2013dftb  -0.48830
gfz2013dfvx  -1.87270
gfz2013djfi  -1.29040
gfz2013dngd  -0.32929
gfz2013dwsp  -0.67470
gfz2013dznt  -0.89020
gfz2013dzvr  -0.57282
gfz2013eazm   0.35810
gfz2013efct  -0.71137
gfz2013enqo  -2.35610
gfz2013exow   0.40458
gfz2013ezmc   0.32030
gfz2013frxd  -0.83394
gfz2013fulo   1.01370
gfz2013fvht   0.45285
gfz2013fvyr  -1.10940
gfz2013fwbm  -1.71730
gfz2013gbki   0.04977
gfz2013gbma  -0.75176
gfz2013gglk   0.43205
gfz2013gsnl   0.00807
gfz2013hdbp  -0.94374
gfz2013hduf   0.15846
gfz2013hqaa   0.36188
gfz2013hwps  -0.15882
gfz2013icql   0.84478
gfz2013irme  -0.05483
gfz2013iuyv  -0.81915
gfz2013iwzn  -0.61271
gfz2013jfcn  -0.43902
gfz2013jhog  -0.43452
gfz2013jkqn   0.02307
gfz2013jlli   0.00000
gfz2013jobl  -0.36096
gfz2013jrqf   0.13163
gfz2013jtsg  -0.80429
gfz2013kats  -0.35450
gfz2013kbbg   0.21671
gfz2013kbbn   0.06235
gfz2013kcdb   0.89719
gfz2013kdfy   1.33220
gfz2013kjgh  -0.83060
gfz2013kpcb  -0.28462
gfz2013kqab  -0.89671
gfz2013kruh   0.54673
gfz2013kslp   0.03209
gfz2013kuno  -0.48493
gfz2013kxlr   0.85143
gfz2013kxof  -0.02635
gfz2013lbvl   0.19962
gfz2013ljdu   0.50232
gfz2013lqjj   0.15751
gfz2013lxnd  -0.04430
gfz2013mdnp   0.43262
gfz2013mimp  -0.77170
gfz2013njwj  -0.26517
gfz2013nkgd   1.74560
gfz2013ntiu  -0.48736
gfz2013oeni   0.12179
gfz2013oizq  -0.77551
gfz2013olos   0.95076
gfz2013onvl  -0.34380
gfz2013orot   0.05991
gfz2013osmj   0.49272
gfz2013oywh   0.97268
gfz2013phhi  -1.16960
gfz2013phly   0.61648
gfz2013qigb  -0.26984
gfz2013qmkt   1.21570
gfz2013quwz  -0.40701
gfz2013quyn  -0.81012
gfz2013qxof  -0.69660
gfz2013rdmn  -0.30942
gfz2013rocs  -0.39000
gfz2013rsyt   0.20580
gfz2013rwkj  -0.10809
gfz2013ryph   0.03469
gfz2013skay  -0.27231
gfz2013skvq   0.06119
gfz2013stup   0.03673
gfz2013taeb  -1.14330
gfz2013tert  -0.24788
gfz2013tjub  -0.99271
gfz2013tmyj   0.16938
gfz2013udtw  -0.33660
gfz2013uhio   0.04313
gfz2013ummt   0.54506
gfz2013unuv   0.03657
gfz2013utqa  -0.73528
gfz2013veug  -0.77384
gfz2013vjrr   0.42941
gfz2013vldx  -0.10110
gfz2013vmrv  -1.14090
gfz2013vmsg  -0.26114
gfz2013vnwa  -0.19496
gfz2013vojy  -0.49706
gfz2013vsdd  -0.85529
gfz2013vvre  -0.85714
gfz2013vzel   0.38609
gfz2013wyfl  -0.37015
gfz2013xahp  -0.39638
gfz2013xjmo  -1.53070
gfz2013xlic  -0.54071
gfz2013xmzw  -0.88314
gfz2013xswc  -0.59149
gfz2013yawe   0.04983
gfz2013ylxm  -3.29580
gfz2013yodm  -0.50996
gfz2013yqtu   0.27687
gfz2013ytfm   0.32267
gfz2013yxhf   0.01634
gfz2013zfbz  -0.10879
gfz2013zkta  -0.27321
gfz2013zlak  -0.22559
gfz2014amgk  -1.04040
gfz2014aqop   0.14317
gfz2014ayxf  -0.57955
gfz2014bdju   0.26237
gfz2014befl  -0.33865
gfz2014bgxe  -0.02579
gfz2014bkra  -1.03700
gfz2014bmqw  -1.44540
gfz2014bqpm  -0.34885
gfz2014bztn   1.21350
gfz2014cgxj  -0.49853
gfz2014cncl   0.59283
gfz2014cokw   0.14997
gfz2014ctdl  -0.32164
gfz2014cwcj  -0.06904
gfz2014cwti  -1.18420
gfz2014dbmu   0.20643
gfz2014dggw  -0.15599
gfz2014dihl   0.14080
gfz2014diuu  -0.57553
gfz2014djhi  -0.76234
gfz2014dtth   0.17219
gfz2014egvg  -2.20610
gfz2014eirs   0.08536
gfz2014eoay  -0.35965
gfz2014epnq   0.42775
gfz2014epue  -0.47061
gfz2014etqu  -0.20932
gfz2014evyu   0.29295
gfz2014ezjq   0.67823
gfz2014ezld  -0.83638
gfz2014faex   0.45812
gfz2014fbef  -0.81759
gfz2014fbnr   0.97822
gfz2014fdhk   0.91807
gfz2014ffqg  -0.83675
gfz2014fgbn   0.73080
gfz2014flxk   0.64581
gfz2014fsir  -0.60078
gfz2014fsje  -0.41097
gfz2014fwxt  -0.04074
gfz2014fxte  -0.31477
gfz2014fxuy  -0.14362
gfz2014gasb  -1.60750
gfz2014ggie  -0.25865
gfz2014gnvp  -0.76383
gfz2014gtoj  -0.00519
gfz2014gypw  -0.02420
gfz2014hkcw  -0.12269
gfz2014huah  -0.32752
gfz2014huqh   0.29642
gfz2014hzzf  -0.10855
gfz2014iaqm   0.72902
gfz2014icov  -0.35466
gfz2014imqh  -2.02680
gfz2014ined  -0.23811
gfz2014inrg   0.65596
gfz2014irlf   0.25803
gfz2014irln   0.24613
gfz2014irly  -0.20615
gfz2014isov   0.26997
gfz2014iusw  -0.33128
gfz2014jarg  -0.01123
gfz2014jayh  -0.68752
gfz2014jbfp   0.27295
gfz2014jbgm   1.02800
