# Nsamples: 178  MAD:  0.651  mean: -1.821  std:  0.977
gfz2010aggj  -2.19360
gfz2010aseg  -1.69000
gfz2010axdz   1.46060
gfz2010btme  -1.71760
gfz2010ccwc  -2.29440
gfz2010ccye  -2.33900
gfz2010clbw  -2.65580
gfz2010cllh  -1.50940
gfz2010cphq  -2.66510
gfz2010cpig  -1.36660
gfz2010crgy  -1.32420
gfz2010cyid  -1.31790
gfz2010drit  -2.01160
gfz2010dtyx  -1.85780
gfz2010ewyj  -1.97260
gfz2010faly  -1.43360
gfz2010fgbo  -2.00760
gfz2010fkff  -0.77217
gfz2010hueh  -3.84740
gfz2010jpkn  -0.67383
gfz2010mqzz  -1.26200
gfz2010ncwu  -1.12030
gfz2010okpc  -2.55360
gfz2010pgpo  -2.39880
gfz2010pzza  -3.22120
gfz2010rhvu  -2.16290
gfz2010rnqa  -3.88190
gfz2010rnwt   0.29735
gfz2010scht  -1.35810
gfz2010swqy  -2.69770
gfz2010tcgh  -0.84226
gfz2010tpcj  -1.66460
gfz2010tzlz  -1.53070
gfz2010tzma  -3.53800
gfz2010ugws  -1.34770
gfz2010uraq  -1.48450
gfz2010yfdr  -1.62750
gfz2010yhdn  -2.26760
gfz2010yspe  -2.61110
gfz2010zjun  -1.95850
gfz2011ahvh  -2.43450
gfz2011aqpp  -1.94140
gfz2011awsv  -2.23280
gfz2011bazz  -2.39990
gfz2011bcvc  -1.24290
gfz2011bygs  -2.49690
gfz2011cdge  -1.49350
gfz2011cfyy  -2.04140
gfz2011chsa  -1.94380
gfz2011cjuz  -3.12220
gfz2011duvm  -1.11090
gfz2011emzr   0.10523
gfz2011fnie  -2.33620
gfz2011fszl  -2.10000
gfz2011hibi   4.07970
gfz2011hjof  -2.14380
gfz2011hqjs  -2.56080
gfz2011hvzo  -0.93713
gfz2011hyct  -1.31530
gfz2011ibew  -0.99965
gfz2011ioch  -1.19150
gfz2011iryz  -2.66440
gfz2011ituo  -1.84100
gfz2011jeta  -1.94410
gfz2011kylu  -3.86420
gfz2011kymm  -0.92416
gfz2011lwmg  -2.73750
gfz2011nblt  -1.37470
gfz2011nfcz  -2.68690
gfz2011nijp  -1.62950
gfz2011nkou  -2.41210
gfz2011nlum  -1.26860
gfz2011nmdz  -2.32150
gfz2011nmhg  -1.94150
gfz2011nuqo  -1.12990
gfz2011ofpj  -2.26620
gfz2011owqa  -1.24730
gfz2011paqj  -1.94220
gfz2011pivq  -1.89700
gfz2011pmuv  -2.18170
gfz2011pwbw  -2.21980
gfz2011qenl  -1.00480
gfz2011rkau  -2.07150
gfz2011tsgl  -2.72420
gfz2011ugbt  -1.73450
gfz2011vtzv  -1.32770
gfz2011wcvs  -1.80530
gfz2011ypfh  -0.65530
gfz2011zgxn  -2.58350
gfz2012amjx  -1.52600
gfz2012aqpa  -1.49660
gfz2012arlo  -1.59110
gfz2012byrq  -1.76020
gfz2012cdju  -2.02620
gfz2012cksh  -2.36270
gfz2012cntu  -1.86980
gfz2012dleg  -1.37450
gfz2012dtdt  -2.10290
gfz2012dtvr  -1.60960
gfz2012ebff  -1.62290
gfz2012ebrr  -2.64620
gfz2012ekfp  -1.75240
gfz2012ekro  -0.99366
gfz2012emin  -1.52670
gfz2012fyny  -2.05930
gfz2012fyop  -1.64780
gfz2012ghiv  -2.05810
gfz2012gjtd  -2.32910
gfz2012imsm  -1.87590
gfz2012ivyg   0.83075
gfz2012jetp  -2.12850
gfz2012jodg   0.31166
gfz2012jvei  -1.44900
gfz2012kmbo  -3.52670
gfz2012kmmz  -0.99400
gfz2012krcm  -2.30080
gfz2012kstg  -1.64090
gfz2012ldjj  -1.83440
gfz2012lwha   0.50490
gfz2012lyyr  -1.93650
gfz2012nnqu   0.02210
gfz2012oehy  -2.38040
gfz2012oieq   2.31300
gfz2012phns  -2.56030
gfz2012pmuj  -2.93040
gfz2012qfov  -3.02790
gfz2012ukzg  -2.07740
gfz2012uvoa  -2.51980
gfz2012uzww  -2.86440
gfz2012vdra  -3.27710
gfz2012wgmg  -2.19850
gfz2012wkki  -1.47590
gfz2012wowu  -1.64760
gfz2013kqab  -1.94480
gfz2013mimp  -1.71400
gfz2013mvgq  -2.72870
gfz2013mzaw  -1.87020
gfz2013ntiu  -1.56110
gfz2013oywh  -0.86115
gfz2013phhi  -1.91940
gfz2013qigb  -2.18460
gfz2013qxof  -2.55280
gfz2013rocs  -2.02280
gfz2013taeb  -2.68610
gfz2013tdsx  -1.54970
gfz2013tnrp  -2.22740
gfz2013uwjo  -2.12970
gfz2013uxzw  -1.77600
gfz2013veug  -2.43420
gfz2013vjrr  -1.78290
gfz2013vmsg  -1.93280
gfz2013vnwa  -1.15470
gfz2013vojy  -2.29530
gfz2013vsdd  -2.81590
gfz2013vvre  -3.01380
gfz2013xahp  -2.24470
gfz2013xmzw  -1.78750
gfz2013xofz  -1.42360
gfz2013yxhf  -1.27300
gfz2013zlak  -2.02680
gfz2013zpwk  -1.47630
gfz2014aqop  -1.85440
gfz2014ayxf  -2.14100
gfz2014bdju  -1.73660
gfz2014bmqw  -3.39820
gfz2014cgxj  -1.99370
gfz2014cncl  -1.09460
gfz2014cokw  -2.84160
gfz2014ctdl  -1.24270
gfz2014eirs  -1.59280
gfz2014eoay  -2.08790
gfz2014flxk  -0.91825
gfz2014fsje  -2.12390
gfz2014gssz  -1.80320
gfz2014gypw  -4.00340
gfz2014iusw  -1.71800
gfz2014jayh  -2.17670
gfz2014jbfp  -1.29740
