# Nsamples: 20  MAD:  0.934  mean:  0.294  std:  1.093
gfz2013delq  -1.05760
gfz2013dngd   0.06273
gfz2013hjtt   1.29350
gfz2013iuyv   0.02331
gfz2013iwzn   1.82260
gfz2013kcdb  -0.77865
gfz2013lbvl  -0.41663
gfz2013mvgq   0.14725
gfz2013onvl   2.28630
gfz2013oywh   0.33218
gfz2013qoak   1.36800
gfz2013qxof  -0.13530
gfz2013sdkg   0.01796
gfz2013tert  -1.40390
gfz2013upqj  -0.77572
gfz2013vmrv   0.04368
gfz2013wyfl   0.85883
gfz2013xahp   2.62190
gfz2013zlak  -0.21216
gfz2014fwxt  -0.21435
