# Nsamples: 8  MAD:  0.906  mean:  1.071  std:  1.211
gfz2013fnpa   1.00490
gfz2013fybd  -0.02318
gfz2013hvzv   3.41040
gfz2013icql   0.48463
gfz2013iwzn   2.24030
gfz2013kats   0.31931
gfz2013mvgq  -0.06936
gfz2013mzaw   1.19960
