# Nsamples: 438  MAD:  0.623  mean:  0.535  std:  0.854
gfz2010abfc  -0.13450
gfz2010aggj   0.59530
gfz2010amec   0.68519
gfz2010aseg   0.82718
gfz2010bklj  -0.06906
gfz2010brlc   0.48027
gfz2010ccye   0.54486
gfz2010clbw   0.41501
gfz2010cllh   2.20300
gfz2010cnhd   1.13690
gfz2010crgy   0.04045
gfz2010crir  -0.02531
gfz2010dask   1.44100
gfz2010djib  -0.35321
gfz2010drit   0.89602
gfz2010drml   1.39680
gfz2010drmq   1.39680
gfz2010drun   0.33623
gfz2010dumv  -0.68346
gfz2010dwgy   0.61907
gfz2010dxhq   0.75062
gfz2010ethu   0.00000
gfz2010fjme   0.57124
gfz2010fqnn  -0.21853
gfz2010gonu   0.34067
gfz2010gpjl   5.73870
gfz2010gxki   1.20930
gfz2010habf   0.49265
gfz2010hllp  -1.16060
gfz2010hueh  -0.08879
gfz2010hxan   0.65285
gfz2010iaay   1.00460
gfz2010izag   1.35250
gfz2010jlvp   0.25797
gfz2010mdti   0.62475
gfz2010ncwu   0.89575
gfz2010ngge  -0.09907
gfz2010okpc  -0.53680
gfz2010pclq   1.57110
gfz2010pcya  -1.00550
gfz2010pgpo   0.21679
gfz2010pvnn   0.25320
gfz2010pxoi   1.41480
gfz2010pzza  -0.19479
gfz2010qdqk   1.43530
gfz2010qqqx  -0.13825
gfz2010rhvu   1.10690
gfz2010rkuu  -0.32692
gfz2010rljv   0.99904
gfz2010rnqa   2.05500
gfz2010rnwt   1.55710
gfz2010rpjd   0.70639
gfz2010schp   0.74159
gfz2010sdfs   2.45950
gfz2010shvn   0.77191
gfz2010swqy   0.19776
gfz2010tcgh   2.19580
gfz2010tgmo   2.31510
gfz2010tmba   0.43459
gfz2010tpcj   0.78401
gfz2010tzlz   1.55640
gfz2010tzma   1.01250
gfz2010ugws   1.22130
gfz2010uhjy   1.16350
gfz2010uidg   1.44860
gfz2010umxj   1.15350
gfz2010umyp   1.53890
gfz2010uogw   0.98696
gfz2010vong   0.79062
gfz2010wakc  -0.39844
gfz2010wplk  -0.81048
gfz2010wyuj   1.04180
gfz2010xamh   0.20936
gfz2010xaxw   0.67921
gfz2010xjsv   1.70360
gfz2010xnbn   0.61668
gfz2010xpzq   0.68049
gfz2010yczp   0.32713
gfz2010yfdr   0.67366
gfz2010yhhj  -0.84709
gfz2010zjun   0.73729
gfz2011amst   3.02740
gfz2011aqpp   0.48617
gfz2011bpqm   0.36880
gfz2011bqbx   2.44100
gfz2011bsvr   0.25030
gfz2011bygs   0.69120
gfz2011bygu   0.92908
gfz2011cdge   0.81379
gfz2011chsa  -0.17131
gfz2011dabj   0.27751
gfz2011dhfg   0.36096
gfz2011dpyu   0.36050
gfz2011duvm   1.76050
gfz2011fnie   0.50855
gfz2011fszl   0.67911
gfz2011fzcw   1.94090
gfz2011ggnl   0.89203
gfz2011glpg   0.18823
gfz2011gnbk   0.49220
gfz2011gpyr   0.35149
gfz2011haaa   0.50671
gfz2011hbqc  -0.25693
gfz2011hjof   0.85903
gfz2011hmnw   0.36322
gfz2011hqjs   0.28729
gfz2011hvzo   0.26543
gfz2011hyct   0.90414
gfz2011iamf   1.53860
gfz2011ifta   0.55505
gfz2011iryz   0.34077
gfz2011ituo   1.30090
gfz2011jdoz   1.32690
gfz2011jphj  -1.05610
gfz2011jryv   1.21300
gfz2011jtij   0.98715
gfz2011kjzt  -0.07538
gfz2011kjzv  -0.04276
gfz2011kujo   0.28145
gfz2011lkkf   0.15925
gfz2011lmug   0.57150
gfz2011lwmg   0.16768
gfz2011mjje  -0.40750
gfz2011mror  -0.91677
gfz2011ndhh   0.98313
gfz2011ndlh  -0.05567
gfz2011neai  -1.50030
gfz2011nejg   0.53417
gfz2011nejw  -0.90951
gfz2011nfcz   0.14969
gfz2011nftw  -1.64510
gfz2011nhby   0.26673
gfz2011nhvt   0.36335
gfz2011nijp  -0.69793
gfz2011nilw  -0.86748
gfz2011nisj  -0.66736
gfz2011niuw  -0.34551
gfz2011nlmf  -0.63201
gfz2011nlnl   0.99977
gfz2011nlum   1.68010
gfz2011nlyw   2.14360
gfz2011npeu  -0.03913
gfz2011nsiy   1.54100
gfz2011nuqo   1.39630
gfz2011oadm  -0.21081
gfz2011oazk  -0.06923
gfz2011ofpj   0.29274
gfz2011ohgj  -0.75759
gfz2011okza   0.10328
gfz2011omxt   0.52166
gfz2011oslk   0.06644
gfz2011ovvj  -0.12381
gfz2011owqa   0.29377
gfz2011paqj   0.27358
gfz2011pdsn  -1.24420
gfz2011pfls   0.30231
gfz2011pfwq  -1.68660
gfz2011pmuv   0.33415
gfz2011ppsc  -0.24399
gfz2011pwbw  -0.11439
gfz2011qenl   0.62556
gfz2011qgea   1.17520
gfz2011qgvh   0.75103
gfz2011qukj  -0.25804
gfz2011rkau   0.31239
gfz2011rnny   0.16950
gfz2011sdax   0.38160
gfz2011sdpl   1.03460
gfz2011sqco   0.38571
gfz2011sxno   0.68949
gfz2011syzr   0.78223
gfz2011taqr  -0.00000
gfz2011tlwl   0.80976
gfz2011tqgg   0.46940
gfz2011tsgl   1.09220
gfz2011ugbt   0.40594
gfz2011uqry   0.97236
gfz2011urwz  -0.23284
gfz2011vahy   0.41959
gfz2011vbxv   0.73439
gfz2011vcyx   0.76519
gfz2011vtdl  -0.78511
gfz2011vtzv   0.82828
gfz2011wcvs   1.55060
gfz2011wgoa   0.19167
gfz2011wqup   0.40113
gfz2011wtfn   0.73971
gfz2011wucg   0.72824
gfz2011wwze   0.99286
gfz2011xgwy   0.35625
gfz2011xxng   0.71942
gfz2011yexx   0.16233
gfz2012amjx  -0.17498
gfz2012amvs   0.65917
gfz2012bqcf   0.22790
gfz2012byrq   0.07468
gfz2012cdju   0.13339
gfz2012cksh   0.20868
gfz2012cntu   0.46047
gfz2012cvfr   0.60098
gfz2012dejg   0.80380
gfz2012dleg   4.96560
gfz2012dtdt   0.60966
gfz2012dttl   0.83958
gfz2012dwwu  -0.58099
gfz2012ebff   0.52085
gfz2012ebgo   2.03900
gfz2012ebrr   0.10174
gfz2012foih   1.49410
gfz2012ftcq   0.92111
gfz2012ftks  -0.10360
gfz2012fyny   0.51673
gfz2012gdye   0.41002
gfz2012gftg  -0.13013
gfz2012ghiv   0.50049
gfz2012gjdg  -0.46165
gfz2012gjtd   1.22110
gfz2012gnow   0.49836
gfz2012gpcd  -0.00000
gfz2012gvxc   0.82295
gfz2012hhlx   0.46438
gfz2012hmcv  -0.17717
gfz2012hzur   0.35871
gfz2012icjo   1.93190
gfz2012iijk   0.72527
gfz2012iotw   2.52960
gfz2012ivyg  -0.05525
gfz2012izke   1.59210
gfz2012kmbo   0.12926
gfz2012kmmz   1.85730
gfz2012krcm   0.65957
gfz2012kstg   0.68887
gfz2012lcca  -1.12830
gfz2012lcro   1.85650
gfz2012ldjj  -0.03438
gfz2012lwha   1.67870
gfz2012lyyr   0.27630
gfz2012mcrb   0.12973
gfz2012mdzf  -0.22021
gfz2012mjuu  -0.02047
gfz2012mpzo   1.28710
gfz2012mrqk  -1.14000
gfz2012mrwu   0.37936
gfz2012nmja  -0.00871
gfz2012nnck   1.57270
gfz2012nnqu  -0.45404
gfz2012phns   0.90800
gfz2012pmuj  -0.40287
gfz2012pvve   0.60862
gfz2012qllj   1.60590
gfz2012qmhz   1.51320
gfz2012qpoc   0.80025
gfz2012rjlp  -0.02012
gfz2012svwz   0.90967
gfz2012swbz  -0.03927
gfz2012sxbo   1.34080
gfz2012sxpr   0.57011
gfz2012syum  -0.02056
gfz2012taph   0.49794
gfz2012tjwg   1.98080
gfz2012uegq   0.26360
gfz2012uhsx   2.28960
gfz2012uhtc   0.33460
gfz2012umob   0.20114
gfz2012unxc   1.07890
gfz2012uvea  -0.17955
gfz2012uzww   0.19130
gfz2012vitw   0.54165
gfz2012vlzv   0.24065
gfz2012vnve   0.55814
gfz2012vrqz   1.00580
gfz2012vurc   0.65180
gfz2012wgmg  -0.12291
gfz2012wjpf   1.53830
gfz2012wkki   1.46270
gfz2012wmmw   1.02160
gfz2012wowu   0.73532
gfz2012woxj   0.30009
gfz2012wysg   0.65111
gfz2012xcsf   0.23557
gfz2012xfnu   0.75350
gfz2012xkln   0.36525
gfz2012xlas   0.08132
gfz2012xlfo   1.29030
gfz2012xncm   0.35404
gfz2012xqxw   1.40700
gfz2012xtvu   0.56224
gfz2012xxdj   0.21985
gfz2012yegw   1.68740
gfz2012yytb   1.05720
gfz2012zhyz   0.58883
gfz2012zido   0.60180
gfz2013akkd   0.48106
gfz2013bwgw   0.90166
gfz2013byyy   0.01138
gfz2013cvve   1.65120
gfz2013cyvx   0.73493
gfz2013delq   0.29614
gfz2013dftb   0.63675
gfz2013dznt   1.46190
gfz2013dzvr   0.39839
gfz2013frxd  -0.73304
gfz2013fulo   0.45471
gfz2013fvht   1.04770
gfz2013fvyr   0.24867
gfz2013fybd   0.04981
gfz2013gbki  -0.28238
gfz2013gkcx  -0.02745
gfz2013gkyn   0.53344
gfz2013gugi  -0.12123
gfz2013gxye   1.14020
gfz2013hqaa   0.38701
gfz2013hwps  -0.46429
gfz2013icql   0.51957
gfz2013ifag   0.98584
gfz2013irme   1.01860
gfz2013iuyv   0.41586
gfz2013jfcn   1.23440
gfz2013jkqn   1.40580
gfz2013jlli  -0.19016
gfz2013jobl   0.47374
gfz2013kats   0.19147
gfz2013kbbg   0.68068
gfz2013kjgh   0.06016
gfz2013kpcb   0.18825
gfz2013kqab   0.30808
gfz2013lbod   1.15880
gfz2013lbvl   0.00000
gfz2013lcrk   0.80908
gfz2013lqjj   0.87541
gfz2013lvxe  -0.13141
gfz2013lxnd   0.26336
gfz2013mdxj   0.72719
gfz2013mzaw   0.82467
gfz2013njwj   1.37060
gfz2013oeni   0.19864
gfz2013ohdt   0.32858
gfz2013oizq   0.59472
gfz2013okac   0.53750
gfz2013oruq   0.85096
gfz2013phhi   1.23230
gfz2013pizm   1.02770
gfz2013pkmz   0.44380
gfz2013pqkp  -0.41068
gfz2013qear  -1.61980
gfz2013qigb   0.39573
gfz2013qoak   0.44745
gfz2013quwz  -0.20273
gfz2013qxof   0.49754
gfz2013rdmn   0.38751
gfz2013rocs   0.46014
gfz2013rtvy  -0.21994
gfz2013rwkj  -0.13151
gfz2013sdkg   0.79396
gfz2013skay   0.27031
gfz2013skvq   0.74146
gfz2013stup   3.16210
gfz2013taeb   1.12530
gfz2013tdsx   0.56802
gfz2013tjub  -0.50584
gfz2013tkcg   0.05616
gfz2013trsq   0.47689
gfz2013twbc   2.29580
gfz2013udtw   0.83427
gfz2013unuv  -0.46228
gfz2013upqj   1.27390
gfz2013uwjo   1.04670
gfz2013uxzw   0.69374
gfz2013vdam   0.40149
gfz2013veoz  -0.09947
gfz2013veug   0.38583
gfz2013vjrr   0.34041
gfz2013vldx   0.58269
gfz2013vmsg   0.73667
gfz2013vnwa   1.65920
gfz2013voai   0.48201
gfz2013vojy   0.88384
gfz2013vvre   0.96765
gfz2013vwkh   0.15516
gfz2013vzel  -0.47037
gfz2013vzet   0.43320
gfz2013wyfl   0.66780
gfz2013xahp   0.34772
gfz2013xjmo  -0.97603
gfz2013xmzw   0.41095
gfz2013xofz  -1.01310
gfz2013xswc   0.00272
gfz2013ylxn  -0.16011
gfz2013yodm   0.50909
gfz2013yqtu   0.30184
gfz2013yxhf   1.60820
gfz2013zbfb   1.34020
gfz2013zfbz   0.86937
gfz2013ziix  -2.04110
gfz2013zlak   1.30170
gfz2014aqop   0.96826
gfz2014bdju   0.62883
gfz2014byes   0.13275
gfz2014cncl   1.16220
gfz2014cokw   0.98145
gfz2014ctdl   0.50902
gfz2014cwcj   1.36510
gfz2014dbqi   0.30484
gfz2014dihl   1.57170
gfz2014dmrw   0.07079
gfz2014eoay   0.36425
gfz2014epnq   0.51704
gfz2014faex   2.01840
gfz2014flxk   1.11610
gfz2014fsir   0.72450
gfz2014fsje   0.52328
gfz2014fwxt   0.74111
gfz2014fxte   0.21783
gfz2014fxuy  -0.08092
gfz2014gnbw   0.47199
gfz2014gnvp   0.89365
gfz2014gsfc   1.28040
gfz2014gypw  -4.80140
gfz2014hapg   1.51670
gfz2014happ   0.24538
gfz2014hkcw  -0.14918
gfz2014hotu  -0.15731
gfz2014hqhv  -0.08177
gfz2014huah   1.02520
gfz2014huqh   1.14750
gfz2014hyea  -0.04932
gfz2014hzzf   0.51531
gfz2014icov   1.43580
gfz2014igrp   0.69997
gfz2014iltl   0.90130
gfz2014imqh   0.15071
gfz2014ined   0.91876
gfz2014irlf   0.24863
gfz2014irln  -2.72770
gfz2014irly  -0.16873
gfz2014isjg   0.72933
gfz2014jarg   1.12420
gfz2014jayh   0.49280
