# Nsamples: 254  MAD:  1.147  mean:  2.062  std:  1.451
gfz2010aggj   1.77870
gfz2010aseg   2.85750
gfz2010clbw   1.43490
gfz2010cllh   1.60410
gfz2010cphq   1.60360
gfz2010cpig   1.69700
gfz2010crgy   1.36030
gfz2010crir   0.66203
gfz2010cwrk  -0.27526
gfz2010djib   1.52100
gfz2010drit   2.28100
gfz2010dtyx  -1.16060
gfz2010dumv  -0.05092
gfz2010fgbo   3.65130
gfz2010mzfb   3.96990
gfz2010ngge   1.66540
gfz2010nwyk   1.08810
gfz2010ocug   4.13560
gfz2010okpc   1.17770
gfz2010okww   3.44250
gfz2010pclq   2.13470
gfz2010pcya   3.45350
gfz2010pgpo   4.45940
gfz2010pzza   1.22940
gfz2010qdqk   2.41320
gfz2010qrta   2.67790
gfz2010qzvf   1.40190
gfz2010rdip   0.97400
gfz2010rhvu   3.07450
gfz2010rkuu   1.82230
gfz2010rljv   2.57560
gfz2010rmua   3.66120
gfz2010rnqa   1.26560
gfz2010rnwt  -0.44336
gfz2010rpbz   5.27350
gfz2010rpjd   0.28799
gfz2010schp   5.68080
gfz2010sdfs   1.90800
gfz2010shvn   3.18870
gfz2010swqy   3.19750
gfz2010sylk   4.41890
gfz2010tcgh   3.05300
gfz2010tfar   1.72710
gfz2010tmba   1.76770
gfz2010tmne   3.26160
gfz2010tpcj   1.38500
gfz2010tzlz   1.62240
gfz2010tzma  -2.24900
gfz2010ugws   2.83030
gfz2010uhjy   2.21730
gfz2010umyp   1.42340
gfz2010vong   2.18890
gfz2010vybx   3.69900
gfz2010wakc   0.16891
gfz2010wigk   1.51170
gfz2010wwnq   3.54320
gfz2010xamh   2.62220
gfz2010xaxw   3.27540
gfz2010xjsv   2.39840
gfz2010xkbz   3.52680
gfz2010xnbn   0.21506
gfz2010xpzq   1.47620
gfz2010xvev   3.97750
gfz2010yczp   3.59740
gfz2010yfdr   3.07270
gfz2010yrex   2.47490
gfz2010zhvj   3.88600
gfz2010zjun   1.18480
gfz2010zkle   4.30740
gfz2011amst   1.25220
gfz2011aqpp   3.82530
gfz2011bpqm   1.39950
gfz2011bqbx   5.93520
gfz2011bygu  -0.58438
gfz2011cdge   3.14030
gfz2011cwzi   2.38730
gfz2011dabj   1.79040
gfz2011dhfg   1.57950
gfz2011dpyu   1.34840
gfz2011duvm   2.95790
gfz2011dwae   4.30270
gfz2011fnie   1.57800
gfz2011fszl   2.13640
gfz2011fzcw   3.25360
gfz2011ggnl   2.01450
gfz2011gnbk   1.81670
gfz2011gpyr   2.03660
gfz2011haaa   5.41820
gfz2011hatg   2.31150
gfz2011hibi   5.81370
gfz2011hjof   1.75140
gfz2011hmnw   2.14450
gfz2011hqjs   1.54210
gfz2011hvzo   3.05750
gfz2011hyct   2.33000
gfz2011hyuh   2.58130
gfz2011iamf   2.52380
gfz2011ibew   2.49960
gfz2011ifta   2.35790
gfz2011inan   3.39020
gfz2011ioch   2.41760
gfz2011iryz   2.19160
gfz2011itcv   3.91700
gfz2011ituo   2.11530
gfz2011jdoz   3.00790
gfz2011jeta   0.28620
gfz2011jghq   1.75480
gfz2011jphj   1.53730
gfz2011jryv   0.25373
gfz2011kfch  -0.09343
gfz2011kjzt   1.59620
gfz2011ksxc   1.38200
gfz2011kylu   1.09100
gfz2011kymm   0.36079
gfz2011kyzy   1.33600
gfz2011lmug   2.85680
gfz2011lwmg   1.34220
gfz2011mjje   1.16590
gfz2011mllb   1.66080
gfz2011mntq   2.67520
gfz2011mror  -0.95829
gfz2011nblt   3.15820
gfz2011ncyw   4.56960
gfz2011ndhh   1.89990
gfz2011nejg   0.44896
gfz2011nhby   1.61930
gfz2011nhvt   0.91434
gfz2011nhwf   0.49944
gfz2011nijp   1.19410
gfz2011nilw   1.75820
gfz2011niuw   0.61513
gfz2011nkou   0.66051
gfz2011nlnl   1.13980
gfz2011nlou   3.60360
gfz2011nlum   1.32870
gfz2011nmdz   3.97640
gfz2011nmhg   2.09750
gfz2011nnda   3.92030
gfz2011npeu  -0.21165
gfz2011nsiy   0.37223
gfz2011nuqo   2.28750
gfz2011oadm   2.72790
gfz2011oazk   1.58520
gfz2011ofpj   1.99910
gfz2011ohgj   2.11770
gfz2011okza   0.39467
gfz2011oslk   1.80420
gfz2011owqa   1.25510
gfz2011paqj   1.84770
gfz2011pmuv   1.63910
gfz2011pphc   2.56250
gfz2011prrq   0.90392
gfz2011pwbw   5.85480
gfz2011qenl   2.15230
gfz2011qgea   7.41720
gfz2011qtoy   6.06740
gfz2011qukj   2.48870
gfz2011rkau   0.19913
gfz2011rnsp   1.65600
gfz2011rqut   0.90835
gfz2011scma   0.55561
gfz2011sdax   1.91350
gfz2011sdpl   0.26087
gfz2011sqco   1.41960
gfz2011sskq   2.63780
gfz2011sxno   2.73180
gfz2011tdjj   0.95843
gfz2011tlwl   0.65496
gfz2011tqgg   1.50550
gfz2011tsgl   1.91280
gfz2011uqry   1.78450
gfz2011urwz   1.48270
gfz2011vahy   1.39790
gfz2011vbxv   1.47670
gfz2011vcyx   1.35590
gfz2011wcvs  -0.90646
gfz2011wpzt  -2.12160
gfz2011wzss   2.70110
gfz2011xgbc   2.46850
gfz2011xnui   2.12380
gfz2011yexx   1.08640
gfz2011ykbd   0.40538
gfz2011zghc   1.08690
gfz2011zgxn   3.35880
gfz2012alti  -0.63422
gfz2012aqpa   0.34117
gfz2012arlo  -3.58960
gfz2012bcvn   1.86440
gfz2012bqcf   1.51980
gfz2012byrq  -0.30920
gfz2012cdju   0.58191
gfz2012cksh   1.14860
gfz2012cntu   2.34450
gfz2012cvfr   2.00790
gfz2012dbgt   3.66590
gfz2012dejg   2.88430
gfz2012dleg   2.93960
gfz2012dnig   3.12280
gfz2012dpnu   3.88180
gfz2012dpwv   3.14470
gfz2012dtdt   3.68480
gfz2012dttl   2.23420
gfz2012dtvr   2.92010
gfz2012dysu   0.68511
gfz2012dzot   3.46220
gfz2012ebff   5.12680
gfz2012ebrr   3.86190
gfz2012ekfp   1.68820
gfz2012elek   2.52790
gfz2012foih   3.34410
gfz2012fuyd   1.53780
gfz2012fyny   3.09400
gfz2012ghiv   3.55880
gfz2012gjdg   2.03740
gfz2012gnow   2.58490
gfz2012hdny   2.47160
gfz2012hvtu   3.79870
gfz2012ibyd   2.59960
gfz2012icjo   2.93260
gfz2012ieln   3.46380
gfz2012iijk   1.60930
gfz2012imsm   1.43530
gfz2012ivyg   1.85380
gfz2012jlez   2.97180
gfz2012kmbo   1.50510
gfz2012kstg   3.50620
gfz2012lwha   2.50170
gfz2012lyyr   2.12820
gfz2012mdzf   1.80730
gfz2012mjuu   0.41861
gfz2012nnck  -0.44429
gfz2012oozp   1.81050
gfz2012phns   1.70540
gfz2012pmuj   1.18110
gfz2012pziw   2.74240
gfz2012qfah   1.51670
gfz2012qfov   2.37450
gfz2012qpoc   2.12260
gfz2012rmvx   0.42271
gfz2012sxzs   2.47520
gfz2012syum   0.46296
gfz2012tisj   2.31650
gfz2012tjih   1.47470
gfz2012uegq   2.19360
gfz2012uhsx   1.61800
gfz2012uhtc   2.11480
gfz2012ulei   2.60610
gfz2012unxc   3.98160
gfz2012uzww   1.84440
gfz2012vkjw  -1.21000
gfz2012vlzv   3.03280
gfz2012vrqz   1.13750
gfz2012wgmg   2.47430
gfz2012wkki   2.75710
