# Nsamples: 9  MAD:  1.016  mean:  0.700  std:  1.077
gfz2010okpc   0.81763
gfz2012alti   0.15098
gfz2012bysu  -0.66467
gfz2012foih   2.60900
gfz2012wowu   0.62869
gfz2013bwgw   0.94039
gfz2013delq  -0.05629
gfz2013mvgq  -0.22320
gfz2013oywh   2.10140
