# Nsamples: 20  MAD:  1.059  mean:  0.697  std:  2.252
gfz2010djib  -3.15170
gfz2010hueh  -0.28692
gfz2010rhvu   1.25500
gfz2011cdge   0.16183
gfz2011exxq   7.38410
gfz2011mllb   1.87320
gfz2011nuqo   0.06294
gfz2011qukj  -3.41050
gfz2011rkau   1.69980
gfz2011scma   0.70135
gfz2012cksh  -0.74434
gfz2012foih   4.01000
gfz2012suqd   0.05649
gfz2012wowu   0.25672
gfz2013bwgw   1.14200
gfz2013delq   0.33881
gfz2013kcdb  -0.15713
gfz2013mvgq   0.43329
gfz2013taeb   1.59140
gfz2013vnwa   0.73169
