# Nsamples: 507  MAD:  1.537  mean: -1.965  std:  1.887
gfz2010aggj  -2.97870
gfz2010aldp  -1.48150
gfz2010aseg  -2.33490
gfz2010bklj  -2.15680
gfz2010bmls  -0.35404
gfz2010bofe  -1.09700
gfz2010brlc  -1.15780
gfz2010btme  -0.93361
gfz2010bukb  -2.35790
gfz2010byau  -0.60714
gfz2010cbnp  -1.37070
gfz2010clbw  -2.78220
gfz2010cllh  -0.63431
gfz2010cngg  -1.44930
gfz2010cnhd  -0.34540
gfz2010cphq   1.52450
gfz2010crgy  -4.92260
gfz2010crir  -3.40310
gfz2010csle  -2.25150
gfz2010csqy  -0.74054
gfz2010cthm   1.44910
gfz2010cwrk  -1.28100
gfz2010cyid  -1.05770
gfz2010dask  -0.11067
gfz2010diid  -0.79428
gfz2010djib  -3.98780
gfz2010dmij  -0.34511
gfz2010drit  -1.43930
gfz2010dtyx  -0.53847
gfz2010dxhq  -5.37990
gfz2010ehgf   0.96853
gfz2010elge   1.22030
gfz2010fjme  -1.72000
gfz2010fqzh  -2.50800
gfz2010guwa  -1.85940
gfz2010gxki  -0.42794
gfz2010habf  -0.60551
gfz2010hdxn  -1.87480
gfz2010hexh  -2.67100
gfz2010hueh  -0.25300
gfz2010huzl  -1.56700
gfz2010iaay  -2.59190
gfz2010ihef  -0.84634
gfz2010izag  -1.10860
gfz2010jcby  -1.07410
gfz2010jgwj  -2.86230
gfz2010jlvp  -3.11870
gfz2010lvnj  -2.51160
gfz2010mdti  -2.25490
gfz2010mqzz  -3.87370
gfz2010mzfb  -2.25090
gfz2010nteg  -0.97617
gfz2010ovvg  -1.36020
gfz2010pdip  -0.99440
gfz2010pzza  -3.16240
gfz2010qdqk  -0.65411
gfz2010qloa  -1.28360
gfz2010qrix  -0.20159
gfz2010qrta  -1.97170
gfz2010rhvu  -0.79631
gfz2010rkuu  -0.10172
gfz2010rljv  -1.03450
gfz2010rmua  -2.57030
gfz2010rnwt  -0.81410
gfz2010rpbz  -0.67169
gfz2010rpjd  -1.77490
gfz2010sdfs  -2.27840
gfz2010tgmo  -1.25620
gfz2010tmba  -1.55990
gfz2010tpcj  -0.78495
gfz2010tzma  -1.38720
gfz2010ugws  -0.71840
gfz2010uhjy  -0.45873
gfz2010uogw   0.15365
gfz2010ussf   1.25350
gfz2010vong   0.00000
gfz2010wakc  -12.53900
gfz2010wyuj   0.59468
gfz2010xamh  -2.82010
gfz2010xaxw  -0.10138
gfz2010xhqq  -1.85880
gfz2010xkbz  -0.20077
gfz2010xney  -1.32060
gfz2010xpzq  -1.77480
gfz2010yhhj  -6.32260
gfz2010yilf  -1.35930
gfz2010ymih  -2.82650
gfz2010zaxv  -1.26180
gfz2010zjun  -4.61010
gfz2011ahvh  -1.80930
gfz2011ameb  -2.49740
gfz2011aqpp  -1.29850
gfz2011awsv  -3.10650
gfz2011bcvc  -0.81129
gfz2011bpqm  -4.06350
gfz2011bwsm   0.54006
gfz2011bygs  -2.29000
gfz2011cdge   0.36844
gfz2011chsa  -2.70170
gfz2011cjuz   0.82605
gfz2011dabj  -1.12810
gfz2011dbzc  -1.94440
gfz2011dhfg  -2.73800
gfz2011dpyu  -5.29050
gfz2011drmu   0.65081
gfz2011duvm  -0.44108
gfz2011dwae   1.86720
gfz2011ekty  -1.10260
gfz2011etkc  -1.13700
gfz2011exxq   2.29410
gfz2011ffdh  -0.24304
gfz2011fges  -1.44790
gfz2011gdli  -1.30740
gfz2011gdrl  -0.94133
gfz2011ggnl  -0.81765
gfz2011glpg  -1.97040
gfz2011gnbk  -2.38570
gfz2011hatg  -2.64190
gfz2011hffq  -2.08480
gfz2011hibi  -0.76592
gfz2011hjof  -1.67630
gfz2011hvzo  -1.17090
gfz2011ibew   2.00400
gfz2011ioch  -0.98046
gfz2011iryz  -3.07990
gfz2011jryv  -6.26110
gfz2011kylu   2.71760
gfz2011mimz  -1.54810
gfz2011mjje  -6.03210
gfz2011ndhh  -9.47350
gfz2011nejg  -7.29300
gfz2011nejw  -6.76960
gfz2011nfcz  -3.37060
gfz2011nhvt  -2.69890
gfz2011nhwf  -1.15960
gfz2011nijp  -8.41300
gfz2011niuw  -6.23030
gfz2011nlnl  -3.48590
gfz2011nlum  -1.68820
gfz2011nsyi  -4.23580
gfz2011nuqo  -1.00190
gfz2011nyzk   3.60800
gfz2011oadm  -4.96250
gfz2011oazk  -1.76800
gfz2011ocif  -5.40590
gfz2011ofpj  -3.21420
gfz2011oqjl  -5.70050
gfz2011oslk  -7.33390
gfz2011owqa  -2.79340
gfz2011paqj  -5.08740
gfz2011pfls  -1.55980
gfz2011pivq  -2.27700
gfz2011pmuv  -3.25220
gfz2011poug  -1.54990
gfz2011pphc  -2.28210
gfz2011ppsc  -3.31320
gfz2011pwbw  -2.69140
gfz2011qgea  -0.13686
gfz2011qklh   1.28900
gfz2011qowe   0.63436
gfz2011qtoy  -0.49504
gfz2011qukj  -2.41860
gfz2011rkau  -1.66400
gfz2011rnny  -8.94460
gfz2011scma  -4.69680
gfz2011sdax  -3.61340
gfz2011sfmu  -3.63180
gfz2011sqco  -3.77720
gfz2011sqxp   1.69340
gfz2011syvj  -1.17580
gfz2011taqr  -2.33790
gfz2011tarj  -0.64840
gfz2011tozo  -1.66580
gfz2011tsgl  -1.25790
gfz2011udxo   1.66250
gfz2011ugbt  -2.96480
gfz2011uowi  -3.93870
gfz2011uqlz  -0.98666
gfz2011uqry  -6.56790
gfz2011urwz  -6.84120
gfz2011uvsi  -3.17840
gfz2011vahy  -2.42970
gfz2011vsag  -6.23630
gfz2011vtdl  -1.63700
gfz2011wbtc  -2.07320
gfz2011wgvh   1.57740
gfz2011wkja  -3.77360
gfz2011wkyx  -3.49900
gfz2011wpzt  -1.45540
gfz2011wqup  -2.99650
gfz2011wucg  -3.82250
gfz2011xdox  -0.18926
gfz2011xgbc  -0.00489
gfz2011xgwy  -2.74720
gfz2011xkka  -1.24860
gfz2011xlod  -2.36950
gfz2011yexx  -3.38100
gfz2011ykbd  -0.23009
gfz2011ymji  -1.14710
gfz2011yrfa  -1.43040
gfz2011ytob  -1.01550
gfz2011ywtj  -3.68640
gfz2011zcwn  -0.95032
gfz2011zdyf   0.18287
gfz2011zghc  -1.83970
gfz2011ziyk  -1.27730
gfz2012ahac  -3.91160
gfz2012aisj  -0.98072
gfz2012alti  -1.34000
gfz2012aqpa  -0.53867
gfz2012auqr  -1.48990
gfz2012beae  -2.77180
gfz2012bjhl  -3.36930
gfz2012bolx  -2.29670
gfz2012byuk  -2.62450
gfz2012cdju  -3.78260
gfz2012cksh  -0.11992
gfz2012cmww  -1.55780
gfz2012cntu  -2.16500
gfz2012cxhw   1.49210
gfz2012dejg  -1.33170
gfz2012dleg   0.08501
gfz2012dpwv  -0.93064
gfz2012dtlu  -1.41610
gfz2012dwwu  -1.50460
gfz2012dyck  -0.40985
gfz2012dysu   0.51869
gfz2012eeft  -0.05447
gfz2012ekfp  -1.40530
gfz2012fhaf  -1.55670
gfz2012fiiz  -1.02080
gfz2012fjiu  -0.97845
gfz2012ftks  -0.25111
gfz2012fuyd  -1.84690
gfz2012ghiv  -1.67690
gfz2012gjdg  -0.96085
gfz2012gjtd  -1.54510
gfz2012heih  -2.22180
gfz2012hmcv  -2.34360
gfz2012hvtu  -0.04691
gfz2012hzhn  -4.13400
gfz2012hzur  -8.12660
gfz2012iblo  -4.80110
gfz2012iijk  -1.56660
gfz2012ipdc  -6.38870
gfz2012iroy  -1.98880
gfz2012jbzr  -1.53800
gfz2012jihg   1.85650
gfz2012jnlt  -3.04950
gfz2012jodg  -3.59500
gfz2012jopi   0.19494
gfz2012juem  -0.83720
gfz2012kadi  -2.54370
gfz2012kbub  -1.39390
gfz2012kmbo  -2.61060
gfz2012kmmz  -3.52070
gfz2012kqjb  -0.73726
gfz2012kwmx  -1.59300
gfz2012ldjj  -1.98430
gfz2012lqhw  -3.68070
gfz2012lwha  -0.09097
gfz2012lyqs   2.28500
gfz2012mdzf  -1.89290
gfz2012mmiw  -5.01450
gfz2012mxdk  -2.69350
gfz2012nfos  -1.51030
gfz2012nfzc  -0.14560
gfz2012nldz  -3.07240
gfz2012nmja  -3.03610
gfz2012nnck   0.58902
gfz2012nqvd  -0.96867
gfz2012oafg  -4.28540
gfz2012ofnx  -2.50530
gfz2012oiez  -0.57757
gfz2012onhu  -4.93950
gfz2012oork  -0.41703
gfz2012oozp  -2.03000
gfz2012pdav  -2.34010
gfz2012pgmw  -1.58550
gfz2012phns  -3.90130
gfz2012pmuj  -0.95421
gfz2012pryl  -2.89080
gfz2012pvve  -2.29930
gfz2012qfah  -2.12440
gfz2012qfov  -0.23232
gfz2012rfhw   0.97186
gfz2012rknz  -3.69070
gfz2012roan  -1.40460
gfz2012rzwp   0.35658
gfz2012scuk  -0.21117
gfz2012sjox  -2.30050
gfz2012socz  -2.05670
gfz2012sqsc  -0.25015
gfz2012ssnb  -2.13540
gfz2012suqd  -1.94700
gfz2012svwz  -1.23570
gfz2012swbz  -2.66560
gfz2012thyh  -2.81320
gfz2012tisj  -1.18740
gfz2012trss  -0.73197
gfz2012twec  -3.44030
gfz2012uhsx  -2.62370
gfz2012umob  -1.97040
gfz2012uvoa  -1.81700
gfz2012uzww  -3.39290
gfz2012vdra  -4.36400
gfz2012vdsl  -1.55760
gfz2012vsav   0.14185
gfz2012vurc  -1.76380
gfz2012wgdv  -2.21400
gfz2012wgmg  -2.95940
gfz2012wicr  -0.26642
gfz2012wjpf   1.81010
gfz2012wmas  -1.92340
gfz2012wmrf   0.31869
gfz2012wowu  -0.83856
gfz2012woxj  -1.83210
gfz2012wugc  -2.44980
gfz2012xbna  -0.90713
gfz2012xcsf  -3.10590
gfz2012xkln   1.31770
gfz2012xkvu  -0.46917
gfz2012xlfo  -3.21720
gfz2012xncm  -2.89940
gfz2012xxdj  -2.88850
gfz2012yegw  -0.63079
gfz2012yihn   0.75869
gfz2012ylai  -3.47300
gfz2012zkhu   0.49445
gfz2013agbm  -0.69236
gfz2013aggr  -1.49220
gfz2013agmt  -1.02960
gfz2013ajxz  -0.95919
gfz2013akkd  -0.93445
gfz2013aymi  -2.36260
gfz2013byyy  -3.13810
gfz2013cinv  -4.35090
gfz2013ciof   1.70900
gfz2013cqak  -0.57710
gfz2013cqee   1.28090
gfz2013cvve  -1.33700
gfz2013cyvx  -3.39430
gfz2013ddrx  -0.55874
gfz2013delq  -1.14150
gfz2013dftb  -2.92930
gfz2013djfi  -3.12090
gfz2013dksc  -2.80260
gfz2013dngd  -1.17660
gfz2013dnot  -0.61692
gfz2013dtjl  -1.56450
gfz2013dvub  -1.26010
gfz2013dznt  -0.71446
gfz2013dzvr  -3.34640
gfz2013eazm  -1.19170
gfz2013efct  -2.86450
gfz2013egfv  -0.00000
gfz2013enqo  -2.82560
gfz2013enrh   1.14900
gfz2013ffjt  -1.97030
gfz2013fmcd  -0.63945
gfz2013fmcp  -0.58440
gfz2013frxd  -5.13440
gfz2013fskp  -1.65090
gfz2013fulo  -1.15980
gfz2013fvht  -1.25770
gfz2013fybd  -2.04450
gfz2013gaqx  -2.82010
gfz2013gbki  -1.49470
gfz2013gglk   0.04118
gfz2013gjmk  -2.10350
gfz2013gkcx   0.95477
gfz2013gkyn  -3.01230
gfz2013glkq  -2.83460
gfz2013gqtl  -1.14940
gfz2013gxye  -2.13880
gfz2013hbwy  -2.96720
gfz2013hinw  -3.83260
gfz2013hwps  -2.95680
gfz2013iwzn  -1.20120
gfz2013iybg  -2.47880
gfz2013iybv   0.18168
gfz2013jfcn  -3.03720
gfz2013jhog  -3.67080
gfz2013jjae  -1.00280
gfz2013jobl  -2.42760
gfz2013jrqf  -1.43690
gfz2013jtsg  -2.72430
gfz2013kpcb  -4.07300
gfz2013ksaz  -1.31900
gfz2013kslp  -3.38110
gfz2013lbvl  -5.40590
gfz2013ljdu  -1.77120
gfz2013lnts  -1.41890
gfz2013lxed  -3.54130
gfz2013mdxj  -1.81340
gfz2013mimp  -2.80790
gfz2013msmy  -0.72382
gfz2013mynb   0.37016
gfz2013ntiu   0.56740
gfz2013ohdt  -3.97100
gfz2013oizq  -3.22410
gfz2013onvl  -4.61440
gfz2013opkx   1.02770
gfz2013orot  -2.32920
gfz2013osmj   0.28309
gfz2013oywh  -3.17900
gfz2013phhi  -0.61048
gfz2013pifg  -0.21347
gfz2013pkmz  -1.42410
gfz2013rtvy   1.21610
gfz2013rwkj  -5.50500
gfz2013rwog  -1.95750
gfz2013ryfc  -0.69450
gfz2013ryph  -4.35150
gfz2013sdkg  -2.89520
gfz2013taeb  -1.12200
gfz2013tcju  -3.34200
gfz2013tert  -0.97818
gfz2013tgia  -2.03790
gfz2013tjub  -2.16250
gfz2013tmyj   0.22592
gfz2013tnrp  -3.21410
gfz2013twbc  -0.79365
gfz2013udtw  -2.80810
gfz2013uepl  -2.91080
gfz2013unuv  -4.72020
gfz2013upqj  -0.31853
gfz2013uugc  -2.59720
gfz2013veug  -3.18810
gfz2013vmrv  -0.57632
gfz2013vmsg  -2.49040
gfz2013vnwa  -1.33930
gfz2013voai  -1.02390
gfz2013vojy  -1.51320
gfz2013vvre  -1.85840
gfz2013vwkh  -2.93620
gfz2013vzet  -6.38370
gfz2013wigs  -4.43330
gfz2013wpns  -4.64970
gfz2013wwee  -1.45950
gfz2013wyfl  -2.28660
gfz2013xddu  -1.98540
gfz2013xofz  -1.64700
gfz2013xswc  -4.43690
gfz2013xvps  -3.09780
gfz2013xxbf   0.94908
gfz2013xzxe  -0.32689
gfz2013yawe  -1.86400
gfz2013ylxn  -2.73820
gfz2013yqtu  -2.74190
gfz2014aaae  -2.01340
gfz2014ajgi  -1.78400
gfz2014amgk  -1.09850
gfz2014aqax  -1.20030
gfz2014arox  -1.58370
gfz2014ascp  -1.41690
gfz2014ateb  -3.43140
gfz2014ayxf  -1.83320
gfz2014azfu  -1.45900
gfz2014bhch  -2.17010
gfz2014bkra  -1.68490
gfz2014bmqw  -1.00860
gfz2014bnea  -2.94470
gfz2014bqpm  -3.23470
gfz2014buyz  -2.01180
gfz2014byes  -1.90360
gfz2014eiav  -2.52830
gfz2014emlw  -0.31770
gfz2014eoay  -3.36120
gfz2014epfm  -0.91245
gfz2014esez  -3.10490
gfz2014eunw  -2.61760
gfz2014evgu  -1.12790
gfz2014evhm  -1.12040
gfz2014eysf  -1.47360
gfz2014ezjq  -0.17132
gfz2014fbef  -1.88540
gfz2014fbli  -2.63920
gfz2014fjfz  -2.19810
gfz2014fsir  -3.00540
gfz2014fsje  -1.82920
gfz2014fwxt  -2.70690
gfz2014fxte  -5.14770
gfz2014fxuy  -3.80200
gfz2014geln  -0.81970
gfz2014gnvp  -2.32870
gfz2014gypw  -3.65690
gfz2014hotu  -3.68840
gfz2014huqh   0.90826
gfz2014hyea  -5.39840
gfz2014hzzf  -7.07770
gfz2014icov  -1.63690
gfz2014ijsa  -3.19170
gfz2014iltl  -1.49440
gfz2014ined  -2.62660
gfz2014ipwk  -0.90843
gfz2014irlf  -5.69600
gfz2014irln  -3.94120
gfz2014irly  -3.87370
gfz2014isjg  -2.64900
gfz2014isov  -7.85550
gfz2014iusw  -3.83030
gfz2014ivgm  -2.09310
gfz2014iyuc  -1.50680
gfz2014jarg  -0.98575
gfz2014jayh  -3.49660
gfz2014jckg  -3.81450
