# Nsamples: 272  MAD:  0.733  mean:  1.235  std:  1.016
gfz2010aseg   1.83540
gfz2010axdz   1.80280
gfz2010azji   1.22290
gfz2010bqnk   1.08990
gfz2010btme  -0.32818
gfz2010bukb   2.00400
gfz2010ccwc   2.04600
gfz2010ccye   0.52230
gfz2010clbw   0.53394
gfz2010cllh   1.80380
gfz2010cnyi   0.64761
gfz2010cphq   1.64490
gfz2010cpig   1.02020
gfz2010crgy   0.56133
gfz2010crir   0.75386
gfz2010csle   0.09913
gfz2010cyid   1.77250
gfz2010dask   2.32240
gfz2010ddan   1.75290
gfz2010djib   0.32913
gfz2010ewyj   0.76361
gfz2010extu   2.39950
gfz2010fgbo   2.07470
gfz2010fkff   1.56900
gfz2010fkpa   0.65250
gfz2010fopf   1.95920
gfz2010fqnn   1.21820
gfz2010gonu   2.35080
gfz2010gpjl  -0.06449
gfz2010mpvc   1.90060
gfz2010mqzz   0.62148
gfz2010ngge   1.28200
gfz2010pclq   1.95790
gfz2010pcya  -2.09450
gfz2010pgpo   1.14240
gfz2010pgrf   2.53720
gfz2010pzza   0.25546
gfz2010qdqk   1.15310
gfz2010qqqx   3.76500
gfz2010qzvf   2.99510
gfz2010rhvu   1.57290
gfz2010rkuu   1.81290
gfz2010rljv   2.09830
gfz2010rnqa   0.68647
gfz2010rnwt   2.73320
gfz2010rpjd   2.60840
gfz2010sdfs   1.45760
gfz2010tzma   1.52970
gfz2010uhjy   2.00020
gfz2010wakc   1.17250
gfz2010zjun   0.83425
gfz2011amst   0.92513
gfz2011bsvr   0.77618
gfz2011bygs   1.49970
gfz2011cdge   2.27830
gfz2011chsa   0.10529
gfz2011cjuz   1.03290
gfz2011clwu   0.39990
gfz2011rbuo  -0.06944
gfz2011rkau   1.13970
gfz2011rkzx   1.32100
gfz2011rnny   1.10430
gfz2011scma  -1.04780
gfz2011sdax   0.68614
gfz2011sdpl   0.55145
gfz2011sqco   1.56220
gfz2011sxno   1.57400
gfz2011taqr  -0.19606
gfz2011tgon   1.49160
gfz2011tqgg   0.37117
gfz2011tsgl   1.50270
gfz2011twpz   1.06650
gfz2011txdb   1.27290
gfz2011txxs  -0.11333
gfz2011udxo   2.06390
gfz2012kstg   1.41580
gfz2012lcca   1.18500
gfz2012lcro   3.81280
gfz2012ldjj   0.71740
gfz2012lqhw   1.53400
gfz2012mdzf   0.22090
gfz2012nmja   1.55090
gfz2012nnqu   2.97290
gfz2012nqvd   0.46669
gfz2012pvve   1.32210
gfz2012pziw   0.89495
gfz2012qfah   1.05650
gfz2012qmhz   2.63460
gfz2012qpoc   1.97920
gfz2012rduv   2.46720
gfz2012rfhw   1.74460
gfz2012rjlp  -1.45730
gfz2012rslf   5.13020
gfz2012rzwp   0.51043
gfz2012sbix   1.04460
gfz2012smyn   4.62120
gfz2012socz   1.19720
gfz2012sqsc   1.37450
gfz2012ssnb  -1.09290
gfz2012suqd   2.25420
gfz2012svwz   1.41800
gfz2012sxpr   1.64000
gfz2012sxzs   1.28280
gfz2012tfij  -0.46089
gfz2012tisj   1.22170
gfz2012tjih   2.38960
gfz2012trfq   1.73120
gfz2012tyoz   0.65940
gfz2012udeo   1.36240
gfz2012uegq   0.67022
gfz2012uhtc   0.85756
gfz2012ulei   2.02840
gfz2012uvoa   0.21801
gfz2012uzww   0.48991
gfz2012vqjw   1.51430
gfz2012vrqz   0.23279
gfz2012vurc   1.00080
gfz2012wgmg   0.15480
gfz2012wgmp   1.77640
gfz2012wjsi   0.44651
gfz2012wkki   1.65270
gfz2012wowu   1.79800
gfz2012xkln   0.87399
gfz2012xlas   0.81149
gfz2012xlfo   1.35320
gfz2012xncm   1.69710
gfz2012xqxw   0.71745
gfz2012xxdj   1.27910
gfz2012yegw   2.04350
gfz2012zhyz   1.91720
gfz2012zmfc   1.71140
gfz2013atak   1.13240
gfz2013bdvi   5.01560
gfz2013bwgw   1.73250
gfz2013byyy   0.15841
gfz2013cfls   0.87186
gfz2013cokc   1.46390
gfz2013cpjc   0.95461
gfz2013djfi   1.82150
gfz2013dmzh  -0.62483
gfz2013dngd   0.97098
gfz2013dwsp   2.38130
gfz2013dznt   1.53460
gfz2013dzvr   0.34274
gfz2013efct   0.94167
gfz2013ewht   1.40840
gfz2013fnpa  -0.86217
gfz2013frxd   0.27075
gfz2013fulo   0.79143
gfz2013fvht   1.32400
gfz2013fvyr   0.46156
gfz2013fwbm   0.91816
gfz2013gbki   0.99309
gfz2013gjmk   1.31820
gfz2013gkcx   1.17930
gfz2013hjtt   0.92705
gfz2013hqaa   1.66700
gfz2013hwps   1.15610
gfz2013idqu   1.45610
gfz2013iwzn   1.84000
gfz2013jkqn   2.61700
gfz2013jlli   1.35360
gfz2013jobl   1.02500
gfz2013jrqf   2.21290
gfz2013kbbg   0.67478
gfz2013kcdb   2.21700
gfz2013kjgh   1.94000
gfz2013kpcb   1.15560
gfz2013kqab   0.92933
gfz2013kruh   2.82670
gfz2013kxof   1.81990
gfz2013lbvl   0.63822
gfz2013ljdu   0.40953
gfz2013lxed  -1.22210
gfz2013lxnd   1.10770
gfz2013mdxj   1.05270
gfz2013mvgq   1.27810
gfz2013mzaw   2.14760
gfz2013njwj   1.34360
gfz2013ntiu   1.17190
gfz2013oeni   0.60424
gfz2013oizq   1.25990
gfz2013olos   1.38020
gfz2013oywh   1.46500
gfz2013phhi   0.10690
gfz2013pqkp   0.88404
gfz2013qaov   3.06930
gfz2013qigb   0.54685
gfz2013quwz   0.75389
gfz2013quyn   0.93137
gfz2013qxof   0.00000
gfz2013rdmn   1.46960
gfz2013rhbx   1.06370
gfz2013ryph   0.71766
gfz2013sbsp   2.03020
gfz2013skay   1.37290
gfz2013taeb   1.44700
gfz2013tjub   0.95949
gfz2013tkcg   1.02480
gfz2013ubgt   0.66352
gfz2013ujze   1.79620
gfz2013upqj   1.18060
gfz2013uwjo   0.91422
gfz2013uxzw   1.55790
gfz2013veug   1.65740
gfz2013vjrr   1.28140
gfz2013vldx   2.08060
gfz2013vmsg   1.43110
gfz2013vmsn   2.97370
gfz2013vojy   1.02030
gfz2013vsdd   1.10470
gfz2013vvre   2.23850
gfz2013vxht  -0.87108
gfz2013vzel   1.55190
gfz2013xahp   0.89389
gfz2013xjmo   2.84420
gfz2013xlic   1.46940
gfz2013xmzw   1.04690
gfz2013xofz   1.40730
gfz2013xswc   0.06344
gfz2013yapz   1.44090
gfz2013yodm   1.22460
gfz2013yqtu   1.13260
gfz2013yxhf   1.53350
gfz2013zfbz   1.35420
gfz2014aqop   0.92885
gfz2014ayxf   1.82680
gfz2014bgxe   0.38442
gfz2014bmqw   4.79220
gfz2014bztn   2.64050
gfz2014cgoi   0.71113
gfz2014cgxj   1.01810
gfz2014cjao   2.02040
gfz2014club   1.32770
gfz2014cncl   2.18230
gfz2014cokw   1.70600
gfz2014dggw  -2.56740
gfz2014dutu   1.33720
gfz2014dykt   2.05690
gfz2014egvg   1.49340
gfz2014eirs   1.46660
gfz2014eoay   1.12180
gfz2014epnq   1.98820
gfz2014evyu   0.98526
gfz2014ezjq   1.62000
gfz2014ezld   1.60120
gfz2014faex   2.49010
gfz2014fdhk   2.70060
gfz2014flxk   2.16210
gfz2014fsir   0.81843
gfz2014fsje   0.53480
gfz2014fwxt   1.52180
gfz2014fxte   0.45968
gfz2014fxuy   0.80417
gfz2014gnbw   0.99238
gfz2014gnvp   1.02940
gfz2014grwv   0.72324
gfz2014gssz   1.57060
gfz2014gypw   1.24770
gfz2014hkcw  -0.58908
gfz2014huah  -4.08230
gfz2014huqh   0.83828
gfz2014hyea   0.28782
gfz2014hzzf   1.56140
gfz2014igrp   1.06170
gfz2014imqh   0.43010
gfz2014ined   1.05400
gfz2014irln   0.50430
gfz2014irly   0.37631
gfz2014iusw   0.81854
gfz2014ixlc   0.98745
gfz2014jayh   1.01970
