# Nsamples: 588  MAD:  0.654  mean:  0.750  std:  0.862
gfz2010cuzg   0.59087
gfz2010cwrk   0.31085
gfz2010cyid   1.63770
gfz2010ddan   0.57483
gfz2010djib  -5.31790
gfz2010dmij   2.17360
gfz2010drit   1.36320
gfz2010drml   0.02863
gfz2010drmq   0.02863
gfz2010drng  -0.30174
gfz2010drpv   1.31150
gfz2010drun   1.39300
gfz2010dslu   1.87380
gfz2010dtgc   1.25110
gfz2010dtyx   2.91740
gfz2010dwgy   0.51826
gfz2010dxhq   1.70970
gfz2010ethu   0.68116
gfz2010extu   0.62364
gfz2010fgbo   0.99118
gfz2010fkff   1.44850
gfz2010fkpa   0.50589
gfz2010fopf   1.01390
gfz2010fpvw   1.03610
gfz2010fqnn   0.75939
gfz2010fxhh   0.52249
gfz2010fxut  -0.83252
gfz2010gcqp   1.29270
gfz2010gcrn   2.35170
gfz2010gpjl   5.60780
gfz2010hdgr   2.20120
gfz2010hdxn   0.73955
gfz2010hesh   0.48478
gfz2010hllp   0.54292
gfz2010hsgv   0.21669
gfz2010hueh   3.28750
gfz2010iaay   1.73450
gfz2010iawy   0.20059
gfz2010inbs   0.94303
gfz2010ioad   0.41320
gfz2010ixjl   1.09050
gfz2010jgwj   0.92837
gfz2010jpkn   1.48050
gfz2010jvsi   1.68050
gfz2010kcdq   0.06746
gfz2010kcyz   1.17590
gfz2010kuzb   0.59361
gfz2010ljol   1.03320
gfz2010mdti   0.31698
gfz2010mjdl   0.93666
gfz2010mpvc   1.44220
gfz2010mqaj  -0.39645
gfz2010mqzz   0.14007
gfz2010mwmd  -0.19164
gfz2010nbcr  -0.04717
gfz2010ngge   0.72786
gfz2010nwbd   0.37659
gfz2010nwyk   0.15498
gfz2010ocug  -1.34470
gfz2010osaq   0.20702
gfz2010pclq   0.98977
gfz2010pdip   4.50620
gfz2010pgpo   0.80593
gfz2010pgrf   0.74270
gfz2010pngv   2.23420
gfz2010pvnn   0.51365
gfz2010pxoi   2.39280
gfz2010pzza  -0.13620
gfz2010qrix   1.54190
gfz2010qrta   1.03120
gfz2010qzvf   1.43280
gfz2010rhvu   0.26504
gfz2010rljv   1.27780
gfz2010rmua   0.05277
gfz2010rnqa  -0.58908
gfz2010rpbz  -0.72714
gfz2010rpjd  -0.47601
gfz2010wigk  -0.21467
gfz2010wwhf   0.42299
gfz2010wwnq   0.37931
gfz2010xamh   0.23636
gfz2010xaxw   0.62641
gfz2010xhqq   0.98607
gfz2010xjsv  -0.18229
gfz2010xkbz   0.58691
gfz2010xnbn   0.19422
gfz2010xpzq   0.85126
gfz2010yczp   0.46582
gfz2010yfdr   0.40041
gfz2010yhhj  -0.10967
gfz2010ytzb   0.07484
gfz2010zhvj  -0.15330
gfz2010zjun   0.88136
gfz2011awsv   0.63472
gfz2011chsa   0.21712
gfz2011cjuz   0.56452
gfz2011clwu   0.26829
gfz2011dhfg   0.31886
gfz2011dhqk   0.46656
gfz2011duvm   0.81247
gfz2011dwae   0.00000
gfz2011edrq   1.24470
gfz2011ekty  -0.12505
gfz2011emzr   1.01810
gfz2011fbsl   1.48000
gfz2011fnie   0.74648
gfz2011fnuk   0.31154
gfz2011fnxz   0.55256
gfz2011fszl   0.78404
gfz2011fxmf   0.25151
gfz2011fzcw   1.34350
gfz2011gaax   1.30060
gfz2011gfer   0.96897
gfz2011ggnl   1.80990
gfz2011gkdx   0.78666
gfz2011glpg   0.41634
gfz2011gpyr   0.38010
gfz2011haaa   0.83799
gfz2011hatg  -0.12752
gfz2011hffq   2.13180
gfz2011hibi   1.94440
gfz2011hjof   1.02090
gfz2011hmnw   0.62576
gfz2011hqjs   0.32375
gfz2011hrgt  -0.40302
gfz2011huon   0.50190
gfz2011hvzo   1.06000
gfz2011hwbn   0.35552
gfz2011hyct   0.61194
gfz2011iamf   0.94920
gfz2011ibew   0.61726
gfz2011ifta   0.02206
gfz2011inan   0.75540
gfz2011ioch   0.55862
gfz2011iryz   0.44613
gfz2011ituo   0.73704
gfz2011iybf  -0.05902
gfz2011jdoz   0.25191
gfz2011jeta   0.42774
gfz2011jryv   1.15770
gfz2011kbzo   0.91015
gfz2011kfch  -0.62582
gfz2011kgvq   0.52479
gfz2011kjzt   0.80264
gfz2011kjzv   0.11073
gfz2011kujo   0.44571
gfz2011lkkf   0.65977
gfz2011lmug   0.35776
gfz2011mdyq   0.74541
gfz2011mjje   0.71262
gfz2011mllb   1.27120
gfz2011mntq   1.64050
gfz2011mror   1.12090
gfz2011mrpy  -0.63919
gfz2011mryu  -0.02172
gfz2011mzvn   1.38710
gfz2011ndki   0.60182
gfz2011ndse  -0.24469
gfz2011neai   1.73440
gfz2011nejg   1.15680
gfz2011nejw   0.67076
gfz2011nerb   2.42420
gfz2011nfcz   0.67977
gfz2011nfgt  -5.72900
gfz2011nftw  -0.45004
gfz2011nhby   1.08560
gfz2011nhvt   0.72654
gfz2011nhwf   1.68790
gfz2011nifi   1.10500
gfz2011nilw  -0.13495
gfz2011niuw   0.34757
gfz2011nivw   1.77720
gfz2011nkou   0.56235
gfz2011nlmf  -0.04156
gfz2011nlou   0.66114
gfz2011nlum   1.52460
gfz2011nlyw   2.62360
gfz2011nmdz   0.38782
gfz2011nnda   0.66799
gfz2011nsej   0.02660
gfz2011nsiy   1.83740
gfz2011nsrx   1.15090
gfz2011nswi   1.02360
gfz2011ntyd   1.60350
gfz2011nuqo   2.41140
gfz2011oadm   0.62817
gfz2011oazk   0.44465
gfz2011oekz   2.60310
gfz2011ofpj   0.44432
gfz2011okza   1.25690
gfz2011omxt   0.45304
gfz2011oosp   1.77130
gfz2011oqjl  -0.21489
gfz2011osuy   0.64387
gfz2011ovvj   0.72736
gfz2011owqa   0.71714
gfz2011paqj   0.74465
gfz2011pbjh   0.72030
gfz2011pdgq   0.73884
gfz2011pfls   1.03550
gfz2011pfwq   0.24450
gfz2011pimj   0.72840
gfz2011poug   0.04980
gfz2011pphc   1.01360
gfz2011ppsc   0.71144
gfz2011prrq   0.80802
gfz2011ptgd   0.85672
gfz2011pulu   1.00870
gfz2011pwbw   0.55680
gfz2011qenl   0.69751
gfz2011qgea   0.04130
gfz2011qgvh   0.84441
gfz2011qklh   0.52183
gfz2011qlkj   0.43007
gfz2011rbuo   0.65808
gfz2011rnny   1.07000
gfz2011rqut   0.95601
gfz2011sdpl   1.20160
gfz2011sqco   1.40910
gfz2011sqxp   0.82358
gfz2011taqr   0.68785
gfz2011yeck   1.19810
gfz2011yexx   0.21215
gfz2011ykbd   0.43400
gfz2011ymji  -0.44362
gfz2011ypfh   1.73480
gfz2011yrfa   0.78225
gfz2011zkbt   0.71435
gfz2011znyq   0.04335
gfz2012adja   1.93470
gfz2012agwh   0.48648
gfz2012ahac   0.77148
gfz2012amjx   0.97098
gfz2012amvs   0.75014
gfz2012aqpa   0.32976
gfz2012arlo   1.14320
gfz2012asld   0.87571
gfz2012atjr   1.12300
gfz2012avvc   2.28630
gfz2012bcvn   0.91488
gfz2012bovy   1.25670
gfz2012brrg  -0.43985
gfz2012btbq   0.09027
gfz2012byrq   0.49265
gfz2012bysu  -0.92076
gfz2012cmww   1.01750
gfz2012cntu   0.43799
gfz2012dcjd   0.41168
gfz2012dejg  -0.16183
gfz2012dleg  -1.01010
gfz2012dnig  -0.01277
gfz2012dttl   0.05576
gfz2012dtvr   0.16064
gfz2012dugf  -0.31091
gfz2012duwm  -0.86862
gfz2012dwwu  -0.61274
gfz2012dyck  -0.40833
gfz2012dysu   1.84940
gfz2012dzen   0.93330
gfz2012dzjo   1.42660
gfz2012dzot  -0.24925
gfz2012ebff  -0.19986
gfz2012ebhf   0.33967
gfz2012ebrr  -0.87711
gfz2012ekfp   0.12686
gfz2012elek  -0.89178
gfz2012enio   0.24740
gfz2012erds  -0.48681
gfz2012evxn  -0.28772
gfz2012eyti  -0.71012
gfz2012fcyq  -0.54478
gfz2012fcyr  -0.54297
gfz2012fhaf  -0.05806
gfz2012fiiz   0.14776
gfz2012fjiu  -0.38814
gfz2012fpyo   0.73887
gfz2012ftcq   1.51110
gfz2012ftks   0.02199
gfz2012gczh  -0.42483
gfz2012gftg  -0.15383
gfz2012ghiv  -0.53603
gfz2012gjdg  -0.76208
gfz2012gjtd  -0.49316
gfz2012gmsr  -0.21347
gfz2012gnow  -0.29421
gfz2012gpcd  -0.91422
gfz2012gubu   1.23430
gfz2012gvxc  -0.33985
gfz2012hhlx  -0.87709
gfz2012hlya   0.56069
gfz2012hmcv  -0.43377
gfz2012hvtu  -0.91813
gfz2012hyqh  -0.09082
gfz2012hzai   0.65053
gfz2012hzhn   0.61423
gfz2012hzur   1.19810
gfz2012iabn   0.68492
gfz2012idxu   0.12368
gfz2012iotw   0.34848
gfz2012iphs   1.28880
gfz2012iroy  -0.69257
gfz2012ivyg  -0.17355
gfz2012iyhs  -0.51666
gfz2012jihg  -0.77906
gfz2012jjxm  -0.65600
gfz2012jlez   1.46860
gfz2012jopi  -0.07446
gfz2012jxnm  -0.99938
gfz2012nldz   1.45850
gfz2012nlrb   0.40144
gfz2012nmja   0.33559
gfz2012nnqu   0.07775
gfz2012nqvd  -0.01095
gfz2012oehy   1.20630
gfz2012oork   1.32090
gfz2012oozp   1.50590
gfz2012phns   1.08760
gfz2012pmuj   0.97087
gfz2012pmws   2.18870
gfz2012pvve   0.42471
gfz2012qfah   1.06720
gfz2012qfov   1.27240
gfz2012qmhz   1.72990
gfz2012qpoc   1.78950
gfz2012rduv   1.01980
gfz2012rfhw   1.55020
gfz2012rknz   0.82691
gfz2012rnyn   0.95974
gfz2012rzwp   0.51682
gfz2012sbix   0.31916
gfz2012sfao   0.71843
gfz2012smyn   0.44298
gfz2012socz   0.06836
gfz2012sqsc   1.18610
gfz2012ssnb  -0.35192
gfz2012suqd   1.90320
gfz2012svwz   0.97165
gfz2012swbz   1.14420
gfz2012sxbo   1.45650
gfz2012sxpr   0.57716
gfz2012sxzs   0.97983
gfz2012syum   1.04280
gfz2012tfij   0.89374
gfz2012tisj   0.78642
gfz2012tjih   1.37710
gfz2012tqjc   0.34228
gfz2012trfq   1.53940
gfz2012tvgw   0.94292
gfz2012tyoz   0.29015
gfz2012udeo   0.26516
gfz2012uegq   0.81667
gfz2012uhsx   0.18383
gfz2012ukzg   2.31610
gfz2012ulei   1.57390
gfz2012umob   0.58690
gfz2012unxc   0.40488
gfz2012uovh   0.22749
gfz2012uvea   0.64574
gfz2012uvoa   0.29601
gfz2012uzww   0.25001
gfz2012vcqw   1.35410
gfz2012vdra   0.91521
gfz2012vioy  -0.49997
gfz2012vitw   0.68499
gfz2012vlzv  -0.31260
gfz2012vqjw   1.18700
gfz2012vqmq   0.86548
gfz2012vrqz   0.46923
gfz2012vurc   0.24676
gfz2012wbeu  -0.52638
gfz2012wgdv   0.73289
gfz2012wgmg  -0.19781
gfz2012wgmp   0.80990
gfz2012wmas   0.28190
gfz2012wmmw   1.41990
gfz2012wowu   1.40990
gfz2012woxj   0.36626
gfz2012wpen  -0.02220
gfz2012wysg   1.07230
gfz2012xcsf   0.81441
gfz2012xfnu   1.22390
gfz2012xkln   0.51951
gfz2012xlas   0.37925
gfz2012xlfo  -0.28846
gfz2012xncm   1.39480
gfz2012xqxw   1.78580
gfz2012xrmq   0.88142
gfz2012xtvu   0.32311
gfz2012xxdj   0.47554
gfz2012yegw   0.56720
gfz2012ylai   1.00620
gfz2012yvwc   1.38580
gfz2012ywei   0.76546
gfz2012zhyz   0.56052
gfz2012zido   1.29440
gfz2012zkhu   0.90580
gfz2012zmfc   1.21950
gfz2012zqis   0.93577
gfz2013aggr   1.03180
gfz2013agmt   0.62717
gfz2013akkd   0.25288
gfz2013ascz  -0.40886
gfz2013atak   0.25249
gfz2013auew   0.05077
gfz2013bwgw   1.21930
gfz2013byyy   0.61453
gfz2013cfls   0.12825
gfz2013cinv   0.84243
gfz2013cpjc   2.12250
gfz2013delq   1.07700
gfz2013dftb   0.91135
gfz2013djfi   0.42724
gfz2013dmzh   0.12749
gfz2013dngd   0.68671
gfz2013dznt   0.93081
gfz2013dzvr  -0.21588
gfz2013eazm   1.25780
gfz2013efct   1.08620
gfz2013egfv   0.45138
gfz2013eidd   1.04070
gfz2013enqo  -0.85067
gfz2013enrh  -0.01414
gfz2013esef   1.68940
gfz2013fnpa   1.29390
gfz2013foto   0.65652
gfz2013frxd   0.04129
gfz2013fthi   2.18120
gfz2013fulo   0.83790
gfz2013fvht   1.39120
gfz2013fvyr   0.21140
gfz2013fybd   0.97704
gfz2013gaqx  -0.02228
gfz2013gglk   1.67070
gfz2013gkcx  -0.04409
gfz2013grle   1.66920
gfz2013gsnl   0.29429
gfz2013gugi   0.85432
gfz2013gurk   0.60009
gfz2013gxye   1.88990
gfz2013gywl   2.71190
gfz2013hdbp   1.29580
gfz2013hiam   0.40006
gfz2013hjtt   1.01580
gfz2013hqaa   0.88826
gfz2013qigb   0.80307
gfz2013qmkt   1.14150
gfz2013qogb   1.31990
gfz2013rfik   0.99125
gfz2013rgcc   0.88936
gfz2013rhbx   0.77219
gfz2013rocs   1.04860
gfz2013rtvy   1.01390
gfz2013rwkj   0.61358
gfz2013ryph   0.69679
gfz2013sbsp   1.88860
gfz2013sdkg   0.92246
gfz2013skay   1.47350
gfz2013stou   0.01990
gfz2013stup   1.06500
gfz2013syqp   1.78620
gfz2013syqv   2.22940
gfz2013taeb   1.25410
gfz2013tdsx   0.88366
gfz2013tert   0.65241
gfz2013tgia   1.40720
gfz2013tjub   0.67943
gfz2013tmnf   1.02150
gfz2013tnrp   0.95272
gfz2013trsq   0.84726
gfz2013uafv   0.72931
gfz2013ubgt   0.99270
gfz2013udtw   1.03030
gfz2013uhio   1.89850
gfz2013ujze   1.42200
gfz2013unuv   0.57803
gfz2013upqj   2.08810
gfz2013uwjo  -0.72709
gfz2013uxzw   1.10190
gfz2013vcgd   0.69468
gfz2013vdam   0.89611
gfz2013veoz   1.09470
gfz2013veug   0.36230
gfz2013vjrr   0.76067
gfz2013vldx  -0.09556
gfz2013vmsg   0.80734
gfz2013voai   0.80341
gfz2013vojy   0.92751
gfz2013vsdd   0.52227
gfz2013vvre  -0.72906
gfz2013vxht   1.61400
gfz2013vzel   0.95855
gfz2013vzet   1.46500
gfz2013wegs   0.21724
gfz2013xahp   0.83018
gfz2013xjmo   1.97020
gfz2013xmzw   0.63655
gfz2013xofz   0.77786
gfz2013xswc   0.64915
gfz2013xxbf   1.77380
gfz2013xzxe   1.03180
gfz2013yapz  -0.03818
gfz2013yawe   1.21020
gfz2013yodm   0.83156
gfz2013yxhf   1.35860
gfz2013zfbz   0.60443
gfz2013ziix   0.36923
gfz2014aaae   1.31590
gfz2014aapq   1.13930
gfz2014aedl   1.24610
gfz2014ajgi   0.85286
gfz2014aqax   0.96689
gfz2014avag  -0.10288
gfz2014avzp   0.65465
gfz2014bdju   0.94298
gfz2014befl   0.97172
gfz2014bgxe   1.22860
gfz2014bqpm   1.43520
gfz2014brkk   3.13330
gfz2014buyz   0.48040
gfz2014byes   1.37390
gfz2014bzus   1.35890
gfz2014cgoi   0.74228
gfz2014cgxj   0.44552
gfz2014cjao   1.51810
gfz2014club   0.12279
gfz2014cncl   0.84394
gfz2014cokw   0.89501
gfz2014ctdl   1.09520
gfz2014cvnb   0.80437
gfz2014cwcj   2.14280
gfz2014cwti   4.17150
gfz2014dggw   1.07690
gfz2014diuu   1.62880
gfz2014djhi   1.35570
gfz2014dmrw   0.92933
gfz2014dtth   1.19690
gfz2014dwcp   0.49483
gfz2014eflc   1.46200
gfz2014egvg   0.90035
gfz2014eirs   1.02040
gfz2014eoay   1.07400
gfz2014esez   1.14070
gfz2014etqu   1.41050
gfz2014eunw   1.04730
gfz2014evyu   1.17990
gfz2014ezjq   2.15830
gfz2014ezld   1.29330
gfz2014faex   2.13650
gfz2014fbef   0.85413
gfz2014fbnr   2.50430
gfz2014fdhk   2.48580
gfz2014ffqg   0.89058
gfz2014fgbn   1.59030
gfz2014flxk   1.68010
gfz2014fsje   0.82773
gfz2014fskh   0.99358
gfz2014fwxt   1.24640
gfz2014fxim   0.63407
gfz2014fxuy   1.45830
gfz2014gasb   1.90210
gfz2014gnbw   0.99809
gfz2014gnvp   0.84002
gfz2014gqxg   1.14630
gfz2014grwv   0.69601
gfz2014gsfc   0.61591
gfz2014gutd   0.85332
gfz2014gypw   1.36470
gfz2014hapg   1.81390
gfz2014herz   0.57488
gfz2014hgjb   0.31914
gfz2014hjmc   0.27750
gfz2014hkcw   0.65648
gfz2014hotu   1.49440
gfz2014hqhv   0.11259
gfz2014huah   1.32900
gfz2014huqh   1.68830
gfz2014igrp   0.97369
gfz2014ijsa   1.58020
gfz2014ined   1.16450
gfz2014irly   1.05100
gfz2014isjg   0.83303
gfz2014isov   2.17010
gfz2014iusw   1.03260
gfz2014ixlc   1.15310
gfz2014jaxy   1.79240
gfz2014jayh   0.53488
gfz2014jbgm   2.15250
gfz2014jffe   0.64886
