# Nsamples: 242  MAD:  0.593  mean:  1.742  std:  0.768
gfz2010bkfi   1.98870
gfz2010bklj   1.36550
gfz2010clbw   1.77160
gfz2010cllh   2.44670
gfz2010cngg   2.63660
gfz2010cnyi   3.59680
gfz2010dmij   1.31410
gfz2010extu   1.78860
gfz2010fqnn   1.10630
gfz2010hdgr   2.97980
gfz2010hdxn   1.54250
gfz2010hesh   1.54040
gfz2010pclq   1.92470
gfz2010pcya   1.06830
gfz2010pgpo   1.81650
gfz2010pngv   3.64820
gfz2010pvnn   1.22360
gfz2010qqqx   3.82270
gfz2010qrta   1.46270
gfz2010qzvf  -1.80290
gfz2010rdip   1.58580
gfz2010rkuu   1.57650
gfz2010rljv   2.42430
gfz2010tmba   2.33110
gfz2010wigk   1.38210
gfz2010wwhf   1.69490
gfz2010wwnq   1.42320
gfz2010xcdd  -0.26855
gfz2010xnbn   1.42680
gfz2010xpzq   1.09980
gfz2010xvev   2.21080
gfz2010yczp   1.63180
gfz2010yfdr   1.97340
gfz2010yhhj   1.52350
gfz2010ytzb   1.20470
gfz2010zhvj   2.15110
gfz2011ahvh   0.80963
gfz2011amst   2.14400
gfz2011awsv   1.63080
gfz2011biin   1.06210
gfz2011cfyy   1.80110
gfz2011chsa   1.07730
gfz2011clwu   0.90878
gfz2011cwzi   1.86720
gfz2011cxbw   0.73195
gfz2011dhfg   1.49310
gfz2011dmdv   2.06110
gfz2011dwae   1.38030
gfz2011ekty   0.68671
gfz2011emzr   1.97250
gfz2011exxq   0.87915
gfz2011fnie   2.00430
gfz2011fnxz   1.56270
gfz2011fszl   2.02920
gfz2011fxmf   1.90370
gfz2011fzcw   4.30930
gfz2011gfer   1.83580
gfz2011ggnl   0.94514
gfz2011glpg   1.27430
gfz2011gpyr   1.39940
gfz2011haaa   1.73370
gfz2011hatg   0.88962
gfz2011hmnw   1.84330
gfz2011hqjs   1.51690
gfz2011hrgt   1.58020
gfz2011hyct   2.02260
gfz2011ifta   1.27430
gfz2011iryz   1.66270
gfz2011mdyq   2.91240
gfz2011mjje   1.70160
gfz2011mllb   1.73830
gfz2011mntq   1.32840
gfz2011mzvn   2.74350
gfz2011nfcz   2.09150
gfz2011nfgt   2.85840
gfz2011nfww   2.48460
gfz2011nhby   1.16450
gfz2011nnda   1.84440
gfz2011nsiy   2.56240
gfz2011ntyd   2.56180
gfz2011nuqo   3.05530
gfz2011oadm   1.29800
gfz2011oazk   1.18140
gfz2011ofpj   1.60720
gfz2011ohgj   0.55516
gfz2011omxt   1.70180
gfz2011ovvj   1.57800
gfz2011paqj   1.82680
gfz2011pdgq   1.75060
gfz2011pfls   1.94330
gfz2011pfwq   1.07550
gfz2011prrq   2.60430
gfz2011ptgd   2.80700
gfz2011qklh   1.80680
gfz2011qlkj   1.88140
gfz2011rbuo   1.17920
gfz2011rkau   1.20360
gfz2011rnsp   1.15160
gfz2011rqut   0.81574
gfz2011sdpl   1.25810
gfz2011sfph  -0.14198
gfz2011sqco   0.53265
gfz2011sskq   3.60130
gfz2011taqr   2.36690
gfz2011tdjj   1.40720
gfz2011tqgg   1.37840
gfz2011twpz   1.70240
gfz2011udxo   2.77160
gfz2011unud   2.67500
gfz2011vbxv   1.65480
gfz2011vimn   1.86560
gfz2011wgoa   2.34650
gfz2011wtfn   2.97690
gfz2011wwze   1.17900
gfz2011wyei   3.37790
gfz2011xgwy   1.52180
gfz2011xlod   0.29569
gfz2011xnui   1.73200
gfz2011xxng   2.10870
gfz2011yexx   1.75560
gfz2011ypfh   2.03460
gfz2011zgxn   2.10110
gfz2011zkbt   1.79380
gfz2012ahac   0.85557
gfz2012ahkl   3.67200
gfz2012amjx   2.00780
gfz2012amvs   1.92370
gfz2012aqpa  -0.25442
gfz2012arlo   3.21310
gfz2012asld   2.56490
gfz2012atjr   1.99970
gfz2012bolx   1.42440
gfz2012bovy   1.65030
gfz2012byrq   0.94977
gfz2012bysu  -1.22290
gfz2012byuk   0.84340
gfz2012cdju   1.75190
gfz2012cntu   1.70800
gfz2012dejg   1.90330
gfz2012dgfk   1.91310
gfz2012dkdy   1.80070
gfz2012dleg   1.89210
gfz2012dnig   2.26810
gfz2012dpnu   1.54030
gfz2012dtdt   1.84480
gfz2012dttl   2.12700
gfz2012duwm   0.95700
gfz2012dwwu   0.96320
gfz2012dysj   1.94420
gfz2012dysu   1.41610
gfz2012ebff   2.29150
gfz2012ekro   2.54320
gfz2012gdye   1.94140
gfz2012gnow   2.21360
gfz2012hzhn   2.37010
gfz2012iphs   2.84450
gfz2012mpzo   2.83740
gfz2012mrqk   1.10990
gfz2012mvgu   1.68110
gfz2012ofnx   0.61449
gfz2012pvve   1.68430
gfz2012syum   1.48600
gfz2012tqjc   1.82880
gfz2012tyoz   0.83490
gfz2012uovh   1.24570
gfz2012uvea   0.79079
gfz2012uvoa   1.21800
gfz2012uzww   1.32100
gfz2012vcqw   1.93030
gfz2012vgot   1.90490
gfz2012vioy   0.47471
gfz2012vitw   1.68970
gfz2012vkjw   1.90130
gfz2012vlzv   0.98320
gfz2012vqjw   3.00200
gfz2012vqmq   0.08935
gfz2012vrqz   1.35330
gfz2012vurc   1.40730
gfz2012wbeu   1.72620
gfz2012wgdv   1.63170
gfz2012wgmg   0.70280
gfz2012wmas   0.89673
gfz2012wowu   2.61010
gfz2012woxj   1.69490
gfz2012wpen   0.47946
gfz2012wysg   1.85260
gfz2012xask   2.07760
gfz2012xcsf   2.32830
gfz2012xfnu   2.87180
gfz2012xkln   1.95350
gfz2012xlas   1.02680
gfz2012xncm   2.12910
gfz2012xqxw   2.79200
gfz2012xrmq   1.93340
gfz2012xtvu   1.50130
gfz2012xxdj   1.61120
gfz2012yegw   2.68030
gfz2012yvwc   2.13480
gfz2012ywei   2.03470
gfz2012yytb   3.55590
gfz2012zhyz   1.80820
gfz2012zido   2.42470
gfz2012zkhu   2.63900
gfz2012zmdf   1.26190
gfz2012zqis   1.92120
gfz2013aclz   1.26670
gfz2013aggr   2.37590
gfz2013agmt   1.83200
gfz2013akkd   1.45880
gfz2013atak   1.11680
gfz2013byyy   1.67400
gfz2013cfls   0.92459
gfz2013cinv   2.19980
gfz2013cpjc   2.27730
gfz2013dftb   2.02600
gfz2013djfi   2.38610
gfz2013dmzh   1.52450
gfz2013dngd   2.17090
gfz2013dznt   1.55660
gfz2013dzvr   1.15500
gfz2013eazm   1.67220
gfz2013efct   2.12840
gfz2013egfv   1.43540
gfz2013ewht   1.35440
gfz2013exow   1.53070
gfz2013fnpa   2.22090
gfz2013foto   1.52480
gfz2013fvht   2.18050
gfz2013fvyr   1.28430
gfz2013fybd   1.70360
gfz2013gaqx   1.96400
gfz2013gbki   1.79430
gfz2013gjmk   2.04160
gfz2013gkcx   1.25410
gfz2013gkyn   1.57690
gfz2013gugi   1.57020
gfz2013gurk   1.50290
gfz2013gxye   2.96620
gfz2013havw   2.23100
gfz2013hbmi   1.64220
gfz2013hbtm   2.47560
gfz2013hqaa   1.76330
