# Nsamples: 38  MAD:  0.504  mean:  1.804  std:  0.644
gfz2010bmls   1.45630
gfz2010ccwc   2.25530
gfz2010ccye   1.48520
gfz2010clbw   1.62910
gfz2010hsgv   0.86040
gfz2010jcby   2.47520
gfz2010jlvp   1.89030
gfz2010mqzz   1.45760
gfz2010wwnq   2.16530
gfz2010wyuj   2.55270
gfz2010xamh   2.02860
gfz2010xaxw   1.71630
gfz2010yczp   1.83180
gfz2010yfdr   1.82110
gfz2011aqpp   1.47240
gfz2011awsv   1.54820
gfz2011bygs   1.92440
gfz2011bygu   2.06660
gfz2011chsa   1.58000
gfz2011cwsm   0.81663
gfz2011cwzi   2.01720
gfz2011dwae   1.98410
gfz2011edrq   1.51760
gfz2011emzr   1.35900
gfz2011exxq   1.30780
gfz2011fnie   2.23130
gfz2011fszl   2.07520
gfz2011haaa   1.84070
gfz2011hqjs   1.45340
gfz2011huon   2.35650
gfz2011hvzo   3.60650
gfz2011hyct   2.00910
gfz2011ioch   0.71255
gfz2011iryz   1.64790
gfz2011ituo   3.27730
gfz2011kjzt   1.76040
gfz2011kjzv   0.03157
gfz2011lmug   2.34350
