# Nsamples: 560  MAD:  0.633  mean: -1.506  std:  0.784
gfz2010cyid  -1.49440
gfz2010dtyx  -0.73132
gfz2010dumv  -1.38030
gfz2010dwgy  -1.59480
gfz2010dxhq  -2.00320
gfz2010eepd  -2.32690
gfz2010ewyj   3.74340
gfz2010faly  -1.51940
gfz2010fjme  -2.45510
gfz2010fkff  -1.33390
gfz2010fnkr  -2.03560
gfz2010fpvw  -1.16830
gfz2010fxhh  -1.08480
gfz2010gcqp  -1.13390
gfz2010habf  -1.82100
gfz2010hsgv  -1.97630
gfz2010hueh  -1.58280
gfz2010iaay  -0.77424
gfz2010iawy  -0.94748
gfz2010ifhd  -2.14040
gfz2010inbs  -1.32650
gfz2010izag  -0.59224
gfz2010izgb  -0.91985
gfz2010jcby  -2.32970
gfz2010jlvp  -1.72820
gfz2010jpkn  -1.06700
gfz2010jvsi  -1.22770
gfz2010kcyz  -1.41270
gfz2010ljol  -0.60743
gfz2010mqaj  -4.37690
gfz2010myqg  -2.02890
gfz2010oguu  -1.39310
gfz2010pngv  -1.28580
gfz2010qrta  -1.87960
gfz2010scht  -1.76520
gfz2010tmba  -1.85990
gfz2010tpcj  -0.19702
gfz2010tzlz  -0.80524
gfz2010tzma  -2.01570
gfz2010ugws  -0.83245
gfz2010uhjy  -0.56940
gfz2010umxj  -1.91830
gfz2010umyp  -0.17090
gfz2010uogw  -0.30812
gfz2010vfyu  -0.66766
gfz2010vong  -0.80654
gfz2010wakc  -1.82040
gfz2010xaxw  -1.36030
gfz2010xjsv  -1.26070
gfz2010xkbz  -1.03940
gfz2010xkku  -2.13730
gfz2010xnbn  -0.50745
gfz2010xpzq  -0.88433
gfz2010xvev  -1.61180
gfz2010yczp  -1.94580
gfz2010yfdr  -1.53300
gfz2010ytzb  -2.10860
gfz2010zhvj  -2.78160
gfz2010zjun  -1.94620
gfz2010zkle  -0.96259
gfz2011ahvh  -2.65610
gfz2011amst  -0.07670
gfz2011aqpp  -1.63440
gfz2011awsv  -1.94880
gfz2011bpqm  -2.08740
gfz2011bqbx   0.09474
gfz2011bsvr  -2.15400
gfz2011bygs  -1.83330
gfz2011bygu  -1.52210
gfz2011bzio  -1.40090
gfz2011cdge  -1.20050
gfz2011cfyy  -0.71038
gfz2011chsa  -2.68260
gfz2011dabj  -1.54840
gfz2011dhfg  -2.33420
gfz2011dpyu  -2.18450
gfz2011duvm  -1.34150
gfz2011dwae  -2.06800
gfz2011edrq  -1.76340
gfz2011exxq  -2.35470
gfz2011fbsl  -0.83358
gfz2011fnie  -1.39730
gfz2011fszl  -1.64030
gfz2011fzcw   1.83860
gfz2011gfer  -1.27460
gfz2011gnbk  -1.88250
gfz2011gpyr  -1.96700
gfz2011haaa  -2.31140
gfz2011hatg  -2.59510
gfz2011hibi   0.44674
gfz2011hjof  -1.25260
gfz2011hmnw  -1.94190
gfz2011hqjs  -1.81690
gfz2011hrgt  -2.44230
gfz2011hvzo  -0.79455
gfz2011hyct  -1.17180
gfz2011iamf  -1.42850
gfz2011ibew  -0.96824
gfz2011ifta  -2.45720
gfz2011ioch  -1.50970
gfz2011iryz  -2.31460
gfz2011itcv  -1.77500
gfz2011ituo  -0.84283
gfz2011ixpj  -1.98900
gfz2011jdoz  -1.84220
gfz2011jghq  -2.80970
gfz2011jryv  -1.14040
gfz2011kujo  -2.55180
gfz2011kylu  -0.68820
gfz2011kymm   0.44699
gfz2011kyzy  -0.93174
gfz2011ldgl  -1.41200
gfz2011lkkf  -2.06250
gfz2011lmug  -2.07780
gfz2011lwmg  -1.92300
gfz2011lxga  -1.97290
gfz2011mdyq  -1.08690
gfz2011mjje  -2.11610
gfz2011mllb  -1.72390
gfz2011mror  -0.94552
gfz2011mryu  -1.73180
gfz2011mzvn  -1.96900
gfz2011nblt   1.18070
gfz2011ncyw  -1.16560
gfz2011ndhh  -0.83131
gfz2011ndki  -2.12000
gfz2011ndlh  -1.21780
gfz2011neai  -2.62520
gfz2011nejg  -1.61110
gfz2011nfwd  -0.70830
gfz2011nhvt  -2.70000
gfz2011nhwf  -2.18960
gfz2011nihq  -0.77103
gfz2011nijp  -2.38210
gfz2011nilw  -0.87629
gfz2011niuw  -0.73825
gfz2011nlou  -0.94202
gfz2011nlum  -1.36250
gfz2011nmdz  -1.21380
gfz2011nnda  -1.77160
gfz2011npeu  -0.66570
gfz2011nsiy  -0.90784
gfz2011nswi  -1.51150
gfz2011nuqo  -0.64329
gfz2011oekz  -0.23949
gfz2011ofpj  -2.21470
gfz2011ohgj  -2.63200
gfz2011okza  -2.15500
gfz2011omxt  -2.05640
gfz2011oosp  -1.35950
gfz2011oslk  -1.59190
gfz2011ovvj  -2.74760
gfz2011owqa  -1.11040
gfz2011paqj  -2.04660
gfz2011pbgh   0.45311
gfz2011pbjh  -2.09980
gfz2011pdgq  -1.70510
gfz2011pfls  -1.58240
gfz2011pimj  -1.77470
gfz2011pivq  -2.08750
gfz2011pmuv  -2.24280
gfz2011poug  -1.37390
gfz2011pphc  -1.24400
gfz2011ppsc  -2.50110
gfz2011prrq  -2.34720
gfz2011pwbw  -1.95100
gfz2011qenl  -1.66060
gfz2011qgea  -2.85000
gfz2011qgvh  -2.26740
gfz2011qhjw  -2.29950
gfz2011qklh  -1.38480
gfz2011qlkj  -2.18860
gfz2011qukj  -1.31970
gfz2011rkau  -2.67640
gfz2011rnny  -2.03160
gfz2011rnsp  -2.05410
gfz2011rqut  -1.40300
gfz2011sdax  -2.58600
gfz2011sdpl  -1.53870
gfz2011sskq  -1.62940
gfz2011sxno  -1.28480
gfz2011tlwl  -1.92190
gfz2011tsgl   0.64144
gfz2011uqlz  -2.39610
gfz2011uqry  -1.02890
gfz2011vahy  -1.56010
gfz2011vbxv  -1.59220
gfz2011vtdl   0.47412
gfz2011vtzv  -1.43610
gfz2011wcvs  -2.01810
gfz2011wgvh   0.23646
gfz2011wngi  -1.28270
gfz2011wpzt  -2.73540
gfz2011wucg  -1.26490
gfz2011wwze  -1.45520
gfz2011xgbc  -0.93017
gfz2011xlod  -3.48670
gfz2011xxng  -0.92243
gfz2011zghc  -1.35050
gfz2011zgxn  -1.79910
gfz2011ziyk  -1.31270
gfz2011zkbt  -2.57480
gfz2012alti  -0.62492
gfz2012amjx  -1.87640
gfz2012amvs  -1.11090
gfz2012aqpa  -1.29300
gfz2012arlo  -0.75450
gfz2012bovy  -1.68490
gfz2012bqcf  -2.06400
gfz2012byrq  -1.35080
gfz2012cdju  -1.40980
gfz2012cksh  -1.08780
gfz2012cmww  -2.21770
gfz2012cntu  -2.07030
gfz2012cvfr  -1.51850
gfz2012dejg  -1.92320
gfz2012dpnu  -1.81020
gfz2012dpwv  -0.45563
gfz2012dtdt  -1.89160
gfz2012dtlu  -1.53860
gfz2012dttl  -1.19460
gfz2012dwwu  -2.55100
gfz2012ebff  -0.89078
gfz2012ebrr  -1.87190
gfz2012ekfp  -1.06340
gfz2012ekro  -0.33965
gfz2012elek  -2.04770
gfz2012erds  -1.70800
gfz2012fhaf  -1.80510
gfz2012fjiu  -1.51920
gfz2012fyny  -1.46560
gfz2012fyop  -1.19290
gfz2012ghiv  -2.47690
gfz2012gjdg  -2.11660
gfz2012gnow  -1.29110
gfz2012gvxc  -1.62530
gfz2012hdny  -2.30080
gfz2012heih  -2.32230
gfz2012hhlx  -2.15750
gfz2012hyqh  -1.98130
gfz2012hysb  -0.59969
gfz2012hzhn  -1.44690
gfz2012iblc  -1.36470
gfz2012iblo  -2.30610
gfz2012ibyd  -1.80590
gfz2012icjo  -1.79990
gfz2012ieln  -1.91980
gfz2012iijk  -1.47140
gfz2012imsm  -2.89410
gfz2012iotw  -1.03370
gfz2012iphs  -1.67510
gfz2012ivyg  -1.38760
gfz2012iyhs  -2.86660
gfz2012jjxm  -1.81390
gfz2012jksz   1.23480
gfz2012jlez  -1.81180
gfz2012jnlt  -1.81870
gfz2012kmbo  -1.94240
gfz2012kstg  -1.50000
gfz2012lcro  -1.06760
gfz2012ldjj  -2.19930
gfz2012luzm  -1.52330
gfz2012lvlr   0.26523
gfz2012lwha  -1.28470
gfz2012lyyr  -1.67450
gfz2012mdzf  -2.05660
gfz2012mekv  -0.84715
gfz2012mhik  -2.03640
gfz2012mmiw  -2.82020
gfz2012moul   3.30610
gfz2012mpzo  -0.05935
gfz2012mvgu  -2.00860
gfz2012mwhe  -0.79565
gfz2012mzco  -1.47750
gfz2012ndwt  -1.73000
gfz2012nldz  -0.08255
gfz2012nlrb  -1.94930
gfz2012nmja  -1.59970
gfz2012nnqu  -0.86921
gfz2012nqvd  -2.41610
gfz2012oafg  -1.72700
gfz2012oehy  -1.51900
gfz2012ogwe  -1.45960
gfz2012onhu  -2.39230
gfz2012oork  -0.94927
gfz2012oozp  -1.43360
gfz2012pdav  -1.93250
gfz2012pgmw  -2.20860
gfz2012phns  -1.70200
gfz2012pmuj  -1.54730
gfz2012ppcq  -2.37120
gfz2012pumy  -1.21840
gfz2012pvve  -1.35850
gfz2012qbbt  -1.39370
gfz2012qfah  -1.51000
gfz2012qllj  -0.94722
gfz2012qmhz  -0.67772
gfz2012rjlp  -1.46900
gfz2012rnml  -1.43350
gfz2012rnyn  -1.57070
gfz2012roan  -0.34508
gfz2012rzwp  -2.25030
gfz2012sgfd  -1.31360
gfz2012smyn  -2.10350
gfz2012socz  -2.29620
gfz2012sqsc  -1.78350
gfz2012ssnb  -0.54859
gfz2012suqd  -1.12470
gfz2012svwz  -1.42850
gfz2012swbz  -2.57070
gfz2012sxbo  -2.10970
gfz2012sxzs  -1.53640
gfz2012syum  -1.03190
gfz2012tisj  -1.60850
gfz2012trfq  -0.81219
gfz2012ttnf  -1.03630
gfz2012uhtc  -1.59290
gfz2012ulei  -1.48930
gfz2012umob  -1.97010
gfz2012unxc  -1.47210
gfz2012uvoa  -2.22100
gfz2012uzww  -2.21000
gfz2012vcqw  -1.19790
gfz2012vitw  -1.44570
gfz2012vurc  -2.18040
gfz2012wgdv  -0.78572
gfz2012wgmg  -2.61080
gfz2012wgmp  -1.23370
gfz2012wowu  -0.28564
gfz2012woxj  -2.02550
gfz2012wysg  -1.27880
gfz2012xask  -1.47230
gfz2012xcsf  -1.76760
gfz2012xfnu  -1.45640
gfz2012xkln  -1.84240
gfz2012xlfo  -0.87273
gfz2012xncm  -0.70769
gfz2012xrmq  -1.46290
gfz2012xtvu  -1.92720
gfz2012xxdj  -1.74390
gfz2012ylai  -1.90300
gfz2012yytb  -2.04250
gfz2012zhyz  -1.80340
gfz2012zmfc  -1.00280
gfz2013aggr  -3.62280
gfz2013atak  -1.61840
gfz2013bwgw  -1.52590
gfz2013byyy  -2.02020
gfz2013cinv  -1.79490
gfz2013cpjc  -0.39390
gfz2013cvve  -0.89207
gfz2013cyvx  -1.50550
gfz2013dbhl  -0.82392
gfz2013delq  -1.43590
gfz2013djfi  -1.64850
gfz2013dzvr  -2.58330
gfz2013eavq  -1.62200
gfz2013efct  -1.76660
gfz2013ezmc  -1.13180
gfz2013fmcd  -2.55480
gfz2013fmcp  -2.07770
gfz2013fnpa  -1.79120
gfz2013foto  -1.69480
gfz2013fulo  -1.39010
gfz2013fvht  -0.96227
gfz2013fvyr  -1.70080
gfz2013fxyr  -1.43520
gfz2013gbki  -2.41050
gfz2013gjmk  -1.72960
gfz2013gkcx  -2.27930
gfz2013gkyn  -1.02850
gfz2013gsnl  -1.49710
gfz2013gurk  -1.50730
gfz2013gxye  -0.78590
gfz2013hbmi  -0.88086
gfz2013hiam  -1.87560
gfz2013hqaa  -1.87070
gfz2013hwps  -2.08400
gfz2013icql  -2.02130
gfz2013irme  -1.55760
gfz2013jjae  -0.87216
gfz2013jkqn  -0.14399
gfz2013jlli  -1.77110
gfz2013jobl  -1.58520
gfz2013jpir  -1.45160
gfz2013kats  -1.55630
gfz2013kbbn  -2.08690
gfz2013kbkp  -2.15520
gfz2013kcdb  -0.56912
gfz2013kdfy  -1.28540
gfz2013kjgh  -1.08500
gfz2013kpcb  -2.44810
gfz2013kpes  -0.63980
gfz2013kruh  -0.89387
gfz2013kuno  -1.36840
gfz2013kxlr  -0.84381
gfz2013kxof  -1.43630
gfz2013lbod  -1.98010
gfz2013lbvl  -2.15980
gfz2013lcrk  -1.84880
gfz2013lgvf  -2.27300
gfz2013ljdu  -1.54850
gfz2013ljwt  -1.73140
gfz2013lxnd  -2.71490
gfz2013mimp  -0.86100
gfz2013muqm  -0.77341
gfz2013mynb  -1.19920
gfz2013mzaw  -1.52540
gfz2013nkgd  -0.92734
gfz2013ntfc  -1.33330
gfz2013ntiu  -0.53687
gfz2013obof  -1.32980
gfz2013oeni  -1.87000
gfz2013okac  -1.84960
gfz2013onvl  -1.86060
gfz2013orot  -2.41500
gfz2013ortl  -0.69929
gfz2013oruq  -1.22730
gfz2013osmj  -2.31670
gfz2013otuj  -1.15600
gfz2013phhi  -1.94730
gfz2013pkmz  -2.57060
gfz2013pqkp  -2.49940
gfz2013qaov  -2.32200
gfz2013qigb  -1.81640
gfz2013qnqr  -0.82131
gfz2013qoak  -1.87430
gfz2013qqyo  -0.69331
gfz2013quwz  -1.85170
gfz2013quyn  -1.71700
gfz2013rfik  -1.75310
gfz2013rocs  -1.81660
gfz2013rsyt   0.08135
gfz2013rwkj  -2.33870
gfz2013rwog  -1.23190
gfz2013ryfc  -1.85880
gfz2013ryph  -2.41080
gfz2013sbsl  -1.85370
gfz2013sdkg  -1.83460
gfz2013sdym  -0.97411
gfz2013skay  -0.62265
gfz2013skvq  -1.34590
gfz2013stup  -1.53230
gfz2013suck  -1.85750
gfz2013swnj  -0.37557
gfz2013syqp  -0.75210
gfz2013syqv  -0.76359
gfz2013taeb  -1.54940
gfz2013tdsx  -1.43250
gfz2013tgia  -1.49200
gfz2013tjub  -2.06820
gfz2013tnrp  -1.75540
gfz2013trsq  -1.72940
gfz2013ubgt  -1.64320
gfz2013udtw  -1.51670
gfz2013uepl  -1.68950
gfz2013ujze  -2.02450
gfz2013umay  -1.13950
gfz2013ummt  -1.21240
gfz2013upqj   0.07664
gfz2013utqa  -0.86930
gfz2013uwjo  -1.88340
gfz2013uxzw  -1.06060
gfz2013vcgd  -2.03860
gfz2013vdam  -1.75860
gfz2013veug  -1.89550
gfz2013vjrr  -1.45420
gfz2013vmrv  -0.68521
gfz2013vmsg   0.12797
gfz2013vnwa  -0.28987
gfz2013vojy  -0.96764
gfz2013vsdd  -1.33360
gfz2013vvre  -1.65270
gfz2013vwkh  -1.71610
gfz2013vxht  -0.65058
gfz2013wyfl  -1.19350
gfz2013xahp  -1.62290
gfz2013xjmo  -0.72603
gfz2013xmzw  -1.00780
gfz2013xodn  -2.01090
gfz2013xswc  -2.24330
gfz2013xzxe   0.04858
gfz2013ylxm   1.43090
gfz2013yodm  -1.59600
gfz2013yqtu  -2.18380
gfz2013yxhf  -1.39210
gfz2013zfbz  -1.60970
gfz2013zlak  -0.28878
gfz2014aaae  -1.27930
gfz2014aedl  -1.23660
gfz2014afbt  -1.82520
gfz2014amgk  -0.92266
gfz2014aqop  -3.47090
gfz2014bdju  -1.26270
gfz2014befl  -1.43670
gfz2014bqpm  -1.58810
gfz2014brkk   0.12943
gfz2014bzus  -2.27820
gfz2014cgoi  -2.10970
gfz2014cgxj  -2.90620
gfz2014cjao  -1.45820
gfz2014club  -1.66520
gfz2014cokw  -1.41350
gfz2014ctdl  -1.86410
gfz2014cvnb  -1.29370
gfz2014dbqi  -2.00960
gfz2014dggw  -1.37340
gfz2014dihl  -0.14943
gfz2014djhi  -2.28110
gfz2014djyj  -1.53660
gfz2014dtth  -1.52520
gfz2014dtto  -1.78020
gfz2014dwcp  -2.38400
gfz2014dykt  -0.74339
gfz2014edjm  -1.17120
gfz2014eirs  -1.30910
gfz2014eoay  -1.66050
gfz2014evyu  -2.70220
gfz2014exxj  -2.01400
gfz2014ezjq  -1.36240
gfz2014ezld  -2.97960
gfz2014faex  -0.86729
gfz2014fbli  -1.34170
gfz2014fbnr  -1.52920
gfz2014fdhk  -0.88709
gfz2014ffqg  -1.75740
gfz2014flxk  -0.04026
gfz2014fqas  -1.94660
gfz2014fsir  -1.72610
gfz2014fsje  -1.54400
gfz2014fwxt  -1.40470
gfz2014fxte  -2.44050
gfz2014fxuy  -2.83190
gfz2014gnbw  -1.32080
gfz2014gnvp  -1.52870
gfz2014gssz  -1.07190
gfz2014gtee  -1.69630
gfz2014hapg   0.73155
gfz2014happ  -1.48450
gfz2014herz  -2.00260
gfz2014hhis  -0.90596
gfz2014hkcw  -1.14050
gfz2014hqhv  -2.29270
gfz2014huah  -0.67228
gfz2014huqh  -0.72146
gfz2014hyea  -2.43020
gfz2014hzzf  -1.58750
gfz2014iayo  -3.49170
gfz2014icov  -1.68090
gfz2014igrp  -1.45110
gfz2014ijsa  -1.79920
gfz2014iltl  -1.57820
gfz2014ined  -1.32100
gfz2014irlf  -2.18320
gfz2014irln  -1.74560
gfz2014irly  -2.49110
gfz2014iusw  -1.61300
gfz2014ixlc  -1.33050
gfz2014jarg  -1.39230
gfz2014jayh  -1.43060
