# Nsamples: 9  MAD:  2.094  mean: -0.839  std:  1.663
gfz2010hueh   1.47940
gfz2010okpc  -3.69810
gfz2011sqco  -1.13720
gfz2012moul   0.98096
gfz2012movu  -0.11689
gfz2013bwgw  -2.11290
gfz2013mvgq  -2.31380
gfz2013vmsg   0.06859
gfz2014bkra  -0.70058
