# Nsamples: 285  MAD:  0.926  mean: -0.253  std:  1.210
gfz2010aggj  -0.13659
gfz2010aseg  -0.54682
gfz2010bqnk  -0.64192
gfz2010btme   0.72767
gfz2010bukb  -0.84349
gfz2010cllh  -0.04562
gfz2010cphq   0.35039
gfz2010cthm   0.26437
gfz2010depd  -0.21837
gfz2010dmij  -1.71130
gfz2010drml   0.30751
gfz2010drmq   0.30751
gfz2010drng   1.14720
gfz2010dumv  -0.78953
gfz2010dxhq   0.54476
gfz2010eibh  -0.20729
gfz2010ewyj  -1.39000
gfz2010fgbo  -0.51976
gfz2010fopf  -0.35318
gfz2010fvfz  -0.57034
gfz2010fxut  -0.48896
gfz2010gxki  -1.31010
gfz2010hnuo  -1.02550
gfz2010hueh  -2.42220
gfz2010iaay  -0.91899
gfz2010jdhk  -0.44064
gfz2010jvsi  -0.12218
gfz2010kzzm   0.45739
gfz2010mdti   0.48080
gfz2010mpvc   0.20648
gfz2010mqaj   1.15090
gfz2010mqzz  -0.11145
gfz2010msss  -0.74554
gfz2010mwmd   1.83730
gfz2010nlai   0.04701
gfz2010nwyk  -1.32100
gfz2010okpc  -2.24220
gfz2010pdip  -0.35085
gfz2010pgpo   0.97415
gfz2010pngv   1.55400
gfz2010qqqx  -1.01420
gfz2010qylh  -0.28201
gfz2010qzvf  -0.02132
gfz2010rhvu  -0.81813
gfz2010rnqa   1.03840
gfz2010rnwt   4.93850
gfz2010sdfs  -1.40540
gfz2010sylk  -0.98782
gfz2010tcgh   0.95905
gfz2010tgmo  -0.58430
gfz2010tpcj  -0.26262
gfz2010tzlz  -0.27661
gfz2010tzma  -0.58095
gfz2010ugws  -1.15540
gfz2010uqba  -0.25839
gfz2010ussf  -0.95292
gfz2010vyri  -2.25800
gfz2010wigk   1.22500
gfz2010wyuj   0.99925
gfz2010xnbn   2.07470
gfz2010xpzq  -1.33500
gfz2010yfdr   1.70320
gfz2010zhvj  -0.64447
gfz2010zkle  -1.12160
gfz2011amst  -0.73163
gfz2011aqpp  -0.76475
gfz2011bqbx  -2.66580
gfz2011bvog  -1.06590
gfz2011bwsm  -0.80294
gfz2011bygs   0.40719
gfz2011cdge  -1.48660
gfz2011cjuz  -1.23560
gfz2011cwzi   1.31210
gfz2011cxbw   2.83270
gfz2011duvm   0.08349
gfz2011dzmf  -0.90971
gfz2011fnie  -1.09110
gfz2011fzcw  -0.33188
gfz2011gcct  -0.54313
gfz2011ggnl   0.24954
gfz2011gpyr  -0.97483
gfz2011hibi  -1.38960
gfz2011hjof  -0.27501
gfz2011hvzo  -0.96160
gfz2011hyuh   3.87520
gfz2011ioch  -1.28100
gfz2011kylu   0.37885
gfz2011kymm   0.07995
gfz2011lmug   0.75087
gfz2011lykm  -0.67826
gfz2011mdyq   1.30950
gfz2011mimz  -0.64422
gfz2011mjje  -0.63484
gfz2011mllb  -2.22480
gfz2011mntq   0.97332
gfz2011mror  -0.04149
gfz2011nblt   1.44960
gfz2011nfcz  -0.92253
gfz2011nhvt  -2.23050
gfz2011nhwf   0.24826
gfz2011nkou   4.18010
gfz2011nlum   0.18396
gfz2011nlyw   1.03420
gfz2011nnos   0.48558
gfz2011nsiy   0.65767
gfz2011nuqo  -2.46840
gfz2011ofpj  -1.17650
gfz2011okza   0.85647
gfz2011paqj   0.90674
gfz2011pbgh  -1.79650
gfz2011pfls  -0.69794
gfz2011pphc   0.25332
gfz2011prrq   1.13770
gfz2011ptgd   0.38248
gfz2011qenl  -1.52770
gfz2011qgea   0.19110
gfz2011rkau  -2.94430
gfz2011scma  -1.41670
gfz2011sqco   0.39010
gfz2011sskq   0.07363
gfz2011swfp   0.91256
gfz2011sxno  -0.85446
gfz2011udjs  -0.19125
gfz2011wkyx  -0.03525
gfz2011wyei  -0.84715
gfz2011wzss  -1.33520
gfz2011xkka  -0.95297
gfz2011xlod   1.37960
gfz2011xwdv  -0.27696
gfz2011xxng   0.07404
gfz2011ykbd  -2.08410
gfz2012ahkl   1.96390
gfz2012amvs  -0.64128
gfz2012arlo  -0.00000
gfz2012auqr   0.97991
gfz2012bcvn  -0.75248
gfz2012beae  -0.64566
gfz2012cfdw  -1.33890
gfz2012cksh  -0.25751
gfz2012cntu   1.61570
gfz2012dbgt   0.21179
gfz2012dejg  -0.73054
gfz2012dleg  -0.74144
gfz2012dpem   0.16320
gfz2012dysu  -0.79689
gfz2012enrg  -0.61298
gfz2012erds  -1.05400
gfz2012foih  -1.30180
gfz2012fyny  -0.79956
gfz2012gjtd  -1.02690
gfz2012gmsr   3.64710
gfz2012icjo  -0.63517
gfz2012ivyg  -1.22000
gfz2012izke  -0.73276
gfz2012jlez  -1.47430
gfz2012jopi   1.32910
gfz2012kmmz  -2.78020
gfz2012kyhj  -0.32193
gfz2012lcro  -0.09222
gfz2012ldjj  -1.28550
gfz2012lqhw   1.52060
gfz2012lvlr   1.32960
gfz2012lwha  -0.57573
gfz2012mmiw  -0.32469
gfz2012moul   0.02193
gfz2012movu  -0.64490
gfz2012mwhe  -0.88872
gfz2012mzco   0.26088
gfz2012mzqx  -1.20060
gfz2012nqvd  -1.29400
gfz2012nsxc  -1.39790
gfz2012ohgd  -1.52990
gfz2012oieq  -1.30480
gfz2012ojmv   0.38582
gfz2012onhu  -0.11015
gfz2012oozp   0.40656
gfz2012pcui   0.08929
gfz2012pdfi   2.85410
gfz2012phns   0.45110
gfz2012pmuj   2.27790
gfz2012qbbt  -1.20970
gfz2012qfov   0.58798
gfz2012qmhz  -0.62450
gfz2012rfhw  -0.49710
gfz2012rjlp  -2.08200
gfz2012roan  -0.43386
gfz2012socz  -0.19923
gfz2012sqsc  -0.49890
gfz2012ssnb  -0.86994
gfz2012suqd  -0.97404
gfz2012svwz   1.76710
gfz2012sxpr  -0.87149
gfz2012tisj  -0.85849
gfz2012tjih  -0.28116
gfz2012uhtc  -0.42622
gfz2012ukzg  -1.27080
gfz2012ulei  -0.81319
gfz2012vqmq   1.93290
gfz2012wiyv  -0.45211
gfz2012wjpf   0.30527
gfz2012wowu  -1.69920
gfz2012xlfo  -1.09710
gfz2012xncm  -0.46220
gfz2012xqxw   0.11665
gfz2012xxdj   0.08160
gfz2012yegw  -0.45787
gfz2012yncm   2.05860
gfz2012yytb  -0.09005
gfz2012zkhu  -0.36966
gfz2013atak  -0.88714
gfz2013bwgw  -2.09300
gfz2013cokc  -2.53470
gfz2013cqee  -0.08525
gfz2013dftb  -0.38379
gfz2013dfvx  -0.52181
gfz2013dngd  -0.14653
gfz2013dwsp   0.40160
gfz2013dznt  -1.28560
gfz2013dzvr   0.51466
gfz2013esef  -1.10820
gfz2013fwbm   2.73710
gfz2013gbki   0.69577
gfz2013gsnl  -0.75959
gfz2013hdbp  -1.51600
gfz2013hduf   1.74470
gfz2013hjtt  -1.65490
gfz2013hwps   1.60670
gfz2013irme  -0.64159
gfz2013iuyv  -0.62207
gfz2013jdwo   1.09300
gfz2013jkqn   4.64770
gfz2013kbbg   0.09250
gfz2013kbbn  -1.40290
gfz2013kqab   0.20594
gfz2013lnne  -1.47350
gfz2013lxnd   1.05160
gfz2013mvgq  -2.07080
gfz2013mzaw  -1.05580
gfz2013nhkw   0.04472
gfz2013ortl  -0.34038
gfz2013otuj  -0.22518
gfz2013oywh  -0.91648
gfz2013pkmz  -0.93513
gfz2013pvsa   0.40922
gfz2013qaov  -0.56763
gfz2013qxof  -1.22220
gfz2013stup   3.17600
gfz2013syqv  -0.80486
gfz2013taeb  -1.46740
gfz2013tert  -1.03140
gfz2013upqj  -0.51918
gfz2013uxzw  -0.28692
gfz2013vmsg  -2.07280
gfz2013vnwa  -0.64999
gfz2013vojy  -0.92159
gfz2013vsdd   0.25963
gfz2013xmzw  -1.08710
gfz2013yawe  -1.53750
gfz2013yihv   1.53170
gfz2013yktj  -0.18810
gfz2013zedt  -2.34950
gfz2013zfbz  -1.10220
gfz2014afbt  -0.97500
gfz2014bkra  -0.29921
gfz2014cjao  -0.51533
gfz2014cncl  -0.20128
gfz2014dbmu  -0.86498
gfz2014dggw   0.03725
gfz2014dtto   1.20160
gfz2014egvg  -0.12263
gfz2014eirs  -0.22683
gfz2014etqu  -0.88488
gfz2014fbli   0.39565
gfz2014flxk  -0.85279
gfz2014gbxg   0.03491
gfz2014gnbw  -0.76008
gfz2014gsfc  -0.61999
gfz2014gypw  -0.68123
gfz2014hapg  -1.02530
gfz2014huqh  -1.05880
gfz2014iaqm   1.11700
gfz2014ijsa  -0.41238
gfz2014inrg  -1.35310
gfz2014iusw  -0.52769
gfz2014jayh  -1.04350
