# Nsamples: 387  MAD:  0.610  mean: -0.381  std:  0.932
gfz2010cwrk   0.22520
gfz2010dask  -0.73672
gfz2010djib  -2.71800
gfz2010dxhq  -0.15289
gfz2010eibh  -0.09386
gfz2010fgbo  -0.43691
gfz2010gonu  -0.74521
gfz2010guwa  -0.29864
gfz2010habf  -0.65370
gfz2010hesh  -0.79646
gfz2010hnuo   0.38778
gfz2010hsgv  -0.46451
gfz2010hueh  -0.87909
gfz2010huzl  -0.23796
gfz2010hxan  -0.75886
gfz2010iaay  -0.98927
gfz2010iawy   0.64341
gfz2010inbs   0.28255
gfz2010ioad  -0.89757
gfz2010izag  -0.21873
gfz2010jcby  -0.19138
gfz2010jkrp  -0.56145
gfz2010jlvp  -0.77375
gfz2010kcyz  -0.69278
gfz2010kzzm   2.55950
gfz2010mdti   1.57220
gfz2010mguv  -0.48003
gfz2010mnoc  -0.80521
gfz2010mpvc   0.49755
gfz2010mqaj  -0.42355
gfz2010mqzz  -0.98274
gfz2010nccu   0.60893
gfz2010ngge  -0.89585
gfz2010nlai   0.05660
gfz2010novb  -0.60867
gfz2010nteg   0.52955
gfz2010nwbd  -0.50846
gfz2010nwyk  -0.06001
gfz2010okpc  -0.79150
gfz2010osrl  -0.37327
gfz2010ovvg  -0.31445
gfz2010pdip  -0.14940
gfz2010pgpo  -1.33180
gfz2010pngv   0.66971
gfz2010pxoi  -1.45330
gfz2010qloa  -0.41717
gfz2010qrta  -0.26896
gfz2010qykh   0.42295
gfz2010qzvf  -0.36184
gfz2010rhvu  -1.58300
gfz2010rkuu  -0.80903
gfz2010rljv  -0.54908
gfz2010rnqa   0.51618
gfz2010rnwt   0.86381
gfz2010schp  -0.61365
gfz2010scht   0.52710
gfz2010swqy  -0.25782
gfz2010sylk  -0.49332
gfz2010tcgh  -0.59955
gfz2010tmne   1.64890
gfz2010tpcj  -0.50638
gfz2010tvit  -0.97746
gfz2010tzlz   0.33749
gfz2010tzma  -0.44266
gfz2010ugws  -1.27080
gfz2010uhjy  -0.29795
gfz2010upod  -0.24092
gfz2010uqba   2.16680
gfz2010ussf  -0.36929
gfz2010uyng  -0.96026
gfz2010vhzx  -1.30380
gfz2010viyi   0.36924
gfz2010vjac  -0.36872
gfz2010vong  -0.51641
gfz2010vyri   1.09040
gfz2010wtin  -0.00000
gfz2010xpzq  -1.11830
gfz2010yczp  -0.75788
gfz2010yfdr  -0.89104
gfz2010yhhj  -0.71298
gfz2010yrex   1.21730
gfz2011amst   0.49502
gfz2011bpqm  -0.36915
gfz2011bvog   1.88960
gfz2011cdge  -1.44020
gfz2011dwae  -1.10330
gfz2011dzmf  -0.56435
gfz2011edrq  -0.77998
gfz2011fnxz  -0.89019
gfz2011gaax  -0.86923
gfz2011gcct  -1.36880
gfz2011gfer  -0.87561
gfz2011ggnl   0.05850
gfz2011gkdx   0.35568
gfz2011glpg  -0.65509
gfz2011gpyr  -0.95077
gfz2011haaa  -0.71944
gfz2011hibi  -1.09000
gfz2011hjof  -0.62141
gfz2011hmnw   0.48564
gfz2011hvzo  -1.59250
gfz2011hwbn  -1.30160
gfz2011hyct  -0.06764
gfz2011hyuh  -0.89773
gfz2011iamf  -0.90674
gfz2011inan   0.69643
gfz2011iryz  -0.19345
gfz2011ituo  -1.09710
gfz2011jdoz  -0.79976
gfz2011jfyb  -2.31570
gfz2011jphj   2.01720
gfz2011jrgh  -0.69116
gfz2011kfch  -0.93629
gfz2011kjzt  -0.79580
gfz2011kmge   0.79859
gfz2011kylu  -0.33746
gfz2011kymm  -0.26977
gfz2011lkkf   0.06161
gfz2011lykm   0.35051
gfz2011lywj  -0.14334
gfz2011mdyq  -0.86463
gfz2011melb  -1.57850
gfz2011mjje  -0.52892
gfz2011mllb  -0.91189
gfz2011mntq  -0.95996
gfz2011mror   0.38188
gfz2011nblt   0.95393
gfz2011ncyw  -1.04840
gfz2011ndse  -1.63510
gfz2011neai   0.68201
gfz2011nejg  -1.44770
gfz2011nejw  -1.09600
gfz2011nftw  -2.01750
gfz2011nfww  -1.47990
gfz2011nhby  -0.58011
gfz2011nhvt  -0.49552
gfz2011nhwf  -0.19371
gfz2011nijp  -1.36600
gfz2011nilw   0.02883
gfz2011niuw  -0.02644
gfz2011nivw  -1.08700
gfz2011nkou   0.12208
gfz2011nlnl  -0.92624
gfz2011nlum  -0.40324
gfz2011nmhg   0.49043
gfz2011nnda   6.29310
gfz2011nnos  -0.31557
gfz2011npaf  -0.70369
gfz2011npeu   0.27303
gfz2011nsiy  -0.16708
gfz2011nsrx  -0.98082
gfz2011nuqo  -1.66850
gfz2011oadm  -0.72423
gfz2011okza  -0.21426
gfz2011osmp  -0.90569
gfz2011owqa  -0.08295
gfz2011paqj  -1.00720
gfz2011pbgh   4.94130
gfz2011pfls  -0.74011
gfz2011pfwq   0.97258
gfz2011poug  -0.21139
gfz2011pphc  -1.02270
gfz2011prrq   0.28461
gfz2011ptgd  -0.66407
gfz2011pwbw  -1.00820
gfz2011pwld  -0.43508
gfz2011qenl  -1.19260
gfz2011qgvx   1.56790
gfz2011qklh  -1.41650
gfz2011qowe  -1.55340
gfz2011qtoy  -0.81057
gfz2011qukj  -0.93641
gfz2011rkau  -0.92432
gfz2011rnny  -0.44044
gfz2011rnsp   0.22915
gfz2011rplo  -0.17021
gfz2011rqut  -1.34110
gfz2011scma  -1.03750
gfz2011sfmu  -0.64725
gfz2011sqco  -0.17650
gfz2011sqxp  -0.19447
gfz2011sskq  -0.36831
gfz2011sxno  -0.87473
gfz2011tfor  -0.90017
gfz2011tgon  -1.14420
gfz2011tsgl  -0.31695
gfz2011twpz  -1.32570
gfz2011udjs  -0.28786
gfz2011ugbt   2.77710
gfz2011unud  -0.58256
gfz2011uowi  -0.85329
gfz2011urwz  -1.20990
gfz2011vahy  -0.08005
gfz2011vtzv  -0.26509
gfz2011wbtc  -0.48969
gfz2011wkja  -0.96073
gfz2011wkyx  -1.12810
gfz2011wwze  -0.42605
gfz2011wzss  -0.45839
gfz2011xgwy  -1.18940
gfz2011ykbd   0.68701
gfz2012ahac   0.09936
gfz2012ahkl   0.35694
gfz2012alti  -0.87779
gfz2012amjx  -0.31173
gfz2012asin   3.42650
gfz2012cntu  -0.74148
gfz2012dbgt   0.02496
gfz2012dejg  -0.59095
gfz2012dleg  -0.19032
gfz2012dtdt   0.79017
gfz2012fbgz  -0.22136
gfz2012fcyq  -0.91974
gfz2012fcyr  -0.94247
gfz2012fhaf  -0.31644
gfz2012foih  -1.14350
gfz2012fyny  -0.52926
gfz2012ghiv  -0.49414
gfz2012gjdg  -1.05960
gfz2012gjtd  -0.81916
gfz2012gmsr  -1.26560
gfz2012hmcv  -0.90115
gfz2012hwph   1.04230
gfz2012hzur  -1.72370
gfz2012ipdc  -0.43673
gfz2012iroy  -0.86017
gfz2012ivyg   0.31320
gfz2012iyoi  -0.60082
gfz2012izke  -0.36930
gfz2012jlez  -1.04920
gfz2012jodg   0.54458
gfz2012jopi   0.35739
gfz2012kadi  -1.06890
gfz2012kmbo  -0.14347
gfz2012kmmz  -1.06660
gfz2012ldjj  -0.87663
gfz2012lqhw  -0.98477
gfz2012lvlr   1.38800
gfz2012lvxx  -0.52507
gfz2012lwha  -0.50006
gfz2012mhik  -0.69332
gfz2012mjuu  -1.05450
gfz2012moul   1.05000
gfz2012mout   2.60460
gfz2012movu  -0.08504
gfz2012mowv  -0.32832
gfz2012mrqk  -1.16530
gfz2012mrwu  -0.65917
gfz2012mwhe  -0.29515
gfz2012nldz  -0.95609
gfz2012nmja  -0.67937
gfz2012nnqu  -0.51558
gfz2012nqvd  -0.92815
gfz2012nsxc  -1.08790
gfz2012oehy  -0.60516
gfz2012ofnx  -1.20030
gfz2012ogqu  -0.79407
gfz2012onfs  -1.01220
gfz2012onhu  -1.21720
gfz2012oork  -1.38800
gfz2012oyja  -0.89508
gfz2012pcui  -0.23935
gfz2012phns  -0.97098
gfz2012pifb  -0.92689
gfz2012pmuj   0.58751
gfz2012pmuq   0.27426
gfz2012pmws  -0.20932
gfz2012ppsw   0.41144
gfz2012pziw  -0.69423
gfz2012qbbt  -0.93736
gfz2012qfah  -0.37492
gfz2012qfov  -0.06236
gfz2012qmhz  -1.16190
gfz2012qpoc  -0.73302
gfz2012socz  -0.58909
gfz2012sopp  -0.53293
gfz2012sqsc  -0.79199
gfz2012ssnb  -1.09790
gfz2012suqd  -1.43570
gfz2012svwz  -0.28965
gfz2012tisj  -1.53580
gfz2012tjih  -0.19854
gfz2012trfq  -0.37991
gfz2012tsdz  -0.77625
gfz2012uegq  -0.36024
gfz2012ukzg   1.01180
gfz2012ulei  -1.38030
gfz2012uzww   2.72620
gfz2012vaqd   1.35440
gfz2012vcqw  -0.66431
gfz2012vile  -1.56340
gfz2012vurc  -0.64861
gfz2012wgmg  -1.27060
gfz2012wiyv   2.60640
gfz2012wjpf   0.00000
gfz2012wkki  -0.03868
gfz2012wowu  -1.62310
gfz2012wysg  -0.16051
gfz2012xcsf  -0.03095
gfz2012xfnu  -1.27630
gfz2012xncm  -1.16360
gfz2012xqxw  -0.33819
gfz2012xxdj  -0.94175
gfz2012yegw   2.88430
gfz2012yncm  -0.94978
gfz2013ascz   0.68865
gfz2013bwgw  -0.68892
gfz2013byyy  -1.12340
gfz2013cfls  -1.00760
gfz2013dftb   0.13547
gfz2013dngd  -0.91020
gfz2013dzvr  -1.19230
gfz2013efct  -0.58622
gfz2013ffjt  -0.84015
gfz2013fmcp  -0.51715
gfz2013fnpa  -0.15656
gfz2013gjmk   0.12230
gfz2013gsnl  -0.57242
gfz2013hduf   0.45562
gfz2013hjtt  -0.85585
gfz2013irme   1.29280
gfz2013iuyv  -0.39373
gfz2013iwzn  -0.43089
gfz2013jfcn  -0.62101
gfz2013jobl  -0.33765
gfz2013jzfz  -1.59130
gfz2013kbbg   0.43409
gfz2013kbkp  -0.20468
gfz2013kcdb  -0.62570
gfz2013kpcb  -0.14763
gfz2013kslp   0.04147
gfz2013mdxj  -2.21720
gfz2013mimp   0.18133
gfz2013mvgq  -0.99454
gfz2013mynb  -0.49471
gfz2013mzaw  -0.53550
gfz2013ohdt  -0.41629
gfz2013ohnj   0.57430
gfz2013oizq  -1.07040
gfz2013ojza   0.14957
gfz2013okxa  -0.17660
gfz2013onvl  -0.71696
gfz2013opkx   0.04667
gfz2013oruq   0.72395
gfz2013osmj  -1.01150
gfz2013otuj  -0.14689
gfz2013oywh  -0.50583
gfz2013pegj  -0.25956
gfz2013pkmz  -0.37884
gfz2013pqkp  -1.02420
gfz2013pvsa  -0.71628
gfz2013qaov  -0.22273
gfz2013qapj  -0.57588
gfz2013qigb  -0.56282
gfz2013qxof  -1.09640
gfz2013rdmn  -1.81760
gfz2013rfik  -0.33576
gfz2013rnsa  -0.31003
gfz2013rofg  -0.85194
gfz2013rwkj  -0.05883
gfz2013ryph  -0.45560
gfz2013sbsp  -1.48360
gfz2013xjmo   1.57210
gfz2013xmzw  -0.72815
gfz2013xofz  -0.10685
gfz2014dggw  -0.15029
gfz2014dmrw   0.05950
gfz2014eirs  -0.17277
gfz2014fbli  -0.27622
gfz2014fgbn  -0.00000
gfz2014fxtv  -1.11370
gfz2014fxuy  -0.95127
gfz2014gnvp  -1.41780
gfz2014gqxg  -0.63391
gfz2014gssz  -0.33209
gfz2014gypw  -0.65303
gfz2014hapg  -1.24010
gfz2014hgjb   0.72847
gfz2014huqh  -0.40285
gfz2014hyea  -0.98324
gfz2014hzzf  -0.30213
gfz2014iaqm   0.03896
gfz2014inrg   0.02012
gfz2014iusw  -0.19436
gfz2014iyuc  -1.01260
gfz2014jarg  -0.59653
gfz2014jayh  -0.69241
