# Nsamples: 15  MAD:  0.713  mean:  1.482  std:  0.864
gfz2010dmkd  -0.11728
gfz2010hueh   2.33600
gfz2010uhjy   1.33740
gfz2011cdge   1.27050
gfz2011dabj   1.90610
gfz2011nuqo   1.42810
gfz2011rkau   1.30890
gfz2011zghc   3.46830
gfz2012qibe   0.21918
gfz2012suqd   0.87530
gfz2012wowu   2.13760
gfz2013iuyv   1.35590
gfz2013mvgq   1.05800
gfz2013oywh   1.58260
gfz2013zlak   2.07020
