# Nsamples: 183  MAD:  1.116  mean: -0.030  std:  1.448
gfz2010asxa  -0.79826
gfz2010fgbo   0.15969
gfz2010fvfz  -0.43939
gfz2010fxut   0.69010
gfz2010hueh  -1.59070
gfz2010iaay   0.26545
gfz2010jcpq  -0.60820
gfz2010mpvc   0.57503
gfz2010mqaj   0.70956
gfz2010mqzz   1.47110
gfz2010nbcr   1.90430
gfz2010nlai   0.86774
gfz2010okpc  -0.82626
gfz2010pdip   0.42338
gfz2010pngv  -1.39040
gfz2010qzvf  -0.34650
gfz2010rhvu  -0.14067
gfz2010sdfs   0.02418
gfz2010tcgh  -0.55653
gfz2010tzma  -0.85973
gfz2010ugws   0.99938
gfz2010uhjy   0.39861
gfz2010vong  -0.70714
gfz2010vyri  -0.94361
gfz2010wigk   1.49370
gfz2010wyuj   2.26490
gfz2010xpzq   0.41496
gfz2011amst   1.28480
gfz2011bvog   2.24600
gfz2011bwsm   0.69902
gfz2011cdge  -1.65940
gfz2011cjuz  -0.44711
gfz2011exxq   0.72956
gfz2011ggnl  -1.65910
gfz2011gpyr   0.01986
gfz2011hibi  -0.67538
gfz2011hjof  -3.23560
gfz2011hvzo  -0.01188
gfz2011hwbn   1.66370
gfz2011lmug   0.32929
gfz2011melb   0.69727
gfz2011mror   0.22795
gfz2011nblt  -1.08120
gfz2011ndoe   0.40860
gfz2011nfcz  -0.88874
gfz2011nhvt  -1.08890
gfz2011nkou   2.73470
gfz2011nlum  -1.03410
gfz2011nnos   0.73463
gfz2011nsiy  -1.00230
gfz2011nuqo  -1.53800
gfz2011ofpj  -0.69327
gfz2011okza  -0.06932
gfz2011pivq  -0.47233
gfz2011pphc   4.14020
gfz2011qenl  -1.11020
gfz2011qowe   0.76744
gfz2011rkau  -0.96202
gfz2011rplo   2.80960
gfz2011scma  -1.61830
gfz2011sqco  -0.98019
gfz2011sskq   1.58030
gfz2011sxno  -0.29910
gfz2011tozo  -0.01999
gfz2011tsgl  -1.07790
gfz2011udjs   0.69263
gfz2011urwz   0.34718
gfz2011vcyx  -0.30346
gfz2011xkka  -1.50880
gfz2011xlod  -1.09060
gfz2011zghc   0.13417
gfz2012ahkl   0.90275
gfz2012arlo   0.13832
gfz2012auqr   3.37040
gfz2012avvc  -1.55220
gfz2012cksh  -1.10050
gfz2012cmww   1.78990
gfz2012cntu   0.51458
gfz2012dbgt   0.72417
gfz2012dleg   1.05500
gfz2012dpem   1.44930
gfz2012dysu  -0.98464
gfz2012dzot   0.92796
gfz2012eyti  -0.37640
gfz2012gczh  -2.57630
gfz2012gjtd  -0.17196
gfz2012hyba  -9.80480
gfz2012jlez  -0.05081
gfz2012juem   2.08520
gfz2012jxxe  -1.14340
gfz2012kmbo  -1.91660
gfz2012kmmz  -0.47441
gfz2012ldjj  -0.67645
gfz2012lvxx  -1.44410
gfz2012moul   1.07860
gfz2012movu  -0.00000
gfz2012movv  -0.45978
gfz2012mzco   3.10300
gfz2012nnqu   0.12429
gfz2012nqvd  -0.22732
gfz2012nsxc   0.59274
gfz2012oehy  -3.58980
gfz2012pmuj   1.04520
gfz2012qbbt   0.24223
gfz2012qfov   3.13010
gfz2012qmhz  -0.30758
gfz2012rzwp   0.60544
gfz2012socz   0.31337
gfz2012ssnb  -0.14753
gfz2012suqd  -1.16750
gfz2012tisj   0.09104
gfz2012ulei  -0.84098
gfz2012wiyv   0.36727
gfz2012wowu  -1.32430
gfz2012xncm  -0.43650
gfz2012xwkx  -0.38310
gfz2012zkhu   2.54100
gfz2013adih  -0.88837
gfz2013atak   0.88569
gfz2013bqfc   0.85299
gfz2013bwgw  -0.86284
gfz2013cokc  -0.14459
gfz2013dftb   0.31280
gfz2013dfvx   0.12424
gfz2013dngd  -0.13957
gfz2013eyyo   1.88680
gfz2013fwbm   3.21860
gfz2013gsnl   0.46221
gfz2013gurk  -0.96669
gfz2013gxye  -0.36357
gfz2013hdbp   0.24576
gfz2013hjtt  -0.24650
gfz2013isqh   3.59050
gfz2013iuyv  -0.67831
gfz2013iwzn   0.61899
gfz2013kbbg  -0.08125
gfz2013kcdb  -0.73118
gfz2013kjgh   1.17690
gfz2013kqab   0.31384
gfz2013lnts  -1.33220
gfz2013mbna   1.77450
gfz2013mvgq  -1.73560
gfz2013mzaw  -0.59613
gfz2013nhkw   1.89370
gfz2013ntiu   1.66870
gfz2013oywh  -0.95883
gfz2013pkmz  -0.60929
gfz2013pvsa   0.99557
gfz2013qmkt   1.36870
gfz2013rofg   0.20983
gfz2013stup  -0.98484
gfz2013taeb   0.14579
gfz2013tert  -1.00800
gfz2013udtw  -0.53423
gfz2013upqj  -0.17356
gfz2013vmsg  -1.71980
gfz2013vnwa  -0.23554
gfz2013vojy  -0.85655
gfz2013xmzw  -0.40025
gfz2013yawe  -1.15380
gfz2013zfbz  -0.44535
gfz2013zkta  -0.55776
gfz2013zlak  -0.88750
gfz2013zpse   0.47185
gfz2014afbt   2.39770
gfz2014ayxf  -1.80820
gfz2014dggw  -0.25217
gfz2014edjm  -1.02000
gfz2014eirs  -0.27900
gfz2014epnq  -1.16460
gfz2014etqu  -0.69575
gfz2014faex   0.24109
gfz2014fbli   0.44884
gfz2014flxk  -0.17475
gfz2014gnbw  -1.03440
gfz2014gsfc   0.44495
gfz2014hapg  -0.12229
gfz2014hgjb  -1.31850
gfz2014huqh  -0.67490
gfz2014iaqm   2.49620
gfz2014ijsa  -0.70975
gfz2014jayh  -0.56097
gfz2014jbgm  -0.92869
