# Nsamples: 18  MAD:  0.841  mean:  0.736  variance:  0.710
gfz2013lyko   0.49700
gfz2013malg   1.29260
gfz2013mqmv   1.14070
gfz2013mwbh   1.13980
gfz2013ncjp   0.15780
gfz2013ndin   2.16300
gfz2013nkgj  -0.87800
gfz2013nmac   0.09260
gfz2013nqgw  -0.24030
gfz2013nwdi   1.23000
gfz2013pfeb   0.94910
gfz2013pndn   0.42860
gfz2013pxsj   1.86130
gfz2013qali  -0.04630
gfz2013qmer   2.31450
gfz2013qzdq   0.74800
gfz2013rdoo   0.65690
gfz2013sfto  -0.25380
