# Nsamples: 11  MAD:  0.816  mean:  0.574  variance:  2.682
gfz2010eaoy   0.66080
gfz2010earu   0.63680
gfz2010eisx   1.29130
gfz2010eltf   3.02930
gfz2010excp   0.15280
gfz2011adjs  -0.52650
gfz2013jusj   0.89250
gfz2013vjjc   1.86240
gfz2014jcjt   0.78500
gfz2015sfdd  -3.80520
gfz2015svwm   1.33510
