# Nsamples: 333  MAD:  0.681  mean:  0.004  variance:  0.682
gfz2012sphd   0.34620
gfz2012thfx  -0.29640
gfz2012tvmv  -1.72840
gfz2012tzcc   0.66370
gfz2012uafg  -0.85080
gfz2012uaqj  -0.53600
gfz2012uciv  -0.99540
gfz2012uhup  -0.61460
gfz2012uxnz   0.52240
gfz2012uzom  -0.50330
gfz2012uzyj  -0.37450
gfz2012vdbt   2.47540
gfz2012vrgb  -0.27580
gfz2012wklq  -1.04770
gfz2012wmkd   0.70790
gfz2012wmsg   0.39480
gfz2012wtkh  -0.00000
gfz2012wtkr   0.67110
gfz2012wubh  -0.36350
gfz2012wvfl  -0.70140
gfz2012wxlg  -0.84390
gfz2012wypz   0.66000
gfz2012xwqa   1.69750
gfz2012yfrp   0.90250
gfz2012yzod   0.82720
gfz2012zemz  -0.19790
gfz2012zmbp   0.10680
gfz2012zmln  -0.33630
gfz2013aahq  -0.36240
gfz2013adey   0.76900
gfz2013aeee   1.53330
gfz2013apmm  -0.90310
gfz2013bnxc   0.23470
gfz2013bobq   0.56270
gfz2013btjm  -0.45240
gfz2013ccnr  -0.71340
gfz2013cdan  -0.26970
gfz2013cwps   1.31080
gfz2013enbx   0.56240
gfz2013fiud   0.10280
gfz2013fkii   1.55690
gfz2013flox  -0.66930
gfz2013fygc   0.20410
gfz2013gbst   0.82640
gfz2013gcfx  -0.79050
gfz2013gdnq  -0.75860
gfz2013gelv   4.25970
gfz2013gngz   0.80720
gfz2013hfmp  -0.56580
gfz2013hmbc  -0.21230
gfz2013hzdp   2.54440
gfz2013idbb  -0.20300
gfz2013ihcj   0.72460
gfz2013ikgo   0.52370
gfz2013ilug  -1.09690
gfz2013iodt   0.06230
gfz2013iunn  -0.25670
gfz2013iyqz  -0.02670
gfz2013jdrx  -0.21070
gfz2013jgip   0.58460
gfz2013jjsi  -0.15660
gfz2013jkut   0.75650
gfz2013jlst  -0.76410
gfz2013jusj  -1.32420
gfz2013kvtk  -0.42350
gfz2013kweg   0.41820
gfz2013lajn   0.07780
gfz2013ldos  -1.75390
gfz2013lgnl  -0.79140
gfz2013lgxc   1.07140
gfz2013lsob   0.08610
gfz2013lwao   0.56230
gfz2013lwbk   1.41100
gfz2013lxyn   1.09300
gfz2013mvgr   0.83580
gfz2013nknw  -0.06550
gfz2013nlxz  -1.02630
gfz2013nnzf   0.22800
gfz2013nojf  -0.86160
gfz2013nwdi  -0.01780
gfz2013oqsc   0.90750
gfz2013orzn   0.53080
gfz2013ozqm   1.25910
gfz2013pcos  -0.62310
gfz2013pfbx  -0.17570
gfz2013pffm   1.14160
gfz2013puag  -0.74670
gfz2013pupd  -0.27940
gfz2013pxsj   1.47390
gfz2013qmer   0.37220
gfz2013rrza  -0.34710
gfz2013saez   0.16510
gfz2013scai  -0.23960
gfz2013sdus   0.16510
gfz2013shlq  -1.08580
gfz2013shzy  -0.09170
gfz2013sjhg  -1.34760
gfz2013skkm  -0.20690
gfz2013snbr  -0.31760
gfz2013sred   1.56050
gfz2013svci  -0.26680
gfz2013svqv   0.54010
gfz2013tdkk   1.11040
gfz2013toea   0.01890
gfz2013tqbb   1.61220
gfz2013tusd  -0.39750
gfz2013tuzv  -0.18800
gfz2013twwf  -0.61060
gfz2013txtb  -0.43170
gfz2013tyas  -0.32520
gfz2013ufku  -0.53910
gfz2013ufxm   1.15060
gfz2013uqsp   0.47520
gfz2013vdic  -0.31140
gfz2013vfyw   0.99290
gfz2013vfzp   1.24860
gfz2013vgev  -0.52620
gfz2013vgpf   2.20110
gfz2013vgrk   0.37810
gfz2013vhnk   0.90590
gfz2013vhzu   1.23650
gfz2013viul  -0.80160
gfz2013vjfe  -1.37390
gfz2013vjjc  -2.90490
gfz2013vsbl   0.34600
gfz2013vvjh   0.40130
gfz2013walq  -0.07820
gfz2013wbyr  -1.67400
gfz2013wjmm  -0.31240
gfz2013wqhq  -1.77680
gfz2013wtzl  -0.05440
gfz2013wuon   1.22780
gfz2013xmul   0.48360
gfz2013xsdt   0.40470
gfz2013xtwj   1.35320
gfz2013xvqd   1.84810
gfz2013xwxn   0.66500
gfz2013xwzd   0.50020
gfz2013xxcc   1.15390
gfz2013xxwv   1.02140
gfz2013xxxq   0.75380
gfz2013xyzb   0.93930
gfz2013xzcg   1.11960
gfz2013yaig  -0.48200
gfz2013yhpk  -0.01870
gfz2013ylbx  -0.81090
gfz2013ypdc  -0.01090
gfz2013yyti  -0.10560
gfz2014aawc  -0.52530
gfz2014adoj  -0.21050
gfz2014agyz  -0.68100
gfz2014alwz  -0.04690
gfz2014aqbk   1.97110
gfz2014arpf   0.15950
gfz2014atbl   0.33320
gfz2014atgw   0.34140
gfz2014bekc   0.26200
gfz2014bfqo   1.35740
gfz2014bhhv   1.36600
gfz2014bjgt   0.62870
gfz2014bldx   0.13930
gfz2014bmfv   0.86370
gfz2014cbtl  -1.22540
gfz2014cgog   0.33960
gfz2014cqyo   0.37630
gfz2014cvkm   0.16320
gfz2014czua   0.42740
gfz2014dcdy  -0.27510
gfz2014dddc  -0.63610
gfz2014dhxt  -0.07210
gfz2014disp  -0.14450
gfz2014ebmc   0.33570
gfz2014ejmt   0.36400
gfz2014ekdn  -0.21920
gfz2014ekdt   0.17740
gfz2014enhi  -0.98680
gfz2014etqa   0.45490
gfz2014ffdc  -0.96400
gfz2014fgvi   0.64100
gfz2014fgvz   0.96600
gfz2014fhla  -0.48140
gfz2014fjzd   0.35230
gfz2014foio   0.57040
gfz2014frdz  -0.93140
gfz2014frel   0.86570
gfz2014ftoc  -0.17540
gfz2014ftpw  -0.74310
gfz2014fvaa  -0.93200
gfz2014fxhd  -1.14730
gfz2014hyal  -0.25780
gfz2014hyvq   0.35470
gfz2014hzdy   0.18960
gfz2014hzfw  -0.56420
gfz2014hzgn  -2.20240
gfz2014hzhe   0.38620
gfz2014icqt  -0.27220
gfz2014ieam  -0.13990
gfz2014igur   0.07040
gfz2014ilwu  -0.36420
gfz2014immt   0.41850
gfz2014inbj  -0.55800
gfz2014iobd   0.24700
gfz2014issk  -0.28570
gfz2014isys  -0.04540
gfz2014itpj   2.81390
gfz2014iwnf   0.60770
gfz2014nylm  -0.70620
gfz2014qbzi   0.24480
gfz2014qcxs  -0.32000
gfz2014qdog   0.03750
gfz2014raau  -0.38950
gfz2014rbpx  -0.18180
gfz2014rbsl   0.48070
gfz2014rfeb  -0.61580
gfz2014rghp  -0.45310
gfz2014rils  -0.50490
gfz2014roba  -0.18550
gfz2014ryfb  -0.16230
gfz2014szzf  -0.21570
gfz2014tute  -0.56620
gfz2014uvji  -0.28490
gfz2014uvrk  -0.02120
gfz2014wrkh   0.53810
gfz2014yula   1.03120
gfz2015azzp   0.67880
gfz2015bohx  -0.27210
gfz2015byfn   0.13640
gfz2015byjd  -0.45670
gfz2015chhn  -0.88110
gfz2015elgy  -0.24830
gfz2015eljz   0.01840
gfz2015emin   0.91960
gfz2015enth   0.09850
gfz2015etai  -0.04730
gfz2015fcua   0.50270
gfz2015fjhk  -0.26070
gfz2015fkgt   0.56280
gfz2015fsjj  -0.26170
gfz2015fwkq   0.98610
gfz2015gkwa  -0.05450
gfz2015guhd  -0.15510
gfz2015gwao  -0.18660
gfz2015gzja  -0.80950
gfz2015hepg  -0.28840
gfz2015hgbk   0.04590
gfz2015jmlu  -0.00000
gfz2015kfsu   0.47770
gfz2015kxxs   0.19900
gfz2015lhjy  -0.02190
gfz2015lytv  -1.90360
gfz2015mhym  -0.52020
gfz2015ocdz  -0.25380
gfz2015ofsr   0.74720
gfz2015ojut   0.57910
gfz2015opjp  -0.23490
gfz2015pdri  -0.20050
gfz2015pgxa  -0.33560
gfz2015pjgr  -0.34720
gfz2015poni  -0.46150
gfz2015qisx  -0.40880
gfz2015qnho  -0.03050
gfz2015qpvd   0.07900
gfz2015sfdd  -0.43580
gfz2015sfdl  -1.10700
gfz2015sfdv  -0.61620
gfz2015sfeo  -2.14020
gfz2015sfkh  -0.83670
gfz2015sfko  -0.52420
gfz2015sfno  -1.72790
gfz2015sfnv  -1.20720
gfz2015sfoh  -0.44870
gfz2015sfoq   0.69770
gfz2015sfpj  -0.18150
gfz2015sfps  -0.36430
gfz2015sfrc  -1.15330
gfz2015sfrf   0.03390
gfz2015sfrv  -0.55860
gfz2015sfte  -0.70070
gfz2015sftu  -0.46500
gfz2015sfuz   0.18800
gfz2015sfwf   0.08620
gfz2015sfzm  -0.63600
gfz2015sgdj  -0.45880
gfz2015sgdn   1.14040
gfz2015sgey   0.22740
gfz2015sggc  -1.59100
gfz2015sghq  -1.09530
gfz2015sgie   0.09530
gfz2015sglg  -0.61700
gfz2015sgmm   0.10080
gfz2015sgmr  -0.28870
gfz2015sgoa  -0.76190
gfz2015sgpu  -0.48850
gfz2015sgyd  -1.15960
gfz2015shel  -0.14070
gfz2015shhg  -0.63540
gfz2015shov   2.25020
gfz2015shqc  -0.85140
gfz2015shsz   0.07960
gfz2015sicu   0.32310
gfz2015siem   0.09750
gfz2015sixs  -0.34130
gfz2015siyy  -0.01810
gfz2015sjbx  -0.33740
gfz2015sjoj  -1.00040
gfz2015sjtz   0.85720
gfz2015sjwi  -1.73320
gfz2015skab  -0.12020
gfz2015skhf   0.42220
gfz2015skia  -1.03090
gfz2015sklu   0.36160
gfz2015snwh  -0.72700
gfz2015sopc   0.71080
gfz2015soxc  -0.28950
gfz2015spal   0.26220
gfz2015sqmy   0.04720
gfz2015sqvx  -0.26800
gfz2015sqwv   0.17840
gfz2015sqyh   0.44240
gfz2015srat  -0.48680
gfz2015srgf   0.01930
gfz2015srxe   0.12000
gfz2015srxm   0.12080
gfz2015ssoe   0.18580
gfz2015ssrl   0.24050
gfz2015stcv   0.28630
gfz2015stso   0.27900
gfz2015subg  -0.88200
gfz2015supa   0.78100
gfz2015svwm  -0.24560
gfz2015sxgd  -0.05690
gfz2015sxmh  -0.42170
gfz2015szcb  -0.16590
