# Nsamples: 33  MAD:  0.616  mean: -0.117  variance:  1.693
gfz2010nmpc  -0.19860
gfz2011aatr  -0.46290
gfz2011enva  -0.27690
gfz2011gkzt  -3.04750
gfz2011hlsa   0.26800
gfz2011rewa  -0.16950
gfz2011toub  -0.19530
gfz2011wxfs  -0.61250
gfz2012enno  -0.19700
gfz2012jlox  -0.38870
gfz2012kkup  -0.26230
gfz2012ldxg  -0.05840
gfz2012ldzj   3.71170
gfz2012teic   2.31940
gfz2012ttoa   1.77770
gfz2012vrgb   0.22060
gfz2012wypz  -0.22490
gfz2013kdeo   0.46220
gfz2013nwdi  -0.19470
gfz2014bwue  -0.72520
gfz2014fgvi   0.14480
gfz2014fhla   0.57020
gfz2014ftka   0.21660
gfz2014gkgf  -1.05500
gfz2014goba   0.78920
gfz2014ifzj  -2.48420
gfz2014nqfm  -1.98020
gfz2014qqhm  -2.93440
gfz2014ssvz   0.16300
gfz2015cyjd   0.45830
gfz2015lhjy  -0.50270
gfz2015mpte  -0.18690
gfz2015taml   1.18080
