# Nsamples: 80  MAD:  0.509  mean: -0.041  variance:  0.495
gfz2010bxxs   0.29940
gfz2010cqwl  -0.28100
gfz2010ebhc  -0.85930
gfz2010grjd   1.11530
gfz2010iull  -0.16830
gfz2010nmpc  -0.40510
gfz2010nwef  -0.91410
gfz2010sysw   0.35010
gfz2010usho   0.36590
gfz2011aatr  -0.20790
gfz2011dpqx  -0.20240
gfz2011enva  -0.33990
gfz2011gkzt   1.18860
gfz2011hlqw  -0.55320
gfz2011hlsa  -0.50430
gfz2011jplh  -0.61950
gfz2011lcxq  -0.02840
gfz2011lzwj   0.06970
gfz2011mdie   0.12680
gfz2011rewa  -0.17990
gfz2011toub   0.23260
gfz2011wxfs  -0.18470
gfz2012enno  -0.39460
gfz2012jlox  -0.24110
gfz2012kkup  -0.05680
gfz2012klhx  -0.23060
gfz2012kuct  -0.11400
gfz2012kudo  -0.48890
gfz2012ldxg   0.36690
gfz2012ldzj  -0.00000
gfz2012teic   1.28360
gfz2012ttoa   0.47900
gfz2012vrgb   0.06180
gfz2012wypz   0.07480
gfz2013drxz  -0.13560
gfz2013jkut   0.52070
gfz2013kdeo   1.94860
gfz2013ldqb   2.66820
gfz2013nkgj   0.53830
gfz2013nwdi  -1.08870
gfz2013pfbx  -0.64110
gfz2013svci   0.02320
gfz2013xsdt   0.93980
gfz2014ande  -0.08500
gfz2014bwue  -0.44750
gfz2014fgvi   0.32980
gfz2014fhla  -2.16260
gfz2014fkmr  -1.28040
gfz2014ftka  -1.29470
gfz2014gkgf  -0.04360
gfz2014gkjt  -0.68900
gfz2014gkqf  -1.13030
gfz2014glcu  -0.79900
gfz2014gmge   0.94310
gfz2014gmhr   1.04320
gfz2014gmnb  -0.13300
gfz2014goba  -0.46100
gfz2014gull  -0.21780
gfz2014hasj  -0.18570
gfz2014jjhc   0.03400
gfz2014jpep  -0.13040
gfz2014lgqn   0.68260
gfz2014lxnc  -0.17200
gfz2014lyhk  -0.61470
gfz2014macx  -0.67720
gfz2014nqfm  -0.10650
gfz2014nrie   0.50690
gfz2014oinz  -0.64330
gfz2014qlxd  -0.29970
gfz2014qqhm   0.24740
gfz2014ssvz  -0.23850
gfz2014ubwn  -0.12620
gfz2015berb  -0.13890
gfz2015cyjd  -0.00760
gfz2015fsjj  -0.12510
gfz2015lhjy  -0.32920
gfz2015mpte   0.25550
gfz2015sfdd   0.46730
gfz2015svwm  -0.22140
gfz2015taml   1.16740
