# Nsamples: 273  MAD:  1.123  mean:  1.194  variance:  1.317
gfz2013mghe   0.31450
gfz2013ngnt   0.91990
gfz2013nuvi   1.92340
gfz2013nvdj  -0.76680
gfz2013nwdi   3.39110
gfz2013oqsc   0.92720
gfz2013pfbx   0.22500
gfz2013pfeb   1.39520
gfz2013pffm   0.07260
gfz2013poxj   1.44890
gfz2013pxsj   2.79000
gfz2013pxya   0.42150
gfz2013qmer   1.15420
gfz2013reav   0.92590
gfz2013sdus  -0.83940
gfz2013shzy   2.06780
gfz2013sjhg   1.91560
gfz2013svci   2.63880
gfz2013tusd  -0.60210
gfz2013uhlm   0.47430
gfz2013uqsp   1.05690
gfz2013uthl  -0.34280
gfz2013uxej   0.33250
gfz2013yctg   0.72570
gfz2013ylbx  -0.00000
gfz2014cmwb   0.66210
gfz2014cqyo   2.22580
gfz2014ctot   0.78160
gfz2014cvkm   1.32990
gfz2014cvxx   0.50980
gfz2014cyvm   0.71890
gfz2014czqi   0.58240
gfz2014czua   2.90990
gfz2014dddc   1.07020
gfz2014dffd   0.00000
gfz2014dhxt   2.19760
gfz2014gutm   1.75910
gfz2014gvhw  -0.08820
gfz2014gvqj   1.17690
gfz2014gvra   1.25950
gfz2014gvrd   1.78450
gfz2014gwab   1.74300
gfz2014gwgf   1.83410
gfz2014gwqj   2.52290
gfz2014gxkh   0.12070
gfz2014gxqu   0.47640
gfz2014gxvf  -1.23890
gfz2014gxxh   1.64290
gfz2014gxxo   1.92370
gfz2014gyxd   1.31970
gfz2014gzrm   0.15540
gfz2014gzue  -0.31070
gfz2014haey   0.64390
gfz2014hagb   0.60010
gfz2014haos   1.83420
gfz2014hasj   1.40900
gfz2014hauo   1.21420
gfz2014hbjz   0.41720
gfz2014hbqb   0.44760
gfz2014hcns   0.98720
gfz2014hfhl   0.78810
gfz2014hgqo   1.93730
gfz2014hifp   2.10600
gfz2014hiih   2.61870
gfz2014hiiz   1.74850
gfz2014hjgh   1.02290
gfz2014hjgr   0.77960
gfz2014hjij   1.21230
gfz2014hjlx   0.43330
gfz2014hkcf   0.50730
gfz2014hmgf   0.13390
gfz2014hmzg   2.58930
gfz2014hoap   1.22700
gfz2014hphw   1.50980
gfz2014hppw  -0.08900
gfz2014hpqz   1.02480
gfz2014hqxs   1.45770
gfz2014hrft   0.42360
gfz2014hrtn   0.90240
gfz2014huaj   0.39460
gfz2014hwwi   2.63300
gfz2014hyvq   1.40490
gfz2014hzfw   0.50950
gfz2014iani   0.74540
gfz2014iava   0.52490
gfz2014ieam   1.55870
gfz2014ifue   0.91230
gfz2014ifzj   1.86460
gfz2014ikbk   0.78630
gfz2014ikvd   0.59290
gfz2014imnn   0.57060
gfz2014lgqn   2.32700
gfz2014ljbr   2.09620
gfz2014lkyf   1.49140
gfz2014lnqy   1.81900
gfz2014lpim   0.19300
gfz2014lvgn   0.41930
gfz2014lxnc  -0.03360
gfz2014lxqr  -0.87890
gfz2014lyhk  -0.31200
gfz2014lyhp   0.90460
gfz2014macx   0.11680
gfz2014mcse  -1.90570
gfz2014mlrr   1.76910
gfz2014moaw   1.99610
gfz2014mogb   0.77430
gfz2014mtum  -4.39770
gfz2014mwor   0.96240
gfz2014mxkr  -0.36740
gfz2014navw   0.79750
gfz2014ndue   0.35500
gfz2014ngsk   2.05440
gfz2014niqj   1.85050
gfz2014nkdx   1.62610
gfz2014nowp   2.66160
gfz2014npeo   1.74430
gfz2014nphm   1.52110
gfz2014nrie   2.26980
gfz2014ntdh   1.63590
gfz2014nyeh   1.17420
gfz2014nyfb   1.91400
gfz2014nyko   1.91140
gfz2014odgv   0.41400
gfz2014oinz   1.66840
gfz2014orxs  -0.27300
gfz2014oryw  -1.05870
gfz2014osvx   0.54130
gfz2014owxc   0.75850
gfz2014oxcc   2.80020
gfz2014pkll   1.72540
gfz2014ppzf  -0.36940
gfz2014pqrc   1.49270
gfz2014pvch   0.79000
gfz2014pzni   0.40180
gfz2014qfzq   0.74700
gfz2014riel   1.67800
gfz2014rkwl   2.32220
gfz2014royq  -0.82080
gfz2014sadu   1.25390
gfz2014sjqw   0.81190
gfz2014ssmv   1.48780
gfz2014ssvz  -1.09210
gfz2014swgt   1.34560
gfz2014szzf   2.05900
gfz2014tabg  -0.99920
gfz2014tfgn   0.28680
gfz2014tovs   1.06570
gfz2014tqdo  -0.79360
gfz2014tqsf  -0.71910
gfz2014tqth  -1.27040
gfz2014ubwn   2.85440
gfz2014uohh   1.13900
gfz2014utac   1.07890
gfz2014uvji   2.56760
gfz2014uxyg   0.62930
gfz2014uyrq   1.88100
gfz2014vcev   1.51290
gfz2014vhld  -0.17370
gfz2014vhms   2.49670
gfz2014vjoz  -0.45930
gfz2014vqqa  -0.76850
gfz2014watn   0.56090
gfz2014wmsc   1.40750
gfz2014wrkh   2.31040
gfz2015ecgq   1.16700
gfz2015ednc  -0.87360
gfz2015eeyq   2.30220
gfz2015eezy   1.76700
gfz2015egxq   1.84310
gfz2015eiky   1.04050
gfz2015elgy   0.94620
gfz2015enth   0.69590
gfz2015esrj  -0.44880
gfz2015etai   1.83560
gfz2015evpl   2.58970
gfz2015fbbk  -2.50760
gfz2015fbew  -1.26050
gfz2015fcua   1.82240
gfz2015fjhk   0.67230
gfz2015fkgt   1.78820
gfz2015fkic   2.17590
gfz2015fkjs   0.37340
gfz2015fkkd   0.62270
gfz2015flis   1.22730
gfz2015ltro   0.48950
gfz2015lytv  -0.11200
gfz2015lzad   2.89800
gfz2015mbgr   1.44000
gfz2015mddr   1.40460
gfz2015mhym  -0.44620
gfz2015mpte   3.48800
gfz2015nqgf   1.76780
gfz2015rwsb   0.57450
gfz2015rxmg   1.67900
gfz2015saet   2.50210
gfz2015sdfy  -0.65790
gfz2015seuf   0.10420
gfz2015sevh   0.32150
gfz2015sfdd   2.75810
gfz2015sfdy   3.02010
gfz2015sffn   2.36610
gfz2015sfho   1.39600
gfz2015sfhz   3.07340
gfz2015sfiq   3.40180
gfz2015sfjf   0.80640
gfz2015sfkz   2.60450
gfz2015sflf   1.81430
gfz2015sfmd   2.13720
gfz2015sfnb   0.75180
gfz2015sfno   2.79110
gfz2015sfoc   2.56320
gfz2015sfoh  -0.58860
gfz2015sfpj   1.99320
gfz2015sfps   2.65480
gfz2015sfqo   2.58290
gfz2015sfrv   0.71460
gfz2015sfte   1.61030
gfz2015sftu   1.87600
gfz2015sfuc   0.51300
gfz2015sfuz   1.62410
gfz2015sfwf   2.72010
gfz2015sfzm   2.39610
gfz2015sgad   2.78030
gfz2015sgdj   1.02450
gfz2015sgdn  -0.17810
gfz2015sggc  -0.93360
gfz2015sghq   1.45410
gfz2015sglg   1.92980
gfz2015sgmr   3.23210
gfz2015sgna   2.34900
gfz2015sgoa  -0.14500
gfz2015sgpu   0.94880
gfz2015sguf   2.69420
gfz2015sgxc   1.79040
gfz2015sgyd   2.60460
gfz2015shaq   2.51600
gfz2015shel   2.30260
gfz2015shhg   2.53720
gfz2015shjn   2.45270
gfz2015shqc   1.80830
gfz2015shqe   1.04100
gfz2015shrg   1.16760
gfz2015shsz   1.21480
gfz2015sicf   2.15820
gfz2015sing   1.35920
gfz2015siof  -0.01940
gfz2015sist  -0.89710
gfz2015sitn   1.21830
gfz2015sixi   3.29500
gfz2015siyy   1.95860
gfz2015sjbx   2.62740
gfz2015sjgk   1.74290
gfz2015sjjb   2.13520
gfz2015sjne   1.66030
gfz2015sjoj   3.03870
gfz2015sjvu   3.13810
gfz2015sjwi   1.80630
gfz2015skab   1.04930
gfz2015skgj   1.91100
gfz2015skpv   2.01320
gfz2015skuk   2.51100
gfz2015sldx   1.44100
gfz2015sljs   1.31240
gfz2015slun   2.52980
gfz2015smgj   2.36570
gfz2015smym   1.97030
gfz2015snhn   1.96730
gfz2015snmr   2.47200
gfz2015snwh   1.30180
gfz2015snyd   2.44570
gfz2015soat   2.24550
gfz2015solh   0.28530
gfz2015soxc   1.69190
