# Nsamples: 866  MAD:  0.877  mean:  0.144  variance:  1.095
gfz2013lznu  -0.11020
gfz2013mded  -0.09930
gfz2013mghe  -1.04590
gfz2013mmlw  -2.53800
gfz2013mvgr  -1.01620
gfz2013neuc   0.63540
gfz2013nfwx   0.52760
gfz2013ngnt  -0.35010
gfz2013njnd   0.05720
gfz2013nlxz   0.53970
gfz2013nojf  -0.19790
gfz2013nskg  -0.01660
gfz2013nuor   2.26920
gfz2013nuvi  -0.90590
gfz2013nvdj  -1.90170
gfz2013nwdi   0.65890
gfz2013onjy   1.21410
gfz2013oqsc   0.17060
gfz2013orzn   0.61140
gfz2013ozqm  -0.10810
gfz2013ozrf  -2.60680
gfz2013pfbx   0.48370
gfz2013pfeb   0.28410
gfz2013pffm   0.83310
gfz2013poxj   0.03560
gfz2013puag  -1.11430
gfz2013pxsj   2.14530
gfz2013pxya   0.31500
gfz2013qidm  -0.44110
gfz2013qmer   0.18700
gfz2013rdoo   0.18160
gfz2013reav  -2.66980
gfz2013sdus   0.94940
gfz2013shzy   0.51380
gfz2013sllq  -1.60720
gfz2013snbr  -0.50780
gfz2013sqkb   1.37760
gfz2013stht  -0.47390
gfz2013suln   0.32260
gfz2013svci   1.47180
gfz2013sxbw  -1.02880
gfz2013toea  -0.89730
gfz2013tqbb   1.26980
gfz2013tusd  -1.13480
gfz2013uhlm  -0.37950
gfz2013upee   0.80490
gfz2013uqsp   1.09970
gfz2013utsh   0.22300
gfz2013uxej  -2.18940
gfz2013uysr  -2.95950
gfz2013vfyw   1.40250
gfz2013vfzp   0.59140
gfz2013vgev   0.64530
gfz2013vhnk  -0.18240
gfz2013vhzu  -0.19330
gfz2013vijl  -0.84400
gfz2013viul  -0.09440
gfz2013vjjc   0.31340
gfz2013vlth  -0.97110
gfz2013vpnf   0.37540
gfz2013vqot  -0.89520
gfz2013vrmy   0.66250
gfz2013vvrq   0.19390
gfz2013vzbo  -0.75130
gfz2013wjmm   0.43180
gfz2013wmfd  -0.79870
gfz2013wnpr  -0.88160
gfz2013wpga  -2.08570
gfz2013wqhq  -0.42360
gfz2013wtzl  -2.58240
gfz2013xklb  -1.48520
gfz2013xmqg  -0.19730
gfz2013xmul  -1.15300
gfz2013xqnn  -0.20820
gfz2013xsdt   0.63650
gfz2013xvqd   1.35140
gfz2013xwda  -1.55070
gfz2013xxcc  -1.21590
gfz2013xxwv   0.21560
gfz2013xxxq  -0.68150
gfz2013yach  -2.13720
gfz2013yaig  -1.19540
gfz2013yctg  -0.87280
gfz2013yhbu  -3.64460
gfz2013yixl  -1.28500
gfz2013ylbx  -1.24570
gfz2013ymky   0.38370
gfz2013ynmw  -3.14810
gfz2013ypdc  -0.72120
gfz2013yqkv   0.24910
gfz2013yulx   7.57470
gfz2013yyhc   0.02210
gfz2013yyti  -0.68890
gfz2013yzte  -1.13940
gfz2013zfhu   0.28990
gfz2013zjel   0.84910
gfz2013zjtw  -0.83530
gfz2013zmoc  -0.12140
gfz2013zmtb   0.14440
gfz2014aawc   0.12140
gfz2014adoj   0.36640
gfz2014afmx   0.94430
gfz2014agde   0.20020
gfz2014ajlk   0.64330
gfz2014ajtf  -0.66140
gfz2014algk  -0.67760
gfz2014alwz   0.20950
gfz2014amsb   1.27780
gfz2014ande   1.19240
gfz2014ared  -1.02810
gfz2014arpf  -0.08820
gfz2014arqr  -1.04300
gfz2014atbl   0.75050
gfz2014bagd  -1.33700
gfz2014bbro  -1.68330
gfz2014bdfd  -2.53770
gfz2014bekc  -1.87160
gfz2014bezu  -1.04550
gfz2014bfng  -1.14490
gfz2014bfqo  -0.98970
gfz2014bhvd  -0.67220
gfz2014bjgt  -0.52050
gfz2014bldx  -0.40400
gfz2014bmta  -0.64390
gfz2014bwue  -0.18500
gfz2014bzxy  -1.60680
gfz2014caop  -0.76510
gfz2014cbtl  -0.79090
gfz2014cgog   0.72830
gfz2014chdv   1.81590
gfz2014citw  -0.29230
gfz2014claq  -0.88810
gfz2014clnj  -4.67510
gfz2014clnq   0.06660
gfz2014cmwb   0.21950
gfz2014ctot  -0.91020
gfz2014cueu  -1.36930
gfz2014cvkm   0.19260
gfz2014cvxx  -0.52980
gfz2014cyvm  -1.07470
gfz2014czno  -0.77960
gfz2014czol   1.79130
gfz2014czqi  -0.26630
gfz2014czua   1.51580
gfz2014dddc  -0.03910
gfz2014dffd  -0.55590
gfz2014dgiy   0.40040
gfz2014dhxt   0.88700
gfz2014disp   0.63200
gfz2014fedd   0.26050
gfz2014femz   1.27980
gfz2014fexu   0.12770
gfz2014ffdc   0.28450
gfz2014fgvi   0.72350
gfz2014fgwt   2.81350
gfz2014fgxt  -0.07310
gfz2014fgxz   0.40800
gfz2014fgyo   0.79680
gfz2014fgza   0.30170
gfz2014fhbd   0.57960
gfz2014fhdw   0.41020
gfz2014fhgb   0.85860
gfz2014fhhp   0.64030
gfz2014fhla  -1.39520
gfz2014fhrq  -0.06140
gfz2014fhsg   0.05390
gfz2014fhwx   0.06090
gfz2014fhxm  -1.63360
gfz2014fiwq   0.81370
gfz2014fjpb   0.78780
gfz2014fjyo  -0.78310
gfz2014fjzw   0.80170
gfz2014fkmr   0.00000
gfz2014fkmx  -0.44420
gfz2014fknp   0.88890
gfz2014fles   0.08050
gfz2014flfa   0.77370
gfz2014fnbh  -1.56630
gfz2014fnyg  -0.49690
gfz2014fqpz  -0.21440
gfz2014frdz  -0.18080
gfz2014frel   1.29450
gfz2014frez   0.48320
gfz2014frfl   0.94630
gfz2014frjr   1.08840
gfz2014frnb   0.65400
gfz2014frwh   0.68380
gfz2014fstx   1.03190
gfz2014fsuh   0.54870
gfz2014fszc   0.54920
gfz2014ftgx  -0.18700
gfz2014ftka  -0.85520
gfz2014ftpw  -0.10010
gfz2014ftrk   0.53180
gfz2014ftvc  -0.71840
gfz2014furx   0.16700
gfz2014fusc   1.58130
gfz2014fusj   1.23680
gfz2014fuub   2.40510
gfz2014fuup   0.42490
gfz2014fuzi   0.86540
gfz2014fvaa  -0.35290
gfz2014fval   0.05290
gfz2014fvdx   1.52780
gfz2014fvgh   0.91720
gfz2014fvhp   1.20240
gfz2014fvjl   0.61080
gfz2014fvpy   0.73590
gfz2014fvrg   0.57190
gfz2014fvve   0.13490
gfz2014fwdr   1.04760
gfz2014fwtt   0.15360
gfz2014fxpu  -0.18870
gfz2014fzgx   0.12340
gfz2014gbcz  -1.24590
gfz2014gbdq  -4.51540
gfz2014gbjf   0.22980
gfz2014gcza   0.61930
gfz2014gdsq   0.94880
gfz2014geuy   0.91250
gfz2014gezs  -0.10510
gfz2014gfdj   0.53740
gfz2014gkgf  -0.73940
gfz2014gkgl   0.80470
gfz2014gkjl   0.49290
gfz2014gkjw   0.25510
gfz2014gklq   0.30840
gfz2014gklv   0.96570
gfz2014gkmm  -0.01530
gfz2014gkmw   2.54900
gfz2014gkob   0.65280
gfz2014gkok   1.04940
gfz2014gkpd   0.66480
gfz2014gkpj   0.74620
gfz2014gkqf   0.41120
gfz2014gkqu  -0.81440
gfz2014gksu   0.65380
gfz2014gktn  -0.76190
gfz2014gktq   0.84250
gfz2014gkut   0.80170
gfz2014gkvk   3.44950
gfz2014gkxm  -0.31580
gfz2014glcu   1.13570
gfz2014glcy   0.72240
gfz2014glfn  -1.15260
gfz2014glhs   1.59170
gfz2014glov   1.07590
gfz2014glsh   0.60350
gfz2014gltx   0.45370
gfz2014glvn  -0.50240
gfz2014glvu   1.91060
gfz2014glxd   0.50470
gfz2014glxy   0.91020
gfz2014gmci   0.98610
gfz2014gmge   0.44690
gfz2014gmhp  -0.36540
gfz2014gmhr  -0.36890
gfz2014gmip  -1.16380
gfz2014gmjo   1.27510
gfz2014gmku   0.10760
gfz2014gmlz   1.54780
gfz2014gmmk   1.37410
gfz2014gmmt   0.23710
gfz2014gmnb  -0.32990
gfz2014gmnw   0.65000
gfz2014gmor   0.71910
gfz2014gmpy   0.86900
gfz2014gmrj   0.15160
gfz2014gmtb   1.01330
gfz2014gmtj   0.12400
gfz2014gmuk   1.08040
gfz2014gmvr   0.93720
gfz2014gmzl  -0.02000
gfz2014gmzs   0.47080
gfz2014gnfd   1.57650
gfz2014gnhk   1.67830
gfz2014gnig   0.40290
gfz2014gnmp   1.24610
gfz2014gnmx   0.59150
gfz2014gnno   0.47010
gfz2014gnom   0.08800
gfz2014gnoz   0.74460
gfz2014gnqt  -0.04110
gfz2014gnre   0.28810
gfz2014gnsi   1.11920
gfz2014gnvw  -0.58350
gfz2014gnwg   0.45310
gfz2014goba   0.26400
gfz2014goei   1.15290
gfz2014gogv  -1.31270
gfz2014gohm   1.14150
gfz2014golz   0.71480
gfz2014gono   1.09340
gfz2014goqw   0.07600
gfz2014gpam  -1.86810
gfz2014gpce   0.35150
gfz2014gutm   1.12790
gfz2014gvhw   1.18220
gfz2014gvqj   1.83130
gfz2014gvra   0.42350
gfz2014gvrd   0.16850
gfz2014gwab   0.59490
gfz2014gwgf   0.55010
gfz2014gwqj  -0.66830
gfz2014gxkh   0.26470
gfz2014gxqu   1.10400
gfz2014gxxh   0.31530
gfz2014gxxo   0.82510
gfz2014gyxd  -0.02050
gfz2014gzrm  -0.82370
gfz2014gzue   0.45510
gfz2014haey   0.29920
gfz2014hafk  -0.48780
gfz2014hagb  -0.06170
gfz2014haos   1.01630
gfz2014hasj   0.17450
gfz2014hauo   0.72410
gfz2014hbjm   0.69730
gfz2014hbjz   0.56640
gfz2014hbqb   0.77870
gfz2014hcns  -0.87410
gfz2014heum  -0.23950
gfz2014hfad   0.19800
gfz2014hfhl  -0.18020
gfz2014hfzf   0.43490
gfz2014hgqo   0.77130
gfz2014hhfs   0.62110
gfz2014hhwx  -0.72250
gfz2014hifp   1.03720
gfz2014hiih   0.13140
gfz2014hiiz  -1.24450
gfz2014hjgh   0.07210
gfz2014hjgo   0.80110
gfz2014hjgr   0.58030
gfz2014hjij   0.38070
gfz2014hjlx  -0.26410
gfz2014hkcf   0.30780
gfz2014hkck   0.25230
gfz2014hmgf   0.26260
gfz2014hmzg   1.42110
gfz2014hnfm   0.22370
gfz2014hoap  -1.15700
gfz2014hocg  -0.97110
gfz2014hphw   0.54310
gfz2014hppw  -0.02070
gfz2014hpqz  -0.40410
gfz2014hqxs  -0.14020
gfz2014hqyx   0.60130
gfz2014hrft  -0.93550
gfz2014hriu  -0.53500
gfz2014hrtn   0.44880
gfz2014hscz  -1.05220
gfz2014huaj   0.98640
gfz2014hwwi   1.33890
gfz2014hyal  -0.23120
gfz2014hymr  -0.31740
gfz2014hyvq   0.69490
gfz2014hzdy  -0.51350
gfz2014hzfw  -0.20420
gfz2014hzgn   0.03480
gfz2014hzhe   0.63130
gfz2014hzig   1.88610
gfz2014iani  -0.12000
gfz2014iava  -0.38440
gfz2014icqt   1.60440
gfz2014ieam  -3.65050
gfz2014ieho  -0.40600
gfz2014ifue   1.09670
gfz2014ifzj   0.42140
gfz2014ijvh   0.68100
gfz2014ikbk  -0.65800
gfz2014ikvd  -0.48160
gfz2014immt  -1.41990
gfz2014imnn   0.31190
gfz2014inbj  -0.86800
gfz2014iobd  -0.63010
gfz2014iqzj   1.75290
gfz2014irci   0.48750
gfz2014ircq   0.88660
gfz2014irrg   0.06220
gfz2014isdq   1.33250
gfz2014isff   1.62050
gfz2014isub   1.14160
gfz2014isys   0.72480
gfz2014itab   0.74400
gfz2014itbe   0.49180
gfz2014itbu   1.03430
gfz2014itfc   0.59280
gfz2014itgh   1.01100
gfz2014itjx  -0.68470
gfz2014itkw   0.38510
gfz2014itpj   0.14360
gfz2014iuhq   0.51680
gfz2014iwnf   1.08170
gfz2014ixga   0.38020
gfz2014jagg   0.14430
gfz2014jatq   0.34900
gfz2014jbyg   0.21800
gfz2014jcjt   1.40120
gfz2014jcmt  -0.87730
gfz2014jesb   0.63400
gfz2014jfis  -0.67200
gfz2014jggm   0.81790
gfz2014jhra  -3.55850
gfz2014jjhc  -0.32900
gfz2014jjln  -0.28730
gfz2014jjqk   0.58230
gfz2014jkxe   0.45640
gfz2014jnxm   0.38220
gfz2014jnyv  -0.67140
gfz2014jomw  -0.57770
gfz2014jpep   0.95590
gfz2014jpgu   0.66260
gfz2014jwmh   1.89710
gfz2014jysj   1.71040
gfz2014kara  -1.30370
gfz2014kbuk   0.06130
gfz2014kbwm  -2.74800
gfz2014khan   0.46700
gfz2014khlk   1.39260
gfz2014kkhh   0.68470
gfz2014kmmt   0.25770
gfz2014kndc  -0.19120
gfz2014knks   0.55320
gfz2014knxs   0.82410
gfz2014kscf   0.13940
gfz2014ksdv   1.28390
gfz2014ksmz  -0.13130
gfz2014kssw  -0.93630
gfz2014kwrg   1.20570
gfz2014kwwg  -1.02300
gfz2014kxqf   0.50640
gfz2014kyan  -0.70030
gfz2014kytf   0.31620
gfz2014lchy   1.66070
gfz2014ldhu   1.81320
gfz2014lefs   0.20730
gfz2014lgqn  -0.46830
gfz2014lhqn   0.30440
gfz2014ljbr   0.21680
gfz2014lkyf   0.49340
gfz2014lnqy   2.63020
gfz2014lpim  -0.79750
gfz2014lurd  -0.00000
gfz2014lvgn  -0.20340
gfz2014lwvb  -0.37130
gfz2014lxnc   0.42210
gfz2014lxqr   1.41530
gfz2014lyhk   0.33040
gfz2014lyhp   1.21530
gfz2014lynp   0.26780
gfz2014lzal  -0.53270
gfz2014macx   0.21740
gfz2014madw   0.22220
gfz2014mawp  -0.67300
gfz2014mcse   2.18560
gfz2014mden  -0.11760
gfz2014mhgg  -0.09440
gfz2014mlqw   0.38390
gfz2014mlrr   0.19570
gfz2014mmtb  -0.01590
gfz2014moaw   0.81390
gfz2014mogb   0.86870
gfz2014mtum   0.56180
gfz2014mvza   2.79580
gfz2014mwor  -0.06220
gfz2014nafd   0.86200
gfz2014navw  -0.43830
gfz2014ndue  -2.67010
gfz2014ngnd   1.02700
gfz2014ngsk   0.77880
gfz2014niqj  -0.16460
gfz2014nkdx  -0.11600
gfz2014nnih  -2.00620
gfz2014nnxd   0.61920
gfz2014nowp   1.13090
gfz2014npeo   0.47290
gfz2014nphm   0.29990
gfz2014nqbs  -2.29110
gfz2014nrie  -0.54020
gfz2014ntdh   0.85360
gfz2014nyeh   0.13530
gfz2014nyfb   0.88010
gfz2014nyko   2.12360
gfz2014nylm  -0.55860
gfz2014odgv   0.53560
gfz2014oims  -1.21780
gfz2014oinz  -0.02970
gfz2014ojdg   0.68330
gfz2014okec  -0.51840
gfz2014okjw   0.87540
gfz2014omyn   0.72060
gfz2014oqhw   0.46070
gfz2014orxs   0.17560
gfz2014oryw  -0.54820
gfz2014osvx  -0.01900
gfz2014owxc  -1.99450
gfz2014oxcc  -0.21640
gfz2014oyly  -1.17770
gfz2014pkll   0.50350
gfz2014ppyi   0.75180
gfz2014ppzf  -1.02170
gfz2014pqrc   0.21410
gfz2014pvch   0.87580
gfz2014pzni   0.14750
gfz2014qbzi   0.76740
gfz2014qdog   0.24420
gfz2014qfzq  -0.65230
gfz2014qjfl   1.77970
gfz2014qjgp  -0.30610
gfz2014raau  -1.41780
gfz2014rbsl   0.56570
gfz2014rdsn   0.65030
gfz2014rghp  -0.95790
gfz2014riel   0.37480
gfz2014rkwl   0.64270
gfz2014rnrn   0.09090
gfz2014royq  -1.02270
gfz2014rtcu   1.70420
gfz2014rucz  -2.23200
gfz2014sadu  -0.49480
gfz2014shid  -0.82840
gfz2014sjqw   0.91770
gfz2014sryn  -1.92610
gfz2014ssds   0.41550
gfz2014ssmv   0.42140
gfz2014ssvz  -1.70360
gfz2014swgt  -0.63790
gfz2014tabg  -1.73690
gfz2014tovs  -0.15730
gfz2014tqdo  -0.02200
gfz2014tqly  -0.64190
gfz2014tqsf  -0.75740
gfz2014tqth  -0.69370
gfz2014tzsd  -1.49150
gfz2014uapa  -2.03400
gfz2014ubwn   1.92050
gfz2014udgg   0.02120
gfz2014uohh  -0.11350
gfz2014utac  -0.76010
gfz2014uuqa   0.52250
gfz2014uuuf  -0.35800
gfz2014uvji   0.22180
gfz2014uvrk  -1.15270
gfz2014uxyg  -0.52420
gfz2014uyrq   0.59190
gfz2014uzaw   0.17670
gfz2014vcev  -0.21720
gfz2014veit   0.15060
gfz2014vhld  -0.74260
gfz2014vhms   0.13320
gfz2014vhuy   0.45870
gfz2014vjoz  -1.03020
gfz2014vqqa  -1.23090
gfz2014waoo  -0.98490
gfz2014watn  -0.09340
gfz2014wjko  -0.26540
gfz2014wmsc   0.30140
gfz2014wqcp  -1.46940
gfz2014wrkh   0.03370
gfz2014wwib  -1.38210
gfz2014xaxx  -1.31720
gfz2014xhkc   2.22880
gfz2014xjri  -0.33110
gfz2014xkdg  -1.17650
gfz2014xoji   0.04240
gfz2014xqby  -0.72090
gfz2014xqqd  -1.02140
gfz2014yhhm   0.76220
gfz2014ynhc   0.70120
gfz2014ynzy   0.26260
gfz2014yppv   0.33530
gfz2014yrug  -0.31860
gfz2014yula   0.60730
gfz2014zkys  -0.04110
gfz2014zlgp   0.34810
gfz2014zplq   0.10130
gfz2015abpw   1.70180
gfz2015apnk  -0.63190
gfz2015aqav   0.60020
gfz2015aqbq   0.98660
gfz2015arpd  -1.48500
gfz2015aruz   0.50950
gfz2015atxv   1.69650
gfz2015bdyd  -1.82310
gfz2015bfjm   0.68050
gfz2015bkbj  -0.30290
gfz2015bnho  -0.65640
gfz2015bphe  -0.71630
gfz2015bsnl   0.14610
gfz2015bucr  -2.48810
gfz2015bvsj   0.09950
gfz2015bvxx   0.10520
gfz2015byfn  -1.68190
gfz2015byjd  -0.34480
gfz2015bzej   0.44420
gfz2015cpuo  -2.88310
gfz2015cxhx   0.37800
gfz2015cxrc   0.27120
gfz2015czfv  -0.78320
gfz2015dizn   0.44780
gfz2015drlk  -0.17590
gfz2015dskr  -1.37000
gfz2015dvbn  -0.79830
gfz2015ecgq   0.68830
gfz2015ednc   1.73140
gfz2015eeyq  -1.71050
gfz2015eezy   0.42090
gfz2015egxq  -0.13150
gfz2015eiky   0.39710
gfz2015elgy   0.12910
gfz2015eljz  -0.81720
gfz2015emcg   0.80530
gfz2015enth  -2.33680
gfz2015esrj  -1.51870
gfz2015etai   0.68910
gfz2015evpl   1.14450
gfz2015fbbk  -1.01940
gfz2015fbew  -1.71740
gfz2015fcua  -0.00260
gfz2015fjhk  -1.04510
gfz2015fkgt  -0.06410
gfz2015fkic  -0.34650
gfz2015fkjs  -1.34870
gfz2015fkkd   2.09080
gfz2015fkuu   0.49010
gfz2015flis  -0.66950
gfz2015fpez   0.33210
gfz2015fsjj  -0.32940
gfz2015fvoi   0.83670
gfz2015fwkq   0.11290
gfz2015fwnf  -2.07860
gfz2015fxbv   0.67340
gfz2015fxdi  -0.09110
gfz2015fyvk   1.09320
gfz2015gckd  -0.15710
gfz2015ggjw  -0.18570
gfz2015gjbr   0.97700
gfz2015gkwa   0.02340
gfz2015gmgf   0.52900
gfz2015gwao   1.20010
gfz2015gzja  -0.39950
gfz2015hdbn   0.23530
gfz2015hdcp  -0.47460
gfz2015hepg   1.20270
gfz2015hgbk   0.13480
gfz2015hlqo   1.33740
gfz2015hpmk   0.00000
gfz2015hvgs   0.91690
gfz2015hwkv  -0.84940
gfz2015igsy  -0.77780
gfz2015ijmh   0.12260
gfz2015isim   0.05230
gfz2015iwqk  -1.76620
gfz2015ixyy  -0.83260
gfz2015jkdw   0.38750
gfz2015jpap  -0.73880
gfz2015jwgl   1.39360
gfz2015jxbx   0.32020
gfz2015jxjd   0.93650
gfz2015jzcv  -0.48120
gfz2015kakw  -0.15390
gfz2015kalm   0.36350
gfz2015kcaa   1.33740
gfz2015kkqb   0.64430
gfz2015kkth   0.09920
gfz2015kphk   1.33720
gfz2015kquq   0.17420
gfz2015ksni   0.84930
gfz2015kvwz   0.69180
gfz2015kxxs  -0.05790
gfz2015lbcg   1.30060
gfz2015lcma  -1.31680
gfz2015lcuo   0.49460
gfz2015lfma   0.08570
gfz2015lfos   0.24090
gfz2015lhjq  -1.34300
gfz2015lhjy   0.17500
gfz2015ltii   0.87070
gfz2015ltro  -0.86900
gfz2015lytv  -1.04610
gfz2015lzad   1.27230
gfz2015mbgr  -0.20830
gfz2015mddr   1.04440
gfz2015mfpy   0.06220
gfz2015mhym  -1.72900
gfz2015mpte   1.10770
gfz2015nbdc  -0.55850
gfz2015nerz  -0.40670
gfz2015nqgf   0.02050
gfz2015ntpk   1.00770
gfz2015nuxz  -0.32460
gfz2015nwug   0.50530
gfz2015ocdz   0.91600
gfz2015ocwr  -0.73940
gfz2015okmq   0.68060
gfz2015okpu  -0.04770
gfz2015omab   0.71050
gfz2015orkl   0.95930
gfz2015oumn   1.14730
gfz2015oyfl  -0.68610
gfz2015pcvt   0.82670
gfz2015pdri  -0.12250
gfz2015plal  -0.76560
gfz2015prlr   0.45930
gfz2015puah  -0.49190
gfz2015puqp   2.11780
gfz2015qafb  -1.17840
gfz2015qbme  -1.29770
gfz2015qnde  -0.95920
gfz2015qnho   0.66090
gfz2015qnlv   0.38210
gfz2015qnto  -0.07190
gfz2015qprd  -0.26140
gfz2015qpvd  -2.55290
gfz2015quzo  -1.52030
gfz2015qvxu  -1.93310
gfz2015rddx  -0.11620
gfz2015rgov  -0.82190
gfz2015rkbq   0.39220
gfz2015rkrg   0.71430
gfz2015rkzg  -2.06550
gfz2015rlnh   0.29930
gfz2015rpzn  -1.01930
gfz2015rtnv   0.22330
gfz2015rwsb  -0.99430
gfz2015rxmg   0.43250
gfz2015saet   0.63910
gfz2015sdeo   1.18520
gfz2015sdfy  -0.55180
gfz2015seuf  -0.22210
gfz2015sevh   0.16730
gfz2015sfdd   1.36000
gfz2015sfdy   2.18810
gfz2015sfeo   1.97450
gfz2015sffn   1.18150
gfz2015sfho   0.46540
gfz2015sfhz   1.66320
gfz2015sfiq   0.86400
gfz2015sfjf  -0.64580
gfz2015sfkh   1.13150
gfz2015sfko   0.35480
gfz2015sfkz   0.93370
gfz2015sflf   0.95400
gfz2015sfln   1.89150
gfz2015sfmd   1.39900
gfz2015sfno   0.92060
gfz2015sfnv   1.04060
gfz2015sfoc   0.91800
gfz2015sfoh   1.05780
gfz2015sfom   0.64910
gfz2015sfoq   2.56540
gfz2015sfpj   0.74170
gfz2015sfps   1.10960
gfz2015sfqo   0.99110
gfz2015sfqr   1.35820
gfz2015sfrc  -0.60320
gfz2015sfrf   0.91200
gfz2015sfrv  -0.50350
gfz2015sfsi  -0.31780
gfz2015sfte   0.30510
gfz2015sftu   0.28340
gfz2015sfuc   0.11180
gfz2015sfuz   0.71180
gfz2015sfwf   1.43810
gfz2015sfxn   3.12480
gfz2015sfzm   1.26130
gfz2015sgad   1.40010
gfz2015sgdj  -0.09160
gfz2015sgdn   1.12830
gfz2015sggc  -2.16790
gfz2015sghq   0.35360
gfz2015sgie  -0.45060
gfz2015sglg   0.51060
gfz2015sgmm   0.59130
gfz2015sgmr   2.00820
gfz2015sgna   2.05100
gfz2015sgoa  -0.73150
gfz2015sgpu  -0.37350
gfz2015sguf   1.41190
gfz2015sgyd   1.19470
gfz2015shaq   1.04680
gfz2015shel   0.82820
gfz2015shhg   1.19780
gfz2015shhu   0.38910
gfz2015shjn   1.16070
gfz2015shlp  -0.22040
gfz2015shqc   0.19740
gfz2015shqe  -0.64390
gfz2015shrg  -0.02110
gfz2015shsb   0.66790
gfz2015shsz  -0.14780
gfz2015sicf   0.85030
gfz2015sicu   0.45420
gfz2015siky   0.58500
gfz2015sing  -0.13840
gfz2015siof   0.11630
gfz2015sist   0.29760
gfz2015sitn   1.36510
gfz2015sixi   1.62110
gfz2015siyy   0.13040
gfz2015sjbx   0.64800
gfz2015sjeq  -0.47140
gfz2015sjfi   1.55540
gfz2015sjgk  -0.45620
gfz2015sjjb   0.30230
gfz2015sjne  -0.11200
gfz2015sjoj   1.82800
gfz2015sjpn   0.72690
gfz2015sjtz  -1.93480
gfz2015sjvu   1.89910
gfz2015sjwi   0.52310
gfz2015skab  -0.48920
gfz2015skgj   0.43520
gfz2015skia   0.54620
gfz2015skpv   0.65160
gfz2015skuk   0.83500
gfz2015sldx  -0.14180
gfz2015sljs  -0.72550
gfz2015slun   1.12600
gfz2015smgj   0.59160
gfz2015smym   0.64260
gfz2015snhn   0.54410
gfz2015snmg   2.17240
gfz2015snmr   1.09620
gfz2015snwh   0.40520
gfz2015snyd   1.04750
gfz2015soat   0.80900
gfz2015solh   0.53960
gfz2015sopc   1.02230
gfz2015soxc   0.43920
gfz2015sozw   0.36110
gfz2015spal   0.05520
gfz2015sqbg   1.12640
gfz2015sqmy   0.76920
gfz2015sqoz  -0.80810
gfz2015srat   0.80150
gfz2015sryk   0.65050
gfz2015ssaf   1.12200
gfz2015ssoe  -0.06040
gfz2015sspn   0.79650
gfz2015ssrl   0.75980
gfz2015stas  -1.00870
gfz2015stfy   1.44610
gfz2015stso   1.12270
gfz2015subz   0.23860
gfz2015sudm   1.42650
gfz2015svjy   1.12130
gfz2015svwm   0.80140
gfz2015swgn   1.25560
gfz2015sxgd   0.59710
gfz2015sxmh   1.56240
gfz2015sxxu   1.27400
gfz2015sydc   0.51630
gfz2015szcb   1.15720
gfz2015szfe   0.80730
gfz2015szfq   1.32960
gfz2015sztx   0.61540
gfz2015taml  -1.05940
gfz2015tbdn  -1.15910
gfz2015tbje   0.40950
gfz2015tcem   0.34180
gfz2015tdbb  -0.05290
gfz2015tdcu   0.45310
gfz2015tdhb  -0.51930
gfz2015teje   0.43400
