# Nsamples: 184  MAD:  0.670  mean: -1.412  variance:  0.849
gfz2010eaoy   0.13740
gfz2010eaqy  -2.09000
gfz2010earu  -0.42690
gfz2010eawu  -1.72550
gfz2010ebhc  -1.17440
gfz2010eisx   0.91710
gfz2010ekyc  -2.32290
gfz2010elyc   0.07820
gfz2010eruy  -1.08450
gfz2010excp   0.23780
gfz2010exdd  -1.10680
gfz2010ezck  -1.45170
gfz2010fqdu  -2.99110
gfz2010ftlm  -2.11410
gfz2010fync  -2.96160
gfz2010iull  -1.45590
gfz2010lfju  -1.54500
gfz2010nmpc  -1.84830
gfz2010nwef  -1.45340
gfz2010onma  -1.89100
gfz2011aatr  -1.73600
gfz2011eazf  -1.75370
gfz2011edmm  -1.66300
gfz2011enva  -1.81470
gfz2011flgj  -1.33830
gfz2011fnsw  -2.34010
gfz2011gkzt  -1.80010
gfz2011hlqw  -1.44370
gfz2011hlsa  -1.78790
gfz2011lcxq  -1.26480
gfz2011lvjr  -1.83800
gfz2011lzwj  -0.90410
gfz2011mjom  -0.51630
gfz2011vhfi  -1.56880
gfz2011vrhg  -2.25270
gfz2011wxfs  -1.19400
gfz2012byad  -1.58270
gfz2012cgvr  -1.86580
gfz2012czlw  -0.64010
gfz2012dyyh  -1.48770
gfz2012ekda  -1.58140
gfz2012emjg  -1.63280
gfz2012enno  -1.88640
gfz2012ewgo  -1.59780
gfz2012ewkj   1.60200
gfz2012gomm  -1.91750
gfz2012hnul   0.62740
gfz2012jlox  -1.79420
gfz2012jupx  -0.87400
gfz2012kbjb  -0.95120
gfz2012kkup  -1.08380
gfz2012kudo  -1.89540
gfz2012ldxg  -1.40610
gfz2012ldzj   1.81000
gfz2012minr  -1.40590
gfz2012nqnk  -2.76170
gfz2012nsbz  -1.80270
gfz2012sphd  -0.69450
gfz2013btjm  -1.78090
gfz2013ccnr  -3.14370
gfz2013dojq  -0.91320
gfz2013drxz  -2.32610
gfz2013dsog  -0.17590
gfz2013dspt  -1.06510
gfz2013dsrk  -2.63850
gfz2013fcto   0.11230
gfz2013fygc  -2.62370
gfz2013gbst  -1.66200
gfz2013gmor  -1.74070
gfz2013gvdb   0.87190
gfz2013hxcx  -0.78480
gfz2013jgij  -2.41700
gfz2013jgip  -0.33340
gfz2013jkut  -1.22260
gfz2013jwvc  -0.27630
gfz2013kdeo  -2.07460
gfz2013ldqb  -1.33790
gfz2013nixj  -0.59590
gfz2013nwdi  -1.48030
gfz2013ornz  -1.63910
gfz2013svci  -1.64370
gfz2013vjjc  -2.54950
gfz2013xsdt  -0.88730
gfz2013yqkv  -0.26650
gfz2014afmx  -2.42300
gfz2014algk  -1.56470
gfz2014bfng  -1.74970
gfz2014bldx  -2.18850
gfz2014bwue  -1.65430
gfz2014chdv  -4.01120
gfz2014ctot  -1.83520
gfz2014czqi  -1.50490
gfz2014dffd  -2.27510
gfz2014duqn  -1.52420
gfz2014fedd  -2.20110
gfz2014fgvi  -0.87790
gfz2014fhla  -0.83920
gfz2014fhrq  -2.61550
gfz2014fkmr  -1.15940
gfz2014frdz  -1.25710
gfz2014frez  -0.92160
gfz2014ftka  -2.46190
gfz2014ftoc  -2.38770
gfz2014furx  -1.10360
gfz2014fusj  -1.71090
gfz2014fval  -1.96250
gfz2014fvrg  -1.59210
gfz2014fwtt  -0.82280
gfz2014ghpe  -1.90220
gfz2014gkgf  -0.41140
gfz2014gkhp   3.24240
gfz2014gkhy  -2.36490
gfz2014gkob   1.22390
gfz2014gkqf  -1.24440
gfz2014gksu  -0.41350
gfz2014gktq  -0.88200
gfz2014glcu  -2.62780
gfz2014gltx  -1.57280
gfz2014gmge  -2.05830
gfz2014gmhr  -1.59200
gfz2014gmip  -0.46100
gfz2014gmnb  -1.99280
gfz2014gmnw  -1.30980
gfz2014gmor  -0.85600
gfz2014gmzl  -2.42020
gfz2014gnfd  -1.10260
gfz2014goba  -2.05820
gfz2014goqw  -1.94440
gfz2014gqer  -0.59610
gfz2014gqve  -2.13420
gfz2014grho  -0.31990
gfz2014gsqs  -1.03750
gfz2014gull  -0.87530
gfz2014gwab  -1.00210
gfz2014gxxo  -2.33830
gfz2014hasj  -2.03350
gfz2014hcmj  -2.21740
gfz2014hfhl  -0.42500
gfz2014hgqo  -1.85980
gfz2014hjgr  -1.70510
gfz2014hkcf  -1.28880
gfz2014hocg  -1.78190
gfz2014hphw  -2.12190
gfz2014hqxs  -2.07700
gfz2014huaj  -1.01880
gfz2014hyvq  -1.45490
gfz2014issk  -1.61080
gfz2014itkw  -1.51880
gfz2014itpj  -1.28440
gfz2014jcmt  -1.14480
gfz2014jjhc  -1.33460
gfz2014jnyv  -1.54590
gfz2014lbcq  -2.12050
gfz2014lgqn  -1.38620
gfz2014lxnc   1.46820
gfz2014macx  -1.73780
gfz2014madw  -1.69310
gfz2014nqfm  -1.37670
gfz2014nrie  -1.40550
gfz2014pvch  -1.03240
gfz2014qlxd  -1.24660
gfz2014rnrn  -1.33630
gfz2014ssvz  -2.00770
gfz2015aruz  -2.06090
gfz2015bkbj  -2.53900
gfz2015chhn  -3.09210
gfz2015cxxk  -1.26250
gfz2015cyjd  -1.85850
gfz2015dvbn  -1.95660
gfz2015ednc  -0.24140
gfz2015eiky  -1.40640
gfz2015fjhk  -1.41180
gfz2015fsjj  -1.19780
gfz2015gckd  -2.05740
gfz2015hgbk  -1.65450
gfz2015kquq  -1.45350
gfz2015kxxs  -1.06360
gfz2015lhjy  -1.20270
gfz2015lytv  -2.08710
gfz2015mpte  -1.75090
gfz2015okmq  -1.20350
gfz2015sfdd  -1.58680
gfz2015snwh  -2.19380
gfz2015soxc  -1.59690
