# Nsamples: 234  MAD:  0.785  mean: -0.765  variance:  1.308
gfz2010eaoy  -0.16250
gfz2010eapk  -1.00410
gfz2010eapn   0.07780
gfz2010eaqe  -0.37490
gfz2010eaqx  -0.97280
gfz2010eaqy  -0.55640
gfz2010earq  -0.82390
gfz2010earu  -0.12760
gfz2010easf   1.04390
gfz2010eask  -2.17180
gfz2010easo  -0.43480
gfz2010easu  -0.23570
gfz2010eati  -0.18560
gfz2010eato  -0.30430
gfz2010eaul  -0.44410
gfz2010eavs  -1.19140
gfz2010eawu  -2.20040
gfz2010eaxa  -2.03320
gfz2010eaxn   0.92380
gfz2010eayd  -2.11440
gfz2010eaze   0.94610
gfz2010eazu   0.81410
gfz2010ebdl  -0.54690
gfz2010ebfa   0.14070
gfz2010ebhc  -2.37040
gfz2010ebih  -1.44610
gfz2010ebin  -3.22610
gfz2010ebiv  -0.55290
gfz2010ebjy  -0.27510
gfz2010ebkj  -1.69200
gfz2010ebla  -0.04260
gfz2010ebll  -0.75000
gfz2010ebmb  -1.24890
gfz2010ebmi  -1.00250
gfz2010ebnn  -0.12020
gfz2010ebvm  -4.60870
gfz2010ebvv  -2.79900
gfz2010ebwp  -0.49200
gfz2010ebzk  -2.24990
gfz2010ebzr  -0.02310
gfz2010ecay   0.28840
gfz2010echy  -0.85130
gfz2010ecps   0.33650
gfz2010ecsp   0.57670
gfz2010ecua  -0.53900
gfz2010ecvt  -1.75680
gfz2010edbz  -0.82730
gfz2010edcp   4.01830
gfz2010edkp  -1.16180
gfz2010edvf  -0.41370
gfz2010edyi   5.05660
gfz2010eeij  -1.80070
gfz2010eevu  -0.35180
gfz2010egld  -1.28670
gfz2010egqh  -1.12850
gfz2010eisx  -0.29740
gfz2010elhv  -1.16710
gfz2010eltf  -0.28770
gfz2010elyc  -0.52170
gfz2010epxj   0.11630
gfz2010erom  -0.63960
gfz2010evco  -1.40020
gfz2010excp  -0.97870
gfz2010exdd  -0.96160
gfz2010exdl  -1.12510
gfz2010exgb  -1.29870
gfz2010exjw  -0.57930
gfz2010exmc  -1.60620
gfz2010exno  -0.74060
gfz2010exsg   0.19070
gfz2010ezck   0.11030
gfz2010fedq  -0.48700
gfz2010ffhq  -0.37140
gfz2010ffjb  -0.03570
gfz2010fjmu  -5.47900
gfz2010fpqy  -0.85230
gfz2010fync  -0.39860
gfz2010gcrl  -0.23880
gfz2010grjd   0.35640
gfz2010hrpr  -1.21400
gfz2010hxgv  -0.47250
gfz2010icqq  -0.93400
gfz2010iibf   0.70510
gfz2010iobp  -0.91680
gfz2010iqnm  -2.06220
gfz2010iull  -1.03240
gfz2010jxbm  -1.16090
gfz2010lepw  -0.74590
gfz2010lrlk   0.68890
gfz2010mncc  -1.03480
gfz2010ncrl  -0.55710
gfz2010nmpc  -0.80740
gfz2010nqwf  -0.65470
gfz2010nqwo  -1.06900
gfz2010nxum  -0.68940
gfz2010pmqd  -0.92650
gfz2010pxgh  -2.00960
gfz2010rqwj  -0.99720
gfz2010upfb  -0.29160
gfz2010utcg  -0.75100
gfz2010xgzw  -0.03280
gfz2011aatr  -0.71550
gfz2011adjs  -0.15360
gfz2011alip  -2.69710
gfz2011csju   1.34350
gfz2011cykd  -0.57800
gfz2011cyuk   1.42930
gfz2011dcqb   0.24950
gfz2011enva  -0.11860
gfz2011gbmx  -0.70580
gfz2011gkzt  -2.18330
gfz2011hlqw  -0.85900
gfz2011hlsa  -1.02140
gfz2011jplh  -1.86120
gfz2011kqwo  -1.50070
gfz2011kxzp  -0.55660
gfz2011lzwj  -0.72090
gfz2011mdie  -1.07260
gfz2011mpme  -0.65530
gfz2011nudm  -1.30980
gfz2011ohcy   0.03720
gfz2011olkk  -0.72190
gfz2011owvz  -0.74080
gfz2011rewa  -0.91580
gfz2011rgwp  -0.69500
gfz2011sagt   0.39640
gfz2011tbas  -1.68870
gfz2011tkfp  -0.05200
gfz2011toub  -2.24050
gfz2011ujze  -2.40130
gfz2011uphh  -2.52720
gfz2011vhfi  -0.78190
gfz2011vrhg  -2.73040
gfz2011vxns  -1.26690
gfz2011wxfs  -0.77420
gfz2011xyxj   0.14400
gfz2012aqgp  -0.77780
gfz2012bpkx  -1.28170
gfz2012bpwl  -1.13320
gfz2012cxdn  -1.27050
gfz2012ekda  -1.53420
gfz2012enno  -0.96300
gfz2012fzfa  -0.47190
gfz2012hnul   0.90270
gfz2012rwko  -0.33180
gfz2012rwov  -2.10100
gfz2012wklq  -1.66940
gfz2012wtkr  -1.90290
gfz2012wxlg  -1.71380
gfz2012wypz  -1.59810
gfz2012zitl  -1.19350
gfz2013ccnr  -1.66430
gfz2013cvqg  -0.66470
gfz2013enbx  -2.34760
gfz2013ikgo  -1.59090
gfz2013ilug  -1.91780
gfz2013jgip   0.11820
gfz2013jusj  -0.52800
gfz2013lyko  -0.35990
gfz2013nwdi  -0.19220
gfz2013pfbx  -1.81170
gfz2013vfyw   0.32510
gfz2013vfzp   3.45120
gfz2013vjjc  -0.80800
gfz2013wjmm  -0.51070
gfz2013xsdt  -1.36710
gfz2013yqkv  -0.89710
gfz2014afmx  -1.14000
gfz2014ande   0.02100
gfz2014arnc   1.04100
gfz2014bekc  -2.06150
gfz2014bwue  -1.13780
gfz2014fgvi   0.00180
gfz2014fhla   2.61730
gfz2014frdz  -1.73150
gfz2014ftka  -1.62720
gfz2014furx   0.85670
gfz2014fusj  -0.75630
gfz2014fval  -0.50920
gfz2014fvrg  -0.66500
gfz2014gbcz   2.53350
gfz2014gkgf  -0.98690
gfz2014gmge   1.02300
gfz2014gmhr  -2.34800
gfz2014gmnb  -0.19160
gfz2014goba  -0.05740
gfz2014grcv  -2.14930
gfz2014gull  -1.58780
gfz2014gxvf  -1.01640
gfz2014hasj  -1.57750
gfz2014hocg  -0.47150
gfz2014hscz  -1.54820
gfz2014hzfw  -1.60630
gfz2014inbj  -0.85720
gfz2014lxnc  -0.97800
gfz2014pvch  -0.29110
gfz2014qngj  -0.92950
gfz2014ssvz  -2.73240
gfz2014szzf  -1.75280
gfz2014tqdo  -2.78570
gfz2015chhn  -1.73760
gfz2015cyjd  -2.49230
gfz2015fkgt  -1.15700
gfz2015fsjj  -1.92450
gfz2015gckd  -1.86300
gfz2015kkth  -0.58210
gfz2015lhjy   0.34120
gfz2015lytv  -1.01880
gfz2015ntpk   0.11640
gfz2015poni  -1.09630
gfz2015qnho  -0.68570
gfz2015sfdd  -0.72540
gfz2015sfdy   0.14440
gfz2015sfnb   1.32780
gfz2015sfno  -0.84920
gfz2015sfnv  -0.36880
gfz2015sfoc  -1.89670
gfz2015sfoh  -0.65190
gfz2015sjgk  -0.37740
gfz2015sjoj  -0.05680
gfz2015sjvu  -0.64160
gfz2015sjwi  -1.29310
gfz2015skxu  -0.42980
gfz2015slun  -0.22340
gfz2015smym  -0.38930
gfz2015snwh  -0.77310
gfz2015snyd  -0.23340
gfz2015soat  -0.19900
gfz2015soxc  -0.90340
gfz2015ssoe  -0.34730
gfz2015stso  -0.51270
gfz2015svwm  -0.81510
gfz2015szcb  -0.04680
gfz2015taml  -2.46700
