# Nsamples: 272  MAD:  1.258  mean: -0.642  variance:  2.034
gfz2010ahqi   0.15390
gfz2010bfzs  -1.13260
gfz2010bjeb  -0.50320
gfz2010bxxs  -2.09330
gfz2010caft   0.66230
gfz2010cbkg  -2.09880
gfz2010civi   0.23860
gfz2010cqwl  -1.41200
gfz2010ddzo  -1.78050
gfz2010eaoy  -0.63910
gfz2010eaqe   2.11920
gfz2010eaqx  -1.05880
gfz2010eaqy  -0.44280
gfz2010earu   0.66430
gfz2010easf  -0.95240
gfz2010easo  -1.26330
gfz2010eavs  -0.67050
gfz2010eawb   0.57270
gfz2010eawu  -0.30740
gfz2010eazu   0.55240
gfz2010ebhc  -2.25670
gfz2010ebin  -2.03130
gfz2010ebjy  -0.19500
gfz2010ebkj   0.55840
gfz2010ebla  -1.72200
gfz2010ebll   0.63650
gfz2010ebmb  -1.62770
gfz2010ebnn   1.06630
gfz2010ebrm  -1.11080
gfz2010ebvm  -1.43170
gfz2010ebvv  -1.70220
gfz2010ebwp   0.28270
gfz2010ebzr  -0.75270
gfz2010ecay   1.91720
gfz2010eccq   1.18520
gfz2010ecfx  -0.89810
gfz2010echc  -1.54180
gfz2010echy  -1.93840
gfz2010ecps  -0.32690
gfz2010ecua  -0.87520
gfz2010edat   2.04700
gfz2010edvf   0.29350
gfz2010edyi   4.45790
gfz2010eegn  -2.71480
gfz2010eeij   0.90640
gfz2010eevu  -0.74640
gfz2010egld  -1.06100
gfz2010eisx  -1.10580
gfz2010eixj  -1.46600
gfz2010ejjg  -0.63340
gfz2010ekoe   0.31230
gfz2010ekyc  -3.15660
gfz2010elhv  -0.65890
gfz2010eltf  -1.36150
gfz2010elyc  -0.48470
gfz2010eqmu   5.15580
gfz2010erkn   0.78160
gfz2010erom  -0.12480
gfz2010eruy   3.15730
gfz2010eujm   0.85490
gfz2010evco   0.33460
gfz2010excp  -0.69480
gfz2010exdd  -0.71050
gfz2010exdl  -1.05940
gfz2010exno  -1.50740
gfz2010ezck  -1.12220
gfz2010fczt  -1.15730
gfz2010fedq  -0.17730
gfz2010ffhq  -1.83750
gfz2010ffjb   1.00340
gfz2010fika  -1.81850
gfz2010flha   1.41690
gfz2010fpqy   0.14660
gfz2010fync  -1.37010
gfz2010gcrl  -0.78660
gfz2010gdld   0.31200
gfz2010glxl   0.03560
gfz2010grjd   0.52330
gfz2010hbka   0.55810
gfz2010homc  -0.72670
gfz2010hrpr   0.82230
gfz2010hxgv  -1.43510
gfz2010iobp  -0.55660
gfz2010iqnm  -1.60700
gfz2010iull  -1.91040
gfz2010jxbm   0.02110
gfz2010kdyc  -2.11790
gfz2010lrlk   0.21780
gfz2010ncrl  -1.58750
gfz2010nmpc  -0.61020
gfz2010nqwo  -0.18710
gfz2010nwef  -0.27550
gfz2010onma   0.08460
gfz2010pcxi   0.23210
gfz2010pfyu  -2.45260
gfz2010rkfp   0.43690
gfz2010rqwj  -0.79660
gfz2010sfee   0.72450
gfz2010srdb   0.49980
gfz2010upfb  -0.65820
gfz2010usho   1.75160
gfz2010ustq   0.00000
gfz2010utcg  -0.57590
gfz2010xgzw   1.48010
gfz2010yjev   4.09110
gfz2011aatr  -1.35010
gfz2011adjs  -0.33850
gfz2011cykd  -1.67310
gfz2011dcqb  -2.53550
gfz2011dpqx  -2.72870
gfz2011eayc  -1.25420
gfz2011enva  -2.36520
gfz2011gcwb   2.07190
gfz2011gkzt  -2.61400
gfz2011hlqw   0.20110
gfz2011hlsa  -1.30550
gfz2011ieie   0.00000
gfz2011jplh  -2.05960
gfz2011jtlg   0.15060
gfz2011kqwo   1.65970
gfz2011kxzp  -1.30980
gfz2011lcxq  -2.55200
gfz2011lzwj  -0.69830
gfz2011nrwc   3.00570
gfz2011ntkh  -2.26420
gfz2011nudm  -1.26700
gfz2011ohcy  -2.38020
gfz2011olkk  -1.12830
gfz2011ornx   0.24700
gfz2011owvz   0.05690
gfz2011rewa  -1.22900
gfz2011rgwp   1.72340
gfz2011sagt   0.02400
gfz2011tbas  -0.15120
gfz2011tkog   0.17320
gfz2011toub  -3.00730
gfz2011ujze  -3.48030
gfz2011uphh  -3.15500
gfz2011urzu   3.86890
gfz2011vxns  -0.94370
gfz2011wxfs  -0.75290
gfz2012aqgp  -0.30450
gfz2012bpkx  -2.03640
gfz2012byad   3.42020
gfz2012cxdn  -0.68040
gfz2012ekda  -3.08300
gfz2012enno  -1.44330
gfz2012fzfa  -0.03550
gfz2012hnul  -0.40970
gfz2012jgvj  -0.90430
gfz2012jlox  -2.72240
gfz2012jupx  -3.69360
gfz2012kkup  -1.33880
gfz2012klhx   0.81510
gfz2012kudo  -1.89170
gfz2012ldxg  -2.08280
gfz2012mwij  -0.22650
gfz2012uafg  -1.28700
gfz2012vrgb  -1.26920
gfz2012wklq  -1.61250
gfz2012wvfl   0.13770
gfz2012wxer  -1.27450
gfz2012wxlg  -1.08990
gfz2012wxnu  -1.32170
gfz2012wypz  -1.20560
gfz2012zitl  -2.22940
gfz2013axoj  -1.71200
gfz2013ccnr  -2.04030
gfz2013cwpn  -1.11760
gfz2013drxz  -2.05040
gfz2013ifpq  -1.04040
gfz2013ikgo  -1.15440
gfz2013ippu  -0.75040
gfz2013jgip   0.87280
gfz2013jkut  -0.56400
gfz2013jusj   0.91660
gfz2013ldqb  -1.80880
gfz2013lyko  -0.61530
gfz2013mqmv  -0.77820
gfz2013mwbh  -1.29120
gfz2013nkgj  -0.79250
gfz2013nwdi  -0.10810
gfz2013ornz  -2.22790
gfz2013qzdq  -0.83280
gfz2013svci  -0.57180
gfz2013tusd  -2.23360
gfz2013vfzp   3.01730
gfz2013vjjc   0.27990
gfz2013wjmm   1.60620
gfz2013xsdt  -1.45480
gfz2013yqkv  -2.73510
gfz2014afmx  -0.21290
gfz2014bmta   1.56370
gfz2014bwue  -1.27090
gfz2014czua  -0.09050
gfz2014dddc  -0.38860
gfz2014ekcr  -0.98660
gfz2014enhi  -0.32390
gfz2014femz  -0.63160
gfz2014fgvi  -1.00980
gfz2014fhla  -0.01350
gfz2014fkmr  -0.64970
gfz2014frdz   1.78180
gfz2014frel  -1.64080
gfz2014frez  -0.89600
gfz2014ftka  -1.98340
gfz2014furx   2.64570
gfz2014fusj   1.37010
gfz2014fval  -1.44570
gfz2014fvgh  -1.37440
gfz2014fvrg   1.48150
gfz2014gbcz   2.10990
gfz2014ghpe  -2.99110
gfz2014gkgf  -1.88230
gfz2014gkhy  -0.16600
gfz2014gkjl  -1.41360
gfz2014gkqf  -0.80020
gfz2014gmge   0.07760
gfz2014gmhr  -1.50290
gfz2014gmnb  -1.52470
gfz2014goba  -1.24700
gfz2014gqer  -0.06080
gfz2014gull  -1.81520
gfz2014hasj   0.03600
gfz2014hbqb  -0.14780
gfz2014hjgr  -0.16550
gfz2014hocg  -1.55730
gfz2014hzfw   0.03530
gfz2014inbj   0.19320
gfz2014itkw  -1.38500
gfz2014jpep  -1.12290
gfz2014jwmh  -1.65900
gfz2014ldhu  -0.18630
gfz2014lgqn  -0.63740
gfz2014lxnc   0.90830
gfz2014lyhk   0.92940
gfz2014macx  -1.42390
gfz2014madw  -2.25140
gfz2014nqfm  -1.43290
gfz2014nrie  -0.41340
gfz2014oinz  -2.16710
gfz2014pvch  -1.09500
gfz2014qdog   0.55110
gfz2014qlxd  -1.95410
gfz2014qngj  -1.85460
gfz2014qqhm   2.76240
gfz2014ssvz  -2.95070
gfz2014tqdo  -1.85110
gfz2014uvji  -3.09690
gfz2014vhld  -1.94350
gfz2015berb  -1.94080
gfz2015chhn  -2.02170
gfz2015cxxk  -0.25820
gfz2015cyjd  -2.96820
gfz2015dvbn   0.39020
gfz2015elgy  -1.25170
gfz2015fjhk  -1.83690
gfz2015fkgt  -1.66330
gfz2015fsjj  -2.35700
gfz2015gckd  -2.01940
gfz2015jzcv  -1.04020
gfz2015kkth  -0.21910
gfz2015lhjy  -1.35710
gfz2015lytv  -2.16080
gfz2015mpte   0.41160
gfz2015oyfl   0.30620
gfz2015qnho  -1.10930
gfz2015rddx  -2.04800
gfz2015svwm  -1.23660
gfz2015szcb  -2.05310
gfz2015taml  -1.15920
gfz2015tbje  -0.72470
