# Nsamples: 23  MAD:  0.490  mean:  0.522  variance:  0.299
gfz2010bowy   0.40340
gfz2010bxxs   0.93550
gfz2010grjd   0.85880
gfz2013kdeo   1.14610
gfz2013nwdi  -1.26630
gfz2013svci   0.97910
gfz2014bwue   0.36760
gfz2014fgvi   0.97910
gfz2014fhla  -0.18570
gfz2014ftka  -0.01010
gfz2014fval   0.40630
gfz2014gkgf   0.12090
gfz2014gkqf   0.52850
gfz2014gmnb   0.77090
gfz2014goba   0.35390
gfz2014gull   1.44920
gfz2014jjhc   0.36680
gfz2014jpep   0.54780
gfz2014nqfm   0.28560
gfz2014qqhm   0.95880
gfz2014ssvz   0.37530
gfz2014ubwn   1.10430
gfz2015cyjd   0.53470
