# Nsamples: 25  MAD:  0.817  mean:  0.301  variance:  1.254
gfz2010bxxs   0.30560
gfz2010grjd  -0.46530
gfz2010iull   0.08550
gfz2011aatr  -0.01760
gfz2011enva  -0.47180
gfz2012rcbq   3.76960
gfz2012vrgb   0.90560
gfz2012wypz  -0.03700
gfz2013jkut   0.68390
gfz2013kdeo   1.08740
gfz2013svci   0.30620
gfz2014bwue  -0.73350
gfz2014fgvi   0.25470
gfz2014fhla   1.98300
gfz2014ftka  -0.26120
gfz2014gkgf  -0.23190
gfz2014gkqf  -0.09020
gfz2014goba  -0.02280
gfz2014nqfm  -1.39160
gfz2014qlxd  -2.16380
gfz2014ssvz   1.38140
gfz2015cyjd   0.29040
gfz2015lhjy  -0.02100
gfz2015sfdd   0.87740
gfz2015taml   1.49970
