# Nsamples: 34  MAD:  0.289  mean: -0.227  variance:  1.944
gfz2010bxxs   0.66220
gfz2010ebhc   0.17050
gfz2010grjd  -0.87760
gfz2010nmpc   0.20170
gfz2010usho  -0.20280
gfz2011gkzt  -0.07760
gfz2011hlsa  -0.01670
gfz2011lcxq   0.06890
gfz2011lzwj   0.28130
gfz2011toub   0.06220
gfz2011wxfs   0.06600
gfz2012jlox  -0.03000
gfz2012vrgb   0.53130
gfz2012wypz   0.35970
gfz2013kdeo  -0.05310
gfz2013svci   0.78010
gfz2013uauo   1.10180
gfz2014afmx   0.84470
gfz2014ande   0.16430
gfz2014bwue  -0.35120
gfz2014fgvi   0.77320
gfz2014fkmr   0.18230
gfz2014frwh  -5.78470
gfz2014ftka  -3.63460
gfz2014fval  -0.01810
gfz2014gkgf   0.29530
gfz2014gkjt  -0.21900
gfz2014goba   0.18090
gfz2014hasj   0.26250
gfz2014macx   0.18490
gfz2014nqfm   0.31240
gfz2014oinz  -0.34880
gfz2014ubwn   0.32540
gfz2015dvbn  -3.93000
