# Nsamples: 36  MAD:  0.546  mean: -0.620  variance:  1.659
gfz2010ftlm  -0.72520
gfz2010iull  -0.63210
gfz2010xden   1.62360
gfz2011aatr  -1.60680
gfz2011enva  -0.33190
gfz2011lcxq  -0.55030
gfz2011wxfs  -0.47340
gfz2012enno  -0.59650
gfz2012jlox  -0.55900
gfz2012kudo  -0.95950
gfz2012ldxg  -1.30820
gfz2013jkut  -0.66860
gfz2013mqmv  -1.93530
gfz2013nwdi  -0.13580
gfz2013svci  -1.01130
gfz2013ypdc  -0.33600
gfz2013yqkv  -1.23640
gfz2014afmx  -0.33920
gfz2014fgvi  -0.18360
gfz2014fhla  -1.10520
gfz2014fqpz  -3.01400
gfz2014ftka  -0.41180
gfz2014fvrg  -1.06880
gfz2014ghpe  -1.33490
gfz2014gkgf  -2.55240
gfz2014gkqf  -0.05820
gfz2014glgo   5.41460
gfz2014gmhr  -0.92370
gfz2014gmnw  -0.26020
gfz2014goba  -1.08340
gfz2014gull  -0.47260
gfz2014hgqo  -0.91500
gfz2014nrie  -1.26260
gfz2015fsjj   0.68660
gfz2015gckd  -1.04680
gfz2015lhjy  -0.95170
