# Nsamples: 39  MAD:  0.868  mean: -0.286  variance:  0.510
gfz2011aatr  -1.04220
gfz2011enva   0.57840
gfz2011lcxq  -0.85430
gfz2011lzwj   0.11160
gfz2011wxfs  -0.16900
gfz2012dyyh  -0.49350
gfz2012jlox  -0.57400
gfz2012kudo  -0.37890
gfz2013nwdi  -0.90350
gfz2013svci  -0.99650
gfz2013vjjc   1.67490
gfz2014bwue  -1.03080
gfz2014fgvi   0.12960
gfz2014fhla  -1.53740
gfz2014frdz   0.03460
gfz2014frez   0.78840
gfz2014ftka  -1.12640
gfz2014fval  -1.15040
gfz2014ghpe  -0.91780
gfz2014gkgf  -0.33690
gfz2014gkqf   0.52450
gfz2014gltx   0.35330
gfz2014gmge   0.41220
gfz2014gmhr  -1.81070
gfz2014gmnb  -0.89410
gfz2014gmnw  -0.35980
gfz2014goba  -0.09810
gfz2014gsqs   0.85080
gfz2014gull   0.19330
gfz2014gxxo   0.65880
gfz2014hasj   0.08780
gfz2014hjgr  -0.10640
gfz2014itkw   0.06710
gfz2015cyjd  -0.99010
gfz2015fsjj  -0.26390
gfz2015gckd  -0.26850
gfz2015lhjy  -0.27090
gfz2015sfdd  -0.21490
gfz2015snwh  -0.84090
