# Nsamples: 42  MAD:  0.425  mean:  0.059  variance:  0.587
gfz2010ahqi  -0.08530
gfz2010bxxs   0.68240
gfz2010cqwl   0.33760
gfz2010ebhc   0.04590
gfz2010iull   0.16890
gfz2010nmpc  -0.44920
gfz2010nwef   0.69380
gfz2010usho   0.71650
gfz2011aatr   0.10800
gfz2011dpqx  -0.06490
gfz2011enva  -0.23980
gfz2011gkzt  -1.29100
gfz2011hlqw   0.21290
gfz2011hlsa  -0.02940
gfz2011jplh  -0.59360
gfz2011lcxq  -0.16740
gfz2011lzwj   0.26840
gfz2011mdie   0.33050
gfz2011rewa  -0.61930
gfz2011toub   0.30670
gfz2011wxfs  -0.04330
gfz2013ldqb   2.79020
gfz2013nwdi  -0.72970
gfz2013pfbx  -0.59190
gfz2013svci  -0.27410
gfz2014bwue  -0.18210
gfz2014fgvi   0.36940
gfz2014fhla   0.35110
gfz2014gkgf  -0.75530
gfz2014gkqf  -1.08830
gfz2014gmhr   1.47930
gfz2014gutm  -2.35930
gfz2014ssvz   0.59900
gfz2015cyjd   0.05750
gfz2015fsjj   0.36470
gfz2015lhjy   0.40330
gfz2015sfdd   0.07360
gfz2015sfdy   0.77410
gfz2015smym   0.51650
gfz2015snwh   0.28030
gfz2015svwm   0.02290
gfz2015taml   0.08670
