# Nsamples: 88  MAD:  0.625  mean: -0.529  variance:  0.604
gfz2010bjeb   1.11150
gfz2010bxxs  -0.43030
gfz2010cdbt  -0.82690
gfz2010cqwl  -0.03740
gfz2010fqdu  -1.03100
gfz2010grjd   1.54690
gfz2010iull  -0.22950
gfz2010lluj  -0.04350
gfz2010mkuu  -1.61470
gfz2010nmpc  -0.37110
gfz2010nwef   0.07120
gfz2010usho  -0.80420
gfz2011aatr  -0.84120
gfz2011dpqx   0.24620
gfz2011enva  -0.73140
gfz2011gjlx  -0.52050
gfz2011gkzt  -0.14430
gfz2011hlqw  -1.43830
gfz2011hlsa  -1.09390
gfz2011hlth  -0.73860
gfz2011lcxq  -0.53270
gfz2011lzwj  -0.49370
gfz2011rewa  -0.85830
gfz2011toub  -0.03510
gfz2011vhfi   0.44140
gfz2011vrhg   0.73430
gfz2011wxfs  -0.45510
gfz2011xyxj   0.72590
gfz2012enno  -0.41500
gfz2012jlox  -0.55780
gfz2012kkup  -0.96240
gfz2012klhx  -1.04380
gfz2012kuct  -0.13990
gfz2012kudo  -0.94150
gfz2012ldxg  -0.09750
gfz2012ldzj  -0.22210
gfz2012teic  -0.67380
gfz2012ttoa   0.00260
gfz2012vrgb  -0.16640
gfz2012wypz  -0.52330
gfz2013drxz  -0.82090
gfz2013kdeo  -0.81500
gfz2013nwdi  -1.37130
gfz2013pfbx  -0.89270
gfz2013svci  -0.24180
gfz2013toxf  -1.32590
gfz2013uauo  -0.39820
gfz2013vjjc  -2.24220
gfz2014bwue  -0.70070
gfz2014fgvi   0.22090
gfz2014fhla  -2.38010
gfz2014fkmr  -1.88480
gfz2014ftka  -0.94510
gfz2014gkgf  -0.57250
gfz2014gkqf  -0.07150
gfz2014gltx  -0.35300
gfz2014gmge  -1.16740
gfz2014gmhr  -1.61470
gfz2014gmnb  -0.55370
gfz2014goba   1.07980
gfz2014gull   0.33580
gfz2014hasj  -1.77700
gfz2014itkw   0.03700
gfz2014jjhc  -0.19760
gfz2014jpep  -0.42790
gfz2014lgqn   0.53160
gfz2014lyhk  -1.59340
gfz2014macx  -1.03360
gfz2014nqfm  -0.82260
gfz2014nrie   0.28420
gfz2014oinz  -0.86260
gfz2014owxc  -1.00480
gfz2014qlxd  -1.07960
gfz2014qqhm  -3.70410
gfz2014ssvz  -0.87360
gfz2015chhn  -0.72630
gfz2015cyjd  -0.08800
gfz2015fsjj  -0.51680
gfz2015gckd  -0.39820
gfz2015hgbk  -0.53960
gfz2015jzcv  -0.88960
gfz2015kxxs   0.32640
gfz2015lhjy   0.15400
gfz2015mpte  -0.35800
gfz2015sjgk   0.64210
gfz2015snwh   0.22630
gfz2015svwm  -0.59320
gfz2015taml  -0.38160
