# Nsamples: 378  MAD:  1.165  mean: -1.463  variance:  1.544
gfz2010aerk  -3.00750
gfz2010ahqi  -2.06870
gfz2010bfzs  -1.25710
gfz2010bhhq  -0.31780
gfz2010bifb  -1.36530
gfz2010bjeb  -0.94150
gfz2010bxxs  -0.84850
gfz2010caft  -1.51630
gfz2010chnv  -1.37320
gfz2010civi  -1.80000
gfz2010ckeu   1.08450
gfz2010cqwl  -1.46920
gfz2010cres  -3.89510
gfz2010czps  -1.76970
gfz2010dejx  -0.35760
gfz2010dlgc  -1.38230
gfz2010eaoy  -0.47080
gfz2010eapk  -1.12140
gfz2010eapn  -0.78360
gfz2010eaqe   0.21230
gfz2010eaqx  -1.71660
gfz2010eaqy   0.54560
gfz2010earq  -1.81530
gfz2010earu   0.30890
gfz2010easf  -2.38220
gfz2010eask  -3.75110
gfz2010easo  -0.92640
gfz2010easu  -1.12730
gfz2010eato  -1.50780
gfz2010eaty   1.00280
gfz2010eaul  -1.11130
gfz2010eavs  -0.35610
gfz2010eawb  -1.32720
gfz2010eawu  -2.26090
gfz2010eaxa  -0.30650
gfz2010eaxn   0.32380
gfz2010eaya   0.03960
gfz2010eayd  -1.51430
gfz2010eaze  -0.60720
gfz2010eazu  -1.80030
gfz2010ebbd  -4.12880
gfz2010ebbx   0.59400
gfz2010ebdl  -2.18190
gfz2010ebfa  -0.51880
gfz2010ebhc  -1.85710
gfz2010ebih  -0.65980
gfz2010ebjy  -1.19660
gfz2010ebkj  -1.57770
gfz2010ebla  -0.80450
gfz2010ebll   0.26520
gfz2010ebnn  -0.87710
gfz2010ebvm  -1.89130
gfz2010ebvv  -1.39570
gfz2010ebwp  -1.17270
gfz2010ebxl  -1.79670
gfz2010ebzk  -2.68290
gfz2010ebzr   1.75030
gfz2010ecay   0.80950
gfz2010ecua  -2.39150
gfz2010ecuv  -0.76920
gfz2010edbz  -1.29940
gfz2010edvf  -1.57030
gfz2010edyi   2.54490
gfz2010eegn  -0.46350
gfz2010eeij  -0.55600
gfz2010eerh  -2.45430
gfz2010eevu  -1.24540
gfz2010ehft  -2.94890
gfz2010ehnm  -1.57500
gfz2010eisx  -0.75390
gfz2010ejjg  -2.05360
gfz2010ekyc  -3.13990
gfz2010elhv   0.13320
gfz2010eltf  -1.73070
gfz2010elyc  -2.42640
gfz2010erda  -0.76010
gfz2010erkn  -1.91720
gfz2010erom  -0.68340
gfz2010eruy  -2.06030
gfz2010eujm   2.04050
gfz2010excp  -1.01970
gfz2010exdd  -1.92630
gfz2010exdl  -1.68580
gfz2010exno   0.63490
gfz2010ezax  -2.00660
gfz2010ezck  -0.84340
gfz2010ezwz  -1.33170
gfz2010ezxd  -3.10460
gfz2010fedq  -1.32290
gfz2010ffhq  -2.20910
gfz2010ffjb  -0.40230
gfz2010flha  -2.53840
gfz2010fpqy  -1.70430
gfz2010fync  -2.58610
gfz2010gcrl  -1.49760
gfz2010gcrp  -2.37410
gfz2010gdld  -1.54300
gfz2010glxl  -1.37450
gfz2010grjd  -0.95590
gfz2010grss  -3.50280
gfz2010gyqp  -1.13150
gfz2010hlmq  -0.66340
gfz2010homc  -3.10840
gfz2010hxgv  -1.86560
gfz2010iobp  -1.45800
gfz2010irvf   0.02200
gfz2010iull  -2.41380
gfz2010mkuu  -3.50880
gfz2010moyw  -0.67040
gfz2010mpuy  -1.32480
gfz2010nmpc   0.38930
gfz2010nnny  -1.67400
gfz2010nqwo  -1.32980
gfz2010ntuo  -1.47670
gfz2010nwef  -3.64100
gfz2010nxsy  -2.65310
gfz2010odpb  -3.42190
gfz2010onma  -2.13790
gfz2010pcxi  -1.85450
gfz2010pxgh  -5.53230
gfz2010qitd  -1.66840
gfz2010qkat  -0.12140
gfz2010qpvi  -1.78220
gfz2010rkfp  -3.19720
gfz2010rqwj  -1.00020
gfz2010sfee  -1.20560
gfz2010skqo  -1.99210
gfz2010srdb  -0.39990
gfz2010upfb  -0.71810
gfz2010usho  -1.44410
gfz2010vbmd  -3.14640
gfz2010vyxd   0.70200
gfz2010yosr  -1.70450
gfz2011aatr  -0.72370
gfz2011adjs  -0.24470
gfz2011cykd  -0.94280
gfz2011dbig  -1.66000
gfz2011dcqb   0.97270
gfz2011dcqf  -1.47910
gfz2011dpaa  -1.02660
gfz2011dpqx  -2.17630
gfz2011eayc  -2.03280
gfz2011efgv  -2.88240
gfz2011enva  -1.85970
gfz2011etje  -2.07760
gfz2011flgj   0.13200
gfz2011gbmx  -1.21400
gfz2011gkzt  -2.33880
gfz2011hlqw  -0.25350
gfz2011hlsa  -1.29530
gfz2011hrhe  -1.80550
gfz2011jplh  -1.98060
gfz2011kxzp  -1.32270
gfz2011lcxq  -2.51880
gfz2011lzwj  -0.53330
gfz2011mdie  -2.35200
gfz2011mjom  -3.26530
gfz2011nmnq  -2.10250
gfz2011ntkh  -2.76650
gfz2011nudm  -2.79480
gfz2011orgn  -0.30980
gfz2011ornx  -0.83370
gfz2011owvz  -2.65770
gfz2011ptus   0.75140
gfz2011qyms  -2.09880
gfz2011rewa  -1.16120
gfz2011rgwp   0.97960
gfz2011rqui  -0.40310
gfz2011sagt  -1.35090
gfz2011tkog  -1.51370
gfz2011toub  -2.16760
gfz2011tpfr  -1.75000
gfz2011ueni  -0.87210
gfz2011ujze  -1.32640
gfz2011uphh  -1.41970
gfz2011vhfi  -3.69830
gfz2011vkun   0.71600
gfz2011vrhg  -4.30870
gfz2011vxns  -4.94630
gfz2011wwjs  -2.64180
gfz2011wxfs  -0.00160
gfz2011wxoj   0.94860
gfz2011wxtk  -0.87820
gfz2011xaan  -2.64130
gfz2011xyxj  -1.87390
gfz2011yybo  -3.21520
gfz2012aqtq  -0.96350
gfz2012bpkx  -2.55030
gfz2012byad  -1.95620
gfz2012deri  -0.16910
gfz2012dinb  -2.12120
gfz2012enno  -1.32700
gfz2012fzfa  -1.03280
gfz2012gnvh   0.68230
gfz2012gomm  -1.92550
gfz2012gwqb  -2.35430
gfz2012hnul  -0.84350
gfz2012hwyo  -1.52940
gfz2012jgvj  -0.70190
gfz2012jlox  -3.24950
gfz2012kkup  -1.14700
gfz2012klba  -1.10360
gfz2012klhx  -1.33580
gfz2012kudo  -1.27980
gfz2012kwgo   2.08850
gfz2012ldzj   0.56870
gfz2012lxkv  -1.10950
gfz2012lzmr  -1.61650
gfz2012minr  -1.40610
gfz2012mvwr  -2.90100
gfz2012nqnk  -3.30720
gfz2012oazn  -2.66760
gfz2012omvo   1.80290
gfz2012pofl  -0.25470
gfz2012poju  -0.30140
gfz2012royy   0.04330
gfz2012rqlg  -2.83820
gfz2012ruks  -1.76560
gfz2012rwov  -3.10640
gfz2012sphd  -2.55340
gfz2012syvl  -1.20310
gfz2012teic  -0.58260
gfz2012thfx  -2.59000
gfz2012ttoa  -3.25180
gfz2012uafg  -0.94400
gfz2012uaqj  -0.83780
gfz2012uhup  -2.78000
gfz2012uqzp  -2.30030
gfz2012vrgb  -3.07220
gfz2012vrua   0.39720
gfz2012vsev  -2.71310
gfz2012wxlg  -2.75000
gfz2012wybs  -2.25100
gfz2012wypz  -1.39170
gfz2012zjpv   1.26720
gfz2013aahq  -2.41550
gfz2013ccnr  -3.59930
gfz2013dofo  -2.54030
gfz2013drxz  -1.47440
gfz2013flox  -1.88310
gfz2013fygc  -2.17200
gfz2013idbb  -1.84540
gfz2013ikgo  -2.06300
gfz2013iunn  -3.64810
gfz2013jgij   1.34980
gfz2013jgip   0.59550
gfz2013jusj  -1.04960
gfz2013kdeo  -2.68740
gfz2013ldqb  -2.33800
gfz2013mqmv  -2.22010
gfz2013mwbh  -0.17100
gfz2013ncjp  -0.86800
gfz2013neuc  -0.88730
gfz2013nkgj  -2.01220
gfz2013nqgw  -3.10290
gfz2013nwdi  -1.01460
gfz2013pffm  -2.50380
gfz2013qcck  -0.71720
gfz2013qmer  -0.01990
gfz2013suvn   0.42460
gfz2013svci  -3.54640
gfz2013toea   0.18150
gfz2013toxf  -2.33590
gfz2013tusd  -2.54310
gfz2013tvmw  -1.75440
gfz2013vfyw  -0.36850
gfz2013vfzp   1.78620
gfz2013vgrk  -0.28590
gfz2013vjjc  -0.63350
gfz2013vpnf  -0.24990
gfz2013wjmm  -1.01740
gfz2013woze  -0.12780
gfz2013xmul  -2.88180
gfz2013xsdt  -2.16230
gfz2013yqkv  -2.92810
gfz2014abgd  -1.50440
gfz2014afmx  -3.90820
gfz2014arpf  -1.69050
gfz2014bwue  -0.18120
gfz2014cgog  -1.42960
gfz2014czqi  -0.86680
gfz2014czua  -0.66070
gfz2014femz  -1.25970
gfz2014fgvi  -1.98850
gfz2014fhla  -2.67420
gfz2014fkmx   1.42510
gfz2014frdz  -1.85830
gfz2014frel   1.54270
gfz2014ftka  -3.21110
gfz2014furx  -1.30800
gfz2014fval  -1.08290
gfz2014fvrg  -3.08390
gfz2014gbcz  -0.85380
gfz2014ghpe  -3.07990
gfz2014gkgf  -2.33130
gfz2014gkgs   0.69630
gfz2014gkqf  -2.27480
gfz2014gmge  -2.26990
gfz2014gmhr  -2.16270
gfz2014gmnb  -2.75210
gfz2014gmnw  -2.69630
gfz2014gmuw  -2.72530
gfz2014goba  -2.27960
gfz2014gori  -0.60620
gfz2014gqbj  -2.01940
gfz2014gull  -3.70080
gfz2014gxvf  -0.47600
gfz2014hasj  -2.79990
gfz2014hcmj  -2.28630
gfz2014hfhl  -4.01440
gfz2014hgqo  -2.25500
gfz2014hocg  -0.63690
gfz2014ilwu   0.24000
gfz2014inbj  -1.75540
gfz2014jatq   0.33050
gfz2014jjhc  -1.29030
gfz2014jnyv  -0.74860
gfz2014jpep  -2.22930
gfz2014jwmh  -1.52650
gfz2014lnmw  -0.24720
gfz2014lxnc  -1.35040
gfz2014macx  -1.11850
gfz2014npeo  -1.93820
gfz2014nqfm  -0.80360
gfz2014oinz  -2.17370
gfz2014pvch  -1.90860
gfz2014qlxd  -2.01440
gfz2014qngj  -2.87700
gfz2014raau   0.43810
gfz2014ryfb  -2.12210
gfz2014ssvz  -1.94050
gfz2014szzf  -1.22310
gfz2014tovs  -1.59750
gfz2014tqdo  -2.22140
gfz2014tzsd   0.36290
gfz2014watn  -0.72850
gfz2015apnk  -2.03600
gfz2015aruz  -0.34160
gfz2015bucr  -2.48400
gfz2015chhn  -2.04580
gfz2015cxxk  -0.98550
gfz2015cyjd  -1.79440
gfz2015etai  -2.01620
gfz2015fjhk  -2.95310
gfz2015fkgt  -2.31310
gfz2015fkic   0.17240
gfz2015fsjj  -2.68160
gfz2015gckd   0.00950
gfz2015ggjw  -0.92160
gfz2015hgbk  -1.60000
gfz2015hpmk  -1.08610
gfz2015kfsu  -0.43080
gfz2015lhjy   0.94990
gfz2015lytv  -2.67170
gfz2015nwug  -1.42030
gfz2015oyfl  -2.43150
gfz2015qnho  -2.42240
gfz2015qpvd  -2.67290
gfz2015rddx  -1.39000
gfz2015sglg  -2.71750
gfz2015sgmm  -3.44390
gfz2015sgmr   0.67950
gfz2015shsz   0.10830
gfz2015siyy  -0.54080
gfz2015sjgk  -2.44710
gfz2015sjoj  -1.92300
gfz2015snsf  -2.46170
gfz2015snwh  -2.25330
gfz2015snyd  -1.65020
gfz2015soat  -0.81910
gfz2015soxc  -1.69630
gfz2015ssoe  -1.12220
gfz2015stfy  -2.12730
gfz2015stso  -1.80490
gfz2015subz  -1.88970
gfz2015svwm  -2.29780
gfz2015szfq  -2.42910
gfz2015taml  -2.32080
