# Nsamples: 60  MAD:  0.514  mean: -0.500  variance:  0.610
gfz2012enno  -0.09950
gfz2012jlox  -0.93150
gfz2012jupx   0.87620
gfz2012kkup  -0.00900
gfz2012klhx  -0.36560
gfz2012kuct  -0.54090
gfz2012kudo  -0.73590
gfz2012lczo   1.16480
gfz2012ldxg  -0.77430
gfz2012oazn   0.92240
gfz2012sphd  -0.72170
gfz2012vrgb  -0.86130
gfz2012wypz  -0.21160
gfz2013ccnr  -1.58460
gfz2013dnnx  -2.97680
gfz2013dofo  -1.48400
gfz2013dojq  -0.42830
gfz2013drxz  -0.68170
gfz2013jdrx  -2.38520
gfz2013jkut  -0.68120
gfz2013jwvc  -1.49100
gfz2013kdeo  -1.21290
gfz2013ldqb   0.30220
gfz2013nkgj  -0.50260
gfz2013nuvi   0.00000
gfz2013nwdi  -0.17400
gfz2013pfbx  -0.77680
gfz2013svci  -1.12530
gfz2013vjjc   1.36420
gfz2014afmx   0.47820
gfz2014bwue  -0.37230
gfz2014frdz  -0.42360
gfz2014ftka  -1.31740
gfz2014fval  -0.31760
gfz2014gkgf   0.06120
gfz2014gkgs   0.14870
gfz2014gmge  -0.88250
gfz2014gmhr   1.52210
gfz2014gmnb   0.29640
gfz2014gmnw   0.13390
gfz2014goba  -0.77430
gfz2014gull  -0.03150
gfz2014hasj  -0.61760
gfz2014hgqo  -0.58770
gfz2014huaj  -0.27450
gfz2014itkw  -0.35900
gfz2014jjhc  -0.26150
gfz2014jwmh  -1.11340
gfz2014lgqn  -0.76140
gfz2014lxnc  -0.70360
gfz2014lyhk  -0.78270
gfz2014lyhp  -0.77430
gfz2014macx  -0.97890
gfz2014madw  -0.94120
gfz2014nqfm  -0.22320
gfz2014nrie  -0.76040
gfz2014oinz  -0.64930
gfz2014pvch  -0.51260
gfz2014qlxd  -1.60090
gfz2014qqhm  -0.51520
