# Nsamples: 10  MAD:  0.911  mean: -0.092  variance:  0.663
gfz2010iull  -0.40740
gfz2011wxfs  -0.89100
gfz2012kkup   0.82590
gfz2012kudo  -0.08850
gfz2013pfbx  -0.84350
gfz2013svci  -0.77240
gfz2014fgvi  -0.09840
gfz2014gkgf   0.71780
gfz2014gmhr   1.54830
gfz2015lhjy  -0.91500
