# Nsamples: 55  MAD:  0.528  mean: -0.401  variance:  0.571
gfz2010bowy  -1.46100
gfz2010bxxs   0.08920
gfz2010grjd  -0.16560
gfz2010iull  -0.16450
gfz2010nmpc  -0.70300
gfz2010usho  -0.29850
gfz2011aatr  -0.15800
gfz2011enva  -0.66820
gfz2011gkzt  -1.59310
gfz2011hlqw  -1.16070
gfz2011hlsa  -1.02470
gfz2011hlth  -0.96190
gfz2011lcxq  -0.27610
gfz2011lzwj   0.10240
gfz2011rewa  -0.43720
gfz2011toub  -0.44000
gfz2011wxfs  -0.35850
gfz2012enno  -0.46900
gfz2012jlox  -0.34140
gfz2012kkup  -0.71540
gfz2012klhx  -0.90220
gfz2012ldxg   0.06200
gfz2012ldzj  -0.73470
gfz2012ttoa   0.35650
gfz2012vrgb  -0.11210
gfz2012wypz  -0.09810
gfz2013drxz  -0.78120
gfz2013jkut   0.08550
gfz2013kdeo  -0.43650
gfz2013nwdi  -1.22130
gfz2013pfbx  -0.58730
gfz2013svci  -0.13950
gfz2014bwue  -0.68920
gfz2014fgvi   0.31410
gfz2014fhla  -2.33910
gfz2014ftka  -0.59980
gfz2014gkgf  -0.05560
gfz2014gkhy   0.22490
gfz2014gkqf  -0.35960
gfz2014gltx  -0.08200
gfz2014gmhr   1.91600
gfz2014gmnb   0.01820
gfz2014goba   0.64690
gfz2014gull   1.86810
gfz2014hasj  -0.28640
gfz2014huaj  -1.21640
gfz2014jjhc  -0.62290
gfz2014jpep  -2.69130
gfz2014nqfm  -0.51530
gfz2014qqhm   0.06400
gfz2014ssvz  -0.68320
gfz2015cyjd   0.03040
gfz2015fsjj  -1.03650
gfz2015lhjy  -0.51810
gfz2015mpte   0.26610
