# Nsamples: 212  MAD:  0.704  mean: -0.306  variance:  0.645
gfz2010ahqi  -0.93300
gfz2010bjeb  -0.68620
gfz2010bowy  -0.82940
gfz2010bxxs   0.19650
gfz2010cdbt  -0.91220
gfz2010chnv  -0.71220
gfz2010ckzm   0.19370
gfz2010cqwl   0.36530
gfz2010czps  -0.42520
gfz2010dlgc  -1.27490
gfz2010eaoy  -2.30880
gfz2010eaqy  -1.04650
gfz2010ecua  -0.31220
gfz2010eisx  -0.79860
gfz2010ekyc  -0.19280
gfz2010eltf   2.60230
gfz2010elyc  -1.29120
gfz2010eruy   3.39380
gfz2010excp  -0.83310
gfz2010exdd   0.44200
gfz2010ezck  -1.04720
gfz2010ffhq  -1.05770
gfz2010fqdu   0.19450
gfz2010ftlm   0.22390
gfz2010fync  -2.82610
gfz2010grjd   1.25010
gfz2010gyqp  -1.23280
gfz2010hrkr  -0.78190
gfz2010irvf  -0.14430
gfz2010iull   0.38270
gfz2010nmpc  -0.55760
gfz2010nqwo  -0.57980
gfz2010nwef  -1.14630
gfz2010onma  -1.15950
gfz2010pfyu  -2.51070
gfz2010rqwj   0.13120
gfz2010sfee  -0.77170
gfz2010skqo  -0.02550
gfz2010upfb  -2.45210
gfz2010usho  -0.55010
gfz2010vtdg   1.07890
gfz2011aatr  -0.38750
gfz2011adjs  -0.19640
gfz2011bgrp  -0.91930
gfz2011dpqx  -0.62020
gfz2011enva   0.26710
gfz2011flgj   0.37660
gfz2011gkzt  -0.99720
gfz2011hlqw  -1.07020
gfz2011hlsa  -0.99550
gfz2011hlth  -1.10640
gfz2011jplh  -0.05210
gfz2011lcxq   0.23780
gfz2011lhls  -0.14990
gfz2011mdie  -0.56130
gfz2011owvz   0.39580
gfz2011rewa  -0.96910
gfz2011rqui  -0.07530
gfz2011tkog  -0.14970
gfz2011toub  -0.11770
gfz2011ujze   0.13450
gfz2011uphh  -0.42010
gfz2011vhfi  -0.63770
gfz2011vrhg  -0.90690
gfz2011wxfs   0.46930
gfz2011xyxj   0.56720
gfz2012bfah  -0.59050
gfz2012czlw   0.87220
gfz2012enno  -0.73490
gfz2012fzfa  -0.69910
gfz2012hnul   0.96700
gfz2012jlox   0.11170
gfz2012jupx   0.31480
gfz2012kkup  -0.96780
gfz2012klhx  -1.13760
gfz2012kuct  -0.39680
gfz2012kudo  -0.55790
gfz2012ldxg   0.17790
gfz2012ldzj  -0.14050
gfz2012minr  -0.34320
gfz2012omvo  -0.41900
gfz2012rqlg  -0.33380
gfz2012sphd  -0.28940
gfz2012teic  -0.44530
gfz2012ttoa  -0.32150
gfz2012tvmv  -1.20110
gfz2012uafg  -1.13150
gfz2012uaqj  -0.48460
gfz2012vrgb  -0.25100
gfz2012wypz   0.02050
gfz2013aqaw   1.37390
gfz2013ccnr  -1.12940
gfz2013dofo  -0.02040
gfz2013drxz  -1.05890
gfz2013iunn   1.25310
gfz2013jkut   0.47650
gfz2013kdeo   0.26170
gfz2013ldqb  -0.45930
gfz2013mwbh  -0.38460
gfz2013ndin  -0.89270
gfz2013nkgj   0.02860
gfz2013nqgw  -0.25510
gfz2013nwdi  -0.86840
gfz2013oifr  -0.00000
gfz2013ojti   0.10680
gfz2013pfbx  -0.74400
gfz2013qmer   0.14250
gfz2013suvn   0.11300
gfz2013svci   0.52540
gfz2013tusd  -0.25720
gfz2013uauo  -0.90030
gfz2013vjjc  -0.19440
gfz2013wjmm  -0.29240
gfz2013wtzl  -1.37560
gfz2013xsdt   0.12830
gfz2014afmx   0.08260
gfz2014ande  -0.40120
gfz2014arpf   0.92210
gfz2014bwue  -0.00000
gfz2014czqi   0.41980
gfz2014fgvi   0.27760
gfz2014fhdw   0.30230
gfz2014fhla  -2.68660
gfz2014fhlh  -0.24210
gfz2014fhwx  -0.07760
gfz2014fimn   0.04340
gfz2014fkmr  -0.44400
gfz2014fnyg  -0.44250
gfz2014frdz  -0.00420
gfz2014frez   0.46280
gfz2014ftka  -1.15850
gfz2014ftoc  -0.76500
gfz2014fval   0.27220
gfz2014gkgf   0.44740
gfz2014gkgs   0.99010
gfz2014gkhy   0.69690
gfz2014gkqf   0.57460
gfz2014gkqu   1.03530
gfz2014glcu  -1.97540
gfz2014gltx   0.59970
gfz2014gmge   0.19150
gfz2014gmhr  -0.48290
gfz2014gmnb  -0.47190
gfz2014gmnw  -0.19730
gfz2014goba  -0.18010
gfz2014goqw   0.47560
gfz2014gqer   1.24990
gfz2014gsqs  -0.21580
gfz2014gull   0.02100
gfz2014gwab  -0.65130
gfz2014gxxo  -0.60650
gfz2014hagb  -0.63420
gfz2014hasj  -0.81450
gfz2014hfhl  -0.38750
gfz2014hgqo  -0.35070
gfz2014hhwx  -1.43910
gfz2014hjgr  -0.02200
gfz2014hjij  -2.39200
gfz2014hkcf  -0.60580
gfz2014hocg  -0.42170
gfz2014hqxs   0.30440
gfz2014huaj  -0.48480
gfz2014jjhc  -0.08930
gfz2014jpep   0.10600
gfz2014kndc  -1.15240
gfz2014kwrg  -0.53130
gfz2014lgqn   0.85110
gfz2014lxnc   0.02570
gfz2014lyhk  -0.58070
gfz2014lyhp  -0.93400
gfz2014macx   0.13630
gfz2014madw   0.01180
gfz2014nqfm   0.03050
gfz2014nrie   0.77880
gfz2014nyeh   1.68920
gfz2014oinz  -0.24720
gfz2014pvch  -1.32670
gfz2014qlxd  -0.15100
gfz2014qqhm   0.52800
gfz2014rdsn  -0.02200
gfz2014riel  -1.89990
gfz2014vhms   0.28240
gfz2014wwib  -0.78470
gfz2015atxv  -0.13660
gfz2015chhn  -1.15230
gfz2015cxxk   0.18210
gfz2015cyjd  -0.62010
gfz2015fsjj   0.26930
gfz2015gckd  -0.57530
gfz2015ggjw  -1.40480
gfz2015igsy  -0.47340
gfz2015jzcv  -0.41910
gfz2015kphk  -0.36270
gfz2015kxxs   0.14040
gfz2015lhjy   0.27850
gfz2015lytv  -0.42780
gfz2015mpte   0.66280
gfz2015nwug  -1.06470
gfz2015okmq  -0.04600
gfz2015sfdd  -1.17340
gfz2015sfdy  -0.27350
gfz2015sfnb   0.60490
gfz2015sfno  -0.34630
gfz2015sjoj  -0.24520
gfz2015smym  -0.86310
gfz2015snwh  -1.35130
gfz2015soat  -0.84650
gfz2015soxc  -0.90340
gfz2015svwm  -0.83780
gfz2015szcb  -0.56860
gfz2015taml  -0.03510
gfz2015tbdn  -1.10430
