# Nsamples: 2005  MAD:  0.800  mean: -0.100  variance:  1.223
gfz2010ahla   0.27620
gfz2010ahqi  -0.40480
gfz2010awfi  -0.71920
gfz2010bfzs  -1.50800
gfz2010bifb  -1.18000
gfz2010bjeb  -1.18750
gfz2010bjjx  -0.62170
gfz2010bjsl  -0.31610
gfz2010bkob  -0.30170
gfz2010bkos   0.07500
gfz2010bowy  -1.64370
gfz2010boxo   0.14560
gfz2010bxxs  -1.37580
gfz2010caft  -0.49470
gfz2010cbkg  -1.36600
gfz2010cind   1.05910
gfz2010civi  -0.77300
gfz2010cjqh  -0.17620
gfz2010ckeu   1.26100
gfz2010cnwc   0.08600
gfz2010cqwl  -0.36400
gfz2010cres   0.82640
gfz2010ctuw  -0.97780
gfz2010czps  -0.10380
gfz2010ddzo  -0.13030
gfz2010dfru  -0.20470
gfz2010dlgc  -1.93670
gfz2010dtmx  -0.36400
gfz2010eaoy  -3.50860
gfz2010eapk  -1.59580
gfz2010eaqe  -2.15690
gfz2010eaqx  -1.62980
gfz2010eaqy  -1.32070
gfz2010earq  -1.37100
gfz2010earu  -2.07060
gfz2010easf  -1.23180
gfz2010eask  -3.22820
gfz2010easo  -2.08290
gfz2010easu  -1.82690
gfz2010eati  -1.51080
gfz2010eato  -2.33680
gfz2010eatt  -7.77270
gfz2010eaty  -2.37750
gfz2010eaul  -0.42250
gfz2010eavd  -1.59070
gfz2010eavp   0.12630
gfz2010eavs  -1.69160
gfz2010eawb  -2.51180
gfz2010eawu  -3.10210
gfz2010eaxa  -3.08770
gfz2010eaxn  -1.99310
gfz2010eaya   0.36800
gfz2010eayp   0.39390
gfz2010eayx   0.32910
gfz2010eaze  -0.53260
gfz2010eazu  -1.44480
gfz2010ebbd  -1.08000
gfz2010ebbx  -3.95990
gfz2010ebby  -0.23390
gfz2010ebdl  -0.28020
gfz2010ebeh  -0.20010
gfz2010ebek  -1.41560
gfz2010ebfa  -1.42480
gfz2010ebfx  -0.56720
gfz2010ebhc  -1.86490
gfz2010ebih  -0.85170
gfz2010ebin  -0.65280
gfz2010ebiv  -0.96030
gfz2010ebjy  -1.56820
gfz2010ebkj  -2.47630
gfz2010ebkx  -0.56560
gfz2010ebla  -1.28580
gfz2010ebll  -1.66590
gfz2010ebmb  -1.19890
gfz2010ebmi  -0.28990
gfz2010ebnn  -2.25830
gfz2010ebqt   0.38080
gfz2010ebqz  -0.77670
gfz2010ebrm  -1.24430
gfz2010ebsv  -2.57910
gfz2010ebtk  -0.55660
gfz2010ebvm  -1.97180
gfz2010ebvv  -1.67860
gfz2010ebwp  -1.56070
gfz2010ebxl  -1.01780
gfz2010ebze  -0.74480
gfz2010ebzk  -0.91980
gfz2010ebzr  -1.65160
gfz2010ecam  -1.95040
gfz2010ecay  -6.87080
gfz2010ecbi  -1.45140
gfz2010eccq  -0.83720
gfz2010ecdu  -1.48930
gfz2010ecft   0.02930
gfz2010ecfx   0.23810
gfz2010ecgh   1.11780
gfz2010echc  -1.60150
gfz2010echt  -1.99600
gfz2010echy  -0.26470
gfz2010ecka   0.62650
gfz2010ecls   0.35300
gfz2010ecml   1.50280
gfz2010ecnm   0.60290
gfz2010ecns  -0.94460
gfz2010ecpg   0.17500
gfz2010ecps  -1.02540
gfz2010ecro   0.33560
gfz2010ecsp  -1.07060
gfz2010ectq  -0.17030
gfz2010ecua  -2.56120
gfz2010ecuv   0.07580
gfz2010ecvt  -0.89650
gfz2010ecyr  -1.29730
gfz2010edad   0.49970
gfz2010edat  -1.54610
gfz2010eday   1.24730
gfz2010edbz  -0.71850
gfz2010edcp  -2.68360
gfz2010edde  -0.49180
gfz2010edhr  -0.04630
gfz2010edhv   1.08860
gfz2010edim  -0.42060
gfz2010edji   0.04210
gfz2010edkp  -0.02080
gfz2010edoq   0.11590
gfz2010edpb  -0.29220
gfz2010edqd  -0.31480
gfz2010edqh  -0.08600
gfz2010edsk  -0.95690
gfz2010edsn  -0.49310
gfz2010edsy  -1.81940
gfz2010edun   0.67070
gfz2010edvf  -0.60710
gfz2010edyi  -1.01330
gfz2010edzb   1.02070
gfz2010eedu   0.99790
gfz2010eedz  -0.75140
gfz2010eefh   0.10630
gfz2010eefo   1.10110
gfz2010eeia   0.69130
gfz2010eeij  -2.34640
gfz2010eekg   0.98910
gfz2010eekq   0.18680
gfz2010eell   0.41380
gfz2010eeng   0.21010
gfz2010eeqy  -0.36950
gfz2010eerh  -0.42600
gfz2010eern  -0.54410
gfz2010eesf   0.72190
gfz2010eevu  -0.90130
gfz2010eexz  -0.32260
gfz2010eeyh  -0.11250
gfz2010efak   0.46130
gfz2010efbh   0.87910
gfz2010efkc  -0.19720
gfz2010efls  -0.32300
gfz2010efnf   0.25860
gfz2010efsq  -1.42620
gfz2010efxf  -1.87640
gfz2010egap  -3.62720
gfz2010eghq   1.06260
gfz2010egld  -0.24080
gfz2010egln   0.55930
gfz2010egmp   0.61810
gfz2010egqh  -0.75700
gfz2010egsw   1.04650
gfz2010egyy   0.45310
gfz2010ehaj   4.70990
gfz2010eher   0.84920
gfz2010ehnl  -0.17670
gfz2010ehnm  -0.85990
gfz2010ehrq   4.41530
gfz2010ehsy   0.35630
gfz2010ehwg   0.17060
gfz2010ehxz   0.58740
gfz2010eioi  -0.07590
gfz2010eiqi   0.20700
gfz2010eisx  -5.63780
gfz2010eixj  -1.51550
gfz2010ejae  -0.24090
gfz2010ejco   0.51770
gfz2010ejjg  -0.84830
gfz2010ejka   1.60210
gfz2010ejma  -0.39640
gfz2010ekaw  -0.07820
gfz2010ekyc  -2.28930
gfz2010elhv  -1.04910
gfz2010elin  -0.40480
gfz2010elpu   0.30070
gfz2010elsw   0.65500
gfz2010eltf  -1.80570
gfz2010elvp  -0.53870
gfz2010elxi   0.59340
gfz2010elyc  -3.12790
gfz2010elyo  -0.78800
gfz2010elzf   0.20040
gfz2010elzl   0.92560
gfz2010emoz  -0.02200
gfz2010emyz  -1.28840
gfz2010encm  -1.61510
gfz2010engw   0.33930
gfz2010enpa   0.19340
gfz2010eoao  -3.78940
gfz2010eohh   1.60630
gfz2010eomb   0.63600
gfz2010epbe   0.86790
gfz2010epud  -0.47040
gfz2010epzk   0.43220
gfz2010eqcn  -2.45280
gfz2010eqjg  -2.42320
gfz2010eqmu  -0.71180
gfz2010eqse  -0.32940
gfz2010erda  -0.64540
gfz2010erdi  -1.93090
gfz2010erfy   0.60800
gfz2010erig   0.49350
gfz2010erkn   0.32570
gfz2010ermi  -0.78160
gfz2010erna  -1.18220
gfz2010erom  -3.05220
gfz2010erum  -0.53330
gfz2010eruy  -1.47900
gfz2010erwn  -0.08360
gfz2010erxb  -0.05580
gfz2010erxk  -1.93430
gfz2010eryg  -1.04090
gfz2010esid   0.87800
gfz2010eted   0.44110
gfz2010etfw   1.32890
gfz2010euae   0.92960
gfz2010euan   0.40770
gfz2010eugj   0.59300
gfz2010eujm  -0.80940
gfz2010euvl   0.07990
gfz2010euwb   0.83720
gfz2010euxe  -0.18540
gfz2010evco   1.13030
gfz2010evjv   2.36880
gfz2010evkd   0.48780
gfz2010ewbc   0.90720
gfz2010ewpq   0.94650
gfz2010ewvc  -0.94390
gfz2010ewyu  -0.21420
gfz2010excp  -1.65900
gfz2010exdd  -2.23670
gfz2010exdl  -1.07680
gfz2010exed  -1.43180
gfz2010exel  -0.49680
gfz2010exfb  -0.43570
gfz2010exou  -0.16590
gfz2010exqu  -0.61010
gfz2010exsg  -0.66350
gfz2010exts   1.47070
gfz2010exyp   0.10260
gfz2010eyaz   1.29240
gfz2010eybj   0.39530
gfz2010eyhh   0.25520
gfz2010eyiv  -0.18520
gfz2010eymx  -0.13630
gfz2010eyqe  -0.59770
gfz2010ezig  -0.18790
gfz2010ezjk   1.88350
gfz2010ezvt   1.46290
gfz2010ezwz  -0.37510
gfz2010ezxd  -1.96940
gfz2010faeu  -0.59890
gfz2010falm  -1.05050
gfz2010fauz   0.19310
gfz2010faxg   1.57010
gfz2010fbeu   0.79140
gfz2010fcax  -1.44920
gfz2010fcdw   1.41060
gfz2010fciw  -1.96320
gfz2010fcnn  -0.02420
gfz2010fcnt  -0.27460
gfz2010fcyj   1.70410
gfz2010fczt  -0.55860
gfz2010fdxr   1.77820
gfz2010fedq  -1.78940
gfz2010fefr  -4.06610
gfz2010ffhq  -2.94540
gfz2010ffjb  -0.60200
gfz2010ffui  -0.90090
gfz2010fhbl   1.39010
gfz2010figq   0.09990
gfz2010fihj  -1.06860
gfz2010fika  -0.39900
gfz2010fisf   0.90740
gfz2010fixr   0.60210
gfz2010fjal  -0.38370
gfz2010fjas   0.02020
gfz2010fjmu   0.28880
gfz2010fkhd  -0.10820
gfz2010fkia  -0.15930
gfz2010fknh   0.29800
gfz2010fkvg   0.11360
gfz2010flha  -1.80310
gfz2010flkj   1.18700
gfz2010floi   0.32840
gfz2010flrt  -1.75630
gfz2010flxi  -0.16320
gfz2010fmhb  -0.14140
gfz2010fmpy   1.22920
gfz2010fmwb   1.31540
gfz2010fnrk   0.57920
gfz2010fobc   6.15100
gfz2010fona   1.83030
gfz2010fpqy  -0.43700
gfz2010fqdu  -0.74360
gfz2010fser   0.79060
gfz2010ftlm  -0.47880
gfz2010ftsx  -0.56010
gfz2010fupn  -0.61850
gfz2010fuuy  -1.50590
gfz2010fuwa  -0.01970
gfz2010fwkk   0.51970
gfz2010fwpv  -0.88280
gfz2010fyed   0.59730
gfz2010fyen  -1.25440
gfz2010fync  -1.43180
gfz2010fzoi  -0.44800
gfz2010fzsg  -0.66670
gfz2010fzyt  -1.84130
gfz2010gcdn   0.88260
gfz2010gcrl  -1.29330
gfz2010gcrp  -1.76600
gfz2010geru   0.08940
gfz2010ginm  -0.26330
gfz2010gjia  -1.10040
gfz2010grss   0.54530
gfz2010grxb   1.66470
gfz2010gslu  -0.37840
gfz2010gtzt   0.45810
gfz2010hrkr  -0.33420
gfz2010hrpr  -0.40250
gfz2010htdq  -2.31210
gfz2010hufk   0.65940
gfz2010hxbs  -0.41500
gfz2010hxgv  -0.50340
gfz2010hzar   1.06470
gfz2010iauj  -0.71220
gfz2010ibiy   1.06310
gfz2010icqq  -0.13400
gfz2010iefy   2.72940
gfz2010ihrq  -0.28750
gfz2010iibf  -0.78460
gfz2010iimu  -0.65130
gfz2010iphd   1.04790
gfz2010ipsg  -0.11360
gfz2010iqfm   0.92920
gfz2010iqnm  -0.74800
gfz2010iqus  -0.59850
gfz2010irqr   0.06390
gfz2010irvf  -0.79340
gfz2010iull  -0.60830
gfz2010jhie  -1.36080
gfz2010jipf  -1.64940
gfz2010jlhj  -2.01000
gfz2010jpyj  -2.03630
gfz2010jucj  -2.79900
gfz2010jygz  -2.68070
gfz2010jzku  -7.70730
gfz2010kdyc  -2.43670
gfz2010kgws  -3.51050
gfz2010kihf  -5.27000
gfz2010kjmp  -0.35190
gfz2010kqyh  -5.86110
gfz2010kyvj  -0.63810
gfz2010lcoq  -2.25320
gfz2010lczp  -7.15600
gfz2010lsft   0.32150
gfz2010lyfk   0.11160
gfz2010mant  -0.74230
gfz2010mbje  -0.55540
gfz2010mcrx  -0.35400
gfz2010mdpq  -1.75070
gfz2010mfpt  -0.11620
gfz2010mgss  -2.21630
gfz2010mhjt   0.49360
gfz2010mncc  -4.53650
gfz2010mnhm  -0.04370
gfz2010mpuy  -4.65920
gfz2010msjj  -0.22320
gfz2010mtab  -0.90710
gfz2010mwdq  -6.30600
gfz2010nwef  -1.29350
gfz2010ocxq  -1.22340
gfz2010odpb  -0.10850
gfz2010oluw  -0.34090
gfz2010onma  -1.78120
gfz2010osjs  -0.91290
gfz2010osqo   0.16030
gfz2010oyqy   0.25250
gfz2010pbdz  -0.65860
gfz2010pcxi  -1.42490
gfz2010pdtk  -0.02200
gfz2010pets   0.03380
gfz2010pewa  -0.64270
gfz2010pewx  -1.04310
gfz2010pexf  -0.12090
gfz2010pfyu  -0.30330
gfz2010phvg  -1.23600
gfz2010pmqd  -1.06110
gfz2010pqck  -0.23230
gfz2010pxgh  -1.25720
gfz2010pxls   1.52970
gfz2010qbng   1.00630
gfz2010qitd  -0.87060
gfz2010qjst  -1.31400
gfz2010qpcq  -1.45400
gfz2010qpum  -0.23390
gfz2010qpvi  -1.79110
gfz2010qwwx  -0.61720
gfz2010rkfp  -1.08420
gfz2010rlbv  -0.65770
gfz2010rqwj  -2.51960
gfz2010rxjw   0.30340
gfz2010rywq   0.23070
gfz2010rzrr  -0.95830
gfz2010rzsd  -1.08490
gfz2010sfee  -1.05730
gfz2010sfla  -1.33320
gfz2010sgzk   1.15990
gfz2010skqo  -0.37960
gfz2010skve  -1.75870
gfz2010srdb  -2.04640
gfz2010suww   0.69670
gfz2010svtn  -1.62060
gfz2010svve   0.83360
gfz2010swcy  -2.08270
gfz2010sxfq   0.24900
gfz2010sxwt  -2.45910
gfz2010sysw  -0.07750
gfz2010szde  -0.06490
gfz2010szim  -1.76250
gfz2010tcbr  -2.30330
gfz2010tcrl  -2.04620
gfz2010tlfm  -0.77180
gfz2010truw  -0.33240
gfz2010txjs  -0.54100
gfz2010tzzk   0.56990
gfz2010uept  -0.09210
gfz2010uouo  -0.83650
gfz2010upfb  -1.96670
gfz2010upiw  -0.09020
gfz2010urlq   0.00000
gfz2010usho  -2.02020
gfz2010ustq  -1.38560
gfz2010utcg  -1.72670
gfz2010utmc  -0.98230
gfz2010utvp   0.51210
gfz2010uvhf   0.54580
gfz2010uyhb  -1.61450
gfz2010veri  -1.61470
gfz2010vhuj  -0.81720
gfz2010vtdg   0.13390
gfz2010vxvs  -0.45480
gfz2010vyxd  -0.75880
gfz2010vzpr  -1.71390
gfz2010wioh  -0.27850
gfz2010wnty  -0.11440
gfz2010wntz  -0.87720
gfz2010wofs  -1.52770
gfz2010wrxx  -0.99120
gfz2010wxqa  -5.07200
gfz2010xbdv  -0.82960
gfz2010xbgs  -1.43220
gfz2010xden   0.27480
gfz2010xgzw  -3.49700
gfz2010xjck  -2.30770
gfz2010xjsj  -0.99500
gfz2010xmpr  -0.41930
gfz2010xxdb  -0.81310
gfz2010yfsv  -0.05280
gfz2010yjev  -2.51750
gfz2010ymur  -0.68920
gfz2010yosr  -2.14450
gfz2010yoyx   0.07990
gfz2010yqqv   3.04570
gfz2010yqwx  -2.68480
gfz2011adqk   0.21380
gfz2011blsi  -2.03540
gfz2011bpkd   0.75390
gfz2011ccpw  -0.82170
gfz2011cfae  -0.31680
gfz2011cndo  -0.73580
gfz2011coxh  -0.01940
gfz2011crdy   0.36150
gfz2011csju  -0.10390
gfz2011cvfg   0.28540
gfz2011cykd  -3.25190
gfz2011cylz   0.40810
gfz2011cynl  -0.26510
gfz2011cyre  -0.78380
gfz2011cyuk  -3.00420
gfz2011czwj   1.34720
gfz2011dbev  -1.85400
gfz2011dbig  -0.93140
gfz2011dbon  -0.58970
gfz2011dbwt  -0.67860
gfz2011dcqb  -1.77750
gfz2011dcqf  -1.01680
gfz2011dddh  -0.20720
gfz2011deaf   0.12670
gfz2011dkyi   0.40960
gfz2011dllz   0.14880
gfz2011dlyx   0.37150
gfz2011dpaa   0.12000
gfz2011dpmx  -0.00000
gfz2011dpqx  -1.79380
gfz2011dtpy   1.05890
gfz2011duyr   0.16930
gfz2011eayc   0.55500
gfz2011eazf  -0.47540
gfz2011ecaj  -1.16270
gfz2011edmm   0.57940
gfz2011efgv   1.42030
gfz2011ehzq  -0.54580
gfz2011ekpr  -0.35720
gfz2011eltw   0.76330
gfz2011enva  -1.83550
gfz2011eocc  -0.73120
gfz2011etje  -0.09590
gfz2011fhbm  -0.63040
gfz2011fhur   0.09810
gfz2011fkbn   0.49310
gfz2011flgj   0.00000
gfz2011flhp  -0.16300
gfz2011gbmx  -0.53720
gfz2011gcwb  -0.19010
gfz2011gdgh   0.02040
gfz2011ggvf  -0.38930
gfz2011ghky  -0.13760
gfz2011gkey  -0.94310
gfz2011gkzt  -0.84800
gfz2011haid   0.51980
gfz2011hbex  -0.23610
gfz2011hbqk   0.85070
gfz2011hebt   0.50930
gfz2011hfkj  -0.50490
gfz2011hlqw  -1.00430
gfz2011hlsa  -1.07720
gfz2011hlth   0.12940
gfz2011hpgx   1.27690
gfz2011hpqp  -1.08000
gfz2011hrhe   0.90060
gfz2011hryk   1.11200
gfz2011hsfj  -0.85990
gfz2011hvbu  -0.53690
gfz2011ieie   0.33090
gfz2011iwte  -0.68600
gfz2011izqa   0.33040
gfz2011izto  -1.16350
gfz2011jghb   0.47830
gfz2011jmbn   1.02740
gfz2011jnmi   1.11880
gfz2011jplh  -0.92690
gfz2011jtlg  -1.02810
gfz2011jxpl   0.71080
gfz2011knbi   0.18960
gfz2011knoo   1.16220
gfz2011kqwo  -1.09280
gfz2011kqyg  -0.60450
gfz2011ksiu  -0.26130
gfz2011kweu  -0.43860
gfz2011kwhq  -1.59100
gfz2011kwid  -0.88440
gfz2011kwiy  -0.38600
gfz2011kwjx  -1.69460
gfz2011kwkw  -0.95130
gfz2011kwld  -0.98440
gfz2011kwlq  -0.33300
gfz2011kwni   0.45010
gfz2011kwnu  -0.08210
gfz2011kwqc  -0.01910
gfz2011kwrf   0.24940
gfz2011kwsz   0.39120
gfz2011kxzp  -1.37330
gfz2011lcxq  -1.00830
gfz2011lczg   0.37860
gfz2011lgsg  -0.42130
gfz2011lhls  -1.00070
gfz2011lvjr  -0.27240
gfz2011lzwj  -1.67290
gfz2011mdie  -0.33710
gfz2011mepc   0.64030
gfz2011mjom   0.30300
gfz2011mpme  -0.96800
gfz2011mprq   0.91360
gfz2011myia  -0.45820
gfz2011nauw   0.18030
gfz2011necz   1.02520
gfz2011nmnq  -0.86230
gfz2011nmqj   0.78100
gfz2011noud  -0.77150
gfz2011npgs  -0.33860
gfz2011nqpd   0.74880
gfz2011nrwv  -1.59710
gfz2011nsex  -0.13660
gfz2011ntkh  -0.21700
gfz2011nudm  -1.27990
gfz2011ogqk   1.58880
gfz2011ohcy   0.34100
gfz2011oiqe   0.32510
gfz2011oiwk   0.15440
gfz2011olkk   0.21240
gfz2011oolr  -0.34310
gfz2011orgn   0.37290
gfz2011ornx  -0.41500
gfz2011owvz  -0.65890
gfz2011ozsl   0.73020
gfz2011pccd   0.67060
gfz2011pdpt   0.21250
gfz2011phms  -0.67820
gfz2011pntf   1.23480
gfz2011ptus   0.82430
gfz2011qigx  -0.61620
gfz2011qoif  -0.09770
gfz2011qvae  -0.51960
gfz2011rabm  -2.01420
gfz2011rdby  -0.43920
gfz2011rewa  -1.55390
gfz2011rgwp  -0.87430
gfz2011rnut  -0.11890
gfz2011rqui  -0.07840
gfz2011rsrh   0.01960
gfz2011rznl   0.93020
gfz2011sagt  -0.01970
gfz2011sawg  -0.20210
gfz2011shqm  -0.12410
gfz2011stal  -0.43590
gfz2011svix   0.59570
gfz2011taps  -0.41950
gfz2011tbas  -0.12790
gfz2011tcij   0.47290
gfz2011tivu   2.26440
gfz2011tjrf   0.49730
gfz2011tjue   0.63760
gfz2011tkfp  -0.52630
gfz2011tkog  -0.51250
gfz2011toub  -0.37690
gfz2011tpbl  -0.31190
gfz2011tpfr   0.35560
gfz2011tsfd  -0.72290
gfz2011tsnp  -0.51240
gfz2011tuea   0.40920
gfz2011twov  -1.02650
gfz2011udsq   0.53790
gfz2011ueni  -0.16390
gfz2011uepx   0.68660
gfz2011ugzz   2.29770
gfz2011uiul  -0.00000
gfz2011ujze   0.99020
gfz2011ukmp   1.13050
gfz2011unkx  -0.23440
gfz2011uphh   0.70290
gfz2011urxy   1.26560
gfz2011urzu  -0.41580
gfz2011uzqv  -0.67620
gfz2011vhfi  -0.72270
gfz2011vnza   0.04170
gfz2011vqrj  -0.32890
gfz2011vrhg  -0.89290
gfz2011vxns  -0.98800
gfz2011vxod  -0.09320
gfz2011vxxg  -1.66800
gfz2011wcic  -0.37960
gfz2011wfja   0.31180
gfz2011wijj   1.01580
gfz2011wjkf   0.68410
gfz2011wjul  -0.30720
gfz2011wvzb  -0.01930
gfz2011wwjs  -1.01310
gfz2011wxfs   0.24680
gfz2011wxoj   0.11190
gfz2011wxtk   0.45340
gfz2011wype  -1.15620
gfz2011xaan  -0.56960
gfz2011xcpv   0.11770
gfz2011xesx  -0.48620
gfz2011xqru  -0.68390
gfz2011xyxj   0.09430
gfz2011yfdx   0.36760
gfz2011yfys   1.59320
gfz2011yhwz  -1.07630
gfz2011yybo   0.26480
gfz2011yzwq   0.74370
gfz2011zklv   1.05040
gfz2011zlfg   0.17820
gfz2011zqhh  -0.44010
gfz2012ablh  -0.15290
gfz2012ajtq   0.75060
gfz2012aqgp  -0.48940
gfz2012aqtq   0.14330
gfz2012attr  -1.16380
gfz2012bfah  -0.02250
gfz2012bfyn  -2.50090
gfz2012bpkx  -1.00080
gfz2012bpwl  -0.16190
gfz2012bqeb   0.23350
gfz2012byad   0.74320
gfz2012cevz   1.74770
gfz2012cgvr   0.82800
gfz2012cnod   0.01960
gfz2012covm  -0.20820
gfz2012cqnl   0.24720
gfz2012cqtc   0.16290
gfz2012cxdn  -0.45980
gfz2012czlw   0.77980
gfz2012dimn   1.22030
gfz2012dves  -0.43870
gfz2012dyyh   0.60890
gfz2012ekda  -0.87980
gfz2012ekzf  -0.02150
gfz2012elce   1.12570
gfz2012emjg  -0.17960
gfz2012enno  -0.91400
gfz2012ewgo   1.27250
gfz2012ewkj   0.17310
gfz2012ezvr  -0.28860
gfz2012fbfo   0.06410
gfz2012fhnh   1.49350
gfz2012fivh  -2.66930
gfz2012foeo  -0.61580
gfz2012fzfa  -0.90910
gfz2012gcgn   0.04100
gfz2012gkvr   0.08730
gfz2012gocc  -1.63020
gfz2012gomm   0.30980
gfz2012gukw  -0.22130
gfz2012gwmu   0.44000
gfz2012gwqb   0.33900
gfz2012hnul   0.04120
gfz2012hnuw  -0.78280
gfz2012holl   0.53840
gfz2012hwmz  -0.62260
gfz2012hwyo   2.14960
gfz2012hyaa  -0.45330
gfz2012hzbe   0.10520
gfz2012icmv  -3.29960
gfz2012iffo  -0.11280
gfz2012ihdl  -0.22940
gfz2012ilvn  -1.04680
gfz2012imay  -1.02460
gfz2012imbd   0.11670
gfz2012intn  -0.26380
gfz2012iyrb   0.79400
gfz2012jjzc   0.84410
gfz2012jlox  -1.07780
gfz2012joqe  -1.07040
gfz2012jpgs   0.32620
gfz2012jqvn   0.25390
gfz2012jshk  -1.85580
gfz2012jted  -0.07770
gfz2012jupx  -1.33000
gfz2012jwhu   0.57190
gfz2012kbjb  -0.81660
gfz2012kbzj   1.11870
gfz2012kdmb   0.82780
gfz2012keor  -0.53960
gfz2012kkcp   0.74570
gfz2012kkup  -1.06790
gfz2012klba  -0.35960
gfz2012klhx  -0.63830
gfz2012kuct  -0.87470
gfz2012kudo  -0.88120
gfz2012kvzv  -0.65640
gfz2012kwgo  -0.64210
gfz2012lczo  -0.76320
gfz2012ldgs   0.31890
gfz2012ldxg  -1.16310
gfz2012ldzj  -1.12760
gfz2012ledy   0.81050
gfz2012ljql   0.50650
gfz2012lltr  -0.18150
gfz2012llug  -0.55480
gfz2012lrsv  -0.33920
gfz2012lxkv  -0.74040
gfz2012lzmr   0.09880
gfz2012maxy   0.64240
gfz2012minr  -0.64320
gfz2012mkpn  -1.23250
gfz2012mlyf   1.66370
gfz2012mofm   0.11280
gfz2012mupa  -1.00690
gfz2012mvwr  -0.44490
gfz2012mwij   0.38210
gfz2012myqa  -0.53540
gfz2012naqz  -1.09450
gfz2012nedn  -1.13830
gfz2012ngic   0.37520
gfz2012nkdf  -1.74190
gfz2012nojx  -0.55000
gfz2012nolo  -0.78210
gfz2012nsbz  -0.50000
gfz2012ntzv   0.17180
gfz2012nutf   1.83810
gfz2012nxog  -1.73230
gfz2012nxyt  -0.99400
gfz2012oazn  -1.79480
gfz2012obgw  -1.15390
gfz2012oedb   0.36720
gfz2012omvo  -0.27910
gfz2012ostk   1.01470
gfz2012ovqs  -0.63450
gfz2012oycg  -1.07760
gfz2012pazr  -0.22320
gfz2012pciw  -1.23080
gfz2012peex   1.82040
gfz2012pgcl  -2.07180
gfz2012pkel   0.57130
gfz2012qjhs   1.65580
gfz2012qouy   1.68600
gfz2012qqxg   0.28520
gfz2012qtgs  -0.61920
gfz2012rats  -0.05100
gfz2012rcnj   1.05320
gfz2012repv  -0.81120
gfz2012rjsd   1.80530
gfz2012rknn   1.30170
gfz2012ronz  -0.56330
gfz2012royy  -0.06970
gfz2012rqlg   0.23760
gfz2012ruks   0.46600
gfz2012rypu  -0.29060
gfz2012shtg   0.43150
gfz2012snhi   0.85600
gfz2012spbj   2.18450
gfz2012sphd   0.71830
gfz2012sqmv  -0.06810
gfz2012sqvi  -0.29730
gfz2012svpr   0.25120
gfz2012syvl  -0.08260
gfz2012teic  -0.64860
gfz2012thfx  -0.79880
gfz2012tmop  -0.08450
gfz2012tpzx   2.76640
gfz2012ttoa  -0.15710
gfz2012tvmv  -1.68350
gfz2012tyig  -0.39130
gfz2012tyxl  -1.09090
gfz2012tzcc   0.39830
gfz2012tzgb  -0.22950
gfz2012uafg  -0.75400
gfz2012uaqj  -0.63230
gfz2012uciv  -0.77710
gfz2012ueqo   0.51240
gfz2012ufew   1.35210
gfz2012uhup  -0.45310
gfz2012ulpd   0.99840
gfz2012uqzp  -0.15070
gfz2012usba   0.15430
gfz2012uvqf  -0.31530
gfz2012uxnz   0.40840
gfz2012uyxb   0.13960
gfz2012uzom  -1.47930
gfz2012uzyj  -0.56530
gfz2012vceo  -0.70430
gfz2012vdbt  -0.64150
gfz2012viab  -0.82930
gfz2012vntz   0.01970
gfz2012vpza  -1.22960
gfz2012vrgb  -0.04800
gfz2012vsev   0.00000
gfz2012vwvd  -0.08040
gfz2012vxvr   0.56470
gfz2012wdyx  -0.11590
gfz2012wecd   1.22560
gfz2012whku  -1.03270
gfz2012wizz  -0.43150
gfz2012wklq  -1.37260
gfz2012wmkd   0.90230
gfz2012wmsg   0.33020
gfz2012wrir   0.19180
gfz2012wtkh  -0.07500
gfz2012wtkr   0.61650
gfz2012wubh   0.01860
gfz2012wvfl  -0.35370
gfz2012wxer   0.08110
gfz2012wxkg   0.38120
gfz2012wxlg  -1.10170
gfz2012wxnu  -1.10400
gfz2012wybs   0.26890
gfz2012wypz   0.27680
gfz2012xbjq  -0.57050
gfz2012xeul   0.10390
gfz2012xjyv  -0.14450
gfz2012xkkv  -0.44110
gfz2012xmxy   0.19620
gfz2012xssa   1.73060
gfz2012xyqp   1.15940
gfz2012xyua  -0.93980
gfz2012yfrp   1.48230
gfz2012yqjj  -0.18660
gfz2012yzod   0.49190
gfz2012zemh   0.10940
gfz2012zemz  -0.34780
gfz2012zfag   0.22880
gfz2012ziml  -0.22770
gfz2012zitl  -0.89410
gfz2012zjpv   0.58850
gfz2012zjre   1.35020
gfz2012zmbp  -0.14840
gfz2012zmln  -0.23980
gfz2013apmm  -0.61860
gfz2013aqaw   0.56590
gfz2013bnxc   0.73030
gfz2013bobq   0.52130
gfz2013bokp   0.29620
gfz2013bouj   1.30840
gfz2013btjm  -0.40650
gfz2013cbsm   0.91360
gfz2013ccnr  -0.61180
gfz2013cdan  -0.51170
gfz2013cnhh   0.63850
gfz2013cvqg  -0.17860
gfz2013cwpn   0.43020
gfz2013cwps   1.31620
gfz2013czeq   0.49290
gfz2013ddbh   1.02510
gfz2013dddp   0.46740
gfz2013dkly  -0.24660
gfz2013dkmz   1.49780
gfz2013dkym  -0.35580
gfz2013dnnx   0.23140
gfz2013dofo  -1.03590
gfz2013dojq  -0.11690
gfz2013drpk  -0.30870
gfz2013drxz  -1.45360
gfz2013dspt   4.47140
gfz2013dsrk  -2.31050
gfz2013dvyh  -0.64760
gfz2013egni  -0.43230
gfz2013egpu  -0.20080
gfz2013ehwe  -0.07980
gfz2013ekpm  -1.17560
gfz2013enbx   0.27870
gfz2013esnh   0.62620
gfz2013ewbo   0.50670
gfz2013fiud  -0.22800
gfz2013fkcl   3.00350
gfz2013fkii   1.80720
gfz2013flox  -0.97030
gfz2013fnzr  -1.12610
gfz2013fwxa   0.70250
gfz2013fygc  -0.22370
gfz2013gbcn  -0.80210
gfz2013gbst   0.84460
gfz2013gcfx  -1.19490
gfz2013gdgf  -0.85500
gfz2013gdnq  -0.77040
gfz2013gelv   2.15430
gfz2013gmor   0.82280
gfz2013gngz   0.51230
gfz2013gock   0.58450
gfz2013goux  -0.66170
gfz2013govy  -0.59320
gfz2013gras  -0.81410
gfz2013gvet   0.28500
gfz2013gvxh  -1.19640
gfz2013hdnc   0.00000
gfz2013hfmp  -0.60970
gfz2013hisv  -0.31630
gfz2013hkja  -0.40050
gfz2013hmbc   0.00000
gfz2013hsfw   1.08080
gfz2013huwr   0.29480
gfz2013hydf   0.56210
gfz2013hzdp   0.16930
gfz2013iapa  -0.16390
gfz2013iayx   1.21240
gfz2013idbb  -0.08500
gfz2013iexo   0.84200
gfz2013ihcj   0.44020
gfz2013ijsr  -0.13630
gfz2013ilug  -1.04930
gfz2013inux   2.09840
gfz2013iodt   0.36390
gfz2013ippu  -0.02580
gfz2013iqzq  -0.09660
gfz2013iunn   0.16490
gfz2013iyqz  -0.14350
gfz2013jdrx  -0.11390
gfz2013jesk  -2.34150
gfz2013jfah   1.45730
gfz2013jgij  -0.08690
gfz2013jgip   0.93580
gfz2013jjsi   0.01630
gfz2013jkut   0.86250
gfz2013jlst  -0.84230
gfz2013jmcc   1.10010
gfz2013jusj  -0.36680
gfz2013jwvc  -0.98230
gfz2013kccc  -2.94750
gfz2013kdeo   0.08190
gfz2013kheb   1.96910
gfz2013khli  -0.81940
gfz2013krei  -0.31700
gfz2013kvtk  -0.18840
gfz2013kweg   0.55650
gfz2013kwps  -0.83710
gfz2013lajg   0.43530
gfz2013lajn  -0.48520
gfz2013lbiu   1.23650
gfz2013ldpc  -0.51910
gfz2013ldqb   0.05550
gfz2013lgnl   0.04460
gfz2013lixa  -0.12890
gfz2013lljw   0.12560
gfz2013lmdy   0.23160
gfz2013lmqe   0.83340
gfz2013lmrs   1.49810
gfz2013lsob   0.17150
gfz2013lxyn   1.50790
gfz2013lyko   0.02120
gfz2013mnei   0.38600
gfz2013mnju  -0.30800
gfz2013mqik   2.29060
gfz2013mqmv   0.45270
gfz2013mvgr   0.42050
gfz2013mwbh  -0.71450
gfz2013mxee   2.47760
gfz2013ncjp  -0.09490
gfz2013ndin  -1.41100
gfz2013ngnt  -0.21460
gfz2013nixj  -0.53290
gfz2013nkgj   1.07070
gfz2013nknw   0.07360
gfz2013nlxz   0.10180
gfz2013nmac  -0.65320
gfz2013nnzf   0.48050
gfz2013nojf  -0.60670
gfz2013nppd   0.15530
gfz2013nqgw  -2.84070
gfz2013nskg  -0.01910
gfz2013nuvi  -0.12940
gfz2013nwdi  -0.51800
gfz2013oejn   0.47510
gfz2013ofls  -0.97530
gfz2013ogde  -1.24310
gfz2013oifr  -0.08340
gfz2013oinc   0.34000
gfz2013ojti  -0.05730
gfz2013oqsc   0.79150
gfz2013orjg   1.49080
gfz2013ornz   0.96070
gfz2013orzn   0.12690
gfz2013ozqm   1.25180
gfz2013ozrp   0.70330
gfz2013pcos  -0.54870
gfz2013pfbx  -0.11060
gfz2013pfeb  -2.02510
gfz2013pffm   0.90550
gfz2013pfnf   0.63780
gfz2013phef  -0.78390
gfz2013phmp   0.65050
gfz2013poxj  -0.62500
gfz2013puag  -1.00930
gfz2013pupd  -0.39560
gfz2013pxsj   1.31020
gfz2013pxtx   0.33650
gfz2013qali  -0.07020
gfz2013qcck   1.58230
gfz2013qesa   0.71840
gfz2013qfmm  -0.21060
gfz2013qmer   0.61440
gfz2013qnxc   0.73810
gfz2013qqrr  -0.32090
gfz2013qwbv   0.68250
gfz2013qzdq  -0.23870
gfz2013rdoo   0.09340
gfz2013reym   0.98460
gfz2013roki   0.82450
gfz2013rqcy   1.02520
gfz2013rrza  -0.18400
gfz2013rwfe  -0.86850
gfz2013saez   0.24210
gfz2013scai  -0.67490
gfz2013sdus   0.36320
gfz2013sfds   0.21510
gfz2013sfto   0.15890
gfz2013shlq  -0.00000
gfz2013shzy   0.13550
gfz2013sjhg  -0.09870
gfz2013skkm  -0.08060
gfz2013sllq   0.25350
gfz2013snbr  -0.35920
gfz2013snyf   1.22260
gfz2013sred   1.24980
gfz2013suln  -0.37970
gfz2013suvn  -0.12850
gfz2013svci  -0.21820
gfz2013svqv   0.07540
gfz2013sxbw   0.54690
gfz2013tbzy   0.37650
gfz2013tcbk   1.11650
gfz2013tcxc  -0.08170
gfz2013tcxq   0.05070
gfz2013tdau   0.23120
gfz2013tdkk   1.28410
gfz2013thtc  -0.33350
gfz2013tlaf   1.60670
gfz2013toea   0.37080
gfz2013toxf   0.14670
gfz2013tpeb   0.04380
gfz2013ttoz   1.32370
gfz2013tusd  -0.49130
gfz2013tuzv  -0.05590
gfz2013tvmw  -0.37530
gfz2013twwf  -0.83780
gfz2013txev   0.49400
gfz2013txij  -0.61710
gfz2013txtb   0.30550
gfz2013tyas  -0.81440
gfz2013uauo  -0.39060
gfz2013ufku  -0.35490
gfz2013ufxk   0.08880
gfz2013ufxm  -1.18970
gfz2013ugax   1.66650
gfz2013uhlm   1.02910
gfz2013umya   0.30870
gfz2013uqsp   0.45090
gfz2013uqvu  -0.15450
gfz2013uthl   4.55270
gfz2013uuzn   0.09400
gfz2013uxej   1.38430
gfz2013uysr   0.50690
gfz2013vdic   0.25970
gfz2013vefs   0.73990
gfz2013vexx   0.41840
gfz2013vfyw   1.27840
gfz2013vfzp   0.74000
gfz2013vgau  -0.55070
gfz2013vgev  -0.61400
gfz2013vgpf   1.78000
gfz2013vgrk  -0.34890
gfz2013vhnk   0.77630
gfz2013viul  -0.72490
gfz2013vjfe  -0.09660
gfz2013vjjc  -2.60370
gfz2013vnfj   1.93400
gfz2013vqot   0.47560
gfz2013vrmy   1.07840
gfz2013vsbl   0.31220
gfz2013vsxi   0.76910
gfz2013vuja   1.40260
gfz2013vvjh   0.14410
gfz2013vvrq  -0.03480
gfz2013vzbo  -0.48760
gfz2013walq   0.07710
gfz2013wbyr   1.53330
gfz2013wgeu  -0.14660
gfz2013wjmm  -1.14110
gfz2013wkyk  -0.02000
gfz2013wmfd   1.27180
gfz2013wnql  -0.13340
gfz2013woze  -0.31520
gfz2013wqhq   2.52770
gfz2013wrgw   4.57130
gfz2013wtzl  -0.10620
gfz2013xatc   0.07910
gfz2013xcmp  -0.47470
gfz2013xgek   0.89310
gfz2013xizq  -0.10460
gfz2013xkbh  -0.19050
gfz2013xklb   0.66390
gfz2013xmul   0.15800
gfz2013xpfa   0.30040
gfz2013xpsm   9.67730
gfz2013xqnn   1.00300
gfz2013xsdt   0.46170
gfz2013xtwj   0.38500
gfz2013xvqd   2.32940
gfz2013xvxf   2.15780
gfz2013xvyl  -0.61710
gfz2013xwda  -0.46320
gfz2013xwxn  -0.14840
gfz2013xwzd   1.12310
gfz2013xxcc   1.10370
gfz2013xxwv   0.86780
gfz2013xxxq   0.60510
gfz2013xyzb   1.12930
gfz2013xzcg   0.96990
gfz2013yaig  -0.50870
gfz2013yctg  -0.54450
gfz2013yghj  -0.41390
gfz2013yhbu  -1.46160
gfz2013yhpk  -0.12310
gfz2013yixl   1.10250
gfz2013ylbx  -1.22210
gfz2013ymky   1.78390
gfz2013ymxs   0.65490
gfz2013ynmw   0.46710
gfz2013ypdc  -0.06940
gfz2013yqkv  -0.08840
gfz2013yrmc  -0.33610
gfz2013yyti   0.97620
gfz2013yzte   0.28780
gfz2013zfhu   0.66000
gfz2013zjel   1.23080
gfz2013zjtw  -0.93720
gfz2013zmoc  -0.33030
gfz2013zmtb  -0.41510
gfz2014aawc   0.17130
gfz2014adoj  -0.02090
gfz2014afmx  -0.85290
gfz2014afyp   0.68630
gfz2014agde   0.32030
gfz2014agrl  -0.24640
gfz2014agyz  -0.13580
gfz2014ajlk   0.23430
gfz2014ajtf  -0.18470
gfz2014algk   0.81620
gfz2014alwz  -0.58750
gfz2014amsb   0.23140
gfz2014ande  -0.08710
gfz2014aqbk   1.17100
gfz2014ared   0.61900
gfz2014arpf   0.32700
gfz2014arqr   0.89800
gfz2014atbl   0.50950
gfz2014atgw   0.32440
gfz2014azqs   0.62020
gfz2014bagd   0.48520
gfz2014bdfd   0.87370
gfz2014bekc   0.29770
gfz2014bezu   0.27550
gfz2014bfng   0.33600
gfz2014bfqo   0.57460
gfz2014bhhv  -0.04940
gfz2014bjgt   0.50960
gfz2014bjsy  -0.66300
gfz2014bldx   0.08670
gfz2014bmfv   1.13830
gfz2014bmta   0.44570
gfz2014bwue  -0.44280
gfz2014bzxy   1.03990
gfz2014caop   1.19310
gfz2014cbtl  -0.51270
gfz2014cgog   0.61330
gfz2014claq  -0.64440
gfz2014cmwb   0.26080
gfz2014cqyo   1.29760
gfz2014ctot   0.69880
gfz2014cueu   0.87080
gfz2014cvkm   0.33060
gfz2014cvxx   0.32850
gfz2014cyvm   0.19170
gfz2014czqi  -0.15860
gfz2014czua   0.74920
gfz2014dcdy  -0.23840
gfz2014dddc   1.28530
gfz2014dffd   0.57830
gfz2014dhxt  -0.19610
gfz2014disp  -1.34130
gfz2014dpzx  -0.46280
gfz2014duqn  -0.29000
gfz2014ebmc   0.24870
gfz2014edfx   1.89840
gfz2014eght  -0.35200
gfz2014ehsf   1.24660
gfz2014ejmt   0.37940
gfz2014ekcr   0.03560
gfz2014ekdn  -0.53330
gfz2014ekdt   0.26600
gfz2014enhi  -1.14160
gfz2014eqpl   0.88550
gfz2014etqa   0.74370
gfz2014fcms   1.41260
gfz2014fedd   0.07800
gfz2014femz  -0.03640
gfz2014ffdc  -0.39810
gfz2014fgvi   0.63490
gfz2014fgwt  -0.20640
gfz2014fgxt   0.72760
gfz2014fgxz  -0.00000
gfz2014fgyo   0.51490
gfz2014fhbd   0.38260
gfz2014fhdw  -0.06450
gfz2014fhla  -0.70910
gfz2014fhrq   0.02160
gfz2014fhsg   1.07680
gfz2014fhwx   1.11820
gfz2014fimn   1.05820
gfz2014fiuj   1.02850
gfz2014fiwq  -0.29040
gfz2014fjdz   0.46850
gfz2014fjzd   0.21980
gfz2014fjzw   1.33940
gfz2014fkmr   1.45910
gfz2014fkmx   0.59210
gfz2014fnyg  -0.02720
gfz2014foio   0.68720
gfz2014frdz   1.68080
gfz2014frel   0.38000
gfz2014frez   0.25820
gfz2014frgm   0.46860
gfz2014frwh   0.15130
gfz2014ftka  -1.05460
gfz2014ftno   1.79440
gfz2014ftoc   0.11720
gfz2014ftpw  -0.71240
gfz2014ftrk   0.80330
gfz2014furx  -0.18010
gfz2014fusj   0.10610
gfz2014fusu  -0.00000
gfz2014fuub   0.04640
gfz2014fvaa  -0.19590
gfz2014fval   0.14900
gfz2014fvgh   0.15440
gfz2014fvjl   0.01940
gfz2014fvpy   0.38210
gfz2014fvrg   1.00540
gfz2014fwtt   0.72260
gfz2014fxhd  -0.97950
gfz2014fxpu   0.06230
gfz2014gbcz   0.11150
gfz2014gbdq  -1.04210
gfz2014ghpe   0.28600
gfz2014gilf   0.03910
gfz2014gkgf  -0.96070
gfz2014gkgs  -0.22780
gfz2014gkhp   0.18410
gfz2014gkhy  -1.18690
gfz2014gkjl   0.30860
gfz2014gkjt  -0.47350
gfz2014gkjw   0.84670
gfz2014gkjy   0.20650
gfz2014gklq  -0.22850
gfz2014gklv  -0.82770
gfz2014gkmm  -0.44000
gfz2014gkob  -0.73810
gfz2014gkok   0.21910
gfz2014gkpd   0.08420
gfz2014gkqf   0.67720
gfz2014gkqu  -0.37460
gfz2014gksj   1.52530
gfz2014gksu   0.18610
gfz2014gktq   0.67450
gfz2014gkut  -0.08830
gfz2014gkxm   0.81350
gfz2014glcu  -0.14120
gfz2014glcy  -0.72260
gfz2014glgo   0.84180
gfz2014glhs   0.01900
gfz2014gltx   0.22540
gfz2014gmci   0.30290
gfz2014gmes   1.33010
gfz2014gmge   0.45000
gfz2014gmhp  -1.09370
gfz2014gmhr  -1.93980
gfz2014gmic  -0.28850
gfz2014gmip   1.70490
gfz2014gmjo   0.45740
gfz2014gmku   0.03250
gfz2014gmlz  -0.11550
gfz2014gmnb   0.44100
gfz2014gmnw   0.10880
gfz2014gmor   0.67620
gfz2014gmpy   0.02340
gfz2014gmrj  -0.04240
gfz2014gmuk  -0.01350
gfz2014gmvr   0.59170
gfz2014gmzl   0.83600
gfz2014gmzs   0.37900
gfz2014gndq   0.69820
gfz2014gnfd   1.12630
gfz2014gnfs   0.53100
gfz2014gngg   0.41130
gfz2014gnig   0.71040
gfz2014gnmp   0.40960
gfz2014gnmx  -0.51030
gfz2014gnno   0.28750
gfz2014gnnt   0.81540
gfz2014gnom  -0.03630
gfz2014gnoz  -0.54760
gfz2014gnqt   0.08580
gfz2014gnre  -0.01020
gfz2014gnsi   1.06360
gfz2014gntd   0.37750
gfz2014gnxb   0.72450
gfz2014goba  -0.39110
gfz2014goei   1.08390
gfz2014goqw   0.56750
gfz2014gori   1.91460
gfz2014gpce   1.84850
gfz2014gphr  -0.20790
gfz2014gpnf   0.53970
gfz2014gpuk  -0.39390
gfz2014gpya   1.06270
gfz2014gqbj   0.90780
gfz2014gqco   1.06840
gfz2014gqed   1.23860
gfz2014gqer   1.33700
gfz2014gqqz  -0.37850
gfz2014gqve   0.49350
gfz2014grcv   0.88870
gfz2014grgn   0.27210
gfz2014grho  -2.13390
gfz2014gsqs   0.56110
gfz2014gtef   0.19810
gfz2014gtwz   0.28320
gfz2014gufl   0.63130
gfz2014gull   0.22380
gfz2014gulp  -0.29090
gfz2014gumd   0.41530
gfz2014gutm   0.67120
gfz2014gvhw   1.10350
gfz2014gvqj   0.13910
gfz2014gvrd   0.89600
gfz2014gwab   0.67420
gfz2014gwgf   0.99620
gfz2014gwqj  -0.01910
gfz2014gxag   0.83120
gfz2014gxxh   1.47030
gfz2014gxxo  -0.20660
gfz2014gyxd   0.37190
gfz2014hagb   0.23740
gfz2014haos   1.28860
gfz2014hasj  -0.08490
gfz2014hauo   0.36170
gfz2014hbjm   0.38210
gfz2014hbjz   0.32040
gfz2014hbqb   0.00000
gfz2014hcmj   0.50160
gfz2014heum   1.59440
gfz2014heyq   1.09470
gfz2014hfad  -0.10210
gfz2014hfhl  -0.31290
gfz2014hgqo   0.12430
gfz2014hhfs   0.67540
gfz2014hifp   0.05750
gfz2014hjgh   0.36060
gfz2014hjgo   0.37530
gfz2014hjgr   0.06440
gfz2014hjij  -0.00960
gfz2014hjlx   0.45200
gfz2014hkcf   0.68390
gfz2014hkck  -0.17890
gfz2014hlib   0.17320
gfz2014hmgf   0.52980
gfz2014hmrs   0.34230
gfz2014hmzg   1.32860
gfz2014hnfm   0.54450
gfz2014hocg  -0.17140
gfz2014hphw   0.02000
gfz2014hqxs   0.84050
gfz2014hrft   0.33120
gfz2014hriu   0.62710
gfz2014huaj   0.08750
gfz2014hwwi   1.26160
gfz2014hyvq   0.72980
gfz2014hzdy  -0.05610
gfz2014hzfw  -0.38180
gfz2014hzgn   1.07980
gfz2014hzhe   0.24910
gfz2014iani   0.81490
gfz2014iava   0.79460
gfz2014icqt   0.73720
gfz2014ieam   0.11340
gfz2014ifue   0.31960
gfz2014ifzj  -0.13990
gfz2014ijvh  -0.20400
gfz2014ikun  -0.45710
gfz2014ikvd   1.00900
gfz2014ilwu  -0.30340
gfz2014immt   0.87200
gfz2014imnn   0.97760
gfz2014inbj  -1.27100
gfz2014iobd   0.17130
gfz2014iqzj   0.11400
gfz2014irci   0.66020
gfz2014isff   0.60360
gfz2014issk   0.16820
gfz2014isub   1.01640
gfz2014isys  -0.05810
gfz2014itab   0.90670
gfz2014itbe   0.69880
gfz2014itfc  -0.10450
gfz2014itgh   0.21100
gfz2014itjx   0.25010
gfz2014itkw   0.24330
gfz2014iuhq   0.67270
gfz2014iwnf   0.43450
gfz2014ixga   0.79720
gfz2014ixky  -0.03540
gfz2014iywt   0.25780
gfz2014jatq  -0.13760
gfz2014jcjt  -0.81940
gfz2014jcmt   0.36510
gfz2014jfis   0.24200
gfz2014jggm   0.32750
gfz2014jhra   0.08920
gfz2014jipr  -0.26080
gfz2014jird   1.08490
gfz2014jjhc   0.38510
gfz2014jjln  -0.14550
gfz2014jjqk   1.07070
gfz2014jkxe  -0.89730
gfz2014jlwb  -0.04600
gfz2014jmnk   0.18260
gfz2014jnxm   0.03980
gfz2014jnyv  -0.02180
gfz2014jomw  -0.02140
gfz2014jpep   0.11900
gfz2014jpfn   1.14100
gfz2014jpgu  -3.69660
gfz2014jpxs   1.31550
gfz2014jtfe   0.34380
gfz2014jvow   0.27310
gfz2014jwmh  -0.32780
gfz2014kara  -1.02500
gfz2014kbuk   0.39610
gfz2014kbwm  -0.36500
gfz2014khan   0.15510
gfz2014khlk   0.36870
gfz2014kizt   0.04180
gfz2014kjee   0.20720
gfz2014kjjq   1.37210
gfz2014kjzb   1.34810
gfz2014kmmt   0.87720
gfz2014kndc  -0.33920
gfz2014knks  -0.81330
gfz2014knxs  -0.31730
gfz2014krlg   0.64840
gfz2014kscf   0.12990
gfz2014ksdv   0.24230
gfz2014kssw   2.13000
gfz2014kwie   1.00250
gfz2014kwrg  -0.49200
gfz2014kwwg  -0.08640
gfz2014kxqf   0.16860
gfz2014kyan  -0.09110
gfz2014kytf  -0.37490
gfz2014kzzm  -0.91740
gfz2014lbcq  -0.01890
gfz2014lbxn  -0.56980
gfz2014lchy   1.18890
gfz2014lddn  -0.37390
gfz2014ldhu   0.49420
gfz2014lefs  -1.98990
gfz2014lgqn   0.40820
gfz2014lhqn   0.49400
gfz2014lkyf  -0.55070
gfz2014lmge  -1.32780
gfz2014lnmw   0.57360
gfz2014lnqy   0.13020
gfz2014lpim  -0.69210
gfz2014lrzx  -0.51010
gfz2014lurd   0.01840
gfz2014lvgn   0.26660
gfz2014lwom   1.43540
gfz2014lxnc   0.48310
gfz2014lxqr   1.83270
gfz2014lyhk   0.10090
gfz2014lyhp  -0.12500
gfz2014lynp  -0.06980
gfz2014lzal   1.47280
gfz2014lzow  -1.40830
gfz2014macx  -0.88080
gfz2014madw  -0.06330
gfz2014mawp  -0.71740
gfz2014mden   0.81550
gfz2014mhgg  -0.30030
gfz2014mioi  -1.53690
gfz2014moaw  -0.15360
gfz2014mtum   0.45950
gfz2014mvza   0.73350
gfz2014mwor  -0.78750
gfz2014mxkr   1.07010
gfz2014navw   0.35590
gfz2014ndue   0.65330
gfz2014ngnd   0.66470
gfz2014ngsk   0.64620
gfz2014ngvt  -0.48160
gfz2014nhyb  -0.14750
gfz2014niqj   0.18210
gfz2014nkdx   0.13130
gfz2014nnih   0.92630
gfz2014nnxd   1.35090
gfz2014nowp   0.85040
gfz2014npdk  -0.07950
gfz2014npeo  -0.62320
gfz2014nphm   0.00000
gfz2014nqfm   0.09340
gfz2014nrie   0.58430
gfz2014nyeh  -0.14010
gfz2014nyfb  -0.09920
gfz2014nyko   0.38050
gfz2014nylm  -0.65360
gfz2014odgv  -0.12850
gfz2014ofhm  -0.05600
gfz2014oims   0.23170
gfz2014oinz  -0.65290
gfz2014okec   0.94920
gfz2014okjw   0.43320
gfz2014okxu   1.11090
gfz2014omyn   0.87360
gfz2014opqr  -0.44220
gfz2014orxs   0.83220
gfz2014osvx   0.17930
gfz2014osvz  -0.55800
gfz2014owur   1.58800
gfz2014owxc  -0.09720
gfz2014oxcc  -0.58420
gfz2014oyly   0.48820
gfz2014pjum   1.10170
gfz2014pkll   0.31460
gfz2014ppyi   0.95330
gfz2014ppzf   0.02170
gfz2014pqqp  -3.85450
gfz2014pqrc   0.00000
gfz2014pvch  -0.70370
gfz2014pxbu  -0.53790
gfz2014pzni   0.06460
gfz2014raau  -0.27170
gfz2014rbpx   0.21570
gfz2014rbsl   0.48960
gfz2014rdsn  -0.35960
gfz2014rfeb  -0.19720
gfz2014rghp  -0.11130
gfz2014rhnz  -0.03860
gfz2014riel  -0.87280
gfz2014rils  -0.41090
gfz2014rkwl  -0.09120
gfz2014roba  -0.22110
gfz2014romy  -0.36700
gfz2014royq  -0.22220
gfz2014rtcu  -0.25540
gfz2014rucz   0.59520
gfz2014ryfb  -0.23780
gfz2014sadu  -0.92090
gfz2014sjqw  -0.02090
gfz2014snfs   0.05400
gfz2014sptq  -0.92300
gfz2014sryn  -0.23920
gfz2014ssmv   0.44430
gfz2014ssvz  -1.55640
gfz2014szzf  -0.25280
gfz2014tabg  -0.24010
gfz2014tfgn  -0.41350
gfz2014thrw  -0.06120
gfz2014tovs   0.57500
gfz2014tqdo   0.16020
gfz2014tqly   0.09290
gfz2014tqsf   0.48070
gfz2014tute  -0.42310
gfz2014tzsd   0.33560
gfz2014ubwn  -0.21280
gfz2014ubyq  -0.55960
gfz2014udgg   0.07200
gfz2014uohh  -0.31250
gfz2014utac   0.88320
gfz2014uuqa  -0.02020
gfz2014uuuf   0.19350
gfz2014uvji   0.74670
gfz2014uvrk  -0.42320
gfz2014uxyg  -0.08340
gfz2014uyrq  -0.04500
gfz2014vcev   0.34660
gfz2014veit   0.52200
gfz2014vhms   0.35240
gfz2014vhuy   0.53490
gfz2014vjoz  -0.21340
gfz2014vpus  -1.30230
gfz2014vqqa  -0.24830
gfz2014waoo   0.54130
gfz2014watn  -0.12730
gfz2014wjko  -0.18350
gfz2014wmsc   0.10060
gfz2014wrkh   0.49790
gfz2014wsjh  -0.01700
gfz2014wwib  -0.17230
gfz2014xaxx  -0.89640
gfz2014xbyr  -0.02650
gfz2014xhkc  -0.23390
gfz2014xjri   0.35010
gfz2014xoji  -0.63150
gfz2014xqby   0.50920
gfz2014xqqd   0.10910
gfz2014yazi  -0.36160
gfz2014yhhm   0.18510
gfz2014ynzy   0.72230
gfz2014yrug   0.22520
gfz2014yula   0.74010
gfz2014zkys  -0.26120
gfz2014zlgp  -0.13780
gfz2015abpw  -0.12380
gfz2015aqav   0.00000
gfz2015aqbq   0.43230
gfz2015arpd   0.64720
gfz2015aruz  -0.32440
gfz2015atxv  -0.08840
gfz2015azzp   0.36250
gfz2015bavu   0.35730
gfz2015bdyd   0.31170
gfz2015berb   0.09350
gfz2015bfjm   0.45090
gfz2015bkbj  -0.33340
gfz2015bohx   0.98340
gfz2015bphe   0.25340
gfz2015bpxl   0.48420
gfz2015bsnl  -0.16550
gfz2015bucr   1.27160
gfz2015bvxx   0.55690
gfz2015byfn   0.41820
gfz2015byjd  -0.43540
gfz2015bzej   1.43140
gfz2015chhn  -0.86930
gfz2015chqn  -0.40550
gfz2015cpuo  -0.86910
gfz2015cxhx   0.16380
gfz2015cxrc  -0.55450
gfz2015cxxk   0.64010
gfz2015cyjd  -0.68790
gfz2015czfv  -0.11530
gfz2015dadj   1.21070
gfz2015dizn   0.57260
gfz2015dvbn   0.74450
gfz2015ecgq   0.27650
gfz2015egxq   0.49350
gfz2015ehpz   0.10780
gfz2015eiky   0.60150
gfz2015elgy  -0.32820
gfz2015eljz   0.71120
gfz2015emin   1.07370
gfz2015emtg   0.47090
gfz2015enth  -1.45090
gfz2015esrj  -0.10550
gfz2015etai   0.10880
gfz2015evpl   0.08110
gfz2015eyqs  -0.40290
gfz2015fbbk   0.70550
gfz2015fbew  -2.13550
gfz2015fcua  -0.35910
gfz2015fdpr  -0.98570
gfz2015fjhk   0.07360
gfz2015fkgt   0.05390
gfz2015fkic  -0.53560
gfz2015fkjs  -0.33970
gfz2015fkkd   1.19870
gfz2015fkuu   0.70400
gfz2015fpez   0.92200
gfz2015fsjj  -0.44000
gfz2015fvoi   0.17410
gfz2015fwkq   1.55370
gfz2015fwnf   1.99750
gfz2015fxbv   0.59730
gfz2015fxdi  -0.54680
gfz2015gckd  -0.15610
gfz2015ggjw  -0.18410
gfz2015gjbr  -0.34880
gfz2015gkwa  -0.20950
gfz2015gnmy   0.61750
gfz2015guhd  -0.19140
gfz2015gwao  -0.14940
gfz2015gzja  -0.89670
gfz2015hdcp   0.09470
gfz2015hepg   0.09550
gfz2015hgbk   0.00810
gfz2015hlfq   0.28850
gfz2015hlqo   0.51470
gfz2015hpmk  -0.13710
gfz2015hvgs   1.19640
gfz2015hwkv   0.09540
gfz2015igsy   0.16620
gfz2015imty   0.66160
gfz2015isim  -0.46140
gfz2015ixyy  -0.83220
gfz2015jkdw  -1.25140
gfz2015jmlf   0.37740
gfz2015jmlu  -0.10570
gfz2015jpap  -0.36770
gfz2015jwgl  -0.14530
gfz2015jxbx  -0.26240
gfz2015jxjd   0.21910
gfz2015jzcv   0.30120
gfz2015kakw  -0.58080
gfz2015kalm   0.35870
gfz2015kcaa   0.03550
gfz2015kkqb  -0.11930
gfz2015kkth  -0.53730
gfz2015kphk   0.36190
gfz2015kquq   0.26510
gfz2015ksni   0.26630
gfz2015kvwz   0.00000
gfz2015kxxs  -0.19020
gfz2015lcma  -0.10400
gfz2015lfma   0.33250
gfz2015lfud  -0.01870
gfz2015lhjq   0.08520
gfz2015lhjy   0.02210
gfz2015lytv  -1.72010
gfz2015lzad   0.11860
gfz2015mbgr   0.20260
gfz2015mddr  -0.33250
gfz2015mfpy  -0.33970
gfz2015mhym  -0.16180
gfz2015micz   0.15550
gfz2015mljd   0.13840
gfz2015mpte  -0.04560
gfz2015mvzk  -0.11480
gfz2015mxcu   3.14420
gfz2015nerz  -1.00360
gfz2015nqgf   0.29940
gfz2015ntpk   0.02010
gfz2015nuxz  -0.90240
gfz2015nwug   0.12290
gfz2015ocdz  -0.04160
gfz2015ofsr   1.09760
gfz2015ojut   0.33850
gfz2015okmq   0.07490
gfz2015okpu  -0.04910
gfz2015omab   0.51100
gfz2015opjp  -0.01900
gfz2015orkl  -0.21900
gfz2015othd   0.75720
gfz2015oyfl   0.39180
gfz2015pcvt   1.46650
gfz2015pdri   0.01970
gfz2015pgxa  -0.54130
gfz2015pjgr  -0.46550
gfz2015plal   0.56550
gfz2015poni  -0.26530
gfz2015prlr   0.20840
gfz2015puah   2.48620
gfz2015puqp  -0.79180
gfz2015qafb   0.54050
gfz2015qnho  -0.06130
gfz2015qnlv  -0.68050
gfz2015qnto  -0.37070
gfz2015qprd   0.35400
gfz2015qpvd  -0.20750
gfz2015quzo   0.70570
gfz2015rddx   0.43560
gfz2015rgov  -0.16690
gfz2015rgrg   1.23220
gfz2015rgst  -0.00000
gfz2015rkbq   0.12630
gfz2015rkrg   0.18720
gfz2015rkzg  -1.44830
gfz2015rpzn  -0.22300
gfz2015rtnv  -0.00000
gfz2015rwsb   0.96600
gfz2015rxmg   0.45430
gfz2015saet   0.14930
gfz2015sdeo   0.08770
gfz2015sdfy   0.06120
gfz2015sevh   0.54880
gfz2015sfdd  -0.36380
gfz2015sfdh  -2.37360
gfz2015sfdl  -2.51730
gfz2015sfdv   0.08480
gfz2015sfdy  -0.95030
gfz2015sfeo  -1.25610
gfz2015sffn  -1.25850
gfz2015sfga  -2.36840
gfz2015sfho   3.27500
gfz2015sfhz  -1.67340
gfz2015sfiq  -1.82460
gfz2015sfjf  -1.25460
gfz2015sfkh  -0.96600
gfz2015sfks  -1.45770
gfz2015sfkz  -1.58110
gfz2015sflf  -1.06880
gfz2015sfln   3.19320
gfz2015sfmd   1.37950
gfz2015sfno  -1.32010
gfz2015sfnv  -1.10090
gfz2015sfoc  -1.02330
gfz2015sfoh  -0.16340
gfz2015sfom   0.96940
gfz2015sfoq   1.38330
gfz2015sfpj  -0.37890
gfz2015sfps  -0.30900
gfz2015sfqo  -0.09450
gfz2015sfqr  -2.59570
gfz2015sfrc  -0.59250
gfz2015sfrf   0.22030
gfz2015sfrv  -0.51850
gfz2015sfsi   1.33170
gfz2015sfte  -0.69050
gfz2015sftu  -0.59360
gfz2015sfuc  -0.12570
gfz2015sfuz   0.66260
gfz2015sfwf  -0.12800
gfz2015sfxn  -0.18680
gfz2015sfzm  -0.10790
gfz2015sgad  -1.04960
gfz2015sgdj  -0.19810
gfz2015sgdn   1.73320
gfz2015sgey  -0.68270
gfz2015sggc  -1.39450
gfz2015sghq  -0.90160
gfz2015sgie   0.17800
gfz2015sglg  -0.42110
gfz2015sgmm  -0.10000
gfz2015sgmr  -0.50860
gfz2015sgna   1.19510
gfz2015sgoa   0.03900
gfz2015sgpu  -0.22320
gfz2015sguf  -0.96830
gfz2015sgxc   0.27020
gfz2015sgyd  -0.97640
gfz2015shaq  -1.28250
gfz2015shel  -0.13700
gfz2015shhg  -0.61850
gfz2015shhu  -1.43390
gfz2015shjn  -1.07900
gfz2015shlp   0.91890
gfz2015shov   2.20790
gfz2015shqc  -0.53710
gfz2015shqe  -1.44780
gfz2015shrg   0.13150
gfz2015shsz   1.15150
gfz2015shwt   1.00860
gfz2015sicf   0.48270
gfz2015sicu   0.59610
gfz2015siem   0.15580
gfz2015siky  -0.73320
gfz2015siof  -0.11350
gfz2015sist  -2.32540
gfz2015sitn  -0.25140
gfz2015sixs  -0.25650
gfz2015siyy  -0.52010
gfz2015sjbx   0.16220
gfz2015sjeq   1.52410
gfz2015sjfi   0.27690
gfz2015sjgk  -1.10380
gfz2015sjjb  -0.41480
gfz2015sjne  -0.87090
gfz2015sjoj  -0.83450
gfz2015sjpn  -1.47360
gfz2015sjtz   1.01850
gfz2015sjvu  -0.38700
gfz2015sjwi  -1.77490
gfz2015skab   0.04630
gfz2015skgj   0.41710
gfz2015skhf   0.53390
gfz2015skia  -1.14620
gfz2015sklu   0.53240
gfz2015skpv   0.26930
gfz2015skuk   1.03450
gfz2015skxu  -0.09260
gfz2015sldx  -0.49300
gfz2015slfn   0.47530
gfz2015sljs  -0.40000
gfz2015slun  -0.84700
gfz2015smgj   1.18730
gfz2015smym  -0.40480
gfz2015snhn   1.44640
gfz2015snmg   1.23090
gfz2015snmr  -0.38990
gfz2015snsf  -0.52300
gfz2015snwh  -0.77090
gfz2015snyd  -0.24950
gfz2015soat   0.41680
gfz2015sopc   0.74930
gfz2015sowu   0.66810
gfz2015soxc  -0.38400
gfz2015sozw   1.39960
gfz2015spal   0.52400
gfz2015sqbg   0.23710
gfz2015sqmy   0.07430
gfz2015sqoz   0.14640
gfz2015sqvx  -0.20160
gfz2015sqwv   0.08810
gfz2015sqyh   0.01720
gfz2015srat  -0.10030
gfz2015srgf  -0.25900
gfz2015srxe   0.76580
gfz2015srxm   0.37380
gfz2015sryk   0.20590
gfz2015ssaf   2.81210
gfz2015ssoe   0.57250
gfz2015sspn   0.39560
gfz2015ssrl   1.10760
gfz2015stas  -0.04630
gfz2015stcv   0.46300
gfz2015stfy  -1.92580
gfz2015stso   0.13180
gfz2015subg   1.08590
gfz2015subx   2.04040
gfz2015subz  -0.41500
gfz2015sudm   1.05650
gfz2015sunp   2.08070
gfz2015supa   1.04740
gfz2015susq  -1.60830
gfz2015svjy   0.22140
gfz2015svwm  -0.24790
gfz2015swgn  -0.09740
gfz2015sxmh  -0.52030
gfz2015szcb  -0.08770
gfz2015szfe   0.77650
gfz2015szfq  -1.00270
gfz2015sztx  -0.02450
gfz2015taml  -0.88010
gfz2015tbdn  -0.97000
gfz2015tbxe  -0.56780
gfz2015tcem   0.33940
gfz2015tchx  -0.03750
gfz2015tdbb   0.53350
gfz2015tdcu  -0.41820
gfz2015tdhb  -0.15320
gfz2015teje  -0.94780
