# Nsamples: 46  MAD:  0.686  mean: -0.375  variance:  0.795
gfz2010bxxs  -0.12770
gfz2010cqwl  -0.02880
gfz2010ebhc   0.31860
gfz2010grjd   1.02240
gfz2010iull  -0.39330
gfz2010lluj  -1.28350
gfz2010nmpc   0.07900
gfz2011aatr  -0.19910
gfz2011enva  -0.87440
gfz2011gkzt  -1.06990
gfz2011hlqw  -0.59130
gfz2011hlsa  -0.74570
gfz2011hlth   0.22420
gfz2011lzwj  -0.50420
gfz2011rewa   0.51100
gfz2011toub  -0.39060
gfz2011wxfs  -0.46510
gfz2012enno   0.31910
gfz2012jlox  -1.03830
gfz2012kkup  -0.23790
gfz2012klhx   0.08470
gfz2012kudo  -0.80880
gfz2012ldxg  -1.48800
gfz2012ldzj  -0.53790
gfz2012vrgb  -0.14960
gfz2012wypz  -0.37050
gfz2013drxz   0.08760
gfz2013jkut  -0.14430
gfz2013nwdi  -0.52690
gfz2013pfbx  -0.47700
gfz2013svci  -0.41390
gfz2014afmx   0.12000
gfz2014bwue  -1.38900
gfz2014fgvi   0.00000
gfz2014frdz   1.52020
gfz2014ftka  -1.59080
gfz2014gkgf   0.45170
gfz2014gkqf  -0.16100
gfz2014gmge   0.47000
gfz2014gmhr   1.45110
gfz2014hjgh  -2.89690
gfz2014hqxs  -0.97850
gfz2014nqfm  -0.39370
gfz2014tfgn  -3.37950
gfz2015cyjd   0.47820
gfz2015fsjj  -0.71440
