# Nsamples: 54  MAD:  0.565  mean: -0.007  variance:  0.401
gfz2010bxxs   0.10760
gfz2010grjd   1.27610
gfz2010iull   0.09860
gfz2010usho   1.06590
gfz2011aatr  -0.92320
gfz2011enva  -0.36070
gfz2011gkzt  -0.36420
gfz2011hlqw   0.01060
gfz2011hlsa  -0.14990
gfz2011lcxq  -0.44260
gfz2011lzwj   0.33560
gfz2011rewa   0.29580
gfz2012enno  -0.05720
gfz2012jlox  -0.06300
gfz2012kkup   0.09310
gfz2012klhx   1.00960
gfz2012ldxg  -0.09520
gfz2012vrgb   0.75170
gfz2012wypz  -0.31420
gfz2013drxz  -0.67540
gfz2013ifpq   0.38970
gfz2013jkut   0.39360
gfz2013kdeo   0.08140
gfz2013nwdi  -0.49060
gfz2013pfbx  -0.77880
gfz2013svci   0.22400
gfz2014bwue  -0.58550
gfz2014fgvi   0.50540
gfz2014fhla   0.85640
gfz2014frdz   0.29450
gfz2014ftka  -0.33030
gfz2014ftoc  -0.84520
gfz2014fusj  -0.28770
gfz2014gkgf  -0.79780
gfz2014gkqf   0.04520
gfz2014glcu   0.15350
gfz2014gltx   0.25100
gfz2014gmnb   0.07240
gfz2014gmnw  -0.15800
gfz2014goba   0.48770
gfz2014gull   0.87220
gfz2014hasj  -0.84170
gfz2014itkw   0.53420
gfz2014jpep   0.19780
gfz2014nqfm   0.11680
gfz2014pvch  -0.40730
gfz2014qlxd  -1.44370
gfz2014qqhm  -0.29910
gfz2014ubwn   0.32390
gfz2015cyjd   1.53750
gfz2015igsy  -1.83860
gfz2015jzcv  -0.58420
gfz2015lhjy  -0.15350
gfz2015mpte   0.54690
