# Nsamples: 18  MAD:  0.729  mean: -0.093  variance:  1.898
gfz2012vrgb  -0.36610
gfz2012wypz  -0.09530
gfz2013pfbx  -0.86470
gfz2013svci   0.00000
gfz2014bwue  -0.98370
gfz2014fgvi  -0.80080
gfz2014fhla   1.23260
gfz2014ftka  -0.39670
gfz2014gkgf  -0.66600
gfz2014gmvr   3.71920
gfz2014jpep  -3.73490
gfz2014ssvz   0.06080
gfz2014ubwn   0.25990
gfz2015cyjd   0.91970
gfz2015fsjj  -0.58210
gfz2015lhjy  -0.34120
gfz2015mpte   0.28750
gfz2015taml   0.68160
