# Nsamples: 41  MAD:  0.389  mean:  0.010  variance:  0.237
gfz2010bxxs   0.60820
gfz2010ebhc   0.11590
gfz2010grjd  -0.19040
gfz2010nmpc   0.05320
gfz2011aatr   0.24970
gfz2011enva  -0.26850
gfz2011hlqw   0.15160
gfz2011hlsa   0.09680
gfz2011lcxq  -0.57070
gfz2011lzwj   0.27120
gfz2011rewa   0.54580
gfz2011toub   0.14190
gfz2011wxfs  -0.03680
gfz2012enno  -0.44360
gfz2012jlox  -0.02460
gfz2012kkup  -0.00000
gfz2012klhx   0.32210
gfz2012ldxg   0.27990
gfz2012vrgb  -0.20680
gfz2012wypz   0.19560
gfz2013jkut   0.46280
gfz2013nwdi  -0.13400
gfz2013svci   0.15430
gfz2014bwue  -0.36260
gfz2014fgvi   0.45860
gfz2014fhla  -0.90410
gfz2014ftka  -1.02280
gfz2014gkgf  -0.89140
gfz2014gkqf  -0.09370
gfz2014goba  -0.18120
gfz2014hasj  -0.50410
gfz2014jpep  -0.66930
gfz2014lxnc  -0.00590
gfz2014nqfm  -0.24960
gfz2014qlxd  -0.14580
gfz2014qqhm   0.83220
gfz2014ssvz   1.02840
gfz2015cyjd   1.11490
gfz2015fsjj  -0.42260
gfz2015lhjy  -0.15660
gfz2015mpte   0.82630
