# Nsamples: 39  MAD:  0.420  mean:  0.130  variance:  0.557
gfz2010bxxs   0.04710
gfz2010ebhc   0.25890
gfz2010grjd  -0.02120
gfz2010iull   0.15190
gfz2010nmpc   0.09820
gfz2011aatr  -0.96940
gfz2011enva  -0.32720
gfz2011gkzt  -0.88510
gfz2011hlqw   1.80990
gfz2011hlsa   0.05320
gfz2011lcxq  -0.18530
gfz2011lzwj   0.43650
gfz2011rewa   0.26860
gfz2011toub   0.05280
gfz2011wxfs  -0.22470
gfz2012enno   0.29080
gfz2012jlox  -0.16380
gfz2012kkup   0.13680
gfz2012kudo  -0.50050
gfz2012ldxg   0.24750
gfz2012ldzj   2.00450
gfz2012ttoa   2.47540
gfz2012wypz   0.03130
gfz2013drxz  -0.73540
gfz2013jkut   0.77290
gfz2013pfbx  -0.27990
gfz2013svci   0.33040
gfz2014bwue  -0.31210
gfz2014fgvi   0.59480
gfz2014fhla   0.83690
gfz2014ftka  -0.47010
gfz2014gkgf  -0.33810
gfz2014gkqf  -0.06050
gfz2014gmhr  -1.29150
gfz2014goba   0.02670
gfz2014nqfm  -0.34210
gfz2014qqhm   0.22630
gfz2014ssvz   1.24630
gfz2015lhjy  -0.21310
