# Nsamples: 71  MAD:  0.488  mean: -0.328  variance:  0.518
gfz2010bxxs   0.02180
gfz2010cqwl  -1.29850
gfz2010iull  -0.30740
gfz2010mkuu  -0.32400
gfz2010nmpc  -0.75920
gfz2010usho   1.57760
gfz2011aatr  -0.29260
gfz2011dpqx  -1.10950
gfz2011enva  -0.67980
gfz2011gkzt  -1.62120
gfz2011hlqw  -0.53370
gfz2011hlsa  -0.29210
gfz2011lcxq  -0.60240
gfz2011lzwj   0.19930
gfz2011rewa  -0.30860
gfz2011toub  -0.41670
gfz2011wxfs  -0.26340
gfz2012enno   0.22500
gfz2012jlox  -0.40540
gfz2012kkup  -0.42700
gfz2012klhx  -0.40840
gfz2012ldxg  -0.05530
gfz2012ldzj   1.31410
gfz2012teic  -0.63420
gfz2012ttoa   0.22910
gfz2012vrgb   0.43660
gfz2012wypz  -0.34490
gfz2013drxz  -0.49740
gfz2013ifpq  -0.41060
gfz2013jkut   0.16340
gfz2013kdeo  -0.58550
gfz2013nkgj   0.08500
gfz2013nwdi  -1.04940
gfz2013pfbx  -0.84160
gfz2013svci  -0.11040
gfz2014ande  -0.27690
gfz2014bwue  -0.38530
gfz2014fgvi   0.24660
gfz2014fhla  -2.02170
gfz2014frdz  -0.69920
gfz2014ftka  -2.31190
gfz2014fval   0.21140
gfz2014gkgf  -0.96810
gfz2014gkhy   0.26030
gfz2014gkqf  -0.32060
gfz2014gltx  -0.19430
gfz2014gmge  -1.03070
gfz2014gmhr   2.33240
gfz2014gmnb  -0.86210
gfz2014gmnw  -0.68330
gfz2014goba   0.14570
gfz2014gull  -1.00090
gfz2014hasj  -1.58620
gfz2014hqxs   0.28290
gfz2014huaj  -0.73440
gfz2014jpep  -0.27920
gfz2014lgqn   0.42080
gfz2014lxnc  -0.41700
gfz2014lyhk  -0.66230
gfz2014nqfm  -0.50430
gfz2014oinz  -0.85040
gfz2014pvch  -0.71270
gfz2014qlxd  -0.55550
gfz2014qqhm   0.09610
gfz2014ubwn  -0.05140
gfz2015cyjd   0.74340
gfz2015fsjj  -0.47390
gfz2015gckd  -0.44120
gfz2015lhjy  -0.47780
gfz2015mpte  -0.25580
gfz2015taml   1.03210
