# Nsamples: 40  MAD:  0.546  mean: -0.196  variance:  0.529
gfz2012vrgb  -0.26600
gfz2012wypz  -0.05320
gfz2013pfbx  -0.61630
gfz2013svci   0.10990
gfz2013uauo   0.02160
gfz2014afmx  -0.48230
gfz2014ande  -2.16520
gfz2014bwue  -0.12160
gfz2014fgvi   0.15100
gfz2014fhla  -1.23320
gfz2014frdz   0.64400
gfz2014ftka  -1.36600
gfz2014ftoc  -1.16240
gfz2014gkgf  -0.82510
gfz2014gkqf  -0.30440
gfz2014gltx   0.29290
gfz2014gmhr   2.45570
gfz2014gmnb  -0.11590
gfz2014goba  -0.54600
gfz2014hasj  -0.26610
gfz2014hocg   0.40770
gfz2014huaj  -0.89680
gfz2014jjhc   0.14920
gfz2014jpep  -0.59980
gfz2014lgqn   0.79350
gfz2014lxnc  -0.34090
gfz2014nqfm  -0.79640
gfz2014nrie   0.14000
gfz2014qlxd  -0.34130
gfz2014qqhm   0.36990
gfz2014ssvz  -0.11840
gfz2014ubwn   0.31230
gfz2015berb  -0.19370
gfz2015chhn   0.12270
gfz2015cyjd   0.30910
gfz2015fsjj  -1.17320
gfz2015jzcv  -0.30160
gfz2015lhjy  -0.17070
gfz2015mpte   0.32710
gfz2015taml  -0.00000
