# Nsamples: 1214  MAD:  1.240  mean:  1.054  variance:  2.796
gfz2010aban   0.30010
gfz2010aerk   0.91720
gfz2010ahla   1.87810
gfz2010ahqi   1.55820
gfz2010aphp   0.13730
gfz2010awfi   0.20010
gfz2010aykj   6.31090
gfz2010bedu  -0.54500
gfz2010bfzs   0.90850
gfz2010bgth   5.33040
gfz2010bhhq   1.88910
gfz2010bifb   3.07170
gfz2010bjeb   0.14220
gfz2010bjsl  -1.03210
gfz2010bkob   1.26070
gfz2010bkos   1.71520
gfz2010boxo   7.98730
gfz2010chnv   0.13740
gfz2010cind  -1.14350
gfz2010civi   0.98390
gfz2010cjmx   1.06110
gfz2010cjqh   0.11030
gfz2010cjrf  -3.32330
gfz2010ckeu  -0.07410
gfz2010ckzm   0.15800
gfz2010cnwc   0.63070
gfz2010cptb   0.25290
gfz2010cqwl   1.79510
gfz2010cres  -0.13060
gfz2010ctuw  -3.09950
gfz2010czps   2.71660
gfz2010dtmx   0.59520
gfz2010dumm  -0.00900
gfz2010eaoy   4.72800
gfz2010eapk   4.38620
gfz2010earq   2.77280
gfz2010eask   1.93680
gfz2010eavp   0.35350
gfz2010eavs   3.35040
gfz2010eawb   2.95540
gfz2010eawu  -0.01400
gfz2010eaxa   2.68440
gfz2010eaxn   4.00480
gfz2010eaya  -1.97360
gfz2010eayp   2.25520
gfz2010eayx   1.90130
gfz2010eaze  -3.25970
gfz2010eazu   4.72390
gfz2010ebbd   2.27660
gfz2010ebbx   7.04900
gfz2010ebby   2.39580
gfz2010ebdl   1.36510
gfz2010ebeh   1.55380
gfz2010ebfa   4.71870
gfz2010ebfx   1.36280
gfz2010ebgj   0.82030
gfz2010ebhc   0.38440
gfz2010ebih   0.67120
gfz2010ebin   0.48420
gfz2010ebiv   1.94490
gfz2010ebjg   1.97650
gfz2010ebjy   2.80890
gfz2010ebkj   1.60430
gfz2010ebkx   0.00000
gfz2010ebla   3.65520
gfz2010ebll   4.55730
gfz2010ebmb   2.74440
gfz2010ebmi   2.19960
gfz2010ebnn   3.09190
gfz2010ebpa   2.72670
gfz2010ebqt   1.02950
gfz2010ebqz  -1.05490
gfz2010ebrm   1.94820
gfz2010ebtk   2.40720
gfz2010ebvm   2.57450
gfz2010ebvv   3.17350
gfz2010ebwp   2.67080
gfz2010ebxl   2.07910
gfz2010ebze   1.55550
gfz2010ebzk   1.02310
gfz2010ebzr   2.66140
gfz2010ecam   2.72840
gfz2010ecay  -1.33880
gfz2010ecbi   3.31610
gfz2010eccq   1.62930
gfz2010ecdu   1.00260
gfz2010eced   1.69560
gfz2010ecft   0.99610
gfz2010ecfx   1.41950
gfz2010ecfy   1.03960
gfz2010echc   2.95100
gfz2010echt   1.23000
gfz2010echy   1.80730
gfz2010ecka   0.64870
gfz2010ecls  -0.26500
gfz2010ecml   3.66560
gfz2010ecnm   1.75540
gfz2010ecns   2.86500
gfz2010ecro  -0.24640
gfz2010ecua   3.51420
gfz2010ecuv   2.37000
gfz2010ecvt   1.92620
gfz2010ecyr   1.58050
gfz2010edad   1.46720
gfz2010edat  -0.10760
gfz2010eday   1.11510
gfz2010edbz   3.95340
gfz2010edcp  -3.50950
gfz2010edde   2.51650
gfz2010edhr   1.82250
gfz2010edhv   0.66460
gfz2010edim   2.07610
gfz2010edji   1.98100
gfz2010edkp   1.96660
gfz2010edoq   1.14550
gfz2010edpb   1.39450
gfz2010edqd  -0.02180
gfz2010edqh  -0.28650
gfz2010edyi   1.03420
gfz2010eedu   0.65840
gfz2010eedz   2.55210
gfz2010eefh   3.59460
gfz2010eefo  -0.59210
gfz2010eegn   1.99550
gfz2010eeia   0.94360
gfz2010eeij   2.47530
gfz2010eekg   1.13190
gfz2010eekq   0.70500
gfz2010eell  -0.61740
gfz2010eeng   0.81850
gfz2010eeqy  -2.42090
gfz2010eerh   2.42730
gfz2010eern   1.92190
gfz2010eexz   1.94070
gfz2010eeyh   1.31380
gfz2010efak   2.59180
gfz2010efkc   1.07250
gfz2010efnf   0.76820
gfz2010efsq   0.86490
gfz2010efwo   1.19710
gfz2010efxf   0.14690
gfz2010egap   2.27280
gfz2010eghq   0.60570
gfz2010egld   1.65350
gfz2010egln   1.57370
gfz2010egmp   0.94790
gfz2010egqh   0.90600
gfz2010egsw   0.40550
gfz2010egsy   0.85040
gfz2010egyy   0.53600
gfz2010ehaj   1.02120
gfz2010eher   1.14760
gfz2010ehft  -0.12660
gfz2010ehnl   0.85090
gfz2010ehnm   1.40720
gfz2010ehrq   0.14440
gfz2010ehsy  -1.23590
gfz2010ehvj   1.18440
gfz2010ehxz   2.24660
gfz2010eimf   2.25770
gfz2010eioi   1.55070
gfz2010eiqi   2.38240
gfz2010eisx   4.39490
gfz2010eixj   0.72120
gfz2010ejae   1.93890
gfz2010ejco   0.64220
gfz2010ejjg   1.76090
gfz2010ejju  -1.78330
gfz2010ejka  -0.70280
gfz2010ejma   1.07270
gfz2010ejxf   1.56830
gfz2010ekaw   2.92190
gfz2010ekyc   3.10800
gfz2010elhv   1.54800
gfz2010elin  -2.97850
gfz2010eljf  -1.97420
gfz2010elsw   0.39410
gfz2010eltf   3.75150
gfz2010elvp   1.64750
gfz2010elxi   1.13480
gfz2010elyc   3.41230
gfz2010elyo   1.52480
gfz2010elzf   1.19800
gfz2010elzl   2.28580
gfz2010emoz   6.63040
gfz2010emyz   1.98940
gfz2010erig   0.71360
gfz2010eruy   0.64930
gfz2010erwn  -0.63560
gfz2010erxb   0.27100
gfz2010erxk   0.62890
gfz2010eryg   0.19900
gfz2010esmg   0.26970
gfz2010eted   0.33650
gfz2010etfw   0.85670
gfz2010euae   1.94490
gfz2010euan   0.94100
gfz2010eugj   6.41330
gfz2010eujm   2.66850
gfz2010eutw  -0.84750
gfz2010euvl   1.38030
gfz2010euxe   2.45760
gfz2010evco   1.64250
gfz2010evgf   2.31950
gfz2010evjv   1.48090
gfz2010evkd   3.07140
gfz2010ewbc   1.09680
gfz2010ewpq   2.23710
gfz2010ewvc   0.75740
gfz2010ewyu   2.45510
gfz2010excp   1.89690
gfz2010exdd   4.10040
gfz2010exdl   2.37440
gfz2010exed   2.09470
gfz2010exel   1.06680
gfz2010exfb   0.74360
gfz2010exgb   1.23500
gfz2010exhd   2.65590
gfz2010exhw   1.52830
gfz2010exjw   2.21510
gfz2010exlm   0.24720
gfz2010exmc   0.55880
gfz2010exno   1.67370
gfz2010exou   0.96050
gfz2010exqu   0.52160
gfz2010exyp   0.78060
gfz2010eyaz   2.21480
gfz2010eybj   0.76130
gfz2010eymr   0.60600
gfz2010eymx   1.05790
gfz2010eyqe   0.92450
gfz2010eyvq  -0.04800
gfz2010eyxe   1.73090
gfz2010ezax   1.23940
gfz2010ezck  -1.29760
gfz2010ezig   0.91500
gfz2010ezjk   2.48830
gfz2010ezuj   1.91460
gfz2010ezvg   0.98940
gfz2010ezvt  -0.35560
gfz2010ezwz   1.01370
gfz2010ezxd   1.97950
gfz2010faeu  -0.13000
gfz2010falm   1.97680
gfz2010fauz   0.39150
gfz2010faxg  -1.07580
gfz2010fbeu  -0.04280
gfz2010fbpi  -0.15170
gfz2010fbwe   0.13710
gfz2010fcax   1.54380
gfz2010fciw   0.38750
gfz2010fcnn   2.34040
gfz2010fcnt   2.50100
gfz2010fcxy   1.44930
gfz2010fcyj   2.01760
gfz2010fczt   1.52950
gfz2010fdxr   0.26070
gfz2010fedq   2.04930
gfz2010fefr  -2.09970
gfz2010fexw  -0.06430
gfz2010ffhq   4.23440
gfz2010ffjb   1.34530
gfz2010ffui  -0.32450
gfz2010fhbl   1.64140
gfz2010figq   1.30430
gfz2010fihj  -0.28430
gfz2010fika   2.02590
gfz2010fisf   1.27700
gfz2010fixr  -0.57980
gfz2010fjal   0.05310
gfz2010fjas   1.47480
gfz2010fjmu  -0.07930
gfz2010fjni   0.47040
gfz2010fkhd   0.15810
gfz2010fkia   1.44510
gfz2010fknh   0.44380
gfz2010fkvg   0.10360
gfz2010flha   2.73800
gfz2010floi  -0.08120
gfz2010flrt   0.12130
gfz2010flxi   0.67690
gfz2010fmhb   2.17100
gfz2010fmip   1.52920
gfz2010fmpy  -1.71510
gfz2010fmwb   2.66220
gfz2010fneu   0.22510
gfz2010fnrk  -4.87410
gfz2010fobc   0.99380
gfz2010fona   1.27260
gfz2010fpmv   0.59260
gfz2010fpqy   2.65200
gfz2010fqdu   1.02390
gfz2010fqtj   1.34470
gfz2010fser   1.52470
gfz2010fsmy  -0.00000
gfz2010fsth   2.24820
gfz2010ftlm   2.39340
gfz2010ftsx  -0.04130
gfz2010fupn   1.83230
gfz2010fuuy   2.53080
gfz2010fuwa   1.13460
gfz2010fvuc   1.67430
gfz2010fwkk  -4.38490
gfz2010fwlb   1.06520
gfz2010fwny  -0.07150
gfz2010fwpv   2.22700
gfz2010fwzd   3.72460
gfz2010fyed   3.62630
gfz2010fyen   1.88140
gfz2010fync   0.04920
gfz2010fzoi   0.12250
gfz2010fzsg   0.06420
gfz2010fzyt   0.08950
gfz2010gcdn   3.56440
gfz2010gceb   1.52900
gfz2010gcrl   3.22630
gfz2010gdch   0.27900
gfz2010gdld   2.01740
gfz2010geru  -0.56240
gfz2010ghyk  -1.65940
gfz2010glqr   1.13700
gfz2010glxl   2.09690
gfz2010gmib   1.32600
gfz2010govu   0.09410
gfz2010grjd  10.66130
gfz2010grss   0.56570
gfz2010grxb   0.51070
gfz2010gslu   2.24260
gfz2010gtqs   2.08710
gfz2010gtzt   2.37050
gfz2010gvya   0.36770
gfz2010gwmp  -0.20030
gfz2010gymo   2.51450
gfz2010gyqp   0.36930
gfz2010gzxr   1.78530
gfz2010hbka   2.82440
gfz2010hcio   0.32230
gfz2010hevz  -0.25640
gfz2010hgld  -0.88710
gfz2010hhls   0.29050
gfz2010hjoc   0.00000
gfz2010hlco   1.94290
gfz2010hllj   1.49450
gfz2010hlln   2.56710
gfz2010hlmq   1.67460
gfz2010hlvr   0.33780
gfz2010hmhm   1.43330
gfz2010hndk   0.59960
gfz2010hnnf   2.37670
gfz2010hnpi   2.49320
gfz2010hnzr   2.29430
gfz2010homc  -0.73380
gfz2010hptz   2.03020
gfz2010hrkr   2.24160
gfz2010hrpr   0.55810
gfz2010htdq   0.13290
gfz2010hufk   1.24530
gfz2010hxgv   2.95090
gfz2010hxhe   2.63570
gfz2010hykt   0.03700
gfz2010ibiy   1.01240
gfz2010ibxj   0.08890
gfz2010iciq   0.03930
gfz2010icqq   2.80160
gfz2010iefy   0.60800
gfz2010izzj   1.36060
gfz2010jant   0.95550
gfz2010jatq   0.31910
gfz2010jhie   2.37950
gfz2010jitt   4.02090
gfz2010jkxj  -1.93600
gfz2010jlhj   1.22540
gfz2010jpss   2.44330
gfz2010jpyj   2.45500
gfz2010jssh   1.41220
gfz2010jsuh   1.30640
gfz2010jsuo   1.38740
gfz2010jtal   0.58990
gfz2010jucj  -0.23860
gfz2010jwpy   5.91060
gfz2010jxbm   2.22530
gfz2010jygz   6.09010
gfz2010jzku   0.93640
gfz2010kcoo   1.79640
gfz2010kdyc   1.55480
gfz2010kgws   0.91910
gfz2010kjmp  -1.16220
gfz2010kmgg   2.68650
gfz2010kmsv   2.90050
gfz2010kown   2.54340
gfz2010kqyh   0.50960
gfz2010kraw   0.00000
gfz2010kyen   0.24620
gfz2010kyvj  -1.38900
gfz2010lcoq   0.78000
gfz2010lczp   1.37040
gfz2010lepw   2.18870
gfz2010lfju   2.08250
gfz2010lgwy  -0.67200
gfz2010liqs   1.21480
gfz2010lkcf  -1.19570
gfz2010lluj   2.04650
gfz2010lopz   1.82660
gfz2010lrlk   3.33290
gfz2010lruw   1.48520
gfz2010lwuq   0.39330
gfz2010lyfk   1.14180
gfz2010mant  -0.36670
gfz2010mbje   0.59610
gfz2010mcrx   0.65410
gfz2010mdpq   0.55410
gfz2010mgss   0.91980
gfz2010miil   1.17540
gfz2010mipi  -0.44690
gfz2010miqn   1.27990
gfz2010mkuu   3.79170
gfz2010mlkz   2.89120
gfz2010mlta   0.33740
gfz2010mncc   2.08490
gfz2010mnhm   1.17810
gfz2010moyw   2.81710
gfz2010mpuy   3.40600
gfz2010msjj  -0.49280
gfz2010mtab   0.71510
gfz2010mwdq   1.82170
gfz2010mzjr   0.47430
gfz2010ncrl   2.45750
gfz2010ndxl  -0.36210
gfz2010nlkh   0.14720
gfz2010nmpc   6.25640
gfz2010nnny   0.66670
gfz2010nqwf   1.89150
gfz2010nqwo   3.48930
gfz2010nrew   2.49640
gfz2010nrjo   0.98710
gfz2010nsck   2.12330
gfz2010nsdf   1.86930
gfz2010nsfx  -0.53210
gfz2010nsjs   0.11320
gfz2010ntuo   2.88090
gfz2010nubk   7.96860
gfz2010nwef   1.54060
gfz2010nxsy   0.50000
gfz2010nxum   0.76510
gfz2010nzha   0.26450
gfz2010nzla   3.68030
gfz2010ocxq   2.13950
gfz2010odpb   0.13750
gfz2010oedn   0.60990
gfz2010okdm   3.08340
gfz2010oluw   0.45810
gfz2010omla  -0.21660
gfz2010onma   0.90740
gfz2010osjs   2.08980
gfz2010osqo  -0.35420
gfz2010otbn   0.39490
gfz2010oyqy   1.03740
gfz2010pbdz   4.07640
gfz2010pcxi   0.79420
gfz2010pdtk   1.44780
gfz2010pets  -0.01910
gfz2010pewa   2.46920
gfz2010pewx   1.34730
gfz2010pexf   1.22870
gfz2010pfyu   3.75930
gfz2010phvg   2.75300
gfz2010plbg   2.53420
gfz2010pmqd   2.39790
gfz2010pqck  -3.32010
gfz2010pxak   0.49280
gfz2010pxgh   1.82570
gfz2010pxls  -0.19750
gfz2010qbng   0.21050
gfz2010qpcq   4.31800
gfz2010qttw  -0.00000
gfz2010qwwx   2.19050
gfz2010rkfp   3.81780
gfz2010rlbv   1.04360
gfz2010rqwj   2.21880
gfz2010rywq   0.51390
gfz2010rzrr   0.56380
gfz2010rzsd   0.35770
gfz2010sfee   2.51980
gfz2010sfla   0.13790
gfz2010sgzk   1.11810
gfz2010skqo  -0.26170
gfz2010skve   1.12940
gfz2010srdb   1.97050
gfz2010svtn   1.63360
gfz2010svve   1.08250
gfz2010swcy   5.82330
gfz2010sxfq   0.21290
gfz2010sxwt   0.56580
gfz2010sysw   0.38700
gfz2010szde   1.92390
gfz2010szim   1.11930
gfz2010tcbr   2.07180
gfz2010tcrl  -0.24870
gfz2010tlfm   2.10020
gfz2010truw   1.09180
gfz2010txjs   1.92400
gfz2010tzzk   2.10060
gfz2010uept  -0.00000
gfz2010uouo  -0.54090
gfz2010upiw   2.78600
gfz2010urlq   4.14850
gfz2010usho   0.84640
gfz2010ustq   1.37990
gfz2010utcg   2.01970
gfz2010utmc   1.54560
gfz2010utvp   0.83270
gfz2010uyhb   0.07450
gfz2010uzon  -0.85920
gfz2010veri  -2.49890
gfz2010vhuj   0.49170
gfz2010vppc   0.16830
gfz2010vtdg   1.08630
gfz2010vxvs   5.61960
gfz2010vzpr   1.86610
gfz2010vzzz  -0.17730
gfz2010wioh  -0.68380
gfz2010wnty   1.99300
gfz2010wntz   0.01990
gfz2010wofs   1.15740
gfz2010wrxx   0.85160
gfz2010wxqa  -1.81490
gfz2010xbcr   0.05340
gfz2010xbdv  -0.13170
gfz2010xbgs   0.79270
gfz2010xcdh  -0.47030
gfz2010xche  -0.03830
gfz2010xcij   0.00000
gfz2010xden   3.34650
gfz2010xgzw   2.27340
gfz2010xjck   2.27960
gfz2010xjsj   0.35790
gfz2010xmpr   1.12820
gfz2010xnxk  -0.03480
gfz2010yfsv   0.00790
gfz2010yjev   1.00120
gfz2010ymfy   0.62440
gfz2010ymur   1.06120
gfz2010yosr   2.30170
gfz2010yoyx   1.14930
gfz2010yqqb  -0.01660
gfz2010yqqv  -0.00000
gfz2010yqwx  -1.84610
gfz2010zdpo  -0.03560
gfz2010zeeh   0.30260
gfz2011aatr   1.48940
gfz2011adjs   3.20810
gfz2011adlj   2.25010
gfz2011adne   1.21120
gfz2011adpw   1.85490
gfz2011adqk   1.95250
gfz2011aeay   2.04800
gfz2011alwf   0.25860
gfz2011anur  -0.40430
gfz2011aosc   1.59900
gfz2011aqxf   1.87190
gfz2011blsi   0.18430
gfz2011bnzn   0.03620
gfz2011bpkd   0.41200
gfz2011bswz  -0.75820
gfz2011cfae   1.90130
gfz2011crdy   0.38240
gfz2011ctbn  -0.04040
gfz2011cvcg   0.91830
gfz2011cvfg  -1.11500
gfz2011cwgn   0.37950
gfz2011cykd   3.66740
gfz2011cylz   1.34300
gfz2011cynl   2.28630
gfz2011cyre   1.19890
gfz2011cyuk   2.00380
gfz2011czwj   2.20100
gfz2011dbev   2.80460
gfz2011dbig   2.49530
gfz2011dbli  -0.33160
gfz2011dbon   2.02580
gfz2011dbwt   0.59640
gfz2011dcqb   3.49690
gfz2011ddao   0.26320
gfz2011dddh  -0.28520
gfz2011deaf   5.24350
gfz2011dkyi   0.50730
gfz2011dllz  -1.19270
gfz2011dlyx   0.45890
gfz2011dmat  -0.02150
gfz2011dndz  -0.09840
gfz2011dpaa   0.80680
gfz2011dpmx   0.36590
gfz2011dpqx   4.49300
gfz2011dtpy   2.18450
gfz2011eayc   2.10580
gfz2011eazf   7.59210
gfz2011ecaj   2.69360
gfz2011edmm   0.34770
gfz2011efgv  -0.01910
gfz2011ehzq   1.69420
gfz2011eiis   0.77500
gfz2011ejlp   0.49320
gfz2011ekpr   0.56190
gfz2011eltw   5.80430
gfz2011enva   4.31050
gfz2011eocc  -0.71590
gfz2011etje  -2.37650
gfz2011fgvr   0.81640
gfz2011fhag   0.61320
gfz2011fhbm   0.62070
gfz2011fhur  -0.65300
gfz2011fkbn   1.15300
gfz2011fnsw   0.15760
gfz2011gbmx   2.71420
gfz2011gcwb   0.83270
gfz2011gdgh   0.43920
gfz2011ggvf   0.12230
gfz2011ghky   1.10180
gfz2011gjlx   1.25310
gfz2011gkey   1.62150
gfz2011gkzt   4.73700
gfz2011gzbr  -1.26610
gfz2011haid   1.81200
gfz2011hbex   1.37080
gfz2011hbqk   0.95390
gfz2011hebt   0.08340
gfz2011hfkj   0.49800
gfz2011hlqw   1.16230
gfz2011hlsa   1.53890
gfz2011hlth   0.42000
gfz2011hpgx   0.21850
gfz2011hpqp   1.17730
gfz2011hrhe   0.01910
gfz2011hrhu   2.34130
gfz2011hryk   2.44930
gfz2011hsfj   1.03950
gfz2011hvbu   1.04990
gfz2011iwte   1.33640
gfz2011ixai   0.92760
gfz2011izto   0.42800
gfz2011jbbc  -0.57450
gfz2011jdsj   0.05500
gfz2011jghb   0.58000
gfz2011jnmi  -0.54000
gfz2011jplh   1.84630
gfz2011jtlg   0.83010
gfz2011juid   0.92900
gfz2011jxpl   0.08930
gfz2011knbi   0.12330
gfz2011knoo   0.92270
gfz2011kqwo   2.42370
gfz2011kqyg   1.90420
gfz2011ksiu  -0.79830
gfz2011kweu   1.26480
gfz2011kwid   0.62120
gfz2011kwjx   1.63450
gfz2011kwkw   0.66970
gfz2011kwld   0.48940
gfz2011kwlq   1.04840
gfz2011kwni   1.00150
gfz2011kwnu   0.16730
gfz2011kwqc   0.95570
gfz2011kwrf   0.23850
gfz2011kwsz   0.57770
gfz2011kxzp   3.23100
gfz2011lcxq   1.50230
gfz2011lczg   0.38740
gfz2011lggq   1.78530
gfz2011lgsg  -0.16460
gfz2011lhls   1.00470
gfz2011lvjr   4.95800
gfz2011mdie  -0.64180
gfz2011mepc   1.89400
gfz2011mjom   1.19960
gfz2011mllx   1.22070
gfz2011mlvw  -0.10630
gfz2011mpme   0.66190
gfz2011mprq   1.11870
gfz2011nauw   0.34380
gfz2011nkaz   0.06110
gfz2011nmnq  -0.46210
gfz2011nmqj  -0.20160
gfz2011nowp   1.10350
gfz2011npgs   5.95160
gfz2011nqpd   0.24530
gfz2011nrwc   2.42030
gfz2011nrwv   6.10460
gfz2011nsex   0.04170
gfz2011ntkh   1.93950
gfz2011ntrv   0.14070
gfz2011nudm   0.32820
gfz2011ogqk   3.49960
gfz2011ohcy   0.34740
gfz2011oiqe   3.43590
gfz2011olkk   2.19790
gfz2011oolr   0.21100
gfz2011orgn   2.39200
gfz2011ornx   2.07090
gfz2011owvz  -1.59100
gfz2011ozsl  -0.51340
gfz2011pccd  -0.22230
gfz2011pdpt   0.12450
gfz2011pdst   0.21150
gfz2011phms   1.79830
gfz2011pntf   2.42350
gfz2011ptus  -0.41790
gfz2011qigx   2.31680
gfz2011qvae   0.55740
gfz2011qyms   2.77250
gfz2011rabm  -0.37910
gfz2011rdby   0.12770
gfz2011rewa   1.26140
gfz2011rqui   1.61720
gfz2011rsrh   0.92090
gfz2011runa  -0.37530
gfz2011rznl   1.50170
gfz2011sagt   2.40050
gfz2011sawg   6.47970
gfz2011shqm   0.34240
gfz2011stal  -1.71850
gfz2011sthv  -0.08930
gfz2011svix   0.19970
gfz2011syjd   0.12500
gfz2011taps   0.92860
gfz2011tbas   1.98060
gfz2011tcij   0.23490
gfz2011tivu   3.73460
gfz2011tjrf   0.19060
gfz2011tjue   2.56390
gfz2011tkfp   2.94710
gfz2011tkog  -0.67240
gfz2011tnag   0.24660
gfz2011toub   1.49730
gfz2011tpbl   0.69850
gfz2011tpfr   0.97980
gfz2011tsfd   1.76370
gfz2011tsnp   0.86430
gfz2011tuea   0.23380
gfz2011twov   0.03630
gfz2011udsq   1.67170
gfz2011ueni  10.20540
gfz2011uepx  -0.30720
gfz2011ugzz  -0.17560
gfz2011uiul   0.12250
gfz2011ujze   1.77550
gfz2011ukmp   0.35590
gfz2011unkx   0.07990
gfz2011uphh   1.55190
gfz2011urxy   2.45000
gfz2011urzu   5.57360
gfz2011uzqv   1.86190
gfz2011vclt   0.31720
gfz2011vhfi   0.80490
gfz2011vkun   0.30210
gfz2011vldk  -0.43360
gfz2011vnza  -0.66790
gfz2011vqnr  -0.34380
gfz2011vqrj   1.21320
gfz2011vrhg   1.19160
gfz2011vusi  -0.00000
gfz2011wcic   1.14300
gfz2011wfja   0.47040
gfz2011wijj   0.63540
gfz2011wjkf  -0.15670
gfz2011wjul   1.81410
gfz2011wtmq  -0.84210
gfz2011wwjs   1.69540
gfz2011wxoj   0.09290
gfz2011wxtk   1.39990
gfz2011wype   2.09110
gfz2011xcpv   2.23710
gfz2011xesx   2.67630
gfz2011xqru   2.32090
gfz2011xyxj   0.34640
gfz2011yfdx   0.91390
gfz2011yfys   0.13040
gfz2011yhwz   0.49880
gfz2011ytnu  -0.18270
gfz2011yybo   0.69380
gfz2011zjap  -0.28880
gfz2011zlfg   0.57500
gfz2011zlrd   0.14180
gfz2011zqhh   2.60600
gfz2012ablh   1.27960
gfz2012ajtq   2.86760
gfz2012aqgp   1.23130
gfz2012aqtq   0.36280
gfz2012bfah   1.79490
gfz2012bfyn   0.09500
gfz2012bngd  -0.30730
gfz2012bpnl   1.39400
gfz2012cbed   0.29840
gfz2012ckxi  -0.75620
gfz2012cnod  -0.06560
gfz2012covm   8.56600
gfz2012cqtc  -0.11000
gfz2012cxdn   1.78920
gfz2012dfhq   1.76290
gfz2012dimn   2.47150
gfz2012djwi  -0.37770
gfz2012dves   0.12660
gfz2012dyyh   2.01750
gfz2012ekzf   1.48140
gfz2012elce   1.17090
gfz2012enno   0.97420
gfz2012eskt   0.11650
gfz2012ewgo   2.81360
gfz2012ezvr   0.08300
gfz2012fbfo   2.65750
gfz2012fhnh   1.65590
gfz2012fivh   1.45120
gfz2012foeo   0.29010
gfz2012fqcg   0.88000
gfz2012fwfo  -0.18820
gfz2012fwob  -0.04140
gfz2012fzfa   4.40230
gfz2012gill   0.90780
gfz2012gkvr   9.66870
gfz2012glss   0.06840
gfz2012gocc   1.47970
gfz2012gomm   0.48550
gfz2012gwqb   1.43020
gfz2012hdbm   0.45750
gfz2012hnul   3.43180
gfz2012hogg   0.59890
gfz2012hsex   0.34910
gfz2012hwyo   0.03820
gfz2012icmv   1.18910
gfz2012idje   0.27720
gfz2012iffo  -0.11350
gfz2012ihdl   1.47070
gfz2012iivw   0.13160
gfz2012ilvn   0.47900
gfz2012intn  -0.48730
gfz2012iyrb   0.19130
gfz2012jgvj   1.85090
gfz2012jjzc   1.53380
gfz2012joqe   0.00000
gfz2012jpeh   0.88870
gfz2012jpgs   0.11900
gfz2012jqvn  -0.34790
gfz2012jshk   0.77510
gfz2012jted   0.77430
gfz2012jupx  -0.06950
gfz2012jwhu   0.08230
gfz2012jxiy   0.10130
gfz2012kbzj   0.32410
gfz2012kdmb  -1.33100
gfz2012keor   0.61970
gfz2012kkcp   0.29950
gfz2012kkup   0.84250
gfz2012klhx   1.57780
gfz2012kudo   0.89220
gfz2012kwgo   4.07730
gfz2012lboz  -0.86670
gfz2012ledy   1.11790
gfz2012lltr   0.64860
gfz2012llug   0.53910
gfz2012lpvn  -0.32680
gfz2012lrol  -0.14770
gfz2012lsni  -0.02110
gfz2012lxkv   0.50480
gfz2012maxy  -0.13640
gfz2012mcze   0.17360
gfz2012mdmy  -0.06460
gfz2012mkpn   1.50160
gfz2012mlyf   0.15440
gfz2012mpvy   0.76650
gfz2012mupa   7.53360
gfz2012mwij   1.69810
gfz2012myqa   0.18340
gfz2012naqz   1.24530
gfz2012nbtn   1.16260
gfz2012nedn   0.00020
gfz2012ngic   2.49320
gfz2012njha   0.35550
gfz2012ntzv  -0.04320
gfz2012nutf   3.11790
gfz2012obgw  -2.35940
gfz2012oedb   1.83520
gfz2012ofpe   0.01380
gfz2012okhx  -0.00000
gfz2012omvo  -0.70780
gfz2012pciw   1.50180
gfz2012plbw   8.46540
gfz2012plea  -0.00000
gfz2012pqlt   1.86030
gfz2012pqmu   1.40900
gfz2012pygp   0.19130
gfz2012qqqp   0.08080
gfz2012rcbq  -0.03600
gfz2012rtqi   0.08830
gfz2012rwko   6.51580
gfz2012rwov   1.65530
gfz2012shtg  -0.23170
gfz2012sjea  -0.54620
gfz2012spbj   0.25360
gfz2012sqvi   0.15250
gfz2012tazz   0.05230
gfz2012tbbp  -0.02770
gfz2012tzcc   1.02740
gfz2012ufew  -0.76170
gfz2012uhup  -0.03650
gfz2012uxnz  -0.68470
gfz2012vdbt  -0.44810
gfz2012vmeh   0.12940
gfz2012wtkh   0.41080
gfz2012wtkr   0.85670
gfz2012wypz   1.77330
gfz2012xssa  -0.04200
gfz2012yoie  -1.18560
gfz2012zsqk   0.03310
gfz2013adey   1.85780
gfz2013aeee   0.65080
gfz2013akgj  -0.17850
gfz2013apmm  -0.94470
gfz2013azzr  -0.18710
gfz2013bnxc   0.19550
gfz2013bobq  -0.34660
gfz2013bouj   1.30660
gfz2013btjm   1.04650
gfz2013bzlb   0.08840
gfz2013ccnr  -2.44710
gfz2013ccon  -1.49950
gfz2013ciaf   1.38780
gfz2013cwps   1.17600
gfz2013czeq   7.78820
gfz2013dddp  -0.11200
gfz2013dkmz  -0.21630
gfz2013dyop  -1.42030
gfz2013eswe  -0.01520
gfz2013eulz  -0.55170
gfz2013fdoo  -1.13960
gfz2013feep   0.30400
gfz2013flox  -2.96970
gfz2013ftso  -0.33750
gfz2013fygc   0.18000
gfz2013gbcn  -0.61110
gfz2013geno   0.01480
gfz2013gngz  -0.56300
gfz2013govy   0.16150
gfz2013gvex   0.17110
gfz2013gvxh  -2.08400
gfz2013gxsu  -0.12270
gfz2013hbkq  -0.32580
gfz2013hisv  -1.32200
gfz2013hmbc   1.62190
gfz2013hzdp  -1.91310
gfz2013ihcj  -0.10950
gfz2013iodt   0.03640
gfz2013iopd   0.01500
gfz2013iynu   0.01070
gfz2013jfah   0.01590
gfz2013jjsi  -2.96440
gfz2013jlst   0.03230
gfz2013jusj   0.30970
gfz2013jwcn  -0.24850
gfz2013lbiu  -0.65870
gfz2013ldos   0.54440
gfz2013lfyb  -0.02870
gfz2013lgbb  -0.50450
gfz2013lgnl   3.30660
gfz2013lgxc   0.04490
gfz2013lwbk   0.01810
gfz2013mghe   0.08350
gfz2013mvgr   0.02850
gfz2013mzwe   0.80890
gfz2013ngnt   0.64060
gfz2013njnd   0.02980
gfz2013npcg  -0.01470
gfz2013nttq  -0.00940
gfz2013onjy   0.03200
gfz2013oqsc  -0.17300
gfz2013ornz   0.44910
gfz2013oznn   0.89100
gfz2013ozqm  -2.21820
gfz2013pcos   1.82920
gfz2013pfeb   1.52130
gfz2013pfnf   2.82200
gfz2013pqui   0.06770
gfz2013pupd   0.19270
gfz2013pxsj   2.17650
gfz2013pxtx  -0.64640
gfz2013qbca  -0.02870
gfz2013qesa   1.63930
gfz2013qidm  -0.07250
gfz2013qjmk   0.01070
gfz2013qmer   3.14470
gfz2013qvcr  -0.10890
gfz2013ryxm  -0.11490
gfz2013scai  -0.84820
gfz2013sebq   0.06350
gfz2013snyf  -0.70340
gfz2013sqkb   0.19930
gfz2013sred   0.36360
gfz2013thtc   0.24530
gfz2013tqbb  -0.30260
gfz2013ttoz  -0.76640
gfz2013tusd   2.63220
gfz2013tuzv   0.87890
gfz2013ugax  -0.35700
gfz2013umya   0.26820
gfz2013vefs   0.27880
gfz2013vfzp   3.48880
gfz2013vsxi  -0.59930
gfz2013vthd   1.13850
gfz2013wqhq  -0.06600
gfz2013wuml  -0.05800
gfz2013xcmp   0.01650
gfz2013xkbh   0.00000
gfz2013xqnn  -0.08330
gfz2013xsdt   1.47330
gfz2013xvqd   0.85230
gfz2013xwzd   0.38460
gfz2013yhpk   0.24910
gfz2013yixl  -0.03260
gfz2013ylbx   1.06800
gfz2013yrmc  -1.35560
gfz2013yulx   0.06650
gfz2013ziyr   0.45180
gfz2014adoj   1.05960
gfz2014agyz   0.06180
gfz2014alwz   0.81980
gfz2014arpf   0.17080
gfz2014cgog   0.75120
gfz2014clnj   0.13930
gfz2014cvkm   1.45450
gfz2014czno   0.38190
gfz2014disp   0.13340
gfz2014dpzx  -0.07050
gfz2014efkk  -0.83750
gfz2014ekdt   2.57620
gfz2014ezgb  -1.05320
gfz2014fhla   2.52840
gfz2014foio  -0.25070
gfz2014frdz   3.04650
gfz2014gkln   0.05830
gfz2014gktn   3.08300
gfz2014glfn  -0.01670
gfz2014glvu   2.45080
gfz2014gntd   0.62460
gfz2014gtlu  -7.72570
gfz2014gwgf   1.42960
gfz2014gxvf   0.46000
gfz2014hcmj   1.61650
gfz2014hvdm  -0.00000
gfz2014hyal   1.19380
gfz2014hzhe   1.76330
gfz2014hzze  -0.46200
gfz2014ieho  -1.46860
gfz2014jdoy   0.28830
gfz2014jipr   0.01650
gfz2014jmnk   0.25580
gfz2014jpep   5.57310
gfz2014jpfn  -1.65860
gfz2014jpxs  -0.66600
gfz2014jtcz  -2.14450
gfz2014jtfe   0.32350
gfz2014jvow   0.05270
gfz2014jysj   0.02750
gfz2014kbwm   0.25190
gfz2014khlk   1.22190
gfz2014kitm  -0.01880
gfz2014kjjq   0.94980
gfz2014kndc   3.91350
gfz2014ksdv   1.15050
gfz2014kssw   0.31210
gfz2014lbcq   0.37080
gfz2014lbxn   1.34300
gfz2014ldhu   2.76200
gfz2014lefs   1.96100
gfz2014lmge  -0.20650
gfz2014lxnc   4.54170
gfz2014lxqr   3.57840
gfz2014lyhp   3.03110
gfz2014lzal  -2.36670
gfz2014mawp  -1.49540
gfz2014mden  -0.40220
gfz2014mhgg  -1.73140
gfz2014moaw   1.53560
gfz2014mogb  -0.09220
gfz2014mrbm   0.32660
gfz2014mvza   0.18930
gfz2014mxkr   2.26430
gfz2014myqz   0.41140
gfz2014ncub  -0.36520
gfz2014ndue   0.70680
gfz2014ngvt   0.62860
gfz2014nkdx  -0.84570
gfz2014nnih   1.24310
gfz2014nqbs   0.34930
gfz2014nylm   0.06650
gfz2014oims   0.69620
gfz2014okec   3.69690
gfz2014okxu  -0.04790
gfz2014omyn   0.12120
gfz2014opqr  -0.79710
gfz2014orgz   5.31920
gfz2014osvz   0.50340
gfz2014pghi  -0.16490
gfz2014pjum   3.61210
gfz2014pngj  -0.01570
gfz2014ppyi   0.55300
gfz2014qbzi   6.14080
gfz2014qdog   1.24080
gfz2014qjfl   0.19380
gfz2014qjgp   0.44590
gfz2014qlvc   2.27690
gfz2014qsby   0.13120
gfz2014raau   0.93730
gfz2014rcyx  -1.51970
gfz2014rfeb   0.15060
gfz2014rils  -3.01250
gfz2014rkwl   0.38790
gfz2014roba  -1.67370
gfz2014uvrk   1.51560
gfz2014vnxu  -0.34520
gfz2014wrkh   2.70460
gfz2014yula   2.17970
gfz2015cxxk  -0.40600
gfz2015dadj  -0.22110
gfz2015ednc   0.06880
gfz2015eiky   3.73530
gfz2015elgy   0.73940
gfz2015eljz   1.22060
gfz2015emin   2.35430
gfz2015enth   1.47390
gfz2015etai   2.67250
gfz2015fcua  -1.27040
gfz2015fjhk   7.76780
gfz2015fkgt   1.72910
gfz2015fwkq   1.68880
gfz2015fwnf  -0.61600
gfz2015gwao  10.56050
gfz2015gzja   2.11710
gfz2015hepg   1.21220
gfz2015hgbk   2.71480
gfz2015kfsu   1.84170
gfz2015kxxs  -0.07790
gfz2015lcuo   0.36520
gfz2015lytv   2.91320
gfz2015mhym   0.88000
gfz2015micz  -1.10390
gfz2015mxcu  -0.18400
gfz2015ntpk   0.72120
gfz2015ocdz   3.65200
gfz2015ojut   0.52010
gfz2015pdri   0.07700
gfz2015pgxa  -0.59920
gfz2015pjgr  -0.48700
gfz2015puah   2.82830
gfz2015qiit   0.15500
gfz2015qisx   0.08910
gfz2015qnho   0.45760
gfz2015rnis  -0.01690
gfz2015saet   0.66250
gfz2015sfkh   1.74530
gfz2015sfko   1.66020
gfz2015sfks   1.79280
gfz2015sfmd   3.33760
gfz2015sfpj   0.31020
gfz2015sfrf   0.21640
gfz2015sftu   0.70640
gfz2015sfwf   2.36750
gfz2015sfxn   1.58950
gfz2015sgdj  -1.90920
gfz2015sgdn   1.39150
gfz2015sgmm   0.45900
gfz2015sgoa   0.26740
gfz2015sgpu  -0.35010
gfz2015sgyd   1.85810
gfz2015shel   0.41720
gfz2015shlp  -0.52020
gfz2015shov   0.82400
gfz2015shrg  -0.69470
gfz2015shsb   0.69500
gfz2015shsz  -0.08180
gfz2015sicu   0.98630
gfz2015siem   1.86890
gfz2015sixs   0.67500
gfz2015siyy   1.88140
gfz2015sjbx   0.46340
gfz2015sjtz   2.08900
gfz2015sjwi   1.83970
gfz2015skab  -0.67160
gfz2015skia  -1.20640
gfz2015sklu   1.85200
gfz2015snwh   1.99640
gfz2015soxc   1.86180
gfz2015spal  -0.61470
gfz2015spxh  -0.14950
gfz2015sqoz   0.92340
gfz2015sqwv   0.30480
gfz2015srgf   0.10060
gfz2015ssoe   2.81320
gfz2015sspn   0.78900
gfz2015ssrl  -0.12950
gfz2015stcv  -0.16670
gfz2015stso   1.27070
gfz2015subg   0.18370
gfz2015sunp  -0.20090
gfz2015supa   0.36220
gfz2015svwm   2.40010
gfz2015sxgd  -0.52480
gfz2015sxmh   2.14410
gfz2015szcb   2.17270
gfz2015tbdn   0.23440
gfz2015tbje  -0.00000
gfz2015tbxe   0.96800
gfz2015tcem   0.37600
gfz2015tdbb   0.50030
gfz2015tdcu   1.70090
gfz2015tdhb  -0.05890
gfz2015teje   1.39110
