# Nsamples: 8  MAD:  0.627  mean:  1.138  variance:  0.660
gfz2010grjd   2.82340
gfz2010iull   0.62910
gfz2011aatr  -0.07670
gfz2011enva   1.43270
gfz2011wxfs   0.52040
gfz2012kudo   1.39710
gfz2013nwdi   1.47470
gfz2014goba   0.89950
