# Nsamples: 15  MAD:  1.036  mean:  1.383  variance:  2.096
gfz2010eaoy   3.91590
gfz2010eaqy   2.98840
gfz2010earu   0.84360
gfz2010elyc   1.74130
gfz2010excp   1.29170
gfz2010exdd  -0.34940
gfz2010gcdn   1.52660
gfz2010moyw   1.98160
gfz2010upfb   0.73410
gfz2011kwkw   2.19920
gfz2012fzfa   3.11300
gfz2015lytv  -0.24210
gfz2015sfdd   0.82750
gfz2015svwm   2.11600
gfz2015swgn  -1.94480
