# Nsamples: 549  MAD:  0.712  mean:  0.101  variance:  1.152
gfz2010aerk  -0.60340
gfz2010ahqi  -0.54380
gfz2010bfzs  -0.44240
gfz2010bifb  -0.91740
gfz2010bjeb   0.14370
gfz2010bkob   1.66270
gfz2010bowy  -0.18520
gfz2010bxxs   0.25120
gfz2010caft  -0.78920
gfz2010cbkg   0.15940
gfz2010czps   0.14810
gfz2010eaoy  -1.46180
gfz2010eapk   0.21120
gfz2010eapn   0.27950
gfz2010eaqe   0.33780
gfz2010eaqx  -0.11720
gfz2010eaqy  -1.28200
gfz2010earu  -1.12030
gfz2010easf   0.66440
gfz2010easo  -0.26340
gfz2010eato  -3.01270
gfz2010eatt   2.26690
gfz2010eaty  -0.17260
gfz2010eavd   2.42600
gfz2010eavs   0.23630
gfz2010eawb  -0.88850
gfz2010eawu  -0.38160
gfz2010eaxa  -0.03280
gfz2010eaxn  -0.49350
gfz2010eayp   0.47880
gfz2010eaze  -0.28880
gfz2010eazu  -0.12640
gfz2010ebbx   3.30130
gfz2010ebby   0.13060
gfz2010ebdl   1.07720
gfz2010ebhc  -0.84910
gfz2010ebin   3.39070
gfz2010ebjy   0.13090
gfz2010ebkj   0.23550
gfz2010ebla   0.57130
gfz2010ebll  -0.93750
gfz2010ebmb   0.52370
gfz2010ebnn   2.37640
gfz2010ebrm  -0.45720
gfz2010ebvm   0.04050
gfz2010ebwp   0.25260
gfz2010ebxl  -1.22870
gfz2010ebze   7.64930
gfz2010ebzk  -0.57720
gfz2010ebzr  -0.26530
gfz2010ecam   0.99170
gfz2010ecay   0.24900
gfz2010ecbi   1.54110
gfz2010eccq   0.29230
gfz2010ecft   1.03240
gfz2010ecfx  -0.46220
gfz2010ecfy  -0.41620
gfz2010echc   0.93000
gfz2010echt   1.13110
gfz2010ecls   0.84060
gfz2010ecns  -0.52350
gfz2010ecps   0.01550
gfz2010ecro   0.89700
gfz2010ecsp  -1.00670
gfz2010ectq  -0.36730
gfz2010ecua  -0.39340
gfz2010ecuv  -2.61830
gfz2010ecvt   0.60470
gfz2010eday  -0.51380
gfz2010edcp  -1.40540
gfz2010edhr   1.01160
gfz2010edim  -1.14100
gfz2010edkp   0.51020
gfz2010edyi  -0.16710
gfz2010eedu   1.09490
gfz2010eern  -1.01780
gfz2010efsq   0.44140
gfz2010egap   0.47700
gfz2010eisx  -0.18950
gfz2010eixj  -1.13650
gfz2010ejae   0.07340
gfz2010ejjg  -0.08300
gfz2010ejju   2.77910
gfz2010ekoe  -0.24530
gfz2010ekrv   0.79060
gfz2010ekyc  -1.22530
gfz2010elhv   0.62750
gfz2010elin   0.91850
gfz2010eltf   1.08710
gfz2010elyc  -0.06770
gfz2010elyo   0.00980
gfz2010emyz   0.30640
gfz2010epxj   0.73340
gfz2010eqmu   2.05090
gfz2010erkn  -0.95060
gfz2010erom  -0.66460
gfz2010eruy  -0.30950
gfz2010erwn   0.49100
gfz2010erxb   1.10610
gfz2010eujm   0.34240
gfz2010euxe  -0.27420
gfz2010evgf  -2.04830
gfz2010ewvc  -1.10040
gfz2010excp  -0.14260
gfz2010exdd  -0.47190
gfz2010exdl   0.11370
gfz2010exel  -0.13500
gfz2010exfb  -1.41740
gfz2010exgb  -0.41200
gfz2010exhd  -0.13730
gfz2010exhw  -1.59330
gfz2010exmc   0.02930
gfz2010exno   0.41340
gfz2010exqu   0.91220
gfz2010exsg   1.57460
gfz2010ezck   0.19990
gfz2010faeu   2.51620
gfz2010falm  -1.02940
gfz2010fauz   1.79870
gfz2010fcax  -0.20470
gfz2010fcnn   0.01770
gfz2010fczt  -0.40490
gfz2010fdab  -0.64960
gfz2010fedq  -0.02010
gfz2010ffhq  -1.12510
gfz2010ffjb   0.83540
gfz2010figq  -0.70910
gfz2010fihj   0.06390
gfz2010fjal   1.46740
gfz2010fkvg   6.23920
gfz2010flha  -2.12220
gfz2010flrt   0.07840
gfz2010flxi   0.19900
gfz2010fmhb   1.46280
gfz2010fneu   3.58040
gfz2010fpqy   0.92480
gfz2010fqdu   0.19940
gfz2010fqtj  -0.64910
gfz2010fser   1.56510
gfz2010ftlm   0.00000
gfz2010fync  -0.39470
gfz2010gcrl  -1.36220
gfz2010gdld  -0.52900
gfz2010gjia   1.44520
gfz2010glxl  -0.10440
gfz2010grjd   0.45160
gfz2010gyqp  -0.45600
gfz2010gzxr  -0.51480
gfz2010hcio   1.80600
gfz2010homc  -0.46640
gfz2010hptz  -1.77930
gfz2010hxgv  -0.16760
gfz2010iibf   1.28220
gfz2010iobp   0.12260
gfz2010iqnm   1.38600
gfz2010irvf  -0.76630
gfz2010iull  -0.09400
gfz2010izzj   0.57170
gfz2010jxbm   0.91920
gfz2010lepw  -0.29950
gfz2010lkcf  -0.35840
gfz2010mkuu   0.17480
gfz2010mncc   0.08560
gfz2010mnsz   0.21010
gfz2010moyw  -0.71290
gfz2010nmpc  -1.65450
gfz2010nqwo  -0.93320
gfz2010nrjo   0.60350
gfz2010nsck  -0.22310
gfz2010nsdf  -2.19740
gfz2010nubk  -0.07170
gfz2010nwef  -0.51680
gfz2010nxsy  -0.16510
gfz2010nzla   0.51740
gfz2010okdm  -0.51890
gfz2010onma  -0.80640
gfz2010qjst   0.40780
gfz2010rhas   0.35720
gfz2010rkfp   0.25570
gfz2010rqwj   4.07150
gfz2010rxjw   2.12890
gfz2010sfee  -0.18230
gfz2010svtn   0.61940
gfz2010swcy  -0.08300
gfz2010sxwt  -0.00000
gfz2010szde   0.59490
gfz2010tcrl   0.15620
gfz2010truw  -0.01980
gfz2010upfb  -0.02870
gfz2010usho   1.19150
gfz2010ustq   0.95550
gfz2010utcg  -0.31880
gfz2010vbmd   0.19720
gfz2010vhuj   2.02380
gfz2010vtdg   0.10050
gfz2010wioh  -0.73490
gfz2010wrxx   5.66140
gfz2010xbdv   1.13940
gfz2010xjsj   0.11120
gfz2010xmpr   0.40570
gfz2010xnxk  -0.48080
gfz2010yjev   0.84420
gfz2011aatr   0.12070
gfz2011adjs  -0.53280
gfz2011ahfw   1.01990
gfz2011alip  -0.42300
gfz2011bgrp  -0.34710
gfz2011bhha   1.25650
gfz2011blsi   2.41670
gfz2011bpkd   0.15210
gfz2011ccpw   0.44900
gfz2011ecaj  -0.43780
gfz2011ehzq   0.86770
gfz2011enva  -0.10470
gfz2011fgvr   0.81280
gfz2011fhbm   1.68750
gfz2011fhur   0.42100
gfz2011flgj   1.25860
gfz2011fnsw   0.17530
gfz2011gbmx  -1.43300
gfz2011gcwb  -0.55700
gfz2011gkzt  -0.76230
gfz2011hbex   0.13050
gfz2011hebt  -0.73620
gfz2011hfkj  -0.26920
gfz2011hlqw  -0.19460
gfz2011hlsa  -0.04810
gfz2011hlth   0.34720
gfz2011hpqp   1.44950
gfz2011icxe  -2.30110
gfz2011ieie   1.94290
gfz2011iwte  -0.74520
gfz2011izqa  -1.05040
gfz2011jmbn   0.01950
gfz2011jnmi  -0.36980
gfz2011jplh  -0.22420
gfz2011lcxq   0.56850
gfz2011ugzz   1.95920
gfz2011ujze  -0.18720
gfz2011uphh  -0.29300
gfz2011urxy   0.73440
gfz2011urzu   0.64030
gfz2011vhfi  -0.01590
gfz2011vnza  -0.21450
gfz2011vxns  -0.36470
gfz2011wcic  -0.88410
gfz2011wijj  -0.76100
gfz2011wjul  -0.70120
gfz2011wxfs   0.59330
gfz2011wxtk  -0.39000
gfz2011xyxj   0.70810
gfz2011zklv   1.32490
gfz2011zqhh  -0.04170
gfz2012bfah  -0.53370
gfz2012ekda  -0.16060
gfz2012gomm   3.17820
gfz2012hnul   1.15710
gfz2012ilvn   0.26770
gfz2012intn   0.26400
gfz2012jlox  -0.57220
gfz2012jshk   1.55610
gfz2012jupx  -0.80070
gfz2012kkup   0.24880
gfz2012klhx   0.33270
gfz2012kudo  -0.06920
gfz2012kwgo   0.16950
gfz2012lczo  -0.61860
gfz2012ldxg  -0.27350
gfz2012ldzj  -0.03190
gfz2012lxkv  -0.90690
gfz2012minr  -0.36380
gfz2012mwij   1.29310
gfz2012nojx   0.03420
gfz2012nolo  -0.14050
gfz2012oazn   0.05230
gfz2012pgcl   0.26760
gfz2012pkel   0.04100
gfz2012pqmk  -2.92160
gfz2012quso   0.61100
gfz2012royy  -0.32850
gfz2012rwov  -0.41890
gfz2012sphd  -0.04140
gfz2012syvl   0.41520
gfz2012teic   1.17970
gfz2012tmop   0.05580
gfz2012ttoa   0.08450
gfz2012uafg  -0.55560
gfz2012uciv   0.04860
gfz2012uhup  -0.48290
gfz2012uxnz  -3.11260
gfz2012vrgb  -0.45510
gfz2012wklq  -1.49450
gfz2012wmsg  -0.90570
gfz2012wtkr   0.74060
gfz2012wvfl  -0.19690
gfz2012wxer  -0.22590
gfz2012wxlg  -0.29790
gfz2012wxnu   0.73140
gfz2012wybs  -0.23300
gfz2012wypz   0.38350
gfz2012xbjq   0.08080
gfz2013dkly   1.83290
gfz2013dofo  -1.65620
gfz2013drxz  -0.60890
gfz2013dvyh  -0.20790
gfz2013egpu   1.81000
gfz2013enbx  -2.06970
gfz2013fygc  -0.99290
gfz2013gdnq   1.98100
gfz2013ijsr   1.02880
gfz2013ikgo   0.12820
gfz2013jesk   0.66490
gfz2013jgij  -0.78300
gfz2013jgip   1.42300
gfz2013jkut   0.45080
gfz2013jusj   2.01250
gfz2013kccc   0.89790
gfz2013kdeo   0.11730
gfz2013ldpc  -0.04550
gfz2013ldqb  -0.68790
gfz2013lixa  -0.19500
gfz2013lyko   0.07680
gfz2013mqmv   0.02400
gfz2013mwbh  -0.15400
gfz2013ncjp  -0.75560
gfz2013ndin  -0.11000
gfz2013nixj  -0.17290
gfz2013nkgj  -0.26390
gfz2013nknw  -0.00000
gfz2013nqgw   0.10430
gfz2013nwdi  -0.47360
gfz2013ozrp  -0.58800
gfz2013pfbx  -0.19480
gfz2013qali   0.59830
gfz2013qmer  -0.06770
gfz2013qzdq  -0.10570
gfz2013roki   0.40330
gfz2013suvn   0.60150
gfz2013svci  -0.14450
gfz2013tusd  -0.65360
gfz2013tvmw  -0.22390
gfz2013txij   1.34650
gfz2013ufxk  -0.20410
gfz2013ufxm   0.84450
gfz2013ugax   0.81250
gfz2013vfzp   1.17850
gfz2013vjjc  -0.89880
gfz2013wjmm  -0.52070
gfz2013wkyk   0.73840
gfz2013xsdt   0.55050
gfz2013yctg  -0.00000
gfz2013yqkv   0.23580
gfz2013ziyr  -2.01520
gfz2013zjel   0.08520
gfz2014afmx  -0.45930
gfz2014algk  -0.58360
gfz2014ande   0.91710
gfz2014bagd  -0.29250
gfz2014bwue   0.52250
gfz2014bzxy  -0.21910
gfz2014chdv  -0.37730
gfz2014cvkm   0.03770
gfz2014cvxx  -0.08580
gfz2014czqi  -0.35670
gfz2014disp  -0.26680
gfz2014ekcr   0.34610
gfz2014enhi   0.02140
gfz2014fgvi   0.54000
gfz2014fhdw   0.37610
gfz2014fhla  -1.68930
gfz2014fhrq  -0.52900
gfz2014fimn   0.97990
gfz2014fjzd   0.01930
gfz2014fkmr  -0.73860
gfz2014frdz   1.10450
gfz2014frel   1.36480
gfz2014frez   1.18140
gfz2014frwh   1.14740
gfz2014ftka  -0.04250
gfz2014ftrk   1.04980
gfz2014furx   0.80140
gfz2014fusc  -2.01480
gfz2014fusj   0.29240
gfz2014fval  -0.14020
gfz2014fvgh   0.82010
gfz2014fvrg   0.49020
gfz2014gbcz  -0.76800
gfz2014gbdq   1.19200
gfz2014ghpe   0.02040
gfz2014gkgf  -0.66690
gfz2014gkgs   0.69770
gfz2014gkhp   1.46280
gfz2014gkhy   1.20490
gfz2014gkjl  -0.68790
gfz2014gkjt   0.76210
gfz2014gkmm   0.83480
gfz2014gkob   0.84800
gfz2014gkpj   3.20900
gfz2014gkqf   0.58440
gfz2014gkqu  -1.74320
gfz2014gksu   0.67260
gfz2014gktq   0.73830
gfz2014glcu  -2.65500
gfz2014glgo   0.77160
gfz2014gltx  -2.93990
gfz2014gmge   0.15470
gfz2014gmhr  -0.21080
gfz2014gmip   0.50860
gfz2014gmku  -1.31040
gfz2014gmnb  -0.01820
gfz2014gmnw   0.51660
gfz2014gmor   0.87410
gfz2014goba   0.15810
gfz2014goqw   0.04200
gfz2014gpya  -0.25590
gfz2014gqer  -0.41940
gfz2014gqve   0.34560
gfz2014gsqs  -0.87870
gfz2014gull   0.46350
gfz2014gvhw   0.65610
gfz2014gvrd  -0.65760
gfz2014gwab  -1.11940
gfz2014gxkh   0.35600
gfz2014gxxo   0.21400
gfz2014hasj  -0.70790
gfz2014hbqb  -0.18470
gfz2014hgqo   0.59820
gfz2014hjgr   0.54120
gfz2014hkcf  -0.43750
gfz2014hocg   0.27010
gfz2014hqxs   0.47020
gfz2014hrft  -0.47070
gfz2014huaj  -0.14890
gfz2014imnn   0.29190
gfz2014issk   1.38650
gfz2014itgh   0.61840
gfz2014itkw   3.62880
gfz2014jjhc  -0.83190
gfz2014jnyv  -0.59370
gfz2014jpep   0.31010
gfz2014jwmh   0.05410
gfz2014kndc   0.20080
gfz2014knks  -0.29460
gfz2014kyan  -0.32680
gfz2014kytf  -0.21260
gfz2014lgqn   0.57050
gfz2014lxnc   0.28490
gfz2014lyhk   0.09160
gfz2014lyhp  -0.13620
gfz2014macx   0.36420
gfz2014madw   0.01680
gfz2014nkdx  -2.20030
gfz2014nnxd   0.60210
gfz2014nowp   0.44040
gfz2014npeo  -0.31770
gfz2014nphm   0.01540
gfz2014nqfm  -0.25870
gfz2014nrie  -0.34570
gfz2014oinz  -0.24450
gfz2014oryw   0.42630
gfz2014ppzf  -0.59070
gfz2014pvch   0.37990
gfz2014qlxd  -0.35540
gfz2014qngj  -0.12410
gfz2014qqhm   0.65880
gfz2014riel  -2.99360
gfz2014shid  -1.89580
gfz2014ssmv  -2.58620
gfz2014ssvz  -1.22800
gfz2014tovs   0.13640
gfz2014tqdo  -0.25630
gfz2014tqsf  -0.54640
gfz2014utac  -0.62580
gfz2014vhld   0.21150
gfz2014vjoz   0.02200
gfz2014watn  -0.36230
gfz2014wjko   0.06150
gfz2014xbyr  -0.02190
gfz2014xqqd  -1.05770
gfz2014yhhm   0.49820
gfz2015apnk  -0.19500
gfz2015aruz  -0.41420
gfz2015berb   0.22670
gfz2015bfjm   0.49320
gfz2015bucr  -0.57890
gfz2015chhn  -0.94340
gfz2015cxxk  -0.64050
gfz2015cyjd  -0.43100
gfz2015dskr  -0.55820
gfz2015dvbn  -0.42890
gfz2015egxq   0.16050
gfz2015eiky   0.38610
gfz2015etai  -0.71780
gfz2015fcua  -1.36170
gfz2015fjhk   0.13460
gfz2015fkgt  -0.36280
gfz2015fkic   2.33300
gfz2015fsjj   0.25490
gfz2015gckd  -0.12350
gfz2015gkwa   0.38410
gfz2015jzcv  -0.08910
gfz2015kfsu  -0.69690
gfz2015kkth  -0.02900
gfz2015kphk  -0.00000
gfz2015kquq   0.52440
gfz2015ksni   0.04300
gfz2015lhjy  -0.12500
gfz2015okmq  -0.07560
gfz2015oyfl  -0.25210
gfz2015rddx  -0.39680
gfz2015rkzg  -0.75300
gfz2015sfdd  -0.63950
gfz2015sfdl   0.47640
gfz2015sfdy   0.02220
gfz2015sfeo   0.01800
gfz2015sffn   0.02170
gfz2015sfhz   0.20120
gfz2015sfiq   1.66650
gfz2015sfnb  -0.36810
gfz2015sfno   2.40590
gfz2015sfoc  -0.31300
gfz2015sfps  -0.26260
gfz2015sfqo   0.59240
gfz2015sfqr   2.01110
gfz2015sfsi   1.24050
gfz2015sgad   0.50500
gfz2015sgyd   0.34510
gfz2015shhu   0.50520
gfz2015shjn  -0.07570
gfz2015shrg   0.60820
gfz2015sjfi   0.37910
gfz2015sjgk   0.27900
gfz2015sjne   0.18940
gfz2015sjoj   0.13970
gfz2015sjvu   0.34720
gfz2015skpv   0.74150
gfz2015skxu   0.51600
gfz2015sldx  -0.15970
gfz2015sljs  -1.31810
gfz2015smym  -0.41540
gfz2015snsf   0.00000
gfz2015snwh  -0.42510
gfz2015snyd   0.22780
gfz2015soat   0.41580
gfz2015soxc  -0.30520
gfz2015stfy  -1.87940
gfz2015svwm  -0.52670
gfz2015szcb   0.68870
gfz2015taml  -0.43780
