# Nsamples: 1307  MAD:  0.823  mean:  0.660  variance:  1.108
gfz2010ahla   1.13570
gfz2010bifb  -0.21260
gfz2010bkob   0.48400
gfz2010bkos   1.33460
gfz2010caft  -0.05920
gfz2010cjqh   0.23030
gfz2010cjrf   5.72310
gfz2010czps  -0.62890
gfz2010dumm   1.02840
gfz2010eayd  -1.81820
gfz2010eayp   1.78880
gfz2010eayx   1.37160
gfz2010eaze  -0.19180
gfz2010eazu  -1.43020
gfz2010ebbx   0.08490
gfz2010ebby  -0.56540
gfz2010ebdl   0.54800
gfz2010ebeh   1.35720
gfz2010ebek  -0.31670
gfz2010ebfa  -1.18920
gfz2010ebfx   0.12940
gfz2010ebgj  -0.26040
gfz2010ebhc  -0.12220
gfz2010ebih  -0.38390
gfz2010ebin   0.05320
gfz2010ebiv  -0.88330
gfz2010ebjg  -0.66970
gfz2010ebjy  -1.12710
gfz2010ebkj  -2.63130
gfz2010ebkx   0.06250
gfz2010ebla  -0.88360
gfz2010ebvm  -0.37210
gfz2010ebwp  -1.07980
gfz2010ebxl  -0.23980
gfz2010ectq   0.34640
gfz2010ecua  -1.98640
gfz2010ecuv   0.14770
gfz2010ecvt  -0.60220
gfz2010ecyr   2.92120
gfz2010edad   0.61310
gfz2010edat  -1.16870
gfz2010edbz   0.08180
gfz2010edcp  -3.21270
gfz2010edde  -0.57440
gfz2010edoq   0.83590
gfz2010edpb   0.77360
gfz2010edqd   0.15720
gfz2010edqh   0.30950
gfz2010edsk   0.25510
gfz2010edsn  -0.89370
gfz2010edsy   0.85960
gfz2010eeqy  -0.34080
gfz2010eerh   0.29250
gfz2010eern   0.28220
gfz2010eesf   2.33230
gfz2010eevu  -0.93150
gfz2010eexz   0.76150
gfz2010eeyh   0.79670
gfz2010efak   1.70780
gfz2010efkc   1.21060
gfz2010efls   1.30480
gfz2010efnf   1.19370
gfz2010egld   0.51970
gfz2010egln   1.68190
gfz2010egmp   1.35210
gfz2010egqh   0.66650
gfz2010egsw   1.10260
gfz2010ehft  -0.28770
gfz2010eimf   1.24270
gfz2010eioi   1.26600
gfz2010eiqi  -0.50010
gfz2010eixj  -2.35110
gfz2010ejae   0.48760
gfz2010ekaw  -0.28450
gfz2010ekyc  -2.02730
gfz2010elvp  -0.14700
gfz2010elyc  -4.53880
gfz2010elyo  -1.01710
gfz2010elzf   1.71860
gfz2010ensu   0.84290
gfz2010enzl   0.03810
gfz2010eoao  -6.91660
gfz2010epud   2.41740
gfz2010epxj  -0.89920
gfz2010eqjg  -1.93890
gfz2010erig   2.25020
gfz2010erkn   0.08050
gfz2010ermi  -0.92640
gfz2010erna  -0.64090
gfz2010erom  -1.22650
gfz2010erum   0.08360
gfz2010eruy  -1.58530
gfz2010eted   1.60050
gfz2010etfw   2.00800
gfz2010euae  -0.05970
gfz2010euan   1.33480
gfz2010ewvc  -0.88250
gfz2010ewyu   0.85590
gfz2010excp  -2.20050
gfz2010exdd  -2.51830
gfz2010exdl  -0.58600
gfz2010exel  -0.11200
gfz2010exfb   0.74830
gfz2010exgb  -0.17830
gfz2010exhd   0.78840
gfz2010exmc  -0.31820
gfz2010exno  -1.95680
gfz2010exou   1.39260
gfz2010exqu  -0.05470
gfz2010exsg  -0.20960
gfz2010eyqe   0.43630
gfz2010eyvq  -0.50610
gfz2010eyxe   1.33920
gfz2010ezck  -2.93460
gfz2010falm  -0.68350
gfz2010fauz   0.04360
gfz2010faxg  -2.39200
gfz2010fbeu   1.20500
gfz2010fcyj  -2.14300
gfz2010fczt  -0.92610
gfz2010fdab   1.88470
gfz2010fedq  -3.05100
gfz2010fika   0.80610
gfz2010fkhd   0.62390
gfz2010fkia   0.62650
gfz2010floi   1.76960
gfz2010flrt   0.17560
gfz2010fneu   1.07120
gfz2010fobc   1.15230
gfz2010fpqy  -0.41540
gfz2010fsth   0.68700
gfz2010fuuy  -0.89320
gfz2010fuwa   1.41240
gfz2010fwkk  -0.46360
gfz2010fwny   1.16150
gfz2010fwpv   1.58340
gfz2010fwzd  -0.40060
gfz2010fyed   0.06610
gfz2010fyen   0.17300
gfz2010fync  -1.45050
gfz2010gceb   0.73540
gfz2010gcrp  -1.21750
gfz2010ghyk   0.99820
gfz2010gjia  -1.31380
gfz2010glqr  -0.19230
gfz2010gslu   0.33710
gfz2010gtzt   1.31750
gfz2010gvya   0.08390
gfz2010gymo  -0.82080
gfz2010hlco  -0.42390
gfz2010hmhm   0.39100
gfz2010hnzr   0.43990
gfz2010homc  -0.07230
gfz2010hxgv  -1.03070
gfz2010hxhe   1.44450
gfz2010hzar   0.80340
gfz2010iauj   0.66780
gfz2010iibf   0.21550
gfz2010iimu   0.28130
gfz2010ipsg   2.07340
gfz2010iqfm   0.09080
gfz2010jlhj   1.06580
gfz2010jqxx   0.35730
gfz2010jssh  -0.25760
gfz2010jsuo   0.38900
gfz2010jygz   0.47910
gfz2010kmsv   0.95370
gfz2010kyen   0.67750
gfz2010kzml   0.08560
gfz2010lczp   0.55420
gfz2010lfju   1.71960
gfz2010lgwy  -0.45280
gfz2010liqs  -0.28680
gfz2010lrlk   0.63030
gfz2010lruw  -0.05840
gfz2010mant   1.08830
gfz2010mipi  -0.15070
gfz2010miqn  -0.00000
gfz2010mlkz  -0.56060
gfz2010mlta  -1.29050
gfz2010mpuy  -0.66610
gfz2010mtab   3.22590
gfz2010nfsj  -0.97440
gfz2010nlkh  -0.24800
gfz2010nnny  -1.04150
gfz2010nqwf  -0.77650
gfz2010nrew   0.46060
gfz2010nsfx   1.45120
gfz2010nubk  -1.45390
gfz2010nwef  -0.20620
gfz2010nxsy  -0.82700
gfz2010nxum  -0.30580
gfz2010odpb   0.58790
gfz2010omla   1.08290
gfz2010osjs  -0.60850
gfz2010osqo   0.84610
gfz2010pbdz   0.63600
gfz2010pcxi  -0.87730
gfz2010pewa  -0.72400
gfz2010pewx  -0.54150
gfz2010pmqd   0.08130
gfz2010pqck   0.73220
gfz2010pxls   2.61850
gfz2010qjst  -1.48340
gfz2010qpcq  -0.46440
gfz2010qpum   0.71220
gfz2010qpvi  -0.86160
gfz2010qwwx  -0.78230
gfz2010rlbv  -0.02180
gfz2010rzrr   1.59510
gfz2010rzsd   0.02240
gfz2010sfee  -0.18750
gfz2010sfla  -1.02610
gfz2010sgzk   0.49200
gfz2010skqo   0.10970
gfz2010svve   3.38310
gfz2010sxwt  -0.55020
gfz2010szde   0.60740
gfz2010tcrl  -2.38150
gfz2010truw   0.56650
gfz2010uept   1.05340
gfz2010uouo   1.22740
gfz2010upiw   0.35400
gfz2010urlq   1.31350
gfz2010usho  -0.43360
gfz2010ustq  -0.13590
gfz2010utcg  -0.80500
gfz2010vbmd   0.73420
gfz2010vhuj   0.60620
gfz2010wnty   2.31850
gfz2010wntz   0.09000
gfz2010xgfc  -0.26250
gfz2010xjsj   1.23630
gfz2010yfsv   2.28550
gfz2010yjev  -0.16900
gfz2010ymur   0.80570
gfz2010yosr   0.37240
gfz2010yqqv   1.62280
gfz2011cndo  -0.46720
gfz2011coxh   0.61420
gfz2011csju   0.70000
gfz2011ctbn   0.82110
gfz2011cwgn   0.42000
gfz2011cykd  -3.78330
gfz2011cylz   1.13070
gfz2011cynl  -0.02670
gfz2011deaf   0.62480
gfz2011deja  -0.26350
gfz2011dkyi   0.97660
gfz2011dllz   0.37750
gfz2011dpaa   0.65510
gfz2011dtpy   1.21760
gfz2011eayc   1.34680
gfz2011eazf   0.69400
gfz2011etje   0.32140
gfz2011fgvr   0.21430
gfz2011fhur   0.88440
gfz2011ghky   0.94810
gfz2011gjlx   0.86490
gfz2011gkzt   0.10820
gfz2011hbex   0.44190
gfz2011hryk   1.79790
gfz2011icxe   0.28040
gfz2011iwte   0.36080
gfz2011jghb   0.92520
gfz2011jmbn   0.63270
gfz2011jnmi   2.94990
gfz2011jtlg  -0.30880
gfz2011knbi   0.01840
gfz2011knoo   1.52860
gfz2011kqyg   0.02050
gfz2011kwid   0.45740
gfz2011kwiy   0.59550
gfz2011kwjx  -0.68790
gfz2011kwkw  -0.18470
gfz2011kwld   1.15280
gfz2011kwlq  -0.20040
gfz2011kwni   1.14150
gfz2011kwqc   0.40390
gfz2011kwrf   0.17120
gfz2011kxzp  -0.25650
gfz2011lcxq  -0.24780
gfz2011lczg   1.39960
gfz2011lgsg   0.77480
gfz2011lhls   0.13560
gfz2011lvjr   0.19690
gfz2011mdie   0.51250
gfz2011mepc   0.32990
gfz2011mjom   0.43880
gfz2011mllx   0.07330
gfz2011mprq   1.92730
gfz2011myia   0.60000
gfz2011nauw   0.81310
gfz2011necz   1.16220
gfz2011nkaz  -1.23760
gfz2011nmnq   0.25530
gfz2011noud   0.21550
gfz2011nowp   1.54780
gfz2011nsex   0.83830
gfz2011ohcy   1.20340
gfz2011oiwk   1.14470
gfz2011olkk   1.00610
gfz2011oolr   1.33670
gfz2011ozsl   1.32260
gfz2011pdpt   1.62100
gfz2011pdst   1.35460
gfz2011phms  -0.09940
gfz2011pntf   1.57710
gfz2011qigx   0.40640
gfz2011qvae   0.02020
gfz2011qyms   0.45590
gfz2011rabm  -1.54070
gfz2011rnut   0.96000
gfz2011rqui   0.68390
gfz2011rsrh   1.12750
gfz2011rznl   1.03010
gfz2011shqm   0.29640
gfz2011tbas   0.52880
gfz2011tcij   0.36210
gfz2011tivu   3.23470
gfz2011tjue   1.41450
gfz2011tkfp  -0.49630
gfz2011tkog   0.40210
gfz2011tpbl   0.77630
gfz2011tpfr   0.61350
gfz2011twov   0.26620
gfz2011udsq   0.46390
gfz2011ueni   1.43830
gfz2011ujze   1.67640
gfz2011unkx   0.96900
gfz2011uphh   1.42950
gfz2011vclt   0.09110
gfz2011vldk   0.89240
gfz2011vqrj   0.90780
gfz2011vxxg  -0.33940
gfz2011wfja   0.96500
gfz2011wjkf   1.16690
gfz2011wtmq   2.96400
gfz2011wvzb   0.33030
gfz2011wxfs   1.23110
gfz2011wxoj   1.71990
gfz2011wxtk   1.28850
gfz2011xcpv   0.39570
gfz2011xesx   0.10750
gfz2011xyxj   0.83410
gfz2011yhwz   1.39590
gfz2011yybo   0.93420
gfz2011yzwq   0.88850
gfz2011zjap   1.50320
gfz2011zqhh   0.56830
gfz2012ablh   0.40470
gfz2012attr  -0.50580
gfz2012bpkx  -0.73480
gfz2012bpnl   1.26360
gfz2012bpwl   0.68980
gfz2012bqeb   1.33890
gfz2012brhv   0.11020
gfz2012bszs   0.60050
gfz2012byad   0.50280
gfz2012cevz   2.05300
gfz2012cnod   1.08710
gfz2012cqtc   1.24310
gfz2012dfhq   2.15930
gfz2012ekda   0.07350
gfz2012ekzf   1.01580
gfz2012emjg   0.77970
gfz2012ezvr   0.56850
gfz2012fzfa  -0.47400
gfz2012gcgn  -0.23400
gfz2012gkvr  -0.77340
gfz2012gukw   0.09550
gfz2012gwmu   0.78330
gfz2012gwqb   1.17640
gfz2012hdbm   1.96230
gfz2012holl   0.39500
gfz2012hyaa   0.79090
gfz2012iffo   0.64410
gfz2012ihdl   1.46260
gfz2012imay   0.33720
gfz2012imbd   1.59300
gfz2012intn   0.18340
gfz2012jjzc   0.95820
gfz2012jlox  -0.41430
gfz2012jpeh   1.20200
gfz2012jted  -0.57030
gfz2012jupx  -0.16810
gfz2012kdmb   1.23000
gfz2012klba   0.30500
gfz2012kuct   0.01510
gfz2012kudo  -0.09570
gfz2012kvzv   0.23310
gfz2012kwgo   0.17800
gfz2012lczo  -0.02190
gfz2012ldgs   0.84490
gfz2012ldxg  -0.52670
gfz2012lltr   0.11960
gfz2012llug  -0.36280
gfz2012lrol   0.21560
gfz2012lrsv  -0.30630
gfz2012lxkv  -0.45950
gfz2012lzmr   1.72020
gfz2012maxy   0.53760
gfz2012mdmy   0.44780
gfz2012minr  -0.11260
gfz2012mkpn   1.77040
gfz2012mlyf   1.79660
gfz2012mofm   0.75460
gfz2012mpvy   0.76270
gfz2012mpyl   1.12840
gfz2012mtiu   2.07700
gfz2012mupa  -0.46340
gfz2012mwij   1.32270
gfz2012myqa   0.11510
gfz2012naqz  -0.48350
gfz2012nbtn   1.22070
gfz2012nedn   1.08400
gfz2012njha   0.59370
gfz2012nkdf  -0.75700
gfz2012nqnk   0.36750
gfz2012ntzv   1.63180
gfz2012nutf   3.24710
gfz2012nxog  -0.92160
gfz2012nxyt   0.49180
gfz2012obgw   0.22580
gfz2012oedb   1.02790
gfz2012omvo   0.38050
gfz2012oqmw  -0.64810
gfz2012ostk   0.65230
gfz2012ovqs  -0.10860
gfz2012oycg   0.80120
gfz2012pazr   0.25330
gfz2012pkel   1.36430
gfz2012plbw   0.42280
gfz2012pofl   3.15030
gfz2012pqlt   1.63490
gfz2012pqmk   0.18640
gfz2012pqmu  -0.57270
gfz2012prlt   0.94690
gfz2012qjhs   3.02150
gfz2012rats   0.74190
gfz2012repv   0.38240
gfz2012rjsd   1.65270
gfz2012ronz   0.24420
gfz2012royy   0.80430
gfz2012rqlg   0.58250
gfz2012ruks   1.34930
gfz2012rwko   0.62690
gfz2012rwov   0.63860
gfz2012rwql   0.74960
gfz2012rypu   0.19430
gfz2012shtg   0.38410
gfz2012snhi   1.84230
gfz2012spbj   2.78220
gfz2012svpr  -0.50090
gfz2012szla   0.31410
gfz2012tazz   1.35880
gfz2012tbbp  -0.33820
gfz2012teic  -0.19510
gfz2012thfx   0.03720
gfz2012tmop  -1.44720
gfz2012tpzx   3.86210
gfz2012ttoa   0.89150
gfz2012tvmv  -1.14710
gfz2012tzcc   1.09920
gfz2012tzgb   0.69930
gfz2012uaqj   0.43540
gfz2012uciv  -0.45570
gfz2012ueqo   0.84060
gfz2012uhup  -0.01500
gfz2012ulpd  -0.82500
gfz2012uqzp   0.37670
gfz2012uxnz   1.40830
gfz2012uyxb   0.26450
gfz2012vceo  -0.16540
gfz2012vpza  -0.37060
gfz2012vrgb   0.62290
gfz2012vrua  -0.11580
gfz2012vsev   0.22170
gfz2012vxvr  -0.14590
gfz2012wdyx   1.16790
gfz2012whku  -0.26520
gfz2012wizz  -0.09970
gfz2012wklq  -1.30460
gfz2012wmkd   1.60630
gfz2012wmsg   1.26850
gfz2012wubh   1.53340
gfz2012wxer   1.10070
gfz2012wxkg   1.14160
gfz2012wxlg  -0.59200
gfz2012wxnu   0.00000
gfz2012xbjq   0.71410
gfz2012xcgk   0.40470
gfz2012xeul  -0.83390
gfz2012xevt   0.19550
gfz2012xjyv   0.52220
gfz2012xkkv   0.56740
gfz2012xyqp   0.15230
gfz2012xyua  -0.60490
gfz2012yqjj   0.93190
gfz2012yxxu   1.32080
gfz2012zemh   0.97100
gfz2012zemz   0.76170
gfz2012ziml   0.73320
gfz2012zjpv   1.25520
gfz2012zjre   2.17380
gfz2012zmbp   0.69500
gfz2012zmln  -0.52300
gfz2013acag  -1.27850
gfz2013apmm   0.25550
gfz2013aqaw  -1.47600
gfz2013azzr   0.24850
gfz2013bdpu  -0.48540
gfz2013biji  -0.40410
gfz2013bnxc   0.10730
gfz2013bobq   2.26100
gfz2013btjm   0.55100
gfz2013ccnr  -0.40250
gfz2013cdan   0.99320
gfz2013cnhh  -0.75860
gfz2013cvqg   0.57920
gfz2013ddbh   1.46300
gfz2013dddp   1.38540
gfz2013diuf   1.64040
gfz2013dkly   0.92700
gfz2013dkmz   0.02470
gfz2013dkym   0.50040
gfz2013dofo  -0.50740
gfz2013dojq   0.32720
gfz2013dqls   1.42050
gfz2013drpk   0.81090
gfz2013drxz  -0.87300
gfz2013dspt   4.69460
gfz2013dsrk   0.73150
gfz2013egni   0.34510
gfz2013egpu  -0.10770
gfz2013ehwe   0.48010
gfz2013ekpm   0.70330
gfz2013enbx  -0.03600
gfz2013ewbo   0.88600
gfz2013fiud   1.60740
gfz2013fkii   2.95800
gfz2013flox   0.44350
gfz2013fnzr  -0.78500
gfz2013fwxa   1.84750
gfz2013fygc   1.07840
gfz2013gbcn   0.78660
gfz2013gbst   2.06870
gfz2013gcfx  -1.10910
gfz2013gdgf   0.28870
gfz2013gdnq  -0.48900
gfz2013gihf   1.23540
gfz2013gnse   0.59420
gfz2013gock   1.04440
gfz2013goux   1.49830
gfz2013govy   1.24310
gfz2013gras   1.17410
gfz2013gvex   3.25710
gfz2013gvxh  -0.94360
gfz2013gwrd   4.07510
gfz2013gxsu   0.95120
gfz2013hbkh   2.60310
gfz2013hfmp   0.08630
gfz2013hklr   2.14480
gfz2013hmbc  -0.04090
gfz2013huwr   0.59760
gfz2013hzdp   2.08490
gfz2013iayx   1.53920
gfz2013idbb   0.56590
gfz2013iexo   1.50980
gfz2013ifpq   0.04940
gfz2013igmx   1.55940
gfz2013ihcj   1.74340
gfz2013ijsr   0.79760
gfz2013ikgo   1.99430
gfz2013ilug  -0.21820
gfz2013inux   2.27530
gfz2013iodt   1.06320
gfz2013ippu   0.85610
gfz2013iqzq   0.33600
gfz2013iunn   1.43700
gfz2013iyqz   1.32600
gfz2013jdrx   0.50970
gfz2013jesk  -0.98830
gfz2013jgij   0.75890
gfz2013jjsi  -0.72700
gfz2013jphq   0.24300
gfz2013jusj  -2.23850
gfz2013jwvc  -0.26970
gfz2013kccc  -1.34410
gfz2013kdeo   0.75980
gfz2013kheb   1.75130
gfz2013khli   1.36710
gfz2013kilx   2.89950
gfz2013kqln  -0.64150
gfz2013krei  -0.23420
gfz2013kvtk   0.75670
gfz2013lbiu   2.48930
gfz2013ldpc   0.31740
gfz2013ldqb   0.45690
gfz2013lgbb   4.05260
gfz2013lgnl   1.01550
gfz2013lmqe   1.86960
gfz2013lmrs   1.25390
gfz2013lwao   1.59660
gfz2013lwbk   2.04270
gfz2013mmlw   1.21490
gfz2013mnei   1.41460
gfz2013mnju   0.44560
gfz2013mxee   1.64980
gfz2013mzwe   1.58400
gfz2013nabl   1.58590
gfz2013ncjp   0.22640
gfz2013ngnt   0.73840
gfz2013nhjb   0.21550
gfz2013nixj  -0.20670
gfz2013nlxz   1.80800
gfz2013nmac   0.78540
gfz2013nppd   0.69990
gfz2013nqgw  -1.20630
gfz2013nskg   0.77160
gfz2013nwdi   0.30440
gfz2013oejn   1.14990
gfz2013ofls   0.58740
gfz2013oifr   1.03940
gfz2013oinc  -0.49370
gfz2013ojti   0.79180
gfz2013oqsc   1.78230
gfz2013oznn  -2.03590
gfz2013ozqm   2.46330
gfz2013ozrf   1.32750
gfz2013pcos   0.67120
gfz2013pfbx   0.58770
gfz2013phef   0.62250
gfz2013puag   0.50840
gfz2013pxsj   2.62770
gfz2013qali   0.65350
gfz2013qmer   1.35720
gfz2013qnxc   0.04220
gfz2013qqrr   0.43460
gfz2013rdoo   1.30020
gfz2013scai  -0.73980
gfz2013sdus   0.36990
gfz2013sebq   1.73430
gfz2013sfds   0.43290
gfz2013sfto   1.27400
gfz2013shlq   0.65610
gfz2013skkm   1.14010
gfz2013snbr   0.16950
gfz2013snyf   1.77360
gfz2013suln   1.34070
gfz2013svci   0.04100
gfz2013svqv  -1.26410
gfz2013sxbw   1.24340
gfz2013tcbk   2.99150
gfz2013tcxc   0.81030
gfz2013tcxq   0.75460
gfz2013tdau   0.98920
gfz2013thtc   0.88490
gfz2013tlaf   1.56730
gfz2013toea   1.60880
gfz2013toxf   0.58480
gfz2013tpeb  -0.58140
gfz2013tusd   0.22000
gfz2013tvmw   0.28250
gfz2013twwf   0.08300
gfz2013txev   0.95450
gfz2013txij   0.08260
gfz2013uauo   0.19410
gfz2013ufku   0.39680
gfz2013ufxk   0.50390
gfz2013ufxm   0.13630
gfz2013ugax  -0.40950
gfz2013uhlm   2.11060
gfz2013uqsp   0.37440
gfz2013uqvu   1.46050
gfz2013uuzn   0.78130
gfz2013uxej   2.15630
gfz2013uysr   1.03340
gfz2013vdic   0.76910
gfz2013vexx   0.02720
gfz2013vfyw   1.32050
gfz2013vfzp   1.20670
gfz2013vgau   0.41540
gfz2013vgev   0.73810
gfz2013viul   0.56850
gfz2013vjfe   1.49760
gfz2013vjjc  -2.57310
gfz2013vmro   1.01520
gfz2013vnfj   0.38800
gfz2013vsbl   1.15310
gfz2013vsxi   0.37070
gfz2013vvjh   1.43560
gfz2013vvrq   0.16360
gfz2013vzbo   0.20600
gfz2013wbyr   1.50530
gfz2013wjmm  -0.31370
gfz2013wkyk   0.05810
gfz2013wmfd   2.10230
gfz2013wnpr   1.35080
gfz2013woze   1.29190
gfz2013wtzl   0.71800
gfz2013xatc   0.22600
gfz2013xcmp   0.59350
gfz2013xizq  -0.12720
gfz2013xmul   0.81220
gfz2013xpfa   1.57350
gfz2013xqnn   2.10940
gfz2013xsdt   1.28280
gfz2013xtwj   2.55830
gfz2013xvqd   3.17780
gfz2013xwda   0.50850
gfz2013xwxn   0.53030
gfz2013xwzd   1.74350
gfz2013xxxq   1.17500
gfz2013yach   0.73870
gfz2013yaig   0.72430
gfz2013yctg   0.17240
gfz2013yghj   0.73190
gfz2013yhbu   0.92940
gfz2013yhpk   1.12470
gfz2013ylbx  -0.42730
gfz2013ymxs   0.87180
gfz2013ynmw   0.59640
gfz2013ypdc   0.56830
gfz2013yqkv   1.01430
gfz2013yrmc  -1.83550
gfz2013yyhc   0.72940
gfz2013yzte   1.12290
gfz2013ziyr   6.07710
gfz2013zjel   2.25350
gfz2013zjtw   0.64090
gfz2013zmoc   2.38800
gfz2013zmtb   1.27100
gfz2014aawc  -0.02010
gfz2014adoj   0.51090
gfz2014afmx  -0.15550
gfz2014agde   0.77740
gfz2014agrl   0.24810
gfz2014ajlk   0.84150
gfz2014ajtf   0.76790
gfz2014alwz  -0.52410
gfz2014amsb   1.44970
gfz2014aqbk   2.91610
gfz2014ared  -1.26740
gfz2014arpf   1.18780
gfz2014arqr   1.61170
gfz2014arsr   1.55550
gfz2014atbl   2.03950
gfz2014atgw   1.13820
gfz2014azqs   1.75330
gfz2014bagd   1.07480
gfz2014bbro   1.08200
gfz2014bekc   0.47120
gfz2014bezu   0.97460
gfz2014bhvd   0.98000
gfz2014bjgt   1.53010
gfz2014bjsy   0.72490
gfz2014bldx   0.96550
gfz2014bmta   0.95000
gfz2014bwue   0.23890
gfz2014bztt   0.82830
gfz2014bzxy   1.90770
gfz2014cbtl   0.58080
gfz2014cgog   1.89170
gfz2014chdv   0.21370
gfz2014citw   1.69040
gfz2014claq  -0.09650
gfz2014cmwb   1.16430
gfz2014crpy   1.33880
gfz2014ctot   2.03390
gfz2014cueu   2.03810
gfz2014cvkm   1.35990
gfz2014cvxx   1.11620
gfz2014cyvm   0.35430
gfz2014czno   2.27000
gfz2014czol  -0.03920
gfz2014czqi   0.67330
gfz2014czua   2.03110
gfz2014dbdf   7.95850
gfz2014dbyx   5.76270
gfz2014dcdy   0.86610
gfz2014dffd   1.06290
gfz2014dgiy   1.20930
gfz2014dhxt   1.57280
gfz2014disp  -0.76900
gfz2014dofa   0.98040
gfz2014dpzx   0.37260
gfz2014duqn   1.11420
gfz2014eght   2.88810
gfz2014ehsf   1.90850
gfz2014ejmt   1.78940
gfz2014ekcr   0.33490
gfz2014ekdn   0.17820
gfz2014ekdt   1.59260
gfz2014enhi  -1.00050
gfz2014eqpl   1.58430
gfz2014etqa   1.53580
gfz2014ettc   0.57980
gfz2014fcms   2.21030
gfz2014fedd   1.37500
gfz2014fgvi   1.05190
gfz2014fgwt   1.00450
gfz2014fgxt   1.75570
gfz2014fgxz   0.98870
gfz2014fgyo   1.61440
gfz2014fgza   1.32290
gfz2014fhbd   1.18560
gfz2014fhdw   0.49700
gfz2014fhla   0.31380
gfz2014fhlh   1.32740
gfz2014fhrq   0.80340
gfz2014fhsg   1.87610
gfz2014fhwx   2.04890
gfz2014fhxm   0.44320
gfz2014fimn   1.54770
gfz2014fiuj   1.37650
gfz2014fiwq  -2.19160
gfz2014fjdz   0.66850
gfz2014fjxd   1.88580
gfz2014fkmr   0.17790
gfz2014fkmx   1.12150
gfz2014fknp   2.26910
gfz2014flfa   2.25890
gfz2014fnyg   1.23950
gfz2014foio   1.33020
gfz2014fqpz   1.36520
gfz2014frdz   2.03760
gfz2014frel   1.54640
gfz2014frez   1.02740
gfz2014frfl   0.56810
gfz2014frjr  -0.66100
gfz2014frwh   1.06940
gfz2014fsuh   1.58930
gfz2014fszc   2.04080
gfz2014ftka  -0.09330
gfz2014ftrk   1.30730
gfz2014furx   1.19590
gfz2014fusc   0.06650
gfz2014fusj   0.89170
gfz2014fuub   2.20040
gfz2014fuvk   1.22160
gfz2014fvaa   1.86820
gfz2014fvjl   0.64490
gfz2014fvrg   1.83370
gfz2014fvve   1.39720
gfz2014fwyr   1.18040
gfz2014fxpu   1.31050
gfz2014gbcz   0.67260
gfz2014gbdq  -0.83180
gfz2014ghpe   0.76320
gfz2014gkgf  -1.04160
gfz2014gkhp  -0.09430
gfz2014gkjl   1.72060
gfz2014gklq   1.00520
gfz2014gklv   1.21940
gfz2014gkob   0.24440
gfz2014gkok   0.40710
gfz2014gkpd   0.67600
gfz2014gkpj   0.70180
gfz2014gkqf   1.45430
gfz2014gkqu   0.66800
gfz2014gksj   0.72210
gfz2014gksu   0.50030
gfz2014gktq   1.34940
gfz2014gkut  -0.35670
gfz2014gkxm  -2.18000
gfz2014glcu   0.65770
gfz2014glcy   0.04530
gfz2014glfn   2.03240
gfz2014glgo   2.21490
gfz2014gltx   1.21120
gfz2014gmci   1.10410
gfz2014gmge   0.90970
gfz2014gmhp   1.50760
gfz2014gmhr  -1.55400
gfz2014gmic   0.37730
gfz2014gmip   2.07580
gfz2014gmjo   0.41010
gfz2014gmku   0.64050
gfz2014gmlz   1.23970
gfz2014gmmt   1.05050
gfz2014gmnb   1.66490
gfz2014gmnw   0.98520
gfz2014gmor   0.87760
gfz2014gmpy   1.30970
gfz2014gmuk   1.00230
gfz2014gmvr  -0.08580
gfz2014gmzl   2.40990
gfz2014gmzs  -0.35180
gfz2014gnig   1.75630
gfz2014gnmx   0.48820
gfz2014gnno   0.62160
gfz2014gnnt  -0.16640
gfz2014gnom   0.98900
gfz2014gnoz   0.81430
gfz2014gnqt   0.57930
gfz2014gnre   1.20070
gfz2014gntd  -0.59800
gfz2014goqw   1.32120
gfz2014gori   2.31330
gfz2014gpce   1.75330
gfz2014gphr   0.38330
gfz2014gpnf   2.02530
gfz2014gqqz   1.85140
gfz2014grcv   1.68300
gfz2014grgn   1.09020
gfz2014grho   2.43390
gfz2014gsqs   1.65760
gfz2014gtef   0.76300
gfz2014gutm   1.82530
gfz2014gvhw   1.53860
gfz2014gvqj   2.22160
gfz2014gvrd   0.36290
gfz2014gwab   1.58020
gfz2014gwgf   1.74950
gfz2014gwqj   0.49480
gfz2014gxkh   0.94550
gfz2014gxxh   0.27870
gfz2014gxxo   1.48840
gfz2014gzrm   1.17850
gfz2014gzue   2.89430
gfz2014haey   2.00630
gfz2014hafk   2.03830
gfz2014hagb   1.72980
gfz2014hauo   0.94290
gfz2014hbjm   1.47690
gfz2014hbjz   1.08910
gfz2014hbqb   0.71760
gfz2014hcmj   1.03440
gfz2014hetr   1.06340
gfz2014hfad   2.02780
gfz2014hfhl   0.52730
gfz2014hgqo   0.95210
gfz2014hifp   0.79380
gfz2014hiiz   1.05160
gfz2014hjgh   0.99960
gfz2014hjgr   0.81500
gfz2014hjij   0.68960
gfz2014hkcf   1.43360
gfz2014hkck   0.79630
gfz2014hoap   0.79930
gfz2014hocg   0.61470
gfz2014hphw   0.96120
gfz2014hrft   1.38690
gfz2014hriu   1.41280
gfz2014hrtn  -0.42300
gfz2014hscz   2.68670
gfz2014huaj   1.15510
gfz2014hwan   0.04090
gfz2014hymr   1.92110
gfz2014hyvq   1.41340
gfz2014hzdy   0.64830
gfz2014hzfw  -0.18170
gfz2014hzgn   1.00950
gfz2014hzhe   0.66960
gfz2014icqt   1.05910
gfz2014ieam   0.40930
gfz2014ieho   3.05910
gfz2014ifue   1.30110
gfz2014ifzj   0.56440
gfz2014inbj   0.30000
gfz2014iqzj   0.70230
gfz2014irci   1.16290
gfz2014issk   1.20530
gfz2014isys   0.77920
gfz2014itfc   0.53510
gfz2014itgh   0.97750
gfz2014itjx   1.46560
gfz2014itpj  -0.83550
gfz2014iuhq   0.19690
gfz2014iwwl   1.83270
gfz2014ixga   1.65760
gfz2014ixky   1.27540
gfz2014iywt   0.91150
gfz2014jcjt  -1.44210
gfz2014jcmt   1.61920
gfz2014jesb   1.78980
gfz2014jfis   1.07520
gfz2014jhra  -0.01810
gfz2014jjhc   0.90530
gfz2014jjln   0.17020
gfz2014jjqk   1.85040
gfz2014jkxe   1.17750
gfz2014jlwb   0.49810
gfz2014jmnk   0.84540
gfz2014jnxm   0.43070
gfz2014jnyv   0.77390
gfz2014jomw   0.55700
gfz2014jpep   0.98330
gfz2014jpez   1.33630
gfz2014jpgu   2.06280
gfz2014jtcz   0.51660
gfz2014jwmh   0.73950
gfz2014kara  -0.14000
gfz2014kbwm   0.33770
gfz2014khan   1.53780
gfz2014khlk   0.88420
gfz2014kizt   0.95910
gfz2014kjee   1.95550
gfz2014kjjq   2.16190
gfz2014kmmt   1.64870
gfz2014kndc   0.78370
gfz2014knks  -0.19170
gfz2014knxs   0.31910
gfz2014kscf   1.48360
gfz2014ksdv   0.89000
gfz2014kssw   2.35320
gfz2014kwrg   0.57110
gfz2014kwwg   0.50040
gfz2014kxqf   1.41020
gfz2014kyan   0.71860
gfz2014kzzm   0.27450
gfz2014lbcq   0.63390
gfz2014lbxn   1.35330
gfz2014lddn  -0.03880
gfz2014lgqn   0.83370
gfz2014lkyf   0.59660
gfz2014lmge  -0.08050
gfz2014lnmw   1.72690
gfz2014lnqy   0.79990
gfz2014lpfc   0.65650
gfz2014lpim   0.63010
gfz2014lrzx   0.17580
gfz2014lvgn   1.28870
gfz2014lynp   0.64850
gfz2014lzal   1.66920
gfz2014lzow   0.67840
gfz2014mawp   1.60010
gfz2014mcno   5.97910
gfz2014mioi   1.75570
gfz2014mtum   1.54470
gfz2014mwor   0.77150
gfz2014myqz   1.15490
gfz2014ngnd   1.54330
gfz2014nhyb   0.70960
gfz2014nkdx   1.18870
gfz2014nowp   1.67420
gfz2014nphm   1.13790
gfz2014nqfm   0.76130
gfz2014nrie   0.97580
gfz2014ntdh   0.33370
gfz2014nyeh   0.24380
gfz2014nyfb   0.72000
gfz2014nylm  -0.06690
gfz2014odgv   0.92300
gfz2014ofhm   1.55790
gfz2014oims   1.01350
gfz2014oinz   0.29410
gfz2014okec   1.25440
gfz2014okjw   1.17410
gfz2014omyn   0.98920
gfz2014opqr   1.27640
gfz2014orgz   0.71240
gfz2014orxs   1.40700
gfz2014osvz  -0.66720
gfz2014oxcc   0.52180
gfz2014oyly   0.48190
gfz2014pjer   0.41200
gfz2014pjum   1.88740
gfz2014pkll   0.33830
gfz2014poap   0.95020
gfz2014ppyi   1.01250
gfz2014ppzf   0.78710
gfz2014pvch   0.06610
gfz2014pzml   0.93750
gfz2014pzni   1.22500
gfz2014qbzi   0.83630
gfz2014qcxs   0.33630
gfz2014qdog   0.81940
gfz2014qfzq   0.72480
gfz2014qjfl  -0.11970
gfz2014qjgp  -0.03640
gfz2014qngj   1.04150
gfz2014qqhm   0.58180
gfz2014raau   0.81900
gfz2014rbsl   1.09250
gfz2014rdsn   0.21830
gfz2014rfeb   0.95450
gfz2014rhju   0.30450
gfz2014rhnz   0.33850
gfz2014rhwq  -0.82730
gfz2014rkwl   1.60000
gfz2014roba   1.00930
gfz2014romy   0.48870
gfz2014royq   0.54510
gfz2014rtcu   0.30070
gfz2014rucz   1.00660
gfz2014ryfb   0.66420
gfz2014sadu   0.46610
gfz2014snfs   0.60060
gfz2014sptq  -0.79600
gfz2014sryn   0.37380
gfz2014ssmv   0.93420
gfz2014tabg   1.19360
gfz2014tfgn   0.04380
gfz2014tgcw   0.35660
gfz2014thrw   1.52300
gfz2014tqdo   0.74060
gfz2014tqly   1.22440
gfz2014tqth   1.06010
gfz2014tzsd   0.90250
gfz2014uapa   1.10230
gfz2014ubwn   0.67380
gfz2014ubyq   1.00200
gfz2014utac   1.84960
gfz2014uuqa   0.81390
gfz2014uxyg   0.53910
gfz2014vcev   0.97670
gfz2014vhld   0.18610
gfz2014vhms   1.03000
gfz2014vhuy   1.22400
gfz2014vjoz   0.37320
gfz2014vpus  -0.10630
gfz2014vqqa   1.84550
gfz2014waoo   1.25150
gfz2014watn   0.63500
gfz2014wmsc   0.58110
gfz2014wqcp   0.51900
gfz2014wrkh   0.67060
gfz2014wsjh   0.37790
gfz2014wwib   0.29910
gfz2014xaxx   1.03800
gfz2014xhkc  -0.61890
gfz2014xhwk   0.79700
gfz2014xjri   1.39710
gfz2014xqby   0.90090
gfz2014xqqd   0.64830
gfz2014ynzy   1.93230
gfz2014yrug   1.07710
gfz2014yula   1.01130
gfz2014zkys   0.44940
gfz2015aide  -0.10070
gfz2015alzx   1.33910
gfz2015ansu   1.37370
gfz2015aqav   0.69350
gfz2015arpd   1.25810
gfz2015aruz   0.43110
gfz2015bavu   0.40130
gfz2015bdyd   0.85030
gfz2015bfjm   1.28370
gfz2015bkbj   0.69840
gfz2015bphe   0.38140
gfz2015bsnl   1.40140
gfz2015bucr   1.06310
gfz2015bvxx   1.27540
gfz2015byfn   0.50330
gfz2015byjd   0.28960
gfz2015chhn  -0.55960
gfz2015chqn  -0.11210
gfz2015cpuo   0.84490
gfz2015cxhx   0.94710
gfz2015cxrc   0.32500
gfz2015cxxk   1.22610
gfz2015czfv   0.10070
gfz2015dizn   0.87840
gfz2015djts   1.46620
gfz2015drlk   1.17390
gfz2015dtqr   0.79250
gfz2015dvbn   0.74090
gfz2015ecgq   1.42660
gfz2015eeyq   1.03020
gfz2015egbk   0.97110
gfz2015ehpz   1.65190
gfz2015eiky   1.49780
gfz2015elgy   0.13420
gfz2015eljz   0.60860
gfz2015enth   0.41490
gfz2015esrj   0.36540
gfz2015etai   0.26080
gfz2015eyqs   1.40620
gfz2015fdpr   0.75470
gfz2015fjhk   0.49130
gfz2015fkgt   0.06420
gfz2015fkuu   1.23420
gfz2015flis   0.74550
gfz2015fpez   1.32610
gfz2015fsjj  -0.17970
gfz2015gjbr   0.24930
gfz2015gkwa   0.36590
gfz2015guhd   1.58580
gfz2015gwao  -0.07960
gfz2015gzja  -0.65680
gfz2015hdcp   0.94190
gfz2015hepg   0.65070
gfz2015hlqo   1.31130
gfz2015hpmk   0.38090
gfz2015hwkv   0.13020
gfz2015ijmh  -0.76450
gfz2015imty   1.39160
gfz2015isim   0.83610
gfz2015ixyy   0.24310
gfz2015jmlu   1.58590
gfz2015jpap  -0.25140
gfz2015jwgl   0.07130
gfz2015kcaa   0.48550
gfz2015kkqb   0.56760
gfz2015kkth   0.20010
gfz2015kvwz   0.83380
gfz2015lcma   0.46070
gfz2015ltii   1.24800
gfz2015lytv  -1.65550
gfz2015lzad   0.79790
gfz2015mfpy   0.49990
gfz2015mhym  -1.03220
gfz2015micz   1.12740
gfz2015mljd   0.58220
gfz2015nqgf   1.47160
gfz2015ntpk   1.54810
gfz2015ocwr   1.59290
gfz2015okmq   0.70440
gfz2015okpu   1.06320
gfz2015omab   1.44110
gfz2015opjp  -1.37510
gfz2015othd   1.37260
gfz2015pjgr   0.59900
gfz2015puqp   0.05780
gfz2015qafb   1.43400
gfz2015qbme  -0.19670
gfz2015qnho   0.27200
gfz2015qnlv   0.00000
gfz2015rddx   0.75470
gfz2015rgov  -0.07110
gfz2015rgst   0.35040
gfz2015rkrg   0.41020
gfz2015rkzg   0.17720
gfz2015rpzn  -0.21710
gfz2015rxmg   0.25380
gfz2015sdeo   0.80000
gfz2015sdfy   1.61940
gfz2015seuf   0.74940
gfz2015sevh   1.04910
gfz2015sfdd  -0.28200
gfz2015sfdh  -0.71400
gfz2015sfdl  -1.57380
gfz2015sfdv   0.95610
gfz2015sfdy  -1.03760
gfz2015sfeo  -1.11310
gfz2015sffn  -0.87530
gfz2015sfga  -1.53730
gfz2015sfhz  -1.43620
gfz2015sfiq  -1.57170
gfz2015sfjf  -0.45210
gfz2015sgmm   1.13660
gfz2015sgmr  -0.04530
gfz2015sgna   0.31920
gfz2015sgxc   0.35830
gfz2015sgyd  -0.07390
gfz2015shaq  -0.80420
gfz2015shel   1.00800
gfz2015sicu   1.09130
gfz2015siky  -0.05960
gfz2015siof   1.07360
gfz2015sist  -0.85770
gfz2015sitn   0.22490
gfz2015sixi  -0.19260
gfz2015sixs   1.30100
gfz2015siyy   0.76570
gfz2015sjtz   1.36430
gfz2015skab   0.82540
gfz2015skgj   1.80360
gfz2015skhf   0.44230
gfz2015skia   0.39610
gfz2015sklu   1.16060
gfz2015skpv   1.79050
gfz2015skuk   1.87590
gfz2015smgj   2.18810
gfz2015snhn   1.00630
gfz2015snmg   2.14940
gfz2015snmr   0.09070
gfz2015snsf   0.28620
gfz2015snwh  -0.46660
gfz2015snyd   0.34130
gfz2015soat   1.15070
gfz2015solh   1.01490
gfz2015sopc   1.20770
gfz2015soxc   0.06410
gfz2015spal   0.99220
gfz2015sqbg   1.52400
gfz2015sqoz   0.96250
gfz2015sqvx  -0.41410
gfz2015sqwv   0.79410
gfz2015sqyh   1.30660
gfz2015srat   0.69700
gfz2015srgf   0.29930
gfz2015srxe   0.60800
gfz2015srxm   1.95000
gfz2015ssaf   2.11560
gfz2015ssoe   0.92800
gfz2015sspn   1.67300
gfz2015ssrl   1.06580
gfz2015stas   1.15240
gfz2015stfy  -0.13430
gfz2015stso   0.91710
gfz2015svjy   0.70550
gfz2015svwm   0.23080
gfz2015sxgd   1.38330
gfz2015sxmh   0.00000
gfz2015szcb   0.38780
gfz2015szfe   1.80440
gfz2015szfq   0.27580
gfz2015taml   0.43960
gfz2015tbdn   0.24730
gfz2015tbxe   0.47760
gfz2015tchx  -0.54400
gfz2015tdcu   0.35780
gfz2015tdhb   1.31220
gfz2015teje   0.32940
