# Nsamples: 38  MAD:  0.717  mean:  1.278  variance:  1.983
gfz2010bfzs   0.05220
gfz2010bxxs   1.16790
gfz2010civi   1.18100
gfz2010eaoy  -0.07730
gfz2010eapn   0.91070
gfz2010earq   1.19830
gfz2010earu   1.23630
gfz2010eazu   1.26010
gfz2010eiqi   2.27610
gfz2010eisx   7.24630
gfz2010elyc   1.84100
gfz2010excp   0.93100
gfz2010exdd   1.15740
gfz2010fync   1.16050
gfz2010nqwo   1.78990
gfz2010rqwj  -0.04600
gfz2011aatr   0.03770
gfz2011adjs   0.36270
gfz2011cykd   2.26470
gfz2011rewa   1.16590
gfz2012rypu   1.15270
gfz2012wklq   0.97270
gfz2013ccnr   1.61100
gfz2013jusj   0.04850
gfz2013vjjc   2.32630
gfz2013xsdt   3.39480
gfz2014claq   1.00860
gfz2014gmhr   4.57520
gfz2014mioi  -0.24460
gfz2014rhwq   0.82940
gfz2014thrw  -1.40220
gfz2015chhn   0.64360
gfz2015enth   0.83680
gfz2015fkgt   1.20630
gfz2015fsjj   0.49430
gfz2015lytv   1.20230
gfz2015sfdd   1.09340
gfz2015snwh   1.69630
