# Nsamples: 611  MAD:  0.866  mean: -2.244  variance:  1.104
gfz2010cqwl  -1.81130
gfz2010czps  -1.48070
gfz2010dejx  -1.98110
gfz2010dfru  -4.19070
gfz2010dlgc  -2.08850
gfz2010fobc  -1.85120
gfz2010fpqy  -2.67140
gfz2010fqdu  -1.67940
gfz2010fqtj  -1.69480
gfz2010ftlm   1.26530
gfz2010fupn  -1.91030
gfz2010fwpv  -2.51970
gfz2010fwzd  -2.61930
gfz2010fync  -2.54900
gfz2010gyqp  -3.16630
gfz2010gzxr  -2.86670
gfz2010hbka  -2.33310
gfz2010iibf  -1.71030
gfz2010iobp  -1.66830
gfz2010iqnm  -2.72250
gfz2010irvf   0.85650
gfz2010iull  -2.47140
gfz2010jxbm  -1.81610
gfz2010jygz  -2.50970
gfz2010kcoo  -2.85720
gfz2010kdyc  -1.67310
gfz2010lczp  -2.78460
gfz2010lepw  -3.77000
gfz2010lkcf  -2.53230
gfz2010mhjt  -2.03200
gfz2010mkuu  -2.49720
gfz2010mlkz   2.06310
gfz2010mlta  -0.55560
gfz2010mncc  -2.42770
gfz2010mnhm  -0.79580
gfz2010mpuy  -1.46240
gfz2010msjj  -4.20200
gfz2010muca  -0.98100
gfz2010mwdq  -1.56380
gfz2010nmpc  -3.01430
gfz2010nnny  -1.34520
gfz2010nqwo  -2.55840
gfz2010nrjo  -1.31140
gfz2010nsck  -2.04670
gfz2010nubk  -1.31170
gfz2010nwef  -3.44440
gfz2010nxsy  -1.46230
gfz2010onma  -3.33320
gfz2010plbg  -1.61110
gfz2010pxak  -3.59550
gfz2010pxgh  -3.82500
gfz2010qjst  -1.75530
gfz2010qkat  -0.58080
gfz2010qpcq  -2.65440
gfz2010qpvi  -2.65410
gfz2010rkfp  -3.68270
gfz2010rqwj  -2.16750
gfz2010rywq  -2.50490
gfz2010sfee  -2.99310
gfz2010skve  -1.79920
gfz2010srdb  -2.07990
gfz2010svtn  -2.43600
gfz2010svve  -3.75150
gfz2010swcy  -2.89770
gfz2010sxwt  -4.49590
gfz2010sysw  -2.98860
gfz2010tcbr  -1.52160
gfz2010txjs  -1.66310
gfz2010upfb  -1.20680
gfz2010urlq  -2.85170
gfz2010usho  -3.71310
gfz2010ustq  -2.88390
gfz2010utcg  -3.33320
gfz2010utmc  -1.72520
gfz2010xgfc   0.32060
gfz2011aatr  -2.06590
gfz2011adjs  -1.02930
gfz2011ahfw  -0.99670
gfz2011alip  -3.07140
gfz2011aqxf  -1.79480
gfz2011bhha  -0.84480
gfz2011blsi  -1.08090
gfz2011bpkd  -4.00130
gfz2011cfae  -2.05270
gfz2011cndo  -2.06350
gfz2011cvcg  -3.71060
gfz2011cykd  -2.06510
gfz2011cyuk  -0.01980
gfz2011dbev  -2.67790
gfz2011dbig  -2.55580
gfz2011dbon  -1.87730
gfz2011dcqb  -2.16620
gfz2011dcqf  -1.97630
gfz2011dkyi  -1.97340
gfz2011dpqx  -2.54320
gfz2011eazf  -1.48850
gfz2011ecaj  -2.70530
gfz2011edmm  -4.08770
gfz2011ehzq  -2.18610
gfz2011eltw  -3.38260
gfz2011enva  -2.67600
gfz2011fhag  -1.39820
gfz2011fhbm  -3.48520
gfz2011flgj  -3.08530
gfz2011fnsw  -3.53810
gfz2011gbmx  -2.06230
gfz2011gcwb  -1.66430
gfz2011gkzt  -3.41340
gfz2011hbex  -2.52540
gfz2011hfkj  -2.53500
gfz2011hlqw  -2.15790
gfz2011hlsa  -2.28630
gfz2011hpqp  -1.94350
gfz2011hvbu  -2.71240
gfz2011ieie  -1.08700
gfz2011iwte  -1.41850
gfz2011ixai  -1.41630
gfz2011jdsj  -4.16350
gfz2011jplh  -2.20190
gfz2011jtlg  -2.90680
gfz2011jxpl  -3.88310
gfz2011knoo  -3.64540
gfz2011kqwo  -2.96740
gfz2011kqyg  -3.38460
gfz2011ksiu  -3.99320
gfz2011kxzp  -1.94800
gfz2011lcxq  -2.57270
gfz2011lhls  -3.40380
gfz2011lzwj  -1.63910
gfz2011mdie  -3.03500
gfz2011mjom  -2.97640
gfz2011mpme  -1.64800
gfz2011nrwc  -1.55590
gfz2011nsex  -2.37660
gfz2011ntkh  -3.25070
gfz2011nudm  -2.58070
gfz2011ohcy  -3.16890
gfz2011oiqe  -3.45840
gfz2011oiwk  -2.13970
gfz2011olkk  -2.50020
gfz2011orgn  -3.00310
gfz2011ornx  -1.09690
gfz2011owvz  -3.31840
gfz2011pntf  -1.61260
gfz2011ptus  -0.62220
gfz2011qvae  -2.44290
gfz2011rewa  -2.35850
gfz2011rgwp  -1.07300
gfz2011rsrh  -2.64920
gfz2011sagt  -1.25530
gfz2011tjue  -2.47570
gfz2011tkog  -2.96170
gfz2011toub  -3.37000
gfz2011tpfr   0.60950
gfz2011ueni  -2.90950
gfz2011ujze  -3.56390
gfz2011uphh  -2.99960
gfz2011urzu  -2.77580
gfz2011uzqv  -1.92160
gfz2011vhfi  -2.70050
gfz2011vnza  -3.66240
gfz2011vrhg  -4.59470
gfz2011vxns  -2.68130
gfz2011wwjs  -3.21640
gfz2011wxfs  -1.05090
gfz2011wxoj   1.85730
gfz2011wxtk  -3.93530
gfz2011wype  -1.86380
gfz2011xyxj  -1.07740
gfz2011zklv  -1.44270
gfz2012aqgp  -1.52460
gfz2012aqtq  -1.05180
gfz2012bfah  -2.86020
gfz2012bpkx  -2.78820
gfz2012bpwl  -1.66720
gfz2012brhv  -2.38180
gfz2012byad  -1.50860
gfz2012cxdn  -2.44800
gfz2012czlw  -2.11710
gfz2012ekda  -2.33500
gfz2012emjg  -3.32310
gfz2012enno  -2.61310
gfz2012ewgo  -1.17420
gfz2012foeo  -4.36300
gfz2012fwfo  -2.76100
gfz2012fzfa  -1.86990
gfz2012glss  -2.75890
gfz2012gocc   0.51500
gfz2012gomm  -3.66700
gfz2012hnul  -0.77860
gfz2012hsex  -3.39360
gfz2012hwyo  -2.89000
gfz2012ilvn  -1.21020
gfz2012imay  -2.69110
gfz2012intn  -2.82650
gfz2012jlox  -2.87280
gfz2012jshk   0.08070
gfz2012jupx  -4.79910
gfz2012keor  -0.48410
gfz2012kkup  -2.29960
gfz2012klhx  -2.52270
gfz2012kuct  -1.36800
gfz2012kudo  -2.51260
gfz2012kwgo  -2.29200
gfz2012lczo   1.78710
gfz2012ldxg   1.77040
gfz2012lxkv  -2.28650
gfz2012minr  -1.54200
gfz2012mupa  -1.97430
gfz2012mvwr  -2.39800
gfz2012mwij  -0.43760
gfz2012oazn  -1.67780
gfz2012rats  -2.64720
gfz2012ronz  -1.73400
gfz2012royy  -2.76880
gfz2012ruks  -2.09040
gfz2012rwko  -2.57760
gfz2012rwov  -2.88770
gfz2012sphd  -2.33010
gfz2012syvl  -3.00430
gfz2012teic  -2.43750
gfz2012ttoa  -3.54790
gfz2012tvmv  -2.22840
gfz2012uafg  -1.63800
gfz2012uaqj  -0.69490
gfz2012uhup  -2.96660
gfz2012uqzp  -2.16510
gfz2012uvqf  -2.76340
gfz2012vpza  -0.64220
gfz2012vrgb  -3.32080
gfz2012vsev  -3.87280
gfz2012whku  -1.82900
gfz2012wklq  -3.64880
gfz2012wmsg  -4.34660
gfz2012wpeq  -2.30160
gfz2012wtkr  -2.13930
gfz2012wvfl  -1.09620
gfz2012wxer  -1.61460
gfz2012wxlg  -3.31950
gfz2012wxnu  -3.03950
gfz2012wybs  -3.58620
gfz2012wypz  -2.32010
gfz2012zfag  -1.94040
gfz2012zitl  -2.73900
gfz2012zjpv  -1.33650
gfz2013aahq  -4.51620
gfz2013apmm  -4.55650
gfz2013axoj  -1.59410
gfz2013bokp  -1.20690
gfz2013btjm  -3.00070
gfz2013ccnr  -3.49080
gfz2013cwpn  -1.12030
gfz2013dddp  -4.55450
gfz2013dkly  -1.85170
gfz2013dofo  -2.54300
gfz2013drpk  -1.78550
gfz2013drxz  -2.78860
gfz2013dspt   0.49160
gfz2013egni  -4.32220
gfz2013figy  -4.88770
gfz2013fiud  -2.44920
gfz2013fkii  -0.25370
gfz2013flox  -4.41520
gfz2013gdnq  -1.98650
gfz2013idbb  -3.37390
gfz2013ifpq  -1.92140
gfz2013ikgo  -2.64380
gfz2013ilug  -2.88050
gfz2013ippu  -1.60450
gfz2013iunn  -3.75240
gfz2013jesk  -2.29210
gfz2013jgij  -4.20700
gfz2013jgip  -3.27750
gfz2013jkut  -2.34110
gfz2013jlst  -1.74120
gfz2013jusj   0.79980
gfz2013kdeo  -3.17290
gfz2013ldpc  -2.79070
gfz2013ldqb  -3.73280
gfz2013lgxc  -1.78400
gfz2013lixa   0.27830
gfz2013lyko  -2.84670
gfz2013mqmv  -2.37620
gfz2013mwbh  -1.54550
gfz2013ncjp  -2.11530
gfz2013nkgj  -2.46550
gfz2013nwdi  -1.45270
gfz2013oifr  -1.71100
gfz2013ojti  -1.58520
gfz2013pfbx  -2.64020
gfz2013qali  -1.99370
gfz2013qmer  -2.48650
gfz2013qzdq  -2.51630
gfz2013roki  -2.77800
gfz2013sdus  -1.11010
gfz2013shzy  -2.93950
gfz2013snbr  -1.10030
gfz2013suvn  -2.49040
gfz2013svci  -1.60870
gfz2013tcxc  -2.36190
gfz2013toxf  -2.00350
gfz2013tusd  -3.66780
gfz2013tvmw  -2.64370
gfz2013uauo  -2.78540
gfz2013uqvu  -0.30610
gfz2013uysr  -5.35410
gfz2013vfyw  -1.04240
gfz2013vfzp  -1.01900
gfz2013viul  -3.25600
gfz2013vjjc  -2.40410
gfz2013vvrq  -2.94550
gfz2013wjmm  -1.78330
gfz2013xsdt  -2.08290
gfz2013xxxq  -1.35410
gfz2013yctg  -1.13960
gfz2013ylbx  -2.91670
gfz2013yqkv  -2.44690
gfz2013zjel  -1.53600
gfz2013zmtb  -2.87280
gfz2014afmx  -2.27330
gfz2014ajlk  -2.38620
gfz2014algk  -3.26220
gfz2014ande  -2.04380
gfz2014arpf  -1.17950
gfz2014bwue  -1.35170
gfz2014czqi  -3.32440
gfz2014czua  -1.26040
gfz2014dhxt  -1.42480
gfz2014eght  -3.08150
gfz2014ekcr  -2.11990
gfz2014enhi  -0.67580
gfz2014etqa  -1.19750
gfz2014fedd  -3.14170
gfz2014femz  -1.58900
gfz2014fexu  -3.71730
gfz2014ffdc  -3.35320
gfz2014fgvi  -1.42260
gfz2014fgvr  -1.93680
gfz2014fhbd  -2.38590
gfz2014fhdw  -1.86850
gfz2014fhla  -4.40670
gfz2014fhrq  -2.70830
gfz2014fhwx  -1.90340
gfz2014fimn  -1.68620
gfz2014fjzd  -2.17210
gfz2014fkmr  -2.68860
gfz2014fkmx   0.99370
gfz2014fnyg  -3.42030
gfz2014frdz  -3.02590
gfz2014frel  -2.39960
gfz2014frez  -2.37540
gfz2014frwh  -1.96800
gfz2014ftka  -3.54930
gfz2014ftrk  -0.53250
gfz2014furx  -1.58290
gfz2014fusc  -1.69750
gfz2014fusj  -2.30390
gfz2014fuub  -0.76290
gfz2014fval  -2.76680
gfz2014fvgh  -2.01630
gfz2014fvpy  -1.18480
gfz2014fvrg  -2.75250
gfz2014gbcz   1.20700
gfz2014ghpe  -3.36590
gfz2014gkgf  -2.36020
gfz2014gkgs  -1.57280
gfz2014gkhp  -1.27460
gfz2014gkhy  -1.36810
gfz2014gkjl  -2.93080
gfz2014gkjt  -2.36910
gfz2014gkob  -2.30500
gfz2014gkok  -2.60700
gfz2014gkpd  -1.84240
gfz2014gkpj  -0.83820
gfz2014gkqf  -1.76420
gfz2014gkqu  -0.86500
gfz2014gksj  -1.23930
gfz2014gksu  -1.27920
gfz2014gktq  -1.33910
gfz2014gkut  -3.08820
gfz2014gkxm  -3.67040
gfz2014glcu  -2.04820
gfz2014glcy  -2.39930
gfz2014gltx  -2.44480
gfz2014gmci  -1.92360
gfz2014gmge  -1.45670
gfz2014gmhr  -3.60810
gfz2014gmip  -2.37170
gfz2014gmjo  -2.28190
gfz2014gmku  -2.87850
gfz2014gmlz  -2.23300
gfz2014gmnw  -2.36310
gfz2014gmpy  -2.78470
gfz2014gmuk  -1.68340
gfz2014gmuw  -2.29310
gfz2014gmzl  -3.23310
gfz2014gnnt  -2.84520
gfz2014goba  -2.53050
gfz2014goqw  -2.97500
gfz2014gori  -0.75810
gfz2014gphr  -2.72030
gfz2014gpuk  -2.83390
gfz2014gqbj  -1.76430
gfz2014gqer  -1.17280
gfz2014gsqs  -3.44080
gfz2014gull  -2.88130
gfz2014gulp  -2.22850
gfz2014gumd  -3.91310
gfz2014gwab  -2.50740
gfz2014gxxo  -2.75300
gfz2014hagb  -2.87690
gfz2014hasj  -3.14460
gfz2014hauo  -3.01760
gfz2014hbqb  -1.96140
gfz2014hfhl  -4.47350
gfz2014hgqo  -2.72580
gfz2014hjgh  -3.66280
gfz2014hjgr  -2.36040
gfz2014hjij  -2.37500
gfz2014hkcf  -2.23530
gfz2014hocg  -2.09600
gfz2014hqxs  -2.75900
gfz2014huaj  -1.78700
gfz2014hyvq  -2.11980
gfz2014hzfw  -2.61130
gfz2014hzgn  -2.89930
gfz2014imnn  -5.99650
gfz2014inbj  -2.23890
gfz2014itkw  -2.56760
gfz2014itpj  -1.94420
gfz2014jjhc  -2.07670
gfz2014jjln  -2.36280
gfz2014jnyv  -3.59930
gfz2014jpep  -2.18670
gfz2014jwmh  -1.51190
gfz2014khlk   0.58040
gfz2014kndc  -3.21260
gfz2014knks  -2.22410
gfz2014ksdv  -2.00190
gfz2014kwrg  -2.36190
gfz2014kytf  -3.11730
gfz2014lgqn  -1.07570
gfz2014lkyf  -2.70530
gfz2014lnmw  -3.74780
gfz2014lxnc  -2.67510
gfz2014lyhk  -2.33450
gfz2014lyhp  -2.74310
gfz2014macx  -2.47000
gfz2014madw  -2.44100
gfz2014npdk  -2.22290
gfz2014npeo  -2.01680
gfz2014nphm  -2.90750
gfz2014nqfm  -2.23120
gfz2014nrie  -1.86530
gfz2014odgv  -3.08190
gfz2014oinz  -2.77550
gfz2014owxc  -2.02060
gfz2014oxcc  -1.73990
gfz2014tzsd  -3.97940
gfz2014ubwn  -2.10520
gfz2014uuqa  -2.48640
gfz2014uvji  -3.12070
gfz2014vcev  -2.54010
gfz2014vhld  -1.98490
gfz2014vhms  -1.94840
gfz2014watn  -2.43050
gfz2014wjko  -2.50150
gfz2014xbyr  -1.81230
gfz2014xjri  -2.72560
gfz2014xoji  -2.80360
gfz2014xqqd  -3.86140
gfz2014yhhm  -2.90980
gfz2014ynzy  -2.64090
gfz2014yrug  -3.04090
gfz2014zkys  -2.26910
gfz2015apnk  -1.68110
gfz2015aruz  -2.70550
gfz2015berb  -1.85980
gfz2015bfjm  -2.45890
gfz2015bkbj  -3.66550
gfz2015bphe  -4.15050
gfz2015bucr  -2.11960
gfz2015chhn  -2.60870
gfz2015chqn  -2.63780
gfz2015cxxk  -1.33040
gfz2015cyjd  -3.33670
gfz2015dizn  -1.71770
gfz2015dvbn  -2.68900
gfz2015egxq  -2.99810
gfz2015eiky  -1.58260
gfz2015elgy  -1.85360
gfz2015fbbk  -3.24060
gfz2015fjhk  -2.47730
gfz2015fkgt  -2.84490
gfz2015fsjj  -2.58400
gfz2015fvoi  -3.04190
gfz2015fyvk  -1.31020
gfz2015gckd  -3.17650
gfz2015gjbr  -1.35320
gfz2015hgbk  -2.99760
gfz2015hpmk  -2.42130
gfz2015jwgl  -1.52280
gfz2015jzcv  -2.19540
gfz2015kakw  -2.00370
gfz2015kfsu  -4.22350
gfz2015kkqb  -1.81310
gfz2015kkth  -2.95060
gfz2015kphk  -1.60230
gfz2015kquq  -2.87890
gfz2015ksni  -1.88520
gfz2015lcuo  -1.88270
gfz2015lfma  -2.89670
gfz2015lhjy  -2.18310
gfz2015lytv  -3.55730
gfz2015mddr  -1.85240
gfz2015mpte  -1.54510
gfz2015nwug  -2.58220
gfz2015ocdz  -0.50460
gfz2015okmq  -2.93280
gfz2015oyfl  -2.68030
gfz2015qnho  -2.15470
gfz2015qnlv  -2.47800
gfz2015rddx  -2.47860
gfz2015rkzg  -3.74620
gfz2015sfdd  -1.71900
gfz2015sfdv  -2.02270
gfz2015sfdy  -0.89320
gfz2015sfeo  -0.83500
gfz2015sffn  -2.33560
gfz2015sfga  -1.52500
gfz2015sfhz  -0.77310
gfz2015sfiq  -2.20310
gfz2015sfkh  -1.72310
gfz2015sfko  -1.78600
gfz2015sfks  -1.13650
gfz2015sflf  -2.44040
gfz2015sfln   0.83100
gfz2015sfnb  -0.93390
gfz2015sfno  -1.49330
gfz2015sfnv  -1.16700
gfz2015sfoc  -1.21500
gfz2015sfom  -2.09310
gfz2015sfps   0.80200
gfz2015sfqo  -1.83060
gfz2015sfqr  -0.92890
gfz2015sfrc  -3.45460
gfz2015sfte  -2.70580
gfz2015sftu  -1.49690
gfz2015sfwf  -1.93530
gfz2015sfzm  -1.47270
gfz2015sgad  -1.92240
gfz2015sgdj  -2.85660
gfz2015sgmr  -0.93440
gfz2015sgna  -0.27520
gfz2015sgyd  -1.75500
gfz2015shaq  -2.24640
gfz2015shel  -2.61600
gfz2015shhg  -0.99820
gfz2015shhu  -1.95550
gfz2015shjn  -1.57330
gfz2015shjo   0.75350
gfz2015shrg  -2.31240
gfz2015shsz  -3.08780
gfz2015siem  -1.29100
gfz2015siky  -1.86910
gfz2015sist  -2.07790
gfz2015sitn  -1.16930
gfz2015sixi  -0.79890
gfz2015sjbx  -2.46360
gfz2015sjeq  -1.97130
gfz2015sjfi  -0.86250
gfz2015sjgk  -2.07190
gfz2015sjjb  -2.95920
gfz2015sjne  -2.50840
gfz2015sjoj  -1.09060
gfz2015sjpn  -1.45850
gfz2015sjtz  -1.40860
gfz2015sjvu  -1.54730
gfz2015sjwi  -2.03290
gfz2015skgj  -2.57760
gfz2015skia  -2.50240
gfz2015skpv  -2.18170
gfz2015skxu  -2.08280
gfz2015sldx  -2.56500
gfz2015slfn  -1.94590
gfz2015sljs  -3.31140
gfz2015slun  -1.66930
gfz2015smgj  -1.94170
gfz2015snhn  -1.77450
gfz2015snsf  -2.23720
gfz2015snwh  -2.41330
gfz2015snyd  -1.64080
gfz2015soat  -2.08860
gfz2015solh  -2.15070
gfz2015sowu  -5.47880
gfz2015soxc  -2.41410
gfz2015sqbg  -2.22250
gfz2015sqmy  -1.82700
gfz2015srat  -1.95520
gfz2015stfy  -1.86650
gfz2015stso  -1.73050
gfz2015subz  -2.76800
gfz2015svjy  -1.71830
gfz2015svwm  -1.94630
gfz2015swgn  -1.37800
gfz2015sxxu  -1.49020
gfz2015szcb  -2.04800
gfz2015szfe  -2.01940
gfz2015taml  -3.69660
gfz2015tdcu  -2.14970
gfz2015teje  -2.38820
