# Nsamples: 1096  MAD:  1.135  mean: -0.782  variance:  3.872
gfz2010aban   0.10990
gfz2010aerk  -2.86400
gfz2010ahla  -1.53610
gfz2010ahqi  -5.21020
gfz2010aphp  -0.17840
gfz2010bgth  -0.54540
gfz2010bhhq   0.18230
gfz2010bifb  -4.13770
gfz2010bjjx  -4.25180
gfz2010bjsl   0.71840
gfz2010bkob  -0.42040
gfz2010bkos  -0.07180
gfz2010boxo  -0.34900
gfz2010bpda  -1.25590
gfz2010bxxs  -7.53250
gfz2010caft  -2.34310
gfz2010chnv  -1.95640
gfz2010cind  -1.61020
gfz2010civi  -0.15880
gfz2010cjmx  -0.10720
gfz2010cjqh  -0.44120
gfz2010cjrf  -1.20120
gfz2010ckeu  -1.74420
gfz2010cqwl  -5.19980
gfz2010cres  -1.39360
gfz2010ctuw  -3.93140
gfz2010czps  -1.95250
gfz2010ddzo  -8.04140
gfz2010dejx  -0.05670
gfz2010dfru  -1.00490
gfz2010diqn   0.39300
gfz2010dlgc  -4.00760
gfz2010dtmx  -1.00810
gfz2010dumm  -2.30360
gfz2010eaoy  -1.20400
gfz2010eapk   0.35190
gfz2010eapn  -0.23420
gfz2010eaqe   1.81150
gfz2010eaqx  -6.24670
gfz2010eaqy  -0.14760
gfz2010earq   1.39700
gfz2010earu   0.93020
gfz2010easf  -3.47170
gfz2010easu   0.22830
gfz2010eati  -0.43450
gfz2010eaty   1.15780
gfz2010eaul  -2.04090
gfz2010eavd  -3.68240
gfz2010eavs   0.13990
gfz2010eawb  -0.42570
gfz2010eawu  -2.67230
gfz2010eaxa   1.25530
gfz2010eaxn  -0.12170
gfz2010eaya   0.90140
gfz2010eayx   0.02620
gfz2010eaze  -0.29140
gfz2010eazu  -5.13600
gfz2010ebbx  -0.63110
gfz2010ebby  -0.14000
gfz2010ebdl  -8.12390
gfz2010ebfa   0.87650
gfz2010ebfx  -1.27760
gfz2010ebhc  -7.86500
gfz2010ebih   1.00390
gfz2010ebjg   0.16120
gfz2010ebjy   0.65110
gfz2010ebkj  -1.55430
gfz2010ebkx   0.07230
gfz2010ebll  -0.27580
gfz2010ebpa  -0.83650
gfz2010ebqt  -5.73210
gfz2010ebrm  -1.54410
gfz2010ebsv  -0.25370
gfz2010ebvm   0.52420
gfz2010ebvv   0.66410
gfz2010ebwp  -1.43180
gfz2010ebxl   0.18260
gfz2010ebze  -1.42950
gfz2010ebzk  -0.10890
gfz2010ebzr  -1.18890
gfz2010ecam  -0.61380
gfz2010ecbi  -0.66580
gfz2010eccq  -0.69950
gfz2010ecdu   0.99260
gfz2010eced  -1.18260
gfz2010ecft  -0.40530
gfz2010ecfx  -0.69190
gfz2010ecfy  -0.28410
gfz2010ecgh  11.07570
gfz2010echt  -0.19080
gfz2010echy   0.95730
gfz2010ecka  -0.12020
gfz2010ecls  -1.84540
gfz2010ecml  -0.18300
gfz2010ecnm  -0.64790
gfz2010ecns  -1.96720
gfz2010ecpg   0.10380
gfz2010ecps  -0.06840
gfz2010ecro  -11.05700
gfz2010ecsp  -0.37110
gfz2010ectq   0.20710
gfz2010ecua   0.14470
gfz2010ecuv  -0.13880
gfz2010ecvt   0.60990
gfz2010ecyr  -0.40100
gfz2010edad   0.74750
gfz2010edat  -7.25190
gfz2010eday  -0.91960
gfz2010edbz  -0.21170
gfz2010edcp   0.59520
gfz2010edde   1.38070
gfz2010edhr  -0.20250
gfz2010edhv  -0.66160
gfz2010edji  -0.81570
gfz2010edkp  -0.20200
gfz2010edoq   0.28300
gfz2010edpb  -0.40040
gfz2010edqh  -0.80120
gfz2010edvf  -0.50690
gfz2010edyi  -0.63900
gfz2010edzb  -0.65490
gfz2010eedu  -1.96600
gfz2010eedz  -0.37690
gfz2010eefo  -1.92380
gfz2010eeia  -0.01970
gfz2010eeij  -12.37740
gfz2010eekg   0.71550
gfz2010eekq  -3.47380
gfz2010eell   0.55690
gfz2010eeng  -0.56810
gfz2010eeqy   0.23140
gfz2010eern   0.42050
gfz2010eesf   1.35520
gfz2010eevu  -0.52610
gfz2010eexz  -0.82150
gfz2010eeyh  -0.30890
gfz2010efak   0.12030
gfz2010efbh  -0.94350
gfz2010efkc  -0.74190
gfz2010efnf  -0.85170
gfz2010efsq  -0.58350
gfz2010efxf  -2.43570
gfz2010eghq  -1.88250
gfz2010egld  -0.84970
gfz2010egln  -0.20840
gfz2010egmp  -0.78330
gfz2010egqh  -0.15540
gfz2010egsw  -1.45430
gfz2010egyy  -0.33720
gfz2010ehaj   0.44940
gfz2010eher  -0.12220
gfz2010ehft  -1.87400
gfz2010ehnm  -0.46950
gfz2010ehrq  -0.03930
gfz2010ehsy  -0.26890
gfz2010ehvj   0.16360
gfz2010ehwg  -0.11250
gfz2010ehxz   0.65230
gfz2010eimf  -0.24600
gfz2010eioi  -1.62510
gfz2010eiqi  -0.72110
gfz2010eisx  -1.20910
gfz2010eixj  -0.99120
gfz2010ejae   1.06010
gfz2010ejco  -0.16260
gfz2010ejjg  -0.90000
gfz2010ejju   1.38870
gfz2010ejka  -0.63420
gfz2010ekaw  -0.74790
gfz2010ekoe  -2.98160
gfz2010ekrv  -0.99510
gfz2010ekyc  -6.98060
gfz2010elhv  -2.30900
gfz2010elpu  -0.12840
gfz2010elsw  -0.88340
gfz2010eltf   0.95510
gfz2010elvp  -0.65380
gfz2010elxi  -0.74460
gfz2010elyo   1.31490
gfz2010elzf  -0.25550
gfz2010elzl   0.16070
gfz2010emoz  -0.07840
gfz2010emyz  -0.75570
gfz2010encm  -0.08850
gfz2010engw  -0.06550
gfz2010enpa   0.13210
gfz2010ensu  -0.37230
gfz2010eoao   9.14360
gfz2010eohh  -1.63690
gfz2010eomb  -0.27200
gfz2010epbe  -1.34340
gfz2010epud  -0.27360
gfz2010epxj   0.29890
gfz2010epzk  -0.27400
gfz2010eqjg  -8.72500
gfz2010eqmu   0.05690
gfz2010eqse   0.56960
gfz2010eqwl   0.10920
gfz2010erda  -0.40520
gfz2010erfy  -1.56980
gfz2010erig  -0.22370
gfz2010erkn  -2.68740
gfz2010ermi   0.08330
gfz2010erna  -0.25070
gfz2010erom  -0.46640
gfz2010erum  -0.04790
gfz2010eruy  -7.85850
gfz2010erwn  -0.87270
gfz2010erxb   0.27440
gfz2010eryg  -1.10710
gfz2010esmg   0.53030
gfz2010esou  -0.01200
gfz2010eted  -0.54670
gfz2010etfw   0.30690
gfz2010euae  -0.06500
gfz2010euan  -0.14460
gfz2010euii  -1.26130
gfz2010eujm   2.05200
gfz2010eutw  -0.64150
gfz2010euvl  -0.61920
gfz2010euwb  -0.01980
gfz2010euxe   1.85190
gfz2010evco  -2.70420
gfz2010evgf   0.43270
gfz2010evjv   1.65800
gfz2010evkd   0.01990
gfz2010ewbc   0.98960
gfz2010ewpq   2.00050
gfz2010ewvc  -1.47870
gfz2010ewyu   0.25470
gfz2010excp  -0.77050
gfz2010exdd   1.34300
gfz2010exdl   1.33230
gfz2010exed   0.50820
gfz2010exel  -0.88160
gfz2010exfb   0.35510
gfz2010exgb  -1.83070
gfz2010exhd  -0.04640
gfz2010exjw  -0.68840
gfz2010exlm  -0.96850
gfz2010exmc  -0.16370
gfz2010exno  -0.14620
gfz2010exou  -0.14350
gfz2010exqu   0.26140
gfz2010exsg   0.02050
gfz2010exts   0.85290
gfz2010exyp  -0.06470
gfz2010eyaz  -0.11820
gfz2010eybj   0.04190
gfz2010eyhh  -0.14320
gfz2010eyiv  -0.43440
gfz2010eymr  -0.96580
gfz2010eyqe  -1.07380
gfz2010eyvq   0.22650
gfz2010eyxe   0.31770
gfz2010ezuj  -10.65030
gfz2010ezvg  -1.44430
gfz2010ezvt  -0.28930
gfz2010ezwz  -5.94780
gfz2010faeu  -0.18010
gfz2010falm   0.68510
gfz2010fauz  -0.65580
gfz2010faxg  -1.40250
gfz2010fbeu  -0.09920
gfz2010fbpi   0.64040
gfz2010fcax  -0.52590
gfz2010fcdw   0.59620
gfz2010fciw  -0.03900
gfz2010fcnn   1.53650
gfz2010fcxy   1.72790
gfz2010fcyj  -2.23550
gfz2010fczt  -0.93800
gfz2010fdxr  -3.72880
gfz2010fedq  -1.41320
gfz2010fefr  -0.98860
gfz2010fexw  -0.31940
gfz2010ffhq  -1.62180
gfz2010ffjb  -0.04240
gfz2010ffui  -16.20820
gfz2010fhbl   1.69650
gfz2010figq  -0.83990
gfz2010fihj   1.16270
gfz2010fika   0.20160
gfz2010fisf   0.17680
gfz2010fixr  -0.46260
gfz2010fjal  -0.09180
gfz2010fjas  -0.00000
gfz2010fjmu  -1.91490
gfz2010fjni   1.38110
gfz2010fkhd  -1.12640
gfz2010fkia   0.26620
gfz2010fknh  -0.04510
gfz2010fkvg   0.25420
gfz2010flha  -0.32540
gfz2010flkj  -0.39250
gfz2010floi   0.57210
gfz2010flrt   0.33900
gfz2010flxi  -0.40080
gfz2010fmhb   1.03340
gfz2010fmip   0.48160
gfz2010fmpy   1.10100
gfz2010fmwb  -0.15130
gfz2010fneu  -0.63390
gfz2010fnrk   0.82500
gfz2010fobc   0.12890
gfz2010fona  -8.33960
gfz2010fpmv   0.56340
gfz2010fpqy   0.49970
gfz2010fqdu  -2.16050
gfz2010fser  -0.55150
gfz2010fsmy   0.24040
gfz2010fsth   0.53350
gfz2010ftsx   2.43800
gfz2010fupn  -0.96790
gfz2010fuuy   0.59470
gfz2010fuwa  -0.67930
gfz2010fvuc  -0.21390
gfz2010fwkk   0.35080
gfz2010fwny   0.01970
gfz2010fwpv   0.10860
gfz2010fwzd  -1.84380
gfz2010fyed   0.32760
gfz2010fyen  -0.25630
gfz2010fync  -2.96470
gfz2010fzoi   0.18160
gfz2010fzyt   0.56260
gfz2010gcdn   1.20050
gfz2010gceb  -0.25980
gfz2010gcrl  -1.38450
gfz2010gcrp   0.81170
gfz2010gdch   8.43830
gfz2010gdld  -0.78590
gfz2010ghyk  -0.97890
gfz2010ginm   0.94120
gfz2010gjia  -0.54140
gfz2010gjvo  -0.79050
gfz2010glqr   0.19140
gfz2010glxl   0.07540
gfz2010gmib  -0.31470
gfz2010govu  -1.99530
gfz2010grss  -1.11840
gfz2010grxb   0.18900
gfz2010gslu   0.15770
gfz2010gtqs   0.19300
gfz2010gtzt  -1.03910
gfz2010gvya  -2.00570
gfz2010gwmp  -0.10660
gfz2010gymo  -0.25870
gfz2010gyqp  -6.28100
gfz2010gzxr  -7.04330
gfz2010hakh   0.40710
gfz2010hbka  -0.59950
gfz2010hcio  -8.55230
gfz2010hevz  -2.93180
gfz2010hgld   0.60930
gfz2010hhls   1.22680
gfz2010hjoc  -1.49050
gfz2010hllj   0.80160
gfz2010hndk  -0.33720
gfz2010hnnf   0.34630
gfz2010hnpi   0.21070
gfz2010hnzr  -0.27480
gfz2010homc  -5.80670
gfz2010hptz  -0.52730
gfz2010hrkr  -1.91960
gfz2010htdq   0.81070
gfz2010hufk  -0.93950
gfz2010hxgv   1.04430
gfz2010hxhe  -0.46810
gfz2010hykt  -0.51850
gfz2010hzar   1.35540
gfz2010iauj   0.76330
gfz2010ibiy   0.54690
gfz2010icqq   1.32030
gfz2010iefy  -0.45540
gfz2010ihrq   0.37830
gfz2010iibf  -0.73830
gfz2010iimu   1.53110
gfz2010ijtk  -0.22840
gfz2010imfv  -0.16320
gfz2010iobp   0.66630
gfz2010iphd  -0.35110
gfz2010iqep   0.82140
gfz2010iqfm  -0.67560
gfz2010iqnm   1.46330
gfz2010iqus   0.07240
gfz2010irqr   0.66540
gfz2010irvf  -1.61860
gfz2010isrp   0.27830
gfz2010itpb   0.33240
gfz2010iull  -2.46110
gfz2010ixyc   0.01760
gfz2010jhie   0.31550
gfz2010jitt   2.62740
gfz2010jlhj   0.59190
gfz2010jpss   0.07290
gfz2010jpyj   1.08470
gfz2010jsuh   0.96180
gfz2010jsuo  -0.31000
gfz2010jucj  -0.14070
gfz2010jwpy  -0.34870
gfz2010jxbm   0.10780
gfz2010jygz  -0.26230
gfz2010jzku   0.20250
gfz2010kcoo   0.37570
gfz2010kdyc   0.84730
gfz2010kgws  -1.60670
gfz2010kihf  -2.56850
gfz2010kjmp   0.18960
gfz2010kmgg  -1.13510
gfz2010kown  -0.40460
gfz2010kraw  -0.09880
gfz2010kyen   0.41150
gfz2010kyvj   0.60760
gfz2010lcoq  -0.36950
gfz2010lfju  -0.40590
gfz2010liqs  -0.27660
gfz2010lkcf  -1.29790
gfz2010lopz   0.23450
gfz2010lwuq  -4.71460
gfz2010lyfk   0.36660
gfz2010mant  -0.17330
gfz2010mbje  -0.60090
gfz2010mcrx  -0.34030
gfz2010mdpq  -2.56230
gfz2010mlkz  -0.25570
gfz2010mpuy  -1.59390
gfz2010ncrl  -0.21140
gfz2010ndxl  -0.35520
gfz2010nfsj  -1.54200
gfz2010nrew  -0.19960
gfz2010nrjo   0.44180
gfz2010nsck  -1.12960
gfz2010nsdf  -1.35450
gfz2010nsfx  -0.48560
gfz2010ntuo  -0.44090
gfz2010nxsy  -2.72330
gfz2010nxum   1.02100
gfz2010ocxq   0.49770
gfz2010odpb  -0.51260
gfz2010oedn  -2.36430
gfz2010okdm  -0.64110
gfz2010oluw  -1.15150
gfz2010onma  -6.84230
gfz2010osjs  -0.28300
gfz2010osqo  -0.88980
gfz2010otbn  -2.79270
gfz2010oyqy  -0.34590
gfz2010pfyu  -1.96460
gfz2010phvg   0.75420
gfz2010plbg  -1.56550
gfz2010pmqd   0.22100
gfz2010pqck  -1.05210
gfz2010pxgh  -3.41760
gfz2010pxls  -0.70440
gfz2010qbng  -1.15600
gfz2010qpum  -0.36530
gfz2010qpvi  -6.34740
gfz2010qttw   0.38000
gfz2010qwwx   0.27290
gfz2010rkfp  -2.73970
gfz2010rlbv   0.13260
gfz2010rqwj  -0.31880
gfz2010rywq  -1.05070
gfz2010rzrr  -0.76060
gfz2010sfee  -4.37300
gfz2010sfla  -0.31070
gfz2010sgzk  -1.82720
gfz2010skqo  -2.36320
gfz2010skve  -1.11540
gfz2010srdb  -2.10360
gfz2010suww  -0.14630
gfz2010svtn  -0.38620
gfz2010svve   1.06570
gfz2010swcy  -3.35140
gfz2010sxfq  -1.33260
gfz2010sxwt  -7.50260
gfz2010sysw  -2.51630
gfz2010szde  -1.68580
gfz2010szim  -1.36050
gfz2010tlfm  -0.27020
gfz2010truw  -0.58050
gfz2010txjs  -0.23530
gfz2010tzzk   0.48020
gfz2010uept  -1.73220
gfz2010upfb  -0.37310
gfz2010upiw   1.15030
gfz2010urlq  -1.51800
gfz2010usho  -4.25720
gfz2010ustq  -3.02500
gfz2010utcg   0.10360
gfz2010utmc  -0.24400
gfz2010utvp   0.02130
gfz2010uvhf  -0.61740
gfz2010uyhb   2.14180
gfz2010uzon  -0.59860
gfz2010vbmd  -1.29520
gfz2010veri  -1.23580
gfz2010vhuj   0.25650
gfz2010vppc  -0.86860
gfz2010vtdg  -1.52830
gfz2010vxvs   1.14140
gfz2010vzpr   1.69310
gfz2010vzzz  -4.48440
gfz2010wnty  -1.63870
gfz2010wofs  -0.61990
gfz2010wrxx   0.59040
gfz2010xbdv  -2.12890
gfz2010xbgs  -1.66180
gfz2010xcdh  -1.47510
gfz2010xden  -1.03050
gfz2010xgzw  -1.18400
gfz2010xjck  -1.32080
gfz2010xjsj  -3.04310
gfz2010xmpr   0.28310
gfz2010xnxk  -0.55040
gfz2010xxzn  -1.18240
gfz2010yfsv   0.40720
gfz2010yjev   0.03980
gfz2010ymfy  -1.69280
gfz2010ymur   0.08630
gfz2010yosr  -1.65770
gfz2010yoyx   0.39980
gfz2010yqqv  -0.57770
gfz2010zdpo   0.64330
gfz2010zeeh   0.37830
gfz2011aatr  -6.41330
gfz2011adjs  -1.23030
gfz2011adlj  -0.80700
gfz2011adne   0.43940
gfz2011adpw  -0.38050
gfz2011adqk   1.98420
gfz2011aeay   2.18340
gfz2011ahfw  -1.15730
gfz2011aldv   0.35560
gfz2011alip  -3.28970
gfz2011alsa  -0.17900
gfz2011alwf   0.40370
gfz2011anur   1.56680
gfz2011aosc   0.46300
gfz2011aqxf  -0.55000
gfz2011asru  -9.83290
gfz2011aupi   0.04220
gfz2011blsi   0.54410
gfz2011bswz  -0.28330
gfz2011coxh  -0.73910
gfz2011crdy   0.05910
gfz2011csju  -0.97720
gfz2011ctbn  -0.88560
gfz2011cvfg  -1.31880
gfz2011cwgn  -0.92210
gfz2011cykd   0.57360
gfz2011cylz   1.24790
gfz2011cynl   0.90750
gfz2011cyre   0.35130
gfz2011cyuk   0.68390
gfz2011czwj   0.49040
gfz2011dddh   0.02170
gfz2011deaf  -0.05480
gfz2011deja  -0.00000
gfz2011dkyi  -0.55720
gfz2011dllz  -2.75970
gfz2011dlyx   0.08390
gfz2011dpaa  -0.79270
gfz2011dpmx  -0.28380
gfz2011dpqx  -3.48640
gfz2011dtpy   0.03770
gfz2011duyr   1.40990
gfz2011eayc  -2.35610
gfz2011eazf  -1.93890
gfz2011ecaj   0.35700
gfz2011ecsc   0.59920
gfz2011edmm  -2.03480
gfz2011efgv  -1.54070
gfz2011ehzq   0.35930
gfz2011eiis   0.02770
gfz2011ejlp  -0.40180
gfz2011ekpr   0.31630
gfz2011eltw  -0.04350
gfz2011enva  -4.38720
gfz2011eocc  -1.07470
gfz2011etje  -4.71230
gfz2011fgvr   0.09030
gfz2011fhag   0.35380
gfz2011fhbm   0.35600
gfz2011fhur   0.58630
gfz2011fkbn   1.20960
gfz2011flgj  -0.20200
gfz2011flhp  -0.45290
gfz2011fnsw  -2.52960
gfz2011gbmx   0.08440
gfz2011gcwb  -0.65540
gfz2011gdgh  -1.16110
gfz2011ggvf  -2.95410
gfz2011ghky  -0.46590
gfz2011gjlx  -0.89800
gfz2011gkey   0.71850
gfz2011gkzt  -1.32210
gfz2011hebt  -2.21620
gfz2011hfkj  -0.79410
gfz2011hlqw  -3.22860
gfz2011hlsa  -3.68580
gfz2011hlth  -1.97790
gfz2011hpgx   0.59570
gfz2011hpqp  -0.76930
gfz2011hrhe  -1.69630
gfz2011hrhu   1.17410
gfz2011hryk  -0.35280
gfz2011hsfj   1.52690
gfz2011hvbu   0.21250
gfz2011ieie  -0.99280
gfz2011iwte   0.77730
gfz2011izqa  -2.06350
gfz2011izto   0.93690
gfz2011jbbc   0.53600
gfz2011jdsj   0.99070
gfz2011jghb   0.21840
gfz2011jmbn  -2.09900
gfz2011jnmi  -1.89020
gfz2011jplh  -4.82650
gfz2011jtlg  -0.83360
gfz2011juid   0.49100
gfz2011jxpl  -0.43980
gfz2011knbi   0.78110
gfz2011knoo  -1.23480
gfz2011kqwo   0.30900
gfz2011kqyg  -0.55500
gfz2011ksiu   1.03390
gfz2011kwhq   0.94160
gfz2011kwld  -0.25900
gfz2011kwlq  -0.05470
gfz2011kwni  -0.32210
gfz2011kwqc  -0.68530
gfz2011kxzp  -0.01430
gfz2011lcxq  -3.99780
gfz2011lczg  -1.52690
gfz2011lggq   1.37670
gfz2011lgsg  -1.09490
gfz2011lhls  -0.48120
gfz2011lvjr  -1.11970
gfz2011lzwj  -6.18180
gfz2011mdie  -4.55910
gfz2011mepc  -0.33850
gfz2011mjom  -1.13390
gfz2011mllx  -0.99890
gfz2011mlvw  -0.94670
gfz2011mpme   0.53620
gfz2011mprq  -0.19960
gfz2011myia   0.04320
gfz2011nauw  -0.84550
gfz2011necz  -3.25360
gfz2011nmnq  -2.30790
gfz2011nmqj  -1.14060
gfz2011noud   2.35000
gfz2011nowp   0.93990
gfz2011nqpd   0.10820
gfz2011nrwc  -2.01670
gfz2011nsex  -1.75860
gfz2011ntkh  -2.47010
gfz2011nudm  -1.78880
gfz2011ogqk  -0.14050
gfz2011ohcy  -3.62520
gfz2011oiqe  -1.99540
gfz2011oiwk  -1.33800
gfz2011olkk  -0.28170
gfz2011oolr  -1.94840
gfz2011orgn  -0.39390
gfz2011ornx  -1.28990
gfz2011owvz  -4.61510
gfz2011ozsl  -0.07330
gfz2011pccd  -3.08680
gfz2011pdpt  -3.19690
gfz2011pdst  -1.88880
gfz2011phms   0.06860
gfz2011pntf  -1.05370
gfz2011ptus  -1.25700
gfz2011qvae  -0.06940
gfz2011qyms  -4.22060
gfz2011rabm  -0.38060
gfz2011rdby   2.98020
gfz2011rewa  -2.94800
gfz2011rgwp   0.64020
gfz2011rnut   0.66720
gfz2011rqui  -4.54330
gfz2011rsrh  -0.28800
gfz2011runa  -0.79920
gfz2011rznl   0.68380
gfz2011sagt  -0.21110
gfz2011sawg  -1.48840
gfz2011shqm  -2.25940
gfz2011stal  -0.50770
gfz2011sthv   0.11330
gfz2011tbas   0.15430
gfz2011tcij   0.00000
gfz2011tivu   1.37240
gfz2011tjrf   0.38490
gfz2011tjue  -0.37330
gfz2011tkfp   0.19840
gfz2011tkog  -2.88520
gfz2011toub  -5.21040
gfz2011tpbl  -1.87890
gfz2011tpfr  -1.33830
gfz2011tuea  -0.68140
gfz2011twov  -1.63500
gfz2011udsq   0.96450
gfz2011ueni  -0.93440
gfz2011ugzz   2.54770
gfz2011ujze  -2.71220
gfz2011ukmp  -2.15820
gfz2011unkx  -1.41160
gfz2011uphh  -2.44730
gfz2011urxy  -1.66890
gfz2011urzu  -1.63630
gfz2011uzqv   1.28360
gfz2011vclt  -4.71850
gfz2011vhfi  -3.09410
gfz2011vkun   0.55010
gfz2011vldk  -1.09360
gfz2011vnza  -2.58830
gfz2011vqrj   0.98970
gfz2011vrhg  -4.60730
gfz2011vxns  -0.58630
gfz2011vxod  -2.35870
gfz2011vxxg   0.44670
gfz2011wfja  -1.97510
gfz2011wijj   0.63550
gfz2011wjkf   0.70510
gfz2011wjul  -0.37880
gfz2011wwjs  -1.88940
gfz2011wxfs  -2.18830
gfz2011wxoj  -1.42520
gfz2011wxtk  -3.49210
gfz2011wype  -0.42070
gfz2011xaan  -3.71420
gfz2011xcpv  -0.39570
gfz2011xesx  -1.72040
gfz2011xqru   0.49660
gfz2011xyxj  -1.11380
gfz2011yfdx  -1.47180
gfz2011ytnu  -0.02180
gfz2011yybo  -2.61440
gfz2011yzwq  -0.53090
gfz2011zjap  -1.91270
gfz2011zklv  -2.05170
gfz2011zlfg   0.24590
gfz2011zqhh  -4.41680
gfz2012ablh  -0.38640
gfz2012ajtq  -0.01970
gfz2012attr  -1.15960
gfz2012bfah  -0.50300
gfz2012bpkx  -0.35090
gfz2012bpnl   0.12120
gfz2012bpwl   0.22300
gfz2012bqeb  -0.32200
gfz2012brhv   0.73590
gfz2012byad   0.30950
gfz2012cevz   1.56870
gfz2012cgvr  -1.69940
gfz2012ckxi   0.06470
gfz2012cmfy  -1.63990
gfz2012covm  -1.11080
gfz2012cqnl  -3.70500
gfz2012cxdn   0.15180
gfz2012czlw  -1.79440
gfz2012ddma  -0.38550
gfz2012dimn   1.34580
gfz2012djwi  -3.78460
gfz2012dyyh  -0.80300
gfz2012ekda  -2.03940
gfz2012ekzf  -0.70540
gfz2012elce   1.51330
gfz2012emjg  -1.93190
gfz2012enno  -3.59590
gfz2012eskt   0.06390
gfz2012ewgo   0.01260
gfz2012ezvr  -0.69790
gfz2012fbfo  -1.21910
gfz2012fhnh  -0.42120
gfz2012fivh   0.35180
gfz2012foeo  -0.98630
gfz2012fwfo   0.41710
gfz2012fzfa   3.32970
gfz2012fzsq  -1.50810
gfz2012gcgn   0.24290
gfz2012gkvr  -1.44890
gfz2012glss  -0.28370
gfz2012gukw  -0.48520
gfz2012gwmu  -0.79280
gfz2012gwqb  -4.75060
gfz2012hdbm  -1.18340
gfz2012hnul   0.79730
gfz2012hogg  -0.64920
gfz2012hsex  -0.59340
gfz2012hwmz   0.70020
gfz2012hwyo  -0.71690
gfz2012hzbe  -1.08380
gfz2012ihdl  -1.01500
gfz2012iivw  -0.38830
gfz2012ilvn  -1.80210
gfz2012imay  -3.07220
gfz2012imbd   0.90460
gfz2012jgvj  -4.98940
gfz2012jjzc   3.66140
gfz2012jlox  -3.22110
gfz2012jpeh   0.07870
gfz2012jpgs   0.96780
gfz2012jqvn   0.91660
gfz2012jshk   0.63350
gfz2012jted  -0.31170
gfz2012jupx  -3.01870
gfz2012jwhu  -0.33800
gfz2012jxiy  -0.08620
gfz2012kbzj  -2.42350
gfz2012kdmb  -2.35170
gfz2012keor  -1.06840
gfz2012kkup  -3.67170
gfz2012klba  -0.70720
gfz2012klhx  -2.60270
gfz2012kuct  -4.90080
gfz2012kudo  -5.20390
gfz2012kvzv  -3.14270
gfz2012kwgo  -2.24680
gfz2012lczo  -1.30220
gfz2012ldgs   0.03840
gfz2012ldxg  -1.52860
gfz2012ledy   0.07900
gfz2012lltr   0.25740
gfz2012llug  -2.91450
gfz2012lrsv   1.07420
gfz2012lsni  -0.40610
gfz2012lxkv  -1.58910
gfz2012lzmr  -1.34420
gfz2012maxy  -0.45230
gfz2012mcze  -0.23130
gfz2012mdmy  -0.87140
gfz2012mkpn   0.16270
gfz2012mlyf  -1.01640
gfz2012mofm   3.93220
gfz2012mpvy  -0.38670
gfz2012mtiu   0.36810
gfz2012mupa  -0.58060
gfz2012mwij   0.46090
gfz2012myqa   0.20220
gfz2012naqz   0.93930
gfz2012nbtn   0.77680
gfz2012nedn   0.12790
gfz2012ngic   0.38580
gfz2012njha  -1.32180
gfz2012nkdf  -4.26980
gfz2012nojx  -1.19900
gfz2012nqnk  -0.57790
gfz2012nsbz  -2.02350
gfz2012ntzv  -1.01840
gfz2012nutf  -0.58140
gfz2012nxog   1.40890
gfz2012nxyt  -1.60530
gfz2012oazn  -4.14990
gfz2012obgw  -4.34600
gfz2012obnq   0.44750
gfz2012oedb  -2.92170
gfz2012ofpe  -0.41950
gfz2012omvo  -2.20660
gfz2012ostk  -1.08770
gfz2012ovqs   0.88180
gfz2012oycg  -0.54750
gfz2012pkel  -1.94940
gfz2012plbw   0.22150
gfz2012plea   0.06720
gfz2012pofl   0.38020
gfz2012pqlt  -2.20640
gfz2012pqmk  -1.79370
gfz2012pqmu  -1.88910
gfz2012pspd  -1.31710
gfz2012pygp   1.74390
gfz2012qjhs  -2.74460
gfz2012qouy  -0.19490
gfz2012qqxg   4.62900
gfz2012qtgs   0.18460
gfz2012quso  -2.13680
gfz2012qxcy   0.76860
gfz2012rats  -1.11820
gfz2012rboy  -1.16880
gfz2012rcbq   5.70630
gfz2012rcds   0.07450
gfz2012rcnj   0.56720
gfz2012repv  -2.59080
gfz2012rjsd  -0.94000
gfz2012rknn  -0.35560
gfz2012ronz  -1.29650
gfz2012royy  -1.63460
gfz2012rqlg  -0.77160
gfz2012rtqi   0.38540
gfz2012rubi   1.35890
gfz2012ruks  -0.85420
gfz2012rwko  -1.69220
gfz2012rwov  -1.49920
gfz2012rwql   4.00040
gfz2012rypu  -1.17510
gfz2012sfer  -0.64160
gfz2012shtg   1.60000
gfz2012sjea   0.98460
gfz2012snhi   0.46070
gfz2012spbj  -0.90760
gfz2012sphd  -0.97200
gfz2012ssyn  -1.09370
gfz2012syvl  -1.62910
gfz2012tazz  -0.90570
gfz2012tbbp  -0.78080
gfz2012teic  -1.62430
gfz2012thfx  -2.23110
gfz2012tpzx   0.05190
gfz2012ttoa  -4.47660
gfz2012tyig   0.71190
gfz2012tzcc   1.50470
gfz2012tzgb   4.00450
gfz2012uafg  -2.60260
gfz2012uciv   1.22330
gfz2012ueqo   0.41300
gfz2012ufew   1.32170
gfz2012ulpd  -1.10750
gfz2012uqzp  -0.88310
gfz2012usba   1.58150
gfz2012uvqf  -2.10060
gfz2012uxnz   0.50540
gfz2012uyxb   0.24640
gfz2012uzom  -3.21030
gfz2012vceo  -0.42560
gfz2012vdbt  -0.43520
gfz2012viab  -0.91940
gfz2012vjgl   1.92590
gfz2012vmeh  -0.00000
gfz2012vnbk  -0.05590
gfz2012vntz  -0.88120
gfz2012vwvd  -1.08090
gfz2012vxvr  -1.28940
gfz2012wajj   0.03490
gfz2012wdyx   0.65520
gfz2012wecd  -2.95240
gfz2012whku  -2.48510
gfz2012wizz  -0.71330
gfz2012wklq  -3.96700
gfz2012wmkd   0.91570
gfz2012wmsg  -3.37410
gfz2012wpeq  -0.74830
gfz2012wqnc  -0.54210
gfz2012wrir   0.99650
gfz2012wtkh  -0.91390
gfz2012wtkr  -0.54710
gfz2012wubh  -0.29970
gfz2012wvfl  -0.00000
gfz2012wxer   0.83210
gfz2012wxkg  -1.37760
gfz2012wxlg  -1.01510
gfz2012wxnt   0.74180
gfz2012wxnu  -0.50580
gfz2012wybs  -0.84980
gfz2012wypz  -4.78490
gfz2012xbjq   0.63490
gfz2012xdna   1.87910
gfz2012xjyv   0.14330
gfz2012xkkv  -1.35360
gfz2012xvwn  -0.72430
gfz2012xwqa  -1.54120
gfz2012xyqp  -1.89250
gfz2012xyua  -1.63880
gfz2012yldu   0.14130
gfz2012yoie  -0.80440
gfz2012yqjj   0.68430
gfz2012zmbp  -2.31180
gfz2012zmln  -3.23000
gfz2012zsqk  -0.66050
gfz2013acag  -2.63390
gfz2013apmm  -3.46340
gfz2013azzr   0.15460
gfz2013btjm  -2.53980
gfz2013ccnr  -3.00200
gfz2013cnve  11.77320
gfz2013dqls  -1.09530
gfz2013drpk  -1.75220
gfz2013drxz  -3.55690
gfz2013dvye  -0.13320
gfz2013dvyh  -1.02470
gfz2013gxsu  -0.48190
gfz2013igmx   0.32970
gfz2013nttq   0.05830
gfz2013oqsc  -4.93280
gfz2013poxj   0.35140
gfz2013wrgw  -2.46600
gfz2013xyzb  -4.66410
gfz2015plal  -2.65130
gfz2015poni  -2.05410
gfz2015puah  -0.37550
gfz2015puqp   0.08470
gfz2015qafb  -1.79260
gfz2015qbme  -1.49800
gfz2015qiit   0.28500
gfz2015qisx   1.52210
gfz2015qnho  -0.73450
gfz2015qnlv  -2.00860
gfz2015qnto  -1.79300
gfz2015qprd  -1.19890
gfz2015qpvd  -2.83950
gfz2015quzo  -1.00240
gfz2015qvxu  -0.16900
gfz2015rddx  -1.03960
gfz2015rgov  -0.06710
gfz2015rgrg   0.09640
gfz2015rgst   0.00700
gfz2015rkbq   0.09380
gfz2015rkrg  -0.41650
gfz2015rkzg  -9.57850
gfz2015rnis  -0.38590
gfz2015roac  -0.14750
gfz2015rpzn  -2.14340
gfz2015rwsb  -0.15550
gfz2015rxmg  -0.06310
gfz2015saet   3.06730
gfz2015sdeo  -1.03930
gfz2015sdfy   0.02180
gfz2015seuf  -1.86290
gfz2015sevh  -0.05260
gfz2015sfdd   0.39670
gfz2015sfks   0.33010
gfz2015sfln  -0.13240
gfz2015sfqo   0.09700
gfz2015sftu   0.35430
gfz2015sfwf  -0.35250
gfz2015sgmm  -0.23730
gfz2015shel  -1.01770
gfz2015shlp  -1.15960
gfz2015shov   2.01980
gfz2015shwt  -1.30950
gfz2015sicf  -0.67140
gfz2015sicu  -0.88730
gfz2015siem  -0.94820
gfz2015siof   0.04030
gfz2015sist  -0.31690
gfz2015sitn  -0.48250
gfz2015siyy  -0.01950
gfz2015sjbx  -1.90400
gfz2015sjeq   0.04490
gfz2015sjgk  -1.05880
gfz2015sjjb  -1.31160
gfz2015sjne  -2.37200
gfz2015sjvu  -0.10670
gfz2015skab  -1.95790
gfz2015skgj  -0.95860
gfz2015sklu  -3.66230
gfz2015skpv  -1.07110
gfz2015sldx  -2.03350
gfz2015slfn   0.15500
gfz2015sljs  -0.28170
gfz2015slun  -1.34600
gfz2015smgj   0.96740
gfz2015smym  -0.76450
gfz2015snhn  -0.61320
gfz2015snmr  -1.90570
gfz2015snsf  -2.03170
gfz2015snwh   0.23170
gfz2015snyd  -0.54420
gfz2015soat  -0.90470
gfz2015sowu   1.40080
gfz2015soxc  -0.72840
gfz2015sozw  -0.05670
gfz2015spal  -0.30060
gfz2015spxh   0.05150
gfz2015sqbg  -1.17270
gfz2015sqmy  -1.20480
gfz2015sqwv  -0.43820
gfz2015sqyh  -1.11320
gfz2015srat  -2.78430
gfz2015srgf  -1.59070
gfz2015srxe  -0.23300
gfz2015srxm   1.36530
gfz2015ssaf  -0.35830
gfz2015ssoe  -1.24950
gfz2015stas  -0.48620
gfz2015stso   0.65080
gfz2015subg  -1.02520
gfz2015subx   0.92380
gfz2015sunp  -0.51800
gfz2015svjy  -0.82200
gfz2015svwm  -0.97090
gfz2015swgn   0.64290
gfz2015sxgd  -1.10420
gfz2015sxxu  -0.90980
gfz2015sydc  -0.03650
gfz2015szcb  -4.22540
gfz2015szfe  -0.50550
gfz2015sztx   0.19800
gfz2015taml  -5.94870
gfz2015tbje  -0.50530
gfz2015tbxe  -0.23890
gfz2015tcem  -0.81730
gfz2015tdbb  -1.51710
gfz2015tdcu  -1.40260
