# Nsamples: 7  MAD:  0.423  mean:  0.220  variance:  0.855
gfz2010iull  -0.15630
gfz2011aatr  -1.02960
gfz2011enva   1.89770
gfz2011lcxq   1.21400
gfz2011lzwj  -0.34290
gfz2011rewa  -0.17240
gfz2011wxfs   0.12900
