# Nsamples: 17  MAD:  0.495  mean:  0.448  variance:  0.361
gfz2010iull   0.41060
gfz2010nmpc   0.32540
gfz2011aatr   0.37260
gfz2011enva   2.29030
gfz2011lcxq  -0.27960
gfz2011lzwj   0.76860
gfz2011rewa  -0.65530
gfz2011toub   0.56090
gfz2011wxfs   0.05150
gfz2012jlox  -0.11860
gfz2012kudo   0.38550
gfz2012wypz   0.66180
gfz2013jkut   0.72230
gfz2013svci   0.28610
gfz2014bwue   0.29580
gfz2014fgvi   0.80910
gfz2014gkgf   0.72150
