# Nsamples: 29  MAD:  0.436  mean: -0.593  variance:  0.579
gfz2010iull  -1.05390
gfz2010nmpc  -0.60490
gfz2010usho  -1.71730
gfz2011aatr  -0.97050
gfz2011enva   0.23810
gfz2011lcxq  -0.53160
gfz2011lzwj   0.08170
gfz2011rewa   0.53140
gfz2011toub  -1.00390
gfz2011wxfs  -1.12720
gfz2012jlox  -1.23990
gfz2012kudo  -0.76110
gfz2012wypz  -0.88740
gfz2013jkut  -0.68630
gfz2013nwdi   0.22750
gfz2013svci  -1.05550
gfz2014bwue  -0.73710
gfz2014fgvi  -0.64080
gfz2014fhla   0.05990
gfz2014gkgf  -1.99170
gfz2014gkqf  -0.77790
gfz2014gmhr   2.01340
gfz2014hasj  -1.11760
gfz2014ssvz  -1.11350
gfz2015cyjd  -0.20980
gfz2015fsjj  -0.63980
gfz2015lhjy  -0.91830
gfz2015mpte  -0.85950
gfz2015taml   0.28860
