# Nsamples: 229  MAD:  0.946  mean: -2.750  variance:  1.351
gfz2010czps  -2.20540
gfz2010dejx  -2.90770
gfz2010dlgc  -3.56930
gfz2010eaoy  -1.71820
gfz2010eapk  -1.50880
gfz2010eaqe  -1.77300
gfz2010eaqy  -2.40190
gfz2010earu  -0.67620
gfz2010easf  -2.06410
gfz2010easo  -2.19630
gfz2010eawb  -2.98230
gfz2010eawu  -1.56910
gfz2010eaya  -1.11000
gfz2010eayx  -0.72850
gfz2010ebfa  -3.26890
gfz2010ebhc  -3.34700
gfz2010ebiv   0.92150
gfz2010ebll  -2.52300
gfz2010ebnn  -2.86340
gfz2010ebvv  -2.84770
gfz2010ebwp  -1.16540
gfz2010ebzr  -1.80280
gfz2010ecua  -1.96110
gfz2010edyi   3.02710
gfz2010eegn  -2.02270
gfz2010eeij  -4.60570
gfz2010eell  -4.41260
gfz2010eevu  -2.18850
gfz2010ehft  -3.59700
gfz2010eisx  -3.02930
gfz2010ejjg  -2.68090
gfz2010elhv  -1.18360
gfz2010elyc  -2.44260
gfz2010erkn  -4.75060
gfz2010erom  -2.53890
gfz2010eruy  -1.53740
gfz2010evco  -1.84190
gfz2010excp  -2.24660
gfz2010exdd  -3.14800
gfz2010exdl  -2.51720
gfz2010exno  -3.65770
gfz2010ezck  -1.34140
gfz2010fqdu  -2.86820
gfz2010fwzd  -3.80390
gfz2010fync  -3.21770
gfz2010gdld  -3.14040
gfz2010grjd  -1.67690
gfz2010homc  -4.14470
gfz2010hxgv  -2.92050
gfz2010hxhe  -4.04590
gfz2010iobp  -1.28100
gfz2010iull  -3.22980
gfz2010lepw  -2.74920
gfz2010nmpc  -3.08640
gfz2010nnny  -2.23830
gfz2010nqwo  -1.34230
gfz2010qpvi  -3.39440
gfz2010rqwj  -2.61010
gfz2010sfee  -1.50400
gfz2010urlq  -4.22750
gfz2010usho  -4.48530
gfz2010vbmd  -2.42950
gfz2010vxvs  -4.17190
gfz2010xden  -1.69010
gfz2011aatr  -3.08440
gfz2011adjs  -0.76110
gfz2011cykd  -2.22360
gfz2011dbig  -3.80240
gfz2011dcqb  -3.17580
gfz2011enva  -3.89670
gfz2011eocc   1.70220
gfz2011gbmx  -2.20530
gfz2011hfkj  -1.84890
gfz2011hlsa  -3.00020
gfz2011hpqp  -1.99350
gfz2011ixai  -3.45450
gfz2011jplh  -3.55750
gfz2011kxzp  -2.69540
gfz2011lcxq  -4.00570
gfz2011mdie  -4.32400
gfz2011mjom  -4.27530
gfz2011nrwc  -2.55800
gfz2011nrwv  -2.77450
gfz2011nsex  -3.54130
gfz2011ntkh  -4.25640
gfz2011nudm  -2.73140
gfz2011ornx  -2.25450
gfz2011owvz  -3.23140
gfz2011sagt  -1.97960
gfz2011urzu  -3.91430
gfz2011vnza  -1.71290
gfz2011wvzb  -3.34650
gfz2011wxfs  -2.22640
gfz2012byad  -3.41010
gfz2012czlw  -2.34320
gfz2012enno  -2.97470
gfz2012fzfa  -1.20510
gfz2012gwmu  -0.53790
gfz2012hnul  -1.49070
gfz2012jlox  -3.86580
gfz2012jshk  -2.91950
gfz2012jupx  -3.81250
gfz2012kkup  -3.19400
gfz2012klhx  -3.10320
gfz2012kudo  -3.49320
gfz2012ldxg  -2.81720
gfz2012ldzj  -2.26810
gfz2012minr  -2.52740
gfz2012mvwr  -2.92480
gfz2012nqnk  -4.80680
gfz2012ruks  -3.71680
gfz2012sphd  -3.64290
gfz2012ttoa  -4.33410
gfz2012tvmv  -0.81560
gfz2012uafg  -2.48760
gfz2012vpza  -2.48240
gfz2012wxlg  -3.57350
gfz2012wypz  -3.43810
gfz2013bnxc   0.11220
gfz2013ccnr  -4.41280
gfz2013cwpn  -2.49880
gfz2013dojq  -0.89610
gfz2013drxz  -3.52810
gfz2013ftso   0.95700
gfz2013idbb  -3.87760
gfz2013inux  -2.69830
gfz2013kdeo  -4.43810
gfz2013ldqb  -4.42140
gfz2013mqmv  -3.29390
gfz2013mtqd  -3.44180
gfz2013nkgj  -3.41130
gfz2013nwdi  -2.99540
gfz2013pfbx  -3.76890
gfz2013sdus  -2.30520
gfz2013suvn  -4.67650
gfz2013svci  -2.93270
gfz2013toea  -1.56860
gfz2013toxf  -3.59090
gfz2013tusd  -4.97320
gfz2014afmx  -3.35520
gfz2014ajlk  -3.41560
gfz2014ande  -3.38470
gfz2014bwue  -2.53650
gfz2014ekcr  -2.94340
gfz2014femz  -2.50610
gfz2014fgvi  -2.71990
gfz2014fhdw  -3.24510
gfz2014fhrq  -3.05100
gfz2014fimn  -3.32610
gfz2014fjzd  -2.99770
gfz2014fkmr  -3.70950
gfz2014frdz  -1.75560
gfz2014frel  -1.95010
gfz2014frez  -3.10370
gfz2014ftka  -5.31480
gfz2014ftrk  -3.46730
gfz2014furx  -3.57370
gfz2014fusj  -3.36330
gfz2014fuub  -2.92460
gfz2014fval  -3.36710
gfz2014fvgh  -3.08850
gfz2014fvrg  -3.68590
gfz2014gbcz   0.60090
gfz2014hqxs  -0.93430
gfz2014hzgn  -2.51560
gfz2014jggm  -1.03050
gfz2014jjhc  -3.47120
gfz2014jpep  -3.42400
gfz2014jwmh  -2.01790
gfz2014kwrg  -3.79260
gfz2014lgqn  -3.23210
gfz2014lyhk  -3.42700
gfz2014macx  -3.31710
gfz2014madw  -3.27060
gfz2014nqfm  -3.44660
gfz2014nrie  -2.88140
gfz2014oinz  -3.96100
gfz2014owxc  -5.52450
gfz2014pvch  -3.27320
gfz2014qlxd  -3.88000
gfz2014qngj  -2.30630
gfz2014qqhm  -2.52810
gfz2015okmq  -3.13060
gfz2015rddx  -3.74180
gfz2015sfdd  -2.74590
gfz2015sfdy  -2.36750
gfz2015sfeo  -1.67990
gfz2015sfiq  -2.09270
gfz2015sfnb  -1.93710
gfz2015sfnv  -2.63990
gfz2015sfwf  -2.76580
gfz2015sfzm  -2.86310
gfz2015sgad  -1.06360
gfz2015sgdj  -3.34090
gfz2015sgdn  -1.89680
gfz2015sggc  -4.99550
gfz2015sghq  -2.77720
gfz2015sglg  -3.22590
gfz2015sgmr  -1.61480
gfz2015sguf  -2.39720
gfz2015sgyd  -2.81370
gfz2015shjn  -2.40320
gfz2015shrg  -0.93150
gfz2015shsz  -3.68210
gfz2015siem  -2.68570
gfz2015sixi  -1.93640
gfz2015sjbx  -3.78260
gfz2015sjfi  -0.69170
gfz2015sjgk  -3.41880
gfz2015sjne  -3.51500
gfz2015sjoj  -2.15510
gfz2015sjpn  -2.75380
gfz2015sjvu  -1.71530
gfz2015sjwi  -2.07220
gfz2015skxu  -3.16140
gfz2015sldx  -3.28450
gfz2015slun  -2.43900
gfz2015snsf  -3.24040
gfz2015snwh  -3.35270
gfz2015snyd  -2.68870
gfz2015soat  -3.16550
gfz2015soxc  -2.23440
gfz2015stfy  -3.02080
gfz2015stso  -3.42030
gfz2015svwm  -2.92560
gfz2015sxmh  -1.97730
gfz2015sxxu  -2.34780
gfz2015szcb  -2.72010
gfz2015taml  -4.20410
