# Nsamples: 40  MAD:  0.461  mean: -0.526  variance:  0.427
gfz2010bxxs   0.03050
gfz2010grjd  -1.81300
gfz2010iull  -0.30770
gfz2010nmpc  -0.85540
gfz2011aatr  -0.61470
gfz2011enva  -0.60270
gfz2011hlqw  -1.11780
gfz2011hlsa  -0.78190
gfz2011lcxq  -0.40400
gfz2011lzwj   0.25640
gfz2011rewa  -0.29550
gfz2011toub  -0.86680
gfz2011wxfs  -0.43430
gfz2012enno  -0.22680
gfz2012jlox  -0.67820
gfz2012kkup  -0.87320
gfz2012klhx  -0.76010
gfz2012kudo  -0.95660
gfz2012ldxg  -0.10840
gfz2012ttoa   0.59990
gfz2012wypz  -0.53220
gfz2013drxz  -0.73890
gfz2013jkut  -0.19230
gfz2013nwdi  -2.06430
gfz2013svci  -0.25090
gfz2014bwue  -0.89190
gfz2014fgvi   0.15470
gfz2014fhla   1.09980
gfz2014ftka  -0.86140
gfz2014gkgf  -1.31720
gfz2014gkqf  -0.51920
gfz2014gmge  -0.48320
gfz2014gmhr   1.35710
gfz2014gmnb  -1.05410
gfz2014goba  -0.61720
gfz2014hasj  -1.45820
gfz2014nqfm  -0.37110
gfz2014qqhm  -1.01550
gfz2014ssvz  -0.44290
gfz2015mpte  -0.03840
