# Nsamples: 9  MAD:  0.579  mean:  0.892  variance:  1.441
gfz2010grjd   1.14430
gfz2010iull   0.28930
gfz2011aatr  -0.02020
gfz2011enva   4.05980
gfz2011wxfs   0.07280
gfz2012wypz   0.07220
gfz2013svci   0.37030
gfz2014fgvi   1.13820
gfz2014gkgf   0.90200
