# Nsamples: 16  MAD:  0.591  mean:  0.137  variance:  0.633
gfz2010iull   0.10520
gfz2011enva   1.85850
gfz2011lcxq  -0.66970
gfz2011lzwj   0.65000
gfz2011rewa   1.21110
gfz2011wxfs  -0.08130
gfz2012jlox  -1.32650
gfz2012kkup   1.07650
gfz2012kudo   0.35120
gfz2013drxz   0.11860
gfz2013nwdi  -0.79250
gfz2013svci  -0.89850
gfz2014gkgf   0.08660
gfz2014gmnb   0.09880
gfz2014goba   0.31170
gfz2014nqfm   0.09360
