# Nsamples: 91  MAD:  1.026  mean:  0.991  variance:  2.014
gfz2010bfzs   1.30050
gfz2010czps   1.43000
gfz2010eaoy  -2.39020
gfz2010eapk   0.02330
gfz2010eapn  -0.10660
gfz2010eaqe  -0.87620
gfz2010eaqx   1.03100
gfz2010eaqy  -0.15750
gfz2010earu   1.07450
gfz2010easo   0.39910
gfz2010easu  -0.03270
gfz2010eati   0.02010
gfz2010eatt   1.29460
gfz2010eavs  -0.80720
gfz2010eawb   0.60520
gfz2010eawu   1.32580
gfz2010eaxa   0.69870
gfz2010eazu   0.59960
gfz2010ebbd   1.35710
gfz2010ebkj   2.08110
gfz2010ecsp   0.35940
gfz2010ecua   0.15180
gfz2010edyi   1.88060
gfz2010eeij  -1.49090
gfz2010eevu   0.61390
gfz2010egap   0.32050
gfz2010eisx  -0.72040
gfz2010eltf   1.31260
gfz2010elyc   0.39120
gfz2010erom   3.53480
gfz2010eujm   0.84410
gfz2010excp  -0.00700
gfz2010exdd   1.20010
gfz2010exdl   0.83420
gfz2010ezck  -0.61050
gfz2010ffhq   0.77450
gfz2010fuuy   0.78120
gfz2010fync  -0.11660
gfz2010gjia   1.65360
gfz2010glxl   1.56900
gfz2010gyqp   1.74330
gfz2010gzxr   0.55130
gfz2010iull   0.33800
gfz2010jxbm  -0.68190
gfz2010nmpc   0.90980
gfz2010nqwf   1.53090
gfz2010nqwo   0.29900
gfz2010rqwj   0.02510
gfz2010upfb  -0.26910
gfz2011aatr  -0.30710
gfz2011adjs   1.26110
gfz2011cykd   1.86150
gfz2011dbev   1.32850
gfz2011dbig   0.01990
gfz2011dbon   2.09960
gfz2011dcqb   2.54200
gfz2011dpqx   0.73430
gfz2011hfkj   0.20790
gfz2011rewa   0.77040
gfz2011vhfi   5.35650
gfz2012bpkx   0.89900
gfz2012fzfa   2.68540
gfz2012hnul   1.61410
gfz2012nkdf   0.28710
gfz2012uafg   0.74340
gfz2012wklq   0.46160
gfz2013ccnr   0.88560
gfz2013dofo   0.91700
gfz2013jusj   4.51760
gfz2013svci   1.30930
gfz2013vjjc   2.28350
gfz2013wjmm   1.03840
gfz2014claq   1.57040
gfz2014enhi   1.93710
gfz2014gmhr   6.03200
gfz2014qngj  -2.05840
gfz2014qqhm  -1.05900
gfz2015chhn   0.66400
gfz2015cyjd   1.16950
gfz2015elgy   2.03040
gfz2015fkgt   5.54730
gfz2015lytv   1.21380
gfz2015qnho   1.62170
gfz2015sfdd   0.44050
gfz2015sfdy   0.97880
gfz2015sfkh   1.98490
gfz2015sfno   3.00740
gfz2015smym   4.07190
gfz2015snwh  -0.19670
gfz2015soxc  -0.15960
gfz2015svwm   1.23580
