# Nsamples: 79  MAD:  0.988  mean:  1.035  variance:  2.776
gfz2010bxxs   0.91000
gfz2010czps   1.02510
gfz2010eaoy  -1.75490
gfz2010eapk   0.45630
gfz2010eapn  -0.52290
gfz2010eaqe  -0.12450
gfz2010eaqx   0.44990
gfz2010eaqy  -0.15900
gfz2010earu   0.83710
gfz2010easo   0.43620
gfz2010easu   0.24190
gfz2010eato  -0.17740
gfz2010eatt   2.54750
gfz2010eaty   0.55430
gfz2010eavs  -1.46510
gfz2010eawu   0.77210
gfz2010eaxa   0.52760
gfz2010eazu   0.79600
gfz2010ebla   0.16680
gfz2010ebll   3.01260
gfz2010eltf  -1.30880
gfz2010elyc  -0.24550
gfz2010elyo   2.72230
gfz2010epxj   9.49450
gfz2010excp  -1.24020
gfz2010exdd  -0.22900
gfz2010exdl   0.45280
gfz2010ezck  -0.06670
gfz2010fedq  -1.53590
gfz2010fync   0.33070
gfz2010fzoi   1.23770
gfz2010glxl   0.57740
gfz2010gyqp   0.68190
gfz2010tcrl   3.35490
gfz2010upfb   0.85850
gfz2011aatr  -0.57370
gfz2011adjs   0.94470
gfz2011cykd   2.81820
gfz2011dcqb   0.74310
gfz2011owvz   2.49760
gfz2011rewa   0.96060
gfz2011vhfi   3.11220
gfz2012fzfa   2.06050
gfz2012hnul   2.54210
gfz2012tzcc   2.43720
gfz2012uafg   0.69400
gfz2012wklq   0.30400
gfz2013ccnr   1.04990
gfz2013dofo   1.39530
gfz2013drxz   0.65060
gfz2013jusj   0.01920
gfz2013stht  -0.00000
gfz2013vfzp   1.68680
gfz2013vjjc   2.24820
gfz2013xsdt   3.26890
gfz2014enhi   0.37400
gfz2014gkgf   0.59830
gfz2014gmge   2.55970
gfz2014gmhr   7.11180
gfz2014osvz   0.58820
gfz2014qngj  -0.23340
gfz2015chhn   0.91210
gfz2015cyjd  -0.91810
gfz2015gzja   0.61990
gfz2015lytv   1.36030
gfz2015qnho   0.56070
gfz2015sfdd   0.53060
gfz2015sfdl  -0.00800
gfz2015sfdy   0.36460
gfz2015sfhz   0.98590
gfz2015sfnb   3.98890
gfz2015sfno   0.93470
gfz2015sfnv   1.15190
gfz2015sfoc   1.33340
gfz2015sghq   0.23160
gfz2015smym   1.66610
gfz2015snwh   0.92850
gfz2015soxc   2.00470
gfz2015svwm   1.63170
