# Nsamples: 183  MAD:  1.369  mean:  1.461  variance:  2.274
gfz2010bfzs   0.24130
gfz2010bxxs   0.40420
gfz2010cqwl   0.22170
gfz2010czps   1.17500
gfz2010eaoy  -1.91380
gfz2010eapk   1.11920
gfz2010eapn  -0.75000
gfz2010eaqe  -0.37350
gfz2010eaqx   0.69320
gfz2010eaqy  -0.22280
gfz2010earu   0.36490
gfz2010eask   2.08390
gfz2010easo  -0.89820
gfz2010easu   0.29740
gfz2010eato  -0.01410
gfz2010eatt  -0.21840
gfz2010eaty  -0.59760
gfz2010eavs   0.27650
gfz2010eawb  -1.80130
gfz2010eaxa   0.57090
gfz2010eazu   0.37370
gfz2010ebjy   0.48300
gfz2010ebla   2.85530
gfz2010ebmb   0.49750
gfz2010ebnn  -0.06710
gfz2010ebvv   0.43120
gfz2010ebwp   1.14060
gfz2010ebzr   0.58340
gfz2010ecam   1.84880
gfz2010ecay   2.63430
gfz2010ecbi   0.64600
gfz2010ecdu   1.96800
gfz2010ecua   0.70710
gfz2010edyi   1.92500
gfz2010eeij   0.48800
gfz2010eerh   0.15890
gfz2010eevu   0.57280
gfz2010egap  -0.16170
gfz2010egld   3.17490
gfz2010eixj   1.97280
gfz2010ejjg   0.41710
gfz2010elhv  -0.12500
gfz2010eltf  -0.42030
gfz2010elyc  -0.56910
gfz2010emyz   0.90400
gfz2010epxj   8.92500
gfz2010eqjg   1.35010
gfz2010erdi   0.73040
gfz2010erna   1.01540
gfz2010eryg   2.08840
gfz2010euae   2.33960
gfz2010evco   3.11100
gfz2010excp  -0.24930
gfz2010exdd  -0.74480
gfz2010exdl   0.92650
gfz2010exed   1.03840
gfz2010exhd   1.44460
gfz2010exno   0.64900
gfz2010ezck  -0.74680
gfz2010ezig   1.63620
gfz2010fcax   0.93870
gfz2010fedq   1.44540
gfz2010ffhq   1.28780
gfz2010flha   1.59530
gfz2010flxi   2.18550
gfz2010fync   0.31970
gfz2010gcrl   0.73380
gfz2010glxl   0.50670
gfz2010gyqp   0.72370
gfz2010gzxr   1.27070
gfz2010iobp  -0.58250
gfz2010iull   0.28940
gfz2010jxbm  -0.08030
gfz2010lkcf   2.28760
gfz2010moyw   0.81520
gfz2010nmpc   0.35660
gfz2010nqwo   0.53400
gfz2010nrjo   2.28120
gfz2010nxsy   1.03990
gfz2010pewa   0.32570
gfz2010qwwx   1.58730
gfz2010rqwj   2.54070
gfz2010upfb   0.77250
gfz2010yjev   2.23900
gfz2011aatr  -0.31010
gfz2011adjs   0.46310
gfz2011cvfg   2.44780
gfz2011cykd   0.92160
gfz2011cyre   4.83750
gfz2011cyuk   2.85700
gfz2011dcqb   0.93970
gfz2011enva   3.43970
gfz2011etje   2.34610
gfz2011hfkj   0.95000
gfz2011hlth  -1.33660
gfz2011hpqp   2.79780
gfz2011kqwo   0.02570
gfz2011kxzp   1.67350
gfz2011lzwj   1.65820
gfz2011mpme   2.60390
gfz2011nudm  -1.02600
gfz2011ohcy   4.90900
gfz2011owvz   2.18790
gfz2011qvae   2.25070
gfz2011rewa   1.30900
gfz2011vhfi   4.19760
gfz2011vxns   2.00000
gfz2011xyxj   3.30020
gfz2012bfah   2.65150
gfz2012bpkx   1.97100
gfz2012cxdn   2.08210
gfz2012hnul   2.89880
gfz2012ilvn   3.48510
gfz2012keor   2.74940
gfz2012kkup   2.70410
gfz2012lczo   3.32390
gfz2012uafg   0.46990
gfz2012wklq   0.40280
gfz2012wxlg   2.03860
gfz2012zfag   3.04160
gfz2012zjpv   6.25040
gfz2013ccnr   1.51420
gfz2013dkly   3.37950
gfz2013dofo   1.57810
gfz2013drxz   0.83670
gfz2013gcfx   0.77920
gfz2013ilug   0.57840
gfz2013jusj   0.45000
gfz2013lyko   2.61080
gfz2013svci   0.96130
gfz2013vfzp   3.10490
gfz2013vjjc   1.04370
gfz2013wjmm   1.75060
gfz2013yctg   2.99460
gfz2014enhi   0.55040
gfz2014femz   1.60920
gfz2014gbcz   1.81130
gfz2014gkgf   2.81750
gfz2014gmge   4.60100
gfz2014gmhr   3.33400
gfz2014goba   4.47310
gfz2014gpya   3.65450
gfz2014gull   0.50040
gfz2014hasj   3.63260
gfz2014hzfw   1.41710
gfz2014qngj   0.70060
gfz2014ssvz   2.76530
gfz2015chhn   0.81050
gfz2015cyjd   1.69110
gfz2015dizn   2.08320
gfz2015elgy   1.24280
gfz2015fkgt   1.56090
gfz2015fsjj  -0.02910
gfz2015gjbr   2.19100
gfz2015kquq  -3.13630
gfz2015lytv   2.27380
gfz2015nuxz   2.46580
gfz2015nwug   4.49560
gfz2015oyfl   2.94130
gfz2015qnho   2.10260
gfz2015sfdd  -0.72310
gfz2015sfdl  -0.05370
gfz2015sfdy   0.51790
gfz2015sfeo   2.64420
gfz2015sfhz   0.95890
gfz2015sfiq   3.04580
gfz2015sfmd   3.14870
gfz2015sfnb   4.16890
gfz2015sfno   2.39890
gfz2015sfnv   1.89040
gfz2015sfoc   1.41740
gfz2015sgdn   2.16530
gfz2015sghq   0.86800
gfz2015sjgk   2.14770
gfz2015sjjb   1.69930
gfz2015sjvu   0.19400
gfz2015smym   2.11010
gfz2015snwh   1.95190
gfz2015soxc   1.96350
gfz2015stfy   2.68080
gfz2015svwm   1.45920
gfz2015szcb   2.74030
gfz2015taml   2.37030
