# Nsamples: 80  MAD:  0.882  mean:  1.334  variance:  2.034
gfz2010bfzs   0.28260
gfz2010bxxs   1.25580
gfz2010czps   0.63400
gfz2010eaoy  -0.70930
gfz2010eapk   1.33670
gfz2010eapn   0.39830
gfz2010eaqe   0.36180
gfz2010eaqx  -0.14350
gfz2010eaqy   0.68590
gfz2010earu   1.13250
gfz2010easo   1.60370
gfz2010easu   0.88170
gfz2010eati   0.51980
gfz2010eato   0.61690
gfz2010eatt  -1.17760
gfz2010eaty   1.09210
gfz2010eavs   1.03550
gfz2010eawb   2.03510
gfz2010eaxa   0.84690
gfz2010eaxn   1.28710
gfz2010eayd   1.08780
gfz2010eaze  -0.86150
gfz2010eazu   0.62780
gfz2010ebjy   1.95690
gfz2010ebkj   1.20420
gfz2010ebla   1.23080
gfz2010ebmb   0.75480
gfz2010ebmi   4.91050
gfz2010ebnn   1.08540
gfz2010ebvm   3.37080
gfz2010ebvv   0.91510
gfz2010ebzr   1.00480
gfz2010ecay   0.71910
gfz2010ecbi   0.96800
gfz2010ecdu   3.14880
gfz2010ecsp  -0.94110
gfz2010ecua   1.64780
gfz2010ecvt   1.18290
gfz2010edde   2.20690
gfz2010edyi   2.62080
gfz2010eeij  -0.18240
gfz2010eerh  -0.86650
gfz2010eevu   1.13970
gfz2010egap   0.21510
gfz2010ejjg   0.86040
gfz2010elhv   0.36140
gfz2010eltf   1.05520
gfz2010elyc   3.93110
gfz2010eqjg   3.26760
gfz2010erna   1.01480
gfz2010euae  -2.23880
gfz2010eujm   2.99540
gfz2010euvl   2.58900
gfz2010euxe   4.55250
gfz2010evco   1.38420
gfz2010excp   0.74910
gfz2010exdd   0.47030
gfz2010exdl   1.21810
gfz2010exed   1.88410
gfz2010exno   1.15340
gfz2010ezck   0.32570
gfz2010fcax   1.82940
gfz2010fedq   0.93950
gfz2010ffhq   0.46750
gfz2010flha   0.25220
gfz2010fpqy   2.32010
gfz2010fync   0.64070
gfz2010glxl   1.36730
gfz2010gslu   2.43240
gfz2010gyqp   1.70900
gfz2010gzxr   2.04320
gfz2010hxgv   6.01180
gfz2010iobp   1.24340
gfz2010iull   1.22060
gfz2010jxbm   0.39770
gfz2010moyw   2.81570
gfz2010nmpc   1.02410
gfz2010pewa   4.02020
gfz2010tcrl   5.89840
gfz2010upfb   1.38070
