# Nsamples: 97  MAD:  0.468  mean: -0.193  variance:  0.485
gfz2010bowy   0.53620
gfz2010bxxs   0.45910
gfz2010ebhc  -0.31990
gfz2010grjd   0.93260
gfz2010iull  -0.23890
gfz2010lluj  -1.17140
gfz2010mkuu   0.03690
gfz2010nlkh  -0.46300
gfz2010nmpc  -0.73600
gfz2010nwef  -0.15610
gfz2010sfee  -0.64680
gfz2010sysw   0.95020
gfz2010usho  -0.73140
gfz2010wioh  -0.30090
gfz2011enva  -0.52700
gfz2011gkzt  -1.69430
gfz2011hlsa   0.18080
gfz2011lcxq  -0.56180
gfz2011lzwj   0.11560
gfz2011rewa   0.64480
gfz2011toub  -0.07300
gfz2011wxfs  -0.27510
gfz2012enno   0.11690
gfz2012jlox  -0.34410
gfz2012kkup   0.05140
gfz2012klhx   2.37960
gfz2012kudo  -0.54120
gfz2012ldxg   0.02500
gfz2012ldzj  -0.50260
gfz2012teic  -0.53890
gfz2012ttoa   1.03510
gfz2012vrgb   0.51170
gfz2012wypz   0.07380
gfz2013drxz  -0.63010
gfz2013jkut  -0.01130
gfz2013kdeo  -0.89210
gfz2013ldpc  -0.42980
gfz2013ldqb  -0.31340
gfz2013mwbh   0.29380
gfz2013nkgj   0.04160
gfz2013nwdi  -0.68650
gfz2013pfbx  -0.68620
gfz2013svci   0.11240
gfz2013tusd  -0.44900
gfz2013uauo  -1.29360
gfz2014afmx  -0.42130
gfz2014bwue  -0.49450
gfz2014bzxy  -1.18260
gfz2014czqi  -0.24500
gfz2014fgvi  -0.33510
gfz2014fhdw  -0.16180
gfz2014fhla  -1.31170
gfz2014fkmr  -0.03410
gfz2014frdz   2.35170
gfz2014frez   0.00840
gfz2014ftka  -1.46760
gfz2014fval  -0.24950
gfz2014gkgf  -0.93660
gfz2014gkjl  -0.89240
gfz2014gkjt  -0.74250
gfz2014gkqf  -0.17710
gfz2014glcu  -0.25510
gfz2014gltx  -0.15430
gfz2014gmhr   1.91520
gfz2014gmnb  -0.14070
gfz2014gmnw  -0.14300
gfz2014goba   0.11580
gfz2014gull   1.23920
gfz2014hasj  -0.19840
gfz2014hqxs   0.38030
gfz2014huaj  -0.90130
gfz2014jjhc  -0.23750
gfz2014jnyv  -0.22360
gfz2014jpep  -0.18500
gfz2014lgqn   0.77990
gfz2014lxnc  -0.22470
gfz2014lyhk  -1.28270
gfz2014macx  -0.34680
gfz2014nqfm  -0.55310
gfz2014oinz  -1.19660
gfz2014pvch  -0.84990
gfz2014qlxd  -0.85650
gfz2014qqhm   0.33210
gfz2014ubwn   0.12330
gfz2014vhms  -0.02620
gfz2015berb  -0.07010
gfz2015cyjd   0.13840
gfz2015fjhk  -0.21230
gfz2015fsjj  -0.29550
gfz2015gckd  -0.16880
gfz2015ggjw  -0.32440
gfz2015hpmk  -0.32570
gfz2015lhjy   0.16030
gfz2015mpte   0.34340
gfz2015okmq  -0.70500
gfz2015qvxu  -1.29180
gfz2015taml  -0.03450
