# Nsamples: 8  MAD:  0.498  mean:  0.280  variance:  0.400
gfz2010iull   0.59290
gfz2011enva   1.39930
gfz2011lcxq  -0.07860
gfz2011wxfs   0.32100
gfz2012wypz   0.47340
gfz2013nkgj  -0.90290
gfz2013nwdi   0.58910
gfz2014bwue  -0.15370
