# Nsamples: 76  MAD:  0.949  mean:  0.376  variance:  0.985
gfz2010cdbt   0.15440
gfz2010cnwc   0.70820
gfz2010cqwl   1.29950
gfz2010eaoy  -0.55280
gfz2010ebeh  -2.05950
gfz2010ebvv  -3.38250
gfz2010eisx  -1.08390
gfz2010ekyc   1.04920
gfz2010eltf   0.31180
gfz2010elyc   2.15610
gfz2010excp  -0.06270
gfz2010exdd   0.30840
gfz2010fedq   1.52820
gfz2010iull   1.24630
gfz2010nmpc   1.28230
gfz2010nwef   0.22980
gfz2010rqwj   0.33430
gfz2011aatr  -0.04090
gfz2011cykd   1.49390
gfz2011enva   1.86520
gfz2011kxzp  -0.50220
gfz2011lcxq   1.15260
gfz2011lzwj   1.34490
gfz2011rewa   0.26390
gfz2011toub   0.19020
gfz2011vhfi   0.64240
gfz2011wxfs   1.10780
gfz2011xyxj   1.17500
gfz2012enno  -0.01850
gfz2012jlox   0.66320
gfz2012jupx  -0.52580
gfz2012kkup   0.25520
gfz2012kudo   0.18860
gfz2012ldxg  -0.09410
gfz2012sphd   0.30740
gfz2012teic   0.69510
gfz2012ttoa   1.20890
gfz2012wypz   0.43510
gfz2013ccnr  -0.64950
gfz2013drxz   0.02350
gfz2013gwrd  -0.88750
gfz2013ldqb   0.64690
gfz2013lljw   0.30390
gfz2013nkgj   1.17820
gfz2013nwdi   0.45060
gfz2013qmer   1.52730
gfz2013svci   1.56170
gfz2013vjjc   1.34270
gfz2013vsxi  -1.25110
gfz2013yqkv   1.19260
gfz2014bwue   0.91140
gfz2014fgvi   1.65700
gfz2014fhla   0.03320
gfz2014ftka   0.06660
gfz2014gkgf   1.21230
gfz2014gkgs   0.44030
gfz2014gmhr  -1.34420
gfz2014gtef   0.20390
gfz2014hasj  -0.76560
gfz2014jjhc  -0.03090
gfz2014jpxs   3.33770
gfz2014lxnc   0.63890
gfz2014qlxd   0.92920
gfz2014qqhm   1.41890
gfz2015chhn  -0.67730
gfz2015cyjd  -0.02750
gfz2015fsjj   1.15020
gfz2015lhjy   0.61260
gfz2015lytv  -0.44810
gfz2015sfdd  -0.15100
gfz2015sfdy  -0.24410
gfz2015sfno   0.36860
gfz2015smym  -0.35040
gfz2015snwh   0.20110
gfz2015soxc  -1.24050
gfz2015svwm  -0.04820
