# Nsamples: 69  MAD:  0.747  mean:  0.412  variance:  0.788
gfz2010bpda  -0.80230
gfz2010eaoy   0.21180
gfz2010eaqe  -1.86390
gfz2010earu  -0.29830
gfz2010ecfx   0.32980
gfz2010ecua  -0.70650
gfz2010elyc   0.92660
gfz2010excp   1.65210
gfz2010exdd  -0.32550
gfz2010exdl   0.33090
gfz2010exno   0.62940
gfz2010grjd   0.88320
gfz2010iull   0.92890
gfz2010ncrl  -0.04000
gfz2010nwef   0.14080
gfz2010rqwj   0.89410
gfz2011aatr   0.87890
gfz2011enva   2.06610
gfz2011hlsa   0.97440
gfz2011lzwj   1.64180
gfz2011mdie   0.73880
gfz2011owvz   0.98100
gfz2011rewa  -0.00000
gfz2011toub  -0.30230
gfz2012fzfa  -1.65080
gfz2012hnul   1.55680
gfz2012kkup   0.66590
gfz2012klhx   0.88720
gfz2012kudo  -0.03710
gfz2012ldxg   0.93470
gfz2012uafg   1.25320
gfz2012uaqj  -0.33210
gfz2012wypz   0.48970
gfz2013drxz  -0.37400
gfz2013jdrx   0.29140
gfz2013kdeo   0.06660
gfz2013lyko   0.13390
gfz2013nkgj   1.07160
gfz2013nwdi   0.06090
gfz2013pxsj   1.28700
gfz2013vjjc   2.88910
gfz2013ziyr  -0.18500
gfz2014bwue   0.49210
gfz2014fgvi   1.19510
gfz2014fhla   1.42900
gfz2014frfl  -0.26960
gfz2014ftka  -0.97360
gfz2014gkgf   1.50870
gfz2014gmhr   0.19350
gfz2014jjhc   0.40180
gfz2014nqfm   0.71840
gfz2014pvch   0.39840
gfz2014ssvz   0.28540
gfz2015chhn  -0.22450
gfz2015cyjd   0.42500
gfz2015fkgt  -1.54430
gfz2015fsjj   1.37170
gfz2015lytv   0.01980
gfz2015sfdd   0.73960
gfz2015sfdl   1.51140
gfz2015sfdy   0.22560
gfz2015sfnb  -0.95850
gfz2015sfno   1.83050
gfz2015smym   0.70790
gfz2015snwh   0.84610
gfz2015soxc   0.46830
gfz2015subx  -1.15230
gfz2015svwm   0.72300
gfz2015sxmh  -0.85270
