# Nsamples: 72  MAD:  0.643  mean:  0.209  variance:  1.069
gfz2013mqmv  -0.21110
gfz2013ncjp   3.63150
gfz2013nkgj   0.75420
gfz2013nwdi  -0.20280
gfz2013ozku   0.29830
gfz2013pfbx  -0.43040
gfz2013svci   0.41030
gfz2013vjjc   2.90180
gfz2013xsdt   0.71800
gfz2013ypdc  -0.23840
gfz2014afmx   1.63040
gfz2014ande  -0.16830
gfz2014bwue   0.24920
gfz2014fgvi   0.84370
gfz2014fhla  -0.76870
gfz2014fhwx  -2.08950
gfz2014fkmr  -3.48080
gfz2014ftka  -0.10500
gfz2014fval   0.33380
gfz2014gkgf   0.45830
gfz2014gkhp   0.64510
gfz2014gkhy   1.25400
gfz2014gkjt  -0.20040
gfz2014gkqf   0.07770
gfz2014gkqu   1.34660
gfz2014glcu   0.39050
gfz2014gmge  -2.21520
gfz2014gmhr   1.88930
gfz2014gmnb   0.49410
gfz2014goba   0.06790
gfz2014gull   1.08020
gfz2014gwab   0.33000
gfz2014gxxo   0.26430
gfz2014hasj   0.13260
gfz2014hocg   0.46850
gfz2014huaj   0.16040
gfz2014itkw  -0.86540
gfz2014jjhc  -0.16580
gfz2014jpep  -0.13340
gfz2014lgqn   0.56860
gfz2014lxnc   0.21950
gfz2014lyhk  -0.11410
gfz2014macx   0.21230
gfz2014nqfm   0.44800
gfz2014nrie   0.97540
gfz2014oinz  -0.64560
gfz2014owxc  -0.23110
gfz2014qlxd  -0.22370
gfz2014qqhm  -1.40660
gfz2014ssvz   0.45310
gfz2014ubwn   0.53850
gfz2014vhms   0.58170
gfz2014vjoz   0.03500
gfz2015chhn   0.56910
gfz2015cyjd  -0.42640
gfz2015egxq  -0.71050
gfz2015fjhk  -0.04150
gfz2015fsjj   0.17270
gfz2015jzcv   0.29270
gfz2015kkth  -0.06290
gfz2015kxxs   1.30440
gfz2015lhjy   0.70640
gfz2015mpte   0.38070
gfz2015qvxu  -1.22470
gfz2015sfdd   0.20870
gfz2015sfdy   1.00500
gfz2015sfno   1.12050
gfz2015smym   0.85210
gfz2015snwh   1.28810
gfz2015soat  -2.38570
gfz2015svwm   0.49840
gfz2015taml   0.53630
