# Nsamples: 14  MAD:  0.717  mean:  0.450  variance:  0.394
gfz2012vrgb   0.11500
gfz2013pfbx  -0.64240
gfz2013svci   0.44130
gfz2014fgvi   0.83830
gfz2014ftka  -0.40860
gfz2014gkgf  -0.27620
gfz2014gkqf   0.57990
gfz2014gmhr   1.51620
gfz2014goba  -0.26050
gfz2014lgqn   1.16150
gfz2014qqhm   0.75500
gfz2014ubwn   0.62990
gfz2015cyjd   1.08280
gfz2015mpte   0.77420
