# Nsamples: 55  MAD:  0.560  mean: -0.804  variance:  1.057
gfz2010bxxs  -0.19940
gfz2010ftlm  -1.24580
gfz2010iull  -1.57350
gfz2010lepw   1.55930
gfz2010nlkh  -0.89990
gfz2010nmpc  -1.91640
gfz2011crdy  -4.80900
gfz2011enva  -0.96510
gfz2011gkzt  -1.44380
gfz2011lcxq  -0.30610
gfz2011lzwj  -0.94400
gfz2011toub   0.07340
gfz2011wxfs  -0.78140
gfz2012dyyh  -1.00850
gfz2012jlox  -1.29950
gfz2012ldxg  -1.22770
gfz2012nojx   1.21930
gfz2012nsbz  -1.11750
gfz2012ttoa  -0.25120
gfz2013jkut  -0.76790
gfz2013kdeo  -0.61090
gfz2013ldqb   0.39950
gfz2013mqmv  -0.24250
gfz2013nkgj   1.74760
gfz2013nwdi  -1.33820
gfz2013pfbx  -1.35180
gfz2013svci  -1.48700
gfz2014algk  -1.08970
gfz2014fgvi  -0.73470
gfz2014fhla   0.44980
gfz2014frdz   2.11980
gfz2014ftka  -1.90100
gfz2014ghpe  -0.85400
gfz2014gkgf  -2.49700
gfz2014gkqf  -0.90320
gfz2014gmhr  -0.22500
gfz2014gmnb  -0.56150
gfz2014gmnw  -1.08560
gfz2014goba  -1.21720
gfz2014gull  -0.80050
gfz2014hqyx  -1.32170
gfz2014kbuk  -1.25840
gfz2014lgqn  -1.70220
gfz2014macx  -0.58040
gfz2014nqfm  -0.94960
gfz2014nrie  -0.99280
gfz2014qlxd  -0.37300
gfz2014qqhm  -0.76480
gfz2014rdsn  -1.24010
gfz2014ubwn  -0.06130
gfz2014vhms  -1.56810
gfz2015cyjd  -0.27170
gfz2015gckd  -0.85330
gfz2015lhjy  -0.96600
gfz2015mpte  -1.20890
