# Nsamples: 711  MAD:  0.672  mean: -1.560  variance:  0.973
gfz2010aban  -0.54460
gfz2010aerk  -2.02950
gfz2010ahqi  -1.15560
gfz2010bfzs  -1.86590
gfz2010bgth  -2.00020
gfz2010bifb  -1.87060
gfz2010bjeb  -1.48550
gfz2010bxxs  -1.49190
gfz2010caft  -2.31760
gfz2010cbkg  -2.10580
gfz2010cdbt  -1.70920
gfz2010civi  -1.58850
gfz2010ckzm  -1.21130
gfz2010dejx  -0.72960
gfz2010diqn  -1.68730
gfz2010dlgc  -0.86120
gfz2010eaoy  -1.64010
gfz2010eapk  -1.64980
gfz2010eapn  -1.24770
gfz2010eaqe  -2.25640
gfz2010eaqx  -0.82080
gfz2010eaqy  -2.64360
gfz2010earu  -2.75260
gfz2010easf  -2.19850
gfz2010easo  -1.97970
gfz2010easu  -1.77600
gfz2010eati  -1.33520
gfz2010eato  -2.02800
gfz2010eatt   2.70190
gfz2010eaty  -1.30770
gfz2010eavd  -1.87450
gfz2010eavs  -2.08990
gfz2010eawb  -2.95500
gfz2010eawu  -0.49950
gfz2010eaxa  -0.96670
gfz2010eazu   0.10880
gfz2010ebdl  -1.80580
gfz2010ebhc  -1.67600
gfz2010ebih  -1.58270
gfz2010ebin   1.35760
gfz2010ebjy  -1.81800
gfz2010ebkj   0.95630
gfz2010ebla  -0.07130
gfz2010ebmb  -2.17010
gfz2010ebnn  -0.39730
gfz2010ebvm  -1.11360
gfz2010ebvv  -1.44760
gfz2010ebwp  -1.68160
gfz2010ebzr  -1.18810
gfz2010ecam  -0.86350
gfz2010ecay  -0.78740
gfz2010ecbi  -2.36930
gfz2010eced   1.46360
gfz2010ecfx  -2.33700
gfz2010echc  -0.90980
gfz2010echy  -1.02040
gfz2010ecps  -0.87810
gfz2010ecua  -1.72290
gfz2010ecvt  -1.94670
gfz2010edat  -2.04710
gfz2010edcp   1.83010
gfz2010edvf  -0.58290
gfz2010edyi  -2.50070
gfz2010eern  -1.10570
gfz2010eevu  -2.02280
gfz2010efsq  -1.21790
gfz2010efxf  -0.05590
gfz2010egap  -1.75730
gfz2010eghq  -1.37590
gfz2010egld  -1.92620
gfz2010egln  -2.16980
gfz2010egmp  -1.12800
gfz2010egqh  -2.20080
gfz2010egsw  -1.13930
gfz2010egsy  -1.01260
gfz2010egyy  -1.72940
gfz2010ehaj  -1.85040
gfz2010ehft  -1.58350
gfz2010ehnl   1.66020
gfz2010ehxz  -0.85370
gfz2010eimf  -1.84540
gfz2010eioi  -1.98980
gfz2010eisx  -5.03130
gfz2010eixj  -2.03740
gfz2010ejjg  -1.93940
gfz2010ekoe  -1.68680
gfz2010ekrv  -1.48570
gfz2010ekyc  -2.73400
gfz2010elhv  -1.51160
gfz2010elin   0.27890
gfz2010eltf  -0.87260
gfz2010elyc  -3.46600
gfz2010elyo  -0.90530
gfz2010elzf   0.30250
gfz2010elzl   0.06760
gfz2010emyz  -1.62730
gfz2010encm   4.02540
gfz2010epbe  -1.12740
gfz2010epxj  -1.60290
gfz2010eqjg  -1.63810
gfz2010eqmu  -5.43650
gfz2010erdi  -0.52920
gfz2010erfy  -1.51620
gfz2010erig  -0.65160
gfz2010erkn  -1.56000
gfz2010erna  -2.20660
gfz2010erom  -1.73440
gfz2010erum  -1.60360
gfz2010eruy  -0.84610
gfz2010erwn  -1.94470
gfz2010erxk  -3.85320
gfz2010eryg  -1.98620
gfz2010esid  -0.96790
gfz2010euii  -1.19880
gfz2010eujm  -1.89300
gfz2010euvl  -2.83560
gfz2010evco  -1.62690
gfz2010ewvc  -2.69710
gfz2010excp  -2.43590
gfz2010exdd  -1.94880
gfz2010exdl  -2.07850
gfz2010exed  -1.66060
gfz2010exel  -2.06830
gfz2010exgb  -1.78340
gfz2010exhd  -2.25890
gfz2010exmc  -1.77690
gfz2010exno  -1.87170
gfz2010exsg  -2.14720
gfz2010ezax  -1.77930
gfz2010ezck  -1.55010
gfz2010faeu   0.86530
gfz2010falm  -1.96470
gfz2010fauz  -1.69940
gfz2010fcax  -1.98300
gfz2010fciw  -2.23740
gfz2010fcxy  -0.93020
gfz2010fczt  -2.28080
gfz2010fedq  -1.86210
gfz2010fexw  -2.12860
gfz2010ffhq  -1.72120
gfz2010ffjb  -2.39020
gfz2010ffui  -0.31950
gfz2010fjal  -1.50060
gfz2010flha  -2.74340
gfz2010flxi  -0.69660
gfz2010fneu  -0.99620
gfz2010fnrk   0.20770
gfz2010fpqy  -1.27440
gfz2010fqdu  -2.51690
gfz2010ftlm  -2.42370
gfz2010fupn  -1.36430
gfz2010fwzd  -1.72180
gfz2010fync  -2.11710
gfz2010gcrl  -1.99450
gfz2010gcrp  -1.29950
gfz2010gdld  -2.15740
gfz2010gjia  -1.67100
gfz2010glxl  -1.67800
gfz2010grjd  -1.30950
gfz2010gslu  -2.90730
gfz2010gtzt  -1.42760
gfz2010gyqp  -2.07190
gfz2010gzxr  -1.24960
gfz2010hbka  -1.82670
gfz2010hcio  -1.81820
gfz2010hjoc  -2.54830
gfz2010homc  -2.60640
gfz2010hptz  -2.96960
gfz2010hrkr  -1.82460
gfz2010hrpr  -1.50330
gfz2010hxgv  -1.76890
gfz2010hxhe  -1.11870
gfz2010iciq  -2.90220
gfz2010iobp  -1.83080
gfz2010irqr  -1.86870
gfz2010irvf  -2.85120
gfz2010itpb   0.14880
gfz2010iull  -1.85130
gfz2010izzj  -1.50930
gfz2010jssh  -1.45840
gfz2010jsuo   0.45030
gfz2010jxbm  -2.02270
gfz2010jygz  -1.59330
gfz2010kdyc  -2.68980
gfz2010kihf   0.19980
gfz2010kjmp  -0.31540
gfz2010lcoq   0.02200
gfz2010lczp  -3.10820
gfz2010lepw   0.20120
gfz2010liqs  -0.46760
gfz2010lopz  -0.66520
gfz2010lyfk  -1.19870
gfz2010mbje  -1.02090
gfz2010mdpq  -2.61350
gfz2010mhjt  -0.27420
gfz2010miqn  -1.00970
gfz2010mkuu  -1.50150
gfz2010mncc  -1.53300
gfz2010moyw  -2.04360
gfz2010mpuy  -2.44770
gfz2010msjj  -2.54340
gfz2010mwdq  -1.04880
gfz2010ncrl  -2.09910
gfz2010nmpc  -2.52020
gfz2010nnny  -0.47630
gfz2010nqwf  -1.28950
gfz2010nqwo  -1.49130
gfz2010nrjo  -0.65930
gfz2010nsck  -1.50420
gfz2010nubk  -1.33370
gfz2010nwef  -1.97240
gfz2010nxsy  -0.75640
gfz2010ocxq  -2.16320
gfz2010odpb  -1.76280
gfz2010oedn  -1.90910
gfz2010okdm  -2.12200
gfz2010onma  -2.27070
gfz2010osjs  -2.04000
gfz2010pbdz  -1.98040
gfz2010pcxi  -2.30450
gfz2010pets  -1.69780
gfz2010pmqd  -1.56580
gfz2010qpvi  -1.28320
gfz2010rkfp  -2.14390
gfz2010rqwj  -2.47060
gfz2010sfee  -1.98710
gfz2010skve  -0.94620
gfz2010svtn  -1.30090
gfz2010swcy  -2.26500
gfz2010tcrl   1.48390
gfz2010txjs  -1.33790
gfz2010uept  -1.65480
gfz2010upfb  -2.00190
gfz2010usho  -1.73890
gfz2010ustq  -3.86510
gfz2010utcg  -1.44470
gfz2010xgzw  -1.23620
gfz2010xjsj  -0.90990
gfz2010yjev  -1.96860
gfz2010ymfy  -2.43880
gfz2011aatr  -1.07550
gfz2011adjs  -1.33570
gfz2011aqxf  -0.96370
gfz2011ccpw  -1.16350
gfz2011csju  -2.16130
gfz2011cykd  -1.26940
gfz2011cynl  -0.85840
gfz2011dbig   0.22070
gfz2011dbon  -1.33370
gfz2011dcqb   0.97970
gfz2011dcqf  -2.04580
gfz2011dpqx  -1.26780
gfz2011eayc  -1.53760
gfz2011eazf  -1.65590
gfz2011ecaj  -1.64230
gfz2011edmm  -1.67920
gfz2011ehzq  -2.31020
gfz2011enva  -2.23390
gfz2011eocc  -0.73330
gfz2011etje  -1.73860
gfz2011fgvr  -2.03430
gfz2011fhag  -1.60630
gfz2011flgj  -0.65430
gfz2011fnsw  -1.83690
gfz2011gbmx  -1.46690
gfz2011gcwb  -1.56380
gfz2011gkzt  -2.80620
gfz2011hebt  -2.10040
gfz2011hfkj  -2.59150
gfz2011hlqw  -1.30270
gfz2011hlsa  -1.35070
gfz2011hpgx   0.82320
gfz2011hpqp  -1.90060
gfz2011hvbu   4.10850
gfz2011kqwo  -1.31320
gfz2011kwjx  -0.08450
gfz2011kxzp  -1.53450
gfz2011lcxq  -1.60670
gfz2011lvjr  -2.12660
gfz2011lzwj  -1.37770
gfz2011mdie  -1.48800
gfz2011mjom  -3.74560
gfz2011mpme  -1.67720
gfz2011mprq  -1.02740
gfz2011myia  -0.85760
gfz2011nrwc  -2.33030
gfz2011ntkh  -2.23730
gfz2011nudm  -1.89550
gfz2011ogqk  -2.98540
gfz2011ohcy  -1.07820
gfz2011olkk  -0.22550
gfz2011orgn  -1.68050
gfz2011ornx  -1.54830
gfz2011phms  -1.38700
gfz2011qvae  -3.60120
gfz2011rewa  -1.71910
gfz2011rgwp  -0.72380
gfz2011rqui  -2.17540
gfz2011rsrh  -1.86670
gfz2011sagt  -0.89160
gfz2011svix  -2.40690
gfz2011tbas  -1.85380
gfz2011tjue  -1.36600
gfz2011toub  -1.72830
gfz2011ujze  -1.91320
gfz2011uphh  -1.78300
gfz2011urxy  -1.53290
gfz2011vhfi  -0.94870
gfz2011vnza  -1.05710
gfz2011vxns  -2.06720
gfz2011wvzb  -0.56610
gfz2011wwjs  -1.34070
gfz2011wxfs  -1.60600
gfz2011wxtk  -2.04830
gfz2011xaan  -1.62600
gfz2011xyxj  -0.81050
gfz2012bfah  -0.85130
gfz2012bpkx  -2.23790
gfz2012cgvr  -2.04520
gfz2012ddma  -1.21890
gfz2012dinb  -0.80090
gfz2012ekda  -0.91090
gfz2012enno  -1.30770
gfz2012ewgo  -1.53700
gfz2012fzfa  -1.19570
gfz2012hnul  -1.35420
gfz2012ilvn  -1.68770
gfz2012jjzc  -2.28370
gfz2012jlox  -2.14370
gfz2012jupx  -2.04470
gfz2012kbjb  -0.08970
gfz2012kbzj  -2.15510
gfz2012keor  -0.75950
gfz2012kkup  -1.03230
gfz2012kuct  -1.28900
gfz2012kudo  -2.07680
gfz2012kwgo  -1.72550
gfz2012lczo  -2.16270
gfz2012ldxg  -2.66330
gfz2012ldzj  -1.46230
gfz2012llug  -1.67550
gfz2012lxkv  -1.69890
gfz2012minr  -2.16600
gfz2012mvwr  -2.21110
gfz2012mwij   0.55840
gfz2012naqz  -2.29630
gfz2012nkdf  -3.00730
gfz2012nojx  -2.31280
gfz2012nqnk  -2.14550
gfz2012nsbz  -1.67370
gfz2012nutf  -0.08470
gfz2012oedb  -1.42280
gfz2012ostk  -1.41420
gfz2012oycg  -1.02010
gfz2012ronz  -1.20290
gfz2012rypu  -2.41120
gfz2012spbj  -1.53220
gfz2012sqvi  -1.82090
gfz2012syvl  -1.78020
gfz2012teic  -2.03660
gfz2012ttoa  -1.72330
gfz2012uciv  -1.48230
gfz2012vrgb  -1.38580
gfz2012wklq  -3.17830
gfz2012wmsg  -2.52350
gfz2012wtkh  -2.85240
gfz2012wvfl  -3.46470
gfz2012wxer  -1.86600
gfz2012wxkg  -2.76010
gfz2012wxlg  -2.12980
gfz2012wxnu  -1.38950
gfz2012wypz  -1.14670
gfz2012xgqm  -0.30390
gfz2012zemz  -1.89460
gfz2013btjm  -1.72060
gfz2013ccnr  -2.53180
gfz2013dofo  -2.51240
gfz2013dojq  -1.19100
gfz2013drxz  -1.90840
gfz2013dspt  -0.53940
gfz2013dvyh  -2.21950
gfz2013fiud  -2.13130
gfz2013fkii   0.12560
gfz2013ftso  -0.55320
gfz2013fygc  -2.57290
gfz2013gbcn  -0.74580
gfz2013gbst  -1.23410
gfz2013gcfx  -3.57680
gfz2013gdgf  -1.43440
gfz2013gdnq  -1.86960
gfz2013gmor  -1.46370
gfz2013gngz  -2.08310
gfz2013gnse  -1.94650
gfz2013gvdb  -0.69280
gfz2013gvex  -0.28790
gfz2013hkja  -3.03640
gfz2013iayx  -0.06620
gfz2013ifpq  -1.55040
gfz2013ikgo  -1.33240
gfz2013ilug  -2.72170
gfz2013ippu  -1.51760
gfz2013iunn  -1.76680
gfz2013jesk  -0.92590
gfz2013jgij  -2.11380
gfz2013jgip  -1.04460
gfz2013jkut  -1.59280
gfz2013kccc  -1.44840
gfz2013kdeo  -2.02950
gfz2013ldos  -0.28190
gfz2013ldpc  -2.38580
gfz2013ldqb  -2.41390
gfz2013lixa  -2.62850
gfz2013lljw  -1.19780
gfz2013lxyn  -0.61080
gfz2013lyko  -1.97800
gfz2013mqmv  -2.83750
gfz2013mtqd   0.68970
gfz2013mwbh  -2.07580
gfz2013ncjp  -2.15360
gfz2013ndin  -1.84180
gfz2013nixj  -2.03300
gfz2013nkgj  -2.45370
gfz2013nojf  -0.58750
gfz2013nuvi  -1.08440
gfz2013nwdi  -1.98340
gfz2013ozrp  -2.35580
gfz2013pfbx  -2.42670
gfz2013pffm  -1.84360
gfz2013pfnf  -2.11150
gfz2013phef  -1.56960
gfz2013plhp  -0.56180
gfz2013puag  -1.79020
gfz2013pupd  -0.40870
gfz2013pxsj  -0.40800
gfz2013qali  -1.14290
gfz2013qmer  -1.42550
gfz2013qzdq  -1.60120
gfz2013shzy  -0.97400
gfz2013skkm  -1.97500
gfz2013suvn  -1.29680
gfz2013svci  -2.38780
gfz2013tcxc  -2.39100
gfz2013tusd  -1.40860
gfz2013tvmw  -2.20530
gfz2013txtb  -1.53380
gfz2013vexx  -1.49450
gfz2013vfyw  -1.11050
gfz2013vfzp  -0.39800
gfz2013vgrk  -2.49450
gfz2013viul  -2.00480
gfz2013vjjc  -0.72770
gfz2013vrmy  -1.03840
gfz2013wjmm  -1.52560
gfz2013wkyk  -0.74020
gfz2013wnpr  -1.60390
gfz2013xsdt  -0.89630
gfz2013xxxq  -0.19450
gfz2013yctg  -0.53730
gfz2013yqkv  -0.83550
gfz2014adoj  -1.48500
gfz2014afmx  -0.96930
gfz2014algk  -2.56010
gfz2014amsb  -0.74530
gfz2014ande  -1.31820
gfz2014atgw  -1.34340
gfz2014bagd  -2.00420
gfz2014bfng  -1.90750
gfz2014bldx  -1.77550
gfz2014bmdh  -1.30580
gfz2014bmta  -2.46430
gfz2014bwue  -1.69490
gfz2014chdv  -2.25690
gfz2014cmwb  -2.47990
gfz2014cvkm  -1.39690
gfz2014cvxx  -2.01700
gfz2014czol  -0.75500
gfz2014czqi  -2.17560
gfz2014czua  -0.84240
gfz2014dddc  -0.85800
gfz2014dffd  -2.18860
gfz2014dhxt  -1.25100
gfz2014disp  -2.17810
gfz2014edfx  -0.82840
gfz2014ehsf  -1.44950
gfz2014ekcr  -1.46510
gfz2014ekdn  -1.97640
gfz2014emrg  -0.40300
gfz2014emzb  -0.66160
gfz2014enhi  -1.71100
gfz2014etqa  -1.22390
gfz2014fedd  -1.51220
gfz2014femz  -1.31360
gfz2014fgvi  -1.39080
gfz2014fgvz  -1.37420
gfz2014fhdw  -1.66420
gfz2014fhla  -3.77140
gfz2014fhrq  -2.76210
gfz2014fhwx  -1.19470
gfz2014fimn  -1.11560
gfz2014fjzd  -2.02910
gfz2014fkmr  -2.79560
gfz2014fkmx  -2.19700
gfz2014fknp  -1.57400
gfz2014foio  -1.74060
gfz2014frdz  -1.34170
gfz2014frez  -1.07680
gfz2014frwh  -1.78260
gfz2014ftka  -2.85740
gfz2014ftoc  -2.50640
gfz2014ftrk  -2.16080
gfz2014furx  -1.26900
gfz2014fusj  -1.47030
gfz2014fuub  -0.59370
gfz2014fvaa  -0.63750
gfz2014fval  -2.28110
gfz2014fvgh  -1.31370
gfz2014fvrg  -1.25840
gfz2014gbcz  -2.74410
gfz2014gbdq  -0.17880
gfz2014ghpe  -1.97560
gfz2014gkgf  -2.31360
gfz2014gkhy  -0.97140
gfz2014gkob  -1.81790
gfz2014gkqf  -1.59720
gfz2014gkqu  -0.78790
gfz2014gksj   0.18200
gfz2014gksu  -0.88620
gfz2014gktq  -0.73470
gfz2014glcu  -1.68030
gfz2014glgo  -0.55580
gfz2014gltx  -1.79750
gfz2014gmge  -2.64220
gfz2014gmhr  -3.77760
gfz2014gmip  -1.89820
gfz2014gmjo  -1.56070
gfz2014gmku  -2.27840
gfz2014gmlz  -2.67810
gfz2014gmmt  -0.80160
gfz2014gmnb  -2.43080
gfz2014gmnw  -2.04200
gfz2014gmor  -1.12580
gfz2014gmpy  -1.84050
gfz2014gmzl  -2.10520
gfz2014gngg  -1.00980
gfz2014gnig   0.58860
gfz2014goba  -2.34030
gfz2014goqw  -2.55550
gfz2014gpya  -0.85650
gfz2014gqer  -1.56810
gfz2014gqve  -1.90780
gfz2014gsqs  -1.93250
gfz2014gtlu   0.37870
gfz2014gull  -2.03350
gfz2014gvhw   8.36530
gfz2014gvqj  -1.48520
gfz2014gvrd  -2.95130
gfz2014gwab  -0.56170
gfz2014gxxo  -1.60940
gfz2014hasj  -2.54050
gfz2014hbqb  -2.13470
gfz2014hcmj  -2.03600
gfz2014hfhl  -2.54060
gfz2014hgqo  -2.29040
gfz2014hjgr  -1.69790
gfz2014hocg  -1.07500
gfz2014hscz  -0.82930
gfz2014huaj  -1.52260
gfz2014hyal  -0.87200
gfz2014hyvq  -1.49680
gfz2014hzdy  -1.17390
gfz2014hzfw  -2.66640
gfz2014inbj  -0.57190
gfz2014iobd  -1.66880
gfz2014itjx  -1.46130
gfz2014itkw  -1.65780
gfz2014itpj  -1.55360
gfz2014jjhc  -1.16810
gfz2014jnyv  -2.05270
gfz2014jomw  -2.13830
gfz2014jpep  -1.89280
gfz2014jwmh  -1.10200
gfz2014kbuk  -2.56150
gfz2014khlk   1.42110
gfz2014kitm  -0.90020
gfz2014kndc  -2.08270
gfz2014knks  -2.15950
gfz2014knxs  -1.84020
gfz2014kwrg  -1.59160
gfz2014kyan  -1.97980
gfz2014lddn  -1.93720
gfz2014ldhu  -1.37610
gfz2014lefs  -1.89460
gfz2014lgqn  -1.96800
gfz2014ljbr  -0.63240
gfz2014lxnc  -1.55670
gfz2014lyhk   0.67630
gfz2014macx  -1.53270
gfz2014madw  -3.25310
gfz2014niqj  -1.69740
gfz2014nowp  -0.97970
gfz2014npeo  -1.12950
gfz2014nphm  -1.57770
gfz2014nqfm  -2.02050
gfz2014nrie  -2.07170
gfz2014nyko  -1.97040
gfz2014nylm  -1.18730
gfz2014oinz  -1.84220
gfz2014owxc  -1.85370
gfz2014oxcc  -1.50870
gfz2014ppzf  -1.82890
gfz2014pvch  -1.80540
gfz2014qlxd  -1.59680
gfz2014qngj  -1.77300
gfz2014qqhm  -2.11630
gfz2014riel  -2.46400
gfz2014ssmv  -1.96830
gfz2014ssvz  -2.76980
gfz2014szzf  -0.66690
gfz2014tovs  -1.17320
gfz2014tqdo  -2.09950
gfz2014ubwn  -1.48490
gfz2014udgg  -1.81660
gfz2014vhms  -2.33040
gfz2014watn  -2.07710
gfz2014xqqd  -2.15370
gfz2015aruz  -2.12960
gfz2015atxv  -2.20730
gfz2015berb  -1.53740
gfz2015bkbj  -2.10390
gfz2015bucr  -3.16920
gfz2015chhn  -2.09160
gfz2015chqn  -1.64960
gfz2015cxhx  -1.28030
gfz2015cyjd  -2.07020
gfz2015dskr  -2.24470
gfz2015dvbn  -2.19740
gfz2015eeyq  -1.35590
gfz2015egxq  -3.18330
gfz2015eiky  -1.57720
gfz2015elgy  -1.94490
gfz2015etai  -2.18960
gfz2015eyqs  -1.10090
gfz2015fcua  -1.61950
gfz2015fjhk  -2.49460
gfz2015fkgt  -1.99440
gfz2015fkic  -2.00760
gfz2015flis  -2.21810
gfz2015fsjj  -1.45380
gfz2015gckd  -1.85430
gfz2015gkwa  -1.27500
gfz2015hgbk  -2.09510
gfz2015igsy  -0.50900
gfz2015iwqk   0.01900
gfz2015kxxs  -0.60820
gfz2015lfud  -1.92920
gfz2015lhjy  -1.43620
gfz2015ltii  -1.58470
gfz2015lytv  -3.61190
gfz2015mbgr  -2.45000
gfz2015mddr  -1.71820
gfz2015mpte  -2.44460
gfz2015nerz  -2.34320
gfz2015nqgf  -5.74430
gfz2015ntpk  -0.68720
gfz2015nuxz  -2.11890
gfz2015nwug  -1.63810
gfz2015ofsr  -1.37040
gfz2015oyfl  -1.60820
gfz2015pdri  -1.96560
gfz2015poni  -1.60350
gfz2015qnho  -1.75200
gfz2015quzo  -1.45330
gfz2015sfdd  -2.00190
gfz2015sfdl  -1.53690
gfz2015sfdy  -1.13910
gfz2015sfeo  -1.92190
gfz2015sfga  -2.57050
gfz2015sfhz  -1.75850
gfz2015sfiq  -2.53670
gfz2015sfnb   0.03260
gfz2015sfno  -1.98540
gfz2015sfnv  -1.56070
gfz2015sfoc  -2.45680
gfz2015sfpj  -1.11770
gfz2015sfqo  -1.73620
gfz2015sfqr  -1.51630
gfz2015sfsi  -0.24870
gfz2015sfwf  -1.37050
gfz2015sgad  -1.74430
gfz2015sgyd  -1.14320
gfz2015shhg  -0.83380
gfz2015shsz   1.76580
gfz2015sitn  -1.44760
gfz2015sjbx  -1.45810
gfz2015sjgk  -1.39460
gfz2015sjne  -2.14310
gfz2015sjoj  -1.30830
gfz2015sjvu  -0.69190
gfz2015skxu  -1.45870
gfz2015smym  -1.53410
gfz2015snsf  -1.96740
gfz2015snwh  -2.05180
gfz2015snyd  -1.60830
gfz2015soat  -1.41730
gfz2015soxc  -2.04430
gfz2015srat  -1.20400
gfz2015stfy  -0.87600
gfz2015svwm  -1.87820
gfz2015szcb  -2.02600
gfz2015taml  -1.88040
gfz2015tbdn  -1.14810
