# Nsamples: 1533  MAD:  0.678  mean:  0.277  variance:  0.950
gfz2010aban   2.65280
gfz2010aerk   0.97780
gfz2010ahqi   0.58650
gfz2010aykj  -0.59040
gfz2010bfzs  -0.74200
gfz2010bgth   0.39160
gfz2010bhhq   0.57930
gfz2010bifb  -0.72760
gfz2010bjeb   0.00410
gfz2010bjjx   0.40580
gfz2010bjsl  -0.41350
gfz2010bkob   0.24740
gfz2010bowy   0.08560
gfz2010boxo   1.78120
gfz2010bpda  -0.00000
gfz2010bxxs   0.60060
gfz2010caft   0.11980
gfz2010cbkg  -0.08610
gfz2010cdbt   1.71040
gfz2010chnv   1.64670
gfz2010cind   1.24290
gfz2010civi  -0.34690
gfz2010ckeu  -0.37720
gfz2010ckzm   0.60480
gfz2010cnwc  -1.55650
gfz2010cqwl   0.89710
gfz2010cres   0.31390
gfz2010ctuw  -1.25400
gfz2010czps  -1.26040
gfz2010ddzo   1.01410
gfz2010dejx   1.39360
gfz2010dfru   1.33590
gfz2010diqn   1.21710
gfz2010dlgc   0.87840
gfz2010dtmx   0.36060
gfz2010dumm  -0.08450
gfz2010eaoy  -0.36880
gfz2010eapn   0.02000
gfz2010eaqe  -0.00000
gfz2010eaqx   0.74790
gfz2010eaqy  -0.44500
gfz2010earu  -0.72720
gfz2010easf   1.41940
gfz2010eask  -7.70540
gfz2010easo  -0.45010
gfz2010easu  -0.14240
gfz2010eati   0.30200
gfz2010eato   0.25450
gfz2010eatt  -1.14340
gfz2010eaty   0.70480
gfz2010eaul   0.84420
gfz2010eavs  -0.55230
gfz2010eawb  -0.08710
gfz2010eawu  -8.92630
gfz2010eaxa   0.63570
gfz2010eaya  -1.42980
gfz2010eayd  -0.28390
gfz2010eayp  -0.18610
gfz2010eayx   0.30900
gfz2010eaze   0.55570
gfz2010eazu  -3.40370
gfz2010ebbd  -0.37050
gfz2010ebbx  -1.94090
gfz2010ebby   1.76430
gfz2010ebdl   0.38360
gfz2010ebeh  -0.32730
gfz2010ebek   0.33020
gfz2010ebfa   0.12750
gfz2010ebfx   0.22100
gfz2010ebgj   0.35080
gfz2010ebhc   0.93090
gfz2010ebih  -0.72460
gfz2010ebin  -2.15010
gfz2010ebiv   1.15780
gfz2010ebjy  -0.42910
gfz2010ebkj  -0.59140
gfz2010ebla   0.64200
gfz2010ebll  -0.10200
gfz2010ebmb  -0.00000
gfz2010ebmi  -0.07790
gfz2010ebnn  -0.16220
gfz2010ebqt   0.33270
gfz2010ebrm   0.06370
gfz2010ebsv   0.93480
gfz2010ebvm   0.53110
gfz2010ebvv  -0.33310
gfz2010ebwp   0.15340
gfz2010ebxl   0.26360
gfz2010ebze   0.20120
gfz2010ebzk   0.25490
gfz2010ebzr  -0.10900
gfz2010ecam  -0.21440
gfz2010ecay  -0.00000
gfz2010ecbi  -0.23570
gfz2010eccq   1.08310
gfz2010ecdu  -0.55890
gfz2010eced   1.13340
gfz2010ecft  -0.48180
gfz2010ecfx   0.36510
gfz2010ecgh   1.09140
gfz2010echc   0.22680
gfz2010echt   0.28620
gfz2010echy   1.34030
gfz2010ecka  -0.35510
gfz2010ecls  -0.35340
gfz2010ecml  -0.68630
gfz2010ecns  -0.53760
gfz2010ecps   0.21120
gfz2010ecro  -0.26260
gfz2010ecsp   0.45200
gfz2010ectq  -0.10990
gfz2010ecua  -0.76770
gfz2010ecuv   0.71790
gfz2010ecvt   0.49040
gfz2010ecyr   0.34590
gfz2010edad   0.76850
gfz2010edat  -0.00000
gfz2010edbz   0.77420
gfz2010edcp   0.40740
gfz2010edde  -0.42850
gfz2010edhr   0.53610
gfz2010edhv   0.71300
gfz2010edim  -0.26050
gfz2010edkp  -0.03420
gfz2010edoq   0.06130
gfz2010edpb   0.08870
gfz2010edqd  -0.11060
gfz2010edsk   0.45700
gfz2010edsn   1.19030
gfz2010edun  -0.41500
gfz2010edvf   0.36670
gfz2010edyi  -1.46910
gfz2010edzb   0.32440
gfz2010eedu  -0.66130
gfz2010eefh   0.29390
gfz2010eefo  -0.35830
gfz2010eegn  -0.84660
gfz2010eeia   0.43800
gfz2010eeij   0.26090
gfz2010eekg   1.64260
gfz2010eekq  -0.23620
gfz2010eeng   0.49590
gfz2010eerh  -0.11530
gfz2010eern   0.34000
gfz2010eesf   0.26650
gfz2010eevu  -0.20690
gfz2010eexz  -0.13780
gfz2010eeyh   0.80600
gfz2010efak   0.60840
gfz2010efbh   0.02180
gfz2010efbi   0.22360
gfz2010efls   0.74850
gfz2010efnf   0.02170
gfz2010efsq  -0.22920
gfz2010efwo  -0.12320
gfz2010egap  -0.12010
gfz2010eghq   0.30890
gfz2010egld   0.48710
gfz2010egln  -0.10070
gfz2010egmp   0.89550
gfz2010egqh  -0.78120
gfz2010egsw   0.73540
gfz2010egsy   0.22320
gfz2010egyy   0.06370
gfz2010ehaj   0.19720
gfz2010ehft  -0.48530
gfz2010ehnl   0.51630
gfz2010ehsy   0.81170
gfz2010ehvj   0.40580
gfz2010ehwg  -1.28500
gfz2010ehxz   0.79720
gfz2010eioi  -0.12740
gfz2010eisx  -1.49850
gfz2010eixj  -0.81650
gfz2010ejco   0.23420
gfz2010ejjg  -0.47960
gfz2010ejju   0.59720
gfz2010ejka  -0.05960
gfz2010ejma   0.13060
gfz2010ejxf   0.73720
gfz2010ekaw   0.43180
gfz2010ekoe  -0.42810
gfz2010ekrv  -0.16800
gfz2010ekyc  -0.45470
gfz2010elhv  -0.43580
gfz2010elin  -0.67060
gfz2010eljf  -0.58910
gfz2010elsw  -0.98160
gfz2010eltf  -0.07370
gfz2010elvp   0.58680
gfz2010elyc  -2.20590
gfz2010elyo  -0.54080
gfz2010elzf   0.10930
gfz2010elzl   1.15300
gfz2010emoz  -0.06060
gfz2010emyz  -0.04440
gfz2010encm   5.21730
gfz2010ensu  -0.46090
gfz2010enzl   0.52210
gfz2010eoao  -6.19280
gfz2010eohh   2.86880
gfz2010epbe   0.59820
gfz2010epxj  -0.17330
gfz2010epzk   0.45880
gfz2010eqcn  -0.22500
gfz2010eqjg  -0.13160
gfz2010eqmu  -4.34200
gfz2010eqse   1.44440
gfz2010eqwl   2.08930
gfz2010erdi   0.88880
gfz2010erig   0.37410
gfz2010erkn   0.71360
gfz2010erna  -0.13830
gfz2010erom  -0.35740
gfz2010erum   0.54270
gfz2010eruy  -0.09160
gfz2010erwn  -0.31790
gfz2010erxk   1.27540
gfz2010esid   0.19040
gfz2010esmg   0.51380
gfz2010euae   0.36320
gfz2010euan   0.21670
gfz2010euii   0.34640
gfz2010eujm  -0.64350
gfz2010euvl   0.28390
gfz2010euwb  -3.65850
gfz2010euxe   0.96900
gfz2010evco  -0.77090
gfz2010evgf  -0.00000
gfz2010evjv   1.28550
gfz2010ewbc   1.01550
gfz2010ewvc  -0.89090
gfz2010ewyu   0.45810
gfz2010excp  -0.84310
gfz2010exdd  -0.76710
gfz2010exdl  -1.41710
gfz2010exed   0.38060
gfz2010exel   0.59600
gfz2010exgb   0.09580
gfz2010exhd   0.02980
gfz2010exhw  -0.79220
gfz2010exjw   0.20260
gfz2010exlm   0.16250
gfz2010exmc  -0.51150
gfz2010exno  -0.42880
gfz2010exou   0.43270
gfz2010exqu  -0.42440
gfz2010exts   2.49020
gfz2010exyp   0.25590
gfz2010eyaz   2.70400
gfz2010eybj   2.46910
gfz2010eyhh   0.02740
gfz2010eyiv  -0.22840
gfz2010eymr   0.57150
gfz2010eymx   0.66300
gfz2010eyqe  -0.01880
gfz2010eyvq  -0.09090
gfz2010ezax   0.24390
gfz2010ezck   0.08070
gfz2010ezig  -1.12530
gfz2010ezvg  -0.87560
gfz2010ezvt   0.68790
gfz2010ezwz   0.21020
gfz2010ezxd   0.36120
gfz2010faeu  -0.94760
gfz2010falm   0.05740
gfz2010fauz  -0.48560
gfz2010faxg  -1.22300
gfz2010fbeu   0.34300
gfz2010fbpi  -0.84230
gfz2010fcax  -0.55670
gfz2010fcdw   0.18480
gfz2010fciw  -0.49450
gfz2010fcnn   0.15130
gfz2010fcnt   0.04970
gfz2010fcxy   0.33280
gfz2010fcyj  -0.40930
gfz2010fczt  -0.05110
gfz2010fdab   0.50150
gfz2010fdxr   2.62730
gfz2010fedq  -1.33430
gfz2010fefr  -0.88770
gfz2010fexw   0.53130
gfz2010ffhq  -0.48350
gfz2010ffjb   0.72750
gfz2010ffui   0.16550
gfz2010figq  -0.03400
gfz2010fihj  -0.41730
gfz2010fika   0.30690
gfz2010fixr   0.57300
gfz2010fjal   0.11380
gfz2010fjas  -0.15120
gfz2010fjmu   0.54020
gfz2010fjni   1.41300
gfz2010fkia   1.84030
gfz2010fknh   0.48940
gfz2010fkvg  -0.30560
gfz2010flha  -0.64860
gfz2010flrt   0.04070
gfz2010flxi  -0.36910
gfz2010fmhb  -0.20860
gfz2010fmwb  -1.33690
gfz2010fneu  -0.34840
gfz2010fnrk   1.11040
gfz2010fpmv  -0.11510
gfz2010fpqy  -0.01890
gfz2010fqdu  -0.14410
gfz2010fser  -0.04270
gfz2010ftlm  -0.04740
gfz2010fupn   0.00000
gfz2010fuuy   0.97290
gfz2010fwlb   1.19890
gfz2010fwny   0.57910
gfz2010fwpv   0.03310
gfz2010fwzd   1.14240
gfz2010fyed  -0.02250
gfz2010fyen   0.03370
gfz2010fync  -0.23130
gfz2010fzoi  -0.06860
gfz2010fzsg  -0.80790
gfz2010gcdn   0.28190
gfz2010gcrl  -0.40990
gfz2010gcrp   0.76830
gfz2010gdch   1.62010
gfz2010gdld  -0.06970
gfz2010ghyk  -0.33880
gfz2010gjia  -0.53800
gfz2010gjvo  -0.25820
gfz2010glxl  -0.92680
gfz2010gmib   0.69450
gfz2010govu   1.49060
gfz2010grjd   1.43470
gfz2010grss  -2.01250
gfz2010gslu  -0.42820
gfz2010gtqs   0.48720
gfz2010gtzt   1.49120
gfz2010gymo  -0.04370
gfz2010gyqp  -0.68460
gfz2010gzxr   0.11500
gfz2010hbka   1.12160
gfz2010hcio  -0.24520
gfz2010hevz  -0.26390
gfz2010hgld   0.09610
gfz2010hhls   1.66230
gfz2010hjoc   0.30250
gfz2010hllj  -0.68370
gfz2010hlln  -0.08090
gfz2010hlmq  -0.18140
gfz2010hlvr   0.83340
gfz2010hmhm  -0.12620
gfz2010hndk   0.91520
gfz2010hnnf   0.11470
gfz2010hnpi   0.48660
gfz2010homc   0.75950
gfz2010hptz   0.61820
gfz2010hrkr   1.02020
gfz2010hrpr   0.51670
gfz2010htdq   0.69340
gfz2010hxbs   1.21490
gfz2010hxgv   0.09560
gfz2010hxhe   1.41730
gfz2010hzar   0.66530
gfz2010ibiy   0.93410
gfz2010iciq   0.68210
gfz2010icqq   1.34600
gfz2010iimu   0.60880
gfz2010ijtk   0.10680
gfz2010imfv   1.20240
gfz2010imsh   1.03510
gfz2010iobp  -0.69480
gfz2010iphd  -0.56190
gfz2010ipsg  -0.14130
gfz2010iqep  -1.34850
gfz2010iqfm   0.74430
gfz2010iqus   2.76650
gfz2010irqr   0.32530
gfz2010irvf  -0.16070
gfz2010ited  -0.56350
gfz2010itpb  -0.50640
gfz2010iull   0.21000
gfz2010izzj   0.08290
gfz2010jagd   0.51260
gfz2010jatq   0.04420
gfz2010jhie  -0.05400
gfz2010jipf   0.17640
gfz2010jkxj  -1.38880
gfz2010jpss   0.34510
gfz2010jqxx   0.04010
gfz2010jssh   0.51340
gfz2010jsuh  -3.06670
gfz2010jsuo   0.04190
gfz2010jucj  -2.26090
gfz2010jwpy  -1.44870
gfz2010jxbm  -0.45220
gfz2010jygz   0.80070
gfz2010jzku   0.61240
gfz2010kcoo   0.76370
gfz2010kdyc  -0.65430
gfz2010kgws  -0.09940
gfz2010kihf  -1.48030
gfz2010kjmp   0.97200
gfz2010kmgg   0.04370
gfz2010lczp  -0.20240
gfz2010lepw   1.63230
gfz2010lfju   1.26800
gfz2010lgwy   1.08670
gfz2010liqs  -0.56750
gfz2010lkcf  -0.17930
gfz2010lopz   0.69240
gfz2010lrlk   0.40080
gfz2010lyfk   0.09030
gfz2010mdpq  -0.31490
gfz2010mgss   0.98400
gfz2010miil   0.12490
gfz2010mipi  -1.78910
gfz2010miqn  -0.12490
gfz2010mkuu   0.66910
gfz2010mlkz  -0.02000
gfz2010mlta  -0.36010
gfz2010mncc  -0.23460
gfz2010mnhm   1.21580
gfz2010mnsz   2.09700
gfz2010moyw  -0.83840
gfz2010mpuy  -0.57110
gfz2010msjj   0.16410
gfz2010mtab  -0.27270
gfz2010muca   0.65530
gfz2010mwdq   0.08080
gfz2010mzjr   1.14590
gfz2010ncrl  -0.37190
gfz2010ndxl   0.66480
gfz2010nfsj   0.21850
gfz2010nlkh  -0.07190
gfz2010nmpc  -1.42150
gfz2010nnny   1.43540
gfz2010nqwf   0.37850
gfz2010nqwo   0.35350
gfz2010nrjo   0.68930
gfz2010nsck  -1.01260
gfz2010nsdf   2.01380
gfz2010nsjs   0.75690
gfz2010ntuo   0.11310
gfz2010nubk  -0.00760
gfz2010nwef   0.30050
gfz2010nxsy   0.17950
gfz2010nxum   0.19290
gfz2010nzla   1.14490
gfz2010ocxq   0.43980
gfz2010odpb   0.72650
gfz2010oedn   0.67860
gfz2010okdm  -0.04320
gfz2010oluw   0.41790
gfz2010omla   0.67150
gfz2010onma   0.37520
gfz2010otbn  -0.32310
gfz2010oyqy  -0.85180
gfz2010pbdz   0.63510
gfz2010pcxi  -0.08760
gfz2010pdtk   0.46430
gfz2010pets   1.07010
gfz2010pewa  -0.19010
gfz2010pewx   0.98050
gfz2010pexf   0.52500
gfz2010pfyu   0.36450
gfz2010phvg  -0.35750
gfz2010plbg  -1.18250
gfz2010pmqd  -0.02820
gfz2010pqck  -0.44830
gfz2010pxak   0.62210
gfz2010pxgh   0.40820
gfz2010pxls   1.11270
gfz2010qbng  -0.52410
gfz2010qitd   1.15440
gfz2010qjst   0.55560
gfz2010qpcq   0.77510
gfz2010qpum   0.40780
gfz2010qpvi   1.03020
gfz2010qwwx   0.26060
gfz2010rhas  -0.73990
gfz2010rkfp   0.29130
gfz2010rlbv   5.75320
gfz2010rqwj  -0.80810
gfz2010rzrr   0.08760
gfz2010rzsd   1.48180
gfz2010sfee   0.65310
gfz2010sfla  -0.06470
gfz2010sgzk  -0.80090
gfz2010skqo  -0.48970
gfz2010skve  -0.32130
gfz2010srdb  -0.41720
gfz2010suww   0.58350
gfz2010svtn   0.00920
gfz2010svve   1.77520
gfz2010swcy   0.21370
gfz2010sxfq  -0.02160
gfz2010sxwt  -0.16230
gfz2010szde  -0.25370
gfz2010szim  -0.12190
gfz2010tcbr   0.00000
gfz2010tcrl  -0.21520
gfz2010titk   1.01280
gfz2010tlfm   0.38750
gfz2010truw   0.09330
gfz2010txjs   0.80560
gfz2010uept   1.04790
gfz2010upfb  -0.57780
gfz2010upiw   3.30500
gfz2010urlq   1.41420
gfz2010usho   0.59320
gfz2010ustq   0.29920
gfz2010utcg   0.05530
gfz2010utmc   0.52310
gfz2010uvhf   0.36010
gfz2010uyhb  -1.37110
gfz2010uzon   0.19990
gfz2010veri  -0.46600
gfz2010vhuj   0.29350
gfz2010vppc   0.72300
gfz2010vtdg   0.54680
gfz2010vyxd   0.66870
gfz2010vzpr   0.35650
gfz2010wioh  -0.09920
gfz2010wnty   1.08010
gfz2010wntz  -0.94790
gfz2010wofs  -0.23500
gfz2010wrxx   1.18630
gfz2010wxqa   0.29240
gfz2010xbcr   0.65960
gfz2010xbdv  -0.74730
gfz2010xbgs   1.00920
gfz2010xcdh   0.80580
gfz2010xche   1.07960
gfz2010xcij  -0.45780
gfz2010xden   0.94050
gfz2010xgfc   0.99950
gfz2010xgzw  -0.00000
gfz2010xjck   0.31920
gfz2010xjsj   1.03110
gfz2010xmpr   0.79780
gfz2010xnxk   1.06580
gfz2010xxdb  -1.09490
gfz2010yjev  -0.93580
gfz2010ymfy   0.75480
gfz2010ymur  -0.24480
gfz2010yosr   0.68990
gfz2010yqqv  -0.03970
gfz2010yqwx   1.20510
gfz2011aatr   0.54320
gfz2011adjs  -0.93480
gfz2011adlj   0.52950
gfz2011adpw  -1.36930
gfz2011adqk   1.81290
gfz2011aeay   1.29760
gfz2011aldv   1.24480
gfz2011alip   0.59680
gfz2011alsa   0.55040
gfz2011anur  -0.36400
gfz2011aosc   0.24860
gfz2011aqxf   0.22680
gfz2011blsi  -3.26070
gfz2011bnzn   1.94730
gfz2011bpkd   0.77310
gfz2011bswz   1.98410
gfz2011ccpw   0.56070
gfz2011cfae   0.99610
gfz2011cndo   1.45940
gfz2011coxh   0.04530
gfz2011csju  -0.54970
gfz2011cvfg   0.19690
gfz2011cykd  -1.30390
gfz2011cylz  -0.37360
gfz2011cynl   0.62050
gfz2011cyre   1.46980
gfz2011cyuk  -0.37180
gfz2011czwj   0.38340
gfz2011dbev  -0.21480
gfz2011dbig  -0.62150
gfz2011dbon   0.18320
gfz2011dbwt   0.51050
gfz2011dcqb  -1.71580
gfz2011dcqf  -0.22040
gfz2011dddh  -0.14110
gfz2011deaf   0.05700
gfz2011dkyi   0.28070
gfz2011dlyx   0.62520
gfz2011dmat   0.68250
gfz2011dndz   1.51390
gfz2011dpaa   0.40420
gfz2011dpmx   0.33330
gfz2011dpqx   0.68410
gfz2011duyr   1.14770
gfz2011eayc   0.85630
gfz2011eazf   1.38230
gfz2011ecaj   0.06370
gfz2011edmm   0.95890
gfz2011eebc   0.01880
gfz2011ehzq  -0.11250
gfz2011ejlp   0.45470
gfz2011eltw   0.43390
gfz2011enva   0.08070
gfz2011eocc   2.49020
gfz2011etje   0.66310
gfz2011fdzv   1.01940
gfz2011fgvr  -0.25730
gfz2011fhag   0.50550
gfz2011fhbm   0.50880
gfz2011fhur   0.14750
gfz2011fkbn   0.28280
gfz2011flgj   0.69220
gfz2011fnsw   1.26380
gfz2011gbmx   0.04490
gfz2011gcwb  -0.10300
gfz2011gdgh  -0.47390
gfz2011ggvf  -0.08710
gfz2011ghky  -0.12690
gfz2011gkey  -0.40760
gfz2011gkzt  -0.64140
gfz2011gzbr  -0.00000
gfz2011haid   0.56300
gfz2011hbex   0.18690
gfz2011hbqk   0.71640
gfz2011hebt  -0.35210
gfz2011hfkj  -0.62460
gfz2011hlqw  -0.00000
gfz2011hlsa  -0.28080
gfz2011hlth   0.26910
gfz2011hpgx   0.09580
gfz2011hpqp  -0.39360
gfz2011hrhe   1.04430
gfz2011hryk   0.59170
gfz2011hsfj   2.01740
gfz2011hvbu  -0.22060
gfz2011icxe  -0.53040
gfz2011ieie   0.14810
gfz2011knoo   0.78060
gfz2011kqwo  -1.10560
gfz2011kqyg  -0.83280
gfz2011kwid   0.30260
gfz2011kwjx   0.07810
gfz2011kwkw   0.40930
gfz2011kwlq  -0.09960
gfz2011kwqc  -0.30870
gfz2011kxzp   0.25210
gfz2011lcxq   0.92430
gfz2011lczg   0.56940
gfz2011lgsg   0.17470
gfz2011lhls   1.08460
gfz2011lvjr   0.44840
gfz2011lzwj   0.87590
gfz2011mdie   0.46490
gfz2011mepc   0.10680
gfz2011mjom   0.77950
gfz2011mllx   0.24660
gfz2011mlvw   1.36770
gfz2011mpme   0.00000
gfz2011mprq   0.43610
gfz2011myia   0.52530
gfz2011nauw  -0.21280
gfz2011nmnq   0.66390
gfz2011noud   0.94820
gfz2011nqpd   0.42490
gfz2011nrwc   0.77110
gfz2011nrwv   1.97480
gfz2011nsex  -0.49300
gfz2011ntkh   0.48040
gfz2011ntrv   1.71410
gfz2011nudm  -0.44700
gfz2011ogqk   0.19320
gfz2011ohcy   0.59720
gfz2011oiqe   0.68910
gfz2011oiwk   1.03790
gfz2011olkk   1.16220
gfz2011oolr  -0.27960
gfz2011orgn   0.82350
gfz2011ornx   0.55800
gfz2011pccd   0.67660
gfz2011pdpt   0.97360
gfz2011pdst   0.80680
gfz2011phms   0.12680
gfz2011pntf  -0.18000
gfz2011ptus   0.09410
gfz2011qigx  -0.03590
gfz2011qvae   0.41070
gfz2011qyms   0.08590
gfz2011rabm   0.78640
gfz2011rdby  -3.92650
gfz2011rewa  -0.38560
gfz2011rgwp   0.14340
gfz2011rqui   0.39140
gfz2011rsrh  -0.41870
gfz2011sagt  -0.08120
gfz2011shqm  -0.04280
gfz2011stal   0.66690
gfz2011svix   0.50300
gfz2011tbas   0.41390
gfz2011tcij  -0.67480
gfz2011tivu   0.98530
gfz2011tjue   0.71800
gfz2011tkfp   1.72180
gfz2011tkog  -0.07640
gfz2011toub   1.03710
gfz2011tpbl   0.04300
gfz2011tpfr  -0.38520
gfz2011tsfd   0.31300
gfz2011tsnp   1.31420
gfz2011tuea   2.30020
gfz2011twov   1.03400
gfz2011udsq   1.00040
gfz2011uepx  -0.00000
gfz2011ugzz   0.61040
gfz2011ujze   1.02080
gfz2011ukmp   0.87830
gfz2011uphh   0.90920
gfz2011urxy   1.00610
gfz2011urzu   1.01630
gfz2011uzqv   1.31260
gfz2011vclt   0.90790
gfz2011vhfi   0.66780
gfz2011vldk  -0.42690
gfz2011vnza   1.35290
gfz2011vrhg  -0.37060
gfz2011vxns  -0.29840
gfz2011vxod  -0.59760
gfz2011vxxg   1.50120
gfz2011wcic   0.22170
gfz2011wfja   0.24570
gfz2011wjul   0.59930
gfz2011wtmq   0.27080
gfz2011wvzb   1.89660
gfz2011wwjs  -0.08090
gfz2011wxfs   1.27020
gfz2011wxoj   0.25870
gfz2011wxtk   0.63010
gfz2011wype   0.79750
gfz2011xaan  -1.55180
gfz2011xcpv   0.66470
gfz2011xesx   1.02870
gfz2011xqru  -1.65040
gfz2011xyxj   1.13460
gfz2011yfdx  -0.22130
gfz2011yfys   0.96370
gfz2011ytnu   1.06940
gfz2011yybo  -0.39430
gfz2011yzwq   0.15540
gfz2011zjap   0.43370
gfz2011zklv   1.12950
gfz2011zlrd   1.31580
gfz2011zqhh   0.63980
gfz2012ajtq   0.78470
gfz2012aqgp  -0.19690
gfz2012aqtq  -0.17700
gfz2012attr  -0.08540
gfz2012bfah  -0.02490
gfz2012bfyn   0.91810
gfz2012bpkx  -0.29330
gfz2012bpnl   0.07380
gfz2012bpwl   0.67830
gfz2012bqeb   0.60690
gfz2012brhv   0.96140
gfz2012bszs   0.79630
gfz2012byad   0.08020
gfz2012cgvr   0.28420
gfz2012cmfy  -0.03160
gfz2012cnod   0.86100
gfz2012covm   1.92390
gfz2012cqnl  -0.05690
gfz2012cxdn  -0.05070
gfz2012czlw   0.54740
gfz2012ddma   2.33190
gfz2012deri   0.21220
gfz2012dimn   0.76900
gfz2012dinb   1.89250
gfz2012dyyh   0.76910
gfz2012ekda  -0.28420
gfz2012ekzf   0.03520
gfz2012elce   0.45090
gfz2012emjg   1.35650
gfz2012enno   0.61990
gfz2012eskt   0.79920
gfz2012ewgo   0.99530
gfz2012fbfo   0.09240
gfz2012fhnh   0.75200
gfz2012fivh   2.88790
gfz2012foeo   1.08860
gfz2012fqcg   1.48610
gfz2012fwfo   0.64000
gfz2012fwob  -0.05140
gfz2012fwtr   1.64550
gfz2012fzfa  -0.08370
gfz2012fzsq   0.38580
gfz2012gcgn  -0.45350
gfz2012gill   0.10650
gfz2012gkvr   0.57150
gfz2012gnvh   1.36940
gfz2012gocc   0.30980
gfz2012gomm   1.99750
gfz2012gwqb   1.73170
gfz2012hdbm   0.49460
gfz2012hnul   0.73060
gfz2012hogg   1.05220
gfz2012holl   0.02020
gfz2012hwmz   1.64530
gfz2012hyaa   0.69730
gfz2012hzbe  -0.83770
gfz2012icmv   3.13680
gfz2012iffo  -0.02110
gfz2012ihdl   0.19320
gfz2012iivw   0.59950
gfz2012ilvn   0.07720
gfz2012imay   1.18040
gfz2012jgvj   0.55490
gfz2012jjzc   0.38840
gfz2012jlox   0.08170
gfz2012jqvn  -0.61080
gfz2012jshk   0.58790
gfz2012jupx  -0.21510
gfz2012jwhu  -0.57680
gfz2012kbzj   0.62790
gfz2012kdmb   0.51220
gfz2012keor  -0.66680
gfz2012kkcp  -0.66050
gfz2012kkup   0.23690
gfz2012klba   1.17930
gfz2012klhx   0.11400
gfz2012kuct   1.04500
gfz2012kudo   0.25420
gfz2012kvzv   0.23970
gfz2012kwgo   0.65150
gfz2012lczo  -0.72830
gfz2012ldgs   0.58450
gfz2012ldxg  -0.36720
gfz2012ldzj   0.26300
gfz2012lltr  -0.92990
gfz2012llug   1.84850
gfz2012lpvn  -0.06730
gfz2012lrol   0.29060
gfz2012lrsv   2.23250
gfz2012lsni  -1.63080
gfz2012lxkv  -0.43540
gfz2012mdmy  -0.46140
gfz2012minr   0.27770
gfz2012mkpn   0.02180
gfz2012mofm  -2.36980
gfz2012mpvy  -0.69860
gfz2012mpyl  -0.10600
gfz2012mupa   0.10250
gfz2012mvwr   0.27690
gfz2012mwij   1.96740
gfz2012myqa   0.31190
gfz2012naqz  -0.05850
gfz2012nedn  -0.82640
gfz2012ngic  -0.37760
gfz2012njha  -0.40200
gfz2012nkdf  -1.57370
gfz2012nojx  -0.47350
gfz2012nolo   0.63570
gfz2012nsbz   0.17820
gfz2012nutf  -0.00460
gfz2012nxog   0.11810
gfz2012nxyt   1.21460
gfz2012oazn   1.30440
gfz2012obgw   0.22810
gfz2012oedb   0.80950
gfz2012ofpe  -0.40410
gfz2012omvo  -0.85670
gfz2012oqmw  -0.06740
gfz2012ovqs   0.80690
gfz2012oycg  -0.54080
gfz2012pazr  -0.17640
gfz2012peki  -0.14360
gfz2012pgcl   0.20870
gfz2012pkel   0.18650
gfz2012plbw  -0.33160
gfz2012plea   1.26340
gfz2012pqlt  -1.04150
gfz2012pqmu  -0.01570
gfz2012priv   0.64080
gfz2012prlt  -0.37650
gfz2012qjhs   0.86010
gfz2012qqxg   0.17150
gfz2012qxcy   0.10200
gfz2012rats  -0.12300
gfz2012rcnj   1.30600
gfz2012repv   0.58370
gfz2012rjsd   0.22160
gfz2012ronz   0.06270
gfz2012royy   0.19270
gfz2012rqlg  -0.33710
gfz2012ruks   1.84320
gfz2012rwko   1.02150
gfz2012rwov  -0.72180
gfz2012rwql   0.69310
gfz2012rypu  -1.06000
gfz2012sfer  -0.38560
gfz2012snhi  -0.59640
gfz2012spbj   0.57170
gfz2012sphd   0.87700
gfz2012sqmv   0.19860
gfz2012ssyn   0.32720
gfz2012svpr   0.68420
gfz2012syvl   1.06810
gfz2012taou  -0.47730
gfz2012tazz   0.72670
gfz2012teic   0.70650
gfz2012tmop   0.39100
gfz2012tpzx   1.78190
gfz2012ttoa   0.92900
gfz2012tvmv   0.25740
gfz2012tzgb   1.86910
gfz2012uaqj   1.63140
gfz2012uciv   0.64080
gfz2012uhup  -0.20120
gfz2012ulpd   0.94450
gfz2012usba   0.53730
gfz2012uvqf   0.98330
gfz2012uyxb  -0.33880
gfz2012uzom  -1.36390
gfz2012vceo  -1.50500
gfz2012viab   0.29300
gfz2012vjgl  -0.05820
gfz2012vmeh  -0.65310
gfz2012vntz   0.39130
gfz2012vpza   1.83290
gfz2012vrgb   0.47640
gfz2012vrua   1.79560
gfz2012vxvr   0.50460
gfz2012wdyx   1.08770
gfz2012whku   0.51600
gfz2012wklq  -1.39230
gfz2012wmsg   0.01960
gfz2012wpeq   0.84660
gfz2012wrir  -0.30680
gfz2012wtkh   0.38370
gfz2012wtkr  -0.12890
gfz2012wubh   0.39170
gfz2012wvfl  -0.54100
gfz2012wxer   0.39320
gfz2012wxkg   0.58150
gfz2012wxnu   0.31480
gfz2012wybs   0.63560
gfz2012wypz   1.19400
gfz2012xbjq   0.41850
gfz2012xcgk  -0.35960
gfz2012xevt  -1.48880
gfz2012xjyv   0.12240
gfz2012xkkv  -0.20590
gfz2012xpmm  -0.22960
gfz2012xslk   0.38860
gfz2012xvwn  -0.16820
gfz2012xwqa  -0.57930
gfz2012xyqp   1.07220
gfz2012xyua  -1.29070
gfz2012yfrp  -0.46790
gfz2012yoie   1.48250
gfz2012yqjj  -0.55270
gfz2012yzod   2.52520
gfz2012zemh  -0.08410
gfz2012zemz   0.87750
gfz2012zfag   0.28340
gfz2012ziml  -0.06360
gfz2012zitl   0.16300
gfz2012zjpv   0.09350
gfz2012zklq   0.12460
gfz2012zmbp   0.36640
gfz2012zmln   0.40760
gfz2013aahq   0.32060
gfz2013aayj   0.38220
gfz2013acag  -0.93600
gfz2013adey   0.97130
gfz2013apmm   0.07450
gfz2013aqaw   0.68800
gfz2013bdpu   0.17970
gfz2013bnxc  -0.76040
gfz2013bobq   1.24100
gfz2013bokp   0.51120
gfz2013btjm   0.00000
gfz2013ccnr  -0.59130
gfz2013cdan   0.60490
gfz2013ciaf   0.33090
gfz2013cnve  -0.29550
gfz2013cvqg   0.26190
gfz2013cwpn   0.66790
gfz2013cwps   1.09990
gfz2013ddbh   0.12000
gfz2013dddp   0.24170
gfz2013diuf  -0.70350
gfz2013dofo  -0.71380
gfz2013dojq   0.96390
gfz2013dqls  -0.70160
gfz2013drpk   0.60790
gfz2013drxz  -0.73380
gfz2013dspt   0.56430
gfz2013dsrk   0.42090
gfz2013dvyh   0.47140
gfz2013egni  -0.17660
gfz2013egpu   0.10980
gfz2013ekpm   1.54200
gfz2013enbx  -1.91480
gfz2013erse   0.78020
gfz2013esnh  -0.79330
gfz2013ewbo   0.31190
gfz2013fdoo   2.35190
gfz2013fdwq   0.22530
gfz2013feep   0.16370
gfz2013fiud   0.79090
gfz2013fkcl   1.07800
gfz2013flox  -0.59040
gfz2013fwxa   0.46290
gfz2013fygc   0.65370
gfz2013gbcn   0.86470
gfz2013gbst   1.34610
gfz2013gcfx  -2.27000
gfz2013gdgf   0.09280
gfz2013gdnq   0.43020
gfz2013ggtf   0.14640
gfz2013gihf   0.12470
gfz2013gjdc  -0.96680
gfz2013glcr   0.65730
gfz2013gmor   1.23440
gfz2013gngz   1.18270
gfz2013gock   0.41070
gfz2013goux   1.38010
gfz2013govy   0.22620
gfz2013gras   1.01160
gfz2013gvex   0.79280
gfz2013gwrd   1.18940
gfz2013gxsu  -0.87930
gfz2013hbkh  -0.94020
gfz2013hbkq   2.38410
gfz2013hdnc   0.19530
gfz2013hfmp   0.03730
gfz2013hkja   0.37930
gfz2013hklr  -1.74510
gfz2013hlbe  -0.00000
gfz2013hmbc  -0.52280
gfz2013hpfq   0.67410
gfz2013hudi   0.33430
gfz2013huwr   0.37970
gfz2013hxcx   0.57070
gfz2013iapa  -1.38050
gfz2013iayx   0.40300
gfz2013icfh  -0.30950
gfz2013idbb   0.35060
gfz2013iexo  -0.23150
gfz2013ifpq   1.63470
gfz2013igmx   1.24110
gfz2013ijsr   0.58950
gfz2013ikgo   0.20000
gfz2013ilug  -1.00840
gfz2013ippu   0.68790
gfz2013iqzq  -0.23740
gfz2013iunn   0.20060
gfz2013iyqz  -0.00000
gfz2013jesk  -0.14040
gfz2013jgij  -0.26160
gfz2013jgip   1.34630
gfz2013jjsi  -5.44690
gfz2013jkut   0.79730
gfz2013jphq  -0.35900
gfz2013jwvc   0.17210
gfz2013jxoi   0.80890
gfz2013kccc  -0.04300
gfz2013kdeo   0.30910
gfz2013kheb   0.92430
gfz2013khli   0.99530
gfz2013kilx   0.52550
gfz2013krei   0.03920
gfz2013kvtk   0.70220
gfz2013kwps   0.71050
gfz2013lajg   1.60580
gfz2013lbiu   0.01720
gfz2013ldpc   0.44230
gfz2013ldqb  -0.02200
gfz2013lgnl  -0.13930
gfz2013lixa   0.38570
gfz2013lljw   1.19500
gfz2013lmrs   0.44720
gfz2013lwbk   0.95380
gfz2013lyko  -1.11090
gfz2013lznu   1.64520
gfz2013malg   0.86910
gfz2013mmwq   0.57460
gfz2013mnei  -0.48280
gfz2013mnju  -0.04490
gfz2013mqik   0.53650
gfz2013mqmv   0.35230
gfz2013mwbh  -0.28750
gfz2013mxee   1.01840
gfz2013ncjp  -0.02030
gfz2013ndin   0.15370
gfz2013neuc   1.98740
gfz2013ngnt  -0.33780
gfz2013nixj   0.39970
gfz2013nkgj   0.30130
gfz2013nknw   0.43820
gfz2013nmac   1.01170
gfz2013nnzf   0.79820
gfz2013nppd  -0.89640
gfz2013nqgw  -0.64850
gfz2013nuor   2.39940
gfz2013nuvi   1.56960
gfz2013nwdi   0.03410
gfz2013oejn   0.24800
gfz2013ogde   0.26550
gfz2013oifr   0.54940
gfz2013oilg   0.03790
gfz2013oinc  -0.34040
gfz2013ojti   1.46960
gfz2013oqsc  -0.29120
gfz2013orjg   0.55290
gfz2013orzn   0.33040
gfz2013ozrf   0.46790
gfz2013ozrp   0.14960
gfz2013pcos  -3.16080
gfz2013pfbx   0.86240
gfz2013pfeb   0.57850
gfz2013pffm   1.09570
gfz2013pfnf   0.85460
gfz2013phef   0.13280
gfz2013pkbs   1.41700
gfz2013pndn   0.52330
gfz2013poxj   0.74360
gfz2013puag   0.52450
gfz2014lrzx   1.22180
gfz2014lurd   0.83090
gfz2014lvgn   0.77590
gfz2014lwom   0.20880
gfz2014lxnc   1.07060
gfz2014lxqr   2.71220
gfz2014lyhp   1.63310
gfz2014lynp   0.99750
gfz2014lzal   0.14570
gfz2014lzow   1.04200
gfz2014macx   0.50070
gfz2014madw   0.69310
gfz2014mcno   1.26560
gfz2014mcse   1.99430
gfz2014mioi   1.56770
gfz2014mlrr   1.68520
gfz2014moaw   0.87260
gfz2014mogb   0.67150
gfz2014mtum   0.31130
gfz2014mwnj   1.91170
gfz2014mwor  -0.29970
gfz2014ncub   0.76050
gfz2014nhyb   1.07420
gfz2014niqj  -3.07960
gfz2014nkdx   0.65010
gfz2014nnih   1.61950
gfz2014nnxd   0.27500
gfz2014nowp   0.71100
gfz2014npdk   0.41680
gfz2014npeo  -0.11500
gfz2014nphm   1.25960
gfz2014nqbs  -1.15510
gfz2014nqfm   0.61890
gfz2014nrie   0.55300
gfz2014ntdh   0.92870
gfz2014nvdi   1.24000
gfz2014nyeh   0.44470
gfz2014nyfb   1.01790
gfz2014nyko   1.48380
gfz2014nylm   0.92150
gfz2014odgv   1.06320
gfz2014ofhm   0.08210
gfz2014oinz   0.63570
gfz2014omyn   0.13870
gfz2014ooaa   2.75530
gfz2014oqhw  -0.02040
gfz2014orxs   0.64110
gfz2014oryw   0.35060
gfz2014osvx   0.75160
gfz2014owxc   0.29340
gfz2014oxcc   0.17710
gfz2014oyly   0.70460
gfz2014pjer   1.09650
gfz2014pkll  -0.16330
gfz2014ppzf   0.60920
gfz2014pqqp   3.12250
gfz2014pvch   1.14280
gfz2014pzml   1.18720
gfz2014pzni   0.98640
gfz2014qbzi   1.39010
gfz2014qfzq   0.34740
gfz2014qlvc   1.48820
gfz2014qlxd   0.55680
gfz2014qngj  -1.46500
gfz2014qqhm  -0.34260
gfz2014raau  -2.34940
gfz2014rdsn  -0.26360
gfz2014rfeb   0.83840
gfz2014rghp  -0.34310
gfz2014rhnz  -1.39210
gfz2014rhwq   0.85610
gfz2014riel   0.65850
gfz2014rils   0.25560
gfz2014roba   0.69980
gfz2014romy   0.21030
gfz2014rtcu   0.89860
gfz2014rwos   0.40220
gfz2014ryfb   0.26340
gfz2014sadu  -1.12930
gfz2014shid   1.39780
gfz2014sjqw   0.32670
gfz2014sptq   1.83530
gfz2014sryn  -0.17040
gfz2014ssds   1.05250
gfz2014ssmv  -0.22150
gfz2014ssvz  -0.23600
gfz2014swgt  -1.90110
gfz2014szzf   0.66500
gfz2014tabg   0.81620
gfz2014tfgn  -0.55700
gfz2014tovs   0.31480
gfz2014tqdo   0.47200
gfz2014tqly   0.27480
gfz2014tqsf   0.56070
gfz2014tqth   0.57330
gfz2014tzsd   0.48370
gfz2014uapa  -0.16930
gfz2014ubwn   1.07750
gfz2014ubyq   0.13490
gfz2014udgg  -0.13000
gfz2014uohh   0.36360
gfz2014utac   0.04100
gfz2014uuuf  -0.29370
gfz2014uvji   0.36930
gfz2014uvrk  -2.77200
gfz2014uyrq   2.06510
gfz2014vcev  -0.27280
gfz2014vdnh  -0.16650
gfz2014veit   1.24930
gfz2014vhld   0.92550
gfz2014vhms   0.31510
gfz2014vjoz   0.65420
gfz2014vnxu  -1.13350
gfz2014vpus   0.28590
gfz2014vqqa   0.19830
gfz2014waoo   0.25040
gfz2014watn   0.63220
gfz2014wjko   0.36010
gfz2014wmsc   0.04210
gfz2014wqcp   0.78900
gfz2014wrkh   0.45170
gfz2014wsjh  -0.86710
gfz2014wwib  -0.24790
gfz2014xaxx   0.24810
gfz2014xbyr   1.11450
gfz2014xhkc   0.43350
gfz2014xhwk   1.11900
gfz2014xjri   0.54460
gfz2014xkdg   0.32110
gfz2014xmnp   1.70460
gfz2014xoji   1.08290
gfz2014xqby   0.42850
gfz2014xqqd  -0.00000
gfz2014yhhm   0.86910
gfz2014ynhc  -0.62400
gfz2014ynzy   1.94690
gfz2014yppv   1.34760
gfz2014yrug   0.91170
gfz2014yula  -0.14060
gfz2014yyiy   0.32940
gfz2014zcgo   1.96580
gfz2014zdtl   2.03110
gfz2014zkys   0.81140
gfz2014zlgp   0.39460
gfz2015abpw   0.24680
gfz2015aide  -7.08880
gfz2015ansu  -2.29850
gfz2015apnk   0.85070
gfz2015aqbq   0.04170
gfz2015arpd   0.29670
gfz2015aruz   0.46160
gfz2015atxv   0.53050
gfz2015aush   0.49120
gfz2015azzp   0.30040
gfz2015bavu  -3.90850
gfz2015bdyd   0.06170
gfz2015berb   0.90620
gfz2015bfjm   0.43270
gfz2015bkbj   0.52600
gfz2015bnho   0.96320
gfz2015bphe   1.77480
gfz2015bsnl  -0.04800
gfz2015bucr   0.68720
gfz2015cewd  -2.00980
gfz2015chhn  -0.53170
gfz2015chqn   0.71150
gfz2015clrp   0.85590
gfz2015cxhx   0.33130
gfz2015cxrc   0.76740
gfz2015cxxk   0.74830
gfz2015cyjd   0.71700
gfz2015czfv   0.60430
gfz2015dadj  -2.73410
gfz2015ddhl   2.95110
gfz2015dizn  -1.10500
gfz2015djts   0.44090
gfz2015drlk  -0.67170
gfz2015dskr   0.60610
gfz2015dvbn   0.50710
gfz2015ednc   2.17160
gfz2015eeyq   1.06860
gfz2015eezy   1.01080
gfz2015egbk  -1.51580
gfz2015egxq   0.59730
gfz2015ehpz   1.49220
gfz2015eiky   1.38000
gfz2015elgy  -0.33830
gfz2015eljz  -0.36080
gfz2015emtg   0.52830
gfz2015fkbc   2.16470
gfz2015fkgt   0.15140
gfz2015fkjs  -2.19700
gfz2015flis   0.55780
gfz2015fsjj   1.08570
gfz2015fvoi   1.21140
gfz2015fwkq   0.99530
gfz2015fwnf   1.07140
gfz2015fxbv   1.05250
gfz2015fxdi   0.31910
gfz2015fyvk  -0.10560
gfz2015gckd   0.45610
gfz2015ggjw   0.87280
gfz2015gjbr   0.79510
gfz2015gkwa   0.48210
gfz2015gmgf   0.96120
gfz2015gnmy   0.76800
gfz2015gwao   1.50390
gfz2015gzja   0.18410
gfz2015hdbn   2.11040
gfz2015hdcp   0.12680
gfz2015hgbk   0.81030
gfz2015hhbd   1.56880
gfz2015hlfq  -2.51140
gfz2015hlqo   0.42640
gfz2015hpmk   1.01400
gfz2015hslo   1.92450
gfz2015hwkv   0.77030
gfz2015idho   0.66050
gfz2015iele   0.43470
gfz2015igsy   1.63840
gfz2015ijmh  -1.86950
gfz2015imty   0.37270
gfz2015imyp   2.40960
gfz2015isim   1.09600
gfz2015ixyy  -0.11550
gfz2015jkdw   0.15090
gfz2015jmlf   0.23230
gfz2015jmlu   1.64430
gfz2015jpap  -2.07430
gfz2015jwgl  -0.24740
gfz2015jxbx   0.11030
gfz2015jxjd   0.95240
gfz2015jzcv   0.43050
gfz2015kakw   0.49390
gfz2015kalm   0.71860
gfz2015kcaa   0.90500
gfz2015kkqb   1.44620
gfz2015kkth   0.34560
gfz2015kphk   1.24990
gfz2015kquq   1.35110
gfz2015ksni  -0.06800
gfz2015kvwz   0.48600
gfz2015lcma   0.36650
gfz2015lcuo   2.66800
gfz2015lfma   0.91420
gfz2015lfos   0.13660
gfz2015lfud   0.68160
gfz2015lhjq   0.50370
gfz2015lhjy   1.09550
gfz2015ltii   0.82650
gfz2015ltro   1.83490
gfz2015lytv  -1.32430
gfz2015lzad   1.37480
gfz2015mddr   0.99660
gfz2015mfpy   0.67710
gfz2015mhym   0.48840
gfz2015micz   1.44160
gfz2015nuxz  -0.52560
gfz2015okmq   0.89260
gfz2015okpu   0.87270
gfz2015omab   0.58780
gfz2015orkl   0.61150
gfz2015oyfl   0.29940
gfz2015pcvt   0.22410
gfz2015pdri   1.24470
gfz2015pjgr  -0.43720
gfz2015plal   0.62740
gfz2015poni   0.09390
gfz2015puah  -0.27940
gfz2015puqp  -0.04920
gfz2015qafb  -0.07340
gfz2015qbme  -1.04750
gfz2015qiit   0.76310
gfz2015qnde   2.67310
gfz2015qnho   0.02470
gfz2015qnlv   0.47980
gfz2015qnto   0.18160
gfz2015qols   1.00650
gfz2015qprd   0.25990
gfz2015qpvd   0.27290
gfz2015quzo   0.69530
gfz2015rddx   0.33130
gfz2015rgov   1.04200
gfz2015rgrg   0.38200
gfz2015rkbq   0.92690
gfz2015rkrg   0.18160
gfz2015rkzg   0.76900
gfz2015rpzn  -0.99960
gfz2015rtnv   1.53250
gfz2015rwsb  -0.35710
gfz2015rxmg  -0.07360
gfz2015saet   2.03690
gfz2015sdeo   0.71850
gfz2015sdfy   0.60380
gfz2015seuf   0.85220
gfz2015sevh   0.69100
gfz2015sfdd  -0.61990
gfz2015sfdy   0.27370
gfz2015sfeo  -0.99740
gfz2015sffn  -0.66530
gfz2015sfga  -0.02180
gfz2015sfho   0.89840
gfz2015sfhz  -0.27660
gfz2015sfiq   0.35470
gfz2015sfjf  -1.24440
gfz2015sfkh   0.03450
gfz2015sfko  -0.12150
gfz2015sfks   0.69140
gfz2015sfkz  -0.02160
gfz2015sflf   0.19180
gfz2015sfln   0.12300
gfz2015sfmd   2.09630
gfz2015sfnb  -0.27990
gfz2015sfno  -0.62010
gfz2015sfnv  -0.13680
gfz2015sfoc  -0.40880
gfz2015sfoh   0.33360
gfz2015sfoq   1.14070
gfz2015sfps  -0.06280
gfz2015sfqo  -0.02210
gfz2015sfqr  -0.19760
gfz2015sfrc  -0.92430
gfz2015sfrf   0.91170
gfz2015sfsi   1.99590
gfz2015sfte   0.11630
gfz2015sftu   0.06130
gfz2015sfuz   0.26410
gfz2015sfwf   0.86270
gfz2015sfxn   0.17370
gfz2015sfzm   0.56430
gfz2015sgad   0.37170
gfz2015sgmm   0.56530
gfz2015sgmr   0.80300
gfz2015sgna   0.79800
gfz2015sgxc  -0.98480
gfz2015sgyd   0.22810
gfz2015shaq   0.13150
gfz2015shhg   0.69340
gfz2015shhu   0.59500
gfz2015shjn  -0.23760
gfz2015shjo   0.13140
gfz2015shqc  -1.84220
gfz2015shqe  -1.61460
gfz2015shrg   0.08550
gfz2015shsb   0.20610
gfz2015shsz   0.51890
gfz2015siky  -0.23220
gfz2015sing   0.34880
gfz2015siof   0.27110
gfz2015sist   1.34820
gfz2015sitn   0.27900
gfz2015sixi   0.46430
gfz2015sixs   0.81970
gfz2015siyy   0.41580
gfz2015sjbx   0.82490
gfz2015sjeq   1.32660
gfz2015sjfi   1.43380
gfz2015sjgk  -0.07100
gfz2015sjjb   0.47140
gfz2015sjne  -0.32980
gfz2015sjoj  -0.11240
gfz2015sjpn   0.12430
gfz2015sjtz   0.75680
gfz2015sjvu   0.15050
gfz2015sjwi  -0.41270
gfz2015skab  -0.52240
gfz2015skgj   0.16440
gfz2015sklu   0.46200
gfz2015skpv   0.38770
gfz2015skuk   0.33280
gfz2015skxu   0.29210
gfz2015sldx  -0.56960
gfz2015slfn   0.62070
gfz2015sljs   0.59870
gfz2015slun  -0.33730
gfz2015smgj  -0.06590
gfz2015smym  -0.40930
gfz2015snhn  -1.68340
gfz2015snmg   0.84610
gfz2015snmr  -0.22980
gfz2015snsf  -0.30190
gfz2015snwh  -1.05980
gfz2015snyd  -0.12510
gfz2015soat   0.34710
gfz2015sopc   1.21260
gfz2015sowu   0.96300
gfz2015soxc  -0.50970
gfz2015sqbg   0.68690
gfz2015sqmy   0.29860
gfz2015sqvx   0.50480
gfz2015srat   0.57040
gfz2015sspn   0.01990
gfz2015ssrl   0.89300
gfz2015stfy   0.43110
gfz2015stso   0.78120
gfz2015subz   0.77120
gfz2015susq  -0.28820
gfz2015svjy   0.20180
gfz2015svwm  -0.47660
gfz2015swgn  -0.18700
gfz2015sxmh   0.53860
gfz2015sydc  -1.46140
gfz2015szcb   0.13240
gfz2015szfe   0.61370
gfz2015sztx  -0.08240
gfz2015taml   0.19170
gfz2015tbdn   0.97110
gfz2015tchx   0.61300
gfz2015tdcu  -0.32210
gfz2015teje  -0.39340
