# Nsamples: 1253  MAD:  0.652  mean: -0.246  variance:  0.717
gfz2010czps  -1.71300
gfz2010ddzo   1.52000
gfz2010dfru   0.28050
gfz2010dlgc   0.30690
gfz2010ebgj  -0.40020
gfz2010ebhc   0.30700
gfz2010ebiv   0.09600
gfz2010ebjy  -0.75130
gfz2010ebll  -0.25680
gfz2010ebmb  -0.85110
gfz2010ebmi  -0.55850
gfz2010ebqt   0.23050
gfz2010ebvm  -0.61780
gfz2010ebvv  -0.72870
gfz2010ebwp  -0.54260
gfz2010ebxl  -0.44120
gfz2010ebze  -0.95600
gfz2010ebzk  -0.69720
gfz2010ebzr  -0.77430
gfz2010ecam  -0.84080
gfz2010ecay  -0.71610
gfz2010ecbi  -0.75190
gfz2010eccq   0.43390
gfz2010ecdu  -1.17860
gfz2010eced  -0.13190
gfz2010ecft  -0.90280
gfz2010ecfx  -0.95870
gfz2010ecgh   0.54130
gfz2010echc  -0.40810
gfz2010echt  -0.68280
gfz2010echy   0.29480
gfz2010ecka   1.39220
gfz2010ecls  -1.94740
gfz2010ecml  -0.00700
gfz2010ecns  -0.78400
gfz2010ecpg   0.63060
gfz2010ecps  -0.25720
gfz2010ecro  -3.03490
gfz2010ecsp  -0.94110
gfz2010ectq  -0.28900
gfz2010ecua  -1.33220
gfz2010ecuv  -0.14220
gfz2010ecvt  -0.62880
gfz2010ecyr  -0.68110
gfz2010edbz  -0.02060
gfz2010edcp  -0.72940
gfz2010edde  -1.69880
gfz2010edhr  -0.07750
gfz2010edhv  -0.02000
gfz2010edim  -0.92680
gfz2010edji   0.83560
gfz2010edkp   0.55170
gfz2010edoq  -0.42740
gfz2010edpb  -1.00610
gfz2010edqd  -1.22360
gfz2010edqh  -0.55130
gfz2010edsk  -0.00000
gfz2010edsn  -0.04330
gfz2010edun  -1.01870
gfz2010edvf  -0.17970
gfz2010edyi  -2.05270
gfz2010edzb  -0.43600
gfz2010eexz  -0.56900
gfz2010eeyh  -0.84400
gfz2010efak   0.81070
gfz2010efbi  -0.85710
gfz2010efkc   0.02080
gfz2010efls  -0.50900
gfz2010efnf  -0.82000
gfz2010efsq  -1.12540
gfz2010eher  -0.97130
gfz2010ehft  -0.60120
gfz2010ehnl  -0.72290
gfz2010ehsy  -0.08880
gfz2010ehvj  -0.03990
gfz2010ehwg  -6.77610
gfz2010ehxz   0.50150
gfz2010eimf  -0.24370
gfz2010eioi  -0.43710
gfz2010eisx  -2.11560
gfz2010eixj  -1.44510
gfz2010ejae  -0.64390
gfz2010ejco   0.18110
gfz2010ejjg  -1.34970
gfz2010ejka  -0.27180
gfz2010ejma   0.80190
gfz2010ejxf  -0.06380
gfz2010ekoe  -0.98320
gfz2010ekrv  -0.67200
gfz2010ekyc  -1.27050
gfz2010elhv  -1.12990
gfz2010elin  -1.30740
gfz2010eljf  -1.20290
gfz2010elpu  -0.29580
gfz2010elsw  -0.42320
gfz2010eltf  -0.84190
gfz2010elvp  -1.30300
gfz2010elxi  -1.01160
gfz2010elyc  -2.87530
gfz2010elyo  -0.30720
gfz2010elzf   1.16690
gfz2010elzl  -0.43900
gfz2010emoz   0.25740
gfz2010emyz  -1.19590
gfz2010encm   5.29620
gfz2010eohh  -2.28980
gfz2010epbe  -0.40980
gfz2010epxj  -1.18170
gfz2010epzk  -0.46760
gfz2010eqjg  -0.85770
gfz2010eqmu  -5.86650
gfz2010eqse   0.38080
gfz2010eqwl   2.07170
gfz2010erda  -0.16500
gfz2010erdi   0.32490
gfz2010erfy  -1.11180
gfz2010erig  -0.21040
gfz2010erkn  -0.32640
gfz2010ermi  -3.52380
gfz2010erna  -0.70750
gfz2010erom  -0.63270
gfz2010erum  -0.21360
gfz2010eruy  -0.58520
gfz2010erwn  -0.78830
gfz2010erxk   0.32370
gfz2010eryg  -0.67980
gfz2010esid  -0.08290
gfz2010esmg   1.08540
gfz2010esou  -1.17710
gfz2010euan   0.00000
gfz2010euii  -0.09570
gfz2010eujm  -1.23690
gfz2010eutw  -1.55270
gfz2010euvl  -0.81580
gfz2010euwb  -2.07180
gfz2010euxe   0.02970
gfz2010ewbc   0.51710
gfz2010exhd  -0.61850
gfz2010exhw  -1.40570
gfz2010exjw   0.44880
gfz2010exlm  -0.58720
gfz2010exmc  -1.15950
gfz2010exno  -1.05140
gfz2010exou  -0.64280
gfz2010exqu  -1.08550
gfz2010exts   0.03790
gfz2010exyp  -0.40650
gfz2010eyaz   0.96530
gfz2010ezax  -0.29610
gfz2010ezck  -0.61640
gfz2010ezig  -1.76120
gfz2010ezuj  -0.47460
gfz2010ezvg  -1.08560
gfz2010ezvt  -0.68860
gfz2010ezwz  -0.18410
gfz2010ezxd  -0.83730
gfz2010faeu  -1.64690
gfz2010fauz  -1.97980
gfz2010faxg  -2.85260
gfz2010fbeu  -1.64130
gfz2010fbpi  -1.36580
gfz2010fcax  -1.28720
gfz2010fcdw  -0.36760
gfz2010fciw  -0.98990
gfz2010fcnn  -0.44010
gfz2010fcnt  -0.62740
gfz2010fcxy   0.55080
gfz2010fcyj  -1.87510
gfz2010fczt  -0.64860
gfz2010fdab  -0.15110
gfz2010fexw  -0.38890
gfz2010ffhq  -0.98100
gfz2010ffjb  -1.05500
gfz2010ftlm  -0.94270
gfz2010fyen  -0.71010
gfz2010fync  -0.37830
gfz2010fzoi  -1.04510
gfz2010fzyt   0.46890
gfz2010gcdn   0.01930
gfz2010gcrl  -0.82080
gfz2010gcrp  -0.44940
gfz2010gdch  -0.80400
gfz2010gdld  -0.84510
gfz2010geru  -0.49450
gfz2010ginm   0.34000
gfz2010gjvo  -0.75610
gfz2010grjd   0.55650
gfz2010gslu  -0.88860
gfz2010gwmp   1.08370
gfz2010gymo  -0.79100
gfz2010gyqp  -1.17090
gfz2010gzxr  -0.63570
gfz2010hbka   0.36600
gfz2010hcio  -0.78620
gfz2010hevz  -0.55140
gfz2010hgld  -0.55180
gfz2010hhls   0.12800
gfz2010hjoc  -1.13640
gfz2010hlco  -1.32900
gfz2010hllj  -0.16640
gfz2010hlln  -0.62440
gfz2010hlmq  -2.03170
gfz2010hlvr  -0.54280
gfz2010hmhm  -1.34520
gfz2010hndk  -0.00000
gfz2010hnnf  -0.59600
gfz2010hnpi   0.17930
gfz2010hnzr  -0.70040
gfz2010homc  -0.45050
gfz2010hptz  -0.56120
gfz2010hrkr  -0.05830
gfz2010hrpr  -0.58710
gfz2010htdq  -0.67510
gfz2010hxbs   0.48560
gfz2010hxgv  -0.60280
gfz2010hzar   0.51950
gfz2010ibiy  -0.41330
gfz2010iciq   0.17050
gfz2010icqq  -0.65740
gfz2010iefy  -0.32520
gfz2010iibf  -0.25930
gfz2010iimu  -0.29170
gfz2010ijtk   0.19950
gfz2010imfv  -0.48970
gfz2010imsh  -0.06870
gfz2010iobp  -1.29140
gfz2010iphd  -1.25160
gfz2010ipsg  -0.93580
gfz2010iqep  -0.36770
gfz2010iqfm  -0.03190
gfz2010iqus   1.45930
gfz2010irvf  -1.01310
gfz2010iull  -0.55340
gfz2010ixyc   0.72360
gfz2010izzj  -0.45520
gfz2010jagd  -0.28270
gfz2010jatq  -0.93450
gfz2010jhie  -0.34680
gfz2010jipf  -0.54840
gfz2010jitt   1.93840
gfz2010jkxj  -1.97430
gfz2010jpss   0.34100
gfz2010jpyj  -0.32980
gfz2010jqxx   0.13200
gfz2010jssh  -0.07290
gfz2010jsuh   0.81480
gfz2010jsuo  -0.64640
gfz2010jtal   1.95380
gfz2010jwpy   0.97490
gfz2010jxbm  -1.14350
gfz2010jygz  -0.04200
gfz2010jzku  -0.12890
gfz2010kcoo   0.25100
gfz2010kdyc  -0.70360
gfz2010kgws  -0.96310
gfz2010kihf  -2.42510
gfz2010kmgg  -0.10900
gfz2010kmsv  -0.91790
gfz2010kown  -3.15550
gfz2010kyen  -2.36200
gfz2010kzml  -2.33790
gfz2010lcoq  -0.36060
gfz2010lczp  -0.57870
gfz2010lepw   0.70100
gfz2010lfju   0.78200
gfz2010lgwy   0.42570
gfz2010liqs  -0.90420
gfz2010lkcf  -1.08600
gfz2010lopz   0.39720
gfz2010lrlk   0.19200
gfz2010lyfk  -0.44870
gfz2010mant   1.66800
gfz2010mbje   0.69570
gfz2010mdpq  -0.46140
gfz2010mfpt   0.95160
gfz2010mgss  -0.08850
gfz2010mhjt   0.02120
gfz2010miil  -0.39160
gfz2010miqn   0.42220
gfz2010mkuu  -0.23990
gfz2010mlkz  -0.84600
gfz2010mlta  -1.22880
gfz2010mncc  -0.83940
gfz2010mnhm  -0.18580
gfz2010mnsz   1.85150
gfz2010moyw  -1.48460
gfz2010mpuy  -0.28280
gfz2010msjj  -0.50880
gfz2010mtab  -1.10950
gfz2010muca  -0.12850
gfz2010mwdq  -0.67630
gfz2010mzjr   0.77820
gfz2010ncrl  -0.90540
gfz2010nfsj  -0.13190
gfz2010nlkh  -0.94670
gfz2010nmpc  -2.13120
gfz2010nnny   0.76260
gfz2010nqwf  -0.33370
gfz2010nqwo  -0.74440
gfz2010nrew  -0.11870
gfz2010nrjo  -0.16410
gfz2010nsck  -0.57520
gfz2010nsdf   1.17330
gfz2010nsjs   0.23230
gfz2010ntuo  -0.36240
gfz2010nubk  -0.92430
gfz2010nwef  -0.44750
gfz2010nxsy  -0.29850
gfz2010nxum  -0.54620
gfz2010nzha   0.04370
gfz2010nzla   0.14020
gfz2010ocxq  -0.02050
gfz2010odpb   0.06720
gfz2010oedn  -0.46230
gfz2010okdm  -0.97010
gfz2010oluw  -0.13270
gfz2010omla  -0.10780
gfz2010onma  -0.37740
gfz2010osjs   0.30110
gfz2010pbdz  -0.30780
gfz2010pcxi  -0.73220
gfz2010pdtk  -0.37840
gfz2010pewa  -1.06210
gfz2010pewx  -1.09830
gfz2010pexf  -1.06680
gfz2010pfyu  -0.30780
gfz2010phvg  -0.99700
gfz2010plbg  -0.81960
gfz2010pmqd  -0.05750
gfz2010pqck  -1.45350
gfz2010pxak   0.97120
gfz2010pxgh  -0.42600
gfz2010qjst  -0.42740
gfz2010qpcq   0.00000
gfz2010qpum  -0.44390
gfz2010qpvi   0.42030
gfz2010qwwx  -0.97140
gfz2010rhas  -0.90220
gfz2010rkfp  -0.59820
gfz2010rlbv  -0.47370
gfz2010rqwj  -1.16340
gfz2010rzrr  -1.26520
gfz2010rzsd  -3.47240
gfz2010sfee  -0.32940
gfz2010sfla  -1.47700
gfz2010sgzk  -1.46520
gfz2010skqo  -0.83350
gfz2010skve  -1.09700
gfz2010srdb  -1.01350
gfz2010suww  -0.97310
gfz2010svtn  -0.51220
gfz2010swcy  -0.71560
gfz2010sxwt  -0.66360
gfz2010szde  -0.79940
gfz2010szim  -0.09930
gfz2010tcbr  -0.55980
gfz2010tcrl  -1.06980
gfz2010titk   0.41640
gfz2010tlfm  -0.37290
gfz2010truw  -1.18620
gfz2010txjs   0.09160
gfz2010uept  -0.15050
gfz2010upfb  -1.19320
gfz2010upiw   0.15800
gfz2010urlq  -0.14320
gfz2010usho  -0.39060
gfz2010ustq  -0.46640
gfz2010utcg  -0.69200
gfz2010utmc  -0.42350
gfz2010utvp   0.33120
gfz2010uyhb   0.52680
gfz2010veri  -0.48040
gfz2010vhuj  -0.39970
gfz2010vppc   1.20660
gfz2010vtdg  -0.47990
gfz2010vyxd  -0.16120
gfz2010vzpr  -0.28260
gfz2010wioh   0.51740
gfz2010wnty   0.63410
gfz2010wntz  -2.02010
gfz2010wofs  -1.39460
gfz2010wrxx  -0.92270
gfz2010xgfc   1.09880
gfz2010xgzw  -0.67540
gfz2010xmpr   0.38390
gfz2010xnxk   0.04480
gfz2010xxdb   0.18260
gfz2010xxzn   0.28830
gfz2010yjev   0.85810
gfz2010ymfy  -0.34990
gfz2010ymur  -0.11210
gfz2010yosr   0.11890
gfz2010yqwx   0.96550
gfz2011aosc   0.46120
gfz2011ccpw   0.06440
gfz2011cndo  -0.45740
gfz2011ctbn  -3.91120
gfz2011cykd  -1.85550
gfz2011cylz  -0.24860
gfz2011cynl  -0.48000
gfz2011cyre  -0.76230
gfz2011dbwt   0.60310
gfz2011deaf  -0.27430
gfz2011dllz  -1.26780
gfz2011dndz   0.28940
gfz2011dpaa  -0.02360
gfz2011dpmx   0.24620
gfz2011dpqx  -0.03340
gfz2011eayc  -0.09470
gfz2011eazf   0.21220
gfz2011edmm   0.02040
gfz2011ehzq  -0.55150
gfz2011ejlp  -0.72290
gfz2011enva  -0.75760
gfz2011eocc   1.60010
gfz2011etje   0.15180
gfz2011fdzv   0.09700
gfz2011fgvr  -0.81430
gfz2011fhag  -0.15070
gfz2011gbmx  -0.43210
gfz2011gcwb  -0.81050
gfz2011ggvf   0.72130
gfz2011gkey   0.22650
gfz2011gkzt  -0.79810
gfz2011gzbr  -0.30030
gfz2011haid  -0.82050
gfz2011hbex  -0.56790
gfz2011hebt  -1.09870
gfz2011hfkj  -1.03600
gfz2011hlqw  -0.64830
gfz2011hlsa  -0.92860
gfz2011hlth  -0.40230
gfz2011hpgx  -0.44010
gfz2011hpqp  -1.00620
gfz2011hrhe   0.39210
gfz2011hrhu   0.39110
gfz2011hvbu  -0.89710
gfz2011ieie  -0.59980
gfz2011iwte  -0.07310
gfz2011ixai   0.25960
gfz2011izqa  -1.25920
gfz2011izto   0.96500
gfz2011jdsj   0.27410
gfz2011jghb  -0.56340
gfz2011jmbn  -0.69850
gfz2011jnmi   0.87150
gfz2011jplh  -0.72370
gfz2011jtlg  -0.42000
gfz2011juid  -0.49750
gfz2011jxpl   0.17490
gfz2011knoo  -0.10200
gfz2011kqwo  -2.18610
gfz2011kqyg  -0.52000
gfz2011kwhq   2.59470
gfz2011kwid  -0.87950
gfz2011kwiy   0.27690
gfz2011kwjx  -0.89420
gfz2011kwkw  -0.47130
gfz2011kwld  -0.05590
gfz2011kwlq  -0.07710
gfz2011kwni  -0.68800
gfz2011kwqc  -1.10320
gfz2011kwsz  -0.36880
gfz2011kxzp  -0.53910
gfz2011lcxq  -0.04700
gfz2011lczg  -0.16960
gfz2011lgsg  -0.22630
gfz2011lhls   0.23860
gfz2011lvjr  -0.41950
gfz2011lzwj   0.11820
gfz2011mdie  -0.16750
gfz2011mepc  -0.89020
gfz2011mjom  -0.18370
gfz2011mllx  -0.31340
gfz2011mpme  -0.82490
gfz2011mprq   0.00400
gfz2011myia  -0.16810
gfz2011nauw   1.29180
gfz2011nmnq  -0.23660
gfz2011noud  -0.76880
gfz2011nrwc  -0.06520
gfz2011nrwv   2.87440
gfz2011ntkh  -0.13930
gfz2011nudm  -1.07330
gfz2011ogqk  -0.80230
gfz2011ohcy   0.22670
gfz2011oiqe  -0.60810
gfz2011oiwk   0.24790
gfz2011olkk   0.12680
gfz2011oolr   0.11850
gfz2011orgn  -0.39470
gfz2011ornx  -0.04370
gfz2011pccd   0.38390
gfz2011phms  -0.90850
gfz2011pntf  -0.54950
gfz2011ptus  -0.26800
gfz2011qigx  -0.59860
gfz2011qvae  -1.05840
gfz2011qyms  -0.40820
gfz2011rabm   1.96440
gfz2011rdby  -0.26360
gfz2011rewa  -0.93430
gfz2011rgwp  -0.08180
gfz2011rqui  -0.24440
gfz2011rsrh  -0.10120
gfz2011rznl  -1.51240
gfz2011sagt  -0.85960
gfz2011shqm  -0.51930
gfz2011stal  -0.15940
gfz2011svix  -0.24080
gfz2011taps  -0.45360
gfz2011tbas   0.12160
gfz2011tcij   0.40780
gfz2011tivu   0.18740
gfz2011tjue  -0.07860
gfz2011tkfp  -0.47060
gfz2011tkog  -0.79190
gfz2011toub   0.23770
gfz2011tpbl  -0.15060
gfz2011tpfr  -0.54420
gfz2011tsfd   1.15830
gfz2011tsnp   0.25200
gfz2011tuea   0.85650
gfz2011twov   0.48520
gfz2011uepx  -0.25590
gfz2011ugzz  -0.28830
gfz2011ujze   0.26220
gfz2011ukmp  -0.47770
gfz2011uphh   0.15180
gfz2011urxy   0.06520
gfz2011urzu   0.02170
gfz2011vclt   0.15320
gfz2011vhfi   0.25840
gfz2011vxns  -0.88010
gfz2011wfja  -0.32710
gfz2011wijj  -0.12980
gfz2011wjkf   0.99310
gfz2011wjul  -0.01740
gfz2011wxfs   0.24620
gfz2011wxoj  -0.54000
gfz2011wxtk   0.22910
gfz2011xesx   0.13220
gfz2011yhwz  -0.21360
gfz2012attr  -0.57290
gfz2012bpnl  -0.19830
gfz2012bqeb   0.00000
gfz2012cnod   1.21940
gfz2012cxdn  -0.91480
gfz2012czlw   0.15070
gfz2012deri   0.94390
gfz2012dfhq   0.23460
gfz2012emjg   0.34170
gfz2012eskt   1.52900
gfz2012ewgo   0.00000
gfz2012fhnh   0.66500
gfz2012foeo   0.39710
gfz2012fqcg   0.66460
gfz2012fwfo  -1.51220
gfz2012fwtr   3.00250
gfz2012fzfa  -0.70220
gfz2012fzsq  -0.31040
gfz2012gkvr   0.13140
gfz2012gocc  -0.48870
gfz2012gukw   1.31380
gfz2012hdbm  -0.21360
gfz2012hnul  -0.24020
gfz2012hogg   0.52190
gfz2012holl  -0.99420
gfz2012hwmz   0.32710
gfz2012iamr   0.46790
gfz2012icmv  -1.06350
gfz2012ihdl  -0.64240
gfz2012iivw   0.56440
gfz2012ilvn  -0.50810
gfz2012imay  -0.19900
gfz2012iyrb   1.06380
gfz2012jgvj   0.18910
gfz2012jjzc  -0.09570
gfz2012jlox  -0.98700
gfz2012jqvn  -1.20070
gfz2012jshk  -0.16290
gfz2012jupx  -0.72000
gfz2012kbjb   0.70130
gfz2012kbzj  -0.35030
gfz2012kdmb   1.18550
gfz2012keor  -1.43800
gfz2012kkup  -0.34810
gfz2012klba   0.49900
gfz2012klhx  -0.47130
gfz2012kuct   0.70120
gfz2012kudo  -0.23060
gfz2012kvzv  -0.48530
gfz2012kwgo  -0.14280
gfz2012lczo  -1.52870
gfz2012ldxg  -0.83540
gfz2012ldzj  -0.54140
gfz2012lpvn  -0.28160
gfz2012lrsv  -1.08840
gfz2012lsni  -0.32030
gfz2012lxkv  -0.97640
gfz2012mdmy  -0.93180
gfz2012minr  -0.50500
gfz2012mkpn   0.96370
gfz2012mlyf  -0.51500
gfz2012mpvy  -0.26360
gfz2012mpyl  -0.75310
gfz2012mupa   0.48220
gfz2012mvwr  -0.41570
gfz2012mwij   1.43030
gfz2012myqa  -0.39500
gfz2012naqz  -0.59100
gfz2012nedn  -0.63380
gfz2012ngic  -0.40950
gfz2012njha  -0.58580
gfz2012nkdf  -1.83640
gfz2012nolo  -0.15080
gfz2012nqnk   1.05640
gfz2012nsbz  -0.62360
gfz2012ntzv  -0.77700
gfz2012nutf  -0.56730
gfz2012nxog  -0.39410
gfz2012nxyt   0.39730
gfz2012oazn   0.32600
gfz2012obgw  -0.46980
gfz2012oedb   0.33700
gfz2012omvo  -1.31110
gfz2012oqmw  -0.57120
gfz2012ovqs   0.37380
gfz2012pciw   0.14990
gfz2012pgcl   0.02040
gfz2012pkel  -0.38560
gfz2012plbw  -1.34300
gfz2012plea   2.20800
gfz2012pqlt  -1.50380
gfz2012pqmu  -0.46460
gfz2012qurq   1.13160
gfz2012qxcy  -0.40550
gfz2012rats  -0.36620
gfz2012rcnj   0.20850
gfz2012snhi   0.01270
gfz2012spbj  -0.17230
gfz2012sphd   0.10270
gfz2012sqmv  -0.76480
gfz2012ssyn   0.32280
gfz2012syvl   0.34070
gfz2012tazz  -0.20730
gfz2012teic  -0.38850
gfz2012thfx  -2.01870
gfz2012tmop  -0.32810
gfz2012ttoa   0.06150
gfz2012tvmv  -0.21970
gfz2012uciv  -0.01970
gfz2012ufew   0.47770
gfz2012uhup  -1.10070
gfz2012usba  -0.48280
gfz2012uyxb  -0.60540
gfz2012uzyj  -0.20800
gfz2012vceo   3.49050
gfz2012vjgl   0.40380
gfz2012vntz  -0.25460
gfz2012vrgb  -0.45970
gfz2012vrua   0.67010
gfz2012vsev  -1.52480
gfz2012vxvr  -0.66410
gfz2012whku  -0.39200
gfz2012wklq  -2.07300
gfz2012wmsg  -0.65260
gfz2012wpeq  -0.21030
gfz2012wrir  -0.15490
gfz2012wtkh  -0.57630
gfz2012wtkr  -0.07670
gfz2012wubh  -0.36290
gfz2012wvfl   0.71910
gfz2012wxer   0.44590
gfz2012wxkg   0.02030
gfz2012wxlg  -1.12900
gfz2012wybs   0.21520
gfz2012wypz   0.58660
gfz2012xbjq  -0.35510
gfz2012xeul   1.15750
gfz2012xjyv  -0.11650
gfz2012xslk   0.71340
gfz2012xwqa  -0.67160
gfz2012zemh  -0.32850
gfz2012zfag   0.04690
gfz2012zjpv  -0.50620
gfz2012zjre  -0.12610
gfz2013apmm   1.00730
gfz2013bnxc  -1.43290
gfz2013cdan  -0.04820
gfz2013ciaf   0.73620
gfz2013cnve   0.14990
gfz2013cwpn   0.21830
gfz2013dsrk  -0.94510
gfz2013ewbo   1.14690
gfz2013fiud   0.06090
gfz2013gcfx  -2.33160
gfz2013gdnq  -0.89260
gfz2013gjdc   0.05670
gfz2013gngz  -0.11200
gfz2013gock   0.04920
gfz2013gvex  -2.34940
gfz2013hfmp  -0.51630
gfz2013ijsr   0.43050
gfz2013ikgo  -0.18630
gfz2013ilug  -1.83610
gfz2013iunn  -0.03780
gfz2013jesk  -0.06840
gfz2013jgij  -0.97070
gfz2013jgip   1.28500
gfz2013jkut  -0.01520
gfz2013jusj   0.54450
gfz2013jwvc  -0.37350
gfz2013jxoi  -0.33170
gfz2013kccc  -0.08400
gfz2013kdeo  -0.43650
gfz2013kheb   0.80980
gfz2013ldpc  -0.07540
gfz2013ldqb  -0.44540
gfz2013lgnl  -0.25770
gfz2013lixa  -0.30910
gfz2013lyko  -0.53950
gfz2013mmlw  -0.64400
gfz2013mmwq   0.20270
gfz2013mnei   0.44360
gfz2013mqik   0.13890
gfz2013mqmv  -0.20660
gfz2013mwbh   0.52550
gfz2013ncjp  -0.52340
gfz2013neuc   0.77470
gfz2013nixj  -0.46870
gfz2013nkgj  -0.50420
gfz2013nknw  -0.41050
gfz2013nmac   0.28070
gfz2013nnzf  -0.47470
gfz2013nppd  -1.09530
gfz2013nqgw   1.36040
gfz2013nuvi   0.01710
gfz2013nwdi  -1.18360
gfz2013ogde   0.10880
gfz2013oifr   0.98050
gfz2013oilg   0.04190
gfz2013oinc  -0.30570
gfz2013ojti   2.13160
gfz2013oqsc  -0.99070
gfz2013orjg   0.50850
gfz2013orzn   1.96640
gfz2013ozrf   0.82970
gfz2013ozrp   1.14130
gfz2013pcos  -0.56250
gfz2013pfbx  -0.00000
gfz2013pfeb   0.38480
gfz2013phef  -0.50850
gfz2013pkbs   2.17860
gfz2013puag   0.29280
gfz2013pxsj   1.03380
gfz2013qali   0.07840
gfz2013qmer   0.49160
gfz2013qnxc  -0.75900
gfz2013qzdq  -0.45550
gfz2013rait  -0.57030
gfz2013rdoo   0.18710
gfz2013reym  -0.58380
gfz2013roki   0.58350
gfz2013rsnr  -0.29010
gfz2013rwfe  -1.29890
gfz2013sart   0.11170
gfz2013sdus   0.34000
gfz2013sebq   1.62150
gfz2013sfto  -0.20460
gfz2013shzy   0.72880
gfz2013skkm  -0.50260
gfz2013xmul  -0.24350
gfz2013xpfa  -1.06130
gfz2013xqnn  -0.30350
gfz2013ylbx  -0.36670
gfz2013yyhc  -0.22180
gfz2014adoj  -0.53790
gfz2014afmx   0.01410
gfz2014amsb   1.34200
gfz2014atgw  -0.30280
gfz2014bezu  -0.16330
gfz2014bmdh   0.21930
gfz2014cvkm  -0.01960
gfz2014dffd  -0.19670
gfz2014duqn   0.38720
gfz2014egwu   0.93660
gfz2014ehsf  -0.06370
gfz2014fcms  -0.13650
gfz2014femz   0.23670
gfz2014fexu   0.99070
gfz2014ffdc   1.79130
gfz2014fgvi   0.50030
gfz2014fgvr   0.70600
gfz2014fgwt   1.12670
gfz2014fgxt  -0.12950
gfz2014fgxz   0.15890
gfz2014fgyo   0.54040
gfz2014fgza  -0.98160
gfz2014fhbd   0.00000
gfz2014fhdw  -0.09390
gfz2014fhhp   0.19450
gfz2014fhjd   0.70670
gfz2014fhrq  -0.17030
gfz2014fhsg  -0.73900
gfz2014fhwx   0.99530
gfz2014fkmr  -0.52090
gfz2014fkmx  -0.70510
gfz2014fknp   0.81070
gfz2014fnyg   0.17240
gfz2014foio   0.02750
gfz2014frez   0.26950
gfz2014frwh   0.41990
gfz2014ftka  -0.86760
gfz2014ftno   0.96200
gfz2014ftoc  -0.31280
gfz2014ftpw  -0.40790
gfz2014ftrk   0.07060
gfz2014fusc  -0.17120
gfz2014fusj   0.17970
gfz2014fuub   0.84280
gfz2014fuup  -1.80060
gfz2014fvaa   1.25970
gfz2014fval  -0.09700
gfz2014fvgh   0.62290
gfz2014fvjl   0.07170
gfz2014fvpy  -0.56900
gfz2014fvrg   0.35490
gfz2014fwyr  -0.78390
gfz2014fxhd   0.94130
gfz2014geuy   0.26350
gfz2014gezs   0.06120
gfz2014gkgf  -1.24230
gfz2014gkgs   0.54040
gfz2014gkhy   0.94460
gfz2014gkjl   0.60170
gfz2014gkjt   0.25730
gfz2014gkjw  -1.94500
gfz2014gkok  -0.07720
gfz2014glcu   0.37620
gfz2014glcy   0.29810
gfz2014glov   0.57160
gfz2014glsh   0.62940
gfz2014gltx   0.42250
gfz2014glvn  -0.12280
gfz2014glvu   2.60440
gfz2014glxy   0.80590
gfz2014gmci   0.82190
gfz2014gmhr  -1.33370
gfz2014gmzl   0.06010
gfz2014gmzs   0.51240
gfz2014gnig  -0.66110
gfz2014gnnt   0.38300
gfz2014gnre   1.31610
gfz2014gnvw   0.58400
gfz2014gnwg   2.12650
gfz2014gnxb   0.59400
gfz2014goba  -0.39930
gfz2014gphr  -0.67370
gfz2014gpya  -0.19320
gfz2014grcv  -0.52580
gfz2014grgn  -0.36830
gfz2014grho   0.19920
gfz2014gsqs  -0.26100
gfz2014gutm   0.85070
gfz2014gvhw   0.16780
gfz2014gwgf  -0.31850
gfz2014gxkh  -0.15930
gfz2014gxxh  -0.08460
gfz2014gxxo   0.65290
gfz2014gyxd  -0.81010
gfz2014hagb  -0.03030
gfz2014hasj  -0.52110
gfz2014hauo  -0.02060
gfz2014hbqb  -0.11940
gfz2014hcmj  -0.22240
gfz2014hcns  -0.60500
gfz2014hfhl  -0.76320
gfz2014hjgh  -0.18690
gfz2014hjgr   0.06010
gfz2014hjij   0.15060
gfz2014hjlx  -0.09130
gfz2014hkcf  -0.02170
gfz2014hkck  -0.08870
gfz2014hoap  -1.35030
gfz2014hocg   0.00000
gfz2014hphw  -0.25080
gfz2014hqxs   0.04330
gfz2014hrft  -0.40970
gfz2014hriu  -0.89150
gfz2014hrtn   1.09110
gfz2014hscz   0.34620
gfz2014huaj   0.81160
gfz2014hyal   1.89010
gfz2014hymr  -0.14280
gfz2014iani  -0.23330
gfz2014icqt   0.52650
gfz2014ifue  -0.17380
gfz2014imnn   0.02160
gfz2014inbj   0.70060
gfz2014irci   0.50450
gfz2014issk   0.81600
gfz2014isys   0.92890
gfz2014itab   0.80900
gfz2014itbe  -0.09660
gfz2014itgh   0.08280
gfz2014itjx  -0.10460
gfz2014itkw   0.23950
gfz2014itpj   0.38730
gfz2014iuhq   0.56870
gfz2014iwnf   1.43420
gfz2014ixga  -1.28190
gfz2014iywt   0.46340
gfz2014jagg  -0.67670
gfz2014jatq   0.11160
gfz2014jcjt   0.38280
gfz2014jfis   0.07760
gfz2014jjhc  -0.51160
gfz2014jkxe  -0.22810
gfz2014jmnk  -1.67050
gfz2014jnxm  -0.30010
gfz2014jnyv  -0.07450
gfz2014jomw   0.01920
gfz2014jpep   0.29670
gfz2014jpxs   1.10750
gfz2014jwmh   0.47260
gfz2014kara  -1.70420
gfz2014kbuk  -1.44850
gfz2014khan   0.77670
gfz2014khlk  -1.01700
gfz2014kjzb  -0.78840
gfz2014kkhh   1.91260
gfz2014kmmt   0.37850
gfz2014kndc   0.00000
gfz2014knks  -0.09830
gfz2014knxs  -0.51390
gfz2014ksdv  -0.72040
gfz2014ksmz   0.66070
gfz2014kwrg   0.67850
gfz2014kyan   0.19930
gfz2014kytf   0.13140
gfz2014kzzm   0.14810
gfz2014lddn  -1.27090
gfz2014lefs  -0.75620
gfz2014lehw   0.17300
gfz2014lgqn  -0.72210
gfz2014lhqn  -0.02020
gfz2014lkyf  -0.28780
gfz2014lmge   0.03650
gfz2014lnqy  -0.20780
gfz2014lpim   0.04680
gfz2014lrzx   0.48060
gfz2014lurd  -1.74410
gfz2014lxnc  -0.34240
gfz2014lyhk   0.40560
gfz2014lyhp   0.74100
gfz2014lynp   0.50580
gfz2014lzow   0.63430
gfz2014macx  -0.36610
gfz2014madw  -0.06090
gfz2014mcno   0.51050
gfz2014mcse   1.02710
gfz2014moaw  -0.71360
gfz2014mtum  -0.31420
gfz2014mwor  -0.65710
gfz2014mxkr  -0.40370
gfz2014navw  -0.33660
gfz2014nhyb   0.91580
gfz2014nkdx   0.48950
gfz2014nnxd  -0.63170
gfz2014nowp   0.04000
gfz2014npdk  -0.25820
gfz2014npeo  -0.68520
gfz2014nphm   0.44480
gfz2014nqfm  -0.11170
gfz2014nrie  -0.36100
gfz2014ntdh  -0.03880
gfz2014nyeh   0.56070
gfz2014nyfb  -1.01730
gfz2014nylm   0.14140
gfz2014odgv   0.60650
gfz2014oinz  -0.30620
gfz2014omyn   1.06580
gfz2014oqhw   1.24690
gfz2014orxs   0.14510
gfz2014oryw   0.19620
gfz2014osvx  -0.04760
gfz2014osvz  -1.68250
gfz2014owxc  -0.78670
gfz2014oyly  -0.13760
gfz2014pkll  -0.77070
gfz2014ppzf  -0.25630
gfz2014pqrc  -0.14050
gfz2014pvch   0.21700
gfz2014pzml   0.31230
gfz2014pzni   0.08550
gfz2014qlvc   0.41570
gfz2014qlxd  -0.44160
gfz2014qngj  -0.57540
gfz2014qqhm  -1.10720
gfz2014raau  -0.36120
gfz2014rdsn  -1.06770
gfz2014rfeb  -0.04980
gfz2014rghp  -0.88840
gfz2014riel  -0.13470
gfz2014rils  -0.66110
gfz2014romy  -1.08800
gfz2014rtcu   0.36570
gfz2014ryfb  -0.78900
gfz2014sadu  -0.19020
gfz2014shid   0.34600
gfz2014sjqw  -0.25570
gfz2014sptq  -1.07170
gfz2014sryn  -0.74590
gfz2014ssds   0.59220
gfz2014ssmv  -1.00720
gfz2014ssvz  -0.98610
gfz2014szzf   0.00670
gfz2014tabg  -0.15500
gfz2014tovs  -0.43790
gfz2014tqdo  -0.56930
gfz2014tqly  -0.04010
gfz2014tqsf  -0.78580
gfz2014tzsd  -0.32920
gfz2014ubwn   0.17920
gfz2014uohh  -0.35380
gfz2014utac  -0.84900
gfz2014uvji  -0.28860
gfz2014uvrk  -0.77300
gfz2014uxyg  -2.25440
gfz2014uyrq   0.31340
gfz2014vcev  -1.02900
gfz2014vhld   0.33190
gfz2014vhms  -0.51820
gfz2014vjoz   0.08320
gfz2014vpus  -0.21540
gfz2014vqqa   2.51140
gfz2014waoo  -1.15910
gfz2014watn  -0.17850
gfz2014wqcp  -0.10910
gfz2014wrkh  -0.93320
gfz2014wwib  -0.69270
gfz2014xjri  -0.44870
gfz2014xoji   0.19680
gfz2014xqby  -0.86480
gfz2014ynhc   0.52600
gfz2015aqbq  -0.04990
gfz2015arpd  -0.42990
gfz2015aruz  -0.32180
gfz2015atxv  -0.67090
gfz2015berb   0.30860
gfz2015bkbj  -0.20110
gfz2015bphe   1.92570
gfz2015byfn  -0.08180
gfz2015byjd  -0.26000
gfz2015evpl   0.47600
gfz2015eyqs   0.69770
gfz2015fbbk  -0.53220
gfz2015fbew  -2.30660
gfz2015fcua   0.07390
gfz2015fdpr  -0.13800
gfz2015fjhk  -0.02820
gfz2015fkbc   0.56220
gfz2015fkgt  -0.53840
gfz2015fkic  -0.76160
gfz2015fkkd  -0.18530
gfz2015fpez  -0.36950
gfz2015fsjj  -0.04390
gfz2015fwnf  -0.20590
gfz2015fxbv   0.55820
gfz2015fxdi  -0.28420
gfz2015fyvk   0.33810
gfz2015gckd  -0.45790
gfz2015ggjw   0.04100
gfz2015gjbr   0.11480
gfz2015hdbn  -3.52880
gfz2015hdcp  -0.22130
gfz2015hgbk  -0.00020
gfz2015hhbd  -0.23500
gfz2015hlqo   0.15630
gfz2015hpmk   0.18310
gfz2015hvgs   0.93060
gfz2015igsy   0.99960
gfz2015imty   0.00000
gfz2015imyp   0.63670
gfz2015isim  -0.34060
gfz2015ixyy  -0.72190
gfz2015jmlf   0.49980
gfz2015jmlu   0.97660
gfz2015jpap  -2.52290
gfz2015jwgl  -0.81400
gfz2015jxbx  -0.68760
gfz2015jzcv  -0.34600
gfz2015kakw  -0.42910
gfz2015kalm  -0.14340
gfz2015kcaa   0.02660
gfz2015kkth  -0.04750
gfz2015kphk   0.36470
gfz2015kquq   0.13960
gfz2015ksni  -0.59690
gfz2015kvwz   0.33090
gfz2015lcma  -0.13200
gfz2015lfma   0.26060
gfz2015lfud  -0.10770
gfz2015lhjq  -0.34500
gfz2015lhjy   0.12240
gfz2015ltii   0.00770
gfz2015ltro   1.21490
gfz2015lytv  -2.35760
gfz2015lzad  -0.56920
gfz2015mddr   0.25490
gfz2015mfpy   0.13510
gfz2015mhym   2.04660
gfz2015mpte  -0.92060
gfz2015nerz  -0.83240
gfz2015nqgf   0.04690
gfz2015ntpk   1.12650
gfz2015nuxz  -1.04430
gfz2015nwug  -0.40070
gfz2015ocdz   0.06650
gfz2015ofpd   0.73520
gfz2015okmq   0.04920
gfz2015okpu   0.72110
gfz2015orkl   0.11640
gfz2015othd   0.26810
gfz2015oyfl  -0.35970
gfz2015pcvt  -0.13720
gfz2015pdri   1.09500
gfz2015plal  -0.12550
gfz2015poni  -0.43820
gfz2015puah  -0.05660
gfz2015puqp  -0.33570
gfz2015qafb  -0.39960
gfz2015qiit  -0.03870
gfz2015qnho  -0.35120
gfz2015qnlv  -0.33850
gfz2015qnto  -0.40580
gfz2015qols  -0.28460
gfz2015qprd  -0.14800
gfz2015qpvd  -1.18470
gfz2015quzo  -0.84250
gfz2015rgov   0.68330
gfz2015rgrg  -0.02080
gfz2015rkbq  -0.14980
gfz2015rkrg  -0.45580
gfz2015rkzg   0.07380
gfz2015roac   0.11120
gfz2015rwsb  -1.46070
gfz2015rxmg  -0.85870
gfz2015saet   0.65450
gfz2015sdfy  -0.04620
gfz2015seuf  -0.34720
gfz2015sfdd  -1.14750
gfz2015sfdl  -0.59970
gfz2015sfdv   0.22350
gfz2015sfdy  -0.76700
gfz2015sfeo  -0.37850
gfz2015sffn  -0.75030
gfz2015sfga  -1.47080
gfz2015sfhz  -0.78800
gfz2015sfiq  -1.78260
gfz2015sfkh  -0.38370
gfz2015sfko  -0.81190
gfz2015sfks  -0.25570
gfz2015sfkz  -0.56110
gfz2015sflf  -0.34580
gfz2015sfmd   1.51980
gfz2015sfno  -1.94300
gfz2015sfoc  -1.08990
gfz2015sfoh  -0.25550
gfz2015sfoq   0.32960
gfz2015sfpj   0.11720
gfz2015sfps  -0.49850
gfz2015sfqo  -0.48760
gfz2015sfqr  -1.12740
gfz2015sfrc  -1.61450
gfz2015sfrf   0.16230
gfz2015sfsi   0.90360
gfz2015sfte  -0.63250
gfz2015sftu  -0.82980
gfz2015sfuc   0.22660
gfz2015sfuz   0.18430
gfz2015sfwf   0.28420
gfz2015sfxn  -0.23920
gfz2015sfzm   0.10880
gfz2015sgad  -0.24840
gfz2015sgmm  -0.55560
gfz2015sgmr   0.45860
gfz2015sgxc   0.12650
gfz2015sgyd  -0.28580
gfz2015shaq  -0.43880
gfz2015shhg   0.08440
gfz2015shhu  -0.04360
gfz2015shjn  -0.89700
gfz2015shjo  -0.48670
gfz2015shlp  -0.69740
gfz2015shqe  -1.19410
gfz2015shrg  -0.69890
gfz2015shsz  -0.21320
gfz2015sicf  -0.73470
gfz2015siem   0.78080
gfz2015siky  -0.69680
gfz2015sing  -0.33390
gfz2015siof  -0.64350
gfz2015sist  -1.49430
gfz2015sitn  -0.22790
gfz2015sixi   0.34900
gfz2015siyy  -0.58690
gfz2015sjbx  -0.90900
gfz2015sjeq   1.16400
gfz2015sjfi   0.30180
gfz2015sjgk  -0.88550
gfz2015sjjb  -0.09460
gfz2015sjne  -1.24870
gfz2015sjoj  -0.54690
gfz2015sjpn  -0.63420
gfz2015sjvu  -0.43640
gfz2015sjwi  -1.12320
gfz2015skab  -1.39780
gfz2015skgj  -0.33450
gfz2015skhf  -3.01840
gfz2015sklu  -0.37970
gfz2015skpv  -0.14220
gfz2015skuk  -0.36190
gfz2015skxu  -0.33330
gfz2015sldx  -0.73960
gfz2015slfn   0.05900
gfz2015sljs  -1.46690
gfz2015slun  -0.77910
gfz2015smgj  -0.04100
gfz2015smym  -0.77450
gfz2015snhn   0.08180
gfz2015snmg   0.23170
gfz2015snmr  -0.83960
gfz2015snsf  -0.84330
gfz2015snwh  -1.66710
gfz2015snyd  -0.56480
gfz2015soat  -0.26680
gfz2015sopc   0.39820
gfz2015soxc  -1.29440
gfz2015sqbg   0.13840
gfz2015sqmy  -0.18160
gfz2015sqvx   0.56800
gfz2015srat  -0.28420
gfz2015ssrl   0.00190
gfz2015stfy   0.15150
gfz2015stso  -0.03470
gfz2015subz  -0.02160
gfz2015supa  -0.15470
gfz2015susq   0.49840
gfz2015svjy  -0.33520
gfz2015svwm  -0.99470
gfz2015swgn  -0.14420
