# Nsamples: 497  MAD:  0.969  mean: -0.701  variance:  1.758
gfz2010aerk  -0.72890
gfz2010ahqi  -1.12420
gfz2010awfi   1.23330
gfz2010bfzs  -1.95230
gfz2010bifb   1.66000
gfz2010bjeb  -1.12690
gfz2010bowy   0.23400
gfz2010boxo  -0.43090
gfz2010bxxs  -0.90090
gfz2010caft  -1.72580
gfz2010cbkg  -2.06990
gfz2010ckeu  -0.08150
gfz2010ckzm   2.44560
gfz2010cqwl  -0.88930
gfz2010czps  -2.43470
gfz2010eaoy  -2.01550
gfz2010eapn   1.36950
gfz2010eaqe  -1.19250
gfz2010eaqx  -1.44560
gfz2010eaqy  -1.62780
gfz2010earu  -2.46830
gfz2010easo  -1.25190
gfz2010eati  -0.41550
gfz2010eato  -1.18200
gfz2010eatt   0.45450
gfz2010eaty  -1.22660
gfz2010eaul  -1.42840
gfz2010eavd  -2.89720
gfz2010eavs  -0.55560
gfz2010eawb  -0.93690
gfz2010eawu  -4.74240
gfz2010eaxa  -1.07550
gfz2010eayd  -5.37270
gfz2010eaze  -0.14990
gfz2010eazu  -0.17400
gfz2010ebbd  -2.23070
gfz2010ebdl  -1.91890
gfz2010ebfa  -2.12820
gfz2010ebhc  -0.98780
gfz2010ebih  -1.72480
gfz2010ebin   1.74340
gfz2010ebjy  -1.60620
gfz2010ebkj  -1.96720
gfz2010ebla  -0.54100
gfz2010ebmb  -1.34880
gfz2010ebmi  -1.50810
gfz2010ebnn  -2.92720
gfz2010ebrm  -1.61450
gfz2010ebvm  -2.62470
gfz2010ebvv  -1.56830
gfz2010ebxl   0.86160
gfz2010ebzr  -1.74100
gfz2010ecam   0.50420
gfz2010ecay  -0.00030
gfz2010ecbi  -2.04750
gfz2010eccq  -1.64800
gfz2010eced   0.10880
gfz2010ecft  -0.53470
gfz2010echc  -1.06280
gfz2010echt   0.27880
gfz2010echy  -0.68290
gfz2010ecps  -1.50670
gfz2010ecsp  -0.77410
gfz2010ecua  -1.70640
gfz2010ecvt  -2.89700
gfz2010edat  -1.27160
gfz2010edcp   0.32090
gfz2010edvf  -0.38290
gfz2010edyi  -2.32940
gfz2010eedu  -1.77610
gfz2010eefh  -1.32500
gfz2010eegn  -1.40330
gfz2010eeij  -0.84940
gfz2010eekq  -0.65090
gfz2010eerh   1.11620
gfz2010eern  -0.68140
gfz2010eevu  -1.76250
gfz2010efsq   0.53430
gfz2010egap  -1.39680
gfz2010egld  -1.69940
gfz2010egmp  -1.11480
gfz2010ehft  -0.14870
gfz2010eisx  -4.19290
gfz2010eixj   0.73580
gfz2010ejjg  -3.40440
gfz2010ekoe  -2.08000
gfz2010ekyc  -1.95030
gfz2010elhv  -1.03410
gfz2010elin   4.80430
gfz2010eltf  -1.15880
gfz2010elyc   0.23140
gfz2010epxj  -0.75660
gfz2010eqjg  -1.09710
gfz2010eqmu   1.35970
gfz2010eruy   0.11620
gfz2010eujm  -0.10570
gfz2010euvl  -0.50440
gfz2010evco  -1.55080
gfz2010ewvc  -2.65070
gfz2010excp  -2.20490
gfz2010exdd  -1.15790
gfz2010exdl  -1.98940
gfz2010exmc  -2.48610
gfz2010exno  -1.90360
gfz2010exsg  -1.56250
gfz2010ezck  -0.99430
gfz2010falm  -2.96960
gfz2010fcax  -1.80070
gfz2010fczt  -1.54340
gfz2010fedq  -1.87320
gfz2010ffhq  -2.07170
gfz2010ffjb  -3.36720
gfz2010ffui  -0.10650
gfz2010flha  -1.49970
gfz2010flxi  -1.43930
gfz2010fpqy  -1.20950
gfz2010fqdu   0.13100
gfz2010fser  -0.88060
gfz2010ftlm  -0.04910
gfz2010fync  -3.03420
gfz2010gcrl  -2.41330
gfz2010gjia   0.28670
gfz2010glxl  -1.58610
gfz2010grjd   0.52270
gfz2010gyqp  -1.95110
gfz2010gzxr  -0.59630
gfz2010hlmq  -2.32250
gfz2010hlvr   1.33360
gfz2010hnnf  -2.34070
gfz2010homc  -0.52830
gfz2010imsh   0.88580
gfz2010iobp  -2.28270
gfz2010iqnm  -0.65350
gfz2010irvf  -1.27780
gfz2010iull  -0.49490
gfz2010jxbm  -1.96580
gfz2010lepw   0.53110
gfz2010lluj  -0.19130
gfz2010mkuu   0.00000
gfz2010mncc  -1.09990
gfz2010moyw  -2.22990
gfz2010nlkh   0.25660
gfz2010nmpc  -2.17880
gfz2010nqwf  -2.02840
gfz2010nqwo  -2.22810
gfz2010nrjo   0.10070
gfz2010nsck  -1.66910
gfz2010nubk  -0.54460
gfz2010nwef  -1.20230
gfz2010onma  -1.66800
gfz2010pbdz   0.34710
gfz2010pcxi  -0.38740
gfz2010pewx  -0.83440
gfz2010pfyu  -0.95630
gfz2010pmqd  -1.68270
gfz2010qpvi  -0.62850
gfz2010rqwj   0.13290
gfz2010sfee  -0.90220
gfz2010svtn  -0.02670
gfz2010swcy  -0.18820
gfz2010sxwt  -0.50090
gfz2010tcrl   1.59890
gfz2010upfb  -2.30270
gfz2010usho   1.00700
gfz2010ustq  -1.87300
gfz2010utcg   1.44370
gfz2010uyhb   4.42650
gfz2010vtdg   1.08010
gfz2010wioh   3.08050
gfz2010wofs   7.47980
gfz2010xbgs   0.83560
gfz2010xden  -0.73200
gfz2010xjsj  -0.37460
gfz2010yjev   0.28840
gfz2010yosr   1.27330
gfz2011aatr  -1.51720
gfz2011adjs  -1.29460
gfz2011aeay  -0.49560
gfz2011alip  -1.43990
gfz2011aqxf   6.93560
gfz2011cndo  -1.35640
gfz2011csju   1.61540
gfz2011cvfg   3.25940
gfz2011cykd  -1.87900
gfz2011cyre  -0.57250
gfz2011cyuk  -1.10550
gfz2011dbig   0.49840
gfz2011dbon  -1.22380
gfz2011dcqb  -1.27390
gfz2011dpqx  -0.92500
gfz2011ecaj  -2.25920
gfz2011edmm   0.03580
gfz2011enva  -0.88140
gfz2011etje  -0.71400
gfz2011gbmx  -1.50840
gfz2011gkzt  -1.23210
gfz2011hbex  -0.12890
gfz2011hebt  -0.26630
gfz2011hlqw  -1.56430
gfz2011hlsa  -1.32850
gfz2011hlth  -0.98080
gfz2011hvbu  -0.15580
gfz2011ieie   1.38240
gfz2011kqwo  -0.53350
gfz2011kxzp  -1.59530
gfz2011lcxq   0.30790
gfz2011lzwj  -0.85380
gfz2011mdie  -1.32600
gfz2011mpme  -1.30970
gfz2011nudm  -2.32490
gfz2011ohcy  -0.52680
gfz2011oiqe  -0.49210
gfz2011olkk  -1.16590
gfz2011orgn   1.06240
gfz2011ornx  -0.91670
gfz2011phms   0.38410
gfz2011qyms   0.21450
gfz2011rewa  -2.02980
gfz2011rgwp  -1.28050
gfz2011rqui  -1.15620
gfz2011sagt  -1.45200
gfz2011tbas   0.37100
gfz2011toub  -1.05640
gfz2011ujze  -0.67470
gfz2011uphh  -0.89980
gfz2011urzu   0.75600
gfz2011vhfi  -0.57550
gfz2011vnza  -0.49900
gfz2011wxfs  -0.59570
gfz2011wxtk  -1.17760
gfz2011xcpv  -1.07980
gfz2011xesx  -0.67530
gfz2011xyxj  -0.13820
gfz2012ajtq  -1.45780
gfz2012bfah  -0.35690
gfz2012bpkx  -1.36810
gfz2012bszs   3.69740
gfz2012byad  -0.66240
gfz2012cqnl  -1.37420
gfz2012cxdn  -1.66070
gfz2012czlw  -0.05490
gfz2012dyyh  -1.33990
gfz2012ekda  -1.12190
gfz2012emjg  -0.69970
gfz2012enno  -1.39480
gfz2012ewgo  -0.13660
gfz2012foeo  -0.83180
gfz2012fzfa  -1.12050
gfz2012hnul  -0.19300
gfz2012ilvn  -1.04310
gfz2012jlox  -0.51630
gfz2012jupx  -0.68010
gfz2012kkup  -1.03180
gfz2012kuct   2.97640
gfz2012kudo  -1.25180
gfz2012kwgo   0.14260
gfz2012lczo   0.66020
gfz2012ldxg  -0.46350
gfz2012minr  -0.85450
gfz2012quso  -1.20970
gfz2012sphd  -0.16980
gfz2012syvl  -0.46720
gfz2012teic   2.36090
gfz2012tmop   3.29280
gfz2012ttoa  -0.54780
gfz2012uafg  -2.28910
gfz2012uvqf  -0.40630
gfz2012vrgb  -0.52880
gfz2012wklq  -2.50230
gfz2012wmsg  -1.49790
gfz2012wxlg  -1.45970
gfz2012wypz  -0.38690
gfz2012zjpv   2.10400
gfz2013bokp  -1.40520
gfz2013cbsm   0.29430
gfz2013ccnr  -2.61340
gfz2013cvqg  -0.86490
gfz2013cwpn  -1.18250
gfz2013dofo  -2.12260
gfz2013drxz  -1.99880
gfz2013dvyh  -0.21290
gfz2013egni  -1.80130
gfz2013egpu   0.55190
gfz2013ewbo   4.32630
gfz2013fiud  -0.61090
gfz2013fygc  -1.23510
gfz2013gdnq  -1.15850
gfz2013gock   0.40900
gfz2013hxcx   3.32010
gfz2013iayx  -0.29070
gfz2013ikgo  -1.45710
gfz2013ilug  -1.75010
gfz2013ippu  -0.81510
gfz2013jesk  -0.38930
gfz2013jgij  -0.00000
gfz2013jgip   0.19220
gfz2013kccc   0.38800
gfz2013kdeo  -0.21720
gfz2013ldpc  -0.56100
gfz2013ldqb  -1.37770
gfz2013lixa  -0.73500
gfz2013lyko  -1.07280
gfz2013mqmv  -0.23040
gfz2013mwbh  -0.90900
gfz2013ncjp  -1.30780
gfz2013nixj  -0.72150
gfz2013nkgj   0.15010
gfz2013nmac   0.35590
gfz2013nwdi  -0.36880
gfz2013ogde  -1.27020
gfz2013orzn   0.72090
gfz2013pfbx  -0.37920
gfz2013qali  -0.49930
gfz2013qmer  -0.42080
gfz2013qzdq  -1.52990
gfz2013sfto   3.27780
gfz2013suvn   0.04210
gfz2013svci  -0.65730
gfz2013tusd  -1.09590
gfz2013tvmw  -0.86640
gfz2013txij   1.94850
gfz2013ufxk  -0.63490
gfz2013uqsp  -1.07480
gfz2013vfyw  -0.05950
gfz2013vfzp   2.54150
gfz2013vjjc  -3.31750
gfz2013vzbo  -0.60430
gfz2013wjmm  -1.58190
gfz2013xgmp  -0.56480
gfz2013xklb   0.17620
gfz2013xpsm  -1.50510
gfz2013xsdt  -0.08080
gfz2013yctg  -0.96620
gfz2013yqkv  -0.22140
gfz2014afmx   0.86360
gfz2014algk  -1.04280
gfz2014ande  -0.18300
gfz2014bwue  -0.89710
gfz2014bzxy  -0.74110
gfz2014cvxx  -0.76260
gfz2014dffd  -1.30480
gfz2014dhxt  -1.24890
gfz2014ekcr  -1.09420
gfz2014enhi  -1.37300
gfz2014femz  -1.16850
gfz2014fgvi   0.44420
gfz2014fhla  -0.96280
gfz2014fimn   0.82400
gfz2014fkmr   0.76160
gfz2014frdz   0.46680
gfz2014frez   0.70720
gfz2014frwh  -2.10770
gfz2014ftka  -1.69890
gfz2014ftoc  -1.36580
gfz2014ftpw  -0.17030
gfz2014ftrk   2.16290
gfz2014furx  -0.96150
gfz2014fusj   0.38450
gfz2014fval  -0.61860
gfz2014fvrg   0.60190
gfz2014gbcz  -2.04020
gfz2014gbdq  -0.15010
gfz2014ghpe  -0.42620
gfz2014gkgf  -1.49080
gfz2014gkgs   0.09480
gfz2014gkhy   1.11770
gfz2014gkjl  -2.23770
gfz2014gkob   1.47930
gfz2014gkqf   0.25640
gfz2014gkqu   1.36020
gfz2014gktq   0.43000
gfz2014glcu   0.00000
gfz2014gltx   0.45440
gfz2014gmge   0.04070
gfz2014gmhr  -3.17100
gfz2014gmku  -0.03410
gfz2014gmnb  -0.42040
gfz2014gmnw  -0.19670
gfz2014gmor   0.51770
gfz2014gmuk   0.02210
gfz2014gmzl   0.48610
gfz2014goba  -0.27520
gfz2014gpya  -0.49300
gfz2014gqer   0.66470
gfz2014gqve  -1.12230
gfz2014gsqs  -0.51690
gfz2014gull  -0.40750
gfz2014gvrd  -1.78590
gfz2014gwab   1.30320
gfz2014hasj  -0.84930
gfz2014hbqb  -0.50990
gfz2014hgqo  -0.06750
gfz2014hjgr  -0.23940
gfz2014hkcf  -0.32260
gfz2014hocg  -1.46350
gfz2014hqxs   3.40950
gfz2014huaj   0.48440
gfz2014hzfw  -1.73400
gfz2014itkw   0.04470
gfz2014jjhc  -0.60420
gfz2014jjln  -0.12130
gfz2014jpep  -0.33850
gfz2014jwmh  -0.97860
gfz2014kndc  -1.04260
gfz2014lgqn  -0.29040
gfz2014lxnc  -0.54730
gfz2014lyhk  -1.64820
gfz2014macx  -0.35170
gfz2014madw  -0.01760
gfz2014nowp  -0.60680
gfz2014npeo  -1.44040
gfz2014nphm  -0.56590
gfz2014nqfm  -0.53840
gfz2014nrie  -0.17360
gfz2014oinz  -0.80610
gfz2014ppzf  -1.47330
gfz2014pvch  -0.37180
gfz2014qlxd  -1.00540
gfz2014qngj  -1.54370
gfz2014qqhm  -0.54860
gfz2014rdsn  -0.77990
gfz2014riel  -0.30820
gfz2014ssvz  -2.16390
gfz2014tqdo  -0.84600
gfz2014tqsf   0.17680
gfz2014watn  -0.91970
gfz2014xqqd  -1.12910
gfz2014yhhm  -0.91080
gfz2015arpd  -1.26000
gfz2015aruz  -1.11960
gfz2015berb  -1.15310
gfz2015bkbj  -1.52710
gfz2015chhn  -2.30810
gfz2015chqn  -0.28270
gfz2015cxxk  -1.35630
gfz2015cyjd  -1.28680
gfz2015dskr  -0.95700
gfz2015dvbn  -0.80590
gfz2015egxq  -1.21200
gfz2015eiky  -0.02140
gfz2015emtg  -1.19530
gfz2015etai  -2.05400
gfz2015fcua  -1.21500
gfz2015fkgt  -0.87800
gfz2015fsjj  -0.26370
gfz2015gckd  -0.76260
gfz2015gjbr  -1.39810
gfz2015hgbk  -0.81980
gfz2015kakw  -0.75280
gfz2015kcaa  -0.11710
gfz2015kphk   0.22640
gfz2015ksni  -1.58240
gfz2015lfud  -1.36500
gfz2015lhjy  -0.71010
gfz2015lytv  -2.13960
gfz2015mddr  -0.76370
gfz2015mpte  -0.84500
gfz2015nuxz  -1.87610
gfz2015nwug  -0.99220
gfz2015ocdz  -0.30470
gfz2015okmq  -2.05140
gfz2015oyfl  -0.98980
gfz2015poni  -1.55420
gfz2015qnho  -1.52780
gfz2015rkzg  -0.77120
gfz2015sfdd  -2.16100
gfz2015sfdy  -1.32840
gfz2015sfeo  -1.93180
gfz2015sfga  -1.04030
gfz2015sfhz  -1.81500
gfz2015sfiq  -1.00800
gfz2015sfnb  -1.88540
gfz2015sfno  -2.15310
gfz2015sfoc   1.39640
gfz2015sfqo  -0.76810
gfz2015sfqr  -0.13980
gfz2015sgyd  -1.05490
gfz2015shhu  -1.05580
gfz2015shjn  -2.39190
gfz2015sitn  -1.51530
gfz2015sjbx  -1.18150
gfz2015sjgk  -0.96470
gfz2015sjne  -1.47730
gfz2015sjoj  -1.66620
gfz2015sjvu  -1.64680
gfz2015sjwi  -0.83700
gfz2015sldx  -1.84750
gfz2015smym  -0.92840
gfz2015snwh  -2.08820
gfz2015snyd  -1.51370
gfz2015soat  -0.83480
gfz2015soxc  -1.60080
gfz2015srat  -1.41880
gfz2015svwm  -1.90690
gfz2015szcb  -1.18380
gfz2015sztx  -1.60570
gfz2015taml  -1.35510
