# Nsamples: 445  MAD:  0.652  mean: -1.488  variance:  0.797
gfz2010bfzs  -1.65880
gfz2010bhhq  -1.61500
gfz2010bifb  -2.57900
gfz2010bjeb  -1.18440
gfz2010bjjx  -6.00720
gfz2010bkob  -1.19780
gfz2010bowy  -1.62660
gfz2010boxo  -0.80570
gfz2010bxxs  -1.28650
gfz2010caft  -2.14490
gfz2010cbkg  -3.55930
gfz2010cjrf  -0.21870
gfz2010ckzm   0.84800
gfz2010cqwl  -2.25980
gfz2010czps  -1.88250
gfz2010dejx  -1.34350
gfz2010diqn  -2.43330
gfz2010eaoy  -1.47900
gfz2010eapk  -2.07010
gfz2010eapn  -0.85660
gfz2010eaqe  -0.88740
gfz2010eaqx  -1.32850
gfz2010eaqy  -1.10490
gfz2010earq  -2.58530
gfz2010earu  -2.62410
gfz2010easf  -0.60980
gfz2010easo  -1.65900
gfz2010easu  -0.20940
gfz2010eati  -1.35100
gfz2010eato  -1.06360
gfz2010eaty  -0.43820
gfz2010eaul  -0.94980
gfz2010eavd  -1.84600
gfz2010eavs  -1.76050
gfz2010eawb  -2.22830
gfz2010eawu  -0.51930
gfz2010eaxa  -2.21750
gfz2010eaxn  -2.56190
gfz2010eayd  -1.54440
gfz2010eaze  -0.44440
gfz2010ebbd  -2.08610
gfz2010ebby  -1.53970
gfz2010ebdl  -0.72600
gfz2010ebgj  -1.53010
gfz2010ebhc  -3.17130
gfz2010ebih  -1.99130
gfz2010ebin  -2.23310
gfz2010ebiv  -0.42560
gfz2010ebjy  -1.26150
gfz2010ebkj  -2.59220
gfz2010ebla  -0.87930
gfz2010ebll  -1.10460
gfz2010ebnn   0.43660
gfz2010ebqt  -1.75800
gfz2010ebrm  -2.24440
gfz2010ebvm  -1.28520
gfz2010ebvv  -1.22350
gfz2010ebwp  -1.15900
gfz2010ebxl  -2.44550
gfz2010ebzk  -2.88430
gfz2010ebzr  -1.62260
gfz2010ecam  -1.37530
gfz2010ecay  -0.04100
gfz2010ecbi  -2.46430
gfz2010eccq  -1.95470
gfz2010eced  -2.51390
gfz2010echc  -1.67060
gfz2010echt  -0.84270
gfz2010echy  -1.00140
gfz2010ecps  -1.52700
gfz2010ecsp  -2.20490
gfz2010ecua  -1.60680
gfz2010ecvt  -1.87700
gfz2010edat  -1.66050
gfz2010eday   0.27490
gfz2010edcp   2.49080
gfz2010edkp  -1.72260
gfz2010edvf  -0.46980
gfz2010edyi  -2.60210
gfz2010eekq  -2.23900
gfz2010eerh  -2.39880
gfz2010eern  -1.59570
gfz2010eevu  -1.70760
gfz2010efsq  -1.37120
gfz2010efxf  -0.58770
gfz2010egld  -1.84720
gfz2010egmp  -2.20380
gfz2010egsw  -1.25530
gfz2010ehxz  -0.94910
gfz2010eisx  -2.79300
gfz2010ekoe  -2.10850
gfz2010ekyc  -1.91690
gfz2010elhv  -2.12020
gfz2010elsw  -1.39800
gfz2010eltf  -0.45920
gfz2010elyc  -2.88110
gfz2010elyo  -2.43000
gfz2010emyz  -0.70580
gfz2010epxj  -1.37670
gfz2010eqmu   0.03700
gfz2010erdi  -1.39470
gfz2010erig   0.19300
gfz2010erkn  -0.98080
gfz2010erom  -1.55690
gfz2010eruy  -1.02720
gfz2010erwn  -1.39430
gfz2010erxb  -1.20130
gfz2010erxk  -0.15890
gfz2010eryg  -1.33160
gfz2010eted  -1.68680
gfz2010eujm  -2.31430
gfz2010euvl  -1.02750
gfz2010euxe  -1.62800
gfz2010evco  -0.68150
gfz2010ewbc  -0.83770
gfz2010ewyu   0.18420
gfz2010excp  -2.58620
gfz2010exdd  -2.24590
gfz2010exdl  -1.71250
gfz2010exed  -2.39010
gfz2010exgb  -1.69350
gfz2010exhd  -2.29220
gfz2010exhw  -2.28320
gfz2010exjw  -1.53640
gfz2010exmc  -1.20450
gfz2010exno  -2.36560
gfz2010ezax  -1.59980
gfz2010ezck  -0.33840
gfz2010ezwz  -1.57010
gfz2010fcax  -0.86040
gfz2010fciw   0.08250
gfz2010fcnn  -2.33860
gfz2010fczt  -1.65530
gfz2010fedq  -0.58380
gfz2010ffhq  -1.38750
gfz2010ffjb  -0.98990
gfz2010fihj  -0.16700
gfz2010fika  -1.56780
gfz2010fjal  -0.69900
gfz2010flha  -2.73700
gfz2010flxi  -2.53800
gfz2010fmwb   0.02170
gfz2010fona  -1.24210
gfz2010fpqy  -1.57750
gfz2010fqtj  -1.40280
gfz2010fwlb  -1.43650
gfz2010fwpv  -1.32700
gfz2010fync  -1.87450
gfz2010gcdn   0.75900
gfz2010gcrl  -1.56900
gfz2010gcrp   0.29830
gfz2010gdld  -2.14340
gfz2010gjia  -1.59000
gfz2010sfee  -1.91250
gfz2010skve  -0.08390
gfz2010srdb  -1.65750
gfz2010swcy  -1.69620
gfz2010txjs  -1.42640
gfz2010upfb  -0.94370
gfz2010usho  -0.90380
gfz2010ustq  -1.06680
gfz2010utcg  -1.78990
gfz2010xgzw  -0.39840
gfz2010xjck  -1.55440
gfz2011cfae  -0.31950
gfz2011cykd  -2.04420
gfz2011cyuk  -3.62540
gfz2011dbev  -1.81290
gfz2011dbig  -1.57510
gfz2011dbon  -1.60780
gfz2011dcqb  -1.89570
gfz2011dlyx  -2.06940
gfz2011dpqx  -1.56040
gfz2011ehzq  -2.18250
gfz2011enva  -1.79790
gfz2011fgvr  -1.06140
gfz2011fhag  -0.37920
gfz2011gbmx  -1.46630
gfz2011gkzt  -2.34740
gfz2011hfkj  -2.07240
gfz2011hlqw  -1.43760
gfz2011hlsa  -1.35830
gfz2011hpqp  -1.68710
gfz2011hvbu  -1.15260
gfz2011ieie   0.10610
gfz2011ixai  -0.98890
gfz2011kqwo  -3.21030
gfz2011kwjx  -1.95030
gfz2011kwsz  -1.78340
gfz2011kxzp  -1.41130
gfz2011lcxq  -1.59120
gfz2011lczg  -2.14000
gfz2011lzwj  -1.03420
gfz2011mdie  -1.57130
gfz2011mpme  -1.71100
gfz2011myia  -1.31760
gfz2011necz  -2.39530
gfz2011ntkh  -1.21760
gfz2011nudm  -1.58590
gfz2011ohcy  -0.72540
gfz2011olkk  -1.38240
gfz2011owvz  -1.90100
gfz2011rabm  -0.34910
gfz2011rewa  -1.71150
gfz2011rgwp   0.40870
gfz2011rsrh  -1.65310
gfz2011sagt  -1.53960
gfz2011xyxj  -0.65680
gfz2012bpkx  -2.23950
gfz2012bpwl  -1.67160
gfz2012cmfy  -2.50870
gfz2012cnod  -1.16130
gfz2012covm  -0.87430
gfz2012cqnl  -1.44670
gfz2012cqtc  -0.45470
gfz2012cxdn  -2.07290
gfz2012czlw  -1.41720
gfz2012dyyh  -1.03390
gfz2012ekda  -1.75230
gfz2012enno  -1.32570
gfz2012ewgo  -1.33940
gfz2012fhnh  -1.34850
gfz2012fwfo  -2.73830
gfz2012fzfa  -1.19310
gfz2012hnul  -0.48460
gfz2012ihdl  -2.20480
gfz2012ilvn  -1.39180
gfz2012jlox  -2.30430
gfz2012jshk  -2.41440
gfz2012jupx  -1.74300
gfz2012kbjb  -0.85250
gfz2012keor  -2.62420
gfz2012kkup  -1.29080
gfz2012klhx   0.01520
gfz2012kuct  -1.43970
gfz2012kudo  -1.82200
gfz2012kwgo  -1.07280
gfz2012lczo  -1.07350
gfz2012ldxg  -2.16080
gfz2012lxkv  -1.90530
gfz2012minr  -1.14170
gfz2012nedn  -2.87340
gfz2012poju   1.74130
gfz2012rwov  -2.95760
gfz2012rypu  -2.63950
gfz2012sphd  -0.57750
gfz2012ttoa  -1.63410
gfz2012tvmv  -1.25960
gfz2012uafg  -1.86190
gfz2012uhup  -2.62000
gfz2012vrgb  -1.57330
gfz2012wklq  -2.70350
gfz2012wxlg  -2.58900
gfz2012wypz  -1.23260
gfz2012zemz  -1.78380
gfz2012zitl  -0.94020
gfz2013ccnr  -2.91250
gfz2013cwpn  -0.98540
gfz2013dofo  -2.54970
gfz2013dojq  -0.44980
gfz2013drxz  -1.95170
gfz2013fiud  -2.28110
gfz2013fkii   1.11490
gfz2013gngz  -3.56990
gfz2013gvex  -1.13530
gfz2013ifpq  -1.18020
gfz2013ikgo  -1.98260
gfz2013ilug  -2.74600
gfz2013jesk  -1.13830
gfz2013jgij  -1.82470
gfz2013jgip  -1.59590
gfz2013jkut  -1.60050
gfz2013jusj  -2.34290
gfz2013jwvc   1.90350
gfz2013kdeo   1.29470
gfz2013kheb  -1.71870
gfz2013kvtk  -1.44330
gfz2013ldpc  -0.47450
gfz2013ldqb  -1.70700
gfz2013lixa  -2.08570
gfz2013lwbk  -2.55280
gfz2013lyko  -1.67180
gfz2013mtqd  -0.51140
gfz2013nkgj  -1.98280
gfz2013nwdi  -1.57820
gfz2013pfbx  -1.83570
gfz2013pfeb  -1.31140
gfz2013pxsj  -0.36090
gfz2013qali  -1.82360
gfz2013qmer  -1.61250
gfz2013qzdq  -1.93110
gfz2013shzy  -1.32660
gfz2013suvn  -0.33230
gfz2013svci  -1.85370
gfz2013tcxq  -1.01940
gfz2013tjlx   2.31700
gfz2013tusd  -1.74140
gfz2013uhlm  -1.16380
gfz2013uqsp  -1.37600
gfz2013vfyw  -0.81180
gfz2013vfzp   0.07800
gfz2013vgpf  -1.28850
gfz2013vjjc  -2.67250
gfz2013wjmm  -1.85980
gfz2013xsdt  -1.10510
gfz2013xxxq  -2.13530
gfz2013yctg  -0.67470
gfz2013yqkv  -1.25240
gfz2014afmx  -1.56060
gfz2014agyz  -0.02000
gfz2014algk  -1.92930
gfz2014ande  -1.34330
gfz2014bwue  -1.18060
gfz2014bzxy  -1.95440
gfz2014cvkm  -1.71820
gfz2014czua  -0.86480
gfz2014dddc  -1.48670
gfz2014dhxt  -1.46230
gfz2014disp  -1.95380
gfz2014femz  -1.15540
gfz2014fgvi  -0.94510
gfz2014fhla  -3.18440
gfz2014frdz  -1.44170
gfz2014frel  -1.13140
gfz2014frez  -1.48650
gfz2014ftka  -2.34130
gfz2014ftno  -0.10210
gfz2014ftoc  -1.79720
gfz2014fval  -1.64990
gfz2014fvrg  -2.17550
gfz2014gbcz  -2.60040
gfz2014ghpe  -1.88590
gfz2014gkgf  -2.59060
gfz2014gkhy  -0.56780
gfz2014gkjl  -2.44280
gfz2014gkob  -1.52100
gfz2014gkqf  -1.14940
gfz2014gkqu  -0.45510
gfz2014gksj  -0.50760
gfz2014glcu  -0.85920
gfz2014gltx  -1.70700
gfz2014gmge  -1.55900
gfz2014gmhr  -2.07600
gfz2014gmip  -1.22540
gfz2014gmku  -2.19980
gfz2014gmnb  -1.89220
gfz2014gmnw  -1.28640
gfz2014gnwg   0.09420
gfz2014goba  -2.01020
gfz2014gpya  -0.57770
gfz2014gsqs  -1.98620
gfz2014gull  -1.44940
gfz2014gxxo  -2.59860
gfz2014hagb  -0.59290
gfz2014hasj  -2.29730
gfz2014jwmh  -1.08100
gfz2014kbuk  -2.02360
gfz2014khlk  -0.31910
gfz2014kmmt  -1.87300
gfz2014kndc  -1.76680
gfz2014knks  -1.67940
gfz2014lefs  -2.72670
gfz2014lgqn  -1.30330
gfz2014lkyf  -1.64290
gfz2014lxnc  -1.83080
gfz2014lyhp  -2.02310
gfz2014macx  -1.68300
gfz2014mtum  -1.77830
gfz2014npeo  -1.15850
gfz2014nphm  -1.41480
gfz2014nqfm  -1.72630
gfz2014nrie  -2.02890
gfz2014nyko  -1.18450
gfz2014oinz  -0.89630
gfz2014okxu  -0.77850
gfz2014pkll  -2.59910
gfz2014pngj   0.28430
gfz2014pvch  -3.30140
gfz2014qjgp  -1.20040
gfz2014qlxd  -0.52360
gfz2014qngj  -1.57620
gfz2014qqhm  -2.70240
gfz2014ssvz  -2.53710
gfz2014szzf  -1.30530
gfz2014tqdo  -1.79310
gfz2014tqsf  -2.37960
gfz2014ubwn  -0.97480
gfz2014watn  -1.70060
gfz2015aruz  -1.71070
gfz2015berb  -1.38850
gfz2015byjd  -1.26280
gfz2015chhn  -2.41570
gfz2015cyjd  -1.92350
gfz2015jwgl  -1.91380
gfz2015kakw  -2.01660
gfz2015kfsu  -2.53040
gfz2015kphk  -4.00430
gfz2015kquq  -0.97290
gfz2015ksni  -1.80030
gfz2015lhjy  -1.30050
gfz2015lytv  -3.42320
gfz2015mddr  -0.87570
gfz2015mpte  -1.66030
gfz2015nuxz  -2.24920
gfz2015nwug  -1.25840
gfz2015ocdz  -0.70310
gfz2015okmq  -1.37130
gfz2015oyfl  -1.85800
gfz2015poni  -2.37660
gfz2015qisx   0.19590
gfz2015qnho  -1.68440
gfz2015rkbq  -1.78790
gfz2015rkrg  -1.79570
gfz2015sfdd  -1.67770
gfz2015sfdy  -1.42370
gfz2015sfeo  -1.62670
gfz2015sfhz  -1.66510
gfz2015sfiq  -1.02290
gfz2015sfnb  -2.21780
gfz2015sfno  -1.73190
gfz2015sfnv  -1.17330
gfz2015sfoc  -2.22680
gfz2015sfqr   0.05650
gfz2015sfrc  -1.75300
gfz2015sftu  -2.73780
gfz2015sfwf  -1.46350
gfz2015sgad  -3.16930
gfz2015sgyd  -1.00820
gfz2015shhg  -1.88210
gfz2015shjn  -1.48220
gfz2015shsz   1.63660
gfz2015sjgk  -1.45700
gfz2015sjoj  -1.26290
gfz2015sjvu  -1.29960
gfz2015skxu  -1.37310
gfz2015sljs   0.45180
gfz2015smym  -1.60740
gfz2015snsf  -1.75260
gfz2015snwh  -1.68540
gfz2015snyd  -1.44700
gfz2015soat  -1.38890
gfz2015soxc  -1.98450
gfz2015svwm  -1.88900
gfz2015szcb  -1.52390
gfz2015taml  -1.13000
