# Nsamples: 241  MAD:  0.637  mean:  0.177  variance:  0.710
gfz2010ahqi  -0.00000
gfz2010bjeb  -0.28150
gfz2010bowy   0.15610
gfz2010boxo  -0.11770
gfz2010bxxs   1.02310
gfz2010caft  -0.26530
gfz2010cbkg   0.05460
gfz2010cdbt   0.60370
gfz2010cjqh   0.48450
gfz2010cqwl   0.29510
gfz2010czps   0.74700
gfz2010dlgc   0.55750
gfz2010irvf   0.12450
gfz2010iull   1.34480
gfz2010jkxj  -0.21320
gfz2010jucj  -0.84170
gfz2010jxbm  -0.35990
gfz2010kdyc  -1.26570
gfz2010lczp  -0.10290
gfz2010lluj  -0.19050
gfz2010mipi  -0.74090
gfz2010mkuu   0.32230
gfz2010mncc  -0.02200
gfz2010moyw   0.17720
gfz2011cykd   0.23260
gfz2011cyuk  -0.36470
gfz2011dpqx   0.23300
gfz2011ecaj   0.28560
gfz2011enva   0.73500
gfz2011flgj   2.80640
gfz2012aqgp  -0.22840
gfz2012cxdn  -0.85860
gfz2012czlw   1.23990
gfz2012deri  -0.62100
gfz2012dyyh  -0.16020
gfz2012emjg   0.73930
gfz2012enno   0.31570
gfz2012ewgo   3.07310
gfz2012fzfa   0.48610
gfz2012gill  -0.97720
gfz2012gomm  -0.21330
gfz2012gwqb   0.48690
gfz2012hnul   1.60360
gfz2012ilvn  -0.88310
gfz2012jgvj   0.02040
gfz2012jlox   0.98480
gfz2012jupx  -0.12250
gfz2012keor  -0.16170
gfz2012kkup  -0.13590
gfz2012klhx  -0.07890
gfz2012minr  -0.24960
gfz2012rqlg  -0.99430
gfz2012teic   0.00000
gfz2012ttoa  -1.12770
gfz2012tvmv   0.28120
gfz2012uafg   0.13830
gfz2012uaqj   0.13010
gfz2012uciv   2.97630
gfz2012uvqf  -0.30070
gfz2012vrgb   0.78340
gfz2012wizz  -1.22910
gfz2012wklq  -1.38840
gfz2012wmsg  -0.25750
gfz2012wxlg  -1.08720
gfz2012wybs   0.97890
gfz2012wypz   0.66990
gfz2012xbjq   0.65630
gfz2012xyqp   1.57760
gfz2013ccnr  -0.11090
gfz2013cwpn   0.32540
gfz2013dvyh   2.57930
gfz2013gdnq  -0.64730
gfz2013ifpq   0.91050
gfz2013iodt  -0.47000
gfz2013iunn   0.15300
gfz2013jesk  -0.34610
gfz2013jgip   0.36270
gfz2013kdeo  -0.03970
gfz2013ldqb  -0.54670
gfz2013lixa   2.30380
gfz2013mwbh   0.51960
gfz2013ncjp  -0.05620
gfz2013ndin   0.44460
gfz2013nkgj   0.36170
gfz2013nknw   0.04650
gfz2013pfbx  -0.07100
gfz2013qcck   0.10580
gfz2013roki   0.84380
gfz2013sdus   0.34470
gfz2013svci   1.38370
gfz2013tcxc  -0.13700
gfz2013tusd  -0.13990
gfz2013tvmw   0.60980
gfz2013uauo  -0.76550
gfz2013vfzp   1.61060
gfz2013viul   0.56550
gfz2013vjjc  -0.75110
gfz2013wjmm   1.65030
gfz2013wtzl  -0.39510
gfz2013xsdt   1.21090
gfz2013yhbu  -0.21130
gfz2013ypdc  -0.03980
gfz2013yqkv   1.04360
gfz2014afmx   0.06710
gfz2014ande   0.36900
gfz2014arpf   0.20270
gfz2014bwue   0.59900
gfz2014bzxy  -2.25110
gfz2014czqi   0.26700
gfz2014czua   0.23870
gfz2014femz   0.51860
gfz2014fgvi   1.70500
gfz2014fhdw  -2.13020
gfz2014fhla  -1.31850
gfz2014fhrq   0.81000
gfz2014fimn   0.70610
gfz2014fnyg   0.24920
gfz2014frdz   0.23030
gfz2014frez   0.17430
gfz2014ftka  -1.69860
gfz2014furx  -0.52790
gfz2014fusj   0.22570
gfz2014fval   0.84850
gfz2014fvrg   0.30160
gfz2014gbcz   0.15850
gfz2014ghpe  -0.22650
gfz2014gkgf   0.32490
gfz2014gkhy   0.92940
gfz2014gkqf   0.82530
gfz2014glcu  -1.27340
gfz2014gmge   1.05730
gfz2014gmhr   1.07050
gfz2014gmnb   1.09140
gfz2014gmnw   1.02590
gfz2014goba   1.21400
gfz2014gqer   1.97110
gfz2014gsqs   0.52290
gfz2014gull   0.24680
gfz2014gvqj  -0.95820
gfz2014gwab   0.36020
gfz2014gxkh  -0.72280
gfz2014gxxo  -0.27110
gfz2014hasj  -0.52220
gfz2014hcmj  -0.51760
gfz2014hjgh   0.10760
gfz2014hjgr   0.42310
gfz2014hjij  -0.15660
gfz2014hocg   0.31470
gfz2014hqxs  -0.15560
gfz2014hyal   0.83030
gfz2014ijvh   0.12280
gfz2014inbj  -0.10630
gfz2014jjhc   0.39010
gfz2014jjln   0.54010
gfz2014jnyv   0.12760
gfz2014jpep   0.85350
gfz2014kndc  -0.46420
gfz2014knks   0.97750
gfz2014kyan  -2.30450
gfz2014kytf  -0.59500
gfz2014lgqn   1.06890
gfz2014lwom  -0.26430
gfz2014lxnc  -0.14340
gfz2014lyhk   0.15730
gfz2014lyhp   0.32660
gfz2014macx   0.19960
gfz2014madw  -0.36540
gfz2014npeo   0.04460
gfz2014nqfm   0.54830
gfz2014nrie   1.43430
gfz2014oinz   0.25550
gfz2014owxc   0.14700
gfz2014pvch   0.15790
gfz2014qlxd   0.62550
gfz2014qngj  -0.60630
gfz2014qqhm   1.16020
gfz2014rdsn   0.85840
gfz2014riel  -0.83000
gfz2014ssvz   0.32230
gfz2014tqdo   0.72260
gfz2014tqsf  -2.19450
gfz2014ubwn   0.67510
gfz2014vhuy  -0.27440
gfz2014vjoz   0.22240
gfz2014watn  -0.03370
gfz2014yhhm  -0.07310
gfz2015ansu  -0.35110
gfz2015aruz   0.70560
gfz2015atxv  -0.96100
gfz2015berb   0.43290
gfz2015bphe   0.46510
gfz2015chhn   0.27260
gfz2015cxxk   0.66260
gfz2015cyjd   0.13610
gfz2015czfv   0.49590
gfz2015dvbn   0.71370
gfz2015egxq   0.74500
gfz2015eiky   0.51530
gfz2015fsjj   1.21900
gfz2015gckd   0.82540
gfz2015ggjw  -0.02200
gfz2015hgbk   0.34700
gfz2015igsy   0.33580
gfz2015jmlu  -0.11320
gfz2015jzcv   0.29610
gfz2015kquq  -3.36530
gfz2015kxxs   1.26280
gfz2015lfud  -0.03640
gfz2015lhjq  -0.90280
gfz2015lhjy   0.70300
gfz2015lytv  -0.58350
gfz2015mddr   0.71760
gfz2015mpte   0.91200
gfz2015nwug  -0.23900
gfz2015okmq   0.11080
gfz2015oyfl   1.19230
gfz2015qnho   0.06010
gfz2015rddx   0.02180
gfz2015rkzg   0.69830
gfz2015saet   0.81190
gfz2015sfdd   0.08430
gfz2015sfdy   0.20390
gfz2015sfeo   1.45070
gfz2015sfnb   1.03720
gfz2015sfno   0.48060
gfz2015sgdj   0.59180
gfz2015sgdn  -0.58040
gfz2015sguf  -1.60140
gfz2015sjoj   0.73340
gfz2015sjvu  -0.08370
gfz2015skxu  -1.05580
gfz2015smym   0.08480
gfz2015snsf  -0.64210
gfz2015snwh   0.12500
gfz2015snyd  -1.39210
gfz2015soat   0.14950
gfz2015soxc   0.18060
gfz2015svwm   0.14880
gfz2015szcb  -0.11790
gfz2015taml   0.01350
gfz2015tbdn  -0.34900
