# Nsamples: 35  MAD:  0.516  mean:  0.468  variance:  0.793
gfz2010bjeb   1.33000
gfz2010eaoy   1.12300
gfz2010eltf   0.40140
gfz2010ftlm  -0.13860
gfz2010grjd   0.34200
gfz2010iull   0.24580
gfz2010rqwj   3.14770
gfz2011csju  -0.63980
gfz2011hlqw   0.66270
gfz2011hlsa   0.43410
gfz2011lcxq   0.03040
gfz2011lzwj   0.74950
gfz2011mdie   1.00350
gfz2011owvz   0.38570
gfz2011rewa   0.48910
gfz2011toub   0.48490
gfz2011wxfs   0.08220
gfz2012ttoa   1.29400
gfz2012wypz   0.45840
gfz2013ccnr  -0.53920
gfz2013drxz   0.68010
gfz2013nkgj  -0.23990
gfz2013nwdi  -0.78000
gfz2013qmer   0.20700
gfz2013svci   0.16340
gfz2013vjjc   3.54910
gfz2014fgvi   0.86340
gfz2014fhla   0.21610
gfz2014ftka  -0.47380
gfz2014lxnc  -0.91420
gfz2015cyjd   0.81750
gfz2015fsjj   0.40800
gfz2015lhjy   0.23090
gfz2015lytv  -0.11990
gfz2015mpte   0.43660
