# Nsamples: 31  MAD:  1.046  mean:  0.804  variance:  0.916
gfz2010eaoy   0.02160
gfz2010elyc   1.57470
gfz2010excp  -1.23810
gfz2010exdd   1.92840
gfz2010ffhq   0.31430
gfz2010iull   1.56340
gfz2011aatr   0.33420
gfz2011rewa   0.42280
gfz2011toub   1.21700
gfz2011wxfs   1.78450
gfz2012enno   0.59930
gfz2012jlox   1.16510
gfz2012kkup   1.65890
gfz2012wypz   0.85760
gfz2013ccnr   0.32500
gfz2013nwdi   1.36960
gfz2013rdoo  -1.23020
gfz2013svci   2.10270
gfz2014fgvi   1.90140
gfz2014fhla   2.20070
gfz2014ftka   0.37140
gfz2014gkgf   1.28650
gfz2014gmhr   1.91980
gfz2014heyq  -0.99320
gfz2015fsjj   1.59100
gfz2015lhjy   1.04800
gfz2015lytv  -0.67410
gfz2015sfdd  -0.21980
gfz2015snwh   0.66790
gfz2015soxc   0.42570
gfz2015svwm   0.62650
