# Nsamples: 59  MAD:  0.591  mean:  0.030  variance:  0.465
gfz2012enno   0.12540
gfz2012fzfa   0.35730
gfz2012hnul   1.11310
gfz2012jlox   0.19260
gfz2012kkup  -0.52460
gfz2012klhx  -0.09190
gfz2012kuct  -0.19160
gfz2012kudo  -0.21210
gfz2012ldxg   0.20000
gfz2012ldzj  -0.40060
gfz2012minr   0.52350
gfz2012teic  -0.04070
gfz2012ttoa   0.22600
gfz2012uaqj   0.04490
gfz2012vrgb   0.57900
gfz2012wypz   0.36780
gfz2013ccnr  -1.46790
gfz2013drxz  -0.65600
gfz2013jkut   0.68400
gfz2013kdeo   0.05310
gfz2013ldqb  -0.36200
gfz2013mwbh  -0.14890
gfz2013nkgj  -1.88840
gfz2013nknw  -0.07750
gfz2013nwdi  -0.24700
gfz2013svci   0.60710
gfz2013uauo  -1.07650
gfz2013vjjc   1.60520
gfz2013xsdt   0.59980
gfz2014bwue   0.24800
gfz2014fgvi   0.67770
gfz2014fhla   0.57610
gfz2014fhrq  -0.47980
gfz2014ftka  -0.39830
gfz2014gmge   2.10110
gfz2014gmhr   1.28220
gfz2014kitm   0.25860
gfz2014lgqn  -0.05460
gfz2014nqfm  -0.18550
gfz2014oinz  -0.65050
gfz2014owxc  -0.48150
gfz2014qlxd   0.23120
gfz2014qqhm   0.93590
gfz2014ssvz   0.58170
gfz2014vjoz  -0.39430
gfz2015berb  -0.00000
gfz2015chhn  -0.31290
gfz2015cyjd  -0.10880
gfz2015fsjj   0.39740
gfz2015gckd   0.44900
gfz2015ggjw   0.12540
gfz2015lhjy   0.26020
gfz2015sfdd  -0.49010
gfz2015sfdy  -0.48670
gfz2015sfno  -0.47440
gfz2015sjbx  -0.99330
gfz2015snwh  -1.12360
gfz2015soxc  -0.19000
gfz2015taml   0.60070
