# Nsamples: 758  MAD:  0.748  mean:  0.678  variance:  0.976
gfz2010bfzs  -0.42590
gfz2010bifb   0.88480
gfz2010bjeb   0.50840
gfz2010bxxs   0.05700
gfz2010caft   0.72840
gfz2010cbkg   0.89690
gfz2010dlgc  -0.71090
gfz2010eaoy  -2.09720
gfz2010eapk  -1.44500
gfz2010eapn  -0.59440
gfz2010eaqy  -1.17120
gfz2010earq  -0.46370
gfz2010earu  -1.40100
gfz2010easo  -0.42870
gfz2010easu  -0.91620
gfz2010eato  -0.50960
gfz2010eazu  -3.35580
gfz2010ebhc  -0.08440
gfz2010ebnn  -1.49000
gfz2010ebvm   0.82800
gfz2010ebvv  -0.36910
gfz2010ecua  -0.42830
gfz2010edhv  -2.49430
gfz2010eisx  -6.71140
gfz2010ejjg  -0.67030
gfz2010ekyc  -0.13130
gfz2010eltf  -1.65600
gfz2010elyc  -1.53810
gfz2010excp  -1.89740
gfz2010exdd   1.07750
gfz2010exgb   2.99220
gfz2010fedq  -4.39670
gfz2010ffhq   0.15120
gfz2010fync   0.59710
gfz2010gcrl   1.71630
gfz2010gdld   0.43130
gfz2010gyqp  -0.09530
gfz2010gzxr  -0.76130
gfz2010hcio  -0.44020
gfz2010hlco  -0.13350
gfz2010hllj   1.03340
gfz2010hlmq  -0.76820
gfz2010hmhm   0.13540
gfz2010hnnf   0.09040
gfz2010hnpi  -0.32960
gfz2010homc   0.22490
gfz2010hptz  -0.05740
gfz2010hrkr   1.09550
gfz2010hrpr   0.96300
gfz2010hxgv   0.37220
gfz2010icqq  -0.12670
gfz2010ihrq   2.91160
gfz2010iibf  -0.10500
gfz2010iimu   0.86840
gfz2010imfv   0.56280
gfz2010iobp   0.09920
gfz2010iqnm  -0.97950
gfz2010iull   0.24310
gfz2010izzj   0.41150
gfz2010jant  -0.43380
gfz2010jatq  -0.45580
gfz2010jhie   0.18210
gfz2010jipf   1.23080
gfz2010jpyj   0.90460
gfz2010jqxx   0.58090
gfz2010jssh  -0.24980
gfz2010jwpy   0.24150
gfz2010jxbm  -0.76700
gfz2010jygz   0.72350
gfz2010kdyc   0.82110
gfz2010kqyh  -0.10670
gfz2010lcoq  -0.57070
gfz2010lgwy   0.61240
gfz2010lluj   0.85190
gfz2010lopz   2.32550
gfz2010mant  -0.62740
gfz2010mbje   1.70400
gfz2010ncrl  -0.05650
gfz2010nmpc  -1.81610
gfz2010nqwf  -0.50390
gfz2010nqwo  -0.13520
gfz2010nrjo   0.15520
gfz2010nsck  -0.24530
gfz2010ntuo  -0.93680
gfz2010nwef   0.58290
gfz2010nxsy  -0.16390
gfz2010nxum   0.20300
gfz2010ocxq  -0.60160
gfz2010okdm  -0.62380
gfz2010oluw   0.05650
gfz2010osjs  -0.39650
gfz2010osqo   0.58420
gfz2010otbn   0.99970
gfz2010pets   0.67510
gfz2010pewx  -0.67690
gfz2010pexf  -0.31840
gfz2010pmqd  -0.63240
gfz2010pqck  -0.69680
gfz2010qitd   0.57180
gfz2010qjst  -0.16690
gfz2010qpum   0.98330
gfz2010qpvi  -0.16640
gfz2010rqwj  -3.04200
gfz2010sfee   0.15630
gfz2010sysw   0.65470
gfz2010truw   0.35690
gfz2010txjs   0.70790
gfz2010upfb  -0.47150
gfz2010upiw   1.15240
gfz2010uzon   2.52430
gfz2010vbmd   1.07870
gfz2010vyxd   0.34950
gfz2010wntz   0.02670
gfz2010xden   2.61570
gfz2010xjck   0.67680
gfz2010xjsj   2.16730
gfz2010xmpr   0.78270
gfz2010xxdb   1.13080
gfz2010ymfy   1.16220
gfz2011cndo   0.90170
gfz2011csju   1.07210
gfz2011cvfg   1.03710
gfz2011cykd  -2.87440
gfz2011cyre  -0.35440
gfz2011dbev  -0.35630
gfz2011dbig  -0.56350
gfz2011dbon   0.48230
gfz2011dcqb  -0.78280
gfz2011dcqf   0.47780
gfz2011dkyi   1.49950
gfz2011dlyx   0.83430
gfz2011dpqx  -0.57460
gfz2011eazf   0.76850
gfz2011ecaj   0.06580
gfz2011enva  -0.57370
gfz2011eocc   1.43330
gfz2011etje   0.41080
gfz2011fhur   1.66970
gfz2011fnsw   1.50400
gfz2011gbmx   0.64670
gfz2011gcwb   0.74800
gfz2011gjlx   0.62500
gfz2011gkzt  -0.35340
gfz2011hfkj   0.26030
gfz2011hlqw  -0.07660
gfz2011hlsa  -0.03190
gfz2011hpgx  -0.06100
gfz2011ieie   1.43330
gfz2011iwte   0.09100
gfz2011jghb  -0.17410
gfz2011jmbn   0.91980
gfz2011jplh   0.34070
gfz2011juid  -0.60020
gfz2011kqyg   0.60430
gfz2011kwni   0.81780
gfz2011kxzp   0.15780
gfz2011lcxq   0.68070
gfz2011lgsg   0.73380
gfz2011lzwj  -0.24260
gfz2011mdie   1.32630
gfz2011mpme   0.03820
gfz2011nmnq   0.37610
gfz2011ntkh   0.96870
gfz2011ogqk  -1.17330
gfz2011oiqe   1.09550
gfz2011orgn   1.37430
gfz2011owvz   0.58180
gfz2011ozsl   1.79770
gfz2011pccd   0.64750
gfz2011pdpt   1.50660
gfz2011qvae   0.41470
gfz2011rabm  -0.27780
gfz2011rewa  -0.46900
gfz2011rgwp   1.03490
gfz2011rsrh   0.49480
gfz2011rznl   1.55770
gfz2011sagt   1.09830
gfz2011sawg   0.34850
gfz2011taps   0.26630
gfz2011tbas   0.91550
gfz2011tcij   0.93860
gfz2011tjrf   1.12380
gfz2011tkfp  -0.48080
gfz2011toub   0.48030
gfz2011ujze   1.87780
gfz2011ukmp   1.32960
gfz2011uphh   1.36770
gfz2011vhfi   0.78820
gfz2011vldk   1.44050
gfz2011vnza   1.83860
gfz2011vxns  -0.30620
gfz2011vxod   1.28010
gfz2011wcic   0.11920
gfz2011wjul   1.62050
gfz2011wwjs   0.09240
gfz2011wxfs   1.51460
gfz2011wxtk   1.31630
gfz2011wype  -0.60410
gfz2011xaan   0.29510
gfz2011xcpv   0.66900
gfz2011xesx   0.90020
gfz2011xyxj   0.93980
gfz2011yfdx   1.26030
gfz2011yhwz   0.60860
gfz2011yybo   1.38110
gfz2011zklv   2.04670
gfz2012aqgp   1.47990
gfz2012bpkx  -0.10850
gfz2012enno   0.60060
gfz2012fzfa   0.13650
gfz2012hnul   1.47420
gfz2012hzbe   0.80540
gfz2012ihdl   1.20090
gfz2012ilvn   0.97380
gfz2012imay   0.50840
gfz2012intn   0.67560
gfz2012jlox  -0.10000
gfz2012jshk   1.98070
gfz2012jupx   0.24190
gfz2012kbjb   0.69140
gfz2012kuct   0.02310
gfz2012kudo   0.18840
gfz2012ldxg  -0.01790
gfz2012mkpn   0.74620
gfz2012mvwr   0.61160
gfz2012ngic   0.92960
gfz2012njha   1.02930
gfz2012nkdf  -0.41460
gfz2012nxyt  -0.33530
gfz2012oazn  -0.60570
gfz2012obgw   0.32560
gfz2012oedb   1.06650
gfz2012oycg  -0.01790
gfz2012peki  -0.06040
gfz2012repv   0.50800
gfz2012rwko   0.44680
gfz2012rwov   0.79990
gfz2012rypu   0.53310
gfz2012sphd   0.71290
gfz2012tbbp  -0.02270
gfz2012tpzx   4.08700
gfz2012ttoa   0.91600
gfz2012tvmv  -0.59730
gfz2012tyig   1.38630
gfz2012tzcc   1.64640
gfz2012uafg  -0.42570
gfz2012uaqj   0.94200
gfz2012uciv  -0.19430
gfz2012uyxb   0.86390
gfz2012uzom  -0.00450
gfz2012vntz   1.07690
gfz2012vrgb   0.82630
gfz2012wklq  -0.49150
gfz2012wmkd   1.17360
gfz2012wmsg   1.31600
gfz2012wtkr   1.50360
gfz2012wxer   0.85060
gfz2012wxkg   1.16600
gfz2012wxlg   0.06080
gfz2012wxnu   0.76070
gfz2012wypz   1.48390
gfz2012zfag   1.09370
gfz2012zitl  -0.07990
gfz2012zmbp   2.24940
gfz2013ccnr   1.20400
gfz2013drxz   0.95710
gfz2013fdoo   5.51430
gfz2013fiud   1.37680
gfz2013fygc   0.76220
gfz2013gbcn   0.80190
gfz2013gdnq   0.50140
gfz2013gngz   2.07490
gfz2013gras   0.50990
gfz2013hfmp   0.62590
gfz2013hkja   0.77240
gfz2013hmbc   0.26660
gfz2013iapa   0.82240
gfz2013ijsr   1.46520
gfz2013ilug   0.04490
gfz2013ippu   1.47470
gfz2013iunn   0.79120
gfz2013jesk  -0.26310
gfz2013jgij   1.11620
gfz2013jgip   1.67730
gfz2013jkut   1.50200
gfz2013jusj  -1.01230
gfz2013kdeo   1.30440
gfz2013kheb   0.03950
gfz2013kvtk   0.86200
gfz2013kweg   1.82630
gfz2013lajn   1.12110
gfz2013lbiu   2.92090
gfz2013ldos   1.49370
gfz2013ldqb   0.90120
gfz2013lixa   1.13670
gfz2013lsob   1.27350
gfz2013lyko   0.94380
gfz2013mded   0.04950
gfz2013mqmv   1.66760
gfz2013mvgr   1.12630
gfz2013mwbh   0.57460
gfz2013ncjp   3.05520
gfz2013ngnt   0.34200
gfz2013nixj   0.85270
gfz2013nkgj   1.78210
gfz2013nlxz   1.44750
gfz2013nmac   0.83480
gfz2013nojf   1.11080
gfz2013nwdi   0.48200
gfz2013ornz   2.02690
gfz2013pcos   0.65320
gfz2013pfbx   0.78940
gfz2013pfeb   0.82310
gfz2013pffm   1.61940
gfz2013phef   0.86170
gfz2013puag   0.74990
gfz2013pxsj   2.84990
gfz2013qfmm   1.02520
gfz2013qmer   1.80840
gfz2013qzdq   1.00400
gfz2013rdoo   1.44370
gfz2013rrza  -0.03610
gfz2013sdus   1.22770
gfz2013sebq   1.69590
gfz2013shlq   0.82040
gfz2013shzy   1.75680
gfz2013skkm   0.92940
gfz2013sllq   0.38230
gfz2013snyf   2.56490
gfz2013sred   1.85910
gfz2013stht  -0.67320
gfz2013suln   1.11010
gfz2013suvn   1.18160
gfz2013svci   0.33600
gfz2013tbzy   0.43230
gfz2013tcxc   0.92960
gfz2013tcxq   0.85720
gfz2013toea   0.89330
gfz2013toxf   1.33350
gfz2013tusd   0.95790
gfz2013tvmw   1.29580
gfz2013txtb   1.18090
gfz2013uauo   0.55560
gfz2013uqsp   0.69640
gfz2013uuzn   0.96120
gfz2013vdic   1.05100
gfz2013vexx   1.10730
gfz2013vfyw   1.67670
gfz2013vfzp   2.03510
gfz2013vgau   3.09620
gfz2013vgrk   1.22200
gfz2013viul   1.07630
gfz2013vjfe   1.11490
gfz2013vjjc  -1.66540
gfz2013vsbl   0.96730
gfz2013vsxi  -1.32500
gfz2013vvrq   0.36920
gfz2013vzbo   0.55290
gfz2013wjmm   0.27800
gfz2013wkyk   0.84140
gfz2013wtzl   0.91660
gfz2013wuon   2.11570
gfz2013xmul   1.28900
gfz2013xsdt   1.90350
gfz2013xvqd   3.23030
gfz2013xwda   1.66670
gfz2013xwzd   1.90480
gfz2013xxwv   1.82240
gfz2013xxxq   1.60090
gfz2013yctg   1.16210
gfz2013yghj   1.22940
gfz2013yhpk   0.55540
gfz2013ylbx  -0.27170
gfz2013ypdc   1.16140
gfz2013yqkv   1.59770
gfz2013yyhc  -3.87660
gfz2013zjel   1.94370
gfz2014adoj   0.89270
gfz2014afmx   0.85380
gfz2014agyz   0.85440
gfz2014ande   0.97210
gfz2014arpf   1.46860
gfz2014bagd   1.03490
gfz2014bezu   0.67500
gfz2014bjsy   0.87270
gfz2014bmta   1.04640
gfz2014bwue   0.71510
gfz2014bzxy   2.23060
gfz2014czol   0.27940
gfz2014czqi   1.35680
gfz2014czua   2.00960
gfz2014dhxt   1.51850
gfz2014disp  -0.47710
gfz2014ekcr   1.38840
gfz2014enhi  -0.46030
gfz2014fhdw   0.78050
gfz2014fhla   0.15850
gfz2014fhrq   1.10030
gfz2014fjzd   0.93720
gfz2014fkmr   2.67540
gfz2014fnyg   1.42780
gfz2014frdz   2.64710
gfz2014frez   1.65060
gfz2014ftka  -0.24220
gfz2014ftoc   1.45790
gfz2014ftpw  -0.53680
gfz2014furx   1.26780
gfz2014fusj   0.88180
gfz2014fuup   2.83810
gfz2014fvaa   1.92460
gfz2014fval   1.21320
gfz2014fvrg   2.19490
gfz2014fxhd   0.53620
gfz2014gbdq  -0.05240
gfz2014ghpe   1.47380
gfz2014gkgf  -0.16510
gfz2014gkgs   0.44520
gfz2014gkhp   0.13020
gfz2014gkjt   0.93440
gfz2014gkob  -3.04120
gfz2014gkpj  -0.69070
gfz2014gkqf   1.54030
gfz2014gkqu   1.25170
gfz2014gktq   1.12100
gfz2014glcu   0.82510
gfz2014glcy   0.27440
gfz2014gmge   1.63710
gfz2014gmhp   0.23730
gfz2014gmhr  -0.37380
gfz2014gmnb   1.54010
gfz2014gmnw   1.32940
gfz2014gndq   1.17540
gfz2014goba   2.57830
gfz2014goqw   1.86970
gfz2014gori   2.35530
gfz2014gpya   1.85750
gfz2014gqbj   2.39740
gfz2014gqer   1.60250
gfz2014gqve   1.65820
gfz2014gsqs   2.02360
gfz2014gull   1.57340
gfz2014gulp   0.43670
gfz2014gwab   2.35260
gfz2014gwgf   0.94430
gfz2014gxxo   0.88520
gfz2014hasj   0.75530
gfz2014hauo   0.36590
gfz2014hbqb   0.76580
gfz2014hfhl   1.51730
gfz2014hgqo   1.00730
gfz2014hkcf   3.29810
gfz2014hocg   1.00330
gfz2014huaj   1.76940
gfz2014hyal   1.77880
gfz2014hyvq   1.98090
gfz2014hzdy   1.16130
gfz2014hzfw   0.12150
gfz2014hzhe   0.57670
gfz2014ikun   0.40730
gfz2014imnn   1.76790
gfz2014inbj   0.74350
gfz2014iobd   1.39740
gfz2014isys   0.98550
gfz2014itkw   1.82620
gfz2014iywt  -0.65650
gfz2014jatq   1.17530
gfz2014jcmt   1.52680
gfz2014jjhc   1.16360
gfz2014jjln   0.45670
gfz2014jlwb   0.01700
gfz2014jmnk   1.23960
gfz2014jnxm   2.48330
gfz2014jnyv   1.11950
gfz2014jomw   1.12310
gfz2014jpep   0.98360
gfz2014jpxs   2.20660
gfz2014jwmh   0.83540
gfz2014kndc   1.18920
gfz2014knks   0.35730
gfz2014knxs   0.47830
gfz2014krlg   0.61710
gfz2014ksdv   1.19900
gfz2014kyan   1.21990
gfz2014kytf   0.32490
gfz2014kzzm   0.22280
gfz2014lbxn   0.69110
gfz2014ldhu   1.22140
gfz2014lefs  -0.46530
gfz2014lkyf   0.62880
gfz2014lmge  -0.56380
gfz2014lpim   0.91310
gfz2014lrzx   0.44730
gfz2014lxnc   1.68220
gfz2014lyhk   1.22730
gfz2014lyhp   1.29150
gfz2014lzow   0.20040
gfz2014macx   0.61940
gfz2014madw   0.56040
gfz2014mawp   0.60960
gfz2014mhgg   0.66190
gfz2014mtum   1.19890
gfz2014mwor   0.33820
gfz2014ngnd   1.33960
gfz2014niqj   0.91270
gfz2014nkdx   1.27480
gfz2014nowp   1.99660
gfz2014npdk   0.78270
gfz2014npeo   0.36740
gfz2014nphm   1.34050
gfz2014nqfm   0.98460
gfz2014nrie   1.40880
gfz2014nylm   0.93420
gfz2014odgv   0.74590
gfz2014oinz   0.52130
gfz2014omyn   1.63350
gfz2014owxc   0.60620
gfz2014oxcc   0.15400
gfz2014pjer   0.45940
gfz2014pkll   0.72580
gfz2014ppyi   1.15520
gfz2014ppzf   1.24950
gfz2014pqqp   0.17760
gfz2014pvch   0.22880
gfz2014qcxs   0.64030
gfz2014qlvc   1.50240
gfz2014qlxd   1.50780
gfz2014qngj   1.11490
gfz2014qqhm   1.19610
gfz2014raau   0.75940
gfz2014rbsl   1.73200
gfz2014rdsn  -0.12890
gfz2014rhju   0.97840
gfz2014riel   0.12290
gfz2014rkwl   0.95820
gfz2014romy   0.26540
gfz2014rtcu   0.42820
gfz2014rucz  -0.59640
gfz2014sadu   0.45950
gfz2014sjqw   0.43870
gfz2014sptq  -0.42250
gfz2014sryn   0.92470
gfz2014ssmv   0.97190
gfz2014ssvz  -0.35260
gfz2014szzf   0.42470
gfz2014tfgn   0.78770
gfz2014tovs   0.98840
gfz2014tqdo   1.22750
gfz2014tute   1.18670
gfz2014tzsd   1.22240
gfz2014ubwn   0.69830
gfz2014udgg   0.70600
gfz2014uohh   0.80500
gfz2014uuuf   1.00690
gfz2014uvji   1.79930
gfz2014vcev   1.19690
gfz2014vhms   1.08330
gfz2014vjoz   0.37620
gfz2014vpus   0.33080
gfz2014wmsc   0.81600
gfz2014wrkh   0.78660
gfz2014xbyr  -1.11020
gfz2014xhkc  -0.42720
gfz2014xjri   0.06490
gfz2014xqqd   0.98650
gfz2014yhhm   1.11870
gfz2015alzx   1.78370
gfz2015aruz   0.67030
gfz2015berb   1.18680
gfz2015chhn  -0.02000
gfz2015fkgt  -0.12760
gfz2015fsjj   0.07170
gfz2015gckd   1.23010
gfz2015ggjw   1.03040
gfz2015gkwa   0.52680
gfz2015guhd   1.05310
gfz2015hdcp   1.29690
gfz2015hgbk   1.28700
gfz2015hpmk   1.12930
gfz2015idho   0.80330
gfz2015igsy   1.35000
gfz2015ixyy   0.27330
gfz2015jpap   0.78980
gfz2015jwgl   0.73500
gfz2015jxbx   0.83660
gfz2015jxjd   1.14640
gfz2015jzcv   0.98210
gfz2015kakw   0.54830
gfz2015kkth   0.57720
gfz2015kquq   1.05110
gfz2015ksni   1.01090
gfz2015kvwz   1.05480
gfz2015kxxs   1.50850
gfz2015lcma   0.93740
gfz2015lhjq   1.24600
gfz2015lhjy   0.85390
gfz2015ltii   1.55050
gfz2015lytv  -1.15450
gfz2015lzad   1.38740
gfz2015mddr   0.77780
gfz2015mfpy   0.44450
gfz2015mljd   0.49710
gfz2015mpte   0.71920
gfz2015nqgf   1.15290
gfz2015ntpk   1.07160
gfz2015nuxz  -0.00000
gfz2015nwug   0.77350
gfz2015ocdz   0.80850
gfz2015ofsr   1.18950
gfz2015okmq   0.99870
gfz2015okpu   1.53310
gfz2015opjp  -0.46860
gfz2015orkl  -0.62410
gfz2015othd   1.57770
gfz2015oyfl   1.34510
gfz2015pjgr   0.98230
gfz2015poni   0.49560
gfz2015prlr   1.21130
gfz2015qnho   0.71980
gfz2015qnto   0.67770
gfz2015rddx   0.77150
gfz2015rkbq   1.12320
gfz2015rkrg   0.75430
gfz2015rkzg   1.34480
gfz2015rpzn   0.57380
gfz2015rwsb   2.09350
gfz2015saet   1.44980
gfz2015sdeo   0.91810
gfz2015sfdd   0.30880
gfz2015sfdl  -0.05900
gfz2015sfdv   0.34250
gfz2015sfdy  -0.56600
gfz2015sfeo  -0.49360
gfz2015sffn  -0.24370
gfz2015sfga  -1.00270
gfz2015sfhz  -0.66600
gfz2015sfiq  -1.35950
gfz2015sfjf   0.86610
gfz2015sfkh   0.34000
gfz2015sfko   0.64910
gfz2015sfks   0.24610
gfz2015sfkz  -0.47840
gfz2015sflf   0.14170
gfz2015sfmd   1.99890
gfz2015sfnb  -2.18720
gfz2015sfno  -0.55520
gfz2015sfnv  -0.39970
gfz2015sfoc   0.12400
gfz2015sfoh   0.95420
gfz2015sfoq   1.91810
gfz2015sfpj   1.90160
gfz2015sfps   0.59160
gfz2015sfqo   0.74420
gfz2015sfqr  -2.05110
gfz2015sfrc  -0.35710
gfz2015sfrv   4.18790
gfz2015sfte   0.46620
gfz2015sftu   0.07490
gfz2015sfuz   1.81370
gfz2015sfwf   1.19440
gfz2015sfxn   0.46360
gfz2015sfzm   0.89810
gfz2015sgad   0.12940
gfz2015sgdj   0.91730
gfz2015sgdn   2.06260
gfz2015sgey   0.15940
gfz2015sggc   0.15630
gfz2015sghq   0.02090
gfz2015sgie   0.92450
gfz2015sglg   0.61360
gfz2015sgmm   1.47540
gfz2015sgmr   0.92030
gfz2015sgoa   0.38330
gfz2015sguf  -0.20300
gfz2015sgyd   0.16380
gfz2015shaq  -0.20870
gfz2015shel   1.15310
gfz2015shhg   0.19860
gfz2015shhu  -0.28280
gfz2015shjn   0.06880
gfz2015shjo   0.24580
gfz2015shlp   1.76900
gfz2015shov   2.75250
gfz2015shqc   1.15780
gfz2015shqe   0.34520
gfz2015shrg   0.80700
gfz2015shsz   1.63680
gfz2015sicf   1.67480
gfz2015sicu   0.93880
gfz2015siem   1.13920
gfz2015siky  -0.85260
gfz2015sing   0.40040
gfz2015sist   1.55830
gfz2015sitn   0.40720
gfz2015sixi   0.36180
gfz2015siyy   0.98240
gfz2015sjbx   1.13520
gfz2015sjeq  -1.42910
gfz2015sjfi   0.99680
gfz2015sjgk   0.70010
gfz2015sjjb   0.47700
gfz2015sjne   0.59910
gfz2015sjoj   0.11520
gfz2015sjpn  -0.43530
gfz2015sjvu   0.43260
gfz2015sjwi  -0.52770
gfz2015skab   1.01570
gfz2015skgj   1.28870
gfz2015skia   0.31320
gfz2015sklu   1.20290
gfz2015skpv   1.20460
gfz2015sldx   0.88760
gfz2015slfn   1.34390
gfz2015sljs   0.06510
gfz2015slun   0.20750
gfz2015smgj   2.17970
gfz2015smym   0.41310
gfz2015snmr   0.36530
gfz2015snsf   0.50040
gfz2015snwh  -0.02520
gfz2015snyd   0.70330
gfz2015soat   1.23680
gfz2015soxc   0.22550
gfz2015sozw   2.16810
gfz2015sqbg   0.94980
gfz2015sqmy   0.98990
gfz2015sqoz  -0.97960
gfz2015sqvx   0.51740
gfz2015sqwv   0.95510
gfz2015srat   0.77420
gfz2015srgf   0.95550
gfz2015ssoe   1.40110
gfz2015ssrl   2.01750
gfz2015stas   0.51030
gfz2015stcv   1.43700
gfz2015stfy   0.04470
gfz2015stso   1.20800
gfz2015subg   1.85150
gfz2015subz   0.80150
gfz2015sudm   1.54880
gfz2015sunp   0.74810
gfz2015supa   1.49750
gfz2015susq  -0.12410
gfz2015svjy   1.14520
gfz2015svwm   0.65960
gfz2015swgn   1.05380
gfz2015sxgd   1.09310
gfz2015sxmh   0.60350
gfz2015sxxu   0.36440
gfz2015szcb   0.81880
gfz2015szfe   0.57410
gfz2015sztx   0.11210
gfz2015taml   0.54180
gfz2015tbdn   0.42510
gfz2015tbje   1.22360
gfz2015tbxe   1.50520
gfz2015tdbb   1.06740
gfz2015tdcu   0.72780
gfz2015teje   0.17370
