# Nsamples: 11  MAD:  1.622  mean:  1.404  variance:  2.206
gfz2010eaoy   2.68480
gfz2010ehxz  -0.76850
gfz2010elyc   4.65590
gfz2010excp   0.30970
gfz2010gcdn   0.46380
gfz2010hlco   1.08050
gfz2010rqwj   0.96990
gfz2013jusj   2.51980
gfz2013vjjc   2.58000
gfz2015lytv   1.02030
gfz2015sfdd  -0.07350
