# Nsamples: 7  MAD:  1.639  mean:  0.815  variance:  1.838
gfz2010eaoy   0.20380
gfz2010earu   0.18360
gfz2010eisx   1.30940
gfz2010exdd   1.87620
gfz2012lltr   3.32470
gfz2013jusj  -0.12080
gfz2015sfdd  -1.06850
