# Nsamples: 43  MAD:  0.342  mean: -0.568  variance:  0.305
gfz2010bxxs  -0.43510
gfz2010grjd   0.25470
gfz2010iull  -0.41320
gfz2010nmpc  -0.55770
gfz2011aatr  -0.48540
gfz2011enva  -0.32700
gfz2011hlqw  -0.56210
gfz2011hlsa  -0.72360
gfz2011lcxq  -0.58330
gfz2011lzwj  -0.47250
gfz2011rewa  -0.39580
gfz2011toub  -0.63670
gfz2011wxfs  -0.66250
gfz2012enno  -0.14220
gfz2012jlox  -1.12580
gfz2012kkup  -0.79080
gfz2012klhx  -0.67530
gfz2012kudo  -0.98230
gfz2012wypz  -0.54780
gfz2013drxz  -0.65850
gfz2013jkut  -0.10140
gfz2013kdeo  -0.25320
gfz2013nwdi  -0.44740
gfz2013pfbx  -1.30250
gfz2013svci  -0.45240
gfz2014bwue  -1.10500
gfz2014fgvi   0.20150
gfz2014fhla   0.02970
gfz2014ftka  -1.13640
gfz2014gkgf  -0.08130
gfz2014gkqf  -0.67850
gfz2014gmge   0.98670
gfz2014gmhr   0.73830
gfz2014goba  -1.14260
gfz2014hasj  -1.48080
gfz2014jpep  -0.52250
gfz2014nqfm  -0.78780
gfz2014ssvz  -1.98990
gfz2015cyjd  -1.69690
gfz2015fsjj  -0.55660
gfz2015lhjy  -0.79000
gfz2015mpte  -0.21300
gfz2015svwm  -0.72700
