# Nsamples: 122  MAD:  0.709  mean: -0.606  variance:  0.952
gfz2013lwao  -0.27590
gfz2013lwbk  -1.30560
gfz2013lxyn  -0.27150
gfz2013lyko  -0.69250
gfz2013lznu  -0.01650
gfz2013malg  -0.40150
gfz2013mmlw  -1.01600
gfz2013mnei  -1.06110
gfz2013mqmv  -0.97010
gfz2013mvgr  -1.50460
gfz2013mwbh  -1.13310
gfz2013mxee   2.42330
gfz2013nabl  -1.68310
gfz2013ncjp  -0.50530
gfz2013ndin  -1.52650
gfz2013neuc   0.40160
gfz2013nfwx  -0.08560
gfz2013nixj  -0.52670
gfz2013nkgj  -1.53870
gfz2013nknw  -0.48900
gfz2013nnzf  -1.79110
gfz2013nojf  -0.92320
gfz2013npcg  -0.28610
gfz2013nuor  -0.33600
gfz2013nwdi   0.38990
gfz2013oejn  -0.58270
gfz2013ornz  -0.70450
gfz2013orzn  -0.66720
gfz2013ozku  -1.11750
gfz2013oznn  -0.13590
gfz2013ozrf  -2.50190
gfz2013ozrp  -0.14400
gfz2013pcos  -0.99450
gfz2013pfbx  -1.25250
gfz2013pffm  -1.18670
gfz2013phmp  -1.04830
gfz2013poxj  -0.99970
gfz2013pqui  -1.66480
gfz2013pxsj  -0.44050
gfz2013qcck  -0.05400
gfz2013qfsq  -1.42760
gfz2013qmer  -0.85260
gfz2013qwbv  -0.84450
gfz2013qzdq  -1.16790
gfz2013reym  -0.44810
gfz2013rqmp   0.12290
gfz2013rwfe   2.77370
gfz2013ryxm  -0.01650
gfz2013sdus  -0.31610
gfz2013sebq  -0.95310
gfz2013sfds  -0.51780
gfz2013sfto   2.23450
gfz2013shlq  -1.73180
gfz2013shzy  -2.61620
gfz2013skkm  -0.91050
gfz2013snbr  -0.20130
gfz2013snyf  -0.90690
gfz2013svci   0.84650
gfz2013syqk   0.27870
gfz2013tcxc  -0.28310
gfz2013tcxq  -0.54800
gfz2013tect   0.21820
gfz2013tjlx  -0.99200
gfz2013toea  -1.59870
gfz2013toxf   0.45770
gfz2013ttoz  -0.07690
gfz2013tusd  -0.78650
gfz2013tvmw  -0.33260
gfz2013txij   0.06710
gfz2013txtb   0.81130
gfz2013uauo  -0.12010
gfz2013uhlm  -0.74530
gfz2013upee   0.12950
gfz2013utsh  -0.58030
gfz2013uuzn  -0.99690
gfz2013uxej  -0.50540
gfz2013vcoa  -3.35070
gfz2013vexx   0.62430
gfz2013vfyw   0.54300
gfz2013vfzp   0.25520
gfz2013vijl   1.96350
gfz2013viul  -2.17100
gfz2013vjjc  -0.12270
gfz2013vlth  -0.55290
gfz2013vmro  -0.51680
gfz2013vrmy  -0.22520
gfz2013vuja  -0.53160
gfz2013vzbo  -1.45470
gfz2013wmfd  -1.67360
gfz2013wnpr  -0.49400
gfz2013wpga   0.18060
gfz2013wrgw   1.23060
gfz2013wtzl  -1.03230
gfz2013wuon  -0.87010
gfz2013xcmp  -0.54480
gfz2013xgek  -0.93850
gfz2013xizq  -0.42160
gfz2013xkwt  -0.25420
gfz2013xmqg  -0.29960
gfz2013xmul  -1.08820
gfz2013xwda  -0.36940
gfz2013xxcc   0.02560
gfz2013xxwv  -1.02480
gfz2013xxxq   0.00410
gfz2013xyzb  -0.72820
gfz2013yach  -0.45370
gfz2013yaig  -3.44860
gfz2013yctg   1.12980
gfz2014arpf  -1.13560
gfz2014atbl   0.33590
gfz2014atgw  -1.55120
gfz2014azqs  -0.93320
gfz2014bagd  -0.83320
gfz2014bbro  -1.47900
gfz2014bdfd  -0.67620
gfz2014bfng   0.07890
gfz2014bfqo  -0.45490
gfz2014bhhv  -2.99330
gfz2014bhvd  -1.90720
gfz2014bjgt  -1.84310
gfz2014bldx  -1.73240
gfz2014bmta  -1.08370
