# Nsamples: 56  MAD:  0.578  mean: -0.126  variance:  0.930
gfz2010nmpc  -0.12030
gfz2010usho   1.57930
gfz2010wioh   0.78130
gfz2011aatr   0.19720
gfz2011enva  -0.22050
gfz2011gkzt   0.31740
gfz2011hlsa   0.05420
gfz2011lcxq  -0.03220
gfz2011lzwj   0.59200
gfz2011rewa   0.41690
gfz2011toub   0.04080
gfz2011wxfs  -0.20690
gfz2012czlw   0.58070
gfz2012enno   0.22280
gfz2012jlox  -0.18090
gfz2012ldxg  -0.21630
gfz2012ldzj   0.11740
gfz2012teic  -0.43800
gfz2012ttoa   0.72460
gfz2012vrgb   0.20090
gfz2012wypz   0.28630
gfz2013drxz  -0.30960
gfz2013jkut   0.46760
gfz2013kdeo  -0.63690
gfz2013nwdi  -1.32550
gfz2013ogde  -5.13350
gfz2013pfbx  -0.53130
gfz2013svci   0.26650
gfz2014ande  -0.51380
gfz2014bwue  -0.53920
gfz2014fgvi   0.63640
gfz2014fhla  -1.22720
gfz2014fkmr  -1.14740
gfz2014ftka  -0.64860
gfz2014gkgf  -0.51750
gfz2014gkqf  -0.11500
gfz2014gltx   0.05020
gfz2014gmnb  -0.58260
gfz2014gmvr   2.44950
gfz2014goba  -0.29670
gfz2014gsqs  -1.33220
gfz2014gull  -0.19380
gfz2014hasj   0.08110
gfz2014jpep  -0.49310
gfz2014lgqn   0.81950
gfz2014lxnc  -0.12990
gfz2014lyhk  -0.38600
gfz2014nqfm  -0.26500
gfz2014qqhm   0.54960
gfz2014rdsn  -1.92170
gfz2014ssvz  -0.10750
gfz2014ubwn   0.19670
gfz2015cyjd   0.47000
gfz2015lhjy  -0.12970
gfz2015mpte   0.14080
gfz2015taml   0.61440
