# Nsamples: 190  MAD:  1.267  mean: -0.885  variance:  2.312
gfz2011fkbn   0.73490
gfz2011flgj   0.31460
gfz2011flhp   0.70430
gfz2011fnsw  -1.74190
gfz2011gbmx  -2.29320
gfz2011gcwb  -1.57270
gfz2011gkzt  -2.60450
gfz2011gzbr   0.26200
gfz2011haid  -0.79080
gfz2011hbex  -0.03530
gfz2011hebt   1.13230
gfz2011hfkj  -3.14150
gfz2011hlqw  -0.17720
gfz2011hlsa  -0.85950
gfz2011hpgx  -2.02200
gfz2011hpqp   1.19040
gfz2011hrhu   0.21790
gfz2011hryk  -1.39440
gfz2011hsfj  -8.66940
gfz2011hvbu  -1.13510
gfz2011ieie   0.19610
gfz2011iwte  -0.58950
gfz2011izto  -0.54240
gfz2011jghb  -1.52700
gfz2011jmbn  -2.97120
gfz2011jtlg   0.99740
gfz2011knbi  -0.98770
gfz2011kqwo  -4.19230
gfz2011kqyg  -2.52690
gfz2011kweu   0.21460
gfz2011kwhq  -0.18160
gfz2011kwjx  -1.33630
gfz2011kwkw  -0.52710
gfz2011kwld  -0.27760
gfz2011kwlq   0.05140
gfz2011kwni  -0.40920
gfz2011kwnu  -0.03920
gfz2011kwqc  -0.85440
gfz2011kwrf  -0.28190
gfz2011kwsz  -0.22820
gfz2011kxzp  -4.67360
gfz2011lcxq  -2.55700
gfz2011lggq   1.48780
gfz2011lvjr   0.12600
gfz2011lzwj  -3.98110
gfz2011mdie  -1.29100
gfz2011mepc  -1.12650
gfz2011mjom  -0.45570
gfz2011mpme  -0.18830
gfz2011myia  -2.19360
gfz2011nauw   0.26390
gfz2011noud  -1.52300
gfz2011nrwc  -0.14430
gfz2011ntkh  -1.48860
gfz2011nudm  -2.82390
gfz2011ogqk  -1.91340
gfz2011ohcy  -1.14460
gfz2011olkk  -0.71320
gfz2011orgn  -1.01240
gfz2011ornx  -1.92560
gfz2011owvz  -1.98930
gfz2011qigx   3.07050
gfz2011qoif  -0.94640
gfz2011qvae  -2.32860
gfz2011qyms   4.31440
gfz2011rabm  -1.09320
gfz2011rdby  -2.17500
gfz2011rewa  -2.48550
gfz2011rgwp  -1.35940
gfz2011rnut  -2.51630
gfz2011rqui  -1.29340
gfz2011rznl  -0.56820
gfz2011stal   0.81540
gfz2011tbas  -2.12520
gfz2011tcij  -1.26750
gfz2011tjrf  -0.36370
gfz2011tjue   0.66750
gfz2011tkfp  -0.10050
gfz2011tkog   0.19270
gfz2011toub  -2.37420
gfz2011tpbl   0.64790
gfz2011tpfr   1.64290
gfz2011tsnp  -0.40870
gfz2011ueni  -0.20070
gfz2011ujze  -0.39360
gfz2011ukmp   0.55260
gfz2011uphh  -1.59600
gfz2011urxy  -1.00920
gfz2011urzu  -0.98870
gfz2011vhfi  -0.79160
gfz2011vkun   0.53970
gfz2011vldk   0.38090
gfz2011vnza   0.60460
gfz2011vqrj  -0.64920
gfz2011vrhg  -1.68690
gfz2011vxns  -4.42190
gfz2011vxod  -0.67710
gfz2011wcic  -0.50130
gfz2011wjul   0.68240
gfz2011wxfs  -0.53430
gfz2011wxoj  -2.90330
gfz2011wxtk  -0.88780
gfz2011wype  -0.90680
gfz2011xaan  -1.54230
gfz2011xcpv  -0.88330
gfz2011xyxj   0.33170
gfz2011yfdx  -0.68900
gfz2011zklv   0.47370
gfz2012ajtq  -0.82460
gfz2012bfah  -3.09480
gfz2012bpkx  -3.16850
gfz2012bpwl  -0.70380
gfz2012brhv  -0.58850
gfz2012cgvr  -0.11790
gfz2012ckxi  -2.15790
gfz2012cmfy  -0.26650
gfz2012cqnl  -2.58000
gfz2012cxdn  -2.15750
gfz2012dfhq  -0.55940
gfz2012dimn  -0.32900
gfz2012dyyh   0.95780
gfz2012ekda  -0.05400
gfz2012ekzf  -0.03470
gfz2012emjg  -0.70230
gfz2012enno  -1.97370
gfz2012ewgo  -1.46120
gfz2012fbfo  -1.93100
gfz2012fhnh  -0.01840
gfz2012fwfo  -4.63640
gfz2012fzfa  -2.09350
gfz2012gkvr  -1.01970
gfz2012gocc   2.17300
gfz2012gomm   0.24140
gfz2012gukw  -0.46910
gfz2012hnul  -3.95630
gfz2012hzbe  -0.43110
gfz2012icmv   0.39050
gfz2012iffo  -0.70420
gfz2012ihdl  -1.22020
gfz2012ilvn  -1.74280
gfz2012jlox  -2.24830
gfz2012joqe   0.56450
gfz2012jted  -0.25170
gfz2012jupx  -1.64110
gfz2012keor  -2.52170
gfz2012kkup  -1.51090
gfz2012klhx   0.57730
gfz2012kuct  -1.77560
gfz2012kudo  -1.40010
gfz2012kwgo   0.53590
gfz2012lczo  -1.06310
gfz2012ldxg   0.02100
gfz2012ldzj   0.28070
gfz2012llug  -1.33270
gfz2012lrsv  -0.41780
gfz2012maxy  -0.86070
gfz2012mcze  -0.26840
gfz2012mlyf  -1.99070
gfz2012rwql   0.13680
gfz2012sphd  -0.72210
gfz2012syvl  -0.75870
gfz2012tazz  -1.07320
gfz2012tbbp  -1.61730
gfz2012teic  -0.12220
gfz2012ttoa  -0.45570
gfz2012uciv  -2.75780
gfz2012ufew  -0.78620
gfz2012uhup  -4.09390
gfz2012uvqf   0.22040
gfz2012vceo   2.14640
gfz2012vpza  -0.51990
gfz2012vrgb  -0.64590
gfz2012wdyx  -1.33710
gfz2012wizz  -0.12100
gfz2012wklq  -2.73140
gfz2012wmsg  -1.95090
gfz2012wrir  -0.23180
gfz2012wtkr  -3.41350
gfz2012wvfl  -3.54970
gfz2012wxlg  -2.12290
gfz2012wxnu  -2.43740
gfz2012wypz  -0.85250
gfz2012xbjq   2.10560
gfz2012xeul   0.73840
gfz2012xjyv   2.71930
gfz2012xslk  -1.34320
gfz2012xvwn   1.18480
gfz2012xwqa   0.82240
gfz2012xyqp   0.72660
gfz2012yfrp   0.08260
