# Nsamples: 35  MAD:  0.378  mean: -0.240  variance:  0.655
gfz2010iull  -0.31400
gfz2010nmpc  -0.35770
gfz2011aatr  -0.31920
gfz2011enva   0.46930
gfz2011gjlx  -1.38500
gfz2011hlqw  -0.79530
gfz2011hlsa  -0.54850
gfz2011hlth   0.52260
gfz2011lcxq  -0.66220
gfz2011lzwj  -0.05220
gfz2011toub  -0.37510
gfz2011wxfs  -0.63050
gfz2012enno  -0.36790
gfz2012jlox  -0.61130
gfz2012kkup  -0.22670
gfz2012klhx  -0.10280
gfz2012kudo  -0.83590
gfz2012ldxg  -1.20490
gfz2012wypz  -0.40490
gfz2013drxz  -0.30270
gfz2013nwdi  -1.16680
gfz2013svci  -0.58720
gfz2013vjjc   3.40530
gfz2014fgvi  -0.20990
gfz2014fhla  -0.00320
gfz2014ftka  -0.31770
gfz2014gkgf  -1.06530
gfz2014gmhr   1.16200
gfz2014qqhm   0.58350
gfz2014ssvz  -0.24570
gfz2015chhn  -0.27970
gfz2015cyjd   0.32410
gfz2015fsjj  -0.44390
gfz2015lhjy  -0.69600
gfz2015svwm  -0.36260
