# Nsamples: 552  MAD:  1.012  mean: -0.107  variance:  1.219
gfz2013lyko  -0.26920
gfz2013mghe  -0.34910
gfz2013mnei   2.07760
gfz2013mqmv  -2.64850
gfz2013mwbh  -2.02170
gfz2013mxee   0.26810
gfz2013nabl   0.12690
gfz2013ndin  -1.39530
gfz2013neuc   0.29780
gfz2013nfwx  -0.29510
gfz2013nixj  -1.34170
gfz2013njnd   0.74230
gfz2013nkgj  -0.93190
gfz2013nmac  -1.36320
gfz2013nqgw  -2.27950
gfz2013nuvi   0.18280
gfz2013nvdj  -1.47120
gfz2013nwdi   0.10640
gfz2013oejn  -1.39740
gfz2013ogde   0.38880
gfz2013oqsc  -0.57560
gfz2013orjg  -2.09410
gfz2013ozrf  -3.28580
gfz2013ozrp  -2.48100
gfz2013pakq   0.58440
gfz2013pfbx  -0.30380
gfz2013pfeb   0.13640
gfz2013pffm  -0.55590
gfz2013phef  -1.22910
gfz2013pkbs  -0.43610
gfz2013puag  -0.94560
gfz2013pxsj   1.99220
gfz2013qali   0.50970
gfz2013qesa  -1.07930
gfz2013qidm   0.17460
gfz2013qmer  -0.99110
gfz2013qnxc   0.96510
gfz2013qzdq  -0.38450
gfz2013rait  -0.88190
gfz2013reav  -1.50390
gfz2013reym   0.55940
gfz2013roki  -0.65090
gfz2013rsnr   0.75490
gfz2013toxf  -0.90370
gfz2013tusd  -2.56140
gfz2013tvmw  -2.29620
gfz2013txij  -0.66710
gfz2013ufxk   1.57050
gfz2013uqsp   0.13950
gfz2013utsh  -0.90560
gfz2013uuzn  -1.56900
gfz2013uxej  -0.94630
gfz2013vexx   0.45530
gfz2013vfyw   1.32930
gfz2013vfzp  -0.34090
gfz2013vgau   1.29640
gfz2013vgev   0.88850
gfz2013vhzu  -1.00080
gfz2013viul  -0.45140
gfz2013vjjc  -0.96610
gfz2013vlth  -1.53460
gfz2013vvjh  -0.22390
gfz2013vvrq  -0.16160
gfz2013vzbo  -1.80140
gfz2013waam  -0.22250
gfz2013wjmm   0.04020
gfz2013wkyk   1.83100
gfz2013wmfd  -1.35850
gfz2013xizq  -0.00650
gfz2013xmul  -1.80060
gfz2013xsdt   0.09240
gfz2013xvqd   1.66410
gfz2013xwda  -1.92900
gfz2013xxxq  -2.14560
gfz2013yach  -2.33240
gfz2013yctg  -1.19580
gfz2013yghj  -0.02070
gfz2013ylbx  -0.55390
gfz2013ymky   0.30570
gfz2013yqkv   0.15190
gfz2013yyhc  -0.62550
gfz2013yyti  -0.49030
gfz2013zmoc  -0.62140
gfz2014abgd  -1.75830
gfz2014adoj   0.43980
gfz2014afmx   0.30720
gfz2014agde  -0.63120
gfz2014ajlk  -0.12150
gfz2014ajtf  -0.80140
gfz2014algk  -1.82760
gfz2014alwz  -0.07820
gfz2014ande   0.06640
gfz2014ared  -0.73700
gfz2014arpf  -1.83860
gfz2014arqr  -1.15700
gfz2014bagd  -1.53650
gfz2014bbro  -2.57480
gfz2014bezu  -2.40950
gfz2014bfng  -0.11720
gfz2014bhvd  -1.58840
gfz2014bldx  -0.96340
gfz2014bmta  -1.61310
gfz2014bwue  -1.94630
gfz2014cbtl   0.35190
gfz2014cgog   0.31520
gfz2014chdv   0.48690
gfz2014citw  -0.13950
gfz2014clnq   0.32060
gfz2014cmwb  -0.80530
gfz2014ctot  -0.72680
gfz2014cvkm  -0.14390
gfz2014cvxx  -1.04070
gfz2014czol   1.60690
gfz2014czqi  -1.16280
gfz2014czua   1.05150
gfz2014dddc  -1.42040
gfz2014dffd  -1.50600
gfz2014dhxt   0.78540
gfz2014disp   0.52440
gfz2014fnbh   0.79690
gfz2014fnyg  -1.34980
gfz2014foio   0.28110
gfz2014frdz  -0.11000
gfz2014frez   0.29910
gfz2014frgm   0.69610
gfz2014frjr   1.59140
gfz2014frwh   0.75080
gfz2014fsuh   1.72390
gfz2014fszc   1.03780
gfz2014ftgx   0.58870
gfz2014ftka  -0.92410
gfz2014ftrk  -0.08020
gfz2014furx  -0.34230
gfz2014fusc   1.59340
gfz2014fusj   0.48740
gfz2014fuub   1.40470
gfz2014fuup   1.70650
gfz2014fuzi   0.26650
gfz2014fval  -0.34630
gfz2014fvdx   1.90350
gfz2014fvgh   0.80590
gfz2014fvjl   0.57270
gfz2014fvpy   1.13610
gfz2014fvrg  -0.29870
gfz2014fvve   0.45480
gfz2014fwdr   0.73230
gfz2014fwyr   0.37380
gfz2014fxpu  -0.12620
gfz2014gbcz  -1.56820
gfz2014gbdq  -2.10460
gfz2014gcza   0.35900
gfz2014geuy   0.62770
gfz2014gezs   0.31680
gfz2014gfdj  -0.88760
gfz2014gkgf  -0.27950
gfz2014gkhp   2.65300
gfz2014gkjl  -1.19900
gfz2014gkjw  -0.19840
gfz2014gkjy   1.49800
gfz2014gklq   0.15450
gfz2014gklv   0.50670
gfz2014gkmm   0.52850
gfz2014gkmw  -0.68260
gfz2014gkob   0.84720
gfz2014gkok   0.59280
gfz2014gkpd   0.85870
gfz2014gkpj   0.87520
gfz2014gkqf  -0.34410
gfz2014gkqu   0.13080
gfz2014gksu   0.22970
gfz2014gktn  -1.33730
gfz2014gktq   0.81820
gfz2014gkut   0.24200
gfz2014gkvk   1.10500
gfz2014gkxm  -0.61630
gfz2014glcu   0.76340
gfz2014glcy   1.96710
gfz2014glov   0.71850
gfz2014glsh   0.93840
gfz2014gltx   0.17440
gfz2014glvn  -0.49930
gfz2014glvu   1.57480
gfz2014gmci   1.31390
gfz2014gmge  -0.11130
gfz2014gmhp   0.44850
gfz2014gmhr  -0.72060
gfz2014gmip  -0.02630
gfz2014gmjo   0.70110
gfz2014gmku  -0.49750
gfz2014gmlz   0.96280
gfz2014gmmk   0.66000
gfz2014gmmt   1.07160
gfz2014gmnb  -0.70990
gfz2014gmnw  -0.49240
gfz2014gmpy   0.44990
gfz2014gmtb   1.27860
gfz2014gmuk   0.51060
gfz2014gmzl  -0.45050
gfz2014gnmp   1.08780
gfz2014gnre  -0.09190
gfz2014gnxb   0.36240
gfz2014goba  -0.14840
gfz2014goei   0.21010
gfz2014gogv  -0.83440
gfz2014gpce   0.89630
gfz2014gutm   1.04180
gfz2014gvhw   1.54200
gfz2014gvqj   0.92490
gfz2014gvra  -0.90860
gfz2014gvrd  -0.48320
gfz2014gwab  -1.60550
gfz2014gxkh   0.18360
gfz2014gxqu  -0.06340
gfz2014gxxh   0.51460
gfz2014gxxo   0.17510
gfz2014gzrm  -0.05890
gfz2014hasj  -0.34470
gfz2014hauo   0.41160
gfz2014hbjz   0.17130
gfz2014hbqb   0.19890
gfz2014heum  -2.11420
gfz2014heyq  -2.28180
gfz2014hfad   0.61770
gfz2014hfhl  -0.57400
gfz2014hgqo  -0.21250
gfz2014hhwx   1.07610
gfz2014hifp  -1.14420
gfz2014hiih   1.11880
gfz2014hjgr   0.05800
gfz2014hjij   0.48210
gfz2014hjlx   1.41180
gfz2014hkcf  -0.51470
gfz2014hkck   4.02270
gfz2014hmgf   0.38850
gfz2014hmzg  -0.16600
gfz2014hnfm   0.79870
gfz2014hoap  -0.31840
gfz2014hphw  -0.13940
gfz2014hppw   0.09000
gfz2014hpqz   1.39690
gfz2014hqxs   0.61440
gfz2014hqyx   0.90130
gfz2014hrft  -1.00190
gfz2014hrtn   0.98090
gfz2014hscz  -1.21660
gfz2014huaj  -0.09570
gfz2014hyvq   0.29150
gfz2014hzdy  -0.91840
gfz2014hzfw  -0.36170
gfz2014hzgn   0.24050
gfz2014hzhe   0.63610
gfz2014iava   0.48980
gfz2014icqt   0.93630
gfz2014ifue   0.85160
gfz2014ijvh   1.14630
gfz2014ikbk   0.23150
gfz2014ikvd   0.05080
gfz2014ilwu  -1.37520
gfz2014imnn  -0.16220
gfz2014inbj  -2.65370
gfz2014iobd  -1.35810
gfz2014iqzj   0.18690
gfz2014irci  -0.12370
gfz2014ircq   0.72380
gfz2014isub   0.53970
gfz2014isys   0.53650
gfz2014itab   0.86600
gfz2014itbe   0.56950
gfz2014itbu   0.53120
gfz2014itfc  -0.48450
gfz2014itgh   0.55070
gfz2014itjx  -0.95060
gfz2014itkw  -0.58650
gfz2014itpj  -1.46950
gfz2014iuhq   1.34270
gfz2014iwnf   1.46410
gfz2014jatq   0.31590
gfz2014lgqn   0.64290
gfz2014ljbr  -1.11790
gfz2014lkyf  -0.50680
gfz2014lpim  -1.26820
gfz2014lrzx  -0.30330
gfz2014lxnc  -0.07590
gfz2014lyhk  -0.09390
gfz2014lyhp   0.55800
gfz2014lzal  -0.52310
gfz2014macx   0.13840
gfz2014mcse   0.39800
gfz2014mhgg  -0.32650
gfz2014mlqw   1.32900
gfz2014moaw  -0.33610
gfz2014mtum   2.30250
gfz2014mwor  -0.79330
gfz2014mxkr  -0.52740
gfz2014ndue  -2.36240
gfz2014niqj   0.39600
gfz2014nkdx   0.14350
gfz2014nnxd   2.39090
gfz2014nowp   1.02580
gfz2014npeo   0.32870
gfz2014nphm  -0.33020
gfz2014nrie   0.82210
gfz2014ntdh   0.56930
gfz2014nyeh   1.76210
gfz2014nyfb   2.07780
gfz2014nyko  -0.30590
gfz2014nylm  -1.34940
gfz2014odgv   0.08240
gfz2014oinz  -1.07590
gfz2014ojdg   0.36030
gfz2014oqhw  -1.47960
gfz2014orxs  -0.49010
gfz2014oryw  -2.50150
gfz2014owxc  -0.40160
gfz2014oxcc   1.09350
gfz2014oyly  -3.82010
gfz2014pkll  -0.11380
gfz2014ppyi   1.90170
gfz2014ppzf  -2.55100
gfz2014pqrc   0.61870
gfz2014pvch   0.24850
gfz2014pzni   1.46230
gfz2014qdog   0.02200
gfz2014rghp  -0.85570
gfz2014riel  -0.08820
gfz2014rkwl   0.54440
gfz2014rnrn  -1.57410
gfz2014royq  -2.59740
gfz2014sadu  -0.27390
gfz2014shid  -0.88250
gfz2014vjoz  -2.15230
gfz2014vqqa  -0.41560
gfz2014waoo  -0.68160
gfz2014watn  -0.99080
gfz2014wmsc  -0.30690
gfz2014wrkh   0.80010
gfz2014wwib  -1.87570
gfz2014xbyr  -0.27000
gfz2014xjri   0.82610
gfz2014xkdg  -0.87940
gfz2014xoji  -0.30790
gfz2014xqby  -1.10010
gfz2014xqqd  -1.39300
gfz2014yhhm   0.11710
gfz2014ynzy  -0.63520
gfz2014yppv  -1.43420
gfz2014yrug  -1.21690
gfz2014yula   0.49070
gfz2014zkys  -1.12750
gfz2014zlgp  -0.00000
gfz2014zplq  -1.06770
gfz2015apnk  -1.40700
gfz2015arpd  -2.70140
gfz2015aruz  -0.62940
gfz2015atxv   2.62240
gfz2015azzp   0.47990
gfz2015bfjm   0.85870
gfz2015bkbj  -0.35680
gfz2015bsnl  -0.56460
gfz2015bucr  -2.30570
gfz2015bvsj  -0.15750
gfz2015bvxx  -0.26650
gfz2015byfn   0.20010
gfz2015bzej   0.28770
gfz2015fjhk   0.43790
gfz2015fkgt   0.07590
gfz2015fkic  -0.52430
gfz2015fkjs  -0.98640
gfz2015fkkd  -0.36550
gfz2015fkuu   0.32250
gfz2015fpez   0.21770
gfz2015fsjj  -1.88100
gfz2015fvoi   0.33820
gfz2015fwkq  -0.28160
gfz2015fxbv   0.36200
gfz2015fxdi  -0.34000
gfz2015gckd  -1.22650
gfz2015gjbr   0.66230
gfz2015gkwa  -0.30220
gfz2015gmgf  -1.42450
gfz2015gwao   0.13910
gfz2015gzja  -0.26350
gfz2015hdbn  -0.28840
gfz2015hdcp  -0.97600
gfz2015hepg  -0.11610
gfz2015hgbk  -1.07410
gfz2015hpmk  -2.06430
gfz2015hvgs   0.41520
gfz2015isim  -0.05550
gfz2015ixyy  -1.15190
gfz2015jkdw  -0.06390
gfz2015jmlu  -0.82590
gfz2015jpap  -1.62660
gfz2015jwgl   1.15790
gfz2015jxjd   0.63340
gfz2015jzcv  -0.40120
gfz2015kakw  -1.37240
gfz2015kcaa  -0.14350
gfz2015kfsu  -2.26710
gfz2015kkqb  -0.54440
gfz2015kkth  -0.31820
gfz2015kphk   0.62100
gfz2015kquq   0.53120
gfz2015ksni   0.33810
gfz2015kvwz   0.45340
gfz2015kxxs  -0.20500
gfz2015lcma  -1.70790
gfz2015lcuo  -1.20230
gfz2015lfma  -0.21890
gfz2015lfud  -2.63040
gfz2015lhjy  -0.56600
gfz2015ltii  -1.30510
gfz2015lytv  -1.48490
gfz2015lzad  -0.64250
gfz2015mbgr   0.85120
gfz2015mddr  -0.93960
gfz2015mfpy   0.13000
gfz2015mhym  -2.37490
gfz2015micz  -2.18770
gfz2015mljd  -2.50770
gfz2015mpte   0.25720
gfz2015mvzk   0.72330
gfz2015nerz  -0.81380
gfz2015nqgf   0.10080
gfz2015ntpk   1.25220
gfz2015nuxz  -0.69840
gfz2015nwug   0.18220
gfz2015ocdz   0.92700
gfz2015ocwr  -2.43820
gfz2015okmq  -0.76700
gfz2015okpu   0.48210
gfz2015orkl   0.51440
gfz2015oumn  -0.08110
gfz2015oyfl  -0.88720
gfz2015pcvt   0.06350
gfz2015prlr   0.70500
gfz2015qafb  -1.42690
gfz2015qnde  -1.70680
gfz2015qnho   0.11390
gfz2015qnlv  -0.54790
gfz2015qnto  -0.40360
gfz2015qprd  -0.18810
gfz2015qpvd  -3.36600
gfz2015quzo   1.37100
gfz2015qvxu  -2.77010
gfz2015rddx  -0.97050
gfz2015rgrg  -0.17910
gfz2015rkbq   0.06300
gfz2015rkrg   0.08580
gfz2015rpzn  -1.53210
gfz2015rwsb  -1.38410
gfz2015rxmg  -0.02120
gfz2015saet   0.69800
gfz2015sdfy   4.33250
gfz2015sevh  -0.63350
gfz2015sfdd   0.75160
gfz2015sfdy   1.71540
gfz2015sfeo   0.85290
gfz2015sffn   0.58610
gfz2015sfho  -0.29290
gfz2015sfhz   1.22950
gfz2015sfiq   1.53080
gfz2015sfjf  -0.77960
gfz2015sfkh   0.76970
gfz2015sfks   1.83390
gfz2015sfkz   0.85550
gfz2015sflf   0.46110
gfz2015sfmd   0.95140
gfz2015sfno   0.78670
gfz2015sfnv   1.04780
gfz2015sfoc   0.19510
gfz2015sfoh   1.17210
gfz2015sfom   0.84310
gfz2015sfpj   0.56580
gfz2015sfps   0.25880
gfz2015sfqo   0.89950
gfz2015sfqr   0.89710
gfz2015sfrc   1.16680
gfz2015sfrf   0.79450
gfz2015sfrv  -1.38800
gfz2015sfsi  -2.23920
gfz2015sfte   0.23160
gfz2015sftu  -0.21020
gfz2015sfuc  -0.30730
gfz2015sfuz   0.06570
gfz2015sfwf   1.36190
gfz2015sfzm   1.20710
gfz2015sgad   1.30820
gfz2015sgdj  -0.49180
gfz2015sgdn   0.77580
gfz2015sggc  -3.23230
gfz2015sghq  -0.40880
gfz2015sglg   0.35420
gfz2015sgmm   0.73670
gfz2015sgmr   1.87930
gfz2015sgpu  -0.83900
gfz2015sguf   0.95030
gfz2015sgyd   0.65250
gfz2015shaq   1.00180
gfz2015shel   0.45270
gfz2015shhg   1.54180
gfz2015shhu   0.28530
gfz2015shjn   0.77040
gfz2015shqc   0.34530
gfz2015shqe  -0.82790
gfz2015shrg  -0.51720
gfz2015shsz  -1.06650
gfz2015sist   0.84260
gfz2015sitn   1.21900
gfz2015sixi   1.79240
gfz2015sjbx   0.69120
gfz2015sjfi   1.35000
gfz2015sjgk  -0.03570
gfz2015sjjb   0.30430
gfz2015sjne  -0.11080
gfz2015sjoj   0.85820
gfz2015sjvu   1.18520
gfz2015sjwi   0.39710
gfz2015skgj   0.34330
gfz2015skpv   0.54970
gfz2015skuk   0.34200
gfz2015sldx  -0.27020
gfz2015sljs  -0.92330
gfz2015slun   0.49670
gfz2015smgj  -0.32390
gfz2015smym   0.81070
gfz2015snwh  -0.26190
gfz2015snyd   0.69330
gfz2015soat   0.42830
gfz2015solh   0.66730
gfz2015soxc  -0.11330
gfz2015sozw  -0.43730
gfz2015spal  -0.98360
gfz2015sqmy   0.12080
gfz2015srat   0.15930
gfz2015ssoe  -0.96810
gfz2015sspn  -0.20350
gfz2015stfy   1.23130
gfz2015stso   1.07010
gfz2015subz  -0.54830
gfz2015svjy  -0.60590
gfz2015svwm  -0.00000
gfz2015swgn   1.01750
gfz2015sxxu   1.06930
gfz2015sydc   0.13610
gfz2015szcb   0.63380
gfz2015szfe   0.73700
gfz2015sztx   0.41320
gfz2015taml  -2.66430
gfz2015tdcu   0.53300
gfz2015tdhb   1.03310
gfz2015teje  -0.23330
