# Nsamples: 24  MAD:  0.968  mean:  1.545  variance:  1.652
gfz2013nkgj   3.99680
gfz2013svci   0.35070
gfz2013tdkk  -1.35180
gfz2014czno   1.19010
gfz2014gwab  -0.04140
gfz2014hasj   0.62430
gfz2014hzfw   0.92320
gfz2014irrg   0.02860
gfz2014jnyv   0.84190
gfz2014tqdo   2.38400
gfz2015fkgt   1.57780
gfz2015fsjj   0.82960
gfz2015gckd   1.16070
gfz2015lhjy   1.05770
gfz2015lytv   1.59960
gfz2015rddx   3.23220
gfz2015sfdd   2.57290
gfz2015sfdy   2.79830
gfz2015sfnb   1.36170
gfz2015sfno   4.64270
gfz2015snwh   1.78190
gfz2015svwm   1.68670
gfz2015taml   2.13520
gfz2015teje   1.69250
