# Nsamples: 83  MAD:  0.612  mean: -0.818  variance:  1.029
gfz2013dojq  -0.52460
gfz2013dspt   0.81620
gfz2013dsrk   1.43150
gfz2013fiud  -0.61900
gfz2013ippu  -1.18590
gfz2013jkut  -0.62630
gfz2013jwvc  -0.46950
gfz2013kdeo  -0.84500
gfz2013ldpc  -0.31900
gfz2013lixa  -0.32840
gfz2013lsob  -0.47650
gfz2013mqmv  -0.64150
gfz2013nkgj   0.02680
gfz2013nwdi  -0.69330
gfz2013pfbx  -0.99520
gfz2013qmer  -0.05310
gfz2013svci  -1.47520
gfz2013xsdt   0.38620
gfz2013yqkv   0.60740
gfz2014afmx   0.10280
gfz2014algk  -1.56090
gfz2014ande  -0.80570
gfz2014bzxy  -0.81540
gfz2014chdv  -2.37800
gfz2014czqi  -1.14740
gfz2014fgvi  -0.61120
gfz2014fhla  -0.53460
gfz2014fkmr   0.39620
gfz2014frdz   0.04000
gfz2014frez  -0.11070
gfz2014ftka  -2.01670
gfz2014furx  -1.30670
gfz2014fusj   0.41050
gfz2014fval  -0.93900
gfz2014fvrg   0.20720
gfz2014ghpe  -0.74090
gfz2014gkjl  -0.22950
gfz2014gkqf  -0.66080
gfz2014gktq  -1.85790
gfz2014gltx  -5.80260
gfz2014gmhr  -0.73480
gfz2014gmnb  -0.46860
gfz2014gmnw  -0.41830
gfz2014goba  -1.68940
gfz2014goqw  -0.75800
gfz2014gqer   0.38560
gfz2014gull  -0.79610
gfz2014hasj  -1.75930
gfz2014hbqb  -3.78340
gfz2014hgqo  -0.82510
gfz2014hjgr  -0.92580
gfz2014hkcf  -2.21070
gfz2014hphw   1.12670
gfz2014hqxs  -0.13400
gfz2014itkw  -0.59870
gfz2014jnyv  -0.50750
gfz2014jpep  -1.13980
gfz2014kbuk  -1.71660
gfz2014lgqn  -0.58090
gfz2014lyhk  -1.41230
gfz2014macx  -0.79170
gfz2014nqfm  -0.75250
gfz2014nrie  -0.75460
gfz2014nyeh  -2.88500
gfz2014pvch  -0.61240
gfz2014qlxd   0.64560
gfz2014qqhm  -1.18790
gfz2014ssvz  -1.32430
gfz2014ubwn  -0.25150
gfz2014vhms  -0.81140
gfz2014watn  -0.65410
gfz2014wjko  -0.90040
gfz2014wrkh  -1.25220
gfz2014xqqd  -2.91000
gfz2015aruz  -1.80070
gfz2015atxv  -1.06490
gfz2015eiky  -0.18040
gfz2015fjhk  -1.13910
gfz2015fsjj  -0.57740
gfz2015gckd  -0.51050
gfz2015jzcv  -0.33660
gfz2015lhjy  -1.10190
gfz2015mpte  -1.42630
