# Nsamples: 611  MAD:  0.622  mean: -1.539  variance:  0.641
gfz2012yxxu  -0.67650
gfz2012yzod  -0.76490
gfz2012zemz  -2.38290
gfz2012zfag  -1.66200
gfz2012zitl  -1.83340
gfz2012zjpv  -1.71440
gfz2012zmbp  -0.70110
gfz2012zmln  -1.51450
gfz2013aayj  -1.12280
gfz2013aqaw  -0.37010
gfz2013bobq  -1.53130
gfz2013bokp  -1.34110
gfz2013btjm  -2.12230
gfz2013bzzm  -0.77260
gfz2013ccnr  -2.38100
gfz2013cdan  -2.12750
gfz2013ciaf  -0.95970
gfz2013cvqg  -1.34990
gfz2013cwpn  -1.36100
gfz2013cwps  -1.08550
gfz2013dddp  -2.72210
gfz2013dkly  -1.47150
gfz2013dofo  -2.42370
gfz2013dojq  -1.03790
gfz2013drxz  -2.18300
gfz2013dsog  -1.11540
gfz2013dspt  -1.95430
gfz2013dsrk  -2.70400
gfz2013dvyh  -2.20210
gfz2013egni  -2.76580
gfz2013egpu  -2.55460
gfz2013ekpm  -1.36360
gfz2013ewbo  -1.98700
gfz2013fcto  -0.97190
gfz2013fdoo  -0.47130
gfz2013feep  -1.48370
gfz2013fiud  -1.52450
gfz2013fkcl  -1.46690
gfz2013fkii  -0.33290
gfz2013flox  -2.17890
gfz2013ftso   3.80380
gfz2013fwxa  -2.77040
gfz2013fygc  -2.18790
gfz2013gbst  -1.22500
gfz2013gcfx  -3.53090
gfz2013gdnq  -2.33250
gfz2013gmor  -1.37590
gfz2013gngz  -1.96430
gfz2013gnse  -2.08440
gfz2013gock  -1.73490
gfz2013goux  -0.74650
gfz2013gvdb  -0.35160
gfz2013gvex  -0.61580
gfz2013gwrd  -0.44830
gfz2013hdnc  -0.85810
gfz2013hfmp  -2.12830
gfz2013hkja  -1.43470
gfz2013huwr  -2.66220
gfz2013iayx  -1.90740
gfz2013idbb   0.29470
gfz2013ifpq  -1.66660
gfz2013igmx  -1.62700
gfz2013ijsr  -1.31190
gfz2013ikgo  -1.83220
gfz2013ilug  -2.55420
gfz2013inux  -1.85680
gfz2013iodt  -2.01130
gfz2013iopd  -3.78360
gfz2013ippu  -1.34280
gfz2013iunn  -1.42060
gfz2013jesk  -2.37940
gfz2013jgij  -2.76240
gfz2013jgip  -0.91050
gfz2013jkut  -1.39370
gfz2013jmcc  -2.05230
gfz2013json   0.15900
gfz2013jwvc  -1.84890
gfz2013kccc  -2.34980
gfz2013kdeo  -2.60380
gfz2013kheb  -1.31480
gfz2013khli  -0.77130
gfz2013ldpc  -1.84800
gfz2013ldqb  -2.29820
gfz2013lgbb   0.17420
gfz2013lgnl  -1.83140
gfz2013lixa  -2.03090
gfz2013lsob  -1.55250
gfz2013lyko  -1.87300
gfz2013mmlw  -2.05650
gfz2013mmwq  -1.70550
gfz2013mqmv  -2.81890
gfz2013mtqd   0.00000
gfz2013mwbh  -1.71000
gfz2013ncjp  -2.32680
gfz2013ndin  -1.85400
gfz2013nixj  -1.97240
gfz2013nkgj  -1.76540
gfz2013nmac  -1.56470
gfz2013nojf  -0.05300
gfz2013nqgw  -1.92420
gfz2013nuvi  -0.54430
gfz2013nwdi  -1.93370
gfz2013ogde  -1.83650
gfz2013oqsc  -2.09330
gfz2013ozrp  -2.39380
gfz2013pfbx  -2.16400
gfz2013pffm  -1.43430
gfz2013pfnf  -1.59530
gfz2013puag  -1.74470
gfz2013pupd  -0.14030
gfz2013pxsj  -0.36830
gfz2013qali  -1.10400
gfz2013qmer  -1.13850
gfz2013qzdq  -1.73320
gfz2013rdoo  -1.63580
gfz2013roki   0.29350
gfz2013sdus  -1.94920
gfz2013sfto  -0.87450
gfz2013shzy  -0.78990
gfz2013skkm  -1.86190
gfz2013snbr  -2.06950
gfz2013snyf  -1.28870
gfz2013stht  -2.53690
gfz2013suvn  -1.43980
gfz2013svci  -2.12330
gfz2013tcxc  -0.81380
gfz2013tcxq  -2.00270
gfz2013toxf  -2.16100
gfz2013tusd  -2.02330
gfz2013tvmw  -2.17030
gfz2013txij  -1.84510
gfz2013ufxk  -1.16870
gfz2013ufxm  -1.86560
gfz2013uqsp  -1.09830
gfz2013uqvu  -0.67210
gfz2013vexx  -1.00390
gfz2013vfyw  -0.64680
gfz2013vfzp  -1.42260
gfz2013vhzu  -0.20860
gfz2013vjjc  -3.07680
gfz2013vrmy  -1.08600
gfz2013wgeu  -5.55300
gfz2013wjmm  -1.62590
gfz2013wkyk  -0.73680
gfz2013wmfd  -0.92270
gfz2013wnpr  -0.80290
gfz2013wuon  -1.95620
gfz2013xgmp  -1.10830
gfz2013xpfa  -1.26060
gfz2013xqnn  -1.93060
gfz2013xsdt  -0.54100
gfz2013xxcc  -2.40000
gfz2013xxxq  -1.69680
gfz2013xyzb  -1.22950
gfz2013yctg  -2.04690
gfz2013yixl  -0.68920
gfz2013ylbx  -1.97860
gfz2013ypdc  -1.63510
gfz2013yqkv  -1.06250
gfz2013yyhc  -1.33150
gfz2013ziyr   1.90780
gfz2014abgd  -0.85350
gfz2014adoj  -1.47550
gfz2014afmx  -1.67240
gfz2014ajlk  -3.85870
gfz2014algk  -2.35090
gfz2014amsb  -0.74640
gfz2014ande  -1.46210
gfz2014arpf  -0.82530
gfz2014atbl  -1.23060
gfz2014atgw  -1.48060
gfz2014bagd  -2.55360
gfz2014bdfd  -2.46130
gfz2014bfng  -2.04530
gfz2014bfqo  -0.85630
gfz2014bhvd  -1.14270
gfz2014bldx  -1.82730
gfz2014bmta  -2.10560
gfz2014bwue  -1.58330
gfz2014bzxy  -2.31520
gfz2014caop  -1.01980
gfz2014capn  -0.94510
gfz2014chdv  -2.06600
gfz2014claq  -3.21120
gfz2014cmwb  -2.03830
gfz2014crpy  -2.29690
gfz2014cueu  -1.09270
gfz2014cvkm  -1.82430
gfz2014cvxx  -1.63050
gfz2014czno  -1.73880
gfz2014czol  -1.24390
gfz2014czqi  -1.76700
gfz2014czua  -0.65430
gfz2014dbyx   0.98200
gfz2014dddc  -0.42550
gfz2014dffd  -2.03640
gfz2014dhxt  -1.32370
gfz2014disp  -1.98840
gfz2014dlri   0.72780
gfz2014dofa  -2.38630
gfz2014duqn  -1.44750
gfz2014egwu  -0.75380
gfz2014ehsf  -1.71630
gfz2014ejmt   0.36790
gfz2014ekcr  -2.00350
gfz2014ekdn  -2.50960
gfz2014ekdt  -0.91390
gfz2014emrg   0.03710
gfz2014enhi  -1.93630
gfz2014etqa  -0.54000
gfz2014ettc  -1.45040
gfz2014exxa  -0.89120
gfz2014fedd  -1.63000
gfz2014femz  -1.15890
gfz2014fgvi  -1.22000
gfz2014fgxt  -1.81240
gfz2014fgyo  -3.41310
gfz2014fgza  -1.87750
gfz2014fhbd  -2.25630
gfz2014fhdw  -1.58200
gfz2014fhjd  -1.85070
gfz2014fhla  -3.32450
gfz2014fhrq  -2.45600
gfz2014fhsg  -2.33570
gfz2014fhwx  -1.07330
gfz2014fimn  -0.98490
gfz2014fiuj  -1.34450
gfz2014fjzd  -1.13400
gfz2014fkmr  -0.67980
gfz2014fkmx  -1.74390
gfz2014fknp  -1.42690
gfz2014fnbh  -1.82400
gfz2014fnyg  -1.56850
gfz2014fqpz  -0.96330
gfz2014frdz  -2.02660
gfz2014frez  -1.61950
gfz2014frfl  -0.89840
gfz2014frwh  -1.13650
gfz2014fsuh  -0.65490
gfz2014ftka  -3.21720
gfz2014ftoc  -1.99940
gfz2014ftpw  -2.42200
gfz2014ftrk  -1.61900
gfz2014furx  -1.40080
gfz2014fusc  -1.38340
gfz2014fusj  -1.40500
gfz2014fuub  -0.46720
gfz2014fvaa  -1.05560
gfz2014fval  -2.18930
gfz2014fvgh  -1.41270
gfz2014fvjl  -0.98390
gfz2014fvrg  -1.38300
gfz2014fwtt  -0.11860
gfz2014gbcz  -2.48680
gfz2014gbdq  -0.13110
gfz2014geuy  -1.53740
gfz2014gezs  -2.04400
gfz2014ghpe  -1.73590
gfz2014gkgf  -2.44930
gfz2014gkhp  -1.59980
gfz2014gkhy  -0.84860
gfz2014gkjl  -1.42790
gfz2014gkjt  -1.72820
gfz2014gkmm  -1.58140
gfz2014gkob  -1.71300
gfz2014gkok  -1.63860
gfz2014gkpd  -1.09110
gfz2014gkpj  -0.53640
gfz2014gkqf  -1.44730
gfz2014gkqu  -0.57610
gfz2014gksj   0.40310
gfz2014gksu  -1.48350
gfz2014gktq  -1.18970
gfz2014gkxm  -2.92880
gfz2014glcu  -1.47170
gfz2014glcy  -1.56040
gfz2014glgo   1.19000
gfz2014gltx  -1.53830
gfz2014glvu  -0.36400
gfz2014gmci  -1.38710
gfz2014gmge  -2.25450
gfz2014gmhp  -1.17350
gfz2014gmhr  -2.22290
gfz2014gmip  -1.34060
gfz2014gmjo  -1.07090
gfz2014gmku  -3.32120
gfz2014gmlz  -1.31150
gfz2014gmmk  -0.60110
gfz2014gmmt  -0.47890
gfz2014gmnb  -1.94650
gfz2014gmnw  -1.68960
gfz2014gmor  -0.98060
gfz2014gmpy  -1.59560
gfz2014gmrj  -1.31310
gfz2014gmtb  -1.23390
gfz2014gmuk  -1.42530
gfz2014gmzl  -2.18150
gfz2014gndq  -0.25950
gfz2014gngg  -1.39740
gfz2014gnnt  -1.61840
gfz2014gnre  -1.42690
gfz2014gnxb  -1.56340
gfz2014goba  -2.14570
gfz2014goqw  -1.48530
gfz2014gori  -0.45690
gfz2014goyx   0.28230
gfz2014gpce  -1.26820
gfz2014gphr  -2.37340
gfz2014gpuk  -1.73730
gfz2014gpya  -1.98660
gfz2014gqed   0.57100
gfz2014gqer  -1.61090
gfz2014gqiy  -1.70320
gfz2014gqve  -2.03730
gfz2014grcv  -1.87300
gfz2014grho  -0.37910
gfz2014gsqs  -2.21600
gfz2014gtlu  -0.17330
gfz2014gtwz  -1.78880
gfz2014gull  -1.35350
gfz2014gumd  -2.10390
gfz2014gvhw  -0.06160
gfz2014gvqj  -1.06670
gfz2014gvra  -1.19560
gfz2014gvrd  -1.53630
gfz2014gwab  -1.79900
gfz2014gxag  -2.03000
gfz2014gxkh  -2.43490
gfz2014gxxo  -2.34840
gfz2014gzue   0.50360
gfz2014hagb  -1.87320
gfz2014hasj  -2.37190
gfz2014hauo  -1.52060
gfz2014hbjm  -2.79050
gfz2014hbjz  -2.06890
gfz2014hbqb  -3.21680
gfz2014hetr  -2.10980
gfz2014heum  -0.86020
gfz2014heyq  -1.62730
gfz2014hfad  -1.96650
gfz2014hfhl  -2.60950
gfz2014hfzf  -1.25080
gfz2014hgqo  -1.91880
gfz2014hjgh  -1.69150
gfz2014hjgr  -1.81860
gfz2014hjij  -1.78920
gfz2014hjlx  -1.36240
gfz2014hkcf  -1.50080
gfz2014hmvx  -0.03940
gfz2014hocg  -1.13000
gfz2014hphw  -2.07570
gfz2014hpqz  -1.11450
gfz2014hqxs  -1.76790
gfz2014hrft  -1.82130
gfz2014hscz  -1.10320
gfz2014huaj  -1.08890
gfz2014hyal  -0.24810
gfz2014hymr  -1.25610
gfz2014hyvq  -0.90780
gfz2014hzdy  -1.33420
gfz2014hzfw  -2.59470
gfz2014hzgn  -1.87390
gfz2014hzig   0.53110
gfz2014icqt  -0.87370
gfz2014ieam  -3.66480
gfz2014ifue  -1.36310
gfz2014igur  -0.13100
gfz2014ilwu  -1.21260
gfz2014imnn  -1.57640
gfz2014inbj  -0.62380
gfz2014iobd  -2.19480
gfz2014irci  -1.56140
gfz2014itab  -1.49100
gfz2014itgh  -1.59580
gfz2014itkw  -2.08210
gfz2014itpj  -1.13800
gfz2014iuhq  -1.16720
gfz2014iwnf  -1.04440
gfz2014iywt  -1.66600
gfz2014jfis  -1.80300
gfz2014jjhc  -1.11990
gfz2014jjln  -1.67510
gfz2014jnyv  -1.72130
gfz2014jomw  -1.49440
gfz2014jpep  -1.78090
gfz2014jvow  -1.43760
gfz2014jwmh  -0.77580
gfz2014kara  -2.44610
gfz2014kbuk  -2.31090
gfz2014kitm  -0.52900
gfz2014kkhh   0.06800
gfz2014kndc  -1.99890
gfz2014knks  -1.94010
gfz2014knxs  -2.00480
gfz2014kwrg  -1.36870
gfz2014kyan  -1.51510
gfz2014lddn  -1.82110
gfz2014lefs  -1.96840
gfz2014lgqn  -1.78760
gfz2014ljbr  -0.58990
gfz2014lkyf  -2.22940
gfz2014lnqy  -1.83250
gfz2014lxnc  -2.22710
gfz2014lyhk  -1.96530
gfz2014macx  -1.97780
gfz2014madw  -1.68600
gfz2014ngvt  -1.38920
gfz2014nhyb  -0.55690
gfz2014niqj  -0.83850
gfz2014nnxd  -2.23670
gfz2014nowp  -1.35430
gfz2014npeo  -1.46340
gfz2014nphm  -1.14730
gfz2014nqfm  -1.86160
gfz2014nrie  -1.84820
gfz2014oinz  -1.86410
gfz2014owxc  -1.91130
gfz2014oxcc  -1.99920
gfz2014oyly  -2.01560
gfz2014pjum  -1.11940
gfz2014ppzf  -1.74740
gfz2014pvch  -1.50430
gfz2014qlxd  -1.41190
gfz2014qngj  -3.11880
gfz2014qqhm  -1.91300
gfz2014rdsn  -2.44000
gfz2014riel  -1.82690
gfz2014rkwl  -1.49180
gfz2014sjqw  -1.26120
gfz2014ssvz  -2.37950
gfz2014szzf  -1.86210
gfz2014tovs  -1.67220
gfz2014tqdo  -1.84560
gfz2014tqsf  -2.10160
gfz2014tzsd  -1.92210
gfz2014ubwn  -1.17610
gfz2014udgg  -2.13210
gfz2014uohh  -1.34410
gfz2014vhld  -1.22920
gfz2014vhms  -1.98800
gfz2014watn  -1.80960
gfz2014wjko  -1.87370
gfz2014xbyr  -1.29690
gfz2014xjri  -2.35410
gfz2014xqqd  -2.23950
gfz2014yhhm  -1.99760
gfz2014yula  -1.27030
gfz2014zkys   0.02100
gfz2014zlgp  -1.62930
gfz2014zplq  -0.80800
gfz2015abpw  -1.03510
gfz2015apnk  -1.47780
gfz2015aruz  -2.09820
gfz2015atxv  -2.11370
gfz2015berb  -1.17410
gfz2015bfjm  -1.53240
gfz2015bkbj  -2.16390
gfz2015bphe  -1.53370
gfz2015bpxl  -2.67790
gfz2015bucr  -2.76060
gfz2015byfn  -1.21350
gfz2015chhn  -1.98310
gfz2015chqn  -1.86420
gfz2015cxhx  -1.73030
gfz2015cxxk  -1.41190
gfz2015cyjd  -1.73460
gfz2015czfv  -1.33350
gfz2015dskr  -1.76880
gfz2015dvbn  -1.85710
gfz2015ecgq  -1.56670
gfz2015ednc  -0.61990
gfz2015eeyq  -1.53730
gfz2015eezy  -0.56020
gfz2015egxq  -1.39620
gfz2015ehou  -0.35850
gfz2015eiky  -1.20440
gfz2015elgy  -2.35660
gfz2015emtg  -1.49310
gfz2015etai  -2.11010
gfz2015evpl  -0.99230
gfz2015fbbk  -2.78280
gfz2015fcua  -1.46200
gfz2015fjhk  -1.83040
gfz2015fkbc  -0.84290
gfz2015fkgt  -1.60250
gfz2015fkic  -2.10540
gfz2015fkkd  -1.07830
gfz2015flis  -1.48440
gfz2015fsjj  -1.25490
gfz2015fvoi  -1.70920
gfz2015fxbv  -1.16700
gfz2015fxdi  -1.84270
gfz2015fyvk  -0.74360
gfz2015gckd  -2.00280
gfz2015ggjw  -1.40470
gfz2015gjbr  -1.51430
gfz2015gkwa  -1.36380
gfz2015gnmy  -1.87960
gfz2015gwao  -1.36590
gfz2015gzja  -1.31440
gfz2015hdcp  -1.17970
gfz2015hgbk  -1.94880
gfz2015hlqo  -1.19060
gfz2015hpmk  -1.38850
gfz2015iele  -0.47930
gfz2015igsy  -0.79390
gfz2015imty  -2.12450
gfz2015isim  -0.69610
gfz2015iwqk  -0.04300
gfz2015jkdw  -1.56150
gfz2015jmlf  -2.75930
gfz2015jmlu  -1.19110
gfz2015jpap   1.39500
gfz2015jwgl  -1.93360
gfz2015jxbx  -2.29170
gfz2015jzcv  -1.86150
gfz2015kakw  -1.66130
gfz2015kalm  -2.85680
gfz2015kcaa  -1.49970
gfz2015kkqb  -4.50500
gfz2015kkth  -1.55510
gfz2015kphk  -1.52830
gfz2015kquq  -1.38110
gfz2015ksni  -1.85920
gfz2015kvwz  -0.86980
gfz2015kxxs  -0.27470
gfz2015lcuo   0.43260
gfz2015lfud  -3.03290
gfz2015lhjq  -2.00260
gfz2015lhjy  -1.43080
gfz2015ltii  -1.43140
gfz2015lytv  -3.17410
gfz2015lzad  -2.01010
gfz2015mbgr  -1.75700
gfz2015mfpy  -1.74100
gfz2015mpte  -2.29980
gfz2015nqgf  -1.98880
gfz2015ntpk  -0.27360
gfz2015nuxz  -2.29920
gfz2015nwug  -1.64640
gfz2015ocdz  -1.88940
gfz2015okmq  -2.23100
gfz2015oyfl  -1.52170
gfz2015pdri  -1.84030
gfz2015prlr  -1.06030
gfz2015qnho  -1.63990
gfz2015qpvd  -0.91630
gfz2015quzo  -1.36110
gfz2015qvxu  -1.92250
gfz2015rddx  -2.04890
gfz2015rgrg  -1.35270
gfz2015rkrg  -1.45520
gfz2015rkzg  -1.08960
gfz2015sfdd  -2.10850
gfz2015sfdl  -1.39770
gfz2015sfdy  -2.05730
gfz2015sfeo  -1.31350
gfz2015sffn  -1.73990
gfz2015sfga  -2.04440
gfz2015sfiq  -2.23680
gfz2015sfkh  -2.38740
gfz2015sfkz  -2.20070
gfz2015sflf  -1.85240
gfz2015sfmd   0.28630
gfz2015sfnb  -2.09630
gfz2015sfno  -2.60840
gfz2015sfnv  -1.92420
gfz2015sfoc  -2.01790
gfz2015sfqo  -2.00220
gfz2015sfqr  -2.10890
gfz2015sfsi   0.12150
gfz2015sfwf  -0.71630
gfz2015sfzm  -0.94640
gfz2015sgad  -1.25900
gfz2015sgdn  -1.39380
gfz2015sghq  -2.14380
gfz2015sglg  -2.26910
gfz2015sgmr  -0.79090
gfz2015sgpu  -3.23500
gfz2015sguf  -0.85340
gfz2015sgyd  -1.62480
gfz2015shhg  -1.14380
gfz2015shhu  -1.45650
gfz2015shjn  -1.78630
gfz2015shsz  -0.37900
gfz2015sitn  -1.55260
gfz2015sjbx  -1.67860
gfz2015sjgk  -1.35060
gfz2015sjne  -1.43990
gfz2015sjoj  -1.62270
gfz2015sjvu  -1.45010
gfz2015sjwi  -1.41610
gfz2015sklu  -1.57590
gfz2015skpv  -1.63110
gfz2015skxu  -1.48640
gfz2015sldx  -2.09320
gfz2015slun  -1.74450
gfz2015smym  -2.07860
gfz2015snmr  -1.67340
gfz2015snsf  -2.21860
gfz2015snwh  -2.49360
gfz2015snyd  -1.58290
gfz2015soat  -1.59280
gfz2015soxc  -2.27510
gfz2015srat  -1.79660
gfz2015stfy  -1.26280
gfz2015svwm  -2.05560
gfz2015sxmh  -1.01400
gfz2015szcb  -1.56200
gfz2015taml  -1.71100
gfz2015tdcu  -1.19530
