# Nsamples: 159  MAD:  0.599  mean: -0.875  variance:  0.480
gfz2013jesk  -1.18790
gfz2013jgij  -1.98090
gfz2013jgip   0.34390
gfz2013jkut  -0.66180
gfz2013jmcc  -1.01990
gfz2013jwvc  -1.35480
gfz2013kdeo  -1.04420
gfz2013khli  -0.83130
gfz2013kwag   0.18090
gfz2013lajg  -0.30030
gfz2013ldpc  -1.28650
gfz2013ldqb  -1.32040
gfz2013lixa  -1.38280
gfz2013lljw  -0.66840
gfz2013lsob  -0.67390
gfz2013mghe  -1.49730
gfz2013mqmv  -1.33270
gfz2013mwbh   0.40580
gfz2013mxee  -0.42620
gfz2013ncjp  -1.49790
gfz2013ndin  -1.06690
gfz2013nixj  -1.01410
gfz2013nkgj  -1.48080
gfz2013nknw  -1.28110
gfz2013nuvi   1.42790
gfz2013nwdi  -1.75870
gfz2013oejn  -0.91150
gfz2013oifr  -1.38250
gfz2013oinc  -0.68230
gfz2013ojti   0.38140
gfz2013ozrp  -1.10470
gfz2013pcos  -2.19730
gfz2013pfbx  -1.09040
gfz2013pffm  -0.44930
gfz2013qmer  -0.45390
gfz2013suvn  -0.55580
gfz2013svci  -1.62000
gfz2013vjjc  -2.29760
gfz2013xqnn  -0.90520
gfz2013xsdt  -0.30160
gfz2013xtwj  -2.14850
gfz2013yaig  -1.44670
gfz2013yctg  -1.47980
gfz2013yhpk  -1.25210
gfz2013yqkv  -0.87320
gfz2013zmtb  -0.57810
gfz2014afmx  -1.38460
gfz2014agde  -1.06670
gfz2014ajlk  -0.99820
gfz2014algk  -1.40490
gfz2014ande  -0.72250
gfz2014arpf  -0.50760
gfz2014bezu  -1.21070
gfz2014bfng  -1.46240
gfz2014bldx  -0.95450
gfz2014bmta  -1.07290
gfz2014bzxy  -1.19350
gfz2014caop  -0.14480
gfz2014capn   0.01760
gfz2014chdv  -1.63860
gfz2014clnq  -0.51920
gfz2014cmwb  -0.90550
gfz2014cvxx  -1.00430
gfz2014czqi  -0.95550
gfz2014dcdy  -1.15350
gfz2014dddc   0.46600
gfz2014dffd  -1.08950
gfz2014dhxt  -1.37650
gfz2014egwu   0.54260
gfz2014ekcr  -3.10910
gfz2014emzb  -1.15180
gfz2014fcsy  -1.47810
gfz2014fedd  -0.84980
gfz2014fexu  -0.22720
gfz2014fgvi  -0.45000
gfz2014fgvz  -0.31750
gfz2014fgxt  -0.69490
gfz2014fgxz  -1.38380
gfz2014fgyo  -0.55940
gfz2014fgza  -1.39150
gfz2014fhbd  -1.21530
gfz2014fhdw  -1.14390
gfz2014fhhp  -1.05720
gfz2014fhjd   0.96870
gfz2014fhla  -2.70600
gfz2014fhlh  -0.66130
gfz2014fhrq  -1.49500
gfz2014fhsg  -0.92560
gfz2014fhwx  -0.29030
gfz2014fhxm  -0.40570
gfz2014fimn  -0.72410
gfz2014fjpb  -0.32830
gfz2014fjxd  -0.39420
gfz2014fjzd  -1.53120
gfz2014fkmr  -1.65790
gfz2014fkmx  -1.49480
gfz2014fles  -1.11900
gfz2014flfa  -0.02200
gfz2014fnbh  -0.60840
gfz2014fnyg  -1.12300
gfz2014fqpz   0.11570
gfz2014frdz  -0.39970
gfz2014frez  -0.91530
gfz2014frjr  -0.70240
gfz2014frwh  -0.74270
gfz2014fstx   0.37280
gfz2014fsuh   0.15780
gfz2014fszc  -0.07620
gfz2014ftgx   0.28190
gfz2014ftka  -2.21840
gfz2014ftpw  -1.60330
gfz2014ftrk  -0.88980
gfz2014furx  -0.82340
gfz2014fusc  -0.81310
gfz2014fusj  -1.00710
gfz2014fusu  -0.33960
gfz2014fuub   0.17960
gfz2014fuup  -0.90170
gfz2014fval  -1.31480
gfz2014fvdx  -1.29640
gfz2014fvgh  -0.77870
gfz2014fvpy  -0.45560
gfz2014fvrg  -0.51870
gfz2014fvve  -1.23860
gfz2014fwdr  -0.51580
gfz2014fwtt   0.94000
gfz2014fxpu  -1.55670
gfz2014gbcz  -2.25850
gfz2014gcza  -0.24340
gfz2014geuy  -1.04180
gfz2014gezs  -1.23060
gfz2014gfdj   0.50610
gfz2014ghpe  -0.79490
gfz2014gkgf  -2.08050
gfz2014gkgs  -2.08540
gfz2014gkhp  -0.96930
gfz2014gkhy  -0.21720
gfz2014gkjl  -1.02000
gfz2014gkjt  -1.03270
gfz2014gkjw  -0.36340
gfz2014gkjy  -2.15150
gfz2014gklq  -1.02550
gfz2014gklv  -0.47670
gfz2014gkmm  -0.79460
gfz2014gkob  -1.36770
gfz2014gkok  -0.70760
gfz2014gkpd  -1.11980
gfz2014gkpj  -0.69770
gfz2014gkqf  -0.54540
gfz2014gkqu  -1.24150
gfz2014gksu  -0.03120
gfz2014gktq  -0.23480
gfz2014gkxm  -0.88200
gfz2014glcu  -0.83550
gfz2014glcy  -1.24160
gfz2014glgo  -0.46050
gfz2014glov  -0.69260
gfz2014glsh  -0.58670
gfz2014gltx  -0.76720
