# Nsamples: 268  MAD:  0.858  mean: -0.532  variance:  1.080
gfz2010aerk   0.72110
gfz2010ahqi  -1.67160
gfz2010bfzs  -1.15760
gfz2010bhhq  -0.94960
gfz2010bifb  -0.08250
gfz2010bjeb  -1.26710
gfz2010bxxs   0.11350
gfz2010caft  -1.45140
gfz2010chnv  -1.89100
gfz2010cqwl  -0.14080
gfz2010cres  -2.78880
gfz2010czps  -1.16560
gfz2010dlgc  -0.48010
gfz2010eaoy   0.28420
gfz2010eapk   0.30570
gfz2010eapn  -1.09920
gfz2010eaqe   0.23940
gfz2010eaqx  -0.04050
gfz2010eaqy   1.27390
gfz2010earq   0.64540
gfz2010earu  -0.34400
gfz2010easf  -1.21430
gfz2010eask   0.11950
gfz2010easo   0.53510
gfz2010easu   1.70060
gfz2010eato  -0.35510
gfz2010eaul  -0.38910
gfz2010eavs  -0.01990
gfz2010eawb  -0.08000
gfz2010eawu  -0.74980
gfz2010eaxa  -1.06370
gfz2010eaxn   0.65970
gfz2010eaya  -0.87500
gfz2010eaze   1.46820
gfz2010eazu  -0.94120
gfz2010ebbd   0.19230
gfz2010ebby  -1.45360
gfz2010ebfa  -1.39440
gfz2010ebfx   2.00910
gfz2010ebhc  -1.32220
gfz2010ebih  -0.86330
gfz2010ebin   0.63120
gfz2010ebiv  -0.05980
gfz2010ebkj  -0.21310
gfz2010ebla   0.56170
gfz2010ebll   0.10730
gfz2010ebmb  -0.14730
gfz2010ebmi   1.15070
gfz2010ebnn   0.33660
gfz2010ebvm  -1.34350
gfz2010ebvv   0.39640
gfz2010ebwp  -2.45920
gfz2010ebxl  -0.68400
gfz2010ebzk   0.99110
gfz2010ebzr   0.12210
gfz2010echy  -1.53320
gfz2010ecua  -1.16100
gfz2010ecvt   0.95590
gfz2010edvf  -0.54810
gfz2010edyi   4.69640
gfz2010eefo   0.70690
gfz2010eeij   0.18860
gfz2010egsy  -1.50130
gfz2010eisx   0.05950
gfz2010ekaw  -1.47560
gfz2010ekyc  -0.32620
gfz2010eltf  -1.25870
gfz2010elyc  -0.82900
gfz2010eqmu   5.22500
gfz2010erkn  -0.72710
gfz2010erom  -0.05730
gfz2010excp  -0.16990
gfz2010exdd  -0.65650
gfz2010exdl  -0.67530
gfz2010exgb  -1.27860
gfz2010exno  -0.52220
gfz2010exsg  -0.87760
gfz2010ezax  -1.09450
gfz2010ezck  -0.69550
gfz2010ezwz   0.49560
gfz2010ezxd  -1.57250
gfz2010fedq  -0.22140
gfz2010ffhq   0.41170
gfz2010ffjb  -2.45970
gfz2010figq   0.99490
gfz2010fika   0.71410
gfz2010fpqy  -1.23880
gfz2010fync  -2.47730
gfz2010gcrl   1.99240
gfz2010gcrp  -1.08700
gfz2010gdld  -1.63640
gfz2010glxl   0.86490
gfz2010grjd   1.74260
gfz2010gyqp  -1.21630
gfz2010hbka  -1.23400
gfz2010hllj  -1.48980
gfz2010hlln  -1.61210
gfz2010hlmq  -0.89050
gfz2010hndk   1.02070
gfz2010hnnf  -0.89180
gfz2010homc  -0.39300
gfz2010hptz   1.01190
gfz2010hxgv  -0.28050
gfz2010icqq   0.77450
gfz2010iobp  -0.78920
gfz2010iqnm  -1.62720
gfz2010iull  -0.59350
gfz2010kdyc  -2.24280
gfz2010mncc  -0.10890
gfz2010moyw  -0.34460
gfz2010mpuy  -1.32370
gfz2010nmpc   0.04260
gfz2010nnny   0.00000
gfz2010nqwo  -0.24550
gfz2010ntuo  -0.23190
gfz2010ocxq   0.84020
gfz2010pewa  -1.47600
gfz2010pewx  -2.34170
gfz2010sfee  -0.98250
gfz2010sfla  -0.55290
gfz2010skqo   0.84850
gfz2010tcrl  -1.19600
gfz2010usho  -0.68640
gfz2010xgzw  -0.20920
gfz2011adjs   0.19100
gfz2011cndo  -0.18300
gfz2011cvfg   0.01970
gfz2011cykd  -0.14830
gfz2011ecaj  -2.12120
gfz2011gkzt  -2.26350
gfz2011hlqw  -0.29720
gfz2011hlsa  -1.13640
gfz2011hpqp  -0.64910
gfz2011jplh  -0.54910
gfz2011ntkh  -0.61360
gfz2011nudm  -1.59750
gfz2011olkk  -1.28820
gfz2011ornx  -0.36000
gfz2011owvz  -1.50410
gfz2011rewa  -0.50560
gfz2011rgwp   2.00430
gfz2011sagt  -0.11480
gfz2011tkog  -1.13990
gfz2011toub  -1.21180
gfz2011wxfs   1.18290
gfz2011xyxj   0.15130
gfz2011zklv  -0.55770
gfz2012aqtq  -0.72440
gfz2012bpkx  -1.28400
gfz2012bpwl   0.05810
gfz2012byad  -0.02210
gfz2012cxdn  -1.18120
gfz2012dinb  -1.27180
gfz2012enno  -0.49010
gfz2012fzfa  -0.16040
gfz2012hnul   0.31830
gfz2012jgvj  -0.79760
gfz2012kkup  -1.25100
gfz2012klhx  -0.53490
gfz2012kudo  -0.49340
gfz2012kvzv  -1.03190
gfz2012ldxg  -0.80520
gfz2012lxkv  -1.04760
gfz2012lzmr  -0.10790
gfz2012minr  -0.21350
gfz2012mvwr  -0.86670
gfz2012oazn  -1.15970
gfz2012pqmu  -1.37080
gfz2012rats  -0.81260
gfz2012rqlg  -1.63520
gfz2012rwov  -2.24770
gfz2012sjea  -0.63490
gfz2012syvl   0.56890
gfz2012wxlg  -1.76430
gfz2012zjpv   2.23940
gfz2013ccnr  -2.33310
gfz2013jkut  -1.12320
gfz2013kdeo  -1.68950
gfz2013lyko  -0.85310
gfz2013pfbx   0.47350
gfz2013qzdq  -2.04050
gfz2013suvn   0.64640
gfz2013svci  -0.98370
gfz2013tcxc  -1.37450
gfz2013tusd  -1.38580
gfz2013vfzp   0.94490
gfz2013vjjc  -0.35120
gfz2013wjmm  -0.58130
gfz2013xmul  -1.30960
gfz2013xsdt  -0.75950
gfz2013xxwv  -1.43470
gfz2014afmx  -0.19190
gfz2014ande  -0.92320
gfz2014bwue   0.77620
gfz2014czua  -0.74430
gfz2014enhi   0.08820
gfz2014fgvi   0.33570
gfz2014fhla   0.00260
gfz2014frel  -1.94430
gfz2014ftka  -1.67950
gfz2014furx   1.00770
gfz2014fusj  -2.35660
gfz2014fval  -0.42240
gfz2014fvrg   0.52530
gfz2014gbcz  -1.09600
gfz2014gkgf  -0.74860
gfz2014gkgs  -0.57940
gfz2014gkqf  -0.39260
gfz2014gmge  -1.29300
gfz2014gmhr  -0.61580
gfz2014gmnb  -0.77900
gfz2014gmnw  -0.41380
gfz2014goba  -0.65630
gfz2014gori  -0.48910
gfz2014gpuk   0.40860
gfz2014gull  -1.54000
gfz2014hcmj  -1.00830
gfz2014hfhl  -0.81960
gfz2014hocg  -1.28520
gfz2014inbj  -0.96730
gfz2014jjhc  -0.37010
gfz2014jwmh  -0.99170
gfz2014lnmw   0.56280
gfz2014lxnc  -1.87200
gfz2014lyhk  -1.74350
gfz2014nqfm  -0.11920
gfz2014oinz  -1.18260
gfz2014pvch  -2.88600
gfz2014qlxd  -1.60710
gfz2014qngj  -1.45070
gfz2014qqhm  -1.27220
gfz2014ryfb  -1.36480
gfz2014ssvz  -0.68820
gfz2015bucr  -0.77030
gfz2015chhn  -1.28980
gfz2015cxxk  -0.81730
gfz2015cyjd  -0.61730
gfz2015dvbn  -0.29610
gfz2015fjhk  -0.20540
gfz2015fkgt  -1.09540
gfz2015fkic  -0.21440
gfz2015fsjj  -1.05300
gfz2015gckd  -0.38440
gfz2015jwgl  -0.37390
gfz2015lytv  -1.69390
gfz2015ocdz  -0.35550
gfz2015rddx  -0.80490
gfz2015sfdd  -0.68090
gfz2015sfdv  -0.80730
gfz2015sfdy   0.02780
gfz2015sfeo  -2.19630
gfz2015sfiq   1.64670
gfz2015sfko  -0.79270
gfz2015sfnb  -0.01900
gfz2015sfno   1.45490
gfz2015sfnv  -1.12700
gfz2015sftu  -0.67670
gfz2015sfwf  -1.22310
gfz2015shsz  -0.25130
gfz2015sjoj  -0.67800
gfz2015sjvu  -0.22020
gfz2015snwh  -1.13170
gfz2015snyd  -1.13000
gfz2015soat  -1.03760
gfz2015soxc  -1.34070
gfz2015svwm  -1.22340
gfz2015szcb  -0.81040
gfz2015taml  -1.10690
