# Nsamples: 35  MAD:  0.527  mean:  0.506  variance:  0.330
gfz2010grjd  -0.65360
gfz2010iull   0.51970
gfz2010nmpc   0.36270
gfz2011enva   0.06140
gfz2011hlqw   2.29750
gfz2011hlsa   0.84250
gfz2011lcxq   0.17110
gfz2011lzwj   0.68530
gfz2011rewa   0.68850
gfz2011toub   0.20650
gfz2011wxfs   0.10680
gfz2012enno   0.80020
gfz2012jlox   0.10980
gfz2012kkup   1.04390
gfz2012kudo  -0.08700
gfz2012teic   0.75940
gfz2012vrgb   0.98730
gfz2012wypz   0.16450
gfz2013drxz   0.87000
gfz2013kdeo   1.17140
gfz2013nwdi  -0.44410
gfz2013svci   0.62150
gfz2014bwue   0.09450
gfz2014fgvi   0.91660
gfz2014fhla   0.55520
gfz2014ftka  -0.26010
gfz2014gkgf   0.57140
gfz2014gkqf   0.46350
gfz2014goba   1.26900
gfz2014gull   1.18560
gfz2014jjhc   0.43920
gfz2014nqfm   0.40050
gfz2014qqhm   0.16530
gfz2014ssvz  -0.48850
gfz2015cyjd   1.10370
