# Nsamples: 10  MAD:  0.729  mean:  0.616  variance:  0.282
gfz2010grjd   1.03540
gfz2010iull   0.76770
gfz2010nmpc   1.21280
gfz2011aatr   0.05140
gfz2011enva   1.38250
gfz2011lcxq   0.09630
gfz2011wxfs   0.21830
gfz2012jlox   0.29380
gfz2014fgvi   1.19130
gfz2014gkgf  -0.08470
