# Nsamples: 71  MAD:  0.512  mean: -0.850  variance:  0.702
gfz2011aatr  -1.05070
gfz2011enva   0.93260
gfz2011gkzt  -1.40450
gfz2011hlsa  -0.72020
gfz2011jplh  -1.18350
gfz2011lcxq  -0.52220
gfz2011lzwj  -0.21900
gfz2011mdie  -1.69500
gfz2011rewa  -0.69040
gfz2011toub  -1.35130
gfz2011wxfs  -0.63420
gfz2012enno  -0.95690
gfz2012jlox  -0.91070
gfz2012kkup  -1.35230
gfz2012klhx  -1.50300
gfz2012kuct  -1.17650
gfz2012kudo  -1.41190
gfz2012ldxg  -0.44260
gfz2012ngic  -1.00170
gfz2012nqnk  -1.98720
gfz2012oazn  -0.73980
gfz2012wmsg  -1.16600
gfz2012wypz  -0.77750
gfz2013ccnr  -1.89340
gfz2013drxz  -1.64110
gfz2013jkut  -0.89320
gfz2013kdeo  -1.22370
gfz2013mqmv  -0.52570
gfz2013nkgj  -1.23410
gfz2013nwdi  -1.16410
gfz2013pfbx  -1.09470
gfz2013svci  -1.54430
gfz2013ypdc  -1.36460
gfz2014afmx  -0.92250
gfz2014ande  -0.66880
gfz2014bwue  -0.94970
gfz2014fgvi  -0.99380
gfz2014fhla   3.59530
gfz2014frdz  -0.90090
gfz2014ftka  -0.68350
gfz2014fval   0.26900
gfz2014gkgf  -0.19110
gfz2014gkgs  -1.94830
gfz2014gkqf   0.02840
gfz2014gmge   0.59910
gfz2014gmhr  -1.69970
gfz2014gmnb  -0.86310
gfz2014gmnw  -0.62490
gfz2014goba  -0.78000
gfz2014gull   0.24500
gfz2014hasj  -1.23850
gfz2014hjgr  -0.41780
gfz2014huaj  -2.45280
gfz2014lxnc   0.57880
gfz2014lyhk  -0.89190
gfz2014macx  -0.51680
gfz2014madw  -0.99370
gfz2014nqfm  -0.44050
gfz2014nrie  -0.87570
gfz2014oinz  -0.86630
gfz2014ssvz  -0.77500
gfz2015chhn  -1.66690
gfz2015cyjd  -1.62350
gfz2015fjhk  -0.72500
gfz2015fsjj  -0.83660
gfz2015gckd  -0.53050
gfz2015kxxs  -0.12880
gfz2015lhjy  -0.64380
gfz2015okmq  -0.41840
gfz2015sfdd  -2.82200
gfz2015snwh  -1.05250
