# Nsamples: 21  MAD:  0.734  mean:  0.035  variance:  0.963
gfz2011aatr  -0.39450
gfz2011enva   1.34600
gfz2011lcxq  -0.15280
gfz2011wxfs   0.25770
gfz2012enno   0.42610
gfz2012jlox  -0.29690
gfz2012kudo  -0.69110
gfz2012ldxg   0.75850
gfz2013jkut  -0.07210
gfz2013nwdi   0.61310
gfz2013svci  -0.64760
gfz2014fgvi   0.41750
gfz2014ghpe  -2.41840
gfz2014gkgf  -1.16680
gfz2014gmge   2.39550
gfz2014gmhr   1.53300
gfz2014gmnb   0.21000
gfz2014gmnw  -0.44030
gfz2015cyjd  -0.23190
gfz2015fsjj  -0.19520
gfz2015lhjy  -0.52330
