# Nsamples: 92  MAD:  0.819  mean:  0.276  variance:  1.995
gfz2010bgth  -1.64480
gfz2010bxxs   0.57610
gfz2010czps   0.61030
gfz2010eaoy  -1.38510
gfz2010earu   0.21100
gfz2010eavs   1.41280
gfz2010eawb   1.39090
gfz2010eawu  -7.19860
gfz2010ecua   2.00590
gfz2010eell  -5.53170
gfz2010eisx   1.53450
gfz2010ekyc   0.69190
gfz2010eltf   0.49570
gfz2010elyc   1.53370
gfz2010evgf  -1.75940
gfz2010excp   1.30280
gfz2010exdd   0.87310
gfz2010ezck   0.92770
gfz2010fedq   2.37330
gfz2010gzxr  -0.04960
gfz2010hxgv   0.38680
gfz2010iull   1.29980
gfz2010rqwj   1.33280
gfz2010usho   1.25860
gfz2010ustq   0.29890
gfz2010utcg   0.91440
gfz2010vbmd  -0.71900
gfz2010xden   0.86340
gfz2011cykd   0.42870
gfz2011dcqb  -1.57110
gfz2011dpqx   0.44160
gfz2011enva   1.40570
gfz2011gkzt   0.43870
gfz2011hlqw  -0.15840
gfz2011hlsa   0.10580
gfz2011lcxq   1.51290
gfz2011lzwj   1.23110
gfz2011owvz   0.02200
gfz2011rewa   0.27180
gfz2011toub   0.66520
gfz2011wxfs   1.03990
gfz2012bpkx   0.10480
gfz2012enno   0.06950
gfz2012ewkj   0.38360
gfz2012fzfa   1.51970
gfz2012jlox   0.59650
gfz2012kkup   0.44430
gfz2012klhx   0.71850
gfz2012kudo   0.41100
gfz2012ldxg  -0.70310
gfz2012rwov   0.30720
gfz2012sphd   0.60200
gfz2012wxlg  -0.22210
gfz2012wypz   0.37680
gfz2013ccnr   0.43420
gfz2013drxz   0.16400
gfz2013nkgj   0.56640
gfz2013nwdi   1.78640
gfz2013svci   0.83390
gfz2013tcxc  -3.77560
gfz2013vjjc   0.96740
gfz2014bwue   0.34930
gfz2014clnq  -0.83370
gfz2014fgvi   1.67240
gfz2014fhla  -0.82290
gfz2014ftka   1.05520
gfz2014gkgf   1.13820
gfz2014gkgl   1.65240
gfz2014gmhr  -0.22320
gfz2014gulp   1.80140
gfz2014lyhk  -1.68970
gfz2014ssvz  -0.28680
gfz2015chhn  -1.27950
gfz2015cyjd  -0.62440
gfz2015fkgt  -0.09130
gfz2015fsjj   0.28220
gfz2015lhjy   0.73270
gfz2015lytv  -0.72650
gfz2015sfdd   0.77510
gfz2015sfdh  -1.88650
gfz2015sfdl   0.77600
gfz2015sfdy  -0.07380
gfz2015sfeo   1.67330
gfz2015sfmd   0.14790
gfz2015sfnb   2.14400
gfz2015sfno   0.29440
gfz2015smym   0.63060
gfz2015snwh   0.91750
gfz2015soat   0.87270
gfz2015soxc   0.77730
gfz2015svwm   1.10130
gfz2015taml  -0.28100
