# Nsamples: 115  MAD:  0.833  mean:  0.279  variance:  2.042
gfz2010bfzs   0.61220
gfz2010bgth  -1.60720
gfz2010bjeb   0.53630
gfz2010cqwl   1.08260
gfz2010czps   0.79130
gfz2010eaoy  -0.02640
gfz2010eapn  -5.15350
gfz2010eaqy   1.60330
gfz2010earu  -0.14550
gfz2010eawu  -1.01630
gfz2010ebhc  -0.45240
gfz2010ebnn   1.42440
gfz2010ebvm  -2.05360
gfz2010ebvv   0.11310
gfz2010ecua   0.89330
gfz2010edyi   6.61620
gfz2010eisx   6.13130
gfz2010ekyc  -0.77690
gfz2010eltf  -1.65180
gfz2010elyc   1.21580
gfz2010excp   0.86930
gfz2010exdd   1.64420
gfz2010ezck   0.49960
gfz2010fedq  -2.66060
gfz2010fync   0.82550
gfz2010gzxr   1.50360
gfz2010hxgv  -0.69080
gfz2010iull   0.86840
gfz2010nqwo   0.91960
gfz2010rqwj   0.61650
gfz2010upfb   0.21680
gfz2010usho   2.20250
gfz2010ustq   0.59650
gfz2010utcg  -0.04580
gfz2010vzzz   1.75590
gfz2011bgrp   0.89440
gfz2011cykd  -0.18940
gfz2011dcqb   1.94770
gfz2011dpqx   0.34060
gfz2011hlqw  -0.36260
gfz2011hlsa  -0.28530
gfz2011hlth  -0.22820
gfz2011lcxq   0.89710
gfz2011lzwj   1.04300
gfz2011mdie   0.22050
gfz2011owvz  -1.21390
gfz2011rewa  -0.02860
gfz2011toub   0.43940
gfz2011vhfi   0.02110
gfz2011vxns  -0.77850
gfz2011xyxj   0.95330
gfz2011yybo  -2.62530
gfz2012bfah  -0.05710
gfz2012bpkx  -0.84210
gfz2012enno  -0.11050
gfz2012fzfa  -0.35190
gfz2012jlox   0.74550
gfz2012jupx  -0.91190
gfz2012kkup   0.26790
gfz2012klhx   0.24370
gfz2012kudo   0.16680
gfz2012ldxg  -0.80210
gfz2012sphd   0.77440
gfz2012ttoa  -0.72910
gfz2012uafg  -1.13220
gfz2012wklq  -0.84430
gfz2012wxlg  -1.64920
gfz2012wypz   0.04800
gfz2012zemz  -0.71720
gfz2013aahq   3.05770
gfz2013ccnr   0.06110
gfz2013drxz  -0.78130
gfz2013hmbc  -2.99060
gfz2013nkgj   0.35780
gfz2013nwdi   0.39120
gfz2013svci   0.65510
gfz2013vjjc   2.09870
gfz2014bwue   0.51770
gfz2014fgvi   1.14500
gfz2014fhla   0.10050
gfz2014ftka  -2.07200
gfz2014gkgf   0.44530
gfz2014gkgl   0.33390
gfz2014gmhr   0.09550
gfz2014gnfs   2.53310
gfz2014goba   0.41290
gfz2014hocg   0.39340
gfz2014oinz   0.74770
gfz2015fkgt   1.49500
gfz2015lhjy   0.92570
gfz2015lytv  -1.97330
gfz2015sfdd   0.73360
gfz2015sfdl   1.11390
gfz2015sfdv   0.51160
gfz2015sfdy   0.39090
gfz2015sfeo   1.47510
gfz2015sfhz  -0.11450
gfz2015sfiq   1.47890
gfz2015sfnb  -1.28940
gfz2015sfno   1.15840
gfz2015sfoc   1.09830
gfz2015sfqr   1.41730
gfz2015sgdn   1.85950
gfz2015sgmm  -0.78760
gfz2015shsz  -0.20160
gfz2015sjoj   0.36040
gfz2015sjvu   0.49150
gfz2015smym   0.86340
gfz2015snwh  -0.14700
gfz2015soat   0.67270
gfz2015soxc   0.45580
gfz2015stfy  -0.65800
gfz2015svwm   0.65420
gfz2015taml   0.08980
gfz2015tdcu   0.05420
