# Nsamples: 105  MAD:  0.720  mean:  0.383  variance:  1.366
gfz2010ahqi  -0.08260
gfz2010bjeb   0.28210
gfz2010bxxs  -0.93570
gfz2010cqwl  -0.16530
gfz2010czps  -0.00000
gfz2010eaoy   0.29500
gfz2010earu   1.01380
gfz2010eask  -1.08670
gfz2010eawb  -1.75500
gfz2010eawu  -0.27530
gfz2010ebhc   0.53960
gfz2010ebnn   0.47510
gfz2010ecua   1.29420
gfz2010edyi   7.77520
gfz2010eisx   2.71270
gfz2010ekyc   0.95590
gfz2010eltf   0.95670
gfz2010excp   0.88720
gfz2010fqdu   0.44290
gfz2010ftlm   0.37240
gfz2010grjd   2.03050
gfz2010hrkr  -0.25680
gfz2010iull   0.43140
gfz2010mkuu  -0.59500
gfz2010nmpc  -0.16260
gfz2010nwef  -0.50780
gfz2010rqwj   0.15840
gfz2010usho   0.22870
gfz2011aatr   0.18770
gfz2011adjs   1.64690
gfz2011bgrp  -0.37320
gfz2011cykd   2.31650
gfz2011dpqx  -0.04420
gfz2011enva   0.10380
gfz2011gkzt  -0.99390
gfz2011hlqw  -0.42460
gfz2011hlsa  -0.35530
gfz2011hlth  -0.12040
gfz2011jplh  -0.15940
gfz2011kxzp  -0.46990
gfz2011lcxq   1.13510
gfz2011lzwj   0.77530
gfz2011mdie  -0.65980
gfz2011owvz   0.65190
gfz2011rewa  -0.05570
gfz2011sawg   0.65970
gfz2011toub   0.15640
gfz2011wxfs   1.16640
gfz2011xyxj   0.78650
gfz2012enno   0.20930
gfz2012fzfa  -0.01860
gfz2012hnul   1.89500
gfz2012jlox   0.44100
gfz2012kkup  -0.14780
gfz2012klhx  -0.41210
gfz2012kuct   0.02920
gfz2012kudo  -0.16340
gfz2012ldxg   0.61250
gfz2012ldzj   0.66630
gfz2012minr   2.80120
gfz2012nqnk   0.32250
gfz2012ttoa   0.40260
gfz2012wypz   0.24250
gfz2013ccnr  -1.09370
gfz2013drxz  -0.08640
gfz2013jkut   0.81270
gfz2013nwdi  -0.08420
gfz2013qmer   0.15210
gfz2013svci   0.59610
gfz2013uauo   1.17730
gfz2013vjjc  -2.24780
gfz2014bwue   0.65950
gfz2014fgvi   0.57050
gfz2014fhla  -0.59760
gfz2014fkmr   2.70190
gfz2014frdz  -0.17500
gfz2014ftka  -0.82580
gfz2014gkgf   1.18160
gfz2014gkgs   0.06640
gfz2014gmge   2.94870
gfz2014gmhr  -1.13910
gfz2014gull  -0.14040
gfz2014hocg   0.47950
gfz2014nrie   1.11120
gfz2014oinz  -0.03070
gfz2014qqhm   1.01940
gfz2014ssvz  -1.14050
gfz2014ubwn   0.21690
gfz2014vhms   0.69870
gfz2015chhn  -0.26250
gfz2015cyjd  -0.64290
gfz2015fjhk   0.14560
gfz2015fsjj   0.92700
gfz2015kxxs   1.35000
gfz2015lhjy   0.23710
gfz2015lytv   0.97460
gfz2015mpte   0.44780
gfz2015sfdd  -1.03140
gfz2015sfdy   0.37360
gfz2015sfno   2.47760
gfz2015smym   0.29820
gfz2015snwh  -0.33760
gfz2015soxc   0.08460
gfz2015svwm  -0.33130
gfz2015taml   0.80870
