# Nsamples: 20  MAD:  0.587  mean:  0.762  variance:  1.372
gfz2010iull   0.53060
gfz2010nmpc   0.56680
gfz2011aatr   0.22160
gfz2011enva   1.02030
gfz2011hlsa   0.73970
gfz2011lcxq   0.12020
gfz2011lzwj   2.50120
gfz2012wypz   0.44850
gfz2013drxz   0.13240
gfz2013nwdi  -0.29890
gfz2013svci   0.21950
gfz2013vjjc   3.97570
gfz2014fgvi   0.77340
gfz2014fhla   2.94630
gfz2014gkgf   0.96410
gfz2014jcmt   1.29250
gfz2014lgqn  -1.46610
gfz2014qqhm   0.51450
gfz2015cyjd  -0.17900
gfz2015fsjj   0.21480
