# Nsamples: 37  MAD:  0.532  mean:  0.326  variance:  0.879
gfz2010bxxs   0.49510
gfz2010grjd  -1.47550
gfz2010iull   0.50430
gfz2012jlox   0.31910
gfz2012kkup   0.14540
gfz2012klhx  -0.12330
gfz2012kuct   0.14900
gfz2012kudo   0.17540
gfz2012ldxg  -0.63860
gfz2012vrgb  -0.17330
gfz2012wypz   0.45980
gfz2013jkut   0.60120
gfz2013nwdi  -0.17080
gfz2013svci   0.32270
gfz2013vjjc   3.91510
gfz2013xsdt   0.87020
gfz2014bwue   0.31370
gfz2014fgvi   0.72510
gfz2014fhla  -0.49220
gfz2014gkgf  -0.27810
gfz2014gkqf   0.56260
gfz2014gmhr  -2.29260
gfz2014gull  -0.53650
gfz2014lgqn   1.08930
gfz2014qqhm   0.88330
gfz2014ssvz   1.29280
gfz2015cyjd  -0.82180
gfz2015fsjj  -0.05040
gfz2015kxxs   1.21390
gfz2015lhjy   0.60360
gfz2015mpte   0.61230
gfz2015sfdd   0.17590
gfz2015sfdy   1.17460
gfz2015smym   0.81890
gfz2015snwh   0.57040
gfz2015svwm   0.54340
gfz2015taml   0.57480
