# Nsamples: 480  MAD:  1.049  mean: -0.603  variance:  1.870
gfz2011mjom  -0.94750
gfz2011mpme   0.50710
gfz2011myia   2.58450
gfz2011nauw  -1.33120
gfz2011necz  -1.45600
gfz2011nmnq  -0.43890
gfz2011noud   0.31090
gfz2011nrwc  -1.61950
gfz2011ntkh  -1.04300
gfz2011nudm  -1.26950
gfz2011ogqk  -1.12440
gfz2011ohcy   0.66210
gfz2011oiqe  -1.44700
gfz2011oiwk  -1.86370
gfz2011olkk  -0.94600
gfz2011orgn  -1.18970
gfz2011ornx  -0.42390
gfz2011owvz  -1.19970
gfz2011ozsl   1.33680
gfz2011pccd  -0.52540
gfz2011pdpt  -1.03080
gfz2011phms  -0.09510
gfz2011pntf   4.99630
gfz2011ptus   5.42740
gfz2011qigx  -0.02050
gfz2011qvae   0.08050
gfz2011qyms   2.77330
gfz2011rabm   0.31420
gfz2011rdby  -0.00000
gfz2011rewa  -2.76830
gfz2011rgwp  -0.41700
gfz2011rnut  -0.82640
gfz2011rqui  -1.74000
gfz2011rsrh   0.27040
gfz2011rznl   0.73470
gfz2011sagt   0.13450
gfz2011shqm  -1.37800
gfz2011stal  -2.32840
gfz2011tbas  -1.52880
gfz2011tcij  -0.16750
gfz2011tivu   5.22250
gfz2011tjrf  -0.63380
gfz2011tjue  -0.70420
gfz2011tkfp  -0.11360
gfz2011tkog  -0.97780
gfz2011toub  -2.22750
gfz2011tpbl  -0.86140
gfz2011tpfr  -0.21730
gfz2011tsfd   0.29920
gfz2011tsnp  -1.43780
gfz2011ujze  -0.62520
gfz2011ukmp   0.64540
gfz2011uphh  -0.58020
gfz2011vhfi  -0.34580
gfz2011vkun   1.26620
gfz2011vldk  -0.00000
gfz2011vnza  -0.34140
gfz2011vqrj   1.14180
gfz2011vrhg  -2.16690
gfz2011vxns  -1.02360
gfz2011vxod  -0.35590
gfz2011wcic  -0.14350
gfz2011wjul   0.37550
gfz2011wvzb  -1.11170
gfz2011wxfs  -1.04640
gfz2011wxoj  -0.31910
gfz2011wxtk  -2.20980
gfz2011wype   1.11070
gfz2011xaan  -1.56700
gfz2011xcpv  -0.76210
gfz2012ajtq  -0.36830
gfz2012aqgp   2.12740
gfz2012bfah  -0.43900
gfz2012bfyn  -0.63060
gfz2012bpkx  -3.34280
gfz2012bpnl  -1.45210
gfz2012bpwl  -0.64230
gfz2012brhv   0.23450
gfz2012bszs  -2.03320
gfz2012cbed   0.99500
gfz2012cgvr  -1.27700
gfz2012ckxi  -1.98640
gfz2012covm  -2.05840
gfz2012cqnl  -3.01800
gfz2012cxdn  -1.80180
gfz2012deri  -0.98130
gfz2012dfhq  -0.37920
gfz2012dimn  -0.13730
gfz2012dyyh  -0.46360
gfz2012gill   1.65350
gfz2012gkvr  -1.05870
gfz2012gocc  -0.04250
gfz2012gomm  -1.08350
gfz2012gukw  -0.76610
gfz2012gwqb  -1.40730
gfz2012hnul  -4.00510
gfz2012jlox  -2.77780
gfz2012joqe  -0.67440
gfz2012jted  -0.70840
gfz2012jupx   0.69640
gfz2012jxiy  -0.56660
gfz2012keor  -2.02800
gfz2012kkup  -2.19420
gfz2012klhx  -1.00200
gfz2012kuct  -1.34610
gfz2012kudo  -1.78160
gfz2012kwgo  -1.99170
gfz2012lczo  -0.51680
gfz2012ldxg  -1.03840
gfz2012ldzj  -0.88150
gfz2012lltr   0.93870
gfz2012llug  -2.77150
gfz2012lrsv  -0.99840
gfz2012lxkv  -1.98180
gfz2012lzmr   0.21220
gfz2012minr  -1.82410
gfz2012mupa  -1.91980
gfz2012mwij   1.19200
gfz2012naqz  -1.24240
gfz2012nedn  -1.52690
gfz2012nkdf  -1.88410
gfz2012nsbz  -1.20210
gfz2012nxyt  -1.14390
gfz2012obgw   0.06070
gfz2012oedb  -1.16070
gfz2012omvo   0.60600
gfz2012oycg  -0.78150
gfz2012peex  -0.70680
gfz2012peki   0.19630
gfz2012rats  -0.59360
gfz2012rboy   0.41710
gfz2012repv   0.13920
gfz2012rknn  -1.16050
gfz2012royy  -1.01270
gfz2012rubi   0.12920
gfz2012ruks  -1.08200
gfz2012rwko  -1.73100
gfz2012rwov  -1.86950
gfz2012rwql   1.00240
gfz2012shtg  -0.51790
gfz2012sphd  -1.33550
gfz2012syvl  -1.51750
gfz2012tazz  -0.49890
gfz2012tbbp  -0.75080
gfz2012teic  -1.26660
gfz2012ttoa  -1.45550
gfz2012uaqj  -0.06490
gfz2012uciv  -2.50500
gfz2012uhup  -2.76870
gfz2012uqzp  -0.92830
gfz2012usba   0.73530
gfz2012uvqf   0.96570
gfz2012vceo   0.28380
gfz2012vmeh   0.90010
gfz2012vrgb  -0.86420
gfz2012vsev  -0.97230
gfz2012wizz   1.99710
gfz2012wklq  -3.15900
gfz2012wmsg  -1.17400
gfz2012wpeq  -0.52000
gfz2012wrir   0.70310
gfz2012wtkr  -0.12710
gfz2012wvfl  -0.75020
gfz2012wxlg  -0.57380
gfz2012wxnu  -0.68080
gfz2012wypz  -0.82530
gfz2012xbjq  -0.41280
gfz2012xeul   8.77180
gfz2012xjyv   0.69700
gfz2012xmxy  -0.41330
gfz2012yfrp   0.39470
gfz2013feep   4.60380
gfz2013ffko  -0.39370
gfz2013fiud  -0.25220
gfz2013fkcl  -1.25610
gfz2013flox  -0.98120
gfz2013fnzr   2.93490
gfz2013fwxa   0.28600
gfz2013gdnq  -1.70090
gfz2013gihf  -0.64320
gfz2013gngz  -0.09270
gfz2013gock  -0.68060
gfz2013gvex  -0.83630
gfz2013gvxh  -1.76090
gfz2013gwrd   2.03160
gfz2013hlbe  -1.86890
gfz2013hsfw   0.80570
gfz2013huwr  -0.67760
gfz2013iayx  -0.15590
gfz2013idbb  -2.26820
gfz2013ifpq  -1.58300
gfz2013inux   0.82360
gfz2013ippu  -0.39020
gfz2013iqzq   1.48940
gfz2013iunn  -0.56160
gfz2013jdrx  -1.46720
gfz2013jesk   1.47540
gfz2013jgij  -0.68970
gfz2013jgip   1.08050
gfz2013jkut  -1.05680
gfz2013jusj   6.14040
gfz2013kccc   1.47410
gfz2013kdeo  -0.76770
gfz2013kwps   1.44140
gfz2013ldqb  -1.89550
gfz2013lgbb  -0.14230
gfz2013lixa  -0.99420
gfz2013lwao  -1.03560
gfz2013mghe   0.32330
gfz2013mqik   0.96220
gfz2013mqmv  -0.95450
gfz2013mwbh  -1.43710
gfz2013nabl   0.11040
gfz2013ncjp  -1.95740
gfz2013nixj  -2.18770
gfz2013nkgj  -1.55730
gfz2013nknw  -1.32050
gfz2013nnzf  -1.05300
gfz2013nqgw  -0.12310
gfz2013nwdi  -0.91490
gfz2013oejn  -0.80570
gfz2013ofls   0.23580
gfz2013oqsc   0.38330
gfz2013pfbx  -1.26670
gfz2013pfeb   0.65650
gfz2013phef  -0.02000
gfz2013pqui  -0.81000
gfz2013puag  -0.63610
gfz2013pxtx  -0.11250
gfz2013qali   0.77080
gfz2013qcck   2.00050
gfz2013qesa  -1.39650
gfz2013qfmm   0.24570
gfz2013qfsq  -1.79660
gfz2013qidm  -0.33220
gfz2013qmer  -1.50740
gfz2013qnxc  -0.37010
gfz2013tcxc  -0.37790
gfz2013tcxq  -0.57080
gfz2013tdau   0.21040
gfz2013toxf  -0.81720
gfz2013uxej  -0.80020
gfz2013vefs   0.96140
gfz2013vexx  -1.16390
gfz2013vfyw   0.04960
gfz2013vfzp  -0.39740
gfz2013viul  -1.51470
gfz2013vjfe   0.60210
gfz2013vjjc  -4.06080
gfz2013vvjh  -1.12510
gfz2013vzbo  -1.93310
gfz2013wjmm  -1.86530
gfz2013wkyk   0.74980
gfz2013wtzl  -0.68820
gfz2013wuon  -0.65720
gfz2013wwii   1.23790
gfz2013xizq   1.50790
gfz2013xmul   0.71470
gfz2013xsdt  -0.32100
gfz2013xtwj   0.34590
gfz2013xwda  -0.97640
gfz2013xyzb  -1.73430
gfz2013yach   1.20430
gfz2013yaig  -1.98240
gfz2013ylbx   1.27170
gfz2013ymxs  -1.05880
gfz2013ypdc  -1.93770
gfz2013yqkv   0.13660
gfz2013zmtb  -1.81560
gfz2014abgd   1.24550
gfz2014afmx  -1.66770
gfz2014algk  -1.17110
gfz2014alwz   2.20400
gfz2014ande  -1.56180
gfz2014ared  -2.10750
gfz2014arpf  -0.11450
gfz2014femz  -1.27370
gfz2014fgvi  -1.49580
gfz2014fgvr  -0.94330
gfz2014fgwt  -1.95090
gfz2014fhdw  -1.76900
gfz2014fhla  -0.85110
gfz2014fhlh  -0.61140
gfz2014fhrq  -0.99680
gfz2014fhsg   0.08520
gfz2014fnyg  -0.51160
gfz2014fqpz  -0.43680
gfz2014frdz   0.76690
gfz2014frel  -0.42210
gfz2014frez  -1.38170
gfz2014ftka  -1.80510
gfz2014ftrk  -0.99260
gfz2014furx  -0.18190
gfz2014fusj  -0.05390
gfz2014fval  -0.91970
gfz2014fvrg  -0.23590
gfz2014gbcz  -4.67190
gfz2014gbdq   3.05280
gfz2014ghpe  -1.67440
gfz2014gkgf  -2.22020
gfz2014gkhp  -1.39820
gfz2014gkjl  -1.95870
gfz2014gkjt  -1.70800
gfz2014gkjy  -0.33090
gfz2014gklq  -0.50320
gfz2014gkob  -0.28680
gfz2014gkok  -2.50830
gfz2014gkpd  -1.03660
gfz2014gkpj   0.67150
gfz2014gkqf  -1.59550
gfz2014gkqu  -2.50750
gfz2014gksj   0.77160
gfz2014gksu  -1.74370
gfz2014gktq  -1.88380
gfz2014gkut  -1.61950
gfz2014gkxm  -1.27340
gfz2014glcu  -1.72840
gfz2014glgo  -0.00000
gfz2014gltx  -1.66230
gfz2014glvn  -1.41780
gfz2014gmci  -0.28640
gfz2014gmge  -1.23500
gfz2014gmhp  -1.66120
gfz2014gmhr  -2.80280
gfz2014gmip  -0.42350
gfz2014gmjo  -0.75170
gfz2014gmku  -1.09270
gfz2014gmlz  -0.54630
gfz2014gmmt  -0.11850
gfz2014gmnb  -0.86640
gfz2014gmnw  -1.82710
gfz2014gmor  -1.77530
gfz2014gmpy  -1.83550
gfz2014gmrj  -0.55730
gfz2014gmuw   0.11720
gfz2014gmvr  -0.58760
gfz2014gmzl  -0.74980
gfz2014gmzs  -0.80960
gfz2014gnfd  -0.15530
gfz2014gnfs   0.01990
gfz2014gnnt   0.14240
gfz2014gnxb  -0.68090
gfz2014goba  -1.92470
gfz2014goei  -1.59510
gfz2014gogv  -0.27620
gfz2014goqw  -0.56110
gfz2014gori   0.21570
gfz2014gphr  -2.01710
gfz2014gpya  -1.39500
gfz2014gqbj  -0.78260
gfz2014gqed   0.20530
gfz2014gqer  -2.01380
gfz2014gqjr   0.48600
gfz2014gqve  -1.03010
gfz2014gsgv   1.17120
gfz2014gsqs  -1.65930
gfz2014gtef  -0.72460
gfz2014gtwz   0.38050
gfz2014gufl  -0.18340
gfz2014gull  -1.17120
gfz2014gumd  -0.72170
gfz2014gutm   0.44420
gfz2014gvhw  -0.21620
gfz2014gvqj   0.66410
gfz2014gvrd  -1.08040
gfz2014gwab  -0.80880
gfz2014gxqu  -0.80580
gfz2014gxvf  -0.15490
gfz2014gxxo  -0.85450
gfz2014gzue  -1.49030
gfz2014hasj  -1.71890
gfz2014hbqb  -1.42060
gfz2014hcmj  -1.76660
gfz2014hfhl  -1.31120
gfz2014hgqo  -2.01000
gfz2014hhfs  -0.60170
gfz2014hiiz  -0.76110
gfz2014hjgh  -0.28190
gfz2014hjgr  -1.44090
gfz2014hkcf  -1.21330
gfz2014hmrs  -1.99300
gfz2014hocg  -1.55120
gfz2014hqxs  -0.21460
gfz2014hrft   0.12230
gfz2014hsqo   0.14090
gfz2014huaj  -1.55510
gfz2014hzdy  -1.34030
gfz2014hzfw  -0.78750
gfz2014hzgn   0.27280
gfz2014hzht  -0.50930
gfz2014iani   0.14860
gfz2014iava  -0.94170
gfz2014ieam  -1.27440
gfz2014ijvh   1.50640
gfz2014imap   0.64680
gfz2014imnn  -0.12500
gfz2014inbj  -1.87640
gfz2014itkw  -1.14760
gfz2014iwwl  -2.12610
gfz2014iywt  -3.51100
gfz2014jbyg   0.68780
gfz2014jcjt   0.81310
gfz2014jdoy  -0.08900
gfz2014jjhc  -1.20120
gfz2014jjln  -1.00860
gfz2014jnyv  -1.08600
gfz2014jomw  -2.29070
gfz2014jpep  -1.11370
gfz2014jwmh  -0.74240
gfz2014kara  -0.07160
gfz2014kbwm  -3.00440
gfz2014khlk  -0.64580
gfz2014kmmt   0.39990
gfz2014kndc  -1.25850
gfz2014knks  -2.77610
gfz2014knxs  -0.35570
gfz2014krlg  -1.30560
gfz2014kwrg   1.04930
gfz2014kyan  -1.91990
gfz2014kytf  -1.81780
gfz2014lbcq  -1.45720
gfz2014lefs   0.36130
gfz2014lgqn  -1.01450
gfz2014lmge   0.34780
gfz2014lnmw  -1.02620
gfz2014lnqy  -1.40700
gfz2014lpim  -0.31740
gfz2014lrzx  -1.06460
gfz2014lxnc   0.71290
gfz2014lyhk  -1.61580
gfz2014lyhp  -0.78640
gfz2014macx  -1.42170
gfz2014madw  -0.01690
gfz2014mtum   0.51470
gfz2014mxkr   0.68950
gfz2014ndue  -0.17000
gfz2014niqj  -0.37230
gfz2014nkdx   0.62170
gfz2014nowp  -1.19040
gfz2014npeo   0.55080
gfz2014nphm  -1.38890
gfz2014nqfm  -1.70240
gfz2014nrie  -0.90550
gfz2014obbs  -1.00870
gfz2015lytv  -5.43300
gfz2015lzad  -0.47930
gfz2015mddr  -1.70760
gfz2015mfpy  -2.64550
gfz2015mhym   0.12960
gfz2015mvzk   3.65430
gfz2015nuxz  -1.29860
gfz2015ocdz  -0.45180
gfz2015okmq  -1.22300
gfz2015opjp  -0.14910
gfz2015othd   0.90820
gfz2015oyfl   1.66920
gfz2015pjgr  -1.09640
gfz2015poni  -0.32520
gfz2015prlr  -0.50980
gfz2015puah   0.44450
gfz2015puqp   0.02290
gfz2015qisx  -0.10120
gfz2015qnho  -1.17860
gfz2015qnlv  -2.48960
gfz2015qnto  -0.19540
gfz2015sicf   0.60240
gfz2015siof   0.82960
gfz2015snwh  -1.55580
gfz2015soxc  -3.89270
gfz2015sqmy  -0.44170
gfz2015srat  -1.17620
gfz2015ssoe  -0.48780
gfz2015sspn   0.93640
gfz2015ssrl  -0.98360
gfz2015stfy   0.52150
gfz2015subg   0.20660
gfz2015subz  -2.22160
gfz2015sudm   1.79420
gfz2015svwm  -2.85940
gfz2015taml  -2.42470
