# Nsamples: 733  MAD:  0.915  mean: -0.420  variance:  1.867
gfz2011mdie  -3.02060
gfz2011mjom  -1.44120
gfz2011mpme  -0.21180
gfz2011mprq   0.07510
gfz2011nauw  -1.35340
gfz2011necz   1.31190
gfz2011nmnq  -0.43700
gfz2011noud  -0.08290
gfz2011nowp   0.46190
gfz2011nqpd  -0.66010
gfz2011nrwc  -0.22420
gfz2011ntkh  -3.07660
gfz2011nudm  -0.10790
gfz2011ohcy  -1.29200
gfz2011olkk   0.43440
gfz2011orgn  -0.00000
gfz2011ornx  -0.14120
gfz2011owvz  -4.28790
gfz2011ozsl  -0.63550
gfz2011pccd  -1.58730
gfz2011phms  -0.18790
gfz2011pntf   0.13140
gfz2011ptus  -0.10120
gfz2011qigx  -0.10820
gfz2011qoif  -1.27610
gfz2011qvae  -0.61720
gfz2011rabm  -0.26260
gfz2011rdby  -0.97540
gfz2011rewa  -0.35880
gfz2011rgwp  -0.42370
gfz2011rsrh  -0.23930
gfz2011runa  -0.19620
gfz2011rznl  -0.30490
gfz2011sagt  -0.41260
gfz2011sawg  -0.80500
gfz2011shqm  -1.31130
gfz2011stal   0.48580
gfz2011taps  -0.64870
gfz2011tbas  -1.27370
gfz2011tcij   0.51420
gfz2011tjrf  -0.05330
gfz2011tjue   1.35350
gfz2011tkfp  -1.49160
gfz2011tkog   0.02150
gfz2011udsq   0.19560
gfz2011ugzz  -0.36340
gfz2011ujze  -0.94030
gfz2011ukmp   0.34210
gfz2011uphh  -2.42840
gfz2011uzqv  -1.89570
gfz2011vclt  -0.45750
gfz2011vhfi  -1.03070
gfz2011vkun  -1.48570
gfz2011vnza  -1.10360
gfz2011vqrj  -0.50070
gfz2011vrhg  -4.77850
gfz2011vxns  -0.08370
gfz2011vxod  -0.68760
gfz2011wcic   0.54890
gfz2011wjkf  -0.93640
gfz2011wjul  -1.85020
gfz2011wwjs   0.64350
gfz2011wxfs  -0.86790
gfz2011wxoj   1.88240
gfz2011wxtk  -0.63220
gfz2011wype  -1.06470
gfz2011xaan  -2.19970
gfz2011xcpv  -0.16480
gfz2011xqru   2.25920
gfz2011xyxj   0.39860
gfz2011yfdx   0.45280
gfz2011yhwz  -0.49370
gfz2011zqhh  -3.36430
gfz2012ablh  -0.09520
gfz2012ajtq   0.11760
gfz2012aqgp  -1.84750
gfz2012aqtq  -0.00000
gfz2012attr   0.65270
gfz2012bfah  -0.60120
gfz2012bfyn  -0.07490
gfz2012bngd  -0.18230
gfz2012bpkx   0.54660
gfz2012bpnl  -0.00000
gfz2012bpwl   0.94930
gfz2012bqeb  -0.02300
gfz2012byad  -0.28050
gfz2012cbed  -0.03970
gfz2012cevz  -0.03620
gfz2012cgvr  -0.19840
gfz2012ckxi  -2.03700
gfz2012cmfy   0.42700
gfz2012covm   1.02800
gfz2012cqnl   1.35170
gfz2012cxdn   1.07700
gfz2012glss  -0.34920
gfz2012gocc  -0.38930
gfz2012gomm  -2.26920
gfz2012gukw   0.06140
gfz2012hdbm  -0.58420
gfz2012hnul  -0.09750
gfz2012hnuw   0.00000
gfz2012hsex  -0.23350
gfz2012hwmz  -0.19030
gfz2012hwyo  -1.09740
gfz2012hyaa  -0.48760
gfz2012hzbe  -0.38800
gfz2012ihdl   0.03890
gfz2012ilvn  -0.80590
gfz2012jjzc  -0.87450
gfz2012jlox  -4.58420
gfz2012jpeh  -0.49350
gfz2012jqvn  -1.36810
gfz2012jshk  -1.78550
gfz2012jupx  -2.93750
gfz2012jxiy  -0.01760
gfz2012kbjb  -0.01990
gfz2012kdmb   0.52920
gfz2012keor   1.07680
gfz2012kkup  -0.81120
gfz2012klhx  -0.05120
gfz2012mcze   0.00000
gfz2012mkpn   0.08400
gfz2012mlyf  -0.10980
gfz2012mofm   0.38800
gfz2012mpvy   0.63330
gfz2012mpyl  -0.62560
gfz2012mvwr  -2.85040
gfz2012mwij   0.78530
gfz2012myqa   0.54720
gfz2012naqz  -0.69680
gfz2012nben  -0.07970
gfz2012nbtn  -0.41170
gfz2012nedn  -1.99520
gfz2012ngic  -0.83030
gfz2012njha  -0.11810
gfz2012nkdf   0.10170
gfz2012nojx   0.07210
gfz2012nsbz  -0.35440
gfz2012nutf  -0.20050
gfz2012nzpz   0.88790
gfz2012obgw  -2.59000
gfz2012omvo  -1.44440
gfz2012pkel  -0.46470
gfz2012poju  -0.73020
gfz2012pqlt   2.19230
gfz2012pqmu  -0.88420
gfz2012priv   1.25830
gfz2012qouy   0.56950
gfz2012qqxg  -0.50380
gfz2012qtgs  -0.08800
gfz2012quso  -1.95470
gfz2012qxcy  -0.69980
gfz2012rats   0.48340
gfz2012rboy  -0.07650
gfz2012rcnj   1.25710
gfz2012repv   0.41820
gfz2012rjsd   0.23750
gfz2012rknn  -0.05400
gfz2012ronz  -0.81850
gfz2012rqlg  -1.56470
gfz2012rubi   0.14850
gfz2012rwov   1.12280
gfz2012rwql   1.37620
gfz2012rypu   0.08860
gfz2012sjea  -0.15420
gfz2012snhi  -0.00000
gfz2012spbj   0.23650
gfz2012sphd  -1.50430
gfz2012syvl  -2.63310
gfz2012tazz   0.15930
gfz2012tbbp   0.54110
gfz2012thfx   0.05760
gfz2012tpzx   0.95690
gfz2012ttoa  -1.57640
gfz2012tzcc  -0.12260
gfz2012tzgb  -0.20430
gfz2012uafg  -2.34780
gfz2012uciv   3.26070
gfz2012ueqo  -0.60610
gfz2012ufew   0.59800
gfz2012uhup  -2.54290
gfz2012uqzp  -1.23710
gfz2012usba   0.17540
gfz2012uvqf  -0.40750
gfz2012uyie   0.23460
gfz2012uyxb  -0.12610
gfz2012uzom  -1.06750
gfz2012uzyj  -1.66950
gfz2012vceo  -0.72500
gfz2012vdbt   0.30720
gfz2012vmeh   0.26300
gfz2012vnbk   0.55050
gfz2012vpza   0.53220
gfz2012vrua  -0.11470
gfz2012vsev  -2.14050
gfz2012vtxe  -3.83110
gfz2012wajj  -0.02340
gfz2012wecd   0.73690
gfz2012wizz   0.00000
gfz2012wklq  -2.82590
gfz2012wmkd  -0.24140
gfz2012wpeq   3.27590
gfz2012wrir  -0.14560
gfz2012wtkr  -0.11480
gfz2012wvfl   0.16090
gfz2012wxer  -0.43180
gfz2012wxlg   0.44060
gfz2012wxnt  -0.49510
gfz2012wxnu  -0.28610
gfz2012wybs  -0.06640
gfz2012wypz  -0.97090
gfz2012xdna   0.09030
gfz2012xhci  -1.08130
gfz2012xjyv  -1.79000
gfz2012xkkv  -1.22510
gfz2012xwqa  -0.42000
gfz2012xyqp   1.66670
gfz2012xyua  -1.87630
gfz2012yfrp   0.39650
gfz2012yxxu  -0.47700
gfz2012zemh  -0.51850
gfz2012zemz  -3.31090
gfz2012zfag  -0.02090
gfz2012zmln   0.31150
gfz2012zsqk   3.07500
gfz2013aayj  -0.41930
gfz2013acag  -0.14850
gfz2013adey   0.30650
gfz2013axoj  -2.52470
gfz2013azzr   0.44400
gfz2013bdpu   0.23570
gfz2013bokp  -0.92330
gfz2013bouj  -1.81850
gfz2013bzlb   0.20370
gfz2013cbsm  -0.58910
gfz2013ccnr  -1.77510
gfz2013ccon   0.46180
gfz2013cdfj   0.69770
gfz2013cfyy   1.33520
gfz2013comh   0.49510
gfz2013cvad   0.11400
gfz2013cwpn  -0.45370
gfz2013cwps  -0.31930
gfz2013ddbh  -2.62170
gfz2013dfhb   0.80930
gfz2013dkly   0.01950
gfz2013dkmz  -0.10300
gfz2013dkym  -0.21140
gfz2013dofo  -2.52030
gfz2013dojq  -0.18500
gfz2013drpk   1.67620
gfz2013drxz  -1.05140
gfz2013dsog  -0.26140
gfz2013dvye   0.59630
gfz2013dyop   0.58190
gfz2013egpu  -0.97680
gfz2013enbx   0.50230
gfz2013eulz   0.25190
gfz2013feep   0.59450
gfz2013fepm   0.17620
gfz2013figy   1.40850
gfz2013fiud  -2.80060
gfz2013fkii  -0.07540
gfz2013flox  -0.37680
gfz2013fnzr  -0.09040
gfz2013fwxa  -2.58350
gfz2013gcfx  -0.08580
gfz2013gdgf   0.00000
gfz2013gdnq   0.01020
gfz2013gelv   0.18480
gfz2013glcr  -0.19280
gfz2013gngz  -2.08980
gfz2013goux   0.11260
gfz2013gvex   0.07350
gfz2013gvxh   0.49780
gfz2013gwrd   0.72390
gfz2013hdnc  -0.91570
gfz2013hfmp  -2.37980
gfz2013hisv  -0.27130
gfz2013hkja   0.03640
gfz2013hmbc  -0.34080
gfz2013hsfw   0.26370
gfz2013hzdp  -0.33210
gfz2013iayx  -0.95770
gfz2013ifpq  -2.30250
gfz2013ijsr  -1.94140
gfz2013ikgo  -0.43700
gfz2013ilug  -2.10030
gfz2013iodt  -0.28660
gfz2013ippu  -1.23000
gfz2013iqzq  -0.56140
gfz2013iunn  -1.98980
gfz2013jdrx  -2.24740
gfz2013jesk   1.35380
gfz2013jgip   0.17800
gfz2013jjsi   0.35560
gfz2013jkut   0.21710
gfz2013jlst   2.59440
gfz2013jusj  -1.77450
gfz2013kccc   1.77600
gfz2013kdeo  -1.06260
gfz2013kgmj   1.78920
gfz2013kheb   1.97570
gfz2013kqln  -0.71860
gfz2013kvtk   0.56900
gfz2013lajn   0.18460
gfz2013lbiu  -0.06730
gfz2013ldqb  -0.98750
gfz2013lgnl   0.10560
gfz2013lixa  -0.65720
gfz2013lmqe  -0.51200
gfz2013lxyn   3.74650
gfz2013lyko  -1.58940
gfz2013mnei   1.04660
gfz2013mnju   0.23420
gfz2013mqik   0.75680
gfz2013mqmv  -0.52160
gfz2013mvgr  -2.21970
gfz2013mwbh  -2.36030
gfz2013ncjp  -0.88630
gfz2013ngnt  -0.01900
gfz2013nhjb  -1.79360
gfz2013nixj  -2.63120
gfz2013nkgj  -1.78030
gfz2013nmac  -0.43300
gfz2013nppd  -1.97600
gfz2013nqgw  -1.87400
gfz2013nvdj  -3.33330
gfz2013nwdi  -1.91810
gfz2013ogde  -0.66680
gfz2013oqsc   1.19070
gfz2013pfbx  -0.34160
gfz2013pfeb   0.30420
gfz2013phef  -3.22500
gfz2013pxsj  -0.21890
gfz2013pxtx  -0.83310
gfz2013qali  -0.26970
gfz2013qcck  -0.72530
gfz2013qesa   0.45120
gfz2013qfmm   0.99650
gfz2013qfsq   0.17910
gfz2013qidm   1.59170
gfz2013qmer  -3.12600
gfz2013qnxc  -0.08540
gfz2013qzdq   1.07780
gfz2013rait  -0.16500
gfz2013rdoo  -1.25000
gfz2013roki  -0.94800
gfz2013rrza  -0.39650
gfz2013rsnr  -0.32180
gfz2013rwfe   0.05820
gfz2013saez   0.80690
gfz2013sart   0.24980
gfz2013scai   0.11430
gfz2013sdus   0.04180
gfz2013sebq   0.22760
gfz2013sfto  -0.75520
gfz2013shzy  -0.48820
gfz2013sjhg   0.70040
gfz2013snbr  -1.59340
gfz2013sred  -0.01640
gfz2013stcu  -0.06060
gfz2013stht   0.46760
gfz2013suvn   0.05030
gfz2013svci  -1.35560
gfz2013syqk   1.77460
gfz2013tcbk  -0.58490
gfz2013tcxc  -0.23690
gfz2013tcxq  -0.11650
gfz2013tdau  -0.06110
gfz2013tlaf   0.07230
gfz2013toxf   0.25750
gfz2013tusd  -2.89980
gfz2013tvmw  -1.52720
gfz2013twwf  -0.10330
gfz2013txev  -1.85480
gfz2013txtb  -0.19380
gfz2013uauo  -0.51170
gfz2013ufku  -3.59760
gfz2013uqsp   1.17160
gfz2013uuzn  -1.84680
gfz2013vefs   1.98770
gfz2013vexx  -0.65170
gfz2013vfyw   1.40430
gfz2013vfzp   2.05350
gfz2013vgau   0.52630
gfz2013vgev   0.66590
gfz2013vgpf   1.73560
gfz2013vhnk   1.47880
gfz2013viul  -0.95460
gfz2013vjfe   0.48650
gfz2013vjjc  -4.06830
gfz2013vqot  -0.84630
gfz2013vsbl   0.41050
gfz2013vvjh  -0.90830
gfz2013vvrq   0.53930
gfz2013vzbo  -0.70440
gfz2013waam  -0.15910
gfz2013wjmm   1.88940
gfz2013wmfd  -0.60390
gfz2013wnpr  -1.51650
gfz2013wwii  -0.08620
gfz2013xizq   0.01950
gfz2013xklb   0.00000
gfz2013xmul  -1.63690
gfz2013xsdt  -4.83420
gfz2013xvqd  -0.17960
gfz2013xvxf   0.04000
gfz2013xvyl  -0.41060
gfz2013xwda   0.01800
gfz2013xwzd   0.01510
gfz2013xxwv   0.01860
gfz2013xxxq  -0.01920
gfz2013xzcg  -0.00000
gfz2013yach  -1.51220
gfz2013yaig  -0.48520
gfz2013yctg  -1.03340
gfz2013ylbx   0.61710
gfz2013ymky   1.33150
gfz2013ypdc  -2.09000
gfz2013yqkv  -2.68100
gfz2013yrmc  -0.10050
gfz2013yyhc  -0.16670
gfz2013yyti   0.31040
gfz2013zjel  -0.20900
gfz2013zmoc   0.02820
gfz2014abgd  -1.04820
gfz2014adoj  -0.06780
gfz2014afyp   0.00000
gfz2014algk  -2.37980
gfz2014alwz  -2.32520
gfz2014aqbk   0.05950
gfz2014ared  -1.92280
gfz2014arpf  -2.25730
gfz2014arqr  -0.94160
gfz2014atgw  -2.22530
gfz2014bagd   0.70060
gfz2014bbro  -3.13290
gfz2014bekc  -0.30970
gfz2014bjgt  -3.02540
gfz2014bmta  -1.56920
gfz2014bwue  -1.47260
gfz2014bzxy  -2.67820
gfz2014cbtl  -2.84660
gfz2014cgog   0.05640
gfz2014claq   0.07320
gfz2014cqyo   0.81610
gfz2014crpy  -2.59560
gfz2014cvkm   0.53850
gfz2014cyvm  -0.20590
gfz2014czol   2.73000
gfz2014czqi  -1.46850
gfz2014czua   2.80460
gfz2014dhxt  -0.88640
gfz2014disp  -2.37550
gfz2014dpzx  -0.63540
gfz2014duqn   1.61120
gfz2014ebmc   0.21820
gfz2014edfx  -1.41080
gfz2014efkk  -0.41330
gfz2014eght  -0.71360
gfz2014egwu   0.58580
gfz2014ehsf  -0.60740
gfz2014ekcr   0.76260
gfz2014ekdn  -0.12130
gfz2014ekdt   1.52380
gfz2014enhi   1.61300
gfz2014etqa  -2.18550
gfz2014ewcz  -0.08550
gfz2014ezgb   2.23700
gfz2014fcms   0.02010
gfz2014femz   3.65880
gfz2014fgvi  -7.79290
gfz2014fgxt   1.35040
gfz2014fhla  -1.41900
gfz2014fhrq  -1.28380
gfz2014fiuj  -1.63500
gfz2014fkmr  -0.19080
gfz2014fnyg  -4.00490
gfz2014foio   0.19820
gfz2014frdz   0.63270
gfz2014ftka  -1.45600
gfz2014fval   0.65310
gfz2014fvjl   0.77280
gfz2014fvrg   0.14620
gfz2014fwtt  -0.43380
gfz2014fwyr   3.92840
gfz2014fxhd   0.44980
gfz2014gbcz   1.47960
gfz2014gbdq   1.79230
gfz2014geuy   1.90510
gfz2014ghpe  -3.39360
gfz2014gkgf  -3.06330
gfz2014gkjl  -2.41760
gfz2014gkqf   0.34100
gfz2014gkqu   0.43980
gfz2014glfn  -1.06060
gfz2014glgo  -0.15870
gfz2014gmge   1.05310
gfz2014gmhr   2.05570
gfz2014gmlz   1.43960
gfz2014gmnb  -1.30360
gfz2014gmpy  -0.26200
gfz2014gmuw  -0.62140
gfz2014gogv   1.10050
gfz2014goqw  -1.28680
gfz2014gori  -0.08470
gfz2014gpgd  -0.41130
gfz2014gpmm   0.70220
gfz2014gpya  -0.04250
gfz2014gqbj   0.04600
gfz2014gqer   0.18750
gfz2014grcv  -0.24220
gfz2014grgn   0.38310
gfz2014gsqs  -0.60960
gfz2014gtrb   5.06850
gfz2014gtwz  -0.60410
gfz2014gull  -0.43620
gfz2014gumd  -1.69400
gfz2014gutm  -0.77620
gfz2014gvhw   1.07490
gfz2014gvrd   0.26150
gfz2014gwab  -0.62110
gfz2014gwgf   0.09970
gfz2014gxvf  -0.19770
gfz2014gxxo  -0.36700
gfz2014gzrm  -0.26460
gfz2014hasj   0.32110
gfz2014hauo  -0.77510
gfz2014hfhl   0.30840
gfz2014hgqo  -1.12210
gfz2014hkcf   0.42100
gfz2014hocg  -1.35520
gfz2014hqxs  -0.45280
gfz2014hrft  -2.75030
gfz2014hscz  -0.98240
gfz2014huaj   0.75150
gfz2014hyvq  -3.49240
gfz2014hzfw   0.23560
gfz2014hzhe   0.13460
gfz2014iava   0.83820
gfz2014icqt   0.18700
gfz2014ieam  -0.29380
gfz2014ieho  -1.39830
gfz2014ikun   0.43860
gfz2014imap   0.61970
gfz2014inbj  -1.32150
gfz2014isys  -1.74570
gfz2014itgh   0.09070
gfz2014itjx   0.89470
gfz2014itpj  -0.08250
gfz2014jatq   0.21840
gfz2014jcjt   0.07920
gfz2014jdoy  -0.35480
gfz2014jkxe   0.61750
gfz2014jlwb  -0.46340
gfz2014jnxm   0.57100
gfz2014jnyv  -3.90400
gfz2014jpep  -0.35410
gfz2014jpfn  -0.56160
gfz2014jpvx   0.15260
gfz2014jtcz   0.04880
gfz2014jwmh  -0.17020
gfz2014kara  -1.54930
gfz2014khlk   0.10920
gfz2014kitm  -0.37400
gfz2014kjjq  -0.55650
gfz2014kmmt   0.18040
gfz2014kndc  -0.38260
gfz2014knxs  -0.21670
gfz2014ksdv  -0.14560
gfz2014kzzm  -0.15160
gfz2014lbcq  -0.66000
gfz2014lbxn   0.58440
gfz2014lddn   1.28960
gfz2014ldhu  -0.31090
gfz2014lefs  -3.54050
gfz2014lgqn  -0.97830
gfz2014lhqn  -0.81340
gfz2014lkyf  -0.23480
gfz2014lmge   0.31320
gfz2014lpim  -4.02080
gfz2014lxnc   0.46510
gfz2014lyhk   0.82060
gfz2014lynp   0.28290
gfz2014lzal  -1.63070
gfz2014lzow  -1.40970
gfz2014madw   0.00000
gfz2014mden  -0.12880
gfz2014mhgg  -2.69420
gfz2014mtum   0.03860
gfz2014mwor   0.37080
gfz2014ngnd  -0.03910
gfz2014nkdx  -0.56060
gfz2014nnxd   0.37060
gfz2014nowp  -0.56260
gfz2014npdk   2.58460
gfz2014npeo  -2.38820
gfz2014nphm   2.99130
gfz2014oinz  -4.61240
gfz2014okjw   0.27780
gfz2014omyn   0.19250
gfz2014osvz  -0.16650
gfz2014owxc  -0.26760
gfz2014oxcc  -2.11260
gfz2014pkll  -0.42380
gfz2014poap  -0.04470
gfz2014ppyi  -0.13030
gfz2014ppzf  -1.39640
gfz2014pqrc   0.14170
gfz2014pvch   2.14770
gfz2014qcxs   0.00000
gfz2014qdog   0.57360
gfz2014qfzq  -1.04650
gfz2014qlxd  -2.76790
gfz2014qngj  -0.00000
gfz2014qqfg  -0.15990
gfz2014qqhm  -0.91700
gfz2014raau  -0.15660
gfz2014rbpx  -1.27080
gfz2014rbsl  -1.35090
gfz2014rghp  -1.25340
gfz2014rhju  -0.48220
gfz2014rils  -3.12120
gfz2014rkwl  -0.44340
gfz2014royq   2.26250
gfz2014rtcu   0.32920
gfz2014ryfb  -1.52570
gfz2014sadu   0.18570
gfz2014shid   0.24610
gfz2014sjqw   2.44690
gfz2014ssmv  -0.00000
gfz2014ssvz  -5.80500
gfz2014szzf   0.70920
gfz2014tfgn  -4.19780
gfz2014tovs   1.10710
gfz2014tqdo  -1.53810
gfz2014tqsf   0.50090
gfz2014tute  -0.36990
gfz2014ubwn  -2.14850
gfz2014uohh   1.24280
gfz2014utac  -0.97080
gfz2014uuuf   0.46100
gfz2014uvji   0.32600
gfz2014uvrk   0.31520
gfz2014uxyg   0.39410
gfz2014vcev   0.25500
gfz2014veit  -0.91490
gfz2014vhld  -1.54060
gfz2014vhms  -0.67570
gfz2014vjoz  -1.10380
gfz2014vljh  -0.15450
gfz2014vnxu   0.14390
gfz2014vpus  -0.93150
gfz2014waoo  -2.13780
gfz2014watn  -2.05410
gfz2014wjko  -1.59520
gfz2014wmsc  -0.87690
gfz2014wqcp  -1.06350
gfz2014xhkc   1.12560
gfz2014ynzy  -0.35500
gfz2014yrug  -0.83720
gfz2014yula   0.10890
gfz2014zlgp  -0.96500
gfz2015alzx  -0.66150
gfz2015aqav  -0.03280
gfz2015aqbq  -0.14050
gfz2015arpd  -1.75070
gfz2015aruz  -1.51770
gfz2015azzp  -0.24110
gfz2015bavu  -0.93060
gfz2015berb  -1.75770
gfz2015bfjm  -0.50770
gfz2015bohx  -0.13130
gfz2015bphe  -1.04200
gfz2015bsnl   0.18560
gfz2015bucr  -1.03330
gfz2015bvsj  -1.59190
gfz2015bvxx  -0.04090
gfz2015byfn   0.54260
gfz2015byjd  -0.97660
gfz2015bzej   0.03840
gfz2015cewd  -0.74010
gfz2015chhn  -1.83800
gfz2015chqn  -0.33710
gfz2015cpuo  -1.65000
gfz2015cxhx   0.55040
gfz2015cxrc   0.43300
gfz2015cxxk  -3.94940
gfz2015cyjd  -5.81790
gfz2015dizn  -0.52140
gfz2015djts   0.14610
gfz2015ecgq   0.14910
gfz2015eezy   3.29730
gfz2015egbk  -0.96240
gfz2015egxq  -0.57340
gfz2015eiky  -0.12920
gfz2015elgy   0.18230
gfz2015eljz   0.18670
gfz2015emin   0.62560
gfz2015emtg  -0.36390
gfz2015enth  -1.22800
gfz2015etai   0.44780
gfz2015evpl   0.37520
gfz2015eyqs   0.27760
gfz2015fbbk  -1.91340
gfz2015fbew  -1.21440
gfz2015fcua  -1.73560
gfz2015fkbc   0.72360
gfz2015fkgt   1.16580
gfz2015fkic   0.61340
gfz2015fkkd   0.25150
gfz2015fkuu  -0.09480
gfz2015flis   0.02210
gfz2015fpez   0.26630
gfz2015fsjj  -4.87670
gfz2015fxbv  -0.18190
gfz2015fxdi  -2.36620
gfz2015fyvk   0.15770
gfz2015gckd  -1.80630
gfz2015gjbr  -0.77410
gfz2015gkwa  -0.52680
gfz2015gnmy   0.60100
gfz2015guhd   1.00560
gfz2015gwao  -0.24700
gfz2015gzja  -0.68260
gfz2015hdcp  -0.52230
gfz2015hepg  -0.45100
gfz2015hgbk  -7.69620
gfz2015hlqo  -0.78000
gfz2015hpmk  -1.68880
gfz2015hvgs   0.34910
gfz2015igsy  -0.35210
