# Nsamples: 19  MAD:  0.856  mean: -0.681  variance:  0.620
gfz2010iull  -0.88810
gfz2011aatr  -1.73330
gfz2011lcxq   0.48650
gfz2011lzwj  -1.13820
gfz2011rewa  -0.99310
gfz2011wxfs  -1.04060
gfz2012jlox  -1.47150
gfz2012kudo  -0.76940
gfz2013drxz  -1.76170
gfz2013jkut  -0.31060
gfz2013nwdi  -1.61040
gfz2013svci  -0.93540
gfz2014fgvi  -0.04020
gfz2014gkgf  -0.53520
gfz2014gmhr   0.44390
gfz2015fsjj  -0.09560
gfz2015iwqk   1.22590
gfz2015sfdd  -0.57840
gfz2015svwm  -1.20000
