# Nsamples: 240  MAD:  0.579  mean:  0.741  variance:  0.691
gfz2010aerk   0.63090
gfz2010ahqi   0.35690
gfz2010boxo   0.03990
gfz2010cbkg   0.35720
gfz2010cqwl  -0.01980
gfz2010czps   1.29790
gfz2010dlgc   0.20260
gfz2010eaoy   1.07150
gfz2010eapk   0.51450
gfz2010eaqe   0.65220
gfz2010eaqx   1.05130
gfz2010eaqy   1.04230
gfz2010earq  -0.02000
gfz2010earu   0.69090
gfz2010easf   1.64480
gfz2010eask   0.45580
gfz2010easo   1.10340
gfz2010easu   0.99360
gfz2010eati   0.71770
gfz2010eatt   0.76690
gfz2010eaul   0.96340
gfz2010eavd   0.90580
gfz2010eavp  -1.43150
gfz2010eavs   0.58150
gfz2010eawb   0.53670
gfz2010eawu   0.28360
gfz2010eaxa   0.16450
gfz2010eaxn   0.73480
gfz2010eayd   1.10700
gfz2010eayp   1.19910
gfz2010eayx   0.86860
gfz2010eaze   0.81560
gfz2010eazu  -0.14120
gfz2010ebbd   0.33640
gfz2010ebby   0.58750
gfz2010ebdl   0.73880
gfz2010ebeh  -0.23810
gfz2010ebfa   0.24400
gfz2010ebfx   0.21170
gfz2010ebgj   0.76730
gfz2010ebhc  -0.27910
gfz2010ebih   0.73700
gfz2010ebin   0.54520
gfz2010ebiv   0.53880
gfz2010ebjy   0.24900
gfz2010ebkj   1.01250
gfz2010ebkx   0.48250
gfz2010ebla   1.65290
gfz2010ebll   1.04650
gfz2010ebmb   0.09110
gfz2010ebmi   1.21960
gfz2010ebnn   0.67540
gfz2010ebpa  -0.34790
gfz2010ebrm   0.35950
gfz2010ebsv   0.44710
gfz2010ebtk   1.16560
gfz2010ebvm   0.57500
gfz2010ebvv   0.44850
gfz2010ebwp  -0.16310
gfz2010ebxl   0.87100
gfz2010ebzk   0.46940
gfz2010ebzr   1.26290
gfz2010ecay   0.79100
gfz2010ecbi   1.05420
gfz2010eced   1.50300
gfz2010echc   1.00840
gfz2010echt   0.51510
gfz2010echy   0.68810
gfz2010ecnm   2.20560
gfz2010ecps   1.26530
gfz2010ecsp   0.72970
gfz2010ecua   0.14770
gfz2010ecuv   0.20030
gfz2010ecvt   0.88600
gfz2010edad   0.41470
gfz2010edat   0.19730
gfz2010edbz   1.08890
gfz2010edcp   1.14340
gfz2010edde   0.87990
gfz2010edhr   0.69160
gfz2010edhv   0.79140
gfz2010edim   1.11010
gfz2010edji   1.31810
gfz2010edkp   0.67820
gfz2010edpb   0.49440
gfz2010edqh   0.68320
gfz2010edsk   0.81420
gfz2010edsy  -0.07130
gfz2010edvf   0.71740
gfz2010edyi   0.13300
gfz2010edzb   0.90960
gfz2010eedu   0.75700
gfz2010eedz   1.17550
gfz2010eegn   0.39820
gfz2010eeij  -4.57890
gfz2010eekg   1.81720
gfz2010eekq   0.85630
gfz2010eerh   1.04060
gfz2010eern   0.74490
gfz2010eevu   1.70210
gfz2010eexz   0.74100
gfz2010eeyh   0.73100
gfz2010efak   1.01480
gfz2010efkc   0.27490
gfz2010efsq   1.34530
gfz2010efwo   2.47610
gfz2010efxf   1.64550
gfz2010egap   0.45650
gfz2010egld   2.65690
gfz2010egmp   0.94820
gfz2010egqh  -0.23180
gfz2010egsw   0.96740
gfz2010ehaj   0.83510
gfz2010ehnm   1.90520
gfz2010ehsy   0.47360
gfz2010eimf   0.09510
gfz2010eioi   1.54860
gfz2010eiqi  -0.30350
gfz2010eisx  -1.27030
gfz2010eixj   1.45900
gfz2010ejae   1.02050
gfz2010ejjg   1.09780
gfz2010ejju   0.63630
gfz2010ejka   1.42920
gfz2010ejxf   0.63230
gfz2010ekoe   0.54930
gfz2010ekrv   0.94100
gfz2010ekyc   0.09640
gfz2010elhv   1.38670
gfz2010elin   1.12940
gfz2010erkn   0.42890
gfz2010eryg   0.90880
gfz2010esid  -1.04640
gfz2010euan   0.61220
gfz2010eujm   0.43690
gfz2010evkd   2.56870
gfz2010excp   1.54840
gfz2010exdd   0.11090
gfz2010exsg   0.42800
gfz2010eyiv   0.19540
gfz2010ezck   1.34730
gfz2010ezvt   2.34090
gfz2010ezwz   0.32320
gfz2010ezxd   1.84370
gfz2010falm   1.00770
gfz2010ffhq   1.25650
gfz2010ffjb   1.20120
gfz2010fwpv   0.84900
gfz2010fync   0.51870
gfz2010gcrl   1.47800
gfz2010gcrp   0.15640
gfz2010gdch   1.51050
gfz2010hgld   0.81250
gfz2010hlmq   0.69860
gfz2010hnnf   1.09060
gfz2010hnzr   1.93560
gfz2010lluj   0.13100
gfz2010nxsy  -0.29420
gfz2010nxum  -0.21580
gfz2010ocxq   0.13660
gfz2010rywq   0.57850
gfz2010rzrr   1.25170
gfz2010xxzn  -3.67170
gfz2010yjev   0.73130
gfz2010yosr   0.25700
gfz2010yqwx   1.37690
gfz2011toub   1.22400
gfz2011udsq   0.71580
gfz2011ueni   0.03900
gfz2011ujze   0.65650
gfz2011urxy   0.60370
gfz2011vhfi   1.57330
gfz2011vnza   0.90100
gfz2011vrhg   1.15170
gfz2011vxns   0.14680
gfz2011vxod  -0.12030
gfz2011wxfs   0.85370
gfz2011wxtk   1.25610
gfz2011wype   0.84830
gfz2011xyxj   1.60280
gfz2011yhwz  -0.39740
gfz2011zqhh   0.21020
gfz2012ajtq   1.62320
gfz2012aqgp   0.70550
gfz2012attr  -0.57220
gfz2012bfah   1.14750
gfz2012bfyn   2.47880
gfz2012bpkx   0.62490
gfz2012cqnl   2.46260
gfz2012cxdn   1.20870
gfz2012ekda   0.34120
gfz2012ekzf   0.71250
gfz2012enno   1.17270
gfz2012fbfo   0.31940
gfz2012gukw   2.84150
gfz2012hnul   2.22310
gfz2012hnuw   1.24610
gfz2012icmv   0.19430
gfz2012ilvn   0.89900
gfz2012keor   0.23920
gfz2012kkcp   0.71140
gfz2012kkup   0.35420
gfz2012klhx   0.60510
gfz2012kuct   0.77040
gfz2012kudo   0.35080
gfz2012lczo   0.77000
gfz2012ldxg   0.75510
gfz2012ldzj  -0.41300
gfz2012lrsv   1.12340
gfz2012mwij   4.18410
gfz2012naqz   0.65120
gfz2012nedn  -0.63880
gfz2012nkdf   0.03920
gfz2012oazn   0.57530
gfz2012pkel   0.62500
gfz2012repv  -0.41210
gfz2012ronz   2.14110
gfz2012rwov   1.27160
gfz2012sphd   1.06070
gfz2012teic   0.50650
gfz2012ttoa   1.20970
gfz2012uhup   0.53620
gfz2012uvqf   0.94010
gfz2012vrgb   1.74140
gfz2012wklq  -0.12510
gfz2012wmkd   0.93220
gfz2012wtkh  -0.42360
gfz2012wtkr   0.73840
gfz2012wvfl   0.14240
gfz2012wxlg   0.34830
gfz2012wypz   0.80160
gfz2012xbjq   0.69100
gfz2013mqmv   1.29290
gfz2013nabl   1.40280
gfz2013ncjp  -0.49090
gfz2013nwdi   1.97120
gfz2013pfbx   0.97870
gfz2013sdus   1.20570
gfz2013svci   1.40890
gfz2013wjmm   2.07240
