# Nsamples: 11  MAD:  1.158  mean: -0.274  variance:  0.743
gfz2012vrgb   0.28360
gfz2013svci   0.11360
gfz2014bwue  -0.63020
gfz2014fgvi   0.68050
gfz2014fhla   0.83020
gfz2014ftka  -1.15940
gfz2014ftoc  -1.87300
gfz2014gkgf  -0.62630
gfz2014gmhr  -1.25580
gfz2014nqfm  -0.10090
gfz2014qqhm   0.72140
