# Nsamples: 32  MAD:  0.646  mean:  0.066  variance:  0.712
gfz2011wxfs  -0.25250
gfz2012enno   0.02940
gfz2012jlox  -0.18170
gfz2012kudo  -1.95960
gfz2012ldxg   0.34920
gfz2012vrgb  -0.57540
gfz2012wypz  -0.05030
gfz2013jkut   0.39250
gfz2013nwdi  -0.39220
gfz2013svci   0.25070
gfz2014bwue  -0.04570
gfz2014fgvi   0.61010
gfz2014fhla  -0.34490
gfz2014ftka  -0.64430
gfz2014gkgf  -1.01030
gfz2014gkqf   0.25270
gfz2014gmhr   1.80250
gfz2014gmnb   0.01930
gfz2014goba   0.42370
gfz2014gull   0.87750
gfz2014hasj   0.59680
gfz2014lgqn   0.84220
gfz2014lyhk   0.60400
gfz2014nqfm  -0.44570
gfz2014qqhm   0.52610
gfz2014ssvz   1.83330
gfz2014ubwn   0.38370
gfz2015cyjd   0.67180
gfz2015fjhk  -2.46100
gfz2015fsjj  -0.15610
gfz2015lhjy   0.07010
gfz2015mpte   0.09790
