# Nsamples: 1704  MAD:  1.040  mean: -0.692  variance:  2.798
gfz2010aban   0.25180
gfz2010aerk  -1.11610
gfz2010ahla  -0.71660
gfz2010ahqi  -2.10260
gfz2010aphp   4.70620
gfz2010awfi  -1.58260
gfz2010aykj  -0.23680
gfz2010bedu  -0.74290
gfz2010bfzs  -7.37570
gfz2010bgth  -1.12090
gfz2010bhhq  -0.41180
gfz2010bifb  -4.99180
gfz2010bjeb  -3.88600
gfz2010bjjx  -1.42440
gfz2010bjsl  -0.52470
gfz2010bkob  -0.17240
gfz2010bkos  -0.00000
gfz2010bowy  -2.94750
gfz2010boxo  -0.43410
gfz2010bpda   0.26200
gfz2010bxxs  -4.86060
gfz2010caft  -0.91760
gfz2010cbkg   1.23780
gfz2010cdbt   2.90290
gfz2010civi  -1.48130
gfz2010cjmx   0.94990
gfz2010ckeu   1.38970
gfz2010ckzm  -1.41260
gfz2010cnwc  -0.50600
gfz2010cqwl  -4.12750
gfz2010cres  -0.36510
gfz2010ctuw  -2.72050
gfz2010czps  -2.92920
gfz2010dtmx   1.80260
gfz2010eaoy  -9.42450
gfz2010eaqx  -0.01990
gfz2010eaqy   1.75690
gfz2010earu  -0.52440
gfz2010eask  -4.52380
gfz2010easo  -0.29000
gfz2010easu  -3.31460
gfz2010eaty   0.30970
gfz2010eaul  -1.28660
gfz2010eavd   0.14110
gfz2010eavp   0.12440
gfz2010eavs  -2.33890
gfz2010eaxa  -0.19980
gfz2010eaya  -0.51190
gfz2010eayp  -0.77740
gfz2010eayx  -0.24620
gfz2010ebby   4.32710
gfz2010ebfa   0.21970
gfz2010ebfx   1.33630
gfz2010ebhc  -5.78570
gfz2010ebih  -2.29450
gfz2010ebiv  -0.27170
gfz2010ebjg   0.05740
gfz2010ebjy  -3.12440
gfz2010ebla  -0.49090
gfz2010ebll  -1.65790
gfz2010ebmi  -0.55930
gfz2010ebpa   0.29860
gfz2010ebqt  -0.00000
gfz2010ebqz   0.13880
gfz2010ebsv   0.01980
gfz2010ebvm  -1.61190
gfz2010ebvv  -2.76030
gfz2010ebxl  -2.73840
gfz2010ebze   0.37180
gfz2010ecbi  -4.08280
gfz2010eccq  -0.16630
gfz2010ecdu  -0.88670
gfz2010eced  -0.29540
gfz2010ecft  -0.33000
gfz2010ecfx  -0.46320
gfz2010ecfy   0.14070
gfz2010echy  -0.32750
gfz2010ecka   0.01950
gfz2010ecns   1.96850
gfz2010ecyr   0.13880
gfz2010edad  -0.66220
gfz2010eday  -0.76530
gfz2010edbz   0.07660
gfz2010edde  -1.50770
gfz2010edqd  -0.08820
gfz2010edsn   4.37720
gfz2010edsy  -0.09300
gfz2010edun  -0.19870
gfz2010edvf  -0.29810
gfz2010edyi  -1.68760
gfz2010edzb  -0.20940
gfz2010eedz  -4.95730
gfz2010eefo  -0.30240
gfz2010eeia  -0.05470
gfz2010eekg  -0.47620
gfz2010eell  -1.54220
gfz2010eeng   0.04220
gfz2010eeqy   0.34160
gfz2010eerh  -1.77860
gfz2010eern  -1.31790
gfz2010eesf  -0.24700
gfz2010eevu  -3.66640
gfz2010eexz   0.02100
gfz2010eeyh  -0.73330
gfz2010efak  -0.39950
gfz2010efbh  -0.45870
gfz2010efkc  -0.11630
gfz2010efls  -1.07700
gfz2010efnf  -0.16980
gfz2010efsq  -9.03570
gfz2010efwo  -0.12580
gfz2010efxf   0.76780
gfz2010eghq  -1.73230
gfz2010egld  -2.65740
gfz2010egln  -0.49750
gfz2010egmp  -0.91090
gfz2010egqh   0.22250
gfz2010egsw  -0.19380
gfz2010egyy  -0.19080
gfz2010ehaj  -1.73060
gfz2010eher   0.07920
gfz2010ehft  -0.60790
gfz2010ehnl  -0.02120
gfz2010ehrq  -1.27880
gfz2010ehvj   0.24130
gfz2010ehwg   0.08530
gfz2010ehxz  -0.19380
gfz2010eimf   0.09510
gfz2010eioi  -0.34260
gfz2010eiqi   0.00000
gfz2010eisx  -8.78410
gfz2010ejae  -0.25270
gfz2010ejjg  -3.87330
gfz2010ejka  -0.63680
gfz2010ejma   0.21590
gfz2010ekaw   1.92890
gfz2010erig  -0.71080
gfz2010erkn  -4.07780
gfz2010ermi   0.46720
gfz2010eruy  -5.97310
gfz2010erwn  -1.26360
gfz2010erxb  -0.12400
gfz2010erxk  -0.46330
gfz2010eryg  -3.10500
gfz2010esid  -0.39820
gfz2010esou   0.02050
gfz2010eted  -0.48400
gfz2010etfw  -0.59990
gfz2010euae  -1.48650
gfz2010euan  -2.11160
gfz2010eugj  -0.26280
gfz2010euii   0.18440
gfz2010eujm  -0.54690
gfz2010eutw  -2.71300
gfz2010euvl  -2.37390
gfz2010euwb  -2.53470
gfz2010euxe  -0.22800
gfz2010evco  -2.27680
gfz2010evgf  -2.90050
gfz2010evjv  -0.24930
gfz2010evkd  -1.55310
gfz2010ewbc  -0.18940
gfz2010ewpq  -0.61640
gfz2010ewvc  -3.00290
gfz2010ewyu  -1.33670
gfz2010excp  -6.36240
gfz2010exdd  -4.61830
gfz2010exdl  -2.94820
gfz2010exed  -0.51770
gfz2010exel  -1.02510
gfz2010exfb  -2.93560
gfz2010exgb  -10.78860
gfz2010exhd  -2.04880
gfz2010exhw  -2.74320
gfz2010exjw  -2.35160
gfz2010exlm  -0.15880
gfz2010exmc  -1.78800
gfz2010exno  -4.69200
gfz2010exou  -0.30380
gfz2010exqu  -1.92380
gfz2010exsg  -2.11010
gfz2010exts  -0.42950
gfz2010exyp  -0.43720
gfz2010eyaz  -0.41770
gfz2010eybj  -0.46520
gfz2010eymr  -0.01950
gfz2010eymx  -0.35380
gfz2010eyqe  -3.03700
gfz2010eyvq  -2.65030
gfz2010eyxe  -0.36170
gfz2010ezax  -1.28300
gfz2010ezck  -10.17770
gfz2010ezig  -0.26920
gfz2010ezjk  -0.26260
gfz2010ezuj  -0.40300
gfz2010ezvg   0.10900
gfz2010ezvt  -0.41470
gfz2010ezwz  -1.91820
gfz2010ezxd   0.21700
gfz2010faeu  -0.84510
gfz2010falm  -3.72470
gfz2010fauz  -0.57480
gfz2010faxg  -0.25480
gfz2010fbeu  -1.08580
gfz2010fcax  -6.34910
gfz2010fcdw  -0.52840
gfz2010fciw  -0.17960
gfz2010fcnn  -1.75980
gfz2010fcnt  -0.38670
gfz2010fcyj   0.74220
gfz2010fczt   0.22560
gfz2010fdab  -0.07710
gfz2010fexw   0.19450
gfz2010ffhq  -8.78890
gfz2010ffjb  -2.16300
gfz2010fhbl  -0.34380
gfz2010figq   0.22190
gfz2010fihj  -0.77560
gfz2010fisf  -0.07410
gfz2010fixr  -0.20840
gfz2010fjal  -0.22710
gfz2010fjas   0.09910
gfz2010fjmu   0.82900
gfz2010fjni  -0.54920
gfz2010fkhd  -0.44400
gfz2010fkia  -0.26110
gfz2010fknh  -0.70310
gfz2010fkvg  -0.59730
gfz2010flha  -4.17520
gfz2010floi  -0.81550
gfz2010flrt  -0.64110
gfz2010flxi  -1.75010
gfz2010fmhb  -1.42710
gfz2010fmip   0.07820
gfz2010fmpy  -1.28210
gfz2010fmwb  -0.47460
gfz2010fneu  -0.37570
gfz2010fnrk  -0.39210
gfz2010fobc  -1.28140
gfz2010fona  -0.17920
gfz2010fpmv   0.04250
gfz2010fpqy  -2.18900
gfz2010fqdu  -1.61470
gfz2010fqtj  -1.29330
gfz2010fser  -0.80780
gfz2010fsmy  -0.08450
gfz2010fsth  -0.48250
gfz2010ftlm  -1.28130
gfz2010ftsx  -0.23470
gfz2010fupn  -2.29880
gfz2010fvuc   0.05260
gfz2010fwkk  -2.32300
gfz2010fwny  -0.70630
gfz2010fwpv  -1.17240
gfz2010fyed  -0.01880
gfz2010fyen  -0.96010
gfz2010fync  -2.47210
gfz2010fzoi  -1.68050
gfz2010fzsg   0.01910
gfz2010fzyt  -0.11370
gfz2010gcdn  -0.66990
gfz2010gceb  -0.09750
gfz2010gcrl  -3.83700
gfz2010gcrp  -1.28770
gfz2010gdch  -1.68130
gfz2010gdld  -1.24520
gfz2010ghyk  -0.95450
gfz2010ginm  -0.12220
gfz2010gjvo  -2.85850
gfz2010glqr  -2.03920
gfz2010glxl  -3.95870
gfz2010gmib   0.32840
gfz2010govu   1.24340
gfz2010grss  -0.38260
gfz2010grxb  -0.43390
gfz2010gslu  -2.55530
gfz2010gtqs  -0.01910
gfz2010gtzt  -0.16850
gfz2010hevz  -2.56030
gfz2010hgld  -0.40260
gfz2010hjoc  -5.21850
gfz2010hlco  -9.30010
gfz2010hllj  -1.86560
gfz2010hlmq  -2.27930
gfz2010hlvr   1.41560
gfz2010hmhm  -2.99090
gfz2010hnnf  -0.41670
gfz2010hnpi  -2.41450
gfz2010hnzr  -1.29870
gfz2010homc  -2.89810
gfz2010hptz  -3.12650
gfz2010hrkr  -1.32380
gfz2010hrpr   0.67950
gfz2010htdq   0.26560
gfz2010hufk  -0.45090
gfz2010hykt   1.27830
gfz2010hzar  -0.25400
gfz2010iauj  -0.24320
gfz2010ibiy  -0.52470
gfz2010icqq  -0.27840
gfz2010iefy  -0.11650
gfz2010ihrq  -0.01780
gfz2010iimu  -0.63600
gfz2010imfv  -1.41110
gfz2010iobp  -3.97050
gfz2010iphd  -3.61410
gfz2010ipsg  -1.63190
gfz2010iqep  -2.34470
gfz2010iqfm  -0.02180
gfz2010iqnm  -1.07070
gfz2010iqus  -0.01940
gfz2010irqr  -2.26710
gfz2010irvf  -1.52910
gfz2010isrp  -1.39200
gfz2010ited  -2.25300
gfz2010itpb  -2.24430
gfz2010iull  -2.80530
gfz2010ixyc  -0.00000
gfz2010izzj  -2.16370
gfz2010jagd  -0.82150
gfz2010jant  -0.08560
gfz2010jhie  -1.54580
gfz2010jipf  -1.13810
gfz2010jitt  -0.11130
gfz2010jkxj  -1.71340
gfz2010jlhj  -0.20060
gfz2010jpyj  -1.00730
gfz2010jqxx  -1.09400
gfz2010jssh  -3.73190
gfz2010jsuh  -10.54920
gfz2010jsuo  -11.77330
gfz2010jtal  -0.60560
gfz2010jucj  -0.56410
gfz2010jwpy  -2.77030
gfz2010jxbm  -3.90920
gfz2010jzku   0.02100
gfz2010kcoo  -1.60560
gfz2010kdyc  -1.05870
gfz2010kgws   0.56910
gfz2010kmgg   0.79160
gfz2010kqyh   0.03540
gfz2010kyen  -0.18200
gfz2010kyvj  -0.02110
gfz2010kzml  -0.02150
gfz2010lcoq   0.45160
gfz2010lczp  -1.63640
gfz2010lfju  -0.62130
gfz2010liqs  -2.12360
gfz2010lkcf  -2.74930
gfz2010lluj  -1.85220
gfz2010lopz  -0.74630
gfz2010mfpt  -0.03970
gfz2010ndxl  -0.17000
gfz2010truw  -1.51700
gfz2010txjs  -1.15420
gfz2010tzzk  -0.10960
gfz2010uept  -0.74520
gfz2010upfb  -3.56760
gfz2010upiw  -0.57070
gfz2010urlq   0.40330
gfz2010usho  -2.90430
gfz2010ustq  -1.62980
gfz2010utcg  -3.03090
gfz2010utmc  -1.60250
gfz2010utvp  -0.04320
gfz2010uyhb   0.55520
gfz2010veri  -3.12980
gfz2010vhuj  -0.97090
gfz2010vppc   0.39580
gfz2010vtdg   0.66360
gfz2010vxvs  -0.68350
gfz2010vzpr  -1.69870
gfz2010wioh   0.34690
gfz2010wnty  -0.34390
gfz2010wntz   0.89330
gfz2010wofs   0.42180
gfz2010wrxx  -0.54100
gfz2010wxqa   0.80390
gfz2010xbdv  -0.66330
gfz2010xbgs   3.43470
gfz2010xden   0.27570
gfz2010xgzw  -12.43260
gfz2010xjck   0.18470
gfz2010xjsj  -0.46680
gfz2010xmpr   0.38770
gfz2010xnxk   0.62630
gfz2010yfsv  -0.09850
gfz2010yjev  -1.57460
gfz2010ymfy  -0.33150
gfz2010ymur  -0.38330
gfz2010yosr   0.95600
gfz2010yoyx   0.68560
gfz2010yqwx  -0.51680
gfz2010yzgq  -0.46940
gfz2010zeeh  -0.81440
gfz2011aatr  -5.48470
gfz2011adjs  -7.76070
gfz2011adlj   2.62240
gfz2011adne  -0.00000
gfz2011adpw   0.05580
gfz2011adqk  -0.10680
gfz2011aeay  -0.09500
gfz2011aldv  -0.11290
gfz2011alip  -0.42060
gfz2011alsa  -0.37980
gfz2011alwf  -4.21070
gfz2011aosc  -0.23850
gfz2011aqxf  -1.77070
gfz2011bpkd   0.56670
gfz2011cfae  -0.53640
gfz2011coxh  -0.56550
gfz2011crdy   1.45330
gfz2011csju  -0.54950
gfz2011cvcg  -1.11980
gfz2011cvfg  -4.97810
gfz2011cwgn  -0.70970
gfz2011cykd  -5.93950
gfz2011cylz  -0.70440
gfz2011cynl  -1.40970
gfz2011cyre  -2.04160
gfz2011cyuk  -4.24070
gfz2011czwj  -0.56070
gfz2011dbev  -3.60210
gfz2011dbig  -3.77240
gfz2011dbli  -0.03940
gfz2011dbon  -1.94980
gfz2011dbwt  -1.06610
gfz2011dcqb  -4.38730
gfz2011dcqf  -3.85120
gfz2011ddao  -1.43250
gfz2011deaf  -0.24710
gfz2011deja   0.61720
gfz2011dkyi  -1.44760
gfz2011dllz  -0.33730
gfz2011dlyx  -0.93010
gfz2011dpaa   0.37570
gfz2011dpmx  -0.69590
gfz2011dpqx  -5.93040
gfz2011dtpy  -0.63870
gfz2011duyr  -0.66260
gfz2011eayc  -0.00000
gfz2011eazf  -0.80220
gfz2011ecaj  -2.93580
gfz2011ecsc  -0.95480
gfz2011edmm  -1.14250
gfz2011eebc  -0.00000
gfz2011efgv  -0.31640
gfz2011ehzq  -1.96070
gfz2011eiis  -0.08120
gfz2011ejlp   1.77150
gfz2011ekpr  -0.13170
gfz2011eltw   0.41640
gfz2011enva  -4.64980
gfz2011etje  -3.55010
gfz2011fgvr  -0.10930
gfz2011fhbm  -2.44670
gfz2011fkbn  -0.39640
gfz2011flgj  -0.57660
gfz2011flhp  -0.04430
gfz2011fnsw  -0.94650
gfz2011gbmx  -0.33890
gfz2011gcwb  -0.50020
gfz2011gdgh  -0.07610
gfz2011ggvf  -0.73250
gfz2011ghky   0.04510
gfz2011gjlx  -0.08700
gfz2011gkey   0.19850
gfz2011gkzt  -2.26400
gfz2011gzbr  -1.14500
gfz2011haid   0.01050
gfz2011hbex  -1.02990
gfz2011hbqk  -0.36760
gfz2011hebt  -0.06540
gfz2011hfkj  -2.43280
gfz2011hlqw  -3.21390
gfz2011hlsa  -3.63730
gfz2011hlth  -1.65410
gfz2011hpgx  -0.55360
gfz2011hpqp  -3.44120
gfz2011hrhu  -0.24980
gfz2011hryk  -0.07050
gfz2011hsfj   0.23810
gfz2011hvbu  -1.33500
gfz2011iwte  -2.75740
gfz2011izqa  -0.72420
gfz2011izto   0.20590
gfz2011jdsj   0.38640
gfz2011jghb  -1.41680
gfz2011jplh  -3.56860
gfz2011jtlg  -1.40490
gfz2011juid  -1.11590
gfz2011jxpl   0.23580
gfz2011knbi   0.95910
gfz2011knoo  -0.00000
gfz2011kqwo  -2.99750
gfz2011kqyg  -2.95330
gfz2011ksiu  -0.94800
gfz2011lcxq  -2.86630
gfz2011lggq  -0.06620
gfz2011lvjr  -0.76600
gfz2011lzwj  -4.67950
gfz2011mdie  -3.11520
gfz2011mepc   0.02270
gfz2011mjom  -0.36090
gfz2011mllx  -2.07540
gfz2011mlvw  -0.50240
gfz2011mpme  -2.49320
gfz2011myia  -0.29730
gfz2011nauw  -0.59890
gfz2011necz  -2.55510
gfz2011nmnq  -2.52040
gfz2011noud  -0.77240
gfz2011nowp   0.74640
gfz2011nqpd  -0.76930
gfz2011nrwc  -1.33350
gfz2011nrwv  -1.26060
gfz2011ntkh  -0.78330
gfz2011nudm  -2.98430
gfz2011ogqk   0.77650
gfz2011ohcy  -1.32810
gfz2011oiqe  -1.39390
gfz2011oiwk  -0.13740
gfz2011olkk  -1.09950
gfz2011orgn  -1.23150
gfz2011ornx  -2.15090
gfz2011owvz  -3.75680
gfz2011pccd   0.21670
gfz2011pdpt  -0.80620
gfz2011phms  -2.16980
gfz2011pntf  -0.66010
gfz2011ptus  -1.26090
gfz2011qoif  -0.77760
gfz2011qvae  -1.44650
gfz2011rabm   0.99990
gfz2011rdby   3.31090
gfz2011rewa  -3.94740
gfz2011rnut  -2.05640
gfz2011rqui  -1.64820
gfz2011rsrh  -1.85710
gfz2011rznl   0.07870
gfz2011sagt  -1.24550
gfz2011sawg  -1.71440
gfz2011shqm  -1.34040
gfz2011stal   1.82880
gfz2011syjd   0.41240
gfz2011tbas  -1.71530
gfz2011tcij  -0.51330
gfz2011tivu   2.00450
gfz2011tjrf  -0.41310
gfz2011tjue  -0.51070
gfz2011tkfp  -2.12940
gfz2011tkog  -2.78550
gfz2011tnag   1.77850
gfz2011toub  -3.60920
gfz2011tpbl  -0.83760
gfz2011tpfr  -0.58250
gfz2011tsnp  -1.52770
gfz2011tuea   0.14020
gfz2011udsq  -0.44340
gfz2011ueni   0.96720
gfz2011ujze  -0.26810
gfz2011ukmp   0.24500
gfz2011unkx  -2.08500
gfz2011uphh  -0.75090
gfz2011urxy   0.25770
gfz2011urzu  -1.00610
gfz2011uzqv   1.54060
gfz2011vhfi  -1.35390
gfz2011vkun  -0.01760
gfz2011vnza  -0.61280
gfz2011vqnr   0.67980
gfz2011vqrj  -1.15550
gfz2011vrhg  -3.61760
gfz2011vusi   0.04070
gfz2011vxns  -2.38950
gfz2011vxod  -1.33600
gfz2011vxxg  -0.36690
gfz2011wcic  -0.44440
gfz2011wfja   0.69350
gfz2011wijj   0.69250
gfz2011wjkf  -0.08860
gfz2011wjul  -1.06900
gfz2011wvzb  -0.89240
gfz2011wxfs  -0.86610
gfz2011wxtk  -1.20030
gfz2011wype   1.00870
gfz2011xqru   0.02090
gfz2011xyxj   2.39400
gfz2011yfdx   0.00550
gfz2011yhwz   1.01720
gfz2011yybo  -1.70070
gfz2011yzwq  -1.51920
gfz2011zklv  -1.17200
gfz2011zlfg   0.58910
gfz2011zqhh  -0.40690
gfz2012ablh  -0.88180
gfz2012ajtq  -1.01930
gfz2012aqgp  -1.02470
gfz2012bfah  -0.95950
gfz2012bpkx  -2.76580
gfz2012bpwl   0.09030
gfz2012bqeb  -0.47660
gfz2012byad  -0.39440
gfz2012cbed  -1.05090
gfz2012cevz   0.89730
gfz2012cgvr  -0.31080
gfz2012ckxi   0.17290
gfz2012cmfy  -0.58790
gfz2012cnod  -1.10950
gfz2012covm  -0.07940
gfz2012cqnl  -0.95840
gfz2012cxdn  -2.18200
gfz2012czlw  -0.44530
gfz2012ddma   0.27480
gfz2012deri   0.34440
gfz2012dfhq   0.19740
gfz2012dimn  -0.76800
gfz2012dinb   1.07010
gfz2012djwi   0.35780
gfz2012dyyh  -0.75030
gfz2012ekda  -0.99920
gfz2012ekzf  -0.16320
gfz2012elce  -3.55020
gfz2012emjg  -0.13220
gfz2012enno  -3.33680
gfz2012ewgo  -0.26040
gfz2012ewkj  -0.54920
gfz2012fbfo   0.29120
gfz2012fhnh  -0.11430
gfz2012fivh  -0.17810
gfz2012foeo   1.62690
gfz2012fqcg   0.17140
gfz2012fwfo  -1.46910
gfz2012fwob  -0.64760
gfz2012fzfa  -0.66180
gfz2012gcgn   0.76640
gfz2012gill   0.95550
gfz2012gkvr   0.24460
gfz2012glss   0.10580
gfz2012gnvh   0.66570
gfz2012gocc  -5.44760
gfz2012gomm  -1.62030
gfz2012gukw   0.85450
gfz2012gwmu  -1.16080
gfz2012gwqb  -0.19870
gfz2012hdbm  -0.63690
gfz2012hnul  -1.04870
gfz2012hnuw  -0.25280
gfz2012hogg   2.34650
gfz2012holl  -0.87510
gfz2012icmv  -1.80400
gfz2012idje  -0.64190
gfz2012iffo   0.43300
gfz2012ihdl   0.41960
gfz2012ilvn  -2.03180
gfz2012ilxh   0.36930
gfz2012imay  -3.04850
gfz2012jgvj  -1.17120
gfz2012jjzc  -0.20600
gfz2012jlox  -3.44400
gfz2012joqe  -0.23910
gfz2012jpeh  -1.15410
gfz2012jpgs   3.61290
gfz2012jqvn   0.05560
gfz2012jshk  -0.64010
gfz2012jted   0.02130
gfz2012jupx   1.14270
gfz2012jwhu  -0.74340
gfz2012jxiy  -0.96430
gfz2012kbjb   0.18710
gfz2012kbzj   0.66890
gfz2012keor  -1.06010
gfz2012kkup  -3.78960
gfz2012klhx  -2.87390
gfz2012kuct  -1.18140
gfz2012kudo  -2.38560
gfz2012kvzv  -2.86720
gfz2012kwgo  -1.81900
gfz2012lboz  -0.03790
gfz2012ldxg  -1.01670
gfz2012ldzj  -3.06240
gfz2012ledy   0.21920
gfz2012ljql  -0.65750
gfz2012lltr  -2.50900
gfz2012llug  -3.08320
gfz2012lrol   0.67070
gfz2012lrsv   0.27350
gfz2012lxkv   0.62450
gfz2012mcze   0.07040
gfz2012mdmy  -11.41090
gfz2012minr  -1.94490
gfz2012mkpn   0.06100
gfz2012mlyf  -0.29000
gfz2012mpvy  -0.82870
gfz2012mtiu   0.07730
gfz2012mupa  -0.87680
gfz2012mvwr  -0.95760
gfz2012mwij   3.11580
gfz2012naqz  -1.92620
gfz2012nbtn  -0.52460
gfz2012nedn   0.81480
gfz2012ngic  -0.10310
gfz2012njha  -0.42990
gfz2012nkdf  -4.32020
gfz2012nojx  -1.97090
gfz2012nqnk  -1.02420
gfz2012nsbz  -0.92800
gfz2012ntzv  -0.04280
gfz2012nutf  -0.34670
gfz2012nxog   0.65640
gfz2012nxyt  -0.32050
gfz2012oazn  -3.16830
gfz2012obgw  -2.10850
gfz2012oedb  -0.05110
gfz2012omvo   0.41710
gfz2012ostk  -1.69140
gfz2012ovqs   0.60650
gfz2012oycg   0.07690
gfz2012pazr  -0.92430
gfz2012pciw   0.41740
gfz2012peex   0.45010
gfz2012pkel   0.26250
gfz2012plbw  -0.05360
gfz2012poju   0.37770
gfz2012pqlt  -1.94690
gfz2012pqmk   0.30650
gfz2012pqmu   0.47670
gfz2012pspd  -1.58880
gfz2012qouy   0.38390
gfz2012qqqp  -0.75760
gfz2012qqxg  -0.00000
gfz2012qtgs   0.06000
gfz2012quso  -3.19100
gfz2012qxcy   1.01550
gfz2012rats  -1.16430
gfz2012rcbq  -0.52030
gfz2012rcnj  -1.42480
gfz2012repv   0.05260
gfz2012rknn   0.00000
gfz2012ronz  -1.13700
gfz2012royy  -0.53720
gfz2012rqlg  -1.30430
gfz2012rtqi   4.37230
gfz2012ruks  -0.34790
gfz2012rwko  -0.89660
gfz2012rwov  -1.89370
gfz2012rwql  -0.59690
gfz2012rypu  -2.24400
gfz2012sfer   1.49060
gfz2012shtg   0.30570
gfz2012sjea   1.88290
gfz2012snhi  -0.47840
gfz2012sphd  -1.31530
gfz2012ssyn   0.87860
gfz2012syvl  -0.95910
gfz2012szla   0.35850
gfz2012taou   0.47550
gfz2012tazz  -0.28130
gfz2012tbbp   0.01850
gfz2012teic  -1.42340
gfz2012thfx  -1.66680
gfz2012tpzx  -0.09970
gfz2012ttoa  -1.38600
gfz2012tzcc  -0.60670
gfz2012ueqo  -0.43950
gfz2012ufew  -0.03630
gfz2012uqzp  -0.54090
gfz2012usba  -0.41380
gfz2012uxnz   0.00000
gfz2012uyie  -0.42170
gfz2012uzom   1.73860
gfz2012vceo   3.63090
gfz2012vdbt   0.27840
gfz2012viab   0.58650
gfz2012vmeh   0.95310
gfz2012vnbk   1.16910
gfz2012vntz   0.41170
gfz2012vpza  -1.58410
gfz2012vrgb  -1.06060
gfz2012vrua  -1.68280
gfz2012vsev   0.07410
gfz2012vtxe   0.60430
gfz2012vwvd   2.68400
gfz2012wajj   0.04640
gfz2012wdyx  -0.53450
gfz2012wecd   0.61990
gfz2012whku  -1.73280
gfz2012wklq  -4.40960
gfz2012wmkd   0.89390
gfz2012wmsg  -0.81250
gfz2012wpeq  -1.25750
gfz2012wqnc   2.94870
gfz2012wrir  -0.51170
gfz2012wtkh   0.72080
gfz2012wtkr  -1.02090
gfz2012wubh   1.29050
gfz2012wvfl  -1.45090
gfz2012wxer  -0.51470
gfz2012wxlg  -2.15440
gfz2012wxnt   0.18720
gfz2012wxnu  -1.36640
gfz2012wybs  -0.08920
gfz2012wypz  -1.42470
gfz2012xbjq   0.29320
gfz2012xdna   0.34720
gfz2012xevt   0.21920
gfz2012xgqm  -0.06440
gfz2012xjyv   0.22680
gfz2012xkkv   0.35370
gfz2012xmxy   0.25590
gfz2012xslk   0.96080
gfz2012xvwn   0.13360
gfz2012xyqp  -1.31780
gfz2012xyua  -1.14370
gfz2012yfrp   0.03580
gfz2012yldu   4.01690
gfz2012zemh   1.31180
gfz2012zfag  -1.20450
gfz2012ziml  -0.11700
gfz2012zitl  -2.36400
gfz2012zjpv  -0.74610
gfz2012zjre   0.11700
gfz2012zsqk  -0.37150
gfz2013aahq   2.97030
gfz2013aayj  -1.48570
gfz2013adey  -0.24110
gfz2013apmm  -3.25320
gfz2013axoj  -0.61030
gfz2013azzr  -1.35740
gfz2013bdke   1.99150
gfz2013biji  -0.97740
gfz2013bnxc   0.54000
gfz2013bokp  -0.24050
gfz2013bouj  -0.34480
gfz2013btjm  -1.58700
gfz2013bzlb  -0.40820
gfz2013bzzm  -0.13680
gfz2013ccnr  -3.12090
gfz2013cfyy   0.10360
gfz2013ciaf   0.43610
gfz2013cnhh   0.53630
gfz2013comh  -0.25190
gfz2013cvad   0.90780
gfz2013cvqg  -1.50630
gfz2013cwpn  -1.37310
gfz2013cwps   0.30700
gfz2013czeq  -0.87250
gfz2013diuf   1.48850
gfz2013dkly  -0.95310
gfz2013dkmz  -0.61130
gfz2013dkym  -0.05740
gfz2013dnnx  -0.54990
gfz2013dofo  -3.32860
gfz2013dojq  -1.32590
gfz2013drpk  -0.48480
gfz2013drxz  -4.24130
gfz2013dsog  -0.61250
gfz2013dspt  -0.30880
gfz2013dvyh  -0.52090
gfz2013egni  -2.65050
gfz2013egpu  -2.00070
gfz2013eulz  -0.33890
gfz2013ewbo  -0.64860
gfz2013fcto   9.15630
gfz2013feep  -0.48390
gfz2013fepm  -0.20940
gfz2013ffko   0.47330
gfz2013figy   0.40460
gfz2013fiud  -1.85720
gfz2013fwxa   0.48210
gfz2013fxge   0.51790
gfz2013fygc  -0.41780
gfz2013gbst  -0.00000
gfz2013gcfx  -1.88230
gfz2013gdnq  -2.85970
gfz2013geia   1.85960
gfz2013geno  -0.33670
gfz2013ggtf  -0.61040
gfz2013gjdc   1.90100
gfz2013gmor  -0.62040
gfz2013gngz  -0.80950
gfz2013gnse  -0.53590
gfz2013gock   0.18970
gfz2013gvxh  -1.63220
gfz2013gwrd  -1.15580
gfz2013hbkh   0.41020
gfz2013hdnc   0.05240
gfz2013hisv  -0.94230
gfz2013hkja  -0.21810
gfz2013hlbe  -0.75840
gfz2013hpfq   2.71060
gfz2013hsfw  -0.11930
gfz2013huwr  -0.85630
gfz2013hydf  -0.31060
gfz2013hzdp  -0.04720
gfz2013icfh   3.74190
gfz2013idbb  -1.74320
gfz2013iexo   0.83590
gfz2013ifpq  -2.24590
gfz2013ihcj  -0.42040
gfz2013ikgo  -0.72050
gfz2013iopd   1.15410
gfz2013iqzq   4.41720
gfz2013itsu   0.69080
gfz2013iunn  -2.77210
gfz2013jarl   0.33160
gfz2013jdrx  -0.33450
gfz2013jgij  -0.53480
gfz2013jgip   2.41720
gfz2013jkut   0.00000
gfz2013jlst   0.45790
gfz2013json   0.34840
gfz2013jusj   1.34420
gfz2013jwvc  -6.55630
gfz2013kdeo  -0.71570
gfz2013kheb  -0.34710
gfz2013kqln  -0.33640
gfz2013kvtk   0.50430
gfz2013lbiu   0.85820
gfz2013ldpc  -0.70570
gfz2013ldqb  -0.80080
gfz2013lgnl  -3.40540
gfz2013lixa  -0.83680
gfz2013lljw  -0.31380
gfz2013lmrs  -0.00000
gfz2013lsob  -1.55280
gfz2013lwao  -0.35950
gfz2013lyko  -2.28140
gfz2013lznu   1.61200
gfz2013malg  -1.44200
gfz2013mded   0.76470
gfz2013mghe  -0.80020
gfz2013mmwq  -1.42070
gfz2013mnju  -0.99310
gfz2013mqik   0.50140
gfz2013mqmv  -1.18920
gfz2013mtqd   4.91930
gfz2013mwbh  -1.70830
gfz2013nabl   0.06170
gfz2013ncjp  -0.96510
gfz2013ndin  -1.71560
gfz2013nfwx   1.35360
gfz2013ngnt  -0.49510
gfz2013nixj  -2.75820
gfz2013nkgj  -1.79810
gfz2013nknw  -1.53480
gfz2013nlxz   1.25530
gfz2013nnzf  -1.14570
gfz2013nojf  -0.51470
gfz2013oejn  -0.62360
gfz2013ofls   0.50040
gfz2013ogde  -1.02540
gfz2013oifr   0.15470
gfz2013oinc   0.36660
gfz2013oksi  -0.24650
gfz2013onjy   2.36610
gfz2013oqsc  -2.04810
gfz2013orzn  -0.84280
gfz2013ouvt  -0.37570
gfz2013ozku   0.42670
gfz2013ozqm   0.18410
gfz2013ozrp  -0.62250
gfz2013pcos  -0.31370
gfz2013pfbx  -1.80220
gfz2013pfeb  -0.14610
gfz2013pffm  -0.26670
gfz2013poxj   1.44850
gfz2013ppqq   0.31110
gfz2013pqui   0.08990
gfz2013pupd  -0.07250
gfz2013pxsj   1.16870
gfz2013pxtx  -0.06210
gfz2013qali  -1.33650
gfz2013qcck  -0.63900
gfz2013qzdq  -3.21150
gfz2013rait  -0.83030
gfz2013reym  -0.72430
gfz2013rklb   2.16050
gfz2013roki  -0.84030
gfz2013rqcy  -2.64330
gfz2013rrza  -2.15620
gfz2013rsnr   0.41690
gfz2013rwfe  -1.07760
gfz2013saez  -0.00000
gfz2013scai  -0.17500
gfz2013sdus  -0.92100
gfz2013sfds   0.11840
gfz2013sfto  -0.58680
gfz2013shzy   0.70270
gfz2013sjhg  -0.35740
gfz2013skkm  -0.80630
gfz2013snbr  -1.66830
gfz2013snyf  -0.21370
gfz2013sred   0.94420
gfz2013suln   3.07550
gfz2013suvn  -1.42840
gfz2013svci  -1.73970
gfz2013tcbk  -0.12230
gfz2013tcxc  -1.37750
gfz2013tcxq  -0.94570
gfz2013tdau  -0.86070
gfz2013tect   1.47150
gfz2013tlaf  -1.01200
gfz2013toxf  -0.90790
gfz2013tpeb   0.51150
gfz2013tusd  -2.30590
gfz2013tvmw  -1.18010
gfz2013twwf  -0.09650
gfz2013txij  -1.00500
gfz2013txtb  -1.12850
gfz2013tyas  -0.84940
gfz2013uauo  -0.41920
gfz2013ufxk  -2.16950
gfz2013ugax  -2.35220
gfz2013uhlm   0.51440
gfz2013uqsp  -0.69030
gfz2013uqvu  -2.64080
gfz2013utsh   2.59160
gfz2013uxej  -0.51770
gfz2013vcoa   1.27610
gfz2013vefs   0.12680
gfz2013vexx  -1.07960
gfz2013vfyw  -0.76750
gfz2013vfzp   0.09400
gfz2013vgau  -0.63310
gfz2013vgpf  -0.27380
gfz2013vhnk  -0.17780
gfz2013vhzu   1.89200
gfz2013viul   2.77120
gfz2013vjfe   0.28840
gfz2013vjjc  -5.99530
gfz2013vlth   0.73400
gfz2013vnfj  -0.10440
gfz2013vsbl   0.00000
gfz2013vvjh  -0.16610
gfz2013vvrq  -1.30690
gfz2013vzbo  -1.68660
gfz2013waam   0.68710
gfz2013wjmm   1.45500
gfz2013wkyk  -1.41080
gfz2013wnpr  -1.44470
gfz2013wrgw   1.46910
gfz2013wtzl  -0.13070
gfz2013wuon  -0.84520
gfz2013wwii   0.44840
gfz2013xgek   0.20620
gfz2013xizq  -0.61180
gfz2013xklb   1.15690
gfz2013xkwt   0.69890
gfz2013xmqg   1.34020
gfz2013xmul  -1.09680
gfz2013xqnn   0.25690
gfz2013xsdt  -2.86490
gfz2013xtwj  -2.00960
gfz2013xvqd   0.70340
gfz2013xvxf  -0.05260
gfz2013xxcc   0.28430
gfz2013xxwv  -0.27370
gfz2013xxxq  -0.81240
gfz2013xyzb  -0.03940
gfz2013xzcg  -0.34470
gfz2013yaig  -0.23860
gfz2013yewz   0.30990
gfz2013ylbx   1.59230
gfz2013ymky   0.10320
gfz2013ymxs   0.32590
gfz2013ynmw  -0.65310
gfz2013ypdc  -1.01720
gfz2013yqkv  -1.16540
gfz2013yrmc   0.30210
gfz2013yyti  -1.34980
gfz2013yzte   0.14060
gfz2013zjel   0.52870
gfz2013zmoc  -0.58370
gfz2013zmtb  -1.61050
gfz2014adoj  -1.29360
gfz2014afmx  -2.54230
gfz2014afyp  -0.20900
gfz2014agde  -2.58450
gfz2014ajlk  -1.81590
gfz2014ajtf  -0.51050
gfz2014algk   0.18430
gfz2014alwz  -0.36980
gfz2014amsb   1.32550
gfz2014aqbk   1.50120
gfz2014ared   0.48960
gfz2014arpf  -0.94370
gfz2014arsr   0.64740
gfz2014atbl   0.59210
gfz2014bagd  -2.38480
gfz2014bekc  -4.24750
gfz2014bezu  -0.99510
gfz2014bfqo  -0.03740
gfz2014bhhv  -0.21280
gfz2014bhvd  -0.19960
gfz2014bjgt   0.94980
gfz2014bldx  -1.13030
gfz2014bmfv  -0.01810
gfz2014bmta  -0.09780
gfz2014bwue  -2.49890
gfz2014bztt   1.25350
gfz2014bzxy  -0.71740
gfz2014caop   0.37670
gfz2014capn   1.28740
gfz2014cbtl  -1.54910
gfz2014cgog  -0.99840
gfz2014citw   1.06560
gfz2014claq  -1.74060
gfz2014clnj   0.38940
gfz2014cmwb  -0.27640
gfz2014cqyo  -0.34970
gfz2014cueu   0.76680
gfz2014cvkm  -0.23200
gfz2014cvxx  -0.51570
gfz2014cyvm  -0.67540
gfz2014czqi  -1.66840
gfz2014czua   0.23490
gfz2014dcdy   1.11680
gfz2014dffd  -0.03490
gfz2014dgiy   0.11310
gfz2014disp  -5.22110
gfz2014dofa  -0.25620
gfz2014duqn  -2.51850
gfz2014ebmc  -2.51510
gfz2014edfx  -0.36360
gfz2014eght   2.65930
gfz2014egwu   0.53800
gfz2014ehsf  -0.44720
gfz2014ejvf   0.95170
gfz2014ekcr  -2.19330
gfz2014ekdn  -0.90360
gfz2014ekdt  -0.37920
gfz2014emrg   1.61770
gfz2014emzb   0.89620
gfz2014enhi  -4.37110
gfz2014eqpl   0.06140
gfz2014etqa   0.62750
gfz2014ewcz   0.10800
gfz2014fcms  -0.43770
gfz2014fcsy   0.11910
gfz2014femz   0.25200
gfz2014fexu   1.38830
gfz2014fgvi  -1.56730
gfz2014fgvr  -0.04720
gfz2014fgvz  -1.06700
gfz2014fgwt  -0.51460
gfz2014fgxt   0.32340
gfz2014fgxz  -0.51090
gfz2014fgyo  -0.34700
gfz2014fgza  -1.00990
gfz2014fhbd  -0.44770
gfz2014fhdw  -1.65530
gfz2014fhgb   0.95500
gfz2014fhjd   0.06000
gfz2014fhla   0.04440
gfz2014fhqk   0.53550
gfz2014fhrq  -0.90630
gfz2014fhsg   0.66900
gfz2014fhwx   0.57180
gfz2014fimn  -0.38830
gfz2014fiuj  -2.40260
gfz2014fiwq   0.03560
gfz2014fjdz  -0.56920
gfz2014fjpb   0.55900
gfz2014fjyo   0.36850
gfz2014fjzd  -1.39870
gfz2014fjzw   1.44690
gfz2014fkmr  -1.52460
gfz2014fkmx  -0.23130
gfz2014fknp  -0.92630
gfz2014flfa   0.34980
gfz2014fnyg  -1.42940
gfz2014foio  -0.41290
gfz2014fqpz  -0.32630
gfz2014frdz   0.60290
gfz2014frel  -0.22440
gfz2014frez  -0.57600
gfz2014frfl   0.53130
gfz2014fvpy   0.36630
gfz2014fvrg   0.55940
gfz2014fwtt  -0.56260
gfz2014fzgx   0.25510
gfz2014gbcz  -1.84230
gfz2014gbdq  -1.37360
gfz2014gbjf   0.14610
gfz2014gcza  -0.08560
gfz2014geuy  -0.73210
gfz2014gezs   1.28430
gfz2014ghpe  -1.51670
gfz2014gilf  -0.54640
gfz2014gnvw  -0.88000
gfz2014gnwg  -0.19270
gfz2014gnxb  -0.28270
gfz2014goba  -1.23590
gfz2014goei   0.03640
gfz2014gogv  -0.10500
gfz2014gohm  -0.11460
gfz2014golz   0.97900
gfz2014goqw  -0.43230
gfz2014gori  -2.15630
gfz2014goyx   1.23340
gfz2014gpam   1.79610
gfz2014gpce  -0.97020
gfz2014gphr  -0.46440
gfz2014gpnf   1.04920
gfz2014gpuk  -0.03900
gfz2014gpvk   0.70430
gfz2014gpxl   0.77040
gfz2014gpya   1.20210
gfz2014gqbj  -0.17060
gfz2014gqco   1.01870
gfz2014gqer  -0.52980
gfz2014gqgf   0.73270
gfz2014gqiy   1.25470
gfz2014gqjr   1.01630
gfz2014gqqz   0.48800
gfz2014gqro   1.27000
gfz2014gqve  -0.21310
gfz2014grfp  -0.58050
gfz2014grgn   0.43190
gfz2014grho  -0.07400
gfz2014gsgv   2.01460
gfz2014gsjg   1.04980
gfz2014gsqs  -0.12150
gfz2014gtef   0.66310
gfz2014gtrb  -0.38160
gfz2014gtwz   0.28750
gfz2014gufl  -0.27270
gfz2014gull  -0.71110
gfz2014gumd  -1.02920
gfz2014gutm   0.28380
gfz2014gvhw   0.81050
gfz2014gvqj   0.58670
gfz2014gvra  -1.29660
gfz2014gvrd  -1.47600
gfz2014gwab  -2.51180
gfz2014gwgf   0.22470
gfz2014gxag   0.18120
gfz2014gxkh   1.38950
gfz2014gxvf   1.31110
gfz2014gxxh   0.21590
gfz2014gxxo  -1.24110
gfz2014gyxd   0.01740
gfz2014hagb  -0.59020
gfz2014hasj  -0.96030
gfz2014hauo  -1.59260
gfz2014hbjm   0.51350
gfz2014hbjz   0.04310
gfz2014hcmj  -1.50450
gfz2014heyq  -0.26290
gfz2014hfhl  -0.81510
gfz2014hgqo  -1.25680
gfz2014hhfs   0.46510
gfz2014hhwx   0.25670
gfz2014hifp   0.68740
gfz2014hiiz  -0.54790
gfz2014hjgh   0.09220
gfz2014hjgr  -1.16370
gfz2014hjij  -0.97420
gfz2014hjlx  -0.11180
gfz2014hkcf  -1.12870
gfz2014hkck   0.02130
gfz2014hmgf  -1.39210
gfz2014hmrs  -0.42700
gfz2014hmzg   0.72590
gfz2014hoap   2.11050
gfz2014hocg  -2.54500
gfz2014hphw   0.32250
gfz2014hqxs   0.17060
gfz2014hriu  -2.82760
gfz2014hrtn   1.47840
gfz2014hscz  -2.48570
gfz2014hsqo  -0.25910
gfz2014huaj  -0.25700
gfz2014hugz   1.48480
gfz2014hymr  -0.21110
gfz2014hyvq  -0.43420
gfz2014hzdy  -1.26250
gfz2014hzfw  -2.20470
gfz2014hzgn  -0.36600
gfz2014hzhe  -0.46430
gfz2014hzig  -2.14390
gfz2014hzze   2.18180
gfz2014iani   0.66150
gfz2014iava  -0.43670
gfz2014icqt   0.35480
gfz2014ieam  -0.62250
gfz2014ifue   0.48630
gfz2014igsj   1.66200
gfz2014ikun  -0.31610
gfz2014inbj  -3.12470
gfz2014iobd  -0.24300
gfz2014irci  -0.40780
gfz2014itbe  -0.02130
gfz2014itgh   0.02650
gfz2014itjx  -1.77310
gfz2014itkw  -0.63770
gfz2014itpj  -2.31870
gfz2014iuhq   0.15010
gfz2014jagg   0.65570
gfz2014jass   0.06190
gfz2014jatq   0.19570
gfz2014jbyg  -0.15140
gfz2014jcjt   0.55580
gfz2014jcmt  -0.28210
gfz2014jdoy  -0.04640
gfz2014jesb   0.28980
gfz2014jfis  -1.21870
gfz2014jggm   0.23940
gfz2014jhra   0.50480
gfz2014jipr   1.40530
gfz2014jjhc  -1.65880
gfz2014jjln  -1.07510
gfz2014jjqk   0.31650
gfz2014jkxe  -0.03760
gfz2014jlwb  -0.40990
gfz2014jmnk   3.04390
gfz2014jnxm  -1.75340
gfz2014jnyv  -2.54480
gfz2014jomw  -1.84540
gfz2014jpep  -1.72430
gfz2014jpxs  -0.72400
gfz2014jtcz   1.61690
gfz2014jtfe   0.57590
gfz2014jvow   0.36360
gfz2014jwmh  -1.44830
gfz2014kara  -5.14020
gfz2014kbwm  -1.13250
gfz2014khan   1.12500
gfz2014khlk  -0.23900
gfz2014kitm   0.39040
gfz2014kizt  -1.37520
gfz2014kjjq   0.55600
gfz2014kjzb  -0.75220
gfz2014kkhh   1.87270
gfz2014kmmt  -0.56360
gfz2014kndc  -2.30820
gfz2014knxs  -2.16380
gfz2014krlg   1.04740
gfz2014ksdv  -0.89250
gfz2014ksmz   0.06170
gfz2014kwrg  -1.31860
gfz2014kwwg  -0.31640
gfz2014kyan  -1.02380
gfz2014kytf  -1.00000
gfz2014lbcq  -1.16840
gfz2014lbxn   0.22470
gfz2014lddn  -0.85580
gfz2014ldhu  -0.54660
gfz2014lgqn  -0.84290
gfz2014lhqn  -0.80740
gfz2014lnmw  -0.25710
gfz2014lnqy  -0.57070
gfz2014lpim  -2.65440
gfz2014lrzx   0.21470
gfz2014lurd  -0.09550
gfz2014lxnc  -0.64800
gfz2014lxqr   0.78720
gfz2014lyhk  -0.26850
gfz2014lyhp  -0.71170
gfz2014lzal  -0.87990
gfz2014macx  -1.45780
gfz2014madw  -0.80690
gfz2014mlqw   0.76280
gfz2014mtum   0.04150
gfz2014mwor   0.56340
gfz2014mxkr   0.65430
gfz2014myqz   0.47650
gfz2014navw   1.17060
gfz2014ndue   0.48920
gfz2014ngnd  -0.95640
gfz2014ngsk   1.28140
gfz2014ngvt   0.29050
gfz2014niqj  -0.02260
gfz2014nkdx  -1.22010
gfz2014nnxd  -0.30940
gfz2014nowp   0.10930
gfz2014npdk  -0.69070
gfz2014nphm  -0.26350
gfz2014nqfm  -1.61540
gfz2014nrie  -0.59820
gfz2014ntdh  -0.66130
gfz2014obxm   0.12450
gfz2014odgv   0.13540
gfz2014oinz  -2.64730
gfz2014okec   0.56950
gfz2014okjw  -0.75650
gfz2014okxu   0.04200
gfz2014omyn  -1.28520
gfz2014opqr  -1.41270
gfz2014orgz  -0.00000
gfz2014orxs   0.18190
gfz2014osvz  -2.65470
gfz2014owii   1.28500
gfz2014owur   1.29510
gfz2014pghi   0.50450
gfz2014pjer  -1.27590
gfz2014pjum  -0.06670
gfz2014pkll  -1.71190
gfz2014ppyi  -0.22980
gfz2014ppzf  -1.15330
gfz2014pqqp  -0.42770
gfz2014pqrc  -0.00460
gfz2014pvch  -1.74200
gfz2014pxbu   1.06420
gfz2014pzni  -0.18240
gfz2014qbzi   0.25530
gfz2014qfzq   1.14950
gfz2014qjfl  -0.20930
gfz2014qlvc   0.42920
gfz2014qlxd  -1.35660
gfz2014qngj  -1.68440
gfz2014qqfg   0.17880
gfz2014qqhm  -0.78320
gfz2014raau  -3.08070
gfz2014rbpx   0.35030
gfz2014rbsl  -1.34270
gfz2014rdoz   0.33760
gfz2014rdsn  -1.85440
gfz2014rghp  -4.78690
gfz2014rhnz   0.41360
gfz2014rhwq   2.87160
gfz2014riel  -0.69220
gfz2014royq   0.70010
gfz2014rtcu  -0.39180
gfz2014rucz  -0.59800
gfz2014ryfb  -1.92500
gfz2014shid  -0.41110
gfz2014sjqw  -1.21960
gfz2014snfs  -1.39620
gfz2014sptq  -1.42020
gfz2014sryn  -4.73870
gfz2014ssmv  -1.00320
gfz2014ssvz  -4.31900
gfz2014szzf  -1.90340
gfz2014tabg  -1.02610
gfz2014tgcw  -0.14220
gfz2014tovs  -2.18960
gfz2014tqdo  -1.78300
gfz2014tqsf  -0.82810
gfz2014tqth   1.19670
gfz2014tute   0.78950
gfz2014tzsd  -0.58150
gfz2014ubwn  -1.22680
gfz2014udgg  -0.78950
gfz2014uohh  -0.09240
gfz2014utac  -1.05220
gfz2014uuqa  -1.03270
gfz2014uuuf   0.14470
gfz2014uvji  -0.87590
gfz2014uvrk  -2.97940
gfz2014uxyg   2.17520
gfz2014uyrq   0.14160
gfz2014vcev  -1.52170
gfz2014vdnh   0.68100
gfz2014veit  -0.40570
gfz2014vhms  -0.45520
gfz2014vhuy  -0.47310
gfz2014vjoz  -2.19450
gfz2014vnxu   1.25670
gfz2014vpus   0.32180
gfz2014vqqa   0.06230
gfz2014waoo  -1.07600
gfz2014watn  -2.15980
gfz2014wjko  -0.89310
gfz2014wmsc   0.05360
gfz2014wqcp  -3.38140
gfz2014wwib  -1.16130
gfz2014xaxx   0.51960
gfz2014xbyr  -1.17870
gfz2014xhkc  -0.11490
gfz2014xkdg  -0.09890
gfz2014xoji   0.83580
gfz2014xqby  -0.64570
gfz2014xqqd  -2.08360
gfz2014yazi  -0.38600
gfz2014yhhm  -0.24820
gfz2014ynzy  -0.14670
gfz2014yrug  -1.13390
gfz2014yula  -1.92320
gfz2014yyiy   1.20380
gfz2014zplq  -0.17670
gfz2015aide   0.54550
gfz2015alzx  -0.18180
gfz2015ansu   0.29430
gfz2015apnk   0.97470
gfz2015aqav  -0.47590
gfz2015aqbq  -0.38780
gfz2015arpd  -0.43200
gfz2015aruz  -1.46070
gfz2015atxv  -0.90950
gfz2015aush   0.08990
gfz2015azzp   0.11210
gfz2015bavu  -0.89080
gfz2015bdyd  -0.25560
gfz2015berb  -1.93700
gfz2015bfjm  -0.22460
gfz2015bkbj  -2.03650
gfz2015bnho   1.15250
gfz2015bohx   0.47600
gfz2015bphe  -1.63430
gfz2015bsnl   0.05230
gfz2015bucr  -0.42280
gfz2015bvxx  -0.41690
gfz2015bzej  -1.70730
gfz2015cewd  -0.67610
gfz2015chhn  -4.49640
gfz2015chqn  -3.44370
gfz2015clrp  -0.64720
gfz2015cpuo   0.35450
gfz2015cxhx  -0.96870
gfz2015cxxk  -1.59730
gfz2015cyjd  -3.19760
gfz2015dizn  -1.95060
gfz2015djts  -1.87550
gfz2015ecgq  -0.37770
gfz2015eeyq  -0.54890
gfz2015egbk   0.38640
gfz2015ehpz   1.78720
gfz2015eiky  -0.78330
gfz2015elgy  -2.40130
gfz2015eljz  -2.57120
gfz2015emcg  -0.62540
gfz2015emin   0.13570
gfz2015emtg  -1.88140
gfz2015enth   1.49810
gfz2015esrj  -1.27430
gfz2015etai  -2.18830
gfz2015evpl  -1.15590
gfz2015eyqs  -0.95460
gfz2015fbbk  -0.51320
gfz2015fbew   0.76690
gfz2015fcua   0.02750
gfz2015fdpr  -0.30910
gfz2015fjhk  -1.47190
gfz2015fkgt  -0.92370
gfz2015fkic  -1.71390
gfz2015fkjs  -1.04570
gfz2015fkkd  -1.01320
gfz2015fkuu  -0.67660
gfz2015flis  -2.36400
gfz2015fpez  -0.91070
gfz2015fsjj  -3.39170
gfz2015fvoi  -0.14760
gfz2015fwkq   1.52880
gfz2015fwnf  -0.41720
gfz2015fxbv  -0.55100
gfz2015fyvk  -1.01260
gfz2015gckd  -1.64490
gfz2015ggjw  -2.53550
gfz2015gjbr  -2.29130
gfz2015gmgf   0.82330
gfz2015gnmy  -0.61500
gfz2015guhd  -0.31130
gfz2015gwao   0.93420
gfz2015gzja   1.21780
gfz2015hlfq  -0.12580
gfz2015hpmk  -0.82250
gfz2015hvgs  -0.25020
gfz2015hwkv  -0.09340
gfz2015idho   1.83940
gfz2015igsy  -1.22350
gfz2015ijmh   0.09130
gfz2015imty   0.03440
gfz2015ixyy  -0.93670
gfz2015jkdw   1.72600
gfz2015jwgl  -1.02670
gfz2015jxjd   0.36520
gfz2015jzcv  -0.71490
gfz2015kakw  -2.19210
gfz2015kcaa  -0.45410
gfz2015kfsu  -0.93630
gfz2015kkqb  -0.98080
gfz2015kkth   0.51820
gfz2015kphk  -0.77430
gfz2015kquq  -0.35200
gfz2015ksni  -1.77510
gfz2015kxxs  -1.30590
gfz2015lcma  -2.23200
gfz2015lfma  -0.00000
gfz2015lfos   1.65730
gfz2015lfud  -0.95250
gfz2015lhjq  -0.33420
gfz2015lhjy  -2.26070
gfz2015ltii  -0.97270
gfz2015ltro  -0.35630
gfz2015lytv  -3.62500
gfz2015lzad  -0.22060
gfz2015mddr  -1.18590
gfz2015mhym  -0.98200
gfz2015micz  -0.56010
gfz2015mpte  -1.06690
gfz2015mvzk   0.13630
gfz2015mxcu  -0.10460
gfz2015nbdc  13.39500
gfz2015nerz   0.32450
gfz2015nqgf   0.62810
gfz2015nuxz  -3.67890
gfz2015nwug  -1.83270
gfz2015ocdz  -1.55010
gfz2015okmq  -0.90260
gfz2015opjp   0.41530
gfz2015orkl  -0.04320
gfz2015othd  -0.29100
gfz2015oyfl  -3.86540
gfz2015pcvt  -0.37290
gfz2015pdri   0.49340
gfz2015pjgr  -0.45970
gfz2015poni  -0.11120
gfz2015puah  -0.09540
gfz2015puqp  -0.88850
gfz2015qbme   0.06590
gfz2015qiit   0.19220
gfz2015qnho  -1.14140
gfz2015qnlv  -2.01140
gfz2015qpvd  -1.56320
gfz2015quzo  -0.75000
gfz2015qvxu   0.60580
gfz2015rddx  -0.92620
gfz2015rgrg   0.32040
gfz2015rgst   0.24660
gfz2015rkbq  -1.00840
gfz2015rkrg   0.16250
gfz2015rkzg  -0.52340
gfz2015rnis   0.93700
gfz2015roac   0.14280
gfz2015rpzn  -7.14660
gfz2015rwsb  -1.26850
gfz2015rxmg   0.34030
gfz2015saet   3.91300
gfz2015sdeo  -0.75530
gfz2015sdfy   0.98190
gfz2015seuf   0.04160
gfz2015sevh   0.38850
gfz2015sfdd  -1.47320
gfz2015sfln  -0.43790
gfz2015sfmd   0.25490
gfz2015sfqo  -1.06410
gfz2015sfrv  -0.02040
gfz2015sftu  -3.05080
gfz2015sfuz  -1.47510
gfz2015sfwf  -0.98560
gfz2015sgdn   0.02060
gfz2015sgoa  -1.18530
gfz2015sgpu  -3.07280
gfz2015shlp  -0.35090
gfz2015shov   0.11050
gfz2015shrg  -0.97800
gfz2015shsb  -0.01910
gfz2015shsz  -0.92850
gfz2015sicf  -0.28940
gfz2015siem   0.23020
gfz2015siky  -3.16790
gfz2015sing   0.08110
gfz2015siof  -0.20660
gfz2015sitn  -1.82960
gfz2015siyy  -2.27660
gfz2015sjbx  -0.43830
gfz2015sjeq   0.19870
gfz2015sjgk  -2.62650
gfz2015sjne  -1.52970
gfz2015sjtz   0.52480
gfz2015skab  -1.21510
gfz2015skgj  -1.29000
gfz2015skhf  -4.68790
gfz2015sklu  -1.76210
gfz2015skuk  -0.16450
gfz2015sldx  -1.70240
gfz2015sljs  -1.31370
gfz2015smym  -1.68960
gfz2015snmg   0.10910
gfz2015snmr  -3.88550
gfz2015snsf  -1.72470
gfz2015snwh  -1.95940
gfz2015snyd  -1.30550
gfz2015soat  -0.34870
gfz2015sowu   0.13660
gfz2015soxc  -1.44920
gfz2015sozw  -0.11380
gfz2015spal  -0.31990
gfz2015spxh   2.86610
gfz2015sqbg  -2.88180
gfz2015sqyh   0.50530
gfz2015srat  -2.25530
gfz2015sryk   0.08610
gfz2015ssaf   1.77610
gfz2015ssoe  -0.51130
gfz2015sspn  -0.27470
gfz2015ssrl  -0.92420
gfz2015stas  -0.12190
gfz2015stso  -2.09080
gfz2015subg   0.20600
gfz2015subz  -1.40120
gfz2015sudm  -0.07330
gfz2015sunp   0.61140
gfz2015svjy  -1.95080
gfz2015svwm  -1.65630
gfz2015swgn  -1.42360
gfz2015szcb  -1.34230
gfz2015taml  -2.31270
gfz2015tbdn  -2.62280
gfz2015tbje  -0.07360
gfz2015tcem  -0.16100
gfz2015tdcu  -1.67200
