# Nsamples: 45  MAD:  0.893  mean: -0.116  variance:  1.120
gfz2010bjeb  -0.62610
gfz2010cqwl   0.22700
gfz2010czps  -0.78940
gfz2010eaoy  -1.69090
gfz2010ecua   0.02180
gfz2010eisx  -0.70060
gfz2010ekyc   0.17400
gfz2010eltf   1.04310
gfz2010elyc  -0.10240
gfz2010excp  -0.87620
gfz2010exdd   1.28850
gfz2010ffhq  -2.59160
gfz2010fync  -0.12070
gfz2010grjd   0.82890
gfz2010iull   0.69500
gfz2010mkuu   0.03880
gfz2010nlkh   0.41970
gfz2010nmpc   0.56220
gfz2010nqwo  -0.47430
gfz2010nwef  -0.85340
gfz2010onma  -0.40850
gfz2010rqwj   0.24090
gfz2010usho  -0.39750
gfz2010ustq  -1.64340
gfz2011aatr  -0.58710
gfz2011adjs  -0.64070
gfz2011cykd   0.50960
gfz2011dpqx  -1.02180
gfz2011enva   0.29940
gfz2011gkzt  -1.58780
gfz2011hlqw   1.31130
gfz2011hlsa  -0.70500
gfz2011jplh  -0.29780
gfz2011lcxq   0.94380
gfz2011lzwj   0.50760
gfz2011mdie  -0.07100
gfz2011nrwv   3.79200
gfz2011owvz  -0.66030
gfz2011qvae   0.22640
gfz2011rewa  -0.84320
gfz2011toub  -0.21090
gfz2011vhfi  -2.29290
gfz2011vrhg   0.07560
gfz2011wxfs   0.78200
gfz2011xyxj   0.97820
