# Nsamples: 119  MAD:  0.617  mean: -0.736  variance:  0.499
gfz2010pcxi  -0.30040
gfz2010rqwj  -1.45900
gfz2010upfb  -1.46220
gfz2010usho  -0.71130
gfz2010vbmd  -1.85360
gfz2010ymfy  -1.56610
gfz2011aatr  -0.21820
gfz2011adjs  -1.13230
gfz2011bgrp  -0.17630
gfz2011cykd  -0.77590
gfz2011dbev  -0.23600
gfz2011dbig  -0.27930
gfz2011dcqb  -1.36350
gfz2011dpqx  -0.45270
gfz2011eazf  -0.01970
gfz2011ecaj  -1.13070
gfz2011enva  -0.61820
gfz2011hbex  -0.56740
gfz2011hlsa   0.39020
gfz2011izqa  -1.32130
gfz2011kqwo  -0.18570
gfz2011kxzp  -0.68750
gfz2011lzwj  -0.10670
gfz2011mdie  -0.78830
gfz2011ntkh  -0.30810
gfz2011olkk  -1.30030
gfz2011owvz  -0.23940
gfz2011rewa  -0.29780
gfz2011toub  -0.95100
gfz2011uphh  -1.60080
gfz2011wxfs  -0.46290
gfz2011wxtk  -0.62210
gfz2012bpkx  -1.34220
gfz2012enno  -0.50400
gfz2012ewgo  -0.52300
gfz2012fzfa  -0.83150
gfz2012hnul   0.50200
gfz2012jlox  -1.37700
gfz2012jupx  -2.05020
gfz2012kkup   0.54530
gfz2012kudo  -0.54680
gfz2012sphd  -0.79650
gfz2012syvl  -0.24240
gfz2012ttoa  -0.44620
gfz2012tvmv  -0.53880
gfz2012vrgb   1.39480
gfz2012wypz  -0.05120
gfz2012zemz  -1.92270
gfz2013axoj  -1.03820
gfz2013ccnr  -2.50770
gfz2013dofo  -1.74070
gfz2013drxz  -1.21090
gfz2013jusj  -0.61460
gfz2013ldpc  -0.21550
gfz2013ldqb  -1.64430
gfz2013lixa  -0.59790
gfz2013lyko  -0.69730
gfz2013nixj  -0.46230
gfz2013nkgj  -1.01020
gfz2013nnzf  -1.42910
gfz2013nwdi  -0.15050
gfz2013qmer  -0.10530
gfz2013svci  -1.25530
gfz2013tusd  -1.31860
gfz2013vjjc  -2.14720
gfz2013wjmm  -0.81540
gfz2013xsdt   0.07960
gfz2013xyzb  -0.43310
gfz2013yqkv  -0.74760
gfz2014bwue  -0.25100
gfz2014fgvi   0.18610
gfz2014fhla  -0.30080
gfz2014ftka  -1.03850
gfz2014gbcz  -1.25920
gfz2014ghpe  -0.87350
gfz2014gkgf  -0.98410
gfz2014gkgs  -0.89050
gfz2014gkqf   0.28590
gfz2014gltx  -1.16090
gfz2014gmge  -1.29160
gfz2014gmhr  -0.92740
gfz2014gmip  -0.20930
gfz2014gmnb  -0.05560
gfz2014gmnw  -0.29130
gfz2014gmuw  -0.36770
gfz2014goba  -0.27220
gfz2014knks  -0.48710
gfz2014lxnc  -0.73330
gfz2014nqfm  -0.51650
gfz2014oims  -2.60240
gfz2014oinz  -0.20810
gfz2014owxc   0.42710
gfz2014pvch  -1.66620
gfz2014qlxd  -0.18900
gfz2014qngj  -1.40450
gfz2015chhn  -1.64800
gfz2015cyjd  -1.41160
gfz2015dvbn  -0.50340
gfz2015eiky  -0.99400
gfz2015fkgt  -0.13450
gfz2015fsjj  -0.43990
gfz2015gckd  -0.42390
gfz2015kfsu  -0.71850
gfz2015lhjy  -0.37420
gfz2015lytv  -2.24690
gfz2015poni  -1.40820
gfz2015qnho  -1.24300
gfz2015rddx  -0.31320
gfz2015sfdd  -1.33590
gfz2015sfdy  -0.11200
gfz2015sfno   1.51040
gfz2015sjoj  -0.48410
gfz2015sjpn  -2.28810
gfz2015smym  -0.78120
gfz2015snwh  -1.14850
gfz2015soxc  -1.17060
gfz2015svwm  -1.15830
gfz2015szcb   0.28710
gfz2015taml  -0.36620
