# Nsamples: 449  MAD:  0.682  mean:  1.854  variance:  0.852
gfz2010aerk   1.60000
gfz2010ahqi   1.93970
gfz2010bifb   1.11260
gfz2010bjeb   1.49680
gfz2010bjsl   1.66220
gfz2010bowy   1.38080
gfz2010boxo   1.66550
gfz2010bxxs   2.35720
gfz2010caft   2.10330
gfz2010cind   2.45360
gfz2010dlgc   2.60570
gfz2010ehsy   1.31000
gfz2010eiqi   2.00300
gfz2010eisx  -0.29930
gfz2010eixj   1.42050
gfz2010ejae   1.87950
gfz2010ejjg   1.49470
gfz2010eryg   2.35490
gfz2010ezck   1.48840
gfz2010ezjk   3.02010
gfz2010fcax   2.65820
gfz2010fcnt   4.30980
gfz2010fedq   2.49680
gfz2010ffhq   1.81670
gfz2010ffjb   1.58940
gfz2010figq   1.55400
gfz2010fika   1.67130
gfz2010fkhd   2.40130
gfz2010fknh   1.78850
gfz2010fmpy   1.79090
gfz2010fpqy   2.09260
gfz2010gcrl   1.76240
gfz2010gcrp   1.59320
gfz2010glqr   1.92650
gfz2010grjd   1.75750
gfz2010gzxr   1.44110
gfz2010hbka   1.98380
gfz2010hcio   1.31020
gfz2010hevz   1.72130
gfz2010hlco   1.37380
gfz2010hlmq   1.55710
gfz2010hmhm   1.29890
gfz2010hnnf   1.69610
gfz2010hptz   1.83970
gfz2010hxgv   0.94420
gfz2010iobp   2.23600
gfz2010iqnm   1.72630
gfz2010ited   1.19410
gfz2010iull   1.96980
gfz2010izzj   1.94010
gfz2010jatq   2.69520
gfz2010jxbm   2.18220
gfz2010kdyc   1.07570
gfz2010kihf   1.16310
gfz2010lluj   3.68880
gfz2010lopz  -0.73220
gfz2010mgss   1.40470
gfz2010mkuu   2.95780
gfz2010mlta   2.25800
gfz2010mncc   1.46600
gfz2010moyw   1.36680
gfz2010ncrl   0.35700
gfz2010nfsj   0.83380
gfz2010nqwf   1.29340
gfz2010nqwo   2.30080
gfz2010nsck   2.59530
gfz2010nwef   2.40330
gfz2010nxsy   1.65950
gfz2010nxum   0.50370
gfz2010ocxq   0.98610
gfz2010onma   2.41130
gfz2010pcxi   1.84130
gfz2010pewa   1.90310
gfz2010pewx   0.62130
gfz2010pexf   1.27500
gfz2010pmqd   0.77880
gfz2010pxgh   3.49800
gfz2010qjst   1.73110
gfz2010rlbv   1.61230
gfz2010rqwj  -0.36960
gfz2010rxjw   2.44570
gfz2010rywq   1.58560
gfz2010sfee   2.21020
gfz2010sfla   1.92300
gfz2010skqo   2.01890
gfz2010skve   1.84430
gfz2010srdb   1.40650
gfz2010svtn   1.02880
gfz2010swcy   1.85630
gfz2010sxwt   1.43050
gfz2010tcrl   0.75360
gfz2010tlfm   1.70040
gfz2010upfb   1.93520
gfz2010usho   1.74530
gfz2010ustq   1.85140
gfz2010utcg   1.41150
gfz2010utmc   1.87070
gfz2010vhuj   1.93070
gfz2010vzpr   1.12970
gfz2010wioh   1.93800
gfz2010wrxx   2.36830
gfz2010wxqa   1.71600
gfz2010xgzw   1.47560
gfz2010xjck   0.72800
gfz2010xjsj   1.99180
gfz2010xxzn  -3.32620
gfz2010yjev   1.57570
gfz2010yqwx   1.99730
gfz2011aatr   2.03560
gfz2011adjs   0.28230
gfz2011ahfw   5.30200
gfz2011alip   2.16380
gfz2011alsa   2.48810
gfz2011aqxf   1.62860
gfz2011asru  -0.46130
gfz2011bhha   0.75260
gfz2011blsi   1.08700
gfz2011ccpw   1.77710
gfz2011cfae   1.60360
gfz2011csju   1.68920
gfz2011cvcg   1.62480
gfz2011cvfg   1.97480
gfz2011cwgn   0.95220
gfz2011cykd   1.06310
gfz2011cylz   2.76150
gfz2011cynl   2.04690
gfz2011cyre   1.95530
gfz2011cyuk   0.19060
gfz2011dbev   1.16460
gfz2011dbig   1.78510
gfz2011dbon   1.44230
gfz2011dbwt   1.81480
gfz2011dcqb   1.46100
gfz2011dkyi   3.25120
gfz2011dlyx   1.63970
gfz2011dpqx   2.28130
gfz2011duyr   2.11590
gfz2011eayc   2.93990
gfz2011ecaj   1.23780
gfz2011enva   1.82480
gfz2011etje   1.99450
gfz2011fgvr   1.59040
gfz2011fhag   1.79800
gfz2011fhur   1.99330
gfz2011fkbn   1.97910
gfz2011flgj   7.40310
gfz2011gcwb   1.73290
gfz2011gdgh   1.69520
gfz2011haid   2.02310
gfz2011hbex   5.00460
gfz2011hebt   1.74690
gfz2011hlqw   1.22730
gfz2011hlsa   1.40460
gfz2011hlth   1.89050
gfz2011hpgx   2.64590
gfz2011hpqp   1.87790
gfz2011hvbu   1.62940
gfz2011ieie   3.91290
gfz2011iwte   0.82710
gfz2011izqa   1.94470
gfz2011jtlg   1.78390
gfz2011kqwo   1.11300
gfz2011kqyg   1.05590
gfz2011kxzp   1.82640
gfz2011lcxq   2.76300
gfz2011mpme   2.55910
gfz2011nqpd   1.53870
gfz2011ntkh   3.01760
gfz2011nudm   1.68230
gfz2011ohcy   2.20020
gfz2011olkk   2.78580
gfz2011orgn   1.16060
gfz2011ornx   1.91930
gfz2011owvz   2.50740
gfz2011pccd   3.11980
gfz2011qvae   1.24280
gfz2011qyms   1.85480
gfz2011rgwp   1.10860
gfz2011rqui   2.72780
gfz2011sagt   0.69410
gfz2011shqm   3.44200
gfz2011tbas   1.88150
gfz2011tcij   0.88360
gfz2011tkog   2.32340
gfz2011tpfr   2.50370
gfz2011tsfd   1.41770
gfz2011ugzz   3.74020
gfz2011ujze   3.18400
gfz2011ukmp   2.88000
gfz2011uphh   2.37900
gfz2011vhfi   2.73480
gfz2011vnza   2.13200
gfz2011vrhg   1.89800
gfz2011vxns   1.18160
gfz2011vxxg   0.69930
gfz2011wcic   1.67440
gfz2011wjul   2.95020
gfz2011wwjs   1.46690
gfz2011wxfs   1.33010
gfz2011wxtk   2.20980
gfz2011xyxj   3.19730
gfz2011yhwz   1.49040
gfz2011zklv   2.55860
gfz2011zqhh   1.12050
gfz2012aqgp   1.75740
gfz2012bfah   2.08840
gfz2012bfyn   1.78240
gfz2012bpkx   1.56910
gfz2012bszs   2.48840
gfz2012byad   2.88040
gfz2012cxdn   1.63190
gfz2012deri   1.01070
gfz2012dimn   3.28580
gfz2012ekda   1.29060
gfz2012emjg   3.24370
gfz2012enno   2.69040
gfz2012ezvr   1.91930
gfz2012fbfo   1.99460
gfz2012fqcg   0.16960
gfz2012fwfo   3.99710
gfz2012fzfa   2.25990
gfz2012gill   2.36010
gfz2012glss   1.15080
gfz2012gocc   2.16330
gfz2012hnul   3.05960
gfz2012hzbe   1.52260
gfz2012ihdl   1.39070
gfz2012ilvn   1.40730
gfz2012jgvj   0.89090
gfz2012jjzc   1.84590
gfz2012jlox   2.07380
gfz2012jshk   1.08010
gfz2012jted   1.34640
gfz2012jupx   2.33090
gfz2012keor   1.04900
gfz2012kkup   1.56980
gfz2012klhx   1.75460
gfz2012kuct   1.52360
gfz2012kudo   1.63510
gfz2012lczo   1.71040
gfz2012ldxg   3.52970
gfz2012ldzj   1.31890
gfz2012lpvn   1.64310
gfz2012lxkv  -0.79330
gfz2012minr   2.08320
gfz2012mwij   4.72590
gfz2012naqz   1.20250
gfz2012nedn   0.42740
gfz2012oazn   1.68100
gfz2012omvo   2.63980
gfz2012pkel   1.75010
gfz2012quso   1.59230
gfz2012rats   1.84350
gfz2012repv   0.95900
gfz2012rqlg   2.58410
gfz2012rwov   2.11080
gfz2012sphd   1.87830
gfz2012syvl   3.37280
gfz2012teic   2.66290
gfz2012tmop   1.79580
gfz2012ttoa   2.86860
gfz2012tvmv   1.59120
gfz2012uafg   2.04630
gfz2012uaqj   1.63600
gfz2012uhup   2.25800
gfz2012ulpd   1.56790
gfz2012uqzp   2.07830
gfz2012wizz   1.62650
gfz2012wklq   0.72680
gfz2012wmkd   2.02550
gfz2012wxlg   1.21640
gfz2012wxnu   1.22030
gfz2012wypz   2.45670
gfz2012xbjq   4.59380
gfz2012xjyv   2.24440
gfz2012yxxu   1.89180
gfz2012zfag   3.12020
gfz2012zitl   1.32630
gfz2012zjpv   2.24520
gfz2013aayj   2.09000
gfz2013acag  -0.49120
gfz2013bdpu   0.81390
gfz2013bokp   2.01730
gfz2013ccnr   1.64210
gfz2013cfyy   0.30890
gfz2013ciaf   2.28410
gfz2013cwpn   2.50820
gfz2013cwps   3.29660
gfz2013dnnx   2.16840
gfz2013dofo   1.82140
gfz2013drxz   1.41640
gfz2013dvyh   1.25360
gfz2013egpu   2.72190
gfz2013ekpm   0.33910
gfz2013fkii   3.36060
gfz2013gdnq   1.18470
gfz2013hisv   1.88260
gfz2013hkja   1.13970
gfz2013ippu   3.16890
gfz2013iunn   1.83990
gfz2013jesk   1.06120
gfz2013jgip   2.22930
gfz2013jusj   0.73380
gfz2013kheb   1.50080
gfz2013mqmv   1.76600
gfz2013mwbh   2.71540
gfz2013ncjp   1.99640
gfz2013nqgw   1.80860
gfz2013pxsj   3.19860
gfz2013qali   3.55960
gfz2013qfmm   1.46770
gfz2013qmer   3.93340
gfz2013svci   1.27760
gfz2013tcxc   1.93930
gfz2013tcxq   2.91790
gfz2013vfyw   2.86630
gfz2013vfzp   2.90080
gfz2013viul   2.45830
gfz2013vjjc   0.81640
gfz2013wjmm   2.59730
gfz2013wtzl   2.25940
gfz2013xizq   1.24740
gfz2013xmul   2.71890
gfz2013xsdt   3.07910
gfz2013xvqd   3.60850
gfz2013xxxq   1.39970
gfz2013yctg   1.54550
gfz2013yyhc   1.95080
gfz2014afmx   2.18150
gfz2014algk   3.71080
gfz2014ande   1.94390
gfz2014cvkm   0.58160
gfz2014dhxt   2.00180
gfz2014enhi   0.47780
gfz2014etqa   1.34980
gfz2014gmhr   1.55710
gfz2014jpep   3.47160
gfz2014jwmh   2.04400
gfz2014khlk   2.30690
gfz2014knks   2.75250
gfz2014knxs   2.12720
gfz2014kyan   2.51370
gfz2014lddn   2.53710
gfz2014lwom   1.75140
gfz2014mhgg   0.99020
gfz2014mtum   2.07080
gfz2014mwor   1.09990
gfz2014oryw   1.20510
gfz2014oxcc   1.58630
gfz2014oyly   1.73950
gfz2014pkll   2.52980
gfz2014ppzf   2.73020
gfz2014pvch   2.35110
gfz2014qlxd   3.22850
gfz2014qngj   1.02100
gfz2014ubwn   2.32560
gfz2014vcev   1.91720
gfz2014vhld  -0.46570
gfz2014vjoz   1.71630
gfz2014watn   3.20410
gfz2014wqcp   1.98960
gfz2014zlgp   2.04260
gfz2015aruz   2.59250
gfz2015bavu   2.25290
gfz2015berb   1.98990
gfz2015bfjm   1.96600
gfz2015bsnl   1.28920
gfz2015bzej  -0.09700
gfz2015chhn   1.89550
gfz2015cpuo   1.88870
gfz2015dskr   3.30980
gfz2015dvbn   2.55870
gfz2015etai   2.41170
gfz2015fsjj   1.17030
gfz2015fxbv   2.17780
gfz2015fxdi   1.71510
gfz2015jmlu   1.29560
gfz2015jxjd   2.16030
gfz2015kkqb   2.82790
gfz2015kkth   1.23700
gfz2015nwug   2.33460
gfz2015ocdz   2.91420
gfz2015plal  -0.79560
gfz2015sfdd   2.03370
gfz2015sfdh   0.78880
gfz2015sfdv   2.07000
gfz2015sfdy   1.49140
gfz2015sfeo   1.87860
gfz2015sffn   1.28300
gfz2015sfga  -0.30610
gfz2015sfhz   1.95680
gfz2015sfiq   1.13560
gfz2015sfkz   0.84400
gfz2015sfmd   3.53380
gfz2015sfnb   0.74170
gfz2015sfnv   1.21330
gfz2015sfoc   0.96440
gfz2015sfoq   2.94570
gfz2015sfpj   0.74760
gfz2015sfqo   0.72030
gfz2015sfqr   1.34280
gfz2015sfrc   0.04660
gfz2015sftu   1.44000
gfz2015sfzm   3.43240
gfz2015sgmm   1.10720
gfz2015sgyd   1.33160
gfz2015shaq   2.10590
gfz2015shel   1.29460
gfz2015shhg   2.06260
gfz2015shhu   1.07720
gfz2015shjn   1.50550
gfz2015shrg   1.80930
gfz2015shsz   2.82550
gfz2015siky   2.64590
gfz2015siyy   1.87580
gfz2015sjbx  -0.61120
gfz2015sjfi   3.03610
gfz2015sjgk   2.93300
gfz2015sjjb   1.40850
gfz2015sjne   1.37160
gfz2015sjoj   2.29040
gfz2015sjvu   2.18050
gfz2015sjwi   1.94860
gfz2015skab   1.82890
gfz2015skgj   1.80900
gfz2015skia   0.82100
gfz2015skpv   2.02410
gfz2015skxu   1.76820
gfz2015sldx   2.07430
gfz2015sljs   1.29710
gfz2015slun   1.35770
gfz2015smym   1.89160
gfz2015snmr   2.49280
gfz2015snsf   1.51010
gfz2015snwh   1.65590
gfz2015snyd   2.29990
gfz2015soat   1.11230
gfz2015soxc   1.94050
gfz2015sqbg   1.72240
gfz2015srat   1.71800
gfz2015stfy   0.82180
gfz2015subg   2.19990
gfz2015svwm   2.53420
gfz2015sxmh   1.46050
gfz2015szcb   2.17570
gfz2015szfe   1.44570
gfz2015taml   2.13800
gfz2015tbdn   1.71840
gfz2015tchx   1.62080
