# Nsamples: 253  MAD:  1.155  mean: -0.594  variance:  1.878
gfz2010aerk   0.52760
gfz2010ahqi   1.49870
gfz2010aykj  -0.51720
gfz2010bxxs  -1.97150
gfz2010cjrf  -2.45980
gfz2010ckzm  -0.58540
gfz2010czps  -1.23170
gfz2010dlgc  -1.62370
gfz2010eaoy  -3.54600
gfz2010eapk  -1.98740
gfz2010eaqe  -3.48390
gfz2010eaqy  -3.55460
gfz2010earu  -2.56910
gfz2010eask   1.92950
gfz2010easo  -3.42840
gfz2010easu  -2.21550
gfz2010eaty  -0.47380
gfz2010eavs   0.46470
gfz2010eawb  -2.38310
gfz2010eawu  -1.65610
gfz2010eayx  -3.46130
gfz2010ebbd  -3.51060
gfz2010ebhc  -2.86920
gfz2010ebvv  -2.96340
gfz2010ebwp  -2.24130
gfz2010ecro  -2.17180
gfz2010ecua  -3.43290
gfz2010edyi   0.39180
gfz2010ekyc  -4.57500
gfz2010elyc  -4.43870
gfz2010euii   0.87900
gfz2010excp  -2.46010
gfz2010exdl  -1.69560
gfz2010exgb  -2.02400
gfz2010eymx   1.57670
gfz2010fbpi  -1.88510
gfz2010fcnn  -0.14190
gfz2010fcyj  -3.13460
gfz2010fczt  -1.74300
gfz2010fedq  -2.46580
gfz2010ffhq  -2.02790
gfz2010fync  -1.48730
gfz2010glxl  -1.83420
gfz2010gyqp  -1.54250
gfz2010iobp  -2.52660
gfz2010iull  -0.95210
gfz2010jucj  -2.26680
gfz2010lruw  -0.52580
gfz2010nmpc  -2.45210
gfz2010nqwo  -0.56400
gfz2010nrjo   1.17910
gfz2010nsck  -0.99350
gfz2010onma  -2.23250
gfz2010rhas  -3.44590
gfz2010rkfp   0.16430
gfz2010rqwj  -4.32290
gfz2010rxjw   1.78570
gfz2010sfee   0.02200
gfz2010svtn  -0.37780
gfz2010tcrl   0.31410
gfz2010upfb  -1.92580
gfz2010usho  -0.66220
gfz2010vbmd  -0.01910
gfz2010xjsj   0.44480
gfz2011aatr  -2.73680
gfz2011adjs  -4.12580
gfz2011ccpw  -3.68250
gfz2011csju   0.79370
gfz2011cvfg   0.18340
gfz2011cwgn   0.86620
gfz2011cykd  -4.14700
gfz2011dbig  -0.40810
gfz2011dcqb  -0.91670
gfz2011enva  -1.52950
gfz2011fhbm   1.25800
gfz2011gkzt  -0.56520
gfz2011jbbc   1.14160
gfz2011lcxq  -1.28120
gfz2011nmnq  -0.09890
gfz2011ntkh   0.20550
gfz2011nudm  -1.10730
gfz2011orgn   0.34350
gfz2011ornx   0.22360
gfz2011owvz  -0.72010
gfz2011phms   1.19070
gfz2011rabm   0.37850
gfz2011rewa  -1.37770
gfz2011rqui   0.11150
gfz2011sagt   0.84300
gfz2011shqm   0.21870
gfz2011tbas  -0.62190
gfz2011tkfp   0.84880
gfz2011tkog   0.05800
gfz2011toub  -0.67310
gfz2011urzu   0.72370
gfz2011vhfi  -0.46900
gfz2011wxfs   0.11510
gfz2011wxoj   0.20780
gfz2011wxtk   0.33110
gfz2011xaan  -0.97910
gfz2012bpkx  -1.79180
gfz2012enno  -0.47150
gfz2012gnvh  -0.58560
gfz2012hnul  -0.45730
gfz2012hsex   2.30790
gfz2012ilvn  -0.46200
gfz2012jlox  -0.96190
gfz2012kkup   0.66120
gfz2012kudo  -0.31400
gfz2012mvwr  -0.04020
gfz2012quso  -0.85160
gfz2012rwov  -0.14460
gfz2012syvl   0.30200
gfz2012ttoa   1.57730
gfz2012uafg  -2.01110
gfz2012vmeh  -2.51620
gfz2012vrgb  -0.44360
gfz2012wklq  -0.82670
gfz2012wypz   0.02850
gfz2013acag  -0.75340
gfz2013ccnr   0.05070
gfz2013dofo  -2.17510
gfz2013drxz  -0.64480
gfz2013figy  -1.71200
gfz2013gaie   0.00000
gfz2013gvet   0.47050
gfz2013gvxh   0.36010
gfz2013hzdp  -0.58070
gfz2013jusj   2.92330
gfz2013kdeo   1.14870
gfz2013ldqb   0.25490
gfz2013lixa   0.70950
gfz2013nixj  -0.07730
gfz2013nwdi  -0.73270
gfz2013ogde  -0.32920
gfz2013oksi   0.31320
gfz2013pfbx  -0.24540
gfz2013qali  -0.29580
gfz2013qmer   0.58190
gfz2013roki   1.30620
gfz2013sdus  -0.39320
gfz2013skkm   1.25270
gfz2013snbr  -0.08120
gfz2013suln  -1.55310
gfz2013suvn   0.33570
gfz2013svci  -0.47360
gfz2013tcxq   0.75100
gfz2013uqsp  -0.21430
gfz2013vfyw  -1.30530
gfz2013vfzp   0.48290
gfz2013vhzu  -0.19540
gfz2013viul   2.61210
gfz2013vjfe  -2.12540
gfz2013vjjc  -1.81840
gfz2013wjmm  -0.44480
gfz2013wkyk  -0.73010
gfz2013xmul   0.62860
gfz2013xsdt   0.32590
gfz2013xyzb   0.68840
gfz2013ypdc  -0.00000
gfz2013yqkv   0.20950
gfz2014afmx  -0.98340
gfz2014ande   0.63520
gfz2014citw  -1.04800
gfz2014czqi  -0.84670
gfz2014fgvi   1.46140
gfz2014fhla  -0.65450
gfz2014gbcz  -0.16510
gfz2014gkgf  -2.43840
gfz2014gmhr   0.55410
gfz2014gmnb  -1.03550
gfz2014gnfd  -0.99960
gfz2014gnoz   0.33440
gfz2014goba  -0.10910
gfz2014gsgv  -0.62180
gfz2014gull   0.48090
gfz2014gulp  -0.03930
gfz2014gwab   2.12530
gfz2014hasj  -0.52290
gfz2014hocg  -1.63410
gfz2014hzig   0.56730
gfz2014lgqn   1.02990
gfz2014oinz  -0.57500
gfz2014owxc   0.00000
gfz2014ppzf  -0.10410
gfz2014pvch  -0.61030
gfz2014qjgp   0.31690
gfz2014qlxd  -2.30300
gfz2014qngj   0.47790
gfz2014qqhm   0.02660
gfz2014rdsn  -0.64150
gfz2014rghp   2.08510
gfz2014riel  -0.47730
gfz2014rils   0.24670
gfz2014ssvz  -1.88420
gfz2014tqdo   0.27420
gfz2014tzsd  -2.26440
gfz2014ubwn   0.02190
gfz2014vhms   0.54010
gfz2014watn   0.25150
gfz2014wjko   0.52990
gfz2015chhn  -1.66660
gfz2015cyjd  -1.29500
gfz2015fkgt  -1.06280
gfz2015fsjj  -0.52970
gfz2015gckd   0.24090
gfz2015gjbr   0.44620
gfz2015hgbk   0.00000
gfz2015lhjy   0.04330
gfz2015lytv  -1.71220
gfz2015mddr  -0.08720
gfz2015mpte   0.11120
gfz2015nuxz   0.19460
gfz2015nwug  -0.04910
gfz2015okmq  -0.83680
gfz2015opjp  -0.51050
gfz2015oyfl   0.25480
gfz2015qnho   0.00000
gfz2015sfdd  -0.63030
gfz2015sfdv  -0.51420
gfz2015sfdy  -0.78940
gfz2015sfhz  -1.60350
gfz2015sfiq  -0.04390
gfz2015sfnb  -0.51370
gfz2015sfno   0.53900
gfz2015sfnv  -1.70160
gfz2015sfoc  -0.33650
gfz2015sfoh   0.57850
gfz2015sfwf  -2.01270
gfz2015sgdj  -0.62090
gfz2015sgmr   0.04410
gfz2015sgyd  -0.18320
gfz2015shaq  -4.15810
gfz2015shjn  -0.44040
gfz2015shov  -2.74880
gfz2015sitn  -0.27400
gfz2015sjfi  -0.32070
gfz2015sjgk   0.53230
gfz2015sjjb   0.69160
gfz2015sjoj  -1.01330
gfz2015sjvu  -0.95700
gfz2015skxu  -0.13130
gfz2015smym   0.74030
gfz2015snsf   0.52320
gfz2015snwh  -0.50020
gfz2015snyd   0.61380
gfz2015soat   1.73660
gfz2015stfy  -0.67040
gfz2015sudm   1.87260
gfz2015svwm  -0.26250
gfz2015szcb   0.11440
gfz2015sztx  -0.94600
gfz2015taml  -0.67180
