# Nsamples: 44  MAD:  1.331  mean:  1.185  variance:  2.349
gfz2010bpda   0.52020
gfz2010czps   0.99930
gfz2010eaoy   0.09180
gfz2010earu  -0.72010
gfz2010eaxa   0.92950
gfz2010eayx   1.04070
gfz2010ekyc   2.11530
gfz2010eltf   0.61180
gfz2010excp   0.21630
gfz2010fync   0.15360
gfz2010nmpc   1.40340
gfz2010phvg   2.52980
gfz2010rqwj  -0.40770
gfz2011aatr   1.13580
gfz2011dbig   1.88680
gfz2011dcqb   0.84380
gfz2011enva   2.10460
gfz2011rewa   1.47950
gfz2011sawg  -4.85030
gfz2011wxfs   3.78590
gfz2012cgvr   0.74950
gfz2012kkup   1.42110
gfz2012wklq   0.89090
gfz2012wypz   3.81880
gfz2013axoj   1.19610
gfz2013dnnx   0.15230
gfz2013ornz  -0.01690
gfz2013ufxk   2.34340
gfz2013vdic   0.03410
gfz2013yulx  -0.00000
gfz2014bwue   3.19700
gfz2014ccbz  -0.02720
gfz2014fedd   1.30720
gfz2014fgvi   4.20710
gfz2014gkgf   1.08120
gfz2014gmhr   2.72060
gfz2014jpez   3.62010
gfz2014nqbs   0.45240
gfz2015chhn   0.42190
gfz2015cyjd   2.70030
gfz2015fcua   2.71400
gfz2015lytv   0.05050
gfz2015ojut   0.78430
gfz2015sfdd   2.45630
