# Nsamples: 281  MAD:  0.742  mean:  1.080  variance:  1.023
gfz2010czps   0.21820
gfz2010diqn   0.74000
gfz2010eaoy   0.47180
gfz2010eapk   0.34660
gfz2010eaqe   1.76070
gfz2010eaqx   0.48790
gfz2010eaqy   0.71640
gfz2010earu  -0.44420
gfz2010easf   1.79680
gfz2010easo   0.99680
gfz2010easu  -0.10550
gfz2010eati   0.69230
gfz2010eato   1.05790
gfz2010eavs   0.34990
gfz2010eawb  -0.75180
gfz2010eawu  -6.27580
gfz2010eaxa   1.06370
gfz2010eayx   0.54950
gfz2010eazu  -0.58690
gfz2010ebgj   1.42050
gfz2010ebhc   0.48610
gfz2010ebih   1.54630
gfz2010ebin   0.13690
gfz2010ebjy   1.63020
gfz2010ebkj   1.07040
gfz2010ebla   1.91670
gfz2010ebll   1.45130
gfz2010ebmb   1.93360
gfz2010ebnn   1.73130
gfz2010ebrm   0.72240
gfz2010ebvm   2.50200
gfz2010ebvv   1.11230
gfz2010ebwp   1.40110
gfz2010ebzr   0.33130
gfz2010ecam   1.66980
gfz2010ecay   1.41840
gfz2010eccq   1.68020
gfz2010echy   1.86940
gfz2010ecns  -0.26460
gfz2010ecps   1.95240
gfz2010ecsp   1.18530
gfz2010ecua   0.88520
gfz2010ecvt   0.79820
gfz2010edkp   0.71020
gfz2010edyi   3.89060
gfz2010efsq   3.76900
gfz2010egap   0.83610
gfz2010eisx  -0.77190
gfz2010eixj   2.40320
gfz2010ejjg   1.61850
gfz2010ekyc   0.43470
gfz2010elhv   1.17370
gfz2010elin   1.31190
gfz2010eltf   1.21860
gfz2010elyc   0.90100
gfz2010epxj   6.69080
gfz2010eqjg   0.99580
gfz2010erkn   0.45420
gfz2010erom  -0.38230
gfz2010erwn   1.73860
gfz2010eryg   0.91440
gfz2010excp   0.03180
gfz2010exdd   0.62960
gfz2010exdl   0.31700
gfz2010exhw  -0.13710
gfz2010exno  -0.03040
gfz2010ezck   1.08150
gfz2010fcax   3.37600
gfz2010fczt   0.53160
gfz2010fedq  -0.70370
gfz2010ffhq   1.54610
gfz2010fika   0.82830
gfz2010flha   2.19590
gfz2010fqdu   1.76290
gfz2010ftlm   0.82380
gfz2010fync   0.72910
gfz2010gcrl   2.95070
gfz2010grjd   2.49330
gfz2010gyqp   1.77510
gfz2010gzxr   1.25230
gfz2010hjoc   0.62920
gfz2010hnnf   0.00000
gfz2010homc   1.08200
gfz2010hrkr   1.57260
gfz2010hxgv   1.92340
gfz2010iqnm   0.17900
gfz2010irvf   1.16890
gfz2010iull   0.88120
gfz2010jxbm   0.09480
gfz2010mkuu   1.94390
gfz2010mncc   0.19360
gfz2010moyw   0.29240
gfz2010msjj   1.48610
gfz2010nmpc   0.10340
gfz2010nqwo   0.73610
gfz2010nrjo   0.52650
gfz2010nsck   1.11330
gfz2010nubk   1.47430
gfz2010nwef   1.46910
gfz2010nxsy   0.88090
gfz2010nxum   1.30610
gfz2010oedn   1.88330
gfz2010onma   0.97030
gfz2010osjs   0.13710
gfz2010pcxi   1.22710
gfz2010pewa   0.02080
gfz2010plbg  -1.03490
gfz2010pxgh   0.29310
gfz2010rqwj   0.54890
gfz2010sfee   1.97880
gfz2010swcy   1.50240
gfz2010upfb   0.26190
gfz2010usho   1.76540
gfz2010ustq   0.66370
gfz2010utcg   2.13180
gfz2010vtdg   1.47390
gfz2010vzzz   0.87360
gfz2010yjev   0.91530
gfz2010ymfy   1.08190
gfz2011aatr   0.92450
gfz2011adjs   0.14480
gfz2011alip   1.99810
gfz2011bgrp   0.73380
gfz2011bhha   0.29240
gfz2011blsi   0.72590
gfz2011ccpw   1.31550
gfz2011cvcg   1.55860
gfz2011cykd   1.27480
gfz2011dcqb  -0.62670
gfz2011deaf   3.09470
gfz2011dkyi   1.34840
gfz2011dndz   1.60710
gfz2011dpqx   1.00790
gfz2011ecaj   0.93360
gfz2011edmm   2.08470
gfz2011enva   0.94920
gfz2011fgvr   2.28540
gfz2011fnsw   2.36490
gfz2011hfkj   0.27180
gfz2011hlqw   1.36730
gfz2011hlsa   0.96550
gfz2011ieie   0.96940
gfz2011izqa   1.27360
gfz2011jplh   0.48360
gfz2011kxzp   0.82380
gfz2011lcxq   1.59720
gfz2011lzwj   1.36580
gfz2011mdie   1.89620
gfz2011mpme   0.88010
gfz2011nrwc   3.09120
gfz2011ntkh   1.18500
gfz2011nudm   0.70570
gfz2011ohcy   3.12510
gfz2011ornx   1.22070
gfz2011qvae   0.76420
gfz2011rqui   1.51810
gfz2011ujze   1.64570
gfz2011uphh   1.17480
gfz2011vnza   2.61660
gfz2011wjul   0.56910
gfz2011wxtk   1.65860
gfz2011xyxj   2.77650
gfz2012byad   2.55510
gfz2012cxdn   0.15180
gfz2012dyyh   2.13490
gfz2012enno   0.92000
gfz2012ewgo   2.25640
gfz2012fzfa   0.65350
gfz2012hnul   1.78880
gfz2012jlox   0.21880
gfz2012jshk   2.11910
gfz2012keor   0.89020
gfz2012kkup   0.62320
gfz2012klhx   1.29680
gfz2012kwgo   1.97400
gfz2012lczo   0.85960
gfz2012ldxg   0.94810
gfz2012ldzj   1.74820
gfz2012lxkv   0.21740
gfz2012minr   1.49980
gfz2012nkdf  -0.84530
gfz2012pkel   1.02110
gfz2012rwko   2.17070
gfz2012rwov   0.94270
gfz2012rypu  -0.73000
gfz2012sphd   1.81260
gfz2012syvl   2.61450
gfz2012ttoa   2.31770
gfz2012uafg   0.43930
gfz2012vrgb   0.98490
gfz2012wklq  -0.64870
gfz2012wmsg   1.29960
gfz2012wtkr   0.39930
gfz2012wxlg   0.36700
gfz2012wypz   1.60810
gfz2013ccnr   0.28610
gfz2013ikgo   1.40490
gfz2013ilug   0.22440
gfz2014kndc   1.50920
gfz2014knks   1.41670
gfz2014lgqn   0.62150
gfz2014lxnc   1.33790
gfz2014nnih   1.06590
gfz2014npeo   0.86540
gfz2014nqfm   1.18630
gfz2014nrie   1.26810
gfz2014oinz   1.03410
gfz2014oyly   1.68530
gfz2014ppzf   1.32230
gfz2014pvch   2.37440
gfz2014qlxd   1.80530
gfz2014qngj   1.15170
gfz2014qqhm   1.36910
gfz2014uxyg   2.40230
gfz2014vhld  -1.96020
gfz2014watn   1.27230
gfz2014wrkh  -1.41460
gfz2014xqqd   1.36600
gfz2015apnk   1.59950
gfz2015aruz   1.29490
gfz2015berb   1.48110
gfz2015bkbj   1.93850
gfz2015chhn   0.05590
gfz2015cxxk   1.16120
gfz2015cyjd   1.16870
gfz2015dizn   0.85210
gfz2015dvbn   0.91310
gfz2015egxq   2.01550
gfz2015eiky   2.14870
gfz2015etai   0.74840
gfz2015fbew   0.22560
gfz2015fjhk   1.06760
gfz2015fkgt   1.21180
gfz2015fsjj   1.41500
gfz2015jwgl   0.74290
gfz2015jzcv   1.24260
gfz2015kfsu   0.98980
gfz2015ksni   1.45870
gfz2015lhjy   1.74110
gfz2015lytv  -1.69200
gfz2015micz   0.98870
gfz2015mpte   0.72210
gfz2015oyfl   1.45500
gfz2015poni   1.02840
gfz2015qnho   1.05780
gfz2015rgov  -1.29980
gfz2015sfdd   0.33860
gfz2015sfdl   0.77730
gfz2015sfdy   0.98950
gfz2015sfeo   1.00100
gfz2015sffn   0.57000
gfz2015sfga   0.53810
gfz2015sfhz   0.95250
gfz2015sfiq   1.46260
gfz2015sfkh   0.34860
gfz2015sfks   0.98070
gfz2015sfnb   1.18900
gfz2015sfno   2.42690
gfz2015sfnv   1.41840
gfz2015sfoc   1.39050
gfz2015sfoq   1.55890
gfz2015sfqo   1.67240
gfz2015sfqr   1.04340
gfz2015sfrf   1.28440
gfz2015sgad   2.11310
gfz2015sgna   0.40700
gfz2015sgyd   1.37100
gfz2015shhg   1.55160
gfz2015shjn   1.24260
gfz2015shsz   0.92780
gfz2015sjgk   1.57460
gfz2015sjoj   1.12570
gfz2015sjvu   0.41650
gfz2015smym   0.72940
gfz2015snwh   0.55290
gfz2015snyd   1.44250
gfz2015soat   0.93830
gfz2015soxc   0.40430
gfz2015stfy   1.98050
gfz2015svwm   0.28940
gfz2015taml   1.66660
