# Nsamples: 1111  MAD:  0.650  mean:  0.472  variance:  0.903
gfz2010aban  -1.25200
gfz2010aerk   0.78160
gfz2010ahqi   0.45740
gfz2010aykj   0.26790
gfz2010bfzs  -0.33820
gfz2010bgth   0.84060
gfz2010bhhq   0.96310
gfz2010bifb   0.20680
gfz2010bjeb   0.68780
gfz2010bjjx  -3.27990
gfz2010bkob   0.81050
gfz2010bkos   0.76070
gfz2010bowy   0.26290
gfz2010boxo   1.56820
gfz2010bxxs   0.41500
gfz2010caft   0.18090
gfz2010cbkg   0.64890
gfz2010ckzm   0.00000
gfz2010cqwl   0.99330
gfz2010ctuw  -1.21480
gfz2010dlgc   0.75810
gfz2010eaoy  -0.12360
gfz2010eapk   0.17860
gfz2010eapn   1.05990
gfz2010eaqe   1.17950
gfz2010eaqx   0.18160
gfz2010eaqy   0.77810
gfz2010earq   1.27400
gfz2010earu  -0.51330
gfz2010easf   1.58270
gfz2010eask  -1.05290
gfz2010easo   0.08220
gfz2010easu  -0.33950
gfz2010eato   0.86400
gfz2010eatt  -0.24150
gfz2010eaty  -0.07530
gfz2010eaul   0.37750
gfz2010eavp   0.62310
gfz2010eavs   1.39200
gfz2010eawb   0.65410
gfz2010eawu  -7.31960
gfz2010eaxa   0.54730
gfz2010eaxn  -0.18190
gfz2010eayd   0.83490
gfz2010eayp   0.47770
gfz2010eaze   0.96380
gfz2010eazu  -1.13020
gfz2010ebbd  -0.11010
gfz2010ebbx  -0.54510
gfz2010ebdl   0.66660
gfz2010ebeh  -0.18390
gfz2010ebek  -0.48840
gfz2010ebfa   0.15620
gfz2010ebgj   0.94540
gfz2010ebhc   0.69110
gfz2010ebih   0.70840
gfz2010ebin  -0.47330
gfz2010ebiv   1.35320
gfz2010ebjy   0.42870
gfz2010ebkj  -0.43840
gfz2010ebla   0.93680
gfz2010ebll   0.84700
gfz2010ebmb   0.37610
gfz2010ebmi   0.26750
gfz2010ebnn   0.59760
gfz2010ebpa   0.30250
gfz2010ebqz  -0.11920
gfz2010ebrm   0.78320
gfz2010ebsv   1.56470
gfz2010ebtk   2.16310
gfz2010ebvm   1.21710
gfz2010ebvv   0.04260
gfz2010ebwp   0.77230
gfz2010ebxl   0.23370
gfz2010ebze  -0.13290
gfz2010ebzk   0.98830
gfz2010ebzr   0.81300
gfz2010ecay   0.38780
gfz2010ecbi  -0.15770
gfz2010eccq   1.74140
gfz2010eced   1.31560
gfz2010ecfx   0.94260
gfz2010ecfy   0.16100
gfz2010ecgh   0.83650
gfz2010echt   0.54160
gfz2010echy   1.44840
gfz2010ecsp   0.51330
gfz2010ecua   0.27310
gfz2010ecuv   1.83120
gfz2010ecvt   0.12970
gfz2010edat   0.49360
gfz2010eday   0.59650
gfz2010edbz   1.29930
gfz2010edcp   3.79610
gfz2010edim   0.74090
gfz2010edkp   0.52890
gfz2010edqd   0.88210
gfz2010edqh   0.98480
gfz2010edsk   1.07250
gfz2010edsn   2.20260
gfz2010edsy   1.10050
gfz2010edun   0.67210
gfz2010edvf   1.13480
gfz2010edyi  -4.86000
gfz2010edzb   0.77690
gfz2010eedu  -0.30720
gfz2010eefh   0.76580
gfz2010eefo  -1.38590
gfz2010eegn  -0.83840
gfz2010eeia   0.69540
gfz2010eeij   0.78890
gfz2010eekg   1.90450
gfz2010eekq   1.01000
gfz2010eeng   0.55140
gfz2010eerh   0.36960
gfz2010eern   0.93230
gfz2010eesf   0.86900
gfz2010eevu  -0.09340
gfz2010eexz  -3.76620
gfz2010eeyh   0.84650
gfz2010efbh   0.90680
gfz2010efbi   0.68290
gfz2010efsq  -0.10940
gfz2010efwo   1.32120
gfz2010efxf   0.92110
gfz2010egap   0.38350
gfz2010eghq   0.39930
gfz2010egld   0.90770
gfz2010egln   0.24510
gfz2010egmp   0.99920
gfz2010egyy   0.54110
gfz2010ehaj   2.12700
gfz2010ehft   0.11950
gfz2010ehnl   0.08660
gfz2010ehnm   0.68010
gfz2010ehrq  -0.83170
gfz2010ehsy   0.76400
gfz2010ehvj   0.52920
gfz2010ehwg   1.26540
gfz2010ehxz   1.75020
gfz2010eioi   0.38180
gfz2010eisx  -1.03040
gfz2010eixj   1.29270
gfz2010ejae   1.44270
gfz2010ejjg  -0.04590
gfz2010ejju  -1.71680
gfz2010ejka   0.43640
gfz2010ejma  -0.32490
gfz2010ejxf   1.16340
gfz2010ekaw   0.35970
gfz2010ekoe   0.56500
gfz2010ekrv   0.43700
gfz2010ekyc  -0.63670
gfz2010elhv   0.28500
gfz2010elin   0.15690
gfz2010eljf  -1.10400
gfz2010elpu   0.51260
gfz2010eltf   0.13330
gfz2010elvp   1.50210
gfz2010elxi   0.45680
gfz2010elyc  -1.59530
gfz2010elyo   1.42980
gfz2010elzf   0.51640
gfz2010elzl   1.39720
gfz2010emyz  -0.10930
gfz2010encm  -0.79390
gfz2010enpa   2.48300
gfz2010enzl   1.14610
gfz2010eoao   0.62700
gfz2010epbe   1.65550
gfz2010epxj   0.65650
gfz2010eqjg   0.20610
gfz2010eqmu  -4.44900
gfz2010erfy   1.25870
gfz2010erkn   0.19800
gfz2010erna  -0.41050
gfz2010erom   0.85120
gfz2010erum   2.12410
gfz2010eruy   0.63360
gfz2010erwn   0.34030
gfz2010erxb   1.24950
gfz2010eryg   0.28150
gfz2010esid   1.09770
gfz2010eted   1.63640
gfz2010eujm   0.04320
gfz2010eutw  -0.55800
gfz2010euvl   0.16390
gfz2010euwb  -0.12230
gfz2010euxe   1.36380
gfz2010evco  -0.71560
gfz2010evgf   0.60250
gfz2010evjv   1.95980
gfz2010evkd  -0.20940
gfz2010ewpq   1.62830
gfz2010ewvc  -0.23750
gfz2010ewyu   1.51880
gfz2010excp  -0.68910
gfz2010exdd  -0.19300
gfz2010exel   0.79650
gfz2010exfb   0.92460
gfz2010exgb   0.95790
gfz2010exhd   0.95510
gfz2010exhw  -0.44900
gfz2010exjw   0.90500
gfz2010exlm   0.25490
gfz2010exmc   0.20400
gfz2010exno   0.08110
gfz2010exou  -0.73740
gfz2010exqu   0.39100
gfz2010exsg   0.81680
gfz2010exts   0.55360
gfz2010exyp   0.26410
gfz2010eyaz   0.40430
gfz2010eyhh   0.29460
gfz2010eyiv  -2.25570
gfz2010eyvq   0.69740
gfz2010ezvt   0.82640
gfz2010ezxd   0.97720
gfz2010faeu  -0.29830
gfz2010falm   0.48190
gfz2010fauz   0.29240
gfz2010fbeu   0.56230
gfz2010fbpi   3.44960
gfz2010fcax   0.02200
gfz2010fcdw   1.56990
gfz2010fciw  -0.20400
gfz2010fcnn   0.54490
gfz2010fcnt   0.41140
gfz2010fcxy   1.51260
gfz2010fcyj  -0.30490
gfz2010fczt   0.36730
gfz2010fdab  -1.23770
gfz2010fedq  -1.28070
gfz2010fefr   0.00000
gfz2010fexw   2.22790
gfz2010ffhq  -0.14350
gfz2010ffjb   1.67000
gfz2010ffui   0.98150
gfz2010figq   0.15080
gfz2010fihj   2.04810
gfz2010fika   0.88460
gfz2010fixr   0.09230
gfz2010fjal   1.82690
gfz2010fjni   4.55470
gfz2010fknh   0.63460
gfz2010fkvg   5.91200
gfz2010flha   0.15650
gfz2010flkj  -2.00650
gfz2010flrt   0.67930
gfz2010flxi   0.23280
gfz2010fmhb   0.27480
gfz2010fmwb  -0.76710
gfz2010fneu   0.54200
gfz2010fnrk   0.36740
gfz2010fpmv   0.90980
gfz2010fpqy   0.31150
gfz2010fqdu  -0.11880
gfz2010fqtj   0.81600
gfz2010fser   0.60990
gfz2010ftlm  -0.13310
gfz2010fupn   0.26870
gfz2010fuuy  -0.29690
gfz2010fwkk   0.33740
gfz2010fwny   0.39330
gfz2010fwpv   0.61200
gfz2010fyen   0.04020
gfz2010fync   0.07720
gfz2010fzoi   1.11780
gfz2010gcdn   0.08250
gfz2010gcrl  -0.52690
gfz2010gcrp   0.01380
gfz2010geru  -0.93050
gfz2010ginm   2.29310
gfz2010gjia   0.60720
gfz2010glqr   0.29600
gfz2010glxl   0.07610
gfz2010gslu   0.38520
gfz2010gymo   0.94080
gfz2010gyqp   0.08260
gfz2010gzxr   0.18600
gfz2010hcio   0.69740
gfz2010hgld   0.77840
gfz2010hjoc   0.09280
gfz2010hllj   2.25310
gfz2010hlmq   0.65430
gfz2010hmhm   0.58970
gfz2010hndk   0.47870
gfz2010hnnf   0.34850
gfz2010hnpi   0.59860
gfz2010hnzr   0.47360
gfz2010homc   0.18610
gfz2010hptz  -0.46650
gfz2010hxbs   0.28450
gfz2010hxgv   0.69590
gfz2010hzar   1.08510
gfz2010ibiy   0.77590
gfz2010iciq   0.53000
gfz2010icqq   1.00220
gfz2010iibf   0.99870
gfz2010iimu   1.29770
gfz2010imfv   0.55640
gfz2010imsh   1.40590
gfz2010iobp   0.16350
gfz2010iphd   1.10140
gfz2010ipsg   0.69610
gfz2010iqep  -0.19400
gfz2010iqfm  -0.06970
gfz2010iqnm   0.24380
gfz2010irvf   0.07020
gfz2010itpb   0.21620
gfz2010iull  -0.20170
gfz2010jagd   0.53230
gfz2010jant   2.13310
gfz2010jatq  -0.05170
gfz2010jhie   0.69770
gfz2010jipf  -0.56790
gfz2010jkxj  -2.03830
gfz2010jlhj   2.96570
gfz2010jpyj  -0.00000
gfz2010jssh  -0.09760
gfz2010jsuh  -0.02000
gfz2010jsuo   0.21050
gfz2010jxbm   0.03230
gfz2010jygz   0.12100
gfz2010jzku   1.79700
gfz2010kcoo   1.34350
gfz2010kdyc   1.32290
gfz2010kihf  -1.56770
gfz2010kmgg  -0.80350
gfz2010kyvj   1.20820
gfz2010kzml  -2.44110
gfz2010lcoq   0.47580
gfz2010lkcf   1.14160
gfz2010lopz  -0.03890
gfz2010lrlk   0.53210
gfz2010lyfk   1.51290
gfz2010mdpq  -0.13550
gfz2010mlkz   0.41210
gfz2010mpuy   0.31880
gfz2010ncrl   0.30280
gfz2010nfsj   0.15990
gfz2010nqwf   0.45390
gfz2010nqwo  -0.60040
gfz2010nrjo   0.96580
gfz2010nsck   0.60270
gfz2010nsdf  -5.02510
gfz2010ntuo   0.50080
gfz2010nxsy  -0.07850
gfz2010nxum   0.69050
gfz2010odpb   0.82890
gfz2010oedn   1.20110
gfz2010onma  -0.16180
gfz2010osjs   0.42840
gfz2010pfyu   0.20770
gfz2010plbg  -0.49790
gfz2010pxgh  -1.19850
gfz2010suww  -0.30900
gfz2010svtn   0.76440
gfz2010svve   1.59230
gfz2010swcy   0.10030
gfz2010sxwt   0.80620
gfz2010sysw  -0.36210
gfz2010tcrl  -0.29440
gfz2010tlfm   0.02340
gfz2010truw   0.56110
gfz2010txjs   1.22270
gfz2010upfb   0.27450
gfz2010usho   0.45970
gfz2010ustq   1.73100
gfz2010utcg   0.68860
gfz2010utmc   0.82950
gfz2010uvhf   1.02110
gfz2010uyhb   0.06680
gfz2010vbmd   0.36270
gfz2010vhuj   1.12420
gfz2010vtdg   0.18260
gfz2010wioh   0.42340
gfz2010wnty   1.04110
gfz2010wofs   0.71400
gfz2010wrxx   0.82460
gfz2010wxqa   1.37700
gfz2010xgzw   0.88610
gfz2010xjck  -0.97980
gfz2010xjsj   1.59910
gfz2010xnxk   0.85760
gfz2010yjev  -0.39450
gfz2010ymfy  -0.07220
gfz2010yosr   0.94660
gfz2010yqwx   0.25460
gfz2011aatr   0.36940
gfz2011adjs  -0.31790
gfz2011aeay   1.37720
gfz2011ahfw   1.70910
gfz2011alip   0.55000
gfz2011alsa   0.94150
gfz2011anur   0.74540
gfz2011aosc   0.60320
gfz2011aqxf   0.30970
gfz2011aupi   1.05630
gfz2011bgrp  -0.27300
gfz2011bhha   0.23470
gfz2011blsi  -1.00600
gfz2011cndo   0.37110
gfz2011csju  -0.71020
gfz2011cykd   0.46090
gfz2011cynl   2.53120
gfz2011cyre  -0.56990
gfz2011cyuk  -1.93190
gfz2011czwj   1.18940
gfz2011dbev   0.55590
gfz2011dbig   0.04760
gfz2011dbon   0.38390
gfz2011dbwt   0.77310
gfz2011dcqb   1.11500
gfz2011dcqf   0.42010
gfz2011dddh  -0.15010
gfz2011dkyi   0.77140
gfz2011dlyx   0.85020
gfz2011dmat   0.24120
gfz2011dpqx   0.25590
gfz2011duyr   1.38300
gfz2011ecaj   0.72730
gfz2011eebc   1.32180
gfz2011ehzq   0.79460
gfz2011eltw   1.21560
gfz2011enva  -0.29860
gfz2011etje   0.43710
gfz2011fgvr   0.55390
gfz2011fhag   1.52780
gfz2011fhbm   0.26390
gfz2011fhur   0.74010
gfz2011fkbn   0.55160
gfz2011flgj   0.69080
gfz2011fnsw   1.78980
gfz2011gbmx   1.14700
gfz2011gcwb   0.64500
gfz2011gdgh   0.50310
gfz2011ggvf   0.90620
gfz2011gkzt  -0.32550
gfz2011gzbr   1.30790
gfz2011haid   0.66770
gfz2011hbex   0.46290
gfz2011hebt   0.10000
gfz2011hfkj  -0.08550
gfz2011hlqw   0.10880
gfz2011hlsa  -0.02870
gfz2011hlth   0.64110
gfz2011hpgx   0.46630
gfz2011hpqp   0.33560
gfz2011hrhu  -0.11520
gfz2011hryk   0.93350
gfz2011hsfj  -1.40980
gfz2011hvbu   0.11010
gfz2011ieie   0.67610
gfz2011iwte   1.38930
gfz2011ixai   1.28820
gfz2011izqa  -0.33970
gfz2011izto  -0.08100
gfz2011jghb  -1.02870
gfz2011jmbn   0.06970
gfz2011jnmi   1.41390
gfz2011jplh  -0.43170
gfz2011jtlg   0.10820
gfz2011juid   0.41080
gfz2011jxpl   1.26630
gfz2011knoo   0.61920
gfz2011kqwo  -1.27540
gfz2011kqyg   0.19430
gfz2011kwid   0.60280
gfz2011kwjx   0.57750
gfz2011kwrf   1.41790
gfz2011kwsz   0.01920
gfz2011kxzp   0.72940
gfz2011lcxq   0.36500
gfz2011lczg   0.96290
gfz2011lgsg   1.24060
gfz2011lhls   1.59110
gfz2011lvjr   1.28410
gfz2011lzwj   0.61020
gfz2011mdie   0.67470
gfz2011mepc  -0.29690
gfz2011mllx   0.36570
gfz2011myia   1.31360
gfz2011nauw   1.08440
gfz2011noud   1.73940
gfz2011nrwc   0.80460
gfz2011nudm  -0.19120
gfz2011ogqk  -0.28870
gfz2011ohcy   1.33720
gfz2011olkk   2.01570
gfz2011oolr   0.64330
gfz2011orgn   0.47180
gfz2011ornx   0.97050
gfz2011owvz   1.49910
gfz2011pccd   1.42810
gfz2011phms   0.37710
gfz2011ptus   0.97450
gfz2011qvae   0.32010
gfz2011qyms   2.10570
gfz2011rabm   1.61680
gfz2011rewa  -0.30110
gfz2011rgwp   1.10790
gfz2011rqui   0.64200
gfz2011rsrh   1.19610
gfz2011sagt   0.69550
gfz2011shqm   0.33250
gfz2011stal   0.80670
gfz2011tbas   0.06100
gfz2011tcij   1.02080
gfz2011tjue   0.75770
gfz2011tkfp   0.79830
gfz2011tkog   0.27210
gfz2011toub   0.72380
gfz2011tpfr   0.58000
gfz2011tsfd   1.28520
gfz2011udsq   3.32720
gfz2011ugzz   1.64950
gfz2011ujze   0.81960
gfz2011uphh   0.49770
gfz2011urxy   0.95790
gfz2011urzu   1.11390
gfz2011uzqv   0.18490
gfz2011vhfi   1.13300
gfz2011vnza   1.35510
gfz2011vqnr   2.44620
gfz2011vrhg  -1.18370
gfz2011vxns  -0.07180
gfz2011wcic  -0.37920
gfz2011wfja   0.70860
gfz2011wijj   0.34070
gfz2011wjul   0.30490
gfz2011wtmq   0.76440
gfz2011wwjs   0.31940
gfz2011wxfs   0.85320
gfz2011wxoj   0.14640
gfz2011wxtk   0.90950
gfz2011xcpv   1.07160
gfz2011xesx   0.42850
gfz2011xqru   3.39840
gfz2011xyxj   1.16080
gfz2011yfdx   0.00000
gfz2011ytnu   1.20750
gfz2011yybo  -0.38710
gfz2011zklv   1.78160
gfz2011zqhh   0.65460
gfz2012ablh  -2.41330
gfz2012ajtq   1.18210
gfz2012aqtq  -0.10890
gfz2012bfah   0.89150
gfz2012bngd   1.26020
gfz2012bpkx  -0.03920
gfz2012bpnl   0.73680
gfz2012bpwl   0.62710
gfz2012bszs   1.37800
gfz2012byad  -0.11740
gfz2012cgvr  -0.35040
gfz2012ckxi   1.59550
gfz2012covm   1.19190
gfz2012cqnl  -0.39870
gfz2012cxdn   0.30520
gfz2012czlw  -0.48640
gfz2012deri   0.64850
gfz2012dimn   1.96510
gfz2012dyyh   0.89800
gfz2012ekda   0.78120
gfz2012ekzf   1.07100
gfz2012emjg   1.83360
gfz2012enno   0.44030
gfz2012ewgo   0.89300
gfz2012foeo   1.11120
gfz2012fwfo   1.13710
gfz2012fzfa   0.45230
gfz2012gkvr   0.98540
gfz2012gocc   0.33770
gfz2012gukw   0.81860
gfz2012hdbm   1.75870
gfz2012hnul   1.13890
gfz2012hogg   1.37890
gfz2012hwmz   2.01670
gfz2012iamr   0.59310
gfz2012iivw   1.56010
gfz2012ilvn   0.90450
gfz2012imay   0.14160
gfz2012intn   1.10550
gfz2012jjzc   1.06980
gfz2012jlox  -0.40110
gfz2012jshk   1.01800
gfz2012jupx   0.41220
gfz2012keor   0.73530
gfz2012kkup   0.45530
gfz2012klhx   0.02880
gfz2012kuct   1.27470
gfz2012kudo   0.55560
gfz2012kwgo   0.61110
gfz2012lczo  -0.17680
gfz2012ldxg  -0.48090
gfz2012ldzj   0.24640
gfz2012lrsv   0.76050
gfz2012lxkv  -0.32190
gfz2012minr   0.37540
gfz2012mvwr   0.62780
gfz2012mwij   1.88340
gfz2012naqz   0.78120
gfz2012nedn   0.19850
gfz2012nojx  -1.06630
gfz2012nolo  -0.09690
gfz2012nsbz   0.40660
gfz2012nutf   2.06400
gfz2012nxog   0.71670
gfz2012oazn   0.29670
gfz2012oedb   0.98380
gfz2012omvo   0.78420
gfz2012oqmw   0.60480
gfz2012pgcl   0.79710
gfz2012pqlt  -1.40590
gfz2012pqmu   0.10950
gfz2012priv   0.67840
gfz2012quso  -1.13450
gfz2012rats   0.38280
gfz2012repv   0.72660
gfz2012royy   0.25450
gfz2012rqlg   0.57430
gfz2012rwov  -0.07420
gfz2012rypu  -1.64530
gfz2012snhi  -0.92020
gfz2012sphd   0.38020
gfz2012sqmv   0.54120
gfz2012syvl   1.24520
gfz2012teic   0.40590
gfz2012tmop   0.36230
gfz2012ttoa   0.84280
gfz2012tvmv   0.84920
gfz2012uafg  -0.38360
gfz2012uciv   0.12300
gfz2012uhup   0.01390
gfz2012uvqf   0.77920
gfz2012uzyj   0.21890
gfz2012vrgb  -0.07350
gfz2012whku   0.87280
gfz2012wizz  -1.73920
gfz2012wklq  -1.23490
gfz2012wmsg  -0.01940
gfz2012wrir   0.50650
gfz2012wtkr   0.79400
gfz2012wubh   0.71140
gfz2012wvfl  -0.11620
gfz2012wxer   0.70200
gfz2012wxlg   0.05680
gfz2012wxnu   0.27000
gfz2012wybs   0.70590
gfz2012wypz   0.96940
gfz2012xbjq   0.89250
gfz2012xslk  -0.95700
gfz2012xvwn   1.66280
gfz2012zemh   1.10340
gfz2012zfag   0.82620
gfz2012zitl   0.39640
gfz2012zjpv   0.57190
gfz2012zmbp   0.79460
gfz2013apmm   1.25010
gfz2013bokp   1.60790
gfz2013bouj  -1.22260
gfz2013btjm  -0.32920
gfz2013cbsm   0.98400
gfz2013ccnr  -0.80790
gfz2013cvqg   0.84740
gfz2013cwpn   1.70480
gfz2013dddp  -0.73250
gfz2013dkly   1.51300
gfz2013dofo  -0.55710
gfz2013dojq   0.48380
gfz2013drxz  -0.48430
gfz2013dspt   1.80380
gfz2013dsrk  -0.78810
gfz2013dvyh   1.01570
gfz2013egpu   0.62670
gfz2013ewbo   1.29870
gfz2013fiud   1.00090
gfz2013fwxa   0.64540
gfz2013fygc   0.70290
gfz2013gdnq  -0.73280
gfz2013gihf   0.81690
gfz2013gjdc  -0.41500
gfz2013gngz   0.43700
gfz2013gock   0.84210
gfz2013hdnc   0.35460
gfz2013hxcx   1.02310
gfz2013iayx   1.06960
gfz2013ijsr   1.29140
gfz2013ikgo   0.11620
gfz2013ilug  -0.97530
gfz2013ippu   0.54590
gfz2013jesk   1.25200
gfz2013jgij  -0.40090
gfz2013jgip   1.69060
gfz2013jkut   0.39200
gfz2013jusj   0.26370
gfz2013jwvc   0.02220
gfz2013kccc   1.43300
gfz2013kdeo   0.01780
gfz2013kheb   2.02990
gfz2013khli   0.63660
gfz2013kilx   1.63890
gfz2013ldos  -3.25120
gfz2013ldpc   0.52630
gfz2013ldqb  -0.07820
gfz2013lgnl   0.88940
gfz2013lixa   0.30650
gfz2013lwbk   0.76390
gfz2013lyko   0.37200
gfz2013mmwq   0.54760
gfz2013mqmv   0.06580
gfz2013mwbh   0.59000
gfz2013ncjp   0.13200
gfz2013ndin   0.69250
gfz2013neuc   1.13910
gfz2013nixj   0.22190
gfz2013nkgj   0.20120
gfz2013nknw   1.20910
gfz2013nmac   0.96510
gfz2013nqgw   3.16600
gfz2013nwdi  -0.75200
gfz2013oejn   1.10930
gfz2013ogde   1.09910
gfz2013oqsc   0.15670
gfz2013ozrp   0.02550
gfz2013pcos   0.36870
gfz2013pfeb   1.02310
gfz2013ppqq  -0.45220
gfz2013pxsj   1.35700
gfz2013pxya   1.59780
gfz2013qali   1.51870
gfz2013qfmm   0.88200
gfz2013qmer   0.86990
gfz2013qnxc   0.82570
gfz2013qzdq   0.61030
gfz2013reym   0.44140
gfz2013rsnr   1.29790
gfz2013sart   3.11160
gfz2013sdus   0.80170
gfz2013sfto   0.79680
gfz2013skkm   0.20790
gfz2013snbr   1.32530
gfz2013snyf   0.59810
gfz2013sred  -3.90220
gfz2013suvn   1.12210
gfz2013svci  -0.28300
gfz2013tcbk   0.86320
gfz2013tcxc   0.58130
gfz2013tcxq   0.75630
gfz2013tdau  -0.03880
gfz2013tusd   0.74270
gfz2013tvmw   0.33640
gfz2013txij   0.78380
gfz2013txtb   0.70720
gfz2013uauo   0.14940
gfz2013ufxk  -0.72020
gfz2013ufxm   0.85010
gfz2013uqsp   1.38100
gfz2013uqvu   0.60060
gfz2013vexx   0.32950
gfz2013vfyw   1.70080
gfz2013vfzp   0.55870
gfz2013vgrk  -0.11080
gfz2013vhzu   2.49470
gfz2013viul   0.77650
gfz2013vjjc  -1.28780
gfz2013vzbo  -0.09330
gfz2013waam   0.09760
gfz2013wjmm   0.00000
gfz2013wnpr   0.73050
gfz2013xmul   1.86790
gfz2013xsdt   1.63020
gfz2013xwda  -0.13760
gfz2013xxwv   1.01910
gfz2013xxxq   1.03390
gfz2013yaig  -1.65330
gfz2013yctg   0.27400
gfz2013yqkv   1.02770
gfz2014adoj   0.76800
gfz2014afmx   0.12170
gfz2014ande   1.15120
gfz2014bagd   0.18900
gfz2014bezu   0.81380
gfz2014bfng  -1.39930
gfz2014bmta  -0.36900
gfz2014bwue   0.64170
gfz2014bzxy   0.25020
gfz2014chdv  -0.21350
gfz2014claq  -0.35670
gfz2014cmwb   1.10800
gfz2014cqyo   1.16200
gfz2014cvkm  -0.58950
gfz2014cvxx   0.86080
gfz2014czno   0.82250
gfz2014czqi   0.59610
gfz2014czua   2.26780
gfz2014dhxt   0.96160
gfz2014disp   0.59930
gfz2014duqn   1.80000
gfz2014ehsf   1.86760
gfz2014ekcr   0.69380
gfz2014ekdn   0.25090
gfz2014enhi  -0.07750
gfz2014femz   1.00140
gfz2014fgvi   0.70260
gfz2014fgvr   1.44740
gfz2014fhdw   0.31020
gfz2014fhla  -0.95210
gfz2014fhrq  -0.09800
gfz2014fhsg   0.58310
gfz2014fhwx   1.54200
gfz2014fimn   1.14930
gfz2014fkmr  -0.63930
gfz2014fnyg   1.10060
gfz2014gbcz  -0.15290
gfz2014gbdq  -2.04340
gfz2014ghpe   0.49180
gfz2014gkgf  -1.26170
gfz2014gkgs   0.86720
gfz2014gkhp  -0.43840
gfz2014gkhy   1.49850
gfz2014gkjl   0.09450
gfz2014gkjt   0.51420
gfz2014gkmm   0.46200
gfz2014gkob   1.87680
gfz2014gkqf   1.11650
gfz2014gkqu   1.00840
gfz2014gksj   2.21370
gfz2014gksu   0.69850
gfz2014gktq   1.75990
gfz2014glcu   1.22770
gfz2014gltx   1.28200
gfz2014gmge   0.23450
gfz2014gmhr   0.49500
gfz2014gmip   1.37990
gfz2014gmku   0.42290
gfz2014gmnb   0.62540
gfz2014gmnw   1.27600
gfz2014gmor   1.22950
gfz2014gmuk   1.34820
gfz2014gnnt   0.63350
gfz2014gnsi   0.46710
gfz2014goba   0.26040
gfz2014gogv   0.79940
gfz2014goqw   0.98680
gfz2014gori   2.18410
gfz2014gphr   0.06150
gfz2014gpya   0.90780
gfz2014gqer  -0.07420
gfz2014gqve   0.95850
gfz2014gsqs   0.02690
gfz2014gull   0.23380
gfz2014gvrd   1.47520
gfz2014gwab  -2.15280
gfz2014gxxo   1.24400
gfz2014hasj  -0.02070
gfz2014hauo   0.94820
gfz2014hbjm   0.67470
gfz2014hbqb   0.47660
gfz2014hcmj   0.48490
gfz2014hetr   0.70480
gfz2014hfhl   1.28540
gfz2014hgqo   0.40230
gfz2014hjgh   0.99750
gfz2014hjgr   0.47650
gfz2014hjij   1.02260
gfz2014hkcf   0.29590
gfz2014hmrs   1.30610
gfz2014hocg   0.45350
gfz2014hqxs   1.09640
gfz2014hrft   0.33890
gfz2014hriu  -0.46030
gfz2014hzfw  -0.55900
gfz2014hzgn  -0.50200
gfz2014ilwu  -0.09800
gfz2014iobd   1.06050
gfz2014irci  -0.20520
gfz2014itkw   1.98500
gfz2014itpj   1.04260
gfz2014iywt   0.99000
gfz2014jcjt   0.60630
gfz2014jird  -0.90570
gfz2014jjhc   0.43050
gfz2014jnxm   0.74360
gfz2014jnyv   0.64610
gfz2014jomw   0.82930
gfz2014jpep   0.69600
gfz2014jtfe  -2.00590
gfz2014jwmh   1.36210
gfz2014kbuk  -0.84710
gfz2014khlk  -1.39210
gfz2014kmmt   1.46820
gfz2014kndc   0.73550
gfz2014knks   0.55230
gfz2014knxs   1.43470
gfz2014kscf   3.80120
gfz2014kwie   0.53440
gfz2014kyan   0.92490
gfz2014kytf   0.77050
gfz2014lefs  -0.59760
gfz2014lgqn  -0.15520
gfz2014lrzx   1.31210
gfz2014lxnc   0.73140
gfz2014lyhk   0.52980
gfz2014lyhp   0.85980
gfz2014macx  -0.41650
gfz2014madw   1.73200
gfz2014moaw  -0.09730
gfz2014mtum   0.68560
gfz2014mxkr   0.55050
gfz2014nnxd   1.50970
gfz2014nowp   0.16410
gfz2014npeo   0.07080
gfz2014nphm   1.27830
gfz2014nqfm   0.31510
gfz2014nrie   0.17820
gfz2014ofhm  -0.07370
gfz2014oinz   0.04370
gfz2014owxc  -0.01700
gfz2014oyly   0.50360
gfz2014pjer  -0.89410
gfz2014pkll  -0.04270
gfz2014ppzf   0.37680
gfz2014pvch   0.88390
gfz2014qlxd   0.16800
gfz2014qngj   0.13630
gfz2014qqhm   0.16870
gfz2014raau   0.70040
gfz2014rdsn  -0.50850
gfz2014riel   0.02180
gfz2014romy  -1.27380
gfz2014rtcu  -3.42910
gfz2014rwos   0.51870
gfz2014sadu   1.01300
gfz2014sjqw   1.05280
gfz2014sptq   0.88440
gfz2014sryn  -0.04160
gfz2014ssmv   0.03740
gfz2014ssvz  -0.58800
gfz2014szzf  -3.05060
gfz2014tovs  -0.51580
gfz2014tqdo   0.14300
gfz2014tqly   0.38910
gfz2014tqsf  -0.04290
gfz2014tzsd   0.20840
gfz2014uapa  -0.31440
gfz2014ubwn   0.91070
gfz2014udgg  -0.33140
gfz2014uohh   1.16200
gfz2014uuuf   3.90830
gfz2014uvji   2.04480
gfz2014uvrk   0.06270
gfz2014vhld   0.65740
gfz2014vhms  -0.30080
gfz2014vjoz   0.44500
gfz2014waoo   0.06240
gfz2014watn   0.27280
gfz2014wjko  -0.16610
gfz2014wrkh  -0.76850
gfz2014xbyr   0.80230
gfz2014xjri   1.12070
gfz2014xoji   4.35650
gfz2014xqqd   0.19330
gfz2014ynhc   0.65410
gfz2014ynzy  -3.14660
gfz2014yppv   0.79180
gfz2014yyiy   0.43070
gfz2015apnk   0.43780
gfz2015arpd   0.27550
gfz2015aruz   0.26900
gfz2015atxv   0.27430
gfz2015bdyd   0.15360
gfz2015berb   0.71050
gfz2015bfjm   0.92600
gfz2015bkbj   0.78620
gfz2015bsnl  -1.19720
gfz2015bvsj   1.81010
gfz2015bvxx  -2.40050
gfz2015byfn   0.80910
gfz2015chhn  -0.71880
gfz2015chqn   0.68090
gfz2015cxhx   0.62140
gfz2015cxxk   0.27830
gfz2015cyjd   0.16700
gfz2015dizn   0.34220
gfz2015dskr   0.39820
gfz2015ecgq   0.90460
gfz2015egxq   1.24630
gfz2015ehpz   1.59660
gfz2015eiky   1.17060
gfz2015elgy  -0.51830
gfz2015etai   0.13520
gfz2015fbbk   0.61190
gfz2015fcua   0.48440
gfz2015fdpr   0.78020
gfz2015fjhk   0.06710
gfz2015fkgt  -0.49380
gfz2015fkuu   0.18760
gfz2015flis   0.46690
gfz2015fpez   0.35290
gfz2015fsjj   0.38050
gfz2015fxbv  -0.42880
gfz2015fxdi   0.77080
gfz2015gckd   0.24060
gfz2015ggjw   0.90100
gfz2015gkwa   1.05290
gfz2015gmgf   0.84570
gfz2015gnmy   1.57650
gfz2015gzja  -0.42210
gfz2015hgbk   0.54690
gfz2015hlqo   0.21580
gfz2015hpmk   0.35560
gfz2015iele  -0.22400
gfz2015imty   0.34180
gfz2015jkdw   0.41770
gfz2015jwgl  -0.03530
gfz2015jxbx  -0.02860
gfz2015jzcv   0.67690
gfz2015kakw   0.08790
gfz2015kcaa   0.71650
gfz2015kfsu  -0.03570
gfz2015kkqb   1.76100
gfz2015kkth   1.08100
gfz2015ksni   0.71630
gfz2015lfud   0.25270
gfz2015lhjq  -0.67830
gfz2015lhjy   0.84720
gfz2015ltii   0.58770
gfz2015lytv  -1.46660
gfz2015lzad   0.36800
gfz2015mddr   0.90000
gfz2015mhym   0.51320
gfz2015mpte  -0.47250
gfz2015nerz  -0.16990
gfz2015nuxz   0.05810
gfz2015nwug   0.87220
gfz2015ocdz   0.98700
gfz2015okmq   0.67300
gfz2015oyfl   0.17880
gfz2015poni   0.08980
gfz2015puah   0.98290
gfz2015puqp   0.39200
gfz2015qnho   0.33000
gfz2015qpvd  -0.37480
gfz2015quzo   0.30920
gfz2015rgrg   1.38830
gfz2015rkbq   0.88360
gfz2015rkrg   0.40660
gfz2015rkzg   0.81320
gfz2015rxmg   0.52580
gfz2015saet   1.72180
gfz2015sfdd  -0.33030
gfz2015sfdy   0.54290
gfz2015sfeo   0.52810
gfz2015sfga  -0.65710
gfz2015sfhz   0.20280
gfz2015sfiq  -0.95910
gfz2015sfko   0.36850
gfz2015sflf   0.49480
gfz2015sfnb   0.14770
gfz2015sfno  -0.47580
gfz2015sfnv   0.55320
gfz2015sfoc   0.07720
gfz2015sfom   0.95430
gfz2015sfoq   1.44010
gfz2015sfpj   0.66420
gfz2015sfps   0.49680
gfz2015sfqo   0.26990
gfz2015sfqr   0.82070
gfz2015sftu   0.20070
gfz2015sfuz   0.08180
gfz2015sfwf   1.03840
gfz2015sgad   0.84040
gfz2015sgna   0.40620
gfz2015sgyd   0.59920
gfz2015shhu   0.95450
gfz2015shjn  -0.04420
gfz2015shlp   0.01960
gfz2015shrg  -0.18220
gfz2015shsz  -0.41480
gfz2015sist  -0.29080
gfz2015sitn   0.38210
gfz2015sjbx   0.52840
gfz2015sjfi   1.70680
gfz2015sjgk   0.33970
gfz2015sjjb   0.71590
gfz2015sjne   0.46080
gfz2015sjoj   0.14230
gfz2015sjvu   0.53440
gfz2015sjwi  -0.56470
gfz2015skuk  -0.94260
gfz2015skxu   0.85940
gfz2015sldx   0.18850
gfz2015sljs   0.38140
gfz2015smym   0.24940
gfz2015snsf   0.63530
gfz2015snwh  -0.53240
gfz2015snyd   0.93680
gfz2015soat   0.75100
gfz2015soxc  -0.25100
gfz2015sqmy  -0.13940
gfz2015srat   0.24450
gfz2015sryk  -0.03820
gfz2015sspn  -0.08050
gfz2015stfy  -0.20580
gfz2015subz   0.90500
gfz2015svwm  -0.33660
gfz2015sxmh   0.58820
gfz2015szcb   0.48810
gfz2015taml   0.83840
