# Nsamples: 557  MAD:  0.657  mean: -0.433  variance:  0.752
gfz2010aerk  -0.83180
gfz2010ahqi  -1.22350
gfz2010bfzs  -0.63040
gfz2010bgth  -0.28150
gfz2010bhhq   0.51790
gfz2010bifb  -2.47850
gfz2010bjeb  -0.57720
gfz2010bjjx  -2.26080
gfz2010bjsl  -3.25020
gfz2010bkob  -0.28050
gfz2010bowy  -1.53270
gfz2010bxxs  -1.22260
gfz2010caft  -0.78180
gfz2010cbkg  -0.46720
gfz2010civi  -1.31550
gfz2010cjqh  -1.14070
gfz2010cqwl  -0.99720
gfz2010ctuw  -1.31470
gfz2010czps  -0.88030
gfz2010dejx  -0.21850
gfz2010diqn  -0.59660
gfz2010dlgc  -0.71230
gfz2010eaoy  -0.33890
gfz2010eapk  -1.57350
gfz2010eapn   0.45470
gfz2010eaqe  -1.18200
gfz2010eaqx  -0.44850
gfz2010eaqy  -0.54310
gfz2010earq  -0.03920
gfz2010earu  -1.31690
gfz2010easo  -0.49990
gfz2010easu  -0.38830
gfz2010eato  -0.36900
gfz2010eatt   1.74830
gfz2010eaty   0.11280
gfz2010eaul  -0.51000
gfz2010eavp  -0.12600
gfz2010eavs  -1.05270
gfz2010eawb  -1.47630
gfz2010eawu  -0.62430
gfz2010eaxa  -1.00550
gfz2010eayx  -0.97430
gfz2010eaze  -1.05130
gfz2010eazu   0.84140
gfz2010ebbd  -0.65720
gfz2010ebdl   0.03860
gfz2010ebek   0.19020
gfz2010ebhc  -1.26880
gfz2010ebla   0.14010
gfz2010ebmb  -1.66560
gfz2010ebnn  -0.50540
gfz2010ebvm   0.34100
gfz2010ebwp  -0.41620
gfz2010ebzr  -0.26030
gfz2010ecam  -0.04440
gfz2010ecay  -0.68230
gfz2010eced  -0.44600
gfz2010echc   0.40310
gfz2010ecns  -0.27470
gfz2010ecps   0.55940
gfz2010ecua  -0.23360
gfz2010ecuv  -0.27990
gfz2010ecvt  -0.32470
gfz2010edat   0.17300
gfz2010eday  -0.33540
gfz2010edbz  -0.09730
gfz2010edcp   4.49920
gfz2010edpb   0.04080
gfz2010edsk  -0.87070
gfz2010edvf   0.10230
gfz2010edyi  -1.81380
gfz2010edzb  -0.99070
gfz2010eedu  -0.98220
gfz2010eedz   0.13650
gfz2010eeij  -1.07470
gfz2010eekq  -0.68970
gfz2010eerh  -1.17670
gfz2010eern   0.53690
gfz2010eevu  -0.90930
gfz2010egld  -0.85810
gfz2010ehft  -0.03360
gfz2010ehnm  -0.26800
gfz2010eltf  -0.82060
gfz2010elvp  -1.18080
gfz2010elyc  -0.19250
gfz2010epbe  -0.27600
gfz2010epxj  -0.04950
gfz2010eqmu   0.60740
gfz2010erkn  -0.84350
gfz2010erna  -0.86070
gfz2010erom  -0.04240
gfz2010erum   6.99610
gfz2010eruy  -0.50000
gfz2010erwn  -0.30020
gfz2010erxb  -0.21070
gfz2010eryg  -1.57680
gfz2010eujm  -0.37250
gfz2010evco   0.46890
gfz2010ewvc  -1.87840
gfz2010excp  -0.65560
gfz2010exdd  -0.71550
gfz2010exel  -0.03060
gfz2010exgb  -0.79520
gfz2010exhw  -1.10000
gfz2010exmc  -0.55540
gfz2010exno  -0.73670
gfz2010exsg  -0.98660
gfz2010eymr  -0.47920
gfz2010eymx  -0.82980
gfz2010eyqe  -2.31110
gfz2010eyvq  -1.54800
gfz2010ezck  -0.36760
gfz2010fcax  -1.05780
gfz2010fciw  -0.65610
gfz2010fczt  -1.27590
gfz2010fedq  -0.54920
gfz2010ffhq  -0.83060
gfz2010ffjb  -0.49160
gfz2010fika  -0.21930
gfz2010fjas  -0.55220
gfz2010flrt  -0.21120
gfz2010flxi  -0.60330
gfz2010fobc  -0.06370
gfz2010fona  -0.95250
gfz2010fpqy  -1.20240
gfz2010fser   0.28960
gfz2010ftlm  -0.86060
gfz2010fuuy  -0.37180
gfz2010fwpv   0.09530
gfz2010fyen  -0.04470
gfz2010fync  -0.83240
gfz2010gcdn   0.30140
gfz2010gcrl  -0.97570
gfz2010gcrp   0.23210
gfz2010gjia   0.33910
gfz2010glqr  -0.59600
gfz2010glxl  -0.48910
gfz2010gslu  -1.14360
gfz2010gyqp  -0.93420
gfz2010gzxr  -0.74940
gfz2010hbka  -0.05520
gfz2010hcio  -0.53880
gfz2010hlmq  -0.88830
gfz2010hnnf  -0.08560
gfz2010homc  -2.35770
gfz2010hptz  -0.99800
gfz2010hrkr  -0.28960
gfz2010hrpr  -0.48280
gfz2010hufk  -1.66270
gfz2010hxgv  -0.60390
gfz2010ibiy  -0.47450
gfz2010icqq   0.04240
gfz2010iobp  -0.41410
gfz2010iqnm  -1.60570
gfz2010irqr   0.00000
gfz2010irvf  -0.44650
gfz2010itpb  -0.55700
gfz2010iull  -0.35010
gfz2010izzj  -0.55980
gfz2010jkxj  -3.28490
gfz2010jxbm  -0.05010
gfz2010kcoo   0.19360
gfz2010kdyc  -0.22620
gfz2010kihf   0.85330
gfz2010kmgg  -0.33030
gfz2010lepw   1.61130
gfz2010liqs   0.90850
gfz2010lkcf  -0.39320
gfz2010mant   0.18070
gfz2010mkuu  -0.08880
gfz2010moyw  -1.01160
gfz2010nnny   0.52050
gfz2010nqwf  -4.08970
gfz2010nqwo  -0.64340
gfz2010nrjo   0.07880
gfz2010nsck  -0.67750
gfz2010nsdf   0.20820
gfz2010nsjs  -0.47120
gfz2010ntuo   0.20160
gfz2010nwef  -0.39090
gfz2010nxsy  -0.21140
gfz2010nxum  -0.71710
gfz2010odpb  -1.05970
gfz2010oedn  -1.29610
gfz2010okdm  -0.45360
gfz2010onma  -1.33640
gfz2010osjs  -0.87520
gfz2010otbn  -1.71730
gfz2010pcxi  -1.21310
gfz2010pfyu  -1.28670
gfz2010plbg  -1.90840
gfz2010pmqd  -0.32350
gfz2010pxgh  -2.72620
gfz2010qjst   0.20670
gfz2010qpvi  -0.44990
gfz2010rkfp  -0.43410
gfz2010rqwj  -0.76920
gfz2010sfee  -0.31610
gfz2010srdb  -0.44310
gfz2010szde  -0.62130
gfz2010szim  -0.83410
gfz2010txjs   0.18030
gfz2010upfb  -0.24050
gfz2010usho   1.27980
gfz2010ustq  -0.67440
gfz2010utcg  -0.10750
gfz2010veri  -0.57920
gfz2010wioh  -1.64790
gfz2010yjev   0.61910
gfz2011aatr  -0.92670
gfz2011adjs  -1.32740
gfz2011ahfw  -0.83890
gfz2011alip  -1.09530
gfz2011bgrp  -0.28490
gfz2011bhha  -0.17380
gfz2011blsi   2.82050
gfz2011bnzn  -2.43430
gfz2011ccpw  -0.04670
gfz2011csju  -1.08920
gfz2011cykd  -1.28010
gfz2011cyre   0.31600
gfz2011dbev  -0.27080
gfz2011dbig  -0.28310
gfz2011dbon  -0.60970
gfz2011dcqb  -1.05300
gfz2011dcqf  -0.96480
gfz2011dlyx  -0.86650
gfz2011dpqx  -0.90060
gfz2011eayc  -0.61940
gfz2011eazf   0.19760
gfz2011ecaj  -0.72140
gfz2011ehzq  -0.20250
gfz2011enva  -0.38950
gfz2011etje  -0.80580
gfz2011fgvr   1.04800
gfz2011gbmx   0.42020
gfz2011gcwb  -0.13160
gfz2011gkzt  -1.01230
gfz2011gzbr  -0.63680
gfz2011hfkj  -0.92890
gfz2011hlqw  -0.99660
gfz2011hlsa  -0.83580
gfz2011hpgx  -1.03570
gfz2011hpqp  -0.21600
gfz2011ieie   0.03470
gfz2011izqa  -1.99520
gfz2011jmbn  -0.62230
gfz2011jnmi  -0.41450
gfz2011jplh  -1.48550
gfz2011kqwo   1.45510
gfz2011kxzp  -0.85610
gfz2011lcxq   0.20460
gfz2011lvjr   0.37850
gfz2011mdie  -0.53400
gfz2011mpme   0.25480
gfz2011myia   0.50650
gfz2011necz   0.38340
gfz2011phms  -0.24470
gfz2011ptus  -0.74980
gfz2011qvae  -0.94060
gfz2011rsrh  -0.32880
gfz2011sagt   0.42040
gfz2011uphh  -0.89470
gfz2011urxy   1.39030
gfz2011vhfi  -0.23520
gfz2011vldk  -2.23960
gfz2011wwjs   0.07610
gfz2011wxfs  -0.90840
gfz2011wxtk  -1.26940
gfz2011xaan  -1.43300
gfz2011xyxj   1.11490
gfz2012bfah   2.28030
gfz2012bfyn   0.66900
gfz2012bngd  -1.00410
gfz2012bpkx  -1.48540
gfz2012bpwl  -0.36850
gfz2012byad  -0.70900
gfz2012cevz   0.66350
gfz2012covm   0.58580
gfz2012cxdn  -0.33110
gfz2012dinb  -0.92000
gfz2012dyyh   0.13040
gfz2012ekda  -0.69080
gfz2012enno  -0.87620
gfz2012ewgo   0.17820
gfz2012fwfo  -0.51910
gfz2012fzfa  -1.28390
gfz2012fzsq  -2.28320
gfz2012glss   0.45180
gfz2012hnul   0.08160
gfz2012hnuw   0.42090
gfz2012ihdl  -0.24600
gfz2012ilvn  -0.54300
gfz2012intn   0.36450
gfz2012jgvj  -1.00790
gfz2012jlox  -0.52830
gfz2012jupx  -1.02920
gfz2012kudo  -1.13350
gfz2012lczo  -1.12590
gfz2012ldxg  -0.18630
gfz2012ldzj   0.09310
gfz2012llug  -0.60010
gfz2012rjsd  -0.49960
gfz2012rwov  -1.32110
gfz2012rypu  -1.89120
gfz2012sjea  -0.19070
gfz2012spbj  -0.83540
gfz2012syvl   0.04260
gfz2012teic   0.27030
gfz2012thfx  -0.06070
gfz2012ttoa  -0.22910
gfz2012tvmv   0.15660
gfz2012tzcc  -0.24390
gfz2012uafg  -0.77370
gfz2012uaqj  -0.50000
gfz2012uhup  -1.46840
gfz2012ulpd  -0.07610
gfz2012uzyj   0.18970
gfz2012vrgb  -0.05000
gfz2012wklq  -1.35310
gfz2012wmkd  -1.70910
gfz2012wmsg  -1.29300
gfz2012wtkr  -0.07850
gfz2012wvfl  -0.56780
gfz2012wxer   0.26490
gfz2012wxlg  -0.92260
gfz2012wxnu  -0.33010
gfz2012wypz  -0.94290
gfz2012xyqp  -0.57140
gfz2012zemz  -0.03540
gfz2012zitl  -0.47810
gfz2012zmbp  -0.66500
gfz2012zmln  -0.35170
gfz2013aahq  -0.33710
gfz2013axoj  -0.60150
gfz2013ccnr  -1.29610
gfz2013cvqg  -0.08780
gfz2013cwpn  -0.14540
gfz2013dkly   0.10760
gfz2013dofo  -1.13610
gfz2013drxz  -1.41020
gfz2013fkcl   1.02190
gfz2013gvdb   1.98860
gfz2013gvex  -0.15510
gfz2013huwr   0.04300
gfz2013ifpq   1.85290
gfz2013ijsr   0.17760
gfz2013ikgo  -0.12670
gfz2013jesk   1.16310
gfz2013jgij  -0.14830
gfz2013jgip  -0.03870
gfz2013jkut   0.41330
gfz2013lajn   0.75470
gfz2013lbiu  -0.11730
gfz2013lixa  -1.35380
gfz2013lmrs  -1.97710
gfz2013lwbk  -0.96700
gfz2013lyko  -0.51280
gfz2013mvgr  -1.29440
gfz2013mwbh  -0.16690
gfz2013ncjp  -1.28410
gfz2013neuc   0.63350
gfz2013nfwx  -0.21180
gfz2013nixj   0.21400
gfz2013nkgj  -0.20870
gfz2013nnzf  -0.81390
gfz2013nqgw   0.74760
gfz2013nvdj  -1.82160
gfz2013nwdi  -0.41170
gfz2013ozrf  -2.66100
gfz2013ozrp  -0.94410
gfz2013pfbx   0.17360
gfz2013pxsj   2.04490
gfz2013qali   0.27530
gfz2013qmer  -0.39100
gfz2013qzdq  -0.60030
gfz2013skkm  -0.39490
gfz2013stht  -0.55430
gfz2013svci  -0.00180
gfz2013tcbk  -0.37980
gfz2013tcxc  -1.27710
gfz2013tcxq  -1.51540
gfz2013tlaf  -1.38800
gfz2013tusd  -1.05110
gfz2013tvmw  -0.51240
gfz2013tyas  -1.44200
gfz2013ugax  -0.19080
gfz2013vfyw   0.45750
gfz2013vfzp   0.52220
gfz2013vjjc  -1.44290
gfz2013wjmm  -0.47620
gfz2013wmfd  -0.56340
gfz2013wnpr   0.66230
gfz2013xmqg   0.52390
gfz2013xpsm  -0.48940
gfz2013xsdt   0.09380
gfz2013xvqd   0.66080
gfz2013xvxf  -0.20700
gfz2013xwda  -1.12920
gfz2013xxwv  -0.14810
gfz2013xxxq  -0.27960
gfz2013xyzb   0.14720
gfz2013yctg  -0.80100
gfz2013yqkv  -0.15320
gfz2013zmoc  -0.27530
gfz2014adoj  -0.56260
gfz2014algk  -0.50030
gfz2014arpf  -0.07840
gfz2014arqr  -1.32750
gfz2014arsr  -0.83370
gfz2014bagd  -1.56760
gfz2014bekc  -1.61590
gfz2014bldx  -0.43660
gfz2014cmwb  -0.33880
gfz2014cvkm  -0.35460
gfz2014czno  -0.97350
gfz2014czol   0.42460
gfz2014czqi  -0.38980
gfz2014czua   0.64840
gfz2014dddc   1.59700
gfz2014dffd  -0.93490
gfz2014ebmc  -0.23120
gfz2014ekcr  -0.10950
gfz2014ekdt   0.51580
gfz2014enhi  -0.14400
gfz2014ettc  -1.00960
gfz2014ezgb   0.21410
gfz2014femz   0.23050
gfz2014fgvi   0.44160
gfz2014fhla  -1.90100
gfz2014fjxd   0.94760
gfz2014fkmr   0.02750
gfz2014fkmx  -0.32150
gfz2014fknp  -0.16890
gfz2014flfa   0.89900
gfz2014frdz   0.30170
gfz2014frel   0.96370
gfz2014frez   0.27630
gfz2014ftka  -0.53540
gfz2014fvaa   0.23790
gfz2014fval   0.25510
gfz2014fvjl  -0.02150
gfz2014fvrg  -0.14990
gfz2014gbcz  -1.56720
gfz2014gbdq  -0.18300
gfz2014ghpe  -0.04420
gfz2014gkgf  -0.48240
gfz2014gkgs  -0.71340
gfz2014gkok   0.74910
gfz2014gkqf   0.82230
gfz2014gktq  -1.99160
gfz2014gmge  -0.50440
gfz2014gmhr  -0.74820
gfz2014gmnb   0.59480
gfz2014gmnw   0.40620
gfz2014gmuw  -0.29940
gfz2014goba   0.27540
gfz2014gpya  -0.91010
gfz2014gull  -0.54770
gfz2014hbqb  -0.22490
gfz2014hfhl  -0.42260
gfz2014hgqo   0.02840
gfz2014hjgr   0.39180
gfz2014hocg  -0.73610
gfz2014hqxs   1.49680
gfz2014hscz  -0.46150
gfz2014huaj   0.05810
gfz2014hyvq   0.74310
gfz2014hzdy  -0.01900
gfz2014hzfw  -1.37590
gfz2014hzgn  -0.36090
gfz2014icqt  -0.03920
gfz2014inbj  -0.22420
gfz2014itfc  -0.09720
gfz2014itjx  -0.66760
gfz2014itkw   0.01810
gfz2014itpj  -0.93140
gfz2014jjhc  -0.63820
gfz2014jwmh   0.57920
gfz2014kara  -1.69050
gfz2014kbuk  -0.27110
gfz2014kndc  -0.55750
gfz2014knks   0.18700
gfz2014ksdv  -0.35940
gfz2014lddn  -0.45120
gfz2014lefs  -0.63440
gfz2014lgqn  -0.07990
gfz2014lkyf  -0.45130
gfz2014lxnc  -0.30050
gfz2014lyhk   0.39930
gfz2014lyhp  -0.36150
gfz2014lynp   0.16680
gfz2014macx  -0.50940
gfz2014madw  -0.51020
gfz2014mhgg  -1.17380
gfz2014nkdx  -0.36490
gfz2014nowp   0.22470
gfz2014npdk  -0.67350
gfz2014npeo  -0.09360
gfz2014nqfm  -0.15640
gfz2014nrie  -0.26000
gfz2014ntdh   0.20190
gfz2014oinz  -0.29290
gfz2014owxc   0.71750
gfz2014oxcc   0.33990
gfz2014oyly  -1.20070
gfz2014pkll  -0.21800
gfz2014ppzf  -0.84970
gfz2014pvch   0.35570
gfz2014qlxd  -0.53660
gfz2014qngj  -0.56670
gfz2014qqhm  -0.30920
gfz2014rbsl  -0.93650
gfz2014ssmv  -0.60780
gfz2014ssvz  -1.67440
gfz2014szzf   0.03310
gfz2014tovs  -2.22640
gfz2014tqdo  -0.35320
gfz2014ubwn  -0.95610
gfz2014uvji  -1.47000
gfz2014vhld  -0.74830
gfz2014vhms  -0.58120
gfz2014watn  -0.79380
gfz2014wmsc  -0.16240
gfz2014xbyr  -0.09320
gfz2014xqqd  -2.72510
gfz2014yula  -0.52760
gfz2014zlgp   0.04830
gfz2015alzx  -0.90360
gfz2015apnk  -0.85290
gfz2015aruz  -1.09860
gfz2015berb  -1.15110
gfz2015bucr  -0.76580
gfz2015chhn  -1.56140
gfz2015chqn  -0.07730
gfz2015cxhx   0.00000
gfz2015cxrc  -0.46690
gfz2015cxxk  -1.37040
gfz2015cyjd  -1.01500
gfz2015dizn  -2.01960
gfz2015dvbn  -1.14790
gfz2015egxq  -0.11420
gfz2015eiky   0.42970
gfz2015elgy  -0.66120
gfz2015eljz  -1.18420
gfz2015emtg   0.60340
gfz2015etai  -0.73870
gfz2015eyqs  -0.07190
gfz2015fcua  -0.37570
gfz2015fjhk   0.06240
gfz2015fkbc  -0.70090
gfz2015fkgt  -1.50850
gfz2015fkic  -0.60700
gfz2015fsjj  -0.15160
gfz2015fxdi  -0.42830
gfz2015gckd  -0.58660
gfz2015gkwa  -0.00000
