# Nsamples: 1806  MAD:  0.802  mean: -1.771  variance:  0.905
gfz2010aban  -0.89950
gfz2010aerk  -2.39210
gfz2010bowy  -2.78330
gfz2010boxo  -1.52610
gfz2010bpda  -3.46900
gfz2010bxxs  -1.79390
gfz2010caft  -2.16110
gfz2010cbkg  -2.28560
gfz2010chnv  -1.51080
gfz2010cind  -2.50970
gfz2010civi  -1.83350
gfz2010ckzm  -2.49850
gfz2010dtmx  -2.62140
gfz2010dumm  -2.98810
gfz2010eaoy  -1.11030
gfz2010eapk  -1.35910
gfz2010eapn  -0.82510
gfz2010eaqe  -1.21520
gfz2010eaqx  -1.45370
gfz2010eaqy  -0.73280
gfz2010earq  -2.11480
gfz2010earu  -2.23570
gfz2010easf  -1.53280
gfz2010eask  -2.35670
gfz2010easo  -1.30630
gfz2010easu  -1.21600
gfz2010eati  -1.14500
gfz2010eato  -0.62620
gfz2010eatt  -2.51400
gfz2010eaty  -1.46800
gfz2010eaul  -1.20250
gfz2010eavs  -1.22050
gfz2010eawb  -0.94990
gfz2010eawu  -2.68470
gfz2010eaxa  -0.95860
gfz2010eaxn  -1.70040
gfz2010eaya   2.75560
gfz2010eayd  -0.77990
gfz2010eayp  -1.49060
gfz2010eayx  -2.53040
gfz2010eaze  -1.23040
gfz2010eazu  -0.90280
gfz2010ebbd  -2.00790
gfz2010ebbx  -1.24860
gfz2010ebby  -1.32640
gfz2010ebdl  -0.87110
gfz2010ebek  -0.93950
gfz2010ebfa  -1.02510
gfz2010ebfx  -0.86660
gfz2010ebgj  -1.12000
gfz2010ebhc  -1.96530
gfz2010ebih  -1.91540
gfz2010ebin  -3.74240
gfz2010ebiv  -1.26140
gfz2010ebjg  -0.25270
gfz2010ebjy  -1.16210
gfz2010ebkj  -2.23440
gfz2010ebkx  -1.99160
gfz2010ebla  -0.98880
gfz2010ebll  -0.36700
gfz2010ebnn  -1.38490
gfz2010ebpa  -1.33340
gfz2010ebqt  -1.82410
gfz2010ebqz  -2.08360
gfz2010ebrm  -1.49250
gfz2010ebsv  -0.40020
gfz2010ebtk  -0.97870
gfz2010ebvm  -1.19380
gfz2010ebvv  -1.82080
gfz2010ebwp  -1.00930
gfz2010ebxl  -1.53600
gfz2010ebze  -1.74340
gfz2010ebzk  -2.16330
gfz2010ebzr  -1.21560
gfz2010ecam  -1.64910
gfz2010ecay  -1.46530
gfz2010ecbi  -1.51620
gfz2010eccq  -0.87480
gfz2010ecdu  -1.68080
gfz2010eced  -2.44640
gfz2010ecft  -1.41700
gfz2010ecfx  -1.51050
gfz2010ecfy  -1.51790
gfz2010ecgh  -1.07790
gfz2010echc  -1.10500
gfz2010echt  -1.72390
gfz2010echy  -0.65910
gfz2010ecls  -1.04280
gfz2010ecml  -2.02730
gfz2010ecnm  -1.73260
gfz2010ecns  -1.91890
gfz2010ecpg   0.10330
gfz2010ecps  -0.80300
gfz2010ecro  -2.79670
gfz2010ectq  -0.40060
gfz2010ecua  -2.05060
gfz2010ecuv  -0.84650
gfz2010ecvt  -1.69930
gfz2010ecyr  -1.77270
gfz2010edad  -5.20220
gfz2010eday  -1.87780
gfz2010edbz  -0.58900
gfz2010edcp  -2.78900
gfz2010edde  -0.21670
gfz2010edhr  -1.48610
gfz2010edhv  -0.90430
gfz2010edim  -2.06110
gfz2010edji  -0.66080
gfz2010edkp  -0.92030
gfz2010edoq  -1.37650
gfz2010edpb  -1.05540
gfz2010edqd  -2.61830
gfz2010edqh  -2.05590
gfz2010edsk  -1.68820
gfz2010edsn  -0.89550
gfz2010edsy  -1.75340
gfz2010edvf  -1.22110
gfz2010edyi  -3.32590
gfz2010edzb  -2.18500
gfz2010eedu  -2.42200
gfz2010eedz  -1.39630
gfz2010eefh  -0.86770
gfz2010eefo  -2.31640
gfz2010eegn  -3.90090
gfz2010eeia  -1.82430
gfz2010eeij  -1.12250
gfz2010eekg  -1.91740
gfz2010eekq  -2.14930
gfz2010eell  -0.02940
gfz2010eeng  -1.86560
gfz2010eeqy  -6.08550
gfz2010eerh  -1.68800
gfz2010eern  -1.11430
gfz2010eesf  -1.44090
gfz2010eevu  -1.39060
gfz2010eexz  -0.72060
gfz2010eeyh  -2.00030
gfz2010efak  -0.98660
gfz2010efbh  -2.10410
gfz2010efbi  -0.71940
gfz2010efkc  -1.69050
gfz2010efls  -1.12420
gfz2010efnf  -2.25520
gfz2010efsq  -1.88060
gfz2010efwo  -1.78430
gfz2010efxf  -2.09390
gfz2010egap  -0.57350
gfz2010eghq  -1.69210
gfz2010egld  -1.24140
gfz2010egln  -1.53740
gfz2010egmp  -1.53260
gfz2010egqh  -1.75780
gfz2010egsw  -0.97160
gfz2010egsy  -1.63270
gfz2010egyy  -2.02990
gfz2010ehaj  -2.62280
gfz2010ehft  -1.67910
gfz2010ehnl   0.66490
gfz2010ehnm  -1.61730
gfz2010ehsy  -1.69650
gfz2010ehvj  -0.99570
gfz2010ehxz   0.00000
gfz2010eimf  -1.16380
gfz2010eioi  -1.41710
gfz2010eisx  -1.95600
gfz2010eixj  -2.51790
gfz2010ejco  -1.55000
gfz2010ejjg  -1.98930
gfz2010ejju  -0.97310
gfz2010ejka  -0.56460
gfz2010ejma  -0.77710
gfz2010ejxf  -1.86010
gfz2010ekaw  -1.76190
gfz2010ekoe  -1.57440
gfz2010ekrv  -1.13760
gfz2010ekyc  -2.97590
gfz2010elhv  -1.80350
gfz2010elin  -2.79140
gfz2010eljf  -0.60850
gfz2010elsw  -1.82220
gfz2010eltf  -1.37240
gfz2010elvp  -1.92000
gfz2010elxi  -2.10810
gfz2010elyc  -3.26350
gfz2010elyo  -1.03780
gfz2010elzf  -1.72020
gfz2010emoz  -1.02080
gfz2010emyz  -2.19010
gfz2010encm  -3.15060
gfz2010engw   5.27490
gfz2010enpa  -1.09980
gfz2010ensu  -0.81120
gfz2010enzl  -2.52350
gfz2010eoao  -2.02690
gfz2010eohh  -1.68100
gfz2010epbe  -1.83710
gfz2010epud  -2.76440
gfz2010epxj  -2.12080
gfz2010eqcn  -2.71290
gfz2010eqjg  -1.71800
gfz2010eqmu  -7.49870
gfz2010eqse  -0.54630
gfz2010eqwl  -3.19030
gfz2010erda  -0.86850
gfz2010erdi  -0.23370
gfz2010erfy  -2.62640
gfz2010erig  -1.60970
gfz2010erkn  -2.13820
gfz2010erna  -1.66330
gfz2010erom  -1.43680
gfz2010erum  -1.45400
gfz2010eruy  -2.08440
gfz2010erwn  -2.27780
gfz2010erxb  -0.95160
gfz2010erxk  -0.67920
gfz2010eryg  -1.50230
gfz2010esid  -0.60600
gfz2010esmg  -2.12280
gfz2010esou   2.37110
gfz2010eted  -2.10470
gfz2010etfw  -1.68840
gfz2010euae  -1.48170
gfz2010euan  -0.80030
gfz2010eujm  -2.25000
gfz2010eutw  -2.31610
gfz2010euvl  -1.53290
gfz2010euwb  -1.57230
gfz2010euxe  -1.19870
gfz2010evco  -1.62460
gfz2010evgf  -2.34280
gfz2010evjv  -1.30230
gfz2010evkd  -0.73410
gfz2010ewbc  -1.44670
gfz2010ewpq  -0.58080
gfz2010ewvc  -2.26500
gfz2010ewyu  -1.85320
gfz2010excp  -1.35600
gfz2010exdd  -1.58610
gfz2010exed  -1.66550
gfz2010exel  -1.59470
gfz2010exfb  -1.89490
gfz2010exgb  -1.41330
gfz2010exhd  -1.37090
gfz2010exhw  -2.11550
gfz2010exjw  -0.91730
gfz2010exlm  -1.60550
gfz2010exno  -1.49790
gfz2010exou  -1.19500
gfz2010exqu  -1.95800
gfz2010exts  -0.63360
gfz2010exyp  -1.60110
gfz2010eyaz  -0.33530
gfz2010eybj  -2.35740
gfz2010eyhh  -1.81410
gfz2010eyiv  -1.63730
gfz2010eymr  -1.41250
gfz2010eymx  -1.00830
gfz2010eyqe  -1.56610
gfz2010eyvq  -1.09690
gfz2010ezck  -0.50820
gfz2010ezuj  -2.08240
gfz2010ezvg  -1.68850
gfz2010ezvt  -1.60140
gfz2010ezwz  -1.47880
gfz2010ezxd  -1.62590
gfz2010faeu  -2.52350
gfz2010falm  -1.27590
gfz2010fauz  -2.66960
gfz2010faxg  -5.10630
gfz2010fbeu  -1.78250
gfz2010fbpi  -2.71980
gfz2010fbwe   0.02100
gfz2010fcax  -1.75070
gfz2010fcdw  -1.08200
gfz2010fciw  -1.60770
gfz2010fcnn  -1.63000
gfz2010fcnt  -1.70780
gfz2010fcxy  -1.15700
gfz2010fcyj  -2.44030
gfz2010fczt  -1.67220
gfz2010fdab  -0.73830
gfz2010fdxr  -0.77460
gfz2010fedq  -1.48560
gfz2010fefr  -0.99040
gfz2010ffhq  -1.29040
gfz2010ffjb  -2.34380
gfz2010ffui  -1.03900
gfz2010fhbl  -0.13180
gfz2010figq  -1.07960
gfz2010fihj  -2.47980
gfz2010fika  -1.34990
gfz2010fisf  -1.38890
gfz2010fixr  -2.22620
gfz2010fjal  -1.91730
gfz2010fjas  -1.18620
gfz2010fjmu  -2.63460
gfz2010fjni  -1.59280
gfz2010fkia  -2.13260
gfz2010fkvg  -2.07320
gfz2010flha  -2.32610
gfz2010flkj  -0.67350
gfz2010flxi  -1.68870
gfz2010fmhb  -1.91540
gfz2010fmpy   2.90840
gfz2010fmwb  -3.20170
gfz2010fneu  -2.10880
gfz2010fnrk  -1.05720
gfz2010fona  -1.23560
gfz2010fpmv  -2.01390
gfz2010fpqy  -1.57330
gfz2010fqdu  -3.70800
gfz2010fqtj  -1.63470
gfz2010fser  -1.84460
gfz2010fsmy  -1.38450
gfz2010ftlm  -3.03130
gfz2010ftsx   2.42480
gfz2010fupn  -1.83520
gfz2010fuuy  -1.53180
gfz2010fuwa  -1.24640
gfz2010fvuc  -1.68660
gfz2010fwkk  -0.43100
gfz2010fwlb  -2.01780
gfz2010fwny  -1.68180
gfz2010fwpv  -1.46360
gfz2010fwzd  -2.45560
gfz2010fyed  -1.63000
gfz2010fyen  -1.71150
gfz2010fync  -1.97410
gfz2010fzoi  -1.78770
gfz2010fzsg  -2.16440
gfz2010gceb  -1.44870
gfz2010gcrl  -1.51530
gfz2010gcrp  -1.55550
gfz2010gdch  -0.38540
gfz2010gdld  -1.72400
gfz2010geru   0.50070
gfz2010ginm  -1.00480
gfz2010gjia  -1.77100
gfz2010gjvo  -1.34240
gfz2010glqr  -2.38270
gfz2010glxl  -2.60950
gfz2010gmib  -2.22830
gfz2010govu  -2.89660
gfz2010grjd  -0.91240
gfz2010grss  -4.80700
gfz2010grxb  -1.80360
gfz2010gtqs  -1.19750
gfz2010gtzt  -1.51020
gfz2010gwmp  -3.10530
gfz2010gyqp  -2.22930
gfz2010gzxr  -2.24660
gfz2010hakh   0.09580
gfz2010hbka  -0.58530
gfz2010hcio  -2.06520
gfz2010hevz  -2.64600
gfz2010hgld  -2.33110
gfz2010hjoc  -3.33730
gfz2010hllj  -1.72460
gfz2010hlmq  -2.71420
gfz2010hlvr  -3.05230
gfz2010hmhm  -3.17140
gfz2010hndk  -2.66600
gfz2010hnnf  -1.88680
gfz2010hnpi  -1.82850
gfz2010hnzr  -2.14270
gfz2010homc  -3.13750
gfz2010hptz  -1.65400
gfz2010hrkr  -2.35350
gfz2010hrpr  -1.07460
gfz2010htdq  -2.66430
gfz2010hufk  -2.92100
gfz2010hxbs   0.14610
gfz2010hxgv  -1.63640
gfz2010hxhe  -1.45150
gfz2010hykt  -1.25580
gfz2010ibiy  -1.77510
gfz2010icqq  -1.74080
gfz2010iefy  -1.11290
gfz2010iibf  -0.93090
gfz2010iimu  -2.21510
gfz2010ijtk  -2.91480
gfz2010imfv  -1.44360
gfz2010imsh  -2.36340
gfz2010iphd  -2.10250
gfz2010ipsg  -1.91490
gfz2010iqep  -1.51130
gfz2010iqfm  -2.04720
gfz2010iqus  -2.00140
gfz2010irqr  -1.34990
gfz2010irvf  -2.85450
gfz2010ited  -3.48330
gfz2010itpb  -1.92480
gfz2010iull  -2.40080
gfz2010ixyc  -1.33750
gfz2010izzj  -1.32290
gfz2010jagd  -0.43570
gfz2010jatq  -1.94330
gfz2010jhie  -1.53630
gfz2010jipf  -1.79590
gfz2010jitt   0.52660
gfz2010jkxj  -4.19720
gfz2010jlhj  -1.50330
gfz2010jpss  -1.48860
gfz2010jpyj  -2.22910
gfz2010jqxx  -0.93930
gfz2010jssh  -1.36250
gfz2010jsuh   3.81160
gfz2010jsuo  -1.12840
gfz2010jtal  -1.50950
gfz2010jwpy  -1.84930
gfz2010jygz  -2.41060
gfz2010jzku  -2.54180
gfz2010kcoo  -1.35420
gfz2010kdyc  -1.75800
gfz2010kgws  -1.61450
gfz2010kihf  -3.24110
gfz2010kjmp  -1.05200
gfz2010liqs  -2.00730
gfz2010lkcf  -2.56340
gfz2010lluj  -4.18020
gfz2010lrlk  -1.94850
gfz2010lyfk  -1.04610
gfz2010mant  -1.20760
gfz2010mbje   0.03850
gfz2010mcrx  -0.34360
gfz2010mdpq  -3.23630
gfz2010mfpt  -1.32390
gfz2010mgss  -1.51910
gfz2010mhjt  -1.45770
gfz2010miqn  -1.15340
gfz2010mkuu  -2.15030
gfz2010nlkh  -3.22850
gfz2010nmpc  -3.44260
gfz2010nnny  -1.41410
gfz2010nqwf  -1.50310
gfz2010nqwo  -0.86000
gfz2010nrew  -1.41700
gfz2010nrjo  -1.76180
gfz2010nsck  -1.32520
gfz2010nsdf  -1.73400
gfz2010nsfx  -2.50680
gfz2010nsjs  -1.08040
gfz2010ntuo  -1.40520
gfz2010nubk  -2.45000
gfz2010nwef  -2.69590
gfz2010nxsy  -1.46950
gfz2010nxum  -1.45320
gfz2010nzha   5.11740
gfz2010ocxq  -1.57610
gfz2010odpb  -2.41320
gfz2010oedn  -3.15970
gfz2010okdm  -1.47530
gfz2010oluw  -2.12010
gfz2010omla  -2.50020
gfz2010onma  -2.48500
gfz2010pxak  -3.19070
gfz2010pxgh  -1.86860
gfz2010pxls  -1.92910
gfz2010qitd  -0.17650
gfz2010qjst  -1.15310
gfz2010qpcq  -2.18440
gfz2010qpvi  -1.29950
gfz2010qwwx  -2.31280
gfz2010rhas  -6.50280
gfz2010rkfp  -3.33540
gfz2010rlbv  -2.22130
gfz2010rqwj  -2.31750
gfz2010rywq  -2.28030
gfz2010rzrr  -3.06340
gfz2010rzsd  -5.06510
gfz2010sfee  -2.44980
gfz2010sfla  -2.78520
gfz2010sgzk  -2.60380
gfz2010skqo  -2.57150
gfz2010skve  -2.09360
gfz2010srdb  -1.84510
gfz2010svtn  -2.08910
gfz2010svve  -0.91340
gfz2010swcy  -2.63010
gfz2010sxfq  -3.24990
gfz2010sxwt  -3.10860
gfz2010szde  -1.97130
gfz2010szim  -1.29490
gfz2010tcbr  -1.62560
gfz2010tlfm  -1.33950
gfz2010truw  -1.62840
gfz2010tzzk  -1.28940
gfz2010uouo  -0.30030
gfz2010upfb  -1.46910
gfz2010upiw  -0.03890
gfz2010urlq  -2.19570
gfz2010usho  -2.65210
gfz2010ustq  -1.58030
gfz2010utcg  -1.79120
gfz2010utmc  -1.86800
gfz2010utvp  -1.52370
gfz2010uvhf  -3.56940
gfz2010uyhb   0.35540
gfz2010uzon  -2.59390
gfz2010vbmd  -1.88920
gfz2010veri  -2.95000
gfz2010vhuj  -2.03740
gfz2010vppc  -2.73880
gfz2010vtdg  -2.52170
gfz2010vzpr  -1.67360
gfz2010vzzz  -2.13870
gfz2010wofs  -2.14720
gfz2010wrxx  -2.05280
gfz2010wxqa  -1.00710
gfz2010xbdv  -2.48350
gfz2010xbgs  -1.80480
gfz2010xcdh  -2.01400
gfz2010xcij  -0.00440
gfz2010xden  -1.83740
gfz2010xgfc  -0.65990
gfz2010xgzw  -1.34740
gfz2010xjck  -1.23220
gfz2010xjsj  -2.01480
gfz2010xmpr  -0.79160
gfz2010xnxk  -2.42120
gfz2010xxzn  -0.54070
gfz2010yjev  -2.50170
gfz2010ymfy  -2.92290
gfz2010yosr  -1.95810
gfz2010yqqv  -1.75420
gfz2010yqwx  -4.87950
gfz2011aatr  -1.36000
gfz2011adjs  -2.01280
gfz2011adlj  -0.74360
gfz2011adqk  -0.51510
gfz2011ahfw  -1.97400
gfz2011aldv  -0.23260
gfz2011alip  -2.69220
gfz2011alsa  -1.85340
gfz2011aosc  -0.78610
gfz2011aqxf  -1.55850
gfz2011asru  -1.00100
gfz2011aupi  -2.49690
gfz2011bgrp  -2.60350
gfz2011bhha  -1.86210
gfz2011blsi  -3.58210
gfz2011dtpy  -0.85080
gfz2011duyr  -1.38570
gfz2011eayc  -2.16600
gfz2011eazf  -1.59720
gfz2011ecaj  -1.71790
gfz2011ecsc  -0.67310
gfz2011edmm  -2.18300
gfz2011eebc  -0.22780
gfz2011enva  -2.56230
gfz2011eocc  -1.04070
gfz2011etje  -1.39640
gfz2011fgvr  -2.21050
gfz2011fhag  -1.66270
gfz2011fhbm  -3.31980
gfz2011fhur  -1.70840
gfz2011fkbn  -2.46240
gfz2011flgj  -1.49210
gfz2011fnsw  -1.89130
gfz2011gbmx  -0.94070
gfz2011gcwb  -1.83870
gfz2011gdgh  -2.28950
gfz2011ggvf  -3.02430
gfz2011ghky  -1.90090
gfz2011gkey  -1.95850
gfz2011gkzt  -2.91080
gfz2011gzbr  -2.14640
gfz2011haid  -1.17970
gfz2011hbex  -2.81290
gfz2011hebt  -3.41010
gfz2011hfkj  -2.20040
gfz2011hlqw  -2.25230
gfz2011hlsa  -2.30920
gfz2011hlth  -2.27670
gfz2011hpgx  -1.08300
gfz2011hpqp  -1.99270
gfz2011hrhe  -1.98600
gfz2011hryk  -1.40990
gfz2011hvbu  -2.53670
gfz2011icxe  -4.15420
gfz2011ieie  -1.33550
gfz2011iwte  -1.32730
gfz2011ixai  -2.39530
gfz2011izqa  -3.57100
gfz2011izto  -2.04170
gfz2011jdsj  -3.07760
gfz2011jghb  -3.21180
gfz2011jmbn  -1.34330
gfz2011jnmi  -2.36490
gfz2011jplh  -2.50990
gfz2011jtlg  -2.82130
gfz2011jxpl  -2.93900
gfz2011kwid  -0.96440
gfz2011kwjx  -1.39500
gfz2011kwkw  -2.15460
gfz2011kwni  -3.75670
gfz2011kwnu  -0.86010
gfz2011kwqc  -1.94950
gfz2011kwrf  -2.42040
gfz2011kwsz  -2.31910
gfz2011kxzp  -0.86750
gfz2011lcxq  -2.61850
gfz2011lczg  -2.69380
gfz2011lggq  -0.41040
gfz2011lgsg  -2.56780
gfz2011lhls  -2.11390
gfz2011lvjr  -3.58030
gfz2011lzwj  -1.56600
gfz2011mdie  -1.64420
gfz2011mepc  -2.13240
gfz2011mllx  -2.66170
gfz2011mlvw  -2.02710
gfz2011mpme  -2.32760
gfz2011mprq  -1.01560
gfz2011myia  -1.38090
gfz2011nauw  -3.37900
gfz2011necz  -1.40690
gfz2011noud  -2.61540
gfz2011nqpd  -1.64220
gfz2011nrwc  -3.05010
gfz2011nrwv  -1.43100
gfz2011ntkh  -2.27270
gfz2011ntrv  -1.60420
gfz2011nudm  -2.16580
gfz2011ogqk  -3.21400
gfz2011ohcy  -1.45860
gfz2011oiqe  -2.48870
gfz2011oiwk  -2.33630
gfz2011olkk  -0.92960
gfz2011oolr  -3.75200
gfz2011orgn  -0.76490
gfz2011ornx  -1.26770
gfz2011owvz  -2.27730
gfz2011ozsl  -1.80640
gfz2011pccd  -2.49590
gfz2011pdpt  -2.38370
gfz2011pdst  -1.94490
gfz2011phms  -2.13080
gfz2011pntf  -1.60570
gfz2011ptus  -1.89970
gfz2011qigx  -2.90230
gfz2011qvae  -2.13680
gfz2011qyms  -2.46850
gfz2011rabm  -1.17630
gfz2011rewa  -2.26190
gfz2011rgwp  -0.97130
gfz2011rnut  -1.11070
gfz2011rqui  -2.36670
gfz2011rsrh  -1.25310
gfz2011sagt  -0.76490
gfz2011shqm  -2.98010
gfz2011tbas  -1.26410
gfz2011tcij  -1.33860
gfz2011tivu  -2.67040
gfz2011tjrf  -2.38950
gfz2011tjue  -2.61810
gfz2011tkfp  -1.43710
gfz2011tkog  -2.19270
gfz2011tnag  -2.17730
gfz2011toub  -2.22300
gfz2011tpbl  -3.13550
gfz2011tpfr  -3.00590
gfz2011tsfd  -3.48440
gfz2011tsnp  -4.48720
gfz2011tuea  -1.21270
gfz2011twov  -1.82210
gfz2011udsq  -2.43960
gfz2011ueni  -1.26140
gfz2011uepx  -3.06340
gfz2011ugzz  -1.50030
gfz2011ujze  -2.24750
gfz2011ukmp  -2.81940
gfz2011uphh  -2.27280
gfz2011urxy  -2.46050
gfz2011urzu  -1.83920
gfz2011vclt  -2.84280
gfz2011vhfi  -2.03490
gfz2011vnza  -2.21950
gfz2011vxns  -1.55020
gfz2011vxxg  -1.46840
gfz2011wcic  -1.89150
gfz2011wfja  -3.06280
gfz2011wjkf  -2.42300
gfz2011wjul  -2.50780
gfz2011wvzb  -1.03950
gfz2011wwjs  -1.82350
gfz2011wxfs  -1.90010
gfz2011wxoj  -3.17180
gfz2011wxtk  -2.08930
gfz2011wype  -1.43170
gfz2011xaan  -2.52240
gfz2011xcpv  -1.11370
gfz2011xesx  -2.29030
gfz2011xqru  -0.12410
gfz2011xyxj  -1.41580
gfz2011yfdx  -1.54660
gfz2011yfys  -3.71480
gfz2011yhwz  -1.11490
gfz2011ytnu  -2.05810
gfz2011yybo  -3.79170
gfz2011yzwq  -2.44440
gfz2011zjap  -2.13630
gfz2011zklv  -1.05930
gfz2011zqhh  -2.50870
gfz2012ajtq  -1.44810
gfz2012aqgp  -1.54540
gfz2012aqtq  -2.28280
gfz2012bfah  -1.31810
gfz2012bfyn  -0.97030
gfz2012bngd  -0.97880
gfz2012bpkx  -1.96660
gfz2012bpnl  -1.31900
gfz2012bpwl  -1.16470
gfz2012bqeb  -1.50160
gfz2012brhv  -2.17300
gfz2012bszs  -2.67860
gfz2012byad  -3.04760
gfz2012cevz  -0.10270
gfz2012cgvr  -2.46440
gfz2012cmfy  -1.62100
gfz2012cnod  -2.41520
gfz2012covm  -1.18470
gfz2012cqnl  -2.14230
gfz2012cxdn  -2.05900
gfz2012czlw  -2.54610
gfz2012ddma  -1.41150
gfz2012deri  -1.99730
gfz2012dfhq  -1.13540
gfz2012dimn  -0.89670
gfz2012dinb  -1.87120
gfz2012djwi  -0.95370
gfz2012dyyh  -2.39590
gfz2012ekda  -1.78700
gfz2012ekzf  -1.47180
gfz2012elce  -1.56990
gfz2012emjg  -2.11550
gfz2012enno  -1.64820
gfz2012eskt  -2.35250
gfz2012ewgo  -2.20030
gfz2012fbfo  -1.71420
gfz2012fhnh  -1.62830
gfz2012fivh  -0.06370
gfz2012foeo  -2.07150
gfz2012fqcg  -1.00070
gfz2012fwfo  -1.97170
gfz2012fwtr  -3.98730
gfz2012fzfa  -1.02740
gfz2012gkvr  -1.77230
gfz2012glss  -0.63000
gfz2012gnvh  -0.86600
gfz2012gocc  -2.01770
gfz2012gomm  -2.55640
gfz2012gukw   0.78060
gfz2012gwmu  -1.44440
gfz2012gwqb  -1.89700
gfz2012hdbm  -2.71970
gfz2012hnul  -0.52200
gfz2012hnuw  -0.11950
gfz2012hogg  -1.70770
gfz2012hwmz  -0.89130
gfz2012hwyo  -0.97920
gfz2012ihdl  -1.17310
gfz2012iivw  -2.18920
gfz2012ilvn  -1.65370
gfz2012imay  -2.15150
gfz2012imbd  -1.27390
gfz2012intn  -1.18210
gfz2012jgvj  -2.17650
gfz2012jjzc  -1.57910
gfz2012jlox  -2.91520
gfz2012jqvn  -2.13270
gfz2012jshk  -1.30270
gfz2012jupx  -3.01140
gfz2012kbjb  -0.59550
gfz2012kbzj  -2.58710
gfz2012kdmb  -1.28730
gfz2012keor  -2.27510
gfz2012kkup  -1.97380
gfz2012klba  -0.94210
gfz2012klhx  -2.07610
gfz2012kuct  -1.84720
gfz2012kudo  -2.92050
gfz2012kvzv  -1.86170
gfz2012kwgo  -2.24720
gfz2012lczo  -2.60600
gfz2012ldgs  -0.95310
gfz2012ldxg  -3.01660
gfz2012ldzj  -2.47450
gfz2012ledy  -0.83670
gfz2012ljql   0.03970
gfz2012llug  -3.72390
gfz2012lpvn  -3.40810
gfz2012lrsv  -1.91640
gfz2012lxkv  -1.50260
gfz2012lzmr  -1.24160
gfz2012mdmy  -0.20910
gfz2012minr  -2.38970
gfz2012mupa  -1.88760
gfz2012mvwr  -2.66010
gfz2012mwij  -0.04950
gfz2012myqa  -1.21370
gfz2012naqz  -2.64420
gfz2012nbtn  -1.32130
gfz2012nedn  -2.16450
gfz2012ngic  -1.18390
gfz2012njha  -2.13020
gfz2012nkdf  -2.91140
gfz2012nqnk  -2.52160
gfz2012ntzv  -2.84940
gfz2012nutf  -1.62860
gfz2012nxyt  -1.58070
gfz2012oazn  -1.80520
gfz2012obgw  -2.68860
gfz2012oedb  -2.18030
gfz2012omvo  -1.16600
gfz2012oqmw  -0.09560
gfz2012ostk  -2.26600
gfz2012ovqs  -1.09160
gfz2012pciw  -1.46980
gfz2012peex  -2.84950
gfz2012pgcl  -0.75010
gfz2012pkel  -2.17840
gfz2012pqmu  -1.14850
gfz2012priv  -2.81370
gfz2012qqqp  -0.26930
gfz2012qqxg  -1.78630
gfz2012qurq  -1.73640
gfz2012qxcy  -1.58960
gfz2012rats  -1.99270
gfz2012rcnj  -0.75110
gfz2012repv  -2.13670
gfz2012rjsd  -1.88430
gfz2012royy  -2.54130
gfz2012rqlg   0.75810
gfz2012ruks  -1.41270
gfz2012rwko  -3.26880
gfz2012rwov  -2.57220
gfz2012rypu  -2.70710
gfz2012sjea  -0.22340
gfz2012snhi  -1.37420
gfz2012spbj  -1.65330
gfz2012sphd  -1.77560
gfz2012sqmv  -2.31800
gfz2012ssyn  -3.71590
gfz2012svpr  -1.79660
gfz2012syvl  -2.05100
gfz2012taou  -0.43720
gfz2012tazz  -2.40660
gfz2012teic  -2.38300
gfz2012thfx  -1.85340
gfz2012tmop  -2.25290
gfz2012ttoa  -2.22740
gfz2012tvmv  -1.36030
gfz2012tzcc  -0.95530
gfz2012tzgb  -1.61190
gfz2012uafg  -1.21900
gfz2012uaqj  -1.88820
gfz2012uciv  -1.43100
gfz2012ueqo  -1.31780
gfz2012ufew  -0.75380
gfz2012uhup  -2.12640
gfz2012ulpd  -2.12530
gfz2012uqzp  -2.97290
gfz2012usba  -1.42790
gfz2012uvqf  -2.05760
gfz2012uyxb  -0.67980
gfz2012uzom  -1.57950
gfz2012uzyj  -1.27010
gfz2012vdbt  -0.90560
gfz2012vpza  -1.54180
gfz2012vrgb  -2.15510
gfz2012vrua  -0.58200
gfz2012wdyx  -2.51590
gfz2012wecd  -0.13190
gfz2012whku  -2.30400
gfz2012wklq  -3.23460
gfz2012wmkd  -2.32860
gfz2012wmsg  -3.37330
gfz2012wpeq  -2.13300
gfz2012wrir  -1.35250
gfz2012wtkr  -1.17290
gfz2012wubh  -3.32850
gfz2012wvfl  -1.48040
gfz2012wxer  -1.11500
gfz2012wxlg  -2.05200
gfz2012wxnu  -1.65050
gfz2012wybs  -3.05210
gfz2012wypz  -1.97870
gfz2012xbjq  -2.85320
gfz2012xeul   0.98460
gfz2012xgqm  -1.22550
gfz2012xjyv  -2.39170
gfz2012xkkv  -1.39960
gfz2012xslk  -1.24400
gfz2012yfrp  -0.82320
gfz2012yoie  -2.02910
gfz2012yqjj  -3.92480
gfz2012yxxu  -2.45670
gfz2012yzod  -1.19240
gfz2012zemh  -2.17740
gfz2012zemz  -2.39660
gfz2012zfag  -1.30910
gfz2012zitl  -2.20900
gfz2012zjpv  -1.43350
gfz2012zklq  -1.78690
gfz2012zmbp  -1.93330
gfz2012zmln  -1.03340
gfz2013aahq  -1.83660
gfz2013aayj  -2.12460
gfz2013acag  -1.03930
gfz2013adey  -0.97600
gfz2013apmm  -3.00430
gfz2013aqaw  -2.60160
gfz2013bdpu  -2.28780
gfz2013bokp  -1.21990
gfz2013bouj   1.38600
gfz2013btjm  -3.01970
gfz2013cbsm  -2.02420
gfz2013ccnr  -2.79820
gfz2013cdan  -1.64340
gfz2013ciaf  -0.87030
gfz2013cvqg  -1.99680
gfz2013cwpn  -0.93730
gfz2013cwps  -0.24500
gfz2013ddbh  -3.83700
gfz2013dkly  -1.51290
gfz2013dkmz  -0.68720
gfz2013dkym  -2.63350
gfz2013dofo  -2.72140
gfz2013dojq  -1.21620
gfz2013drpk  -2.77190
gfz2013drxz  -2.71410
gfz2013dspt   0.37410
gfz2013dsrk  -1.96960
gfz2013dvyh  -2.90130
gfz2013egpu  -1.42570
gfz2013ekpm  -2.10520
gfz2013ewbo  -2.61700
gfz2013fdoo  -0.90640
gfz2013feep  -1.25580
gfz2013figy  -0.78700
gfz2013fiud  -2.71000
gfz2013fkcl  -2.85500
gfz2013fkii   0.74770
gfz2013fwxa  -3.93340
gfz2013fxge  -1.04410
gfz2013fygc  -2.73890
gfz2013gbst  -1.85610
gfz2013gcfx  -3.92700
gfz2013gdgf  -2.14980
gfz2013gdnq  -1.65000
gfz2013gelv  -1.37860
gfz2013gihf  -2.87210
gfz2013glcr  -2.78110
gfz2013gmor  -2.00690
gfz2013gngz  -2.71530
gfz2013gnse  -2.10320
gfz2013gock  -2.58770
gfz2013goux  -0.48840
gfz2013gvdb  -1.30090
gfz2013gvex  -0.76910
gfz2013gwrd  -0.91710
gfz2013gxsu  -3.53020
gfz2013hbkq  -1.69470
gfz2013hdnc  -0.43440
gfz2013hfmp  -1.82760
gfz2013hkja  -0.37100
gfz2013hklr  -3.99360
gfz2013hpfq  -0.99150
gfz2013hxcx  -2.74790
gfz2013iayx  -2.62620
gfz2013idbb  -2.53980
gfz2013ifpq  -1.94590
gfz2013ihcj  -2.99530
gfz2013ijsr  -1.76420
gfz2013ikgo  -1.67220
gfz2013ilug  -2.16800
gfz2013inux  -3.08410
gfz2013ippu  -1.53080
gfz2013jesk  -2.23250
gfz2013jgij  -3.31800
gfz2013jgip  -1.28810
gfz2013jkut  -2.17170
gfz2013json   0.52540
gfz2013jusj  -1.27260
gfz2013jwvc   2.12640
gfz2013kccc  -1.79700
gfz2013kdeo  -3.16830
gfz2013kheb  -1.28610
gfz2013khli  -2.25840
gfz2013kilx  -2.75660
gfz2013kqln  -0.62630
gfz2013krei  -2.36100
gfz2013kvtk  -0.96790
gfz2013kwps  -2.27080
gfz2013lajg  -1.53350
gfz2013lajn  -0.01740
gfz2013lbiu  -0.88200
gfz2013ldos  -0.76940
gfz2013ldpc  -2.49410
gfz2013ldqb  -2.99140
gfz2013lgnl  -1.56700
gfz2013lixa  -2.87670
gfz2013lljw  -1.92860
gfz2013lmdy   0.04880
gfz2013lmqe  -1.82280
gfz2013lmrs  -2.93980
gfz2013lsob  -2.22930
gfz2013lwbk  -2.75610
gfz2013lyko  -1.89710
gfz2013malg  -1.32130
gfz2013mded  -0.62710
gfz2013mmwq  -2.58430
gfz2013mnei  -0.82470
gfz2013mnju  -2.39210
gfz2013mqmv  -3.76690
gfz2013mtqd   0.34910
gfz2013mvgr  -1.66260
gfz2013mwbh  -2.75420
gfz2013mxee  -2.13670
gfz2013nabl  -2.65670
gfz2013ncjp  -2.82940
gfz2013ndin  -2.45900
gfz2013neuc  -0.65050
gfz2013ngnt  -1.62460
gfz2013nixj  -2.43800
gfz2013nkgj  -2.47180
gfz2013nknw  -2.24680
gfz2013nmac  -1.76710
gfz2013nnzf  -2.57300
gfz2013nppd  -2.41640
gfz2013nqgw  -3.05230
gfz2013nuor  -1.27150
gfz2013nuvi  -1.11790
gfz2013nvdj  -3.31620
gfz2013nwdi  -2.64830
gfz2013oejn  -2.53520
gfz2013ogde  -2.09110
gfz2013ojti  -1.09030
gfz2013oqsc  -1.75790
gfz2013orzn  -2.63200
gfz2013ozqm  -0.73220
gfz2013ozrf  -3.21950
gfz2013ozrp  -3.08830
gfz2013pcos  -3.11320
gfz2013pfbx  -2.22900
gfz2013pfeb  -1.72740
gfz2013pffm  -2.10290
gfz2013phef  -2.22170
gfz2013pkbs  -1.74250
gfz2013pqui  -2.09090
gfz2013puag  -2.42600
gfz2013pxsj   0.22730
gfz2013qali  -1.55130
gfz2013qmer  -1.87060
gfz2013qnxc  -0.87470
gfz2013qzdq  -1.47590
gfz2013rait  -1.89060
gfz2013reym  -1.99210
gfz2013roki  -1.81330
gfz2013rsnr  -0.98910
gfz2013rvsm   0.36520
gfz2013rwfe  -2.83320
gfz2013ryxm  -0.25120
gfz2013sart  -1.73360
gfz2013sdus  -2.67830
gfz2013sfto  -3.00450
gfz2013shlq  -3.51580
gfz2013shzy  -1.40950
gfz2013skkm  -2.17710
gfz2013snbr  -0.29470
gfz2013snyf  -2.16420
gfz2013sred  -0.83820
gfz2013suvn  -1.96770
gfz2013svci  -2.75150
gfz2013tcbk  -2.03910
gfz2013tcxc  -1.61050
gfz2013tcxq  -1.45630
gfz2013tdau  -2.47270
gfz2013tdkk  -2.56910
gfz2013tjlx  -0.86120
gfz2013tlaf  -1.45470
gfz2013toea  -2.58110
gfz2013toxf  -2.99040
gfz2013tpeb  -1.54240
gfz2013tusd  -2.54180
gfz2013tvmw  -2.84240
gfz2013txev  -2.08570
gfz2013txij  -2.74540
gfz2013txtb  -1.17130
gfz2013tyas  -2.30630
gfz2013uauo  -2.23870
gfz2013ufxm  -1.94840
gfz2013ugax  -2.69640
gfz2013uqsp  -0.90300
gfz2013uqvu  -2.17180
gfz2013uuzn  -2.28480
gfz2013uysr  -2.38590
gfz2013vexx  -2.03120
gfz2013vfyw  -0.42430
gfz2013vfzp  -1.20590
gfz2013vgau  -2.46420
gfz2013vgrk  -3.26170
gfz2013vhzu  -0.74740
gfz2013viul  -2.45100
gfz2013vjfe  -0.51990
gfz2013vjjc  -2.30930
gfz2013vmro  -3.01740
gfz2013vnfj  -2.32710
gfz2013vqot  -1.63220
gfz2013vrmy  -1.91940
gfz2013vsbl  -1.35700
gfz2013vthd  -2.47260
gfz2013vvjh  -1.69360
gfz2013vvrq  -1.49210
gfz2013vzbo  -2.83640
gfz2013wjmm  -1.65410
gfz2013wkyk  -3.02510
gfz2013woze  -0.86310
gfz2013wtzl  -2.26470
gfz2013wuon  -3.08390
gfz2013xgmp  -1.42170
gfz2013xizq  -2.93630
gfz2013xkwt  -1.73910
gfz2013xmul  -1.74490
gfz2013xpfa  -1.73070
gfz2013xsdt  -1.26890
gfz2013xvqd  -0.07800
gfz2013xvxf  -1.07410
gfz2013xwda  -2.68870
gfz2013xxwv  -0.92870
gfz2013xxxq  -1.09350
gfz2013xyzb  -1.61660
gfz2013xzcg  -0.86810
gfz2013yaig  -2.64030
gfz2013yctg  -2.28940
gfz2013yghj  -2.66700
gfz2013yhbu  -1.90160
gfz2013yhpk  -2.47300
gfz2013yixl  -1.91000
gfz2013ylbx   0.16930
gfz2013ymky  -1.96210
gfz2013yqkv  -2.25850
gfz2013yyhc  -1.61720
gfz2013ziyr   0.93860
gfz2013zmoc  -0.98900
gfz2013zmtb  -1.77320
gfz2014abgd  -1.49120
gfz2014adoj  -1.14020
gfz2014afmx  -2.03440
gfz2014afyp  -0.34370
gfz2014algk  -2.85250
gfz2014amsb  -1.08400
gfz2014ande  -1.84470
gfz2014aqbk   0.16210
gfz2014arpf  -1.70190
gfz2014arqr  -1.96360
gfz2014atbl  -1.92060
gfz2014atgw  -1.84260
gfz2014azqs  -1.95610
gfz2014bagd  -2.56740
gfz2014bekc  -2.47110
gfz2014bezu  -2.25660
gfz2014bfqo  -2.00360
gfz2014bjgt  -1.58600
gfz2014bldx  -2.58850
gfz2014bmdh  -2.10370
gfz2014bmta  -2.75020
gfz2014bwue  -1.98350
gfz2014bzxy  -2.82680
gfz2014caop  -1.84740
gfz2014capn  -1.81380
gfz2014cbtl  -4.53500
gfz2014cgog  -1.28330
gfz2014chdv  -2.96630
gfz2014claq  -2.28200
gfz2014cmwb  -1.88480
gfz2014cqyo  -1.26900
gfz2014ctot  -2.24140
gfz2014cvkm  -1.56780
gfz2014cvxx  -2.19190
gfz2014czno  -2.31140
gfz2014czol  -0.91190
gfz2014czqi  -2.20080
gfz2014czua  -0.33120
gfz2014dddc  -0.78980
gfz2014dhxt  -0.77060
gfz2014disp  -2.16470
gfz2014dlri  -0.26550
gfz2014duqn  -2.09820
gfz2014ebmc  -1.58430
gfz2014edfx  -0.54090
gfz2014ehsf  -1.15050
gfz2014ejmt  -0.07620
gfz2014ekcr  -1.97570
gfz2014ekdn  -1.35010
gfz2014ekdt  -0.42400
gfz2014emrg  -1.24990
gfz2014emzb  -1.49880
gfz2014enhi  -1.12210
gfz2014eqpl  -3.05340
gfz2014etqa   0.01400
gfz2014ettc  -1.82250
gfz2014exxa  -1.30730
gfz2014fcms  -0.66300
gfz2014femz  -0.68300
gfz2014ffdc  -1.03090
gfz2014fgvi  -1.82170
gfz2014fgvr  -1.23160
gfz2014fgxt  -2.41380
gfz2014fgyo  -1.84930
gfz2014fhbd  -1.98550
gfz2014fhdw  -1.93590
gfz2014fhla  -3.81940
gfz2014fhlh  -1.36420
gfz2014fhrq  -2.52500
gfz2014fhwx  -1.44380
gfz2014fimn  -1.32630
gfz2014fjpb  -1.98510
gfz2014fjzd  -1.91140
gfz2014fkmr  -2.79090
gfz2014fknp  -1.81750
gfz2014flfa  -1.26970
gfz2014fnyg  -1.82950
gfz2014foio  -1.15960
gfz2014fqpz  -2.02650
gfz2014frdz  -2.56020
gfz2014frel  -2.42180
gfz2014frez  -2.13240
gfz2014frgm  -1.32900
gfz2014frjr  -2.90900
gfz2014frwh  -1.44060
gfz2014fsuh  -1.26330
gfz2014fszc  -1.66700
gfz2014ftgx  -1.93600
gfz2014ftka  -3.53460
gfz2014ftpw  -3.49390
gfz2014ftrk  -2.40010
gfz2014furx  -1.58220
gfz2014fusc  -1.77760
gfz2014fusj  -2.01940
gfz2014fusu  -0.97160
gfz2014fuub  -1.46370
gfz2014fvaa  -1.26640
gfz2014fval  -2.62220
gfz2014fvgh  -1.69380
gfz2014fvjl  -1.50680
gfz2014fvpy  -1.41140
gfz2014fvrg  -2.17330
gfz2014fxpu  -3.57840
gfz2014gbcz  -2.73470
gfz2014gbdq  -0.59010
gfz2014geuy  -1.66530
gfz2014ghpe  -2.31970
gfz2014gkgf  -3.18870
gfz2014gkgs  -0.32110
gfz2014gkhp  -2.33890
gfz2014gkjl  -1.93820
gfz2014gklq  -1.94860
gfz2014gklv  -1.96610
gfz2014gkmm  -1.76910
gfz2014gkob  -2.18620
gfz2014gkok  -1.62650
gfz2014gkpd  -1.32300
gfz2014gkpj  -1.03140
gfz2014gkqf  -1.72640
gfz2014gkqu  -1.14570
gfz2014gksj  -0.49770
gfz2014gksu  -1.75310
gfz2014gktn   1.34490
gfz2014gktq  -2.52200
gfz2014gkut  -1.16190
gfz2014gkxm  -3.72420
gfz2014glcu  -1.79450
gfz2014glcy  -2.07390
gfz2014glgo   0.62090
gfz2014glov  -1.41790
gfz2014gltx  -2.11760
gfz2014gmci  -1.66890
gfz2014gmes  -0.48690
gfz2014gmge  -4.13120
gfz2014gmhp  -2.67980
gfz2014gmhr  -3.72160
gfz2014gmip  -2.00110
gfz2014gmjo  -1.54830
gfz2014gmku  -2.69140
gfz2014gmlz  -1.70510
gfz2014gmmk  -0.85910
gfz2014gmmt  -1.18020
gfz2014gmnb  -2.51070
gfz2014gmnw  -2.30080
gfz2014gmor  -1.36540
gfz2014gmpy  -1.94180
gfz2014gmrj  -1.54870
gfz2014gmtb  -1.91550
gfz2014gmuk  -1.82090
gfz2014gmvr  -1.83310
gfz2014gmzl  -2.74920
gfz2014gndq  -1.22550
gfz2014gnfd  -1.12500
gfz2014gnfs  -2.57530
gfz2014gngg  -1.83410
gfz2014gnmp  -1.17070
gfz2014gnnt  -1.74920
gfz2014gnqt   1.49010
gfz2014gnxb  -2.39080
gfz2014goba  -2.57070
gfz2014gogv  -2.84070
gfz2014gori  -0.13210
gfz2014gpbx  -1.57020
gfz2014gpce  -1.97910
gfz2014gphr  -2.15160
gfz2014gpuk  -2.07610
gfz2014gpya  -0.75890
gfz2014gqbj  -1.20860
gfz2014gqed  -1.30960
gfz2014gqer  -2.32380
gfz2014gqiy  -1.77580
gfz2014gqve  -2.61070
gfz2014grcv  -2.05030
gfz2014grgn  -2.92840
gfz2014grho  -0.50850
gfz2014gsqs  -2.87680
gfz2014gtlu  -0.62360
gfz2014gull  -2.07400
gfz2014gulp  -1.91160
gfz2014gumd  -1.73620
gfz2014gutm  -1.39700
gfz2014gvhw  -1.20700
gfz2014gvqj  -0.77650
gfz2014gvra  -2.05570
gfz2014gvrd  -2.81390
gfz2014gwab  -3.31810
gfz2014gwgf  -1.31880
gfz2014gxkh  -2.16600
gfz2014gxxo  -1.60400
gfz2014gyxd  -3.32070
gfz2014haos  -1.65580
gfz2014hasj  -2.79080
gfz2014hauo  -1.83740
gfz2014hbjz  -2.23360
gfz2014hbqb  -2.18900
gfz2014hcmj  -2.68630
gfz2014hetr  -4.11740
gfz2014heum  -2.12170
gfz2014heyq  -2.29580
gfz2014hfad   1.92650
gfz2014hfhl  -2.97520
gfz2014hgqo  -2.32650
gfz2014hiiz  -2.16850
gfz2014hjgr  -2.19120
gfz2014hkcf  -1.97050
gfz2014hmrs  -1.83820
gfz2014hocg  -1.57430
gfz2014hphw  -3.27680
gfz2014hpqz  -2.27410
gfz2014hqxs  -2.20980
gfz2014hrft  -2.28180
gfz2014hriu  -3.13420
gfz2014hrtn  -1.60600
gfz2014hscz  -1.29160
gfz2014huaj  -1.60100
gfz2014hwwi  -2.42230
gfz2014hyal  -0.74270
gfz2014hymr  -1.64990
gfz2014hzfw  -2.60620
gfz2014hzgn  -1.67650
gfz2014hzhe  -2.58790
gfz2014hzig  -0.41120
gfz2014iava  -0.90230
gfz2014icqt  -0.23180
gfz2014ieho  -0.93750
gfz2014ifue  -1.74720
gfz2014ifzj  -2.31090
gfz2014igur  -0.63350
gfz2014ijvh  -2.34790
gfz2014ikbk  -3.17120
gfz2014ilwu  -2.32080
gfz2014imnn  -2.04460
gfz2014inbj  -1.05880
gfz2014iobd  -1.80290
gfz2014iqzj  -1.87110
gfz2014irci  -3.67090
gfz2014isdq  -0.22940
gfz2014issk  -0.74320
gfz2014itab  -1.73550
gfz2014itbe  -2.10750
gfz2014itbu  -0.78480
gfz2014itgh  -1.98310
gfz2014itjx  -1.46110
gfz2014itpj  -1.80470
gfz2014iuhq  -2.82680
gfz2014iwnf  -1.20020
gfz2014iwwl  -1.69430
gfz2014iywt  -1.67890
gfz2014jatq  -0.87130
gfz2014jcjt  -1.61620
gfz2014jcmt  -2.08490
gfz2014jfis  -2.21300
gfz2014jggm  -1.70120
gfz2014jhra   1.51350
gfz2014jird  -0.55970
gfz2014jjhc  -2.48540
gfz2014jjln  -2.24850
gfz2014jjqk  -2.02500
gfz2014jkxe  -1.42680
gfz2014jnxm  -0.77270
gfz2014jnyv  -2.40410
gfz2014jomw  -2.10170
gfz2014jpep  -1.96190
gfz2014jpxs  -2.27620
gfz2014jwmh  -0.75520
gfz2014kara  -2.92780
gfz2014kbuk  -3.29130
gfz2014khlk  -2.35840
gfz2014kitm  -1.35660
gfz2014kizt  -2.09030
gfz2014kjee  -1.47580
gfz2014kjzb  -1.30080
gfz2014kmmt  -1.32110
gfz2014kndc  -2.42440
gfz2014knks  -2.22710
gfz2014knxs  -1.37110
gfz2014ksdv  -1.25520
gfz2014kwrg  -1.55460
gfz2014kyan  -1.99940
gfz2014kytf  -2.00010
gfz2014lbxn  -0.62910
gfz2014lchy  -1.01750
gfz2014lddn  -1.93800
gfz2014lefs  -1.89600
gfz2014lgqn  -2.60470
gfz2014ljbr  -1.15730
gfz2014lkyf  -1.48830
gfz2014lmge  -2.17960
gfz2014lnmw  -1.67560
gfz2014lpim  -2.54560
gfz2014lrzx  -2.18930
gfz2014lxnc  -2.38570
gfz2014lxqr  -0.87580
gfz2014lyhk  -2.71710
gfz2014lyhp  -1.75760
gfz2014lynp  -1.70590
gfz2014lzow  -2.58790
gfz2014macx  -2.58620
gfz2014madw  -2.42470
gfz2014mcno  -1.31990
gfz2014mcse  -0.57990
gfz2014mhgg  -1.62920
gfz2014mioi  -1.39530
gfz2014mlrr  -2.34030
gfz2014moaw  -2.32510
gfz2014mogb  -1.38680
gfz2014mtum  -1.53360
gfz2014mwor  -1.96730
gfz2014ncub  -2.88860
gfz2014ngnd  -1.45580
gfz2014nhyb  -2.60830
gfz2014nkdx  -1.90190
gfz2014nnih  -2.02510
gfz2014nnxd  -2.97770
gfz2014nowp  -0.75930
gfz2014npdk  -1.40940
gfz2014npeo  -1.10810
gfz2014nphm  -1.95890
gfz2014nqfm  -2.51010
gfz2014nrie  -2.77330
gfz2014ntdh  -3.29420
gfz2014nvdi  -1.31440
gfz2014nyeh  -1.45420
gfz2014nyfb  -2.09750
gfz2014nyko  -2.34300
gfz2014nylm  -2.15840
gfz2014odgv  -2.48280
gfz2014oinz  -2.34390
gfz2014okjw  -1.18550
gfz2014omyn  -1.51240
gfz2014ooaa  -0.60190
gfz2014oqhw  -1.11810
gfz2014orxs  -2.40050
gfz2014osvx  -3.43970
gfz2014owxc  -2.99110
gfz2014oxcc  -0.71650
gfz2014oyly  -2.54630
gfz2014pjer  -2.36970
gfz2014pjum  -1.75600
gfz2014pkll  -1.77810
gfz2014ppyi  -1.12880
gfz2014ppzf  -2.41590
gfz2014pqqp   0.89310
gfz2014pvch  -1.89510
gfz2014pzml  -2.33630
gfz2014qdog  -1.23280
gfz2014qjfl  -0.80490
gfz2014qlvc  -2.59910
gfz2014qlxd  -2.27170
gfz2014qngj  -1.60290
gfz2014tovs  -1.62160
gfz2014tqdo  -2.44430
gfz2014tqsf  -3.11970
gfz2014tqth  -3.26700
gfz2014tzsd  -2.94710
gfz2014ubwn  -2.04180
gfz2014udgg  -1.86830
gfz2014uohh  -1.47200
gfz2014utac  -2.07960
gfz2014uuuf  -2.65790
gfz2014uvji  -1.49800
gfz2014uvrk  -3.46160
gfz2014uxyg  -2.51080
gfz2014uyrq  -1.90590
gfz2014vcev  -1.79230
gfz2014vhld  -1.98600
gfz2014vhms  -2.54960
gfz2014vhuy  -1.45550
gfz2014vjoz  -2.16310
gfz2014vpus  -4.82870
gfz2014waoo  -1.99450
gfz2014watn  -2.23750
gfz2014wjko  -4.91790
gfz2014wmsc  -1.38660
gfz2014wqcp  -1.90240
gfz2014wrkh  -4.29720
gfz2014wwib  -4.10550
gfz2014xaxx  -3.59730
gfz2014xbyr  -1.83610
gfz2014xhwk  -2.18660
gfz2014xjri  -2.72290
gfz2014xoji  -1.93310
gfz2014xqqd  -3.25600
gfz2014yhhm  -2.38170
gfz2014ynzy  -3.40160
gfz2014yppv  -1.21420
gfz2014yrug  -2.12240
gfz2014yula  -1.42800
gfz2014zcgo  -0.71030
gfz2014zkys  -1.90180
gfz2014zlgp  -1.05690
gfz2014zplq  -1.63360
gfz2015abpw  -0.33370
gfz2015alzx  -1.21730
gfz2015apnk  -2.46200
gfz2015aqav  -1.09550
gfz2015aqbq  -0.79410
gfz2015arpd  -2.74760
gfz2015aruz  -2.16820
gfz2015azzp  -0.81690
gfz2015berb  -2.13170
gfz2015bfjm  -1.09040
gfz2015bkbj  -2.29430
gfz2015bphe  -2.16260
gfz2015bsnl  -1.47620
gfz2015byfn  -1.33090
gfz2015byjd  -1.13270
gfz2015cewd  -1.05550
gfz2015chhn  -2.18190
gfz2015chqn  -2.18680
gfz2015cxhx  -0.89490
gfz2015cxrc  -1.54000
gfz2015cxxk  -2.40850
gfz2015cyjd  -2.19830
gfz2015ddhl  -0.86890
gfz2015dizn  -1.51280
gfz2015djts  -1.44370
gfz2015dskr  -2.39590
gfz2015dvbn  -2.28040
gfz2015ecgq  -1.40750
gfz2015ednc  -2.10490
gfz2015eeyq  -1.76450
gfz2015eezy  -4.42180
gfz2015egxq  -1.89720
gfz2015ehpz  -2.06450
gfz2015eiky  -1.82690
gfz2015elgy  -1.47330
gfz2015eljz  -1.79330
gfz2015etai  -1.46120
gfz2015evpl  -0.83440
gfz2015eyqs  -1.97260
gfz2015fbbk  -3.66590
gfz2015fcua  -2.10960
gfz2015fdpr  -3.11140
gfz2015fjhk  -2.25640
gfz2015fkbc  -1.47960
gfz2015fkgt  -1.72040
gfz2015fkic  -1.67320
gfz2015fkkd  -0.48730
gfz2015fkuu  -1.15340
gfz2015flis  -1.27240
gfz2015fpez  -1.25890
gfz2015fsjj  -1.75310
gfz2015fvoi  -2.28230
gfz2015fwkq  -1.45440
gfz2015fwnf  -2.49410
gfz2015fxbv  -0.95600
gfz2015fxdi  -1.68030
gfz2015fyvk  -0.66260
gfz2015gckd  -2.07710
gfz2015ggjw  -2.24620
gfz2015gjbr  -1.49490
gfz2015gkwa  -1.29840
gfz2015gmgf  -1.97070
gfz2015gnmy  -1.39500
gfz2015guhd  -0.49120
gfz2015gwao  -1.57990
gfz2015gzja  -1.51330
gfz2015hdbn  -0.76840
gfz2015hdcp  -1.71200
gfz2015hgbk  -2.10620
gfz2015hlqo  -1.33110
gfz2015hpmk  -1.94160
gfz2015hvgs  -0.56740
gfz2015iele  -0.11150
gfz2015igsy  -1.05660
gfz2015imty  -2.55150
gfz2015imyp  -0.98050
gfz2015iwqk  -1.21220
gfz2015ixyy  -1.64530
gfz2015jmlu  -1.12740
gfz2015jpap  -4.15650
gfz2015jwgl  -1.11420
gfz2015jxbx  -2.37170
gfz2015jxjd  -0.76640
gfz2015kakw  -2.10200
gfz2015kalm  -2.22860
gfz2015kcaa  -1.59480
gfz2015kfsu  -3.20190
gfz2015kkqb  -1.29510
gfz2015kkth  -1.98750
gfz2015kphk  -1.82270
gfz2015kquq  -1.62200
gfz2015ksni  -1.39500
gfz2015kvwz  -1.80920
gfz2015kxxs  -1.26370
gfz2015lcma  -1.76640
gfz2015lcuo  -1.96310
gfz2015lfma  -2.20830
gfz2015lfud  -2.39970
gfz2015lhjq  -3.66980
gfz2015lhjy  -1.74120
gfz2015ltii  -1.89740
gfz2015lytv  -3.29610
gfz2015lzad  -1.51830
gfz2015mbgr  -2.96190
gfz2015mddr  -1.71810
gfz2015mfpy  -1.35730
gfz2015mhym  -3.86820
gfz2015micz  -1.76780
gfz2015mpte  -2.58760
gfz2015nbdc   0.02000
gfz2015nerz  -2.21440
gfz2015nqgf  -1.26580
gfz2015ntpk   0.13670
gfz2015nuxz  -2.38760
gfz2015nwug  -1.40150
gfz2015ocdz  -0.76500
gfz2015ofpd  -0.20780
gfz2015ofsr  -0.53780
gfz2015ojut  -1.83510
gfz2015okmq  -2.24570
gfz2015okpu  -2.38580
gfz2015omab  -0.93320
gfz2015orkl  -0.90210
gfz2015othd  -1.05420
gfz2015oyfl  -1.78660
gfz2015pcvt  -1.18410
gfz2015pdri  -2.38370
gfz2015pjgr  -3.61140
gfz2015plal  -2.39950
gfz2015poni  -1.96090
gfz2015puqp  -2.50250
gfz2015qafb  -2.09810
gfz2015qisx  -0.95510
gfz2015qnde  -1.55830
gfz2015qnho  -1.60480
gfz2015qnlv  -2.16800
gfz2015qnto  -2.18380
gfz2015qols  -0.08750
gfz2015qprd  -1.54830
gfz2015qpvd  -3.03250
gfz2015quzo  -1.96840
gfz2015rddx  -2.61620
gfz2015rgov  -0.90220
gfz2015rgrg  -1.52570
gfz2015rkbq  -1.61920
gfz2015rkrg  -1.69920
gfz2015rkzg  -2.36040
gfz2015rpzn  -2.49820
gfz2015rwsb  -2.35210
gfz2015saet  -1.37400
gfz2015sdeo  -2.23400
gfz2015sevh  -3.20450
gfz2015sfdd  -1.51660
gfz2015sfdl  -0.38210
gfz2015sfdv  -0.77230
gfz2015sfdy  -2.30530
gfz2015sfeo  -1.11790
gfz2015sffn  -1.59680
gfz2015sfga  -2.35780
gfz2015sfhz  -1.42550
gfz2015sfiq  -2.00940
gfz2015sfjf  -1.03500
gfz2015sfkh  -1.21940
gfz2015sfko  -2.27410
gfz2015sfks  -1.06520
gfz2015sfkz  -1.50290
gfz2015sflf  -1.24150
gfz2015sfmd  -0.97280
gfz2015sfnb  -2.04460
gfz2015sfno  -1.99570
gfz2015sfnv  -0.70980
gfz2015sfoc  -1.79760
gfz2015sfom  -1.08260
gfz2015sfoq  -0.28870
gfz2015sfpj  -0.30630
gfz2015sfps  -0.75190
gfz2015sfqo  -1.48150
gfz2015sfqr  -1.43990
gfz2015sfrc  -1.94000
gfz2015sfrf  -1.15580
gfz2015sfrv  -0.55010
gfz2015sfsi  -0.35040
gfz2015sftu  -1.23910
gfz2015sfuc  -0.31590
gfz2015sfuz  -1.74590
gfz2015sfwf  -0.56060
gfz2015sfxn  -1.56170
gfz2015sfzm  -0.64750
gfz2015sgad  -0.93340
gfz2015sgmr  -0.63320
gfz2015sgna  -1.18900
gfz2015sgxc  -0.74310
gfz2015sgyd  -1.16940
gfz2015shaq  -1.03450
gfz2015shel  -1.13110
gfz2015shhg  -0.59860
gfz2015shhu  -1.34390
gfz2015shjn  -1.53470
gfz2015shjo  -0.44670
gfz2015shqc  -1.95130
gfz2015shrg  -2.36570
gfz2015shsz  -2.38800
gfz2015shwt  -2.16110
gfz2015sicf  -1.47630
gfz2015siem  -0.79260
gfz2015siky  -1.11330
gfz2015sing  -1.73440
gfz2015sist  -0.67630
gfz2015sitn  -1.33630
gfz2015sixs  -1.05780
gfz2015siyy  -1.21670
gfz2015sjbx  -1.19930
gfz2015sjeq  -0.90550
gfz2015sjfi  -0.73940
gfz2015sjgk  -1.62990
gfz2015sjjb  -1.70600
gfz2015sjne  -1.32230
gfz2015sjoj  -0.97430
gfz2015sjpn  -1.25360
gfz2015sjtz  -0.61270
gfz2015sjvu  -0.86920
gfz2015sjwi  -2.22270
gfz2015skab  -1.45330
gfz2015skgj  -1.77440
gfz2015sklu  -1.71060
gfz2015skpv  -1.36950
gfz2015skuk  -1.47460
gfz2015skxu  -0.98770
gfz2015sldx  -1.67680
gfz2015sljs  -2.82870
gfz2015slun  -1.43490
gfz2015smym  -1.77710
gfz2015snhn  -1.38820
gfz2015snmg  -0.92610
gfz2015snmr  -1.64320
gfz2015snsf  -1.53580
gfz2015snwh  -1.93850
gfz2015snyd  -1.18060
gfz2015soat  -1.11500
gfz2015solh  -1.01090
gfz2015sopc  -0.62090
gfz2015sowu  -0.52720
gfz2015soxc  -1.67400
gfz2015sozw  -0.68540
gfz2015sqbg  -0.98900
gfz2015sqmy  -1.42850
gfz2015sqyh  -2.12340
gfz2015srat  -1.01070
gfz2015ssoe  -1.58890
gfz2015ssrl  -0.81460
gfz2015stfy  -0.87660
gfz2015stso  -1.84440
gfz2015subg  -0.86800
gfz2015subz  -1.53390
gfz2015susq  -0.13500
gfz2015svjy  -1.45230
gfz2015svwm  -1.69670
gfz2015sxmh  -0.04840
gfz2015szcb  -0.98580
gfz2015szfe  -0.97870
gfz2015szfq  -0.41460
gfz2015sztx  -1.38730
gfz2015taml  -2.61950
gfz2015tbdn  -1.73060
gfz2015tcem  -0.91400
gfz2015tdbb  -1.35590
gfz2015tdcu  -1.30150
