# Nsamples: 28  MAD:  0.621  mean: -0.579  variance:  0.707
gfz2014bwue  -1.05440
gfz2014fgvi  -0.14820
gfz2014fhla  -1.18880
gfz2014fkmr  -0.14160
gfz2014frdz  -0.50970
gfz2014frez   0.14050
gfz2014ftka  -3.68370
gfz2014fval  -0.62030
gfz2014ghpe  -1.02240
gfz2014gkgf  -1.41080
gfz2014gkhy   0.81970
gfz2014gkqf  -0.03700
gfz2014gltx  -0.02210
gfz2014gmge   0.22570
gfz2014gmnb  -0.05940
gfz2014gmnw  -0.14250
gfz2014goba  -0.16770
gfz2014gsqs  -0.28050
gfz2014gull   0.04140
gfz2014gxxo   0.22100
gfz2014hasj  -1.07020
gfz2014hgqo  -0.91320
gfz2014itkw  -2.00810
gfz2015cyjd  -1.15630
gfz2015fjhk  -0.49360
gfz2015fsjj  -0.47530
gfz2015mpte  -0.70700
gfz2015sfdd  -0.34270
