# Nsamples: 52  MAD:  0.604  mean:  0.297  variance:  1.024
gfz2010ahqi  -1.13250
gfz2010bjeb   0.84340
gfz2010bxxs   0.76460
gfz2010ebhc  -0.05030
gfz2010fync   1.28090
gfz2010grjd  -0.00070
gfz2010iull   0.51170
gfz2010mkuu  -0.52830
gfz2010usho   0.71100
gfz2011aatr   0.32380
gfz2011dpqx   0.41890
gfz2011enva   0.02950
gfz2011gkzt  -3.76020
gfz2011rewa   0.08000
gfz2011toub   0.65360
gfz2011wxfs   0.09820
gfz2011xyxj   0.66400
gfz2012enno  -0.14830
gfz2012jlox   0.29970
gfz2012ldxg  -0.15260
gfz2012ldzj   0.50760
gfz2012vrgb   0.28970
gfz2012wypz   0.52910
gfz2013drxz   0.01720
gfz2013jkut   0.72530
gfz2013nkgj  -2.12680
gfz2013nwdi  -0.42440
gfz2013pfbx  -0.49430
gfz2013svci   0.10990
gfz2013xsdt   1.03460
gfz2014bwue   0.39110
gfz2014fgvi   0.97860
gfz2014fhla   0.86600
gfz2014ftka   1.02780
gfz2014gkgf  -0.21480
gfz2014gkqf   0.51340
gfz2014gmge   2.92330
gfz2014gmhr   2.32910
gfz2014gmnb  -0.26520
gfz2014gull   0.11580
gfz2014hasj  -0.42780
gfz2014lyhk  -0.08010
gfz2014ssvz   0.24350
gfz2015cyjd   0.15620
gfz2015fsjj   0.28690
gfz2015lhjy   0.27140
gfz2015mpte   0.17730
gfz2015sfdd  -0.10860
gfz2015sfdy   1.08820
gfz2015sfno   3.10230
gfz2015smym  -0.16540
gfz2015snwh   1.17400
