# Nsamples: 15  MAD:  0.292  mean: -0.056  variance:  0.532
gfz2010iull  -0.38330
gfz2010nmpc  -0.05780
gfz2011aatr  -0.44530
gfz2011gkzt  -0.21830
gfz2011lcxq  -0.52210
gfz2011rewa  -0.65950
gfz2011toub  -0.18230
gfz2011wxfs  -0.49010
gfz2012wypz  -0.10080
gfz2013nwdi   0.98290
gfz2013svci  -0.32030
gfz2014fgvi   0.14850
gfz2014fhla   2.26430
gfz2014gkgf  -0.60080
gfz2015lhjy  -0.25450
