# Nsamples: 37  MAD:  0.519  mean: -0.087  variance:  0.301
gfz2010chnv  -1.19620
gfz2010ebhc  -0.12720
gfz2010iull   0.27030
gfz2010nmpc   0.00000
gfz2010nwef  -0.02630
gfz2010usho   0.13430
gfz2011aatr  -0.26050
gfz2011enva   0.20200
gfz2011gkzt  -0.74890
gfz2011jplh  -0.02010
gfz2011lcxq  -0.41380
gfz2011lzwj   0.17830
gfz2011rewa  -0.78890
gfz2011toub   0.11460
gfz2011wxfs   0.06010
gfz2012enno  -0.61060
gfz2012jlox  -0.47950
gfz2012kkup  -0.00410
gfz2012kuct  -0.13800
gfz2012kudo  -0.08010
gfz2012ldxg  -1.05950
gfz2014gkgf  -0.38560
gfz2014gkqf   0.42510
gfz2014gmhr  -1.22570
gfz2014lgqn   0.39140
gfz2014qqhm  -0.40370
gfz2014ssvz   1.04300
gfz2015cyjd  -0.89780
gfz2015fjhk  -0.15230
gfz2015fsjj  -0.13060
gfz2015kxxs   0.60190
gfz2015lhjy   0.97470
gfz2015mpte  -0.29540
gfz2015sfdd   0.92900
gfz2015snwh   0.21940
gfz2015svwm   0.34320
gfz2015taml   0.32390
