# Nsamples: 203  MAD:  1.087  mean: -1.503  variance:  1.359
gfz2010bfzs  -2.18850
gfz2010bifb  -2.55510
gfz2010bjeb  -2.22900
gfz2010bxxs  -2.06110
gfz2010czps  -1.50500
gfz2010dejx  -0.41690
gfz2010eaoy  -0.35300
gfz2010eapk  -0.89130
gfz2010eapn  -3.68300
gfz2010eaqe  -0.62330
gfz2010eaqy  -1.15070
gfz2010earu  -1.24820
gfz2010easf  -0.90820
gfz2010eask  -6.89320
gfz2010easo  -0.27250
gfz2010eato  -0.70660
gfz2010eatt  -1.68300
gfz2010eaty  -0.72260
gfz2010eaul  -1.30530
gfz2010eavs  -0.12040
gfz2010eawb  -1.52490
gfz2010eawu  -0.00000
gfz2010eaya   0.92040
gfz2010eaze  -0.23030
gfz2010eazu   1.52620
gfz2010ebdl  -0.79990
gfz2010ebfa   0.12220
gfz2010ebfx  -1.49550
gfz2010ebhc  -1.98910
gfz2010ebjy  -0.23150
gfz2010ebkj  -1.53760
gfz2010ebkx  -3.01980
gfz2010ebla  -0.95920
gfz2010ebll  -1.11570
gfz2010ebnn  -0.49730
gfz2010ebvm  -1.05240
gfz2010ebvv  -1.42490
gfz2010ebwp  -0.11430
gfz2010ebzr  -0.26320
gfz2010echc  -0.47560
gfz2010ecps  -0.32110
gfz2010ecro  -2.93170
gfz2010ecua  -1.15570
gfz2010eday  -0.78780
gfz2010edvf  -1.12310
gfz2010edyi   0.13500
gfz2010eedz  -1.36360
gfz2010eegn  -1.57580
gfz2010eeij  -1.08840
gfz2010eern  -1.03410
gfz2010eevu  -0.14850
gfz2010efkc  -1.92950
gfz2010egsy  -0.60870
gfz2010ehft  -1.85720
gfz2010ehnm  -1.53110
gfz2010eisx  -0.47250
gfz2010eixj  -2.55890
gfz2010ejjg  -1.00950
gfz2010ekoe  -0.69500
gfz2010ekyc  -1.85010
gfz2010elhv  -0.36280
gfz2010eltf  -1.19270
gfz2010elyc  -0.68780
gfz2010erdi  -0.33940
gfz2010erkn  -1.53750
gfz2010erom  -0.41250
gfz2010evco  -2.98560
gfz2010evgf  -0.11250
gfz2010excp  -0.81410
gfz2010exdd  -0.71210
gfz2010exdl  -1.78880
gfz2010exel  -1.91750
gfz2010exmc  -1.27360
gfz2010exno  -1.52500
gfz2010ezck   0.19220
gfz2010fcax  -0.55310
gfz2010ffui   0.73450
gfz2010figq  -1.40430
gfz2010fjal  -2.10950
gfz2010fpqy  -2.64150
gfz2010fync  -2.97840
gfz2010gcrl   1.69930
gfz2010gdld  -2.33700
gfz2010glxl  -1.01130
gfz2010grjd  -0.49070
gfz2010hxgv  -1.30250
gfz2010iobp  -0.64530
gfz2010iull  -2.25690
gfz2010jxbm  -1.33130
gfz2010nnny  -1.66850
gfz2010nqwo  -1.23030
gfz2010rqwj  -1.65200
gfz2010skve   0.36530
gfz2010txjs  -1.41880
gfz2010upfb  -1.05910
gfz2011aatr  -1.87730
gfz2011adjs  -0.55070
gfz2011bhha  -0.55770
gfz2011cykd  -0.76770
gfz2011dbig  -0.84410
gfz2011dcqb  -1.07970
gfz2011dkyi  -0.68470
gfz2011dpqx  -3.16410
gfz2011enva  -2.14240
gfz2011gbmx  -1.50220
gfz2011hfkj  -1.70070
gfz2011hlsa  -1.80910
gfz2011hpgx  -1.89300
gfz2011hpqp  -1.24430
gfz2011ieie  -1.03020
gfz2011iwte  -0.73990
gfz2011jplh  -2.03430
gfz2011kqwo  -2.10060
gfz2011kxzp  -1.29480
gfz2011lcxq  -2.64500
gfz2011lzwj  -2.17410
gfz2011mdie  -3.47610
gfz2011mjom  -3.11780
gfz2011mpme  -0.42380
gfz2011nrwc  -1.18140
gfz2011nudm  -1.88520
gfz2011owvz  -2.87750
gfz2011qvae  -2.43310
gfz2011rewa  -1.95350
gfz2011sagt  -0.59270
gfz2011toub  -3.34310
gfz2011uphh  -2.36180
gfz2011urzu  -0.84530
gfz2011vxns  -1.44030
gfz2011wwjs  -2.49840
gfz2011wxfs  -1.02550
gfz2011zklv  -2.40310
gfz2012aqgp  -1.83150
gfz2012bpkx  -2.22100
gfz2012enno  -1.80110
gfz2012fwfo  -1.77080
gfz2012fzfa  -0.50570
gfz2012gocc  -1.17790
gfz2012gomm  -3.94570
gfz2012hnul  -0.30410
gfz2012jlox  -3.20670
gfz2012kkup  -1.73060
gfz2012klhx  -1.83890
gfz2012kudo  -2.02510
gfz2012sphd  -3.05370
gfz2012ttoa  -4.63170
gfz2012uafg  -1.03050
gfz2012wtkr  -1.21990
gfz2012wvfl  -2.46400
gfz2012wxlg  -2.32900
gfz2012wxnu  -1.95190
gfz2012wypz  -2.29100
gfz2013mqmv  -2.13150
gfz2013nwdi  -1.83820
gfz2013pfbx  -2.75650
gfz2013svci  -1.98930
gfz2013toxf  -1.99660
gfz2013vfzp   1.15070
gfz2013vjjc  -2.72400
gfz2013wjmm  -1.39640
gfz2013xsdt  -2.51370
gfz2013xxxq  -1.48270
gfz2013yqkv  -3.07910
gfz2014afmx  -2.56390
gfz2014ande  -2.39380
gfz2014bwue  -1.20020
gfz2014czua  -1.23010
gfz2014ehsf  -1.28460
gfz2014ekcr  -1.89120
gfz2014enhi  -0.23860
gfz2014femz  -1.09840
gfz2014fgvi  -1.40640
gfz2014fhla  -3.43490
gfz2014frdz   0.16330
gfz2014ftka  -3.09090
gfz2014furx  -2.45300
gfz2014fusj   3.25630
gfz2014fvgh  -2.25860
gfz2014fvrg  -2.06870
gfz2014gbcz   1.07470
gfz2014gkgf  -2.81580
gfz2014gkgs  -2.94430
gfz2014gkhy  -1.29050
gfz2014gkjl  -2.11960
gfz2014gkqf  -2.01290
gfz2014gmge  -2.19860
gfz2014gmhr  -2.41380
gfz2014gmnb  -2.88850
gfz2014gmnw  -2.53340
gfz2014gmuw  -2.37640
gfz2014goba  -1.93240
gfz2014gori  -0.21040
gfz2014gufl   0.67620
gfz2014gull  -3.28220
gfz2014hasj  -3.18860
gfz2014hgqo  -2.70440
gfz2014hhwx  -2.30880
gfz2014jwmh  -1.85500
gfz2014nrie  -1.97530
gfz2014qngj  -1.32590
gfz2014szzf  -1.09060
gfz2015chhn  -2.78710
gfz2015cyjd  -3.23410
