# Nsamples: 35  MAD:  1.003  mean:  0.195  variance:  0.942
gfz2010iobp   0.00000
gfz2010iqnm   1.93910
gfz2010iull   0.95440
gfz2010jagd  -0.43780
gfz2010nqwo   0.26010
gfz2010nwef   1.07640
gfz2011jplh   0.22090
gfz2011kxzp   0.67130
gfz2012ruks  -1.50850
gfz2012ttoa   1.40240
gfz2012uafg   0.85880
gfz2012uzyj  -1.44280
gfz2012wklq  -0.91940
gfz2012wypz   0.84610
gfz2013akgj  -1.97440
gfz2013ccnr  -0.57250
gfz2013dofo  -0.18540
gfz2013drxz  -0.36680
gfz2013ldqb   0.45360
gfz2013mqmv   1.05910
gfz2013nkgj   0.43190
gfz2013nwdi  -1.56310
gfz2013qfsq  -0.74550
gfz2013qmer   0.93640
gfz2013ugax   0.03520
gfz2013vjjc  -0.18830
gfz2013wjmm  -0.86820
gfz2013xsdt   0.14700
gfz2014algk  -0.06460
gfz2014bwue   1.01300
gfz2014jjhc   1.35310
gfz2014jwmh   0.45610
gfz2015kfsu   0.86810
gfz2015lhjy   2.07370
gfz2015lytv   0.61930
