# Nsamples: 137  MAD:  1.110  mean:  1.820  variance:  2.394
gfz2010bxxs   1.49870
gfz2010czps   1.54200
gfz2010eaoy   0.00470
gfz2010eaqe   0.85750
gfz2010eaqx   1.39160
gfz2010eaqy   0.29290
gfz2010earu   1.05150
gfz2010easo   1.31530
gfz2010easu   0.69280
gfz2010eati   1.04790
gfz2010eato   0.96490
gfz2010eatt   0.16090
gfz2010eaty   0.89420
gfz2010eavs   0.08140
gfz2010eawb   1.53970
gfz2010eaxa  -0.00000
gfz2010eaxn   4.03760
gfz2010eaze   4.57780
gfz2010eazu   1.42030
gfz2010ebjy   1.64700
gfz2010ebkj   1.73910
gfz2010ebla   1.56430
gfz2010ebmb   1.11660
gfz2010ebnn   3.68450
gfz2010ebvv   1.10060
gfz2010ebzr   0.39160
gfz2010ecay   0.28040
gfz2010ecbi   1.48740
gfz2010ecft   0.87220
gfz2010ecsp   1.19210
gfz2010ecua   2.01420
gfz2010edyi   2.43930
gfz2010eeij   2.26170
gfz2010eerh   2.82200
gfz2010eevu   1.31130
gfz2010egap  -0.16470
gfz2010eisx  -6.76000
gfz2010ejjg   2.37080
gfz2010elhv   1.32590
gfz2010eltf   0.18900
gfz2010elyc   3.15550
gfz2010eujm   3.39570
gfz2010euvl   2.98720
gfz2010evco   2.09160
gfz2010ewvc   1.12940
gfz2010excp   1.12370
gfz2010exdd   1.34920
gfz2010exdl   1.20380
gfz2010exhw   3.57830
gfz2010exno   0.73030
gfz2010ezck   0.70700
gfz2010fedq   0.89010
gfz2010ffhq   1.60750
gfz2010flha   1.18910
gfz2010fpqy   1.95620
gfz2010fync   0.96690
gfz2010glxl   1.39740
gfz2010gyqp   2.09880
gfz2010hxgv   5.84880
gfz2010iobp   0.42070
gfz2010iull   1.77210
gfz2010jxbm   1.16750
gfz2010moyw   1.25440
gfz2010nmpc   1.24520
gfz2010nqwo  -0.34570
gfz2010qjst   1.22950
gfz2010rqwj  -0.45290
gfz2010tcrl   1.93090
gfz2010upfb   1.46030
gfz2010yjev   4.68890
gfz2011aatr   0.33960
gfz2011adjs   1.69970
gfz2011cvfg   1.91480
gfz2011cykd   1.82250
gfz2011cyuk   2.28470
gfz2011dbev   2.42480
gfz2011dcqb   1.65220
gfz2011hfkj   2.04380
gfz2011kqwo   0.47050
gfz2011lzwj   2.00460
gfz2011nudm   3.47610
gfz2011ohcy   5.83590
gfz2011qvae   3.12150
gfz2011rewa   2.33560
gfz2011rqui   3.79560
gfz2011vrhg   2.81410
gfz2012bfah   3.30260
gfz2012cxdn   1.57120
gfz2012fzfa   2.48690
gfz2012hnul   2.84230
gfz2012kkup   2.75720
gfz2012pkel   3.73460
gfz2012wklq   1.26020
gfz2012wvfl   4.04560
gfz2012wxlg   2.11700
gfz2013ccnr   1.57900
gfz2013cwpn   1.27450
gfz2013feep   1.71200
gfz2013ilug   1.56470
gfz2013nwdi   1.73230
gfz2013vjjc   2.53810
gfz2013wjmm   2.43500
gfz2013xsdt   2.28170
gfz2014czqi   4.69430
gfz2014enhi   1.16160
gfz2014furx  -4.59180
gfz2014gbcz   2.04670
gfz2014gkgf   3.68200
gfz2014gmge   4.64940
gfz2014gmhr   0.81210
gfz2014goba   2.38570
gfz2014hjlx   3.39910
gfz2014qngj   1.97710
gfz2014qqhm   3.98990
gfz2014ssvz   2.18180
gfz2014watn   3.34100
gfz2015aruz   3.63150
gfz2015chhn   1.67610
gfz2015cyjd   1.85540
gfz2015fkgt   3.72300
gfz2015fsjj   0.66490
gfz2015gckd   4.43370
gfz2015gjbr   2.71530
gfz2015lhjy   3.50740
gfz2015lytv   0.79380
gfz2015qnho   2.94650
gfz2015sfdd   2.00430
gfz2015sfdl   1.14460
gfz2015sfdy   2.11370
gfz2015sfhz   1.07530
gfz2015sfiq   0.54050
gfz2015sfno   0.94470
gfz2015sfqr  -0.06050
gfz2015sgpu   2.76170
gfz2015snwh   2.85590
gfz2015soxc   2.53770
gfz2015svwm   2.42750
