# Nsamples: 50  MAD:  1.189  mean:  1.069  variance:  2.432
gfz2010czps   0.63840
gfz2010eaoy   0.73360
gfz2010eapn  -0.51110
gfz2010eaqx  -3.05660
gfz2010eaqy   0.10170
gfz2010earq   1.21400
gfz2010earu   0.45040
gfz2010easo   1.66330
gfz2010eavs   0.37290
gfz2010eaxa   0.47120
gfz2010ecua  -0.58330
gfz2010eevu  -0.21710
gfz2010efsq   2.72280
gfz2010eisx   5.17320
gfz2010eltf   0.12900
gfz2010elyc   1.70210
gfz2010excp  -0.58160
gfz2010exdd  -0.21000
gfz2010ffhq   2.74470
gfz2010fync   1.44850
gfz2010hxgv   4.09220
gfz2010moyw   1.17100
gfz2010nqwo   1.49320
gfz2010pewa   1.55970
gfz2010rqwj  -0.47850
gfz2010upfb   0.12660
gfz2011adjs   1.55560
gfz2011cykd   0.51790
gfz2011dbev   3.22700
gfz2011ecaj  -0.94620
gfz2012cqnl   1.65910
gfz2012cxdn   1.57450
gfz2012hnul   3.08210
gfz2012keor   2.99890
gfz2012wklq   1.16470
gfz2013jusj  -2.43390
gfz2013vjjc   1.36180
gfz2013ylbx   1.97730
gfz2014jcjt   5.11060
gfz2014qngj  -0.43350
gfz2015byjd   2.39560
gfz2015chhn  -0.05660
gfz2015fkgt   1.12970
gfz2015lytv   0.06590
gfz2015sfdd   0.88030
gfz2015sfdy   1.05070
gfz2015sfhz   1.00170
gfz2015sfno   1.49390
gfz2015snwh   1.41260
gfz2015svwm   1.28910
