# Nsamples: 29  MAD:  0.437  mean: -0.416  variance:  0.512
gfz2010bowy  -1.54380
gfz2010bxxs   0.36870
gfz2010grjd  -1.49030
gfz2010iull  -0.31660
gfz2010nmpc  -0.56910
gfz2011aatr  -0.32800
gfz2011enva  -0.18370
gfz2011gkzt   0.37580
gfz2011lcxq  -0.69090
gfz2011lzwj   0.05510
gfz2011rewa  -0.71730
gfz2011toub  -0.19960
gfz2011wxfs  -0.64170
gfz2012enno   0.13340
gfz2012jlox  -0.62420
gfz2012kkup  -0.03790
gfz2012ldxg  -0.21320
gfz2012wypz  -0.37740
gfz2013drxz  -0.12410
gfz2013nwdi  -0.76600
gfz2013svci  -0.34690
gfz2014bwue  -2.86910
gfz2014fgvi   0.00750
gfz2014fhla  -0.47200
gfz2014ftka  -0.84200
gfz2014gkgf  -0.21560
gfz2014jomw  -0.39400
gfz2015cyjd   1.43540
gfz2015lhjy  -0.46960
