# Nsamples: 63  MAD:  0.879  mean:  0.005  variance:  1.616
gfz2010dejx   2.53610
gfz2010eaoy  -1.10840
gfz2010eapk   0.67350
gfz2010eisx   1.95570
gfz2010ekaw  -0.26020
gfz2010eltf   2.57840
gfz2010elyc   2.74850
gfz2010excp   1.80000
gfz2010exdd   0.68180
gfz2010fedq   0.41260
gfz2010ffhq   0.23060
gfz2010iull   0.14150
gfz2010mbje  -1.85590
gfz2010rqwj   0.95080
gfz2011aatr  -0.14530
gfz2011enva   0.82000
gfz2011gbmx  -1.00640
gfz2011gkzt  -0.48160
gfz2011lzwj   0.70690
gfz2011rewa   0.28040
gfz2011toub  -0.42970
gfz2011wxfs   0.18040
gfz2012enno  -0.42430
gfz2012hnuw  -1.49430
gfz2012jlox  -0.02010
gfz2012kkup  -0.52540
gfz2012klhx   0.22950
gfz2012kudo  -0.55080
gfz2012wypz  -0.50580
gfz2013ccnr  -0.65250
gfz2013drxz  -0.30990
gfz2013fdoo   2.97880
gfz2013nkgj  -0.61270
gfz2013nwdi  -0.42500
gfz2013svci   0.00620
gfz2013vjjc   0.81090
gfz2014bwue   0.13130
gfz2014fgvi   0.59190
gfz2014fhla   0.80140
gfz2014gkgf   0.92280
gfz2014gmhr  -0.31280
gfz2014hifp  -4.33420
gfz2014hyal   1.68840
gfz2014lvgn   1.83010
gfz2014ndue  -0.25780
gfz2014qlxd  -0.32930
gfz2014yula  -0.77930
gfz2015chhn  -0.07610
gfz2015cxxk  -1.59490
gfz2015cyjd  -1.28150
gfz2015fsjj   0.46300
gfz2015lhjy   0.28550
gfz2015lytv  -1.86250
gfz2015sfdd   0.15890
gfz2015sfdy   0.49100
gfz2015sfno  -0.39740
gfz2015snwh  -0.19300
gfz2015soxc  -0.35170
gfz2015sqyh  -2.72860
gfz2015stcv  -2.47230
gfz2015susq   0.59330
gfz2015svwm   0.12850
gfz2015taml  -0.70520
