# Nsamples: 48  MAD:  0.643  mean: -0.641  variance:  1.025
gfz2013svci  -0.45090
gfz2014bwue  -0.32230
gfz2014fgvi   0.17310
gfz2014fhla  -2.84050
gfz2014fimn  -0.63060
gfz2014ftka  -1.50440
gfz2014gkgf   0.07670
gfz2014gkhy  -0.33480
gfz2014gkqf  -0.12540
gfz2014gmge  -0.80560
gfz2014gmhr   0.24950
gfz2014gmnb  -0.49480
gfz2014gmnw  -0.38930
gfz2014goba   0.93740
gfz2014hasj  -3.02250
gfz2014hfhl  -1.99000
gfz2014hocg  -0.04780
gfz2014hqxs   1.06060
gfz2014huaj  -1.12760
gfz2014itkw  -0.51000
gfz2014jjhc  -0.68200
gfz2014jpep  -0.58700
gfz2014lgqn   0.02720
gfz2014lxnc   0.76590
gfz2014lyhk  -0.84780
gfz2014macx  -1.09350
gfz2014nqfm  -0.35240
gfz2014nrie  -0.43710
gfz2014oinz  -1.01960
gfz2014qlxd  -1.04740
gfz2014qqhm  -0.23100
gfz2014ssvz  -0.96950
gfz2015chhn  -0.83930
gfz2015cyjd   0.12140
gfz2015fsjj  -0.91520
gfz2015hgbk  -0.89650
gfz2015jzcv  -1.93920
gfz2015lhjy  -0.39700
gfz2015mpte  -0.84590
gfz2015sfdd  -0.45500
gfz2015sfdy   0.12910
gfz2015sfno   1.97230
gfz2015sjgk  -4.27030
gfz2015skxu  -1.48020
gfz2015smym  -1.00850
gfz2015snwh  -0.34280
gfz2015soxc  -0.45280
gfz2015svwm  -0.57400
