# Nsamples: 12  MAD:  0.489  mean:  0.234  variance:  0.568
gfz2013nwdi  -0.57700
gfz2013svci  -0.10760
gfz2013vjjc   2.32960
gfz2014fgvi   0.13530
gfz2014gkgf  -0.72880
gfz2014gmhr   0.32430
gfz2014ssvz  -0.10870
gfz2015cyjd   0.46640
gfz2015fsjj  -0.31490
gfz2015sfdd   0.55060
gfz2015snwh   0.58900
gfz2015svwm   0.25080
