# Nsamples: 17  MAD:  0.518  mean:  0.761  variance:  0.724
gfz2010iull   0.46880
gfz2010nmpc   1.04640
gfz2011aatr   0.31430
gfz2011enva   3.71330
gfz2011lcxq   0.56680
gfz2011lzwj   0.84880
gfz2011rewa   0.63280
gfz2011toub   0.51370
gfz2011wxfs   0.51440
gfz2012jlox   0.17280
gfz2012kudo   0.91590
gfz2012ldxg   0.78590
gfz2012wypz  -0.05340
gfz2013nwdi  -0.04870
gfz2014fgvi   1.59860
gfz2014gkgf  -0.01990
gfz2015lhjy   0.96370
