# Nsamples: 54  MAD:  0.612  mean:  0.317  variance:  0.526
gfz2010bxxs   0.33480
gfz2010ebhc  -0.19630
gfz2010iull   0.24070
gfz2010mkuu   1.01290
gfz2010usho   0.87410
gfz2011aatr   0.37880
gfz2011gkzt   0.76730
gfz2011hlsa   0.31780
gfz2012ldxg   0.14770
gfz2012ldzj   0.48990
gfz2012teic   0.77490
gfz2012vrgb   0.54130
gfz2012wypz   0.18090
gfz2013drxz   0.74120
gfz2013jkut   0.96250
gfz2013kdeo   0.09170
gfz2013nwdi  -0.49270
gfz2013pfbx  -0.24970
gfz2013svci   0.60130
gfz2014afmx   0.93320
gfz2014ande   0.25100
gfz2014bwue  -0.56150
gfz2014fgvi   1.12220
gfz2014fhla  -1.53810
gfz2014fkmr   0.24210
gfz2014frdz   1.87160
gfz2014frez   1.04050
gfz2014ftka  -0.05090
gfz2014fusj   0.19610
gfz2014fval   0.06520
gfz2014gkgf  -0.31920
gfz2014gkqf   0.16840
gfz2014gltx   0.31930
gfz2014gmnb  -0.42480
gfz2014goba  -0.03170
gfz2014gull   1.29100
gfz2014gwab  -0.66980
gfz2014hasj   0.24420
gfz2014itkw  -0.62010
gfz2014jjhc   1.68120
gfz2014jpep   0.29780
gfz2014lgqn   1.07820
gfz2014lxnc   2.56170
gfz2014nqfm  -0.40030
gfz2014oinz  -0.21150
gfz2014qqhm   0.62870
gfz2014ssvz   0.04630
gfz2014ubwn   0.11500
gfz2014vhld  -1.64860
gfz2015cyjd   0.14500
gfz2015jzcv   0.25400
gfz2015lhjy   0.11540
gfz2015mpte   0.86210
gfz2015taml   0.56940
