# Nsamples: 1273  MAD:  0.599  mean: -1.411  variance:  0.660
gfz2010aban  -0.14470
gfz2010aerk  -1.50920
gfz2010ahqi  -1.16200
gfz2010bfzs  -1.78730
gfz2010bgth  -0.18600
gfz2010bhhq  -1.68020
gfz2010bifb  -2.15940
gfz2010bjeb  -1.11140
gfz2010bjjx  -2.07070
gfz2010bkob  -1.65670
gfz2010bowy  -2.30220
gfz2010boxo  -1.29860
gfz2010bxxs  -1.01660
gfz2010caft  -1.90450
gfz2010cbkg  -1.64410
gfz2010cdbt  -1.55040
gfz2010cind  -1.31470
gfz2010civi  -0.97400
gfz2010ckeu  -2.10340
gfz2010ckzm  -0.61690
gfz2010cnwc  -0.80460
gfz2010cqwl  -1.44110
gfz2010ctuw  -2.68060
gfz2010ddzo  -0.51510
gfz2010dejx  -0.26050
gfz2010dfru  -1.31610
gfz2010diqn  -1.13410
gfz2010dumm  -2.12080
gfz2010eaoy  -1.65210
gfz2010eapk  -1.68280
gfz2010eapn  -0.73010
gfz2010eaqe  -1.81710
gfz2010eaqx  -1.12160
gfz2010eaqy  -1.73440
gfz2010earq  -0.90030
gfz2010earu  -2.14030
gfz2010easf  -2.52580
gfz2010eask  -2.93180
gfz2010easo  -1.75800
gfz2010easu  -2.01600
gfz2010eati  -1.09680
gfz2010eato  -0.65150
gfz2010eatt  -2.66150
gfz2010eaty  -1.60790
gfz2010eaul  -1.11490
gfz2010eavd  -2.60150
gfz2010eavp  -1.41770
gfz2010eavs  -1.74100
gfz2010eawb  -1.32530
gfz2010eawu  -7.32640
gfz2010eaxa  -1.00880
gfz2010eaya   3.81090
gfz2010eayd  -1.74730
gfz2010eayp  -0.95880
gfz2010eaze  -1.14450
gfz2010eazu  -3.05620
gfz2010ebbd  -1.44850
gfz2010ebbx  -0.19560
gfz2010ebby  -1.05500
gfz2010ebdl  -1.01340
gfz2010ebek  -1.68730
gfz2010ebfa  -1.21070
gfz2010ebfx  -1.62580
gfz2010ebgj  -1.19610
gfz2010ebhc  -1.81270
gfz2010ebih  -2.09480
gfz2010ebiv  -0.95160
gfz2010ebjy  -1.45530
gfz2010ebkj  -1.71230
gfz2010ebkx  -1.45330
gfz2010ebla  -1.21400
gfz2010ebmb  -1.99180
gfz2010ebmi  -0.63570
gfz2010ebnn  -1.84980
gfz2010ebpa  -2.12250
gfz2010ebqt  -1.53950
gfz2010ebrm  -1.27150
gfz2010ebsv  -1.07520
gfz2010ebtk  -1.34020
gfz2010ebvm  -1.94320
gfz2010ebvv  -1.51430
gfz2010ebwp  -1.49630
gfz2010ebxl  -1.36720
gfz2010ebze  -0.93980
gfz2010ebzk  -2.07540
gfz2010ebzr  -1.70310
gfz2010ecam  -1.59420
gfz2010ecay  -1.23430
gfz2010ecbi  -1.77460
gfz2010eccq  -0.77700
gfz2010eced  -0.99100
gfz2010ecfx  -1.21620
gfz2010ecgh  -0.91140
gfz2010echc  -1.40210
gfz2010echt  -1.56000
gfz2010echy  -0.49620
gfz2010ecls  -0.63300
gfz2010ecml  -1.01920
gfz2010ecnm  -1.52930
gfz2010ecps  -1.17700
gfz2010ecro   0.11860
gfz2010ecsp  -0.64190
gfz2010ectq   0.16040
gfz2010ecua  -2.08780
gfz2010ecuv  -0.99600
gfz2010ecvt  -1.43310
gfz2010edad  -2.65120
gfz2010eday  -1.27660
gfz2010edhr  -0.51810
gfz2010edhv  -1.12510
gfz2010edim  -2.97920
gfz2010edji  -1.17260
gfz2010edkp  -0.22090
gfz2010edqh  -1.34920
gfz2010edsk  -1.17880
gfz2010edsn  -1.07400
gfz2010edsy  -0.61420
gfz2010edvf  -1.30180
gfz2010edyi  -3.06740
gfz2010edzb  -1.87740
gfz2010eedu  -2.45290
gfz2010eedz  -0.40190
gfz2010eefh  -1.11810
gfz2010eegn  -2.01010
gfz2010eeia  -1.24070
gfz2010eeij  -1.31650
gfz2010eekg  -0.98940
gfz2010eekq  -2.00350
gfz2010eevu  -1.62560
gfz2010efak  -1.40090
gfz2010efbh  -2.13530
gfz2010efbi  -1.30460
gfz2010efkc  -1.54840
gfz2010efls  -2.10620
gfz2010efnf  -0.68060
gfz2010efsq  -1.05160
gfz2010efwo  -0.81870
gfz2010efxf  -2.42160
gfz2010egap  -0.85710
gfz2010eghq  -1.56790
gfz2010egld  -1.30940
gfz2010egln  -1.53100
gfz2010egsw  -1.31290
gfz2010egsy  -0.94080
gfz2010egyy  -1.98740
gfz2010ehaj  -2.10260
gfz2010ehft  -1.30600
gfz2010ehnl   0.66620
gfz2010ehsy  -1.68590
gfz2010ehvj  -1.18030
gfz2010ehwg  -0.31550
gfz2010ehxz  -1.15390
gfz2010eimf  -1.37050
gfz2010eioi  -1.29020
gfz2010eisx  -2.73020
gfz2010eixj  -2.67360
gfz2010ejjg  -1.97000
gfz2010ejju  -3.57020
gfz2010ejka  -1.08490
gfz2010ejxf  -1.20770
gfz2010ekaw  -0.79330
gfz2010ekoe  -1.78930
gfz2010ekyc  -2.38000
gfz2010elhv  -1.73300
gfz2010elin  -2.41620
gfz2010eljf  -0.50630
gfz2010elpu  -1.07770
gfz2010eltf  -1.21880
gfz2010elvp  -1.77280
gfz2010elxi  -2.03330
gfz2010elyc  -3.45410
gfz2010elyo  -1.84210
gfz2010elzl  -1.20520
gfz2010emoz   0.11260
gfz2010emyz  -2.13260
gfz2010encm  -0.78820
gfz2010enpa   0.74400
gfz2010eoao   0.62470
gfz2010eohh  -1.07590
gfz2010epbe  -1.52790
gfz2010epud  -1.05830
gfz2010epxj  -2.00740
gfz2010eqjg  -1.65270
gfz2010eqmu   0.65590
gfz2010eqwl   2.77040
gfz2010erdi  -0.90750
gfz2010erfy  -1.78770
gfz2010erig  -1.53840
gfz2010erkn  -1.59430
gfz2010erna  -1.26750
gfz2010erom  -1.76080
gfz2010erum  -1.33660
gfz2010eruy  -0.58010
gfz2010erwn  -1.79210
gfz2010erxk  -1.37330
gfz2010eryg  -0.72700
gfz2010esid  -0.79310
gfz2010esmg  -0.12970
gfz2010eted  -1.69540
gfz2010etfw  -0.47220
gfz2010euii  -1.51450
gfz2010eujm  -2.16770
gfz2010euvl  -1.96770
gfz2010euwb  -2.18900
gfz2010euxe  -1.27130
gfz2010evco  -1.34730
gfz2010evgf  -1.40030
gfz2010evjv  -1.06410
gfz2010evkd  -1.17670
gfz2010ewbc  -1.25600
gfz2010ewpq  -0.53570
gfz2010ewvc  -2.11980
gfz2010ewyu  -2.09780
gfz2010excp  -1.47820
gfz2010exdd  -1.87990
gfz2010exdl  -2.05620
gfz2010exed  -1.44450
gfz2010exel  -1.24260
gfz2010exfb  -1.89540
gfz2010exgb  -1.47150
gfz2010exhd  -1.53260
gfz2010exhw  -2.14660
gfz2010exjw  -1.05680
gfz2010exlm  -1.73790
gfz2010exmc  -2.05430
gfz2010exno  -1.88910
gfz2010exou  -1.22260
gfz2010exqu  -2.05780
gfz2010exts  -0.60890
gfz2010exyp  -1.56390
gfz2010eyaz  -1.63360
gfz2010eyhh  -1.69850
gfz2010eyiv  -1.44240
gfz2010eymr  -1.71890
gfz2010eymx  -1.13250
gfz2010eyvq  -1.47810
gfz2010eyxe  -0.98570
gfz2010ezax  -1.34720
gfz2010ezck  -1.20170
gfz2010ezig  -1.91540
gfz2010ezvg  -1.59650
gfz2010ezwz  -1.66280
gfz2010faeu  -2.60560
gfz2010falm  -1.98960
gfz2010fauz  -2.56560
gfz2010fbeu  -2.29050
gfz2010fbpi  -0.37570
gfz2010fcax  -1.93420
gfz2010fcdw  -2.03310
gfz2010fciw  -2.09970
gfz2010fcnt  -1.49010
gfz2010fcxy  -0.90770
gfz2010fcyj  -1.97700
gfz2010fczt  -1.17820
gfz2010fdab   0.20530
gfz2010fedq  -0.93810
gfz2010fefr  -0.50750
gfz2010fexw  -1.48570
gfz2010ffhq  -1.55370
gfz2010ffjb  -2.09630
gfz2010ffui  -0.99560
gfz2010fhbl   0.00000
gfz2010figq  -2.12340
gfz2010fjal  -1.83560
gfz2010fjmu  -3.17010
gfz2010flha  -2.40410
gfz2010flrt  -1.21670
gfz2010flxi  -1.74420
gfz2010fmwb  -2.88540
gfz2010fneu  -1.84090
gfz2010fnrk  -0.21120
gfz2010fpmv  -1.81890
gfz2010fpqy  -1.61050
gfz2010fqdu  -3.09740
gfz2010fser  -1.89410
gfz2010ftlm  -1.87620
gfz2010fupn  -2.11080
gfz2010fuuy  -1.56140
gfz2010fwpv  -1.44370
gfz2010fwzd  -1.77370
gfz2010fyen  -1.69150
gfz2010fync  -1.71720
gfz2010gcdn  -1.23140
gfz2010gcrl  -1.94790
gfz2010gcrp  -1.65410
gfz2010gdch  -0.88140
gfz2010gdld  -2.18250
gfz2010gjia  -1.57700
gfz2010gjvo  -1.48440
gfz2010glqr  -2.23860
gfz2010glxl  -2.44140
gfz2010grjd  -0.32410
gfz2010grxb  -1.65940
gfz2010gslu  -2.03280
gfz2010gtqs  -0.67230
gfz2010gtzt  -0.96850
gfz2010gymo  -1.14610
gfz2010gyqp  -1.94660
gfz2010gzxr  -1.54030
gfz2010hbka  -0.94220
gfz2010hcio  -1.80750
gfz2010hevz   1.31580
gfz2010hjoc  -2.27220
gfz2010hlln  -1.87890
gfz2010hlmq  -2.69120
gfz2010hmhm  -1.90980
gfz2010hndk  -1.35120
gfz2010hnnf  -1.78040
gfz2010hnpi  -1.52620
gfz2010homc  -2.04090
gfz2010hptz  -1.56640
gfz2010hrkr  -1.68710
gfz2010hrpr  -0.87580
gfz2010hxbs   0.06980
gfz2010hxgv  -1.40270
gfz2010hxhe  -1.05850
gfz2010hzar  -0.62440
gfz2010ibiy  -1.59960
gfz2010iciq  -1.51930
gfz2010imfv  -1.39220
gfz2010imsh  -1.06050
gfz2010iobp  -1.86890
gfz2010iphd  -2.09850
gfz2010iqep  -5.64740
gfz2010iqfm  -0.63150
gfz2010iqus  -2.13320
gfz2010irqr  -1.61100
gfz2010irvf  -2.43580
gfz2010itpb  -2.06500
gfz2010iull  -1.48610
gfz2010izzj  -1.50840
gfz2010jagd  -0.15980
gfz2010jhie  -1.78800
gfz2010jkxj  -3.32880
gfz2010jlhj  -0.78750
gfz2010jpss  -1.40700
gfz2010jqxx  -1.13030
gfz2010jssh  -1.36880
gfz2010jsuo  -0.71450
gfz2010jwpy  -2.73460
gfz2010jxbm  -1.83040
gfz2010jygz  -1.74220
gfz2010kcoo  -1.37640
gfz2010kdyc  -2.68780
gfz2010kihf  -3.81280
gfz2010kjmp   0.30100
gfz2010kmgg  -0.88150
gfz2010kmsv  -1.31970
gfz2010kyvj  -0.36450
gfz2010kzml  -1.88230
gfz2010lcoq  -1.20670
gfz2010lczp  -2.75250
gfz2010lepw  -0.45950
gfz2010lgwy  -0.88240
gfz2010lkcf  -2.22800
gfz2010lopz  -0.97300
gfz2010lrlk  -0.67800
gfz2010lyfk  -1.09120
gfz2010mant  -0.94510
gfz2010mbje  -0.43790
gfz2010mcrx   0.01920
gfz2010mdpq  -2.40480
gfz2010mgss  -0.76000
gfz2010mhjt  -1.47030
gfz2010miil  -2.48910
gfz2010miqn  -1.15240
gfz2010mkuu  -1.65870
gfz2010mlkz  -1.74900
gfz2010mlta  -2.85900
gfz2010mncc  -1.85620
gfz2010moyw  -2.19660
gfz2010mpuy  -1.50640
gfz2010msjj  -1.50230
gfz2010mwdq  -1.33100
gfz2010mzjr  -0.69690
gfz2010nfsj  -1.29370
gfz2010nlkh  -2.33660
gfz2010nmpc  -2.83590
gfz2010nnny  -0.58200
gfz2010nqwf  -1.43710
gfz2010nqwo  -1.71300
gfz2010nrjo  -1.00690
gfz2010nsck  -1.18200
gfz2010nsdf  -2.28330
gfz2010ntuo  -1.07180
gfz2010nubk  -1.63450
gfz2010nwef  -1.81450
gfz2010nxsy  -1.31130
gfz2010nxum  -2.10350
gfz2010nzha  -0.33710
gfz2010nzla  -1.04640
gfz2010ocxq  -1.34500
gfz2010odpb  -1.31290
gfz2010oedn  -1.85590
gfz2010okdm  -1.59110
gfz2010oluw  -2.05890
gfz2010omla  -1.78880
gfz2010onma  -1.71390
gfz2010osjs  -0.85020
gfz2010otbn  -2.08960
gfz2010pbdz  -1.95300
gfz2010pcxi  -2.12130
gfz2010pdtk  -1.58380
gfz2010pets  -1.24450
gfz2010pewa  -2.20120
gfz2010pewx  -3.00750
gfz2010pfyu  -3.07200
gfz2010phvg  -2.16690
gfz2010pmqd  -1.22720
gfz2010pxak  -1.89650
gfz2010pxgh  -0.83060
gfz2010qjst  -1.32450
gfz2010qpcq  -1.22350
gfz2010qpvi  -0.95870
gfz2010qwwx  -1.53040
gfz2010rhas  -6.40530
gfz2010rkfp  -2.27000
gfz2010rqwj  -1.93200
gfz2010sfee  -1.69680
gfz2010sfla  -2.26550
gfz2010skqo  -0.97170
gfz2010skve  -2.00210
gfz2010srdb  -1.20370
gfz2010svtn  -1.16670
gfz2010svve  -1.11810
gfz2010swcy  -1.89080
gfz2010sxfq   0.93330
gfz2010sxwt  -1.51150
gfz2010sysw  -1.93360
gfz2010szde  -1.40200
gfz2010szim  -2.12050
gfz2010tcrl  -2.78260
gfz2010txjs  -1.09890
gfz2010uept  -1.50400
gfz2010upfb  -1.74580
gfz2010usho  -1.43960
gfz2010ustq  -0.79540
gfz2010utcg  -1.54730
gfz2010utmc  -1.39550
gfz2010uyhb  -1.77510
gfz2010veri  -2.57090
gfz2010vhuj  -1.14630
gfz2010vtdg  -1.12670
gfz2010vyxd  -1.44610
gfz2010wnty  -0.97320
gfz2010wntz  -3.72680
gfz2010wofs  -2.09210
gfz2010xche  -0.30280
gfz2010xden  -1.28470
gfz2010xgfc  -0.81410
gfz2010xgzw  -1.48120
gfz2010xjck  -1.03430
gfz2010xjsj  -0.74720
gfz2010xnxk  -1.52070
gfz2010yjev  -2.26250
gfz2010ymfy  -2.50740
gfz2010ymur  -2.61480
gfz2010yosr  -1.25730
gfz2010yqwx   0.90280
gfz2011aatr  -0.64350
gfz2011adjs  -1.95770
gfz2011alip  -1.55270
gfz2011alsa  -1.05010
gfz2011aqxf  -1.60150
gfz2011ccpw  -1.07110
gfz2011cfae  -0.90240
gfz2011cndo  -1.78570
gfz2011coxh  -0.90410
gfz2011csju  -2.10810
gfz2011cvfg  -0.10040
gfz2011cykd  -2.85740
gfz2011cynl  -1.25370
gfz2011cyre  -0.94960
gfz2011cyuk  -2.85920
gfz2011dbev  -1.54400
gfz2011dbig  -1.77700
gfz2011dbon  -1.40570
gfz2011dbwt  -0.40520
gfz2011dcqb  -0.68030
gfz2011dddh  -0.69030
gfz2011deaf  -2.58040
gfz2011dkyi  -0.81140
gfz2011dlyx  -1.55700
gfz2011dpqx  -1.11220
gfz2011dtpy  -1.06610
gfz2011duyr  -1.54270
gfz2011eayc  -1.24250
gfz2011eazf  -1.34920
gfz2011ecaj  -1.54670
gfz2011edmm  -2.15420
gfz2011ehzq  -1.48010
gfz2011eltw  -1.83590
gfz2011enva  -1.91720
gfz2011eocc  -0.39590
gfz2011etje  -0.79900
gfz2011fgvr  -1.92880
gfz2011fhag  -1.76190
gfz2011fhbm  -2.19160
gfz2011fhur  -1.63710
gfz2011fkbn  -1.38710
gfz2011flgj  -0.89390
gfz2011fnsw  -1.20720
gfz2011gbmx  -1.28800
gfz2011gcwb  -1.69060
gfz2011ggvf  -2.21280
gfz2011gkey  -0.79850
gfz2011gkzt  -2.66490
gfz2011gzbr  -1.36090
gfz2011haid  -1.00000
gfz2011hbex  -1.85420
gfz2011hebt  -1.99630
gfz2011hlqw  -1.37260
gfz2011hlsa  -1.34420
gfz2011hlth  -1.33630
gfz2011hpgx  -1.53430
gfz2011hpqp  -1.98390
gfz2011hryk  -2.25570
gfz2011hvbu  -1.91160
gfz2011icxe  -5.30320
gfz2011ieie  -0.65520
gfz2011lgsg  -1.65470
gfz2011lhls  -1.05150
gfz2011lvjr  -2.15370
gfz2011lzwj  -1.04730
gfz2011mdie  -1.35810
gfz2011mepc  -1.76350
gfz2011mjom  -2.22780
gfz2011mllx  -1.58030
gfz2011mpme  -1.66350
gfz2011mprq  -0.87740
gfz2011myia  -1.13690
gfz2011nauw  -2.04870
gfz2011nkaz  -1.27120
gfz2011noud  -2.81230
gfz2011npgs  -2.60410
gfz2011nrwc  -2.06170
gfz2011nrwv  -0.85080
gfz2011nsex  -3.38620
gfz2011ntkh  -1.21890
gfz2011nudm  -2.01980
gfz2011ogqk  -2.99080
gfz2011ohcy  -0.81940
gfz2011oiqe  -2.34880
gfz2011oiwk  -1.42560
gfz2011olkk  -0.59770
gfz2011orgn  -0.98970
gfz2011ornx  -0.95980
gfz2011pccd  -0.76380
gfz2011pdpt  -1.94730
gfz2011pdst  -1.95360
gfz2011phms  -1.10980
gfz2011pntf  -1.03320
gfz2011qvae  -2.80680
gfz2011qyms  -1.42920
gfz2011rabm  -2.18230
gfz2011rewa  -1.58380
gfz2011rgwp  -0.02050
gfz2011rqui  -1.50190
gfz2011rsrh  -1.71690
gfz2011sagt  -1.25840
gfz2011shqm  -1.84240
gfz2011svix  -1.61250
gfz2011tbas  -1.33690
gfz2011tcij   0.14840
gfz2011tjue  -1.51490
gfz2011tkfp  -2.06420
gfz2011tkog  -1.27350
gfz2011tnag  -0.74140
gfz2011tsnp  -3.85760
gfz2011tuea  -1.47240
gfz2011uepx  -2.09300
gfz2011ugzz  -0.99330
gfz2011ujze  -1.42960
gfz2011uphh  -1.40270
gfz2011urxy  -1.46340
gfz2011urzu  -1.22780
gfz2011uzqv  -1.47940
gfz2011vhfi  -1.20970
gfz2011vnza  -0.96340
gfz2011vxns  -1.71390
gfz2011wcic  -1.69590
gfz2011wjul  -1.02840
gfz2011wvzb  -0.21100
gfz2011wwjs  -1.65380
gfz2011wxfs  -1.06710
gfz2011wxtk  -1.70580
gfz2011xaan  -2.17400
gfz2011xcpv  -1.17180
gfz2011xesx  -1.06040
gfz2011xyxj  -0.44390
gfz2011yfdx  -1.88340
gfz2011yybo  -2.77060
gfz2011yzwq  -2.00990
gfz2011zklv  -0.26130
gfz2011zlrd  -1.16520
gfz2011zqhh  -1.49390
gfz2012ajtq  -0.81980
gfz2012aqgp  -1.66460
gfz2012bfah  -1.28470
gfz2012bpkx  -1.99130
gfz2012bpwl  -1.21800
gfz2012bszs  -1.69470
gfz2012byad  -1.68610
gfz2012cgvr  -1.60640
gfz2012cmfy  -1.63750
gfz2012cnod  -0.61880
gfz2012cxdn  -1.81380
gfz2012czlw  -1.08390
gfz2012dfhq  -0.33190
gfz2012dimn  -1.02500
gfz2012dinb  -1.19930
gfz2012dves   0.89790
gfz2012dyyh  -1.35780
gfz2012ekda  -1.57210
gfz2012ekzf  -1.49060
gfz2012elce  -1.43730
gfz2012emjg  -1.11660
gfz2012enno  -0.85960
gfz2012eskt  -0.71820
gfz2012ewgo  -1.37540
gfz2012fbfo  -1.66160
gfz2012fhnh  -0.12710
gfz2012foeo  -1.06170
gfz2012fwfo  -2.75030
gfz2012fwtr  -2.99100
gfz2012fzfa  -1.37810
gfz2012fzsq  -1.28620
gfz2012gkvr  -1.33130
gfz2012glss  -1.48510
gfz2012gocc  -1.08230
gfz2012gomm  -1.50170
gfz2012gukw   0.52120
gfz2012hnul  -0.59310
gfz2012hnuw  -0.77590
gfz2012hyaa  -1.76270
gfz2012iamr  -1.28840
gfz2012ilvn  -1.41240
gfz2012imay  -1.80160
gfz2012jjzc  -1.13910
gfz2012jlox  -1.91280
gfz2012kbjb  -0.55800
gfz2012kbzj  -1.45490
gfz2012keor  -2.67690
gfz2012kkup  -1.12260
gfz2012klba   0.04470
gfz2012klhx  -1.23110
gfz2012kuct  -0.91500
gfz2012kudo  -1.58360
gfz2012kvzv  -1.19260
gfz2012kwgo  -1.64640
gfz2012lczo  -2.24110
gfz2012ldxg  -2.28750
gfz2012ldzj  -1.58200
gfz2012llug  -1.80670
gfz2012lrsv  -2.48270
gfz2012lxkv  -1.55610
gfz2012lzmr  -0.40280
gfz2012mdmy   1.05900
gfz2012minr  -1.80920
gfz2012mpyl  -1.49200
gfz2012mupa  -0.08040
gfz2012mvwr  -2.03960
gfz2012mwij   0.41160
gfz2012naqz  -2.06470
gfz2012nedn  -2.04030
gfz2012ngic  -1.23150
gfz2012nkdf  -2.13100
gfz2012nojx  -0.61900
gfz2012nolo  -2.41050
gfz2012nqnk  -1.74340
gfz2012nsbz  -1.96430
gfz2012ntzv   3.25720
gfz2012nutf  -1.07320
gfz2012nxog  -0.71700
gfz2012nxyt  -1.00790
gfz2012oazn  -1.49450
gfz2012obgw  -2.08900
gfz2012oedb  -1.39590
gfz2012ostk  -1.22890
gfz2012peex  -1.47610
gfz2012pgcl  -0.56100
gfz2012ronz  -1.82910
gfz2012royy   0.68010
gfz2012rwko  -1.27130
gfz2012rwov  -2.20080
gfz2012rypu  -2.35880
gfz2012sphd  -0.96220
gfz2012syvl  -1.14350
gfz2012taou  -0.12800
gfz2012tazz  -1.03620
gfz2012teic  -1.55560
gfz2012tmop  -1.24400
gfz2012ttoa  -1.40650
gfz2012tvmv  -1.18840
gfz2012uciv  -1.02180
gfz2012uhup  -1.82960
gfz2012usba  -1.10580
gfz2012uvqf  -0.95780
gfz2012vpza  -1.24470
gfz2012vrgb  -1.51220
gfz2012whku  -1.57290
gfz2012wklq  -2.85590
gfz2012wmkd  -2.10100
gfz2012wmsg  -2.65550
gfz2012wtkr  -1.18680
gfz2012wvfl  -0.24110
gfz2012wxer  -1.33510
gfz2012wxlg  -2.03740
gfz2012wxnu  -1.13320
gfz2012wybs  -2.03150
gfz2012wypz  -0.69710
gfz2012xgqm   0.55150
gfz2012xjyv  -1.48320
gfz2012xslk  -0.06700
gfz2012yzod  -0.46130
gfz2012zemz  -1.53450
gfz2012zjpv  -1.42520
gfz2012zmbp  -1.11120
gfz2012zmln  -1.33520
gfz2013aqaw   0.37760
gfz2013dofo  -1.87130
gfz2013dojq  -0.46040
gfz2013drxz  -2.05170
gfz2013dsog  -0.26690
gfz2013dspt  -1.73680
gfz2013dsrk  -2.46830
gfz2013dujm   0.13110
gfz2013dvyh  -2.04160
gfz2013egpu  -2.28300
gfz2013ewbo  -1.78590
gfz2013fcto  -0.75870
gfz2013fiud  -1.26260
gfz2013fkcl  -1.04740
gfz2013fkii   0.36860
gfz2013ftso  -0.86420
gfz2013fwxa  -2.83980
gfz2013fygc  -1.97270
gfz2013gbst  -1.01540
gfz2013gcfx  -3.43370
gfz2013gdgf  -1.67040
gfz2013gdnq  -1.71760
gfz2013gmor  -1.11040
gfz2013gngz  -1.45390
gfz2013gock  -1.60210
gfz2013gvdb   0.28970
gfz2013gvex  -0.49420
gfz2013gwrd  -0.31710
gfz2013gxsu  -2.46670
gfz2013hbkq   0.48060
gfz2013hdnc  -0.29100
gfz2013hfmp  -1.83020
gfz2013hkja  -1.52330
gfz2013hmbc  -2.27870
gfz2013huwr  -2.34850
gfz2013iayx  -1.57970
gfz2013ifpq  -1.14150
gfz2013ijsr  -1.22660
gfz2013ikgo  -1.48860
gfz2013ilug  -2.51500
gfz2013inux  -0.39230
gfz2013ippu  -0.98450
gfz2013iunn  -1.61480
gfz2013jesk  -0.86600
gfz2013jgij  -2.52510
gfz2013jgip  -0.23400
gfz2013jkut  -0.97710
gfz2013json   0.44810
gfz2013jwvc  -1.41050
gfz2013kccc  -1.73130
gfz2013kdeo  -2.14220
gfz2013kheb  -0.94730
gfz2013khli  -0.95220
gfz2013kvtk  -1.35730
gfz2013kwag  -0.27920
gfz2013lbiu  -0.42710
gfz2013ldpc  -1.76280
gfz2013ldqb  -2.15740
gfz2013lixa  -2.10140
gfz2013lmqe  -1.44340
gfz2013lsob  -1.03080
gfz2013lyko  -1.69030
gfz2013malg  -0.29630
gfz2013mmwq  -1.41890
gfz2013mqik  -1.61540
gfz2013mqmv  -2.55450
gfz2013mwbh  -1.60610
gfz2013ncjp  -2.09070
gfz2013ndin  -1.78660
gfz2013neuc   0.72490
gfz2013nixj  -1.86020
gfz2013nkgj  -2.35120
gfz2013nknw  -1.85780
gfz2013nqgw  -1.66450
gfz2013nuor  -0.79830
gfz2013nuvi  -0.69490
gfz2013nwdi  -1.52970
gfz2013ogde  -0.19280
gfz2013ojti  -0.54950
gfz2013ozrp  -2.30230
gfz2013pfbx  -1.61790
gfz2013pffm  -1.36900
gfz2013pfnf  -1.51310
gfz2013phef  -1.63540
gfz2013pkbs  -0.40930
gfz2013puag  -1.52280
gfz2013pupd   0.20050
gfz2013pxsj  -0.18150
gfz2013qali  -0.91960
gfz2013qesa  -2.83290
gfz2013qmer  -1.00940
gfz2013qnxc  -0.70710
gfz2013qzdq  -1.64210
gfz2013reym  -1.50490
gfz2013roki  -0.94720
gfz2013sdus  -2.08160
gfz2013sfto  -1.43630
gfz2013snbr  -1.96200
gfz2013suvn  -1.08030
gfz2013svci  -1.73100
gfz2013tcxc  -1.42290
gfz2013tcxq  -1.42200
gfz2013tdau  -0.26040
gfz2013toxf  -2.12930
gfz2013tusd  -1.55990
gfz2013tvmw  -1.99710
gfz2013txij  -1.91890
gfz2013txtb  -1.00750
gfz2013ufxk  -1.06300
gfz2013uqsp  -1.45550
gfz2013vexx  -0.88900
gfz2013vfyw  -0.33200
gfz2013vfzp   0.09740
gfz2013viul  -1.54710
gfz2013vjjc  -1.95750
gfz2013vrmy  -0.73340
gfz2013vvrq  -1.93310
gfz2013vzbo   0.50730
gfz2013wjmm  -1.52220
gfz2013wkyk  -0.47010
gfz2013wmfd  -1.02700
gfz2013wnpr  -0.83180
gfz2013wpga   0.45080
gfz2013xqnn  -1.52900
gfz2013xsdt  -0.44880
gfz2013ypdc  -1.36480
gfz2013yqkv  -0.84690
gfz2013yyhc  -1.08280
gfz2014afmx  -1.90570
gfz2014arpf  -0.97620
gfz2014atgw  -1.10680
gfz2014bezu  -1.47180
gfz2014bfng  -1.69820
gfz2014dffd  -1.82840
gfz2014dhxt  -0.82160
gfz2014disp  -1.79090
gfz2014duqn  -1.03480
gfz2014ekdt  -0.66180
gfz2014enhi  -1.60830
gfz2014etqa  -0.61200
gfz2014ettc  -1.13540
gfz2014femz  -0.87030
gfz2014fexu  -0.51740
gfz2014ffdc  -0.52480
gfz2014fgvi  -0.85580
gfz2014fhdw  -1.50250
gfz2014fhla  -3.14420
gfz2014fhlh  -0.37790
gfz2014fhrq  -2.08950
gfz2014fhsg  -1.96630
gfz2014fhwx  -1.17830
gfz2014fimn  -0.70110
gfz2014fiuj  -2.44290
gfz2014fjpb  -0.94850
gfz2014fkmr  -1.69670
gfz2014fkmx  -1.36870
gfz2014fknp  -1.02430
gfz2014frez  -1.40120
gfz2014frwh  -0.80490
gfz2014ftka  -2.90810
gfz2014ftoc  -2.20700
gfz2014ftpw  -2.03210
gfz2014ftrk  -0.14240
gfz2014fusc  -1.07430
gfz2014fusj  -1.70390
gfz2014fuub  -0.18050
gfz2014fvaa  -0.52580
gfz2014fval  -1.68780
gfz2014fvgh  -1.09860
gfz2014fvrg  -0.99230
gfz2014fwtt   0.07790
gfz2014gbcz  -2.29710
gfz2014gbdq   0.04960
gfz2014ghpe  -1.57650
gfz2014gkgf  -2.54620
gfz2014gkgs  -1.95820
gfz2014gkhp  -1.40260
gfz2014gkhy  -0.58930
gfz2014gkjl  -1.49240
gfz2014gkjt  -1.53320
gfz2014gklq  -1.45600
gfz2014gklv  -1.00050
gfz2014gkmm  -1.35260
gfz2014gkob  -1.72440
gfz2014gkpd  -1.69010
gfz2014gkpj  -1.01370
gfz2014gkqf  -1.08530
gfz2014gkqu  -0.45520
gfz2014gksj   0.71230
gfz2014gksu  -0.89620
gfz2014gktq  -0.81860
gfz2014glcu  -1.17330
gfz2014glcy  -1.25950
gfz2014gltx  -1.36500
gfz2014glvu   0.40820
gfz2014gmci  -0.96490
gfz2014gmge  -2.05980
gfz2014gmhp  -0.96370
gfz2014gmhr  -3.46080
gfz2014gmip  -1.00290
gfz2014gmjo  -1.00490
gfz2014gmku  -2.24950
gfz2014gmlz  -0.71910
gfz2014gmmk  -0.79120
gfz2014gmmt  -1.26760
gfz2014gmnb  -1.69940
gfz2014gmnw  -1.46470
gfz2014gmor  -0.73710
gfz2014gmpy  -1.40170
gfz2014gmrj  -0.64960
gfz2014gmtb  -1.01660
gfz2014gmto  -0.47980
gfz2014gmuk  -1.33470
gfz2014gmvr  -3.91240
gfz2014gmzl  -1.90740
gfz2014gnfd  -0.93360
gfz2014gnfs   3.20940
gfz2014gngg  -1.25870
gfz2014gnnt  -1.27320
gfz2014gnre  -0.91810
gfz2014gnxb  -2.03680
gfz2014goba  -1.97080
gfz2014goei  -2.05490
gfz2014goqw  -1.29840
gfz2014gori  -0.21240
gfz2014gpce  -0.88800
gfz2014gphr  -2.08870
gfz2014gpmm   0.08000
gfz2014gpuk  -1.08210
gfz2014gpya  -1.14170
gfz2014gqbj  -1.27140
gfz2014gqed  -0.72970
gfz2014gqer  -1.61060
gfz2014gqve  -1.70050
gfz2014gsgv  -2.53580
gfz2014gsqs  -2.18140
gfz2014gufl  -0.42870
gfz2014gull  -1.08790
gfz2014gulp  -1.11820
gfz2014gumd  -1.02410
gfz2014gvhw  -0.28390
gfz2014gvqj  -1.06020
gfz2014gvra  -0.69170
gfz2014gvrd  -1.43720
gfz2014gwab  -1.58890
gfz2014gxkh  -1.11690
gfz2014gxxo  -1.44930
gfz2014hagb  -1.48120
gfz2014hasj  -2.10560
gfz2014hauo  -1.12380
gfz2014hbjm  -1.78670
gfz2014hbjz  -1.46660
gfz2014hbqb  -1.66760
gfz2014hcmj  -1.73000
gfz2014hfhl  -1.92780
gfz2014hgqo  -1.14780
gfz2014hjgh  -1.43590
gfz2014hjgr  -1.46650
gfz2014hjij  -1.82480
gfz2014hjlx  -1.79110
gfz2014hkcf  -1.24830
gfz2014hocg  -0.65910
gfz2014hphw  -1.96090
gfz2014hqxs  -1.07890
gfz2014hrft  -1.55420
gfz2014hrtn  -1.01560
gfz2014hscz  -1.10310
gfz2014huaj  -1.58150
gfz2014hyal  -0.18950
gfz2014hyvq  -0.73530
gfz2014hzdy  -1.01630
gfz2014hzfw  -2.20220
gfz2014hzgn  -2.05440
gfz2014icqt  -0.53780
gfz2014imnn  -1.76140
gfz2014inbj  -0.19680
gfz2014irci  -1.76530
gfz2014issk  -0.68140
gfz2014isub  -0.82550
gfz2014isys  -1.00570
gfz2014itbe  -2.10120
gfz2014itgh  -1.93150
gfz2014itjx  -0.93290
gfz2014itkw  -1.66330
gfz2014itpj  -0.94070
gfz2014iuhq  -1.16240
gfz2014iywt  -0.95370
gfz2014jatq  -1.04210
gfz2014jcjt  -1.86900
gfz2014jcmt  -1.02520
gfz2014jfis  -1.42210
gfz2014jggm  -0.70930
gfz2014jjhc  -1.13200
gfz2014jjln  -1.45520
gfz2014jnyv  -1.69720
gfz2014jomw  -1.37040
gfz2014jpep  -1.39330
gfz2014jpgu  -1.16520
gfz2014jpxs  -1.29470
gfz2014jwmh  -0.68040
gfz2014khan  -1.56330
gfz2014khlk  -1.73270
gfz2014kjee  -1.08540
gfz2014kjzb  -0.70650
gfz2014kkhh  -1.63110
gfz2014kndc  -1.78020
gfz2014knks  -1.61990
gfz2014knxs  -1.21480
gfz2014kscf  -1.69940
gfz2014ksdv  -1.74250
gfz2014ksmz  -2.10490
gfz2014kwrg  -1.56920
gfz2014kyan  -1.27650
gfz2014kytf  -1.45310
gfz2014lddn  -1.76000
gfz2014ldhu  -1.74410
gfz2014lefs  -2.13800
gfz2014lgqn  -1.40070
gfz2014lkyf  -1.28310
gfz2014lnqy  -2.02390
gfz2014lpim  -0.89600
gfz2014lrzx  -1.40970
gfz2014lxnc  -1.14610
gfz2014lyhk  -1.67590
gfz2014lyhp  -1.39480
gfz2014lzal  -1.52880
gfz2014lzow  -1.39840
gfz2014macx  -1.67960
gfz2014madw  -1.36850
gfz2014mcno  -1.72730
gfz2014mtum  -1.44820
gfz2014niqj  -1.26050
gfz2014nnxd  -1.78290
gfz2014nowp  -0.95690
gfz2014npdk  -1.69220
gfz2014npeo  -1.30290
gfz2014nphm  -1.01270
gfz2014nqfm  -1.69880
gfz2014nrie  -1.57240
gfz2014nvdi  -0.51060
gfz2014nyeh  -0.67000
gfz2014nyko  -1.43210
gfz2014odgv  -1.68800
gfz2014oinz  -1.73020
gfz2014omyn  -1.37930
gfz2014orxs  -2.47450
gfz2014owxc  -1.62710
gfz2014oxcc  -1.20040
gfz2014oyly  -1.82120
gfz2014pjum   0.14710
gfz2014pkll  -1.72030
gfz2014ppzf  -1.62170
gfz2014pvch  -1.35220
gfz2014pzni  -2.32880
gfz2014qlxd  -1.43740
gfz2014qngj  -1.48400
gfz2014qqhm  -2.14490
gfz2014rdsn  -1.72880
gfz2014rkwl  -2.43250
gfz2014ssmv  -2.26460
gfz2014ssvz  -2.16830
gfz2014szzf  -1.06760
gfz2014tovs  -1.87430
gfz2014tqdo  -1.75780
gfz2014tqsf  -1.93760
gfz2014tzsd  -1.72060
gfz2014ubwn  -0.77200
gfz2014udgg  -1.77300
gfz2014uohh  -3.29530
gfz2014utac  -1.67860
gfz2014veit  -0.80260
gfz2014vhld  -1.07250
gfz2014vhms  -1.35730
gfz2014waoo  -1.56050
gfz2014watn  -1.70700
gfz2014wjko  -1.50400
gfz2014wqcp  -3.59530
gfz2014wrkh  -1.79710
gfz2014xjri  -1.65720
gfz2014xqqd  -2.03050
gfz2014yhhm  -1.69230
gfz2014zlgp  -1.22170
gfz2015arpd  -1.99440
gfz2015aruz  -1.88440
gfz2015atxv  -1.64780
gfz2015berb  -1.07140
gfz2015bfjm  -1.14510
gfz2015bkbj  -1.96520
gfz2015bphe  -4.28300
gfz2015bucr  -2.49570
gfz2015byfn  -0.76600
gfz2015byjd  -2.56390
gfz2015cxhx  -1.36530
gfz2015cyjd  -1.54170
gfz2015dskr  -1.61640
gfz2015dvbn  -1.73000
gfz2015ednc   0.01890
gfz2015eeyq  -1.21820
gfz2015eezy  -0.83790
gfz2015egxq  -1.13830
gfz2015eiky  -1.01610
gfz2015emtg  -1.15940
gfz2015etai  -1.71710
gfz2015fbbk  -2.50240
gfz2015fcua  -1.50540
gfz2015fjhk  -1.83360
gfz2015fkgt  -1.26300
gfz2015fkic  -1.75200
gfz2015fkuu  -1.20100
gfz2015flis  -1.31940
gfz2015fpez  -1.21120
gfz2015fsjj  -1.19450
gfz2015fvoi  -1.42710
gfz2015fwkq  -1.53290
gfz2015fxdi  -1.44010
gfz2015fyvk  -0.60240
gfz2015gckd  -1.37810
gfz2015ggjw  -1.35390
gfz2015gjbr  -1.25780
gfz2015gkwa  -0.79000
gfz2015gmgf  -1.33610
gfz2015gzja   0.49370
gfz2015hgbk  -1.51440
gfz2015hvgs  -0.26390
gfz2015igsy  -0.06520
gfz2015iwqk   0.23510
gfz2015ixyy  -3.10180
gfz2015jkdw  -1.36760
gfz2015jmlf  -1.90290
gfz2015jmlu  -0.26500
gfz2015jpap  -3.47430
gfz2015jwgl  -1.26340
gfz2015jxbx  -1.87220
gfz2015jxjd  -0.86750
gfz2015jzcv  -2.02660
gfz2015kakw  -1.50330
gfz2015kalm  -1.90390
gfz2015kcaa  -1.18730
gfz2015kfsu  -2.39470
gfz2015kkqb  -0.74300
gfz2015kkth  -1.36660
gfz2015kphk  -1.14240
gfz2015kquq  -1.16740
gfz2015ksni  -1.20050
gfz2015kvwz  -0.96110
gfz2015kxxs   0.24470
gfz2015lfma  -1.58250
gfz2015lfud  -1.32060
gfz2015lhjq  -1.77880
gfz2015lhjy  -1.04620
gfz2015ltii  -1.51790
gfz2015ltro  -1.49380
gfz2015lytv  -3.24740
gfz2015lzad  -0.97400
gfz2015mbgr  -1.47020
gfz2015mddr  -1.39920
gfz2015mfpy  -1.01420
gfz2015mhym  -3.67820
gfz2015mpte  -1.84240
gfz2015nerz  -1.98800
gfz2015nqgf  -1.22690
gfz2015ntpk  -0.05420
gfz2015nuxz  -2.16360
gfz2015nwug  -1.26020
gfz2015ocdz  -0.62710
gfz2015okmq  -1.57800
gfz2015okpu  -1.19720
gfz2015oyfl  -1.27410
gfz2015pdri  -1.42700
gfz2015poni  -1.53230
gfz2015puqp  -2.34890
gfz2015qnho  -1.27960
gfz2015qnto  -1.16470
gfz2015quzo  -1.89200
gfz2015rgrg  -1.16700
gfz2015rkbq  -1.22100
gfz2015rkrg  -1.41200
gfz2015rkzg  -0.98520
gfz2015rxmg  -1.40540
gfz2015saet  -0.59150
gfz2015sfdd  -1.71690
gfz2015sfdy  -2.28140
gfz2015sfeo  -1.33570
gfz2015sffn  -1.35100
gfz2015sfga  -1.73330
gfz2015sfhz  -1.46770
gfz2015sfiq  -1.90250
gfz2015sfjf  -0.75360
gfz2015sfkh  -1.54940
gfz2015sfks  -2.67150
gfz2015sfkz  -2.16280
gfz2015sflf  -1.41520
gfz2015sfmd   0.10110
gfz2015sfnb  -1.67790
gfz2015sfno  -2.21800
gfz2015sfnv  -0.97960
gfz2015sfoc  -2.17240
gfz2015sfoq  -0.58790
gfz2015sfpj  -0.59820
gfz2015sfqo  -1.84270
gfz2015sfqr  -1.68610
gfz2015sfrf  -1.20850
gfz2015sfsi  -0.81310
gfz2015sfte  -2.34850
gfz2015sftu  -1.46790
gfz2015sfuz  -1.65490
gfz2015sfwf  -1.35210
gfz2015sfzm  -0.83050
gfz2015sgad  -1.11060
gfz2015sgmm  -1.01150
gfz2015sgmr  -0.37130
gfz2015sgna  -0.78500
gfz2015sgyd  -1.25290
gfz2015shel  -1.46300
gfz2015shhg  -0.83810
gfz2015shhu  -1.73290
gfz2015shjn  -1.72440
gfz2015shrg   1.95480
gfz2015shsz  -1.26880
gfz2015siem  -0.46700
gfz2015sitn  -1.01920
gfz2015sjbx  -1.36810
gfz2015sjfi  -0.40960
gfz2015sjgk  -1.50080
gfz2015sjjb  -1.29720
gfz2015sjne  -1.75040
gfz2015sjoj  -1.19110
gfz2015sjvu  -1.33820
gfz2015sjwi  -2.86960
gfz2015sklu  -1.33330
gfz2015skpv  -3.29020
gfz2015skxu  -1.15020
gfz2015sldx  -1.79950
gfz2015sljs  -2.43690
gfz2015slun  -1.43800
gfz2015smym  -1.60250
gfz2015snmr  -1.55830
gfz2015snsf  -2.06890
gfz2015snwh  -2.15500
gfz2015snyd  -1.24090
gfz2015soat  -1.43850
gfz2015soxc  -1.84340
gfz2015sqbg  -1.48070
gfz2015sqmy  -1.51400
gfz2015srat  -2.59610
gfz2015stfy  -0.98470
gfz2015stso  -1.04040
gfz2015susq  -0.09030
gfz2015svwm  -1.63120
gfz2015sxxu  -1.24010
gfz2015szcb  -1.18800
gfz2015taml  -1.99740
gfz2015tbdn  -0.63300
gfz2015tdhb  -2.23590
