# Nsamples: 862  MAD:  0.674  mean: -0.190  variance:  0.911
gfz2010czps  -1.62450
gfz2010ddzo   0.44230
gfz2010dejx   1.03120
gfz2010dfru  -0.28260
gfz2010eaoy  -1.17810
gfz2010eapk  -2.50270
gfz2010eapn   0.30680
gfz2010eaqe   2.98530
gfz2010eaqy  -0.49840
gfz2010earu  -0.46890
gfz2010easo  -1.74890
gfz2010easu   0.92430
gfz2010eati  -1.06950
gfz2010eato  -0.86610
gfz2010eatt   2.46020
gfz2010eaul  -0.62770
gfz2010eavd  -1.24760
gfz2010eavs  -0.21280
gfz2010eawb   1.13350
gfz2010eawu  -1.42490
gfz2010eaxa  -0.12470
gfz2010eazu  -3.96620
gfz2010ebbd  -0.34000
gfz2010ebby  -2.37040
gfz2010ebek  -1.67510
gfz2010ebfa   0.78080
gfz2010ebhc  -0.10200
gfz2010ebin   2.44540
gfz2010ebkj  -1.29510
gfz2010ebla   0.21770
gfz2010ebll  -0.41540
gfz2010ebnn  -0.97190
gfz2010ebpa  -1.36020
gfz2010ebsv  -1.21470
gfz2010ebvm  -0.71590
gfz2010ebvv  -0.50430
gfz2010ebxl  -0.11320
gfz2010ebzr  -1.08120
gfz2010echc  -0.33900
gfz2010echt  -0.42570
gfz2010echy  -0.06160
gfz2010ecps  -0.16440
gfz2010ecsp  -0.30200
gfz2010ecua  -1.19470
gfz2010ecuv  -0.57540
gfz2010ecvt  -0.15950
gfz2010edat  -0.81830
gfz2010eday  -0.76050
gfz2010edbz  -0.84620
gfz2010edcp   2.64860
gfz2010edhr   1.32820
gfz2010edhv   0.57290
gfz2010edim  -1.04070
gfz2010edji  -0.94340
gfz2010edkp   0.08890
gfz2010edvf  -0.07450
gfz2010edyi  -2.08210
gfz2010eedu  -1.07100
gfz2010eefh   0.31020
gfz2010eegn  -1.18650
gfz2010eeij  -1.09110
gfz2010eekq  -0.41560
gfz2010eerh  -0.86160
gfz2010eern  -0.29070
gfz2010eevu  -0.60630
gfz2010efsq  -1.04510
gfz2010egap  -0.15540
gfz2010eghq  -0.38270
gfz2010egld  -0.47690
gfz2010egln  -0.61910
gfz2010egmp  -0.21310
gfz2010egyy  -0.29530
gfz2010eisx  -1.46900
gfz2010eixj  -1.24870
gfz2010ejjg  -1.77340
gfz2010ejxf  -0.80490
gfz2010ekaw  -0.83060
gfz2010ekoe  -1.29980
gfz2010ekrv  -0.75290
gfz2010ekyc  -0.73880
gfz2010elhv  -1.28130
gfz2010eltf  -0.19430
gfz2010elyc  -0.91080
gfz2010elyo   0.03530
gfz2010enzl   0.10250
gfz2010eohh  -1.54370
gfz2010epxj   1.19160
gfz2010eqjg  -0.63240
gfz2010eqmu   1.32980
gfz2010erkn   0.12570
gfz2010erom  -0.99180
gfz2010eruy  -0.53490
gfz2010erwn  -0.10140
gfz2010eryg  -0.19830
gfz2010esid   2.39500
gfz2010esmg   1.23050
gfz2010eujm  -0.92620
gfz2010euxe  -0.04230
gfz2010evco   0.12850
gfz2010excp  -1.23530
gfz2010exdd  -1.55420
gfz2010exdl  -1.05490
gfz2010exmc  -0.94870
gfz2010exno  -1.23420
gfz2010ezck  -1.09180
gfz2010faeu   1.48070
gfz2010falm  -2.08510
gfz2010fauz   1.24480
gfz2010fczt  -1.28110
gfz2010fedq  -1.50770
gfz2010fefr   0.47390
gfz2010fexw  -0.28860
gfz2010ffhq  -1.72670
gfz2010ffui  -0.69420
gfz2010fika   0.34030
gfz2010flha  -0.95010
gfz2010flrt   1.70110
gfz2010flxi  -1.33190
gfz2010fmwb  -1.62470
gfz2010fpqy  -0.24300
gfz2010fqdu  -0.70770
gfz2010fser  -0.18350
gfz2010ftlm  -0.54590
gfz2010fupn  -1.07340
gfz2010fwlb   0.96770
gfz2010fwpv  -0.29010
gfz2010fync  -0.52800
gfz2010gcdn  -0.77910
gfz2010gcrl  -1.48620
gfz2010gdld  -0.92030
gfz2010gjia  -1.90590
gfz2010glqr  -1.09870
gfz2010grjd   0.95980
gfz2010gslu  -1.53760
gfz2010gwmp   0.38970
gfz2010gyqp  -0.94740
gfz2010gzxr  -0.18260
gfz2010hcio   0.66170
gfz2010hjoc  -1.12130
gfz2010hlmq  -0.49420
gfz2010hlvr  -0.04010
gfz2010homc   0.10130
gfz2010hrkr  -0.47120
gfz2010hxbs  -1.82370
gfz2010hxgv  -0.51150
gfz2010ibiy   0.16940
gfz2010iimu  -0.33360
gfz2010imsh  -0.03460
gfz2010iobp  -1.27660
gfz2010irvf  -0.68060
gfz2010itpb  -0.24050
gfz2010iull  -0.62550
gfz2010jwpy   0.20350
gfz2010jxbm  -1.30260
gfz2010jygz   0.27630
gfz2010lepw   1.15630
gfz2010lgwy   0.29970
gfz2010liqs  -1.68740
gfz2010lkcf  -1.77110
gfz2010mdpq  -0.87940
gfz2010mkuu   0.03570
gfz2010mncc  -0.41250
gfz2010moyw  -1.01050
gfz2010msjj   0.76020
gfz2010mwdq   2.26980
gfz2010mzjr   0.30290
gfz2010nfsj  -0.52610
gfz2010nlkh  -0.86960
gfz2010nmpc  -1.77740
gfz2010nqwf  -0.68340
gfz2010nqwo  -1.37020
gfz2010nubk   0.10940
gfz2010nwef  -0.23480
gfz2010odpb   0.04060
gfz2010oedn  -0.35880
gfz2010onma  -0.41100
gfz2010oyqy  -0.96400
gfz2010pbdz  -0.02170
gfz2010pcxi  -0.33820
gfz2010pfyu  -0.49950
gfz2010pmqd  -1.94870
gfz2010qpvi   0.37860
gfz2010rqwj  -0.02000
gfz2010sfee   0.04640
gfz2010skqo  -0.45830
gfz2010skve   6.38240
gfz2010svtn  -0.34220
gfz2010swcy  -0.16630
gfz2010tcrl   1.07870
gfz2010txjs  -0.01950
gfz2010upfb  -0.63550
gfz2010usho  -0.26890
gfz2010ustq   1.13760
gfz2010utcg  -0.83720
gfz2010utmc   0.00000
gfz2010uyhb   2.61530
gfz2010veri  -2.50610
gfz2010vhuj  -0.23120
gfz2010vtdg  -0.11010
gfz2010vyxd   0.08100
gfz2010vzpr  -0.07210
gfz2010wioh  -0.56790
gfz2010wnty  -0.43280
gfz2010wofs  -0.81650
gfz2010xgzw  -0.56580
gfz2010xjck  -0.49400
gfz2010xjsj   0.32980
gfz2010xnxk   0.13260
gfz2010yjev   2.74630
gfz2010ymfy  -0.33100
gfz2010ymur  -0.48910
gfz2010yosr   0.17820
gfz2011aatr  -0.38090
gfz2011adjs  -1.07660
gfz2011alip   0.05920
gfz2011alsa   0.46730
gfz2011anur  -0.91680
gfz2011aqxf  -0.14450
gfz2011blsi   1.09110
gfz2011bpkd  -0.30640
gfz2011bswz   1.25980
gfz2011ccpw  -0.56510
gfz2011cfae   0.76010
gfz2011cndo  -0.60560
gfz2011csju  -1.16170
gfz2011cvfg  -0.22350
gfz2011cykd  -2.19730
gfz2011cylz  -0.22330
gfz2011cynl  -0.74050
gfz2011cyre   0.57740
gfz2011cyuk  -0.10960
gfz2011dbev  -1.45620
gfz2011dbig  -1.68550
gfz2011dbon  -0.68170
gfz2011dcqb  -1.21270
gfz2011dcqf  -0.15820
gfz2011deaf  -0.49460
gfz2011dmat   0.20210
gfz2011dpqx  -0.09800
gfz2011eayc   0.19510
gfz2011eazf   0.71280
gfz2011ecaj  -0.30940
gfz2011edmm  -0.20520
gfz2011eebc  -0.65790
gfz2011ehzq  -1.10570
gfz2011eltw  -0.55370
gfz2011enva  -0.77170
gfz2011etje   0.07860
gfz2011fdzv  -0.42450
gfz2011fgvr   1.18380
gfz2011fhbm   0.22420
gfz2011fhur   1.58020
gfz2011flgj  -0.05290
gfz2011fnsw   0.19130
gfz2011gbmx  -0.40860
gfz2011gkzt  -0.92300
gfz2011haid   8.37490
gfz2011hbex  -0.38860
gfz2011hebt  -0.51400
gfz2011hfkj  -1.74920
gfz2011hlqw  -0.57680
gfz2011hlsa  -0.64850
gfz2011hlth  -0.13940
gfz2011hpqp  -0.94750
gfz2011iwte  -1.71810
gfz2011ixai   0.58900
gfz2011izqa  -1.31120
gfz2011jdsj   0.09960
gfz2011jmbn  -0.93740
gfz2011jnmi   1.06700
gfz2011jplh  -0.51130
gfz2011knoo   0.07050
gfz2011kqwo  -1.24210
gfz2011kwjx   0.03930
gfz2011kxzp  -0.81770
gfz2011lcxq   0.14470
gfz2011lgsg  -0.88610
gfz2011lhls   0.52730
gfz2011lvjr  -0.45690
gfz2011lzwj   0.08950
gfz2011mdie  -0.21570
gfz2011mpme   0.23820
gfz2011nrwc   0.17710
gfz2011ntkh   0.59100
gfz2011nudm  -1.19440
gfz2011ogqk  -2.20370
gfz2011ohcy   0.27290
gfz2011oiqe   0.10400
gfz2011oiwk  -0.24260
gfz2011olkk   0.16610
gfz2011orgn  -0.48770
gfz2011ornx  -0.04160
gfz2011owvz   0.27180
gfz2011ozsl  -1.45220
gfz2011phms   6.70890
gfz2011qyms   0.85540
gfz2011rewa  -0.84880
gfz2011xyxj   0.74330
gfz2011yybo  -1.92020
gfz2011yzwq  -0.10320
gfz2011zklv   0.74380
gfz2011zqhh   0.62650
gfz2012aqtq  -0.81320
gfz2012attr  -0.97510
gfz2012bfah  -0.11300
gfz2012bpkx  -1.21390
gfz2012bpnl  -0.76180
gfz2012bpwl  -0.24330
gfz2012bszs   0.14090
gfz2012byad  -0.49630
gfz2012cgvr  -0.75660
gfz2012covm   1.51160
gfz2012cxdn  -1.35340
gfz2012czlw  -0.10200
gfz2012dyyh   0.13920
gfz2012ekda  -0.10240
gfz2012ekzf   0.15320
gfz2012emjg   0.68080
gfz2012enno  -0.29960
gfz2012ewgo   0.18690
gfz2012foeo   0.68110
gfz2012fzfa  -0.18280
gfz2012gkvr   0.75320
gfz2012gwmu  -2.19270
gfz2012hnul  -0.31460
gfz2012hogg   0.57890
gfz2012iivw   1.16190
gfz2012ilvn  -1.03990
gfz2012jlox  -0.50690
gfz2012jupx  -0.66640
gfz2012kbjb  -1.87000
gfz2012kkup  -0.27380
gfz2012klhx   0.00390
gfz2012kuct   0.52060
gfz2012kudo   0.19670
gfz2012kwgo   0.23190
gfz2012lczo  -1.18830
gfz2012ldxg  -0.67640
gfz2012ldzj  -0.11180
gfz2012lxkv  -1.18810
gfz2012minr  -0.20290
gfz2012mupa   0.00000
gfz2012mvwr  -0.40680
gfz2012mwij   1.45480
gfz2012myqa   0.97630
gfz2012nsbz  -0.37600
gfz2012nutf  -0.34430
gfz2012nxog  -0.23800
gfz2012oazn   0.43440
gfz2012oedb   0.28260
gfz2012omvo  -1.15330
gfz2012oqmw  -0.39530
gfz2012pgcl  -0.36670
gfz2012pkel  -0.31730
gfz2012pqmu  -0.62420
gfz2012qjhs  -0.46800
gfz2012rjsd   1.02430
gfz2012royy  -0.13150
gfz2012rwov  -1.10290
gfz2012rypu  -1.81440
gfz2012sphd   0.09060
gfz2012syvl   0.34510
gfz2012taou   0.60230
gfz2012tazz   0.18150
gfz2012teic  -0.31830
gfz2012tmop  -0.06940
gfz2012ttoa   0.20150
gfz2012uafg  -1.39880
gfz2012uaqj   0.41900
gfz2012uciv  -0.16510
gfz2012ulpd  -0.18170
gfz2012uvqf   0.83230
gfz2012uyxb   0.05860
gfz2012uzom  -0.55740
gfz2012vdbt   1.76510
gfz2012vrgb  -0.03620
gfz2012vsev  -1.20100
gfz2012whku  -0.10140
gfz2012wklq  -1.96720
gfz2012wmsg  -0.64920
gfz2012wpeq   0.22590
gfz2012wubh  -0.26610
gfz2012wvfl  -0.61600
gfz2012wxlg  -0.95100
gfz2012wybs  -0.08380
gfz2012wypz   0.48090
gfz2012xbjq  -0.31410
gfz2012xcgk  -0.65020
gfz2012xslk   1.21640
gfz2012xvwn  -0.74950
gfz2012zemz  -0.07290
gfz2012zfag   0.22630
gfz2012ziml  -0.96880
gfz2012zitl   0.06920
gfz2012zjpv  -0.41330
gfz2013aahq   0.01980
gfz2013aayj   0.00000
gfz2013aqaw   3.64410
gfz2013btjm  -1.12200
gfz2013ccnr  -1.22840
gfz2013cdan  -0.17520
gfz2013cvqg  -0.05980
gfz2013cwpn  -0.19540
gfz2013dofo  -0.94040
gfz2013drxz  -0.89620
gfz2013dvyh   0.12400
gfz2013fiud  -0.51610
gfz2013flox  -0.64240
gfz2013fwxa  -0.25830
gfz2013fygc   0.14050
gfz2013gdnq  -0.15880
gfz2013gock   0.13330
gfz2013gvex  -0.51050
gfz2013hxcx   0.46420
gfz2013iayx  -0.32330
gfz2013ikgo   0.02020
gfz2013ilug  -1.61750
gfz2013ippu   0.29910
gfz2013iunn  -0.55410
gfz2013jesk   0.58830
gfz2013jgij  -0.73370
gfz2013jgip   0.67240
gfz2013jkut   0.07870
gfz2013jusj   0.49160
gfz2013jwvc  -0.47070
gfz2013kccc   1.05580
gfz2013kdeo  -0.34310
gfz2013khli   0.88630
gfz2013kilx  -0.23530
gfz2013ldpc  -0.21130
gfz2013ldqb  -0.42080
gfz2013lixa  -0.37130
gfz2013lmrs  -0.52510
gfz2013lwbk   0.18810
gfz2013lyko  -0.39580
gfz2013mmwq   0.30800
gfz2013mqmv  -0.05750
gfz2013mwbh   0.64220
gfz2013mxee   0.12670
gfz2013ncjp  -0.49770
gfz2013ndin  -0.02170
gfz2013nixj  -0.55310
gfz2013nkgj   0.17170
gfz2013nknw  -0.65460
gfz2013nmac   0.15370
gfz2013nqgw   0.67680
gfz2013nwdi  -1.11910
gfz2013orjg  -0.25180
gfz2013pcos  -0.45060
gfz2013pfbx  -0.29810
gfz2013pkbs   0.80280
gfz2013pxsj   0.92320
gfz2013qali   0.38610
gfz2013qcck   0.05410
gfz2013qmer   0.20060
gfz2013qwbv  -0.77580
gfz2013qzdq  -0.62900
gfz2013reym  -0.48610
gfz2013sdus   0.68890
gfz2013sfto   1.11060
gfz2013skkm  -0.51290
gfz2013suvn   0.27300
gfz2013svci  -0.97360
gfz2013tusd   0.03450
gfz2013tvmw  -0.24600
gfz2013ufxk  -0.61420
gfz2013ufxm   0.54160
gfz2013uqsp  -0.22760
gfz2013vexx   0.36900
gfz2013vfyw  -0.47020
gfz2013vfzp   0.53730
gfz2013vgrk  -1.06410
gfz2013viul   0.29020
gfz2013vjjc  -0.06030
gfz2013vrmy   0.58270
gfz2013vthd   0.05700
gfz2013vvrq  -1.16270
gfz2013vzbo  -0.82380
gfz2013wjmm  -0.80450
gfz2013wkyk   0.69900
gfz2013wmfd   0.01820
gfz2013wqhq  -0.28740
gfz2013xkbh   1.35290
gfz2013xkwt   0.89530
gfz2013xmul   0.20700
gfz2013xsdt   0.94470
gfz2013yctg  -0.82790
gfz2013yhbu   1.09520
gfz2013yhpk  -0.04870
gfz2013yqkv   0.08740
gfz2014abgd   0.78320
gfz2014afmx  -0.38030
gfz2014algk  -0.37520
gfz2014ande   0.44730
gfz2014atgw   0.13560
gfz2014bagd  -1.15000
gfz2014bezu   0.12120
gfz2014bfng  -0.59210
gfz2014bfqo   1.03650
gfz2014bmta  -0.36170
gfz2014bwue   0.11060
gfz2014bzxy  -0.50390
gfz2014capn   0.82970
gfz2014chdv  -0.54590
gfz2014cmwb  -0.18830
gfz2014crpy  -0.51790
gfz2014cvxx   0.10370
gfz2014czno   0.27590
gfz2014czqi  -0.07680
gfz2014czua   0.54640
gfz2014dffd  -0.18390
gfz2014disp  -1.24200
gfz2014duqn   0.34650
gfz2014eght   1.13150
gfz2014femz  -0.12880
gfz2014fexu   1.14130
gfz2014ffdc   1.71030
gfz2014fgvi   0.41060
gfz2014fgvr   1.29360
gfz2014fgxt   0.14170
gfz2014fgxz   0.14300
gfz2014fgyo   0.79780
gfz2014fgza  -0.00000
gfz2014fhbd   0.38300
gfz2014fhdw   0.00000
gfz2014fhla  -1.38580
gfz2014fhlh   0.37990
gfz2014fhrq  -0.57080
gfz2014fhwx   0.86620
gfz2014fimn   0.51850
gfz2014fjzd   0.34260
gfz2014fkmr  -0.43900
gfz2014fkmx  -0.72360
gfz2014fknp   0.66810
gfz2014fles   1.67560
gfz2014fnyg   0.18220
gfz2014frdz   0.41840
gfz2014frel   0.46080
gfz2014frez   0.23510
gfz2014frgm   0.65190
gfz2014frwh   0.97610
gfz2014fszc  -1.01260
gfz2014ftka  -1.39010
gfz2014ftoc  -0.53570
gfz2014ftpw  -0.30760
gfz2014ftrk   0.07830
gfz2014furx   0.93400
gfz2014fusc   0.50840
gfz2014fusj  -0.24110
gfz2014fuub   1.44460
gfz2014fval  -0.10180
gfz2014fvgh   0.60410
gfz2014fvrg   0.54200
gfz2014gbcz  -1.39380
gfz2014gbdq   1.07020
gfz2014geuy   0.54070
gfz2014gezs   3.42640
gfz2014ghpe  -0.04180
gfz2014gkgf  -0.84430
gfz2014gkgs   0.43060
gfz2014gkhp  -0.24190
gfz2014gkhy   0.44690
gfz2014gkjl   0.15220
gfz2014gkjt   0.52690
gfz2014gklq   0.02110
gfz2014gklv   0.63340
gfz2014gkmm   0.26910
gfz2014gkob  -0.00000
gfz2014gkok   0.22030
gfz2014gkpd   0.28370
gfz2014gkpj   0.39580
gfz2014gkqf   0.58230
gfz2014gkqu   1.03290
gfz2014gksj   2.04310
gfz2014gksu   0.22050
gfz2014gktq   0.38180
gfz2014gkxm  -1.64130
gfz2014glcu   0.34650
gfz2014glcy  -0.23270
gfz2014glgo   2.28210
gfz2014gltx   0.33680
gfz2014gmge   0.08760
gfz2014gmhr  -0.81450
gfz2014gmnb   0.12260
gfz2014gmnw   0.29680
gfz2014gmuk   0.56040
gfz2014gmzl   0.02160
gfz2014gmzs   0.42720
gfz2014gnfd   1.07740
gfz2014gnfs  -0.57410
gfz2014gngg   0.73240
gfz2014gnnt   0.45290
gfz2014gnre   0.58250
gfz2014gnxb   0.29130
gfz2014goba  -0.50000
gfz2014gogv  -0.33970
gfz2014goqw  -2.31800
gfz2014gphr  -0.50030
gfz2014gpuk   0.30520
gfz2014gpya  -0.37590
gfz2014gqbj   0.87750
gfz2014gqer  -0.36800
gfz2014gqqz  -0.08060
gfz2014gqve   0.30930
gfz2014grcv   0.18050
gfz2014gsqs  -0.10230
gfz2014gull  -0.18110
gfz2014gulp   0.13740
gfz2014gumd   0.80380
gfz2014gutm  -0.14610
gfz2014gvhw   0.76650
gfz2014gvqj   0.83950
gfz2014gvra   0.31360
gfz2014gvrd  -0.05640
gfz2014gwab   0.34790
gfz2014gxag  -0.08980
gfz2014gxxh  -0.62860
gfz2014gxxo   0.21720
gfz2014gyxd   0.05630
gfz2014haos  -1.13910
gfz2014hasj  -0.43320
gfz2014hbjm  -0.94890
gfz2014hbjz   0.27470
gfz2014hbqb  -0.00740
gfz2014hcmj  -0.07890
gfz2014hetr  -0.25490
gfz2014heum   0.95310
gfz2014hfhl   0.12170
gfz2014hgqo  -0.13840
gfz2014hjgh  -0.10440
gfz2014hjgr   0.05280
gfz2014hjij  -0.26520
gfz2014hjlx   0.48220
gfz2014hkcf  -0.12920
gfz2014hkck  -0.71550
gfz2014hmrs   0.07270
gfz2014hocg  -0.07510
gfz2014hqxs   0.71370
gfz2014hscz   0.01840
gfz2014huaj   0.69340
gfz2014ifue   0.69120
gfz2014ilwu   0.31160
gfz2014imnn   0.06440
gfz2014iobd   0.30950
gfz2014irci   0.36890
gfz2014itab   0.36280
gfz2014itbe  -0.32950
gfz2014itfc  -0.03730
gfz2014itgh  -0.04310
gfz2014itjx   0.18020
gfz2014itkw  -0.14580
gfz2014itpj   0.31610
gfz2014iuhq   0.43710
gfz2014iwnf   0.83150
gfz2014iwwl   0.09290
gfz2014ixky  -1.24770
gfz2014iywt   0.57110
gfz2014jggm   0.40380
gfz2014jjhc  -0.44560
gfz2014jjln   0.12160
gfz2014jmnk  -1.53420
gfz2014jnyv  -0.19440
gfz2014jomw   0.29860
gfz2014jpep   0.67560
gfz2014jwmh   0.19000
gfz2014khan   0.65510
gfz2014khlk  -0.92310
gfz2014kndc   0.06950
gfz2014knks  -0.10850
gfz2014kscf  -2.98660
gfz2014kyan   0.26130
gfz2014lgqn  -0.42050
gfz2014lpim  -6.02830
gfz2014lrzx   0.44630
gfz2014lxnc  -0.15990
gfz2014lxqr  -2.54250
gfz2014lyhk  -0.60390
gfz2014lyhp   0.61560
gfz2014macx  -0.48050
gfz2014madw  -0.09720
gfz2014mcno   0.45650
gfz2014mcse   1.16490
gfz2014navw  -0.36440
gfz2014nowp   0.17680
gfz2014npeo  -0.89000
gfz2014nphm   0.46890
gfz2014nqfm  -0.25990
gfz2014nrie  -0.52730
gfz2014ntdh  -0.48070
gfz2014nyeh  -0.11770
gfz2014nyfb   0.06580
gfz2014nylm  -0.07660
gfz2014odgv  -0.00000
gfz2014oinz  -0.44960
gfz2014orxs  -0.34140
gfz2014oryw  -0.10650
gfz2014owxc  -0.25530
gfz2014oyly  -0.11650
gfz2014pkll  -0.69500
gfz2014ppzf  -0.16370
gfz2014pvch   0.19370
gfz2014qlvc   0.51820
gfz2014qlxd  -0.31200
gfz2014qngj  -0.84510
gfz2014qqhm  -0.82560
gfz2014raau  -0.77170
gfz2014rdsn  -0.89220
gfz2014rhwq  -0.03940
gfz2014riel  -0.12590
gfz2014romy  -0.72540
gfz2014rwos  -0.02010
gfz2014sadu   0.19520
gfz2014sryn  -0.66470
gfz2014ssmv  -1.43940
gfz2014ssvz  -0.85690
gfz2014szzf  -0.27120
gfz2014tabg  -0.15830
gfz2014tqdo  -0.39870
gfz2014tqsf  -0.79810
gfz2014tqth   3.22880
gfz2014tzsd  -0.26920
gfz2014ubwn   0.12690
gfz2014uohh  -0.27930
gfz2014uvrk  -0.77710
gfz2014vhld   0.21960
gfz2014vhms  -1.28630
gfz2014waoo  -0.72630
gfz2014watn  -0.13560
gfz2014wjko  -0.51440
gfz2014wmsc  -0.79970
gfz2014wrkh  -1.42730
gfz2014xbyr   0.67920
gfz2014xoji  -1.03280
gfz2014xqqd  -0.51010
gfz2014yhhm  -0.04330
gfz2014ynhc   1.13500
gfz2014yrug  -1.01740
gfz2014zdtl  -0.62930
gfz2014zkys  -0.08630
gfz2014zlgp  -0.12360
gfz2015apnk  -0.11550
gfz2015arpd  -0.45000
gfz2015aruz  -0.28020
gfz2015atxv  -0.82120
gfz2015bdyd  -0.74540
gfz2015berb   0.17530
gfz2015bkbj   0.16340
gfz2015byjd   0.12050
gfz2015chhn  -1.47690
gfz2015chqn  -0.00000
gfz2015cxhx  -0.50000
gfz2015cxxk   0.04360
gfz2015cyjd   0.01880
gfz2015czfv  -0.02050
gfz2015dizn  -1.21540
gfz2015dskr  -0.02280
gfz2015dvbn  -0.11030
gfz2015egxq   0.10290
gfz2015ehpz   0.94700
gfz2015eiky   0.45350
gfz2015emtg  -0.16000
gfz2015etai  -1.80790
gfz2015fbbk  -0.50430
gfz2015fcua  -0.09210
gfz2015fdpr  -0.08440
gfz2015fkbc   0.83220
gfz2015fkgt  -1.11900
gfz2015fkic  -0.46110
gfz2015flis  -0.82740
gfz2015fsjj   0.07620
gfz2015fwnf  -0.06180
gfz2015fxdi  -0.30260
gfz2015gckd   0.26380
gfz2015gjbr   0.78270
gfz2015gkwa  -1.15920
gfz2015gzja  -0.36880
gfz2015hgbk   0.04060
gfz2015hhbd   0.49030
gfz2015imty   0.00760
gfz2015ixyy  -0.62710
gfz2015jxbx  -0.46280
gfz2015jzcv  -0.03780
gfz2015kakw  -0.40640
gfz2015kcaa  -0.02280
gfz2015kkth   0.00000
gfz2015ksni  -0.43850
gfz2015lcma   0.12830
gfz2015lfud  -0.10580
gfz2015lhjq  -0.78970
gfz2015lhjy   0.16840
gfz2015lytv  -1.33030
gfz2015lzad  -0.46730
gfz2015mddr   0.22490
gfz2015mpte  -1.58440
gfz2015nuxz  -0.78690
gfz2015nwug  -0.66940
gfz2015ocdz  -1.58350
gfz2015okmq   0.00000
gfz2015oyfl  -0.37500
gfz2015pdri   1.02650
gfz2015plal  -0.04310
gfz2015poni  -0.54870
gfz2015qnho  -0.44400
gfz2015qpvd  -0.73820
gfz2015quzo  -0.97900
gfz2015rddx  -0.45830
gfz2015rkrg  -0.32390
gfz2015rkzg   0.11350
gfz2015roac  -0.25970
gfz2015saet   1.09460
gfz2015sevh  -0.23190
gfz2015sfdd  -1.24640
gfz2015sfdy  -1.15020
gfz2015sfeo   0.40370
gfz2015sfga  -0.52100
gfz2015sfhz  -0.83010
gfz2015sfiq  -0.38750
gfz2015sfnb  -0.77340
gfz2015sfno  -1.43410
gfz2015sfoc  -0.63950
gfz2015sfqo  -0.74810
gfz2015sfqr   0.81930
gfz2015sfrf  -0.59670
gfz2015sfwf   0.19380
gfz2015sfzm   0.28090
gfz2015sgad  -0.36030
gfz2015sgyd  -0.52080
gfz2015shhg  -0.42110
gfz2015shhu  -0.20600
gfz2015shjn  -1.05620
gfz2015shjo  -0.16760
gfz2015shrg  -1.45610
gfz2015shsz  -1.14830
gfz2015sist  -0.94200
gfz2015sitn  -0.35540
gfz2015sjbx  -0.34530
gfz2015sjfi   0.08720
gfz2015sjgk  -0.74230
gfz2015sjjb  -2.92970
gfz2015sjne  -0.41360
gfz2015sjoj  -0.64610
gfz2015sjvu  -0.54220
gfz2015sjwi  -0.16330
gfz2015sklu  -0.53110
gfz2015skxu  -0.23180
gfz2015sldx  -0.87810
gfz2015sljs   0.67810
gfz2015slun  -0.77870
gfz2015smym  -1.17770
gfz2015snmr  -0.62080
gfz2015snsf  -1.07300
gfz2015snwh  -1.23670
gfz2015snyd  -0.68230
gfz2015soat  -0.26670
gfz2015soxc  -1.13180
gfz2015srat  -0.62130
gfz2015subg  -1.89840
gfz2015subz  -0.05320
gfz2015svwm  -1.27150
gfz2015szcb  -0.54150
gfz2015sztx  -0.90890
gfz2015taml  -0.47590
