# Nsamples: 1341  MAD:  0.718  mean: -0.832  variance:  0.880
gfz2010aerk  -1.22420
gfz2010ahqi  -1.40260
gfz2010aykj  -0.22930
gfz2010bfzs  -1.07830
gfz2010bgth  -1.07180
gfz2010bhhq  -0.43330
gfz2010bifb  -1.58760
gfz2010bjeb  -0.80030
gfz2010bjjx  -2.42430
gfz2010bjsl   1.35760
gfz2010bkob  -1.09930
gfz2010bowy  -1.67370
gfz2010boxo  -0.81940
gfz2010bpda  -0.38320
gfz2010bxxs  -0.79110
gfz2010caft  -1.48210
gfz2010cbkg  -0.88350
gfz2010cdbt  -1.15170
gfz2010civi  -1.37660
gfz2010cjqh   0.80270
gfz2010ckeu  -1.94100
gfz2010ckzm  -0.31700
gfz2010cnwc  -0.06550
gfz2010cqwl  -1.12350
gfz2010dejx  -0.41560
gfz2010diqn  -1.08110
gfz2010dlgc  -0.90120
gfz2010dtmx  -1.73670
gfz2010dumm  -1.72690
gfz2010eaoy  -1.13760
gfz2010eapk  -0.88310
gfz2010eapn  -0.48930
gfz2010eaqe   0.30140
gfz2010eaqx  -0.80940
gfz2010eaqy  -1.72450
gfz2010earq  -1.11990
gfz2010earu  -2.08730
gfz2010easf   0.28300
gfz2010easo  -0.51610
gfz2010easu  -1.86320
gfz2010eati  -0.74130
gfz2010eato  -0.75250
gfz2010eatt  -0.52700
gfz2010eaty  -0.21270
gfz2010eaul  -0.24370
gfz2010eavd   1.13210
gfz2010eavs  -0.09210
gfz2010eawb   0.61640
gfz2010eawu  -2.58080
gfz2010eaxa  -0.59760
gfz2010eaxn  -1.91300
gfz2010eaya   4.05380
gfz2010eayd  -1.29400
gfz2010eayp  -0.31690
gfz2010eaze  -1.50110
gfz2010eazu  -1.55370
gfz2010ebbx   1.80330
gfz2010ebby  -0.40080
gfz2010ebdl  -0.73360
gfz2010ebek  -1.67350
gfz2010ebfx  -1.17950
gfz2010ebgj  -0.85590
gfz2010ebhc  -1.08950
gfz2010ebih  -1.54280
gfz2010ebin   2.53470
gfz2010ebiv  -0.57640
gfz2010ebjy  -0.91260
gfz2010ebkj  -1.99170
gfz2010ebkx  -1.07340
gfz2010ebla  -0.39470
gfz2010ebll  -0.88150
gfz2010ebmb  -1.59770
gfz2010ebnn   0.34550
gfz2010ebrm  -0.71700
gfz2010ebvm  -0.50300
gfz2010ebvv  -0.64220
gfz2010ebwp  -0.47670
gfz2010ebxl  -1.48520
gfz2010ebze  -0.72090
gfz2010ebzk  -2.00110
gfz2010ebzr  -0.45380
gfz2010ecam  -0.81670
gfz2010ecay  -0.20910
gfz2010ecbi   0.11480
gfz2010eccq  -0.75220
gfz2010eced   2.23900
gfz2010ecfy  -1.58730
gfz2010ecgh  -1.58150
gfz2010echc  -0.16340
gfz2010echt  -0.51950
gfz2010echy  -0.20280
gfz2010ecnm   0.55110
gfz2010ecps  -0.11870
gfz2010ecro   0.16280
gfz2010ecsp  -3.37700
gfz2010ecua  -1.14510
gfz2010ecuv  -0.85360
gfz2010ecvt  -0.35820
gfz2010edat  -1.08050
gfz2010eday  -1.06970
gfz2010edbz   0.53770
gfz2010edcp   3.40740
gfz2010edhr  -1.46070
gfz2010edim  -2.44990
gfz2010edkp  -0.49720
gfz2010edsk   0.80540
gfz2010edvf  -0.35780
gfz2010edyi  -2.16200
gfz2010eedu  -0.40730
gfz2010eedz  -1.02450
gfz2010eefh  -1.39600
gfz2010eegn  -2.15800
gfz2010eeia  -1.20480
gfz2010eeij  -1.44160
gfz2010eekq  -1.29710
gfz2010eerh  -1.66000
gfz2010eern  -0.93750
gfz2010eevu  -1.00190
gfz2010efkc  -1.39850
gfz2010efsq  -0.93540
gfz2010egap  -1.16700
gfz2010eghq  -1.46710
gfz2010egld  -1.20710
gfz2010egmp  -1.59700
gfz2010egqh  -1.23490
gfz2010egsw  -3.38880
gfz2010egsy   0.54490
gfz2010ehft  -0.45620
gfz2010ehnm   0.28220
gfz2010ehxz  -0.06220
gfz2010eisx  -1.93860
gfz2010eixj   0.63480
gfz2010ejjg  -0.88860
gfz2010ekaw  -0.81790
gfz2010ekoe  -0.57530
gfz2010ekrv  -0.80970
gfz2010elhv  -0.75320
gfz2010elin  -1.19440
gfz2010eljf   1.23060
gfz2010elsw  -0.98140
gfz2010eltf  -0.68130
gfz2010elyc  -2.66930
gfz2010elyo  -0.75390
gfz2010emyz  -0.78350
gfz2010enzl  -1.18000
gfz2010eomb  -2.67380
gfz2010epbe  -0.28970
gfz2010epxj  -1.11110
gfz2010eqmu   0.39100
gfz2010eqwl   2.86920
gfz2010erdi   0.60770
gfz2010erfy  -1.24000
gfz2010erig   0.41330
gfz2010erkn  -1.48620
gfz2010ermi   5.98930
gfz2010erom  -0.77970
gfz2010erum   0.11360
gfz2010eruy  -0.82640
gfz2010erwn  -1.16380
gfz2010erxb   0.41170
gfz2010erxk  -2.47590
gfz2010eryg  -0.76930
gfz2010esid  -0.94270
gfz2010esmg  -0.81820
gfz2010euan  -0.73460
gfz2010eujm  -1.44540
gfz2010euvl  -1.26750
gfz2010euxe  -0.22340
gfz2010evco  -2.14710
gfz2010evgf  -2.01080
gfz2010ewvc  -1.67110
gfz2010excp  -1.29690
gfz2010exdd  -1.38420
gfz2010exdl  -1.51240
gfz2010exed  -0.96970
gfz2010exel  -1.32340
gfz2010exfb  -1.94520
gfz2010exgb  -1.07400
gfz2010exhd  -0.47440
gfz2010exhw  -2.10060
gfz2010exmc  -1.10100
gfz2010exno  -0.78290
gfz2010exqu  -2.33370
gfz2010exsg  -1.76880
gfz2010exyp  -1.19060
gfz2010eyhh  -1.46360
gfz2010eyiv   0.34290
gfz2010eymr  -0.97500
gfz2010eyvq  -1.92010
gfz2010ezax  -1.04850
gfz2010ezck  -0.55660
gfz2010ezxd  -1.34460
gfz2010faeu   1.14240
gfz2010falm  -1.48090
gfz2010fauz   0.41080
gfz2010fcax  -1.12160
gfz2010fcnn  -1.41040
gfz2010fczt  -2.59100
gfz2010fedq  -3.91190
gfz2010fefr   0.41820
gfz2010fexw  -1.62400
gfz2010ffhq  -1.13380
gfz2010ffjb  -1.37590
gfz2010fika  -1.33420
gfz2010fjal   0.06650
gfz2010fkia   2.35080
gfz2010flha  -1.48780
gfz2010flrt  -2.03200
gfz2010flxi  -1.64930
gfz2010fmwb  -0.04540
gfz2010fneu  -1.16710
gfz2010fobc  -1.00940
gfz2010fpqy  -0.85960
gfz2010fqdu  -1.67620
gfz2010fqtj  -1.49230
gfz2010fser  -0.51700
gfz2010ftlm  -1.39040
gfz2010fupn  -1.83590
gfz2010fwlb  -0.78210
gfz2010fwpv  -0.64370
gfz2010fwzd  -1.00090
gfz2010fync  -1.08350
gfz2010fzoi  -1.62820
gfz2010gcrl  -1.11370
gfz2010gcrp  -0.76800
gfz2010gdld  -1.53530
gfz2010gjia  -1.11360
gfz2010glqr  -1.02600
gfz2010glxl  -1.44270
gfz2010gmib  -0.07070
gfz2010govu  -1.07490
gfz2010grjd   0.27510
gfz2010gslu  -1.73320
gfz2010gtzt  -0.80590
gfz2010gyqp  -1.33840
gfz2010gzxr  -0.91390
gfz2010hbka  -4.65070
gfz2010hcio  -0.43280
gfz2010hevz  -1.86240
gfz2010hhls  -1.02520
gfz2010hjoc  -2.05130
gfz2010hlln   3.75740
gfz2010hlmq  -0.61910
gfz2010hlvr  -1.81050
gfz2010hndk  -1.32920
gfz2010hnnf  -1.62880
gfz2010homc  -2.12460
gfz2010hptz  -1.08810
gfz2010hrkr  -1.35370
gfz2010hxbs  -0.09910
gfz2010hxgv  -1.00340
gfz2010hxhe  -0.40650
gfz2010iciq  -1.47020
gfz2010iibf  -1.84810
gfz2010iimu   0.65380
gfz2010imfv   0.14350
gfz2010imsh  -1.43890
gfz2010iobp  -1.37790
gfz2010iphd  -1.73480
gfz2010iqep  -1.20840
gfz2010iqfm  -1.11060
gfz2010iqnm  -0.62210
gfz2010irqr  -0.13300
gfz2010irvf  -1.85360
gfz2010itpb   0.49880
gfz2010iull  -0.98140
gfz2010izzj   0.09950
gfz2010jatq   0.99820
gfz2010jhie   0.78290
gfz2010jkxj  -3.71380
gfz2010jssh  -1.07730
gfz2010jsuh   3.32830
gfz2010jwpy  -1.18900
gfz2010jxbm  -1.00010
gfz2010jygz  -1.20890
gfz2010jzku   0.30350
gfz2010kdyc  -1.09110
gfz2010kmsv  -0.87560
gfz2010lczp  -2.05920
gfz2010lepw  -0.14800
gfz2010lfju  -1.20820
gfz2010lgwy  -0.53880
gfz2010lkcf  -0.89720
gfz2010lrlk  -1.65240
gfz2010lwuq   1.05040
gfz2010mdpq  -2.11180
gfz2010mhjt  -2.32980
gfz2010miqn  -1.20610
gfz2010mkuu  -0.99740
gfz2010mlkz  -0.69550
gfz2010mlta   4.17500
gfz2010mncc  -1.37210
gfz2010mnsz   0.19060
gfz2010moyw  -1.70810
gfz2010msjj  -2.21510
gfz2010muca   0.14030
gfz2010mwdq  -0.70380
gfz2010ncrl  -1.51930
gfz2010nfsj  -1.63180
gfz2010nlkh  -1.68260
gfz2010nmpc  -2.56570
gfz2010nnny  -0.08350
gfz2010nqwf  -1.36170
gfz2010nqwo  -0.97520
gfz2010nsck  -0.97700
gfz2010nsdf  -1.83400
gfz2010ntuo  -0.88880
gfz2010nubk  -1.73230
gfz2010nwef  -1.29520
gfz2010nxsy  -0.91410
gfz2010nxum  -0.68870
gfz2010nzla  -1.56340
gfz2010odpb  -0.88020
gfz2010oedn  -2.06040
gfz2010okdm  -0.37140
gfz2010oluw  -1.46770
gfz2010onma  -1.82760
gfz2010osjs  -1.94990
gfz2010oyqy  -1.92680
gfz2010pcxi  -1.83030
gfz2010pets  -0.45580
gfz2010pewx   0.58510
gfz2010pfyu  -1.72070
gfz2010phvg  -1.53980
gfz2010pmqd  -1.28180
gfz2010pqck   0.08040
gfz2010pxak  -1.95110
gfz2010pxgh  -0.49980
gfz2010qjst  -1.25030
gfz2010qkat   0.94060
gfz2010qpcq  -1.00480
gfz2010qpum  -1.66730
gfz2010qpvi  -0.74480
gfz2010rhas  -2.15320
gfz2010rkfp  -2.03990
gfz2010rqwj   1.69090
gfz2010rxjw   1.69450
gfz2010sfee  -1.31860
gfz2010skve  -1.32280
gfz2010srdb  -0.98220
gfz2010svtn  -0.57150
gfz2010swcy  -1.57910
gfz2010sxfq  -1.43730
gfz2010sxwt  -1.39850
gfz2010sysw  -1.91070
gfz2010szde  -0.82150
gfz2010tcbr   0.46510
gfz2010titk  -2.40540
gfz2010truw  -1.58990
gfz2010txjs  -0.56080
gfz2010uept  -0.99680
gfz2010upfb  -0.88860
gfz2010urlq  -1.22800
gfz2010usho  -1.40310
gfz2010ustq   0.57150
gfz2010utcg  -0.79870
gfz2010uvhf  -1.27800
gfz2010uyhb   1.65410
gfz2010veri   4.83960
gfz2010vhuj  -0.40770
gfz2010vppc  -0.57500
gfz2010vtdg  -1.20010
gfz2010vyxd  -0.50140
gfz2010wioh  -1.54430
gfz2010wnty  -0.72000
gfz2010wofs   6.95600
gfz2010xbdv  -0.75010
gfz2010xbgs  -0.51330
gfz2010xche  -0.24990
gfz2010xden  -0.85600
gfz2010xgfc  -0.39590
gfz2010xgzw  -0.10600
gfz2010xjsj  -1.07100
gfz2010xnxk  -1.21370
gfz2010yjev   0.23920
gfz2010ymfy  -1.82340
gfz2010ymur   0.34020
gfz2010yosr  -0.30180
gfz2011aatr  -0.58450
gfz2011adjs  -1.38050
gfz2011alip  -1.55180
gfz2011aqxf   0.13350
gfz2011blsi  -0.51360
gfz2011bpkd  -1.53230
gfz2011ccpw  -0.19220
gfz2011cfae  -0.02190
gfz2011cndo   0.18100
gfz2011csju  -1.15120
gfz2011cvfg  -0.16770
gfz2011cykd  -1.90410
gfz2011cylz   2.47700
gfz2011cynl  -1.59200
gfz2011cyre  -1.51010
gfz2011cyuk   0.08200
gfz2011dbev  -1.39190
gfz2011dbig  -1.15890
gfz2011dbon  -1.77320
gfz2011dcqb  -1.83320
gfz2011deaf  -0.65150
gfz2011dkyi  -0.91060
gfz2011dlyx   0.34800
gfz2011dndz  -1.63200
gfz2011dpqx  -0.69760
gfz2011eayc  -1.05010
gfz2011eazf  -0.54130
gfz2011ecaj  -1.25690
gfz2011edmm  -0.96670
gfz2011eltw   2.95780
gfz2011enva  -1.43090
gfz2011eocc  -0.70610
gfz2011etje  -0.82440
gfz2011fgvr  -0.99040
gfz2011fhag  -0.44880
gfz2011fhbm  -1.94420
gfz2011fhur  -0.83250
gfz2011fkbn  -1.50600
gfz2011flgj  -0.29430
gfz2011fnsw  -0.82430
gfz2011gbmx  -0.44400
gfz2011gcwb  -2.74880
gfz2011ggvf  -0.71420
gfz2011gkey  -0.20170
gfz2011gkzt  -2.07330
gfz2011gzbr   0.10390
gfz2011haid  -0.04160
gfz2011hbex  -1.62940
gfz2011hebt  -1.86880
gfz2011hfkj  -1.78920
gfz2011hlqw  -1.02950
gfz2011hlsa  -1.14020
gfz2011hlth  -0.99060
gfz2011hpgx  -0.95460
gfz2011hpqp  -1.10680
gfz2011hrhe  -1.29900
gfz2011hvbu  -1.08200
gfz2011icxe  -3.33690
gfz2011ieie  -0.50690
gfz2011knoo  -1.66810
gfz2011kqwo  -1.81520
gfz2011kwjx  -1.01180
gfz2011kxzp  -0.65380
gfz2011lcxq  -0.96040
gfz2011lczg  -1.60280
gfz2011lgsg  -1.05800
gfz2011lhls  -0.71750
gfz2011lvjr  -1.79610
gfz2011lzwj  -0.78070
gfz2011mdie  -0.71780
gfz2011mjom  -2.44630
gfz2011mllx  -1.09610
gfz2011mpme  -1.06220
gfz2011mprq  -0.00000
gfz2011myia  -0.50670
gfz2011nauw  -0.41560
gfz2011necz  -0.42590
gfz2011nrwc  -1.66060
gfz2011ntkh  -1.21410
gfz2011nudm  -1.39180
gfz2011ogqk   0.45610
gfz2011ohcy  -0.31770
gfz2011oiqe  -1.01830
gfz2011oiwk  -0.94760
gfz2011olkk  -0.95560
gfz2011oolr  -2.67270
gfz2011orgn  -0.05310
gfz2011ornx  -0.44530
gfz2011owvz  -0.97320
gfz2011pccd  -0.73040
gfz2011pdpt  -1.87390
gfz2011phms  -0.76430
gfz2011pntf  -0.27110
gfz2011qigx  -0.60310
gfz2011qvae  -0.27630
gfz2011qyms  -0.71450
gfz2011rabm  -0.70670
gfz2011rewa  -1.13290
gfz2011rgwp   0.57630
gfz2011rnut   0.27640
gfz2011rqui  -1.27490
gfz2011rsrh  -0.65540
gfz2011sagt  -0.60620
gfz2011shqm  -1.12560
gfz2011svix  -1.47660
gfz2011tbas  -1.04250
gfz2011tcij   0.12550
gfz2011tivu  -1.13890
gfz2011tjue  -1.46720
gfz2011tkfp  -1.02740
gfz2011tkog   0.78820
gfz2011tnag  -0.75260
gfz2011toub  -1.16890
gfz2011tpbl  -1.91380
gfz2011tpfr  -1.48630
gfz2011tsnp  -2.91380
gfz2011tuea  -0.74860
gfz2011twov  -0.55990
gfz2011ueni  -0.27070
gfz2011uepx  -1.35420
gfz2011ugzz   0.11600
gfz2011ujze  -1.12920
gfz2011ukmp   0.49730
gfz2011uphh  -1.31060
gfz2011urxy  -1.09620
gfz2011urzu  -0.93370
gfz2011uzqv  -0.11900
gfz2011vclt  -0.59260
gfz2011vhfi  -0.68210
gfz2011vnza  -0.62840
gfz2011vxns  -1.34400
gfz2011vxxg  -0.85260
gfz2011wcic  -1.70860
gfz2011wfja  -1.63780
gfz2011wjul  -1.97860
gfz2011wvzb  -0.04340
gfz2011wwjs  -0.98870
gfz2011wxfs  -1.35360
gfz2011wxtk  -1.22430
gfz2011xaan  -0.97120
gfz2011xcpv  -0.89410
gfz2011xesx  -1.35350
gfz2011xqru   1.22810
gfz2011xyxj  -0.30840
gfz2011yfys  -2.13500
gfz2011zklv   0.23430
gfz2011zqhh  -1.40600
gfz2012ajtq  -0.84270
gfz2012aqgp  -0.63600
gfz2012attr  -1.32980
gfz2012bfah  -1.23490
gfz2012bfyn   0.05760
gfz2012bngd   0.06340
gfz2012bpkx  -1.70080
gfz2012bpwl  -0.84630
gfz2012bszs  -1.09230
gfz2012byad  -1.72530
gfz2012cgvr  -0.75860
gfz2012cnod  -0.55750
gfz2012covm  -0.34350
gfz2012cqnl  -2.16960
gfz2012cxdn  -1.48670
gfz2012czlw  -0.78660
gfz2012dinb  -0.80950
gfz2012dves  -3.47000
gfz2012dyyh  -0.98540
gfz2012ekda  -0.99470
gfz2012ekzf   0.20680
gfz2012emjg  -0.91810
gfz2012enno  -0.62450
gfz2012ewgo  -0.96200
gfz2012gkvr  -0.00000
gfz2012glss  -0.49510
gfz2012gnvh   0.18090
gfz2012gocc   1.43360
gfz2012gwmu  -0.86410
gfz2012hdbm  -0.98020
gfz2012hnul   0.57310
gfz2012hogg  -1.00720
gfz2012iamr  -0.18050
gfz2012ilvn  -0.77740
gfz2012imay  -0.80010
gfz2012jgvj  -2.01170
gfz2012jjzc   0.00000
gfz2012jlox  -1.63320
gfz2012jshk  -0.88180
gfz2012jupx  -1.70970
gfz2012kbjb   0.29750
gfz2012kbzj  -1.58820
gfz2012keor  -0.73130
gfz2012kkup  -0.76140
gfz2012klhx   0.12810
gfz2012kuct  -0.76750
gfz2012kudo  -1.62020
gfz2012kvzv  -0.88430
gfz2012kwgo  -1.22620
gfz2012lczo  -1.66080
gfz2012ldxg  -1.71830
gfz2012ldzj  -1.54440
gfz2012llug  -2.07460
gfz2012lxkv  -1.33250
gfz2012lzmr   0.19010
gfz2012minr  -1.69550
gfz2012mupa   0.00750
gfz2012mvwr  -1.26050
gfz2012mwij   1.39930
gfz2012naqz  -0.31170
gfz2012nedn  -0.41770
gfz2012nkdf  -2.48720
gfz2012nojx  -0.27960
gfz2012nolo  -0.78300
gfz2012nqnk  -0.40750
gfz2012nsbz  -1.32980
gfz2012nutf  -0.04770
gfz2012nxyt  -0.19600
gfz2012oazn  -0.37070
gfz2012obgw  -1.83750
gfz2012oedb  -1.28140
gfz2012ostk  -0.90760
gfz2012pciw  -1.19990
gfz2012peex  -0.90450
gfz2012pgcl  -0.28520
gfz2012pkel  -1.45510
gfz2012plbw  -2.00840
gfz2012pqmu  -0.05410
gfz2012qjhs  -2.18670
gfz2012rcnj  -0.20120
gfz2012repv  -0.87520
gfz2012rjsd  -0.08010
gfz2012ronz  -0.97630
gfz2012royy  -1.35080
gfz2012rqlg   1.00310
gfz2012ruks  -1.19900
gfz2012rwko  -1.14580
gfz2012rwov  -1.61580
gfz2012rypu  -2.13460
gfz2012spbj  -1.46260
gfz2012sphd  -1.08970
gfz2012sqmv   0.44840
gfz2012sqvi  -0.43030
gfz2012ssyn  -0.53630
gfz2012svpr  -0.01880
gfz2012syvl  -0.93820
gfz2012taou   0.36050
gfz2012tazz  -1.13320
gfz2012teic  -1.08020
gfz2012tmop  -1.29990
gfz2012ttoa  -1.14590
gfz2012tvmv  -0.49970
gfz2012uafg  -1.66560
gfz2012uciv  -0.57200
gfz2012uhup  -1.67970
gfz2012ulpd  -0.55220
gfz2012uvqf  -0.31750
gfz2012uyxb  -0.39060
gfz2012vpza  -0.56400
gfz2012vrgb  -1.16350
gfz2012vxvr  -1.67360
gfz2012whku  -1.14220
gfz2012wklq  -2.32900
gfz2012wmsg  -2.06830
gfz2012wtkh  -2.29740
gfz2012wtkr  -0.77560
gfz2012wvfl  -1.10670
gfz2012wxer  -1.33150
gfz2012wxkg  -1.97890
gfz2012wxlg  -1.35100
gfz2012wxnu  -2.21150
gfz2012wybs  -1.81970
gfz2012wypz  -1.03350
gfz2012xbjq  -0.97040
gfz2012xgqm   0.73500
gfz2012xjyv  -0.62170
gfz2012xslk  -0.06530
gfz2012xyqp  -1.23410
gfz2012zemz  -1.61280
gfz2012zfag  -0.07990
gfz2012zitl  -0.61490
gfz2012zmbp   0.21500
gfz2013aahq  -1.49400
gfz2013aayj  -0.38450
gfz2013apmm  -1.80200
gfz2013aqaw  -0.56530
gfz2013bokp  -0.68880
gfz2013btjm  -2.26150
gfz2013ccnr  -1.98260
gfz2013cdan  -1.03220
gfz2013ciaf  -2.97280
gfz2013cvqg  -0.62160
gfz2013cwpn   0.19260
gfz2013dkly  -2.89840
gfz2013dofo  -1.56190
gfz2013dojq   0.12370
gfz2013drxz  -1.78900
gfz2013dsog  -0.83180
gfz2013dspt  -1.62520
gfz2013dsrk  -2.25390
gfz2013dujm  -0.22530
gfz2013dvyh  -1.49640
gfz2013egni  -1.52050
gfz2013egpu  -0.15020
gfz2013fiud  -1.19490
gfz2013fkcl  -0.78380
gfz2013ftso  -0.60790
gfz2013fygc  -1.81600
gfz2013gbst  -0.87190
gfz2013gdgf  -0.43340
gfz2013gdnq  -1.55490
gfz2013gmor  -1.30120
gfz2013gngz  -1.59580
gfz2013gnse   0.12110
gfz2013gock  -1.21890
gfz2013gvdb   0.34590
gfz2013gvex  -0.43900
gfz2013gwrd   0.39780
gfz2013gxsu  -3.07530
gfz2013hdnc  -2.75830
gfz2013hfmp  -0.23520
gfz2013huwr  -0.79610
gfz2013hxcx  -1.51960
gfz2013iayx  -1.14580
gfz2013ifpq  -0.32130
gfz2013igmx  -1.15990
gfz2013ijsr  -0.29220
gfz2013ikgo  -0.88430
gfz2013ilug  -2.03770
gfz2013ippu  -1.08770
gfz2013jesk  -0.72780
gfz2013jgij  -2.22120
gfz2013jgip   0.37290
gfz2013jkut  -0.57810
gfz2013jusj  -3.02440
gfz2013jwvc  -0.97610
gfz2013kccc  -1.27180
gfz2013kdeo  -1.66570
gfz2013kheb  -0.91910
gfz2013khli  -0.72030
gfz2013lajg  -1.09060
gfz2013ldpc  -1.48680
gfz2013ldqb  -1.74450
gfz2013lixa  -1.69200
gfz2013lmqe   0.31740
gfz2013lmrs  -1.90280
gfz2013lsob  -1.32360
gfz2013lwbk  -1.46540
gfz2013lyko  -0.94660
gfz2013mmwq  -0.39940
gfz2013mnei  -0.28600
gfz2013mqmv  -2.29570
gfz2013mvgr  -0.85520
gfz2013mwbh  -1.43610
gfz2013mxee  -0.57830
gfz2013nabl  -0.86730
gfz2013ncjp  -1.88400
gfz2013ndin  -1.28300
gfz2013neuc   0.55570
gfz2013nixj  -1.40290
gfz2013nkgj  -1.67540
gfz2013nknw  -1.47150
gfz2013nmac  -1.07820
gfz2013nqgw  -1.37340
gfz2013nuvi  -1.20750
gfz2013nwdi  -1.35880
gfz2013ogde  -0.42160
gfz2013oifr  -0.94090
gfz2013oinc  -0.62720
gfz2013ojti  -0.19000
gfz2013orzn  -1.08000
gfz2013ozrf  -1.95560
gfz2013ozrp  -2.17280
gfz2013pcos  -1.95980
gfz2013pfbx  -0.91250
gfz2013pffm  -0.80320
gfz2013pkbs  -0.09880
gfz2013plhp   0.34320
gfz2013poxj  -0.60290
gfz2013ppqq   0.56770
gfz2013pqui  -1.07340
gfz2013pxsj   0.39860
gfz2013qali  -0.46870
gfz2013qmer  -0.89710
gfz2013qnxc   0.37540
gfz2013qzdq  -1.13170
gfz2013rait   0.98710
gfz2013reym  -0.60170
gfz2013roki  -0.54210
gfz2013sart   0.67610
gfz2013sdus  -1.52480
gfz2013sfto  -1.57860
gfz2013shzy  -0.32640
gfz2013skkm  -1.39830
gfz2013suvn  -0.79650
gfz2013svci  -1.09460
gfz2013tcxc  -0.23300
gfz2013toea  -1.15970
gfz2013toxf  -1.57300
gfz2013tpeb   0.27050
gfz2013tusd  -1.54760
gfz2013tvmw  -1.63580
gfz2013txev  -0.39430
gfz2013txij  -1.47810
gfz2013uauo   0.95160
gfz2013ufxk  -0.88190
gfz2013ufxm  -0.67640
gfz2013ugax  -0.37170
gfz2013uqsp  -0.62740
gfz2013uqvu  -2.30130
gfz2013uthl  -1.46740
gfz2013utsh  -1.14860
gfz2013vexx  -1.41040
gfz2013vfyw   0.62130
gfz2013vfzp  -0.31890
gfz2013vgrk  -1.90180
gfz2013vhzu   0.18410
gfz2013viul  -0.93710
gfz2013vjjc  -1.65370
gfz2013vrmy  -0.66790
gfz2013vuja  -0.81230
gfz2013vzbo  -1.23410
gfz2013wjmm  -0.62980
gfz2013wkyk  -1.70000
gfz2013wnpr  -0.52640
gfz2013wnql  -0.01830
gfz2013xmul   0.24980
gfz2013xsdt  -0.11440
gfz2013xxwv  -0.27780
gfz2013xxxq  -0.24380
gfz2013xyzb  -0.53520
gfz2013yaig  -2.32490
gfz2013yctg  -1.13490
gfz2013yghj  -1.15550
gfz2013yhbu  -0.83140
gfz2013yixl  -0.34830
gfz2013ylbx   0.62370
gfz2013ypdc  -0.99080
gfz2013yqkv  -0.46290
gfz2013yyhc   0.22070
gfz2013zmtb  -1.00740
gfz2014abgd  -0.49600
gfz2014afmx  -1.09920
gfz2014ajlk  -0.75820
gfz2014algk  -1.57310
gfz2014amsb  -0.59750
gfz2014ande  -0.39670
gfz2014arqr  -0.77060
gfz2014atbl   0.13520
gfz2014atgw  -0.96240
gfz2014bagd  -1.56810
gfz2014bezu  -1.25690
gfz2014bfng  -1.04760
gfz2014bldx  -1.72340
gfz2014bmdh  -0.78560
gfz2014bmta  -1.75560
gfz2014bwue  -1.24300
gfz2014bzxy  -1.65210
gfz2014caop  -0.73970
gfz2014chdv  -1.13690
gfz2014citw  -0.46590
gfz2014cmwb  -0.92710
gfz2014ctot  -1.26610
gfz2014cvkm  -1.16780
gfz2014cvxx  -1.06790
gfz2014czno  -1.24230
gfz2014czol  -0.19960
gfz2014czqi  -1.15190
gfz2014czua  -0.21050
gfz2014dddc   0.09840
gfz2014dhxt  -0.03230
gfz2014disp  -1.18680
gfz2014dofa  -1.65200
gfz2014duqn  -0.89070
gfz2014ehsf   0.80710
gfz2014ekcr  -1.88310
gfz2014ekdn  -0.81070
gfz2014emrg   0.47310
gfz2014emzb   0.00000
gfz2014enhi  -0.68040
gfz2014ettc  -1.10950
gfz2014exxa  -0.65680
gfz2014femz  -0.44600
gfz2014ffdc   0.08650
gfz2014fgvi  -0.92860
gfz2014fgvr  -0.00000
gfz2014fgvz  -0.44320
gfz2014fgxt  -1.40520
gfz2014fgyo  -1.11920
gfz2014fgza  -1.27600
gfz2014fhbd  -0.73590
gfz2014fhdw  -1.16800
gfz2014fhla  -2.51670
gfz2014fhlh  -0.40420
gfz2014fhrq  -1.55150
gfz2014fhsg  -1.21200
gfz2014fhwx   0.05630
gfz2014fimn  -0.24360
gfz2014fiwq  -0.18140
gfz2014fjpb   0.03650
gfz2014fjzd  -1.28600
gfz2014fkmr  -1.34120
gfz2014fkmx  -1.38260
gfz2014fknp  -0.03870
gfz2014flfa  -0.12910
gfz2014fqpz  -0.14400
gfz2014frdz  -1.25460
gfz2014frel  -0.32590
gfz2014frez  -0.88150
gfz2014frgm   0.19010
gfz2014frwh  -0.25690
gfz2014fsuh   0.03780
gfz2014fszc  -0.27940
gfz2014ftka  -1.85020
gfz2014ftno   0.50550
gfz2014ftoc  -1.48910
gfz2014ftpw  -1.31600
gfz2014ftrk  -1.02660
gfz2014furx  -0.64300
gfz2014fusc  -0.41100
gfz2014fusj  -0.51420
gfz2014fuub  -0.38680
gfz2014fval  -0.85780
gfz2014fvgh  -0.16120
gfz2014fvrg  -0.38320
gfz2014gbcz  -1.88850
gfz2014gbdq   0.30710
gfz2014geuy  -4.00330
gfz2014ghpe  -1.08920
gfz2014gkgf  -1.96470
gfz2014gkgs  -0.56050
gfz2014gkhp  -0.63800
gfz2014gkhy  -0.20670
gfz2014gkjl  -0.72000
gfz2014gkjt  -0.49680
gfz2014gklq  -0.40930
gfz2014gklv  -0.70810
gfz2014gkmm  -0.41510
gfz2014gkob  -0.74430
gfz2014gkok  -0.92370
gfz2014gkpj   0.61400
gfz2014gkqf  -0.27950
gfz2014gkqu  -0.56600
gfz2014gksj   0.54960
gfz2014gksu  -1.01860
gfz2014gktq  -0.55320
gfz2014gkxm  -0.74500
gfz2014glcu  -0.30860
gfz2014glcy  -0.48140
gfz2014glfn  -1.33600
gfz2014glgo   0.98650
gfz2014gltx  -0.64030
gfz2014glvn   2.31080
gfz2014glvu  -2.02850
gfz2014glxd  -0.63810
gfz2014glxy  -1.25300
gfz2014gmci  -0.50890
gfz2014gmes   0.59200
gfz2014gmge  -1.33050
gfz2014gmhp  -0.73220
gfz2014gmhr  -2.38450
gfz2014gmip  -0.46860
gfz2014gmjo  -0.14970
gfz2014gmku  -1.03250
gfz2014gmlz   0.25370
gfz2014gmmk   0.55100
gfz2014gmmt  -0.02460
gfz2014gmnb  -0.98530
gfz2014gmnw  -0.91830
gfz2014gmor  -0.45740
gfz2014gmpy  -0.41900
gfz2014gmrj  -0.00000
gfz2014gmtb  -0.02340
gfz2014gmto  -0.12510
gfz2014gmuk  -0.54360
gfz2014gmvr  -0.23840
gfz2014gmzl  -0.91180
gfz2014gmzs  -0.75910
gfz2014gndq   0.56480
gfz2014gnfd   0.23250
gfz2014gnfs  -0.96920
gfz2014gngg  -0.23130
gfz2014gnig  -0.90000
gfz2014gnnt  -0.42770
gfz2014gnom  -1.10000
gfz2014gnoz  -0.89140
gfz2014gnre  -0.35130
gfz2014gnsi  -0.24950
gfz2014gnxb  -0.52620
gfz2014goba  -1.51250
gfz2014goei  -0.11730
gfz2014goqw  -0.53420
gfz2014gpce  -0.56920
gfz2014gpuk   0.17870
gfz2014gpya   0.32470
gfz2014gqbj   0.19600
gfz2014gqed   0.28760
gfz2014gqer  -0.67050
gfz2014gqiy  -0.22610
gfz2014gqqz  -0.98970
gfz2014gqve  -1.00100
gfz2014grfp  -0.94030
gfz2014grho   1.12900
gfz2014gsqs  -1.18040
gfz2014gtwz  -0.00000
gfz2014gufl  -0.10990
gfz2014gull  -0.85420
gfz2014gulp  -0.45680
gfz2014gumd  -0.79630
gfz2014gutm   0.32920
gfz2014gvhw  -0.26490
gfz2014gvqj  -0.44420
gfz2014gvra  -0.46250
gfz2014gvrd  -1.03500
gfz2014gwab  -1.50320
gfz2014gxag  -1.87720
gfz2014gxkh   0.57440
gfz2014gxxo  -0.42840
gfz2014gyxd  -1.37580
gfz2014gzue   0.55910
gfz2014haey  -0.61070
gfz2014hagb  -1.07810
gfz2014haos   0.01080
gfz2014hasj  -1.42910
gfz2014hauo   0.14680
gfz2014hbjm  -1.24740
gfz2014hbjz  -0.58140
gfz2014hbqb  -0.85260
gfz2014hcmj  -1.74480
gfz2014heyq  -1.98390
gfz2014hfhl  -1.61870
gfz2014hgqo  -0.74130
gfz2014hhfs  -0.40400
gfz2014hifp  -0.37730
gfz2014hiiz  -0.90350
gfz2014hjgh  -1.05540
gfz2014hjgr  -0.82070
gfz2014hjij  -0.90050
gfz2014hjlx  -1.12070
gfz2014hkcf  -0.90010
gfz2014hkck  -0.98020
gfz2014hmzg   0.11820
gfz2014hocg  -0.51000
gfz2014hphw  -0.74770
gfz2014hqxs  -1.28710
gfz2014hqyx   0.57710
gfz2014hrft  -1.15430
gfz2014hriu  -2.18710
gfz2014hrtn  -2.53380
gfz2014hscz  -0.20370
gfz2014huaj  -0.43710
gfz2014hwwi  -0.08080
gfz2014hyal   0.41360
gfz2014hymr  -0.51770
gfz2014hyvq  -0.46790
gfz2014hzdy  -0.58990
gfz2014hzfw  -1.40060
gfz2014hzgn  -0.14900
gfz2014iani  -0.81220
gfz2014ieam  -2.87160
gfz2014ifue  -0.84420
gfz2014ifzj  -0.52620
gfz2014ilwu  -1.09880
gfz2014imnn  -0.99220
gfz2014inbj   0.01500
gfz2014iqzj  -0.37330
gfz2014irci  -0.82440
gfz2014isdq   0.53800
gfz2014isff  -0.06360
gfz2014issk   0.56280
gfz2014isub  -1.40990
gfz2014itab  -0.18320
gfz2014itbe  -1.46120
gfz2014itgh  -0.67560
gfz2014itpj  -0.89620
gfz2014iuhq  -0.85030
gfz2014iwnf  -0.14400
gfz2014ixga  -0.94340
gfz2014iywt  -0.52020
gfz2014jagg  -0.21340
gfz2014jbyg   0.97930
gfz2014jcmt  -1.16800
gfz2014jggm  -0.49770
gfz2014jird   0.58340
gfz2014jjhc  -1.67640
gfz2014jjln  -0.82190
gfz2014jjqk   0.46890
gfz2014jnyv  -1.28000
gfz2014jomw  -1.66500
gfz2014jpep  -0.50530
gfz2014jpez  -1.33420
gfz2014jpgu  -0.92300
gfz2014jwmh   0.08110
gfz2014kbuk  -1.72620
gfz2014khan  -0.43130
gfz2014kizt  -0.86910
gfz2014kjee  -0.20820
gfz2014kjzb   0.15510
gfz2014kkhh   0.12990
gfz2014kndc  -1.10050
gfz2014knks  -1.02410
gfz2014knxs  -0.59070
gfz2014kwie   0.15150
gfz2014kwrg  -0.55640
gfz2014kxqf  -0.95440
gfz2014kyan  -1.07150
gfz2014kytf  -0.82650
gfz2014kzzm  -0.91770
gfz2014lbcq  -1.81720
gfz2014lefs  -0.86480
gfz2014lgqn  -0.81670
gfz2014ljbr  -0.42550
gfz2014lkyf  -0.99800
gfz2014lmge  -0.17740
gfz2014lnqy  -0.97670
gfz2014lpim  -1.07510
gfz2014lrzx  -0.94530
gfz2014lurd  -0.47120
gfz2014lvgn  -1.03360
gfz2014lxnc  -0.71650
gfz2014lxqr   0.22640
gfz2014lyhk  -1.36460
gfz2014lyhp  -0.27100
gfz2014lzal  -0.71710
gfz2014macx  -1.31340
gfz2014madw  -0.95710
gfz2014mcse  -0.78060
gfz2014mioi  -0.44960
gfz2014mlrr  -0.96400
gfz2014moaw  -2.16430
gfz2014mtum  -0.77840
gfz2014mxkr  -0.87540
gfz2014ngnd   0.25430
gfz2014ngsk  -0.41120
gfz2014niqj  -0.32000
gfz2014nnxd  -1.14330
gfz2014nowp  -0.40300
gfz2014npeo  -0.64730
gfz2014nphm  -0.83820
gfz2014nqfm  -1.17730
gfz2014nrie  -0.98950
gfz2014ntdh  -0.91350
gfz2014nvdi   0.85610
gfz2014nyeh  -0.12730
gfz2014nyfb  -1.30960
gfz2014nyko  -1.66700
gfz2014nylm  -1.46060
gfz2014odgv  -0.83020
gfz2014oinz  -1.35020
gfz2014okec  -1.33910
gfz2014omyn  -0.84620
gfz2014orgz  -0.36850
gfz2014orxs  -0.84190
gfz2014owxc  -0.78260
gfz2014oxcc  -0.45310
gfz2014oyly  -1.57440
gfz2014pjer  -1.04290
gfz2014pkll  -1.39930
gfz2014pngj  -0.13940
gfz2014ppzf  -1.48740
gfz2014pvch  -0.61800
gfz2014pzni  -0.97610
gfz2014qlvc  -0.98640
gfz2014qlxd  -1.24300
gfz2014qngj  -0.88510
gfz2014qqhm  -1.52600
gfz2014rdsn  -1.97260
gfz2014riel  -1.11250
gfz2014rkwl  -2.67270
gfz2014romy  -1.73160
gfz2014sadu  -1.03560
gfz2014shid  -0.97650
gfz2014sjqw  -0.53680
gfz2014sptq   2.77980
gfz2014ssds  -0.26140
gfz2014ssvz  -2.04600
gfz2014szzf  -0.25020
gfz2014tabg  -1.73290
gfz2014tovs  -0.36090
gfz2014tqdo  -1.29130
gfz2014tqsf  -1.72980
gfz2014tqth  -1.91700
gfz2014tzsd  -1.60960
gfz2014ubwn  -0.22200
gfz2014udgg  -1.74000
gfz2014uohh  -1.24560
gfz2014utac  -1.38120
gfz2014uuuf   1.53110
gfz2014uvji  -0.51550
gfz2014uyrq  -0.63550
gfz2014veit  -0.06870
gfz2014vhld  -1.03340
gfz2014vhms  -0.98740
gfz2014vqqa  -1.68110
gfz2014waoo  -0.99030
gfz2014watn  -1.21100
gfz2014wjko  -3.52600
gfz2014wmsc  -0.63720
gfz2014wrkh  -2.04910
gfz2014wwib  -2.22150
gfz2014xbyr  -0.71330
gfz2014xjri  -1.30730
gfz2014xoji  -0.60330
gfz2014xqby  -1.79520
gfz2014xqqd  -1.54030
gfz2014yhhm  -0.77880
gfz2014ynzy  -0.91710
gfz2014yppv  -1.83330
gfz2014yrug  -1.20740
gfz2014zlgp  -0.20640
gfz2015apnk  -1.34070
gfz2015aruz  -1.27690
gfz2015atxv  -1.28100
gfz2015berb  -1.32360
gfz2015bfjm  -0.47620
gfz2015bkbj  -1.02760
gfz2015bphe  -2.36670
gfz2015byjd  -0.73140
gfz2015chhn  -1.72940
gfz2015chqn  -1.06060
gfz2015cxxk  -1.44610
gfz2015cyjd  -1.29940
gfz2015dizn  -0.68480
gfz2015drlk  -2.06270
gfz2015dskr  -1.39230
gfz2015dvbn  -1.44420
gfz2015ednc   0.02420
gfz2015eeyq  -0.35890
gfz2015eezy  -2.24760
gfz2015egxq  -0.66680
gfz2015ehpz  -0.74030
gfz2015eiky  -0.65980
gfz2015etai  -1.53030
gfz2015fbbk  -2.29100
gfz2015fcua  -0.74420
gfz2015fdpr  -1.33020
gfz2015fjhk  -0.65690
gfz2015fkgt  -1.20190
gfz2015fkjs  -3.23530
gfz2015fsjj  -0.77370
gfz2015fvoi  -0.52140
gfz2015fwkq  -0.20830
gfz2015fyvk  -0.91990
gfz2015gckd  -0.98970
gfz2015ggjw  -1.09940
gfz2015gjbr  -0.65870
gfz2015gkwa  -0.30770
gfz2015gmgf  -1.56760
gfz2015gzja  -1.04580
gfz2015hgbk  -1.52960
gfz2015hlqo  -0.08630
gfz2015imty  -1.10750
gfz2015isim  -0.48690
gfz2015iwqk   0.59000
gfz2015jmlf  -0.19340
gfz2015jmlu  -0.31450
gfz2015jpap   1.95010
gfz2015jwgl  -0.93380
gfz2015jxbx  -1.03330
gfz2015jxjd  -1.28230
gfz2015jzcv  -0.88040
gfz2015kakw  -1.06610
gfz2015kalm  -0.84470
gfz2015kcaa  -0.68820
gfz2015kfsu  -1.99100
gfz2015kkqb  -0.04340
gfz2015kkth  -0.81970
gfz2015kphk  -0.95750
gfz2015kquq  -0.36120
gfz2015ksni  -1.19870
gfz2015kvwz  -0.13800
gfz2015lcma  -0.75860
gfz2015lfma  -1.03250
gfz2015lfud  -1.39430
gfz2015lhjq  -1.61570
gfz2015lhjy  -0.78590
gfz2015ltii  -1.82960
gfz2015ltro  -1.04120
gfz2015lytv  -1.94920
gfz2015mbgr  -3.53760
gfz2015mddr  -0.74010
gfz2015mfpy  -1.51900
gfz2015mpte  -1.31010
gfz2015nbdc   0.63190
gfz2015nerz  -1.43550
gfz2015nqgf  -0.72180
gfz2015nuxz  -2.09100
gfz2015nwug  -0.69430
gfz2015ocdz   0.08560
gfz2015okmq  -0.89800
gfz2015orkl  -0.25950
gfz2015oyfl  -0.94570
gfz2015plal  -1.46690
gfz2015poni  -0.57250
gfz2015qiit  -1.65520
gfz2015qnde  -0.28440
gfz2015qnho  -0.85820
gfz2015qols  -0.40990
gfz2015quzo  -1.29100
gfz2015rkbq  -0.63270
gfz2015rkrg  -1.19250
gfz2015rtnv  -0.52490
gfz2015sdeo  -0.38980
gfz2015sdfy  -1.48220
gfz2015seuf  -1.26390
gfz2015sevh  -1.03350
gfz2015sfdd  -1.18430
gfz2015sfdv   0.77030
gfz2015sfdy  -0.84370
gfz2015sfeo  -0.39750
gfz2015sffn  -1.10850
gfz2015sfga  -0.49350
gfz2015sfhz  -0.84380
gfz2015sfiq  -1.12230
gfz2015sfkh  -1.73700
gfz2015sflf  -0.82670
gfz2015sfnb  -1.87520
gfz2015sfno   0.89710
gfz2015sfnv  -0.60380
gfz2015sfoc  -1.29910
gfz2015sfqo  -0.54510
gfz2015sfqr  -0.37690
gfz2015sfsi  -1.64360
gfz2015sftu  -1.18680
gfz2015sfwf  -0.09240
gfz2015sfxn  -0.83800
gfz2015sfzm  -0.23510
gfz2015sgad  -0.32030
gfz2015sgmr   0.21100
gfz2015sgxc  -0.58350
gfz2015sgyd  -0.20880
gfz2015shhg  -0.43360
gfz2015shhu  -0.51950
gfz2015shjn  -0.70780
gfz2015shrg  -2.28030
gfz2015shsz   1.40130
gfz2015siky  -2.40990
gfz2015sing  -1.45530
gfz2015sist   0.88490
gfz2015sitn  -0.38970
gfz2015sjfi  -0.23530
gfz2015sjgk  -0.63880
gfz2015sjjb  -0.38480
gfz2015sjne  -0.71180
gfz2015sjoj  -0.62350
gfz2015sjvu  -0.49520
gfz2015sjwi  -0.40370
gfz2015skpv  -0.26430
gfz2015skxu  -0.44580
gfz2015sldx  -1.06220
gfz2015sljs  -1.89740
gfz2015slun  -0.70280
gfz2015smym  -0.96700
gfz2015snsf  -1.10030
gfz2015snwh  -0.84470
gfz2015snyd  -0.61750
gfz2015soat  -0.63800
gfz2015soxc  -1.28260
gfz2015sqmy   0.24590
gfz2015srat  -0.41790
gfz2015sryk  -0.22150
gfz2015stfy  -0.11310
gfz2015subz  -0.83030
gfz2015svwm  -1.38970
gfz2015szcb  -1.16530
gfz2015taml  -1.96040
