# Nsamples: 659  MAD:  0.675  mean:  0.203  variance:  1.218
gfz2010aerk   0.23820
gfz2010bfzs  -0.73390
gfz2010bifb  -0.61610
gfz2010bjeb   0.17110
gfz2010bkob   0.54770
gfz2010bowy   1.50150
gfz2010boxo   1.47680
gfz2010bxxs  -0.19620
gfz2010caft  -0.77860
gfz2010cbkg  -0.00000
gfz2010civi   0.34720
gfz2010ckzm  -0.34670
gfz2010cqwl   0.35620
gfz2010czps  -1.03790
gfz2010dlgc   0.62130
gfz2010eaoy  -0.41360
gfz2010eapn   0.77710
gfz2010eaqe  -0.46110
gfz2010eaqx   0.19890
gfz2010eaqy   0.29280
gfz2010earu   0.34200
gfz2010easf   1.18970
gfz2010easo  -0.39040
gfz2010easu  -0.33740
gfz2010eati  -0.08500
gfz2010eato   0.43600
gfz2010eatt   2.53990
gfz2010eaty   0.60730
gfz2010eaul   0.95100
gfz2010eavd  -0.74640
gfz2010eavs   1.15150
gfz2010eawb   0.24080
gfz2010eawu  -9.57290
gfz2010eaxa   0.55070
gfz2010eayd  -0.12410
gfz2010eayp   0.51340
gfz2010eaze   0.50200
gfz2010eazu   1.63870
gfz2010ebbd  -0.31220
gfz2010ebbx  -4.38480
gfz2010ebby   0.26120
gfz2010ebdl   0.36510
gfz2010ebeh  -0.13660
gfz2010ebek  -0.41830
gfz2010ebfa   0.52480
gfz2010ebfx   0.51000
gfz2010ebhc   0.14930
gfz2010ebih   0.43320
gfz2010ebiv   0.71160
gfz2010ebjy   0.04420
gfz2010ebkj  -0.68210
gfz2010ebkx  -0.40490
gfz2010ebla   0.58780
gfz2010ebll  -0.01990
gfz2010ebmb   0.32560
gfz2010ebmi   0.14910
gfz2010ebnn  -0.02120
gfz2010ebqt   0.79020
gfz2010ebrm  -0.37160
gfz2010ebsv   0.06290
gfz2010ebvm   0.24350
gfz2010ebvv  -0.35450
gfz2010ebwp   0.13920
gfz2010ebxl   0.99790
gfz2010ebze   0.92390
gfz2010ebzk  -0.96580
gfz2010ebzr   0.18880
gfz2010ecam   0.06200
gfz2010ecay   0.03590
gfz2010ecbi   0.20320
gfz2010eccq   0.89940
gfz2010eced   2.13550
gfz2010ecft   0.13370
gfz2010ecfx   0.23650
gfz2010echc   0.54560
gfz2010echt   0.44450
gfz2010echy   1.41970
gfz2010ecns  -1.19190
gfz2010ecps   0.71200
gfz2010ecsp  -0.33850
gfz2010ectq   0.40940
gfz2010ecua  -0.66800
gfz2010ecvt   0.56260
gfz2010edad   1.40780
gfz2010edat   0.20770
gfz2010eday  -0.01980
gfz2010edbz  -0.82560
gfz2010edcp   0.24680
gfz2010edhv   0.75370
gfz2010edim   0.42870
gfz2010edkp   1.81380
gfz2010edsn   1.73340
gfz2010edvf   0.72360
gfz2010edyi  -1.06520
gfz2010edzb   1.03160
gfz2010eedu  -0.49240
gfz2010eefh   0.60650
gfz2010eeij   0.66580
gfz2010eerh  -0.11990
gfz2010eern   0.81170
gfz2010eevu   0.11060
gfz2010efbh   0.70040
gfz2010efsq   0.56800
gfz2010efxf   1.40750
gfz2010egap  -0.60000
gfz2010eghq   0.63260
gfz2010egld  -0.01710
gfz2010egln   0.47970
gfz2010egmp   0.38140
gfz2010egsy   1.03100
gfz2010egyy   0.72260
gfz2010ehxz   1.47740
gfz2010eioi  -0.38670
gfz2010eisx  -1.31790
gfz2010eixj   0.04310
gfz2010ejjg  -0.62990
gfz2010ejju   2.34370
gfz2010ejma   0.73520
gfz2010ejxf   0.99790
gfz2010ekrv  -0.74050
gfz2010ekyc  -0.68240
gfz2010eltf   0.16880
gfz2010elvp   0.35970
gfz2010elxi   1.15430
gfz2010elyc  -1.90140
gfz2010elyo   0.37040
gfz2010emyz   1.86440
gfz2010eoao   0.20510
gfz2010epbe   4.38730
gfz2010epxj   0.47460
gfz2010eqjg  -0.04430
gfz2010eqmu   2.05880
gfz2010erdi   1.11060
gfz2010erkn  -0.23030
gfz2010erna  -0.77580
gfz2010erom  -0.24280
gfz2010eruy   2.75410
gfz2010erwn   0.38090
gfz2010eryg  -0.80500
gfz2010esid   1.71370
gfz2010eujm  -0.08470
gfz2010euvl  -0.20540
gfz2010euxe  -0.25650
gfz2010evco  -0.79090
gfz2010ewvc  -1.08780
gfz2010ewyu   1.17900
gfz2010excp  -0.06590
gfz2010exdd  -0.67750
gfz2010exdl  -0.46550
gfz2010exed   0.01790
gfz2010exel   0.25700
gfz2010exgb   0.04110
gfz2010exhd  -0.11360
gfz2010exhw  -0.89000
gfz2010exmc  -0.15950
gfz2010exno  -0.32350
gfz2010exsg   0.22990
gfz2010exts  -1.09390
gfz2010eyhh   0.23340
gfz2010ezax   0.50280
gfz2010ezck   0.43530
gfz2010ezxd  -0.73910
gfz2010fcax  -0.48950
gfz2010fcdw  -0.38360
gfz2010fcnn  -0.25230
gfz2010fcyj  -0.99700
gfz2010fczt   0.42440
gfz2010fdab  -0.25430
gfz2010fedq  -0.71600
gfz2010fefr   0.34470
gfz2010ffhq  -0.54620
gfz2010ffjb  -0.28900
gfz2010ffui   0.23320
gfz2010figq   0.42560
gfz2010fika   0.09790
gfz2010fjal   5.50960
gfz2010fkvg   0.38400
gfz2010flha  -0.02130
gfz2010flrt   0.17390
gfz2010flxi  -0.28220
gfz2010fmwb   2.57060
gfz2010fneu  -0.05410
gfz2010fnrk   1.74770
gfz2010fpqy   0.13250
gfz2010fser   0.28680
gfz2010ftlm  -0.20410
gfz2010fupn  -0.05430
gfz2010fync  -0.61640
gfz2010fzoi  -0.07230
gfz2010gcdn  -0.67990
gfz2010gcrl  -2.78590
gfz2010gdld  -0.12610
gfz2010gjia   0.99710
gfz2010glqr   0.49930
gfz2010glxl  -0.31300
gfz2010gyqp  -0.36320
gfz2010gzxr   0.09020
gfz2010hcio   0.13470
gfz2010hgld   0.93480
gfz2010hllj  -5.25640
gfz2010hlln  -1.05680
gfz2010hlmq   0.82630
gfz2010hnnf   1.78040
gfz2010homc   0.00000
gfz2010hptz  -0.72800
gfz2010hxgv  -0.29660
gfz2010iobp  -1.21560
gfz2010irvf  -0.64810
gfz2010iull  -0.18040
gfz2010jagd   0.40980
gfz2010jatq  -0.07240
gfz2010jxbm  -0.01830
gfz2010kcoo   0.96740
gfz2010kdyc   0.29330
gfz2010lkcf  -1.10020
gfz2010lluj   0.08380
gfz2010mdpq  -0.83730
gfz2010mkuu   0.52760
gfz2010mlta   2.35900
gfz2010mncc  -0.09850
gfz2010moyw  -0.54260
gfz2010mpuy  -1.64740
gfz2010msjj   0.59640
gfz2010ncrl  -0.45880
gfz2010nmpc  -1.21110
gfz2010nqwf   0.28920
gfz2010nqwo  -0.21420
gfz2010nrjo  -0.69390
gfz2010nsck   0.52240
gfz2010ntuo  -0.07250
gfz2010nubk   0.34390
gfz2010nwef   0.57990
gfz2010okdm  -0.50350
gfz2010onma  -0.78900
gfz2010pcxi  -0.52970
gfz2010pewa  -0.53950
gfz2010pewx   0.07090
gfz2010pfyu  -0.18730
gfz2010phvg   1.25980
gfz2010plbg  -0.39370
gfz2010pxgh  -0.25730
gfz2010qpvi   0.07900
gfz2010rhas   0.37320
gfz2010rqwj  -0.84690
gfz2010rzrr   5.13380
gfz2010sfee   0.06950
gfz2010sfla   3.37690
gfz2010skve   0.02190
gfz2010svtn   0.84970
gfz2010swcy   0.34240
gfz2010szde   0.45450
gfz2010tlfm  -0.02830
gfz2010truw   1.22650
gfz2010upfb  -0.48980
gfz2010upiw  -0.72000
gfz2010usho   0.42600
gfz2010ustq  -0.23170
gfz2010utcg   0.30510
gfz2010uyhb   2.60710
gfz2010veri   0.73110
gfz2010vzpr   1.05220
gfz2010wrxx   7.65160
gfz2010xbdv  -0.45090
gfz2010yjev  -0.51960
gfz2011aatr  -0.33230
gfz2011adjs  -0.40540
gfz2011aldv   1.41490
gfz2011alip   0.84040
gfz2011alsa   0.62950
gfz2011ccpw   0.15230
gfz2011cndo   1.19140
gfz2011cvfg   0.45700
gfz2011cykd  -0.60760
gfz2011cynl   1.72250
gfz2011cyre  -0.14750
gfz2011cyuk  -0.77600
gfz2011dbev   0.16840
gfz2011dbig   0.67840
gfz2011dbon  -0.09460
gfz2011dcqb   0.81090
gfz2011dcqf   0.18420
gfz2011dkyi   0.19820
gfz2011dpqx  -0.25710
gfz2011duyr   2.75110
gfz2011ecaj   1.40170
gfz2011ehzq  -0.13810
gfz2011enva  -0.40450
gfz2011etje   1.42610
gfz2011fhur  -0.87920
gfz2011flgj   2.05180
gfz2011fnsw   0.72150
gfz2011gcwb   0.17670
gfz2011gkzt  -0.95970
gfz2011haid   6.73670
gfz2011hbex   0.69360
gfz2011hlqw  -0.35330
gfz2011hlsa  -0.35680
gfz2011hlth   0.75410
gfz2011hpqp   0.62840
gfz2011hvbu   0.02170
gfz2011ieie   0.56270
gfz2011kqwo  -0.78500
gfz2011kxzp   0.21780
gfz2011lcxq  -0.44950
gfz2011lgsg  -0.46530
gfz2011lzwj   0.19180
gfz2011mdie  -0.30780
gfz2011mpme   0.82110
gfz2011mprq   0.51960
gfz2011ntkh   0.14380
gfz2011nudm  -0.06520
gfz2011ogqk  -0.31260
gfz2011ohcy   0.85320
gfz2011oiqe   0.04070
gfz2011olkk   1.44460
gfz2011orgn   1.21280
gfz2011ornx   0.64570
gfz2011phms  -0.20110
gfz2011pntf   0.69710
gfz2011ptus   1.35120
gfz2011qvae   1.08640
gfz2011rabm   0.45040
gfz2011rdby   1.34380
gfz2011rewa  -0.69300
gfz2011rgwp   0.61290
gfz2011rqui  -0.00770
gfz2011rsrh   0.44790
gfz2011sagt   0.30510
gfz2011tbas  -0.30730
gfz2011tcij   0.65260
gfz2011tjue   5.14570
gfz2011tkfp   1.15670
gfz2011toub   0.10950
gfz2011ujze   0.23050
gfz2011uphh  -0.19690
gfz2011vhfi   0.49240
gfz2011vnza   0.04340
gfz2011vxns  -0.02800
gfz2011wcic  -0.16970
gfz2011wwjs   0.06580
gfz2011wxfs   0.73510
gfz2011wxtk  -0.25120
gfz2011wype   0.87640
gfz2011xyxj   0.40500
gfz2011yfdx   0.60840
gfz2012aqgp  -0.63480
gfz2012bfah   0.44020
gfz2012bpkx  -0.45930
gfz2012bpnl   0.34740
gfz2012bpwl   0.42920
gfz2012byad   0.85660
gfz2012cqnl  -0.74320
gfz2012cxdn  -0.39160
gfz2012czlw   0.60690
gfz2012dimn  -1.59090
gfz2012dyyh   0.03970
gfz2012ekda  -0.31350
gfz2012ekzf   0.65910
gfz2012elce   1.21370
gfz2012emjg   0.78240
gfz2012enno   0.01390
gfz2012ewgo   0.50240
gfz2012fzfa  -0.28710
gfz2012hnul   0.23960
gfz2012ilvn   0.55870
gfz2012jlox  -0.33450
gfz2012jshk   1.67910
gfz2012jupx  -0.37320
gfz2012keor   0.40230
gfz2012kkup   0.08250
gfz2012klhx   1.15800
gfz2012kudo  -0.09660
gfz2012kwgo   0.49350
gfz2012lczo  -0.10050
gfz2012ldxg  -0.27950
gfz2012ldzj   4.13320
gfz2012lxkv  -0.78390
gfz2012minr  -0.07370
gfz2012mvwr   0.29560
gfz2012mwij   1.05470
gfz2012naqz   1.82410
gfz2012nojx   0.30360
gfz2012nolo   1.40390
gfz2012nsbz   0.37850
gfz2012pgcl   0.36980
gfz2012pkel   0.69100
gfz2012pqmu   1.23790
gfz2012rats  -0.64090
gfz2012repv   0.48660
gfz2012rjsd   0.34820
gfz2012royy   4.22970
gfz2012ruks  -0.74420
gfz2012rwov  -0.60790
gfz2012rypu  -1.22280
gfz2012snhi   2.01070
gfz2012sphd   0.54810
gfz2012syvl   0.82460
gfz2012teic  -3.47940
gfz2012ttoa   0.33260
gfz2012ufew   0.90640
gfz2012uvqf   0.93770
gfz2012uyxb   0.11870
gfz2012vrgb   0.18380
gfz2012wklq  -1.90080
gfz2012wmsg  -0.86610
gfz2012wvfl   0.39390
gfz2012wypz   0.33230
gfz2012zitl  -0.27540
gfz2012zjpv   0.40320
gfz2013bokp   0.20790
gfz2013ccnr  -1.33160
gfz2013cwpn   0.97390
gfz2013dkly   0.82510
gfz2013dofo  -0.58080
gfz2013drxz  -0.84510
gfz2013dspt   2.43430
gfz2013egpu   0.58420
gfz2013fygc   0.22890
gfz2013gdnq   0.06440
gfz2013gngz   0.50400
gfz2013gock   0.71180
gfz2013hdnc  -0.49270
gfz2013hzdp  -0.20540
gfz2013iayx   0.87160
gfz2013ikgo   0.54460
gfz2013ilug  -1.13170
gfz2013ippu  -0.07740
gfz2013jesk   0.85490
gfz2013jgij  -0.33030
gfz2013jgip   1.60600
gfz2013jkut  -0.24350
gfz2013jusj   0.56680
gfz2013jwvc   0.27680
gfz2013kccc   1.30900
gfz2013kdeo   0.48540
gfz2013ldpc   0.73680
gfz2013ldqb  -0.26370
gfz2013lixa   0.41460
gfz2013lyko   0.34820
gfz2013mqmv   0.65960
gfz2013mwbh   0.05450
gfz2013ncjp  -0.20010
gfz2013nixj   0.39860
gfz2013nkgj   0.73140
gfz2013nmac  -2.79760
gfz2013nwdi  -0.59480
gfz2013ogde   0.20820
gfz2013orzn   1.57590
gfz2013pfbx   0.21710
gfz2013pxsj   1.15930
gfz2013qali   0.90240
gfz2013qmer   0.44870
gfz2013qzdq   0.15840
gfz2013rait   1.09830
gfz2013suvn   1.02420
gfz2013svci  -0.43850
gfz2013xizq  -0.26290
gfz2013xsdt   0.92130
gfz2013yctg  -0.46220
gfz2013yhbu  -0.25870
gfz2013yqkv   0.89860
gfz2014adoj  -0.19170
gfz2014afmx   0.19600
gfz2014algk  -0.27000
gfz2014ande   0.51650
gfz2014bagd  -0.35240
gfz2014bwue   0.35780
gfz2014bzxy  -0.17500
gfz2014claq   0.25030
gfz2014cvxx   0.25580
gfz2014czqi   0.31620
gfz2014czua   1.32740
gfz2014dhxt   0.77660
gfz2014ekcr   0.32440
gfz2014enhi  -0.18290
gfz2014femz   1.09220
gfz2014fgvi   0.78080
gfz2014fhla   0.42020
gfz2014fhlh   1.18230
gfz2014fkmr   0.31680
gfz2014frdz   0.06490
gfz2014frez   1.40400
gfz2014ftka   0.74720
gfz2014furx   1.61750
gfz2014fusj   2.23040
gfz2014fval   0.14590
gfz2014ghpe   0.15620
gfz2014gkgf  -0.84110
gfz2014gkmm   0.99540
gfz2014gkob   0.42170
gfz2014gkqf   0.69040
gfz2014gktq   1.58450
gfz2014glcu  -0.20660
gfz2014glvu  -0.62320
gfz2014gmge  -0.77910
gfz2014gmhr   0.10090
gfz2014gmnb   0.13350
gfz2014gmnw   0.93680
gfz2014gmzl   2.05380
gfz2014goba   0.28640
gfz2014goqw   0.92420
gfz2014gori   1.41490
gfz2014gpya   0.98540
gfz2014gqve   0.69530
gfz2014grcv  -1.21900
gfz2014gsqs  -0.44720
gfz2014gull  -0.02330
gfz2014gumd  -0.17490
gfz2014gvrd  -1.62580
gfz2014gwab   0.26320
gfz2014hasj  -0.04330
gfz2014hauo   0.03150
gfz2014hbqb   0.13780
gfz2014hgqo   1.05560
gfz2014hjgr   0.39710
gfz2014hocg   0.05730
gfz2014huaj   0.61160
gfz2014hzfw  -0.88880
gfz2014igur  -0.16440
gfz2014imnn   0.90700
gfz2014itkw   0.57300
gfz2014jjhc   0.32470
gfz2014jjln   1.25640
gfz2014jnyv  -0.07680
gfz2014jwmh   0.37430
gfz2014khlk   0.57900
gfz2014kjjq  -1.56310
gfz2014knxs   0.45550
gfz2014ksdv  -1.85930
gfz2014kyan   0.46460
gfz2014lefs  -0.86180
gfz2014lgqn   0.53970
gfz2014lxnc   0.40960
gfz2014lyhk   0.85440
gfz2014macx   0.66660
gfz2014madw   0.58900
gfz2014nowp   0.31000
gfz2014npeo  -0.53710
gfz2014nphm   0.91980
gfz2014nqfm   0.09230
gfz2014nrie   0.08740
gfz2014pkll   1.50720
gfz2014ppzf  -0.40660
gfz2014pvch   0.24800
gfz2014qdog  -0.15310
gfz2014qlxd   0.49780
gfz2014qngj  -0.21900
gfz2014qqhm  -1.16680
gfz2014rdsn  -0.24590
gfz2014xbyr  -1.79640
gfz2014xqqd  -0.19150
gfz2014yhhm   0.10020
gfz2015aruz  -0.32390
gfz2015berb   0.24840
gfz2015bkbj  -0.10850
gfz2015byfn   0.12500
gfz2015byjd   1.05630
gfz2015chhn  -0.84580
gfz2015cxhx   0.47080
gfz2015cxxk  -0.27530
gfz2015cyjd  -0.14630
gfz2015dskr  -0.07620
gfz2015dvbn  -0.32730
gfz2015egxq   0.14630
gfz2015elgy  -0.10530
gfz2015etai  -0.32250
gfz2015fcua  -0.00000
gfz2015fjhk  -0.96940
gfz2015fkgt   0.16740
gfz2015fkic  -0.04230
gfz2015fkkd   0.75480
gfz2015flis   0.55470
gfz2015fsjj   0.32880
gfz2015gckd   0.14890
gfz2015gjbr   0.39260
gfz2015gzja   0.38560
gfz2015ixyy   0.25270
gfz2015jkdw  -0.35780
gfz2015jwgl  -0.48900
gfz2015jxbx  -0.54470
gfz2015kakw  -0.17640
gfz2015kkth  -1.07280
gfz2015ksni   0.26870
gfz2015lhjy   0.02140
gfz2015lytv  -1.97700
gfz2015lzad   0.59780
gfz2015mddr   0.60370
gfz2015mpte  -0.76830
gfz2015nqgf   0.65930
gfz2015nuxz  -0.47650
gfz2015okmq   0.78120
gfz2015oyfl  -0.30460
gfz2015poni  -0.23990
gfz2015qnho  -0.19810
gfz2015quzo   3.39530
gfz2015rgov  -1.85470
gfz2015rgrg   0.26750
gfz2015rkrg   0.25210
gfz2015rkzg  -3.35740
gfz2015rpzn  -0.77200
gfz2015sfdd  -0.74040
gfz2015sfdy  -0.67730
gfz2015sfga  -0.18610
gfz2015sfho   0.86070
gfz2015sfhz  -0.29150
gfz2015sfiq   0.85900
gfz2015sflf  -0.29630
gfz2015sfnb  -0.90640
gfz2015sfno  -0.86650
gfz2015sfnv   0.30570
gfz2015sfoc  -0.03860
gfz2015sfoq   1.34310
gfz2015sfps  -1.69160
gfz2015sfqo   0.25180
gfz2015sfqr   0.13230
gfz2015sfrf  -1.52810
gfz2015sfwf   0.57450
gfz2015sfzm   0.55360
gfz2015sgad   0.46910
gfz2015sgyd   0.48280
gfz2015shhg   0.77560
gfz2015shhu   0.45660
gfz2015shjn  -0.07600
gfz2015shjo   0.05470
gfz2015shqe  -1.32530
gfz2015shrg  -0.41430
gfz2015shsz   0.41590
gfz2015siky   0.12470
gfz2015sing  -0.65130
gfz2015sist   0.14930
gfz2015sitn   0.02160
gfz2015sjbx   0.51080
gfz2015sjfi   0.97580
gfz2015sjgk  -0.08210
gfz2015sjjb   0.34230
gfz2015sjne  -0.02170
gfz2015sjoj  -0.22520
gfz2015sjpn  -0.08150
gfz2015sjvu  -0.27490
gfz2015sjwi   0.15290
gfz2015sklu  -0.04680
gfz2015skuk  -1.04570
gfz2015skxu   0.06470
gfz2015sldx  -0.34910
gfz2015sljs   1.94850
gfz2015slun  -0.83410
gfz2015smym   0.11730
gfz2015snmr  -0.25020
gfz2015snsf  -0.43410
gfz2015snwh  -0.86350
gfz2015snyd  -0.28820
gfz2015soat   0.02650
gfz2015soxc  -0.32040
gfz2015srat  -0.22630
gfz2015svwm  -0.76520
gfz2015sxmh  -1.45330
gfz2015szcb  -0.23410
gfz2015sztx  -0.10410
gfz2015taml   0.44570
