# Nsamples: 994  MAD:  0.540  mean:  0.158  variance:  1.123
gfz2012wtkh  -1.22160
gfz2012wtkr   0.21920
gfz2012wubh   0.42320
gfz2012wvfl   0.17090
gfz2012wxer   1.22500
gfz2012wxkg   0.01820
gfz2012wxlg   0.08240
gfz2012wxnu   2.18310
gfz2012wybs   2.14290
gfz2012wypz   1.17560
gfz2012xbjq  -0.08460
gfz2012xcgk   0.04450
gfz2012xevt   0.00000
gfz2012xgqm   0.01900
gfz2012xhci  -0.10520
gfz2012xjyv  -0.59120
gfz2012xmxy   0.07950
gfz2012xpmm  -0.37470
gfz2012xslk  -2.29910
gfz2012xssa   0.79770
gfz2012xvwn   0.17800
gfz2012xwqa  -4.03990
gfz2012xyqp   1.69340
gfz2012xyua  -0.37050
gfz2012yldu   0.16530
gfz2012yoie  -0.40600
gfz2012yqjj  -0.06760
gfz2012yxxu   0.43370
gfz2012yzod   0.09330
gfz2012zemz   0.06700
gfz2012zfag  -1.63340
gfz2012zhmb   0.08790
gfz2012ziml  -0.03980
gfz2012zjpv   3.40630
gfz2012zjre  -0.05000
gfz2012zsqk  -0.12970
gfz2013aahq   1.66440
gfz2013aayj   0.21250
gfz2013acag   0.23880
gfz2013aeee  -0.04730
gfz2013akgj   0.12120
gfz2013aknp  -0.43440
gfz2013apmm  -1.38440
gfz2013ftso   0.97370
gfz2013fwxa   0.18650
gfz2013fxge  -0.48970
gfz2013fygc  -0.19710
gfz2013gaie  -0.05330
gfz2013gbst   0.00980
gfz2013gdnq  -0.06610
gfz2013geia   0.33590
gfz2013geno  -0.45380
gfz2013ggtf   0.05450
gfz2013gihf  -0.31050
gfz2013gjdc  -0.16150
gfz2013glcr   0.24500
gfz2013gmor  -0.00000
gfz2013gngz   0.25300
gfz2013gnse   0.06260
gfz2013gock   0.44340
gfz2013goux   0.84000
gfz2013govy  -0.09580
gfz2013gras   0.06130
gfz2013gvdb  -0.31470
gfz2013gvet  -1.20380
gfz2013gvex  -3.02590
gfz2013gxsu   1.02260
gfz2013hbkh  -0.17340
gfz2013hbkq   2.09670
gfz2013hisv  -0.49610
gfz2013hkja   0.07350
gfz2013hlbe   0.02490
gfz2013hmbc   1.18220
gfz2013hpfq   0.50100
gfz2013hudi  -0.15790
gfz2013huwr   0.36090
gfz2013hxcx  -0.33290
gfz2013hydf  -0.05130
gfz2013iapa  -1.54310
gfz2013iayx   0.32400
gfz2013icfh  -0.10620
gfz2013idbb   1.51900
gfz2013iexo   0.78920
gfz2013ifpq   1.75290
gfz2013igmx  -0.36130
gfz2013ihcj  -0.11920
gfz2013inux   1.93120
gfz2013iodt   0.37480
gfz2013iopd   1.12110
gfz2013ippu  -0.22050
gfz2013iqzq  -2.12380
gfz2013itsu   0.41550
gfz2013iunn  -0.76170
gfz2013iynu   0.74480
gfz2013iyqz  -1.19630
gfz2013jarl  -0.38540
gfz2013jdrx   0.48020
gfz2013jesk   1.25880
gfz2013jfah   0.20400
gfz2013jgij   1.08040
gfz2013jgip   2.04990
gfz2013jjsi  -3.23410
gfz2013jkut  -0.96690
gfz2013jlst   0.15060
gfz2013jmcc  -0.40500
gfz2013jphq   0.06240
gfz2013json   0.66610
gfz2013jusj   0.41890
gfz2013jwcn   0.38800
gfz2013jxoi  -0.19630
gfz2013kccc   0.71210
gfz2013kdeo  -2.12710
gfz2013kgmj  -0.19660
gfz2013kheb   0.92250
gfz2013khli  -0.11330
gfz2013kilx  -0.43820
gfz2013kkzr  -0.00000
gfz2013krei   1.79200
gfz2013kvtk   0.66690
gfz2013kwag   0.76660
gfz2013kweg   2.16270
gfz2013kwps  -0.58320
gfz2013lajg  -0.46220
gfz2013lajn  -1.05600
gfz2013lbiu   1.97580
gfz2013ldpc   2.46710
gfz2013ldqb   2.77440
gfz2013lfyb   0.44080
gfz2013lgbb   0.42130
gfz2013lgnl   0.29250
gfz2013lgxc  -0.08040
gfz2013lixa   0.56660
gfz2013lljw   0.41450
gfz2013lmdy   0.11100
gfz2013lmrs  -0.32170
gfz2013lsob   0.55330
gfz2013lupg  -0.29410
gfz2013lwao   0.23230
gfz2013lwbk   0.93890
gfz2013lyko   1.01700
gfz2013lznu   0.40350
gfz2013malg   0.03530
gfz2013mded   0.22570
gfz2013mghe  -1.27950
gfz2013mmlw   0.44510
gfz2013mnei   0.87330
gfz2013mqmv  -3.08780
gfz2013mtqd   0.13020
gfz2013mvgr  -1.70700
gfz2013mxee  -0.32820
gfz2013mzwe  -0.39610
gfz2013nabl   0.36300
gfz2013ncjp   1.42210
gfz2013ndin  -1.82350
gfz2013nedo  -0.71110
gfz2013neuc  -0.11910
gfz2013nfwx   0.10620
gfz2013nhjb  -0.84170
gfz2013nixj   0.02210
gfz2013njnd  -0.17190
gfz2013nkgj  -0.05780
gfz2013nlxz  -0.86030
gfz2013nmac   2.97850
gfz2013nnzf   0.41450
gfz2013nojf   2.55150
gfz2013npcg   0.11690
gfz2013nppd  -0.82900
gfz2013nqgw   0.78050
gfz2013nskg   0.27000
gfz2013nttq  -0.00000
gfz2013nuor  -0.60850
gfz2013nvdj  -5.61330
gfz2013nwdi   0.66450
gfz2013oejn   0.90050
gfz2013ofls  -0.12150
gfz2013oifr   0.14370
gfz2013oilg   0.07470
gfz2013oinc   0.26760
gfz2013ojti  -0.02100
gfz2013oksi  -0.06590
gfz2013onjy   1.10910
gfz2013oqsc   0.67160
gfz2013orjg   0.57400
gfz2013ornz   0.15990
gfz2013ouvt   2.76350
gfz2013ozku   1.29180
gfz2013oznn   3.38990
gfz2013ozqm  -0.37720
gfz2013ozrf   0.29750
gfz2013ozrp   0.92910
gfz2013pakq  -0.02270
gfz2013pcos   0.13480
gfz2013pfbx   1.78110
gfz2013pfeb   0.98340
gfz2013pffm   0.12090
gfz2013pfnf  -0.34600
gfz2013phmp  -0.01230
gfz2013pigb   0.77710
gfz2013piwd   0.34000
gfz2013piye  -0.08240
gfz2013pkbs  -0.23930
gfz2013plhp  -0.26180
gfz2013pndn  -0.68700
gfz2013poxj   0.05560
gfz2013ppqq   0.07170
gfz2013pqui  -0.98750
gfz2013pupd   0.05080
gfz2013pxsj   3.99970
gfz2013pxtx   1.10740
gfz2013pxya   0.15620
gfz2013qali  -2.63330
gfz2013qbca  -0.00000
gfz2013qcck   1.00570
gfz2013qesa   0.84350
gfz2013qfmm   0.01790
gfz2013qfsq   0.19590
gfz2013qidm   0.26670
gfz2013qjmk   0.78540
gfz2013qmer   2.05380
gfz2013qnxc   3.76460
gfz2013qvcr   0.13440
gfz2013qzdq  -0.24260
gfz2013rait   0.43610
gfz2013rdoo  -2.07270
gfz2013reav  -2.09420
gfz2013rjsx  -0.24350
gfz2013rklb  -0.02060
gfz2013roki   0.36620
gfz2013rqcy  -0.48910
gfz2013rqmp   0.09220
gfz2013rsnr   2.01790
gfz2013rvsm  -0.88370
gfz2013rwfe  -0.92820
gfz2013ryxm   0.04350
gfz2013sart  -1.09770
gfz2013scai  -1.48390
gfz2013scub  -0.07900
gfz2013sdus   1.60410
gfz2013sebq  -0.91870
gfz2013sfds  -0.67460
gfz2013sfto   0.73640
gfz2013shlq  -0.48070
gfz2013shzy  -0.09830
gfz2013skkm   2.01630
gfz2013sllq  -0.12900
gfz2013snbr   1.22250
gfz2013snyf   1.39510
gfz2013sqkb  -0.64010
gfz2013stcu   0.67340
gfz2013suln  -0.46480
gfz2013suvn   0.39570
gfz2013svci   1.06400
gfz2013svqv   0.04770
gfz2013sxbw  -0.31080
gfz2013syqk   0.02980
gfz2013tbzy  -0.11950
gfz2013tcxc   1.92690
gfz2013tcxq   2.51790
gfz2013tdkk   0.08870
gfz2013tect   2.63430
gfz2013thtc  -0.19290
gfz2013tjlx  -0.51300
gfz2013toea   0.41120
gfz2013toxf   0.41850
gfz2013tqbb  -1.03160
gfz2013ttoz  -0.41440
gfz2013tusd   2.05850
gfz2013tuzv  -0.09020
gfz2013tvmw   2.51880
gfz2013uauo   1.42210
gfz2013ufxk   0.42910
gfz2013ugax  -0.15420
gfz2013uhlm   0.89040
gfz2013umya  -0.43890
gfz2013upcc  -0.01240
gfz2013upee  -0.32650
gfz2013upiv  -0.27240
gfz2013uqvu  -0.03960
gfz2013utsh   0.31920
gfz2013uxej  -0.25330
gfz2013uysr   0.01600
gfz2013vcoa   0.31690
gfz2013vefs   5.01560
gfz2013vfzp   3.08780
gfz2013vgau   2.69770
gfz2013vgev  -1.41870
gfz2013vgrk  -0.27520
gfz2013vhsb   0.30390
gfz2013vhzu   0.13990
gfz2013vijl   1.11970
gfz2013viul   0.30470
gfz2013vjfe   0.78640
gfz2013vjjc   1.34660
gfz2013vlth   0.65640
gfz2013vmro  -2.35870
gfz2013vnfj  -0.40450
gfz2013vpnf  -0.27580
gfz2013vrmy   0.85190
gfz2013vsbl   0.48110
gfz2013vsxi   0.69140
gfz2013vuja   0.84600
gfz2013vvrq   2.07100
gfz2013vxta  -0.47160
gfz2013vzbo   2.07360
gfz2013walq  -0.03030
gfz2013wbyr  -0.16310
gfz2013wgeu   0.01750
gfz2013wjmm   0.89280
gfz2013wnql  -0.01980
gfz2013woze  -0.08500
gfz2013wpga  -0.65670
gfz2013wqhq   0.73640
gfz2013wrgw   0.25660
gfz2013wtzl   0.35550
gfz2013wuml   0.08260
gfz2013wuon  -0.54480
gfz2013xatc  -0.69770
gfz2013xcmp   0.02360
gfz2013xgek   0.82080
gfz2013xgmp  -0.16540
gfz2013xizq   1.58910
gfz2013xkbh   1.38180
gfz2013xklb   0.93710
gfz2013xkwt   0.54140
gfz2013xmqg   0.65430
gfz2013xmul  -0.33610
gfz2013xpfa  -0.45750
gfz2013xpsm   0.09090
gfz2013xqnn   0.06760
gfz2013xsdt   1.11050
gfz2013xtwj  -0.18060
gfz2013xvqd   1.11480
gfz2013xvyl  -2.20670
gfz2013xwxn  -0.59480
gfz2013xxcc   0.37370
gfz2013xxwv   0.86190
gfz2013xyzb   0.68610
gfz2013yaig   0.05810
gfz2013yewz   0.08370
gfz2013yhbu  -0.98570
gfz2013yhpk   0.31010
gfz2013yixl   0.24630
gfz2013ylbx   0.56560
gfz2013ymky   1.28710
gfz2013ymxs  -0.49420
gfz2013ynmw  -0.05100
gfz2013ypdc   1.08850
gfz2013yrmc   0.25430
gfz2013yulx   0.12040
gfz2013yzte   0.38610
gfz2013zaxb   0.21920
gfz2013zmoc  -1.30680
gfz2013zmtb   1.09200
gfz2014adjs   0.12890
gfz2014algk   0.76380
gfz2014alwz  -0.16700
gfz2014amsb  -0.62490
gfz2014ande   1.97210
gfz2014ared   1.35180
gfz2014arnc   0.10270
gfz2014arpf  -0.01890
gfz2014arqr  -4.28390
gfz2014arsr   0.23870
gfz2014atgw  -1.13150
gfz2014azqs   0.03750
gfz2014bagd  -3.81440
gfz2014bbro  -2.20450
gfz2014bcae  -0.40840
gfz2014bdfd   0.59510
gfz2014bezu  -0.02320
gfz2014bfng  -0.28020
gfz2014bfqo  -0.44950
gfz2014bhhv   0.16620
gfz2014bhvd  -0.73990
gfz2014bjgt  -0.89270
gfz2014bjsy  -1.25860
gfz2014bldx   0.06220
gfz2014bmdh   0.10650
gfz2014bmfv   0.06720
gfz2014bmta   1.09280
gfz2014bolf  -1.07080
gfz2014bwue   0.44060
gfz2014bzna  -0.19470
gfz2014bztt   0.16670
gfz2014bzxy   0.92750
gfz2014caop   0.63480
gfz2014capn   0.37870
gfz2014ccbz  -0.85220
gfz2014cgog   0.78680
gfz2014chdv  -0.73070
gfz2014citw   0.05720
gfz2014claq   2.30090
gfz2014clnj  -0.49560
gfz2014clnq  -0.68210
gfz2014cmwb   3.06110
gfz2014cqyo   1.59300
gfz2014crpy  -0.05370
gfz2014ctot   0.16630
gfz2014cueu   1.45500
gfz2014cvkm   1.79770
gfz2014cvxx   1.28100
gfz2014cybg   0.05390
gfz2014czno  -0.17060
gfz2014czqi   1.46410
gfz2014czua   2.60240
gfz2014dbdf   0.22360
gfz2014dbyx  -0.02860
gfz2014dcdy   0.27190
gfz2014dddc   0.71860
gfz2014dffd   1.01460
gfz2014dgiy  -0.72080
gfz2014disp  -0.22830
gfz2014dlri  -0.04970
gfz2014dofa   0.09920
gfz2014dpzx  -1.05310
gfz2014duqn  -0.56830
gfz2014eage  -0.15510
gfz2014ebmc  -4.58820
gfz2014edfx   1.49770
gfz2014efkk  -1.07330
gfz2014eght   1.12320
gfz2014egwu   0.60870
gfz2014ehfp   0.07230
gfz2014ejvf  -0.00000
gfz2014ekdt   1.05430
gfz2014emrg  -0.04930
gfz2014emzb   0.87720
gfz2014eqpl  -0.13430
gfz2014erbj   0.02740
gfz2014ettc  -2.08160
gfz2014ewcz  -0.08970
gfz2014ewrw  -0.58270
gfz2014exxa  -0.44320
gfz2014fcms   3.19380
gfz2014fcsy   0.34530
gfz2014fedd   1.70210
gfz2014fexu   0.08380
gfz2014ffdc  -0.12510
gfz2014fgvi   2.64060
gfz2014fgvr   1.41460
gfz2014fgvz  -1.73330
gfz2014fgwt  -1.00170
gfz2014fgxt   0.04480
gfz2014fgxz   0.06790
gfz2014fgyo  -0.16900
gfz2014fgza  -0.17860
gfz2014fhbd  -0.11240
gfz2014fhdw   1.42730
gfz2014fhgb   0.23890
gfz2014fhhp  -0.55530
gfz2014fhjd   0.80000
gfz2014fhla  -0.01910
gfz2014fhlh  -0.01070
gfz2014fhqk  -0.05930
gfz2014fhrq   0.40230
gfz2014fhsg  -0.15670
gfz2014fhxm  -0.33670
gfz2014fhyb   0.04780
gfz2014fimn  -0.18840
gfz2014fiuj  -2.21750
gfz2014fiwq   0.19210
gfz2014fjpb   0.02090
gfz2014fjxd  -0.21530
gfz2014fjyo   0.11780
gfz2014fjzd   0.07500
gfz2014fjzw  -0.63900
gfz2014fkmr   0.09950
gfz2014fkmx   0.34820
gfz2014fknp   0.12060
gfz2014fles  -0.71670
gfz2014flfa  -0.04600
gfz2014fnbh   0.01850
gfz2014fnyg   0.00000
gfz2014fqpz   0.80670
gfz2014frdz   0.25630
gfz2014frel  -0.37020
gfz2014frfl   0.53980
gfz2014frgm   0.02060
gfz2014frjr  -0.25320
gfz2014frnb   0.08140
gfz2014frwh   0.61140
gfz2014fstx   0.14490
gfz2014fsuh   0.11130
gfz2014fszc  -0.25480
gfz2014ftgx   0.19270
gfz2014ftka   0.35420
gfz2014ftno  -0.11900
gfz2014ftoc   0.73440
gfz2014ftpw   0.08080
gfz2014ftvc   0.25040
gfz2014furx   1.07500
gfz2014fusc   1.09000
gfz2014fusj   1.00780
gfz2014fusu   0.46610
gfz2014fuup  -0.46210
gfz2014fuvk   0.05040
gfz2014fuzi   0.04850
gfz2014fvdx   0.32210
gfz2014fvgh   1.05000
gfz2014fvhp   0.09550
gfz2014fvpy   0.44340
gfz2014fvrg   1.74220
gfz2014fvve   1.00800
gfz2014fwdr   0.09710
gfz2014fwtt   1.49050
gfz2014fwyr  -0.80470
gfz2014fxpu  -0.46810
gfz2014fyfr   0.06620
gfz2014fzgx  -0.19000
gfz2014gbcz  -0.67130
gfz2014gbdq   1.03120
gfz2014gbjf  -0.06660
gfz2014gcza  -0.01880
gfz2014gdsq  -0.21890
gfz2014geuy   0.61670
gfz2014gezs   0.39500
gfz2014gfdj  -0.50340
gfz2014ggsr   0.89490
gfz2014ghpe  -1.41650
gfz2014gilf   0.00000
gfz2014gkgf   2.07060
gfz2014gkgl   0.00000
gfz2014gkhp  -1.62560
gfz2014gkjl   0.16750
gfz2014gkjt   1.53920
gfz2014gkjw   0.00000
gfz2014gkjy  -0.00000
gfz2014gkln  -0.00810
gfz2014gklq   0.02230
gfz2014gklv   0.15080
gfz2014gkmm   0.75790
gfz2014gkob   0.50210
gfz2014gkpd   0.01880
gfz2014gkpj   0.21410
gfz2014gkqf   2.85530
gfz2014gkqu   1.91870
gfz2014gksj   1.83650
gfz2014gksu   0.52170
gfz2014gktn  -0.05080
gfz2014gktq   2.63290
gfz2014gkut  -0.01880
gfz2014gkvk  -0.04870
gfz2014gkxm   0.18880
gfz2014glcu   1.88010
gfz2014glcy   0.82060
gfz2014glfn  -2.53770
gfz2014glgo  -0.06230
gfz2014glhs   0.31260
gfz2014glov   0.00000
gfz2014glsh  -0.03820
gfz2014gltx   1.17700
gfz2014glvn   0.68880
gfz2014glvu  -0.03850
gfz2014glxd   0.05080
gfz2014glxy   0.15560
gfz2014gmci   1.20180
gfz2014gmes   0.01790
gfz2014gmge   3.63370
gfz2014gmhp   0.34860
gfz2014gmhr   3.17220
gfz2014gmic  -0.21830
gfz2014gmjo   0.80150
gfz2014gmku   0.03970
gfz2014gmlz  -0.00000
gfz2014gmmt   0.11520
gfz2014gmnb   0.78230
gfz2014gmnw   2.01700
gfz2014gmor  -0.88490
gfz2014gmtb   0.13940
gfz2014gmtj  -0.12490
gfz2014gmto   0.02510
gfz2014gmvr   0.14180
gfz2014gmzl   0.99280
gfz2014gmzs   0.00000
gfz2014gndq  -0.12600
gfz2014gnfd  -0.10200
gfz2014gnfs  -0.04630
gfz2014gngg   0.68140
gfz2014gnhk   0.19490
gfz2014gnig   0.01850
gfz2014gnmp   0.13120
gfz2014gnmx   0.14020
gfz2014gnno  -0.10400
gfz2014gnnt   0.67340
gfz2014gnom   0.05740
gfz2014gnoz  -0.15490
gfz2014gnqt   0.13340
gfz2014gnsi   0.03690
gfz2014gnvw  -0.01670
gfz2014gnwg  -0.27780
gfz2014gnxb   0.02280
gfz2014goba   2.53350
gfz2014goei  -0.06700
gfz2014gogv  -0.34050
gfz2014gohm   0.21280
gfz2014golz   0.13470
gfz2014gono   0.03290
gfz2014goqw   0.50900
gfz2014goyx  -5.86700
gfz2014gpac   0.03890
gfz2014gpam  -0.00960
gfz2014gpbx   0.51250
gfz2014gpce   0.67890
gfz2014gpdo  -0.01270
gfz2014gpgd   0.06320
gfz2014gphr   0.17210
gfz2014gpmm   0.01460
gfz2014gpnf  -0.72950
gfz2014gpqq   0.48310
gfz2014gpuk   0.52220
gfz2014gpvk  -0.22390
gfz2014gpxl  -0.14780
gfz2014gqbj   0.51950
gfz2014gqco  -0.44840
gfz2014gqed   0.00000
gfz2014gqer  -1.05430
gfz2014gqgf   0.06950
gfz2014gqiy  -0.03370
gfz2014gqjr   0.15300
gfz2014gqqz  -0.56400
gfz2014gqro  -0.39960
gfz2014gqve   0.12660
gfz2014grcv   0.31220
gfz2014grfp   0.57900
gfz2014grgn  -0.33570
gfz2014grho  -0.53470
gfz2014gsgv   0.25620
gfz2014gsjg  -0.03180
gfz2014gsqs  -0.22860
gfz2014gtef  -1.64980
gfz2014gtlu   0.23690
gfz2014gtrb   0.03220
gfz2014gtwz   0.08810
gfz2014gufl   0.19720
gfz2014gull   0.60880
gfz2014gulp   1.02230
gfz2014gumd  -0.20030
gfz2014gutm  -0.89200
gfz2014gvhw   0.09880
gfz2014gvqj   1.38970
gfz2014gvrd   0.22130
gfz2014gwab   0.10800
gfz2014gwqj   0.62510
gfz2014gxag   0.56990
gfz2014gxkh  -0.07080
gfz2014gxqu  -0.04550
gfz2014gxqx   0.04990
gfz2014gxvf   0.81580
gfz2014gxxh  -0.23770
gfz2014gxxo   0.47440
gfz2014gyxd  -0.48540
gfz2014gzrm  -1.53430
gfz2014gzue   0.00560
gfz2014haey  -0.52890
gfz2014hagb   0.08630
gfz2014haos  -0.65210
gfz2014hasj   0.38300
gfz2014hauo   3.30570
gfz2014hbjm  -0.19020
gfz2014hbjz  -0.06260
gfz2014hcmj   0.77470
gfz2014hcns   0.09950
gfz2014hetr  -1.18330
gfz2014heum   0.14740
gfz2014heyq   0.48340
gfz2014hfad  -0.16560
gfz2014hfhl   0.37910
gfz2014hfzf  -0.33930
gfz2014hgqo   0.64980
gfz2014hhfs  -0.54640
gfz2014hhwx   0.09390
gfz2014hifp   0.51720
gfz2014hiih   0.73900
gfz2014hiiz  -0.18400
gfz2014hjgh   1.05610
gfz2014hjgo  -0.01980
gfz2014hjgr   0.99820
gfz2014hjhu  -0.03230
gfz2014hjij   1.33250
gfz2014hjlx   0.48940
gfz2014hkcf   1.05080
gfz2014hkck   0.13000
gfz2014hlib   0.10470
gfz2014hmgf  -0.32880
gfz2014hmrs   0.88530
gfz2014hmzg   0.43670
gfz2014hnfm  -0.36670
gfz2014hoap  -0.18360
gfz2014hocg   0.56900
gfz2014hphw   0.39090
gfz2014hpqz  -0.82980
gfz2014hqxs   1.14140
gfz2014hqyx  -0.25680
gfz2014hriu   0.00000
gfz2014hrtn   0.21020
gfz2014hsqo  -1.14360
gfz2014hssr  -0.81820
gfz2014huaj   2.06890
gfz2014hugz  -0.04240
gfz2014hvdm   0.09430
gfz2014hwan  -0.15810
gfz2014hwwi  -0.08100
gfz2014hyal   0.38530
gfz2014hymr  -0.00510
gfz2014hyvq   0.04050
gfz2014hzdy   1.00970
gfz2014hzfr  -0.10960
gfz2014hzfw   0.05590
gfz2014hzgn   0.00000
gfz2014hzht  -0.57420
gfz2014hzig  -0.26260
gfz2014hzze   0.50810
gfz2014iani  -0.16060
gfz2014ieam  -1.08200
gfz2014ieho  -0.95270
gfz2014ifue   0.37810
gfz2014ifzj   0.13970
gfz2014igsj   0.24060
gfz2014igur  -0.88740
gfz2014ijvh  -0.09290
gfz2014ikbk  -0.22090
gfz2014ikvd  -0.08500
gfz2014ilwu   2.04800
gfz2014imap   1.11420
gfz2014immt   0.13640
gfz2014imnn   0.21270
gfz2014inbj   0.96140
gfz2014iobd   1.46650
gfz2014iqzj  -0.48120
gfz2014irci   0.38780
gfz2014ircq   0.08300
gfz2014irrg  -0.55330
gfz2014isdq   0.15770
gfz2014isff  -0.05480
gfz2014issk  -0.01920
gfz2014isub   0.08160
gfz2014isys  -1.57440
gfz2014itab   0.10340
gfz2014itbe   0.33800
gfz2014itbu  -0.24410
gfz2014itfc  -0.16120
gfz2014itgh   0.39930
gfz2014itjx   1.27710
gfz2014itkw   1.87270
gfz2014itpj  -0.38640
gfz2014iuhq   0.65180
gfz2014iwnf  -0.16700
gfz2014iwwl   0.08430
gfz2014ixga   0.09080
gfz2014ixky   0.31710
gfz2014iywt   0.44330
gfz2014jagg  -0.13640
gfz2014jass   0.01670
gfz2014jatq  -1.00550
gfz2014jbyg   0.29000
gfz2014jcmt  -0.41140
gfz2014jdoy  -0.09070
gfz2014jesb   0.65470
gfz2014jfis   0.76080
gfz2014jggm   0.23900
gfz2014jhra   0.79620
gfz2014jird  -0.13570
gfz2014jjhc   1.54610
gfz2014jjkh   0.02740
gfz2014jjln   0.00000
gfz2014jjqk   0.89600
gfz2014jmnk   0.01730
gfz2014jnyv   0.31260
gfz2014jomw   0.04120
gfz2014jpep   2.18880
gfz2014jpez   0.03410
gfz2014jpgu  -0.12090
gfz2014jpxs  -0.59450
gfz2014jtfe  -1.11480
gfz2014jvow  -0.14220
gfz2014jwmh  -0.40040
gfz2014jysj  -5.27190
gfz2014kara  -4.89230
gfz2014kbuk  -1.12600
gfz2014kbwm  -0.58380
gfz2014khan   0.04210
gfz2014kitm   0.03210
gfz2014kizt  -0.01880
gfz2014kjee   0.53370
gfz2014kjzb  -0.39240
gfz2014kkhh  -0.00000
gfz2014kmmt   2.32730
gfz2014kndc   1.26800
gfz2014knxs   1.96220
gfz2014krlg  -0.21370
gfz2014kscf   0.30880
gfz2014ksmz   0.17370
gfz2014kssw  -0.23020
gfz2014kwie   0.05320
gfz2014kwrg   1.01660
gfz2014kwwg  -0.01790
gfz2014kxqf  -0.03200
gfz2014kyan   0.27470
gfz2014kytf   0.38990
gfz2014lbcq  -1.87170
gfz2014lbxn  -0.99320
gfz2014lchy   0.01810
gfz2014lddn   1.72660
gfz2014lefs   0.41170
gfz2014lehw   0.06580
gfz2014lgqn   0.17010
gfz2014lhqn   0.12340
gfz2014ljbr   0.10750
gfz2014lnmw   0.48380
gfz2014lnqy  -0.62300
gfz2014lpfc  -1.10260
gfz2014lpim  -1.65710
gfz2014lrzx  -0.01860
gfz2014lvgn  -0.45290
gfz2014lwom  -0.21420
gfz2014lwvb  -0.09950
gfz2014lxnc   0.60890
gfz2014lxqr  -1.02900
gfz2014lyhk   2.08850
gfz2014lyhp   0.32750
gfz2014lzal  -1.48260
gfz2014lzow   0.15770
gfz2014macx   0.78330
gfz2014madw   0.73680
gfz2014mawp   0.05340
gfz2014mcno  -0.21680
gfz2014mcse   0.50620
gfz2014mlqw  -0.01960
gfz2014mlrr  -0.10530
gfz2014mmtb   0.42190
gfz2014moaw  -0.89070
gfz2014mogb   0.10380
gfz2014mrbm  -0.94660
gfz2014mtum   1.53240
gfz2014mvza  -0.00000
gfz2014mwnj  -0.43850
gfz2014mwor   0.78070
gfz2014mxkr  -0.15250
gfz2014myqz  -1.13090
gfz2014nafd  -0.12170
gfz2014navw  -0.33710
gfz2014ncub  -0.03700
gfz2014ndue  -0.19420
gfz2014ngsk   0.23570
gfz2014ngvt  -0.29990
gfz2014nhyb   0.12840
gfz2014niqj   0.19220
gfz2014nkdx  -1.90370
gfz2014nnih  -0.57540
gfz2014nnxd  -0.08690
gfz2014nowp   2.53620
gfz2014npdk   0.68950
gfz2014npeo  -1.90310
gfz2014nphm   0.01040
gfz2014nqbs  -1.08580
gfz2014nqfm   2.45650
gfz2014nrie  -0.65320
gfz2014ntdh  -0.11670
gfz2014nvdi  -0.57800
gfz2014nyeh  -0.10080
gfz2014nyko   0.13640
gfz2014nylm   0.39210
gfz2014obbs   0.10010
gfz2014odgv  -0.15030
gfz2014ofhm   1.28490
gfz2014oims  -0.00000
gfz2014oinz   0.28480
gfz2014ojdg  -0.12640
gfz2014okec  -0.48610
gfz2014okxu  -0.42910
gfz2014omyn  -2.51880
gfz2014ooaa   0.88260
gfz2014opqr  -0.15180
gfz2014oqhw  -0.25460
gfz2014orgz   0.21500
gfz2014orxs  -0.39530
gfz2014oryw   1.49730
gfz2014osvx  -0.44870
gfz2014osvz   1.42410
gfz2014owii   0.24770
gfz2014owur   0.13040
gfz2014owxc   1.45270
gfz2014oyly   0.56830
gfz2014pghi   0.05410
gfz2014pjer  -0.38360
gfz2014pjum   0.39590
gfz2014ppyi   1.50050
gfz2014ppzf   0.35690
gfz2014pqqp  -1.90270
gfz2014pvch   3.03030
gfz2014pxbu   0.00000
gfz2014pzml   0.18260
gfz2014pzni   0.45820
gfz2014qbzi  -0.45370
gfz2014qcxs  -2.22460
gfz2014qfzq  -0.23300
gfz2014qjfl   0.91090
gfz2014qjgp   0.29020
gfz2014qlvc  -0.10100
gfz2014qlxd   2.10730
gfz2014qngj   0.53920
gfz2014qqfg  -0.38410
gfz2014qqhm  -0.54700
gfz2014qsby  -0.01070
gfz2014qtwv  -0.15340
gfz2014raau   3.66770
gfz2014rbpx   0.60660
gfz2014rbsl  -0.11510
gfz2014rdoz   0.65190
gfz2014rfeb  -0.03740
gfz2014rffv  -0.23910
gfz2014rhju  -1.43720
gfz2014rhnz  -0.82400
gfz2014rhwq  -0.81040
gfz2014riel   1.17090
gfz2014rils  -2.67690
gfz2014rnrn  -0.19620
gfz2014roba  -0.14840
gfz2014romy  -0.43360
gfz2014royq   1.34420
gfz2014rucz  -0.03820
gfz2014ryfb   0.88870
gfz2014shid  -0.04160
gfz2014sjqw  -0.07700
gfz2014snfs  -0.01920
gfz2014sryn  -0.27320
gfz2014ssds  -0.11820
gfz2014ssmv   1.77480
gfz2014ssvz  -0.05470
gfz2014swgt  -0.07480
gfz2014tabg  -0.39590
gfz2014tfgn   0.34420
gfz2014tgcw   0.05090
gfz2014thrw  -0.07790
gfz2014tovs  -1.43980
gfz2014tqdo   1.88690
gfz2014tqly  -0.60370
gfz2014tqsf   0.23600
gfz2014tqth   0.32050
gfz2014tzsd   0.05720
gfz2014uapa  -0.36510
gfz2014ubyq  -0.29720
gfz2014uohh  -0.59120
gfz2014uxyg   2.32790
gfz2014uyrq  -0.04190
gfz2014uzaw  -0.12470
gfz2014vcev   0.24110
gfz2014vdnh  -0.72530
gfz2014veit   0.02110
gfz2014vhld   1.80650
gfz2014vhms  -0.13160
gfz2014vhuy   0.16270
gfz2014vnxu  -0.80090
gfz2014vpus   1.81270
gfz2014vqqa   0.14040
gfz2014waoo  -3.52930
gfz2014watn   2.45170
gfz2014wqcp   0.44330
gfz2014wrkh  -1.15520
gfz2014wsjh   0.10570
gfz2014wwib   0.71770
gfz2014xaxx   0.06050
gfz2014xhkc  -0.71710
gfz2014xhwk  -1.13180
gfz2014xjri   0.73610
gfz2014xkdg   0.13980
gfz2014xmnp  -0.04590
gfz2014xoji   0.11830
gfz2014xqby   0.27430
gfz2014xqqd   0.50770
gfz2014yazi  -0.10080
gfz2014yhhm   0.44360
gfz2014ynhc  -0.21150
gfz2014ynzy   0.48180
gfz2014yppv  -0.02080
gfz2014yrug   1.01170
gfz2014yyiy  -0.09630
gfz2014zcgo  -0.00000
gfz2014zdtl   0.05560
gfz2014zkys   0.49040
gfz2014zlgp  -1.07020
gfz2014zplq  -0.09740
gfz2015aide  -0.36950
gfz2015ansu  -0.33020
gfz2015apnk   0.30290
gfz2015aqbq   1.96440
gfz2015arpd  -0.42610
gfz2015aruz   6.18090
gfz2015aush   0.00000
gfz2015bavu  -1.99760
gfz2015bdyd  -0.27690
gfz2015berb   0.89250
gfz2015bfjm   1.48170
gfz2015bfzt  -0.49060
