# Nsamples: 183  MAD:  1.182  mean: -1.165  variance:  2.945
gfz2012mkpn  -3.23610
gfz2012naqz   1.08930
gfz2012nedn  -3.51020
gfz2012oedb  -0.26500
gfz2012pazr   0.59220
gfz2012pkel  -3.04650
gfz2012qtgs  -3.54490
gfz2012quso  -1.11790
gfz2012rats  -0.37980
gfz2012rboy  -0.31570
gfz2012rknn  -4.53080
gfz2012royy  -0.66270
gfz2012rwql   6.75950
gfz2012sphd  -2.33320
gfz2012ttoa  -1.40170
gfz2012wmsg  -0.16550
gfz2012wrir  -2.38860
gfz2012wvfl  -4.66400
gfz2012wxnu  -0.52660
gfz2012wypz  -1.79860
gfz2012xbjq  -0.48080
gfz2012xeul  -0.01950
gfz2012xyua  -2.92750
gfz2012yfrp  -1.72630
gfz2012yoie  -0.35210
gfz2012zfag  -0.49240
gfz2012ziml   0.69960
gfz2012zitl   0.76100
gfz2012zjpv   5.01010
gfz2013apmm   0.14360
gfz2013bnxc  -1.72850
gfz2013bouj   0.82370
gfz2013drxz  -3.45520
gfz2013fnzr   0.79570
gfz2013fwxa   0.47020
gfz2013fygc  -0.18150
gfz2013gbst  -1.06040
gfz2013gihf  -0.85180
gfz2013gock  -0.62730
gfz2013gvex  -0.75830
gfz2013hbkh   0.70770
gfz2013hkja  -2.86440
gfz2013hlbe  -0.92350
gfz2013huwr  -1.28880
gfz2013hzdp   0.13740
gfz2013iapa  -0.60350
gfz2013iayx   0.52810
gfz2013idbb  -2.08160
gfz2013iexo   0.30300
gfz2013ifpq  -1.24340
gfz2013ikgo  -3.92600
gfz2013inux   0.44440
gfz2013iqzq   1.46130
gfz2013iunn   0.38070
gfz2013jgip  -0.23780
gfz2013jkut  -0.90500
gfz2013jusj  -0.20030
gfz2013kdeo  -0.99170
gfz2013kheb  -3.30100
gfz2013kwps   1.45630
gfz2013ldqb  -2.20080
gfz2013lixa  -1.05330
gfz2013mqik  -1.38030
gfz2013mqmv  -1.28230
gfz2014duqn  -0.83260
gfz2014eght  -0.58380
gfz2014ejvf  -0.15620
gfz2014ekcr  -1.56370
gfz2014eqpl  -0.40310
gfz2014fnyg   0.24270
gfz2014ftka  -2.49690
gfz2014gbcz  -4.56450
gfz2014gltx   0.94070
gfz2014gmge  -1.86080
gfz2014gmhr  -0.64100
gfz2014gmic  -0.78730
gfz2014gmip  -1.64870
gfz2014gmjo   0.32900
gfz2014gmku  -0.25380
gfz2014gmlz  -0.69390
gfz2014gmnb  -0.56000
gfz2014gmnw  -1.43330
gfz2014gmuw  -0.36440
gfz2014gnxb  -0.55460
gfz2014goba  -2.73110
gfz2014gogv   0.51410
gfz2014gpya  -2.62320
gfz2014gqbj  -0.89760
gfz2014gqer   0.19120
gfz2014gqjr  -0.66760
gfz2014gqve  -0.82540
gfz2014gsqs  -0.93140
gfz2014gull  -1.51250
gfz2014gumd   0.42410
gfz2014gvrd  -0.11920
gfz2014gwab  -3.11590
gfz2014kmmt  -0.93960
gfz2014kndc  -0.88630
gfz2014knks  -1.00150
gfz2015ansu  -1.45770
gfz2015arpd  -0.76020
gfz2015aruz  -0.90660
gfz2015bavu  -0.38130
gfz2015bdyd  -1.20730
gfz2015berb  -2.11910
gfz2015bfzt  -0.44490
gfz2015bkbj   0.73030
gfz2015bphe  -1.40690
gfz2015bsnl  -1.36490
gfz2015bucr  -0.65090
gfz2015bvsj  -0.11420
gfz2015byfn  -2.43370
gfz2015byjd   0.53690
gfz2015cewd   0.42840
gfz2015cxxk  -2.88590
gfz2015cyjd  -4.26710
gfz2015dskr   0.66380
gfz2015dtqr  -0.74500
gfz2015dvbn  -2.61820
gfz2015ecgq   0.09370
gfz2015eiky  -0.91950
gfz2015elgy  -0.62090
gfz2015emin  -0.68900
gfz2015enth  -0.24530
gfz2015fbbk  -2.94920
gfz2015fbew   0.36530
gfz2015fdpr  -0.39650
gfz2015fkgt  -3.73160
gfz2015fkuu   0.20490
gfz2015flis  -3.23170
gfz2015fsjj  -3.46280
gfz2015gckd  -2.44980
gfz2015gkwa   3.57070
gfz2015guhd  -1.95140
gfz2015gzja   0.57580
gfz2015hepg  -2.26200
gfz2015hgbk  -1.48930
gfz2015hlfq  -1.01560
gfz2015hvgs  -0.14300
gfz2015idho  -0.16400
gfz2015igsy  -1.01920
gfz2015ijmh  -1.05340
gfz2015ixyy  -3.55990
gfz2015jpap  -0.31240
gfz2015kcaa  -1.20040
gfz2015kfsu  -1.06560
gfz2015kkqb  -1.60250
gfz2015lcma   1.00190
gfz2015lfud  -1.73670
gfz2015lhjq  -0.77630
gfz2015lhjy  -1.62520
gfz2015lytv  -7.84390
gfz2015lzad  -2.77950
gfz2015mddr  -1.48520
gfz2015mvzk  -0.43440
gfz2015nwug  -3.47040
gfz2015othd  -1.38110
gfz2015pjgr  -1.52610
gfz2015prlr  -1.62360
gfz2015puah  -1.12180
gfz2015puqp  -1.83610
gfz2015qnho  -3.96960
gfz2015rddx  -0.61640
gfz2015rgrg  -0.99450
gfz2015rkbq  -0.44730
gfz2015rkrg  -2.49970
gfz2015rkzg  -2.48670
gfz2015rxmg  -1.52760
gfz2015sfdd  -2.63330
gfz2015sfln  -2.12000
gfz2015sfqo  -1.24030
gfz2015sjgk  -2.39410
gfz2015smym  -3.51800
gfz2015snwh  -5.70780
gfz2015snyd   0.45000
gfz2015soat  -3.00680
gfz2015soxc  -6.89240
gfz2015sqmy  -0.04450
gfz2015ssoe  -0.85380
gfz2015stfy  -1.72000
gfz2015subz  -1.42430
gfz2015svwm  -4.29650
gfz2015taml  -3.00790
