# Nsamples: 915  MAD:  1.297  mean: -0.712  variance:  3.364
gfz2012mkpn  -1.11070
gfz2012mlyf  -0.72850
gfz2012mofm   0.65170
gfz2012mpvy  -0.17350
gfz2012mpyl   0.27670
gfz2012mtiu   0.01910
gfz2012nedn   2.17010
gfz2012nzpz   0.12400
gfz2012obgw   0.19420
gfz2012obnq  -0.10510
gfz2012oedb  -0.09300
gfz2012ofpe  -2.10270
gfz2012okhx  -0.02570
gfz2012omvo   0.86920
gfz2012ovqs  -0.17620
gfz2012oycg   0.29950
gfz2012pazr  -0.09130
gfz2012pciw   1.80710
gfz2012peex  -3.61010
gfz2012peki  -0.83470
gfz2012pkel  -0.27340
gfz2012plbw   0.18190
gfz2012pofl   0.01740
gfz2012poju   0.57430
gfz2012pqlt   1.00410
gfz2012pqmk   0.45660
gfz2012pqmu   0.00000
gfz2012priv  -1.73030
gfz2012prlt  -1.13890
gfz2012pygp  -0.23370
gfz2012qjhs   0.31420
gfz2012qouy  -0.28470
gfz2012qqqp  -0.92610
gfz2012qqxg   0.07170
gfz2012qurq   0.46600
gfz2012quso   0.71450
gfz2012qxcy  -0.24530
gfz2012rats  -0.72870
gfz2012rboy   0.15470
gfz2012rcbq   0.17290
gfz2012rcds  -0.40700
gfz2012rcnj  -0.07050
gfz2012repv  -0.62360
gfz2012rknn  -1.37090
gfz2012royy  -2.34850
gfz2012rqlg  -3.20380
gfz2012rtqi  -0.76970
gfz2012rubi   0.33580
gfz2012ruks  -1.96250
gfz2012rwko  -0.79760
gfz2012rwov   1.70710
gfz2012rypu   0.01890
gfz2012shtg   0.21570
gfz2012sjea  -0.13030
gfz2012snhi  -0.12640
gfz2012spbj  -0.23180
gfz2012ssyn  -0.81630
gfz2012tyig  -0.33440
gfz2012vnbk   0.11580
gfz2012wklq   1.03290
gfz2012wmkd  -0.05200
gfz2012wmsg  -3.04120
gfz2012wqnc   1.04430
gfz2012wrir  -1.45690
gfz2012wtkh  -2.57080
gfz2012wtkr  -0.42690
gfz2012wubh  -0.28780
gfz2012wvfl   0.75850
gfz2012wxer   0.20570
gfz2012wxkg   0.12230
gfz2012wxnt  -0.20090
gfz2012wxnu   0.04900
gfz2012wybs  -3.48850
gfz2012wypz  -0.39510
gfz2012xbjq  -1.06020
gfz2012xcgk   0.43720
gfz2012xhci  -0.58050
gfz2012xjyv   1.25360
gfz2012xkkv   4.76350
gfz2012xpmm   0.11100
gfz2012xslk   1.94310
gfz2012xwqa   0.48220
gfz2012xyqp  -4.58790
gfz2012xyua  -2.77620
gfz2012yldu   0.86940
gfz2012yqjj  -0.05640
gfz2012yxxu  -0.05450
gfz2012zhmb   0.42920
gfz2012ziml  -2.43020
gfz2012zitl  -0.55760
gfz2012zjpv   3.77000
gfz2013akgj  -0.09170
gfz2013aknp  -0.46340
gfz2013apmm  -1.80360
gfz2013biji   0.33130
gfz2013bobq  -0.49530
gfz2013bouj   1.91020
gfz2013btjm  -0.05390
gfz2013ccnr   1.90550
gfz2013cdan   0.05960
gfz2013cfyy  -0.08710
gfz2013ddbh   0.74420
gfz2013dddp  -2.22270
gfz2013dnnx  -2.61260
gfz2013dofo   1.23130
gfz2013dqls  -1.85780
gfz2013drpk  -2.90060
gfz2013drxz   0.68620
gfz2013dsog   0.67050
gfz2013dspt  -1.45640
gfz2013dyop  -0.34580
gfz2013fdoo   0.09290
gfz2013feep   1.23240
gfz2013ffko  -0.03710
gfz2013fiud  -0.00000
gfz2013fkii   2.14930
gfz2013fnzr  -0.03570
gfz2013fwxa  -0.91020
gfz2013fxge  -3.45920
gfz2013fygc  -2.20940
gfz2013gbcn   0.29560
gfz2013gcfx   0.73940
gfz2013gdgf   0.46020
gfz2013gdnq  -0.89880
gfz2013gelv  -0.05010
gfz2013geno   0.09690
gfz2013gihf  -1.56130
gfz2013gjdc  -3.21750
gfz2013glcr   2.16850
gfz2013gngz   0.81240
gfz2013gock  -1.25840
gfz2013goux  -0.92100
gfz2013govy  -1.36630
gfz2013gras   0.26580
gfz2013gvet  -1.16070
gfz2013gvex   0.03640
gfz2013gvxh   0.71000
gfz2013gwrd   0.42080
gfz2013hbkh   0.08350
gfz2013hfmp   1.55200
gfz2013hisv  -0.37100
gfz2013hkja  -0.56840
gfz2013hklr  -2.83960
gfz2013hlbe  -1.44920
gfz2013hudi   0.24120
gfz2013hxcx  -0.95020
gfz2013hzdp  -0.67250
gfz2013iapa  -1.55250
gfz2013iayx  -0.39200
gfz2013icfh  -0.41440
gfz2013iexo   0.20590
gfz2013ifpq  -4.86710
gfz2013ihcj  -3.70260
gfz2013ijsr   0.05650
gfz2013ikgo  -0.84530
gfz2013ilug  -0.32050
gfz2013inux  -2.08110
gfz2013iqzq   0.40010
gfz2013itsu  -0.18390
gfz2013iunn   0.96930
gfz2013iyqz  -1.82160
gfz2013jesk  -2.47550
gfz2013jgij  -3.36150
gfz2013jgip  -0.06380
gfz2013jkut  -1.68620
gfz2013jlst   0.11930
gfz2013jusj   2.06680
gfz2013kccc  -2.37720
gfz2013kdeo  -1.65490
gfz2013kgmj  -0.58490
gfz2013kheb  -0.89700
gfz2013khli   0.46610
gfz2013kilx  -0.96240
gfz2013kkzr   0.68290
gfz2013krei  -1.24770
gfz2013kvtk  -0.24960
gfz2013kwps  -1.98330
gfz2013lajn  -1.50870
gfz2013lbiu  -0.15630
gfz2013ldpc  -4.45510
gfz2013ldqb  -2.28870
gfz2013lgbb   0.60840
gfz2013lgxc  -0.13510
gfz2013lixa  -3.16140
gfz2013lmqe   1.41090
gfz2013lmrs  -1.40520
gfz2013lwao  -1.74850
gfz2013lwbk  -1.80780
gfz2013lxyn   2.11800
gfz2013lyko   0.06160
gfz2013lznu  -1.78660
gfz2013malg  -0.35720
gfz2013mded   0.54070
gfz2013mmlw  -4.44320
gfz2013mnei  -0.18530
gfz2013mnju   0.21420
gfz2013mqmv  -2.01030
gfz2013mtqd  -1.32140
gfz2013mvgr   0.07500
gfz2013mzwe  -0.12390
gfz2013nabl  -2.19890
gfz2013ncjp  -3.01380
gfz2013nedo   0.12190
gfz2013neuc   0.40420
gfz2013nfwx  -2.85060
gfz2013ngnt   0.70980
gfz2013nhjb  -0.04060
gfz2013nlxz   0.12590
gfz2013nmac  -0.36070
gfz2013npcg  -0.81940
gfz2013nppd   0.10920
gfz2013nqgw  -0.35070
gfz2013nuor  -0.26800
gfz2013nvdj  -0.56920
gfz2013nwdi  -3.33790
gfz2013ogde  -0.97390
gfz2013orjg  -0.77860
gfz2013ornz  -1.13390
gfz2013ozku  -3.57290
gfz2013oznn   0.14980
gfz2013ozqm   0.87480
gfz2013ozrf  -3.45140
gfz2013ozrp  -4.16140
gfz2013pcos  -2.25890
gfz2013pfbx  -5.07490
gfz2013pfeb   0.14100
gfz2013phef   0.34970
gfz2013pigb  -0.08290
gfz2013piye  -0.13730
gfz2013pkbs  -0.31340
gfz2013plhp  -0.59000
gfz2013pndn  -0.98290
gfz2013puag   0.03690
gfz2013pxsj   2.76170
gfz2013pxtx   0.56610
gfz2013qali   0.51260
gfz2013qbca   0.35380
gfz2013qcck  -1.86430
gfz2013qfmm  -1.34820
gfz2013qfsq  -3.40220
gfz2013qidm  -1.78460
gfz2013qmer  -3.64040
gfz2013qwbv  -0.27520
gfz2013qzdq  -1.50200
gfz2013rait  -0.20530
gfz2013rdoo  -1.12480
gfz2013reav  -0.92350
gfz2013rjsx  -0.27870
gfz2013rklb  -2.34170
gfz2013roki  -1.51220
gfz2013rqcy  -1.26690
gfz2013rqmp   0.57980
gfz2013rrza  -0.00000
gfz2013saez  -1.37450
gfz2013sart  -0.21640
gfz2013scai  -0.32960
gfz2013sdus  -1.09060
gfz2013sebq   0.04390
gfz2013sfds  -0.25910
gfz2013sfto  -1.56480
gfz2013shlq   0.00580
gfz2013shzy  -0.03820
gfz2013skkm  -2.17320
gfz2013snbr  -5.57620
gfz2013snyf  -0.37660
gfz2013sred   0.34740
gfz2013stht   1.22340
gfz2013svci  -1.27510
gfz2013svqv   0.85490
gfz2013sxbw   0.19770
gfz2013syqk  -0.26840
gfz2013tbzy  -0.15770
gfz2013tcxc  -1.20150
gfz2013tcxq  -0.62090
gfz2013thtc   0.03000
gfz2013tjlx  -0.43270
gfz2013toea  -1.30250
gfz2013toxf  -3.63850
gfz2013tqbb  -0.14510
gfz2013ttoz   0.48080
gfz2013tusd  -5.12050
gfz2013tvmw  -4.27100
gfz2013txev   0.29480
gfz2013txtb  -0.00880
gfz2013uauo  -3.77260
gfz2013ufku  -0.00520
gfz2013ugax  -3.13940
gfz2013uhlm  -2.52710
gfz2013upcc  -0.11210
gfz2013utsh  -1.18510
gfz2013uuzn   1.30450
gfz2013vdic  -0.06580
gfz2013vefs   0.51840
gfz2013vfyw   0.74680
gfz2013vfzp   0.88680
gfz2013vgau  -1.76860
gfz2013vgev  -0.20870
gfz2013vgpf   0.05080
gfz2013vgrk  -1.82140
gfz2013vhnk  -0.32870
gfz2013vhzu  -0.76430
gfz2013viul  -2.21010
gfz2013vjfe  -0.61940
gfz2013vjjc   2.84750
gfz2013vjod   0.19000
gfz2013vmro  -0.66300
gfz2013vnfj  -1.98150
gfz2013vpnf   0.44130
gfz2013vqot   0.29180
gfz2013vrmy  -4.50290
gfz2013vsbl   0.26630
gfz2013vsxi  -0.78320
gfz2013vthd   0.22310
gfz2013vvrq  -0.71030
gfz2013vxta  -0.26850
gfz2013vzbo  -3.48980
gfz2013waam  -0.16200
gfz2013wgeu  -1.57990
gfz2013wjmm   4.65880
gfz2013wmfd  -0.14030
gfz2013wnpr  -3.28460
gfz2013wpga  -1.18700
gfz2013wrgw  -0.40910
gfz2013wtzl  -1.85040
gfz2013wuon  -0.94470
gfz2013wwii   0.35510
gfz2013xatc   0.23420
gfz2013xkbh   0.73570
gfz2013xklb   0.28110
gfz2013xkwt  -1.35730
gfz2013xmqg  -0.32320
gfz2013xmul   1.31080
gfz2013xpfa  -1.46730
gfz2013xpsm  -1.07090
gfz2013xqnn  -1.83100
gfz2013xsdt  -1.60040
gfz2013xvqd   0.68930
gfz2013xvyl  -0.08750
gfz2013xwda   0.15310
gfz2013xwzd  -0.01290
gfz2013xxwv  -1.09520
gfz2013xxxq  -0.76630
gfz2013xyzb   0.64710
gfz2013xzcg  -0.94990
gfz2013yach   0.21510
gfz2013yaig  -4.51960
gfz2013yctg   0.45950
gfz2013yewz  -1.42940
gfz2013yghj   0.43060
gfz2013yhbu  -2.39300
gfz2013yhpk  -2.63110
gfz2013ylbx   0.12650
gfz2013ymky   1.57150
gfz2013ymxs  -0.44390
gfz2013ynmw  -2.28140
gfz2013yqkv  -0.70090
gfz2013yrmc  -4.18230
gfz2013yyti  -0.40010
gfz2014adjs  -0.03880
gfz2014algk  -4.27150
gfz2014alwz   1.05320
gfz2014amsb  -1.50290
gfz2014aqbk   0.89410
gfz2014arpf   1.95730
gfz2014arqr   0.26770
gfz2014atbl  -2.09660
gfz2014atgw   0.48910
gfz2014azqs  -2.42040
gfz2014bagd   0.85450
gfz2014bbro   0.37250
gfz2014bekc   0.03500
gfz2014bezu  -2.33380
gfz2014bfqo  -1.09330
gfz2014bhhv  -1.27040
gfz2014bhvd  -2.52200
gfz2014bjgt   0.12250
gfz2014bjsy  -0.18010
gfz2014bldx  -2.36860
gfz2014bmfv  -3.78820
gfz2014bmta  -2.79610
gfz2014bolf   0.11900
gfz2014bwue  -1.33090
gfz2014bzna  -1.05290
gfz2014bztt  -0.15670
gfz2014bzxy  -3.91710
gfz2014caop  -0.61340
gfz2014claq  -1.27440
gfz2014clnq  -1.83040
gfz2014cmwb  -2.36230
gfz2014crpy  -2.25940
gfz2014cueu  -3.79520
gfz2014cybg  -0.28060
gfz2014czno  -0.97830
gfz2014dbdf  -0.00000
gfz2014dbyx  -0.27510
gfz2014dffd  -3.52850
gfz2014dhxt   0.92360
gfz2014dlri  -0.08730
gfz2014duqn  -2.01290
gfz2014eage  -0.02350
gfz2014ebmc   0.63110
gfz2014edfx  -0.07990
gfz2014efkk   0.86630
gfz2014egwu  -1.09010
gfz2014ehsf   0.35610
gfz2014ejmt  -0.01880
gfz2014ejvf  -0.47510
gfz2014ekcr   0.08530
gfz2014ekdn   0.55410
gfz2014ekdt  -0.30770
gfz2014eqpl  -1.59600
gfz2014erbj   0.56320
gfz2014etqa   1.41120
gfz2014ettc  -1.17750
gfz2014ewcz   0.52640
gfz2014ezgb   0.40160
gfz2014fcms   0.54380
gfz2014femz   1.46080
gfz2014fexu  -2.68770
gfz2014fgvi  -6.47210
gfz2014fgxt  -3.34540
gfz2014fhbd  -4.37910
gfz2014fhla  -4.07310
gfz2014fhrq  -4.41260
gfz2014fhsg  -2.76630
gfz2014fhwx  -3.39010
gfz2014fhxm  -1.33650
gfz2014fimn  -3.99140
gfz2014fiuj   0.42740
gfz2014fjyo  -1.32570
gfz2014fjzw  -1.93940
gfz2014fkmr  -2.40410
gfz2014fkmx  -1.21910
gfz2014fnyg  -0.66620
gfz2014fqpz  -5.47440
gfz2014frdz  -3.62260
gfz2014frel  -2.72260
gfz2014ftgx   0.68940
gfz2014ftka  -4.48920
gfz2014ftoc  -4.76000
gfz2014fuub   3.41680
gfz2014fval  -3.89910
gfz2014fvgh  -3.74250
gfz2014fvjl  -0.66190
gfz2014fvrg  -3.67820
gfz2014fwyr  -1.58110
gfz2014fxpu  -0.15670
gfz2014gbcz   0.89940
gfz2014gbdq  -1.29210
gfz2014geuy  -4.22900
gfz2014ggsr  -0.50400
gfz2014gkgf  -5.98890
gfz2014gkjl  -1.83610
gfz2014gkmw  -0.18900
gfz2014gkpd  -0.38620
gfz2014gkqf  -2.31950
gfz2014gkqu   1.57120
gfz2014gkut  -2.55750
gfz2014glcu  -0.05070
gfz2014gmge  -1.50930
gfz2014gmhp  -0.80390
gfz2014gmhr  -1.38180
gfz2014gmku  -2.95540
gfz2014gmlz  -2.79850
gfz2014gmnb  -2.83810
gfz2014gmnw   0.24230
gfz2014gmpy  -4.06980
gfz2014gmzl  -2.64530
gfz2014gnmx   0.11800
gfz2014gntd  -0.03050
gfz2014goba  -2.94390
gfz2014goei   0.43650
gfz2014gogv  -2.13920
gfz2014gori   3.23260
gfz2014gpdo  -0.61250
gfz2014gpnf  -2.01210
gfz2014gpuk  -1.31880
gfz2014gqbj  -3.81700
gfz2014gqer  -2.08030
gfz2014gqve  -3.43480
gfz2014grcv  -2.37630
gfz2014grgn  -3.55700
gfz2014grho  -0.69250
gfz2014gsqs  -3.19250
gfz2014gtef  -1.94150
gfz2014gutm  -0.69310
gfz2014gvhw  -1.17840
gfz2014gxag  -2.77540
gfz2014gxkh  -1.88040
gfz2014gxqu  -0.11970
gfz2014gxvf  -0.03480
gfz2014gxxh  -2.56490
gfz2014gxxo  -2.06270
gfz2014haey  -0.64010
gfz2014hafk  -0.46970
gfz2014hagb  -0.69080
gfz2014hasj  -4.17650
gfz2014hauo  -0.64540
gfz2014hbqb  -4.39350
gfz2014hcmj  -3.88700
gfz2014hetr  -2.35370
gfz2014heyq  -3.27520
gfz2014hgqo  -4.86610
gfz2014hjgh  -1.78130
gfz2014hphw  -2.21740
gfz2014hpqz  -1.83230
gfz2014hrft   0.37350
gfz2014hriu  -2.25890
gfz2014hscz  -0.03070
gfz2014hsqo  -1.24320
gfz2014huaj  -0.39110
gfz2014hwan   0.40560
gfz2014hyal   0.57070
gfz2014hzze   0.82010
gfz2014immt  -3.58960
gfz2014imnn  -1.23630
gfz2014inbj  -0.02600
gfz2014issk  -1.13670
gfz2014ixky  -2.12570
gfz2014jmnk  -2.48760
gfz2014jpvx   1.76390
gfz2014jpxs  -0.74590
gfz2014jtcz   0.39320
gfz2014jwmh   2.30490
gfz2014kara  -0.13550
gfz2014khan  -1.27630
gfz2014kizt  -6.78940
gfz2014kjee   0.37760
gfz2014kjjq   0.45720
gfz2014kndc  -4.32340
gfz2014knxs   0.35170
gfz2014krlg   0.01870
gfz2014ksdv   0.75770
gfz2014kwrg  -4.03660
gfz2014kyan  -2.37630
gfz2014kytf  -2.48660
gfz2014kzzm   0.10510
gfz2014lbxn  -1.30850
gfz2014lddn   3.75580
gfz2014lefs   1.00160
gfz2014lgqn   1.74630
gfz2014ljbr   1.01080
gfz2014lkyf   1.48670
gfz2014lmge  -0.63560
gfz2014lnmw  -2.93320
gfz2014lpfc  -1.65860
gfz2014lpim  -0.09090
gfz2014lrzx  -0.81990
gfz2014lvgn  -0.42970
gfz2014lwom  -1.31310
gfz2014lxnc  -1.89220
gfz2014lyhk  -3.74430
gfz2014lyhp  -5.77260
gfz2014lynp   0.50570
gfz2014lzal  -0.10380
gfz2014lzow   0.03770
gfz2014madw  -4.22000
gfz2014mawp  -2.82220
gfz2014mcno   0.30270
gfz2014mcse   2.74990
gfz2014mhgg   0.33590
gfz2014mioi  -0.03590
gfz2014mtum  -0.44710
gfz2014mwnj  -0.65200
gfz2014mwor  -0.93020
gfz2014ndue  -0.64930
gfz2014ngnd  -0.43150
gfz2014nhyb  -0.81080
gfz2014niqj  -2.70830
gfz2014nkdx   2.37120
gfz2014nowp   2.16260
gfz2014npdk  -0.57650
gfz2014npeo   2.34900
gfz2014nphm  -1.92940
gfz2014nqbs  -0.06370
gfz2014nqfm  -5.75060
gfz2014nrie  -3.26770
gfz2014nvdi   0.27570
gfz2014obxm  -0.28770
gfz2014odgv  -2.53070
gfz2014ofhm  -0.82410
gfz2014oims  -4.00970
gfz2014oinz  -6.75960
gfz2014okxu  -0.82490
gfz2014omyn   0.38800
gfz2014ooaa  -1.16690
gfz2014opqr  -2.67950
gfz2014orxs  -3.10710
gfz2014oryw  -0.89000
gfz2014osvx  -2.27730
gfz2014owxc  -5.23220
gfz2014oxcc   2.17190
gfz2014oyly  -3.52870
gfz2014pjer  -2.54230
gfz2014poap   0.17460
gfz2014ppyi   0.11470
gfz2014ppzf  -2.47430
gfz2014pvch  -3.52500
gfz2014pzml   0.00000
gfz2014qbzi  -0.54340
gfz2014qcxs  -0.58390
gfz2014qdog  -0.04630
gfz2014qfzq   0.89790
gfz2014qlvc  -0.94440
gfz2014qlxd  -5.38350
gfz2014qngj   2.46760
gfz2014qqfg   0.29060
gfz2014qqhm  -2.97640
gfz2014qsby  -0.08200
gfz2014qtwv  -0.29170
gfz2014raau   2.31560
gfz2014rcyx  -0.19280
gfz2014rfeb  -1.30710
gfz2014rffv   0.27940
gfz2014rghp   0.99000
gfz2014rhju  -0.80550
gfz2014rhnz  -0.83410
gfz2014rhwq  -2.76830
gfz2014riel  -2.70420
gfz2014rils   0.11860
gfz2014rkwl   0.41410
gfz2014roba  -0.64160
gfz2014romy  -2.04060
gfz2014royq  -4.48370
gfz2014rwos  -0.53100
gfz2014ryfb  -3.19730
gfz2014sadu  -0.24870
gfz2014sjqw   0.40380
gfz2014sryn  -2.65010
gfz2014ssds  -0.09640
gfz2014ssmv  -0.17130
gfz2014ssvz  -6.32860
gfz2014szzf   0.28930
gfz2014tabg  -1.57030
gfz2014tgcw  -1.16520
gfz2014thrw  -0.35980
gfz2014tovs   1.51110
gfz2014tqly  -0.11430
gfz2014tqsf  -3.55350
gfz2014tqth  -0.77290
gfz2014tute  -1.56050
gfz2014tzsd  -3.40490
gfz2014uapa  -2.25310
gfz2014ubyq  -1.90210
gfz2014udgg   0.06920
gfz2014uohh  -0.28110
gfz2014utac   0.61640
gfz2014uuuf  -0.55150
gfz2014uvrk   3.00470
gfz2014uzaw   0.47430
gfz2014vcev   0.42520
gfz2014vdnh  -1.11440
gfz2014vhld  -0.56240
gfz2014vhms  -3.06980
gfz2014vjoz  -0.02560
gfz2014vljh  -0.17140
gfz2014vnxu  -0.15750
gfz2014vpus   1.27830
gfz2014waoo   0.40300
gfz2014watn  -5.39850
gfz2014wjko  -3.81550
gfz2014wmsc   1.03560
gfz2014wqcp  -0.02090
gfz2014wsjh   2.05060
gfz2014xhkc   3.66960
gfz2014xhwk  -1.77650
gfz2014xjri  -0.98290
gfz2014xqqd  -2.21440
gfz2014yazi  -2.00970
gfz2014yhhm  -2.98150
gfz2014ynhc  -0.83670
gfz2014yppv   0.02020
gfz2014yrug  -2.31810
gfz2014yula  -0.53940
gfz2014yyiy  -2.08190
gfz2014zkys   1.73780
gfz2014zlgp   0.94630
gfz2015abpw   1.90370
gfz2015aide   0.09140
gfz2015alzx   0.45690
gfz2015ansu  -2.21280
gfz2015apnk  -3.07100
gfz2015aqav  -0.02580
gfz2015aqbq  -0.10180
gfz2015arpd  -1.43360
gfz2015aruz  -3.15490
gfz2015atxv  -1.37300
gfz2015azzp  -0.38990
gfz2015bavu   0.27850
gfz2015bdyd  -1.93030
gfz2015berb  -0.75170
gfz2015bfjm   2.02730
gfz2015bfzt   0.22290
gfz2015bkbj  -1.27130
gfz2015bohx   0.95030
gfz2015bphe  -4.31080
gfz2015bsnl  -1.15350
gfz2015bucr  -1.06290
gfz2015bvxx  -0.77480
gfz2015byjd   2.17960
gfz2015cewd  -4.82590
gfz2015chhn   1.10700
gfz2015clrp  -0.31870
gfz2015cpuo   0.29840
gfz2015cxhx  -0.06950
gfz2015cxrc  -0.70960
gfz2015cyjd  -6.33690
gfz2015ddhl  -0.37700
gfz2015dizn   1.57390
gfz2015dskr  -2.33880
gfz2015dtqr  -0.17630
gfz2015dvbn  -3.52360
gfz2015ecgq  -0.27490
gfz2015ednc  -1.17120
gfz2015eezy  -1.37530
gfz2015egbk   0.14060
gfz2015egxq  -0.28830
gfz2015ehou  -2.51650
gfz2015ehpz  -0.64180
gfz2015eiky  -4.88800
gfz2015elgy  -0.22510
gfz2015eljz  -0.70810
gfz2015emtg   1.36460
gfz2015enth   0.73470
gfz2015etai  -0.19400
gfz2015evpl  -0.42330
gfz2015eyqs  -1.13690
gfz2015fbbk  -1.36220
gfz2015fbew  -0.69620
gfz2015fcua   0.23940
gfz2015fdpr  -1.52040
gfz2015fjhk  -3.42370
gfz2015fkbc  -1.15800
gfz2015fkgt   0.87960
gfz2015fkjs  -3.85420
gfz2015fkkd   0.85150
gfz2015fkuu   0.18060
gfz2015flis  -0.28260
gfz2015fpez   0.78930
gfz2015fsjj  -9.23850
gfz2015fvoi  -3.53260
gfz2015fwkq  -1.62330
gfz2015fwnf  -1.87010
gfz2015fxbv   1.42790
gfz2015fxdi   1.48550
gfz2015fyvk   0.37940
gfz2015gckd  -4.83400
gfz2015gjbr   1.66670
gfz2015gkwa   0.01930
gfz2015gmgf  -2.97640
gfz2015guhd  -0.45130
gfz2015gwao  -2.97250
gfz2015gzja   1.65240
gfz2015hdbn   0.14110
gfz2015hdcp   0.20760
gfz2015hepg  -0.53250
gfz2015hgbk  -6.02460
gfz2015hhbd   0.50450
gfz2015hlfq  -0.84970
gfz2015hlqo   0.46120
gfz2015hpmk  -2.66900
gfz2015hvgs  -0.57230
gfz2015idho   0.13790
gfz2015iele  -0.10240
gfz2015ijmh  -4.53870
gfz2015imty  -2.40660
gfz2015imyp  -0.42430
gfz2015isim   0.41070
gfz2015iwqk  -1.19600
gfz2015ixyy   0.66940
gfz2015jkdw   0.53470
gfz2015jmlf   0.26340
gfz2015jmlu   0.61030
gfz2015jpap  -0.33840
gfz2015jwgl   5.88900
gfz2015jxbx  -1.03020
gfz2015jxjd   0.02060
gfz2015jzcv  -1.54470
gfz2015kkqb  -0.43750
gfz2015kkth   0.21100
gfz2015kquq  -2.73400
gfz2015ksni  -0.18540
gfz2015kvwz   0.27350
gfz2015lbcg  -0.19570
gfz2015lcma  -0.10590
gfz2015lcuo  -0.08090
gfz2015lfud  -2.55240
gfz2015lhjq  -1.84890
gfz2015lhjy  -5.74820
gfz2015ltii  -2.57330
gfz2015lytv   0.30190
gfz2015mddr  -1.82840
gfz2015mfpy   0.68270
gfz2015micz  -1.64630
gfz2015mljd  -0.06950
gfz2015mpte  -0.55410
gfz2015nbdc  -0.39580
gfz2015nerz   0.64380
gfz2015nqgf   2.35760
gfz2015ntpk   0.33370
gfz2015nuxz  -0.07840
gfz2015nwug   0.18020
gfz2015ocwr  -1.78910
gfz2015ofpd  -0.20400
gfz2015ojut   1.78120
gfz2015okmq  -2.57540
gfz2015okpu  -1.08080
gfz2015omab   0.47870
gfz2015opjp   0.06160
gfz2015orkl   0.37040
gfz2015oumn   1.26000
gfz2015oyfl   1.80450
gfz2015pgxa   0.29540
gfz2015pjgr  -1.68160
gfz2015poni   0.65450
gfz2015prlr   1.85120
gfz2015puqp  -0.33400
gfz2015qafb  -0.00000
gfz2015qnde  -0.57990
gfz2015qnho   3.48060
gfz2015qnlv  -4.64050
gfz2015qnto   1.95310
gfz2015qols   0.01180
gfz2015qprd  -0.02050
gfz2015qpvd  -2.65230
gfz2015qvxu  -2.61500
gfz2015rddx  -3.81280
gfz2015rgrg   0.24890
gfz2015rgst  -0.25330
gfz2015rkbq  -0.83520
gfz2015rkzg   0.50020
gfz2015rlnh  -8.49140
gfz2015rnis  -1.76720
gfz2015roac  -1.34230
gfz2015rpzn   0.58640
gfz2015rwsb   0.83030
gfz2015saet  -0.06670
gfz2015sevh  -1.45720
gfz2015sfdd   4.71390
gfz2015sfmd   4.44050
gfz2015sfom   1.84280
gfz2015sfte   0.24710
gfz2015sfzm   1.61110
gfz2015sgie   1.09500
gfz2015sglg   2.40390
gfz2015sgxc   0.12260
gfz2015shlp   0.08400
gfz2015shov   0.08860
gfz2015shwt  -0.00000
gfz2015sicu   1.30030
gfz2015siof   1.04890
gfz2015sist   1.16270
gfz2015sitn   0.51140
gfz2015sjbx   0.62480
gfz2015sjeq   0.02760
gfz2015sjfi   1.62150
gfz2015sjgk   0.84490
gfz2015sjjb   0.18210
gfz2015sjne   0.29930
gfz2015sjtz   0.88580
gfz2015skab   0.12490
gfz2015skgj  -0.00000
gfz2015sklu  -0.28570
gfz2015skpv   1.60900
gfz2015skuk  -0.37700
gfz2015skxu   2.81750
gfz2015sldx   0.28500
gfz2015slfn   1.54300
gfz2015sljs  -0.63960
gfz2015smgj   1.42580
gfz2015snhn   1.11300
gfz2015snmg  -0.06170
gfz2015snsf   0.97010
gfz2015snwh   3.89630
gfz2015snyd   2.42630
gfz2015soat   1.97600
gfz2015solh  -0.03860
gfz2015sopc   1.26930
gfz2015sowu   0.08930
gfz2015soxc   3.64490
gfz2015sozw   1.70200
gfz2015spal   0.30720
gfz2015spxh  -0.48950
gfz2015sqbg   2.68320
gfz2015sqmy   1.54380
gfz2015sqvx   0.05710
gfz2015sqyh   0.02960
gfz2015srat   0.92630
gfz2015srxe  -0.19110
gfz2015srxm   0.44700
gfz2015ssaf   2.11170
gfz2015sspn  -0.77430
gfz2015ssrl   0.46220
gfz2015stas   0.36070
gfz2015stfy   1.62540
gfz2015stso   0.46460
gfz2015subg   0.14280
gfz2015subx   1.88480
gfz2015sudm  -0.04140
gfz2015sunp  -0.10800
gfz2015svjy   0.66120
gfz2015svwm   2.67210
gfz2015swgn   0.89850
gfz2015sxgd   1.78670
gfz2015sxmh  -0.12610
gfz2015sxxu   2.30480
gfz2015sydc   2.04600
gfz2015szcb   3.32430
gfz2015szfe   0.32440
gfz2015taml  -5.53360
gfz2015tbdn   0.22960
gfz2015tbje  -0.10700
gfz2015tcem  -0.33950
gfz2015tchx   0.27170
gfz2015tdhb  -0.75960
