# Nsamples: 358  MAD:  0.974  mean: -0.477  variance:  3.004
gfz2011fgvr  -0.45430
gfz2011fhag  -0.32860
gfz2011fhur  -0.45200
gfz2011flgj   3.29670
gfz2011fnsw  -1.39850
gfz2011gbmx   3.20320
gfz2011gcwb   0.44710
gfz2011gdgh   0.02570
gfz2011ghky   0.09470
gfz2011gkey  -0.32670
gfz2011gkzt  -2.77790
gfz2011gzbr  -0.04040
gfz2011haid  -0.29270
gfz2011hbex  -0.00000
gfz2011hbqk   0.22870
gfz2011hfkj   0.02030
gfz2011hlqw  -0.52880
gfz2011hlsa  -1.11160
gfz2011hlth   0.29710
gfz2011hpgx  -0.80140
gfz2011hpqp   0.11010
gfz2011hrhu  -0.01390
gfz2011hryk  -0.49350
gfz2011hvbu  -0.27450
gfz2011ieie  -0.01150
gfz2011iwte  -0.59810
gfz2011izqa  -1.26030
gfz2011jdsj   0.39000
gfz2011jmbn  -0.03320
gfz2011jplh  -2.92490
gfz2011jtlg   0.60130
gfz2011jxpl  -0.77210
gfz2011knbi  -1.00280
gfz2011knoo  -0.86450
gfz2011kqwo   1.35060
gfz2011kqyg  -0.05520
gfz2011kweu  -0.30310
gfz2011kwhq  -0.05340
gfz2011kwiy  -0.18460
gfz2011kwjx   2.22510
gfz2011kwkw   0.39680
gfz2011kwld   0.77760
gfz2011kwlq  -0.14760
gfz2011kwni   1.26400
gfz2011kwnu   0.01780
gfz2011kwqc   1.13900
gfz2011kwrf   0.44480
gfz2011kwsz   0.24960
gfz2011kxzp   3.85380
gfz2011lcxq  -6.25310
gfz2011lggq   0.48770
gfz2011lgsg  -5.29640
gfz2011lhls   6.33470
gfz2011lvjr   3.11870
gfz2011mdie  -3.63600
gfz2011mepc  -0.00000
gfz2011mjom  -1.71420
gfz2011mpme  -0.42060
gfz2011mprq  -0.07960
gfz2011nmnq  -0.23460
gfz2011noud  -0.81010
gfz2011nowp   0.24070
gfz2011nqpd   1.44160
gfz2011nrwc   1.20280
gfz2011nudm   0.16180
gfz2011ohcy  -2.32040
gfz2011olkk   0.59480
gfz2011orgn  -0.07740
gfz2011ornx   0.56680
gfz2011ozsl  -1.19960
gfz2011phms   0.40190
gfz2011pntf  -0.50830
gfz2011ptus  -0.54040
gfz2011qigx   4.80580
gfz2011qoif  -0.03650
gfz2011qvae   0.40370
gfz2011qyms  -1.92860
gfz2011rabm  -0.27980
gfz2011rdby  -0.69580
gfz2011rewa  -0.99710
gfz2011rgwp  -0.09030
gfz2011rsrh   0.13880
gfz2011runa  -0.69320
gfz2011rznl  -0.39380
gfz2011sagt   0.49690
gfz2011shqm   1.96050
gfz2011taps   0.18990
gfz2011tbas  -1.05040
gfz2011tcij  -0.04300
gfz2011tjrf  -0.31720
gfz2011tjue   1.53660
gfz2011tkfp   1.88610
gfz2011tkog  -0.54580
gfz2011toub  -3.76820
gfz2011tpbl  -0.52480
gfz2011tpfr  -1.68160
gfz2011udsq  -0.34760
gfz2011ueni  -2.55840
gfz2011ugzz  -0.71400
gfz2011ujze  -2.39920
gfz2011ukmp  -2.93310
gfz2011uphh  -2.77390
gfz2011urzu  -0.86870
gfz2011uzqv  -1.58190
gfz2011vhfi  -1.70720
gfz2011vkun  -2.36300
gfz2011vldk  -2.11020
gfz2011vnza  -4.19040
gfz2011vqrj  -0.64940
gfz2011vrhg  -3.81860
gfz2011vxns   0.11040
gfz2011vxod  -1.41410
gfz2011wcic   0.80350
gfz2011wijj   0.74250
gfz2011wjkf   0.01950
gfz2011wjul  -2.83660
gfz2011wwjs   1.26370
gfz2011wxfs  -1.03380
gfz2011wxtk  -3.21570
gfz2011wype  -2.33600
gfz2011xcpv   0.36670
gfz2011xqru  -0.05210
gfz2011xyxj  -0.07520
gfz2011yfdx  -0.20120
gfz2011yhwz   0.62750
gfz2011zqhh   3.21160
gfz2012aqtq  -0.08660
gfz2012bfyn   2.42910
gfz2012bngd   5.59170
gfz2012bpkx   0.47680
gfz2012bpnl   0.16940
gfz2012byad  -0.46130
gfz2012cbed   0.33790
gfz2012cgvr  -0.63480
gfz2012ckxi  -1.78400
gfz2012cmfy   0.56300
gfz2012covm   0.88430
gfz2012cqnl  -0.42660
gfz2012cxdn   1.05360
gfz2012czlw   0.48590
gfz2012dimn  -0.49570
gfz2012dinb   1.09980
gfz2012djwi   0.01930
gfz2012ekzf   4.45950
gfz2012enno  -1.05550
gfz2012fbfo   2.17850
gfz2012fhnh  -0.15700
gfz2012fivh   0.01910
gfz2012foeo  -2.88960
gfz2012fqcg  -6.18920
gfz2012fwfo  -0.34520
gfz2012fzfa   5.96750
gfz2012fzsq   0.70050
gfz2012glss  -0.08830
gfz2012gocc  -0.19870
gfz2012gomm  -2.22330
gfz2012gukw  -1.17330
gfz2012gwqb  -0.85440
gfz2012hdbm   0.46590
gfz2012ihdl   0.55290
gfz2012ilvn  -1.32360
gfz2012ilxh  -0.30160
gfz2012jjzc  -0.19280
gfz2012jlox  -7.88570
gfz2012jpeh   0.29270
gfz2012jqvn  -0.62480
gfz2012jupx  -2.97170
gfz2012jxiy   0.72380
gfz2012kdmb  -0.61090
gfz2012keor   1.21940
gfz2012kkup  -1.13990
gfz2012klhx  -0.49790
gfz2012kuct  -1.19250
gfz2012kudo  -2.35710
gfz2012kvzv  -0.37240
gfz2012lboz  -0.28680
gfz2012lczo   1.19870
gfz2012ldgs  -0.74120
gfz2012ldxg  -2.97250
gfz2012ledy  -0.73810
gfz2012lpvn  -0.04300
gfz2012lrsv  -0.84370
gfz2012lxkv   1.19420
gfz2012lzmr  -1.23410
gfz2012mcze   0.63770
gfz2012mlyf   0.10910
gfz2012mofm  -0.35100
gfz2012mpvy   0.41290
gfz2012mpyl  -1.32960
gfz2012mvwr  -2.43150
gfz2012naqz  -0.38920
gfz2012nben  -0.20310
gfz2012nbtn  -1.12410
gfz2012nedn   1.56400
gfz2012ngic   0.15730
gfz2012njha   0.39550
gfz2012nsbz  -0.12440
gfz2012obnq  -2.20560
gfz2012oedb  -0.08300
gfz2012okhx   0.17940
gfz2012ostk  -3.16880
gfz2012pkel  -1.12150
gfz2012priv   0.96300
gfz2012qouy   0.44720
gfz2012qqqp   0.83670
gfz2012qqxg   0.10380
gfz2012qtgs   0.01290
gfz2012quso  -2.68740
gfz2012qxcy  -1.17700
gfz2012rats   0.32450
gfz2012rboy   1.46410
gfz2012repv  -0.30600
gfz2012rjsd  -0.11160
gfz2012rknn   0.02660
gfz2012rqlg   2.72020
gfz2012rubi  -1.64120
gfz2012rwov   0.46780
gfz2012rwql   1.01420
gfz2012rypu  -1.22860
gfz2012sjea   0.04370
gfz2012spbj   0.18910
gfz2012sphd  -1.41020
gfz2012tazz  -0.43500
gfz2012tbbp  -0.30630
gfz2012tpzx   0.73800
gfz2012ttoa  -1.35950
gfz2012tzcc  -0.13470
gfz2012tzgb  -0.13510
gfz2012uafg  -2.12560
gfz2012uaqj  -1.63220
gfz2012uciv  -2.52500
gfz2012ueqo   0.26490
gfz2012ufew  -0.29430
gfz2012uhup  -3.05750
gfz2012uqzp  -1.32520
gfz2012usba   0.12790
gfz2012uvqf  -1.91000
gfz2012uyie  -1.20590
gfz2012uyxb   0.16180
gfz2012uzom  -5.80300
gfz2012uzyj  -0.69060
gfz2012vceo  -1.53870
gfz2012vdbt  -0.19870
gfz2012vmeh  -2.00010
gfz2012vnbk  -0.08560
gfz2012vrua   0.28030
gfz2012vsev  -1.57470
gfz2012wajj   0.14750
gfz2012wecd   0.28770
gfz2012wizz  -1.46600
gfz2012wklq  -3.40640
gfz2012wmkd   0.06210
gfz2012wmsg  -6.68190
gfz2012wpeq   3.67770
gfz2012wrir   0.19130
gfz2012wtkr  -0.16600
gfz2012wvfl  -0.04440
gfz2012wxer  -0.00000
gfz2012wxlg   0.70250
gfz2012wxnt  -0.12620
gfz2012wxnu   0.11030
gfz2012wypz  -1.57760
gfz2012xdna  -0.14200
gfz2012xeul   3.48770
gfz2012xhci   0.33720
gfz2012xjyv  -2.53330
gfz2012xkkv  -0.00000
gfz2012xwqa  -1.00780
gfz2012xyqp  -3.91420
gfz2012xyua  -5.12920
gfz2012yfrp   0.80950
gfz2012yxxu  -0.97290
gfz2012yzod  -1.13770
gfz2012zemh  -0.06030
gfz2012zfag  -0.50140
gfz2012zitl   0.63450
gfz2012zjpv   0.00000
gfz2012zklq  -0.05890
gfz2012zmbp  -1.05730
gfz2012zmln   1.52350
gfz2012zsqk   1.83760
gfz2013aayj  -0.72850
gfz2013acag   0.58690
gfz2013adey  -0.18200
gfz2013apmm  -5.49230
gfz2013azzr  -0.15280
gfz2013bdpu  -1.27320
gfz2013bobq   0.61570
gfz2013bokp  -1.36100
gfz2013bouj  -1.37300
gfz2013btjm  -0.04700
gfz2013bzlb   0.40870
gfz2013cbsm  -0.51930
gfz2013ccnr  -2.95170
gfz2013ccon  -0.57700
gfz2013cdfj  -0.39510
gfz2013comh   0.15550
gfz2013cvad  -0.09130
gfz2013cwpn  -0.68540
gfz2013cwps   0.07410
gfz2013ddbh  -4.39750
gfz2013dfhb  -0.16250
gfz2013dkly  -0.00720
gfz2013dkmz   0.08870
gfz2013dofo  -3.23610
gfz2013dojq   0.03920
gfz2013drxz  -1.57920
gfz2013dspt   2.17000
gfz2013dsrk  -6.93450
gfz2013dvye  -0.25330
gfz2013dyop  -0.51200
gfz2013egpu  -1.02050
gfz2013enbx  -0.52540
gfz2013eswe   0.67430
gfz2013eulz  -0.67650
gfz2013feep  -0.55560
gfz2013fepm   1.10390
gfz2013figy   0.38390
gfz2013fiud  -2.37900
gfz2013fkii  -0.71290
gfz2013flox  -0.70140
gfz2013fnzr  -1.71850
gfz2013fwxa  -3.22590
gfz2013fygc  -1.79510
gfz2013gcfx  -0.22830
gfz2013gdgf  -1.21830
gfz2013gdnq   0.31840
gfz2013gelv  -0.30670
gfz2013glcr  -0.82720
gfz2013gmor  -1.53920
gfz2013goux  -0.07650
gfz2013gvdb  -0.24380
gfz2013gvex  -1.11480
gfz2013gvxh   0.03830
gfz2013gwrd  -0.03960
gfz2013hdnc   0.17370
gfz2013hfmp  -0.51440
gfz2013hisv  -0.56360
gfz2013hkja   1.04060
gfz2013hklr  -3.33820
gfz2013hmbc  -1.38800
gfz2013hsfw   0.86660
gfz2013hzdp   0.31330
gfz2013iayx  -1.46230
gfz2013ifpq  -1.87030
gfz2013ijsr  -2.56110
gfz2013ikgo   0.75990
gfz2013ilug  -2.43160
gfz2013inux  -1.85100
gfz2013ippu  -2.21050
gfz2013iqzq  -1.85630
gfz2013iunn  -2.68520
gfz2013jdrx  -0.17720
gfz2013jesk   0.46810
gfz2013jgip  -0.37220
gfz2013jjsi  -0.80330
gfz2013jkut   0.30840
gfz2013jlst   0.24890
