# Nsamples: 1901  MAD:  0.822  mean:  0.272  variance:  2.659
gfz2010aban  -0.03950
gfz2010aerk  -0.02880
gfz2010ahla  -1.34210
gfz2010ahqi   0.07850
gfz2010aphp  -0.00000
gfz2010awfi   0.13660
gfz2010aykj   3.06080
gfz2010bedu   0.23220
gfz2010bfzs   0.13780
gfz2010bgth   0.03890
gfz2010bhhq  -0.66380
gfz2010bifb   5.62780
gfz2010bjeb   0.50730
gfz2010bjjx   0.05760
gfz2010bjsl  -1.15880
gfz2010bkob   2.21050
gfz2010bkos   2.94430
gfz2010bowy   0.92040
gfz2010boxo   6.63260
gfz2010bpda  -0.18600
gfz2010bxxs  -0.07130
gfz2010caft   7.52640
gfz2010cbkg   0.24940
gfz2010cdbt   0.08480
gfz2010chnv   0.00000
gfz2010cind   1.62570
gfz2010civi   0.46910
gfz2010cjmx  -0.04980
gfz2010cjqh  -1.21750
gfz2010cjrf   0.23170
gfz2010ckeu  -1.48750
gfz2010ckzm  -0.13700
gfz2010cnwc  -2.50010
gfz2010cptb   0.04140
gfz2010cqwl  -0.30090
gfz2010cres   0.31100
gfz2010ctuw  -3.74290
gfz2010czps   0.73880
gfz2010ddzo  -0.05940
gfz2010dejx  -0.04100
gfz2010dfru   0.45720
gfz2010diqn   0.00000
gfz2010dlgc   0.18160
gfz2010dtmx  -0.37770
gfz2010dumm   0.17550
gfz2010eaoy   0.77420
gfz2010earu   6.73530
gfz2010eavs  -0.99710
gfz2010eawu  -1.48190
gfz2010eaxa   2.05400
gfz2010eaze   2.94740
gfz2010ebbx   7.89870
gfz2010ebfx   1.41630
gfz2010ebhc   0.55600
gfz2010ebjg  -2.33300
gfz2010ebjy  -0.77320
gfz2010ebkj   1.15170
gfz2010ebkx   3.34470
gfz2010ebll  -1.65530
gfz2010ebnn   0.36360
gfz2010ebqt   1.31250
gfz2010ebsv  -3.25210
gfz2010ebvm   1.98620
gfz2010ebwp  -2.71580
gfz2010ebxl  -5.36860
gfz2010ebzk   0.71270
gfz2010eccq   0.80810
gfz2010eced   1.37750
gfz2010ecfy  -1.50100
gfz2010ecgh   9.63830
gfz2010echy  -0.43220
gfz2010ecls   1.72550
gfz2010ecns  -0.10960
gfz2010ecpg  -0.15090
gfz2010ecps  -1.65970
gfz2010ecro  -1.22700
gfz2010ecsp   1.36180
gfz2010ectq   0.89520
gfz2010ecua   4.79840
gfz2010ecvt   0.49450
gfz2010edat  -0.15180
gfz2010edbz  -2.89990
gfz2010edde   0.16580
gfz2010edhr  -0.07140
gfz2010edpb  -0.22360
gfz2010edqh   4.21010
gfz2010edun   0.87800
gfz2010edvf   1.06710
gfz2010edyi   0.49320
gfz2010edzb   1.42730
gfz2010eedu  -0.06640
gfz2010eedz  -3.41260
gfz2010eefh  -1.29070
gfz2010eegn  -0.25440
gfz2010eeia   1.46180
gfz2010eeij  -0.86480
gfz2010eekg  -0.42320
gfz2010eekq   0.60540
gfz2010eell  -0.83540
gfz2010eeng  -0.62490
gfz2010eeqy   1.50340
gfz2010eern  -4.37410
gfz2010eesf   0.60500
gfz2010eevu   2.72520
gfz2010eexz   1.08850
gfz2010eeyh  -0.08540
gfz2010efak   0.08530
gfz2010efkc   0.96370
gfz2010efnf   0.99900
gfz2010efsq   0.43160
gfz2010efwo  -0.83070
gfz2010efxf  -0.00000
gfz2010egap  -2.48220
gfz2010eghq   0.82930
gfz2010egld   0.74790
gfz2010egmp   1.53610
gfz2010egqh  -0.31410
gfz2010egsw   2.44950
gfz2010ehft   3.21920
gfz2010ehnm  -0.43670
gfz2010ehsy   5.08300
gfz2010ehvj  -0.81690
gfz2010ehwg  -8.58930
gfz2010ehxz  -0.10350
gfz2010eimf   0.91670
gfz2010eioi  -1.49030
gfz2010eiqi   0.92590
gfz2010eisx   3.43100
gfz2010ejae  -0.39620
gfz2010ejma  -0.82070
gfz2010ejxf  -0.92990
gfz2010ekaw   1.95690
gfz2010ekoe  -2.65370
gfz2010ekyc  -3.67350
gfz2010elhv   1.90240
gfz2010elin   0.36950
gfz2010elpu  -1.40020
gfz2010elsw   1.27570
gfz2010eltf   1.86000
gfz2010elvp   2.54190
gfz2010elyc   3.06660
gfz2010elyo   0.14400
gfz2010elzf   3.96090
gfz2010emyz   8.21250
gfz2010ensu   1.24640
gfz2010enzl  -0.08310
gfz2010eoao   0.04440
gfz2010eohh   0.55520
gfz2010eomb   7.08080
gfz2010epbe   1.89360
gfz2010epud   4.78850
gfz2010epxj   0.10270
gfz2010epzk   5.48090
gfz2010eqcn  -0.25540
gfz2010eqjg   0.47100
gfz2010eqmu  -1.58190
gfz2010eqse  -1.19050
gfz2010erda   7.83140
gfz2010erdi  -0.23120
gfz2010erfy   0.42420
gfz2010erig   6.25100
gfz2010erkn  -0.14010
gfz2010ermi  -0.37080
gfz2010erna   4.42830
gfz2010erom   0.49620
gfz2010eruy   0.08500
gfz2010erwn   4.03050
gfz2010eryg  -1.15520
gfz2010esid  -0.32200
gfz2010esmg   0.41150
gfz2010esou   0.05700
gfz2010eted   5.44030
gfz2010etfw   3.91700
gfz2010euae   2.66750
gfz2010euan  -1.33340
gfz2010eugj   1.37850
gfz2010euvl   2.68890
gfz2010euxe  -0.78090
gfz2010evco   3.34580
gfz2010evjv  -0.95360
gfz2010evkd  -0.11400
gfz2010ewvc  -4.42150
gfz2010ewyu   0.82930
gfz2010excp  -2.35860
gfz2010exdd   0.27410
gfz2010exel   1.45300
gfz2010exfb   1.00390
gfz2010exgb   2.57250
gfz2010exhd  -2.28750
gfz2010exhw  -5.44080
gfz2010exjw  -2.27870
gfz2010exno  -2.87990
gfz2010exou  -5.96070
gfz2010exsg  -1.12590
gfz2010exyp   3.43110
gfz2010eyaz   1.14820
gfz2010eyhh   1.26290
gfz2010eyiv  -1.89020
gfz2010eymx  -4.32910
gfz2010eyqe  -2.40830
gfz2010eyvq  -2.34760
gfz2010eyxe  -0.56820
gfz2010ezck  -4.01570
gfz2010ezuj  -1.81400
gfz2010ezvt   3.64660
gfz2010fczt   0.26080
gfz2010fdxr   0.14870
gfz2010fedq   3.49680
gfz2010fexw  -9.38500
gfz2010ffhq   0.93290
gfz2010ffjb   0.02110
gfz2010ffui  -0.04330
gfz2010fhbl   1.36310
gfz2010fihj   0.11700
gfz2010fika   0.20190
gfz2010fisf   0.09160
gfz2010fixr   3.63800
gfz2010fjal   7.53090
gfz2010fjas   0.27130
gfz2010fjmu   0.99430
gfz2010fkhd  -0.09210
gfz2010fknh   1.72920
gfz2010fkvg   7.89140
gfz2010flha   2.52790
gfz2010flkj   0.70880
gfz2010flrt  -1.37160
gfz2010flxi   2.00850
gfz2010fmhb   5.18720
gfz2010fmpy   3.62580
gfz2010fmwb   3.39570
gfz2010fnrk   0.45640
gfz2010fpqy   2.86930
gfz2010fqdu  -2.65500
gfz2010fqtj   1.03100
gfz2010fser   1.39420
gfz2010fsth   0.54860
gfz2010ftlm  -1.10950
gfz2010ftsx   0.25510
gfz2010fupn   0.31160
gfz2010fuuy   1.03690
gfz2010fuwa   0.96260
gfz2010fwkk   1.45720
gfz2010fwlb  -0.39690
gfz2010fwny  -2.04800
gfz2010fwpv   0.85960
gfz2010fwzd  -1.09320
gfz2010fyen  -0.02090
gfz2010fzsg  -2.49350
gfz2010gcrl   4.94060
gfz2010gdch   2.51460
gfz2010gdld   1.35820
gfz2010ghyk   0.05460
gfz2010ginm   0.35560
gfz2010gjvo  -2.98600
gfz2010glqr   3.73030
gfz2010glxl  -1.16530
gfz2010govu   0.48160
gfz2010grjd  -0.34330
gfz2010grss  -0.24770
gfz2010gslu   1.75940
gfz2010gtqs  -1.76850
gfz2010gtzt  -0.43780
gfz2010gvya  -1.08610
gfz2010gwmp  -0.11350
gfz2010gyqp   1.86490
gfz2010gzxr   2.84180
gfz2010hbka  -1.98350
gfz2010hcio  -1.65310
gfz2010hevz   1.00740
gfz2010hgld  -0.00000
gfz2010hjoc   0.35620
gfz2010hllj   0.72220
gfz2010hlln   0.42550
gfz2010hlmq   0.25730
gfz2010hlvr   0.44410
gfz2010hmhm   1.36920
gfz2010hndk  -0.43190
gfz2010hnnf   0.46010
gfz2010hnpi   0.34460
gfz2010hnzr   1.27040
gfz2010hptz  -0.92630
gfz2010hrkr  -1.73610
gfz2010htdq  -2.97910
gfz2010hufk  -0.44570
gfz2010hxgv   0.96520
gfz2010hxhe  -0.61970
gfz2010hykt  -0.48210
gfz2010hzar   3.87010
gfz2010ibiy   0.43460
gfz2010ibxj  -0.00000
gfz2010iciq  -0.14060
gfz2010icqq  -0.56610
gfz2010iefy  -4.73630
gfz2010ihrq   0.38020
gfz2010iibf   2.49880
gfz2010iimu   5.64690
gfz2010ijtk   0.02150
gfz2010imfv  -5.28040
gfz2010iobp  -1.97260
gfz2010iphd  -3.08050
gfz2010iqep  -0.71850
gfz2010iqfm   4.22900
gfz2010iqnm   0.16510
gfz2010iqus   3.24410
gfz2010irvf   5.12810
gfz2010isrp  -4.38130
gfz2010itpb   2.41080
gfz2010iull  -0.93870
gfz2010izzj  -3.31750
gfz2010jant   0.99900
gfz2010jhie   0.44820
gfz2010jipf  -2.04920
gfz2010jitt  -0.45230
gfz2010jkxj  -0.18020
gfz2010jlhj  -0.05840
gfz2010jpss  -1.48340
gfz2010jsuh  -1.55070
gfz2010jucj   0.84350
gfz2010jwpy   6.05000
gfz2010jxbm  -2.26510
gfz2010jygz  -0.17200
gfz2010kcoo  -0.49850
gfz2010kdyc   1.12500
gfz2010kihf  -0.88150
gfz2010kmgg   1.84280
gfz2010kmsv  -2.70250
gfz2010kown   3.00120
gfz2010kqyh  -0.47200
gfz2010kraw  -0.04250
gfz2010kyen  -0.44400
gfz2010lcoq  -4.47610
gfz2010lczp  -2.44610
gfz2010lepw  -1.38920
gfz2010lfju  -0.05750
gfz2010lgwy   0.95520
gfz2010lkcf  -0.28350
gfz2010lluj  -1.01600
gfz2010lrlk   4.65900
gfz2010lsft  -0.09740
gfz2010lwuq  -0.90640
gfz2010mant  -1.84530
gfz2010mbje   0.42560
gfz2010mdpq  -0.18620
gfz2010mgss   0.86250
gfz2010mhjt  -0.61260
gfz2010mipi   1.05800
gfz2010miqn  -2.76610
gfz2010mkuu  -3.09390
gfz2010mncc   1.18210
gfz2010mnsz  -0.02080
gfz2010moyw   1.40570
gfz2010mpuy  -0.37350
gfz2010msjj   0.48040
gfz2010muca   3.51300
gfz2010mwdq   1.06770
gfz2010mzjr  -0.10530
gfz2010ncrl   1.92650
gfz2010ndxl   0.05250
gfz2010nfsj  -0.95580
gfz2010nlkh  -4.05420
gfz2010nmpc  -0.74310
gfz2010nqwf   0.45010
gfz2010nqwo   2.41420
gfz2010nrjo  -0.59420
gfz2010nsck  -3.27670
gfz2010nsdf   1.41970
gfz2010ntuo  -2.57420
gfz2010nubk   0.02170
gfz2010nwef   3.13850
gfz2010nxsy   0.73070
gfz2010nxum   3.12880
gfz2010nzha   8.68920
gfz2010nzla  -0.43820
gfz2010ocxq   0.25000
gfz2010odpb   1.02600
gfz2010oedn  -0.84520
gfz2010okdm  -0.21970
gfz2010oluw  -0.23650
gfz2010omla   0.40250
gfz2010onma  -0.00000
gfz2010osjs  -0.42320
gfz2010osqo  -0.05930
gfz2010otbn  -0.57560
gfz2010oyqy   0.00000
gfz2010pbdz  -1.14860
gfz2010pcxi  -0.64500
gfz2010pdtk   1.01600
gfz2010pets  -0.12920
gfz2010pewx   2.32650
gfz2010pexf   1.07190
gfz2010pfyu  -0.58560
gfz2010phvg  -0.34420
gfz2010pmqd   0.12570
gfz2010pqck   0.44390
gfz2010pxak  -0.75390
gfz2010pxgh   2.07850
gfz2010pxls   1.52980
gfz2010qbng  -0.03250
gfz2010qitd   2.72550
gfz2010qjst   1.64430
gfz2010qkat   0.03750
gfz2010qpcq  -1.28010
gfz2010qpum  -0.03820
gfz2010qpvi   0.08840
gfz2010qttw  -0.04180
gfz2010qwwx   0.80420
gfz2010rkfp  -0.92070
gfz2010rlbv   5.25830
gfz2010rqwj   1.99610
gfz2010rxjw   2.02140
gfz2010rywq  -1.70830
gfz2010sfee  -0.30650
gfz2010sfla   3.20860
gfz2010sgzk   0.41280
gfz2010skqo   1.77030
gfz2010skve  -2.39190
gfz2010srdb   1.01760
gfz2010svtn   1.75770
gfz2010svve   0.18600
gfz2010swcy  -0.13090
gfz2010sxwt   1.51290
gfz2010sysw  -3.19180
gfz2010szde   7.37400
gfz2010szim   0.27070
gfz2010tcbr   0.70450
gfz2010tcrl   2.02250
gfz2010titk  -0.11800
gfz2010tlfm   2.37810
gfz2010truw  -1.24210
gfz2010txjs  -0.47580
gfz2010uept  -0.02370
gfz2010uouo   0.15740
gfz2010upfb  -0.05500
gfz2010urlq  -1.03640
gfz2010usho  -4.40710
gfz2010ustq   0.72370
gfz2010utcg  -0.15900
gfz2010utmc   2.60120
gfz2010uvhf   0.08420
gfz2010uyhb  -0.12470
gfz2010uzon   0.07090
gfz2010vbmd  -0.16150
gfz2010veri  -1.16080
gfz2010vhuj   2.97860
gfz2010vppc   0.22950
gfz2010vtdg  -1.11020
gfz2010vxvs  -0.59490
gfz2010vzzz   0.24000
gfz2010wioh   1.14620
gfz2010wnty  -0.45290
gfz2010wntz  -1.67880
gfz2010wofs  -3.17210
gfz2010wrxx   1.68270
gfz2010xgfc   0.03840
gfz2010xgzw  -2.26830
gfz2010xjck  -1.10760
gfz2010xjsj   1.86100
gfz2010xmpr   1.04000
gfz2010xnxk   0.00000
gfz2010xxdb  -0.31050
gfz2010xxzn   2.13310
gfz2010yfsv   0.96030
gfz2010yjev   7.20420
gfz2010ymfy  -0.06950
gfz2010ymur  -0.72260
gfz2010yosr  -0.07730
gfz2010yoyx  -0.38560
gfz2010yqqb   0.02880
gfz2010yqqv   0.61410
gfz2010yqwx  -3.06770
gfz2010yzgq  -0.00000
gfz2010zdpo   0.22320
gfz2010zeeh  -1.06610
gfz2011aatr   0.73940
gfz2011adjs   1.34920
gfz2011adlj   0.56150
gfz2011adpw   1.44830
gfz2011adqk  -0.96800
gfz2011ahfw  -0.58030
gfz2011alip   0.56340
gfz2011alsa   6.68760
gfz2011alwf  -0.91060
gfz2011anur   0.74380
gfz2011aosc   3.14330
gfz2011aqxf   1.86250
gfz2011asru  10.92540
gfz2011bgrp  -0.14360
gfz2011bhha  -0.52880
gfz2011blsi  -3.58660
gfz2011bnzn  -0.40450
gfz2011bpkd  -2.08710
gfz2011bswz   0.05010
gfz2011ccpw  -2.11360
gfz2011cfae  -0.31270
gfz2011cndo   1.42680
gfz2011coxh  -0.05140
gfz2011crdy  -0.26540
gfz2011csju   2.54390
gfz2011ctbn  -1.17600
gfz2011cvcg  -0.60140
gfz2011cvfg   1.23000
gfz2011cwgn  -1.69100
gfz2011cykd   1.72020
gfz2011cylz   0.90540
gfz2011cynl  -2.71950
gfz2011hvbu   0.69310
gfz2011icxe   0.07410
gfz2011ieie   2.03990
gfz2011ixai   0.06300
gfz2011izqa   1.81230
gfz2011jbbc   1.40000
gfz2011jdsj  -0.27180
gfz2011jghb   1.12530
gfz2011jmbn   0.31480
gfz2011jnmi   0.30390
gfz2011jplh   0.06310
gfz2011juid   0.18610
gfz2011jxpl  -0.08610
gfz2011knbi   1.78070
gfz2011knoo   0.02620
gfz2011kqwo  -2.31410
gfz2011kqyg   0.77410
gfz2011ksiu   0.36030
gfz2011kweu   0.41430
gfz2011kwhq  -1.49990
gfz2011kwid  -0.14400
gfz2011kwiy   0.83150
gfz2011kwjx  -0.63130
gfz2011kwkw  -0.88730
gfz2011kwld  -1.56170
gfz2011kwlq  -0.03710
gfz2011kwni  -0.28700
gfz2011kwnu   0.65730
gfz2011kwqc   0.69410
gfz2011kwrf  -2.00850
gfz2011kwsz  -1.29490
gfz2011kxzp   0.82340
gfz2011lczg  -0.36300
gfz2011lggq   0.03150
gfz2011lgsg   1.41720
gfz2011lhls  -0.35230
gfz2011lvjr  -0.15270
gfz2011mdie   2.21270
gfz2011mepc   1.96200
gfz2011mjom  -2.35620
gfz2011mllx  -0.15770
gfz2011mlvw   0.34390
gfz2011mpme   2.80420
gfz2011mprq   1.34030
gfz2011nauw   0.32370
gfz2011necz  -0.43660
gfz2011nmnq  -1.19730
gfz2011nmqj   0.26560
gfz2011noud  10.60350
gfz2011nowp   2.25060
gfz2011npgs  -0.76840
gfz2011nqpd   0.62290
gfz2011nrwc  -2.22780
gfz2011nrwv   0.49390
gfz2011nsex  -3.61100
gfz2011ntkh  -2.05490
gfz2011ntrv  -0.21570
gfz2011nudm  -4.31600
gfz2011ogqk   3.67300
gfz2011ohcy  -1.86980
gfz2011oiqe  -0.85750
gfz2011oiwk  -0.79650
gfz2011olkk   1.85060
gfz2011oolr   0.06250
gfz2011orgn   2.09140
gfz2011ornx  -0.28860
gfz2011owvz   0.50190
gfz2011ozsl   2.01950
gfz2011pccd   1.52540
gfz2011pdpt   0.10050
gfz2011pdst  -0.43370
gfz2011phms   9.89650
gfz2011ptus   1.67330
gfz2011qigx  -0.29920
gfz2011qoif   0.64800
gfz2011qvae  -0.40810
gfz2011qyms   0.60780
gfz2011rabm  -0.06470
gfz2011rdby   1.03650
gfz2011rewa   2.77070
gfz2011rgwp  -0.06480
gfz2011rnut  -0.55200
gfz2011rqui   0.00000
gfz2011runa  -0.18750
gfz2011sagt  -0.47190
gfz2011sawg   0.62370
gfz2011shqm   0.66950
gfz2011stal  -2.01210
gfz2011sthv  -0.01480
gfz2011svix  -0.86750
gfz2011syjd   0.40760
gfz2011taps  -1.47010
gfz2011tbas   3.05550
gfz2011tcij  -0.35750
gfz2011tivu   1.82060
gfz2011tjrf  -0.28120
gfz2011tjue  -0.47320
gfz2011tkfp   3.07790
gfz2011tkog   1.02980
gfz2011tnag  -0.62580
gfz2011toub   3.48060
gfz2011tpbl  -0.47850
gfz2011tpfr   1.38910
gfz2011tsfd  -0.84560
gfz2011tsnp  -3.52230
gfz2011tuea   0.62030
gfz2011twov   0.44070
gfz2011udsq   0.85160
gfz2011ueni   6.62790
gfz2011uepx  -1.92450
gfz2011ugzz   4.46550
gfz2011uiul   0.66400
gfz2011ujze   2.20080
gfz2011ukmp   1.89450
gfz2011unkx  -0.32070
gfz2011uphh   1.60100
gfz2011urxy  -1.34310
gfz2011urzu   1.31570
gfz2011uzqv   1.74950
gfz2011vclt   0.98180
gfz2011vhfi   1.98020
gfz2011vkun   0.30210
gfz2011vldk   2.27770
gfz2011vnza   0.50780
gfz2011vqnr   0.42150
gfz2011vrhg   1.24810
gfz2011vusi  -0.05010
gfz2011vxns  -5.60640
gfz2011vxod   1.32160
gfz2011vxxg   7.82620
gfz2011wcic   0.34260
gfz2011wijj  -0.29160
gfz2011wjul   3.49620
gfz2011wtmq   0.21840
gfz2011wvzb  -0.32040
gfz2011wxfs  -1.11170
gfz2011wxoj   0.31600
gfz2011wxtk   1.49560
gfz2011wype   2.69600
gfz2011xaan  -0.21030
gfz2011xcpv   1.34580
gfz2011xesx   0.15000
gfz2011xqru   0.30030
gfz2012priv   0.03990
gfz2012prlt   0.38780
gfz2012pspd   0.48980
gfz2012pygp   0.08040
gfz2012qjhs   0.35630
gfz2012rboy   0.05130
gfz2012rcbq   0.16150
gfz2012rcds  -0.01680
gfz2012rcnj  -0.26590
gfz2012repv   0.82620
gfz2012ronz  -2.05280
gfz2012royy   2.04830
gfz2012rqlg  -0.21510
gfz2012rtqi   0.38560
gfz2012rubi  -0.56060
gfz2012ruks   0.82550
gfz2012rwko   2.54280
gfz2012rwov  -0.59110
gfz2012rypu  -1.81870
gfz2012sfer  -0.69550
gfz2012shtg   1.03730
gfz2012sjea  -2.50500
gfz2012snhi  -5.34660
gfz2012sphd  -0.06080
gfz2012sqmv  -0.04440
gfz2012sqvi  -0.64110
gfz2012ssyn   0.29300
gfz2012svpr  -0.09650
gfz2012syvl  -0.64440
gfz2012szla  -0.04180
gfz2012taou   0.02130
gfz2012tazz  -0.00000
gfz2012thfx  -0.62980
gfz2012tpzx  -0.75560
gfz2012ttoa  -0.69930
gfz2012tyxl   0.50190
gfz2012uaqj  -0.48610
gfz2012uciv  13.41530
gfz2012uqzp   2.42390
gfz2012uvqf   0.02060
gfz2012uxnz   0.99960
gfz2012uyie   0.11700
gfz2012uyxb  -1.04920
gfz2012uzom   1.81980
gfz2012uzyj  -2.90300
gfz2012vceo   2.02390
gfz2012viab  -0.02110
gfz2012vjgl   0.12480
gfz2012vmeh  -0.04120
gfz2012vnbk  -0.47820
gfz2012vntz  -0.60140
gfz2012vpza  -0.08850
gfz2012vsev   0.36820
gfz2012vtxe   0.06820
gfz2012vwvd   0.13160
gfz2012vxvr  -0.31010
gfz2012whku   0.18850
gfz2012wizz   0.36380
gfz2012wklq  -1.09040
gfz2012wmsg   0.08310
gfz2012wpeq   0.75290
gfz2012wqnc   0.05610
gfz2012wtkh  -0.08750
gfz2012wubh   0.06390
gfz2012wvfl  -2.39150
gfz2012wxer  -3.74030
gfz2012wxkg  -0.44010
gfz2012wybs   0.18210
gfz2012wypz  -0.08430
gfz2012xbjq   1.48090
gfz2012xcgk  -0.29110
gfz2012xevt  -0.13360
gfz2012xgqm  -0.02760
gfz2012xhci   0.22070
gfz2012xjyv   1.78080
gfz2012xkkv   1.29700
gfz2012xpmm   0.25880
gfz2012xslk  -0.12150
gfz2012xssa  -0.26150
gfz2012xvwn   0.06080
gfz2012xwqa  -1.79660
gfz2012xyqp   0.02820
gfz2012xyua   0.16120
gfz2012yoie   0.78530
gfz2012yqjj   0.54270
gfz2012yxxu  -0.29630
gfz2012yzod   0.44740
gfz2012zemz  -2.50210
gfz2012zfag   0.45290
gfz2012zhmb  -0.03380
gfz2012ziml   0.57220
gfz2012zitl   1.22470
gfz2012zjpv   2.18590
gfz2012zsqk  -0.41780
gfz2013aahq  -0.30220
gfz2013aayj   0.49730
gfz2013aeee   0.07100
gfz2013akgj   0.30340
gfz2013aknp   0.18520
gfz2013apmm  -0.19640
gfz2013axoj   2.38610
gfz2013azzr  -3.22730
gfz2013bdke  -0.72310
gfz2013bdpu   0.47910
gfz2013biji   0.18670
gfz2013bobq   1.18220
gfz2013bouj   1.93440
gfz2013btjm   1.18590
gfz2013bzlb  -1.06920
gfz2013bzzm  -0.44100
gfz2013cbsm   0.09180
gfz2013ccnr   0.01960
gfz2013ccon   0.60330
gfz2013cdan   0.23970
gfz2013cdfj   0.24910
gfz2013cfyy  -0.29910
gfz2013cnhh  -0.27370
gfz2013cnve  -0.10380
gfz2013comh  -0.18120
gfz2013cvad   0.44050
gfz2013cvqg  -0.08760
gfz2013czeq   0.13380
gfz2013ddbh  -0.65790
gfz2013dddp   0.13020
gfz2013diuf   0.51210
gfz2013dkym  -0.14420
gfz2013dnnx   1.15790
gfz2013dofo   2.98860
gfz2013dojq   0.33520
gfz2013dqls  -0.01660
gfz2013drpk   1.19560
gfz2013drxz   1.81840
gfz2013dujm   0.57400
gfz2013dvye  -0.16610
gfz2013dvyh  -0.29310
gfz2013dyop   0.03470
gfz2013egni   0.12970
gfz2013egpu   1.51060
gfz2013ehwe  -0.00000
gfz2013ekpm   0.38150
gfz2013enbx   1.01040
gfz2013erse   0.00000
gfz2013esnh   0.24960
gfz2013eswe  -0.08640
gfz2013eulz  -1.31060
gfz2013ewbo  -0.16030
gfz2013fcto   0.04260
gfz2013fdoo   1.42670
gfz2013fdwq   0.03210
gfz2013feep  -1.22770
gfz2013ffko  -0.01640
gfz2013fiud   0.33050
gfz2013fkcl  -0.45850
gfz2013flox   0.31920
gfz2013fnzr   0.36320
gfz2013ftso  -0.53720
gfz2013fwxa   1.56410
gfz2013fxge   0.66210
gfz2013fygc  -0.00000
gfz2013gaie  -0.03690
gfz2013gbcn   1.60530
gfz2013gbst  -0.24650
gfz2013gcfx  -2.03350
gfz2013geno   0.17110
gfz2013ggtf   0.43910
gfz2013gihf   0.77830
gfz2013gjdc   0.18490
gfz2013glcr   1.06940
gfz2013gmor  -0.12270
gfz2013gngz   1.68080
gfz2013gnse  -0.75980
gfz2013gock   1.75910
gfz2013govy  -0.00000
gfz2013gras  -0.10200
gfz2013gvdb   0.35180
gfz2013gvet   0.21690
gfz2013gvex  -0.26750
gfz2013gvxh  -1.85940
gfz2013gwrd  -0.55850
gfz2013gxsu  -0.34280
gfz2013hbkh   0.46390
gfz2013hbkq  -0.01740
gfz2013hfmp  -1.27230
gfz2013hisv   0.16450
gfz2013hklr   0.68750
gfz2013hlbe   0.45890
gfz2013hmbc   2.81340
gfz2013hpfq   0.09070
gfz2013hudi   0.35210
gfz2013hxcx   0.68830
gfz2013hydf   0.11730
gfz2013iapa   0.19810
gfz2013icfh   0.35250
gfz2013idbb  -0.32710
gfz2013iexo   1.03210
gfz2013ifpq   0.14250
gfz2013igmx  -0.57880
gfz2013ihcj   0.10220
gfz2013inux   0.52640
gfz2013iodt  -1.34240
gfz2013iopd  -0.03860
gfz2013ippu   0.46590
gfz2013iqzq   1.31820
gfz2013itsu  -0.22300
gfz2013iunn   0.93210
gfz2013iynu  -0.35720
gfz2013iyqz   0.10760
gfz2013jarl   1.16110
gfz2013jdrx  -0.44580
gfz2013jesk   2.59470
gfz2013jfah  -0.37110
gfz2013jgij   0.33140
gfz2013jgip   4.29360
gfz2013jjsi   0.15280
gfz2013jkut  -1.41430
gfz2013jlst   1.88560
gfz2013jmcc  -0.14260
gfz2013jphq  -0.09310
gfz2013json  -0.51980
gfz2013jusj   1.22580
gfz2013jwcn  -0.12070
gfz2013jxoi   0.67870
gfz2013kdeo  -2.68340
gfz2013kgmj   0.27670
gfz2013kheb   0.79060
gfz2013khli   1.31950
gfz2013kilx   0.64220
gfz2013kkzr   0.93560
gfz2013krei   2.10370
gfz2013kweg   1.05810
gfz2013kwps   0.55670
gfz2013lajg   0.05610
gfz2013lajn  -3.81490
gfz2013lbiu   1.23970
gfz2013ldos  -0.52580
gfz2013ldpc  -0.43570
gfz2013ldqb   2.49450
gfz2013lgbb   0.69000
gfz2013lgxc   1.54250
gfz2013lixa   0.19510
gfz2013lljw  -0.26640
gfz2013lmdy  -0.95120
gfz2013lmrs   0.63040
gfz2013lsob  -2.33620
gfz2013lupg   0.34840
gfz2013lwao   3.05260
gfz2013lwbk   0.99620
gfz2013lyko   1.83010
gfz2013lznu   0.54360
gfz2013malg  -0.01800
gfz2013mded  -0.31670
gfz2013mghe   0.33740
gfz2013mmlw  -0.14340
gfz2013mnei   2.99720
gfz2013mnju  -2.04570
gfz2013mqmv  -3.57220
gfz2013mtqd  -0.33370
gfz2013mvgr   0.71900
gfz2013mxee   0.48100
gfz2013mzwe   2.25740
gfz2013nabl   0.43430
gfz2013ncjp   1.45570
gfz2013nedo   0.21710
gfz2013neuc   2.46380
gfz2013nfwx   0.81520
gfz2013nhjb   1.54930
gfz2013njnd  -0.20210
gfz2013nkgj  -0.73510
gfz2013nknw  -0.90170
gfz2013nojf   0.28610
gfz2013npcg   3.22200
gfz2013nppd   0.56940
gfz2013nskg  -0.05080
gfz2013nttq   0.18620
gfz2013nuor   0.71830
gfz2013nvdj  -3.61340
gfz2013nwdi  -0.40900
gfz2013oejn   0.37570
gfz2013ofls   0.24810
gfz2013ogde   4.09420
gfz2013oifr  -0.78510
gfz2013oilg  -0.05870
gfz2013oinc  -2.36220
gfz2013oksi   1.32090
gfz2013ornz  -0.60580
gfz2013ouvt  -0.19820
gfz2013ozku   0.13010
gfz2013oznn  -0.80510
gfz2013ozqm  -0.85820
gfz2013ozrf  -0.12850
gfz2013ozrp   0.02110
gfz2013pakq   0.08620
gfz2013pcos  -0.02050
gfz2013pfbx  -0.46490
gfz2013pffm  -0.35180
gfz2013pfnf  -0.66230
gfz2013phef  -1.45330
gfz2013phmp   0.22690
gfz2013pigb  -0.06220
gfz2013piye   0.03430
gfz2013pkbs   0.59090
gfz2013plhp   1.57910
gfz2013pndn   0.34640
gfz2013poxj   1.06190
gfz2013pqui  -1.01430
gfz2013puag  -2.63190
gfz2013pupd  -0.76500
gfz2013pxsj  -1.45440
gfz2013pxya   1.56380
gfz2013qali  -0.58140
gfz2013qfmm   1.30350
gfz2013qfsq   0.05280
gfz2013qidm   0.02680
gfz2013qjmk  -0.41250
gfz2013qmer  -0.06350
gfz2013qnxc   2.27930
gfz2013qqrr  -0.00000
gfz2013qvcr  -0.11260
gfz2013rdoo   1.17360
gfz2013reav   0.21600
gfz2013rjsx   0.03480
gfz2013rklb   0.13910
gfz2013roki  -0.02030
gfz2013rqcy   0.37940
gfz2013rqmp  -0.28570
gfz2013rvsm   0.32370
gfz2013rwfe   2.25740
gfz2013ryxm  -0.05530
gfz2013sart   0.67250
gfz2013scub   0.25220
gfz2013sdus  -0.55460
gfz2013sebq   0.79360
gfz2013sfto   0.92700
gfz2013shlq   2.57230
gfz2013shzy   1.63590
gfz2013sllq   0.13840
gfz2013snbr   0.28010
gfz2013snyf   1.11420
gfz2013sqkb  -0.20810
gfz2013stcu   0.38900
gfz2013suln  -0.63460
gfz2013suvn  -1.24980
gfz2013svci   0.01810
gfz2013svqv  -0.01660
gfz2013sxbw   0.52830
gfz2013syqk  -0.19880
gfz2013tbzy   0.25320
gfz2013tcxc   2.80030
gfz2013tdkk  -0.01230
gfz2013tect  -0.75020
gfz2013thtc   0.31640
gfz2013tjlx   0.31000
gfz2013toea   0.70130
gfz2013toxf  -1.38650
gfz2013tpeb   2.45750
gfz2013tqbb   0.37480
gfz2013ttoz   0.54550
gfz2013tusd   0.21300
gfz2013tuzv   0.01400
gfz2013tvmw   0.24940
gfz2013twwf  -1.94980
gfz2013tyas   5.93810
gfz2013uauo  -0.22830
gfz2013ufku  -1.59730
gfz2013ufxk   0.08340
gfz2013ugax   1.18490
gfz2013uhlm   0.80680
gfz2013umya   1.15420
gfz2013upcc   0.01270
gfz2013upee   0.06350
gfz2013upiv   0.31380
gfz2013uqvu   0.20700
gfz2013utsh   1.46130
gfz2013uysr  -0.30220
gfz2013vcoa   0.13580
gfz2013vdic   0.21460
gfz2013vefs   1.40250
gfz2013vfyw  -0.12670
gfz2013vfzp   2.54490
gfz2013vgev   0.21550
gfz2013vgrk  -0.01230
gfz2013vhsb   1.07370
gfz2013vhzu   1.22850
gfz2013vijl  -0.25600
gfz2013viul   1.99540
gfz2013vjjc   0.59190
gfz2013vjod   0.24170
gfz2013vlth   0.35320
gfz2013vmro   0.51270
gfz2013vnfj   0.59130
gfz2013vpnf  -0.04780
gfz2013vqot  -1.10390
gfz2013vrmy   0.02540
gfz2013vsxi   1.28420
gfz2013vthd  -0.99590
gfz2013vuja  -0.06790
gfz2013vxta   0.39200
gfz2013vzbo   0.19210
gfz2013walq   0.06170
gfz2013wbyr   1.29100
gfz2013wgeu  -0.02120
gfz2013wjmm   3.67440
gfz2013wnql   0.04800
gfz2013woze   0.48280
gfz2013wpga   0.14020
gfz2013wqhq  -0.23520
gfz2013wrgw   0.19570
gfz2013wtzl   1.78320
gfz2013wuml   0.21130
gfz2013wuon   0.39990
gfz2013wwii  -1.66860
gfz2013xatc  -0.58180
gfz2013xcmp   0.05260
gfz2013xgek  -0.39520
gfz2013xgmp   0.65410
gfz2013xkbh  -0.13840
gfz2013xklb   0.28060
gfz2013xkwt   1.00250
gfz2013xmqg   0.89540
gfz2013xmul   2.14020
gfz2013xpfa   0.40850
gfz2013xpsm   0.36320
gfz2013xqnn  -0.03400
gfz2013xsdt   3.33630
gfz2013xtwj   1.28230
gfz2013xvyl  -0.06790
gfz2013xwda  -3.24230
gfz2013xwxn   0.14860
gfz2013xwzd   1.00840
gfz2013xxcc  -0.97920
gfz2013xyzb  -0.10640
gfz2013xzcg  -0.07310
gfz2013yach   1.14000
gfz2013yaig  -1.06390
gfz2013yewz   0.42430
gfz2013yghj   0.08180
gfz2013yhbu   0.40690
gfz2013yhpk   0.38290
gfz2013yixl  -0.01730
gfz2013ylbx   1.03000
gfz2013ymky  -0.13220
gfz2013ymxs   0.50970
gfz2013ynmw   0.49410
gfz2013ypdc  -0.67400
gfz2013yqkv   0.72000
gfz2013yulx   2.11310
gfz2013yzte   0.63960
gfz2013zaxb  -1.22200
gfz2013zfhu   3.82860
gfz2013ziyr   2.58620
gfz2013zjtw   0.00000
gfz2013zmtb  -1.87860
gfz2014aawc   0.38010
gfz2014abgd  -0.18050
gfz2014adjs  -0.47990
gfz2014afmx  -1.14160
gfz2014agde   0.03490
gfz2014agrl  -0.03730
gfz2014agyz   0.01650
gfz2014ajlk  -0.58200
gfz2014ajtf   0.25220
gfz2014algk   0.27650
gfz2014alwz   1.12320
gfz2014amsb   1.02600
gfz2014ared   0.61220
gfz2014arnc  -0.03050
gfz2014arpf   2.21600
gfz2014atgw   1.11170
gfz2014azqs   0.49460
gfz2014bagd  -1.41750
gfz2014bbro   0.29710
gfz2014bcae  -0.06580
gfz2014bdfd  -0.84890
gfz2014bekc   0.08220
gfz2014bezu   1.13980
gfz2014bfqo   0.64050
gfz2014bhhv   1.78030
gfz2014bhvd   1.28760
gfz2014bjgt   1.89800
gfz2014bjsy   0.44880
gfz2014bldx  -0.44000
gfz2014bmdh   0.73030
gfz2014bmta  -0.03790
gfz2014bolf  -0.06370
gfz2014bwue  -0.41130
gfz2014bzna  -0.10120
gfz2014bztt  -0.37350
gfz2014bzxy  -0.16750
gfz2014caop  -0.68570
gfz2014capn   0.11260
gfz2014cbtl  -3.34730
gfz2014ccbz   0.31600
gfz2014cgog  -0.12970
gfz2014clnj   1.21580
gfz2014clnq   0.89590
gfz2014cmwb   0.43690
gfz2014crpy   0.56280
gfz2014ctot  -0.99670
gfz2014cueu   0.38570
gfz2014cvxx  -0.46510
gfz2014cybg   0.56510
gfz2014czno  -1.14970
gfz2014czqi   0.10260
gfz2014czua   2.75300
gfz2014dbdf  -0.42040
gfz2014dbyx   1.85960
gfz2014dcdy  -0.56100
gfz2014dddc   0.14490
gfz2014dgiy   0.31810
gfz2014disp   2.45970
gfz2014dlri  -0.11170
gfz2014dofa  -0.23570
gfz2014dpzx   2.79830
gfz2014duqn   0.58860
gfz2014eage  -0.13460
gfz2014ebmc  -2.66210
gfz2014efkk   0.98090
gfz2014eght   1.89410
gfz2014egwu   0.28120
gfz2014ehfp   1.36700
gfz2014ejvf   0.39870
gfz2014ekdt  -1.56100
gfz2014emrg  -0.63800
gfz2014emzb  -0.71340
gfz2014eqpl   1.15920
gfz2014erbj   0.01480
gfz2014ettc   1.45790
gfz2014ewcz  -0.85420
gfz2014ewrw   0.54870
gfz2014exxa   2.14800
gfz2014ezgb  -0.06720
gfz2014fcms  -3.28260
gfz2014fcsy   0.91280
gfz2014fedd  -0.27100
gfz2014fexu   1.03500
gfz2014ffdc   0.68760
gfz2014fgvi  -0.32980
gfz2014fgwt   1.01000
gfz2014fgxt   0.57320
gfz2014fgxz  -0.05450
gfz2014fgyo  -0.20600
gfz2014fgza   0.61810
gfz2014fhbd   0.03730
gfz2014fhdw  -0.33060
gfz2014fhgb   0.78550
gfz2014fhhp   0.98330
gfz2014fhjd  -0.13950
gfz2014fhla  -0.44930
gfz2014fhqk   0.07720
gfz2014fhrq   0.15120
gfz2014fhsg   0.61470
gfz2014fhwx   0.19400
gfz2014fhxm   0.23400
gfz2014fhyb   2.32510
gfz2014fimn  -0.29270
gfz2014fiuj   0.32500
gfz2014fiwq   0.48450
gfz2014fjdz   1.04970
gfz2014fjpb   0.16590
gfz2014fjxd   0.54210
gfz2014fjyo   1.33620
gfz2014fjzd  -0.90220
gfz2014fjzw   1.17790
gfz2014fkmr  -0.40140
gfz2014fles   0.29160
gfz2014flfa   1.55770
gfz2014fnbh   0.29750
gfz2014fnyg   1.93930
gfz2014fqpz   0.05700
gfz2014frdz  -0.11610
gfz2014frel  -0.74360
gfz2014frez  -0.45650
gfz2014frgm   0.16750
gfz2014frjr   0.95200
gfz2014frnb   1.34070
gfz2014frwh  -0.75460
gfz2014fstx   0.92230
gfz2014fsuh   0.32690
gfz2014fszc   0.18570
gfz2014ftgx   0.04710
gfz2014ftka  -1.15220
gfz2014ftvc  -1.08950
gfz2014furx  -0.73590
gfz2014fusj  -0.28940
gfz2014fusu   0.05700
gfz2014fuup   0.90150
gfz2014fuvk   0.17920
gfz2014fuzi   0.11430
gfz2014fvaa   1.44010
gfz2014fval   0.42380
gfz2014fvdx   2.36240
gfz2014fvgh  -0.20010
gfz2014fvhp   0.01670
gfz2014fvjl   0.02990
gfz2014fvpy  -0.06280
gfz2014fvrg   0.48480
gfz2014fvve  -0.13100
gfz2014fwdr   0.16790
gfz2014fwtt  -0.36240
gfz2014fwyr   0.66830
gfz2014fxpu   0.29420
gfz2014fyfr   1.46380
gfz2014fzgx   1.23260
gfz2014gbcz   1.64740
gfz2014gbdq   0.49260
gfz2014gbjf   0.80760
gfz2014gcza   0.77240
gfz2014gdsq   0.89950
gfz2014geuy  -0.51950
gfz2014gezs   0.48380
gfz2014gfdj   0.21830
gfz2014ggsr  -0.20480
gfz2014ghpe  -1.68200
gfz2014gilf  -0.06670
gfz2014gkgf  -0.26130
gfz2014gkjt  -0.93270
gfz2014gkjy  -0.02590
gfz2014gkln  -0.00000
gfz2014gklq  -0.04720
gfz2014gklv  -0.51770
gfz2014gkmm  -1.59520
gfz2014gkmw   0.03680
gfz2014gkok   0.30400
gfz2014gkpd   0.18660
gfz2014gkpj  -0.36830
gfz2014gkqf   1.19150
gfz2014gkqu  -0.18600
gfz2014gksj  -0.29190
gfz2014gksu  -0.44290
gfz2014gktn   0.07810
gfz2014gktq  -0.13200
gfz2014gkut   0.39410
gfz2014gkvk   0.19460
gfz2014gkxm  -0.35930
gfz2014glcu  -0.55720
gfz2014glfn   0.20180
gfz2014glgo   1.66240
gfz2014glhs  -0.27640
gfz2014glov   0.56090
gfz2014glsh   0.54700
gfz2014gltx  -0.69650
gfz2014glvn   0.80250
gfz2014glvu   2.24550
gfz2014glxd  -0.03950
gfz2014glxy  -0.52930
gfz2014gmci  -0.59300
gfz2014gmes   0.08990
gfz2014gmge   2.21470
gfz2014gmhp   0.30020
gfz2014gmhr   0.10990
gfz2014gmic   0.28340
gfz2014gmip  -0.69370
gfz2014gmjo  -0.38660
gfz2014gmku   0.02070
gfz2014gmlz   0.01800
gfz2014gmmt   0.09190
gfz2014gmnb   0.30880
gfz2014gmnw   0.03680
gfz2014gmor   0.62780
gfz2014gmpy   0.18910
gfz2014gmtb  -0.18640
gfz2014gmtj   0.14470
gfz2014gmto  -0.00000
gfz2014gmuk  -0.47100
gfz2014gmuw   2.08460
gfz2014gmvr  -0.30370
gfz2014gmzl   0.36570
gfz2014gmzs   0.06100
gfz2014gndq   0.56840
gfz2014gnfd   0.50200
gfz2014gnfs   0.64110
gfz2014gngg  -0.35530
gfz2014gnhk   0.99030
gfz2014gnig   0.25380
gfz2014gnmp  -0.03800
gfz2014gnmx   0.12470
gfz2014gnno   0.19420
gfz2014gnnt   0.18980
gfz2014gnom  -0.04050
gfz2014gnoz   0.03740
gfz2014gnqt  -0.27470
gfz2014gnre   0.03610
gfz2014gnsi   0.98310
gfz2014gntd  -0.30000
gfz2014gnvw   0.73100
gfz2014gnwg   1.12140
gfz2014gnxb   0.02140
gfz2014goba   0.74220
gfz2014goei   0.21440
gfz2014gogv   0.43590
gfz2014gohm   0.95340
gfz2014golz   1.22130
gfz2014gono   0.90520
gfz2014goqw  -0.29600
gfz2014goyx   0.16060
gfz2014gpac   0.83650
gfz2014gpam  -0.00000
gfz2014gpbx   0.14550
gfz2014gpce  -0.04170
gfz2014gpdo   0.02370
gfz2014gpgd   1.32660
gfz2014gphr  -0.42360
gfz2014gpmm  -0.18530
gfz2014gpnf   0.72950
gfz2014gpqq   0.84760
gfz2014gpuk   0.41110
gfz2014gpvk   0.49760
gfz2014gpxl   0.43730
gfz2014gqbj  -0.20650
gfz2014gqco   0.53050
gfz2014gqed   0.36790
gfz2014gqer   2.43050
gfz2014gqgf   0.46190
gfz2014gqiy   0.65630
gfz2014gqjr  -0.00000
gfz2014gqqz   0.62850
gfz2014gqro   0.12260
gfz2014gqve   0.02160
gfz2014grcv  -0.31280
gfz2014grgn   0.45690
gfz2014grho   1.06720
gfz2014gsgv   0.11490
gfz2014gsjg   0.65030
gfz2014gsqs   0.23820
gfz2014gtef   0.54320
gfz2014gtlu  -0.34750
gfz2014gtrb   0.19940
gfz2014gtwz   0.13410
gfz2014gufl   0.01410
gfz2014gull   0.10300
gfz2014gulp  -1.65520
gfz2014gumd   0.52190
gfz2014gutm   1.53630
gfz2014gvhw   1.66590
gfz2014gvqj   0.82150
gfz2014gvra   0.37200
gfz2014gvrd   0.25500
gfz2014gwab   0.17060
gfz2014gwqj  -0.21750
gfz2014gxag   0.30560
gfz2014gxkh   0.27550
gfz2014gxqu   1.03560
gfz2014gxqx  -0.01560
gfz2014gxvf   1.80380
gfz2014gxxh   1.13470
gfz2014gxxo  -0.12380
gfz2014gyxd   0.14220
gfz2014gzrm  -0.92990
gfz2014gzue   0.08090
gfz2014haey   0.10490
gfz2014hcmj  -0.06590
gfz2014hcns   0.03650
gfz2014hetr   0.29840
gfz2014heum   0.48450
gfz2014heyq   0.03740
gfz2014hfad   0.08760
gfz2014hfhl  -0.56680
gfz2014hfzf   0.42950
gfz2014hgqo  -0.81140
gfz2014hhfs   0.26700
gfz2014hhwx  -0.62780
gfz2014hifp  -0.10830
gfz2014hiih   2.11450
gfz2014hiiz   0.60610
gfz2014hjgh   0.70860
gfz2014hjgo  -0.06800
gfz2014hjgr  -0.34690
gfz2014hjhu   1.19740
gfz2014hjij  -0.41060
gfz2014hjlx   0.02140
gfz2014hkcf  -0.49430
gfz2014hkck  -0.45490
gfz2014hlib   0.40850
gfz2014hmgf   0.28630
gfz2014hmrs  -0.14050
gfz2014hmvx  -0.14270
gfz2014hnfm   0.29880
gfz2014hoap  -0.20620
gfz2014hocg   0.31190
gfz2014hphw  -0.26570
gfz2014hppw  -0.03410
gfz2014hpqz   1.03480
gfz2014hqxs   0.35990
gfz2014hqyx   0.58330
gfz2014hrft  -0.70220
gfz2014hriu   0.29740
gfz2014hrtn   0.51460
gfz2014hscz  -0.68100
gfz2014hsqo   0.41090
gfz2014hssr   0.45070
gfz2014huaj  -0.29790
gfz2014hugz   0.08580
gfz2014hvdm   1.44440
gfz2014hwan   0.15540
gfz2014hwwi   0.87980
gfz2014hyal   2.11100
gfz2014hymr   0.01780
gfz2014hyvq  -0.33610
gfz2014hzdy  -0.48420
gfz2014hzfr   0.68810
gfz2014hzgn   0.16480
gfz2014hzht   0.32590
gfz2014hzig   1.17440
gfz2014hzze   0.24730
gfz2014iani   0.43470
gfz2014ieam  -1.43050
gfz2014ieho   1.22160
gfz2014ifue  -0.54220
gfz2014ifzj   0.01940
gfz2014igsj   0.61900
gfz2014igur   0.32240
gfz2014ijvh  -0.11880
gfz2014ikbk   0.19520
gfz2014ikun  -0.15280
gfz2014ikvd   0.58320
gfz2014ilwu  -0.03800
gfz2014imap   0.41060
gfz2014immt   0.14190
gfz2014imnn   0.10450
gfz2014inbj   0.68190
gfz2014iobd  -0.13740
gfz2014iqzj   0.96350
gfz2014irci  -0.17270
gfz2014ircq   1.53890
gfz2014irrg   0.28450
gfz2014isdq   1.03830
gfz2014isff   0.23180
gfz2014issk   0.88360
gfz2014isub  -0.24750
gfz2014itab   0.10670
gfz2014itbe   0.20900
gfz2014itbu   0.85890
gfz2014itfc   0.09910
gfz2014itgh  -0.68510
gfz2014itjx  -0.72420
gfz2014itkw  -0.64780
gfz2014itpj   0.22450
gfz2014iuhq  -0.49580
gfz2014ivep  -0.02520
gfz2014jagg   0.61540
gfz2014jass   0.18120
gfz2014jcmt  -0.25510
gfz2014jesb  -0.15630
gfz2014jfis  -0.79200
gfz2014jhra  -0.58720
gfz2014jipr   0.93560
gfz2014jird   0.03720
gfz2014jjhc   0.79690
gfz2014jjkh  -0.45260
gfz2014jjln  -2.55450
gfz2014jjqk  -0.33200
gfz2014jmnk   0.94160
gfz2014jnyv   1.65780
gfz2014jomw   0.84880
gfz2014jpep   0.23090
gfz2014jpez   0.70590
gfz2014jpfn   0.32360
gfz2014jpgu   0.45840
gfz2014jpxs   0.92370
gfz2014jtcz  -1.38290
gfz2014jtfe  -0.85100
gfz2014jvow  -0.53690
gfz2014jwmh  -0.21100
gfz2014jysj   0.71390
gfz2014kara  -2.55290
gfz2014kbuk  -1.27190
gfz2014kbwm  -2.37760
gfz2014khan   0.30390
gfz2014kitm  -0.11280
gfz2014kizt  -2.00320
gfz2014kjee  -0.65490
gfz2014kjzb  -0.04080
gfz2014kkhh   0.07540
gfz2014kmmt   2.11100
gfz2014kndc  -0.16570
gfz2014knxs  -3.30830
gfz2014krlg   0.31520
gfz2014kscf  -0.05890
gfz2014ksmz  -0.10980
gfz2014kssw  -0.15680
gfz2014kwie   0.88440
gfz2014kwrg  -0.68690
gfz2014kwwg   0.68830
gfz2014kxqf  -0.00000
gfz2014kyan   1.63640
gfz2014kytf   0.28760
gfz2014kzzm  -1.71860
gfz2014lbcq  -3.23460
gfz2014lbxn  -0.12030
gfz2014lchy   0.76010
gfz2014lddn   2.39820
gfz2014lehw  -0.05430
gfz2014lgqn  -0.68860
gfz2014lhqn  -0.91870
gfz2014ljbr  -0.43800
gfz2014lkyf  -0.49770
gfz2014lnmw   0.30310
gfz2014lpfc   0.23980
gfz2014lpim   0.81340
gfz2014lrzx   0.51390
gfz2014lvgn   0.67120
gfz2014lwom   0.36020
gfz2014lwvb   0.21050
gfz2014lxnc  -0.75630
gfz2014lxqr   0.27780
gfz2014lyhk   0.44830
gfz2014lyhp  -0.76380
gfz2014lzal   0.42850
gfz2014lzow   1.35480
gfz2014macx  -1.86270
gfz2014madw  -0.53330
gfz2014mawp  -0.26160
gfz2014mcno   0.64690
gfz2014mcse  -0.70920
gfz2014mioi   0.13730
gfz2014mlqw  -0.15550
gfz2014mlrr   0.04150
gfz2014mmtb   0.68150
gfz2014moaw   0.59210
gfz2014mogb   1.00840
gfz2014mrbm   1.26850
gfz2014mtum   3.03570
gfz2014mwnj   0.20220
gfz2014mxkr  -1.76070
gfz2014myqz  -0.93260
gfz2014nafd   0.95050
gfz2014navw   0.48730
gfz2014ncub   0.18780
gfz2014ndue  -2.12490
gfz2014ngsk   0.14090
gfz2014ngvt  -0.25080
gfz2014nhyb  -0.65270
gfz2014niqj  -0.77710
gfz2014nkdx   0.28100
gfz2014nnih   0.49580
gfz2014nnxd  -0.70500
gfz2014nowp  -1.87570
gfz2014npeo  -0.98050
gfz2014nphm   1.45060
gfz2014nqbs   0.79230
gfz2014nqfm   0.57310
gfz2014nrie  -0.76200
gfz2014ntdh   0.75540
gfz2014nvdi   0.03070
gfz2014nyfb  -0.36150
gfz2014nyko  -1.21540
gfz2014nylm  -1.00080
gfz2014obbs  -0.73250
gfz2014obxm  -0.29790
gfz2014odgv   0.32850
gfz2014ofhm  -0.48000
gfz2014oims   0.02150
gfz2014oinz  -2.29180
gfz2014ojdg   1.26920
gfz2014okec  -0.03450
gfz2014okxu   0.26000
gfz2014ooaa  -0.66160
gfz2014opqr  -0.72500
gfz2014oqhw   0.33090
gfz2014orgz  -0.83680
gfz2014orxs   0.49050
gfz2014oryw   0.11940
gfz2014osvx   0.90150
gfz2014owii   0.52470
gfz2014owxc  -0.77210
gfz2014oxcc  -1.89020
gfz2014oyly   0.34840
gfz2014pghi   0.18870
gfz2014pjer   0.56970
gfz2014pjum  -0.95470
gfz2014pngj   0.03890
gfz2014poap  -0.47340
gfz2014ppzf   1.36160
gfz2014pqqp  -1.37260
gfz2014pvch   0.49460
gfz2014pxbu   0.25920
gfz2014pzni  -0.25370
gfz2014qbzi   1.15880
gfz2014qcxs   0.68590
gfz2014qdog  -2.47950
gfz2014qfzq  -0.03970
gfz2014qjfl  -0.50100
gfz2014qjgp  -0.42210
gfz2014qlvc  -0.10370
gfz2014qlxd  -0.07460
gfz2014qngj   0.04200
gfz2014qqhm  -0.70960
gfz2014qsby  -0.06170
gfz2014qtwv   1.14530
gfz2014raau   1.83100
gfz2014rbsl   7.25770
gfz2014rcyx   0.17490
gfz2014rdoz  -0.42550
gfz2014rfeb   0.18470
gfz2014rffv   0.30780
gfz2014rghp  -0.93980
gfz2014rhju   1.18550
gfz2014rhnz   1.30070
gfz2014rhwq   0.65910
gfz2014riel   0.25890
gfz2014rils   0.01760
gfz2014roba   0.62050
gfz2014royq  -0.48840
gfz2014rucz   0.46150
gfz2014rwos  -0.16920
gfz2014ryfb   0.49110
gfz2014shid   0.56550
gfz2014snfs  -0.02250
gfz2014sptq   1.46470
gfz2014sryn   0.87400
gfz2014ssds   0.13600
gfz2014ssmv   0.48060
gfz2014swgt   0.12390
gfz2014tabg   0.41620
gfz2014tgcw  -0.20760
gfz2014thrw   0.03380
gfz2014tovs  -1.08630
gfz2014tqdo  -0.38190
gfz2014tqly   1.38300
gfz2014tqsf  -0.58620
gfz2014tqth  -0.04130
gfz2014tzsd   0.54870
gfz2014uapa   0.50550
gfz2014ubyq  -0.14330
gfz2014uohh   0.08430
gfz2014utac  -1.49470
gfz2014uuqa   0.53710
gfz2014uvrk   1.78350
gfz2014uyrq  -0.04120
gfz2014uzaw   0.20260
gfz2014vcev  -3.05010
gfz2014vdnh   0.32560
gfz2014veit   0.43290
gfz2014vhld   0.29230
gfz2014vhms  -0.66520
gfz2014vhuy  -0.12130
gfz2014vjoz   0.96120
gfz2014vljh  -0.48060
gfz2014vnxu   0.56530
gfz2014vpus   2.71490
gfz2014vqqa  -0.04160
gfz2014waoo  -0.38630
gfz2014watn  -0.89270
gfz2014wjko   1.27940
gfz2014wqcp   0.27340
gfz2014wrkh  -0.78580
gfz2014wsjh  -0.06630
gfz2014wwib  -0.68590
gfz2014xaxx   0.22790
gfz2014xbyr   1.39670
gfz2014xhkc  -0.99280
gfz2014xhwk   0.42110
gfz2014xjri  -0.55290
gfz2014xkdg   0.05640
gfz2014xmnp  -0.03660
gfz2014xoji   0.58980
gfz2014xqby   0.06370
gfz2014xqqd   0.56730
gfz2014yazi  -0.08680
gfz2014yhhm  -0.17670
gfz2014ynhc   0.00000
gfz2014ynzy  -0.39350
gfz2014yppv   0.36620
gfz2014yrug  -0.22850
gfz2014yula  -0.72980
gfz2014yyiy   0.30290
gfz2014zcgo   0.06660
gfz2014zdtl  -0.11450
gfz2014zkys  -1.41690
gfz2014zlgp  -1.80440
gfz2014zplq   1.54540
gfz2015abpw  -1.54520
gfz2015aide   0.21200
gfz2015ansu   0.26470
gfz2015apnk   1.44050
gfz2015arpd   1.15850
gfz2015aruz   2.03790
gfz2015aush   0.30420
gfz2015bavu   0.50040
gfz2015bdyd   0.92630
gfz2015berb  -0.36370
gfz2015bfjm  -2.88890
gfz2015bfzt   0.31280
gfz2015bkbj   0.50010
gfz2015bnho   0.35270
gfz2015bohx   0.92340
gfz2015bphe   0.98360
gfz2015bpxl  -0.22120
gfz2015bucr  -1.28540
gfz2015bvxx   2.50080
gfz2015byjd   2.33640
gfz2015bzej  -2.76400
gfz2015cewd   1.24020
gfz2015chhn   0.59310
gfz2015clrp  -0.32540
gfz2015cpuo  -0.32170
gfz2015cxrc  -0.14590
gfz2015cyjd  -1.31990
gfz2015ddhl  -0.03950
gfz2015dizn  -2.60790
gfz2015djts  -0.21910
gfz2015drlk   0.08350
gfz2015dskr   0.38690
gfz2015dtqr   0.38170
gfz2015dvbn   1.12140
gfz2015ecgq   0.06190
gfz2015ednc   0.70400
gfz2015eeyq  -1.34130
gfz2015eezy   0.20880
gfz2015egbk  -0.28080
gfz2015egxq   0.07450
gfz2015ehou   0.99180
gfz2015ehpz   0.06170
gfz2015eiky  -0.07840
gfz2015eljz  -1.05140
gfz2015emcg   0.45960
gfz2015emtg  -0.92780
gfz2015enth   2.03510
gfz2015esrj   1.06650
gfz2015etai  -1.46600
gfz2015fbbk  -1.31430
gfz2015fcua   0.31500
gfz2015fdpr   0.13210
gfz2015fjhk   0.37250
gfz2015fkbc   0.13230
gfz2015fkgt   0.62840
gfz2015fkic   0.33660
gfz2015fkjs   0.06330
gfz2015fsjj  -3.96030
gfz2015fvoi   0.17690
gfz2015fwkq  -0.09970
gfz2015fwnf   1.40320
gfz2015fxdi  -1.67580
gfz2015gckd  -1.23020
gfz2015ggjw   0.68870
gfz2015gjbr  -0.14630
gfz2015gkwa  -0.80550
gfz2015gmgf   1.89070
gfz2015gwao   3.04110
gfz2015gzja   1.63630
gfz2015hdcp  -0.18910
gfz2015hepg  -1.35600
gfz2015hgbk  -2.14860
gfz2015hhbd  -0.01880
gfz2015hlfq   0.07260
gfz2015hlqo   0.04160
gfz2015hpmk   2.63330
gfz2015hslo   0.27560
gfz2015hwkv   0.68670
gfz2015hwzw   0.07910
gfz2015imty   0.87020
gfz2015imyp  -0.13180
gfz2015isim  -0.62110
gfz2015iwqk   0.33510
gfz2015ixyy  -1.88980
gfz2015jkdw  -0.99080
gfz2015jmlf  -0.51630
gfz2015jmlu  -0.44910
gfz2015jpap   0.56010
gfz2015jxbx   1.26910
gfz2015jzcv   0.39320
gfz2015kakw   0.82530
gfz2015kalm   0.30730
gfz2015kfsu  -0.49610
gfz2015kkth  -0.13640
gfz2015kphk   0.12480
gfz2015kquq   0.56690
gfz2015lbcg  -1.75340
gfz2015lcma   0.13700
gfz2015lcuo  -0.08390
gfz2015lfma  -0.16530
gfz2015lfos   0.33280
gfz2015lfud   0.92700
gfz2015lhjq   0.70930
gfz2015lhjy  -2.11210
gfz2015ltii   2.29670
gfz2015ltro   0.28820
gfz2015lytv   0.16970
gfz2015lzad   2.50310
gfz2015mbgr   0.00000
gfz2015mddr   4.64960
gfz2015mfpy  -1.50370
gfz2015mhym  -0.12200
gfz2015micz   0.70470
gfz2015mljd  -0.64410
gfz2015mpte  -1.09640
gfz2015nbdc   0.06780
gfz2015nuxz   0.90680
gfz2015nwug   1.76990
gfz2015ocwr   0.27610
gfz2015ofpd  -0.02050
gfz2015ojut  -1.63140
gfz2015okpu   0.03800
gfz2015omab  -0.41070
gfz2015orkl  -0.11710
gfz2015oyfl  -0.07760
gfz2015pdri  -0.21320
gfz2015pjgr   1.01630
gfz2015plal   0.48830
gfz2015poni  -0.18070
gfz2015puqp  -1.96510
gfz2015qafb   0.67660
gfz2015qiit  -0.51070
gfz2015qisx   0.36000
gfz2015qnde   0.28960
gfz2015qnho   1.57470
gfz2015qnlv   0.37350
gfz2015qols   0.00000
gfz2015qpvd   0.18590
gfz2015quzo  -0.84180
gfz2015qvxu   0.24340
gfz2015rddx   1.80180
gfz2015rgov   0.76100
gfz2015rgst   0.05960
gfz2015rkrg   1.95420
gfz2015rkzg   1.29380
gfz2015rlnh   0.04020
gfz2015rnis   0.76810
gfz2015roac   0.77050
gfz2015rpzn   0.14060
gfz2015rtnv  -0.00900
gfz2015rwsb  -1.08290
gfz2015saet   1.22010
gfz2015sdeo  -0.41780
gfz2015sdfy  -0.58950
gfz2015seuf   0.02150
gfz2015sevh  -0.17680
gfz2015sfdd   1.74580
gfz2015sfsi  -1.01470
gfz2015siof  -0.18320
gfz2015sitn  -1.17630
gfz2015sjgk  -1.17090
gfz2015sjjb   4.10630
gfz2015sjne   0.44430
gfz2015snhn   4.87900
gfz2015snsf   0.81010
gfz2015snwh   0.91160
gfz2015snyd   0.85210
gfz2015soat   1.86480
gfz2015soxc   0.69190
gfz2015sozw   0.08010
gfz2015spxh   0.04120
gfz2015sryk  -0.10500
gfz2015ssoe  -0.53100
gfz2015stas  -0.86810
gfz2015subz  -0.36750
gfz2015svwm  -0.13970
gfz2015swgn  -0.44100
gfz2015szfe   0.55830
gfz2015taml  -1.64870
gfz2015tbdn   0.71510
gfz2015tcem  -2.13780
gfz2015tchx  -0.18290
