# Nsamples: 847  MAD:  1.503  mean:  1.422  variance:  2.850
gfz2010aban  -0.01790
gfz2010ahla  -0.17620
gfz2010ahqi   0.67170
gfz2010bedu  -0.27630
gfz2010bfzs   2.66690
gfz2010bifb   0.46560
gfz2010bjeb   1.32580
gfz2010bkob   1.80600
gfz2010bowy   2.86500
gfz2010boxo   6.34520
gfz2010bpda  -0.05210
gfz2010bxxs   1.40710
gfz2010caft   3.75680
gfz2010cdbt  -0.25760
gfz2010civi   1.84030
gfz2010ckeu   0.20470
gfz2010ckzm   4.03020
gfz2010cnwc   6.71470
gfz2010cqwl   0.92920
gfz2010ctuw   1.56240
gfz2010czps   0.53230
gfz2010dejx   0.92990
gfz2010diqn   1.43810
gfz2010dtmx   1.10520
gfz2010eaoy   1.13120
gfz2010eapk   2.40480
gfz2010eapn   0.92850
gfz2010eaqe   2.55410
gfz2010eaqx   0.70770
gfz2010eaqy   1.67470
gfz2010earq   1.78660
gfz2010earu   2.22740
gfz2010easf   4.29170
gfz2010eask   1.92530
gfz2010easo   1.74730
gfz2010easu   4.16170
gfz2010eato  -0.11790
gfz2010eatt  -1.91160
gfz2010eaty   3.06290
gfz2010eaul   1.38520
gfz2010eavd   0.06080
gfz2010eavp   2.40110
gfz2010eavs   1.32760
gfz2010eawb   3.44660
gfz2010eawu   3.26120
gfz2010eaxa   0.35020
gfz2010eaxn   2.40250
gfz2010eaya  -1.40200
gfz2010eayd   1.50560
gfz2010eayp   0.80070
gfz2010eaze   1.01580
gfz2010eazu   4.36400
gfz2010ebbd  -0.02040
gfz2010ebby   1.84230
gfz2010ebdl   3.81420
gfz2010ebeh   1.05080
gfz2010ebek   2.08060
gfz2010ebfa   3.00330
gfz2010ebfx   2.14900
gfz2010ebhc  -1.84200
gfz2010ebih   0.33840
gfz2010ebin   0.27840
gfz2010ebiv   1.92230
gfz2010ebjg   1.24920
gfz2010ebkj   1.37490
gfz2010ebkx   2.55630
gfz2010ebla   0.38120
gfz2010ebll   4.34040
gfz2010ebmb   0.78420
gfz2010ebmi   0.49750
gfz2010ebnn   4.65950
gfz2010ebqt   0.25590
gfz2010ebqz   2.02500
gfz2010ebrm  -0.01920
gfz2010ebvm   1.02800
gfz2010ebvv   3.01100
gfz2010ebwp   2.87730
gfz2010ebxl   4.00320
gfz2010ebzk   0.67180
gfz2010ebzr   4.37920
gfz2010ecam   0.94880
gfz2010ecay   0.49190
gfz2010ecbi   0.83090
gfz2010eced  -0.33750
gfz2010ecfx   1.99190
gfz2010ecfy   1.40020
gfz2010echc   0.19310
gfz2010echy   1.26630
gfz2010ecka   2.36450
gfz2010ecns   1.98030
gfz2010ecps   3.89950
gfz2010ecro   2.13680
gfz2010ecua   2.24440
gfz2010ecvt   1.11420
gfz2010edat   1.01800
gfz2010eday   1.84910
gfz2010edbz   2.04940
gfz2010edcp  -0.22890
gfz2010edde   0.98640
gfz2010edhr   1.81510
gfz2010edim   3.62440
gfz2010edkp   2.65820
gfz2010edpb   3.34310
gfz2010edsk   0.46160
gfz2010edvf   1.91450
gfz2010edyi   1.69660
gfz2010eedu   1.36570
gfz2010eefo   2.59390
gfz2010eegn  -0.10300
gfz2010eeia   0.19340
gfz2010eeij   0.38130
gfz2010eekq   1.42200
gfz2010eeqy   1.48570
gfz2010eerh   1.92820
gfz2010eern   2.65880
gfz2010eevu   2.51650
gfz2010efkc   3.11920
gfz2010efsq   1.44780
gfz2010egld   1.95230
gfz2010egln   1.67750
gfz2010egmp   0.25320
gfz2010egsw   1.10190
gfz2010egyy   0.67330
gfz2010ehft   1.68850
gfz2010ehnm   0.85800
gfz2010ehrq   2.37240
gfz2010ehvj   1.73430
gfz2010eimf   0.70600
gfz2010eioi   1.05350
gfz2010eisx  -0.85040
gfz2010eixj   3.03260
gfz2010ejjg   2.67610
gfz2010ejju   2.38230
gfz2010ejka   1.83520
gfz2010ekoe   0.41830
gfz2010ekrv  -0.72330
gfz2010ekyc  -0.99760
gfz2010elhv   1.97840
gfz2010elin   1.20050
gfz2010eljf   1.72270
gfz2010eltf   1.28860
gfz2010elyc  -0.00000
gfz2010encm   0.26100
gfz2010eoao   1.20500
gfz2010epbe   1.70010
gfz2010epxj   1.25880
gfz2010eqcn   0.48890
gfz2010eqjg   1.08280
gfz2010eqmu   1.83390
gfz2010erfy   2.39870
gfz2010erkn   1.61080
gfz2010erom   2.44800
gfz2010eruy   2.91620
gfz2010erwn   2.32160
gfz2010eryg   2.47970
gfz2010euan   1.17750
gfz2010eujm   0.47080
gfz2010evco   2.36530
gfz2010excp   0.89180
gfz2010exdd   1.85280
gfz2010exdl   2.37550
gfz2010exed   2.73150
gfz2010exel   0.23680
gfz2010exfb   0.94360
gfz2010exgb   1.50470
gfz2010exhd   2.99950
gfz2010exhw   2.09550
gfz2010exmc   1.85580
gfz2010exno   2.21080
gfz2010exou   1.47080
gfz2010exqu   2.81490
gfz2010exsg   1.15070
gfz2010exyp   0.61480
gfz2010eyhh   1.27200
gfz2010eyiv   2.34510
gfz2010eyvq   2.69640
gfz2010ezax   2.19150
gfz2010ezck   1.56470
gfz2010ezwz   1.06430
gfz2010ezxd   0.10310
gfz2010faeu   2.00830
gfz2010falm  -0.14140
gfz2010fauz   2.19680
gfz2010fbpi   3.90750
gfz2010fcax   2.43050
gfz2010fczt   0.73480
gfz2010fdxr  -2.29870
gfz2010fedq   1.35470
gfz2010ffhq   0.38180
gfz2010ffjb   0.96890
gfz2010ffui   0.55360
gfz2010fhbl   1.70360
gfz2010figq   0.79710
gfz2010fjal   3.30550
gfz2010fkvg   2.68550
gfz2010flha   3.30110
gfz2010flrt   1.74750
gfz2010flxi   1.27420
gfz2010fneu   2.05550
gfz2010fobc   1.94230
gfz2010fona   1.52150
gfz2010fpmv   4.53140
gfz2010fpqy   0.73360
gfz2010fqdu   1.00320
gfz2010fqtj   0.86140
gfz2010fser   4.15530
gfz2010ftlm   2.31260
gfz2010fwzd   0.84220
gfz2010gdld   2.21770
gfz2010gjia   1.76120
gfz2010glqr   1.59660
gfz2010glxl   1.70800
gfz2010grjd   1.64730
gfz2010gslu   1.49290
gfz2010gtzt  -0.27000
gfz2010gyqp   3.17210
gfz2010gzxr   2.24920
gfz2010hlmq   1.94180
gfz2010hnnf   0.81570
gfz2010homc   1.67490
gfz2010hrkr   0.56580
gfz2010hufk   0.07610
gfz2010hxgv   1.04470
gfz2010hxhe  -0.59150
gfz2010hykt  -0.39510
gfz2010ibiy   1.76360
gfz2010ibxj  -0.07260
gfz2010iciq   0.16560
gfz2010imfv   4.27460
gfz2010iobp   1.99670
gfz2010iqnm   1.54270
gfz2010irqr   3.93720
gfz2010isrp   0.42350
gfz2010ited   0.63520
gfz2010iull   0.41580
gfz2010izzj   0.56450
gfz2010jssh  -0.53720
gfz2010jxbm   0.30950
gfz2010kdyc   0.77200
gfz2010lczp   8.19580
gfz2010lepw  -0.51770
gfz2010liqs   1.41030
gfz2010lkcf   2.93840
gfz2010lopz   2.62850
gfz2010lsft  -0.04940
gfz2010lwuq  -0.31350
gfz2010mkuu  -0.17650
gfz2010moyw   0.91870
gfz2010mwdq   3.55940
gfz2010ncrl   2.16530
gfz2010nlkh  -0.02150
gfz2010nmpc   5.60140
gfz2010nqwf   0.78050
gfz2010nqwo   1.42010
gfz2010nrew   0.27970
gfz2010nrjo   1.05970
gfz2010nsck   2.06140
gfz2010osjs   2.48070
gfz2010pcxi   2.47880
gfz2010pewa  -0.28830
gfz2010pewx   0.00000
gfz2010pxgh  -0.93870
gfz2010qkat  -1.67360
gfz2010rkfp   0.19190
gfz2010rqwj   0.83100
gfz2010sfee   5.82960
gfz2010skqo   2.18180
gfz2010skve   3.90180
gfz2010upfb   0.92500
gfz2010upiw   1.42850
gfz2010usho  -0.16640
gfz2010ustq   2.10280
gfz2010utcg   0.26260
gfz2010uyhb   0.94180
gfz2010vbmd   0.59450
gfz2010vxvs  -0.25530
gfz2010wioh   1.68240
gfz2010wntz   0.12460
gfz2010wofs   1.59960
gfz2010yqqb  -0.06840
gfz2010zdpo   0.63480
gfz2011alip   2.32940
gfz2011aqxf   1.68140
gfz2011aupi   1.05780
gfz2011blsi   0.07850
gfz2011bnzn  -0.27320
gfz2011cndo   3.58940
gfz2011csju   2.96610
gfz2011ctbn  -0.01970
gfz2011cvcg   0.84970
gfz2011cvfg   3.82560
gfz2011cykd   0.10000
gfz2011cylz   1.22060
gfz2011cynl   1.59060
gfz2011cyre   1.72060
gfz2011cyuk   0.65330
gfz2011dbev   1.67060
gfz2011dbig   1.16710
gfz2011dbon   1.98790
gfz2011dcqb  -1.88020
gfz2011dcqf   1.32080
gfz2011ddao  -0.18890
gfz2011deaf   1.40990
gfz2011dkyi   0.94270
gfz2011dlyx   3.50080
gfz2011dpqx   1.60890
gfz2011duyr   1.93350
gfz2011eltw  11.14160
gfz2011enva  -1.83960
gfz2011etje   2.69900
gfz2011fdzv   0.05640
gfz2011fgvr   4.41200
gfz2011fkbn   3.18690
gfz2011fnsw  -0.26180
gfz2011gbmx   1.87080
gfz2011ggvf   2.08040
gfz2011gkzt  -1.72540
gfz2011haid   8.73730
gfz2011hbex   3.44300
gfz2011hebt   2.27440
gfz2011hfkj   1.26880
gfz2011hlsa   1.63550
gfz2011hlth   2.36780
gfz2011hpgx   3.36740
gfz2011hpqp   2.56570
gfz2011hvbu   3.72080
gfz2011ieie   2.16390
gfz2011ixai  -0.08210
gfz2011izqa   2.13500
gfz2011jplh   1.17940
gfz2011knoo   0.31440
gfz2011kxzp   1.62760
gfz2011lcxq  -2.48430
gfz2011lzwj  -0.19150
gfz2011mdie   0.50760
gfz2011mjom   0.55150
gfz2011mpme   3.51510
gfz2011nauw  -0.95390
gfz2011nkaz   0.21170
gfz2011npgs   0.27020
gfz2011nrwc   2.65200
gfz2011nsex   1.57430
gfz2011ntkh   0.09740
gfz2011nudm   1.28950
gfz2011ohcy   1.49130
gfz2011oiqe   1.70760
gfz2011oiwk   0.47260
gfz2011olkk   0.58470
gfz2011ornx   0.53590
gfz2011owvz   2.79360
gfz2011qoif   0.03450
gfz2011qvae   2.97670
gfz2011rdby   2.87970
gfz2011rewa   1.15920
gfz2011rgwp   2.33670
gfz2011sagt   3.53650
gfz2011sawg  -0.38130
gfz2011svix   0.07780
gfz2011tivu   1.48320
gfz2011tjue   3.09460
gfz2011tnag   0.19950
gfz2011toub   1.44440
gfz2011tpfr   1.41280
gfz2011tsnp  -0.46750
gfz2011uepx   0.57810
gfz2011uiul  -0.00350
gfz2011ujze   2.01390
gfz2011ukmp   1.10250
gfz2011uphh   0.99240
gfz2011urxy   0.74860
gfz2011vhfi   3.33930
gfz2011vkun   1.59470
gfz2011vqnr   0.21590
gfz2011vrhg  -2.35470
gfz2011vxns   0.45720
gfz2011wcic   0.33120
gfz2011wijj   0.56740
gfz2011wjul   2.41610
gfz2011xqru  -1.33220
gfz2011xyxj   2.70930
gfz2011yfdx   0.75630
gfz2011yybo  -0.19290
gfz2011zlrd  -0.25700
gfz2011zqhh  -1.39970
gfz2012aqgp   4.10680
gfz2012aqtq   0.68040
gfz2012bfah   2.83720
gfz2012bpkx   0.15580
gfz2012bpwl   1.09680
gfz2012bszs   1.21870
gfz2012byad   2.50740
gfz2012cbed  -0.25220
gfz2012cgvr   0.46700
gfz2012cnod   0.48160
gfz2012cxdn   0.73400
gfz2012czlw   2.00320
gfz2012ddma   0.01930
gfz2012dinb   0.67460
gfz2012dves  -0.03450
gfz2012dyyh  -0.33340
gfz2012ekda   1.77190
gfz2012emjg   0.10000
gfz2012enno   1.16600
gfz2012ewgo   0.31350
gfz2012ewkj   0.15520
gfz2012fwfo   1.29050
gfz2012fwob   0.69190
gfz2012fwtr   0.21400
gfz2012fzfa   1.72310
gfz2012gocc   3.60320
gfz2012hzbe   0.88290
gfz2012iamr  -0.00000
gfz2012idje  -0.09070
gfz2012joqe   0.31930
gfz2012jshk   2.22950
gfz2012jupx   1.08300
gfz2012keor   0.37850
gfz2012kkup   1.72710
gfz2012klhx   1.39730
gfz2012kuct   3.73880
gfz2012kudo   0.78220
gfz2012lboz   1.22410
gfz2012lczo   1.90380
gfz2012ldzj   3.05740
gfz2012llug   0.34610
gfz2012lpvn   0.35660
gfz2012lxkv   1.24620
gfz2012minr   2.79510
gfz2012mpyl   3.17050
gfz2012nojx   3.13500
gfz2012nolo   3.67820
gfz2012nqnk   0.22730
gfz2012ostk   0.98610
gfz2012peex  -0.04040
gfz2012plbw   0.62920
gfz2012pqmu   1.44560
gfz2012priv   2.64550
gfz2012pspd  -0.71660
gfz2012rboy  -0.29550
gfz2012ronz   4.18070
gfz2012rqlg   2.01630
gfz2012ruks   1.22550
gfz2012rypu   0.38490
gfz2012sfer   0.52140
gfz2012svpr   0.07480
gfz2012syvl   6.98100
gfz2012tbbp   0.42190
gfz2012teic   2.01770
gfz2012tyxl   0.12480
gfz2012uafg   1.78090
gfz2012uaqj   2.36270
gfz2012uciv  11.11950
gfz2012uhup   2.23470
gfz2012uqzp   1.47170
gfz2012uyie  -0.05350
gfz2012vpza  12.62650
gfz2012vrgb  -0.83140
gfz2012vsev   1.54700
gfz2012vwvd  -0.06930
gfz2012wdyx   1.84560
gfz2012wizz   0.93020
gfz2012wklq   0.46070
gfz2012wmsg   0.34180
gfz2012wtkh   0.63490
gfz2012wtkr   2.03200
gfz2012wvfl   1.43810
gfz2012wxer   2.10010
gfz2012wxnu   2.12300
gfz2012wybs   0.55990
gfz2012xevt  -0.08290
gfz2012xmxy  -0.13990
gfz2012xslk   2.92020
gfz2012xssa   0.34720
gfz2012yxxu   1.40980
gfz2012zemz   0.76160
gfz2012zfag   2.45500
gfz2012zitl   0.69890
gfz2012zjpv   1.23550
gfz2012zsqk  -0.13660
gfz2013aahq   4.05270
gfz2013akgj   0.49780
gfz2013aqaw   0.53730
gfz2013axoj  -1.39990
gfz2013bdke   0.18460
gfz2013bokp  -0.44030
gfz2013bouj   0.28260
gfz2013bzlb  -0.08680
gfz2013bzzm   0.31550
gfz2013ccnr  -0.58290
gfz2013cwpn   2.07220
gfz2013czeq   0.25130
gfz2013dkly   1.12370
gfz2013dkym  -0.09420
gfz2013dofo   3.40960
gfz2013dojq   6.38660
gfz2013drxz   0.96750
gfz2013dspt   2.78100
gfz2013dsrk  -0.41690
gfz2013dujm  -0.00000
gfz2013dvyh   3.28580
gfz2013egni  -0.12510
gfz2013egpu   1.35510
gfz2013fcto   0.03340
gfz2013fkcl   1.13930
gfz2013ftso   0.05180
gfz2013gdnq  -0.57500
gfz2013gvdb   0.14660
gfz2013gxsu   0.05670
gfz2013huwr   1.57610
gfz2013iayx   1.96080
gfz2013ikgo   1.74020
gfz2013ilug   0.61860
gfz2013inux   2.36360
gfz2013iodt  -0.59280
gfz2013iopd   0.61340
gfz2013jdrx   0.47960
gfz2013jfah  -0.01150
gfz2013jgij   2.41510
gfz2013jgip   3.50640
gfz2013jkut  -0.93540
gfz2013jusj   0.35900
gfz2013jwvc   0.40360
gfz2013kdeo  -1.00170
gfz2013kheb   0.95080
gfz2013kwag   0.01670
gfz2013kweg   0.76190
gfz2013ldqb   1.64150
gfz2013lfyb  -0.11940
gfz2013lixa   2.55580
gfz2013lljw  -0.21930
gfz2013lyko   2.51590
gfz2013mqmv  -0.11970
gfz2013mtqd  -0.44640
gfz2013mwbh   2.01520
gfz2013ncjp   2.68770
gfz2013nixj   0.75700
gfz2013nkgj  -1.15820
gfz2013nuvi   0.17660
gfz2013nwdi   0.91120
gfz2013oksi   0.18950
gfz2013onjy   0.20420
gfz2013oqsc   0.51610
gfz2013ornz   0.21720
gfz2013orzn   4.28550
gfz2013ouvt   0.05940
gfz2013ozku   0.23110
gfz2013pfbx   2.28410
gfz2013pfnf   0.05370
gfz2013qcck   1.64200
gfz2013qfsq  -1.28720
gfz2013qmer  -0.74860
gfz2013qzdq   0.91010
gfz2013reav  -0.11030
gfz2013roki   0.47800
gfz2013rsnr   3.74650
gfz2013scub   0.07770
gfz2013sdus   4.08400
gfz2013snbr  -1.11860
gfz2013sqkb  -0.09900
gfz2013suvn   2.09610
gfz2013svci   1.33330
gfz2013tcxc   2.76570
gfz2013tect   0.04140
gfz2013toxf   1.73310
gfz2013uauo   1.71860
gfz2013umya   0.00000
gfz2013uthl   0.26010
gfz2013vcoa  -0.59260
gfz2013vexx  -0.39570
gfz2013vfyw   2.03950
gfz2013vfzp   1.82460
gfz2013vhsb  -0.02820
gfz2013vijl   0.39040
gfz2013vjjc   0.97100
gfz2013vlth   0.14580
gfz2013vrmy  -0.09940
gfz2013vvrq   0.63910
gfz2013wbyr  -0.21580
gfz2013wjmm   1.53250
gfz2013wkyk   3.98230
gfz2013wnpr  -2.47030
gfz2013wqhq   0.09080
gfz2013wuml   0.06970
gfz2013xgek  -0.27110
gfz2013xizq   1.14710
gfz2013xkbh  -0.42320
gfz2013xpsm   1.24830
gfz2013xsdt   2.14170
gfz2013xtwj  -0.22670
gfz2013xxcc   0.00000
gfz2013xxwv   1.98670
gfz2013xxxq   2.26960
gfz2013xyzb  -0.76530
gfz2013yhpk   1.88050
gfz2013yixl   0.09900
gfz2013ylbx  -0.03430
gfz2013ypdc   0.15520
gfz2013yqkv   1.90340
gfz2013yulx   0.07470
gfz2013yzte  -0.27730
gfz2013zaxb  -0.17130
gfz2014abgd   2.07910
gfz2014adjs   0.02930
gfz2014afmx   2.71140
gfz2014ajlk   0.63400
gfz2014algk  -0.87690
gfz2014alwz   0.10440
gfz2014ande   1.54760
gfz2014arnc   0.08030
gfz2014bagd   0.48300
gfz2014bdfd  -0.01820
gfz2014bezu   2.35850
gfz2014bfng   0.79760
gfz2014bhhv   1.48580
gfz2014bmta   3.65790
gfz2014bwue   1.41730
gfz2014bzxy  -0.95740
gfz2014capn  -0.28630
gfz2014chdv   4.06130
gfz2014claq   0.98140
gfz2014cueu   0.46950
gfz2014czua   2.88020
gfz2014dddc  -0.69850
gfz2014dffd   4.25500
gfz2014ebmc   1.75500
gfz2014eght  -0.20080
gfz2014egwu   1.47920
gfz2014ehfp  -0.36390
gfz2014ehsf   3.03730
gfz2014ekcr   2.37830
gfz2014ekdn   2.13640
gfz2014enhi   3.04800
gfz2014ettc   1.34290
gfz2014fcsy   2.22730
gfz2014femz   2.57210
gfz2014fgvi  -1.21880
gfz2014fgwt  -0.30450
gfz2014fgxt   2.65880
gfz2014fhdw   1.57080
gfz2014fhla   1.53680
gfz2014fhrq   1.76350
gfz2014fjdz   0.10660
gfz2014fjyo   3.11800
gfz2014fkmr   3.06600
gfz2014fkmx   2.79240
gfz2014fnbh   0.09030
gfz2014frdz   5.06650
gfz2014ftka   1.48750
gfz2014ftoc   1.76560
gfz2014ftpw   1.12100
gfz2014ftrk   3.76290
gfz2014furx   5.20420
gfz2014fusj   2.43360
gfz2014fuub   6.17140
gfz2014fval   3.16770
gfz2014fvrg   3.24870
gfz2014fyfr   0.25960
gfz2014gbcz   1.47830
gfz2014ghpe  -1.40380
gfz2014gkgf   1.48310
gfz2014gkjt   7.54970
gfz2014gktq   3.87640
gfz2014gltx   1.98980
gfz2014glvn   3.04940
gfz2014gmge   2.51510
gfz2014gmhr   2.47610
gfz2014gmip   3.96710
gfz2014gmku   1.09410
gfz2014gmnb   1.43730
gfz2014gmnw   1.83880
gfz2014gmor  -0.73990
gfz2014gmuw   0.08520
gfz2014gmzl   1.96510
gfz2014goba   4.47370
gfz2014gogv   1.95050
gfz2014gphr   2.70180
gfz2014gpya   3.04630
gfz2014gqer   3.16080
gfz2014gsqs   1.86780
gfz2014gtlu   0.55180
gfz2014gull   1.17400
gfz2014gumd   2.29220
gfz2014gwab  -0.42570
gfz2014gxvf   1.80000
gfz2014gxxo   3.83380
gfz2014gzrm  -0.71880
gfz2014hasj  -0.06380
gfz2014hbqb   6.21530
gfz2014hcmj   0.87540
gfz2014hfhl   0.36450
gfz2014hgqo  -0.31780
gfz2014hkcf   0.11670
gfz2014hlib  -0.04740
gfz2014hocg   1.60920
gfz2014hqxs   5.39290
gfz2014huaj   1.93680
gfz2014hvdm   0.37200
gfz2014hzdy   0.80550
gfz2014hzfw   1.15400
gfz2014ieam   0.18970
gfz2014itjx   2.98820
gfz2014itkw   1.96250
gfz2014itpj  -0.90700
gfz2014jcjt   1.80070
gfz2014jfis   0.13900
gfz2014jhra  -0.11150
gfz2014jipr  -0.17500
gfz2014jjhc   1.67990
gfz2014jjkh  -0.31450
gfz2014jtfe   0.08930
gfz2014jvow  -0.97170
gfz2014jwmh   3.54700
gfz2014kbuk   0.60890
gfz2014kbwm  -0.20210
gfz2014khlk   3.64110
gfz2014kndc   1.03170
gfz2014knks   0.86870
gfz2014knxs  -1.46180
gfz2014ksmz   0.64890
gfz2014kssw   0.36290
gfz2014kyan   2.39230
gfz2014lbcq   0.00000
gfz2014lgqn   3.99630
gfz2014lhqn   7.28970
gfz2014lnqy   0.14770
gfz2014lwom   1.08130
gfz2014lyhk   3.58410
gfz2014macx   1.46710
gfz2014madw   6.99450
gfz2014mlqw  -0.04300
gfz2014mtum   4.30940
gfz2014mvza  -0.14430
gfz2014mxkr   6.72960
gfz2014ndue   0.25780
gfz2014ngvt   0.74060
gfz2014nnxd   1.16530
gfz2014nowp   3.59550
gfz2014npeo   2.88670
gfz2014nphm   5.05200
gfz2014nqfm   2.18400
gfz2014nrie   3.57740
gfz2014oyly   1.74490
gfz2014qlxd  -1.40700
gfz2014qngj   2.95530
gfz2014qqhm   2.66890
gfz2014qtwv   0.23830
gfz2014rbpx   0.13180
gfz2014rdsn   0.54320
gfz2014rnrn   0.12980
gfz2014romy   1.06740
gfz2014ssvz   1.00590
gfz2014tqdo  -0.26380
gfz2014tqsf   2.45210
gfz2014tzsd   2.43740
gfz2014ubwn  -0.09870
gfz2014udgg   1.92980
gfz2014uohh   0.91580
gfz2014uuuf   3.72640
gfz2014uvji   1.33170
gfz2014uxyg   0.99900
gfz2014vhms   1.72060
gfz2014vjoz   1.58280
gfz2014watn  -1.52470
gfz2014wjko   2.31210
gfz2014wrkh   2.50140
gfz2014wwib   1.80080
gfz2014xqqd   1.91520
gfz2014yula   1.72750
gfz2015apnk  -1.92170
gfz2015aruz   5.04700
gfz2015atxv   8.65500
gfz2015berb   1.88250
gfz2015bphe   1.12360
gfz2015bpxl  -0.00000
gfz2015bsnl   2.10860
gfz2015bucr   0.46190
gfz2015cewd  -0.17760
gfz2015chhn   0.45460
gfz2015chqn   5.37110
gfz2015cxxk   0.79090
gfz2015cyjd   0.79060
gfz2015czfv  -0.34700
gfz2015dizn   2.25230
gfz2015dskr   3.12680
gfz2015dvbn   1.50000
gfz2015ednc  -0.13460
gfz2015eiky   0.03810
gfz2015elgy   3.08670
gfz2015etai   0.66240
gfz2015fbbk   1.23380
gfz2015fjhk   2.78830
gfz2015fkgt   0.37930
gfz2015fkic   0.74280
gfz2015fkjs   0.63870
gfz2015flis  -0.84690
gfz2015fsjj  -1.52520
gfz2015ggjw   1.52460
gfz2015hpmk   1.01730
gfz2015hwkv  -0.29120
gfz2015hwzw   0.42530
gfz2015iwqk  -0.31240
gfz2015ixyy   0.96580
gfz2015jmlf   0.38970
gfz2015kakw   0.36710
gfz2015kfsu   0.49390
gfz2015ksni  -0.87490
gfz2015lfud   1.63610
gfz2015lhjy  -0.36710
gfz2015lytv  -0.05260
gfz2015mbgr   0.91810
gfz2015mpte   6.34690
gfz2015okmq   3.00220
gfz2015oyfl   2.17540
gfz2015qpvd   0.30440
gfz2015qvxu   0.49640
gfz2015rddx   0.14120
gfz2015rnis   0.16260
gfz2015sfdd   2.99020
gfz2015sffn   2.14580
gfz2015sfno   5.55390
gfz2015sfoc   2.14660
gfz2015sfqo   1.40300
gfz2015sfrc   1.99070
gfz2015sfwf   3.15750
gfz2015sgdj   1.38430
gfz2015sgdn   3.23500
gfz2015sggc   0.86820
gfz2015sghq   0.92750
gfz2015sglg  -0.95930
gfz2015shjn   3.70910
gfz2015shrg   1.44120
gfz2015shsz   1.94870
gfz2015sjgk   4.10800
gfz2015sjvu   2.67900
gfz2015sjwi   3.40110
gfz2015skxu   4.23770
gfz2015sldx   2.83930
gfz2015slun   2.80960
gfz2015snsf   0.85670
gfz2015snwh   1.38350
gfz2015snyd   2.49470
gfz2015soat   2.60910
gfz2015soxc   1.88050
gfz2015ssoe  -0.28290
gfz2015svwm   1.44290
gfz2015szcb   3.62160
gfz2015taml   0.82710
