# Nsamples: 1033  MAD:  1.100  mean: -0.044  variance:  2.291
gfz2010aban  -4.18800
gfz2010aerk  -4.33410
gfz2010ahla  -1.44750
gfz2010ahqi  -0.64500
gfz2010aphp  -0.59840
gfz2010awfi  -4.52420
gfz2010bedu  -6.13910
gfz2010bfzs   1.02010
gfz2010bhhq   1.68310
gfz2010bifb   0.00000
gfz2010bjeb   0.32050
gfz2010bjjx  -0.92470
gfz2010bjsl   2.59650
gfz2010bkob   0.03620
gfz2010bowy   1.23350
gfz2010boxo   0.21300
gfz2010bxxs   1.82670
gfz2010caft   2.54950
gfz2010cbkg   0.22260
gfz2010chnv  -0.28050
gfz2010civi   0.95100
gfz2010cjmx  -0.90060
gfz2010ckeu  -6.30390
gfz2010ckzm  -1.14760
gfz2010cnwc  -2.81790
gfz2010cptb  -1.21490
gfz2010cqwl   1.41520
gfz2010cres  -1.07960
gfz2010ctuw  -1.36820
gfz2010czps   0.84370
gfz2010ddzo   1.70420
gfz2010dejx   1.34260
gfz2010dfru  -0.64690
gfz2010diqn  -1.20670
gfz2010dlgc  -0.47870
gfz2010dtmx  -0.72620
gfz2010dumm  -3.68500
gfz2010eaoy   2.51040
gfz2010eaqe   1.19060
gfz2010eaqx   0.76680
gfz2010eaqy   1.76220
gfz2010earq   0.35420
gfz2010earu   1.46310
gfz2010easf   1.52750
gfz2010eask   1.98590
gfz2010easo   1.83400
gfz2010eati   1.95620
gfz2010eato   1.00120
gfz2010eatt   1.71390
gfz2010eaty   1.92180
gfz2010eaul   1.03970
gfz2010eavs  -0.25620
gfz2010eawb   2.07060
gfz2010eawu   1.44630
gfz2010eaxa   0.40820
gfz2010eaxn  -0.19610
gfz2010eaya   2.65130
gfz2010eayp   0.91780
gfz2010eayx   0.25940
gfz2010eaze  -1.44070
gfz2010eazu   1.96340
gfz2010ebbd   0.07470
gfz2010ebby   0.27060
gfz2010ebdl   0.90160
gfz2010ebeh  -0.68610
gfz2010ebek  -0.35610
gfz2010ebfa   0.68100
gfz2010ebfx   0.16870
gfz2010ebgj   0.69550
gfz2010ebhc  -3.38820
gfz2010ebih  -0.00000
gfz2010ebin  -1.41540
gfz2010ebiv  -0.42640
gfz2010ebjg   1.36440
gfz2010ebjy   1.65450
gfz2010ebkj   0.37090
gfz2010ebkx   0.43880
gfz2010ebll   1.19850
gfz2010ebmb   0.16340
gfz2010ebmi   0.63580
gfz2010ebnn   1.55140
gfz2010ebqt  -2.27100
gfz2010ebrm   0.02360
gfz2010ebsv  -1.82250
gfz2010ebtk  -1.00330
gfz2010ebvm   0.44440
gfz2010ebvv   0.64130
gfz2010ebwp   1.32280
gfz2010ebxl   0.02140
gfz2010ebze   8.06820
gfz2010ebzk  -0.36930
gfz2010ebzr   1.81690
gfz2010ecam   1.15630
gfz2010ecay   0.75990
gfz2010ecbi   0.68800
gfz2010eccq  -1.36030
gfz2010ecfx   2.20740
gfz2010ecfy   1.08760
gfz2010echc   0.15340
gfz2010echt  -0.65920
gfz2010echy   0.25990
gfz2010ecka  -0.54750
gfz2010ecns   0.56460
gfz2010ecps   1.41940
gfz2010ecro  -2.33970
gfz2010ectq  -1.45070
gfz2010ecua   0.74970
gfz2010edad  -4.62210
gfz2010edat  -0.02860
gfz2010eday   0.07500
gfz2010edbz  -0.28470
gfz2010edcp  -3.92980
gfz2010edde   0.16030
gfz2010edhr  -0.53810
gfz2010edim   0.36190
gfz2010edkp  -0.60840
gfz2010edoq  -0.58010
gfz2010edpb  -0.26070
gfz2010edqh  -0.73610
gfz2010edun  -0.17580
gfz2010edvf  -0.11800
gfz2010edyi  -0.83200
gfz2010eedu  -0.89370
gfz2010eegn   0.73030
gfz2010eeia  -0.81460
gfz2010eeij   2.15390
gfz2010eekq  -0.86910
gfz2010eeng   3.05920
gfz2010eerh   0.22070
gfz2010eern  -0.30900
gfz2010eevu   2.16950
gfz2010eeyh  -1.29810
gfz2010efak   0.81380
gfz2010efkc   1.07080
gfz2010efsq   0.61230
gfz2010efxf  -0.04140
gfz2010egap   2.48180
gfz2010eghq  -1.39440
gfz2010egld   1.30240
gfz2010egmp  -0.55770
gfz2010egqh  -0.33070
gfz2010egsw  -0.20960
gfz2010egsy   0.14420
gfz2010egyy   1.45940
gfz2010ehaj   0.31660
gfz2010ehft   0.43570
gfz2010ehnm  -0.73970
gfz2010ehrq   0.48910
gfz2010ehsy  -0.75840
gfz2010ehxz   0.00030
gfz2010eimf  -0.11210
gfz2010eioi  -0.19310
gfz2010eisx   1.89470
gfz2010eixj   0.45800
gfz2010ejco  -0.15720
gfz2010ejjg   1.06680
gfz2010ejka   0.43070
gfz2010ekaw   0.62840
gfz2010ekoe   0.58930
gfz2010ekrv   2.17230
gfz2010ekyc  -1.28840
gfz2010elhv   1.08190
gfz2010elin  -0.42180
gfz2010eljf   8.29040
gfz2010eltf   0.61650
gfz2010elvp  -0.25820
gfz2010elyc   0.88090
gfz2010enzl   0.53700
gfz2010eoao  -1.72150
gfz2010epbe  -1.63460
gfz2010epxj   0.39830
gfz2010eqjg  -0.41840
gfz2010eqmu   3.42250
gfz2010erdi  -0.98590
gfz2010erfy  -0.94310
gfz2010erig   0.08690
gfz2010erkn   1.36850
gfz2010erom   1.34880
gfz2010erum   0.56050
gfz2010eruy  -2.63270
gfz2010erxb  -0.03740
gfz2010erxk  -1.36590
gfz2010esid   1.97620
gfz2010esmg  -1.28210
gfz2010eted   0.04360
gfz2010euan   0.64180
gfz2010eugj  -0.12930
gfz2010eujm   0.32090
gfz2010euwb   4.58700
gfz2010evco   1.75370
gfz2010evkd   0.38410
gfz2010ewvc  -0.07280
gfz2010excp   2.01460
gfz2010exel   2.35790
gfz2010exfb  -1.03900
gfz2010exgb   0.12290
gfz2010exqu  -0.96420
gfz2010exsg   0.28380
gfz2010exyp  -1.18640
gfz2010eyaz   1.21150
gfz2010eyhh  -1.57590
gfz2010ezwz   0.01970
gfz2010faeu   2.20020
gfz2010falm  -0.52660
gfz2010fauz   3.59690
gfz2010faxg   1.02160
gfz2010fcax   1.01100
gfz2010fcxy   0.15730
gfz2010fcyj  -1.48880
gfz2010fczt  -0.60190
gfz2010fdxr  -4.12930
gfz2010fedq  -0.02910
gfz2010fexw  -0.11490
gfz2010ffhq   1.96830
gfz2010ffjb  -0.78590
gfz2010fihj   0.04560
gfz2010fjal  -0.71980
gfz2010fjmu  -0.89750
gfz2010fkvg   1.33150
gfz2010flha   0.43910
gfz2010flrt   1.54090
gfz2010flxi  -0.70550
gfz2010fneu   2.23290
gfz2010fobc   0.14240
gfz2010fona   0.20060
gfz2010fpqy   0.74910
gfz2010fqdu  -0.83630
gfz2010fser  -0.26760
gfz2010fsth   0.09690
gfz2010ftlm  -2.59890
gfz2010ftsx  -0.94430
gfz2010fwkk  -0.02950
gfz2010fwny   1.75180
gfz2010fwzd  -1.16810
gfz2010fync   2.11190
gfz2010fzoi  -0.62380
gfz2010fzsg  -0.58050
gfz2010gcrl   0.62900
gfz2010gdch  -0.27700
gfz2010gdld  -0.27080
gfz2010gjia   0.99260
gfz2010gjvo  -1.75280
gfz2010glqr  -0.31600
gfz2010glxl   0.16730
gfz2010gmib   0.84400
gfz2010grjd   2.97370
gfz2010grss  -2.71240
gfz2010gslu  -1.24810
gfz2010gtzt  -3.25610
gfz2010gwmp   1.21150
gfz2010gyqp   1.28010
gfz2010gzxr  -1.52020
gfz2010hbka  -0.27910
gfz2010hcio   0.92200
gfz2010hevz  -0.87040
gfz2010hjoc  -2.42820
gfz2010hllj   0.27240
gfz2010hlln  -2.19450
gfz2010hnnf   0.91280
gfz2010hnpi   0.63610
gfz2010hnzr   0.31020
gfz2010homc   2.51300
gfz2010hptz   0.04140
gfz2010hrkr  -1.43060
gfz2010hrpr  -2.19310
gfz2010hxgv   0.63290
gfz2010hxhe  -2.43910
gfz2010hykt  -0.39870
gfz2010icqq   0.03940
gfz2010iefy   1.60140
gfz2010imfv   0.14280
gfz2010imsh   0.26000
gfz2010iobp   1.06720
gfz2010iphd   0.23520
gfz2010iqep  -0.65170
gfz2010iqnm  -0.32870
gfz2010irqr   2.36040
gfz2010irvf   0.27260
gfz2010iull   2.91460
gfz2010ixyc   0.00160
gfz2010izzj   0.25670
gfz2010jipf   0.39570
gfz2010jkxj   0.87570
gfz2010jssh   0.09470
gfz2010jsuh   0.14400
gfz2010jucj  -2.38990
gfz2010jwpy  -0.39300
gfz2010jxbm   1.27780
gfz2010jygz  -1.30720
gfz2010jzku   1.17200
gfz2010kihf   1.09890
gfz2010kjmp   1.87320
gfz2010kmgg  -0.89780
gfz2010kmsv  -1.65680
gfz2010kown   0.21250
gfz2010lczp  -2.37780
gfz2010lepw   0.35960
gfz2010lgwy  -0.18700
gfz2010liqs   0.67090
gfz2010lkcf   0.53540
gfz2010lluj  -0.55790
gfz2010lrlk   3.47110
gfz2010lruw  -1.36660
gfz2010lsft  -0.14180
gfz2010mant   0.13880
gfz2010mbje   2.54670
gfz2010mcrx  -0.44860
gfz2010mdpq  -0.16190
gfz2010mgss  -0.40160
gfz2010mhjt   0.42770
gfz2010mipi  -1.00960
gfz2010miqn   0.20350
gfz2010mkuu  -1.38740
gfz2010mlta   0.99330
gfz2010mncc   0.28790
gfz2010mpuy   0.80550
gfz2010mtab   3.93180
gfz2010mwdq   0.26650
gfz2010nfsj   0.44040
gfz2010nmpc   1.35860
gfz2010nnny  -0.71200
gfz2010nqwf   0.14020
gfz2010nqwo   1.44890
gfz2010nrjo  -0.28560
gfz2010nsck  -0.55980
gfz2010nwef  -1.58110
gfz2010nzla  -0.71090
gfz2010ocxq  -0.29860
gfz2010odpb  -1.14350
gfz2010oedn  -1.38610
gfz2010okdm  -0.27010
gfz2010oluw  -0.59550
gfz2010omla  -1.17450
gfz2010onma  -0.64450
gfz2010oyqy  -2.69890
gfz2010pbdz   0.10400
gfz2010pcxi   0.28560
gfz2010pdtk   0.29410
gfz2010pewa   0.79960
gfz2010pewx  -0.23080
gfz2010pfyu  -0.39670
gfz2010phvg   1.34850
gfz2010pmqd   0.10760
gfz2010pqck   1.02160
gfz2010pxak  -0.76610
gfz2010pxgh  -0.65890
gfz2010qitd   0.44980
gfz2010qkat  -0.68770
gfz2010qpcq   1.33030
gfz2010qpum   0.11090
gfz2010qpvi  -0.25920
gfz2010rkfp  -0.08690
gfz2010rlbv  -0.19140
gfz2010rqwj   0.66020
gfz2010rywq   0.08800
gfz2010sfee   0.19060
gfz2010sfla   0.35030
gfz2010sgzk  -0.40320
gfz2010skqo  -0.65070
gfz2010skve   0.14260
gfz2010srdb  -0.17780
gfz2010svtn   2.76360
gfz2010svve   0.85920
gfz2010swcy   0.51090
gfz2010sxfq  -2.70170
gfz2010sxwt  -1.81880
gfz2010szde   5.03190
gfz2010szim  -0.57210
gfz2010tcbr   0.15560
gfz2010tcrl  -0.51560
gfz2010truw   0.39840
gfz2010txjs   0.12670
gfz2010upfb   1.49740
gfz2010urlq   2.54170
gfz2010usho  -3.70940
gfz2010ustq   0.79590
gfz2010utcg   0.13510
gfz2010utmc   0.63280
gfz2010uyhb  -0.79030
gfz2010uzon  -1.91150
gfz2010vbmd   0.61900
gfz2010veri  -0.46720
gfz2010vhuj  -2.70160
gfz2010vppc  -1.90980
gfz2010vxvs   0.32960
gfz2010wioh  -1.29650
gfz2010wnty  -0.85080
gfz2010wntz  -0.37220
gfz2010wofs  -2.77400
gfz2010wrxx  -0.12380
gfz2010wxqa   0.96510
gfz2010xbdv   3.75980
gfz2010xbgs   0.87050
gfz2010xche   0.28560
gfz2010xden   0.57120
gfz2010xgzw   0.79870
gfz2010xjck  -0.30000
gfz2010xjsj   0.31200
gfz2010xmpr   2.15480
gfz2010xxdb   0.05650
gfz2010xxzn   2.72130
gfz2010yjev   3.00170
gfz2010ymfy  -3.78940
gfz2010ymur  -2.73250
gfz2010yosr  -1.60130
gfz2010yoyx  -1.85070
gfz2010yqqv   0.36720
gfz2010zdpo  -1.28840
gfz2010zeeh   1.06510
gfz2011aatr   2.31720
gfz2011adjs   1.42780
gfz2011ahfw   2.40720
gfz2011alip  -0.32100
gfz2011alsa   3.13930
gfz2011anur  -4.18020
gfz2011aqxf   1.26180
gfz2011bgrp  -0.04240
gfz2011bhha   2.02090
gfz2011blsi  -0.41780
gfz2011bnzn  -0.98410
gfz2011bpkd   0.45670
gfz2011ccpw  -0.22620
gfz2011cndo  -0.41360
gfz2011csju   0.71230
gfz2011ctbn   1.02830
gfz2011cvcg  -0.36740
gfz2011cvfg  -0.11520
gfz2011cwgn  -0.66010
gfz2011cykd   1.44260
gfz2011cynl   0.71480
gfz2011cyre  -1.06590
gfz2011cyuk   0.51080
gfz2011dcqf   0.77260
gfz2011ddao  -1.63920
gfz2011deaf  -0.51230
gfz2011dlyx   0.25210
gfz2011dndz   0.45360
gfz2011dpaa  -0.30850
gfz2011dpmx  -1.59800
gfz2011eayc  -0.00810
gfz2011eazf   0.71590
gfz2011ecaj   0.61570
gfz2011edmm  -2.44060
gfz2011ehzq  -0.00000
gfz2011ejlp  -1.06930
gfz2011eltw   0.15060
gfz2011enva  -0.86440
gfz2011etje   0.27880
gfz2011fgvr   0.27970
gfz2011fhag  -0.36340
gfz2011fhbm  -0.65750
gfz2011fhur   0.16370
gfz2011fkbn  -0.63710
gfz2011flgj   0.89900
gfz2011flhp   0.25340
gfz2011gbmx   0.13450
gfz2011gcwb  -0.11400
gfz2011ggvf  -1.47510
gfz2011gkey   2.20340
gfz2011gkzt  -2.08900
gfz2011haid  -0.25730
gfz2011hbex   0.07000
gfz2011hebt  -0.47840
gfz2011hfkj   0.02810
gfz2011hlqw   0.69900
gfz2011hlsa   0.68820
gfz2011hlth   0.24710
gfz2011hpgx  -0.41810
gfz2011hpqp   0.26970
gfz2011hsfj   0.06290
gfz2011icxe  -2.57420
gfz2011ieie   0.64840
gfz2011izqa  -0.01080
gfz2011jdsj   1.29790
gfz2011jghb  -2.12450
gfz2011jmbn   0.35980
gfz2011jplh   0.61700
gfz2011jtlg  -0.90460
gfz2011juid  -1.41850
gfz2011jxpl  -5.50220
gfz2011knbi  -2.33250
gfz2011knoo  -1.56390
gfz2011kqwo   1.02460
gfz2011kqyg   0.48580
gfz2011kxzp   0.71020
gfz2011lcxq  -1.25990
gfz2011lgsg   0.43980
gfz2011lhls   1.60750
gfz2011lvjr  -1.16520
gfz2011lzwj   0.56890
gfz2011mdie  -0.60700
gfz2011mjom   0.69970
gfz2011mllx  -1.84390
gfz2011mpme   0.30500
gfz2011mprq   0.28970
gfz2011nkaz  -0.76510
gfz2011nmnq   0.79460
gfz2011nmqj  -0.26030
gfz2011nowp  -1.27180
gfz2011npgs   0.42460
gfz2011nqpd  -0.09930
gfz2011nrwv   0.57350
gfz2011ntkh  -1.70260
gfz2011nudm  -0.26820
gfz2011ogqk   1.48930
gfz2011ohcy   0.02890
gfz2011oiqe  -1.05900
gfz2011oiwk   1.05280
gfz2011olkk  -0.32160
gfz2011oolr  -2.39010
gfz2011orgn  -0.24770
gfz2011ornx   1.05810
gfz2011owvz  -0.78490
gfz2011ozsl   0.75200
gfz2011pccd  -0.69940
gfz2011phms   8.51390
gfz2011pntf   2.61010
gfz2011ptus  -1.20120
gfz2011qigx  -0.85490
gfz2011qoif  -1.42400
gfz2011qvae   1.41030
gfz2011qyms  -0.27950
gfz2011rabm   0.27210
gfz2011rdby  -1.61110
gfz2011rewa   1.32380
gfz2011rgwp  -1.17800
gfz2011rqui  -3.11240
gfz2011rsrh   0.23900
gfz2011runa   1.48140
gfz2011sagt   0.73730
gfz2011sawg  -0.05910
gfz2011shqm  -0.82290
gfz2011sthv  -0.00000
gfz2011svix  -0.97870
gfz2011tbas   0.32930
gfz2011tivu   1.13230
gfz2011tjue   1.03180
gfz2011tkfp   1.18020
gfz2011tkog  -0.50140
gfz2011toub  -1.87050
gfz2011tpfr  -0.98800
gfz2011tsfd  -1.42910
gfz2011tsnp  -1.05110
gfz2011ueni   1.16610
gfz2011uepx  -7.18860
gfz2011ugzz  -0.27980
gfz2011ujze  -0.26330
gfz2011ukmp  -1.20770
gfz2011urxy  -1.71580
gfz2011urzu  -0.66870
gfz2011vhfi   0.60290
gfz2011vkun  -2.21920
gfz2011vldk  -3.07650
gfz2011vnza  -5.13740
gfz2011vqnr  -0.66750
gfz2011vrhg  -5.67810
gfz2011vusi   0.10220
gfz2011vxns  -0.12240
gfz2011vxod  -1.35580
gfz2011vxxg   0.13250
gfz2011wcic  -0.41480
gfz2011wfja   1.45340
gfz2011wijj  -1.07070
gfz2011wjkf   0.31690
gfz2011wjul  -2.16680
gfz2011wtmq   0.20440
gfz2011wvzb  -0.58810
gfz2011wwjs  -0.81400
gfz2011wxfs   3.17290
gfz2011wxoj   1.45940
gfz2011wxtk  -2.71530
gfz2011wype   0.31600
gfz2011xaan  -0.32050
gfz2011xcpv   0.83220
gfz2011xesx  -1.58230
gfz2011xqru  -1.34680
gfz2011xyxj   2.00750
gfz2011ytnu   0.42740
gfz2011yybo  -1.44540
gfz2011yzwq  -0.67690
gfz2011zjap  -0.21390
gfz2011zklv   1.32680
gfz2011zlfg  -1.80780
gfz2011zlrd  -0.24690
gfz2011zqhh  -0.31440
gfz2012ajtq   0.74540
gfz2012aqgp   0.62360
gfz2012aqtq  -2.59570
gfz2012attr   0.90880
gfz2012bfah   0.41830
gfz2012bfyn   1.25040
gfz2012bngd   1.54190
gfz2012bpkx  -0.32490
gfz2012bpwl   0.44740
gfz2012brhv  -0.21230
gfz2012byad   0.58400
gfz2012cbed  -0.75550
gfz2012cxdn  -0.10370
gfz2012czlw   0.45980
gfz2012dves  -1.07850
gfz2012dyyh  -2.87320
gfz2012ekda  -0.40960
gfz2012emjg  -2.72240
gfz2012enno   0.93230
gfz2012ewgo  -2.56590
gfz2012ewkj  -0.45410
gfz2012fivh   1.10760
gfz2012foeo   0.02070
gfz2012fqcg  -0.80810
gfz2012fwob  -0.68450
gfz2012fwtr  -0.09530
gfz2012fzfa   1.46170
gfz2012fzsq   0.43370
gfz2012hnul   2.21430
gfz2012holl  -0.68140
gfz2012hwyo  -0.54440
gfz2012hyaa   0.06610
gfz2012iamr   0.04180
gfz2012idje  -1.40330
gfz2012iivw  -0.29530
gfz2012ilvn   0.42320
gfz2012ilxh   0.06460
gfz2012intn   0.98240
gfz2012iyrb  -1.50340
gfz2012jgvj   0.22130
gfz2012jlox   0.81580
gfz2012jpgs   0.69400
gfz2012jted  -2.37730
gfz2012jupx  -2.81880
gfz2012jwhu  -0.86440
gfz2012jxiy  -0.91230
gfz2012kbjb   0.07920
gfz2012kbzj  -0.75350
gfz2012kdmb   0.85320
gfz2012keor  -1.22360
gfz2012kkup   0.87520
gfz2012klhx   0.85780
gfz2012kuct   2.76250
gfz2012kudo   0.57770
gfz2012kvzv   0.44310
gfz2012kwgo  -1.10660
gfz2012lboz   0.53030
gfz2012lczo  -0.71020
gfz2012ldxg  -3.02210
gfz2012ljql  -0.16760
gfz2012llug  -3.39330
gfz2012lrol   0.53540
gfz2012lxkv   1.21940
gfz2012lzmr   1.55430
gfz2012minr  -0.19550
gfz2012mpyl  -0.50390
gfz2012mupa   1.03830
gfz2012mwij   3.28910
gfz2012myqa  -0.48820
gfz2012naqz  -0.37660
gfz2012nbtn  -0.67330
gfz2012nedn  -1.39240
gfz2012ngic   1.07370
gfz2012nkdf  -0.90740
gfz2012nojx  -0.58490
gfz2012nolo  -0.44670
gfz2012nqnk   0.97160
gfz2012ntzv   4.09000
gfz2012nxog   0.47270
gfz2012nxyt   0.69140
gfz2012obgw  -0.51820
gfz2012oedb  -0.55500
gfz2012omvo  -1.67030
gfz2012ostk  -0.24230
gfz2012pciw   0.84100
gfz2012peex   0.01930
gfz2012pgcl   1.10970
gfz2012pkel  -0.37830
gfz2012plea   0.19740
gfz2012pqlt   0.07890
gfz2012pqmu  -0.32650
gfz2012priv   0.27470
gfz2012prlt  -0.98700
gfz2012pspd  -0.55340
gfz2012qqxg   1.54120
gfz2012quso  -0.16120
gfz2012qxcy  -1.77870
gfz2012rats  -0.65440
gfz2012rboy  -1.86600
gfz2012rcbq   0.11570
gfz2012repv   1.27840
gfz2012rqlg   0.55870
gfz2012rtqi  -0.77140
gfz2012ruks   0.22670
gfz2012rwko   0.94410
gfz2012rwov  -0.24270
gfz2012sfer   0.33700
gfz2012shtg  -2.46410
gfz2012sjea   1.15540
gfz2012snhi  -0.13210
gfz2012sphd  -1.28210
gfz2012syvl  -3.48610
gfz2012szla   0.07860
gfz2012tazz  -0.29490
gfz2012tbbp  -1.27210
gfz2012teic   0.28220
gfz2012tmop   0.92410
gfz2012ttoa  -2.60800
gfz2012tyxl  -0.91230
gfz2012tzcc   2.79450
gfz2012tzgb   2.40170
gfz2012uafg   0.43250
gfz2012uaqj   1.48230
gfz2012uciv  -1.40410
gfz2012uhup  -0.41550
gfz2012uqzp   0.21280
gfz2012uyie  -1.03230
gfz2012uyxb   1.93060
gfz2012uzom  -0.69200
gfz2012vceo  -0.71050
gfz2012vdbt   2.02360
gfz2012vpza   0.41680
gfz2012vxvr  -0.48590
gfz2012wdyx  -1.22260
gfz2012wklq  -0.99690
gfz2012wmkd  -1.88390
gfz2012wmsg  -2.55730
gfz2012wpeq  -0.24430
gfz2012wvfl  -0.39720
gfz2012wxer   0.40950
gfz2012wxlg   0.20580
gfz2012wxnu  -0.99170
gfz2012wybs  -0.65940
gfz2012wypz   0.45220
gfz2013pcos  -1.73950
gfz2013pfbx   0.23970
gfz2013pffm  -1.59760
gfz2013pfnf  -2.21040
gfz2013phef   1.80790
gfz2013pkbs   0.70540
gfz2013plhp   0.59480
gfz2013pqui  -3.26830
gfz2013puag  -1.12880
gfz2013pupd  -1.56080
gfz2013pxsj   1.23390
gfz2013qali   0.13480
gfz2013qfmm  -1.43250
gfz2013qfsq  -2.80330
gfz2013qidm   0.00000
gfz2013qmer  -1.95940
gfz2013qwbv   1.21250
gfz2013qzdq  -0.80430
gfz2013rdoo   1.07960
gfz2013reav   0.05530
gfz2013reym   0.76990
gfz2013roki  -1.77160
gfz2013rqcy  -2.43690
gfz2013rqmp  -0.27080
gfz2013rsnr   5.28180
gfz2013rvsm  -0.20810
gfz2013sart   0.29180
gfz2013sebq  -4.36360
gfz2013sfds  -1.21960
gfz2013sfto  -1.83100
gfz2013shlq   0.86680
gfz2013shzy   0.76990
gfz2013snbr   0.05820
gfz2013sred   2.04410
gfz2013stcu  -0.39750
gfz2013suvn  -2.40650
gfz2013svci   0.26220
gfz2013syqk  -0.78640
gfz2013tbzy  -0.21720
gfz2013tcxc   0.48350
gfz2013tcxq  -0.59910
gfz2013tect  -0.14670
gfz2013toxf   0.56760
gfz2013tusd  -1.28360
gfz2013tvmw  -0.33780
gfz2013tyas   0.87530
gfz2013uauo   0.70450
gfz2013ufxk  -0.51420
gfz2013upee   0.30490
gfz2013uuzn   0.72310
gfz2013vexx  -1.76810
gfz2013vfyw   0.86660
gfz2013vfzp   1.99950
gfz2013viul   1.79830
gfz2013vjjc   0.92220
gfz2013vvrq   0.30100
gfz2013vzbo  -0.32380
gfz2013waam   1.17540
gfz2013wbyr   2.63940
gfz2013wkyk  -2.21260
gfz2013wtzl  -1.38100
gfz2013xizq   0.81120
gfz2013xmul  -0.16820
gfz2013xpfa  -1.75280
gfz2013xsdt  -2.67930
gfz2013xtwj  -8.08400
gfz2013xxcc   0.43660
gfz2013xxxq   0.12840
gfz2013xzcg   0.19280
gfz2013yach  -1.28130
gfz2013yctg  -0.70260
gfz2013yghj   1.59540
gfz2013yhpk  -1.19070
gfz2013ylbx  -0.39650
gfz2013ypdc  -0.33720
gfz2013yqkv   0.29730
gfz2013yulx  -0.10230
gfz2013yyhc   0.60500
gfz2013yyti   0.82940
gfz2014abgd   0.22500
gfz2014adoj   1.84560
gfz2014afmx   1.31700
gfz2014ajlk  -1.03110
gfz2014ajtf   1.80310
gfz2014algk  -2.06660
gfz2014alwz  -0.01890
gfz2014amsb   2.06510
gfz2014arpf   0.02190
gfz2014arqr  -0.31430
gfz2014azqs  -0.27210
gfz2014bagd  -0.39030
gfz2014bbro  -0.87680
gfz2014bezu  -0.75860
gfz2014bjgt   0.67320
gfz2014bmta  -1.13990
gfz2014bolf   1.43620
gfz2014bwue   2.72030
gfz2014cgog  -0.10180
gfz2014czua   0.30690
gfz2014dhxt  -0.75030
gfz2014ebmc   0.07980
gfz2014efkk  -0.39460
gfz2014eght  -0.40180
gfz2014emzb  -0.19530
gfz2014eqpl  -1.18970
gfz2014etqa   1.33660
gfz2014exxa   0.63860
gfz2014ezgb   2.61550
gfz2014fcms   0.32300
gfz2014fcsy  -1.65240
gfz2014femz   0.65220
gfz2014fexu   0.68060
gfz2014fgvi   0.49190
gfz2014fhrq   1.18490
gfz2014fhwx   0.36170
gfz2014fimn   1.15020
gfz2014fjyo  -0.42530
gfz2014fkmr   0.98640
gfz2014fnyg  -4.24760
gfz2014frez   2.09010
gfz2014frjr   1.19450
gfz2014fstx  -1.04960
gfz2014ftka  -1.65080
gfz2014ftpw   0.64880
gfz2014fusj   1.27070
gfz2014fuub   3.91300
gfz2014fuup   4.80380
gfz2014fval  -0.09750
gfz2014fvgh   1.38760
gfz2014fvjl   1.02930
gfz2014fwtt  -0.17630
gfz2014gkgf   0.45380
gfz2014glcu  -0.07790
gfz2014glfn   0.80550
gfz2014gltx  -1.37410
gfz2014glvn  -1.60410
gfz2014glvu  -1.39130
gfz2014gmhr   1.47980
gfz2014gmuk   2.02300
gfz2014gmzl  -1.15260
gfz2014gnnt  -0.87700
gfz2014gnre   1.63470
gfz2014gphr  -1.06550
gfz2014grfp   0.31000
gfz2014grgn   1.55760
gfz2014grho   1.63800
gfz2014gsqs  -2.29500
gfz2014gutm   0.45140
gfz2014hafk  -0.78470
gfz2014hagb  -0.25470
gfz2014hbqb   1.59590
gfz2014hfzf   1.48830
gfz2014hhfs   2.08540
gfz2014hjgh  -0.68420
gfz2014hjgr   0.55590
gfz2014hjij  -0.39140
gfz2014hjlx   0.18890
gfz2014hqxs   0.55900
gfz2014hscz  -0.23920
gfz2014huaj  -0.06210
gfz2014hzze   1.51480
gfz2014ikvd   0.90980
gfz2014immt  -1.11240
gfz2014imnn  -1.16700
gfz2014itpj  -0.91470
gfz2014jcjt   3.00800
gfz2014jcmt   2.66040
gfz2014jird  -0.43070
gfz2014jnyv  -3.78150
gfz2014jpgu  -0.49430
gfz2014jvow  -3.49920
gfz2014kjzb  -1.07380
gfz2014knks  -0.73620
gfz2014krlg  -0.47140
gfz2014kwrg  -1.87190
gfz2014lkyf  -0.90670
gfz2014lwom  -0.69800
gfz2014lyhk  -0.46410
gfz2014macx  -1.02110
gfz2014madw   0.48820
gfz2014mhgg  -0.67190
gfz2014mmtb  -0.78400
gfz2014mogb   0.21690
gfz2014mtum  -0.41990
gfz2014navw   1.18510
gfz2014ngnd  -0.04790
gfz2014niqj  -0.00000
gfz2014nnxd  -1.51820
gfz2014nqfm  -0.05280
gfz2014oims  -2.89290
gfz2014ooaa  -1.24760
gfz2014owxc   0.57280
gfz2014oxcc   0.41260
gfz2014oyly  -0.56540
gfz2014pjum  -0.69490
gfz2014pzni  -0.47950
gfz2014qdog   0.30810
gfz2014qjfl  -2.90170
gfz2014qqhm  -1.56180
gfz2014qsby  -0.19630
gfz2014qtwv   0.05330
gfz2014rbpx  -0.19960
gfz2014rbsl   0.50410
gfz2014rdoz  -0.69940
gfz2014rffv  -0.86550
gfz2014rkwl  -0.64820
gfz2014rucz  -0.68690
gfz2014sptq  -0.65840
gfz2014tqly   0.93290
gfz2014tqth  -0.92070
gfz2014tzsd  -3.00110
gfz2014uuqa  -0.08370
gfz2014uvji  -0.58570
gfz2014uxyg  -0.53940
gfz2014uzaw  -0.13670
gfz2014vnxu   0.67170
gfz2014waoo   0.66930
gfz2014watn  -1.86280
gfz2014wqcp  -0.21940
gfz2014wrkh  -1.96850
gfz2014wwib  -1.25650
gfz2014xhkc   1.75160
gfz2014xjri   0.44350
gfz2014xkdg  -1.72340
gfz2014xqqd  -4.07360
gfz2014yyiy  -1.86770
gfz2014zkys  -0.46120
gfz2015abpw   2.46610
gfz2015aide   1.09850
gfz2015ansu  -1.15680
gfz2015aqbq  -0.08070
gfz2015arpd  -1.25850
gfz2015aruz  -0.16250
gfz2015atxv   0.06440
gfz2015bavu  -1.65290
gfz2015bdyd  -2.11950
gfz2015berb   0.84650
gfz2015bfzt   0.30120
gfz2015bkbj   2.25990
gfz2015bphe   0.26500
gfz2015bucr   0.39870
gfz2015chhn   0.58640
gfz2015chqn  -1.09480
gfz2015cyjd  -0.46640
gfz2015dizn   0.39240
gfz2015dskr  -0.02160
gfz2015ednc  -0.16970
gfz2015eeyq   0.52490
gfz2015eezy   0.61750
gfz2015egxq   0.36070
gfz2015emcg  -0.22430
gfz2015emtg  -0.02480
gfz2015fbbk   1.92910
gfz2015fbew  -2.11670
gfz2015fcua   0.14650
gfz2015fkbc   0.20090
gfz2015fkgt   0.40820
gfz2015fkic  -0.38620
gfz2015fxdi   2.15720
gfz2015fyvk   0.67000
gfz2015okmq   0.54190
gfz2015oyfl  -0.22540
gfz2015plal  -0.59460
gfz2015qafb   0.26460
gfz2015qbme   0.13660
gfz2015qvxu  -0.70170
gfz2015rddx   0.36980
gfz2015rpzn   0.34130
gfz2015rwsb   0.40030
gfz2015sdeo   1.22180
gfz2015sdfy   1.48210
gfz2015sevh   0.04370
gfz2015sfdd   1.30730
gfz2015sfdh   0.04840
gfz2015sgmm  -0.66180
gfz2015sgxc   0.11380
gfz2015sist   1.37200
gfz2015sitn   1.40780
gfz2015sjne   0.36870
gfz2015sjpn   0.50130
gfz2015sjwi   0.02150
gfz2015skab   0.10430
gfz2015skgj  -1.13940
gfz2015skia  -1.30310
gfz2015sljs  -0.64210
gfz2015slun   1.17740
gfz2015smgj   0.82290
gfz2015snmr   1.22620
gfz2015snsf  -0.58950
gfz2015snwh   0.50320
gfz2015snyd   1.36580
gfz2015soat  -0.00000
gfz2015soxc   0.58580
gfz2015spal  -2.08000
gfz2015sqbg   0.58130
gfz2015srat  -0.52380
gfz2015svjy  -0.27630
gfz2015svwm   0.61070
gfz2015sxmh   0.99440
gfz2015szcb   0.24420
gfz2015taml  -1.57660
gfz2015tbxe   0.63670
gfz2015tdcu   0.62410
gfz2015teje   0.33560
