-26.04 2.34 -7.70
10.85 2.89 -21.30
-18.55 15.35 -1.80
29.59 -10.35 3.70
-10.54 -4.23 14.80
-7.57 -4.01 -6.40
-36.67 -3.56 -26.40
-1.78 11.35 -2.90
-15.68 2.45 -3.30
0.73 -4.01 -4.20
16.83 -3.12 0.90
10.45 -10.57 -3.90
5.99 -2.00 3.70
-13.67 0.78 -2.80
-7.39 0.45 -4.30
-16.12 9.68 0.30
-5.15 8.68 -2.90
-25.88 5.90 -21.70
-13.77 6.90 -11.80
-11.18 -0.33 -17.40
-2.35 -4.23 -8.60
-6.58 5.01 1.60
-14.28 10.79 3.20
-1.57 1.11 -15.80
-3.24 -10.35 -11.50
-7.74 2.45 -8.70
-3.37 4.90 -7.70
-7.41 4.56 -5.20
-7.02 2.67 -1.60
-14.56 1.89 5.40
-8.82 0.67 2.20
-14.84 0.22 -11.50
-9.83 12.90 -9.80
-11.63 7.23 1.30
16.66 0.44 15.50
-8.50 -3.34 -14.20
-0.10 1.11 -3.40
-5.52 4.67 -5.40
-7.26 4.34 -19.00
-20.56 4.45 -15.00
-2.87 -1.34 -18.80
2.25 -8.79 -9.50
-6.15 5.67 8.30
-3.02 1.56 6.50
4.09 5.12 -2.80
11.58 4.78 -3.40
-16.04 2.00 -0.40
-5.59 -2.00 -17.20
-6.11 9.46 -4.40
