 Tajik-modell (mod1.1 EK280993)   Ref. station MIY8
 13        vel,depth,vdamp,phase (f5.2,5x,f7.2,2x,f7.3,3x,a1)
 5.28       -5.0    999.00
 6.09        0.0    999.00
 6.09       10.0    999.00
 6.36       20.0    999.00
 6.46       30.0    999.00
 7.08       40.0    999.00
 7.08       50.0    999.00
 7.27       60.0    999.00
 7.89       70.0    999.00
 8.07       80.0    999.00
 8.49       90.0    999.00
 8.49      110.0    999.00
 8.49      130.0    999.00
 13
 3.05       -5.0    999.00
 3.57        0.0    999.00
 3.67       10.0    999.00
 3.82       20.0    999.00
 3.82       30.0    999.00
 3.97       40.0    999.00
 4.04       50.0    999.00
 4.17       60.0    999.00
 4.70       70.0    999.00
 4.70       80.0    999.00
 4.70       90.0    999.00
 4.75      110.0    999.00
 4.88      130.0    999.00
