%!PS-Adobe-3.0
%%BoundingBox: 0 0 595 842
%%HiResBoundingBox: 0 0 595 842
%%Title: GMT v5.1.1 (r12968) [64-bit] Document from psbasemap
%%Creator: GMT5
%%For: nooshiri
%%DocumentNeededResources: font Helvetica
%%CreationDate: Wed Aug 26 09:01:09 2015
%%LanguageLevel: 2
%%DocumentData: Clean7Bit
%%Orientation: Landscape
%%Pages: 1
%%EndComments

%%BeginProlog
250 dict begin
/! {bind def} bind def
/# {load def}!
/A /setgray #
/B /setdash #
/C /setrgbcolor #
/D /rlineto #
/E {dup stringwidth pop}!
/F /fill #
/G /rmoveto #
/H /sethsbcolor #
/I /setpattern #
/K /setcmykcolor #
/L /lineto #
/M /moveto #
/N /newpath #
/P /closepath #
/R /rotate #
/S /stroke #
/T /translate #
/U /grestore #
/V /gsave #
/W /setlinewidth #
/Y {findfont exch scalefont setfont}!
/Z /show #
/FP {true charpath flattenpath}!
/MU {matrix setmatrix}!
/MS {/SMat matrix currentmatrix def}!
/MR {SMat setmatrix}!
/edef {exch def}!
/FS {/fc edef /fs {V fc F U} def}!
/FQ {/fs {} def}!
/O0 {/os {N} def}!
/O1 {/os {P S} def}!
/FO {fs os}!
/Sa {M MS dup 0 exch G 0.726542528 mul -72 R dup 0 D 4 {72 R dup 0 D -144 R dup 0 D} repeat pop MR FO}!
/Sb {M dup 0 D exch 0 exch D neg 0 D FO}!
/SB {MS T /BoxR edef /BoxW edef /BoxH edef BoxR 0 M
  BoxW 0 BoxW BoxH BoxR arct BoxW BoxH 0 BoxH BoxR arct 0 BoxH 0 0 BoxR arct 0 0 BoxW 0 BoxR arct MR FO}!
/Sc {N 3 -1 roll 0 360 arc FO}!
/Sd {M 4 {dup} repeat 0 G neg dup dup D exch D D FO}!
/Se {N MS T R scale 0 0 1 0 360 arc MR FO}!
/Sg {M MS 22.5 R dup 0 exch G -22.5 R 0.765366865 mul dup 0 D 6 {-45 R dup 0 D} repeat pop MR FO}!
/Sh {M MS dup 0 G -120 R dup 0 D 4 {-60 R dup 0 D} repeat pop MR FO}!
/Si {M MS dup neg 0 exch G 60 R 1.732050808 mul dup 0 D 120 R 0 D MR FO}!
/Sj {M MS R dup -2 div 2 index -2 div G dup 0 D exch 0 exch D neg 0 D MR FO}!
/Sn {M MS dup 0 exch G -36 R 1.175570505 mul dup 0 D 3 {-72 R dup 0 D} repeat pop MR FO}!
/Sp {N 3 -1 roll 0 360 arc fs N}!
/SP {M {D} repeat FO}!
/Sr {M dup -2 div 2 index -2 div G dup 0 D exch 0 exch D neg 0 D FO}!
/SR {MS T /BoxR edef /BoxW edef /BoxH edef BoxR BoxW -2 div BoxH -2 div T BoxR 0 M
  BoxW 0 BoxW BoxH BoxR arct BoxW BoxH 0 BoxH BoxR arct 0 BoxH 0 0 BoxR arct 0 0 BoxW 0 BoxR arct MR FO}!
/Ss {M 1.414213562 mul dup dup dup -2 div dup G 0 D 0 exch D neg 0 D FO}!
/St {M MS dup 0 exch G -60 R 1.732050808 mul dup 0 D -120 R 0 D MR FO}!
/SV {0 exch M 0 D D D D D 0 D FO}!
/Sv {0 0 M D D 0 D D D D D 0 D D FO}!
/Sw {2 copy M 5 2 roll arc FO}!
/Sx {M 1.414213562 mul 5 {dup} repeat -2 div dup G D neg 0 G neg D S}!
/Sy {M dup 0 exch G dup -2 mul dup 0 exch D S}!
/S+ {M dup 0 G dup -2 mul dup 0 D exch dup G 0 exch D S}!
/S- {M dup 0 G dup -2 mul dup 0 D S}!
/sw {stringwidth pop}!
/sh {V MU 0 0 M FP pathbbox N 4 1 roll pop pop pop U}!
/sd {V MU 0 0 M FP pathbbox N pop pop exch pop U}!
/sH {V MU 0 0 M FP pathbbox N exch pop exch sub exch pop U}!
/sb {E exch sh}!
/bl {}!
/bc {E -2 div 0 G}!
/br {E neg 0 G}!
/ml {dup 0 exch sh -2 div G}!
/mc {dup E -2 div exch sh -2 div G}!
/mr {dup E neg exch sh -2 div G}!
/tl {dup 0 exch sh neg G}!
/tc {dup E -2 div exch sh neg G}!
/tr {dup E neg exch sh neg G}!
/mx {2 copy lt {exch} if pop}!
/PSL_xorig 0 def /PSL_yorig 0 def
/TM {2 copy T PSL_yorig add /PSL_yorig edef PSL_xorig add /PSL_xorig edef}!
/PSL_reencode {findfont dup length dict begin
  {1 index /FID ne {def}{pop pop} ifelse} forall
  exch /Encoding edef currentdict end definefont pop
}!
/PSL_eps_begin {
  /PSL_eps_state save def
  /PSL_dict_count countdictstack def
  /PSL_op_count count 1 sub def
  userdict begin
  /showpage {} def
  0 setgray 0 setlinecap 1 setlinewidth
  0 setlinejoin 10 setmiterlimit [] 0 setdash newpath
  /languagelevel where
  {pop languagelevel 1 ne {false setstrokeadjust false setoverprint} if} if
}!
/PSL_eps_end {
  count PSL_op_count sub {pop} repeat
  countdictstack PSL_dict_count sub {end} repeat
  PSL_eps_state restore
}!
/PSL_transp {
  /.setopacityalpha where {pop .setblendmode .setopacityalpha}{
  /pdfmark where {pop [ /BM exch /CA exch dup /ca exch /SetTransparency pdfmark}
  {pop pop} ifelse} ifelse
}!
/ISOLatin1+_Encoding [
/.notdef	/.notdef	/.notdef	/.notdef	/.notdef	/.notdef	/.notdef	/.notdef
/.notdef	/.notdef	/.notdef	/.notdef	/.notdef	/.notdef	/.notdef	/.notdef
/.notdef	/.notdef	/.notdef	/.notdef	/.notdef	/.notdef	/.notdef	/.notdef
/.notdef	/bullet		/ellipsis	/trademark	/emdash		/endash		/fi		/zcaron
/space		/exclam		/quotedbl	/numbersign	/dollar		/percent	/ampersand	/quoteright
/parenleft	/parenright	/asterisk	/plus		/comma		/minus		/period		/slash
/zero		/one		/two		/three		/four		/five		/six		/seven
/eight		/nine		/colon		/semicolon	/less		/equal		/greater	/question
/at		/A		/B		/C		/D		/E		/F		/G
/H		/I		/J		/K		/L		/M		/N		/O
/P		/Q		/R		/S		/T		/U		/V		/W
/X		/Y		/Z		/bracketleft	/backslash	/bracketright	/asciicircum	/underscore
/quoteleft	/a		/b		/c 		/d		/e		/f		/g
/h		/i		/j		/k		/l		/m		/n		/o
/p		/q		/r		/s		/t		/u		/v		/w
/x		/y		/z		/braceleft	/bar		/braceright	/asciitilde	/scaron
/OE		/dagger		/daggerdbl	/Lslash		/fraction	/guilsinglleft	/Scaron		/guilsinglright
/oe		/Ydieresis	/Zcaron		/lslash		/perthousand	/quotedblbase	/quotedblleft	/quotedblright
/dotlessi	/grave		/acute		/circumflex	/tilde		/macron		/breve		/dotaccent
/dieresis	/quotesinglbase	/ring		/cedilla	/quotesingle	/hungarumlaut	/ogonek		/caron
/space		/exclamdown	/cent		/sterling	/currency	/yen		/brokenbar	/section
/dieresis	/copyright	/ordfeminine	/guillemotleft	/logicalnot	/hyphen		/registered	/macron
/degree		/plusminus	/twosuperior	/threesuperior	/acute		/mu		/paragraph	/periodcentered
/cedilla	/onesuperior	/ordmasculine	/guillemotright	/onequarter	/onehalf	/threequarters	/questiondown
/Agrave		/Aacute		/Acircumflex	/Atilde		/Adieresis	/Aring		/AE		/Ccedilla
/Egrave		/Eacute		/Ecircumflex	/Edieresis	/Igrave		/Iacute		/Icircumflex	/Idieresis
/Eth		/Ntilde		/Ograve		/Oacute		/Ocircumflex	/Otilde		/Odieresis	/multiply
/Oslash		/Ugrave		/Uacute		/Ucircumflex	/Udieresis	/Yacute		/Thorn		/germandbls
/agrave		/aacute		/acircumflex	/atilde		/adieresis	/aring		/ae		/ccedilla
/egrave		/eacute		/ecircumflex	/edieresis	/igrave		/iacute		/icircumflex	/idieresis
/eth		/ntilde		/ograve		/oacute		/ocircumflex	/otilde		/odieresis	/divide
/oslash		/ugrave		/uacute		/ucircumflex	/udieresis	/yacute		/thorn		/ydieresis
] def
/PSL_font_encode 0 0 0 0 0 0 0 0 0 0 0 0 0 0 0 0 0 0 0 0 0 0 0 0 0 0 0 0 0 0 0 0 0 0 0 0 0 0 0 39 array astore def
/F0 {/Helvetica Y}!
/F1 {/Helvetica-Bold Y}!
/F2 {/Helvetica-Oblique Y}!
/F3 {/Helvetica-BoldOblique Y}!
/F4 {/Times-Roman Y}!
/F5 {/Times-Bold Y}!
/F6 {/Times-Italic Y}!
/F7 {/Times-BoldItalic Y}!
/F8 {/Courier Y}!
/F9 {/Courier-Bold Y}!
/F10 {/Courier-Oblique Y}!
/F11 {/Courier-BoldOblique Y}!
/F12 {/Symbol Y}!
/F13 {/AvantGarde-Book Y}!
/F14 {/AvantGarde-BookOblique Y}!
/F15 {/AvantGarde-Demi Y}!
/F16 {/AvantGarde-DemiOblique Y}!
/F17 {/Bookman-Demi Y}!
/F18 {/Bookman-DemiItalic Y}!
/F19 {/Bookman-Light Y}!
/F20 {/Bookman-LightItalic Y}!
/F21 {/Helvetica-Narrow Y}!
/F22 {/Helvetica-Narrow-Bold Y}!
/F23 {/Helvetica-Narrow-Oblique Y}!
/F24 {/Helvetica-Narrow-BoldOblique Y}!
/F25 {/NewCenturySchlbk-Roman Y}!
/F26 {/NewCenturySchlbk-Italic Y}!
/F27 {/NewCenturySchlbk-Bold Y}!
/F28 {/NewCenturySchlbk-BoldItalic Y}!
/F29 {/Palatino-Roman Y}!
/F30 {/Palatino-Italic Y}!
/F31 {/Palatino-Bold Y}!
/F32 {/Palatino-BoldItalic Y}!
/F33 {/ZapfChancery-MediumItalic Y}!
/F34 {/ZapfDingbats Y}!
/F35 {/Ryumin-Light-EUC-H Y}!
/F36 {/Ryumin-Light-EUC-V Y}!
/F37 {/GothicBBB-Medium-EUC-H Y}!
/F38 {/GothicBBB-Medium-EUC-V Y}!
/PSL_pathtextdict 26 dict def
/PSL_pathtext
  {PSL_pathtextdict begin
    /textheight exch def
    /just exch def
    /offset exch def
    /str exch def
    /pathdist 0 def
    /setdist offset def
    /charcount 0 def
    /justy just 4 idiv textheight mul 2 div neg def
    V flattenpath
	{movetoproc} {linetoproc}
	{curvetoproc} {closepathproc}
	pathforall
    U N
    end
  } def
PSL_pathtextdict begin
/movetoproc
  { /newy exch def /newx exch def
    /firstx newx def /firsty newy def
    /ovr 0 def
    newx newy transform
    /cpy exch def /cpx exch def
  } def
/linetoproc
  { /oldx newx def /oldy newy def
    /newy exch def /newx exch def
    /dx newx oldx sub def
    /dy newy oldy sub def
    /dist dx dup mul dy dup mul add sqrt def
    dist 0 ne
    { /dsx dx dist div ovr mul def
      /dsy dy dist div ovr mul def
      oldx dsx add oldy dsy add transform
      /cpy exch def /cpx exch def
      /pathdist pathdist dist add def
      {setdist pathdist le
	  {charcount str length lt
	      {setchar} {exit} ifelse}
	  { /ovr setdist pathdist sub def
	    exit}
	  ifelse
      } loop
    } if
  } def
/curvetoproc
  { (ERROR: No curveto's after flattenpath!)
    print
  } def
/closepathproc
  {firstx firsty linetoproc
    firstx firsty movetoproc
  } def
/setchar
  { /char str charcount 1 getinterval def
    /charcount charcount 1 add def
    /charwidth char stringwidth pop def
    V cpx cpy itransform T
      dy dx atan R
      0 justy M
      char show
      0 justy neg G
      currentpoint transform
      /cpy exch def /cpx exch def
    U /setdist setdist charwidth add def
  } def
end
/PSL_curved_text_labels
{ /bits exch def
  /PSL_clippath bits 1 and 1 eq def
  /PSL_placetext bits 2 and 0 eq def
  /PSL_strokeline bits 4 and 4 eq def
  /PSL_firstcall bits 32 and 32 eq def
  /PSL_lastcall bits 64 and 64 eq def
  /PSL_fillbox bits 128 and 128 eq def
  /PSL_drawbox bits 256 and 256 eq def
  /PSL_n1 PSL_n 1 sub def
  /PSL_m1 PSL_m 1 sub def
  /PSL_usebox PSL_fillbox PSL_drawbox or def
  PSL_CT_calcstringwidth
  PSL_CT_calclinedist
  PSL_CT_addcutpoints
  PSL_clippath PSL_firstcall and
  {clipsave N clippath} if
  PSL_setlinepen
  /PSL_nn1 PSL_nn 1 sub def
  /n 0 def
  /k 0 def
  /j 0 def
  /PSL_seg 0 def
  /PSL_xp PSL_nn array def
  /PSL_yp PSL_nn array def
  PSL_xp 0 PSL_xx 0 get put
  PSL_yp 0 PSL_yy 0 get put
  1 1 PSL_nn1
  { /i exch def
    /node_type PSL_kind i get def
    /j j 1 add def
    PSL_xp j PSL_xx i get put
    PSL_yp j PSL_yy i get put
    node_type 1 eq
    {n 0 eq
      {PSL_CT_drawline}
      {	PSL_CT_reversepath
	PSL_CT_textline} ifelse
      /j 0 def
      PSL_xp j PSL_xx i get put
      PSL_yp j PSL_yy i get put
    } if
  } for
  n 0 eq {PSL_CT_drawline} if
  PSL_lastcall
  {PSL_clippath
    {PSL_clip} if N
  } if
} def
/PSL_CT_textline
{PSL_placetext
  {PSL_clippath
    {PSL_CT_clippath} {PSL_CT_placelabel} ifelse
  } if
  /n 0 def /k k 1 add def PSL_setlinepen
} def
/PSL_CT_calcstringwidth
{ /PSL_width PSL_m array def
  0 1 PSL_m1
  { /i exch def
    PSL_width i PSL_str i get stringwidth pop put
  } for
} def
/PSL_CT_calclinedist
{ /PSL_newx PSL_x 0 get def
  /PSL_newy PSL_y 0 get def
  /dist 0.0 def
  /PSL_dist PSL_n array def
  PSL_dist 0 0.0 put
  1 1 PSL_n1
  { /i exch def
    /PSL_oldx PSL_newx def
    /PSL_oldy PSL_newy def
    /PSL_newx PSL_x i get def
    /PSL_newy PSL_y i get def
    /dx PSL_newx PSL_oldx sub def
    /dy PSL_newy PSL_oldy sub def
    /dist dist dx dx mul dy dy mul add sqrt add def
    PSL_dist i dist put
  } for
} def
/PSL_CT_addcutpoints
{ /k 0 def
  /PSL_nc PSL_m 2 mul 1 add def
  /PSL_cuts PSL_nc array def
  /PSL_nc1 PSL_nc 1 sub def
  0 1 PSL_m1
  { /i exch def
    /dist PSL_dist PSL_node i get get def
    /halfwidth PSL_width i get 2 div PSL_gap_x add def
    PSL_cuts k dist halfwidth sub put
    /k k 1 add def
    PSL_cuts k dist halfwidth add put
    /k k 1 add def
  } for
  PSL_cuts k 100000.0 put
  /PSL_nn PSL_n PSL_m 2 mul add def
  /PSL_xx PSL_nn array def
  /PSL_yy PSL_nn array def
  /PSL_kind PSL_nn array def
  /j 0 def
  /k 0 def
  /dist 0.0 def
  0 1 PSL_n1
  { /i exch def
    /last_dist dist def
    /dist PSL_dist i get def
    k 1 PSL_nc1
    { /kk exch def
      /this_cut PSL_cuts kk get def
      dist this_cut gt
      { /ds dist last_dist sub def
	/f ds 0.0 eq {0.0} {dist this_cut sub ds div} ifelse def
	/i1 i 0 eq {0} {i 1 sub} ifelse def
	PSL_xx j PSL_x i get dup PSL_x i1 get sub f mul sub put
	PSL_yy j PSL_y i get dup PSL_y i1 get sub f mul sub put
	PSL_kind j 1 put
	/j j 1 add def
	/k k 1 add def
      } if
    } for
    dist PSL_cuts k get le
    {PSL_xx j PSL_x i get put PSL_yy j PSL_y i get put
      PSL_kind j 0 put
      /j j 1 add def
    } if
  } for
} def
/PSL_CT_reversepath
{PSL_xp j get PSL_xp 0 get lt
  {0 1 j 2 idiv
    { /left exch def
      /right j left sub def
      /tmp PSL_xp left get def
      PSL_xp left PSL_xp right get put
      PSL_xp right tmp put
      /tmp PSL_yp left get def
      PSL_yp left PSL_yp right get put
      PSL_yp right tmp put
    } for
  } if
} def
/PSL_CT_placelabel
{
  PSL_usebox
  {PSL_CT_clippath
    PSL_fillbox
    {V PSL_setboxrgb fill U} if
    PSL_drawbox
    {PSL_setboxpen S} if N
  } if
  PSL_settxtrgb PSL_CT_placeline PSL_str k get PSL_gap_x PSL_just PSL_height PSL_pathtext
} def
/PSL_CT_clippath
{
  /H PSL_height 2 div PSL_gap_y add def
  /xoff j 1 add array def
  /yoff j 1 add array def
  /angle 0 def
  0 1 j {
    /ii exch def
    /x PSL_xp ii get def
    /y PSL_yp ii get def
    ii 0 eq {
      /x1 PSL_xp 1 get def
      /y1 PSL_yp 1 get def
      /dx x1 x sub def
      /dy y1 y sub def
    }
    { /i1 ii 1 sub def
      /x1 PSL_xp i1 get def
      /y1 PSL_yp i1 get def
      /dx x x1 sub def
      /dy y y1 sub def
    } ifelse
    dx 0.0 ne dy 0.0 ne and
    { /angle dy dx atan 90 add def} if
    /sina angle sin def
    /cosa angle cos def
    xoff ii H cosa mul put
    yoff ii H sina mul put
  } for
  PSL_xp 0 get xoff 0 get add PSL_yp 0 get yoff 0 get add M
  1 1 j {
    /ii exch def
    PSL_xp ii get xoff ii get add PSL_yp ii get yoff ii get add L
  } for
  j -1 0 {
    /ii exch def
    PSL_xp ii get xoff ii get sub PSL_yp ii get yoff ii get sub L
  } for P
} def
/PSL_CT_drawline
{
  /str 20 string def
  PSL_strokeline
  {PSL_CT_placeline PSL_setlinepen S} if
  /PSL_seg PSL_seg 1 add def
  /n 1 def
} def
/PSL_CT_placeline
{PSL_xp 0 get PSL_yp 0 get M
  1 1 j { /ii exch def PSL_xp ii get PSL_yp ii get L} for
} def
/PSL_straight_text_labels
{
  /bits exch def
  /PSL_clippath bits 1 and 0 eq def
  /PSL_rounded bits 16 and 16 eq def
  /PSL_fillbox bits 128 and 128 eq def
  /PSL_drawbox bits 256 and 256 eq def
  /PSL_m1 PSL_m 1 sub def
  /PSL_justx PSL_just 4 mod 1 sub 2 div neg def
  /PSL_justy PSL_just 4 idiv PSL_height mul 2 div neg def
  /PSL_usebox PSL_fillbox PSL_drawbox or def
  PSL_clippath
  {PSL_ST_clippath}
  {PSL_usebox {PSL_ST_clippath} if
    PSL_ST_placelabel
  } ifelse
} def
/PSL_ST_placelabel
{PSL_settxtrgb
  0 1 PSL_m1
  { /k exch def
    /xp PSL_txt_x k get def
    /yp PSL_txt_y k get def
    V PSL_txt_x k get PSL_txt_y k get T
    PSL_angle k get R
    /BoxW PSL_str k get stringwidth pop def
    BoxW PSL_justx mul PSL_justy M
    PSL_str k get show
    U
  } for
} def
/PSL_ST_clippath
{N
  PSL_usebox not {clipsave clippath} if
  PSL_rounded {PSL_ST_clippath_round} {PSL_ST_clippath_rect} ifelse
  PSL_usebox
  {PSL_fillbox
    {V PSL_setboxrgb fill U} if
    PSL_drawbox
    {PSL_setboxpen S} if N
  }
  {PSL_clip
  } ifelse
  N
} def
/PSL_ST_clippath_rect
{
  /BoxH PSL_height PSL_gap_y 2 mul add def
  /DelY BoxH BoxH 0 3 array astore def
  0 1 PSL_m1
  { /k exch def
    /xp PSL_txt_x k get def
    /yp PSL_txt_y k get def
    /MAT PSL_angle k get matrix R def
    /BoxW PSL_str k get stringwidth pop PSL_gap_x 2 mul add def
    /x0 0 BoxW PSL_justx mul add def
    /y0 0 PSL_justy add PSL_gap_y sub def
    /DelX 0 BoxW BoxW 3 array astore def
    x0 y0 MAT transform
    /dy exch def /dx exch def
    xp dx add yp dy add M
    0 1 2
    {
      /ii exch def
      x0 DelX ii get add y0 DelY ii get add MAT transform
      /dy exch def /dx exch def
      xp dx add yp dy add L
    } for P
  } for
} def
/PSL_ST_clippath_round
{
  /PSL_justy2 PSL_just 4 idiv 2 div neg def
  /BoxR PSL_gap_x PSL_gap_y lt {PSL_gap_x} {PSL_gap_y} ifelse def
  /BoxH PSL_height PSL_gap_y 2 mul add def
  /y0 PSL_height PSL_gap_y 2 mul add PSL_justy2 mul def
  0 1 PSL_m1
  { /k exch def
    /xp PSL_txt_x k get def
    /yp PSL_txt_y k get def
    /BoxW PSL_str k get stringwidth pop PSL_gap_x 2 mul add def
    /x0 BoxW PSL_justx mul def
    xp yp T PSL_angle k get R x0 y0 T
    BoxR 0 M
    BoxW 0 BoxW BoxH BoxR arct BoxW BoxH 0 BoxH BoxR arct 0 BoxH 0 0 BoxR arct 0 0 BoxW 0 BoxR arct P
    x0 neg y0 neg T PSL_angle k get neg R xp neg yp neg T
  } for
} def
/PSL_nclip 0 def
/PSL_clip {clip /PSL_nclip PSL_nclip 1 add def} def
/PSL_eoclip {eoclip /PSL_nclip PSL_nclip 1 add def} def
/PSL_cliprestore {cliprestore /PSL_nclip PSL_nclip 1 sub def} def
%%EndProlog

%%BeginSetup
/PSLevel /languagelevel where {pop languagelevel} {1} ifelse def
PSLevel 1 gt { << /PageSize [595 842] /ImagingBBox null >> setpagedevice } if
%%EndSetup

%%Page: 1 1

%%BeginPageSetup
V 595 0 T 90 R 0.06 0.06 scale
%%EndPageSetup

/PSL_page_xsize 14033 def
/PSL_page_ysize 9917 def
0 A
FQ
O0
2400 6000 TM

% PostScript produced by:
%%GMT: psbasemap -R-90.5/-63/0/220 -JX8i/-2.5i -Bxa2.5+lLongitude [deg] -Bya20+lDepth [km] -BWeSn -X2i -Y5i -K
%%PROJ: xy -90.50000000 -63.00000000 0.00000000 220.00000000 -90.500 -63.000 220.000 -0.000 +xy +a=6378137.000 +b=6356752.314245
%%BeginObject PSL_Layer_1
0 setlinecap
0 setlinejoin
3.32551 setmiterlimit
2 setlinecap
/MM {neg exch M} def
/PSL_A0_y 83 def
/PSL_A1_y 0 def
25 W
0 3000 M 0 -3000 D S
8 W
0 3000 M -83 0 D S
0 2727 M -83 0 D S
0 2455 M -83 0 D S
0 2182 M -83 0 D S
0 1909 M -83 0 D S
0 1636 M -83 0 D S
0 1364 M -83 0 D S
0 1091 M -83 0 D S
0 818 M -83 0 D S
0 545 M -83 0 D S
0 273 M -83 0 D S
0 0 M -83 0 D S
/PSL_AH0 0
PSL_font_encode 0 get 0 eq {ISOLatin1+_Encoding /Helvetica /Helvetica PSL_reencode PSL_font_encode 0 1 put} if
200 F0
(0) sw mx
(20) sw mx
(40) sw mx
(60) sw mx
(80) sw mx
(100) sw mx
(120) sw mx
(140) sw mx
(160) sw mx
(180) sw mx
(200) sw mx
(220) sw mx
def
/PSL_A0_y PSL_A0_y 83 add def
3000 PSL_A0_y MM
(0) mr Z
2727 PSL_A0_y MM
(20) mr Z
2455 PSL_A0_y MM
(40) mr Z
2182 PSL_A0_y MM
(60) mr Z
1909 PSL_A0_y MM
(80) mr Z
1636 PSL_A0_y MM
(100) mr Z
1364 PSL_A0_y MM
(120) mr Z
1091 PSL_A0_y MM
(140) mr Z
818 PSL_A0_y MM
(160) mr Z
545 PSL_A0_y MM
(180) mr Z
273 PSL_A0_y MM
(200) mr Z
0 PSL_A0_y MM
(220) mr Z
/PSL_A0_y PSL_A0_y PSL_AH0 add def
/PSL_LH 267 F0
(M) sh def
/PSL_L_y PSL_A0_y PSL_A1_y mx 133 add def
1500 PSL_L_y MM
V 90 R (Depth \[km\]) bc Z U
9600 0 T
/MM {exch M} def
/PSL_A0_y 83 def
/PSL_A1_y 0 def
25 W
0 3000 M 0 -3000 D S
8 W
0 3000 M 83 0 D S
0 2727 M 83 0 D S
0 2455 M 83 0 D S
0 2182 M 83 0 D S
0 1909 M 83 0 D S
0 1636 M 83 0 D S
0 1364 M 83 0 D S
0 1091 M 83 0 D S
0 818 M 83 0 D S
0 545 M 83 0 D S
0 273 M 83 0 D S
0 0 M 83 0 D S
/PSL_LH 0 def /PSL_L_y PSL_A0_y PSL_A1_y mx def
-9600 0 T
/MM {neg M} def
/PSL_A0_y 83 def
/PSL_A1_y 0 def
25 W
0 0 M 9600 0 D S
8 W
175 0 M 0 -83 D S
1047 0 M 0 -83 D S
1920 0 M 0 -83 D S
2793 0 M 0 -83 D S
3665 0 M 0 -83 D S
4538 0 M 0 -83 D S
5411 0 M 0 -83 D S
6284 0 M 0 -83 D S
7156 0 M 0 -83 D S
8029 0 M 0 -83 D S
8902 0 M 0 -83 D S
/PSL_AH0 0
200 F0
(-90.0) sh mx
(-87.5) sh mx
(-85.0) sh mx
(-82.5) sh mx
(-80.0) sh mx
(-77.5) sh mx
(-75.0) sh mx
(-72.5) sh mx
(-70.0) sh mx
(-67.5) sh mx
(-65.0) sh mx
def
/PSL_A0_y PSL_A0_y 83 add PSL_AH0 add def
175 PSL_A0_y MM
(-90.0) bc Z
1047 PSL_A0_y MM
(-87.5) bc Z
1920 PSL_A0_y MM
(-85.0) bc Z
2793 PSL_A0_y MM
(-82.5) bc Z
3665 PSL_A0_y MM
(-80.0) bc Z
4538 PSL_A0_y MM
(-77.5) bc Z
5411 PSL_A0_y MM
(-75.0) bc Z
6284 PSL_A0_y MM
(-72.5) bc Z
7156 PSL_A0_y MM
(-70.0) bc Z
8029 PSL_A0_y MM
(-67.5) bc Z
8902 PSL_A0_y MM
(-65.0) bc Z
/PSL_LH 267 F0
(M) sh def
/PSL_L_y PSL_A0_y PSL_A1_y mx 133 add PSL_LH add def
4800 PSL_L_y MM
(Longitude \[deg\]) bc Z
0 3000 T
/MM {M} def
/PSL_A0_y 83 def
/PSL_A1_y 0 def
25 W
0 0 M 9600 0 D S
8 W
175 0 M 0 83 D S
1047 0 M 0 83 D S
1920 0 M 0 83 D S
2793 0 M 0 83 D S
3665 0 M 0 83 D S
4538 0 M 0 83 D S
5411 0 M 0 83 D S
6284 0 M 0 83 D S
7156 0 M 0 83 D S
8029 0 M 0 83 D S
8902 0 M 0 83 D S
/PSL_LH 0 def /PSL_L_y PSL_A0_y PSL_A1_y mx def
0 -3000 T
0 setlinecap
%%EndObject
0 A
FQ
O0
0 0 TM

% PostScript produced by:
%%GMT: psxy -R-90.5/-63/0/220 -JX8i/-2.5i -Wthinnest -N -O -K
%%PROJ: xy -90.50000000 -63.00000000 0.00000000 220.00000000 -90.500 -63.000 220.000 -0.000 +xy +a=6378137.000 +b=6356752.314245
%%BeginObject PSL_Layer_2
0 setlinecap
0 setlinejoin
3.32551 setmiterlimit
4 W
6799 2997 M
41 0 D
S
6794 2997 M
47 -156 D
S
6831 2999 M
46 -326 D
S
6825 2997 M
61 -405 D
S
6334 2997 M
31 -458 D
S
5830 2989 M
0 0 D
P S
5986 2997 M
46 0 D
S
6784 2997 M
92 -464 D
S
6561 2995 M
-35 -6 D
S
6751 2989 M
71 -437 D
S
5966 2997 M
15 -5 D
S
6804 2997 M
103 -512 D
S
6835 2997 M
51 -261 D
S
6825 2997 M
87 -224 D
S
6815 2997 M
15 0 D
S
6804 2997 M
46 -170 D
S
6613 2995 M
74 -472 D
S
6574 2987 M
120 -632 D
S
3746 2997 M
-51 0 D
S
6763 2997 M
87 -416 D
S
9484 2997 M
-5 -5 D
S
6310 2999 M
5 0 D
S
7275 2987 M
41 0 D
S
7098 2989 M
-46 6 D
S
6944 2999 M
13 -238 D
S
6728 2997 M
81 -325 D
S
6362 2989 M
74 -178 D
S
6380 2997 M
23 -8 D
S
6834 2999 M
57 -412 D
S
6815 2997 M
56 -282 D
S
6262 2997 M
51 -373 D
S
6776 2995 M
72 -342 D
S
6748 2997 M
72 -176 D
S
6400 2997 M
77 -64 D
S
6595 2997 M
10 -10 D
S
6830 2997 M
51 -229 D
S
6329 2997 M
41 0 D
S
6408 2995 M
72 0 D
S
7651 2989 M
-16 -709 D
S
5250 2997 M
10 0 D
S
5871 2989 M
26 6 D
S
6283 2997 M
56 -165 D
S
5621 2995 M
40 -310 D
S
5927 2995 M
72 0 D
S
6891 2987 M
28 -536 D
S
5879 2997 M
25 -154 D
S
6820 2997 M
46 -197 D
S
6711 2999 M
13 -211 D
S
6789 2997 M
102 -448 D
S
6830 2987 M
61 -544 D
S
6789 2997 M
26 0 D
S
5754 2995 M
10 0 D
S
6799 2997 M
39 -216 D
S
6780 2999 M
37 -4 D
S
5321 2997 M
-10 0 D
S
6866 2997 M
36 -213 D
S
6867 2999 M
29 -98 D
S
5690 2997 M
15 0 D
S
6886 2997 M
5 -234 D
S
5339 2989 M
103 -469 D
S
6763 2997 M
118 -565 D
S
5266 2999 M
-2 0 D
S
5764 2995 M
33 -131 D
S
6601 2999 M
53 -420 D
S
6099 2997 M
-46 0 D
S
6789 2997 M
41 -277 D
S
6774 2997 M
82 -394 D
S
5746 2997 M
10 -16 D
S
6758 2997 M
149 -944 D
S
6336 2995 M
62 -214 D
S
5828 2997 M
43 -221 D
S
2652 2997 M
5 0 D
S
6735 2995 M
103 -459 D
S
6799 2987 M
118 -630 D
S
6817 2995 M
118 -368 D
S
6625 2997 M
87 0 D
S
6753 2997 M
80 -434 D
S
7510 2997 M
-61 -138 D
S
6758 2997 M
113 -357 D
S
6747 2999 M
73 -151 D
S
6799 2997 M
28 -34 D
S
6786 2995 M
70 -200 D
S
5240 2997 M
-36 0 D
S
6211 2997 M
21 0 D
S
6804 2997 M
57 -202 D
S
6891 2997 M
62 -330 D
S
6753 2997 M
72 -165 D
S
6835 2997 M
41 -197 D
S
6856 2997 M
115 -482 D
S
6436 2997 M
56 0 D
S
4181 2997 M
-36 0 D
S
6799 2997 M
49 -248 D
S
6462 2997 M
46 -288 D
S
6073 2997 M
-20 0 D
S
6733 2997 M
92 -117 D
S
6748 2997 M
67 -138 D
S
6756 2995 M
77 -262 D
S
6390 2997 M
39 -2 D
S
6776 2995 M
69 -494 D
S
6815 2997 M
46 -240 D
S
6769 2997 M
97 0 D
S
6462 2997 M
30 0 D
S
5929 2999 M
-3 0 D
S
5994 2989 M
66 6 D
S
5853 2997 M
87 -202 D
S
6776 2995 M
118 -454 D
S
5889 2997 M
18 -258 D
S
6574 2997 M
-5 -21 D
S
5925 2997 M
20 0 D
S
5971 2997 M
33 -274 D
S
6707 2997 M
102 -293 D
S
5999 2995 M
38 -814 D
S
6748 2997 M
82 -538 D
S
6799 2997 M
113 -325 D
S
6576 2999 M
159 -644 D
S
6845 2997 M
62 -122 D
S
6785 2999 M
60 -162 D
S
6866 2997 M
30 -277 D
S
8494 2995 M
-736 -2860 D
S
6840 2997 M
56 -154 D
S
6513 2997 M
61 -613 D
S
98 2995 M
-36 -6 D
S
6896 2997 M
31 -176 D
S
6472 2997 M
46 -144 D
S
7259 2997 M
39 -461 D
S
6799 2997 M
62 -213 D
S
6835 2997 M
92 -506 D
S
6816 2999 M
50 -199 D
S
6758 2997 M
62 -384 D
S
5821 2999 M
12 -92 D
S
6733 2997 M
2 -184 D
S
5733 2995 M
41 -352 D
S
6017 2997 M
46 0 D
S
6408 2995 M
-20 -182 D
S
8195 2997 M
-294 -1965 D
S
5787 2997 M
5 0 D
S
8167 2995 M
36 -1798 D
S
6382 2989 M
-35 6 D
S
6804 2997 M
87 -410 D
S
6861 2997 M
41 -138 D
S
6492 2997 M
52 -90 D
S
5835 2995 M
110 -568 D
S
6582 2995 M
23 2 D
S
6958 2997 M
36 -554 D
S
6840 2997 M
67 -426 D
S
6774 2997 M
76 -362 D
S
4986 2995 M
41 -192 D
S
6871 2997 M
16 -198 D
S
6467 2997 M
66 -181 D
S
6784 2997 M
31 -16 D
S
5961 2997 M
35 0 D
S
6807 2995 M
82 -246 D
S
6357 2995 M
64 -408 D
S
5700 2997 M
41 -288 D
S
6857 2999 M
28 -344 D
S
6163 2995 M
89 -531 D
S
5899 2997 M
97 -469 D
S
7165 2995 M
-102 -384 D
S
6815 2997 M
51 -213 D
S
6804 2997 M
67 -346 D
S
6620 2997 M
67 -122 D
S
6794 2997 M
67 -250 D
S
5287 2999 M
-12 -50 D
S
6804 2997 M
57 -133 D
S
6861 2997 M
25 -138 D
S
6804 2997 M
62 -293 D
S
6579 2997 M
-66 0 D
S
6707 2997 M
-5 -389 D
S
6054 2999 M
65 -380 D
S
6799 2997 M
77 -442 D
S
5917 2995 M
-82 -11 D
S
5805 2995 M
-34 -275 D
S
6820 2997 M
67 -473 D
S
6789 2997 M
72 -245 D
S
6779 2997 M
5 0 D
S
6329 2997 M
30 -133 D
S
5293 2995 M
-28 2 D
S
5899 2997 M
16 -314 D
S
6753 2997 M
-10 0 D
S
5894 2997 M
-20 -37 D
S
6794 2997 M
72 -160 D
S
6891 2997 M
28 -2 D
S
5367 2997 M
-5 0 D
S
6899 2995 M
-26 -48 D
S
6677 2997 M
10 -437 D
S
6866 2997 M
36 0 D
S
6755 2999 M
60 -194 D
S
6422 2999 M
35 -2 D
S
5743 2995 M
34 2 D
S
6807 2995 M
125 -259 D
S
6866 2997 M
23 -2 D
S
6830 2992 M
77 -373 D
S
6820 2997 M
82 -480 D
S
6786 2995 M
126 -675 D
S
6344 2997 M
79 -114 D
S
6758 2997 M
77 -378 D
S
6799 2997 M
57 -154 D
S
6839 2999 M
51 -299 D
S
5761 2997 M
26 0 D
S
5327 2997 M
-29 -8 D
S
3378 2997 M
-25 0 D
S
5815 2995 M
41 0 D
S
5825 2995 M
59 -259 D
S
6774 2997 M
51 0 D
S
6848 2995 M
69 2 D
S
5863 2997 M
21 -186 D
S
6487 2997 M
198 -705 D
S
6879 2995 M
17 -120 D
S
6753 2997 M
87 -474 D
S
5204 2997 M
10 0 D
S
6891 2997 M
92 -437 D
S
6797 2995 M
82 -43 D
S
5255 2997 M
10 0 D
S
6553 2999 M
-9 -290 D
S
5150 2995 M
46 -6 D
S
5794 2995 M
118 -347 D
S
6825 2997 M
36 -80 D
S
6912 2997 M
110 -525 D
S
6891 2997 M
31 -133 D
S
6705 2995 M
133 -523 D
S
6677 2997 M
-3 -2 D
S
6792 2989 M
97 -144 D
S
6641 2997 M
-5 0 D
S
6881 2997 M
26 -106 D
S
5958 2995 M
118 -283 D
S
5743 2995 M
44 -280 D
S
6817 2995 M
54 -259 D
S
5736 2997 M
79 -333 D
S
6845 2997 M
62 -544 D
S
6799 2992 M
103 -507 D
S
6830 2997 M
51 -234 D
S
6852 2999 M
41 -110 D
S
5733 2995 M
10 -342 D
S
6804 2997 M
69 -392 D
S
6789 2997 M
59 -312 D
S
6887 2999 M
34 -488 D
S
6799 2997 M
25 -46 D
S
6303 2997 M
51 -362 D
S
6774 2997 M
41 -197 D
S
6794 2997 M
87 -490 D
S
6845 2997 M
30 -246 D
S
6774 2997 M
71 -160 D
S
6830 2997 M
51 -165 D
S
6780 2999 M
60 -231 D
S
6780 2999 M
81 -172 D
S
6725 2995 M
-10 0 D
S
6960 2995 M
-38 2 D
S
6807 2995 M
43 -78 D
S
6830 2997 M
66 -74 D
S
6730 2989 M
128 -197 D
S
5715 2997 M
-20 0 D
S
6795 2999 M
64 -240 D
S
5736 2997 M
20 -224 D
S
6827 2995 M
82 -470 D
S
6881 2997 M
95 -477 D
S
6725 2995 M
10 0 D
S
6285 2995 M
72 -246 D
S
5838 2997 M
-21 0 D
S
6856 2997 M
30 -69 D
S
1438 2995 M
0 0 D
P S
5713 2995 M
76 -539 D
S
6717 2997 M
108 -442 D
S
5736 2997 M
-5 0 D
S
6406 2997 M
46 0 D
S
5812 2997 M
34 -162 D
S
6848 2995 M
54 -248 D
S
6514 2999 M
56 0 D
S
6723 2997 M
15 -405 D
S
6815 2997 M
87 -250 D
S
6163 2995 M
43 -302 D
S
5904 2997 M
46 -394 D
S
5720 2997 M
21 -266 D
S
6416 2997 M
-5 -320 D
S
6002 2997 M
20 -368 D
S
6769 2997 M
71 -272 D
S
6712 2997 M
103 -362 D
S
6820 2997 M
61 -256 D
S
5610 2995 M
23 2 D
S
6204 2995 M
-103 -118 D
S
6917 2997 M
82 -320 D
S
6859 2996 M
23 -152 D
S
6824 2999 M
26 -172 D
S
6467 2987 M
92 -144 D
S
5979 2995 M
38 2 D
S
5823 2997 M
40 -197 D
S
6564 2997 M
-10 0 D
S
2335 2997 M
-26 0 D
S
6809 2997 M
118 -608 D
S
6797 2995 M
51 -256 D
S
6792 2989 M
-41 -448 D
S
6835 2997 M
46 -48 D
S
5752 2999 M
25 -76 D
S
6850 2997 M
31 -213 D
S
6469 2995 M
-2 -19 D
S
6891 2997 M
-20 0 D
S
6528 2997 M
26 -304 D
S
6762 2999 M
83 -540 D
S
6920 2999 M
-6 -57 D
S
6830 2997 M
61 -58 D
S
7651 2989 M
20 -576 D
S
6275 2995 M
69 -88 D
S
6763 2997 M
77 -490 D
S
6845 2997 M
97 -533 D
S
5731 2997 M
-21 0 D
S
6762 2999 M
94 -338 D
S
5866 2995 M
-49 2 D
S
6602 2995 M
31 -22 D
S
6776 2995 M
100 -579 D
S
7413 2997 M
5 0 D
S
5907 2995 M
31 0 D
S
6477 2997 M
44 -45 D
S
6876 2997 M
46 -346 D
S
6518 2997 M
66 -272 D
S
6771 2989 M
118 -272 D
S
6927 2997 M
97 -576 D
S
5669 2997 M
38 -93 D
S
6160 2997 M
44 -333 D
S
6809 2997 M
31 -160 D
S
6605 2997 M
164 -618 D
S
6825 2997 M
74 -397 D
S
6864 2999 M
31 -150 D
S
6861 2997 M
61 -138 D
S
5920 2997 M
15 0 D
S
6779 2997 M
102 -250 D
S
6724 2999 M
-14 -394 D
S
5301 2997 M
-51 0 D
S
6830 2997 M
82 -469 D
S
6743 2997 M
72 -336 D
S
6677 2997 M
-21 0 D
S
7609 2999 M
19 -2 D
S
6336 2995 M
67 -496 D
S
6779 2997 M
61 -240 D
S
6743 2997 M
56 -64 D
S
6917 2997 M
46 -160 D
S
5828 2997 M
5 0 D
S
6429 2995 M
92 -438 D
S
6875 2999 M
52 -210 D
S
8085 2995 M
-488 -1577 D
S
5692 2995 M
54 -243 D
S
6804 2997 M
64 -258 D
S
6395 2997 M
68 -118 D
S
6278 2997 M
104 -520 D
S
6876 2997 M
20 0 D
S
5782 2997 M
15 -234 D
S
5281 2997 M
10 0 D
S
%%EndObject
0 A
FQ
O0
0 0 TM

% PostScript produced by:
%%GMT: psxy -R-90.5/-63/0/220 -JX8i/-2.5i -Sc0.12 -GRED -Wthinnest -O -K
%%PROJ: xy -90.50000000 -63.00000000 0.00000000 220.00000000 -90.500 -63.000 220.000 -0.000 +xy +a=6378137.000 +b=6356752.314245
%%BeginObject PSL_Layer_3
0 setlinecap
0 setlinejoin
3.32551 setmiterlimit
clipsave
0 0 M
9600 0 D
0 3000 D
-9600 0 D
PSL_eoclip N
4 W
V
{1 0 0 C} FS
O1
28 6799 2997 Sc
28 6794 2997 Sc
28 6831 2999 Sc
28 6825 2997 Sc
28 6334 2997 Sc
28 5830 2989 Sc
28 5986 2997 Sc
28 6784 2997 Sc
28 6561 2995 Sc
28 6751 2989 Sc
28 5966 2997 Sc
28 6804 2997 Sc
28 6835 2997 Sc
28 6825 2997 Sc
28 6815 2997 Sc
28 6804 2997 Sc
28 6613 2995 Sc
28 6574 2987 Sc
28 3746 2997 Sc
28 6763 2997 Sc
28 9484 2997 Sc
28 6310 2999 Sc
28 7275 2987 Sc
28 7098 2989 Sc
28 6944 2999 Sc
28 6728 2997 Sc
28 6362 2989 Sc
28 6380 2997 Sc
28 6834 2999 Sc
28 6815 2997 Sc
28 6262 2997 Sc
28 6776 2995 Sc
28 6748 2997 Sc
28 6400 2997 Sc
28 6595 2997 Sc
28 6830 2997 Sc
28 6329 2997 Sc
28 6408 2995 Sc
28 7651 2989 Sc
28 5250 2997 Sc
28 5871 2989 Sc
28 6283 2997 Sc
28 5621 2995 Sc
28 5927 2995 Sc
28 6891 2987 Sc
28 5879 2997 Sc
28 6820 2997 Sc
28 6711 2999 Sc
28 6789 2997 Sc
28 6830 2987 Sc
28 6789 2997 Sc
28 5754 2995 Sc
28 6799 2997 Sc
28 6780 2999 Sc
28 5321 2997 Sc
28 6866 2997 Sc
28 6867 2999 Sc
28 5690 2997 Sc
28 6886 2997 Sc
28 5339 2989 Sc
28 6763 2997 Sc
28 5266 2999 Sc
28 5764 2995 Sc
28 6601 2999 Sc
28 6099 2997 Sc
28 6789 2997 Sc
28 6774 2997 Sc
28 5746 2997 Sc
28 6758 2997 Sc
28 6336 2995 Sc
28 5828 2997 Sc
28 2652 2997 Sc
28 6735 2995 Sc
28 6799 2987 Sc
28 6817 2995 Sc
28 6625 2997 Sc
28 6753 2997 Sc
28 7510 2997 Sc
28 6758 2997 Sc
28 6747 2999 Sc
28 6799 2997 Sc
28 6786 2995 Sc
28 5240 2997 Sc
28 6211 2997 Sc
28 6804 2997 Sc
28 6891 2997 Sc
28 6753 2997 Sc
28 6835 2997 Sc
28 6856 2997 Sc
28 6436 2997 Sc
28 4181 2997 Sc
28 6799 2997 Sc
28 6462 2997 Sc
28 6073 2997 Sc
28 6733 2997 Sc
28 6748 2997 Sc
28 6756 2995 Sc
28 6390 2997 Sc
28 6776 2995 Sc
28 6815 2997 Sc
28 6769 2997 Sc
28 6462 2997 Sc
28 5929 2999 Sc
28 5994 2989 Sc
28 5853 2997 Sc
28 6776 2995 Sc
28 5889 2997 Sc
28 6574 2997 Sc
28 5925 2997 Sc
28 5971 2997 Sc
28 6707 2997 Sc
28 5999 2995 Sc
28 6748 2997 Sc
28 6799 2997 Sc
28 6576 2999 Sc
28 6845 2997 Sc
28 6785 2999 Sc
28 6866 2997 Sc
28 8494 2995 Sc
28 6840 2997 Sc
28 6513 2997 Sc
28 98 2995 Sc
28 6896 2997 Sc
28 6472 2997 Sc
28 7259 2997 Sc
28 6799 2997 Sc
28 6835 2997 Sc
28 6816 2999 Sc
28 6758 2997 Sc
28 5821 2999 Sc
28 6733 2997 Sc
28 5733 2995 Sc
28 6017 2997 Sc
28 6408 2995 Sc
28 8195 2997 Sc
28 5787 2997 Sc
28 8167 2995 Sc
28 6382 2989 Sc
28 6804 2997 Sc
28 6861 2997 Sc
28 6492 2997 Sc
28 5835 2995 Sc
28 6582 2995 Sc
28 6958 2997 Sc
28 6840 2997 Sc
28 6774 2997 Sc
28 4986 2995 Sc
28 6871 2997 Sc
28 6467 2997 Sc
28 6784 2997 Sc
28 5961 2997 Sc
28 6807 2995 Sc
28 6357 2995 Sc
28 5700 2997 Sc
28 6857 2999 Sc
28 6163 2995 Sc
28 5899 2997 Sc
28 7165 2995 Sc
28 6815 2997 Sc
28 6804 2997 Sc
28 6620 2997 Sc
28 6794 2997 Sc
28 5287 2999 Sc
28 6804 2997 Sc
28 6861 2997 Sc
28 6804 2997 Sc
28 6579 2997 Sc
28 6707 2997 Sc
28 6054 2999 Sc
28 6799 2997 Sc
28 5917 2995 Sc
28 5805 2995 Sc
28 6820 2997 Sc
28 6789 2997 Sc
28 6779 2997 Sc
28 6329 2997 Sc
28 5293 2995 Sc
28 5899 2997 Sc
28 6753 2997 Sc
28 5894 2997 Sc
28 6794 2997 Sc
28 6891 2997 Sc
28 5367 2997 Sc
28 6899 2995 Sc
28 6677 2997 Sc
28 6866 2997 Sc
28 6755 2999 Sc
28 6422 2999 Sc
28 5743 2995 Sc
28 6807 2995 Sc
28 6866 2997 Sc
28 6830 2992 Sc
28 6820 2997 Sc
28 6786 2995 Sc
28 6344 2997 Sc
28 6758 2997 Sc
28 6799 2997 Sc
28 6839 2999 Sc
28 5761 2997 Sc
28 5327 2997 Sc
28 3378 2997 Sc
28 5815 2995 Sc
28 5825 2995 Sc
28 6774 2997 Sc
28 6848 2995 Sc
28 5863 2997 Sc
28 6487 2997 Sc
28 6879 2995 Sc
28 6753 2997 Sc
28 5204 2997 Sc
28 6891 2997 Sc
28 6797 2995 Sc
28 5255 2997 Sc
28 6553 2999 Sc
28 5150 2995 Sc
28 5794 2995 Sc
28 6825 2997 Sc
28 6912 2997 Sc
28 6891 2997 Sc
28 6705 2995 Sc
28 6677 2997 Sc
28 6792 2989 Sc
28 6641 2997 Sc
28 6881 2997 Sc
28 5958 2995 Sc
28 5743 2995 Sc
28 6817 2995 Sc
28 5736 2997 Sc
28 6845 2997 Sc
28 6799 2992 Sc
28 6830 2997 Sc
28 6852 2999 Sc
28 5733 2995 Sc
28 6804 2997 Sc
28 6789 2997 Sc
28 6887 2999 Sc
28 6799 2997 Sc
28 6303 2997 Sc
28 6774 2997 Sc
28 6794 2997 Sc
28 6845 2997 Sc
28 6774 2997 Sc
28 6830 2997 Sc
28 6780 2999 Sc
28 6780 2999 Sc
28 6725 2995 Sc
28 6960 2995 Sc
28 6807 2995 Sc
28 6830 2997 Sc
28 6730 2989 Sc
28 5715 2997 Sc
28 6795 2999 Sc
28 5736 2997 Sc
28 6827 2995 Sc
28 6881 2997 Sc
28 6725 2995 Sc
28 6285 2995 Sc
28 5838 2997 Sc
28 6856 2997 Sc
28 1438 2995 Sc
28 5713 2995 Sc
28 6717 2997 Sc
28 5736 2997 Sc
28 6406 2997 Sc
28 5812 2997 Sc
28 6848 2995 Sc
28 6514 2999 Sc
28 6723 2997 Sc
28 6815 2997 Sc
28 6163 2995 Sc
28 5904 2997 Sc
28 5720 2997 Sc
28 6416 2997 Sc
28 6002 2997 Sc
28 6769 2997 Sc
28 6712 2997 Sc
28 6820 2997 Sc
28 5610 2995 Sc
28 6204 2995 Sc
28 6917 2997 Sc
28 6859 2996 Sc
28 6824 2999 Sc
28 6467 2987 Sc
28 5979 2995 Sc
28 5823 2997 Sc
28 6564 2997 Sc
28 2335 2997 Sc
28 6809 2997 Sc
28 6797 2995 Sc
28 6792 2989 Sc
28 6835 2997 Sc
28 5752 2999 Sc
28 6850 2997 Sc
28 6469 2995 Sc
28 6891 2997 Sc
28 6528 2997 Sc
28 6762 2999 Sc
28 6920 2999 Sc
28 6830 2997 Sc
28 7651 2989 Sc
28 6275 2995 Sc
28 6763 2997 Sc
28 6845 2997 Sc
28 5731 2997 Sc
28 6762 2999 Sc
28 5866 2995 Sc
28 6602 2995 Sc
28 6776 2995 Sc
28 7413 2997 Sc
28 5907 2995 Sc
28 6477 2997 Sc
28 6876 2997 Sc
28 6518 2997 Sc
28 6771 2989 Sc
28 6927 2997 Sc
28 5669 2997 Sc
28 6160 2997 Sc
28 6809 2997 Sc
28 6605 2997 Sc
28 6825 2997 Sc
28 6864 2999 Sc
28 6861 2997 Sc
28 5920 2997 Sc
28 6779 2997 Sc
28 6724 2999 Sc
28 5301 2997 Sc
28 6830 2997 Sc
28 6743 2997 Sc
28 6677 2997 Sc
28 7609 2999 Sc
28 6336 2995 Sc
28 6779 2997 Sc
28 6743 2997 Sc
28 6917 2997 Sc
28 5828 2997 Sc
28 6429 2995 Sc
28 6875 2999 Sc
28 8085 2995 Sc
28 5692 2995 Sc
28 6804 2997 Sc
28 6395 2997 Sc
28 6278 2997 Sc
28 6876 2997 Sc
28 5782 2997 Sc
28 5281 2997 Sc
U
PSL_cliprestore
%%EndObject
0 A
FQ
O0
0 0 TM

% PostScript produced by:
%%GMT: psxy -R-90.5/-63/0/220 -JX8i/-2.5i -Sc0.12 -GSEAGREEN -Wthinnest -O -K
%%PROJ: xy -90.50000000 -63.00000000 0.00000000 220.00000000 -90.500 -63.000 220.000 -0.000 +xy +a=6378137.000 +b=6356752.314245
%%BeginObject PSL_Layer_4
0 setlinecap
0 setlinejoin
3.32551 setmiterlimit
clipsave
0 0 M
9600 0 D
0 3000 D
-9600 0 D
PSL_eoclip N
4 W
V
{0.18 0.545 0.341 C} FS
O1
28 6840 2997 Sc
28 6841 2841 Sc
28 6877 2673 Sc
28 6886 2592 Sc
28 6365 2539 Sc
28 5830 2989 Sc
28 6032 2997 Sc
28 6876 2533 Sc
28 6526 2989 Sc
28 6822 2552 Sc
28 5981 2992 Sc
28 6907 2485 Sc
28 6886 2736 Sc
28 6912 2773 Sc
28 6830 2997 Sc
28 6850 2827 Sc
28 6687 2523 Sc
28 6694 2355 Sc
28 3695 2997 Sc
28 6850 2581 Sc
28 9479 2992 Sc
28 6315 2999 Sc
28 7316 2987 Sc
28 7052 2995 Sc
28 6957 2761 Sc
28 6809 2672 Sc
28 6436 2811 Sc
28 6403 2989 Sc
28 6891 2587 Sc
28 6871 2715 Sc
28 6313 2624 Sc
28 6848 2653 Sc
28 6820 2821 Sc
28 6477 2933 Sc
28 6605 2987 Sc
28 6881 2768 Sc
28 6370 2997 Sc
28 6480 2995 Sc
28 7635 2280 Sc
28 5260 2997 Sc
28 5897 2995 Sc
28 6339 2832 Sc
28 5661 2685 Sc
28 5999 2995 Sc
28 6919 2451 Sc
28 5904 2843 Sc
28 6866 2800 Sc
28 6724 2788 Sc
28 6891 2549 Sc
28 6891 2443 Sc
28 6815 2997 Sc
28 5764 2995 Sc
28 6838 2781 Sc
28 6817 2995 Sc
28 5311 2997 Sc
28 6902 2784 Sc
28 6896 2901 Sc
28 5705 2997 Sc
28 6891 2763 Sc
28 5442 2520 Sc
28 6881 2432 Sc
28 5264 2999 Sc
28 5797 2864 Sc
28 6654 2579 Sc
28 6053 2997 Sc
28 6830 2720 Sc
28 6856 2603 Sc
28 5756 2981 Sc
28 6907 2053 Sc
28 6398 2781 Sc
28 5871 2776 Sc
28 2657 2997 Sc
28 6838 2536 Sc
28 6917 2357 Sc
28 6935 2627 Sc
28 6712 2997 Sc
28 6833 2563 Sc
28 7449 2859 Sc
28 6871 2640 Sc
28 6820 2848 Sc
28 6827 2963 Sc
28 6856 2795 Sc
28 5204 2997 Sc
28 6232 2997 Sc
28 6861 2795 Sc
28 6953 2667 Sc
28 6825 2832 Sc
28 6876 2800 Sc
28 6971 2515 Sc
28 6492 2997 Sc
28 4145 2997 Sc
28 6848 2749 Sc
28 6508 2709 Sc
28 6053 2997 Sc
28 6825 2880 Sc
28 6815 2859 Sc
28 6833 2733 Sc
28 6429 2995 Sc
28 6845 2501 Sc
28 6861 2757 Sc
28 6866 2997 Sc
28 6492 2997 Sc
28 5926 2999 Sc
28 6060 2995 Sc
28 5940 2795 Sc
28 6894 2541 Sc
28 5907 2739 Sc
28 6569 2976 Sc
28 5945 2997 Sc
28 6004 2723 Sc
28 6809 2704 Sc
28 6037 2181 Sc
28 6830 2459 Sc
28 6912 2672 Sc
28 6735 2355 Sc
28 6907 2875 Sc
28 6845 2837 Sc
28 6896 2720 Sc
28 7758 135 Sc
28 6896 2843 Sc
28 6574 2384 Sc
28 62 2989 Sc
28 6927 2821 Sc
28 6518 2853 Sc
28 7298 2536 Sc
28 6861 2784 Sc
28 6927 2491 Sc
28 6866 2800 Sc
28 6820 2613 Sc
28 5833 2907 Sc
28 6735 2813 Sc
28 5774 2643 Sc
28 6063 2997 Sc
28 6388 2813 Sc
28 7901 1032 Sc
28 5792 2997 Sc
28 8203 1197 Sc
28 6347 2995 Sc
28 6891 2587 Sc
28 6902 2859 Sc
28 6544 2907 Sc
28 5945 2427 Sc
28 6605 2997 Sc
28 6994 2443 Sc
28 6907 2571 Sc
28 6850 2635 Sc
28 5027 2803 Sc
28 6887 2799 Sc
28 6533 2816 Sc
28 6815 2981 Sc
28 5996 2997 Sc
28 6889 2749 Sc
28 6421 2587 Sc
28 5741 2709 Sc
28 6885 2655 Sc
28 6252 2464 Sc
28 5996 2528 Sc
28 7063 2611 Sc
28 6866 2784 Sc
28 6871 2651 Sc
28 6687 2875 Sc
28 6861 2747 Sc
28 5275 2949 Sc
28 6861 2864 Sc
28 6886 2859 Sc
28 6866 2704 Sc
28 6513 2997 Sc
28 6702 2608 Sc
28 6119 2619 Sc
28 6876 2555 Sc
28 5835 2984 Sc
28 5771 2720 Sc
28 6887 2524 Sc
28 6861 2752 Sc
28 6784 2997 Sc
28 6359 2864 Sc
28 5265 2997 Sc
28 5915 2683 Sc
28 6743 2997 Sc
28 5874 2960 Sc
28 6866 2837 Sc
28 6919 2995 Sc
28 5362 2997 Sc
28 6873 2947 Sc
28 6687 2560 Sc
28 6902 2997 Sc
28 6815 2805 Sc
28 6457 2997 Sc
28 5777 2997 Sc
28 6932 2736 Sc
28 6889 2995 Sc
28 6907 2619 Sc
28 6902 2517 Sc
28 6912 2320 Sc
28 6423 2883 Sc
28 6835 2619 Sc
28 6856 2843 Sc
28 6890 2700 Sc
28 5787 2997 Sc
28 5298 2989 Sc
28 3353 2997 Sc
28 5856 2995 Sc
28 5884 2736 Sc
28 6825 2997 Sc
28 6917 2997 Sc
28 5884 2811 Sc
28 6685 2292 Sc
28 6896 2875 Sc
28 6840 2523 Sc
28 5214 2997 Sc
28 6983 2560 Sc
28 6879 2952 Sc
28 5265 2997 Sc
28 6544 2709 Sc
28 5196 2989 Sc
28 5912 2648 Sc
28 6861 2917 Sc
28 7022 2472 Sc
28 6922 2864 Sc
28 6838 2472 Sc
28 6674 2995 Sc
28 6889 2845 Sc
28 6636 2997 Sc
28 6907 2891 Sc
28 6076 2712 Sc
28 5787 2715 Sc
28 6871 2736 Sc
28 5815 2664 Sc
28 6907 2453 Sc
28 6902 2485 Sc
28 6881 2763 Sc
28 6893 2889 Sc
28 5743 2653 Sc
28 6873 2605 Sc
28 6848 2685 Sc
28 6921 2511 Sc
28 6824 2951 Sc
28 6354 2635 Sc
28 6815 2800 Sc
28 6881 2507 Sc
28 6875 2751 Sc
28 6845 2837 Sc
28 6881 2832 Sc
28 6840 2768 Sc
28 6861 2827 Sc
28 6715 2995 Sc
28 6922 2997 Sc
28 6850 2917 Sc
28 6896 2923 Sc
28 6858 2792 Sc
28 5695 2997 Sc
28 6859 2759 Sc
28 5756 2773 Sc
28 6909 2525 Sc
28 6976 2520 Sc
28 6735 2995 Sc
28 6357 2749 Sc
28 5817 2997 Sc
28 6886 2928 Sc
28 1438 2995 Sc
28 5789 2456 Sc
28 6825 2555 Sc
28 5731 2997 Sc
28 6452 2997 Sc
28 5846 2835 Sc
28 6902 2747 Sc
28 6570 2999 Sc
28 6738 2592 Sc
28 6902 2747 Sc
28 6206 2693 Sc
28 5950 2603 Sc
28 5741 2731 Sc
28 6411 2677 Sc
28 6022 2629 Sc
28 6840 2725 Sc
28 6815 2635 Sc
28 6881 2741 Sc
28 5633 2997 Sc
28 6101 2877 Sc
28 6999 2677 Sc
28 6882 2844 Sc
28 6850 2827 Sc
28 6559 2843 Sc
28 6017 2997 Sc
28 5863 2800 Sc
28 6554 2997 Sc
28 2309 2997 Sc
28 6927 2389 Sc
28 6848 2739 Sc
28 6751 2541 Sc
28 6881 2949 Sc
28 5777 2923 Sc
28 6881 2784 Sc
28 6467 2976 Sc
28 6871 2997 Sc
28 6554 2693 Sc
28 6845 2459 Sc
28 6914 2942 Sc
28 6891 2939 Sc
28 7671 2413 Sc
28 6344 2907 Sc
28 6840 2507 Sc
28 6942 2464 Sc
28 5710 2997 Sc
28 6856 2661 Sc
28 5817 2997 Sc
28 6633 2973 Sc
28 6876 2416 Sc
28 7418 2997 Sc
28 5938 2995 Sc
28 6521 2952 Sc
28 6922 2651 Sc
28 6584 2725 Sc
28 6889 2717 Sc
28 7024 2421 Sc
28 5707 2904 Sc
28 6204 2664 Sc
28 6840 2837 Sc
28 6769 2379 Sc
28 6899 2600 Sc
28 6895 2849 Sc
28 6922 2859 Sc
28 5935 2997 Sc
28 6881 2747 Sc
28 6710 2605 Sc
28 5250 2997 Sc
28 6912 2528 Sc
28 6815 2661 Sc
28 6656 2997 Sc
28 7628 2997 Sc
28 6403 2499 Sc
28 6840 2757 Sc
28 6799 2933 Sc
28 6963 2837 Sc
28 5833 2997 Sc
28 6521 2557 Sc
28 6927 2789 Sc
28 7597 1418 Sc
28 5746 2752 Sc
28 6868 2739 Sc
28 6463 2879 Sc
28 6382 2477 Sc
28 6896 2997 Sc
28 5797 2763 Sc
28 5291 2997 Sc
U
PSL_cliprestore
%%EndObject
0 A
FQ
O0
0 -4800 TM

% PostScript produced by:
%%GMT: psbasemap -R-45/-14.5/0/220 -JX8i/-2.5i -Bxa2.5+lLatitude [deg] -Bya20+lDepth [km] -BWeSn -Y-4i -O -K
%%PROJ: xy -45.00000000 -14.50000000 0.00000000 220.00000000 -45.000 -14.500 220.000 -0.000 +xy +a=6378137.000 +b=6356752.314245
%%BeginObject PSL_Layer_5
0 setlinecap
0 setlinejoin
3.32551 setmiterlimit
2 setlinecap
/MM {neg exch M} def
/PSL_A0_y 83 def
/PSL_A1_y 0 def
25 W
0 3000 M 0 -3000 D S
8 W
0 3000 M -83 0 D S
0 2727 M -83 0 D S
0 2455 M -83 0 D S
0 2182 M -83 0 D S
0 1909 M -83 0 D S
0 1636 M -83 0 D S
0 1364 M -83 0 D S
0 1091 M -83 0 D S
0 818 M -83 0 D S
0 545 M -83 0 D S
0 273 M -83 0 D S
0 0 M -83 0 D S
/PSL_AH0 0
PSL_font_encode 0 get 0 eq {ISOLatin1+_Encoding /Helvetica /Helvetica PSL_reencode PSL_font_encode 0 1 put} if
200 F0
(0) sw mx
(20) sw mx
(40) sw mx
(60) sw mx
(80) sw mx
(100) sw mx
(120) sw mx
(140) sw mx
(160) sw mx
(180) sw mx
(200) sw mx
(220) sw mx
def
/PSL_A0_y PSL_A0_y 83 add def
3000 PSL_A0_y MM
(0) mr Z
2727 PSL_A0_y MM
(20) mr Z
2455 PSL_A0_y MM
(40) mr Z
2182 PSL_A0_y MM
(60) mr Z
1909 PSL_A0_y MM
(80) mr Z
1636 PSL_A0_y MM
(100) mr Z
1364 PSL_A0_y MM
(120) mr Z
1091 PSL_A0_y MM
(140) mr Z
818 PSL_A0_y MM
(160) mr Z
545 PSL_A0_y MM
(180) mr Z
273 PSL_A0_y MM
(200) mr Z
0 PSL_A0_y MM
(220) mr Z
/PSL_A0_y PSL_A0_y PSL_AH0 add def
/PSL_LH 267 F0
(M) sh def
/PSL_L_y PSL_A0_y PSL_A1_y mx 133 add def
1500 PSL_L_y MM
V 90 R (Depth \[km\]) bc Z U
9600 0 T
/MM {exch M} def
/PSL_A0_y 83 def
/PSL_A1_y 0 def
25 W
0 3000 M 0 -3000 D S
8 W
0 3000 M 83 0 D S
0 2727 M 83 0 D S
0 2455 M 83 0 D S
0 2182 M 83 0 D S
0 1909 M 83 0 D S
0 1636 M 83 0 D S
0 1364 M 83 0 D S
0 1091 M 83 0 D S
0 818 M 83 0 D S
0 545 M 83 0 D S
0 273 M 83 0 D S
0 0 M 83 0 D S
/PSL_LH 0 def /PSL_L_y PSL_A0_y PSL_A1_y mx def
-9600 0 T
/MM {neg M} def
/PSL_A0_y 83 def
/PSL_A1_y 0 def
25 W
0 0 M 9600 0 D S
8 W
0 0 M 0 -83 D S
787 0 M 0 -83 D S
1574 0 M 0 -83 D S
2361 0 M 0 -83 D S
3148 0 M 0 -83 D S
3934 0 M 0 -83 D S
4721 0 M 0 -83 D S
5508 0 M 0 -83 D S
6295 0 M 0 -83 D S
7082 0 M 0 -83 D S
7869 0 M 0 -83 D S
8656 0 M 0 -83 D S
9443 0 M 0 -83 D S
/PSL_AH0 0
200 F0
(-45.0) sh mx
(-42.5) sh mx
(-40.0) sh mx
(-37.5) sh mx
(-35.0) sh mx
(-32.5) sh mx
(-30.0) sh mx
(-27.5) sh mx
(-25.0) sh mx
(-22.5) sh mx
(-20.0) sh mx
(-17.5) sh mx
(-15.0) sh mx
def
/PSL_A0_y PSL_A0_y 83 add PSL_AH0 add def
0 PSL_A0_y MM
(-45.0) bc Z
787 PSL_A0_y MM
(-42.5) bc Z
1574 PSL_A0_y MM
(-40.0) bc Z
2361 PSL_A0_y MM
(-37.5) bc Z
3148 PSL_A0_y MM
(-35.0) bc Z
3934 PSL_A0_y MM
(-32.5) bc Z
4721 PSL_A0_y MM
(-30.0) bc Z
5508 PSL_A0_y MM
(-27.5) bc Z
6295 PSL_A0_y MM
(-25.0) bc Z
7082 PSL_A0_y MM
(-22.5) bc Z
7869 PSL_A0_y MM
(-20.0) bc Z
8656 PSL_A0_y MM
(-17.5) bc Z
9443 PSL_A0_y MM
(-15.0) bc Z
/PSL_LH 267 F0
(M) sh def
/PSL_L_y PSL_A0_y PSL_A1_y mx 133 add PSL_LH add def
4800 PSL_L_y MM
(Latitude \[deg\]) bc Z
0 3000 T
/MM {M} def
/PSL_A0_y 83 def
/PSL_A1_y 0 def
25 W
0 0 M 9600 0 D S
8 W
0 0 M 0 83 D S
787 0 M 0 83 D S
1574 0 M 0 83 D S
2361 0 M 0 83 D S
3148 0 M 0 83 D S
3934 0 M 0 83 D S
4721 0 M 0 83 D S
5508 0 M 0 83 D S
6295 0 M 0 83 D S
7082 0 M 0 83 D S
7869 0 M 0 83 D S
8656 0 M 0 83 D S
9443 0 M 0 83 D S
/PSL_LH 0 def /PSL_L_y PSL_A0_y PSL_A1_y mx def
0 -3000 T
0 setlinecap
%%EndObject
0 A
FQ
O0
0 0 TM

% PostScript produced by:
%%GMT: psxy -R-45/-14.5/0/220 -JX8i/-2.5i -Wthinnest -N -O -K
%%PROJ: xy -45.00000000 -14.50000000 0.00000000 220.00000000 -45.000 -14.500 220.000 -0.000 +xy +a=6378137.000 +b=6356752.314245
%%BeginObject PSL_Layer_6
0 setlinecap
0 setlinejoin
3.32551 setmiterlimit
4 W
7951 2997 M
0 0 D
P S
7836 2997 M
12 -156 D
S
7899 2999 M
-4 -326 D
S
7919 2997 M
0 -405 D
S
3488 2997 M
23 -458 D
S
2739 2989 M
18 0 D
S
8661 2997 M
9 0 D
S
7896 2997 M
0 -464 D
S
4412 2995 M
23 -6 D
S
7884 2989 M
28 -437 D
S
3493 2997 M
4 -5 D
S
7896 2997 M
4 -512 D
S
7850 2997 M
0 -261 D
S
7679 2997 M
9 -224 D
S
7891 2997 M
28 0 D
S
7734 2997 M
-9 -170 D
S
5501 2995 M
-17 -472 D
S
8776 2987 M
17 -632 D
S
145 2997 M
-14 0 D
S
7910 2997 M
13 -416 D
S
8403 2997 M
-37 -5 D
S
5336 2999 M
-16 0 D
S
5941 2987 M
0 0 D
P S
9489 2989 M
-5 6 D
S
7726 2999 M
-7 -238 D
S
8039 2997 M
23 -325 D
S
3403 2989 M
20 -178 D
S
5826 2997 M
11 -8 D
S
7934 2999 M
-15 -412 D
S
7997 2997 M
-32 -282 D
S
3516 2997 M
13 -373 D
S
7714 2995 M
18 -342 D
S
7997 2997 M
5 -176 D
S
3935 2997 M
0 -64 D
S
8444 2997 M
-9 -10 D
S
7951 2997 M
-9 -229 D
S
3368 2997 M
32 0 D
S
3297 2995 M
36 0 D
S
6022 2989 M
41 -709 D
S
2266 2997 M
-14 0 D
S
2481 2989 M
32 6 D
S
3622 2997 M
23 -165 D
S
3232 2995 M
-9 -310 D
S
2439 2995 M
18 0 D
S
7956 2987 M
-30 -536 D
S
2778 2997 M
5 -154 D
S
7942 2997 M
-5 -197 D
S
5412 2999 M
-9 -211 D
S
7859 2997 M
4 -448 D
S
7919 2987 M
-37 -544 D
S
8122 2997 M
-14 0 D
S
3112 2995 M
9 0 D
S
7702 2997 M
2 -216 D
S
8012 2999 M
6 -4 D
S
2151 2997 M
-5 0 D
S
7859 2997 M
-14 -213 D
S
7911 2999 M
-6 -98 D
S
2197 2997 M
-14 0 D
S
6526 2997 M
23 -234 D
S
9138 2989 M
19 -469 D
S
7979 2997 M
-23 -565 D
S
2247 2999 M
-3 0 D
S
2328 2995 M
3 -131 D
S
5601 2999 M
-8 -420 D
S
2870 2997 M
23 0 D
S
8140 2997 M
-18 -277 D
S
7923 2997 M
-4 -394 D
S
2109 2997 M
10 -16 D
S
7951 2997 M
-23 -944 D
S
3444 2995 M
9 -214 D
S
2395 2997 M
30 -221 D
S
722 2997 M
-14 0 D
S
7917 2995 M
9 -459 D
S
7937 2987 M
-23 -630 D
S
7603 2995 M
5 -368 D
S
3280 2997 M
19 0 D
S
8062 2997 M
7 -434 D
S
4332 2997 M
-56 -138 D
S
7937 2997 M
-18 -357 D
S
7922 2999 M
24 -151 D
S
7933 2997 M
-26 -34 D
S
7714 2995 M
16 -200 D
S
2266 2997 M
-4 0 D
S
5033 2997 M
-10 0 D
S
7900 2997 M
10 -202 D
S
7854 2997 M
0 -330 D
S
7960 2997 M
10 -165 D
S
7859 2997 M
-9 -197 D
S
7753 2997 M
-2 -482 D
S
6241 2997 M
18 0 D
S
237 2997 M
-18 0 D
S
7910 2997 M
7 -248 D
S
3967 2997 M
-13 -288 D
S
2746 2997 M
-42 0 D
S
7891 2997 M
14 -117 D
S
7891 2997 M
9 -138 D
S
7880 2995 M
23 -262 D
S
4069 2997 M
11 -2 D
S
8119 2995 M
-11 -494 D
S
7905 2997 M
-5 -240 D
S
7905 2997 M
51 0 D
S
9247 2997 M
-14 0 D
S
8586 2999 M
-14 0 D
S
4122 2989 M
5 6 D
S
2815 2997 M
18 -202 D
S
7741 2995 M
-4 -454 D
S
3373 2997 M
7 -258 D
S
5180 2997 M
19 -21 D
S
2972 2997 M
9 0 D
S
3497 2997 M
-11 -274 D
S
7974 2997 M
0 -293 D
S
3020 2995 M
16 -814 D
S
7923 2997 M
-9 -538 D
S
7882 2997 M
-14 -325 D
S
4911 2999 M
-1 -644 D
S
7887 2997 M
27 -122 D
S
7715 2999 M
6 -162 D
S
8006 2997 M
-46 -277 D
S
6487 2995 M
111 -2860 D
S
8020 2997 M
-18 -154 D
S
3958 2997 M
-60 -613 D
S
1332 2995 M
5 -6 D
S
7702 2997 M
0 -176 D
S
3926 2997 M
0 -144 D
S
5770 2997 M
-21 -461 D
S
7716 2997 M
9 -213 D
S
7919 2997 M
-9 -506 D
S
7775 2999 M
5 -199 D
S
8112 2997 M
5 -384 D
S
2210 2999 M
1 -92 D
S
6314 2997 M
16 -184 D
S
2439 2995 M
28 -352 D
S
2755 2997 M
-9 0 D
S
3665 2995 M
10 -182 D
S
4092 2997 M
35 -1965 D
S
2658 2997 M
-5 0 D
S
6607 2995 M
-32 -1798 D
S
5394 2989 M
-4 6 D
S
7928 2997 M
5 -410 D
S
8025 2997 M
-9 -138 D
S
3949 2997 M
9 -90 D
S
2421 2995 M
25 -568 D
S
7382 2995 M
11 2 D
S
7287 2997 M
-9 -554 D
S
7721 2997 M
-5 -426 D
S
7933 2997 M
-5 -362 D
S
9364 2995 M
37 -192 D
S
7882 2997 M
-17 -198 D
S
3894 2997 M
23 -181 D
S
7702 2997 M
9 -16 D
S
2160 2997 M
14 0 D
S
7760 2995 M
9 -246 D
S
3499 2995 M
17 -408 D
S
2386 2997 M
18 -288 D
S
7922 2999 M
-20 -344 D
S
8719 2995 M
-26 -531 D
S
2792 2997 M
23 -469 D
S
8193 2995 M
-46 -384 D
S
8066 2997 M
0 -213 D
S
7891 2997 M
14 -346 D
S
5909 2997 M
4 -122 D
S
7748 2997 M
-4 -250 D
S
2270 2999 M
-13 -50 D
S
7988 2997 M
-5 -133 D
S
7702 2997 M
-9 -138 D
S
7910 2997 M
-19 -293 D
S
5945 2997 M
28 0 D
S
5438 2997 M
-23 -389 D
S
3060 2999 M
8 -380 D
S
7919 2997 M
9 -442 D
S
2384 2995 M
18 -11 D
S
3389 2995 M
-44 -275 D
S
7983 2997 M
-15 -473 D
S
7946 2997 M
5 -245 D
S
6305 2997 M
19 0 D
S
3479 2997 M
27 -133 D
S
2135 2995 M
-12 2 D
S
2912 2997 M
0 -314 D
S
6121 2997 M
18 0 D
S
2847 2997 M
-5 -37 D
S
7937 2997 M
5 -160 D
S
4733 2997 M
-7 -2 D
S
2238 2997 M
-9 0 D
S
6220 2995 M
41 -48 D
S
5420 2997 M
-14 -437 D
S
7721 2997 M
-10 0 D
S
7904 2999 M
15 -194 D
S
4900 2999 M
13 -2 D
S
2771 2995 M
25 2 D
S
7686 2995 M
2 -259 D
S
7965 2997 M
-30 -2 D
S
7831 2992 M
-4 -373 D
S
7942 2997 M
-9 -480 D
S
7935 2995 M
-7 -675 D
S
3382 2997 M
39 -114 D
S
7923 2997 M
-4 -378 D
S
7716 2997 M
14 -154 D
S
7975 2999 M
-20 -299 D
S
2478 2997 M
37 0 D
S
2257 2997 M
2 -8 D
S
99 2997 M
-37 0 D
S
2476 2995 M
9 0 D
S
2845 2995 M
7 -259 D
S
7933 2997 M
-10 0 D
S
7631 2995 M
16 2 D
S
2861 2997 M
-9 -186 D
S
4797 2997 M
-12 -705 D
S
7843 2995 M
-7 -120 D
S
8080 2997 M
-4 -474 D
S
9214 2997 M
28 0 D
S
7624 2997 M
9 -437 D
S
7852 2995 M
37 -43 D
S
2243 2997 M
-5 0 D
S
9285 2999 M
-15 -290 D
S
9180 2995 M
51 -6 D
S
2605 2995 M
23 -347 D
S
7785 2997 M
0 -80 D
S
7868 2997 M
-7 -525 D
S
7656 2997 M
0 -133 D
S
7944 2995 M
-18 -523 D
S
5692 2997 M
2 -2 D
S
7810 2989 M
33 -144 D
S
7716 2997 M
-18 0 D
S
7661 2997 M
18 -106 D
S
8940 2995 M
-23 -283 D
S
2356 2995 M
16 -280 D
S
7999 2995 M
-16 -259 D
S
2215 2997 M
21 -333 D
S
8039 2997 M
-28 -544 D
S
7988 2992 M
-18 -507 D
S
7836 2997 M
0 -234 D
S
7904 2999 M
-14 -110 D
S
3260 2995 M
0 -342 D
S
7900 2997 M
3 -392 D
S
7919 2997 M
7 -312 D
S
7872 2999 M
-14 -488 D
S
7827 2997 M
8 -46 D
S
3446 2997 M
10 -362 D
S
7974 2997 M
-18 -197 D
S
7910 2997 M
9 -490 D
S
6337 2997 M
20 -246 D
S
7905 2997 M
23 -160 D
S
8131 2997 M
-5 -165 D
S
7708 2999 M
-1 -231 D
S
7765 2999 M
11 -172 D
S
5371 2995 M
0 0 D
P S
7917 2995 M
53 2 D
S
7714 2995 M
11 -78 D
S
8034 2997 M
14 -74 D
S
7921 2989 M
5 -197 D
S
2446 2997 M
5 0 D
S
7906 2999 M
-11 -240 D
S
2262 2997 M
0 -224 D
S
7695 2995 M
9 -470 D
S
7684 2997 M
-3 -477 D
S
5528 2995 M
0 0 D
P S
3592 2995 M
0 -246 D
S
2723 2997 M
4 0 D
S
7730 2997 M
4 -69 D
S
1194 2995 M
-9 0 D
S
2356 2995 M
14 -539 D
S
7965 2997 M
0 -442 D
S
2487 2997 M
10 0 D
S
4622 2997 M
5 0 D
S
2796 2997 M
12 -162 D
S
7686 2995 M
-2 -248 D
S
4801 2999 M
7 0 D
S
8463 2997 M
-19 -405 D
S
7863 2997 M
10 -250 D
S
3370 2995 M
21 -302 D
S
2958 2997 M
0 -394 D
S
2160 2997 M
5 -266 D
S
3543 2997 M
-41 -320 D
S
3050 2997 M
5 -368 D
S
7734 2997 M
19 -272 D
S
8048 2997 M
23 -362 D
S
7891 2997 M
14 -256 D
S
3186 2995 M
21 2 D
S
3260 2995 M
-37 -118 D
S
8029 2997 M
0 -320 D
S
7998 2996 M
-4 -152 D
S
7878 2999 M
-42 -172 D
S
3940 2987 M
23 -144 D
S
2919 2995 M
2 2 D
S
2796 2997 M
-4 -197 D
S
5613 2997 M
10 0 D
S
823 2997 M
-23 0 D
S
7887 2997 M
-14 -608 D
S
8018 2995 M
-19 -256 D
S
5966 2989 M
-55 -448 D
S
7776 2997 M
14 -48 D
S
2191 2999 M
1 -76 D
S
7905 2997 M
0 -213 D
S
5639 2995 M
-26 -19 D
S
7960 2997 M
-55 0 D
S
8389 2997 M
-5 -304 D
S
7895 2999 M
-8 -540 D
S
8065 2999 M
-15 -57 D
S
8029 2997 M
14 -58 D
S
8253 2989 M
-184 -576 D
S
3582 2995 M
17 -88 D
S
7956 2997 M
0 -490 D
S
7831 2997 M
0 -533 D
S
2460 2997 M
18 0 D
S
7888 2999 M
17 -338 D
S
2209 2995 M
11 2 D
S
5288 2995 M
10 -22 D
S
7953 2995 M
-30 -579 D
S
5927 2997 M
5 0 D
S
1452 2995 M
0 0 D
P S
3884 2997 M
30 -45 D
S
7670 2997 M
14 -346 D
S
3986 2997 M
-9 -272 D
S
7829 2989 M
5 -272 D
S
7854 2997 M
-9 -576 D
S
3221 2997 M
16 -93 D
S
3313 2997 M
11 -333 D
S
7711 2997 M
-4 -160 D
S
5411 2997 M
-14 -618 D
S
7804 2997 M
20 -397 D
S
7915 2999 M
-4 -150 D
S
8062 2997 M
-5 -138 D
S
3502 2997 M
4 0 D
S
7965 2997 M
-5 -250 D
S
8409 2999 M
-27 -394 D
S
2202 2997 M
-5 0 D
S
8140 2997 M
-14 -469 D
S
8053 2997 M
9 -336 D
S
9214 2997 M
-4 0 D
S
4974 2999 M
-6 -2 D
S
3555 2995 M
-5 -496 D
S
7891 2997 M
9 -240 D
S
8076 2997 M
9 -64 D
S
7850 2997 M
13 -160 D
S
2736 2997 M
0 0 D
P S
3933 2995 M
-19 -438 D
S
7987 2999 M
-4 -210 D
S
7243 2995 M
123 -1577 D
S
2153 2995 M
7 -243 D
S
7799 2997 M
16 -258 D
S
4548 2997 M
13 -118 D
S
3451 2997 M
7 -520 D
S
8126 2997 M
-4 0 D
S
2072 2997 M
-9 -234 D
S
2151 2997 M
-5 0 D
S
%%EndObject
0 A
FQ
O0
0 0 TM

% PostScript produced by:
%%GMT: psxy -R-45/-14.5/0/220 -JX8i/-2.5i -Sc0.12 -GRED -Wthinnest -O -K
%%PROJ: xy -45.00000000 -14.50000000 0.00000000 220.00000000 -45.000 -14.500 220.000 -0.000 +xy +a=6378137.000 +b=6356752.314245
%%BeginObject PSL_Layer_7
0 setlinecap
0 setlinejoin
3.32551 setmiterlimit
clipsave
0 0 M
9600 0 D
0 3000 D
-9600 0 D
PSL_eoclip N
4 W
V
{1 0 0 C} FS
O1
28 7951 2997 Sc
28 7836 2997 Sc
28 7899 2999 Sc
28 7919 2997 Sc
28 3488 2997 Sc
28 2739 2989 Sc
28 8661 2997 Sc
28 7896 2997 Sc
28 4412 2995 Sc
28 7884 2989 Sc
28 3493 2997 Sc
28 7896 2997 Sc
28 7850 2997 Sc
28 7679 2997 Sc
28 7891 2997 Sc
28 7734 2997 Sc
28 5501 2995 Sc
28 8776 2987 Sc
28 145 2997 Sc
28 7910 2997 Sc
28 8403 2997 Sc
28 5336 2999 Sc
28 5941 2987 Sc
28 9489 2989 Sc
28 7726 2999 Sc
28 8039 2997 Sc
28 3403 2989 Sc
28 5826 2997 Sc
28 7934 2999 Sc
28 7997 2997 Sc
28 3516 2997 Sc
28 7714 2995 Sc
28 7997 2997 Sc
28 3935 2997 Sc
28 8444 2997 Sc
28 7951 2997 Sc
28 3368 2997 Sc
28 3297 2995 Sc
28 6022 2989 Sc
28 2266 2997 Sc
28 2481 2989 Sc
28 3622 2997 Sc
28 3232 2995 Sc
28 2439 2995 Sc
28 7956 2987 Sc
28 2778 2997 Sc
28 7942 2997 Sc
28 5412 2999 Sc
28 7859 2997 Sc
28 7919 2987 Sc
28 8122 2997 Sc
28 3112 2995 Sc
28 7702 2997 Sc
28 8012 2999 Sc
28 2151 2997 Sc
28 7859 2997 Sc
28 7911 2999 Sc
28 2197 2997 Sc
28 6526 2997 Sc
28 9138 2989 Sc
28 7979 2997 Sc
28 2247 2999 Sc
28 2328 2995 Sc
28 5601 2999 Sc
28 2870 2997 Sc
28 8140 2997 Sc
28 7923 2997 Sc
28 2109 2997 Sc
28 7951 2997 Sc
28 3444 2995 Sc
28 2395 2997 Sc
28 722 2997 Sc
28 7917 2995 Sc
28 7937 2987 Sc
28 7603 2995 Sc
28 3280 2997 Sc
28 8062 2997 Sc
28 4332 2997 Sc
28 7937 2997 Sc
28 7922 2999 Sc
28 7933 2997 Sc
28 7714 2995 Sc
28 2266 2997 Sc
28 5033 2997 Sc
28 7900 2997 Sc
28 7854 2997 Sc
28 7960 2997 Sc
28 7859 2997 Sc
28 7753 2997 Sc
28 6241 2997 Sc
28 237 2997 Sc
28 7910 2997 Sc
28 3967 2997 Sc
28 2746 2997 Sc
28 7891 2997 Sc
28 7891 2997 Sc
28 7880 2995 Sc
28 4069 2997 Sc
28 8119 2995 Sc
28 7905 2997 Sc
28 7905 2997 Sc
28 9247 2997 Sc
28 8586 2999 Sc
28 4122 2989 Sc
28 2815 2997 Sc
28 7741 2995 Sc
28 3373 2997 Sc
28 5180 2997 Sc
28 2972 2997 Sc
28 3497 2997 Sc
28 7974 2997 Sc
28 3020 2995 Sc
28 7923 2997 Sc
28 7882 2997 Sc
28 4911 2999 Sc
28 7887 2997 Sc
28 7715 2999 Sc
28 8006 2997 Sc
28 6487 2995 Sc
28 8020 2997 Sc
28 3958 2997 Sc
28 1332 2995 Sc
28 7702 2997 Sc
28 3926 2997 Sc
28 5770 2997 Sc
28 7716 2997 Sc
28 7919 2997 Sc
28 7775 2999 Sc
28 8112 2997 Sc
28 2210 2999 Sc
28 6314 2997 Sc
28 2439 2995 Sc
28 2755 2997 Sc
28 3665 2995 Sc
28 4092 2997 Sc
28 2658 2997 Sc
28 6607 2995 Sc
28 5394 2989 Sc
28 7928 2997 Sc
28 8025 2997 Sc
28 3949 2997 Sc
28 2421 2995 Sc
28 7382 2995 Sc
28 7287 2997 Sc
28 7721 2997 Sc
28 7933 2997 Sc
28 9364 2995 Sc
28 7882 2997 Sc
28 3894 2997 Sc
28 7702 2997 Sc
28 2160 2997 Sc
28 7760 2995 Sc
28 3499 2995 Sc
28 2386 2997 Sc
28 7922 2999 Sc
28 8719 2995 Sc
28 2792 2997 Sc
28 8193 2995 Sc
28 8066 2997 Sc
28 7891 2997 Sc
28 5909 2997 Sc
28 7748 2997 Sc
28 2270 2999 Sc
28 7988 2997 Sc
28 7702 2997 Sc
28 7910 2997 Sc
28 5945 2997 Sc
28 5438 2997 Sc
28 3060 2999 Sc
28 7919 2997 Sc
28 2384 2995 Sc
28 3389 2995 Sc
28 7983 2997 Sc
28 7946 2997 Sc
28 6305 2997 Sc
28 3479 2997 Sc
28 2135 2995 Sc
28 2912 2997 Sc
28 6121 2997 Sc
28 2847 2997 Sc
28 7937 2997 Sc
28 4733 2997 Sc
28 2238 2997 Sc
28 6220 2995 Sc
28 5420 2997 Sc
28 7721 2997 Sc
28 7904 2999 Sc
28 4900 2999 Sc
28 2771 2995 Sc
28 7686 2995 Sc
28 7965 2997 Sc
28 7831 2992 Sc
28 7942 2997 Sc
28 7935 2995 Sc
28 3382 2997 Sc
28 7923 2997 Sc
28 7716 2997 Sc
28 7975 2999 Sc
28 2478 2997 Sc
28 2257 2997 Sc
28 99 2997 Sc
28 2476 2995 Sc
28 2845 2995 Sc
28 7933 2997 Sc
28 7631 2995 Sc
28 2861 2997 Sc
28 4797 2997 Sc
28 7843 2995 Sc
28 8080 2997 Sc
28 9214 2997 Sc
28 7624 2997 Sc
28 7852 2995 Sc
28 2243 2997 Sc
28 9285 2999 Sc
28 9180 2995 Sc
28 2605 2995 Sc
28 7785 2997 Sc
28 7868 2997 Sc
28 7656 2997 Sc
28 7944 2995 Sc
28 5692 2997 Sc
28 7810 2989 Sc
28 7716 2997 Sc
28 7661 2997 Sc
28 8940 2995 Sc
28 2356 2995 Sc
28 7999 2995 Sc
28 2215 2997 Sc
28 8039 2997 Sc
28 7988 2992 Sc
28 7836 2997 Sc
28 7904 2999 Sc
28 3260 2995 Sc
28 7900 2997 Sc
28 7919 2997 Sc
28 7872 2999 Sc
28 7827 2997 Sc
28 3446 2997 Sc
28 7974 2997 Sc
28 7910 2997 Sc
28 6337 2997 Sc
28 7905 2997 Sc
28 8131 2997 Sc
28 7708 2999 Sc
28 7765 2999 Sc
28 5371 2995 Sc
28 7917 2995 Sc
28 7714 2995 Sc
28 8034 2997 Sc
28 7921 2989 Sc
28 2446 2997 Sc
28 7906 2999 Sc
28 2262 2997 Sc
28 7695 2995 Sc
28 7684 2997 Sc
28 5528 2995 Sc
28 3592 2995 Sc
28 2723 2997 Sc
28 7730 2997 Sc
28 1194 2995 Sc
28 2356 2995 Sc
28 7965 2997 Sc
28 2487 2997 Sc
28 4622 2997 Sc
28 2796 2997 Sc
28 7686 2995 Sc
28 4801 2999 Sc
28 8463 2997 Sc
28 7863 2997 Sc
28 3370 2995 Sc
28 2958 2997 Sc
28 2160 2997 Sc
28 3543 2997 Sc
28 3050 2997 Sc
28 7734 2997 Sc
28 8048 2997 Sc
28 7891 2997 Sc
28 3186 2995 Sc
28 3260 2995 Sc
28 8029 2997 Sc
28 7998 2996 Sc
28 7878 2999 Sc
28 3940 2987 Sc
28 2919 2995 Sc
28 2796 2997 Sc
28 5613 2997 Sc
28 823 2997 Sc
28 7887 2997 Sc
28 8018 2995 Sc
28 5966 2989 Sc
28 7776 2997 Sc
28 2191 2999 Sc
28 7905 2997 Sc
28 5639 2995 Sc
28 7960 2997 Sc
28 8389 2997 Sc
28 7895 2999 Sc
28 8065 2999 Sc
28 8029 2997 Sc
28 8253 2989 Sc
28 3582 2995 Sc
28 7956 2997 Sc
28 7831 2997 Sc
28 2460 2997 Sc
28 7888 2999 Sc
28 2209 2995 Sc
28 5288 2995 Sc
28 7953 2995 Sc
28 5927 2997 Sc
28 1452 2995 Sc
28 3884 2997 Sc
28 7670 2997 Sc
28 3986 2997 Sc
28 7829 2989 Sc
28 7854 2997 Sc
28 3221 2997 Sc
28 3313 2997 Sc
28 7711 2997 Sc
28 5411 2997 Sc
28 7804 2997 Sc
28 7915 2999 Sc
28 8062 2997 Sc
28 3502 2997 Sc
28 7965 2997 Sc
28 8409 2999 Sc
28 2202 2997 Sc
28 8140 2997 Sc
28 8053 2997 Sc
28 9214 2997 Sc
28 4974 2999 Sc
28 3555 2995 Sc
28 7891 2997 Sc
28 8076 2997 Sc
28 7850 2997 Sc
28 2736 2997 Sc
28 3933 2995 Sc
28 7987 2999 Sc
28 7243 2995 Sc
28 2153 2995 Sc
28 7799 2997 Sc
28 4548 2997 Sc
28 3451 2997 Sc
28 8126 2997 Sc
28 2072 2997 Sc
28 2151 2997 Sc
U
PSL_cliprestore
%%EndObject
0 A
FQ
O0
0 0 TM

% PostScript produced by:
%%GMT: psxy -R-45/-14.5/0/220 -JX8i/-2.5i -Sc0.12 -GSEAGREEN -Wthinnest -O -K
%%PROJ: xy -45.00000000 -14.50000000 0.00000000 220.00000000 -45.000 -14.500 220.000 -0.000 +xy +a=6378137.000 +b=6356752.314245
%%BeginObject PSL_Layer_8
0 setlinecap
0 setlinejoin
3.32551 setmiterlimit
clipsave
0 0 M
9600 0 D
0 3000 D
-9600 0 D
PSL_eoclip N
4 W
V
{0.18 0.545 0.341 C} FS
O1
28 7951 2997 Sc
28 7848 2841 Sc
28 7895 2673 Sc
28 7919 2592 Sc
28 3511 2539 Sc
28 2757 2989 Sc
28 8670 2997 Sc
28 7896 2533 Sc
28 4435 2989 Sc
28 7912 2552 Sc
28 3497 2992 Sc
28 7900 2485 Sc
28 7850 2736 Sc
28 7688 2773 Sc
28 7919 2997 Sc
28 7725 2827 Sc
28 5484 2523 Sc
28 8793 2355 Sc
28 131 2997 Sc
28 7923 2581 Sc
28 8366 2992 Sc
28 5320 2999 Sc
28 5941 2987 Sc
28 9484 2995 Sc
28 7719 2761 Sc
28 8062 2672 Sc
28 3423 2811 Sc
28 5837 2989 Sc
28 7919 2587 Sc
28 7965 2715 Sc
28 3529 2624 Sc
28 7732 2653 Sc
28 8002 2821 Sc
28 3935 2933 Sc
28 8435 2987 Sc
28 7942 2768 Sc
28 3400 2997 Sc
28 3333 2995 Sc
28 6063 2280 Sc
28 2252 2997 Sc
28 2513 2995 Sc
28 3645 2832 Sc
28 3223 2685 Sc
28 2457 2995 Sc
28 7926 2451 Sc
28 2783 2843 Sc
28 7937 2800 Sc
28 5403 2788 Sc
28 7863 2549 Sc
28 7882 2443 Sc
28 8108 2997 Sc
28 3121 2995 Sc
28 7704 2781 Sc
28 8018 2995 Sc
28 2146 2997 Sc
28 7845 2784 Sc
28 7905 2901 Sc
28 2183 2997 Sc
28 6549 2763 Sc
28 9157 2520 Sc
28 7956 2432 Sc
28 2244 2999 Sc
28 2331 2864 Sc
28 5593 2579 Sc
28 2893 2997 Sc
28 8122 2720 Sc
28 7919 2603 Sc
28 2119 2981 Sc
28 7928 2053 Sc
28 3453 2781 Sc
28 2425 2776 Sc
28 708 2997 Sc
28 7926 2536 Sc
28 7914 2357 Sc
28 7608 2627 Sc
28 3299 2997 Sc
28 8069 2563 Sc
28 4276 2859 Sc
28 7919 2640 Sc
28 7946 2848 Sc
28 7907 2963 Sc
28 7730 2795 Sc
28 2262 2997 Sc
28 5023 2997 Sc
28 7910 2795 Sc
28 7854 2667 Sc
28 7970 2832 Sc
28 7850 2800 Sc
28 7751 2515 Sc
28 6259 2997 Sc
28 219 2997 Sc
28 7917 2749 Sc
28 3954 2709 Sc
28 2704 2997 Sc
28 7905 2880 Sc
28 7900 2859 Sc
28 7903 2733 Sc
28 4080 2995 Sc
28 8108 2501 Sc
28 7900 2757 Sc
28 7956 2997 Sc
28 9233 2997 Sc
28 8572 2999 Sc
28 4127 2995 Sc
28 2833 2795 Sc
28 7737 2541 Sc
28 3380 2739 Sc
28 5199 2976 Sc
28 2981 2997 Sc
28 3486 2723 Sc
28 7974 2704 Sc
28 3036 2181 Sc
28 7914 2459 Sc
28 7868 2672 Sc
28 4910 2355 Sc
28 7914 2875 Sc
28 7721 2837 Sc
28 7960 2720 Sc
28 6598 135 Sc
28 8002 2843 Sc
28 3898 2384 Sc
28 1337 2989 Sc
28 7702 2821 Sc
28 3926 2853 Sc
28 5749 2536 Sc
28 7725 2784 Sc
28 7910 2491 Sc
28 7780 2800 Sc
28 8117 2613 Sc
28 2211 2907 Sc
28 6330 2813 Sc
28 2467 2643 Sc
28 2746 2997 Sc
28 3675 2813 Sc
28 4127 1032 Sc
28 2653 2997 Sc
28 6575 1197 Sc
28 5390 2995 Sc
28 7933 2587 Sc
28 8016 2859 Sc
28 3958 2907 Sc
28 2446 2427 Sc
28 7393 2997 Sc
28 7278 2443 Sc
28 7716 2571 Sc
28 7928 2635 Sc
28 9401 2803 Sc
28 7865 2799 Sc
28 3917 2816 Sc
28 7711 2981 Sc
28 2174 2997 Sc
28 7769 2749 Sc
28 3516 2587 Sc
28 2404 2709 Sc
28 7902 2655 Sc
28 8693 2464 Sc
28 2815 2528 Sc
28 8147 2611 Sc
28 8066 2784 Sc
28 7905 2651 Sc
28 5913 2875 Sc
28 7744 2747 Sc
28 2257 2949 Sc
28 7983 2864 Sc
28 7693 2859 Sc
28 7891 2704 Sc
28 5973 2997 Sc
28 5415 2608 Sc
28 3068 2619 Sc
28 7928 2555 Sc
28 2402 2984 Sc
28 3345 2720 Sc
28 7968 2524 Sc
28 7951 2752 Sc
28 6324 2997 Sc
28 3506 2864 Sc
28 2123 2997 Sc
28 2912 2683 Sc
28 6139 2997 Sc
28 2842 2960 Sc
28 7942 2837 Sc
28 4726 2995 Sc
28 2229 2997 Sc
28 6261 2947 Sc
28 5406 2560 Sc
28 7711 2997 Sc
28 7919 2805 Sc
28 4913 2997 Sc
28 2796 2997 Sc
28 7688 2736 Sc
28 7935 2995 Sc
28 7827 2619 Sc
28 7933 2517 Sc
28 7928 2320 Sc
28 3421 2883 Sc
28 7919 2619 Sc
28 7730 2843 Sc
28 7955 2700 Sc
28 2515 2997 Sc
28 2259 2989 Sc
28 62 2997 Sc
28 2485 2995 Sc
28 2852 2736 Sc
28 7923 2997 Sc
28 7647 2997 Sc
28 2852 2811 Sc
28 4785 2292 Sc
28 7836 2875 Sc
28 8076 2523 Sc
28 9242 2997 Sc
28 7633 2560 Sc
28 7889 2952 Sc
28 2238 2997 Sc
28 9270 2709 Sc
28 9231 2989 Sc
28 2628 2648 Sc
28 7785 2917 Sc
28 7861 2472 Sc
28 7656 2864 Sc
28 7926 2472 Sc
28 5694 2995 Sc
28 7843 2845 Sc
28 7698 2997 Sc
28 7679 2891 Sc
28 8917 2712 Sc
28 2372 2715 Sc
28 7983 2736 Sc
28 2236 2664 Sc
28 8011 2453 Sc
28 7970 2485 Sc
28 7836 2763 Sc
28 7890 2889 Sc
28 3260 2653 Sc
28 7903 2605 Sc
28 7926 2685 Sc
28 7858 2511 Sc
28 7835 2951 Sc
28 3456 2635 Sc
28 7956 2800 Sc
28 7919 2507 Sc
28 6357 2751 Sc
28 7928 2837 Sc
28 8126 2832 Sc
28 7707 2768 Sc
28 7776 2827 Sc
28 5371 2995 Sc
28 7970 2997 Sc
28 7725 2917 Sc
28 8048 2923 Sc
28 7926 2792 Sc
28 2451 2997 Sc
28 7895 2759 Sc
28 2262 2773 Sc
28 7704 2525 Sc
28 7681 2520 Sc
28 5528 2995 Sc
28 3592 2749 Sc
28 2727 2997 Sc
28 7734 2928 Sc
28 1185 2995 Sc
28 2370 2456 Sc
28 7965 2555 Sc
28 2497 2997 Sc
28 4627 2997 Sc
28 2808 2835 Sc
28 7684 2747 Sc
28 4808 2999 Sc
28 8444 2592 Sc
28 7873 2747 Sc
28 3391 2693 Sc
28 2958 2603 Sc
28 2165 2731 Sc
28 3502 2677 Sc
28 3055 2629 Sc
28 7753 2725 Sc
28 8071 2635 Sc
28 7905 2741 Sc
28 3207 2997 Sc
28 3223 2877 Sc
28 8029 2677 Sc
28 7994 2844 Sc
28 7836 2827 Sc
28 3963 2843 Sc
28 2921 2997 Sc
28 2792 2800 Sc
28 5623 2997 Sc
28 800 2997 Sc
28 7873 2389 Sc
28 7999 2739 Sc
28 5911 2541 Sc
28 7790 2949 Sc
28 2192 2923 Sc
28 7905 2784 Sc
28 5613 2976 Sc
28 7905 2997 Sc
28 8384 2693 Sc
28 7887 2459 Sc
28 8050 2942 Sc
28 8043 2939 Sc
28 8069 2413 Sc
28 3599 2907 Sc
28 7956 2507 Sc
28 7831 2464 Sc
28 2478 2997 Sc
28 7905 2661 Sc
28 2220 2997 Sc
28 5298 2973 Sc
28 7923 2416 Sc
28 5932 2997 Sc
28 1452 2995 Sc
28 3914 2952 Sc
28 7684 2651 Sc
28 3977 2725 Sc
28 7834 2717 Sc
28 7845 2421 Sc
28 3237 2904 Sc
28 3324 2664 Sc
28 7707 2837 Sc
28 5397 2379 Sc
28 7824 2600 Sc
28 7911 2849 Sc
28 8057 2859 Sc
28 3506 2997 Sc
28 7960 2747 Sc
28 8382 2605 Sc
28 2197 2997 Sc
28 8126 2528 Sc
28 8062 2661 Sc
28 9210 2997 Sc
28 4968 2997 Sc
28 3550 2499 Sc
28 7900 2757 Sc
28 8085 2933 Sc
28 7863 2837 Sc
28 2736 2997 Sc
28 3914 2557 Sc
28 7983 2789 Sc
28 7366 1418 Sc
28 2160 2752 Sc
28 7815 2739 Sc
28 4561 2879 Sc
28 3458 2477 Sc
28 8122 2997 Sc
28 2063 2763 Sc
28 2146 2997 Sc
U
PSL_cliprestore
%%EndObject
