%!PS-Adobe-3.0
%%BoundingBox: 0 0 595 842
%%HiResBoundingBox: 0 0 595 842
%%Title: GMT v5.1.1 (r12968) [64-bit] Document from psbasemap
%%Creator: GMT5
%%For: nooshiri
%%DocumentNeededResources: font Helvetica
%%CreationDate: Wed Aug 26 09:03:27 2015
%%LanguageLevel: 2
%%DocumentData: Clean7Bit
%%Orientation: Landscape
%%Pages: 1
%%EndComments

%%BeginProlog
250 dict begin
/! {bind def} bind def
/# {load def}!
/A /setgray #
/B /setdash #
/C /setrgbcolor #
/D /rlineto #
/E {dup stringwidth pop}!
/F /fill #
/G /rmoveto #
/H /sethsbcolor #
/I /setpattern #
/K /setcmykcolor #
/L /lineto #
/M /moveto #
/N /newpath #
/P /closepath #
/R /rotate #
/S /stroke #
/T /translate #
/U /grestore #
/V /gsave #
/W /setlinewidth #
/Y {findfont exch scalefont setfont}!
/Z /show #
/FP {true charpath flattenpath}!
/MU {matrix setmatrix}!
/MS {/SMat matrix currentmatrix def}!
/MR {SMat setmatrix}!
/edef {exch def}!
/FS {/fc edef /fs {V fc F U} def}!
/FQ {/fs {} def}!
/O0 {/os {N} def}!
/O1 {/os {P S} def}!
/FO {fs os}!
/Sa {M MS dup 0 exch G 0.726542528 mul -72 R dup 0 D 4 {72 R dup 0 D -144 R dup 0 D} repeat pop MR FO}!
/Sb {M dup 0 D exch 0 exch D neg 0 D FO}!
/SB {MS T /BoxR edef /BoxW edef /BoxH edef BoxR 0 M
  BoxW 0 BoxW BoxH BoxR arct BoxW BoxH 0 BoxH BoxR arct 0 BoxH 0 0 BoxR arct 0 0 BoxW 0 BoxR arct MR FO}!
/Sc {N 3 -1 roll 0 360 arc FO}!
/Sd {M 4 {dup} repeat 0 G neg dup dup D exch D D FO}!
/Se {N MS T R scale 0 0 1 0 360 arc MR FO}!
/Sg {M MS 22.5 R dup 0 exch G -22.5 R 0.765366865 mul dup 0 D 6 {-45 R dup 0 D} repeat pop MR FO}!
/Sh {M MS dup 0 G -120 R dup 0 D 4 {-60 R dup 0 D} repeat pop MR FO}!
/Si {M MS dup neg 0 exch G 60 R 1.732050808 mul dup 0 D 120 R 0 D MR FO}!
/Sj {M MS R dup -2 div 2 index -2 div G dup 0 D exch 0 exch D neg 0 D MR FO}!
/Sn {M MS dup 0 exch G -36 R 1.175570505 mul dup 0 D 3 {-72 R dup 0 D} repeat pop MR FO}!
/Sp {N 3 -1 roll 0 360 arc fs N}!
/SP {M {D} repeat FO}!
/Sr {M dup -2 div 2 index -2 div G dup 0 D exch 0 exch D neg 0 D FO}!
/SR {MS T /BoxR edef /BoxW edef /BoxH edef BoxR BoxW -2 div BoxH -2 div T BoxR 0 M
  BoxW 0 BoxW BoxH BoxR arct BoxW BoxH 0 BoxH BoxR arct 0 BoxH 0 0 BoxR arct 0 0 BoxW 0 BoxR arct MR FO}!
/Ss {M 1.414213562 mul dup dup dup -2 div dup G 0 D 0 exch D neg 0 D FO}!
/St {M MS dup 0 exch G -60 R 1.732050808 mul dup 0 D -120 R 0 D MR FO}!
/SV {0 exch M 0 D D D D D 0 D FO}!
/Sv {0 0 M D D 0 D D D D D 0 D D FO}!
/Sw {2 copy M 5 2 roll arc FO}!
/Sx {M 1.414213562 mul 5 {dup} repeat -2 div dup G D neg 0 G neg D S}!
/Sy {M dup 0 exch G dup -2 mul dup 0 exch D S}!
/S+ {M dup 0 G dup -2 mul dup 0 D exch dup G 0 exch D S}!
/S- {M dup 0 G dup -2 mul dup 0 D S}!
/sw {stringwidth pop}!
/sh {V MU 0 0 M FP pathbbox N 4 1 roll pop pop pop U}!
/sd {V MU 0 0 M FP pathbbox N pop pop exch pop U}!
/sH {V MU 0 0 M FP pathbbox N exch pop exch sub exch pop U}!
/sb {E exch sh}!
/bl {}!
/bc {E -2 div 0 G}!
/br {E neg 0 G}!
/ml {dup 0 exch sh -2 div G}!
/mc {dup E -2 div exch sh -2 div G}!
/mr {dup E neg exch sh -2 div G}!
/tl {dup 0 exch sh neg G}!
/tc {dup E -2 div exch sh neg G}!
/tr {dup E neg exch sh neg G}!
/mx {2 copy lt {exch} if pop}!
/PSL_xorig 0 def /PSL_yorig 0 def
/TM {2 copy T PSL_yorig add /PSL_yorig edef PSL_xorig add /PSL_xorig edef}!
/PSL_reencode {findfont dup length dict begin
  {1 index /FID ne {def}{pop pop} ifelse} forall
  exch /Encoding edef currentdict end definefont pop
}!
/PSL_eps_begin {
  /PSL_eps_state save def
  /PSL_dict_count countdictstack def
  /PSL_op_count count 1 sub def
  userdict begin
  /showpage {} def
  0 setgray 0 setlinecap 1 setlinewidth
  0 setlinejoin 10 setmiterlimit [] 0 setdash newpath
  /languagelevel where
  {pop languagelevel 1 ne {false setstrokeadjust false setoverprint} if} if
}!
/PSL_eps_end {
  count PSL_op_count sub {pop} repeat
  countdictstack PSL_dict_count sub {end} repeat
  PSL_eps_state restore
}!
/PSL_transp {
  /.setopacityalpha where {pop .setblendmode .setopacityalpha}{
  /pdfmark where {pop [ /BM exch /CA exch dup /ca exch /SetTransparency pdfmark}
  {pop pop} ifelse} ifelse
}!
/ISOLatin1+_Encoding [
/.notdef	/.notdef	/.notdef	/.notdef	/.notdef	/.notdef	/.notdef	/.notdef
/.notdef	/.notdef	/.notdef	/.notdef	/.notdef	/.notdef	/.notdef	/.notdef
/.notdef	/.notdef	/.notdef	/.notdef	/.notdef	/.notdef	/.notdef	/.notdef
/.notdef	/bullet		/ellipsis	/trademark	/emdash		/endash		/fi		/zcaron
/space		/exclam		/quotedbl	/numbersign	/dollar		/percent	/ampersand	/quoteright
/parenleft	/parenright	/asterisk	/plus		/comma		/minus		/period		/slash
/zero		/one		/two		/three		/four		/five		/six		/seven
/eight		/nine		/colon		/semicolon	/less		/equal		/greater	/question
/at		/A		/B		/C		/D		/E		/F		/G
/H		/I		/J		/K		/L		/M		/N		/O
/P		/Q		/R		/S		/T		/U		/V		/W
/X		/Y		/Z		/bracketleft	/backslash	/bracketright	/asciicircum	/underscore
/quoteleft	/a		/b		/c 		/d		/e		/f		/g
/h		/i		/j		/k		/l		/m		/n		/o
/p		/q		/r		/s		/t		/u		/v		/w
/x		/y		/z		/braceleft	/bar		/braceright	/asciitilde	/scaron
/OE		/dagger		/daggerdbl	/Lslash		/fraction	/guilsinglleft	/Scaron		/guilsinglright
/oe		/Ydieresis	/Zcaron		/lslash		/perthousand	/quotedblbase	/quotedblleft	/quotedblright
/dotlessi	/grave		/acute		/circumflex	/tilde		/macron		/breve		/dotaccent
/dieresis	/quotesinglbase	/ring		/cedilla	/quotesingle	/hungarumlaut	/ogonek		/caron
/space		/exclamdown	/cent		/sterling	/currency	/yen		/brokenbar	/section
/dieresis	/copyright	/ordfeminine	/guillemotleft	/logicalnot	/hyphen		/registered	/macron
/degree		/plusminus	/twosuperior	/threesuperior	/acute		/mu		/paragraph	/periodcentered
/cedilla	/onesuperior	/ordmasculine	/guillemotright	/onequarter	/onehalf	/threequarters	/questiondown
/Agrave		/Aacute		/Acircumflex	/Atilde		/Adieresis	/Aring		/AE		/Ccedilla
/Egrave		/Eacute		/Ecircumflex	/Edieresis	/Igrave		/Iacute		/Icircumflex	/Idieresis
/Eth		/Ntilde		/Ograve		/Oacute		/Ocircumflex	/Otilde		/Odieresis	/multiply
/Oslash		/Ugrave		/Uacute		/Ucircumflex	/Udieresis	/Yacute		/Thorn		/germandbls
/agrave		/aacute		/acircumflex	/atilde		/adieresis	/aring		/ae		/ccedilla
/egrave		/eacute		/ecircumflex	/edieresis	/igrave		/iacute		/icircumflex	/idieresis
/eth		/ntilde		/ograve		/oacute		/ocircumflex	/otilde		/odieresis	/divide
/oslash		/ugrave		/uacute		/ucircumflex	/udieresis	/yacute		/thorn		/ydieresis
] def
/PSL_font_encode 0 0 0 0 0 0 0 0 0 0 0 0 0 0 0 0 0 0 0 0 0 0 0 0 0 0 0 0 0 0 0 0 0 0 0 0 0 0 0 39 array astore def
/F0 {/Helvetica Y}!
/F1 {/Helvetica-Bold Y}!
/F2 {/Helvetica-Oblique Y}!
/F3 {/Helvetica-BoldOblique Y}!
/F4 {/Times-Roman Y}!
/F5 {/Times-Bold Y}!
/F6 {/Times-Italic Y}!
/F7 {/Times-BoldItalic Y}!
/F8 {/Courier Y}!
/F9 {/Courier-Bold Y}!
/F10 {/Courier-Oblique Y}!
/F11 {/Courier-BoldOblique Y}!
/F12 {/Symbol Y}!
/F13 {/AvantGarde-Book Y}!
/F14 {/AvantGarde-BookOblique Y}!
/F15 {/AvantGarde-Demi Y}!
/F16 {/AvantGarde-DemiOblique Y}!
/F17 {/Bookman-Demi Y}!
/F18 {/Bookman-DemiItalic Y}!
/F19 {/Bookman-Light Y}!
/F20 {/Bookman-LightItalic Y}!
/F21 {/Helvetica-Narrow Y}!
/F22 {/Helvetica-Narrow-Bold Y}!
/F23 {/Helvetica-Narrow-Oblique Y}!
/F24 {/Helvetica-Narrow-BoldOblique Y}!
/F25 {/NewCenturySchlbk-Roman Y}!
/F26 {/NewCenturySchlbk-Italic Y}!
/F27 {/NewCenturySchlbk-Bold Y}!
/F28 {/NewCenturySchlbk-BoldItalic Y}!
/F29 {/Palatino-Roman Y}!
/F30 {/Palatino-Italic Y}!
/F31 {/Palatino-Bold Y}!
/F32 {/Palatino-BoldItalic Y}!
/F33 {/ZapfChancery-MediumItalic Y}!
/F34 {/ZapfDingbats Y}!
/F35 {/Ryumin-Light-EUC-H Y}!
/F36 {/Ryumin-Light-EUC-V Y}!
/F37 {/GothicBBB-Medium-EUC-H Y}!
/F38 {/GothicBBB-Medium-EUC-V Y}!
/PSL_pathtextdict 26 dict def
/PSL_pathtext
  {PSL_pathtextdict begin
    /textheight exch def
    /just exch def
    /offset exch def
    /str exch def
    /pathdist 0 def
    /setdist offset def
    /charcount 0 def
    /justy just 4 idiv textheight mul 2 div neg def
    V flattenpath
	{movetoproc} {linetoproc}
	{curvetoproc} {closepathproc}
	pathforall
    U N
    end
  } def
PSL_pathtextdict begin
/movetoproc
  { /newy exch def /newx exch def
    /firstx newx def /firsty newy def
    /ovr 0 def
    newx newy transform
    /cpy exch def /cpx exch def
  } def
/linetoproc
  { /oldx newx def /oldy newy def
    /newy exch def /newx exch def
    /dx newx oldx sub def
    /dy newy oldy sub def
    /dist dx dup mul dy dup mul add sqrt def
    dist 0 ne
    { /dsx dx dist div ovr mul def
      /dsy dy dist div ovr mul def
      oldx dsx add oldy dsy add transform
      /cpy exch def /cpx exch def
      /pathdist pathdist dist add def
      {setdist pathdist le
	  {charcount str length lt
	      {setchar} {exit} ifelse}
	  { /ovr setdist pathdist sub def
	    exit}
	  ifelse
      } loop
    } if
  } def
/curvetoproc
  { (ERROR: No curveto's after flattenpath!)
    print
  } def
/closepathproc
  {firstx firsty linetoproc
    firstx firsty movetoproc
  } def
/setchar
  { /char str charcount 1 getinterval def
    /charcount charcount 1 add def
    /charwidth char stringwidth pop def
    V cpx cpy itransform T
      dy dx atan R
      0 justy M
      char show
      0 justy neg G
      currentpoint transform
      /cpy exch def /cpx exch def
    U /setdist setdist charwidth add def
  } def
end
/PSL_curved_text_labels
{ /bits exch def
  /PSL_clippath bits 1 and 1 eq def
  /PSL_placetext bits 2 and 0 eq def
  /PSL_strokeline bits 4 and 4 eq def
  /PSL_firstcall bits 32 and 32 eq def
  /PSL_lastcall bits 64 and 64 eq def
  /PSL_fillbox bits 128 and 128 eq def
  /PSL_drawbox bits 256 and 256 eq def
  /PSL_n1 PSL_n 1 sub def
  /PSL_m1 PSL_m 1 sub def
  /PSL_usebox PSL_fillbox PSL_drawbox or def
  PSL_CT_calcstringwidth
  PSL_CT_calclinedist
  PSL_CT_addcutpoints
  PSL_clippath PSL_firstcall and
  {clipsave N clippath} if
  PSL_setlinepen
  /PSL_nn1 PSL_nn 1 sub def
  /n 0 def
  /k 0 def
  /j 0 def
  /PSL_seg 0 def
  /PSL_xp PSL_nn array def
  /PSL_yp PSL_nn array def
  PSL_xp 0 PSL_xx 0 get put
  PSL_yp 0 PSL_yy 0 get put
  1 1 PSL_nn1
  { /i exch def
    /node_type PSL_kind i get def
    /j j 1 add def
    PSL_xp j PSL_xx i get put
    PSL_yp j PSL_yy i get put
    node_type 1 eq
    {n 0 eq
      {PSL_CT_drawline}
      {	PSL_CT_reversepath
	PSL_CT_textline} ifelse
      /j 0 def
      PSL_xp j PSL_xx i get put
      PSL_yp j PSL_yy i get put
    } if
  } for
  n 0 eq {PSL_CT_drawline} if
  PSL_lastcall
  {PSL_clippath
    {PSL_clip} if N
  } if
} def
/PSL_CT_textline
{PSL_placetext
  {PSL_clippath
    {PSL_CT_clippath} {PSL_CT_placelabel} ifelse
  } if
  /n 0 def /k k 1 add def PSL_setlinepen
} def
/PSL_CT_calcstringwidth
{ /PSL_width PSL_m array def
  0 1 PSL_m1
  { /i exch def
    PSL_width i PSL_str i get stringwidth pop put
  } for
} def
/PSL_CT_calclinedist
{ /PSL_newx PSL_x 0 get def
  /PSL_newy PSL_y 0 get def
  /dist 0.0 def
  /PSL_dist PSL_n array def
  PSL_dist 0 0.0 put
  1 1 PSL_n1
  { /i exch def
    /PSL_oldx PSL_newx def
    /PSL_oldy PSL_newy def
    /PSL_newx PSL_x i get def
    /PSL_newy PSL_y i get def
    /dx PSL_newx PSL_oldx sub def
    /dy PSL_newy PSL_oldy sub def
    /dist dist dx dx mul dy dy mul add sqrt add def
    PSL_dist i dist put
  } for
} def
/PSL_CT_addcutpoints
{ /k 0 def
  /PSL_nc PSL_m 2 mul 1 add def
  /PSL_cuts PSL_nc array def
  /PSL_nc1 PSL_nc 1 sub def
  0 1 PSL_m1
  { /i exch def
    /dist PSL_dist PSL_node i get get def
    /halfwidth PSL_width i get 2 div PSL_gap_x add def
    PSL_cuts k dist halfwidth sub put
    /k k 1 add def
    PSL_cuts k dist halfwidth add put
    /k k 1 add def
  } for
  PSL_cuts k 100000.0 put
  /PSL_nn PSL_n PSL_m 2 mul add def
  /PSL_xx PSL_nn array def
  /PSL_yy PSL_nn array def
  /PSL_kind PSL_nn array def
  /j 0 def
  /k 0 def
  /dist 0.0 def
  0 1 PSL_n1
  { /i exch def
    /last_dist dist def
    /dist PSL_dist i get def
    k 1 PSL_nc1
    { /kk exch def
      /this_cut PSL_cuts kk get def
      dist this_cut gt
      { /ds dist last_dist sub def
	/f ds 0.0 eq {0.0} {dist this_cut sub ds div} ifelse def
	/i1 i 0 eq {0} {i 1 sub} ifelse def
	PSL_xx j PSL_x i get dup PSL_x i1 get sub f mul sub put
	PSL_yy j PSL_y i get dup PSL_y i1 get sub f mul sub put
	PSL_kind j 1 put
	/j j 1 add def
	/k k 1 add def
      } if
    } for
    dist PSL_cuts k get le
    {PSL_xx j PSL_x i get put PSL_yy j PSL_y i get put
      PSL_kind j 0 put
      /j j 1 add def
    } if
  } for
} def
/PSL_CT_reversepath
{PSL_xp j get PSL_xp 0 get lt
  {0 1 j 2 idiv
    { /left exch def
      /right j left sub def
      /tmp PSL_xp left get def
      PSL_xp left PSL_xp right get put
      PSL_xp right tmp put
      /tmp PSL_yp left get def
      PSL_yp left PSL_yp right get put
      PSL_yp right tmp put
    } for
  } if
} def
/PSL_CT_placelabel
{
  PSL_usebox
  {PSL_CT_clippath
    PSL_fillbox
    {V PSL_setboxrgb fill U} if
    PSL_drawbox
    {PSL_setboxpen S} if N
  } if
  PSL_settxtrgb PSL_CT_placeline PSL_str k get PSL_gap_x PSL_just PSL_height PSL_pathtext
} def
/PSL_CT_clippath
{
  /H PSL_height 2 div PSL_gap_y add def
  /xoff j 1 add array def
  /yoff j 1 add array def
  /angle 0 def
  0 1 j {
    /ii exch def
    /x PSL_xp ii get def
    /y PSL_yp ii get def
    ii 0 eq {
      /x1 PSL_xp 1 get def
      /y1 PSL_yp 1 get def
      /dx x1 x sub def
      /dy y1 y sub def
    }
    { /i1 ii 1 sub def
      /x1 PSL_xp i1 get def
      /y1 PSL_yp i1 get def
      /dx x x1 sub def
      /dy y y1 sub def
    } ifelse
    dx 0.0 ne dy 0.0 ne and
    { /angle dy dx atan 90 add def} if
    /sina angle sin def
    /cosa angle cos def
    xoff ii H cosa mul put
    yoff ii H sina mul put
  } for
  PSL_xp 0 get xoff 0 get add PSL_yp 0 get yoff 0 get add M
  1 1 j {
    /ii exch def
    PSL_xp ii get xoff ii get add PSL_yp ii get yoff ii get add L
  } for
  j -1 0 {
    /ii exch def
    PSL_xp ii get xoff ii get sub PSL_yp ii get yoff ii get sub L
  } for P
} def
/PSL_CT_drawline
{
  /str 20 string def
  PSL_strokeline
  {PSL_CT_placeline PSL_setlinepen S} if
  /PSL_seg PSL_seg 1 add def
  /n 1 def
} def
/PSL_CT_placeline
{PSL_xp 0 get PSL_yp 0 get M
  1 1 j { /ii exch def PSL_xp ii get PSL_yp ii get L} for
} def
/PSL_straight_text_labels
{
  /bits exch def
  /PSL_clippath bits 1 and 0 eq def
  /PSL_rounded bits 16 and 16 eq def
  /PSL_fillbox bits 128 and 128 eq def
  /PSL_drawbox bits 256 and 256 eq def
  /PSL_m1 PSL_m 1 sub def
  /PSL_justx PSL_just 4 mod 1 sub 2 div neg def
  /PSL_justy PSL_just 4 idiv PSL_height mul 2 div neg def
  /PSL_usebox PSL_fillbox PSL_drawbox or def
  PSL_clippath
  {PSL_ST_clippath}
  {PSL_usebox {PSL_ST_clippath} if
    PSL_ST_placelabel
  } ifelse
} def
/PSL_ST_placelabel
{PSL_settxtrgb
  0 1 PSL_m1
  { /k exch def
    /xp PSL_txt_x k get def
    /yp PSL_txt_y k get def
    V PSL_txt_x k get PSL_txt_y k get T
    PSL_angle k get R
    /BoxW PSL_str k get stringwidth pop def
    BoxW PSL_justx mul PSL_justy M
    PSL_str k get show
    U
  } for
} def
/PSL_ST_clippath
{N
  PSL_usebox not {clipsave clippath} if
  PSL_rounded {PSL_ST_clippath_round} {PSL_ST_clippath_rect} ifelse
  PSL_usebox
  {PSL_fillbox
    {V PSL_setboxrgb fill U} if
    PSL_drawbox
    {PSL_setboxpen S} if N
  }
  {PSL_clip
  } ifelse
  N
} def
/PSL_ST_clippath_rect
{
  /BoxH PSL_height PSL_gap_y 2 mul add def
  /DelY BoxH BoxH 0 3 array astore def
  0 1 PSL_m1
  { /k exch def
    /xp PSL_txt_x k get def
    /yp PSL_txt_y k get def
    /MAT PSL_angle k get matrix R def
    /BoxW PSL_str k get stringwidth pop PSL_gap_x 2 mul add def
    /x0 0 BoxW PSL_justx mul add def
    /y0 0 PSL_justy add PSL_gap_y sub def
    /DelX 0 BoxW BoxW 3 array astore def
    x0 y0 MAT transform
    /dy exch def /dx exch def
    xp dx add yp dy add M
    0 1 2
    {
      /ii exch def
      x0 DelX ii get add y0 DelY ii get add MAT transform
      /dy exch def /dx exch def
      xp dx add yp dy add L
    } for P
  } for
} def
/PSL_ST_clippath_round
{
  /PSL_justy2 PSL_just 4 idiv 2 div neg def
  /BoxR PSL_gap_x PSL_gap_y lt {PSL_gap_x} {PSL_gap_y} ifelse def
  /BoxH PSL_height PSL_gap_y 2 mul add def
  /y0 PSL_height PSL_gap_y 2 mul add PSL_justy2 mul def
  0 1 PSL_m1
  { /k exch def
    /xp PSL_txt_x k get def
    /yp PSL_txt_y k get def
    /BoxW PSL_str k get stringwidth pop PSL_gap_x 2 mul add def
    /x0 BoxW PSL_justx mul def
    xp yp T PSL_angle k get R x0 y0 T
    BoxR 0 M
    BoxW 0 BoxW BoxH BoxR arct BoxW BoxH 0 BoxH BoxR arct 0 BoxH 0 0 BoxR arct 0 0 BoxW 0 BoxR arct P
    x0 neg y0 neg T PSL_angle k get neg R xp neg yp neg T
  } for
} def
/PSL_nclip 0 def
/PSL_clip {clip /PSL_nclip PSL_nclip 1 add def} def
/PSL_eoclip {eoclip /PSL_nclip PSL_nclip 1 add def} def
/PSL_cliprestore {cliprestore /PSL_nclip PSL_nclip 1 sub def} def
%%EndProlog

%%BeginSetup
/PSLevel /languagelevel where {pop languagelevel} {1} ifelse def
PSLevel 1 gt { << /PageSize [595 842] /ImagingBBox null >> setpagedevice } if
%%EndSetup

%%Page: 1 1

%%BeginPageSetup
V 595 0 T 90 R 0.06 0.06 scale
%%EndPageSetup

/PSL_page_xsize 14033 def
/PSL_page_ysize 9917 def
0 A
FQ
O0
2400 6000 TM

% PostScript produced by:
%%GMT: psbasemap -R-90.5/-63/0/220 -JX8i/-2.5i -Bxa2.5+lLongitude [deg] -Bya20+lDepth [km] -BWeSn -X2i -Y5i -K
%%PROJ: xy -90.50000000 -63.00000000 0.00000000 220.00000000 -90.500 -63.000 220.000 -0.000 +xy +a=6378137.000 +b=6356752.314245
%%BeginObject PSL_Layer_1
0 setlinecap
0 setlinejoin
3.32551 setmiterlimit
2 setlinecap
/MM {neg exch M} def
/PSL_A0_y 83 def
/PSL_A1_y 0 def
25 W
0 3000 M 0 -3000 D S
8 W
0 3000 M -83 0 D S
0 2727 M -83 0 D S
0 2455 M -83 0 D S
0 2182 M -83 0 D S
0 1909 M -83 0 D S
0 1636 M -83 0 D S
0 1364 M -83 0 D S
0 1091 M -83 0 D S
0 818 M -83 0 D S
0 545 M -83 0 D S
0 273 M -83 0 D S
0 0 M -83 0 D S
/PSL_AH0 0
PSL_font_encode 0 get 0 eq {ISOLatin1+_Encoding /Helvetica /Helvetica PSL_reencode PSL_font_encode 0 1 put} if
200 F0
(0) sw mx
(20) sw mx
(40) sw mx
(60) sw mx
(80) sw mx
(100) sw mx
(120) sw mx
(140) sw mx
(160) sw mx
(180) sw mx
(200) sw mx
(220) sw mx
def
/PSL_A0_y PSL_A0_y 83 add def
3000 PSL_A0_y MM
(0) mr Z
2727 PSL_A0_y MM
(20) mr Z
2455 PSL_A0_y MM
(40) mr Z
2182 PSL_A0_y MM
(60) mr Z
1909 PSL_A0_y MM
(80) mr Z
1636 PSL_A0_y MM
(100) mr Z
1364 PSL_A0_y MM
(120) mr Z
1091 PSL_A0_y MM
(140) mr Z
818 PSL_A0_y MM
(160) mr Z
545 PSL_A0_y MM
(180) mr Z
273 PSL_A0_y MM
(200) mr Z
0 PSL_A0_y MM
(220) mr Z
/PSL_A0_y PSL_A0_y PSL_AH0 add def
/PSL_LH 267 F0
(M) sh def
/PSL_L_y PSL_A0_y PSL_A1_y mx 133 add def
1500 PSL_L_y MM
V 90 R (Depth \[km\]) bc Z U
9600 0 T
/MM {exch M} def
/PSL_A0_y 83 def
/PSL_A1_y 0 def
25 W
0 3000 M 0 -3000 D S
8 W
0 3000 M 83 0 D S
0 2727 M 83 0 D S
0 2455 M 83 0 D S
0 2182 M 83 0 D S
0 1909 M 83 0 D S
0 1636 M 83 0 D S
0 1364 M 83 0 D S
0 1091 M 83 0 D S
0 818 M 83 0 D S
0 545 M 83 0 D S
0 273 M 83 0 D S
0 0 M 83 0 D S
/PSL_LH 0 def /PSL_L_y PSL_A0_y PSL_A1_y mx def
-9600 0 T
/MM {neg M} def
/PSL_A0_y 83 def
/PSL_A1_y 0 def
25 W
0 0 M 9600 0 D S
8 W
175 0 M 0 -83 D S
1047 0 M 0 -83 D S
1920 0 M 0 -83 D S
2793 0 M 0 -83 D S
3665 0 M 0 -83 D S
4538 0 M 0 -83 D S
5411 0 M 0 -83 D S
6284 0 M 0 -83 D S
7156 0 M 0 -83 D S
8029 0 M 0 -83 D S
8902 0 M 0 -83 D S
/PSL_AH0 0
200 F0
(-90.0) sh mx
(-87.5) sh mx
(-85.0) sh mx
(-82.5) sh mx
(-80.0) sh mx
(-77.5) sh mx
(-75.0) sh mx
(-72.5) sh mx
(-70.0) sh mx
(-67.5) sh mx
(-65.0) sh mx
def
/PSL_A0_y PSL_A0_y 83 add PSL_AH0 add def
175 PSL_A0_y MM
(-90.0) bc Z
1047 PSL_A0_y MM
(-87.5) bc Z
1920 PSL_A0_y MM
(-85.0) bc Z
2793 PSL_A0_y MM
(-82.5) bc Z
3665 PSL_A0_y MM
(-80.0) bc Z
4538 PSL_A0_y MM
(-77.5) bc Z
5411 PSL_A0_y MM
(-75.0) bc Z
6284 PSL_A0_y MM
(-72.5) bc Z
7156 PSL_A0_y MM
(-70.0) bc Z
8029 PSL_A0_y MM
(-67.5) bc Z
8902 PSL_A0_y MM
(-65.0) bc Z
/PSL_LH 267 F0
(M) sh def
/PSL_L_y PSL_A0_y PSL_A1_y mx 133 add PSL_LH add def
4800 PSL_L_y MM
(Longitude \[deg\]) bc Z
0 3000 T
/MM {M} def
/PSL_A0_y 83 def
/PSL_A1_y 0 def
25 W
0 0 M 9600 0 D S
8 W
175 0 M 0 83 D S
1047 0 M 0 83 D S
1920 0 M 0 83 D S
2793 0 M 0 83 D S
3665 0 M 0 83 D S
4538 0 M 0 83 D S
5411 0 M 0 83 D S
6284 0 M 0 83 D S
7156 0 M 0 83 D S
8029 0 M 0 83 D S
8902 0 M 0 83 D S
/PSL_LH 0 def /PSL_L_y PSL_A0_y PSL_A1_y mx def
0 -3000 T
0 setlinecap
%%EndObject
0 A
FQ
O0
0 0 TM

% PostScript produced by:
%%GMT: psxy -R-90.5/-63/0/220 -JX8i/-2.5i -Wthinnest -N -O -K
%%PROJ: xy -90.50000000 -63.00000000 0.00000000 220.00000000 -90.500 -63.000 220.000 -0.000 +xy +a=6378137.000 +b=6356752.314245
%%BeginObject PSL_Layer_2
0 setlinecap
0 setlinejoin
3.32551 setmiterlimit
4 W
6840 2997 M
-45 2 D
S
6841 2841 M
-59 153 D
S
6877 2673 M
-69 206 D
S
6886 2592 M
-85 319 D
S
6365 2539 M
20 -118 D
S
5830 2989 M
0 -405 D
S
6032 2997 M
14 2 D
S
6876 2533 M
-101 428 D
S
6526 2989 M
33 8 D
S
6822 2552 M
-70 420 D
S
5981 2992 M
-15 -53 D
S
6907 2485 M
-112 463 D
S
6886 2736 M
-73 164 D
S
6912 2773 M
-67 224 D
S
6830 2997 M
-9 -142 D
S
6850 2827 M
-56 170 D
S
6687 2523 M
-82 474 D
S
6694 2355 M
44 536 D
S
3695 2997 M
46 0 D
S
6850 2581 M
-93 418 D
S
9479 2992 M
13 -237 D
S
6315 2999 M
-3 0 D
S
7316 2987 M
-26 -486 D
S
7052 2995 M
-10 -459 D
S
6957 2761 M
-40 103 D
S
6809 2672 M
-77 327 D
S
6436 2811 M
-71 85 D
S
6403 2989 M
-29 10 D
S
6891 2587 M
-97 277 D
S
6871 2715 M
-81 212 D
S
6313 2624 M
-17 -24 D
S
6848 2653 M
-73 346 D
S
6820 2821 M
-83 178 D
S
6477 2933 M
-118 -533 D
S
6605 2987 M
-17 12 D
S
6881 2768 M
-87 224 D
S
6370 2997 M
-72 0 D
S
6480 2995 M
1334 -2161 D
S
7635 2280 M
-910 75 D
S
5260 2997 M
-41 0 D
S
5897 2995 M
-5 -6 D
S
6339 2832 M
-61 -107 D
S
5661 2685 M
-40 310 D
S
5999 2995 M
-77 -16 D
S
6919 2451 M
-101 401 D
S
5904 2843 M
-12 -152 D
S
6866 2800 M
-81 199 D
S
6724 2788 M
-16 211 D
S
6891 2549 M
-80 346 D
S
6891 2443 M
-64 210 D
S
6815 2997 M
24 -534 D
S
5764 2995 M
-10 0 D
S
6838 2781 M
-55 63 D
S
6817 2995 M
-57 -76 D
S
5311 2997 M
5 -170 D
S
6902 2784 M
-77 101 D
S
6896 2901 M
-60 98 D
S
5705 2997 M
-13 -472 D
S
6891 2763 M
-10 0 D
S
5442 2520 M
-26 251 D
S
6881 2432 M
-121 516 D
S
5264 2999 M
-24 -2 D
S
5797 2864 M
-28 61 D
S
6654 2579 M
-66 420 D
S
6053 2997 M
61 0 D
S
6830 2720 M
-78 164 D
S
6856 2603 M
-103 394 D
S
5756 2981 M
-23 14 D
S
6907 2053 M
-159 928 D
S
6398 2781 M
-62 214 D
S
5871 2776 M
-43 147 D
S
2657 2997 M
-41 0 D
S
6838 2536 M
-91 412 D
S
6917 2357 M
-143 640 D
S
6935 2627 M
-71 372 D
S
6712 2997 M
-46 0 D
S
6833 2563 M
-94 436 D
S
7449 2859 M
61 138 D
S
6871 2640 M
-58 337 D
S
6820 2848 M
-58 115 D
S
6827 2963 M
-44 -55 D
S
6856 2795 M
-81 196 D
S
5204 2997 M
46 -122 D
S
6232 2997 M
-11 0 D
S
6861 2795 M
-78 148 D
S
6953 2667 M
-62 160 D
S
6825 2832 M
-73 161 D
S
6876 2800 M
-58 199 D
S
6971 2515 M
-78 180 D
S
6492 2997 M
-35 0 D
S
4145 2997 M
41 0 D
S
6848 2749 M
-68 175 D
S
6508 2709 M
-46 288 D
S
6053 2997 M
10 -730 D
S
6825 2880 M
-72 85 D
S
6815 2859 M
-26 53 D
S
6833 2733 M
-78 226 D
S
6429 2995 M
-29 2 D
S
6845 2501 M
-93 386 D
S
6861 2757 M
-68 148 D
S
6866 2997 M
-56 2 D
S
6492 2997 M
-249 2 D
S
5926 2999 M
5 0 D
S
6060 2995 M
-58 2 D
S
5940 2795 M
-89 2 D
S
6894 2541 M
-18 248 D
S
5907 2739 M
-8 -147 D
S
6569 2976 M
1 23 D
S
5945 2997 M
-30 -432 D
S
6004 2723 M
-2 -1038 D
S
6809 2704 M
-112 272 D
S
6037 2181 M
-38 814 D
S
6830 2459 M
-84 440 D
S
6912 2672 M
-97 320 D
S
6735 2355 M
-177 644 D
S
6907 2875 M
-68 124 D
S
6845 2837 M
-57 162 D
S
6896 2720 M
-60 124 D
S
7758 135 M
69 -72 D
S
6896 2843 M
-93 102 D
S
6574 2384 M
-74 611 D
S
62 2989 M
46 6 D
S
6927 2821 M
-75 175 D
S
6518 2853 M
-51 144 D
S
7298 2536 M
-69 -88 D
S
6861 2784 M
-63 215 D
S
6927 2491 M
-167 449 D
S
6866 2800 M
-51 197 D
S
6820 2613 M
-78 346 D
S
5833 2907 M
-14 92 D
S
6735 2813 M
-6 186 D
S
5774 2643 M
-51 352 D
S
6063 2997 M
-41 -501 D
S
6388 2813 M
20 182 D
S
7901 1032 M
315 1965 D
S
5792 2997 M
10 -69 D
S
8203 1197 M
-54 -749 D
S
6347 2995 M
-11 -534 D
S
6891 2587 M
-98 404 D
S
6902 2859 M
-84 33 D
S
6544 2907 M
-46 90 D
S
5945 2427 M
-117 570 D
S
6605 2997 M
-17 2 D
S
6994 2443 M
-37 300 D
S
6907 2571 M
-28 -3 D
S
6850 2635 M
-111 364 D
S
5027 2803 M
-18 -78 D
S
6887 2799 M
-40 -70 D
S
6533 2816 M
-66 181 D
S
6815 2981 M
-27 18 D
S
5996 2997 M
-30 0 D
S
6889 2749 M
-45 116 D
S
6421 2587 M
-67 410 D
S
5741 2709 M
15 54 D
S
6885 2655 M
-69 152 D
S
6252 2464 M
-102 533 D
S
5996 2528 M
-107 411 D
S
7063 2611 M
32 217 D
S
6866 2784 M
-63 175 D
S
6871 2651 M
-87 330 D
S
6687 2875 M
-72 122 D
S
6861 2747 M
-86 246 D
S
5275 2949 M
6 48 D
S
6861 2864 M
-81 135 D
S
6886 2859 M
-34 105 D
S
6866 2704 M
-71 295 D
S
6513 2997 M
15 0 D
S
6702 2608 M
-56 384 D
S
6119 2619 M
-61 378 D
S
6876 2555 M
-78 340 D
S
5835 2984 M
64 13 D
S
5771 2720 M
64 -301 D
S
6887 2524 M
-94 357 D
S
6861 2752 M
-92 245 D
S
6784 2997 M
-29 2 D
S
6359 2864 M
-25 133 D
S
5265 2997 M
21 0 D
S
5915 2683 M
-16 314 D
S
6743 2997 M
-63 2 D
S
5874 2960 M
35 -363 D
S
6866 2837 M
-81 162 D
S
6919 2995 M
-40 0 D
S
5362 2997 M
5 0 D
S
6873 2947 M
-36 -233 D
S
6687 2560 M
-22 439 D
S
6902 2997 M
-67 -37 D
S
6815 2805 M
-81 194 D
S
6457 2997 M
-50 2 D
S
5777 2997 M
-41 0 D
S
6932 2736 M
-80 255 D
S
6889 2995 M
-16 -70 D
S
6907 2619 M
-89 380 D
S
6902 2517 M
-104 468 D
S
6912 2320 M
-128 677 D
S
6423 2883 M
-69 114 D
S
6835 2619 M
-96 303 D
S
6856 2843 M
-70 141 D
S
6890 2700 M
-89 216 D
S
5787 2997 M
-33 -2 D
S
5298 2989 M
59 -173 D
S
3353 2997 M
32 -182 D
S
5856 2995 M
-10 -352 D
S
5884 2736 M
-18 -211 D
S
6825 2997 M
-63 -84 D
S
6917 2997 M
-63 2 D
S
5884 2811 M
-26 186 D
S
6685 2292 M
-203 705 D
S
6896 2875 M
-60 6 D
S
6840 2523 M
-106 476 D
S
5214 2997 M
-15 0 D
S
6983 2560 M
-71 373 D
S
6879 2952 M
-81 -17 D
S
5265 2997 M
-20 0 D
S
6544 2709 M
-6 288 D
S
5196 2989 M
-25 6 D
S
5912 2648 M
-118 304 D
S
6861 2917 M
-55 79 D
S
7022 2472 M
-90 173 D
S
6922 2864 M
49 67 D
S
6838 2472 M
-90 467 D
S
6674 2995 M
-90 2 D
S
6889 2845 M
-85 78 D
S
6636 2997 M
-37 2 D
S
6907 2891 M
-31 106 D
S
6076 2712 M
-59 285 D
S
5787 2715 M
-23 -296 D
S
6871 2736 M
-99 196 D
S
5815 2664 M
-72 160 D
S
6907 2453 M
-81 370 D
S
6902 2485 M
-122 468 D
S
6881 2763 M
-75 217 D
S
6893 2889 M
-66 110 D
S
5743 2653 M
-2 344 D
S
6873 2605 M
-83 298 D
S
6848 2685 M
-81 298 D
S
6921 2511 M
-64 192 D
S
6824 2951 M
-54 48 D
S
6354 2635 M
-51 362 D
S
6815 2800 M
-36 133 D
S
6881 2507 M
-106 492 D
S
6875 2751 M
-117 241 D
S
6845 2837 M
-67 162 D
S
6881 2832 M
-56 0 D
S
6840 2768 M
-57 231 D
S
6861 2827 M
30 -635 D
S
6715 2995 M
151 -590 D
S
6922 2997 M
29 -244 D
S
6850 2917 M
-49 82 D
S
6896 2923 M
-89 -24 D
S
6858 2792 M
-96 183 D
S
5695 2997 M
36 0 D
S
6859 2759 M
-64 192 D
S
5756 2773 M
-31 112 D
S
6909 2525 M
-47 466 D
S
6976 2520 M
-12 207 D
S
6735 2995 M
-158 -486 D
S
6357 2749 M
-79 248 D
S
5817 2997 M
26 -16 D
S
6886 2928 M
-28 67 D
S
1438 2995 M
-8 2 D
S
5789 2456 M
-76 539 D
S
6825 2555 M
-110 386 D
S
5731 2997 M
-21 0 D
S
6452 2997 M
-46 0 D
S
5846 2835 M
-41 -86 D
S
6902 2747 M
-43 230 D
S
6570 2999 M
-56 0 D
S
6738 2592 M
-76 407 D
S
6902 2747 M
-87 250 D
S
6206 2693 M
-43 302 D
S
5950 2603 M
-84 -206 D
S
5741 2731 M
-26 170 D
S
6411 2677 M
5 320 D
S
6022 2629 M
-24 370 D
S
6840 2725 M
-64 270 D
S
6815 2635 M
-91 364 D
S
6881 2741 M
-91 170 D
S
5633 2997 M
-23 -2 D
S
6101 2877 M
0 118 D
S
6999 2677 M
-31 -229 D
S
6882 2844 M
-58 62 D
S
6850 2827 M
-46 159 D
S
6559 2843 M
135 -2227 D
S
6017 2997 M
-49 -429 D
S
5863 2800 M
-35 48 D
S
6554 2997 M
-21 0 D
S
2309 2997 M
6 0 D
S
6927 2389 M
-114 490 D
S
6848 2739 M
-86 193 D
S
6751 2541 M
-28 456 D
S
6881 2949 M
-52 39 D
S
5777 2923 M
-30 76 D
S
6881 2784 M
-124 188 D
S
6467 2976 M
-5 21 D
S
6871 2997 M
25 0 D
S
6554 2693 M
-58 306 D
S
6845 2459 M
-103 489 D
S
6914 2942 M
-50 -103 D
S
6891 2939 M
-65 -63 D
S
7671 2413 M
-15 -837 D
S
6344 2907 M
-59 -392 D
S
6840 2507 M
-96 492 D
S
6942 2464 M
-90 476 D
S
5710 2997 M
26 -85 D
S
6856 2661 M
-94 300 D
S
5817 2997 M
72 0 D
S
6633 2973 M
-18 24 D
S
6876 2416 M
-105 467 D
S
7418 2997 M
-18 -376 D
S
5938 2995 M
0 0 D
P S
6521 2952 M
-44 45 D
S
6922 2651 M
-40 164 D
S
6584 2725 M
-40 -10 D
S
6889 2717 M
-80 190 D
S
7024 2421 M
-70 343 D
S
5707 2904 M
-58 67 D
S
6204 2664 M
-34 269 D
S
6840 2837 M
-45 151 D
S
6769 2379 M
-164 618 D
S
6899 2600 M
-75 399 D
S
6895 2849 M
-50 122 D
S
6922 2859 M
-73 -44 D
S
5935 2997 M
-15 0 D
S
6881 2747 M
-92 234 D
S
6710 2605 M
-35 394 D
S
5250 2997 M
54 -2 D
S
6912 2528 M
-106 465 D
S
6815 2661 M
-89 338 D
S
6656 2997 M
-36 0 D
S
7628 2997 M
-17 -54 D
S
6403 2499 M
-67 496 D
S
6840 2757 M
-73 242 D
S
6799 2933 M
-70 66 D
S
6963 2837 M
-19 -76 D
S
5833 2997 M
-21 0 D
S
6521 2557 M
-98 -186 D
S
6927 2789 M
-109 116 D
S
7597 1418 M
55 -44 D
S
5746 2752 M
-62 245 D
S
6868 2739 M
-74 189 D
S
6463 2879 M
-114 118 D
S
6382 2477 M
-58 19 D
S
6896 2997 M
-42 2 D
S
5797 2763 M
-33 -248 D
S
5291 2997 M
-10 0 D
S
%%EndObject
0 A
FQ
O0
0 0 TM

% PostScript produced by:
%%GMT: psxy -R-90.5/-63/0/220 -JX8i/-2.5i -Sc0.12 -GSEAGREEN -Wthinnest -O -K
%%PROJ: xy -90.50000000 -63.00000000 0.00000000 220.00000000 -90.500 -63.000 220.000 -0.000 +xy +a=6378137.000 +b=6356752.314245
%%BeginObject PSL_Layer_3
0 setlinecap
0 setlinejoin
3.32551 setmiterlimit
clipsave
0 0 M
9600 0 D
0 3000 D
-9600 0 D
PSL_eoclip N
4 W
V
{0.18 0.545 0.341 C} FS
O1
28 6840 2997 Sc
28 6841 2841 Sc
28 6877 2673 Sc
28 6886 2592 Sc
28 6365 2539 Sc
28 5830 2989 Sc
28 6032 2997 Sc
28 6876 2533 Sc
28 6526 2989 Sc
28 6822 2552 Sc
28 5981 2992 Sc
28 6907 2485 Sc
28 6886 2736 Sc
28 6912 2773 Sc
28 6830 2997 Sc
28 6850 2827 Sc
28 6687 2523 Sc
28 6694 2355 Sc
28 3695 2997 Sc
28 6850 2581 Sc
28 9479 2992 Sc
28 6315 2999 Sc
28 7316 2987 Sc
28 7052 2995 Sc
28 6957 2761 Sc
28 6809 2672 Sc
28 6436 2811 Sc
28 6403 2989 Sc
28 6891 2587 Sc
28 6871 2715 Sc
28 6313 2624 Sc
28 6848 2653 Sc
28 6820 2821 Sc
28 6477 2933 Sc
28 6605 2987 Sc
28 6881 2768 Sc
28 6370 2997 Sc
28 6480 2995 Sc
28 7635 2280 Sc
28 5260 2997 Sc
28 5897 2995 Sc
28 6339 2832 Sc
28 5661 2685 Sc
28 5999 2995 Sc
28 6919 2451 Sc
28 5904 2843 Sc
28 6866 2800 Sc
28 6724 2788 Sc
28 6891 2549 Sc
28 6891 2443 Sc
28 6815 2997 Sc
28 5764 2995 Sc
28 6838 2781 Sc
28 6817 2995 Sc
28 5311 2997 Sc
28 6902 2784 Sc
28 6896 2901 Sc
28 5705 2997 Sc
28 6891 2763 Sc
28 5442 2520 Sc
28 6881 2432 Sc
28 5264 2999 Sc
28 5797 2864 Sc
28 6654 2579 Sc
28 6053 2997 Sc
28 6830 2720 Sc
28 6856 2603 Sc
28 5756 2981 Sc
28 6907 2053 Sc
28 6398 2781 Sc
28 5871 2776 Sc
28 2657 2997 Sc
28 6838 2536 Sc
28 6917 2357 Sc
28 6935 2627 Sc
28 6712 2997 Sc
28 6833 2563 Sc
28 7449 2859 Sc
28 6871 2640 Sc
28 6820 2848 Sc
28 6827 2963 Sc
28 6856 2795 Sc
28 5204 2997 Sc
28 6232 2997 Sc
28 6861 2795 Sc
28 6953 2667 Sc
28 6825 2832 Sc
28 6876 2800 Sc
28 6971 2515 Sc
28 6492 2997 Sc
28 4145 2997 Sc
28 6848 2749 Sc
28 6508 2709 Sc
28 6053 2997 Sc
28 6825 2880 Sc
28 6815 2859 Sc
28 6833 2733 Sc
28 6429 2995 Sc
28 6845 2501 Sc
28 6861 2757 Sc
28 6866 2997 Sc
28 6492 2997 Sc
28 5926 2999 Sc
28 6060 2995 Sc
28 5940 2795 Sc
28 6894 2541 Sc
28 5907 2739 Sc
28 6569 2976 Sc
28 5945 2997 Sc
28 6004 2723 Sc
28 6809 2704 Sc
28 6037 2181 Sc
28 6830 2459 Sc
28 6912 2672 Sc
28 6735 2355 Sc
28 6907 2875 Sc
28 6845 2837 Sc
28 6896 2720 Sc
28 7758 135 Sc
28 6896 2843 Sc
28 6574 2384 Sc
28 62 2989 Sc
28 6927 2821 Sc
28 6518 2853 Sc
28 7298 2536 Sc
28 6861 2784 Sc
28 6927 2491 Sc
28 6866 2800 Sc
28 6820 2613 Sc
28 5833 2907 Sc
28 6735 2813 Sc
28 5774 2643 Sc
28 6063 2997 Sc
28 6388 2813 Sc
28 7901 1032 Sc
28 5792 2997 Sc
28 8203 1197 Sc
28 6347 2995 Sc
28 6891 2587 Sc
28 6902 2859 Sc
28 6544 2907 Sc
28 5945 2427 Sc
28 6605 2997 Sc
28 6994 2443 Sc
28 6907 2571 Sc
28 6850 2635 Sc
28 5027 2803 Sc
28 6887 2799 Sc
28 6533 2816 Sc
28 6815 2981 Sc
28 5996 2997 Sc
28 6889 2749 Sc
28 6421 2587 Sc
28 5741 2709 Sc
28 6885 2655 Sc
28 6252 2464 Sc
28 5996 2528 Sc
28 7063 2611 Sc
28 6866 2784 Sc
28 6871 2651 Sc
28 6687 2875 Sc
28 6861 2747 Sc
28 5275 2949 Sc
28 6861 2864 Sc
28 6886 2859 Sc
28 6866 2704 Sc
28 6513 2997 Sc
28 6702 2608 Sc
28 6119 2619 Sc
28 6876 2555 Sc
28 5835 2984 Sc
28 5771 2720 Sc
28 6887 2524 Sc
28 6861 2752 Sc
28 6784 2997 Sc
28 6359 2864 Sc
28 5265 2997 Sc
28 5915 2683 Sc
28 6743 2997 Sc
28 5874 2960 Sc
28 6866 2837 Sc
28 6919 2995 Sc
28 5362 2997 Sc
28 6873 2947 Sc
28 6687 2560 Sc
28 6902 2997 Sc
28 6815 2805 Sc
28 6457 2997 Sc
28 5777 2997 Sc
28 6932 2736 Sc
28 6889 2995 Sc
28 6907 2619 Sc
28 6902 2517 Sc
28 6912 2320 Sc
28 6423 2883 Sc
28 6835 2619 Sc
28 6856 2843 Sc
28 6890 2700 Sc
28 5787 2997 Sc
28 5298 2989 Sc
28 3353 2997 Sc
28 5856 2995 Sc
28 5884 2736 Sc
28 6825 2997 Sc
28 6917 2997 Sc
28 5884 2811 Sc
28 6685 2292 Sc
28 6896 2875 Sc
28 6840 2523 Sc
28 5214 2997 Sc
28 6983 2560 Sc
28 6879 2952 Sc
28 5265 2997 Sc
28 6544 2709 Sc
28 5196 2989 Sc
28 5912 2648 Sc
28 6861 2917 Sc
28 7022 2472 Sc
28 6922 2864 Sc
28 6838 2472 Sc
28 6674 2995 Sc
28 6889 2845 Sc
28 6636 2997 Sc
28 6907 2891 Sc
28 6076 2712 Sc
28 5787 2715 Sc
28 6871 2736 Sc
28 5815 2664 Sc
28 6907 2453 Sc
28 6902 2485 Sc
28 6881 2763 Sc
28 6893 2889 Sc
28 5743 2653 Sc
28 6873 2605 Sc
28 6848 2685 Sc
28 6921 2511 Sc
28 6824 2951 Sc
28 6354 2635 Sc
28 6815 2800 Sc
28 6881 2507 Sc
28 6875 2751 Sc
28 6845 2837 Sc
28 6881 2832 Sc
28 6840 2768 Sc
28 6861 2827 Sc
28 6715 2995 Sc
28 6922 2997 Sc
28 6850 2917 Sc
28 6896 2923 Sc
28 6858 2792 Sc
28 5695 2997 Sc
28 6859 2759 Sc
28 5756 2773 Sc
28 6909 2525 Sc
28 6976 2520 Sc
28 6735 2995 Sc
28 6357 2749 Sc
28 5817 2997 Sc
28 6886 2928 Sc
28 1438 2995 Sc
28 5789 2456 Sc
28 6825 2555 Sc
28 5731 2997 Sc
28 6452 2997 Sc
28 5846 2835 Sc
28 6902 2747 Sc
28 6570 2999 Sc
28 6738 2592 Sc
28 6902 2747 Sc
28 6206 2693 Sc
28 5950 2603 Sc
28 5741 2731 Sc
28 6411 2677 Sc
28 6022 2629 Sc
28 6840 2725 Sc
28 6815 2635 Sc
28 6881 2741 Sc
28 5633 2997 Sc
28 6101 2877 Sc
28 6999 2677 Sc
28 6882 2844 Sc
28 6850 2827 Sc
28 6559 2843 Sc
28 6017 2997 Sc
28 5863 2800 Sc
28 6554 2997 Sc
28 2309 2997 Sc
28 6927 2389 Sc
28 6848 2739 Sc
28 6751 2541 Sc
28 6881 2949 Sc
28 5777 2923 Sc
28 6881 2784 Sc
28 6467 2976 Sc
28 6871 2997 Sc
28 6554 2693 Sc
28 6845 2459 Sc
28 6914 2942 Sc
28 6891 2939 Sc
28 7671 2413 Sc
28 6344 2907 Sc
28 6840 2507 Sc
28 6942 2464 Sc
28 5710 2997 Sc
28 6856 2661 Sc
28 5817 2997 Sc
28 6633 2973 Sc
28 6876 2416 Sc
28 7418 2997 Sc
28 5938 2995 Sc
28 6521 2952 Sc
28 6922 2651 Sc
28 6584 2725 Sc
28 6889 2717 Sc
28 7024 2421 Sc
28 5707 2904 Sc
28 6204 2664 Sc
28 6840 2837 Sc
28 6769 2379 Sc
28 6899 2600 Sc
28 6895 2849 Sc
28 6922 2859 Sc
28 5935 2997 Sc
28 6881 2747 Sc
28 6710 2605 Sc
28 5250 2997 Sc
28 6912 2528 Sc
28 6815 2661 Sc
28 6656 2997 Sc
28 7628 2997 Sc
28 6403 2499 Sc
28 6840 2757 Sc
28 6799 2933 Sc
28 6963 2837 Sc
28 5833 2997 Sc
28 6521 2557 Sc
28 6927 2789 Sc
28 7597 1418 Sc
28 5746 2752 Sc
28 6868 2739 Sc
28 6463 2879 Sc
28 6382 2477 Sc
28 6896 2997 Sc
28 5797 2763 Sc
28 5291 2997 Sc
U
PSL_cliprestore
%%EndObject
0 A
FQ
O0
0 0 TM

% PostScript produced by:
%%GMT: psxy -R-90.5/-63/0/220 -JX8i/-2.5i -Sc0.12 -GGOLD -Wthinnest -O -K
%%PROJ: xy -90.50000000 -63.00000000 0.00000000 220.00000000 -90.500 -63.000 220.000 -0.000 +xy +a=6378137.000 +b=6356752.314245
%%BeginObject PSL_Layer_4
0 setlinecap
0 setlinejoin
3.32551 setmiterlimit
clipsave
0 0 M
9600 0 D
0 3000 D
-9600 0 D
PSL_eoclip N
4 W
V
{1 0.843 0 C} FS
O1
28 6795 2999 Sc
28 6782 2994 Sc
28 6808 2879 Sc
28 6801 2911 Sc
28 6385 2421 Sc
28 5830 2584 Sc
28 6046 2999 Sc
28 6775 2961 Sc
28 6559 2997 Sc
28 6752 2972 Sc
28 5966 2939 Sc
28 6795 2948 Sc
28 6813 2900 Sc
28 6845 2997 Sc
28 6821 2855 Sc
28 6794 2997 Sc
28 6605 2997 Sc
28 6738 2891 Sc
28 3741 2997 Sc
28 6757 2999 Sc
28 9492 2755 Sc
28 6312 2999 Sc
28 7290 2501 Sc
28 7042 2536 Sc
28 6917 2864 Sc
28 6732 2999 Sc
28 6365 2896 Sc
28 6374 2999 Sc
28 6794 2864 Sc
28 6790 2927 Sc
28 6296 2600 Sc
28 6775 2999 Sc
28 6737 2999 Sc
28 6359 2400 Sc
28 6588 2999 Sc
28 6794 2992 Sc
28 6298 2997 Sc
28 7814 834 Sc
28 6725 2355 Sc
28 5219 2997 Sc
28 5892 2989 Sc
28 6278 2725 Sc
28 5621 2995 Sc
28 5922 2979 Sc
28 6818 2852 Sc
28 5892 2691 Sc
28 6785 2999 Sc
28 6708 2999 Sc
28 6811 2895 Sc
28 6827 2653 Sc
28 6839 2463 Sc
28 5754 2995 Sc
28 6783 2844 Sc
28 6760 2919 Sc
28 5316 2827 Sc
28 6825 2885 Sc
28 6836 2999 Sc
28 5692 2525 Sc
28 6881 2763 Sc
28 5416 2771 Sc
28 6760 2948 Sc
28 5240 2997 Sc
28 5769 2925 Sc
28 6588 2999 Sc
28 6114 2997 Sc
28 6752 2884 Sc
28 6753 2997 Sc
28 5733 2995 Sc
28 6748 2981 Sc
28 6336 2995 Sc
28 5828 2923 Sc
28 2616 2997 Sc
28 6747 2948 Sc
28 6774 2997 Sc
28 6864 2999 Sc
28 6666 2997 Sc
28 6739 2999 Sc
28 7510 2997 Sc
28 6813 2977 Sc
28 6762 2963 Sc
28 6783 2908 Sc
28 6775 2991 Sc
28 5250 2875 Sc
28 6221 2997 Sc
28 6783 2943 Sc
28 6891 2827 Sc
28 6752 2993 Sc
28 6818 2999 Sc
28 6893 2695 Sc
28 6457 2997 Sc
28 4186 2997 Sc
28 6780 2924 Sc
28 6462 2997 Sc
28 6063 2267 Sc
28 6753 2965 Sc
28 6789 2912 Sc
28 6755 2959 Sc
28 6400 2997 Sc
28 6752 2887 Sc
28 6793 2905 Sc
28 6810 2999 Sc
28 6243 2999 Sc
28 5931 2999 Sc
28 6002 2997 Sc
28 5851 2797 Sc
28 6876 2789 Sc
28 5899 2592 Sc
28 6570 2999 Sc
28 5915 2565 Sc
28 6002 1685 Sc
28 6697 2976 Sc
28 5999 2995 Sc
28 6746 2899 Sc
28 6815 2992 Sc
28 6558 2999 Sc
28 6839 2999 Sc
28 6788 2999 Sc
28 6836 2844 Sc
28 7827 63 Sc
28 6803 2945 Sc
28 6500 2995 Sc
28 108 2995 Sc
28 6852 2996 Sc
28 6467 2997 Sc
28 7229 2448 Sc
28 6798 2999 Sc
28 6760 2940 Sc
28 6815 2997 Sc
28 6742 2959 Sc
28 5819 2999 Sc
28 6729 2999 Sc
28 5723 2995 Sc
28 6022 2496 Sc
28 6408 2995 Sc
28 8216 2997 Sc
28 5802 2928 Sc
28 8149 448 Sc
28 6336 2461 Sc
28 6793 2991 Sc
28 6818 2892 Sc
28 6498 2997 Sc
28 5828 2997 Sc
28 6588 2999 Sc
28 6957 2743 Sc
28 6879 2568 Sc
28 6739 2999 Sc
28 5009 2725 Sc
28 6847 2729 Sc
28 6467 2997 Sc
28 6788 2999 Sc
28 5966 2997 Sc
28 6844 2865 Sc
28 6354 2997 Sc
28 5756 2763 Sc
28 6816 2807 Sc
28 6150 2997 Sc
28 5889 2939 Sc
28 7095 2828 Sc
28 6803 2959 Sc
28 6784 2981 Sc
28 6615 2997 Sc
28 6775 2993 Sc
28 5281 2997 Sc
28 6780 2999 Sc
28 6852 2964 Sc
28 6795 2999 Sc
28 6528 2997 Sc
28 6646 2992 Sc
28 6058 2997 Sc
28 6798 2895 Sc
28 5899 2997 Sc
28 5835 2419 Sc
28 6793 2881 Sc
28 6769 2997 Sc
28 6755 2999 Sc
28 6334 2997 Sc
28 5286 2997 Sc
28 5899 2997 Sc
28 6680 2999 Sc
28 5909 2597 Sc
28 6785 2999 Sc
28 6879 2995 Sc
28 5367 2997 Sc
28 6837 2714 Sc
28 6665 2999 Sc
28 6835 2960 Sc
28 6734 2999 Sc
28 6407 2999 Sc
28 5736 2997 Sc
28 6852 2991 Sc
28 6873 2925 Sc
28 6818 2999 Sc
28 6798 2985 Sc
28 6784 2997 Sc
28 6354 2997 Sc
28 6739 2922 Sc
28 6786 2984 Sc
28 6801 2916 Sc
28 5754 2995 Sc
28 5357 2816 Sc
28 3385 2815 Sc
28 5846 2643 Sc
28 5866 2525 Sc
28 6762 2913 Sc
28 6854 2999 Sc
28 5858 2997 Sc
28 6482 2997 Sc
28 6836 2881 Sc
28 6734 2999 Sc
28 5199 2997 Sc
28 6912 2933 Sc
28 6798 2935 Sc
28 5245 2997 Sc
28 6538 2997 Sc
28 5171 2995 Sc
28 5794 2952 Sc
28 6806 2996 Sc
28 6932 2645 Sc
28 6971 2931 Sc
28 6748 2939 Sc
28 6584 2997 Sc
28 6804 2923 Sc
28 6599 2999 Sc
28 6876 2997 Sc
28 6017 2997 Sc
28 5764 2419 Sc
28 6772 2932 Sc
28 5743 2824 Sc
28 6826 2823 Sc
28 6780 2953 Sc
28 6806 2980 Sc
28 6827 2999 Sc
28 5741 2997 Sc
28 6790 2903 Sc
28 6767 2983 Sc
28 6857 2703 Sc
28 6770 2999 Sc
28 6303 2997 Sc
28 6779 2933 Sc
28 6775 2999 Sc
28 6758 2992 Sc
28 6778 2999 Sc
28 6825 2832 Sc
28 6783 2999 Sc
28 6891 2192 Sc
28 6866 2405 Sc
28 6951 2753 Sc
28 6801 2999 Sc
28 6807 2899 Sc
28 6762 2975 Sc
28 5731 2997 Sc
28 6795 2951 Sc
28 5725 2885 Sc
28 6862 2991 Sc
28 6964 2727 Sc
28 6577 2509 Sc
28 6278 2997 Sc
28 5843 2981 Sc
28 6858 2995 Sc
28 1430 2997 Sc
28 5713 2995 Sc
28 6715 2941 Sc
28 5710 2997 Sc
28 6406 2997 Sc
28 5805 2749 Sc
28 6859 2977 Sc
28 6514 2999 Sc
28 6662 2999 Sc
28 6815 2997 Sc
28 6163 2995 Sc
28 5866 2397 Sc
28 5715 2901 Sc
28 6416 2997 Sc
28 5998 2999 Sc
28 6776 2995 Sc
28 6724 2999 Sc
28 6790 2911 Sc
28 5610 2995 Sc
28 6101 2995 Sc
28 6968 2448 Sc
28 6824 2906 Sc
28 6804 2986 Sc
28 6694 616 Sc
28 5968 2568 Sc
28 5828 2848 Sc
28 6533 2997 Sc
28 2315 2997 Sc
28 6813 2879 Sc
28 6762 2932 Sc
28 6723 2997 Sc
28 6829 2988 Sc
28 5747 2999 Sc
28 6757 2972 Sc
28 6462 2997 Sc
28 6896 2997 Sc
28 6496 2999 Sc
28 6742 2948 Sc
28 6864 2839 Sc
28 6826 2876 Sc
28 7656 1576 Sc
28 6285 2515 Sc
28 6744 2999 Sc
28 6852 2940 Sc
28 5736 2912 Sc
28 6762 2961 Sc
28 5889 2997 Sc
28 6615 2997 Sc
28 6771 2883 Sc
28 7400 2621 Sc
28 5938 2995 Sc
28 6477 2997 Sc
28 6882 2815 Sc
28 6544 2715 Sc
28 6809 2907 Sc
28 6954 2764 Sc
28 5649 2971 Sc
28 6170 2933 Sc
28 6795 2988 Sc
28 6605 2997 Sc
28 6824 2999 Sc
28 6845 2971 Sc
28 6849 2815 Sc
28 5920 2997 Sc
28 6789 2981 Sc
28 6675 2999 Sc
28 5304 2995 Sc
28 6806 2993 Sc
28 6726 2999 Sc
28 6620 2997 Sc
28 7611 2943 Sc
28 6336 2995 Sc
28 6767 2999 Sc
28 6729 2999 Sc
28 6944 2761 Sc
28 5812 2997 Sc
28 6423 2371 Sc
28 6818 2905 Sc
28 7652 1374 Sc
28 5684 2997 Sc
28 6794 2928 Sc
28 6349 2997 Sc
28 6324 2496 Sc
28 6854 2999 Sc
28 5764 2515 Sc
28 5281 2997 Sc
U
PSL_cliprestore
%%EndObject
0 A
FQ
O0
0 -4800 TM

% PostScript produced by:
%%GMT: psbasemap -R-45/-14.5/0/220 -JX8i/-2.5i -Bxa2.5+lLatitude [deg] -Bya20+lDepth [km] -BWeSn -Y-4i -O -K
%%PROJ: xy -45.00000000 -14.50000000 0.00000000 220.00000000 -45.000 -14.500 220.000 -0.000 +xy +a=6378137.000 +b=6356752.314245
%%BeginObject PSL_Layer_5
0 setlinecap
0 setlinejoin
3.32551 setmiterlimit
2 setlinecap
/MM {neg exch M} def
/PSL_A0_y 83 def
/PSL_A1_y 0 def
25 W
0 3000 M 0 -3000 D S
8 W
0 3000 M -83 0 D S
0 2727 M -83 0 D S
0 2455 M -83 0 D S
0 2182 M -83 0 D S
0 1909 M -83 0 D S
0 1636 M -83 0 D S
0 1364 M -83 0 D S
0 1091 M -83 0 D S
0 818 M -83 0 D S
0 545 M -83 0 D S
0 273 M -83 0 D S
0 0 M -83 0 D S
/PSL_AH0 0
PSL_font_encode 0 get 0 eq {ISOLatin1+_Encoding /Helvetica /Helvetica PSL_reencode PSL_font_encode 0 1 put} if
200 F0
(0) sw mx
(20) sw mx
(40) sw mx
(60) sw mx
(80) sw mx
(100) sw mx
(120) sw mx
(140) sw mx
(160) sw mx
(180) sw mx
(200) sw mx
(220) sw mx
def
/PSL_A0_y PSL_A0_y 83 add def
3000 PSL_A0_y MM
(0) mr Z
2727 PSL_A0_y MM
(20) mr Z
2455 PSL_A0_y MM
(40) mr Z
2182 PSL_A0_y MM
(60) mr Z
1909 PSL_A0_y MM
(80) mr Z
1636 PSL_A0_y MM
(100) mr Z
1364 PSL_A0_y MM
(120) mr Z
1091 PSL_A0_y MM
(140) mr Z
818 PSL_A0_y MM
(160) mr Z
545 PSL_A0_y MM
(180) mr Z
273 PSL_A0_y MM
(200) mr Z
0 PSL_A0_y MM
(220) mr Z
/PSL_A0_y PSL_A0_y PSL_AH0 add def
/PSL_LH 267 F0
(M) sh def
/PSL_L_y PSL_A0_y PSL_A1_y mx 133 add def
1500 PSL_L_y MM
V 90 R (Depth \[km\]) bc Z U
9600 0 T
/MM {exch M} def
/PSL_A0_y 83 def
/PSL_A1_y 0 def
25 W
0 3000 M 0 -3000 D S
8 W
0 3000 M 83 0 D S
0 2727 M 83 0 D S
0 2455 M 83 0 D S
0 2182 M 83 0 D S
0 1909 M 83 0 D S
0 1636 M 83 0 D S
0 1364 M 83 0 D S
0 1091 M 83 0 D S
0 818 M 83 0 D S
0 545 M 83 0 D S
0 273 M 83 0 D S
0 0 M 83 0 D S
/PSL_LH 0 def /PSL_L_y PSL_A0_y PSL_A1_y mx def
-9600 0 T
/MM {neg M} def
/PSL_A0_y 83 def
/PSL_A1_y 0 def
25 W
0 0 M 9600 0 D S
8 W
0 0 M 0 -83 D S
787 0 M 0 -83 D S
1574 0 M 0 -83 D S
2361 0 M 0 -83 D S
3148 0 M 0 -83 D S
3934 0 M 0 -83 D S
4721 0 M 0 -83 D S
5508 0 M 0 -83 D S
6295 0 M 0 -83 D S
7082 0 M 0 -83 D S
7869 0 M 0 -83 D S
8656 0 M 0 -83 D S
9443 0 M 0 -83 D S
/PSL_AH0 0
200 F0
(-45.0) sh mx
(-42.5) sh mx
(-40.0) sh mx
(-37.5) sh mx
(-35.0) sh mx
(-32.5) sh mx
(-30.0) sh mx
(-27.5) sh mx
(-25.0) sh mx
(-22.5) sh mx
(-20.0) sh mx
(-17.5) sh mx
(-15.0) sh mx
def
/PSL_A0_y PSL_A0_y 83 add PSL_AH0 add def
0 PSL_A0_y MM
(-45.0) bc Z
787 PSL_A0_y MM
(-42.5) bc Z
1574 PSL_A0_y MM
(-40.0) bc Z
2361 PSL_A0_y MM
(-37.5) bc Z
3148 PSL_A0_y MM
(-35.0) bc Z
3934 PSL_A0_y MM
(-32.5) bc Z
4721 PSL_A0_y MM
(-30.0) bc Z
5508 PSL_A0_y MM
(-27.5) bc Z
6295 PSL_A0_y MM
(-25.0) bc Z
7082 PSL_A0_y MM
(-22.5) bc Z
7869 PSL_A0_y MM
(-20.0) bc Z
8656 PSL_A0_y MM
(-17.5) bc Z
9443 PSL_A0_y MM
(-15.0) bc Z
/PSL_LH 267 F0
(M) sh def
/PSL_L_y PSL_A0_y PSL_A1_y mx 133 add PSL_LH add def
4800 PSL_L_y MM
(Latitude \[deg\]) bc Z
0 3000 T
/MM {M} def
/PSL_A0_y 83 def
/PSL_A1_y 0 def
25 W
0 0 M 9600 0 D S
8 W
0 0 M 0 83 D S
787 0 M 0 83 D S
1574 0 M 0 83 D S
2361 0 M 0 83 D S
3148 0 M 0 83 D S
3934 0 M 0 83 D S
4721 0 M 0 83 D S
5508 0 M 0 83 D S
6295 0 M 0 83 D S
7082 0 M 0 83 D S
7869 0 M 0 83 D S
8656 0 M 0 83 D S
9443 0 M 0 83 D S
/PSL_LH 0 def /PSL_L_y PSL_A0_y PSL_A1_y mx def
0 -3000 T
0 setlinecap
%%EndObject
0 A
FQ
O0
0 0 TM

% PostScript produced by:
%%GMT: psxy -R-45/-14.5/0/220 -JX8i/-2.5i -Wthinnest -N -O -K
%%PROJ: xy -45.00000000 -14.50000000 0.00000000 220.00000000 -45.000 -14.500 220.000 -0.000 +xy +a=6378137.000 +b=6356752.314245
%%BeginObject PSL_Layer_6
0 setlinecap
0 setlinejoin
3.32551 setmiterlimit
4 W
7951 2997 M
-24 2 D
S
7848 2841 M
-23 153 D
S
7895 2673 M
-21 206 D
S
7919 2592 M
-38 319 D
S
3511 2539 M
-28 -118 D
S
2757 2989 M
-55 -405 D
S
8670 2997 M
-10 2 D
S
7896 2533 M
-29 428 D
S
4435 2989 M
-20 8 D
S
7912 2552 M
-38 420 D
S
3497 2992 M
-14 -53 D
S
7900 2485 M
-24 463 D
S
7850 2736 M
-29 164 D
S
7688 2773 M
-23 224 D
S
7919 2997 M
-36 -142 D
S
7725 2827 M
-27 170 D
S
5484 2523 M
10 474 D
S
8793 2355 M
89 536 D
S
131 2997 M
10 0 D
S
7923 2581 M
-28 418 D
S
8366 2992 M
53 -237 D
S
5320 2999 M
23 0 D
S
5941 2987 M
-9 -486 D
S
9484 2995 M
-9 -459 D
S
7719 2761 M
-26 103 D
S
8062 2672 M
-20 327 D
S
3423 2811 M
-27 85 D
S
5837 2989 M
6 10 D
S
7919 2587 M
-32 277 D
S
7965 2715 M
-8 212 D
S
3529 2624 M
-20 -24 D
S
7732 2653 M
-36 346 D
S
8002 2821 M
-22 178 D
S
3935 2933 M
-37 -533 D
S
8435 2987 M
-10 12 D
S
7942 2768 M
-28 224 D
S
3400 2997 M
-50 0 D
S
3333 2995 M
-262 -2161 D
S
6063 2280 M
138 75 D
S
2252 2997 M
0 0 D
P S
2513 2995 M
-32 -6 D
S
3645 2832 M
-42 -107 D
S
3223 2685 M
9 310 D
S
2457 2995 M
-4 -16 D
S
7926 2451 M
-22 401 D
S
2783 2843 M
-26 -152 D
S
7937 2800 M
-26 199 D
S
5403 2788 M
11 211 D
S
7863 2549 M
-15 346 D
S
7882 2443 M
16 210 D
S
8108 2997 M
13 -534 D
S
3121 2995 M
-9 0 D
S
7704 2781 M
-40 63 D
S
8018 2995 M
-24 -76 D
S
2146 2997 M
-23 -170 D
S
7845 2784 M
-37 101 D
S
7905 2901 M
-31 98 D
S
2183 2997 M
-67 -472 D
S
6549 2763 M
-9 0 D
S
9157 2520 M
-5 251 D
S
7956 2432 M
-11 516 D
S
2244 2999 M
-15 -2 D
S
2331 2864 M
-16 61 D
S
5593 2579 M
8 420 D
S
2893 2997 M
-27 0 D
S
8122 2720 M
-27 164 D
S
7919 2603 M
-19 394 D
S
2119 2981 M
-21 14 D
S
7928 2053 M
9 928 D
S
3453 2781 M
-9 214 D
S
2425 2776 M
-39 147 D
S
708 2997 M
-5 0 D
S
7926 2536 M
-24 412 D
S
7914 2357 M
-14 640 D
S
7608 2627 M
-29 372 D
S
3299 2997 M
28 0 D
S
8069 2563 M
-22 436 D
S
4276 2859 M
56 138 D
S
7919 2640 M
-8 337 D
S
7946 2848 M
-32 115 D
S
7907 2963 M
-17 -55 D
S
7730 2795 M
-29 196 D
S
2262 2997 M
-5 -122 D
S
5023 2997 M
23 0 D
S
7910 2795 M
-34 148 D
S
7854 2667 M
-27 160 D
S
7970 2832 M
-22 161 D
S
7850 2800 M
-36 199 D
S
7751 2515 M
-22 180 D
S
6259 2997 M
-14 0 D
S
219 2997 M
18 0 D
S
7917 2749 M
-34 175 D
S
3954 2709 M
18 288 D
S
2704 2997 M
55 -730 D
S
7905 2880 M
-28 85 D
S
7900 2859 M
-50 53 D
S
7903 2733 M
-31 226 D
S
4080 2995 M
-2 2 D
S
8108 2501 M
-17 386 D
S
7900 2757 M
-28 148 D
S
7956 2997 M
-41 2 D
S
9233 2997 M
-73 2 D
S
8572 2999 M
-9 0 D
S
4127 2995 M
16 2 D
S
2833 2795 M
-39 2 D
S
7737 2541 M
-35 248 D
S
3380 2739 M
-21 -147 D
S
5199 2976 M
-15 23 D
S
2981 2997 M
-46 -432 D
S
3486 2723 M
39 -1038 D
S
7974 2704 M
-18 272 D
S
3036 2181 M
-16 814 D
S
7914 2459 M
-7 440 D
S
7868 2672 M
-18 320 D
S
4910 2355 M
15 644 D
S
7914 2875 M
-40 124 D
S
7721 2837 M
-27 162 D
S
7960 2720 M
-8 124 D
S
6598 135 M
21 -72 D
S
8002 2843 M
-34 102 D
S
3898 2384 M
44 611 D
S
1337 2989 M
-5 6 D
S
7702 2821 M
-36 175 D
S
3926 2853 M
0 144 D
S
5749 2536 M
-6 -88 D
S
7725 2784 M
-33 215 D
S
7910 2491 M
-34 449 D
S
7780 2800 M
-27 197 D
S
8117 2613 M
-29 346 D
S
2211 2907 M
-4 92 D
S
6330 2813 M
-5 186 D
S
2467 2643 M
-28 352 D
S
2746 2997 M
9 -501 D
S
3675 2813 M
-10 182 D
S
4127 1032 M
-12 1965 D
S
2653 2997 M
0 -69 D
S
6575 1197 M
16 -749 D
S
5390 2995 M
9 -534 D
S
7933 2587 M
-34 404 D
S
8016 2859 M
-43 33 D
S
3958 2907 M
0 90 D
S
2446 2427 M
-51 570 D
S
7393 2997 M
-15 2 D
S
7278 2443 M
-24 300 D
S
7716 2571 M
-21 -3 D
S
7928 2635 M
-24 364 D
S
9401 2803 M
-16 -78 D
S
7865 2799 M
-19 -70 D
S
3917 2816 M
-19 181 D
S
7711 2981 M
-24 18 D
S
2174 2997 M
-9 0 D
S
7769 2749 M
-27 116 D
S
3516 2587 M
-19 410 D
S
2404 2709 M
-27 54 D
S
7902 2655 M
-24 152 D
S
8693 2464 M
-23 533 D
S
2815 2528 M
-32 411 D
S
8147 2611 M
8 217 D
S
8066 2784 M
-15 175 D
S
7905 2651 M
-28 330 D
S
5913 2875 M
0 122 D
S
7744 2747 M
-36 246 D
S
2257 2949 M
9 48 D
S
7983 2864 M
-38 135 D
S
7693 2859 M
-17 105 D
S
7891 2704 M
-19 295 D
S
5973 2997 M
0 0 D
P S
5415 2608 M
-4 384 D
S
3068 2619 M
-13 378 D
S
7928 2555 M
-26 340 D
S
2402 2984 M
-25 13 D
S
3345 2720 M
35 -301 D
S
7968 2524 M
-18 357 D
S
7951 2752 M
-28 245 D
S
6324 2997 M
-4 2 D
S
3506 2864 M
-32 133 D
S
2123 2997 M
5 0 D
S
2912 2683 M
0 314 D
S
6139 2997 M
1 2 D
S
2842 2960 M
-18 -363 D
S
7942 2837 M
-24 162 D
S
4726 2995 M
-19 0 D
S
2229 2997 M
0 0 D
P S
6261 2947 M
49 -233 D
S
5406 2560 M
29 439 D
S
7711 2997 M
-37 -37 D
S
7919 2805 M
-43 194 D
S
4913 2997 M
8 2 D
S
2796 2997 M
-37 0 D
S
7688 2736 M
-24 255 D
S
7935 2995 M
23 -70 D
S
7827 2619 M
-20 380 D
S
7933 2517 M
-25 468 D
S
7928 2320 M
-9 677 D
S
3421 2883 M
-25 114 D
S
7919 2619 M
-17 303 D
S
7730 2843 M
-35 141 D
S
7955 2700 M
-28 216 D
S
2515 2997 M
-48 -2 D
S
2259 2989 M
-11 -173 D
S
62 2997 M
27 -182 D
S
2485 2995 M
-9 -352 D
S
2852 2736 M
-35 -211 D
S
7923 2997 M
-17 -84 D
S
7647 2997 M
-43 2 D
S
2852 2811 M
9 186 D
S
4785 2292 M
17 705 D
S
7836 2875 M
-27 6 D
S
8076 2523 M
-18 476 D
S
9242 2997 M
-41 0 D
S
7633 2560 M
-28 373 D
S
7889 2952 M
-45 -17 D
S
2238 2997 M
-9 0 D
S
9270 2709 M
9 288 D
S
9231 2989 M
-42 6 D
S
2628 2648 M
-23 304 D
S
7785 2917 M
-31 79 D
S
7861 2472 M
-25 173 D
S
7656 2864 M
-16 67 D
S
7926 2472 M
-12 467 D
S
5694 2995 M
53 2 D
S
7843 2845 M
-39 78 D
S
7698 2997 M
-11 2 D
S
7679 2891 M
-41 106 D
S
8917 2712 M
7 285 D
S
2372 2715 M
-53 -296 D
S
7983 2736 M
-33 196 D
S
2236 2664 M
-37 160 D
S
8011 2453 M
15 370 D
S
7970 2485 M
-9 468 D
S
7836 2763 M
-29 217 D
S
7890 2889 M
-28 110 D
S
3260 2653 M
7 344 D
S
7903 2605 M
-34 298 D
S
7926 2685 M
-24 298 D
S
7858 2511 M
-23 192 D
S
7835 2951 M
-33 48 D
S
3456 2635 M
-10 362 D
S
7956 2800 M
-5 133 D
S
7919 2507 M
-13 492 D
S
6357 2751 M
-6 241 D
S
7928 2837 M
-31 162 D
S
8126 2832 M
-23 0 D
S
7707 2768 M
-15 231 D
S
7776 2827 M
-60 -635 D
S
5371 2995 M
-6 -590 D
S
7970 2997 M
-39 -244 D
S
7725 2917 M
-29 82 D
S
8048 2923 M
-49 -24 D
S
7926 2792 M
-27 183 D
S
2451 2997 M
-5 0 D
S
7895 2759 M
-7 192 D
S
2262 2773 M
-19 112 D
S
7704 2525 M
-33 466 D
S
7681 2520 M
-38 207 D
S
5528 2995 M
23 -486 D
S
3592 2749 M
7 248 D
S
2727 2997 M
-9 -16 D
S
7734 2928 M
-39 67 D
S
1185 2995 M
-2 2 D
S
2370 2456 M
-14 539 D
S
7965 2555 M
-12 386 D
S
2497 2997 M
-28 0 D
S
4627 2997 M
-9 0 D
S
2808 2835 M
-37 -86 D
S
7684 2747 M
-25 230 D
S
4808 2999 M
14 0 D
S
8444 2592 M
2 407 D
S
7873 2747 M
-28 250 D
S
3391 2693 M
-21 302 D
S
2958 2603 M
-76 -206 D
S
2165 2731 M
-23 170 D
S
3502 2677 M
41 320 D
S
3055 2629 M
-4 370 D
S
7753 2725 M
-39 270 D
S
8071 2635 M
-15 364 D
S
7905 2741 M
-43 170 D
S
3207 2997 M
-21 -2 D
S
3223 2877 M
9 118 D
S
8029 2677 M
-13 -229 D
S
7994 2844 M
-32 62 D
S
7836 2827 M
-10 159 D
S
3963 2843 M
210 -2227 D
S
2921 2997 M
-58 -429 D
S
2792 2800 M
-5 48 D
S
5623 2997 M
-5 0 D
S
800 2997 M
18 0 D
S
7873 2389 M
-20 490 D
S
7999 2739 M
-26 193 D
S
5911 2541 M
25 456 D
S
7790 2949 M
-34 39 D
S
2192 2923 M
-8 76 D
S
7905 2784 M
-47 188 D
S
5613 2976 M
28 21 D
S
7905 2997 M
46 0 D
S
8384 2693 M
-24 306 D
S
7887 2459 M
-18 489 D
S
8050 2942 M
-36 -103 D
S
8043 2939 M
-42 -63 D
S
8069 2413 M
-697 -837 D
S
3599 2907 M
-44 -392 D
S
7956 2507 M
-11 492 D
S
7831 2464 M
-24 476 D
S
2478 2997 M
-27 -85 D
S
7905 2661 M
-36 300 D
S
2220 2997 M
-18 0 D
S
5298 2973 M
-16 24 D
S
7923 2416 M
-2 467 D
S
5932 2997 M
-17 -376 D
S
1452 2995 M
-9 0 D
S
3914 2952 M
-30 45 D
S
7684 2651 M
-34 164 D
S
3977 2725 M
-10 -10 D
S
7834 2717 M
-30 190 D
S
7845 2421 M
-15 343 D
S
3237 2904 M
-30 67 D
S
3324 2664 M
-20 269 D
S
7707 2837 M
-29 151 D
S
5397 2379 M
14 618 D
S
7824 2600 M
-31 399 D
S
7911 2849 M
-29 122 D
S
8057 2859 M
-31 -44 D
S
3506 2997 M
0 0 D
P S
7960 2747 M
-23 234 D
S
8382 2605 M
8 394 D
S
2197 2997 M
2 -2 D
S
8126 2528 M
-12 465 D
S
8062 2661 M
-6 338 D
S
9210 2997 M
4 0 D
S
4968 2997 M
-1 -54 D
S
3550 2499 M
5 496 D
S
7900 2757 M
-33 242 D
S
8085 2933 M
-24 66 D
S
7863 2837 M
-42 -76 D
S
2736 2997 M
-9 0 D
S
3914 2557 M
-13 -186 D
S
7983 2789 M
-26 116 D
S
7366 1418 M
-20 -44 D
S
2160 2752 M
-23 245 D
S
7815 2739 M
-35 189 D
S
4561 2879 M
20 118 D
S
3458 2477 M
-21 19 D
S
8122 2997 M
-20 2 D
S
2063 2763 M
-48 -248 D
S
2146 2997 M
5 0 D
S
%%EndObject
0 A
FQ
O0
0 0 TM

% PostScript produced by:
%%GMT: psxy -R-45/-14.5/0/220 -JX8i/-2.5i -Sc0.12 -GSEAGREEN -Wthinnest -O -K
%%PROJ: xy -45.00000000 -14.50000000 0.00000000 220.00000000 -45.000 -14.500 220.000 -0.000 +xy +a=6378137.000 +b=6356752.314245
%%BeginObject PSL_Layer_7
0 setlinecap
0 setlinejoin
3.32551 setmiterlimit
clipsave
0 0 M
9600 0 D
0 3000 D
-9600 0 D
PSL_eoclip N
4 W
V
{0.18 0.545 0.341 C} FS
O1
28 7951 2997 Sc
28 7848 2841 Sc
28 7895 2673 Sc
28 7919 2592 Sc
28 3511 2539 Sc
28 2757 2989 Sc
28 8670 2997 Sc
28 7896 2533 Sc
28 4435 2989 Sc
28 7912 2552 Sc
28 3497 2992 Sc
28 7900 2485 Sc
28 7850 2736 Sc
28 7688 2773 Sc
28 7919 2997 Sc
28 7725 2827 Sc
28 5484 2523 Sc
28 8793 2355 Sc
28 131 2997 Sc
28 7923 2581 Sc
28 8366 2992 Sc
28 5320 2999 Sc
28 5941 2987 Sc
28 9484 2995 Sc
28 7719 2761 Sc
28 8062 2672 Sc
28 3423 2811 Sc
28 5837 2989 Sc
28 7919 2587 Sc
28 7965 2715 Sc
28 3529 2624 Sc
28 7732 2653 Sc
28 8002 2821 Sc
28 3935 2933 Sc
28 8435 2987 Sc
28 7942 2768 Sc
28 3400 2997 Sc
28 3333 2995 Sc
28 6063 2280 Sc
28 2252 2997 Sc
28 2513 2995 Sc
28 3645 2832 Sc
28 3223 2685 Sc
28 2457 2995 Sc
28 7926 2451 Sc
28 2783 2843 Sc
28 7937 2800 Sc
28 5403 2788 Sc
28 7863 2549 Sc
28 7882 2443 Sc
28 8108 2997 Sc
28 3121 2995 Sc
28 7704 2781 Sc
28 8018 2995 Sc
28 2146 2997 Sc
28 7845 2784 Sc
28 7905 2901 Sc
28 2183 2997 Sc
28 6549 2763 Sc
28 9157 2520 Sc
28 7956 2432 Sc
28 2244 2999 Sc
28 2331 2864 Sc
28 5593 2579 Sc
28 2893 2997 Sc
28 8122 2720 Sc
28 7919 2603 Sc
28 2119 2981 Sc
28 7928 2053 Sc
28 3453 2781 Sc
28 2425 2776 Sc
28 708 2997 Sc
28 7926 2536 Sc
28 7914 2357 Sc
28 7608 2627 Sc
28 3299 2997 Sc
28 8069 2563 Sc
28 4276 2859 Sc
28 7919 2640 Sc
28 7946 2848 Sc
28 7907 2963 Sc
28 7730 2795 Sc
28 2262 2997 Sc
28 5023 2997 Sc
28 7910 2795 Sc
28 7854 2667 Sc
28 7970 2832 Sc
28 7850 2800 Sc
28 7751 2515 Sc
28 6259 2997 Sc
28 219 2997 Sc
28 7917 2749 Sc
28 3954 2709 Sc
28 2704 2997 Sc
28 7905 2880 Sc
28 7900 2859 Sc
28 7903 2733 Sc
28 4080 2995 Sc
28 8108 2501 Sc
28 7900 2757 Sc
28 7956 2997 Sc
28 9233 2997 Sc
28 8572 2999 Sc
28 4127 2995 Sc
28 2833 2795 Sc
28 7737 2541 Sc
28 3380 2739 Sc
28 5199 2976 Sc
28 2981 2997 Sc
28 3486 2723 Sc
28 7974 2704 Sc
28 3036 2181 Sc
28 7914 2459 Sc
28 7868 2672 Sc
28 4910 2355 Sc
28 7914 2875 Sc
28 7721 2837 Sc
28 7960 2720 Sc
28 6598 135 Sc
28 8002 2843 Sc
28 3898 2384 Sc
28 1337 2989 Sc
28 7702 2821 Sc
28 3926 2853 Sc
28 5749 2536 Sc
28 7725 2784 Sc
28 7910 2491 Sc
28 7780 2800 Sc
28 8117 2613 Sc
28 2211 2907 Sc
28 6330 2813 Sc
28 2467 2643 Sc
28 2746 2997 Sc
28 3675 2813 Sc
28 4127 1032 Sc
28 2653 2997 Sc
28 6575 1197 Sc
28 5390 2995 Sc
28 7933 2587 Sc
28 8016 2859 Sc
28 3958 2907 Sc
28 2446 2427 Sc
28 7393 2997 Sc
28 7278 2443 Sc
28 7716 2571 Sc
28 7928 2635 Sc
28 9401 2803 Sc
28 7865 2799 Sc
28 3917 2816 Sc
28 7711 2981 Sc
28 2174 2997 Sc
28 7769 2749 Sc
28 3516 2587 Sc
28 2404 2709 Sc
28 7902 2655 Sc
28 8693 2464 Sc
28 2815 2528 Sc
28 8147 2611 Sc
28 8066 2784 Sc
28 7905 2651 Sc
28 5913 2875 Sc
28 7744 2747 Sc
28 2257 2949 Sc
28 7983 2864 Sc
28 7693 2859 Sc
28 7891 2704 Sc
28 5973 2997 Sc
28 5415 2608 Sc
28 3068 2619 Sc
28 7928 2555 Sc
28 2402 2984 Sc
28 3345 2720 Sc
28 7968 2524 Sc
28 7951 2752 Sc
28 6324 2997 Sc
28 3506 2864 Sc
28 2123 2997 Sc
28 2912 2683 Sc
28 6139 2997 Sc
28 2842 2960 Sc
28 7942 2837 Sc
28 4726 2995 Sc
28 2229 2997 Sc
28 6261 2947 Sc
28 5406 2560 Sc
28 7711 2997 Sc
28 7919 2805 Sc
28 4913 2997 Sc
28 2796 2997 Sc
28 7688 2736 Sc
28 7935 2995 Sc
28 7827 2619 Sc
28 7933 2517 Sc
28 7928 2320 Sc
28 3421 2883 Sc
28 7919 2619 Sc
28 7730 2843 Sc
28 7955 2700 Sc
28 2515 2997 Sc
28 2259 2989 Sc
28 62 2997 Sc
28 2485 2995 Sc
28 2852 2736 Sc
28 7923 2997 Sc
28 7647 2997 Sc
28 2852 2811 Sc
28 4785 2292 Sc
28 7836 2875 Sc
28 8076 2523 Sc
28 9242 2997 Sc
28 7633 2560 Sc
28 7889 2952 Sc
28 2238 2997 Sc
28 9270 2709 Sc
28 9231 2989 Sc
28 2628 2648 Sc
28 7785 2917 Sc
28 7861 2472 Sc
28 7656 2864 Sc
28 7926 2472 Sc
28 5694 2995 Sc
28 7843 2845 Sc
28 7698 2997 Sc
28 7679 2891 Sc
28 8917 2712 Sc
28 2372 2715 Sc
28 7983 2736 Sc
28 2236 2664 Sc
28 8011 2453 Sc
28 7970 2485 Sc
28 7836 2763 Sc
28 7890 2889 Sc
28 3260 2653 Sc
28 7903 2605 Sc
28 7926 2685 Sc
28 7858 2511 Sc
28 7835 2951 Sc
28 3456 2635 Sc
28 7956 2800 Sc
28 7919 2507 Sc
28 6357 2751 Sc
28 7928 2837 Sc
28 8126 2832 Sc
28 7707 2768 Sc
28 7776 2827 Sc
28 5371 2995 Sc
28 7970 2997 Sc
28 7725 2917 Sc
28 8048 2923 Sc
28 7926 2792 Sc
28 2451 2997 Sc
28 7895 2759 Sc
28 2262 2773 Sc
28 7704 2525 Sc
28 7681 2520 Sc
28 5528 2995 Sc
28 3592 2749 Sc
28 2727 2997 Sc
28 7734 2928 Sc
28 1185 2995 Sc
28 2370 2456 Sc
28 7965 2555 Sc
28 2497 2997 Sc
28 4627 2997 Sc
28 2808 2835 Sc
28 7684 2747 Sc
28 4808 2999 Sc
28 8444 2592 Sc
28 7873 2747 Sc
28 3391 2693 Sc
28 2958 2603 Sc
28 2165 2731 Sc
28 3502 2677 Sc
28 3055 2629 Sc
28 7753 2725 Sc
28 8071 2635 Sc
28 7905 2741 Sc
28 3207 2997 Sc
28 3223 2877 Sc
28 8029 2677 Sc
28 7994 2844 Sc
28 7836 2827 Sc
28 3963 2843 Sc
28 2921 2997 Sc
28 2792 2800 Sc
28 5623 2997 Sc
28 800 2997 Sc
28 7873 2389 Sc
28 7999 2739 Sc
28 5911 2541 Sc
28 7790 2949 Sc
28 2192 2923 Sc
28 7905 2784 Sc
28 5613 2976 Sc
28 7905 2997 Sc
28 8384 2693 Sc
28 7887 2459 Sc
28 8050 2942 Sc
28 8043 2939 Sc
28 8069 2413 Sc
28 3599 2907 Sc
28 7956 2507 Sc
28 7831 2464 Sc
28 2478 2997 Sc
28 7905 2661 Sc
28 2220 2997 Sc
28 5298 2973 Sc
28 7923 2416 Sc
28 5932 2997 Sc
28 1452 2995 Sc
28 3914 2952 Sc
28 7684 2651 Sc
28 3977 2725 Sc
28 7834 2717 Sc
28 7845 2421 Sc
28 3237 2904 Sc
28 3324 2664 Sc
28 7707 2837 Sc
28 5397 2379 Sc
28 7824 2600 Sc
28 7911 2849 Sc
28 8057 2859 Sc
28 3506 2997 Sc
28 7960 2747 Sc
28 8382 2605 Sc
28 2197 2997 Sc
28 8126 2528 Sc
28 8062 2661 Sc
28 9210 2997 Sc
28 4968 2997 Sc
28 3550 2499 Sc
28 7900 2757 Sc
28 8085 2933 Sc
28 7863 2837 Sc
28 2736 2997 Sc
28 3914 2557 Sc
28 7983 2789 Sc
28 7366 1418 Sc
28 2160 2752 Sc
28 7815 2739 Sc
28 4561 2879 Sc
28 3458 2477 Sc
28 8122 2997 Sc
28 2063 2763 Sc
28 2146 2997 Sc
U
PSL_cliprestore
%%EndObject
0 A
FQ
O0
0 0 TM

% PostScript produced by:
%%GMT: psxy -R-45/-14.5/0/220 -JX8i/-2.5i -Sc0.12 -GGOLD -Wthinnest -O -K
%%PROJ: xy -45.00000000 -14.50000000 0.00000000 220.00000000 -45.000 -14.500 220.000 -0.000 +xy +a=6378137.000 +b=6356752.314245
%%BeginObject PSL_Layer_8
0 setlinecap
0 setlinejoin
3.32551 setmiterlimit
clipsave
0 0 M
9600 0 D
0 3000 D
-9600 0 D
PSL_eoclip N
4 W
V
{1 0.843 0 C} FS
O1
28 7927 2999 Sc
28 7825 2994 Sc
28 7874 2879 Sc
28 7881 2911 Sc
28 3483 2421 Sc
28 2702 2584 Sc
28 8660 2999 Sc
28 7867 2961 Sc
28 4415 2997 Sc
28 7874 2972 Sc
28 3483 2939 Sc
28 7876 2948 Sc
28 7821 2900 Sc
28 7665 2997 Sc
28 7883 2855 Sc
28 7698 2997 Sc
28 5494 2997 Sc
28 8882 2891 Sc
28 141 2997 Sc
28 7895 2999 Sc
28 8419 2755 Sc
28 5343 2999 Sc
28 5932 2501 Sc
28 9475 2536 Sc
28 7693 2864 Sc
28 8042 2999 Sc
28 3396 2896 Sc
28 5843 2999 Sc
28 7887 2864 Sc
28 7957 2927 Sc
28 3509 2600 Sc
28 7696 2999 Sc
28 7980 2999 Sc
28 3898 2400 Sc
28 8425 2999 Sc
28 7914 2992 Sc
28 3350 2997 Sc
28 3071 834 Sc
28 6201 2355 Sc
28 2252 2997 Sc
28 2481 2989 Sc
28 3603 2725 Sc
28 3232 2995 Sc
28 2453 2979 Sc
28 7904 2852 Sc
28 2757 2691 Sc
28 7911 2999 Sc
28 5414 2999 Sc
28 7848 2895 Sc
28 7898 2653 Sc
28 8121 2463 Sc
28 3112 2995 Sc
28 7664 2844 Sc
28 7994 2919 Sc
28 2123 2827 Sc
28 7808 2885 Sc
28 7874 2999 Sc
28 2116 2525 Sc
28 6540 2763 Sc
28 9152 2771 Sc
28 7945 2948 Sc
28 2229 2997 Sc
28 2315 2925 Sc
28 5601 2999 Sc
28 2866 2997 Sc
28 8095 2884 Sc
28 7900 2997 Sc
28 2098 2995 Sc
28 7937 2981 Sc
28 3444 2995 Sc
28 2386 2923 Sc
28 703 2997 Sc
28 7902 2948 Sc
28 7900 2997 Sc
28 7579 2999 Sc
28 3327 2997 Sc
28 8047 2999 Sc
28 4332 2997 Sc
28 7911 2977 Sc
28 7914 2963 Sc
28 7890 2908 Sc
28 7701 2991 Sc
28 2257 2875 Sc
28 5046 2997 Sc
28 7876 2943 Sc
28 7827 2827 Sc
28 7948 2993 Sc
28 7814 2999 Sc
28 7729 2695 Sc
28 6245 2997 Sc
28 237 2997 Sc
28 7883 2924 Sc
28 3972 2997 Sc
28 2759 2267 Sc
28 7877 2965 Sc
28 7850 2912 Sc
28 7872 2959 Sc
28 4078 2997 Sc
28 8091 2887 Sc
28 7872 2905 Sc
28 7915 2999 Sc
28 9160 2999 Sc
28 8563 2999 Sc
28 4143 2997 Sc
28 2794 2797 Sc
28 7702 2789 Sc
28 3359 2592 Sc
28 5184 2999 Sc
28 2935 2565 Sc
28 3525 1685 Sc
28 7956 2976 Sc
28 3020 2995 Sc
28 7907 2899 Sc
28 7850 2992 Sc
28 4925 2999 Sc
28 7874 2999 Sc
28 7694 2999 Sc
28 7952 2844 Sc
28 6619 63 Sc
28 7968 2945 Sc
28 3942 2995 Sc
28 1332 2995 Sc
28 7666 2996 Sc
28 3926 2997 Sc
28 5743 2448 Sc
28 7692 2999 Sc
28 7876 2940 Sc
28 7753 2997 Sc
28 8088 2959 Sc
28 2207 2999 Sc
28 6325 2999 Sc
28 2439 2995 Sc
28 2755 2496 Sc
28 3665 2995 Sc
28 4115 2997 Sc
28 2653 2928 Sc
28 6591 448 Sc
28 5399 2461 Sc
28 7899 2991 Sc
28 7973 2892 Sc
28 3958 2997 Sc
28 2395 2997 Sc
28 7378 2999 Sc
28 7254 2743 Sc
28 7695 2568 Sc
28 7904 2999 Sc
28 9385 2725 Sc
28 7846 2729 Sc
28 3898 2997 Sc
28 7687 2999 Sc
28 2165 2997 Sc
28 7742 2865 Sc
28 3497 2997 Sc
28 2377 2763 Sc
28 7878 2807 Sc
28 8670 2997 Sc
28 2783 2939 Sc
28 8155 2828 Sc
28 8051 2959 Sc
28 7877 2981 Sc
28 5913 2997 Sc
28 7708 2993 Sc
28 2266 2997 Sc
28 7945 2999 Sc
28 7676 2964 Sc
28 7872 2999 Sc
28 5973 2997 Sc
28 5411 2992 Sc
28 3055 2997 Sc
28 7902 2895 Sc
28 2377 2997 Sc
28 3380 2419 Sc
28 7950 2881 Sc
28 7923 2997 Sc
28 6320 2999 Sc
28 3474 2997 Sc
28 2128 2997 Sc
28 2912 2997 Sc
28 6140 2999 Sc
28 2824 2597 Sc
28 7918 2999 Sc
28 4707 2995 Sc
28 2229 2997 Sc
28 6310 2714 Sc
28 5435 2999 Sc
28 7674 2960 Sc
28 7876 2999 Sc
28 4921 2999 Sc
28 2759 2997 Sc
28 7664 2991 Sc
28 7958 2925 Sc
28 7807 2999 Sc
28 7908 2985 Sc
28 7919 2997 Sc
28 3396 2997 Sc
28 7902 2922 Sc
28 7695 2984 Sc
28 7927 2916 Sc
28 2467 2995 Sc
28 2248 2816 Sc
28 89 2815 Sc
28 2476 2643 Sc
28 2817 2525 Sc
28 7906 2913 Sc
28 7604 2999 Sc
28 2861 2997 Sc
28 4802 2997 Sc
28 7809 2881 Sc
28 8058 2999 Sc
28 9201 2997 Sc
28 7605 2933 Sc
28 7844 2935 Sc
28 2229 2997 Sc
28 9279 2997 Sc
28 9189 2995 Sc
28 2605 2952 Sc
28 7754 2996 Sc
28 7836 2645 Sc
28 7640 2931 Sc
28 7914 2939 Sc
28 5747 2997 Sc
28 7804 2923 Sc
28 7687 2999 Sc
28 7638 2997 Sc
28 8924 2997 Sc
28 2319 2419 Sc
28 7950 2932 Sc
28 2199 2824 Sc
28 8026 2823 Sc
28 7961 2953 Sc
28 7807 2980 Sc
28 7862 2999 Sc
28 3267 2997 Sc
28 7869 2903 Sc
28 7902 2983 Sc
28 7835 2703 Sc
28 7802 2999 Sc
28 3446 2997 Sc
28 7951 2933 Sc
28 7906 2999 Sc
28 6351 2992 Sc
28 7897 2999 Sc
28 8103 2832 Sc
28 7692 2999 Sc
28 7716 2192 Sc
28 5365 2405 Sc
28 7931 2753 Sc
28 7696 2999 Sc
28 7999 2899 Sc
28 7899 2975 Sc
28 2446 2997 Sc
28 7888 2951 Sc
28 2243 2885 Sc
28 7671 2991 Sc
28 7643 2727 Sc
28 5551 2509 Sc
28 3599 2997 Sc
28 2718 2981 Sc
28 7695 2995 Sc
28 1183 2997 Sc
28 2356 2995 Sc
28 7953 2941 Sc
28 2469 2997 Sc
28 4618 2997 Sc
28 2771 2749 Sc
28 7659 2977 Sc
28 4822 2999 Sc
28 8446 2999 Sc
28 7845 2997 Sc
28 3370 2995 Sc
28 2882 2397 Sc
28 2142 2901 Sc
28 3543 2997 Sc
28 3051 2999 Sc
28 7714 2995 Sc
28 8056 2999 Sc
28 7862 2911 Sc
28 3186 2995 Sc
28 3232 2995 Sc
28 8016 2448 Sc
28 7962 2906 Sc
28 7826 2986 Sc
28 4173 616 Sc
28 2863 2568 Sc
28 2787 2848 Sc
28 5618 2997 Sc
28 818 2997 Sc
28 7853 2879 Sc
28 7973 2932 Sc
28 5936 2997 Sc
28 7756 2988 Sc
28 2184 2999 Sc
28 7858 2972 Sc
28 5641 2997 Sc
28 7951 2997 Sc
28 8360 2999 Sc
28 7869 2948 Sc
28 8014 2839 Sc
28 8001 2876 Sc
28 7372 1576 Sc
28 3555 2515 Sc
28 7945 2999 Sc
28 7807 2940 Sc
28 2451 2912 Sc
28 7869 2961 Sc
28 2202 2997 Sc
28 5282 2997 Sc
28 7921 2883 Sc
28 5915 2621 Sc
28 1443 2995 Sc
28 3884 2997 Sc
28 7650 2815 Sc
28 3967 2715 Sc
28 7804 2907 Sc
28 7830 2764 Sc
28 3207 2971 Sc
28 3304 2933 Sc
28 7678 2988 Sc
28 5411 2997 Sc
28 7793 2999 Sc
28 7882 2971 Sc
28 8026 2815 Sc
28 3506 2997 Sc
28 7937 2981 Sc
28 8390 2999 Sc
28 2199 2995 Sc
28 8114 2993 Sc
28 8056 2999 Sc
28 9214 2997 Sc
28 4967 2943 Sc
28 3555 2995 Sc
28 7867 2999 Sc
28 8061 2999 Sc
28 7821 2761 Sc
28 2727 2997 Sc
28 3901 2371 Sc
28 7957 2905 Sc
28 7346 1374 Sc
28 2137 2997 Sc
28 7780 2928 Sc
28 4581 2997 Sc
28 3437 2496 Sc
28 8102 2999 Sc
28 2015 2515 Sc
28 2151 2997 Sc
U
PSL_cliprestore
%%EndObject
