# Nsamples: 792  MAD:  0.438  mean:  0.026  std:  0.625
gfz2010abfc   0.61404
gfz2010aggj   0.06493
gfz2010aimm   0.01315
gfz2010amec  -0.30567
gfz2010aseg   0.16187
gfz2010asxa   0.15854
gfz2010azji  -0.08420
gfz2010bkfi   0.12290
gfz2010bklj  -0.68981
gfz2010bnqr   0.49328
gfz2010bqnk   0.33948
gfz2010brrm   1.28540
gfz2010btme   0.97101
gfz2010bukb   0.01464
gfz2010bvit   0.10059
gfz2010byau   0.23503
gfz2010cbnp   0.71252
gfz2010ccse  -0.89486
gfz2010ccwc  -0.62747
gfz2010ccye   0.43397
gfz2010clbw   0.25905
gfz2010cpig   0.52202
gfz2010crgy   0.32553
gfz2010crir  -0.13530
gfz2010csle   1.26070
gfz2010csmw   0.14691
gfz2010csqy   0.27544
gfz2010cthm  -0.03080
gfz2010cvkn   0.12672
gfz2010dask  -0.51841
gfz2010dmij  -0.12699
gfz2010dmkd  -0.35618
gfz2010drit   0.80400
gfz2010drml   0.20345
gfz2010drmq   0.20345
gfz2010dtyx   0.10955
gfz2010dumv   0.42022
gfz2010eibh  -0.24390
gfz2010elge   0.09630
gfz2010fgbo  -0.35429
gfz2010jgwj   0.26059
gfz2010jkrp  -0.01571
gfz2010jlvp   0.31731
gfz2010jpkn  -0.11023
gfz2010kcyz  -0.56264
gfz2010kwks  -0.27437
gfz2010ljmp   0.24827
gfz2010mdti  -0.07264
gfz2010mqzz   0.33978
gfz2010mzfb   2.62600
gfz2010ncwu   0.58967
gfz2010nlai   1.06950
gfz2010nteg  -0.84010
gfz2010oguu  -0.31152
gfz2010ogwn   0.50513
gfz2010okpc   0.84590
gfz2010okww  -0.22270
gfz2010osaq  -0.74053
gfz2010ouvm   0.84909
gfz2010ovvg   0.59084
gfz2010pcya   0.73027
gfz2010pgpo   0.01827
gfz2010prnw   0.51683
gfz2010pzza   0.37975
gfz2010qbcy   0.71211
gfz2010qdqk   1.35960
gfz2010qrix   0.05485
gfz2010qrta   0.04616
gfz2010qykh  -3.76530
gfz2010qzvf   0.74706
gfz2010rdip   0.49481
gfz2010rkuu  -0.34659
gfz2010rljv   0.00464
gfz2010rnqa  -1.79790
gfz2010rnwt   1.36030
gfz2010rpbz  -0.87920
gfz2010rpjd  -0.99996
gfz2010scht   0.64047
gfz2010sdfs   0.02449
gfz2010shvn  -0.05206
gfz2010tcgh  -0.07074
gfz2010tfar  -0.03717
gfz2010tmba   0.15915
gfz2010tpcj   0.28700
gfz2010tvit  -0.18388
gfz2010tzlz   0.61532
gfz2010tzma   0.12292
gfz2010ugws   0.46355
gfz2010uhjy   0.20839
gfz2010umxj  -0.48125
gfz2010umyp  -0.39237
gfz2010uogw  -0.42663
gfz2010upod  -1.11120
gfz2010uqba  -1.11080
gfz2010uraq  -0.11041
gfz2010uveo  -0.54073
gfz2010vhzx   0.03076
gfz2010vong  -0.07728
gfz2010vybx  -0.07154
gfz2010wakc   1.22420
gfz2010wigk  -1.40220
gfz2010wtin   2.23400
gfz2010wwhf   0.32802
gfz2010wwnq   0.35649
gfz2010wyuj  -0.40071
gfz2010xamh  -0.38668
gfz2010xaxw  -0.55986
gfz2010xhqq  -0.28639
gfz2010xnbn   0.52920
gfz2010xney   0.29006
gfz2010xpzq   0.08356
gfz2010xzte  -0.30474
gfz2010yfdr   0.13430
gfz2010yhdn  -0.32724
gfz2010yhhj  -0.06980
gfz2010yilf  -1.25960
gfz2010yrex   0.18091
gfz2010ytzb  -0.16248
gfz2010zhvj  -0.79761
gfz2010zjun  -0.36127
gfz2010zkle  -0.80484
gfz2011afyc   1.29400
gfz2011ahvh   0.06275
gfz2011aksu  -0.34245
gfz2011ameb   0.88664
gfz2011amst  -0.38013
gfz2011aqpp   0.40477
gfz2011awsv  -0.35286
gfz2011bazz  -0.42083
gfz2011bcvc   2.44870
gfz2011bffb  -0.21816
gfz2011biin   0.70802
gfz2011bpqm  -0.01277
gfz2011bsvr   1.58370
gfz2011bvog  -0.59808
gfz2011bwsm   1.19690
gfz2011bygs   0.09587
gfz2011bygu  -0.07937
gfz2011bzio  -0.13985
gfz2011cdge  -0.86949
gfz2011cfyy  -0.94419
gfz2011chsa  -0.49191
gfz2011cjcv   0.41765
gfz2011cjuz   1.12600
gfz2011cwsm  -0.54607
gfz2011cwzi  -0.89132
gfz2011cxdj  -0.33354
gfz2011dabj  -0.14724
gfz2011dhfg  -0.01995
gfz2011dhqk  -0.17449
gfz2011dpyu   0.18462
gfz2011drmu  -1.03950
gfz2011duvm  -1.04320
gfz2011dwae  -0.16312
gfz2011emzr   0.01028
gfz2011etkc   0.42859
gfz2011exxq  -0.70828
gfz2011fbsl  -0.89445
gfz2011ffdh  -0.51654
gfz2011fges   0.04144
gfz2011fnie   0.19636
gfz2011fnuk  -0.47343
gfz2011fszl  -0.03141
gfz2011fxmf   0.24872
gfz2011fyfu  -0.72347
gfz2011fzcw  -0.00000
gfz2011gaax  -0.50625
gfz2011gcct  -0.46936
gfz2011gdrl  -0.05445
gfz2011ggnl   0.99436
gfz2011glpg  -0.21563
gfz2011gnbk   0.00228
gfz2011gpyr  -0.28117
gfz2011hatg   0.43590
gfz2011hibi  -0.66700
gfz2011hjof  -0.36751
gfz2011hmnw  -0.65562
gfz2011hqjs   1.18260
gfz2011hrgt  -0.84176
gfz2011hvzo   0.82982
gfz2011hyct  -0.18765
gfz2011hyuh   1.15330
gfz2011iamf  -0.02610
gfz2011ibew  -0.55444
gfz2011ifta  -0.00655
gfz2011ioch  -0.53979
gfz2011iryz  -0.25697
gfz2011ituo  -0.04104
gfz2011ixpj   0.87669
gfz2011jphj   0.06406
gfz2011jpob  -0.01176
gfz2011jryv   0.26524
gfz2011jtij   0.25588
gfz2011kfch   0.19978
gfz2011kjzt  -0.27563
gfz2011kjzv   0.05343
gfz2011kmge  -0.28510
gfz2011ksxc  -0.83101
gfz2011kylu   0.57797
gfz2011kyzy   0.25169
gfz2011lkkf   0.84101
gfz2011lmug  -0.23342
gfz2011lrpv   0.10982
gfz2011mdyq   0.02332
gfz2011mjje   0.45570
gfz2011mllb  -0.21111
gfz2011mntq  -0.70442
gfz2011mror   0.24614
gfz2011ndhh   0.07609
gfz2011nejg   0.45433
gfz2011nejw  -0.92559
gfz2011nerb   0.96328
gfz2011nfcz   0.22518
gfz2011nftw   0.96201
gfz2011nhby  -0.80107
gfz2011nhhd  -0.31567
gfz2011nhvt   1.45040
gfz2011nhwf   0.45820
gfz2011nijp   1.08550
gfz2011nilw   0.00044
gfz2011niuw   1.26300
gfz2011nlmf   0.72184
gfz2011nlnl   0.17321
gfz2011nlum   0.22428
gfz2011nnda   0.31383
gfz2011nsiy  -0.88153
gfz2011nsrx  -0.50006
gfz2011nssr  -0.28725
gfz2011nsyi   1.02530
gfz2011nuqo   0.48820
gfz2011oadm   0.05907
gfz2011oazk   0.09496
gfz2011ocif   0.00000
gfz2011ofpj  -0.44978
gfz2011ohgj  -0.60733
gfz2011okza   0.37423
gfz2011omxt   0.24902
gfz2011oqjl   2.04850
gfz2011oslk   0.45827
gfz2011osmp  -0.02104
gfz2011osuy   0.06162
gfz2011owqa   0.39882
gfz2011paqj  -0.67353
gfz2011pbjh  -0.05729
gfz2011pdsn  -0.18746
gfz2011pfwq  -0.70927
gfz2011pgzk   0.01844
gfz2011pimj   0.61508
gfz2011pivq   0.95289
gfz2011pmuv  -0.12005
gfz2011pphc  -0.36551
gfz2011ppsc  -0.38293
gfz2011prrq  -0.54681
gfz2011ptgd   2.50180
gfz2011pulu  -0.30110
gfz2011pwbw  -0.45173
gfz2011pwld  -0.09485
gfz2011qenl  -0.21789
gfz2011qgea   0.00000
gfz2011qgvh  -0.03365
gfz2011qgvx  -0.61190
gfz2011qidi  -0.66000
gfz2011qklh  -2.08780
gfz2011qukj  -0.31325
gfz2011rczb  -0.32946
gfz2011rkau   0.99826
gfz2011rnny  -0.42366
gfz2011rqut   1.13330
gfz2011scma   0.46695
gfz2011sdax   0.36115
gfz2011sfmu  -0.29991
gfz2011sfph   0.09805
gfz2011sqco   0.84852
gfz2011sskq  -0.02762
gfz2011swfp  -1.07930
gfz2011sxno  -0.30975
gfz2011sylg   0.89077
gfz2011tgon  -0.35713
gfz2011tjpv  -0.18568
gfz2011tozo   0.02154
gfz2011tqgg   0.34912
gfz2011tsgl   1.22550
gfz2011tssv   0.15985
gfz2011tzcv   0.88810
gfz2011uowi   0.41699
gfz2011uqlz  -0.12240
gfz2011uqry  -0.09287
gfz2011urwz  -0.20892
gfz2011vahy   0.07681
gfz2011vaoi   0.48018
gfz2011varl  -0.07835
gfz2011vcyx  -0.14267
gfz2011vimn  -0.07773
gfz2011vsag   0.20876
gfz2011vtdl   0.24838
gfz2011vxek   0.53955
gfz2011wngi   0.05518
gfz2011wnjg  -0.83627
gfz2011wpzt   0.11134
gfz2011wqup   0.21798
gfz2011wucg  -0.21767
gfz2011wwze  -0.41052
gfz2011wzss   0.16366
gfz2011xagc   0.25023
gfz2011xgbc  -0.57522
gfz2011xgwy  -0.33416
gfz2011xlod   1.41950
gfz2011xnui  -0.05488
gfz2011xpcq   0.16860
gfz2011xxng   0.24738
gfz2011yjtx   0.16640
gfz2011ymji  -0.24075
gfz2011ypfh  -0.82475
gfz2011ywtj  -0.92644
gfz2011zcwn   0.56639
gfz2011zghc   0.24781
gfz2011zgxn   0.69150
gfz2011ziyk  -0.05109
gfz2011zkbt   0.20736
gfz2012adja  -0.18062
gfz2012ahac  -0.12357
gfz2012alti   0.20678
gfz2012amjx   0.49023
gfz2012amvs  -0.07539
gfz2012aqpa   1.04280
gfz2012avvc  -0.94964
gfz2012axrp  -0.41151
gfz2012beae  -0.47261
gfz2012bity  -0.08879
gfz2012bjhl  -0.08765
gfz2012bolx  -0.68737
gfz2012bovy   0.20070
gfz2012bqcf   0.17393
gfz2012byrq  -1.01370
gfz2012bysu  -0.45852
gfz2012bytv   0.13051
gfz2012byuk   0.48920
gfz2012cdju   0.04712
gfz2012cksh  -0.45025
gfz2012cmww   0.00759
gfz2012cntu   0.10949
gfz2012crpb  -0.73127
gfz2012cvfr  -0.00894
gfz2012cwhl  -0.12146
gfz2012cxhw  -0.51919
gfz2012dcjd   0.15572
gfz2012dejg  -0.69848
gfz2012dgfk   0.99790
gfz2012dleg  -1.81710
gfz2012dnig  -0.09909
gfz2012dpnu  -0.41922
gfz2012dpwv  -0.48876
gfz2012drqd  -0.95641
gfz2012dttl  -0.22264
gfz2012dtvr   0.08467
gfz2012dwwu  -0.23406
gfz2012dyck   0.19151
gfz2012dysu  -1.21010
gfz2012dzen  -0.18979
gfz2012dzjo  -0.69106
gfz2012dzoh  -0.63477
gfz2012dzot  -0.13712
gfz2012eajr  -1.46630
gfz2012ebgo  -1.99820
gfz2012ebrr  -0.39414
gfz2012eeft   0.37189
gfz2012ekfp  -1.08000
gfz2012elek  -0.40657
gfz2012enrg   0.57329
gfz2012erds   0.29893
gfz2012evxn  -0.25234
gfz2012eyti   1.35850
gfz2012fbgz   0.06586
gfz2012fcyq  -0.35440
gfz2012fcyr  -0.32095
gfz2012fhaf  -0.28503
gfz2012foih  -0.09309
gfz2012gczh  -0.47281
gfz2012gdye  -0.03033
gfz2012ghiv  -0.08850
gfz2012gjdg   0.27432
gfz2012gmsr  -0.59397
gfz2012gnow   0.12296
gfz2012gpcd   0.35851
gfz2012heih   0.17067
gfz2012hhlx  -0.25072
gfz2012hkxs  -0.31721
gfz2012hmcv  -0.26060
gfz2012hvtu   2.72750
gfz2012hwph   0.10290
gfz2012hzhn   0.39740
gfz2012hzur   0.70873
gfz2012iijk   0.03146
gfz2012imsm  -1.16410
gfz2012ipdc   0.56895
gfz2012iroy   0.04974
gfz2012ivyg  -0.16620
gfz2012izke  -0.35259
gfz2012jbzr   0.34561
gfz2012jlez  -0.74894
gfz2012jnlt   0.36751
gfz2012jxnm   0.45149
gfz2012kadi   0.33759
gfz2012kbub  -0.40856
gfz2012kmbo   0.17590
gfz2012kmmz  -0.55418
gfz2012kstg  -0.37231
gfz2012lcro   0.89769
gfz2012ldjj   0.14198
gfz2012lqhw   0.01724
gfz2012lwha  -0.88796
gfz2012lyyr  -0.27225
gfz2012mcrb   0.26814
gfz2012mdzf  -0.22522
gfz2012mjuu   0.03956
gfz2012mmiw   0.20208
gfz2012mrqk   0.27630
gfz2012mrwu   0.09427
gfz2012mwhe  -0.27083
gfz2012mzqx   0.16728
gfz2012ndwt  -0.13593
gfz2012nfos   0.46012
gfz2012nldz   0.30235
gfz2012nlrb   0.46232
gfz2012nmja  -0.16627
gfz2012nnqu  -0.64034
gfz2012nqvd   0.02291
gfz2012oafg  -0.04945
gfz2012oehy  -0.28571
gfz2012ofnx   2.09150
gfz2012oieq  -0.06938
gfz2012oork  -0.05945
gfz2012oozp   0.04013
gfz2012oyja   0.25702
gfz2012pcui   1.31500
gfz2012pdav   0.55635
gfz2012pgmw  -0.16794
gfz2012phns  -0.03806
gfz2012pira   0.50676
gfz2012ppcq  -0.14574
gfz2012pryl  -0.00000
gfz2012pumy  -0.67708
gfz2012qfah   0.32696
gfz2012qfov   0.31377
gfz2012qllj   0.09001
gfz2012qmhz  -0.37023
gfz2012rknz  -0.29997
gfz2012roan   0.49857
gfz2012rzwp   1.63780
gfz2012sfao   0.26651
gfz2012sgfd   0.21623
gfz2012sjox  -0.49630
gfz2012smyn   0.08464
gfz2012socz  -0.39569
gfz2012sopp  -0.28337
gfz2012sqsc  -0.94237
gfz2012suqd  -0.69690
gfz2012svwz   0.50854
gfz2012swbz   0.12273
gfz2012sxbo  -0.41204
gfz2012thyh  -0.06862
gfz2012tisj  -0.13316
gfz2012touh   0.20000
gfz2012tqjc   0.27764
gfz2012trfq  -0.16872
gfz2012trss   0.21517
gfz2012ttnf  -0.12171
gfz2012tvgw  -0.64919
gfz2012twec   0.19440
gfz2012uhtc   0.59753
gfz2012ulei   1.61180
gfz2012unxc  -0.21177
gfz2012uovh   0.15476
gfz2012uvea   0.20963
gfz2012uvoa  -0.04706
gfz2012uzuu   0.76767
gfz2012uzww   0.00545
gfz2012vcqw  -0.36214
gfz2012vdsl  -0.05016
gfz2012vgot   0.13343
gfz2012vitw   0.24214
gfz2012vkjw   0.12185
gfz2012vlzv  -0.23533
gfz2012vqjw  -0.07402
gfz2012vqmq   1.15720
gfz2012vurc   0.69610
gfz2012wdxk  -0.01127
gfz2012wgdv  -0.36103
gfz2012wgmg  -0.23910
gfz2012wiyv  -1.36550
gfz2012wjsi   0.49297
gfz2012wkki   0.20670
gfz2012wowu  -0.60479
gfz2012woxj  -0.10540
gfz2012wpen   0.29996
gfz2012wqfz  -0.19555
gfz2012wugc  -0.11700
gfz2012wysg   0.23851
gfz2012wzja  -1.07010
gfz2012xask   0.12578
gfz2012xbna  -0.27817
gfz2012xfnu  -0.08038
gfz2012xfsl   0.13939
gfz2012xkln  -0.02752
gfz2012xkvu  -0.10197
gfz2012xlas  -0.23453
gfz2012xlfo   0.30855
gfz2012xncm  -0.21571
gfz2012xrmq   0.03367
gfz2012xtvu   0.74613
gfz2012xxdj  -0.11647
gfz2012yegw   0.18180
gfz2012yihn   2.49610
gfz2012ylai   0.12512
gfz2012yncm   1.27980
gfz2012zhyz  -0.70981
gfz2012zido   0.27677
gfz2012zkhu   0.56051
gfz2012zqis  -0.51017
gfz2013adih   2.15480
gfz2013afzh   0.55705
gfz2013aggr   1.22470
gfz2013agmt   0.02030
gfz2013akkd   0.39118
gfz2013ascz   1.93040
gfz2013atak  -0.16475
gfz2013aymi  -0.61130
gfz2013bwgw  -0.09645
gfz2013byyy   0.23778
gfz2013cfls  -0.08189
gfz2013cinv  -0.71093
gfz2013ciof  -0.02166
gfz2013cvve   0.72870
gfz2013cyvx  -0.14829
gfz2013delq  -1.12080
gfz2013dftb   0.15670
gfz2013dfvx   0.14392
gfz2013dmzh  -0.09083
gfz2013dngd   1.62670
gfz2013dnot  -0.39834
gfz2013dzvr  -0.38470
gfz2013eavq   0.47994
gfz2013efct   0.43335
gfz2013egfv   1.37600
gfz2013eidd   0.14240
gfz2013ektd   0.40163
gfz2013enga  -0.40598
gfz2013enqo   0.27815
gfz2013esef  -0.92479
gfz2013evcl   0.33131
gfz2013ffjt   0.02216
gfz2013fmcd   0.82814
gfz2013fmcp   0.52709
gfz2013fnpa   0.00312
gfz2013frxd   0.77043
gfz2013fulo  -0.42476
gfz2013fvht  -0.25770
gfz2013fvyr   0.01161
gfz2013fxyr  -0.43190
gfz2013fybd  -0.01386
gfz2013gbma   0.42438
gfz2013gkyn   0.57281
gfz2013glpz  -0.60679
gfz2013gomv   0.22675
gfz2013gugi  -0.40023
gfz2013gurk  -0.05499
gfz2013gxye   0.03900
gfz2013gyce  -0.24073
gfz2013gywl   1.03050
gfz2013hbmi  -0.37733
gfz2013hbtm  -0.07951
gfz2013hbwy   1.90180
gfz2013hduf  -0.28680
gfz2013hqaa   0.09386
gfz2013hvzv  -0.53880
gfz2013icgx  -0.09189
gfz2013icql  -0.20342
gfz2013ivvw  -0.35364
gfz2013iwzn   0.03308
gfz2013jfcn   0.49891
gfz2013jhog  -0.07587
gfz2013jobl  -0.03505
gfz2013jrqf   0.13428
gfz2013jzcf  -0.10241
gfz2013kats  -0.36676
gfz2013kbbn  -0.27951
gfz2013kcdb   0.22041
gfz2013kdfy  -0.22428
gfz2013kpes  -0.29963
gfz2013kqab  -0.25652
gfz2013kruh  -0.36797
gfz2013ksaz   0.12189
gfz2013kslp   0.24732
gfz2013kxlr  -0.16115
gfz2013lbvl   0.12556
gfz2013lgvf   0.01721
gfz2013ljdu   0.38502
gfz2013lvxe   0.54465
gfz2013lxed   0.14967
gfz2013mdxj   0.04701
gfz2013mimp  -0.10519
gfz2013mktp  -0.26987
gfz2013msmy  -1.11880
gfz2013muqm   0.38303
gfz2013mvgq  -0.29597
gfz2013mynb  -0.00242
gfz2013mzaw  -0.02220
gfz2013njwj   0.27236
gfz2013nkgd   0.33068
gfz2013nkgt   0.29639
gfz2013noqf  -0.17777
gfz2013ntfc   0.42830
gfz2013ntiu  -0.47523
gfz2013oeni  -0.29391
gfz2013ohdt  -0.02680
gfz2013ohnj   0.20005
gfz2013oizq  -0.91842
gfz2013okac   0.34815
gfz2013olos   0.48757
gfz2013onvl  -0.06077
gfz2013oruq   0.03683
gfz2013otuj  -0.28310
gfz2013oywh  -0.05468
gfz2013phhi  -0.17444
gfz2013pkmz   0.62958
gfz2013pqkp   1.89830
gfz2013qdks   1.21110
gfz2013qdno   0.69241
gfz2013qdpv   0.24796
gfz2013qigb   0.01823
gfz2013qoak   0.31975
gfz2013qogb  -0.81685
gfz2013quwz   0.19810
gfz2013qxof  -0.05248
gfz2013rdmn   0.08244
gfz2013rfik  -0.63709
gfz2013rhbx   0.03086
gfz2013rhxf  -0.02211
gfz2013rnsa   0.03493
gfz2013rocs   0.06233
gfz2013rtvy  -0.24461
gfz2013rwkj  -0.07930
gfz2013ryfc  -0.35133
gfz2013ryph  -0.13786
gfz2013sbsp   0.42435
gfz2013skvq  -0.08594
gfz2013stou  -0.01425
gfz2013stup  -0.14499
gfz2013swnj  -0.36433
gfz2013taeb   0.13244
gfz2013tcju  -0.14336
gfz2013tdsx  -0.30362
gfz2013timw   0.49168
gfz2013tjub  -0.46911
gfz2013tmyj   0.03415
gfz2013tnrp  -0.31552
gfz2013trsq   0.77779
gfz2013uafv   0.81813
gfz2013ubgt  -0.88614
gfz2013udtw   0.16736
gfz2013uepl   0.50339
gfz2013unuv   0.31640
gfz2013upqj   0.06113
gfz2013utqa   0.42731
gfz2013uugc   0.23225
gfz2013uwjo  -0.38562
gfz2013uxzw   1.92880
gfz2013uzmf   0.17055
gfz2013vcgd  -0.36315
gfz2013vdam   0.28831
gfz2013veug   2.33500
gfz2013vfix  -0.00000
gfz2013vjrr  -0.28385
gfz2013vldx  -0.12162
gfz2013vmrv  -0.09977
gfz2013vmsg  -0.30044
gfz2013vnwa   0.06995
gfz2013voai  -0.05549
gfz2013vojy  -0.24620
gfz2013vvre  -0.31460
gfz2013vwkh   0.04590
gfz2013vxht   0.18386
gfz2013vzel   0.79701
gfz2013wgwz  -0.04217
gfz2013wpns   0.18958
gfz2013wwee   0.22206
gfz2013wyfl  -0.06124
gfz2013xahp  -0.07643
gfz2013xbdc  -0.62039
gfz2013xjmo  -0.19822
gfz2013xlic  -1.00310
gfz2013xmzw  -0.21427
gfz2013xodn   0.12957
gfz2013xofz  -0.32975
gfz2013xswc   0.18375
gfz2013xupg   0.16386
gfz2013xvps  -0.14687
gfz2013xycz   0.07962
gfz2013yodm   0.10402
gfz2013yqkz   0.56571
gfz2013yqtu   0.16940
gfz2013ytfm  -1.32740
gfz2013yvnj  -0.17684
gfz2013yxhf  -0.04129
gfz2013zedt  -0.05876
gfz2013zeye  -0.21511
gfz2013zfbz  -0.45849
gfz2013ziix   0.51204
gfz2013zpwk  -0.25303
gfz2014aapq  -0.52524
gfz2014aedl  -0.66314
gfz2014amgk  -0.24621
gfz2014aqop  -0.46271
gfz2014ateb   0.70809
gfz2014avmd  -0.53628
gfz2014avzp   0.33691
gfz2014ayxf  -0.34959
gfz2014azfu   0.21617
gfz2014bdju  -0.07272
gfz2014befl  -0.15996
gfz2014bfjb  -0.32614
gfz2014bgyv  -0.53501
gfz2014bkra  -1.10580
gfz2014bmch  -0.12200
gfz2014bmqw   1.20880
gfz2014bnea   0.41036
gfz2014bppg   0.20727
gfz2014bqpm  -0.84685
gfz2014cvnb  -0.42022
gfz2014cwti  -0.76003
gfz2014etgp  -0.05562
gfz2014etqu  -0.01182
gfz2014eunw  -0.01123
gfz2014evgu   0.08867
gfz2014evhm   0.29498
gfz2014fbli   0.06186
gfz2014fbnr  -0.40674
gfz2014fjfz  -0.12184
gfz2014flxk  -0.03195
gfz2014fmdc  -0.52505
gfz2014fsir  -0.24555
gfz2014fsje   0.12603
gfz2014fskh   0.12905
gfz2014fsvc   0.80583
gfz2014fvza   0.25478
gfz2014fwxt   0.95068
gfz2014fxte   0.36144
gfz2014fxtv  -0.06166
gfz2014fxuy  -0.16003
gfz2014gasb   0.42587
gfz2014gbxg   1.01880
gfz2014gcia  -0.00000
gfz2014gdbh   0.45188
gfz2014geln   0.05357
gfz2014gjfd   0.29742
gfz2014gnbw  -0.05933
gfz2014gpnr  -0.78519
gfz2014grwv  -0.24287
gfz2014gsfc  -0.97473
gfz2014gtee  -0.13633
gfz2014gtoj  -0.06716
gfz2014gypw   0.14992
gfz2014herz   0.15557
gfz2014hgjb   0.53462
gfz2014hhey   0.03420
gfz2014hhis  -0.57233
gfz2014hjmc   0.04664
gfz2014hkcw  -0.25411
gfz2014hotu  -0.43932
gfz2014hqhv  -0.67216
gfz2014huqh  -0.33909
gfz2014hyea   0.05678
gfz2014hzzf   0.40275
gfz2014icov  -0.23627
gfz2014igrp   0.09847
gfz2014ijsa  -2.52790
gfz2014iltl  -0.19357
gfz2014ined   0.80231
gfz2014ipfu  -1.77040
gfz2014irlf   0.29607
gfz2014irln   0.80461
gfz2014irly   0.61639
gfz2014isjg  -0.06950
gfz2014itlx   0.38160
gfz2014iusw   0.08743
gfz2014ivgm   0.02280
gfz2014ixlc   0.42375
gfz2014jarg  -0.50800
gfz2014jayh  -0.02755
gfz2014jbfp   0.05316
gfz2014jckg  -0.87919
gfz2014jfmc  -0.73575
