# Nsamples: 967  MAD:  0.450  mean:  0.009  std:  0.738
gfz2010abfc  -0.03540
gfz2010abvu  -0.34909
gfz2010afyi   0.85030
gfz2010aggj   0.37252
gfz2010aimm  -0.07970
gfz2010aldp   0.03104
gfz2010aseg   0.52058
gfz2010asxa  -0.68991
gfz2010azji   0.10567
gfz2010bkfi   0.09623
gfz2010bklj  -0.24228
gfz2010bnqr  -0.02192
gfz2010bqnk   0.51111
gfz2010brlc  -0.37446
gfz2010brrm   1.45680
gfz2010btme  -1.40080
gfz2010bukb  -0.36318
gfz2010bvit  -0.13711
gfz2010byau   0.43801
gfz2010bytu   0.00759
gfz2010ccse   1.08520
gfz2010ccwc   0.28305
gfz2010ccye   0.51111
gfz2010clbw   0.66229
gfz2010cllh   1.52310
gfz2010cphq   0.22430
gfz2010crgy   0.42937
gfz2010crir   0.06600
gfz2010csqy  -0.63760
gfz2010cthm  -0.13732
gfz2010cuzg   2.33600
gfz2010cvam   0.29693
gfz2010cvkn   0.71200
gfz2010dask  -0.34175
gfz2010djib   0.99700
gfz2010dmkd   1.05360
gfz2010drit   0.48716
gfz2010drml  -0.55643
gfz2010drmq  -0.55643
gfz2010drun  -0.00877
gfz2010dwgy   0.04568
gfz2010dxhq  -0.21481
gfz2010eibh  -0.50243
gfz2010ekvl   0.24614
gfz2010ewyj   0.84027
gfz2010fgbo  -0.60534
gfz2010fjio  -0.13697
gfz2010fjme  -0.23386
gfz2010fkff  -0.17784
gfz2010fnkr  -0.00000
gfz2010ftfq  -0.33261
gfz2010fxhh  -0.19213
gfz2010fxut  -0.65040
gfz2010gcqp  -0.36594
gfz2010gcrn   1.98110
gfz2010gonu  -0.13157
gfz2010gooc  -0.36438
gfz2010guwa   0.88629
gfz2010habf   0.47570
gfz2010hesh   0.24486
gfz2010hllp   0.52145
gfz2010hnuo   1.04020
gfz2010hsgv   0.20420
gfz2010hueh  -0.71889
gfz2010huzl  -0.29942
gfz2010hxan  -0.00165
gfz2010iaay   1.68150
gfz2010iawy   1.19570
gfz2010ifhd   0.61242
gfz2010ifru  -0.12582
gfz2010inbs  -0.02759
gfz2010inkz  -0.08544
gfz2010ioad   0.13908
gfz2010ixjl  -0.05977
gfz2010izag  -0.37112
gfz2010jcby  -0.11997
gfz2010jdhk  -0.25701
gfz2010jgwj  -0.00171
gfz2010jlvp   0.66303
gfz2010jpkn  -0.48192
gfz2010kcyz  -0.18710
gfz2010ljmp  -0.07514
gfz2010ljzf  -0.38122
gfz2010mdti   0.09849
gfz2010mnoc  -0.17025
gfz2010mpvc  -0.94773
gfz2010mqzz  -0.32778
gfz2010ncwu   1.12210
gfz2010ngge   0.23010
gfz2010nlai   0.47591
gfz2010nwbd   0.25421
gfz2010nwyk   0.38496
gfz2010ocug  -1.09020
gfz2010oguu   0.06391
gfz2010ogwn  -0.06976
gfz2010oibn   0.65203
gfz2010ojhe   0.14575
gfz2010okpc  -4.04850
gfz2010okww  -0.35716
gfz2010ouvm  -0.48391
gfz2010ovvg   0.15026
gfz2010pclq  -0.66403
gfz2010pcya   0.98044
gfz2010pgpo  -0.10492
gfz2010prnw   0.34522
gfz2010pzza   0.50694
gfz2010qbcy   0.79911
gfz2010qdqk  -0.58934
gfz2010qrta  -0.37859
gfz2010qykh   0.30964
gfz2010qzvf  -0.16417
gfz2010rdip   0.10980
gfz2010rkuu  -0.60235
gfz2010rljv  -0.16699
gfz2010rnqa   3.41020
gfz2010rnwt  -1.00560
gfz2010rpbz   0.20203
gfz2010rpjd  -0.51065
gfz2010schp  -0.15641
gfz2010scht   0.16333
gfz2010sdfs   0.10942
gfz2010shvn  -0.24761
gfz2010swqy   0.04151
gfz2010tcgh   1.19710
gfz2010tmba  -0.16159
gfz2010tpcj  -0.48096
gfz2010tzki   1.40070
gfz2010tzlz   0.66843
gfz2010tzma   0.54125
gfz2010ugws   0.35926
gfz2010uhjy   0.27535
gfz2010ujqn   0.06122
gfz2010umxj  -0.18244
gfz2010umyp  -0.48951
gfz2010uogw  -0.41816
gfz2010upod   0.09712
gfz2010uraq  -0.82471
gfz2010uveo  -0.21465
gfz2010uyng  -0.07171
gfz2010vhzx  -0.23618
gfz2010vong  -0.01819
gfz2010vxwv  -0.44295
gfz2010vybx   0.26215
gfz2010wakc  -1.29830
gfz2010wwhf   0.16742
gfz2010wwnq  -0.04983
gfz2010wyuj   4.34890
gfz2010xamh   0.19213
gfz2010xaxw  -0.56382
gfz2010xcdd   2.22690
gfz2010xhqq  -0.25895
gfz2010xnbn   0.51098
gfz2010xpzq   0.17703
gfz2010xvev   0.50719
gfz2010yfdr  -0.37932
gfz2010yhhj   0.41560
gfz2010yilf   0.17930
gfz2010ymih   0.81074
gfz2010yrex  -0.09681
gfz2010yspe  -0.37414
gfz2010ytzb  -0.06382
gfz2010zaxv  -0.08883
gfz2010zhvj   1.45240
gfz2010zjun  -0.31285
gfz2010zkle  -0.51879
gfz2011afyc  -1.32690
gfz2011ahvh  -0.14495
gfz2011aksu  -0.18874
gfz2011ameb   0.17451
gfz2011amst   0.33878
gfz2011aqpp  -0.02983
gfz2011awsv  -0.29122
gfz2011bazz  -0.79750
gfz2011bcvc   0.74262
gfz2011bffb  -0.61932
gfz2011bpqm  -0.03594
gfz2011bqbx  -1.24710
gfz2011bsvr   0.76135
gfz2011bvog   0.02236
gfz2011bwsm  -1.23570
gfz2011bygs  -0.18527
gfz2011bygu   0.06630
gfz2011bzio  -0.07131
gfz2011cdge  -1.01120
gfz2011cfyy   0.31427
gfz2011chsa  -0.58256
gfz2011cjcv   0.23340
gfz2011cjuz   1.15620
gfz2011cwsm   0.04180
gfz2011cxdj  -0.23009
gfz2011dabj   0.52211
gfz2011dbzc   0.09194
gfz2011dhfg   0.08614
gfz2011dhqk   0.12482
gfz2011dmdv  -0.49641
gfz2011dpyu   0.05359
gfz2011drmu  -0.69988
gfz2011duvm  -1.44200
gfz2011dwae  -0.24508
gfz2011dzmf   1.38020
gfz2011edrq  -0.14316
gfz2011emzr  -0.63766
gfz2011etkc   0.72568
gfz2011exxq   1.35680
gfz2011fbsl  -0.62846
gfz2011ffdh   0.97575
gfz2011fges   0.32449
gfz2011fnie   0.56891
gfz2011fnuk   0.25073
gfz2011fszl   0.04737
gfz2011fxmf   0.30207
gfz2011fyfu  -0.43773
gfz2011fzcw   2.22340
gfz2011gaax  -0.11392
gfz2011gdli  -0.04883
gfz2011gdrl  -0.20571
gfz2011ggnl   1.30340
gfz2011glpg   0.42589
gfz2011gnbk  -0.17598
gfz2011gpyr  -0.19747
gfz2011haaa   3.80720
gfz2011hatg  -0.06653
gfz2011hibi  -0.28085
gfz2011hjof   0.04751
gfz2011hmnw   0.05300
gfz2011hqjs   1.15110
gfz2011hrgt  -0.79108
gfz2011hyct  -0.48598
gfz2011hyuh   2.69800
gfz2011iamf  -0.36511
gfz2011ifta   0.27364
gfz2011ioch   0.26865
gfz2011iryz   0.11553
gfz2011ixpj  -0.01418
gfz2011jdoz   0.29104
gfz2011jphj  -0.79508
gfz2011jpob   0.06897
gfz2011jryv  -0.09389
gfz2011kjzt  -0.32849
gfz2011kjzv   0.08601
gfz2011kmge  -0.31201
gfz2011kujo  -0.40014
gfz2011kylu  -3.37370
gfz2011kymm  -0.22168
gfz2011kyzy   0.17842
gfz2011lbnn  -0.09718
gfz2011lkkf   0.20533
gfz2011lmug   0.25828
gfz2011lrpv   0.15177
gfz2011lwmg  -0.27410
gfz2011lxga   0.69346
gfz2011lykm  -0.11349
gfz2011mdyq  -0.19220
gfz2011mjje   0.32846
gfz2011mllb  -1.82240
gfz2011mror  -1.52260
gfz2011nblt   0.86905
gfz2011ndhh  -0.29784
gfz2011nejg  -0.74402
gfz2011nejw   0.57280
gfz2011nerb  -0.29256
gfz2011nfcz   0.19732
gfz2011nftw   0.78131
gfz2011nhby   0.02759
gfz2011nhhd  -0.55650
gfz2011nijp   1.14490
gfz2011nilw  -1.10220
gfz2011nisj   0.54292
gfz2011niuw  -1.16190
gfz2011nlmf  -0.17311
gfz2011nnda   1.28080
gfz2011npaf  -0.16706
gfz2011nsej  -0.31977
gfz2011nsrx   0.51131
gfz2011nuqo   0.05906
gfz2011oadm  -0.00278
gfz2011ofpj  -0.04695
gfz2011okza   0.06481
gfz2011oqjl  -0.87822
gfz2011oslk   0.62416
gfz2011osmp  -0.27316
gfz2011osuy  -0.78391
gfz2011owqa  -0.54800
gfz2011paqj   0.49877
gfz2011pbgh   3.99590
gfz2011pbjh   0.66459
gfz2011pcqr  -0.89557
gfz2011pdgq  -0.34481
gfz2011pdsn   0.10790
gfz2011pfls   0.61424
gfz2011pfwq   1.12750
gfz2011pgzk  -0.02079
gfz2011pivq  -2.90030
gfz2011pmuv   0.55766
gfz2011poug   0.53204
gfz2011ppsc   0.30335
gfz2011pwbw  -0.27537
gfz2011pwld  -0.17325
gfz2011qasw   0.31289
gfz2011qenl  -0.32558
gfz2011qhjw   0.67253
gfz2011qidi   0.33050
gfz2011qklh   0.96260
gfz2011qlkj  -0.37460
gfz2011qowe   0.03632
gfz2011qukj  -0.36867
gfz2011rczb  -0.12982
gfz2011rkau   1.04510
gfz2011rnsp   0.30369
gfz2011rqut   0.92994
gfz2011scma  -0.46752
gfz2011sdax   0.04877
gfz2011sfmu  -0.66937
gfz2011sfph   0.39354
gfz2011sqco   0.23667
gfz2011sskq  -0.85765
gfz2011swfp   1.12560
gfz2011sxno  -0.25448
gfz2011sylg   0.94946
gfz2011syvj   0.24818
gfz2011syzr   0.68946
gfz2011szau   0.47541
gfz2011szbb  -3.56250
gfz2011szcj   0.48706
gfz2011taqr   0.27823
gfz2011tarj  -0.51731
gfz2011tdjj   1.61970
gfz2011tjpv  -0.24140
gfz2011tlwl  -0.08189
gfz2011tqgg   0.51747
gfz2011tsgl   0.84755
gfz2011tssv  -0.17594
gfz2011tvuv   0.51508
gfz2011ugbt  -0.58276
gfz2011uowi  -0.04581
gfz2011uqlz  -0.00060
gfz2011uqry   0.14719
gfz2011urwz   0.44172
gfz2011vahy   0.13574
gfz2011vaoi   1.23210
gfz2011vcyx   0.40594
gfz2011vemg  -0.07687
gfz2011vimn   0.20339
gfz2011vsag  -0.36088
gfz2011vswj   0.55594
gfz2011vxek   0.14983
gfz2011wbtc   0.12223
gfz2011wcvs  -1.08930
gfz2011wkyx   2.21350
gfz2011wngi  -0.07940
gfz2011wnjg  -0.56744
gfz2011wpzt   0.03935
gfz2011wqup   0.22242
gfz2011wucg  -0.89325
gfz2011wwze  -0.19436
gfz2011wzss   0.06606
gfz2011xagc   0.21595
gfz2011xgbc  -0.81348
gfz2011xgwy   0.41132
gfz2011xkka   0.54425
gfz2011xlod  -0.60604
gfz2011xnui   0.03860
gfz2011xpcq   0.03557
gfz2011xxng   0.84425
gfz2011yexx   0.00000
gfz2011yjtx  -0.30233
gfz2011ykbd   1.32100
gfz2011ypfh  -0.03855
gfz2011ytob  -0.15110
gfz2011ywtj   1.06420
gfz2011zcwn   0.15110
gfz2011zghc  -0.08122
gfz2011zgxn  -0.38504
gfz2011ziyk  -0.01980
gfz2011zkbt   0.15404
gfz2012adja   0.09855
gfz2012ahac  -0.08754
gfz2012alti   0.90538
gfz2012amjx   0.09665
gfz2012amvs  -0.16380
gfz2012aqpa   0.23714
gfz2012asld  -0.09670
gfz2012auqr   0.17732
gfz2012avvc  -1.27370
gfz2012axrp   0.35634
gfz2012bcvn   0.65176
gfz2012beae  -0.73273
gfz2012bity  -0.54494
gfz2012bjhl   0.01254
gfz2012bovy   0.43883
gfz2012bqcf   0.18833
gfz2012byrq  -0.11879
gfz2012bysu   0.29559
gfz2012bytv  -0.29957
gfz2012byuk  -0.08048
gfz2012cdju   0.28507
gfz2012cksh   0.02630
gfz2012cmww   0.17938
gfz2012cntu   0.05152
gfz2012crpb   1.12320
gfz2012cvfr  -0.14641
gfz2012cxhw   1.65410
gfz2012dbgt   1.04640
gfz2012dcjd   0.19865
gfz2012dejg  -0.30009
gfz2012dleg  -0.78213
gfz2012dnig  -0.34368
gfz2012dpnu  -0.24868
gfz2012dpwv   0.01908
gfz2012drak  -0.09050
gfz2012drld   0.36050
gfz2012drqd  -0.69252
gfz2012dtdt   0.27459
gfz2012dtlu  -0.32631
gfz2012dttl  -0.08579
gfz2012dtvr   0.41192
gfz2012dugf  -0.66170
gfz2012duvf   4.51550
gfz2012dwwu  -0.25408
gfz2012dyck  -0.04108
gfz2012dzjo   1.92290
gfz2012dzot  -0.20595
gfz2012ebrr   0.89083
gfz2012eeft   0.77957
gfz2012ekfp  -0.13009
gfz2012ekro   0.03258
gfz2012elek  -0.27970
gfz2012enio   0.46864
gfz2012enrg   0.02958
gfz2012erds   0.06916
gfz2012evxn  -0.36684
gfz2012eyti   0.31422
gfz2012facv   0.36726
gfz2012fbgz   0.07890
gfz2012fcyq  -0.39345
gfz2012fcyr  -0.35224
gfz2012fhaf  -0.26811
gfz2012fiiz  -0.10460
gfz2012flqf  -0.60706
gfz2012foih  -1.14750
gfz2012fuyd   0.13411
gfz2012fyny  -0.34172
gfz2012fyop  -0.22167
gfz2012gbrs  -0.47467
gfz2012gdye  -0.32187
gfz2012gftg   0.70185
gfz2012ghiv  -0.03155
gfz2012gjdg  -0.22791
gfz2012gjtd  -0.10150
gfz2012gmsr  -0.88321
gfz2012gnow  -0.05632
gfz2012gpcd   0.43067
gfz2012heih  -0.14803
gfz2012hhlx  -0.22129
gfz2012hkxs  -0.18866
gfz2012hmcv  -0.35502
gfz2012hvfw   0.46775
gfz2012hvtu  -0.45965
gfz2012hwph  -0.30646
gfz2012hyba  -0.67796
gfz2012hzur  -1.16250
gfz2012iijk   0.15552
gfz2012imsm  -0.53156
gfz2012ipdc   0.71939
gfz2012iroy  -0.42332
gfz2012iyoi  -0.30162
gfz2012izke  -0.23393
gfz2012jawj  -0.22805
gfz2012jbzr   0.89087
gfz2012jetp   0.34771
gfz2012jlez  -0.88592
gfz2012jqxx  -0.45526
gfz2012jxnm   0.44848
gfz2012kadi  -0.61080
gfz2012kbub   0.57053
gfz2012kmbo  -0.05794
gfz2012kmmz  -0.47232
gfz2012kstg  -0.27930
gfz2012kwmx  -0.04564
gfz2012ldjj  -0.40159
gfz2012lqhw  -0.22402
gfz2012luzm  -0.06747
gfz2012lvlr   0.42636
gfz2012lwha  -0.35323
gfz2012lyyr   0.18669
gfz2012mdzf  -0.34146
gfz2012mjuu   0.15643
gfz2012mmiw   0.77120
gfz2012mout  -1.30450
gfz2012movv  -0.99596
gfz2012mowv   0.24036
gfz2012mrqk  -0.79196
gfz2012mrwu  -0.07232
gfz2012mtyn  -0.43810
gfz2012mwhe  -0.61049
gfz2012mxdk   0.70594
gfz2012mzqx  -0.64052
gfz2012ndwt  -0.13301
gfz2012nfos  -0.01544
gfz2012nldz   0.60823
gfz2012nlrb  -0.01879
gfz2012nqvd  -0.35455
gfz2012nsxc  -0.28903
gfz2012oafg  -0.21438
gfz2012oehy   0.00896
gfz2012ohgd  -0.04556
gfz2012oork  -0.40690
gfz2012oozp  -1.05630
gfz2012pcui  -0.49853
gfz2012pdav   0.40449
gfz2012pdfi   0.22375
gfz2012pdjt  -1.87100
gfz2012pekf   0.17928
gfz2012pgmw   0.16202
gfz2012phns  -0.24822
gfz2012pira  -0.33333
gfz2012pmuj   0.48199
gfz2012pokk  -0.29771
gfz2012ppcq  -0.04835
gfz2012prke  -0.00000
gfz2012pryl   0.28614
gfz2012pvve  -0.12101
gfz2012qfah   0.31169
gfz2012qfov   0.50010
gfz2012qhqp  -1.75820
gfz2012qibe  -0.60107
gfz2012qllj  -0.55527
gfz2012qmhz  -1.01470
gfz2012qoev  -0.75245
gfz2012rjlp  -0.43716
gfz2012rknz  -0.71249
gfz2012roan   0.05615
gfz2012sgfd   0.47751
gfz2012sjdy   0.24618
gfz2012sjox  -0.03316
gfz2012smyn   0.15041
gfz2012socz  -0.31121
gfz2012sopp   0.10431
gfz2012sqsc  -0.82168
gfz2012ssvn   0.22743
gfz2012stxx  -0.38491
gfz2012svwz   0.32251
gfz2012swbz   0.17903
gfz2012sxbo  -0.25335
gfz2012sxzs  -0.19413
gfz2012taph  -0.35587
gfz2012tisj   0.34064
gfz2012trfq  -0.02311
gfz2012trss   0.58382
gfz2012ttnf   0.26437
gfz2012tvgw  -0.19847
gfz2012twec   0.04365
gfz2012udeo  -0.37641
gfz2012udxg  -0.38170
gfz2012uegq  -0.93589
gfz2012uhtc   0.84131
gfz2012ukzg   0.52063
gfz2012ulei  -0.24513
gfz2012unxc  -0.32489
gfz2012uovh  -0.26138
gfz2012urtu   0.87619
gfz2012uvoa  -0.68690
gfz2012uzuu   0.17050
gfz2012uzww   0.26171
gfz2012vaqd   0.14012
gfz2012vcqw  -0.27609
gfz2012vdsl   0.05199
gfz2012vgot  -0.17440
gfz2012vitw   0.10222
gfz2012vkjw   0.69891
gfz2012vlzv  -0.17618
gfz2012vqmq   0.58024
gfz2012vrqz   0.28933
gfz2012vurc   0.97083
gfz2012wdxk  -0.51036
gfz2012wgdv  -0.16971
gfz2012wgmg   0.60998
gfz2012wkki  -0.19912
gfz2012wowu  -0.24511
gfz2012woxj  -0.11442
gfz2012wpen   0.35443
gfz2012wqfz  -0.65504
gfz2012wysg   0.12794
gfz2012wzja  -1.33600
gfz2012xask   0.04814
gfz2012xbna  -0.21611
gfz2012xcsf   0.38265
gfz2012xfnu  -0.09019
gfz2012xfsk  -0.23033
gfz2012xfsl   0.33984
gfz2012xkln  -0.17582
gfz2012xkvu  -0.22259
gfz2012xlas  -0.57126
gfz2012xlfo  -0.17260
gfz2012xncm  -0.01618
gfz2012xrmq   0.10372
gfz2012xxdj   0.21648
gfz2012yegw   0.18102
gfz2012yihn   1.26710
gfz2012zhyz  -0.34713
gfz2012zido   0.83979
gfz2012zkhu  -1.20610
gfz2012zqis  -0.60778
gfz2013adih   0.57330
gfz2013afzh   0.00000
gfz2013agbm   0.76893
gfz2013aggr  -0.48089
gfz2013agmt  -0.51449
gfz2013ajxz  -0.25123
gfz2013akkd   0.52467
gfz2013atak  -0.13795
gfz2013bwgw  -0.24824
gfz2013byyy   0.53637
gfz2013cfls   0.87484
gfz2013cinv   0.08493
gfz2013cqak   0.39349
gfz2013cqee  -1.14370
gfz2013cyvx  -0.19526
gfz2013dbhl   0.09673
gfz2013delq   0.23524
gfz2013dftb   0.27335
gfz2013dfvx  -0.42074
gfz2013dksc   0.02037
gfz2013dmzh  -0.50424
gfz2013dngd   1.44390
gfz2013dnot   0.10288
gfz2013dwsp  -1.02800
gfz2013dzvr  -0.29645
gfz2013eavq   0.84116
gfz2013eazm   0.18094
gfz2013efct   0.31457
gfz2013egfv   1.67900
gfz2013eidd   0.02458
gfz2013enga  -0.61945
gfz2013enqo  -1.89990
gfz2013enrh  -0.95747
gfz2013esef  -0.31841
gfz2013evcl   0.27323
gfz2013ewht  -0.42535
gfz2013exow  -0.98316
gfz2013ezmc  -0.33628
gfz2013ffjt   0.06506
gfz2013fmcd  -0.38164
gfz2013fmcp   0.70264
gfz2013fndg  -0.07824
gfz2013fnpa  -0.17511
gfz2013foto  -0.23564
gfz2013frxd   0.50285
gfz2013fskp  -0.28567
gfz2013fthi  -0.51665
gfz2013fulo  -0.33857
gfz2013fvht  -0.35093
gfz2013fvyr  -0.23302
gfz2013fwbm   0.44549
gfz2013fxyr   0.73288
gfz2013fybd  -0.07095
gfz2013gjmk   0.04105
gfz2013gkyn   0.56001
gfz2013glkq  -0.09319
gfz2013glpz  -0.55753
gfz2013gomv  -0.18316
gfz2013grle   1.98690
gfz2013gsnl  -0.73395
gfz2013gugi  -0.67170
gfz2013gurk   0.21397
gfz2013gxye   0.15736
gfz2013gyce  -0.14515
gfz2013gywl   0.67885
gfz2013havw   0.05419
gfz2013hbmi  -0.11109
gfz2013hbtm   0.09474
gfz2013hduf  -0.35741
gfz2013hiam   0.40236
gfz2013hqaa   0.20049
gfz2013hvzv   0.04680
gfz2013icgx  -0.08325
gfz2013icql   0.26211
gfz2013ikic  -0.56972
gfz2013iuyv   0.34399
gfz2013ivvw  -0.10991
gfz2013iwhc  -0.17028
gfz2013iwzn   1.98990
gfz2013iybg  -0.36798
gfz2013jcnn  -0.05868
gfz2013jfcn   0.39766
gfz2013jhog   0.02683
gfz2013jjae  -0.28406
gfz2013jkqn  -0.39093
gfz2013jlli   1.32920
gfz2013jobl   0.27242
gfz2013jtsg   0.25604
gfz2013jzcf  -0.32149
gfz2013kats  -0.43471
gfz2013kbbn  -0.29829
gfz2013kcdb  -0.83782
gfz2013kdfy   0.33030
gfz2013kjgh  -0.29671
gfz2013kpes  -0.59386
gfz2013kqab  -0.08222
gfz2013kruh  -0.20265
gfz2013ksaz  -0.06063
gfz2013kslp   0.09300
gfz2013kxlr  -0.15964
gfz2013lbod  -0.03745
gfz2013lbvl   0.24881
gfz2013lgvf   0.20317
gfz2013ljdu   0.33802
gfz2013ljwt   0.21388
gfz2013lnts  -0.63508
gfz2013lqjj   0.22727
gfz2013lxed  -0.40306
gfz2013mdxj  -0.05854
gfz2013mimp   0.18897
gfz2013mktp  -0.18002
gfz2013mnux   1.31250
gfz2013muqm  -0.40382
gfz2013mvgq   0.05579
gfz2013mynb  -0.24778
gfz2013mzaw   0.05440
gfz2013nhkw   4.16910
gfz2013njwj  -0.71267
gfz2013nkgd   0.45275
gfz2013nkgt  -0.27005
gfz2013nnai   1.10510
gfz2013noqf  -0.13436
gfz2013ohnj   0.20224
gfz2013oizq  -0.19587
gfz2013ojza  -0.15121
gfz2013okac   0.53872
gfz2013okxa   0.20337
gfz2013olos  -0.68491
gfz2013onvl  -0.20720
gfz2013ortl   0.06270
gfz2013oruq  -0.27905
gfz2013osmj   1.21490
gfz2013otuj   0.03805
gfz2013oywh   0.53075
gfz2013pegj   0.41865
gfz2013phhi   0.14326
gfz2013phly   0.48003
gfz2013pizm   0.13932
gfz2013pkmz  -0.15725
gfz2013pvsa   0.40638
gfz2013pzdr   1.07280
gfz2013qaex  -1.04790
gfz2013qdks  -0.33172
gfz2013qdno  -0.13707
gfz2013qdpv   0.12073
gfz2013qdzg   0.88357
gfz2013qear   0.79113
gfz2013qigb  -0.35229
gfz2013qnqr   0.23672
gfz2013qoak  -0.19510
gfz2013qogb  -0.53965
gfz2013quwz  -0.04821
gfz2013qwnm  -0.07589
gfz2013qxof  -0.06792
gfz2013rdmn   0.35848
gfz2013rfik   0.13044
gfz2013rhbx   0.15170
gfz2013rhxf  -0.49051
gfz2013rnsa  -0.11404
gfz2013rocs   0.28042
gfz2013rtvy   0.11435
gfz2013rwkj   0.03695
gfz2013ryfc  -0.02064
gfz2013ryph   0.09562
gfz2013sbsl  -0.99404
gfz2013skay  -0.06497
gfz2013skvq   0.08599
gfz2013stou  -0.16797
gfz2013stup  -1.21500
gfz2013swnj   0.00662
gfz2013syqv  -0.19787
gfz2013taeb  -0.47074
gfz2013tcju  -0.18827
gfz2013tdsx  -0.22601
gfz2013tekq  -0.56472
gfz2013tert  -0.37194
gfz2013tgia   0.23648
gfz2013tgyb   0.27146
gfz2013timw  -0.28146
gfz2013tjub   1.67920
gfz2013tmyj  -0.04403
gfz2013tnff   0.53929
gfz2013tnrp   0.00002
gfz2013trsq   0.23340
gfz2013uafv   0.84307
gfz2013ubgt  -4.28290
gfz2013udtw   0.15302
gfz2013uenl  -0.19062
gfz2013uepl   0.26956
gfz2013unuv   0.29981
gfz2013upqj  -0.20091
gfz2013utqa  -0.17928
gfz2013uwjo  -0.57382
gfz2013uxzw   0.36367
gfz2013uzmf   0.04537
gfz2013vcgd  -0.13167
gfz2013vdam   0.11216
gfz2013vfix  -0.04825
gfz2013vjrr   0.09661
gfz2013vldx   0.36487
gfz2013vmrv   0.57872
gfz2013vmsg  -0.73320
gfz2013vmsn  -0.13216
gfz2013vnwa   1.63080
gfz2013voai   0.02137
gfz2013vvre  -0.56674
gfz2013vwkh   0.07853
gfz2013vxht   0.55341
gfz2013vzel  -0.09210
gfz2013wgwz   0.03933
gfz2013wigs   1.36210
gfz2013wpns  -0.30328
gfz2013wwee  -0.23013
gfz2013wyfl   0.06560
gfz2013xahp  -0.02068
gfz2013xbdc  -0.33597
gfz2013xmzw  -0.40631
gfz2013xodn  -0.08786
gfz2013xofz  -0.54503
gfz2013xswc   0.03857
gfz2013xupg  -0.13389
gfz2013xuxr   2.28410
gfz2013xvps   0.42853
gfz2013xycz   0.04072
gfz2013xzxe  -0.79017
gfz2013yihv  -0.09404
gfz2013ykkf   0.12231
gfz2013yktj   0.40139
gfz2013ylxm  -1.65030
gfz2013ylxn  -0.03382
gfz2013ymhx   0.15909
gfz2013yodm  -0.53949
gfz2013yqkz  -0.39129
gfz2013yqtu  -1.19020
gfz2013ytfm   1.13350
gfz2013yvnj   0.43384
gfz2013yvpn   0.04114
gfz2013yxif   0.28363
gfz2013yywh   0.00841
gfz2013zedt   0.36961
gfz2013zeye  -0.68337
gfz2013zfbz  -0.24708
gfz2013zghn   0.31812
gfz2013zkgm  -0.42022
gfz2013zkzb  -0.95504
gfz2013zlak  -0.11665
gfz2013zpwk  -0.13898
gfz2014aapq   0.08765
gfz2014aedl   0.09086
gfz2014ajgi   1.07590
gfz2014amgk  -0.01341
gfz2014aqax  -0.74869
gfz2014aqop   0.20464
gfz2014ateb  -1.55710
gfz2014avmd  -1.82830
gfz2014avzp   0.04816
gfz2014ayxf  -0.39144
gfz2014azfu  -0.87725
gfz2014bdju   0.08309
gfz2014befl  -0.20739
gfz2014bgyv  -0.73421
gfz2014bkra  -0.37494
gfz2014bmch  -0.10153
gfz2014bmdf  -0.19705
gfz2014bnea  -0.40239
gfz2014bqpm  -0.44469
gfz2014bumr   0.15403
gfz2014buyz   0.01199
gfz2014byes   0.39788
gfz2014bzus  -0.32117
gfz2014cbfo   0.21926
gfz2014cgoi   0.00495
gfz2014cjao   0.10007
gfz2014club   0.22576
gfz2014cokw  -0.39260
gfz2014crac   0.56096
gfz2014ctdl  -0.04901
gfz2014cvnb  -0.14725
gfz2014cwti  -0.63684
gfz2014dbmu   0.37253
gfz2014dbqi   0.07527
gfz2014dece  -0.16854
gfz2014dggw   0.29545
gfz2014djhi   0.37160
gfz2014djyj  -0.12577
gfz2014dmrw  -0.05049
gfz2014dpny  -0.38647
gfz2014dpps   0.12840
gfz2014dtth   0.04880
gfz2014dtto  -0.47817
gfz2014dudd  -0.11158
gfz2014dwcp   0.08225
gfz2014dykt  -0.03288
gfz2014edjm   0.14499
gfz2014eflc  -1.18880
gfz2014eglj   0.63132
gfz2014eiav  -0.13737
gfz2014eirs   0.08196
gfz2014emlw  -0.57277
gfz2014eoay   0.18160
gfz2014epfm  -0.43536
gfz2014epnq   0.37941
gfz2014epue  -1.41980
gfz2014esez   0.44668
gfz2014etgp  -0.24742
gfz2014etqu  -0.39764
gfz2014evgu  -0.25419
gfz2014evhm   0.29637
gfz2014eysf  -1.10510
gfz2014fbef   0.14983
gfz2014fbli   0.12910
gfz2014fbnr  -0.28601
gfz2014fhki  -0.87992
gfz2014fjfz   0.00260
gfz2014fqas  -0.18341
gfz2014fsir  -0.01463
gfz2014fsje  -0.49676
gfz2014fvza   0.20062
gfz2014fwuf  -0.04657
gfz2014fwxt   0.26230
gfz2014fxte   0.19194
gfz2014fxuy  -0.07970
gfz2014gcia   0.15141
gfz2014geln  -0.42572
gfz2014ginr   0.40527
gfz2014gjfd  -1.10790
gfz2014gnbw  -0.02143
gfz2014grwv  -0.25511
gfz2014gsfc   0.78674
gfz2014gtee   0.55135
gfz2014gtoj  -5.13680
gfz2014gypw  -0.70653
gfz2014hapg  -0.45831
gfz2014happ   0.30460
gfz2014herz   0.11011
gfz2014hhey  -0.43198
gfz2014hkcw   0.06353
gfz2014hotu   0.30143
gfz2014hqhv   0.16743
gfz2014huah   0.01604
gfz2014hyea  -0.04301
gfz2014hzzf   0.06714
gfz2014icov   0.30069
gfz2014igrp  -0.02967
gfz2014ijsa  -1.69100
gfz2014ikvw  -0.54141
gfz2014iltl  -0.08106
gfz2014ined   0.87284
gfz2014inrg   1.49890
gfz2014ipfu   0.12054
gfz2014ipwk   1.71760
gfz2014irlf   0.23871
gfz2014irln   0.24029
gfz2014isjg   0.01650
gfz2014itlx  -0.24105
gfz2014ivgm   0.02471
gfz2014iyuc  -0.56892
gfz2014jarg  -0.36804
gfz2014jaxy  -0.02076
gfz2014jayh   0.10873
gfz2014jbfp   0.10015
gfz2014jcbj   1.76760
gfz2014jckg  -1.13710
gfz2014jfmc  -1.61610
