# Nsamples: 1514  MAD:  0.534  mean:  0.009  std:  0.736
gfz2010abfc   0.47116
gfz2010abvu  -0.11008
gfz2010afyi  -2.51100
gfz2010aggj   0.48677
gfz2010aimm   0.06592
gfz2010aldp   0.82255
gfz2010amec  -1.14840
gfz2010aseg   0.09366
gfz2010asxa   0.24628
gfz2010axdz  -1.26210
gfz2010azji   0.22491
gfz2010bgrt  -0.48249
gfz2010bkfi   0.00651
gfz2010bklj  -0.76213
gfz2010bnbr   0.59383
gfz2010bnqr  -0.21026
gfz2010bofe   0.40741
gfz2010bqnk   0.03524
gfz2010brlc   0.55795
gfz2010brrm   0.30545
gfz2010btme   0.06690
gfz2010bukb   0.45894
gfz2010bvit  -0.21827
gfz2010byau   0.05817
gfz2010bytu  -0.84674
gfz2010cbnp   0.83857
gfz2010ccse   0.19514
gfz2010ccwc   0.21230
gfz2010ccye  -0.07649
gfz2010clbw   0.59050
gfz2010cllh  -0.57046
gfz2010cngg   0.08070
gfz2010cnhd   0.21786
gfz2010cnyi   0.57875
gfz2010cphq   0.84468
gfz2010cpig   0.45291
gfz2010cqoq  -0.85144
gfz2010crgy   0.53304
gfz2010crir  -0.15099
gfz2010ctak   0.61086
gfz2010cthm  -2.68140
gfz2010cuzg   0.17662
gfz2010cvam  -0.18875
gfz2010cvkn   0.70710
gfz2010cwrk   0.94800
gfz2010cyid   0.32016
gfz2010dask   0.07413
gfz2010ddan   0.75564
gfz2010depd  -0.00000
gfz2010diid  -0.31042
gfz2010djib   0.12992
gfz2010dmij   1.19850
gfz2010dmkd   0.32496
gfz2010dpgt  -0.64470
gfz2010drit   1.05560
gfz2010drml  -1.84520
gfz2010drmq  -1.84520
gfz2010drng  -0.79257
gfz2010drpv   0.31131
gfz2010drun   0.48805
gfz2010dsjq  -0.01287
gfz2010dslu  -0.01026
gfz2010dtgc  -0.13430
gfz2010dtyx  -1.37220
gfz2010dumv   0.75035
gfz2010dwgy  -0.17894
gfz2010dxhq   0.26039
gfz2010eepd  -0.06287
gfz2010ehgf  -0.79728
gfz2010eibh  -0.25088
gfz2010ekvl  -0.48303
gfz2010elge   0.53777
gfz2010ethu   0.43276
gfz2010euue   0.07113
gfz2010ewyj   0.88320
gfz2010extu  -0.16594
gfz2010faly  -0.39747
gfz2010fgbo  -0.37775
gfz2010fjio  -0.29780
gfz2010fjme  -0.51072
gfz2010fkff  -0.18012
gfz2010fkpa   0.57213
gfz2010fnkr   0.95134
gfz2010fopf  -0.08027
gfz2010fpvw  -2.75670
gfz2010fqnn  -0.19960
gfz2010fqzh   0.87016
gfz2010ftfq  -0.35976
gfz2010fuky   0.17356
gfz2010fvfz   0.52225
gfz2010fxhh   0.11135
gfz2010fxut  -0.70969
gfz2010gcqp   0.00000
gfz2010gcrn   0.35073
gfz2010gnvp  -0.25970
gfz2010gonu  -0.18828
gfz2010gooc  -0.87184
gfz2010gpjl  -0.05706
gfz2010guwa  -0.07904
gfz2010habf   0.35821
gfz2010hdxn  -0.05943
gfz2010hesh   0.04118
gfz2010hexh   0.21143
gfz2010hllp  -0.07640
gfz2010hnuo  -0.47437
gfz2010hsgv   0.17818
gfz2010hueh  -0.92846
gfz2010huzl  -0.32627
gfz2010hxan   0.03941
gfz2010iaay  -0.19832
gfz2010iawy   1.07730
gfz2010ifhd   0.65636
gfz2010ifru  -0.29008
gfz2010inbs   0.00719
gfz2010inkz  -0.21727
gfz2010ioad  -0.10633
gfz2010ixjl   0.06669
gfz2010izag   0.39043
gfz2010izgb   1.29470
gfz2010jcby  -0.04650
gfz2010jcpq   0.91809
gfz2010jdhk   0.02232
gfz2010jgwj  -0.31325
gfz2010jkrp   0.80632
gfz2010jlvp   0.96022
gfz2010jpkn   0.03396
gfz2010juke  -0.37557
gfz2010jvsi  -0.77744
gfz2010jyvd   0.79087
gfz2010kcdq  -0.81150
gfz2010kcyz  -0.33543
gfz2010kuzb   0.16825
gfz2010kwks  -0.46605
gfz2010ljmp  -0.16415
gfz2010ljol  -0.39668
gfz2010ljzf  -0.38732
gfz2010lswe  -1.56050
gfz2010lvnj   0.55514
gfz2010mdti  -0.27023
gfz2010mjdl   0.56979
gfz2010mnoc  -0.33456
gfz2010mpvc  -1.31320
gfz2010mqzz  -0.54383
gfz2010msss  -1.39760
gfz2010mvmb  -3.63030
gfz2010mvtj   2.52790
gfz2010mwmd   0.54060
gfz2010nbcr  -0.04244
gfz2010nccu   0.44168
gfz2010ncwu   0.08443
gfz2010ngge  -0.41640
gfz2010nkrw  -0.37577
gfz2010nlai   0.19545
gfz2010novb  -1.06840
gfz2010nteg  -1.35170
gfz2010nwbd  -0.29165
gfz2010nwyk  -1.24780
gfz2010ocug  -3.42320
gfz2010oguu   0.02666
gfz2010ogwn   1.00930
gfz2010oibn   2.18800
gfz2010ojhe  -0.55596
gfz2010okpc  -0.72042
gfz2010okww  -0.47714
gfz2010onxm   0.32349
gfz2010osaq   0.59640
gfz2010ouvm  -0.50596
gfz2010ovvg   0.57073
gfz2010pclq  -0.77609
gfz2010pcya  -0.96442
gfz2010pdip   1.95700
gfz2010pgpo  -0.29249
gfz2010pgrf   0.05532
gfz2010pngv   0.25619
gfz2010prnw   0.06366
gfz2010pvnn   0.03033
gfz2010pzza   0.03700
gfz2010qbcy   0.29239
gfz2010qdqk   0.19931
gfz2010qloa   0.37942
gfz2010qqqx   1.73300
gfz2010qrix   0.56952
gfz2010qrta  -0.36537
gfz2010qykh  -0.16076
gfz2010qylh  -0.37124
gfz2010qzvf   0.29102
gfz2010rdep  -0.48093
gfz2010rdip  -0.16649
gfz2010rkuu  -0.48052
gfz2010rljv  -0.09191
gfz2010rmua  -0.09726
gfz2010rnqa  -1.78650
gfz2010rnwt   1.05090
gfz2010rpbz  -0.36531
gfz2010rpjd  -0.37997
gfz2010schp  -0.44683
gfz2010scht   0.21330
gfz2010sdfs  -0.27866
gfz2010sftm  -0.53682
gfz2010shvn  -0.13164
gfz2010sook   0.67658
gfz2010swqy  -0.07803
gfz2010sylk   0.33008
gfz2010syqh  -0.18058
gfz2010szxo  -0.60333
gfz2010tcgh  -0.64953
gfz2010tfar   1.01490
gfz2010tgmo  -2.33680
gfz2010tmba  -0.34105
gfz2010tmne  -0.70755
gfz2010tpcj   0.23939
gfz2010tqyo   0.28225
gfz2010tvit  -0.34467
gfz2010tzki  -0.49704
gfz2010tzlz   0.60217
gfz2010tzma   0.57608
gfz2010ugws   0.40815
gfz2010uhjy   0.63958
gfz2010uidg   0.59018
gfz2010ujqn  -0.18863
gfz2010umxj   0.08898
gfz2010umyp  -0.13326
gfz2010uogw  -0.27443
gfz2010uopf  -0.25371
gfz2010upod  -1.06780
gfz2010uqba  -1.01790
gfz2010uraq  -0.67443
gfz2010utsc   0.13217
gfz2010uveo  -0.36992
gfz2010uyng   0.12768
gfz2010vdcf  -1.23380
gfz2010vgfu   0.55511
gfz2010vhzx  -0.36858
gfz2010viyi   0.15642
gfz2010vjac  -0.15644
gfz2010vkca   1.27350
gfz2010vong   0.69295
gfz2010vxwv  -0.60181
gfz2010vybx  -0.03429
gfz2010vyri   0.63801
gfz2010wakc   0.08679
gfz2010wdav   0.85195
gfz2010wigk  -1.09710
gfz2010wtin  -0.00000
gfz2010wwhf  -0.12454
gfz2010wwnq  -0.14838
gfz2010wyso   0.22383
gfz2010wyuj  -1.01650
gfz2010xamh  -0.45465
gfz2010xaxw  -0.57115
gfz2010xcdd   1.16080
gfz2010xezr   0.83824
gfz2010xhqq  -0.46634
gfz2010xjsv  -0.61960
gfz2010xkbz  -0.63766
gfz2010xkku  -0.07098
gfz2010xnbn   0.57518
gfz2010xney  -0.05863
gfz2010xpzq   0.19733
gfz2010xvev   0.05162
gfz2010xytc   0.26367
gfz2010xzah  -0.10754
gfz2010xzte  -0.42192
gfz2010yczp   0.11375
gfz2010yfdr  -0.89067
gfz2010ygrd  -0.33587
gfz2010yhdn   0.33186
gfz2010yhhj  -0.08795
gfz2010yilf  -0.52369
gfz2010ymih   0.13517
gfz2010yrex  -0.29424
gfz2010yspe  -0.58798
gfz2010ytzb  -0.03013
gfz2010zaxv  -0.49335
gfz2010zhvj  -0.97272
gfz2010zjun  -0.39149
gfz2010zkle  -0.41963
gfz2011afyc  -0.13912
gfz2011ahvh  -0.13462
gfz2011aksu  -1.20090
gfz2011ameb  -0.40644
gfz2011amst  -0.46175
gfz2011aqpp  -0.42445
gfz2011awsv  -0.23408
gfz2011bazz  -0.39138
gfz2011bcvc   0.96120
gfz2011bffb  -0.52620
gfz2011biin  -0.71036
gfz2011bpqm   0.50686
gfz2011bqbx  -0.75340
gfz2011bsvr   0.41522
gfz2011bvog  -0.48599
gfz2011bwsm  -1.17910
gfz2011bygs  -0.23766
gfz2011bygu  -0.00778
gfz2011bzio  -0.23915
gfz2011caca  -0.74604
gfz2011cdge  -1.19940
gfz2011cfyy  -0.46021
gfz2011chsa  -0.17435
gfz2011cjcv   0.54993
gfz2011cjuz   1.77830
gfz2011cwhx  -0.86549
gfz2011cwsm  -0.61697
gfz2011cwzi  -0.22789
gfz2011cxbw  -2.51450
gfz2011cxdj  -0.32518
gfz2011dabj   1.01670
gfz2011dbzc   0.38534
gfz2011dhfg   0.06624
gfz2011dhqk  -0.64009
gfz2011dmdv   0.25147
gfz2011dpyu   0.20796
gfz2011drmu  -0.04061
gfz2011dtcb   0.10136
gfz2011duvm  -0.60857
gfz2011dwae  -0.38833
gfz2011dzmf  -0.45436
gfz2011ecce   0.08625
gfz2011edrq   0.08181
gfz2011emzr   0.63142
gfz2011etkc   0.87217
gfz2011exxq  -2.04520
gfz2011fbsl  -0.59833
gfz2011ffdh  -0.12847
gfz2011fges   0.07092
gfz2011fnie   0.06567
gfz2011fnuk  -0.23682
gfz2011fnxz   0.14969
gfz2011fszl  -0.24001
gfz2011fxmf  -0.16681
gfz2011fyfu  -0.69940
gfz2011fzcw  -0.75507
gfz2011gaax  -0.35442
gfz2011gcct   0.54787
gfz2011gdli   0.23687
gfz2011gdrl  -0.15477
gfz2011gfer   0.02076
gfz2011ggnl   1.49560
gfz2011ggsz   0.52554
gfz2011glpg  -0.11350
gfz2011gnbk  -0.03579
gfz2011gpyr  -0.23837
gfz2011grby   0.48419
gfz2011gzde   1.27680
gfz2011haaa  -0.28009
gfz2011hatg  -0.14861
gfz2011hbqc   0.96275
gfz2011hffq   1.23120
gfz2011hibi  -0.37595
gfz2011hjof  -0.50545
gfz2011hmnw  -0.21369
gfz2011hqjs   0.10806
gfz2011hrgt  -0.41135
gfz2011huon   0.64821
gfz2011hvzo  -0.79492
gfz2011hyct  -0.41300
gfz2011hyuh  -0.06467
gfz2011iamf  -0.39151
gfz2011ibew  -1.09180
gfz2011ifta  -0.03653
gfz2011inan   4.20990
gfz2011ioch  -0.77948
gfz2011iryz  -0.17247
gfz2011itcv  -0.54483
gfz2011ituo  -0.05053
gfz2011ixpj  -0.23028
gfz2011iybf   0.21030
gfz2011jdoz  -0.48551
gfz2011jghq   1.20970
gfz2011jphj   0.00017
gfz2011jpob  -0.26169
gfz2011jqyc   0.40512
gfz2011jrgh   0.26639
gfz2011jryv   0.33916
gfz2011jtij  -0.13617
gfz2011kfch   0.44232
gfz2011kgvq   0.33374
gfz2011kjzt  -0.24327
gfz2011kjzv  -0.22741
gfz2011kmge  -0.10374
gfz2011ksxc  -0.81512
gfz2011kujo  -0.22074
gfz2011kylu  -1.19540
gfz2011kymm  -0.66284
gfz2011kyzy  -0.07704
gfz2011lbnn   0.11944
gfz2011ldgl   0.03757
gfz2011lkkf   0.36694
gfz2011lmug  -0.34801
gfz2011lrpv   0.03372
gfz2011lwmg  -0.13516
gfz2011lxga  -0.05007
gfz2011lykm   0.06235
gfz2011mdyq  -0.15442
gfz2011mjje   0.23876
gfz2011mllb  -0.47269
gfz2011mntq   0.86253
gfz2011moob  -1.24050
gfz2011mrfm  -0.38409
gfz2011mror   0.97816
gfz2011mrpy   0.00000
gfz2011mryu  -0.60715
gfz2011nblt   3.17850
gfz2011ncyw   2.58790
gfz2011ndhh   1.48670
gfz2011ndki   0.13227
gfz2011ndlh   0.14481
gfz2011ndse   0.41358
gfz2011ndtp   0.37510
gfz2011ndvj  -0.03623
gfz2011neai   0.58946
gfz2011nejg   0.72332
gfz2011nejw   0.71117
gfz2011nerb   0.63828
gfz2011nfcz   0.11655
gfz2011nfgt  -1.42660
gfz2011nfih  -1.98000
gfz2011nfln   0.55612
gfz2011nftw  -0.23831
gfz2011nfwd   0.34758
gfz2011nfww  -1.48240
gfz2011nhby   0.03121
gfz2011nhhd  -0.33772
gfz2011nhjv   2.22510
gfz2011nhvt   1.26130
gfz2011nhwf  -0.65747
gfz2011nifi  -0.18489
gfz2011nihq   0.00868
gfz2011nijp   0.90992
gfz2011nilw  -0.56684
gfz2011nimp   0.73263
gfz2011nioi  -1.23460
gfz2011nisj  -1.02850
gfz2011niuw   0.98164
gfz2011nivw   0.17451
gfz2011nkda   0.48834
gfz2011nkou  -1.17730
gfz2011nlmf  -0.50937
gfz2011nlnl  -1.83830
gfz2011nlok   1.21060
gfz2011nlou   0.22323
gfz2011nlum   0.79449
gfz2011nlyw   1.27170
gfz2011nmdz   0.19858
gfz2011nmhg   2.75280
gfz2011nnda   0.00014
gfz2011nnos  -0.24463
gfz2011npaf   0.26851
gfz2011npeu  -0.67361
gfz2011nsej   0.21896
gfz2011nsiy  -0.64646
gfz2011nsrx  -0.39012
gfz2011nssr  -0.63856
gfz2011nswi   0.24001
gfz2011nsyi  -2.25310
gfz2011ntyd  -0.03580
gfz2011nuqo  -0.67691
gfz2011nvty   0.48959
gfz2011nyzk  -1.11930
gfz2011oadm  -0.19090
gfz2011oazk   0.02058
gfz2011ocif  -0.03154
gfz2011oekz  -0.15551
gfz2011oesd   0.02229
gfz2011ofpj  -0.19354
gfz2011ohgj  -0.39223
gfz2011okza  -0.10832
gfz2011omxt  -0.09310
gfz2011oosp  -0.14703
gfz2011oqjl   0.61983
gfz2011oslk   0.89232
gfz2011osmp  -0.15056
gfz2011osuy  -0.92602
gfz2011ovvj  -0.16927
gfz2011owqa   0.12401
gfz2011paqj   0.18595
gfz2011pbgh  -4.37140
gfz2011pbjh  -0.66716
gfz2011pcqr  -0.81661
gfz2011pdgq  -0.27683
gfz2011pdsn   1.55330
gfz2011pfls  -0.38576
gfz2011pfwq  -0.12776
gfz2011pgzk   0.10711
gfz2011pimj  -0.00365
gfz2011pivq   0.58664
gfz2011plzc   1.90430
gfz2011pmuv   0.76679
gfz2011poug   1.35500
gfz2011pphc  -0.85208
gfz2011ppsc  -0.25213
gfz2011prrq   1.07000
gfz2011ptgd   0.02225
gfz2011pulu  -0.01222
gfz2011pwbw  -0.45573
gfz2011pwld  -0.46098
gfz2011qasw  -0.08256
gfz2011qenl   0.03035
gfz2011qgea  -1.76050
gfz2011qgvh   0.01462
gfz2011qgvx  -0.91777
gfz2011qidi  -0.50714
gfz2011qklh  -1.66200
gfz2011qlkj  -0.47129
gfz2011qowe  -0.00000
gfz2011qtoy  -0.85170
gfz2011qukj  -0.37354
gfz2011rbuo   0.06126
gfz2011rczb   0.01359
gfz2011rkau   1.08900
gfz2011rkzx  -0.52821
gfz2011rnny  -0.05976
gfz2011rnsp   0.04937
gfz2011rplo  -0.39303
gfz2011rpoo   0.04364
gfz2011rqut   0.63425
gfz2011scma   1.08990
gfz2011sdax  -0.11032
gfz2011sdpl   0.12734
gfz2011sfmu   0.26899
gfz2011sfph   0.09311
gfz2011sqco  -1.00400
gfz2011sskq  -0.84655
gfz2011stzi   0.13987
gfz2011swfp  -0.82306
gfz2011sxno  -0.19178
gfz2011sylg   0.73134
gfz2011syvj   0.81487
gfz2011syzr   1.36060
gfz2011szau  -0.37551
gfz2011szbb   0.74520
gfz2011szcj   0.09978
gfz2011szis   0.02112
gfz2011taqr   0.00472
gfz2011tarj   1.60550
gfz2011tdjj   0.86361
gfz2011tfor  -0.74185
gfz2011tgey  -0.33122
gfz2011tgon  -0.29452
gfz2011tjpv  -0.39669
gfz2011tlwl   0.76019
gfz2011tozo   0.44325
gfz2011tqgg   0.63546
gfz2011tsgl   1.96770
gfz2011tssv  -0.11092
gfz2011tvuv  -0.28134
gfz2011twpz   0.47483
gfz2011txdb  -2.47520
gfz2011txxs   0.40024
gfz2011tzcv   0.21411
gfz2011unud   0.07309
gfz2011uowi   0.22621
gfz2011uqlz  -0.04267
gfz2011uqry   0.61278
gfz2011urwz  -0.70098
gfz2011uvsi  -0.43793
gfz2011vahy   0.14047
gfz2011vaoi  -1.00820
gfz2011varl   0.54185
gfz2011vbxv   0.57702
gfz2011vcyx   0.15354
gfz2011vemg  -1.06650
gfz2011vimn   0.47695
gfz2011vsag  -0.20812
gfz2011vswj   0.33191
gfz2011vtdl   0.56986
gfz2011vtzv   0.07756
gfz2011vxek   0.16663
gfz2011wbtc  -0.19499
gfz2011wcvs  -0.90958
gfz2011wfsk   0.50301
gfz2011wgoa  -1.05350
gfz2011wgvh  -1.40890
gfz2011wkja   0.27752
gfz2011wkyx  -0.07929
gfz2011wngi   0.14305
gfz2011wnjg  -0.35954
gfz2011wnvu   0.35130
gfz2011wpzt   0.08707
gfz2011wqth   1.00910
gfz2011wqup   0.07476
gfz2011wtfn  -0.10787
gfz2011wucg   0.11998
gfz2011wwze   0.41485
gfz2011wzss  -0.67973
gfz2011xagc  -0.09599
gfz2011xawm  -0.36844
gfz2011xdox   0.03431
gfz2011xgbc  -0.19349
gfz2011xgwy  -0.24840
gfz2011xkka   0.31839
gfz2011xlod   0.52503
gfz2011xnui  -0.06922
gfz2011xpcq   0.00647
gfz2011xwdv  -2.03800
gfz2011xwum  -0.55346
gfz2011xxng   0.86123
gfz2011yeck  -0.11561
gfz2011yjtx  -0.11280
gfz2011ykbd   0.77961
gfz2011ymji   0.18208
gfz2011yntu   1.27590
gfz2011ypfh   0.95377
gfz2011yrfa  -0.18381
gfz2011ytob  -0.47444
gfz2011ytwk  -0.90090
gfz2011ywtj  -0.08968
gfz2011zcwn   0.11613
gfz2011zdyf  -0.24666
gfz2011zghc   0.63253
gfz2011zgxn  -0.38741
gfz2011zhih  -1.87490
gfz2011ziyk   0.44883
gfz2011zkbt  -0.15042
gfz2011zlga  -0.84229
gfz2012adja  -0.03500
gfz2012ahac   0.14878
gfz2012ahkl   0.89090
gfz2012aioo  -0.21703
gfz2012alti   0.11838
gfz2012amjx   0.03663
gfz2012amvs   0.04958
gfz2012aqpa  -0.21029
gfz2012arlo   0.23797
gfz2012asin  -1.84420
gfz2012asld  -0.06888
gfz2012atjr   0.83272
gfz2012auqr  -0.21509
gfz2012avvc   0.63921
gfz2012axrp  -0.20375
gfz2012bcvn   0.88675
gfz2012beae   0.27654
gfz2012bity   0.13207
gfz2012bjhl   0.20627
gfz2012bnwa   0.20835
gfz2012bolx   0.00457
gfz2012bovy   0.08435
gfz2012bqcf   0.64820
gfz2012btbq   1.53710
gfz2012byrq  -0.63584
gfz2012bysu  -0.64546
gfz2012bytv   0.14422
gfz2012byuk  -0.03755
gfz2012cdju   0.39645
gfz2012cfdw   1.29300
gfz2012cksh   0.13922
gfz2012cmww   0.39838
gfz2012cntu  -0.30247
gfz2012crpb  -0.14787
gfz2012cvfr  -0.07792
gfz2012cwhl  -0.13508
gfz2012cxhw  -0.25294
gfz2012czvh  -0.48068
gfz2012dbgt  -0.08782
gfz2012dcjd   0.32881
gfz2012dejg  -0.83893
gfz2012dgfk   0.30583
gfz2012dkdy  -0.41649
gfz2012dleg  -1.97380
gfz2012dluf   0.90088
gfz2012dnig  -0.20738
gfz2012dpem   0.57639
gfz2012dpnu  -0.67382
gfz2012dpwv  -0.83013
gfz2012drak  -0.20619
gfz2012drld  -0.18969
gfz2012drqd  -0.46942
gfz2012dsei  -1.11210
gfz2012dtdt   0.96099
gfz2012dtlu  -0.00699
gfz2012dttl   0.07470
gfz2012dtvr   0.09210
gfz2012dugf  -0.50942
gfz2012duvf   0.08825
gfz2012dwwu  -0.45791
gfz2012dyck  -0.05245
gfz2012dyfw  -0.35765
gfz2012dysj   0.57316
gfz2012dysu   0.05990
gfz2012dyua  -0.02230
gfz2012dzen   0.48110
gfz2012dzjo  -0.90248
gfz2012dzoh   0.14933
gfz2012dzot  -0.59863
gfz2012dzou   2.43360
gfz2012eajr  -0.53144
gfz2012ebff   0.55770
gfz2012ebgo  -0.44968
gfz2012ebhf   0.48382
gfz2012ebrr  -0.60842
gfz2012eeft   0.40554
gfz2012ekfp  -0.58204
gfz2012ekro   0.54327
gfz2012elek  -0.38989
gfz2012emin  -0.36994
gfz2012enio   0.97154
gfz2012enrg   0.62324
gfz2012erds  -0.76532
gfz2012evav   0.26003
gfz2012evxn   0.30687
gfz2012eyti   0.46719
gfz2012facv   0.69589
gfz2012fbgz   0.36170
gfz2012fcyq  -0.79437
gfz2012fcyr  -0.76333
gfz2012fhaf  -0.42562
gfz2012fiiz  -0.62228
gfz2012fjiu   0.88050
gfz2012flqf   0.48449
gfz2012foih   2.96340
gfz2012fpyo   0.74657
gfz2012ftcq   1.59240
gfz2012ftks  -0.09635
gfz2012fuyd   0.87447
gfz2012fyny  -0.23926
gfz2012fyop  -0.28964
gfz2012gbrs  -1.57150
gfz2012gczh   0.46586
gfz2012gdye  -0.04261
gfz2012gftg   0.91381
gfz2012ghiv   0.00704
gfz2012ghyd  -1.31500
gfz2012gjdg  -0.35353
gfz2012gjtd  -0.21133
gfz2012gmsr  -0.73232
gfz2012gnow   0.01198
gfz2012gpcd   0.03049
gfz2012grmf   0.78229
gfz2012gubu   0.25753
gfz2012gvxc  -0.56988
gfz2012gzuk  -1.13660
gfz2012hdny   0.06531
gfz2012heih  -0.17342
gfz2012hhlx  -0.48415
gfz2012hkxs  -0.20008
gfz2012hlya  -0.94459
gfz2012hmcv  -0.35484
gfz2012hnyy  -1.09690
gfz2012hqlo   0.95551
gfz2012hvfw   0.33862
gfz2012hvjc   1.17120
gfz2012hvtu  -0.59024
gfz2012hwph  -0.39615
gfz2012hyba  -0.78962
gfz2012hyqh   0.02212
gfz2012hysb  -0.91896
gfz2012hzhn   0.22300
gfz2012hzur   0.04363
gfz2012iabn   0.08773
gfz2012iblo   1.60270
gfz2012ibyd  -0.06074
gfz2012icjo  -0.39944
gfz2012idxu   0.04361
gfz2012iedy   0.49717
gfz2012ieln  -0.05233
gfz2012iijk  -0.04009
gfz2012ikke  -1.12420
gfz2012imuo  -1.13550
gfz2012inns  -0.65374
gfz2012iotw   1.76590
gfz2012ipdc   0.55077
gfz2012iroy  -0.10829
gfz2012ivyg  -0.85655
gfz2012iyhs  -0.40727
gfz2012iyoi  -0.52732
gfz2012izke  -0.49807
gfz2012jaun   0.00000
gfz2012jawj  -0.16950
gfz2012jbzr   0.91812
gfz2012jetp   0.45655
gfz2012jksz   0.43035
gfz2012jlez  -0.62286
gfz2012jqxx  -0.34340
gfz2012juem   0.41360
gfz2012jxnm   0.19047
gfz2012jxxe  -0.72861
gfz2012kadi  -0.15960
gfz2012kbub   1.25970
gfz2012klpl  -0.17414
gfz2012kmbo  -0.22020
gfz2012kmmz  -0.37288
gfz2012kqjb  -0.63435
gfz2012kstg  -0.28984
gfz2012kvlx  -0.19499
gfz2012kwmx   0.53141
gfz2012lcro  -0.75377
gfz2012ldjj  -0.46725
gfz2012lngq   0.78923
gfz2012lops  -0.28677
gfz2012lqhw  -0.28984
gfz2012luzm   0.57708
gfz2012lvlr  -0.40649
gfz2012lwha  -0.24982
gfz2012lyqs  -0.74962
gfz2012lyyr  -0.30977
gfz2012mcrb  -0.30622
gfz2012mdzf  -0.40694
gfz2012mekv  -0.94817
gfz2012mhik  -0.09935
gfz2012mjuu   0.36241
gfz2012mjzl   0.30114
gfz2012mmiw   0.29805
gfz2012mnth  -0.45352
gfz2012mout   1.70050
gfz2012movu  -0.32891
gfz2012movv   0.20106
gfz2012mowv   0.08081
gfz2012mpzo   0.57721
gfz2012mrqk   0.36432
gfz2012mrwu   0.31561
gfz2012mtyn   0.24382
gfz2012mvgu  -0.11903
gfz2012mwhe  -0.42730
gfz2012mxdk   0.40726
gfz2012mxvk   1.93760
gfz2012mzco  -0.35963
gfz2012mzqx   0.70313
gfz2012ndsk  -0.45708
gfz2012ndwt  -0.31425
gfz2012nfos   0.62490
gfz2012nfzc   0.12979
gfz2012nldz   0.52092
gfz2012nlrb  -0.35012
gfz2012nmja  -0.15361
gfz2012nnck   1.07070
gfz2012nnqu   0.34352
gfz2012nnsl   0.25735
gfz2012nqvd  -0.31305
gfz2012nsxc   0.02924
gfz2012oafg  -0.32897
gfz2012oehy   0.30573
gfz2012ofaj   0.11333
gfz2012ofnx   1.52960
gfz2012ogqu   1.15260
gfz2012ogwe   0.43008
gfz2012ohgd   0.19048
gfz2012oieq  -0.32186
gfz2012oiez  -0.58970
gfz2012ojfv  -0.09984
gfz2012ojmv   1.58970
gfz2012onhu  -0.39828
gfz2012oork  -0.82587
gfz2012oozp   0.41121
gfz2012ormy   1.14420
gfz2012oxnh   0.01405
gfz2012oyja   0.50014
gfz2012pcui  -1.25110
gfz2012pdav   0.42971
gfz2012pdfi  -1.04020
gfz2012pdjt  -0.37827
gfz2012pekf  -0.32612
gfz2012pgmw   0.41664
gfz2012phns   0.03848
gfz2012pifb   0.55710
gfz2012pira  -0.24931
gfz2012pmuj   0.92002
gfz2012pmuq  -0.64752
gfz2012pmws  -1.09150
gfz2012pokk   0.37434
gfz2012ppcq   0.17873
gfz2012prke   0.20950
gfz2012pryl   0.42932
gfz2012pumy   0.20734
gfz2012pvve   0.19348
gfz2012qfah   0.69060
gfz2012qfov   0.07216
gfz2012qhqp  -2.03960
gfz2012qibe  -0.17952
gfz2012qllj  -1.61280
gfz2012qmhz  -0.40629
gfz2012qoev  -0.63992
gfz2012rduv   0.74228
gfz2012rfhw  -0.75680
gfz2012rjlp   3.12030
gfz2012rknz  -0.56977
gfz2012rmvx   0.41788
gfz2012rnbw  -1.86070
gfz2012rnyn   0.21020
gfz2012roan  -0.21665
gfz2012rslf  -0.43951
gfz2012rugl   0.20707
gfz2012rzwp   0.08789
gfz2012sbix   1.21560
gfz2012sfao   0.41657
gfz2012sgfd   0.20907
gfz2012sjdy   0.37207
gfz2012sjox  -0.49457
gfz2012slfd  -0.56703
gfz2012smyn  -0.72887
gfz2012socz  -0.51665
gfz2012sopp  -0.40921
gfz2012sqsc  -0.64215
gfz2012ssnb  -1.04920
gfz2012ssvn   0.33860
gfz2012stxx  -0.09510
gfz2012suqd  -0.54158
gfz2012svwz   0.48073
gfz2012swbz   0.17832
gfz2012sxbo   0.40279
gfz2012sxpr  -0.99867
gfz2012sxzs   0.06279
gfz2012syum  -0.78603
gfz2012taph  -0.49148
gfz2012tgta   0.05617
gfz2012thyh  -0.13167
gfz2012tisj  -0.26786
gfz2012tjih  -0.28620
gfz2012tjwg  -1.30250
gfz2012touh   0.89881
gfz2012tqjc   0.28936
gfz2012trfq   0.30531
gfz2012trss   0.47494
gfz2012tsdz  -0.22829
gfz2012ttnf   0.18493
gfz2012tvgw   0.61602
gfz2012twec   0.01439
gfz2012tyoz  -0.12752
gfz2012udeo  -1.49660
gfz2012udxg  -0.57763
gfz2012uegq   0.16627
gfz2012uhsx  -0.45230
gfz2012uhtc   0.04448
gfz2012ukzg   0.65498
gfz2012ulei   0.25068
gfz2012umob   0.04800
gfz2012unxc  -0.48828
gfz2012uovh   0.09354
gfz2012urtu   1.54370
gfz2012utdu  -0.04409
gfz2012uvea  -0.62091
gfz2012uvoa   0.29175
gfz2012uwne  -0.07269
gfz2012uzuu  -0.09714
gfz2012uzww  -0.20653
gfz2012vaqd  -0.24221
gfz2012vcqw  -0.22708
gfz2012vdra   0.70191
gfz2012vdsl   0.36065
gfz2012vgot   0.16420
gfz2012vile  -0.01986
gfz2012vioy   0.31350
gfz2012vitw   0.24094
gfz2012vkjw   0.60977
gfz2012vlzv  -0.35066
gfz2012vqjw   0.83585
gfz2012vqmq   0.61030
gfz2012vrqz   0.08130
gfz2012vurc   0.53271
gfz2012vzkm   0.30627
gfz2012wbeu  -0.45400
gfz2012wdvt   0.07546
gfz2012wdxk  -0.28980
gfz2012wgdv  -0.33969
gfz2012wgmg  -0.29613
gfz2012wgxf   0.31352
gfz2012wiyv  -1.89840
gfz2012wjpf  -0.84940
gfz2012wjsi  -0.57468
gfz2012wjxc   0.15351
gfz2012wkki  -0.07004
gfz2012wmmw   0.06882
gfz2012wowu  -0.28262
gfz2012woxj  -0.49574
gfz2012wpen  -0.49340
gfz2012wqfz   0.20787
gfz2012wugc   0.56396
gfz2012wysg   0.06463
gfz2012wzja   0.45770
gfz2012xask  -0.16386
gfz2012xbna  -0.17945
gfz2012xcsf   0.11799
gfz2012xfnu  -0.37909
gfz2012xfsk  -0.10688
gfz2012xfsl   0.23628
gfz2012xjgb   2.38680
gfz2012xkln  -0.27284
gfz2012xkvu   0.09407
gfz2012xlas   0.43733
gfz2012xlfo  -0.28061
gfz2012xncm  -1.33010
gfz2012xqxw  -0.51174
gfz2012xrmq  -0.00950
gfz2012xtvu  -0.14631
gfz2012xwgb  -0.53777
gfz2012xwkx   1.51900
gfz2012xxdj  -0.08666
gfz2012yegw  -0.14512
gfz2012yihn   1.37590
gfz2012ylai   0.00000
gfz2012yncm  -0.19203
gfz2012yvwc   0.61475
gfz2012ywei   1.91120
gfz2012yygz   0.38193
gfz2012yytb  -0.56466
gfz2012yzih   0.31044
gfz2012zhyz  -0.40014
gfz2012zido   0.09129
gfz2012zkhu  -0.90590
gfz2012zktj   1.86620
gfz2012zmdf   0.28868
gfz2012zmfc   0.06111
gfz2012znou   0.20581
gfz2012zqis  -0.19339
gfz2013aclz  -1.35790
gfz2013adih   1.14870
gfz2013afzh   0.38029
gfz2013agbm   1.62530
gfz2013aggr   1.64100
gfz2013agmt   0.58096
gfz2013ajxz   0.13785
gfz2013akkd   0.16231
gfz2013ascz   0.21270
gfz2013atak  -0.36618
gfz2013atec   0.90418
gfz2013aymi  -0.06015
gfz2013bdvi  -0.76609
gfz2013bgyg  -0.35854
gfz2013bqfc   0.13777
gfz2013bwgw   0.69433
gfz2013byyy   0.21267
gfz2013ccng   0.31026
gfz2013cfls  -0.28352
gfz2013cinv   0.35164
gfz2013ciof  -0.23279
gfz2013cqak   0.53135
gfz2013cqee  -0.04263
gfz2013cvve  -0.07342
gfz2013cyvx  -0.03503
gfz2013ddrx   0.07003
gfz2013delq   0.94506
gfz2013dftb   0.44157
gfz2013dfvx   1.95520
gfz2013djfi  -0.55475
gfz2013dksc   0.22541
gfz2013dmzh  -0.57439
gfz2013dngd   0.74613
gfz2013dnot   0.00053
gfz2013dwsp  -0.99590
gfz2013dznt  -1.07140
gfz2013dzvr  -0.33814
gfz2013eavq   0.63443
gfz2013eazm  -0.27340
gfz2013efct  -0.00840
gfz2013efys   0.10811
gfz2013egfv  -2.89190
gfz2013eidd   0.25451
gfz2013ektd  -0.05427
gfz2013enga  -0.34115
gfz2013enqo   0.82385
gfz2013enrh   0.18118
gfz2013esef  -0.88743
gfz2013evcl   0.13708
gfz2013ewht  -0.41180
gfz2013exow   2.12330
gfz2013eyyo  -1.29410
gfz2013ezmc  -0.37729
gfz2013ffjt  -0.53012
gfz2013fhzy  -0.72428
gfz2013fmcd   0.81372
gfz2013fmcp   0.83441
gfz2013fndg   0.48428
gfz2013fnpa  -0.05092
gfz2013foto  -0.34584
gfz2013frxd   0.26936
gfz2013fskp   0.05696
gfz2013fthi   1.46830
gfz2013fulo   0.23038
gfz2013fvht   0.07719
gfz2013fvyr  -0.69710
gfz2013fvzv  -0.18715
gfz2013fwbm  -0.48551
gfz2013fxyr   0.40788
gfz2013fybd   0.23046
gfz2013gaqx  -0.72010
gfz2013gbki   1.67240
gfz2013gbma   0.44301
gfz2013gglk   3.03760
gfz2013gjmk   0.06916
gfz2013gkcx   0.67499
gfz2013gkyn   0.24651
gfz2013glkq   0.62534
gfz2013glpz   0.74967
gfz2013gomv   0.51948
gfz2013grle  -2.17710
gfz2013gugi  -0.75523
gfz2013gurk   0.04792
gfz2013gxye  -0.01481
gfz2013gyce   0.86534
gfz2013gywl   1.38270
gfz2013havw   0.20152
gfz2013hbmi   0.26763
gfz2013hbtm   0.19172
gfz2013hbwy  -6.04670
gfz2013hdbp  -1.19920
gfz2013hduf  -0.28412
gfz2013hiam   0.50651
gfz2013hinw   1.18650
gfz2013hjtt  -0.44353
gfz2013hqaa   0.09104
gfz2013hvkg  -0.31827
gfz2013hvzv   0.28891
gfz2013hwps  -0.55481
gfz2013icgx  -0.01431
gfz2013icql   0.32636
gfz2013idqu   0.34561
gfz2013ikic   0.23335
gfz2013irme   0.00971
gfz2013isqh   0.19957
gfz2013iuyv   2.03130
gfz2013ivvw  -0.31931
gfz2013iwhc   0.14509
gfz2013iwzn   0.14715
gfz2013iybg   0.06129
gfz2013jcnn  -0.11692
gfz2013jdwo  -2.00420
gfz2013jfcn   0.92278
gfz2013jhog   0.03154
gfz2013jjae  -0.51251
gfz2013jjfw   0.35888
gfz2013jkqn  -0.19467
gfz2013jlli  -0.48822
gfz2013jobl   0.44565
gfz2013jpir  -0.14616
gfz2013jrqf   0.07045
gfz2013jtsg  -1.15100
gfz2013jzcf   0.43887
gfz2013kats   0.45062
gfz2013kbbn  -0.00000
gfz2013kbkp   0.04984
gfz2013kcdb  -0.45338
gfz2013kdfy  -0.53000
gfz2013kjgh  -0.10375
gfz2013kpes   0.39386
gfz2013kqab  -0.26517
gfz2013kruh  -0.74051
gfz2013ksaz   0.21999
gfz2013kslp  -0.04298
gfz2013kuno   0.65457
gfz2013kxlr   0.16340
gfz2013lbod   0.49267
gfz2013lbvl   0.76127
gfz2013lcrk  -0.41257
gfz2013lgvf   0.03809
gfz2013ljdu   0.23569
gfz2013ljwt   0.24703
gfz2013lnne  -0.77736
gfz2013lnts   0.06301
gfz2013lqjj   0.73511
gfz2013lxed   0.40806
gfz2013lxnd  -0.42169
gfz2013mbna  -0.08791
gfz2013mdxj   0.09300
gfz2013mimp   0.13829
gfz2013mktp  -0.47641
gfz2013mnux  -1.66790
gfz2013msmy  -0.28811
gfz2013muqm  -0.15592
gfz2013mvgq   0.20703
gfz2013mynb  -0.43718
gfz2013mzaw   0.31508
gfz2013nhkw  -1.82600
gfz2013njck   0.50730
gfz2013njwj   1.47990
gfz2013nkgd   1.00790
gfz2013nkgt   0.70976
gfz2013nnai  -0.74809
gfz2013noqf  -0.06970
gfz2013ntfc   0.14449
gfz2013ntiu  -0.49107
gfz2013oeni   0.07444
gfz2013ohdt   0.00000
gfz2013ohnj  -0.08943
gfz2013oizq   0.00000
gfz2013ojza   0.14058
gfz2013okac   0.57253
gfz2013okxa   0.28173
gfz2013olos   1.20330
gfz2013onvl  -0.36017
gfz2013opkx  -0.91990
gfz2013orot   0.07354
gfz2013ortl   0.08045
gfz2013oruq   0.03865
gfz2013osmj  -0.43296
gfz2013otuj  -0.06771
gfz2013otxp  -0.55444
gfz2013oywh   0.23656
gfz2013pegj  -0.14601
gfz2013phhi  -0.29985
gfz2013phly   1.92990
gfz2013pizm   0.19778
gfz2013pkmz  -0.00000
gfz2013pqkp  -0.75923
gfz2013puiy   0.83324
gfz2013pvsa  -0.68581
gfz2013pwsm   0.41750
gfz2013pzdr   0.38262
gfz2013qaov   0.29032
gfz2013qapj  -0.21502
gfz2013qboo   0.85242
gfz2013qdks  -0.19796
gfz2013qdno   0.09750
gfz2013qdpv   0.22239
gfz2013qdzg  -0.25777
gfz2013qear  -0.01114
gfz2013qigb   0.75393
gfz2013qmkt   0.35410
gfz2013qnqr   0.29041
gfz2013qntl   0.05366
gfz2013qoak  -0.18251
gfz2013qogb  -0.21087
gfz2013qqyo  -0.02469
gfz2013quwz  -0.09544
gfz2013quyn   0.43057
gfz2013qwnm  -0.13026
gfz2013qxof   0.19473
gfz2013rdmn  -0.36144
gfz2013rfik   0.04345
gfz2013rgcc   0.11223
gfz2013rhbx   0.34226
gfz2013rhxf  -0.60736
gfz2013rnsa   0.16903
gfz2013rocs  -0.02763
gfz2013rsyt   1.13260
gfz2013rtvy   0.08486
gfz2013rwkj  -0.05358
gfz2013ryfc  -0.33232
gfz2013ryph   0.48530
gfz2013sbsl   0.04267
gfz2013sbsp  -0.13328
gfz2013sdkg   0.29769
gfz2013sdym   0.72191
gfz2013skay   0.70725
gfz2013skvq   0.18422
gfz2013stou   0.13153
gfz2013stup  -0.62914
gfz2013swnj   0.00000
gfz2013syqv  -0.10834
gfz2013taeb  -0.24050
gfz2013tcju   0.20419
gfz2013tdsx  -0.42354
gfz2013tekq   0.08456
gfz2013tert   0.46748
gfz2013tgia   0.47552
gfz2013tgyb   0.18114
gfz2013timw  -0.26081
gfz2013tjub   0.59769
gfz2013tkcg   0.51315
gfz2013tmyj   0.28526
gfz2013tnff  -0.33639
gfz2013tnrp   0.01708
gfz2013tpwl  -0.53933
gfz2013trsq   0.26946
gfz2013twbc   0.27468
gfz2013uafv  -0.11486
gfz2013ubgt   0.67219
gfz2013udtw   0.34880
gfz2013uenl  -0.70801
gfz2013uepl   0.19884
gfz2013uhio  -0.40220
gfz2013ummt  -0.47556
gfz2013unuv   0.52644
gfz2013urla  -0.05930
gfz2013utqa   0.71620
gfz2013uugc   0.16053
gfz2013uwjo  -0.09957
gfz2013uwxi   1.17820
gfz2013uxzw   0.37887
gfz2013uzmf   0.05692
gfz2013vcgd  -0.42835
gfz2013vdam   0.26801
gfz2013veoz   1.12660
gfz2013veug  -0.32649
gfz2013vfix  -0.28228
gfz2013vgfb  -0.27749
gfz2013vjrr  -0.25991
gfz2013vjsz   0.53495
gfz2013vldx  -0.25753
gfz2013vmrv   0.79703
gfz2013vmsg  -0.51672
gfz2013vmsn  -0.21582
gfz2013vnwa   0.73172
gfz2013voai   0.07643
gfz2013vojy  -0.15497
gfz2013vsdd   0.82664
gfz2013vvre  -0.26301
gfz2013vwkh   0.15176
gfz2013vxht   0.28791
gfz2013vzel   0.22981
gfz2013vzet  -0.01735
gfz2013wegs  -0.65698
gfz2013wgwz   0.25270
gfz2013wigs   0.51633
gfz2013wpns   0.29548
gfz2013wwee   0.00836
gfz2013wyfl   0.07949
gfz2013wyho  -1.15430
gfz2013xacx   0.11501
gfz2013xahp  -0.03378
gfz2013xbdc  -0.09494
gfz2013xjmo  -0.70136
gfz2013xjmy  -1.63130
gfz2013xlic  -0.33618
gfz2013xmzw  -0.34935
gfz2013xodn   0.03023
gfz2013xofz  -0.24408
gfz2013xswc  -0.08720
gfz2013xupg   0.17149
gfz2013xvps   0.09010
gfz2013xxbf  -0.53572
gfz2013xycz   0.30159
gfz2013xzxe   0.25829
gfz2013yapz   0.55100
gfz2013yawe   0.69303
gfz2013yfwz  -0.75816
gfz2013ygsj  -0.88528
gfz2013yihv  -0.45924
gfz2013ykqw   0.13408
gfz2013yktj   0.30755
gfz2013ylxm  -0.99511
gfz2013ymhx   0.09821
gfz2013yodm  -0.09734
gfz2013yqkz   0.37822
gfz2013yqtu   0.07139
gfz2013ytfm  -1.08780
gfz2013ytmi   0.96226
gfz2013yvnj  -0.05242
gfz2013yvpn  -0.18864
gfz2013yxhf  -0.26255
gfz2013yxif   0.34510
gfz2013yywh  -0.06994
gfz2013zbfb   0.83116
gfz2013zedt   0.36046
gfz2013zeye  -0.37701
gfz2013zfbz  -0.20796
gfz2013zghn   0.52252
gfz2013ziix   0.64032
gfz2013zkgm  -0.19400
gfz2013zkzb  -0.22021
gfz2013zlak   0.35653
gfz2013zlij  -0.84222
gfz2013zpse  -0.45051
gfz2013zpwk   0.04605
gfz2013zqan   0.31739
gfz2014aapq   0.07989
gfz2014aedl   0.27095
gfz2014aejh   0.15923
gfz2014afbt  -0.84175
gfz2014ajgi  -0.79624
gfz2014aluc   3.26980
gfz2014alzg   0.33617
gfz2014amgk  -0.00890
gfz2014amsy  -0.76424
gfz2014aqax  -1.10150
gfz2014aqop  -0.32364
gfz2014arox  -0.75891
gfz2014ascp   0.29013
gfz2014avag   0.81312
gfz2014avmd  -0.29261
gfz2014avzp   0.35259
gfz2014ayxf  -0.16708
gfz2014azfu   0.20750
gfz2014bdju  -1.13180
gfz2014befl   0.18131
gfz2014bfjb  -0.00482
gfz2014bgxe  -0.03789
gfz2014bgyv   0.03846
gfz2014bhch  -2.15330
gfz2014bkra  -0.64501
gfz2014bmch   0.38209
gfz2014bmdf   0.42213
gfz2014bmqw   0.16948
gfz2014bnea   0.26508
gfz2014bppg   0.17743
gfz2014bqpm  -0.16041
gfz2014brkk  -0.36924
gfz2014bumr   0.85944
gfz2014buyz  -0.19569
gfz2014bycg  -0.10938
gfz2014byes   0.11385
gfz2014bzus  -0.06191
gfz2014cbfo   0.45375
gfz2014cgoi   0.40828
gfz2014cjao   0.34217
gfz2014ckqv   0.26323
gfz2014club   0.21864
gfz2014cncl   0.22100
gfz2014cokw   0.27232
gfz2014crac   0.68726
gfz2014ctdl  -0.26895
gfz2014cvnb  -0.02398
gfz2014cwti  -0.37602
gfz2014dbmu  -0.50755
gfz2014dbqi  -0.20888
gfz2014dece   0.40133
gfz2014dggw  -0.01236
gfz2014dihl   0.55568
gfz2014djhi   0.37779
gfz2014djyj   0.04086
gfz2014dmrw   0.19946
gfz2014dpny   0.31378
gfz2014dpps   0.24400
gfz2014dsqr  -0.14720
gfz2014dtth   0.10083
gfz2014dtto   0.13813
gfz2014dudd   0.50494
gfz2014dutu   0.99502
gfz2014dwcp  -0.04665
gfz2014dykt   0.87097
gfz2014ecor  -0.30715
gfz2014edjm   0.23339
gfz2014edmd  -0.20145
gfz2014eflc   0.80833
gfz2014egvg   0.63343
gfz2014eiav   0.24955
gfz2014eirs   0.21726
gfz2014ejfx   0.07228
gfz2014emlw  -0.21851
gfz2014eoay   0.44852
gfz2014epfm   0.35736
gfz2014epnq  -0.09577
gfz2014epue  -0.76756
gfz2014esez   0.33878
gfz2014etgp  -0.04511
gfz2014etqu   0.18203
gfz2014eunw  -0.01889
gfz2014evgu   0.19100
gfz2014evhm  -0.13978
gfz2014exxj   1.04640
gfz2014eyne   0.12593
gfz2014ezjq  -0.02345
gfz2014ezvd   0.88883
gfz2014faex   0.76233
gfz2014fbef   0.40511
gfz2014fbli   0.10505
gfz2014fbnr  -0.23283
gfz2014fhki  -0.22217
gfz2014fjfz   0.11088
gfz2014flxk   0.75040
gfz2014fmdc  -2.15190
gfz2014fqas   0.53339
gfz2014fsir   0.00253
gfz2014fsje   0.28405
gfz2014fskh   0.18695
gfz2014fsvc   1.16040
gfz2014fvza   0.24346
gfz2014fwuf   0.18984
gfz2014fwxt   0.94778
gfz2014fxim   0.54198
gfz2014fxte   0.56320
gfz2014fxtv  -0.12864
gfz2014fxuy  -0.07398
gfz2014gasb   0.31832
gfz2014gbxg  -0.09456
gfz2014gcgf   2.41180
gfz2014gcia   0.03320
gfz2014gdbh  -0.69750
gfz2014geln   0.39007
gfz2014ggie  -0.07241
gfz2014ginr   0.42406
gfz2014gjfd   0.14998
gfz2014gnbw   0.16635
gfz2014gpnr   1.51050
gfz2014gqxg   0.21350
gfz2014grwv   0.48087
gfz2014gsfc   1.65800
gfz2014gtee  -0.37797
gfz2014gtoj   0.93624
gfz2014gutd  -0.14257
gfz2014gypw   0.14283
gfz2014gzlm   0.29877
gfz2014hapg   0.40041
gfz2014happ  -0.25837
gfz2014herz   0.65633
gfz2014hgjb   0.08222
gfz2014hhey  -0.32852
gfz2014hhis   0.17550
gfz2014hjmc  -0.46783
gfz2014hkcw  -0.13984
gfz2014hotu  -0.41649
gfz2014hqhv   0.23369
gfz2014huah   0.06285
gfz2014hyea   0.13476
gfz2014hzzf   0.80698
gfz2014iayo   0.36779
gfz2014icov   0.30288
gfz2014igrp   0.15112
gfz2014ijsa   0.68427
gfz2014ikvw  -0.10137
gfz2014iltl   0.43782
gfz2014imqh   0.12020
gfz2014ined   0.26711
gfz2014inrg   0.67076
gfz2014iolv   0.75722
gfz2014ipfu   0.24153
gfz2014ipwk   1.48880
gfz2014irlf   0.43353
gfz2014irln   0.38176
gfz2014irly   0.21930
gfz2014isjg   0.20090
gfz2014isov   0.69908
gfz2014itlx   0.01288
gfz2014iusw   0.10357
gfz2014ivgm  -0.27670
gfz2014ixlc   0.33927
gfz2014iyuc   0.12189
gfz2014jarg  -0.31352
gfz2014jaxy   1.00050
gfz2014jayh   0.42889
gfz2014jbfp  -0.18516
gfz2014jbgm  -0.26534
gfz2014jckg  -0.49171
gfz2014jffe   1.06690
gfz2014jfmc  -1.27330
