# Nsamples: 266  MAD:  0.861  mean: -0.095  std:  1.381
gfz2010abfc   0.13440
gfz2010aggj  -0.22356
gfz2010aseg  -0.77224
gfz2010cbnp   0.57657
gfz2010crgy   0.48260
gfz2010crir  -0.43096
gfz2010cyid   1.76030
gfz2010dask  -0.26196
gfz2010djib  -0.31349
gfz2010drit  -0.35036
gfz2010drml   1.00520
gfz2010drmq   1.00520
gfz2010dumv   0.97900
gfz2010fgbo   0.78300
gfz2010fjme   0.58428
gfz2010habf  -0.15420
gfz2010hllp   0.15584
gfz2010hxan   0.11006
gfz2010jlvp   2.23250
gfz2010kcyz  -0.40039
gfz2010lvnj  -1.97650
gfz2010mjdl   1.15730
gfz2010mqzz   0.35543
gfz2010onxm  -2.38790
gfz2010pcya   0.81735
gfz2010qzvf  -1.16260
gfz2010rljv   0.53531
gfz2010rnwt   2.57170
gfz2010rpbz   1.78520
gfz2010rpjd  -1.79460
gfz2010upod   1.45130
gfz2010vong  -0.37631
gfz2010wakc  -1.75140
gfz2010xamh   0.54676
gfz2010xnbn   1.21770
gfz2010xzte   0.68897
gfz2010yfdr   0.44221
gfz2010yhhj   0.87995
gfz2010ymih   0.43505
gfz2010zjun  -0.35818
gfz2011ahvh   0.36486
gfz2011ameb  -0.08669
gfz2011bpqm  -0.14287
gfz2011bsvr   1.32320
gfz2011cdge  -0.11244
gfz2011chsa   0.49036
gfz2011dabj   0.56286
gfz2011dpyu   0.42377
gfz2011drmu  -0.18243
gfz2011etkc   1.97260
gfz2011gnbk   0.67597
gfz2011gzde   4.56080
gfz2011hibi  -2.06920
gfz2011hjof  -0.09799
gfz2011hvzo   0.98597
gfz2011iryz   0.18166
gfz2011jpob  -0.58143
gfz2011jryv  -0.61191
gfz2011kgvq  -1.29280
gfz2011kjzt   0.45974
gfz2011kjzv  -0.57159
gfz2011kyzy   0.82346
gfz2011lkkf  -1.41910
gfz2011mjje   0.97267
gfz2011mror  -4.30890
gfz2011ndhh   2.36780
gfz2011ndki   1.51630
gfz2011nejg  -1.58060
gfz2011nejw   1.05840
gfz2011nfcz   0.21656
gfz2011nftw  -0.91455
gfz2011nijp   1.64450
gfz2011nilw  -0.43016
gfz2011nisj  -2.46440
gfz2011niuw   1.25740
gfz2011nlmf   1.18550
gfz2011nssr   8.10090
gfz2011nvty   0.25753
gfz2011oadm   0.85378
gfz2011ohgj   0.58527
gfz2011oqjl  -0.50344
gfz2011oslk   0.65148
gfz2011osmp   0.49972
gfz2011ovvj  -0.11488
gfz2011owqa  -2.68660
gfz2011paqj   0.33177
gfz2011pdsn  -0.82011
gfz2011pfwq  -0.34644
gfz2011pgzk  -2.50440
gfz2011plzc  -0.46779
gfz2011ppsc   0.64716
gfz2011qenl   0.71181
gfz2011qukj   0.33518
gfz2011rkau  -1.92160
gfz2011rnny   0.44226
gfz2011scma  -0.57149
gfz2011sdax   0.58978
gfz2011tgon   0.35797
gfz2011tozo   0.93742
gfz2011tqgg  -2.04120
gfz2011tsgl   0.33384
gfz2011twpz  -0.03517
gfz2011txxs  -0.68448
gfz2011urwz  -0.08741
gfz2011uvsi   0.30342
gfz2011vahy   0.15468
gfz2011vsag   0.73918
gfz2011wfsk  -2.27720
gfz2011wqup   0.12809
gfz2011wucg   0.12699
gfz2011xgwy   0.15864
gfz2011xlod  -0.12442
gfz2011yexx  -0.04115
gfz2011yjtx  -1.71240
gfz2011ymji  -1.44550
gfz2011ypfh   0.96106
gfz2011ytob  -0.33493
gfz2012amjx   1.51430
gfz2012bqcf   0.45549
gfz2012bysu   0.70934
gfz2012bytv  -2.18320
gfz2012cdju   0.21976
gfz2012crpb  -0.31766
gfz2012cvfr   0.66421
gfz2012cwhl   0.16406
gfz2012czvh  -0.83597
gfz2012dttl   0.69982
gfz2012dugf   0.36701
gfz2012dysu  -3.02760
gfz2012eajr   0.74112
gfz2012ebgo   1.39430
gfz2012ebhf   0.93458
gfz2012ekfp  -5.79150
gfz2012fhaf  -0.18495
gfz2012ftks   0.60663
gfz2012gzuk  -0.87270
gfz2012hzur  -1.72380
gfz2012iijk  -0.00000
gfz2012iroy   0.39744
gfz2012kmbo   0.90619
gfz2012kmmz  -0.05280
gfz2012mcrb   0.13769
gfz2012mjuu   0.87414
gfz2012mmiw   0.03338
gfz2012mrqk   0.85837
gfz2012nfos  -0.06022
gfz2012oafg  -0.71600
gfz2012ofnx  -2.82840
gfz2012oork  -0.14762
gfz2012roan   0.91517
gfz2012sjox   1.72110
gfz2012slfd   1.47930
gfz2012socz  -0.44615
gfz2012sopp  -0.21515
gfz2012tgta   0.26493
gfz2012touh  -3.99520
gfz2012tqjc   2.08620
gfz2012uvoa  -2.18260
gfz2012vgot  -0.37851
gfz2012vlzv   0.82818
gfz2012vqmq   0.38721
gfz2012wgdv   0.31619
gfz2012wgmg   0.02348
gfz2012wgxf  -0.12975
gfz2012wowu  -0.79516
gfz2012xbna   0.04975
gfz2012xfsl   0.28604
gfz2012yegw  -0.48999
gfz2012zhyz  -0.10626
gfz2012zmdf   0.61697
gfz2012zmfc  -0.59759
gfz2013afzh  -2.79300
gfz2013agmt  -1.93370
gfz2013akkd   1.08040
gfz2013aymi   0.14526
gfz2013cfls   0.75838
gfz2013cvve   0.97940
gfz2013cyvx   0.40936
gfz2013delq  -0.91713
gfz2013dftb  -0.57669
gfz2013dzvr   0.96496
gfz2013eidd  -1.43220
gfz2013fnpa   0.33367
gfz2013fulo  -2.23040
gfz2013fvht  -3.18340
gfz2013fybd   0.64484
gfz2013gugi  -0.49595
gfz2013gurk  -0.18422
gfz2013hqaa   0.33939
gfz2013hwps   0.12902
gfz2013icql   0.64339
gfz2013iwhc  -0.26064
gfz2013jfcn  -0.19795
gfz2013jrqf   0.85605
gfz2013kats   0.45605
gfz2013kqab  -1.55710
gfz2013kxlr   0.34994
gfz2013lgvf   0.41744
gfz2013mdxj  -3.01610
gfz2013nkgd   0.91217
gfz2013nkgt   0.48439
gfz2013onvl  -0.26848
gfz2013oywh  -1.82690
gfz2013phhi   0.06617
gfz2013qear   0.61462
gfz2013qigb  -2.56190
gfz2013qoak   0.73846
gfz2013quwz   0.28537
gfz2013qxof  -3.74240
gfz2013rdmn  -0.84881
gfz2013ryph   0.25114
gfz2013taeb  -1.50460
gfz2013tjub   0.64838
gfz2013ubgt  -5.33880
gfz2013uepl   0.89736
gfz2013unuv  -0.08786
gfz2013upqj  -0.61867
gfz2013utqa   0.90675
gfz2013uwjo   0.13639
gfz2013vldx   0.54168
gfz2013vmrv  -1.03230
gfz2013vnwa   0.48157
gfz2013vvre  -2.09560
gfz2013wegs  -4.23320
gfz2013wgwz  -1.39070
gfz2013wpns  -0.60075
gfz2013wwee   0.41221
gfz2013wyfl   1.21080
gfz2013xswc  -0.31594
gfz2013ygsj  -0.52923
gfz2013ykqw   0.60000
gfz2013ylxm  -1.57490
gfz2013yqkz   0.12234
gfz2013yqtu   0.71429
gfz2013ytfm   0.54698
gfz2013yxhf  -1.08740
gfz2013zlak  -0.22669
gfz2014amgk   0.53245
gfz2014aqax  -0.20357
gfz2014avzp   0.29744
gfz2014bfjb  -0.77115
gfz2014bgyv   0.39554
gfz2014cokw  -2.42790
gfz2014crac   0.16502
gfz2014cwti  -0.01534
gfz2014eirs   0.16283
gfz2014eoay   0.05298
gfz2014eunw   0.25963
gfz2014evhm  -0.47041
gfz2014fsir   0.21718
gfz2014fwxt   0.48211
gfz2014fxte   0.91572
gfz2014fxuy  -1.60690
gfz2014herz  -0.04607
gfz2014hotu  -0.86700
gfz2014hyea   0.18921
gfz2014icov  -0.55849
gfz2014ijsa   1.22020
gfz2014ikvw  -0.63736
gfz2014iltl  -2.67180
gfz2014imqh   1.39870
gfz2014irlf   0.44261
gfz2014irln   0.35700
gfz2014irly  -0.52438
gfz2014jarg   0.36851
gfz2014jfmc  -0.57305
