# Nsamples: 310  MAD:  0.589  mean: -0.024  std:  0.797
gfz2010abfc  -0.32531
gfz2010aggj  -0.46878
gfz2010aldp  -0.05713
gfz2010aseg  -0.65108
gfz2010bkfi  -0.03276
gfz2010bklj  -0.17806
gfz2010bukb  -0.47101
gfz2010cbnp  -1.46370
gfz2010crgy   0.46544
gfz2010crir   0.18499
gfz2010csle   0.50361
gfz2010cvkn   0.91515
gfz2010dask  -0.16791
gfz2010djib   1.34570
gfz2010drit   0.49016
gfz2010drml  -0.12251
gfz2010drmq  -0.12251
gfz2010drun   0.77743
gfz2010dwgy   0.36677
gfz2010eibh   0.13828
gfz2010fgbo  -0.44050
gfz2010fjme   0.15319
gfz2010ftfq   0.43761
gfz2010gcqp  -0.03249
gfz2010gonu  -0.10727
gfz2010guwa   0.23423
gfz2010habf   0.14772
gfz2010hllp   0.38404
gfz2010hueh   1.67690
gfz2010hxan  -0.80394
gfz2010ifhd  -0.02077
gfz2010jcby   0.59055
gfz2010jlvp   0.47958
gfz2010mdti   0.60153
gfz2010mqzz   0.12094
gfz2010ngge   0.61468
gfz2010pclq   0.41977
gfz2010pcya   0.90179
gfz2010pzza   1.47880
gfz2010qrta   0.71654
gfz2010qzvf  -2.09120
gfz2010rkuu   0.70349
gfz2010rljv  -0.15160
gfz2010rnwt   1.31060
gfz2010rpbz  -0.35079
gfz2010rpjd   1.23520
gfz2010shvn   1.02670
gfz2010tmba   0.03537
gfz2010tzlz  -0.48842
gfz2010tzma   1.08660
gfz2010umxj  -0.83961
gfz2010uogw  -1.54950
gfz2010vong  -0.16481
gfz2010xamh   0.52045
gfz2010yfdr  -0.24087
gfz2010yilf  -0.44275
gfz2010ymih   0.25859
gfz2010ytzb  -0.27063
gfz2010zhvj  -0.31984
gfz2010zjun   0.14373
gfz2011ameb   0.89314
gfz2011awsv   0.32144
gfz2011bpqm  -0.55756
gfz2011bsvr   1.33430
gfz2011cdge  -0.98866
gfz2011chsa   0.06453
gfz2011dbzc  -0.51079
gfz2011dpyu   0.19648
gfz2011drmu   0.44260
gfz2011duvm  -0.27944
gfz2011dwae   0.72224
gfz2011emzr   0.56935
gfz2011etkc   0.09591
gfz2011hjof  -1.17630
gfz2011hrgt   0.86178
gfz2011hvzo   0.95334
gfz2011iamf   0.44470
gfz2011jpob   0.13983
gfz2011jryv   0.57389
gfz2011kjzt   0.02435
gfz2011kjzv   0.05220
gfz2011kyzy   0.22826
gfz2011mjje  -0.34310
gfz2011mror   0.40413
gfz2011nuqo  -0.21927
gfz2011oadm   0.52837
gfz2011ohgj  -0.35469
gfz2011oslk   0.57232
gfz2011osmp  -0.15584
gfz2011osuy  -0.04032
gfz2011owqa  -0.57412
gfz2011paqj   0.89764
gfz2011pgzk   0.15625
gfz2011ptgd  -0.40517
gfz2011pwbw  -0.26679
gfz2011qenl   0.54872
gfz2011qgea   0.91950
gfz2011qklh   0.75771
gfz2011qukj   0.14573
gfz2011rkau  -1.59020
gfz2011rnny  -2.56960
gfz2011rqut  -0.04432
gfz2011scma  -1.05350
gfz2011sdax   0.67465
gfz2011sxno   0.63300
gfz2011sylg  -0.63910
gfz2011tqgg   0.30131
gfz2011tsgl   0.70379
gfz2011tssv   1.04280
gfz2011tvuv   0.21760
gfz2011ugbt  -0.58463
gfz2011urwz   1.86290
gfz2011vahy   0.02197
gfz2011varl   1.20780
gfz2011vxek   0.17434
gfz2011wbtc   0.17470
gfz2011wucg  -0.54910
gfz2011xnui   0.97031
gfz2011xxng  -0.76178
gfz2011ytob  -0.97217
gfz2011zcwn   1.15250
gfz2012ahac   0.02016
gfz2012amvs  -0.85314
gfz2012bcvn  -0.14372
gfz2012beae   0.56864
gfz2012bity  -0.27066
gfz2012bjhl  -1.57660
gfz2012bqcf   0.06546
gfz2012byrq   0.43988
gfz2012bytv  -0.19710
gfz2012byuk  -0.13770
gfz2012cksh  -0.44171
gfz2012cvfr   0.37008
gfz2012dejg  -0.32846
gfz2012dwwu  -0.10054
gfz2012dyck  -0.16957
gfz2012dysu  -2.44700
gfz2012eajr   2.32980
gfz2012eeft   0.22332
gfz2012enio  -0.47333
gfz2012evxn  -0.02890
gfz2012eyti   0.35741
gfz2012gbrs  -0.19623
gfz2012ghiv   1.37280
gfz2012gnow  -0.29308
gfz2012gpcd   0.18714
gfz2012heih  -0.29016
gfz2012hmcv  -0.30299
gfz2012hvtu  -0.60896
gfz2012iblo  -0.79590
gfz2012iijk   0.98545
gfz2012ipdc   0.43506
gfz2012iroy  -0.09432
gfz2012iyhs   1.24100
gfz2012izke   1.34730
gfz2012kadi  -1.86730
gfz2012kbub   0.64411
gfz2012kmbo  -0.04469
gfz2012mjuu   0.53466
gfz2012mmiw  -0.22569
gfz2012mpzo   0.33366
gfz2012mrqk   0.51589
gfz2012mwhe   0.61060
gfz2012ndwt  -1.02520
gfz2012nfos   0.00000
gfz2012nldz  -0.10351
gfz2012nqvd  -0.08360
gfz2012oafg  -0.52378
gfz2012oehy  -0.92162
gfz2012oork  -0.01302
gfz2012prke  -0.38983
gfz2012pryl   0.15897
gfz2012qllj  -0.51755
gfz2012qmhz  -0.17412
gfz2012rjlp  -0.39705
gfz2012roan   1.52930
gfz2012sfao   0.91895
gfz2012smyn  -0.42275
gfz2012socz   1.26120
gfz2012sopp   0.10478
gfz2012sqsc   0.82541
gfz2012svwz  -0.49666
gfz2012swbz  -0.00516
gfz2012taph  -0.39731
gfz2012tgta   0.67446
gfz2012touh   0.12253
gfz2012trss  -0.86233
gfz2012twec   0.08553
gfz2012tyoz   0.43444
gfz2012ukzg  -2.84390
gfz2012uvea  -0.20835
gfz2012uvoa   1.12690
gfz2012vdsl  -0.57177
gfz2012vgot  -0.13551
gfz2012vitw   0.09359
gfz2012vrqz   1.34460
gfz2012wgdv   0.03664
gfz2012wgmg   0.42791
gfz2012wkki  -0.14214
gfz2012wowu   0.91153
gfz2012xbna   0.43161
gfz2013kats  -0.17372
gfz2013kcdb  -0.11231
gfz2013kqab   0.30152
gfz2013kslp   0.36347
gfz2013kxlr  -0.31424
gfz2013lbvl   0.96900
gfz2013lgvf  -0.03307
gfz2013ljdu  -0.46800
gfz2013lvxe   0.21006
gfz2013lxed  -0.08128
gfz2013mdxj   0.06263
gfz2013msmy  -3.35820
gfz2013mzaw   0.07924
gfz2013nkgd   1.21640
gfz2013nkgt   0.32946
gfz2013nnai   0.24120
gfz2013ntfc  -0.11014
gfz2013oizq   0.21747
gfz2013okac   0.08869
gfz2013onvl  -0.21877
gfz2013oywh  -2.21800
gfz2013phhi   0.39376
gfz2013pizm  -0.36292
gfz2013qigb  -0.27274
gfz2013qoak  -0.62708
gfz2013qogb  -0.70938
gfz2013quwz   0.19027
gfz2013qxof  -0.22541
gfz2013rdmn   0.73305
gfz2013rhbx  -0.40615
gfz2013rocs   0.29438
gfz2013rtvy  -0.12943
gfz2013rwkj   0.17726
gfz2013ryph   0.19763
gfz2013sbsp  -0.46612
gfz2013stup  -0.40973
gfz2013tcju   0.10255
gfz2013tkcg   0.06936
gfz2013tmyj  -0.39126
gfz2013tnff   1.77960
gfz2013tnrp  -0.37897
gfz2013udtw   0.14037
gfz2013uepl  -0.63841
gfz2013unuv   0.05485
gfz2013upqj   0.16329
gfz2013utqa   0.53869
gfz2013uwjo  -0.95229
gfz2013vmrv  -0.11295
gfz2013vvre  -0.07363
gfz2013vwkh   0.26573
gfz2013vxht   0.31157
gfz2013wgwz  -0.29882
gfz2013wpns   0.26653
gfz2013wwee  -0.16047
gfz2013wyfl   0.42816
gfz2013wyho  -0.12807
gfz2013xofz  -0.60766
gfz2013xswc  -0.00343
gfz2013xvps  -0.34805
gfz2013xycz   0.13441
gfz2013ykqw   0.39010
gfz2013ylxm  -1.83510
gfz2013yqkz  -0.21525
gfz2013yqtu   0.88210
gfz2013zeye  -0.17623
gfz2013zfbz  -1.24960
gfz2014aqop  -0.72504
gfz2014bgyv  -1.18120
gfz2014bkra  -0.81808
gfz2014bnea   0.05446
gfz2014byes   0.28113
gfz2014bzus  -0.31174
gfz2014crac   0.23335
gfz2014cwti  -5.21550
gfz2014dbqi  -0.65805
gfz2014dmrw   0.19126
gfz2014dwcp  -0.56399
gfz2014eflc  -0.42339
gfz2014eirs  -0.12774
gfz2014emlw  -0.81894
gfz2014eoay  -0.36301
gfz2014esez   0.22789
gfz2014eunw   0.20957
gfz2014evhm  -0.16300
gfz2014fbef  -1.74830
gfz2014fbli  -0.12703
gfz2014fjfz  -0.48689
gfz2014flxk   0.86549
gfz2014fsir  -1.21220
gfz2014fxte   0.36079
gfz2014fxtv  -0.06292
gfz2014fxuy   0.22335
gfz2014gjfd   0.16165
gfz2014gnbw  -0.36425
gfz2014hhey   0.03434
gfz2014hotu  -0.40238
gfz2014hyea   0.02923
gfz2014icov   0.13291
gfz2014ijsa  -0.48157
gfz2014iltl  -0.62426
gfz2014irlf   0.27024
gfz2014irln   0.53215
gfz2014itlx  -0.42237
gfz2014ivgm   0.12117
gfz2014iyuc  -0.68152
gfz2014jarg  -0.03234
gfz2014jayh  -1.45710
gfz2014jckg  -0.81106
gfz2014jfmc  -0.70839
