# Nsamples: 812  MAD:  0.344  mean:  0.035  std:  0.618
gfz2010abfc  -0.27746
gfz2010aggj   0.11258
gfz2010aimm   0.07483
gfz2010aseg  -0.99520
gfz2010asxa  -1.04440
gfz2010azji   0.23848
gfz2010bkfi  -0.33556
gfz2010bklj  -0.39116
gfz2010brlc   0.00000
gfz2010brrm  -1.34290
gfz2010btme  -0.53461
gfz2010bukb   0.28970
gfz2010byau   1.08000
gfz2010ccse  -0.75186
gfz2010ccye  -0.02685
gfz2010clbw   0.13108
gfz2010cllh  -0.32035
gfz2010cnyi   0.39206
gfz2010cphq  -1.59790
gfz2010cpig   0.29077
gfz2010crgy   0.03727
gfz2010crir  -0.17003
gfz2010csle   0.46368
gfz2010csmw   0.15202
gfz2010csqy  -0.45263
gfz2010cthm   4.45700
gfz2010cvkn  -0.40825
gfz2010dask   0.13432
gfz2010diid  -0.21820
gfz2010djib   0.15361
gfz2010dmij  -0.53343
gfz2010dmkd  -1.11330
gfz2010drit  -0.13935
gfz2010drml   0.55524
gfz2010drmq   0.55524
gfz2010drpv  -0.66255
gfz2010dslu  -0.29194
gfz2010dwgy  -0.09495
gfz2010ehgf   2.16630
gfz2010eibh  -0.39097
gfz2010ekvl   0.11742
gfz2010elge   0.19202
gfz2010eqyj   1.60840
gfz2010ethu   0.14954
gfz2010euue  -0.22319
gfz2010ewyj  -0.94794
gfz2010extu   0.42749
gfz2010faly   0.02689
gfz2010fgbo  -0.26488
gfz2010fjio  -0.44527
gfz2010fjme  -0.55933
gfz2010fkff  -0.12365
gfz2010fnkr  -0.05693
gfz2010fopf   0.09158
gfz2010fqnn   1.02300
gfz2010fuky  -0.67277
gfz2010fvfz   0.53450
gfz2010gcqp  -0.03859
gfz2010gcrn  -1.25240
gfz2010gnvp   0.18703
gfz2010gonu  -0.14665
gfz2010habf   0.20645
gfz2010hdxn  -0.33922
gfz2010hesh   1.14010
gfz2010hexh  -0.10338
gfz2010hsgv  -0.00000
gfz2010hueh  -0.45165
gfz2010hxan  -0.15383
gfz2010iaay  -0.53695
gfz2010iawy  -0.09868
gfz2010ifhd  -0.13414
gfz2010nteg   0.05924
gfz2010nwyk   0.26538
gfz2010oguu  -0.17233
gfz2010ogwn   0.50611
gfz2010ojhe  -0.12240
gfz2010okpc  -1.14110
gfz2010ouvm  -0.60302
gfz2010ovvg   0.12128
gfz2010pclq  -0.07348
gfz2010prnw   0.33254
gfz2010pvnn   0.06341
gfz2010pxoi  -0.90595
gfz2010qbcy  -0.76626
gfz2010qdqk  -0.39599
gfz2010qqqx  -0.06564
gfz2010qrix   0.23145
gfz2010qrta   0.29876
gfz2010qylh  -0.02387
gfz2010qzvf   0.09140
gfz2010rdip   0.10552
gfz2010rkuu  -0.60630
gfz2010rljv   0.17440
gfz2010rnqa  -0.25368
gfz2010rnwt  -0.72942
gfz2010rpbz  -2.58390
gfz2010rpjd  -0.96744
gfz2010schp  -0.13876
gfz2010sdfs  -0.03483
gfz2010shvn  -0.28453
gfz2010swqy   0.03626
gfz2010sylk  -0.16580
gfz2010tcgh  -0.98992
gfz2010tfar  -0.88560
gfz2010tgmo  -0.35008
gfz2010tmba   0.12348
gfz2010tmne  -0.25854
gfz2010tpcj  -0.47005
gfz2010tqyo  -0.23055
gfz2010tzlz   0.42963
gfz2010tzma  -0.26250
gfz2010ugws   0.22653
gfz2010uhjy  -0.32635
gfz2010uogw   0.02942
gfz2010uyng  -0.37904
gfz2010vdcf   0.06231
gfz2010vfyu  -0.60402
gfz2010vhzx  -0.18199
gfz2010vkca  -0.14838
gfz2010vong   0.27624
gfz2010vxwv  -0.10390
gfz2010vybx  -0.34469
gfz2010wakc   0.68138
gfz2010wwhf  -0.14339
gfz2010wwnq  -0.28005
gfz2010wyuj   3.79860
gfz2010xamh  -0.27827
gfz2010xaxw   0.19222
gfz2010xhqq  -0.04367
gfz2010xkbz  -0.25516
gfz2010xkku  -0.37615
gfz2010xnbn   0.48076
gfz2010xnwf  -0.03193
gfz2010xpzq   0.09272
gfz2010xvev   0.10310
gfz2010xzte  -0.59032
gfz2010yczp  -0.27916
gfz2010yfdr   0.05624
gfz2010yilf  -0.24316
gfz2010ymih  -0.19466
gfz2010yrex   0.39561
gfz2010yspe  -0.00000
gfz2010ytzb   0.12698
gfz2010zaxv  -0.74202
gfz2010zhvj   1.34790
gfz2010zjun   0.04165
gfz2011afyc  -0.29790
gfz2011ahvh  -0.16083
gfz2011aqpp   0.04541
gfz2011bcvc  -0.65608
gfz2011biin   0.95935
gfz2011boaz   0.49428
gfz2011bpqm   0.32870
gfz2011bqbx  -0.17622
gfz2011bsvr   0.78103
gfz2011bvog   2.00890
gfz2011bwsm  -0.38207
gfz2011bygs  -0.21757
gfz2011bygu  -0.10533
gfz2011bzio  -0.52919
gfz2011caca   1.07850
gfz2011cdge  -0.12387
gfz2011cfyy  -1.52220
gfz2011chsa  -0.26857
gfz2011cjuz   0.16779
gfz2011clwu  -0.17954
gfz2011cwzi  -0.35601
gfz2011cxdj   0.05727
gfz2011dabj   0.37184
gfz2011dhfg   0.00000
gfz2011dpyu  -0.12305
gfz2011duvm   0.27985
gfz2011dwae  -0.04657
gfz2011emzr  -0.53419
gfz2011etkc   0.83157
gfz2011ffdh   0.06237
gfz2011fnie  -0.16168
gfz2011fnuk  -0.13504
gfz2011fszl  -0.26011
gfz2011fxmf  -0.11547
gfz2011fyfu  -0.31722
gfz2011fzcw  -0.47002
gfz2011gaax  -0.02117
gfz2011gfer  -0.08441
gfz2011ggnl  -3.04070
gfz2011gnbk  -0.04266
gfz2011gpyr  -0.16707
gfz2011haaa   0.07399
gfz2011hatg  -0.11192
gfz2011hibi   0.51358
gfz2011hjof   0.04970
gfz2011hmnw  -0.05313
gfz2011hqjs   0.26488
gfz2011hrgt   0.25562
gfz2011hvzo  -0.06207
gfz2011hyct   0.15488
gfz2011iamf   0.01019
gfz2011ibew   0.11443
gfz2011ifta   0.04307
gfz2011ioch  -1.55830
gfz2011iryz  -0.21151
gfz2011itcv  -0.23852
gfz2011ixpj  -0.18209
gfz2011iybf  -0.51264
gfz2011jdoz   0.19360
gfz2011jghq  -0.15678
gfz2011jphj  -0.11546
gfz2011kgvq  -0.18565
gfz2011kjzt  -0.16634
gfz2011kjzv  -1.18750
gfz2011kujo  -0.23827
gfz2011kylu   0.07230
gfz2011kymm  -2.13690
gfz2011kyzy   0.19999
gfz2011ldgl  -0.25102
gfz2011lkkf   0.83401
gfz2011lmug  -0.06633
gfz2011lwmg   0.51697
gfz2011lykm  -0.06760
gfz2011mdyq  -0.23870
gfz2011mjje   0.02856
gfz2011mllb   0.02802
gfz2011mntq   0.01988
gfz2011mror  -3.33650
gfz2011nblt  -0.08815
gfz2011ncyw  -1.69200
gfz2011ndhh  -0.35540
gfz2011ndse   0.48783
gfz2011nejg  -0.28722
gfz2011nejw  -0.66598
gfz2011nfcz   0.20183
gfz2011nftw   0.58755
gfz2011nhby   0.50116
gfz2011nhhd   0.19805
gfz2011nilw   0.01390
gfz2011niuw  -0.16336
gfz2011nkou  -0.49369
gfz2011nlnl   1.54240
gfz2011nlum  -0.23237
gfz2011nmdz  -0.28189
gfz2011nnda  -0.13979
gfz2011nnos  -1.62270
gfz2011nsej   0.32059
gfz2011nsiy   0.79592
gfz2011nsrx  -0.00844
gfz2011nssr   1.07610
gfz2011nswi  -0.02199
gfz2011nuqo  -0.14745
gfz2011oadm   0.13837
gfz2011oekz   0.32935
gfz2011ofpj  -0.34912
gfz2011omxt  -0.20273
gfz2011oosp  -0.23188
gfz2011oslk   0.31163
gfz2011osmp  -0.12956
gfz2011owqa   0.97330
gfz2011paqj  -0.10241
gfz2011pbgh   1.15760
gfz2011pbjh  -0.11465
gfz2011pdgq   0.10749
gfz2011pfls  -0.08686
gfz2011pfwq  -0.66757
gfz2011pgzk   0.07223
gfz2011pimj  -0.02270
gfz2011pivq  -0.34543
gfz2011plzc  -0.08301
gfz2011pmuv   0.29963
gfz2011poug   0.27923
gfz2011pphc   0.15729
gfz2011ppsc  -0.52356
gfz2011prrq   0.12211
gfz2011pulu  -1.06580
gfz2011pwbw  -0.42765
gfz2011qenl  -0.29824
gfz2011qgvh   0.06986
gfz2011qgvx   3.11590
gfz2011qhjw  -0.45904
gfz2011qlkj   0.07924
gfz2011qtoy   1.88480
gfz2011qukj  -0.65803
gfz2011rczb  -0.02093
gfz2011rkau  -0.04102
gfz2011rnsp   0.24127
gfz2011scma   0.16320
gfz2011sdax  -0.34195
gfz2011sdpl   0.31851
gfz2011sfph  -0.12075
gfz2011sqco   0.87981
gfz2011sskq   0.18252
gfz2011stzi  -0.18284
gfz2011sxno  -0.32907
gfz2011syvj   0.41923
gfz2011syzr   0.50106
gfz2011taqr   0.23761
gfz2011tdjj   0.53664
gfz2011tgon   2.69790
gfz2011tlwl  -0.01057
gfz2011tqgg   0.10708
gfz2011tsgl   0.50432
gfz2011tssv  -0.06285
gfz2011tvuv  -0.35263
gfz2011uowi   0.00000
gfz2011uqlz  -0.31389
gfz2011uqry  -0.84788
gfz2011vahy  -0.03920
gfz2011vcyx   1.72780
gfz2011vemg   2.07640
gfz2011vimn   0.07168
gfz2011vsag  -1.35950
gfz2011vswj  -0.16530
gfz2011vtzv   0.52720
gfz2011wbtc   0.06472
gfz2011wcvs  -1.48820
gfz2011wkja   0.01606
gfz2011wkyx   1.58200
gfz2011wngi  -0.00458
gfz2011wpzt   0.13054
gfz2011wqup  -0.04519
gfz2011wtfn  -0.01809
gfz2011wucg   0.12368
gfz2011wwze   0.27157
gfz2011wyei  -1.31940
gfz2011wzss   0.01752
gfz2011xdox   0.81703
gfz2011xgbc  -0.28189
gfz2011xgwy  -0.38748
gfz2011xkka  -0.05166
gfz2011xlod   0.38557
gfz2011xnui  -0.02962
gfz2011xpcq   0.03946
gfz2011xxng   0.29247
gfz2011yexx   0.45014
gfz2011ypfh   0.05531
gfz2011ytob  -0.14535
gfz2011zghc   0.67824
gfz2011zgxn   0.24526
gfz2011zkbt   0.14993
gfz2012adja   0.10523
gfz2012ahac   0.07059
gfz2012alti   0.45990
gfz2012amjx   0.10096
gfz2012amvs   0.03090
gfz2012aqpa   0.48030
gfz2012arlo   0.01992
gfz2012asld   0.38584
gfz2012atjr   0.35500
gfz2012bcvn   0.03165
gfz2012beae  -0.02638
gfz2012bity   0.07221
gfz2012bolx   1.01990
gfz2012bovy   0.00203
gfz2012bqcf   0.05777
gfz2012byrq   1.68130
gfz2012cdju   0.26964
gfz2012cksh  -0.07756
gfz2012cmww   0.08598
gfz2012cntu  -0.09866
gfz2012cvfr   0.01854
gfz2012cwhl   2.67560
gfz2012cxhw  -0.59512
gfz2012dcjd   0.06845
gfz2012dejg  -0.16138
gfz2012dleg   2.33020
gfz2012dnig  -0.01117
gfz2012dpnu  -0.33153
gfz2012dpwv   0.28524
gfz2012drqd   1.34930
gfz2012dsei   0.38188
gfz2012dtlu   0.27350
gfz2012dttl  -0.25036
gfz2012dwwu   0.24980
gfz2012dyck   0.27717
gfz2012dysu   0.86371
gfz2012dzjo   0.74050
gfz2012dzot  -0.46167
gfz2012ebrr  -0.20564
gfz2012eeft   0.15488
gfz2012enio   0.25477
gfz2012erds  -0.24577
gfz2012evav   0.01100
gfz2012fbgz   0.58258
gfz2012fhaf   0.84472
gfz2012flqf   0.21399
gfz2012foih  -0.70117
gfz2012fuyd   1.57400
gfz2012fyny  -0.36929
gfz2012gbrs   0.56503
gfz2012gdye   0.09848
gfz2012ghiv  -0.28304
gfz2012gjdg  -0.50464
gfz2012gjtd   0.66345
gfz2012gnow  -0.16916
gfz2012gpcd   0.05530
gfz2012grmf   0.31447
gfz2012heih   0.06010
gfz2012hmcv   0.12600
gfz2012hvfw   0.01959
gfz2012hvtu   0.64904
gfz2012hzhn  -0.06960
gfz2012ibyd   0.06418
gfz2012icjo   0.38020
gfz2012iijk  -0.31512
gfz2012ipdc   0.10602
gfz2012iphs  -0.16011
gfz2012izke   0.19986
gfz2012jlez  -0.09918
gfz2012kbub  -1.46850
gfz2012klpl  -0.21472
gfz2012kmbo   0.08447
gfz2012kmmz  -0.00936
gfz2012kstg  -0.13568
gfz2012ldjj   0.18225
gfz2012lngq   0.08310
gfz2012lqhw  -0.40023
gfz2012luzm  -0.22450
gfz2012lvlr  -0.01606
gfz2012lwha   0.09730
gfz2012lyyr  -0.06554
gfz2012mdzf  -0.35332
gfz2012mjuu  -0.68572
gfz2012mmiw   0.07888
gfz2012mowv  -0.13444
gfz2012mpzo   0.15058
gfz2012mrqk   1.03740
gfz2012mrwu   0.15396
gfz2012mtyn  -0.37311
gfz2012mvgu   0.30680
gfz2012mwhe   0.29468
gfz2012mxdk   0.01989
gfz2012mzqx   0.12803
gfz2012ndwt  -0.00386
gfz2012nfos   0.53556
gfz2012nldz   2.36470
gfz2012nnqu   0.10152
gfz2012nnsl  -1.15610
gfz2012nqvd  -0.43134
gfz2012nsxc  -0.20673
gfz2012oafg  -0.00139
gfz2012oehy   0.09971
gfz2012ofnx   0.85022
gfz2012onhu   1.01700
gfz2012oork   0.05849
gfz2012oozp  -0.38511
gfz2012pdav   0.40297
gfz2012phns  -0.32842
gfz2012pira   0.09332
gfz2012pmuj   0.22809
gfz2012ppcq  -0.09776
gfz2012prke  -0.28337
gfz2012pryl   0.08827
gfz2012pvve   0.10225
gfz2012qbbt  -0.54179
gfz2012qfah   0.80911
gfz2012qhqp   1.22280
gfz2012qibe   0.33782
gfz2012qmhz  -0.55331
gfz2012rduv   1.78670
gfz2012roan  -0.22301
gfz2012rzwp  -0.29949
gfz2012sgfd  -0.20067
gfz2012sjox   0.16241
gfz2012smyn  -0.74509
gfz2012socz  -0.05256
gfz2012sopp   0.63345
gfz2012sqsc  -0.17402
gfz2012ssnb  -2.14990
gfz2012suqd  -0.34086
gfz2012svwz   0.09883
gfz2012swbz   0.13610
gfz2012sxbo   1.27530
gfz2012sxzs   0.03635
gfz2012syum  -0.01481
gfz2012taph   0.38884
gfz2012tisj  -0.28516
gfz2012touh   0.51581
gfz2012trss   0.10142
gfz2012ttnf   0.09459
gfz2012tvgw  -0.54174
gfz2012twec  -0.03139
gfz2012tyoz  -0.78414
gfz2012uhsx   0.15985
gfz2012uhtc  -0.06389
gfz2012ulei   0.16297
gfz2012umob   0.13793
gfz2012uvoa   0.06595
gfz2012uzww  -0.13369
gfz2012vcqw  -0.27549
gfz2012vitw   0.10947
gfz2012vkjw  -0.44443
gfz2012vlzv  -0.50014
gfz2012vnve   0.44231
gfz2012vqmq   0.16461
gfz2012vrqz   0.24062
gfz2012wgdv  -0.20118
gfz2012wgmg  -0.31711
gfz2012wkki   0.48510
gfz2012wowu  -0.22456
gfz2012woxj  -0.09850
gfz2012wpen   0.05428
gfz2012wugc  -0.23110
gfz2012wysg   0.27188
gfz2012xask   0.17003
gfz2012xbna   0.58632
gfz2012xcsf   0.47495
gfz2012xfsl  -0.04501
gfz2012xkln   0.11068
gfz2012xlas  -1.08240
gfz2012xlfo  -0.34992
gfz2012xncm   0.41422
gfz2013ddrx   1.10070
gfz2013delq   0.12091
gfz2013dksc  -0.19161
gfz2013dmzh  -0.22396
gfz2013dngd  -1.12270
gfz2013dnot   0.01350
gfz2013dzvr  -0.02124
gfz2013eavq   0.46812
gfz2013eazm   0.20815
gfz2013efct   0.27682
gfz2013eidd  -0.07211
gfz2013enqo  -0.11937
gfz2013fhzy   0.14372
gfz2013fmcd   0.48836
gfz2013fndg   0.23873
gfz2013fnpa   0.48040
gfz2013fskp   0.24324
gfz2013fthi  -0.41938
gfz2013fulo   0.27464
gfz2013fvht  -0.15367
gfz2013fvyr  -0.25785
gfz2013fxyr  -0.44002
gfz2013fybd  -0.31205
gfz2013gkyn   0.40387
gfz2013glpz  -0.40594
gfz2013gugi   0.33934
gfz2013gurk   0.12284
gfz2013gxye   0.07355
gfz2013gyce   0.29605
gfz2013gywl   0.67010
gfz2013hbmi   0.62595
gfz2013hbtm   0.08772
gfz2013hduf   0.40790
gfz2013hiam   0.59951
gfz2013hinw   0.67323
gfz2013hqaa  -0.17489
gfz2013hvkg  -0.73994
gfz2013hvzv   0.11862
gfz2013hwps   1.02600
gfz2013icgx  -0.01640
gfz2013icql  -0.00000
gfz2013ikic   0.56117
gfz2013irme  -0.00619
gfz2013iuyv   0.79263
gfz2013ivvw  -0.36956
gfz2013iwzn  -0.71729
gfz2013jfcn   0.35296
gfz2013jhog   0.20792
gfz2013jobl  -0.02727
gfz2013jrqf  -0.09791
gfz2013jzcf   0.43270
gfz2013jzfz   0.28869
gfz2013kats   0.48655
gfz2013kbbg  -0.05330
gfz2013kbbn   0.73501
gfz2013kcdb   1.35300
gfz2013kdfy  -0.07520
gfz2013kqab  -0.16591
gfz2013ksaz   0.18549
gfz2013kslp   0.26365
gfz2013kxlr  -0.01209
gfz2013lbod  -0.11104
gfz2013lbvl   0.21105
gfz2013ljdu   0.07866
gfz2013ljwt   0.00043
gfz2013lqjj   0.01637
gfz2013lvxe  -0.00000
gfz2013mdxj   0.27059
gfz2013mynb  -0.06573
gfz2013mzaw   0.24639
gfz2013nnai   0.50266
gfz2013ntiu  -1.26690
gfz2013obof  -0.11105
gfz2013oeni   0.30136
gfz2013ohnj  -0.16856
gfz2013oizq   0.39810
gfz2013ojza  -0.01472
gfz2013okac  -0.07613
gfz2013okxa   0.05379
gfz2013olos   0.40346
gfz2013orot  -0.26991
gfz2013oruq  -0.12653
gfz2013otuj   0.10170
gfz2013oywh  -0.16851
gfz2013phhi  -0.73571
gfz2013pkmz  -0.28958
gfz2013pqkp   0.37837
gfz2013pzdr  -0.60903
gfz2013qaex   0.46003
gfz2013qapj  -0.27732
gfz2013qdks   0.46332
gfz2013qdno   0.01276
gfz2013qdpv   0.23787
gfz2013qear   0.28797
gfz2013qigb   0.31882
gfz2013qnqr   0.21666
gfz2013qoak   1.03940
gfz2013qogb   0.34001
gfz2013quwz  -0.10972
gfz2013quyn   0.39890
gfz2013qxof  -0.29382
gfz2013rdmn  -0.99958
gfz2013rfik   0.00000
gfz2013rhbx   0.13473
gfz2013rnsa   0.30736
gfz2013rocs  -0.15620
gfz2013rtvy  -0.24574
gfz2013rwkj  -0.27424
gfz2013rwog  -0.23104
gfz2013ryfc   0.22883
gfz2013ryph  -0.52327
gfz2013sbsl   0.02733
gfz2013sdkg   0.10226
gfz2013skay  -0.06714
gfz2013skvq   0.06293
gfz2013stou  -0.01602
gfz2013swnj  -0.20601
gfz2013syqp   0.12920
gfz2013taeb  -0.14219
gfz2013tcju  -0.07244
gfz2013tekq   0.05712
gfz2013tert   0.43792
gfz2013tgia   0.13133
gfz2013tgyb   0.18190
gfz2013timw  -0.00000
gfz2013tkcg   0.33183
gfz2013tmnf  -0.10998
gfz2013tnrp   0.14021
gfz2013trsq   0.14371
gfz2013ttmk  -0.12483
gfz2013twbc   0.13215
gfz2013uafv  -0.09776
gfz2013ubgt   0.78551
gfz2013udtw   0.32441
gfz2013uenl   1.43940
gfz2013uepl  -0.07481
gfz2013uhio   0.75357
gfz2013unuv   0.36099
gfz2013upqj  -1.17090
gfz2013utqa   0.34270
gfz2013uwjo  -0.24145
gfz2013uxzw  -0.57738
gfz2013uzmf  -0.03649
gfz2013vdam   0.10850
gfz2013veoz   0.75469
gfz2013veug  -0.18090
gfz2013vfix   0.02330
gfz2013vjrr  -0.45275
gfz2013vldx  -0.24892
gfz2013vmrv   0.22161
gfz2013vmsg  -0.11438
gfz2013vnwa   0.92236
gfz2013voai  -0.13783
gfz2013vojy   0.20782
gfz2013vsdd  -0.15959
gfz2013vvre  -0.94088
gfz2013vwkh  -0.17126
gfz2013vxht   0.67256
gfz2013wgwz   0.61875
gfz2013wpns  -0.03969
gfz2013wyfl  -0.36513
gfz2013xahp   0.11120
gfz2013xbdc  -0.49140
gfz2013xodn   0.07196
gfz2013xofz   0.12244
gfz2013xswc  -0.38887
gfz2013xupg   0.40165
gfz2013xuxr   0.36183
gfz2013xvps   0.45759
gfz2013xxbf  -0.11734
gfz2013xycz   0.15911
gfz2013xzxe   0.48614
gfz2013ygsj  -1.79930
gfz2013yihv  -0.16043
gfz2013ykkf   0.04782
gfz2013ykqw   2.24160
gfz2013yktj   0.00000
gfz2013ylxm   0.25995
gfz2013ylxn   0.14139
gfz2013ymhx   0.20062
gfz2013yodm   0.00076
gfz2013yqkz   0.14695
gfz2013yqtu  -0.49042
gfz2013yvnj  -0.18322
gfz2013yxhf  -0.22414
gfz2013yxif  -0.23627
gfz2013zeye  -0.31510
gfz2013zfbz   0.19758
gfz2013zghn  -0.02858
gfz2013zkta   0.52372
gfz2013zkzb   0.15664
gfz2013zlak   0.10615
gfz2013zlij   0.29982
gfz2013zpwk   0.11962
gfz2013zqan   0.02642
gfz2014aaae  -0.83934
gfz2014aapq   0.05246
gfz2014aedl   0.15096
gfz2014aejh   0.12458
gfz2014ajgi  -0.14043
gfz2014amgk  -0.38726
gfz2014aqop   0.21325
gfz2014ascp   0.08351
gfz2014ateb  -0.36714
gfz2014avmd  -0.00000
gfz2014bkra   1.89870
gfz2014bmdf   0.30671
gfz2014bnea   0.06675
gfz2014bqpm   0.34990
gfz2014buyz   0.05026
gfz2014byes  -0.35982
gfz2014bzus   0.21652
gfz2014cgoi   0.18136
gfz2014cjao   0.17148
gfz2014ckqv  -0.30785
gfz2014cokw   0.54733
gfz2014crac   0.16439
gfz2014ctdl   0.24197
gfz2014cvnb  -0.00886
gfz2014cwti   1.10080
gfz2014dykt   0.47171
gfz2014edjm  -0.10846
gfz2014eiav   1.15900
gfz2014eirs   0.07291
gfz2014emlw   0.86045
gfz2014eoay  -0.02941
gfz2014epfm  -0.43292
gfz2014epue   0.35517
gfz2014esez  -0.08378
gfz2014etgp   0.00000
gfz2014etqu  -0.17263
gfz2014eunw  -0.48485
gfz2014evgu  -0.06305
gfz2014exxj  -0.36586
gfz2014ezjq   0.10293
gfz2014faex  -0.27383
gfz2014fbef   0.32997
gfz2014fbli   0.05076
gfz2014fbnr  -0.30519
gfz2014fhki  -0.11918
gfz2014fjfz  -0.14675
gfz2014flxk  -0.05920
gfz2014fqas   0.07739
gfz2014fsir   0.18387
gfz2014fsje   0.08776
gfz2014fskh  -0.01892
gfz2014fvza  -0.08761
gfz2014fwuf   0.21479
gfz2014fwxt   0.00043
gfz2014fxte  -0.43889
gfz2014fxtv  -0.35572
gfz2014fxuy  -0.49486
gfz2014gasb   0.52837
gfz2014gbxg  -0.71458
gfz2014gcia   0.31488
gfz2014geln  -0.05388
gfz2014ginr  -0.04267
gfz2014gnbw   0.05305
gfz2014gnvp  -0.06602
gfz2014grwv  -0.24477
gfz2014gsfc   0.15331
gfz2014gssz   0.06768
gfz2014gtee   0.02644
gfz2014gtoj   0.32599
gfz2014gypw   0.33947
gfz2014hapg   0.15958
gfz2014happ   0.46327
gfz2014herz  -0.08419
gfz2014hhey  -0.14452
gfz2014hhis  -0.19509
gfz2014hjmc   0.13934
gfz2014hkcw   0.07374
gfz2014hotu  -0.44791
gfz2014hqhv   0.07405
gfz2014huqh   0.02652
gfz2014hyea  -0.30083
gfz2014hzzf   0.23383
gfz2014iayo   0.10454
gfz2014icov  -0.59771
gfz2014igrp  -0.01879
gfz2014ijov   0.05500
gfz2014ijsa  -0.32807
gfz2014iltl   0.04384
gfz2014ined  -1.87870
gfz2014inrg  -0.96695
gfz2014iolv  -0.36858
gfz2014ipfu   0.13885
gfz2014ipwk   0.43207
gfz2014irlf   0.91587
gfz2014irln   0.99631
gfz2014isjg   0.14910
gfz2014itlx   0.99347
gfz2014iusw   0.11623
gfz2014ivgm  -0.10197
gfz2014ixlc   0.13041
gfz2014iyuc   0.04170
gfz2014jarg   0.28294
gfz2014jaxy  -0.62094
gfz2014jayh   0.26181
gfz2014jbfp  -0.15989
gfz2014jbgm   0.63410
gfz2014jcbj   0.21516
gfz2014jfmc  -1.28900
