# Nsamples: 857  MAD:  0.507  mean:  0.034  std:  0.909
gfz2010cyid  -0.71642
gfz2010dask  -0.08016
gfz2010djib  -0.39243
gfz2010dmij   0.01361
gfz2010drit  -0.40722
gfz2010drml  -1.14810
gfz2010drmq  -1.14810
gfz2010drng   0.11256
gfz2010drpv  -0.18706
gfz2010drun  -0.36412
gfz2010dslu  -0.29953
gfz2010dtgc   0.07044
gfz2010dumv   0.46441
gfz2010dwgy   0.00753
gfz2010dxhq   0.48300
gfz2010eibh  -1.32700
gfz2010ekvl   0.42447
gfz2010elge  -3.15600
gfz2010ethu  -0.72977
gfz2010euue   0.31551
gfz2010ewyj   0.63807
gfz2010extu  -0.43725
gfz2010fgbo  -0.51018
gfz2010fjio   0.45405
gfz2010fjme  -7.94840
gfz2010fkff   0.46339
gfz2010fkpa  -1.04680
gfz2010fqnn  -0.25415
gfz2010fqzh  -0.60548
gfz2010ftfq  -0.95600
gfz2010fuky   0.23092
gfz2010gnvp   3.45830
gfz2010gonu  -0.52805
gfz2010guwa  -0.49265
gfz2010habf  -0.00000
gfz2010hdxn   0.15986
gfz2010hesh   0.28508
gfz2010hllp   0.12688
gfz2010hsgv   0.57525
gfz2010hxan   0.52930
gfz2010iaay   0.73602
gfz2010iawy   0.22620
gfz2010ioad   0.40685
gfz2010izag  -0.67896
gfz2010jlvp   0.22241
gfz2010juke   0.26287
gfz2010kcyz   0.14537
gfz2010kwks  -0.34488
gfz2010ljmp  -0.72237
gfz2010mdti  -0.22424
gfz2010mguv   0.63387
gfz2010mjdl  -0.42311
gfz2010mqzz   0.20159
gfz2010ncwu  -0.02122
gfz2010ngge  -0.51770
gfz2010nkrw   2.50370
gfz2010novb  -0.02204
gfz2010nwyk  -1.29720
gfz2010oguu   0.01789
gfz2010oibn   1.39710
gfz2010ojhe   2.25450
gfz2010okpc  -4.01030
gfz2010ouvm   0.37544
gfz2010pclq  -0.47491
gfz2010pcya  -0.21747
gfz2010pgpo   0.02684
gfz2010prnw   0.12407
gfz2010pvnn  -0.10805
gfz2010pzza   0.08843
gfz2010qbcy  -0.21379
gfz2010qdqk   1.16800
gfz2010qloa   0.06459
gfz2010qqqx   0.87900
gfz2010qrta  -0.07764
gfz2010qykh   0.97933
gfz2010qzvf  -0.90057
gfz2010rdip   0.12345
gfz2010rkuu  -0.63955
gfz2010rljv  -0.19312
gfz2010rnwt  -0.53846
gfz2010rpbz   3.31080
gfz2010rpjd  -2.25810
gfz2010schp  -0.34105
gfz2010sdfs   0.89623
gfz2010shvn   0.04838
gfz2010sylk   0.21766
gfz2010tcgh   0.04935
gfz2010tfar   1.53190
gfz2010tmba  -0.30083
gfz2010tmne   0.05281
gfz2010tpcj  -0.29778
gfz2010tqyo   0.19074
gfz2010tzma  -0.57647
gfz2010ugws   0.06646
gfz2010uhjy  -0.95750
gfz2010ujqn   0.08380
gfz2010uogw  -1.76890
gfz2010upod   0.01965
gfz2010vgfu   0.13617
gfz2010vhzx  -0.20399
gfz2010vong  -0.24418
gfz2010vybx  -0.18586
gfz2010wakc   0.20589
gfz2010wwhf   0.28424
gfz2010wwnq  -0.20500
gfz2010wyuj   0.94849
gfz2010xamh  -0.16520
gfz2010xaxw   0.64773
gfz2010xhqq  -0.57383
gfz2010xjsv  -0.67424
gfz2010xnbn  -0.83212
gfz2010xpzq  -0.31111
gfz2010xvev   0.23356
gfz2010xzah   2.72650
gfz2010xzte   1.48740
gfz2010yczp   0.74887
gfz2010yfdr  -0.43734
gfz2010ygrd   0.78662
gfz2010yhhj  -0.67859
gfz2010yilf  -1.59920
gfz2010ymih   0.16765
gfz2010yrex   0.06195
gfz2010yspe  -0.39228
gfz2010ytzb  -0.36947
gfz2010zhvj  -0.25031
gfz2010zjun  -0.45871
gfz2011ahvh  -0.50332
gfz2011ameb   0.21075
gfz2011amst   0.11220
gfz2011aqpp   0.04588
gfz2011awsv   1.07200
gfz2011bffb  -0.11358
gfz2011biin   0.21415
gfz2011bpqm   0.22800
gfz2011bqbx  -0.14802
gfz2011bsvr   0.38391
gfz2011bvog   0.78862
gfz2011bwsm  -0.57312
gfz2011bygs  -0.37188
gfz2011bygu  -0.37856
gfz2011bzio  -0.33722
gfz2011caca  -0.15457
gfz2011cdge  -0.90005
gfz2011cfyy   0.00288
gfz2011chsa  -0.20758
gfz2011cjuz  -0.02321
gfz2011cwhx   2.24700
gfz2011cwsm   0.50695
gfz2011cwzi  -0.49642
gfz2011cxdj   0.21307
gfz2011dabj   0.29391
gfz2011dhfg  -0.24892
gfz2011dhqk   1.41630
gfz2011dpyu   0.43883
gfz2011drmu   0.83272
gfz2011duvm   0.19926
gfz2011dwae  -0.30680
gfz2011dzmf   0.19904
gfz2011etkc   0.25139
gfz2011fges  -0.67704
gfz2011fnie   0.07130
gfz2011fnuk  -0.77254
gfz2011fnxz  -0.46681
gfz2011fxmf   1.05820
gfz2011fyfu   3.90440
gfz2011fzcw  -1.91840
gfz2011gaax  -0.42555
gfz2011gdrl  -0.10506
gfz2011gfer   0.76296
gfz2011ggnl  -2.04310
gfz2011ggsz  -0.11176
gfz2011glpg   0.44732
gfz2011gnbk  -0.51328
gfz2011gpyr  -0.61390
gfz2011haaa  -0.47062
gfz2011hatg  -0.00000
gfz2011hbqc  -2.28740
gfz2011hffq  -1.61800
gfz2011hibi  -0.49146
gfz2011hjof  -0.35407
gfz2011hmnw   0.07181
gfz2011hqjs  -0.65677
gfz2011hrgt   0.78709
gfz2011ioch   1.78450
gfz2011iryz   0.04009
gfz2011itcv   0.32118
gfz2011ituo  -0.10852
gfz2011ixpj   1.68960
gfz2011jdoz  -0.40774
gfz2011jghq   0.08064
gfz2011jphj  -1.12670
gfz2011jryv  -0.33238
gfz2011jtij   1.07410
gfz2011kfch  -0.40563
gfz2011kjzt  -0.43645
gfz2011kjzv  -0.33685
gfz2011kmge   0.18661
gfz2011kujo  -0.64604
gfz2011kylu   0.05431
gfz2011kymm   0.17127
gfz2011kyzy  -0.37233
gfz2011lkkf   0.54677
gfz2011lmug  -0.41136
gfz2011lrpv  -0.52217
gfz2011lwmg   0.32051
gfz2011lykm   1.84860
gfz2011mdyq  -0.12519
gfz2011melb  -0.54827
gfz2011mjje   0.15093
gfz2011mror   1.15280
gfz2011mrpy   1.73340
gfz2011mzvn   0.66783
gfz2011nblt  -0.67673
gfz2011ncyw   1.72800
gfz2011ndhh  -0.43313
gfz2011ndki   2.01150
gfz2011ndlh  -0.29686
gfz2011neai  -0.56405
gfz2011nejg   0.42965
gfz2011nejw   0.44813
gfz2011nerb   0.92053
gfz2011nfcz  -0.30721
gfz2011nftw  -0.20863
gfz2011nhby  -0.10427
gfz2011nhvt   0.86708
gfz2011nifi  -0.16393
gfz2011nihq   0.90632
gfz2011nijp   0.40087
gfz2011nilw   0.13933
gfz2011nimp   0.90198
gfz2011nioi   0.06210
gfz2011nisj  -0.69810
gfz2011niuw   0.45365
gfz2011nivw   0.03519
gfz2011nlmf   0.90009
gfz2011nlnl  -0.58890
gfz2011nlou   1.25000
gfz2011nlum  -0.19908
gfz2011nnos  -0.79172
gfz2011nsej   0.63154
gfz2011nsiy  -0.15118
gfz2011nsrx  -0.13306
gfz2011nsyi   0.45297
gfz2011nuqo  -0.22038
gfz2011oadm  -0.05813
gfz2011oazk  -0.04463
gfz2011ocif   0.41745
gfz2011ofpj  -0.18564
gfz2011ohgj   0.16904
gfz2011okza   0.46690
gfz2011omxt   0.25483
gfz2011oqjl  -1.62650
gfz2011oslk   0.27185
gfz2011osmp  -0.06760
gfz2011osuy   0.33980
gfz2011owqa   1.60050
gfz2011paqj   0.90623
gfz2011pbjh   1.97950
gfz2011pdgq   4.28340
gfz2011pdsn   0.19898
gfz2011pfls  -0.23783
gfz2011pfwq  -0.37813
gfz2011pivq   0.26096
gfz2011plzc  -0.30371
gfz2011pmuv   0.07234
gfz2011poug  -0.24815
gfz2011ppsc  -0.45663
gfz2011prrq   0.32574
gfz2011ptgd   3.71200
gfz2011pulu  -0.87992
gfz2011pwbw   0.03839
gfz2011pwld   0.13452
gfz2011qenl  -0.65812
gfz2011qgea   0.04739
gfz2011qgvx   0.90474
gfz2011qklh   0.76233
gfz2011qlkj  -0.44770
gfz2011qtoy   2.32990
gfz2011qukj  -0.69287
gfz2011rbuo  -0.45773
gfz2011rczb  -0.08153
gfz2011rkau   0.66652
gfz2011rkzx   0.19111
gfz2011rnny  -0.19716
gfz2011rnsp  -0.33754
gfz2011rpoo   1.18070
gfz2011scma  -0.08215
gfz2011sdax  -0.02499
gfz2011sfph   0.45890
gfz2011sqco  -0.76767
gfz2011sskq   2.64590
gfz2011stzi  -0.11143
gfz2011sxno   0.04292
gfz2011sylg  -0.07237
gfz2011syvj  -0.29903
gfz2011syzr   0.01141
gfz2011taqr   0.15591
gfz2011tarj  -2.37710
gfz2011tgon  -0.50066
gfz2011tjpv  -0.26230
gfz2011tlwl  -1.80940
gfz2011tozo   0.68173
gfz2011tqgg  -0.28919
gfz2011tsgl   0.38832
gfz2011tssv  -0.17188
gfz2011twpz   0.95175
gfz2011txdb   0.15337
gfz2011txxs   1.08520
gfz2011tzcv   1.27060
gfz2011uqlz  -1.36690
gfz2011uqry  -0.02032
gfz2011urwz  -1.04010
gfz2011uvsi  -1.01500
gfz2011vahy  -0.21658
gfz2011varl  -0.00024
gfz2011vbxv  -0.53806
gfz2011vcyx  -1.06720
gfz2011vimn  -0.24181
gfz2011vsag   0.32057
gfz2011vtdl   1.28290
gfz2011vxek  -0.02359
gfz2011wbtc  -0.14218
gfz2011wcvs  -2.08250
gfz2011wfsk   0.37023
gfz2011wgoa   0.21814
gfz2011wkja  -0.48414
gfz2011wngi  -0.93230
gfz2011wnjg   4.01800
gfz2011wpzt  -0.21121
gfz2011wqup  -0.43231
gfz2011wtfn   0.61676
gfz2011wucg  -0.10665
gfz2011wwze  -0.38696
gfz2011wyei  -0.57523
gfz2011wzss  -0.16826
gfz2011xagc   0.49080
gfz2011xgwy  -0.40627
gfz2011xkka  -0.35698
gfz2011xlod   0.12768
gfz2011xnui  -0.56991
gfz2011xpcq  -0.68110
gfz2011xxng   1.07360
gfz2011yeck  -0.02102
gfz2011yexx   0.23910
gfz2011yjtx   0.36177
gfz2011yntu  -0.29405
gfz2011yrfa  -0.04469
gfz2011ytob  -0.35931
gfz2011ywtj  -2.89380
gfz2011zghc  -0.10459
gfz2011zkbt   0.01019
gfz2012adja  -0.34430
gfz2012ahac  -0.12234
gfz2012alti  -0.36230
gfz2012amjx   0.32196
gfz2012amvs  -0.31437
gfz2012aqpa   0.89441
gfz2012bity  -0.62652
gfz2012bjhl   0.08264
gfz2012bolx   0.27373
gfz2012bovy  -0.34914
gfz2012bqcf   0.51388
gfz2012byrq  -0.68743
gfz2012bysu   0.14851
gfz2012bytv   1.38560
gfz2012byuk  -0.08234
gfz2012cdju   0.06984
gfz2012cfdw  -0.74251
gfz2012cmww  -0.01329
gfz2012cntu  -0.28663
gfz2012crpb  -0.60519
gfz2012cvfr  -0.33351
gfz2012cwhl  -0.60551
gfz2012cxhw  -0.37220
gfz2012dcjd  -0.26215
gfz2012dgfk   0.63168
gfz2012dkdy   0.75111
gfz2012dleg   1.43310
gfz2012dnig  -0.06371
gfz2012dpnu  -0.55924
gfz2012drak   1.14730
gfz2012drqd   2.40420
gfz2012dtlu   0.22229
gfz2012dttl  -0.29329
gfz2012duwm   0.46619
gfz2012dwwu  -0.32002
gfz2012dyfw   0.68359
gfz2012dysj  -0.19376
gfz2012dysu   0.38609
gfz2012dyua  -0.64126
gfz2012dzat  -1.07900
gfz2012dzen  -0.27410
gfz2012dzjo   0.74609
gfz2012dzoh   0.37837
gfz2012dzot  -0.18979
gfz2012dzul   0.08910
gfz2012dzva   0.13735
gfz2012eajr  -1.19560
gfz2012eary  -0.99869
gfz2012ebgo   0.10271
gfz2012ebhf  -0.33088
gfz2012ebrr  -0.07901
gfz2012ekfp  -1.39120
gfz2012elek  -0.55773
gfz2012erds  -0.24997
gfz2012evxn   0.15176
gfz2012eyti   0.19965
gfz2012fcyq  -0.21219
gfz2012fcyr  -0.23262
gfz2012foih  -2.09510
gfz2012fpyo  -0.13483
gfz2012ftks  -0.06599
gfz2012fyny  -0.32199
gfz2012fyop   0.40298
gfz2012gdye  -0.20183
gfz2012ghiv   0.17707
gfz2012gjdg  -0.53749
gfz2012gnow  -0.49711
gfz2012gpcd  -0.00177
gfz2012gvxc   0.31241
gfz2012gzuk   0.37842
gfz2012hlya  -0.80810
gfz2012hmcv   0.07868
gfz2012hvtu   0.11015
gfz2012hwph   1.12270
gfz2012hyqh  -0.62416
gfz2012hysb   2.68080
gfz2012hzhn   0.70774
gfz2012hzur   0.38408
gfz2012iabn   0.78752
gfz2012iblo  -0.11137
gfz2012ibyd   0.63616
gfz2012icjo   0.29261
gfz2012iedy  -0.04535
gfz2012iijk  -0.23473
gfz2012iroy   0.06115
gfz2012ivyg  -0.33566
gfz2012iyhs   0.37419
gfz2012iyoi  -0.57297
gfz2012izke   3.42740
gfz2012jaun   0.00056
gfz2012jodg   0.33797
gfz2012jqxx   1.14340
gfz2012kbub   2.27190
gfz2012klpl   0.00666
gfz2012kmbo   0.55893
gfz2012kmmz  -0.45844
gfz2012kqjb   0.10332
gfz2012kstg  -0.22203
gfz2012kwmx  -0.15843
gfz2012kyhj  -1.65080
gfz2012ldjj  -0.41940
gfz2012lngq   1.25700
gfz2012lqhw   0.12870
gfz2012lyyr   0.42727
gfz2012mcrb  -0.14930
gfz2012mdzf  -0.47814
gfz2012mjuu   0.29684
gfz2012mmiw   0.80090
gfz2012mowv  -0.17901
gfz2012mrqk   0.01355
gfz2012mrwu  -0.04312
gfz2012mtyn  -0.95222
gfz2012mwhe  -0.01779
gfz2012ndwt   0.76529
gfz2012nldz   1.32910
gfz2012nlrb   0.96855
gfz2012nmja   0.48723
gfz2012nnqu   0.42852
gfz2012nqvd   2.39100
gfz2012oafg  -0.20938
gfz2012oehy   0.02343
gfz2012ofaj   0.20888
gfz2012ofnx   0.39311
gfz2012onhu   2.05290
gfz2012oork  -0.73050
gfz2012oyja  -0.23104
gfz2012pdav  -0.63885
gfz2012pdfi   3.99800
gfz2012pekf   0.51008
gfz2012phns   0.03565
gfz2012pira  -0.11248
gfz2012pmuj  -0.44315
gfz2012pokk  -0.10194
gfz2012qbbt  -0.00000
gfz2012qfah   0.33190
gfz2012qfov  -0.01779
gfz2012qllj  -0.97512
gfz2012rfhw  -0.52706
gfz2012roan   0.12080
gfz2012rzwp   1.57060
gfz2012sgfd  -0.12866
gfz2012sjdy   0.32257
gfz2012smyn  -0.37459
gfz2012socz  -0.27458
gfz2012sopp  -0.02934
gfz2012sqsc  -0.34389
gfz2012ssnb  -2.02970
gfz2012ssvn  -0.49382
gfz2012suqd  -0.17879
gfz2012svwz   0.32625
gfz2012swbz  -0.06583
gfz2012sxbo  -0.87548
gfz2012sxzs  -0.24598
gfz2012syum   0.11944
gfz2012tgta  -0.15229
gfz2012thyh  -0.42661
gfz2012tisj   0.33103
gfz2012tqjc   0.26301
gfz2012ttnf  -0.05634
gfz2012twec  -0.45659
gfz2012tyoz  -0.38703
gfz2012uegq   0.52006
gfz2012uhtc  -0.02094
gfz2012ulei  -0.12716
gfz2012umob  -0.06521
gfz2012unxc   0.00000
gfz2012urtu  -0.38509
gfz2012uvea   0.05121
gfz2012uvoa  -0.02850
gfz2012uzww  -0.35917
gfz2012vaqd   3.90550
gfz2012vcqw  -0.23400
gfz2012vgot  -0.04109
gfz2012vioy   0.09743
gfz2012vitw  -0.38823
gfz2012vlzv   0.05883
gfz2012vnve   0.13559
gfz2012vqmq   0.89655
gfz2012vrqz   1.72590
gfz2012vurc   0.17736
gfz2012wgdv  -0.45604
gfz2012wgmg  -0.38552
gfz2012wgxf   0.11509
gfz2012wkki  -0.06953
gfz2012wmas   0.30960
gfz2012wowu  -1.30320
gfz2012woxj   0.38750
gfz2012wpen   0.10192
gfz2012wqfz  -1.74350
gfz2012wysg  -0.25002
gfz2012xask   0.47884
gfz2012xbna   0.55581
gfz2012xcsf   0.76267
gfz2012xfnu  -0.32620
gfz2012xfsl  -0.18307
gfz2012xkln   0.16819
gfz2012xlas   0.27020
gfz2012xncm  -0.22331
gfz2012xrmq   0.44520
gfz2012xtvu   0.10194
gfz2012xwgb   0.48576
gfz2012xxdj  -0.08242
gfz2012yegw   1.28780
gfz2012yihn  -0.59274
gfz2012yncm  -1.53030
gfz2012zhyz   0.00036
gfz2012zido  -0.14930
gfz2012zkhu  -0.26434
gfz2012zktj   5.27300
gfz2012zmdf   1.65620
gfz2012znou   0.46979
gfz2013aclz   3.37130
gfz2013agbm   0.84624
gfz2013aggr   0.61421
gfz2013akkd  -0.49750
gfz2013atak  -0.17955
gfz2013aymi  -0.09315
gfz2013bwgw   0.79358
gfz2013byyy  -0.12486
gfz2013ccng   0.20136
gfz2013cfls  -1.02970
gfz2013cinv   0.17236
gfz2013cvve  -0.30795
gfz2013cyvx  -0.71207
gfz2013delq  -0.50419
gfz2013dftb  -0.16147
gfz2013dfvx  -0.40213
gfz2013djfi  -0.69570
gfz2013dksc   0.40040
gfz2013dngd   4.80860
gfz2013dnot  -0.54250
gfz2013dwsp   0.22452
gfz2013dzvr  -0.36883
gfz2013eavq  -0.06328
gfz2013eazm  -0.27336
gfz2013efct   0.20999
gfz2013efys   0.08509
gfz2013eidd   0.57828
gfz2013ektd   0.19768
gfz2013enga   0.17586
gfz2013enqo   2.30040
gfz2013ewht  -0.64504
gfz2013ezmc   0.05826
gfz2013ffjt   0.78484
gfz2013fmcd   0.45677
gfz2013fndg  -0.69357
gfz2013fnpa  -0.17817
gfz2013foto   0.87586
gfz2013frxd  -0.22317
gfz2013fulo  -0.39552
gfz2013fvht  -0.65938
gfz2013fvyr  -0.04511
gfz2013fybd  -0.10737
gfz2013gaqx  -0.55020
gfz2013gbma   0.64140
gfz2013ghpd   0.49603
gfz2013gkyn   0.13879
gfz2013gomv   0.09062
gfz2013gugi  -0.25867
gfz2013gurk   0.28838
gfz2013gxye   0.03059
gfz2013hbmi  -0.00000
gfz2013hbtm  -0.01746
gfz2013hbwy   1.43630
gfz2013hduf  -0.05136
gfz2013hiam  -0.13300
gfz2013hqaa  -0.09981
gfz2013hvzv  -0.26479
gfz2013hwps  -0.67711
gfz2013icgx  -0.43396
gfz2013icql   0.14789
gfz2013ikic   0.32090
gfz2013iuyv  -0.03685
gfz2013ivvw   0.07188
gfz2013iwhc   0.09835
gfz2013iwzn   0.71178
gfz2013jfcn  -0.44618
gfz2013jlli  -0.63251
gfz2013jobl  -0.14537
gfz2013jrqf  -0.19614
gfz2013jzcf  -0.67379
gfz2013kats   0.49276
gfz2013kbbg  -0.72945
gfz2013kbkp   0.01737
gfz2013kcdb   0.51133
gfz2013kdfy  -0.28997
gfz2013kpcb   0.19674
gfz2013kqab  -0.33530
gfz2013kslp  -0.32230
gfz2013kuno   0.20157
gfz2013kxlr  -0.17775
gfz2013kxof  -0.74675
gfz2013lbod   0.52498
gfz2013lbvl   0.23539
gfz2013lcrk  -0.18269
gfz2013lgvf   0.15315
gfz2013ljdu  -0.06147
gfz2013lxed  -1.08420
gfz2013mktp   3.98380
gfz2013muqm  -0.40289
gfz2013mvgq   1.27220
gfz2013mynb  -0.24650
gfz2013mzaw  -0.34003
gfz2013nkgd   0.80643
gfz2013nkgt   0.67731
gfz2013nnai  -0.75007
gfz2013ntiu  -0.55777
gfz2013oeni  -0.31545
gfz2013ohdt  -1.04710
gfz2013oizq  -0.19477
gfz2013okxa   0.08948
gfz2013olos   0.68717
gfz2013onvl  -0.14212
gfz2013orot  -0.41651
gfz2013oruq  -0.65934
gfz2013osmj   1.30470
gfz2013otuj  -0.28215
gfz2013oywh   0.20070
gfz2013phhi  -1.28110
gfz2013pizm  -0.50392
gfz2013pkmz   0.07096
gfz2013qapj   0.20621
gfz2013qdks   0.00937
gfz2013qear  -0.33209
gfz2013qigb  -0.12604
gfz2013qmkt  -0.92270
gfz2013qoak  -0.08092
gfz2013qqyo  -0.08989
gfz2013quwz  -0.01688
gfz2013quyn   0.02982
gfz2013qwnm  -0.75083
gfz2013qxof  -0.46684
gfz2013rdmn  -1.10460
gfz2013rfik   0.67620
gfz2013rnsa  -0.57493
gfz2013rocs  -0.10324
gfz2013rtvy   0.07867
gfz2013rwkj  -0.01832
gfz2013ryph   0.07730
gfz2013sbsp  -0.72641
gfz2013sdym  -0.72315
gfz2013skay  -0.14046
gfz2013skvq   0.10133
gfz2013stup   0.19543
gfz2013swnj  -0.27571
gfz2013taeb  -0.74793
gfz2013tcju   1.57790
gfz2013tdsx  -0.39470
gfz2013tekq   0.00134
gfz2013tgia   0.00000
gfz2013tjub   0.70903
gfz2013tkcg   0.82889
gfz2013tnff  -0.42965
gfz2013tnrp  -0.18005
gfz2013trsq   0.29372
gfz2013twbc  -0.23543
gfz2013ubgt   2.43570
gfz2013udtw  -0.01084
gfz2013uenl  -0.07416
gfz2013uepl  -0.06888
gfz2013unuv   0.08764
gfz2013utqa   0.27081
gfz2013uugc   0.44014
gfz2013uwjo  -0.26847
gfz2013uxzw   1.32010
gfz2013uzmf  -0.33744
gfz2013vdam   0.00632
gfz2013veoz  -0.02326
gfz2013veug  -0.66912
gfz2013vgfb  -0.38776
gfz2013vjrr   0.13859
gfz2013vldx  -0.41295
gfz2013vmrv  -0.75590
gfz2013vmsg   0.77097
gfz2013vnwa   0.43196
gfz2013vojy   0.28668
gfz2013vvre   0.05341
gfz2013vwkh  -0.13100
gfz2013vzel  -0.06339
gfz2013wegs  -0.14006
gfz2013wigs   0.39958
gfz2013wwee  -0.34240
gfz2013wyfl  -1.10570
gfz2013xacx   0.08579
gfz2013xahp  -0.10163
gfz2013xjmo   0.47836
gfz2013xjmy   0.21899
gfz2013xlic   0.42848
gfz2013xmzw  -0.52139
gfz2013xodn  -0.54199
gfz2013xswc   0.09477
gfz2013xvps  -0.21558
gfz2013xzxe   1.56320
gfz2013ygsj   0.04026
gfz2013ylxm  -0.92878
gfz2013yodm  -0.08538
gfz2013yqtu  -0.59389
gfz2013ytfm   0.05870
gfz2013yxhf  -0.32774
gfz2013zbfb  -0.23184
gfz2013zfbz  -0.53080
gfz2013zghn   0.45826
gfz2013ziix  -0.31225
gfz2013zkta   1.25740
gfz2013zlak  -0.06624
gfz2013zpwk  -0.01954
gfz2014aapq  -0.76780
gfz2014aedl   0.03015
gfz2014aejh   1.25070
gfz2014ajgi   1.88650
gfz2014amgk   0.03799
gfz2014aqax   1.88530
gfz2014aqop  -0.41135
gfz2014avag   0.11718
gfz2014befl  -0.92591
gfz2014bfjb  -0.03201
gfz2014bkra  -1.32810
gfz2014bmqw  -0.88722
gfz2014bppg  -0.19119
gfz2014bqpm   0.43398
gfz2014byes  -0.24289
gfz2014bzus  -0.00710
gfz2014cgxj   0.88369
gfz2014cjao  -0.61006
gfz2014cokw   0.35264
gfz2014crac  -0.27302
gfz2014ctdl  -0.28909
gfz2014cwti  -0.10241
gfz2014dbqi  -0.39745
gfz2014dece   1.92650
gfz2014dggw   0.04080
gfz2014dihl  -0.46860
gfz2014djyj  -1.08190
gfz2014dmrw  -0.53597
gfz2014dtth   0.12215
gfz2014dykt  -0.52839
gfz2014edmd   0.88132
gfz2014eflc   0.58523
gfz2014egvg   0.16931
gfz2014eiav   0.39930
gfz2014eirs  -0.28267
gfz2014emlw  -0.30513
gfz2014eoay  -0.03033
gfz2014epfm  -1.18030
gfz2014epnq   0.40010
gfz2014esez  -0.12798
gfz2014etqu  -0.07866
gfz2014eunw  -0.01291
gfz2014evgu  -0.47150
gfz2014evhm  -0.64648
gfz2014exxj   0.13951
gfz2014eyne   0.18407
gfz2014ezjq  -0.82653
gfz2014ezld   0.47294
gfz2014faex  -0.02818
gfz2014fbli  -0.45194
gfz2014fjfz  -0.76084
gfz2014flxk   0.77849
gfz2014fsir   0.26535
gfz2014fsje   0.28326
gfz2014fvza   0.02196
gfz2014fwuf   0.05154
gfz2014fwxt  -1.59000
gfz2014fxte   0.18544
gfz2014fxtv  -0.14456
gfz2014fxuy   0.00891
gfz2014gasb   0.26175
gfz2014gbxg   0.31050
gfz2014gcgf   0.09248
gfz2014ggie  -0.72139
gfz2014gnbw  -0.28793
gfz2014gnvp  -0.12588
gfz2014gpnr   1.48920
gfz2014grwv  -0.44034
gfz2014gsfc   0.39485
gfz2014gypw  -0.03006
gfz2014hapg  -0.78735
gfz2014hjmc   0.17306
gfz2014hkcw  -0.57919
gfz2014hotu  -0.04492
gfz2014hqhv  -0.13334
gfz2014huqh   0.22774
gfz2014hyea  -0.18305
gfz2014hzzf   0.80319
gfz2014icov  -0.37376
gfz2014igrp  -0.38519
gfz2014ijsa   0.26375
gfz2014iltl  -0.77498
gfz2014imqh  -0.64686
gfz2014inrg  -0.21184
gfz2014ipfu  -0.13739
gfz2014irlf   0.24539
gfz2014irln  -0.14350
gfz2014irly   0.32619
gfz2014isjg  -0.40119
gfz2014isov  -0.57817
gfz2014itlx   0.19881
gfz2014iusw  -0.14295
gfz2014ivgm  -0.62589
gfz2014ixlc  -0.23673
gfz2014iyuc  -0.63496
gfz2014jarg   0.20966
gfz2014jaxy  -0.61991
gfz2014jayh  -0.31020
gfz2014jbfp  -0.47412
gfz2014jfmc  -1.81450
