# Nsamples: 1152  MAD:  0.465  mean:  0.012  std:  0.677
gfz2010abfc   0.20949
gfz2010abvu  -0.08286
gfz2010axdz  -0.77856
gfz2010azji   0.24380
gfz2010bgrt  -1.37160
gfz2010bkfi   0.02448
gfz2010bklj  -0.57306
gfz2010bmls  -1.62270
gfz2010bnbr   0.34907
gfz2010bnqr  -0.36677
gfz2010bofe  -0.47508
gfz2010bqnk   0.01278
gfz2010brlc   0.45304
gfz2010brrm   0.26924
gfz2010btme   0.53744
gfz2010bukb   0.28130
gfz2010bvit  -0.26386
gfz2010cbnp   0.13266
gfz2010ccse  -0.36477
gfz2010ccwc   0.14571
gfz2010ccye  -0.07485
gfz2010clbw   0.50304
gfz2010cllh  -0.21809
gfz2010cngg   0.44132
gfz2010cnyi   0.79609
gfz2010colm   0.35129
gfz2010cphq   0.39585
gfz2010cpig   0.47849
gfz2010cqoq   0.52104
gfz2010crgy   0.53114
gfz2010crir  -0.14045
gfz2010csle   0.15147
gfz2010csmw  -0.32699
gfz2010csqg  -2.34250
gfz2010csqy   0.09461
gfz2010ctak  -0.18338
gfz2010cthm   0.04621
gfz2010cvam   0.04970
gfz2010cvkn   0.57349
gfz2010cwrk  -0.24003
gfz2010cyid  -0.45078
gfz2010dask   0.63267
gfz2010depd  -1.51880
gfz2010diid  -0.62239
gfz2010djib   0.16860
gfz2010dmij   0.69600
gfz2010dmkd   0.32651
gfz2010dpgt  -0.24366
gfz2010drit   1.18130
gfz2010drml  -1.81210
gfz2010drmq  -1.81210
gfz2010drng   0.67019
gfz2010drpv   0.19770
gfz2010drun   0.53987
gfz2010dslu  -0.14614
gfz2010dtgc  -0.05349
gfz2010dtyx  -0.67719
gfz2010dumv   0.64667
gfz2010dwgy  -0.14667
gfz2010dxhq   0.39180
gfz2010eepd   0.98965
gfz2010ehgf  -0.91595
gfz2010eibh  -0.05689
gfz2010ekvl  -0.27801
gfz2010elge   1.07020
gfz2010euue   0.13458
gfz2010ewyj   0.35991
gfz2010extu  -0.33432
gfz2010faly  -0.30356
gfz2010fgbo  -0.41581
gfz2010hdxn   0.61630
gfz2010hesh  -0.12442
gfz2010hexh   0.27859
gfz2010hllp   0.41697
gfz2010hnuo   0.57657
gfz2010hsgv   0.08990
gfz2010hueh  -0.84705
gfz2010huzl  -0.49196
gfz2010hxan   0.06862
gfz2010iaay  -0.04523
gfz2010iawy   1.10770
gfz2010ifhd   0.45456
gfz2010ifru  -0.34882
gfz2010inbs   0.09280
gfz2010inkz  -0.21099
gfz2010ioad  -0.09497
gfz2010ixjl   0.03446
gfz2010izag   0.20720
gfz2010izgb   0.14214
gfz2010jcby   0.05310
gfz2010jcpq   1.02890
gfz2010jdhk  -0.06228
gfz2010jgwj  -0.20909
gfz2010jkrp   1.51010
gfz2010jlvp   0.51943
gfz2010jpkn  -0.23944
gfz2010juke  -0.11011
gfz2010jvsi  -1.34280
gfz2010jyvd   1.06210
gfz2010kcyz  -0.39283
gfz2010kuzb   1.00860
gfz2010kwks  -0.50211
gfz2010kzzm   1.49160
gfz2010ljmp  -0.14938
gfz2010ljol  -0.30952
gfz2010ljzf  -1.04370
gfz2010mqzz  -0.24058
gfz2010nccu   0.38059
gfz2010ncwu  -0.83756
gfz2010nkrw   0.53035
gfz2010nlai   0.32220
gfz2010novb  -0.20593
gfz2010nwbd  -0.26554
gfz2010nwyk   1.24140
gfz2010ocug   1.31470
gfz2010onxm   0.41536
gfz2010pngv  -0.31488
gfz2010qdqk   0.20374
gfz2010qrix   0.84572
gfz2010qrta  -0.26929
gfz2010qykh  -1.25610
gfz2010qylh   0.10686
gfz2010qzvf   0.31021
gfz2010rdep  -0.45570
gfz2010rdip  -0.09147
gfz2010rkuu  -0.40904
gfz2010rljv  -0.09090
gfz2010rmua   0.80387
gfz2010rnqa  -1.43350
gfz2010rnwt   0.54892
gfz2010rpbz   0.69471
gfz2010rpjd   0.10029
gfz2010xezr   0.16351
gfz2010xhqq  -0.48608
gfz2010xpzq   0.19603
gfz2010xvev  -0.06467
gfz2010xytc   0.11798
gfz2010xzah  -0.45770
gfz2010xzte  -0.15506
gfz2010yczp   0.35697
gfz2010yfdr  -0.22737
gfz2010ygrd  -0.24992
gfz2010yhdn   0.15099
gfz2010yhhj  -0.45467
gfz2010yilf  -0.69323
gfz2010ymih  -0.12235
gfz2010yrex  -0.29233
gfz2010ytzb   0.02816
gfz2010zaxv  -0.98146
gfz2011awsv  -0.27163
gfz2011bazz  -0.44880
gfz2011bcvc   1.06680
gfz2011bffb  -0.34410
gfz2011biin  -0.53619
gfz2011boaz  -0.92738
gfz2011bpqm   0.38790
gfz2011bqbx  -1.42470
gfz2011bsvr   0.60611
gfz2011bvog  -0.59060
gfz2011bwsm  -1.70860
gfz2011bygs  -0.37637
gfz2011bygu   0.02149
gfz2011bzio  -0.23459
gfz2011cdge  -1.14240
gfz2011cfyy  -0.34294
gfz2011chsa  -0.32542
gfz2011cjcv   0.60953
gfz2011cjuz   1.03820
gfz2011clwu  -0.00000
gfz2011cwsm  -0.55875
gfz2011cwzi   0.22959
gfz2011cxdj  -0.27025
gfz2011dabj   0.91226
gfz2011dbzc   0.37144
gfz2011dhfg   0.22655
gfz2011dhqk  -0.43345
gfz2011dmdv   0.36401
gfz2011dpyu   0.36369
gfz2011drmu   0.25282
gfz2011duvm  -0.54703
gfz2011dwae  -0.32986
gfz2011dzmf  -0.52713
gfz2011ecce   2.18640
gfz2011edrq   0.09121
gfz2011emzr  -0.19114
gfz2011etkc   1.10050
gfz2011exxq  -1.90650
gfz2011fbsl  -0.84108
gfz2011ffdh  -0.32732
gfz2011fges   0.05462
gfz2011fnie   0.08354
gfz2011fnuk  -0.15117
gfz2011fnxz   0.18599
gfz2011fszl  -0.25806
gfz2011fxmf  -0.13947
gfz2011fyfu  -0.67926
gfz2011fzcw  -2.92610
gfz2011gaax  -0.28224
gfz2011gcct  -0.28730
gfz2011gdli   0.18699
gfz2011gdrl  -0.04201
gfz2011gfer  -0.15495
gfz2011ggnl   1.44290
gfz2011ggsz   0.26164
gfz2011gkdx  -0.15691
gfz2011glpg  -0.21484
gfz2011gnbk  -0.18084
gfz2011gpyr  -0.24885
gfz2011grby   0.02521
gfz2011haaa   0.01673
gfz2011hatg  -0.07160
gfz2011hbqc  -0.21612
gfz2011hffq   2.16510
gfz2011hibi  -0.50561
gfz2011hjof  -0.47446
gfz2011hmnw  -0.16900
gfz2011hqjs   0.31284
gfz2011hrgt  -0.31584
gfz2011hvzo  -0.24799
gfz2011hyct  -0.53795
gfz2011hyuh   0.52222
gfz2011iamf  -0.51328
gfz2011ibew  -0.83410
gfz2011ifta  -0.02091
gfz2011inan  -0.12359
gfz2011ioch  -0.69992
gfz2011iryz  -0.18222
gfz2011itcv  -0.59491
gfz2011ituo   0.10270
gfz2011ixpj  -0.17219
gfz2011iybf   0.51472
gfz2011jdoz  -0.13898
gfz2011jfyb   1.87190
gfz2011jphj   0.48992
gfz2011jpob   0.27765
gfz2011jqyc   0.79849
gfz2011jryv   0.18168
gfz2011jtij  -0.29333
gfz2011kfch   0.29663
gfz2011kgvq   0.26027
gfz2011kjzt  -0.43008
gfz2011kjzv  -0.09484
gfz2011kmge  -0.10179
gfz2011ksxc  -0.68480
gfz2011kujo  -0.03419
gfz2011kylu   0.57443
gfz2011kymm  -0.64015
gfz2011kyzy  -0.19639
gfz2011lbnn   0.13756
gfz2011ldgl   0.03306
gfz2011lkkf   0.63791
gfz2011lmug  -0.29430
gfz2011lnzf   3.26440
gfz2011lrpv   0.27187
gfz2011lwmg   0.22712
gfz2011lxga   0.73932
gfz2011lykm   0.22403
gfz2011mdyq  -0.27302
gfz2011melb  -0.74972
gfz2011mjje   0.19491
gfz2011mllb  -0.06301
gfz2011mntq   0.85389
gfz2011moob  -1.60460
gfz2011mror   1.50320
gfz2011mrpy  -0.64035
gfz2011nblt   0.55023
gfz2011ncyw   0.14612
gfz2011ndhh   0.58155
gfz2011ndki  -0.00931
gfz2011ndlh   0.31128
gfz2011ndse  -0.14885
gfz2011ndtp  -0.05218
gfz2011ndvj  -0.27117
gfz2011ndyk  -0.36989
gfz2011neai   0.81746
gfz2011nejg  -0.47642
gfz2011nejw   0.10852
gfz2011nerb   0.82675
gfz2011nfcz   0.06298
gfz2011nfgt  -0.21661
gfz2011nfih   0.32649
gfz2011nfln   0.32417
gfz2011nftw  -0.37988
gfz2011nfww  -0.07554
gfz2011nhby  -0.08737
gfz2011nhhd  -0.35964
gfz2011nhjv  -1.02320
gfz2011nhvt   1.61480
gfz2011nhwf   0.65412
gfz2011nifi   1.37270
gfz2011nihq  -0.68811
gfz2011nijp   0.37086
gfz2011nilw   0.35554
gfz2011nimp  -0.90468
gfz2011nioi   0.43264
gfz2011nisj  -0.77259
gfz2011niuw   1.66450
gfz2011nivw   0.06942
gfz2011nkda   0.37215
gfz2011nkou  -0.98313
gfz2011nlmf  -1.18760
gfz2011nlnl  -0.00000
gfz2011nlok   1.56910
gfz2011nlou  -0.28682
gfz2011nlum  -0.40141
gfz2011nlyw  -0.85526
gfz2011nmdz   0.18289
gfz2011nnda  -0.13413
gfz2011nnos   0.12806
gfz2011npaf  -0.45483
gfz2011npeu  -0.43103
gfz2011nsej  -0.17181
gfz2011nsiy  -0.35006
gfz2011nsrx  -0.46147
gfz2011nssr  -1.17270
gfz2011nsyi   1.24550
gfz2011ntyd  -0.58376
gfz2011nuqo  -0.99902
gfz2011nvty   0.65768
gfz2011nyzk  -1.03960
gfz2011oadm  -0.15033
gfz2011oazk  -0.06613
gfz2011ocif  -0.33733
gfz2011oekz  -0.24562
gfz2011oesd  -0.50652
gfz2011ofpj  -0.32433
gfz2011ohgj  -0.36912
gfz2011omxt  -0.09470
gfz2011oosp  -0.12561
gfz2011oqjl   1.00140
gfz2011oslk   0.82767
gfz2011osmp  -0.08877
gfz2011osuy  -0.04714
gfz2011owqa   0.17978
gfz2011paqj   0.18714
gfz2011pbgh  -3.85280
gfz2011pbjh  -0.47350
gfz2011pcqr  -0.69624
gfz2011pdgq  -0.18940
gfz2011pdsn   1.41070
gfz2011pfls  -0.13866
gfz2011pfwq  -0.21512
gfz2011pgzk   0.22656
gfz2011pimj  -0.03903
gfz2011pivq   1.05370
gfz2011plzc   0.63075
gfz2011pmuv   0.85853
gfz2011poug   0.05303
gfz2011pphc  -0.85593
gfz2011ppsc  -0.41608
gfz2011prrq   0.18289
gfz2011ptgd  -0.67059
gfz2011pulu   0.27499
gfz2011pwbw  -0.27546
gfz2011pwld  -0.29861
gfz2011qasw   0.27571
gfz2011qenl  -0.22116
gfz2011qgea  -0.46932
gfz2011qgvh  -0.12386
gfz2011qgvx  -0.34370
gfz2011qidi  -0.46854
gfz2011qklh  -1.68640
gfz2011qlkj  -0.32970
gfz2011qowe  -0.07991
gfz2011qtoy  -1.09090
gfz2011qukj  -0.54597
gfz2011rbuo   0.29013
gfz2011rczb  -0.06155
gfz2011rkau   1.10510
gfz2011rkzx  -0.48565
gfz2011rnny   0.06834
gfz2011rnsp  -0.23316
gfz2011rplo   0.00486
gfz2011rpoo  -0.02732
gfz2011rqut   0.68720
gfz2011scma   0.53399
gfz2011sdax  -0.27974
gfz2011sdpl   0.25134
gfz2011sfmu   0.62068
gfz2011sfph   0.19625
gfz2011sqco   0.65778
gfz2011sqxp  -1.30390
gfz2011sskq  -0.67416
gfz2011stzi   0.05173
gfz2011swfp  -1.12140
gfz2011sxno  -0.26915
gfz2011sylg   0.38674
gfz2011syvj   1.60360
gfz2011syzr   0.84931
gfz2011szau  -0.17971
gfz2011szcj  -0.59898
gfz2011szis   0.05673
gfz2011taqr   0.24353
gfz2011tdjj  -0.12962
gfz2011tfor  -0.78405
gfz2011tgon  -0.56688
gfz2011tjpv  -0.34890
gfz2011tlwl   0.32830
gfz2011tozo   0.08075
gfz2011txxs   0.06125
gfz2011tzcv   1.95200
gfz2011unud  -1.21100
gfz2011uqlz   0.69385
gfz2011uqry   0.17322
gfz2011urwz  -0.71131
gfz2011uvsi   0.54295
gfz2011vahy  -0.17364
gfz2011vaoi  -0.93679
gfz2011varl   1.30940
gfz2011vbxv   0.64225
gfz2011vcyx  -0.27396
gfz2011vimn   0.32249
gfz2011vsag   0.14065
gfz2011vswj   0.02358
gfz2011vtdl   0.74307
gfz2011vtzv  -0.01349
gfz2011vxek   0.16108
gfz2011wbtc   0.05056
gfz2011wcvs  -1.16410
gfz2011wfsk   0.67235
gfz2011wgoa  -0.36680
gfz2011wgvh  -1.60050
gfz2011wkja   0.16539
gfz2011wkyx  -0.22026
gfz2011wngi   0.17345
gfz2011wnjg  -1.59760
gfz2011wpzt   0.22565
gfz2011wqth   0.39055
gfz2011wqup   0.00320
gfz2011wucg  -0.86301
gfz2011wwze   0.08526
gfz2011wzss   0.14662
gfz2011xagc  -0.14581
gfz2011xawm  -0.62513
gfz2011xdox   0.69621
gfz2011xgbc   0.01392
gfz2011xgwy  -0.45246
gfz2011xlod   0.42291
gfz2011xnui  -0.15891
gfz2011xpcq  -0.08638
gfz2011xxng   0.54222
gfz2011yeck  -0.25608
gfz2011yjtx   1.33130
gfz2011ymji   0.26781
gfz2011yrfa   0.15447
gfz2011ytob   0.08760
gfz2011ytwk   0.84890
gfz2011ywtj   0.36306
gfz2011zcwn   0.43310
gfz2011zdyf  -0.56311
gfz2011zghc   0.62552
gfz2011zgxn  -0.47868
gfz2011ziyk   0.41602
gfz2011zkbt  -0.22916
gfz2012adja   0.06762
gfz2012agwh  -0.39380
gfz2012ahac   0.23778
gfz2012aisj   0.71173
gfz2012alti   0.39053
gfz2012amjx   0.63820
gfz2012amvs   0.19842
gfz2012aqpa   0.16011
gfz2012arlo   0.08955
gfz2012asld  -0.24125
gfz2012atjr   0.13677
gfz2012avvc   0.17119
gfz2012axrp  -0.46245
gfz2012bcvn   0.63814
gfz2012beae   0.17961
gfz2012bity  -0.18493
gfz2012bjhl   0.36414
gfz2012bnwa   0.09841
gfz2012bqcf   0.54342
gfz2012byrq  -0.27642
gfz2012bysu  -0.32936
gfz2012bytv  -0.44543
gfz2012byuk  -0.08276
gfz2012cdju   0.30616
gfz2012cfdw   0.83932
gfz2012cksh   0.16901
gfz2012cmww   0.13541
gfz2012cntu  -0.11550
gfz2012crpb   0.38970
gfz2012cvfr  -0.11424
gfz2012cwhl   0.00000
gfz2012cxhw  -0.59500
gfz2012czvh  -0.35668
gfz2012dcjd   0.23718
gfz2012dejg  -0.65223
gfz2012dgfk   0.24849
gfz2012dkdy  -0.37088
gfz2012dleg  -1.94900
gfz2012dnig  -0.17769
gfz2012dpnu  -0.51599
gfz2012dpwv  -0.69554
gfz2012drak  -0.26039
gfz2012drld  -0.23577
gfz2012drqd  -0.16896
gfz2012dttl   0.14121
gfz2012dtvr   0.13948
gfz2012dugf  -0.57086
gfz2012eeft   0.39154
gfz2012ekfp  -0.98858
gfz2012ekro   0.67998
gfz2012elek  -0.41975
gfz2012enio  -0.07287
gfz2012enrg   0.81784
gfz2012erds  -0.49226
gfz2012evav  -0.02140
gfz2012evxn   0.28544
gfz2012eyti   0.28840
gfz2012facv   0.77674
gfz2012fbgz   1.08610
gfz2012fcyq  -0.63245
gfz2012fcyr  -0.60664
gfz2012fhaf  -0.37741
gfz2012fiiz  -0.27025
gfz2012flqf   0.24574
gfz2012fuyd   0.50820
gfz2012fxgc   0.15657
gfz2012fyny  -0.44825
gfz2012fyop  -0.31160
gfz2012gbrs  -1.37020
gfz2012gczh   0.24153
gfz2012gdye  -0.03420
gfz2012ghiv   0.07018
gfz2012ghyd  -1.25760
gfz2012gjdg  -0.15759
gfz2012gjtd  -0.31170
gfz2012gmsr  -0.62616
gfz2012gnow   0.11631
gfz2012gpcd   0.02154
gfz2012grmf   0.90752
gfz2012gubu  -0.80469
gfz2012gvxc  -0.45735
gfz2012gzuk  -0.10229
gfz2012hdny  -0.11295
gfz2012heih   0.27460
gfz2012hhlx  -0.57964
gfz2012hkxs  -0.18971
gfz2012hlya  -1.87690
gfz2012hmcv  -0.30019
gfz2012hnyy  -1.20550
gfz2012hvfw   0.38791
gfz2012hvjc  -0.61032
gfz2012hvtu  -0.30422
gfz2012hwph  -0.34193
gfz2012hyba   0.39000
gfz2012hyqh   0.78074
gfz2012hysb  -0.80799
gfz2012hzhn  -0.22800
gfz2012hzur   0.70683
gfz2012iblc   0.36276
gfz2012iblo  -0.31508
gfz2012ibyd  -0.07727
gfz2012icjo  -0.33317
gfz2012iedy   0.00000
gfz2012iijk  -0.13907
gfz2012imsm  -0.52222
gfz2012imuo  -1.28230
gfz2012iotw   0.97118
gfz2012ipdc   0.66546
gfz2012iroy  -0.09446
gfz2012ivyg  -0.67575
gfz2012iyhs  -0.06562
gfz2012iyoi  -0.09891
gfz2012izke  -0.74657
gfz2012jawj  -0.06278
gfz2012jksz  -0.23616
gfz2012jlez  -0.53770
gfz2012jnlt   0.40344
gfz2012jqxx  -0.27476
gfz2012juem  -0.25076
gfz2012jxnm   0.53213
gfz2012jxxe   0.15867
gfz2012kadi   0.09612
gfz2012kbub   0.58927
gfz2012klpl  -0.09588
gfz2012kmbo  -0.09932
gfz2012kmmz  -0.44211
gfz2012kstg  -0.29017
gfz2012kwmx   0.52170
gfz2012lcro  -0.23799
gfz2012ldjj  -0.38028
gfz2012lqhw  -0.18554
gfz2012luzm   0.01113
gfz2012lvlr   1.17140
gfz2012lvwx   0.34718
gfz2012lwha  -0.53387
gfz2012lyqs  -1.03120
gfz2012lyyr  -0.37374
gfz2012mcrb   0.20586
gfz2012mmiw   0.05925
gfz2012movv  -0.66502
gfz2012mowv   0.05597
gfz2012mpzo   0.32753
gfz2012mrqk   0.57384
gfz2012mrwu   0.21403
gfz2012mtyn   0.46516
gfz2012mvgu   0.19773
gfz2012mwhe  -0.41791
gfz2012mxdk  -0.47064
gfz2012mxvk   1.57920
gfz2012mzco  -0.25010
gfz2012ndsk  -0.74435
gfz2012ndwt  -0.43280
gfz2012nfos   0.73884
gfz2012nfzc   0.62466
gfz2012nldz   0.30314
gfz2012nlrb  -0.39261
gfz2012nmja  -0.28794
gfz2012nnsl   0.02190
gfz2012nqvd  -0.09105
gfz2012nsxc   0.11236
gfz2012oafg  -0.24615
gfz2012oehy   0.20221
gfz2012ofaj   0.17634
gfz2012ofnx   0.42628
gfz2012ohgd  -0.03713
gfz2012oieq   1.79690
gfz2012oiez  -0.15503
gfz2012onhu  -0.97065
gfz2012oork  -0.00000
gfz2012oozp   0.00604
gfz2012oyja   0.41428
gfz2012pcui  -0.60349
gfz2012pdav   0.44617
gfz2012pdfi  -0.28530
gfz2012pdjt   0.25253
gfz2012pekf  -0.11081
gfz2012pgmw   0.43060
gfz2012phns   0.33276
gfz2012pira  -0.00704
gfz2012pmuj   1.38110
gfz2012pmuq  -1.50300
gfz2012pmws  -0.68997
gfz2012qmhz  -0.43161
gfz2012qoev  -0.62502
gfz2012rduv   0.02199
gfz2012rfhw   0.37481
gfz2012rknz  -0.17499
gfz2012rnbw   0.82870
gfz2012roan  -0.13453
gfz2012sfao   0.22440
gfz2012sgfd   0.10104
gfz2012sjdy   0.67544
gfz2012sjox   0.06034
gfz2012slfd   0.03278
gfz2012smyn  -0.24049
gfz2012socz  -0.64542
gfz2012sopp  -0.53102
gfz2012sqsc  -0.29614
gfz2012ssnb  -0.83714
gfz2012ssvn   0.05277
gfz2012stxx   0.29401
gfz2012suqd   0.26112
gfz2012svwz   0.75928
gfz2012swbz   0.36191
gfz2012sxbo   0.54391
gfz2012sxpr  -0.81924
gfz2012syum  -0.85100
gfz2012taph  -0.25160
gfz2012tisj  -0.13794
gfz2012touh   0.91952
gfz2012tqjc   0.13367
gfz2012trfq   0.13359
gfz2012trss   0.49006
gfz2012tsdz   0.11301
gfz2012ttnf   0.16197
gfz2012tvgw   0.79921
gfz2012twec   0.16063
gfz2012tyoz   0.72790
gfz2012udeo   0.52588
gfz2012uegq  -0.14163
gfz2012uhsx  -0.08675
gfz2012uhtc   0.15866
gfz2012ukzg   0.71152
gfz2012ulei   0.13349
gfz2012umob  -0.13724
gfz2012unxc  -0.27590
gfz2012uovh  -0.11826
gfz2012urtu  -0.36116
gfz2012utdu  -0.12770
gfz2012uvea   0.25090
gfz2012uvoa   0.02958
gfz2012uwne  -0.11176
gfz2012uzuu  -0.29521
gfz2012uzww   0.00919
gfz2012vaqd  -0.20131
gfz2012vcqw  -0.29654
gfz2012vdsl   0.58630
gfz2012vgot   0.22844
gfz2012vile  -0.36510
gfz2012vioy   0.37281
gfz2012vitw   0.29086
gfz2012vkjw   0.68231
gfz2012vlzv  -0.54359
gfz2012vqjw   0.19174
gfz2012vqmq   0.36722
gfz2012vrqz   0.43442
gfz2012vurc   0.46609
gfz2012wdvt   0.12718
gfz2012wdxk  -0.24540
gfz2012wgdv  -0.28619
gfz2012wgmg  -0.47594
gfz2012wgxf   0.31934
gfz2012wiyv  -0.32507
gfz2012wjsi  -1.10780
gfz2012wkki   0.01544
gfz2012wmmw   0.23441
gfz2012wowu  -0.19286
gfz2012woxj  -0.42524
gfz2012wpen  -0.30275
gfz2012wqfz   0.33435
gfz2012wugc   0.27059
gfz2012wysg   0.16582
gfz2012wzja   1.79190
gfz2012xask  -0.03791
gfz2012xbna  -0.17429
gfz2012xcsf   0.31503
gfz2012xfnu  -0.31576
gfz2012xfsl   0.29817
gfz2012xkln  -0.23726
gfz2012xkvu   0.70669
gfz2012xlas   0.15297
gfz2012xlfo  -0.29176
gfz2012xncm  -0.04278
gfz2012xrmq   0.03386
gfz2012xtvu  -0.04073
gfz2012yegw  -0.15290
gfz2012yihn   1.50500
gfz2012ylai   0.13603
gfz2012yncm  -0.58183
gfz2012yzih   0.66618
gfz2012zhyz  -0.50185
gfz2012zido   0.02217
gfz2012zkhu  -1.03840
gfz2012zmdf   0.20337
gfz2012zmfc   0.03166
gfz2012znou  -0.40705
gfz2012zqis  -0.59140
gfz2013aclz   0.87399
gfz2013adih   1.17790
gfz2013afzh   0.52003
gfz2013agbm   0.08426
gfz2013aggr   0.46639
gfz2013agmt   0.09657
gfz2013ajxz   0.07734
gfz2013akkd   0.07883
gfz2013ascz   0.11285
gfz2013atak  -0.07805
gfz2013aymi  -0.17182
gfz2013bqfc   1.65550
gfz2013bwgw   0.56321
gfz2013byyy   0.12911
gfz2013bzwa  -1.75350
gfz2013ccng   0.05574
gfz2013cfls  -0.24410
gfz2013cinv   0.34119
gfz2013ciof  -0.43569
gfz2013cqak   0.03458
gfz2013cvve  -0.17954
gfz2013cyvx  -0.03838
gfz2013dbhl  -0.25252
gfz2013ddrx   0.31525
gfz2013delq   0.51270
gfz2013dftb   0.45262
gfz2013dfvx   0.11981
gfz2013dksc   0.41006
gfz2013dmzh  -0.72587
gfz2013dngd   0.62227
gfz2013dnot  -0.12117
gfz2013dtjl   0.64952
gfz2013dwsp  -0.90923
gfz2013dznt   0.36277
gfz2013dzvr  -0.34744
gfz2013eavq   0.83644
gfz2013eazm  -0.06785
gfz2013efct   0.37936
gfz2013efys   0.01566
gfz2013egfv  -2.81300
gfz2013eidd   0.38011
gfz2013ektd   0.06614
gfz2013enga  -0.35221
gfz2013enqo   0.24993
gfz2013enrh   0.11614
gfz2013esef  -1.08010
gfz2013evcl   0.05051
gfz2013ewht  -0.46783
gfz2013eyyo  -0.65802
gfz2013ezmc  -0.31711
gfz2013ffjt  -0.22718
gfz2013fhzy  -0.39215
gfz2013fmcd   0.71464
gfz2013fmcp   0.90802
gfz2013fndg  -0.02620
gfz2013fnpa   0.20472
gfz2013foto  -0.01710
gfz2013frxd   0.23283
gfz2013fskp   0.55850
gfz2013fthi   0.46768
gfz2013fulo  -0.05433
gfz2013fvht   0.62829
gfz2013fvyr  -0.65222
gfz2013fvzv  -0.16535
gfz2013fxyr   0.51322
gfz2013fybd  -1.56500
gfz2013gaqx  -0.54836
gfz2013gbma   0.50674
gfz2013gglk   2.56090
gfz2013gkyn   0.19309
gfz2013glkq   0.33287
gfz2013glpz  -0.59756
gfz2013gomv   0.33612
gfz2013grle   0.29804
gfz2013gugi  -0.54055
gfz2013gurk   0.13986
gfz2013gxye  -0.17477
gfz2013gyce   0.39776
gfz2013gywl   0.40771
gfz2013havw  -0.14103
gfz2013hbmi   0.08075
gfz2013hbtm   0.16767
gfz2013hbwy  -5.98900
gfz2013hdbp   0.20337
gfz2013hduf  -0.41891
gfz2013hiam   0.51502
gfz2013hjtt  -0.43143
gfz2013hqaa   0.00842
gfz2013hvkg  -0.08392
gfz2013hvzv   0.33086
gfz2013hwps  -0.49399
gfz2013icgx   0.19830
gfz2013icql   0.46677
gfz2013idqu   0.63086
gfz2013ikic   0.42806
gfz2013irme  -0.05313
gfz2013iuyv  -0.67294
gfz2013ivvw  -0.41375
gfz2013iwhc  -0.13700
gfz2013iwzn  -0.21575
gfz2013iybg   0.42728
gfz2013jcnn  -0.19186
gfz2013jfcn   0.36944
gfz2013jhog   0.05775
gfz2013jjfw   0.72802
gfz2013jkqn  -0.62121
gfz2013jlli   1.69990
gfz2013jobl   0.39191
gfz2013jpir  -0.19528
gfz2013jqsk  -0.35604
gfz2013jrqf   0.12714
gfz2013jzcf  -0.10357
gfz2013jzfz  -4.52340
gfz2013kats   0.23328
gfz2013kbbn   0.14678
gfz2013kbkp  -0.26570
gfz2013kcdb   0.40228
gfz2013kdfy  -0.49570
gfz2013kpcb   0.80441
gfz2013kpes   0.69792
gfz2013kqab  -0.07544
gfz2013kruh  -0.53773
gfz2013ksaz   0.08335
gfz2013kslp   0.08296
gfz2013kuno   0.63919
gfz2013kxlr   0.24283
gfz2013lbod  -0.09746
gfz2013lbvl   0.58940
gfz2013lcrk  -0.38081
gfz2013lgvf   0.12455
gfz2013ljdu   0.67169
gfz2013ljwt   0.06717
gfz2013lnts  -0.02006
gfz2013lqjj   0.21632
gfz2013lvxe   0.26080
gfz2013lwtr  -1.00780
gfz2013lxed   0.00933
gfz2013mdxj   0.16838
gfz2013mimp  -0.10895
gfz2013mktp  -0.32198
gfz2013mnux   2.80250
gfz2013msmy   1.02070
gfz2013mvgq   0.14298
gfz2013mynb  -0.13161
gfz2013mzaw   0.33178
gfz2013nhkw  -2.56640
gfz2013njck   1.03430
gfz2013njwj   0.50968
gfz2013nkgd   1.38610
gfz2013nkgt   0.48756
gfz2013nnai  -0.02036
gfz2013ntfc   0.20869
gfz2013ntiu  -0.46882
gfz2013ntxw  -0.41718
gfz2013oeni  -0.08992
gfz2013ohdt  -0.16191
gfz2013ohnj  -0.09255
gfz2013oizq  -0.17298
gfz2013ojza  -0.12486
gfz2013okac   0.55883
gfz2013okxa   0.49140
gfz2013olos   0.48644
gfz2013onvl  -0.04353
gfz2013opkx  -0.11402
gfz2013orot   0.12228
gfz2013ortl  -0.14786
gfz2013oruq   0.04130
gfz2013osmj  -0.58904
gfz2013otuj  -0.06899
gfz2013otxp  -0.68146
gfz2013oywh   0.50777
gfz2013pegj   0.37749
gfz2013phhi  -0.61938
gfz2013phly   1.61240
gfz2013pizm   0.17673
gfz2013pkmz  -0.19709
gfz2013pqkp  -0.67430
gfz2013pvsa  -0.28085
gfz2013pzdr   1.31810
gfz2013qapj   0.18098
gfz2013qdks  -0.22885
gfz2013qdno   0.01390
gfz2013qdpv   0.30253
gfz2013qdzg  -0.14739
gfz2013qear  -0.22708
gfz2013qigb  -0.40123
gfz2013qmkt   0.19501
gfz2013qnqr   0.18389
gfz2013qntl  -0.04982
gfz2013qoak  -0.10502
gfz2013qogb   0.18667
gfz2013qqyo   0.44506
gfz2013quwz  -0.15947
gfz2013quyn   0.56553
gfz2013qwnm  -0.05518
gfz2013qxof   0.16408
gfz2013rdmn   0.16497
gfz2013rfik   0.10923
gfz2013rhbx   0.26567
gfz2013rhxf  -0.36994
gfz2013rnsa   0.21843
gfz2013rocs  -0.14634
gfz2013rsyt   1.06730
gfz2013rtvy   0.12559
gfz2013rwkj   0.19059
gfz2013rwog  -0.08699
gfz2013ryfc  -0.12921
gfz2013ryph   0.24968
gfz2013sbsl   0.24213
gfz2013sbsp   0.06611
gfz2013sdkg   0.02074
gfz2013sdym   1.32310
gfz2013skay   0.26128
gfz2013skvq   0.04541
gfz2013stou   0.10158
gfz2013stup   1.45140
gfz2013suck   0.03942
gfz2013swnj  -0.28992
gfz2013syqp   0.00803
gfz2013taeb  -0.28815
gfz2013tcju   0.23989
gfz2013tdsx  -0.30460
gfz2013tekq   0.03268
gfz2013tert  -0.40056
gfz2013tgia   0.10082
gfz2013tgyb   0.25854
gfz2013timw  -0.34474
gfz2013tjub   0.41357
gfz2013tkcg   0.52120
gfz2013tmyj   0.15329
gfz2013tnff  -0.42833
gfz2013tnrp   0.03212
gfz2013trsq   0.20447
gfz2013uafv  -0.28554
gfz2013ubgt   1.40810
gfz2013udtw   0.47215
gfz2013uepl   0.23870
gfz2013unuv   0.46358
gfz2013upqj   1.09180
gfz2013utqa   0.64740
gfz2013uugc   0.17364
gfz2013uwjo  -0.19929
gfz2013uxzw   0.70867
gfz2013uzmf   0.11118
gfz2013vcgd   0.19217
gfz2013vdam  -0.05279
gfz2013veoz   1.06290
gfz2013veug  -0.38627
gfz2013vfix  -0.24860
gfz2013vgfb  -0.06567
gfz2013vjrr  -0.33164
gfz2013vjsz   0.71488
gfz2013vldx   0.10252
gfz2013vmrv   0.76351
gfz2013vmsg   0.07798
gfz2013vmsn   0.47979
gfz2013vnwa   0.79360
gfz2013voai  -0.07807
gfz2013vojy   0.21703
gfz2013vvre  -1.18440
gfz2013vwkh   0.28460
gfz2013vxht   0.19032
gfz2013vzel   0.33229
gfz2013vzet  -2.59320
gfz2013wgwz   0.18515
gfz2013wigs   0.51803
gfz2013wpns   0.15426
gfz2013wwee  -0.02124
gfz2013wyfl   0.13449
gfz2013wyho  -1.75970
gfz2013xacx   0.20494
gfz2013xahp  -0.09179
gfz2013xbdc  -0.16475
gfz2013xjmo  -1.05720
gfz2013xmzw  -0.39748
gfz2013xodn   0.12076
gfz2013xofz   0.13754
gfz2013xswc  -0.12583
gfz2013xupg   0.11736
gfz2013xvps   0.06344
gfz2013xxbf  -0.50252
gfz2013xycz   0.35062
gfz2013xzxe   0.32289
gfz2014bkra   0.09850
gfz2014bmch   0.37193
gfz2014bmdf  -0.03457
gfz2014bmqw  -0.46886
gfz2014bnea  -0.06282
gfz2014bppg  -0.22086
gfz2014bqpm   0.12948
gfz2014brkk   0.09165
gfz2014bumr   0.58699
gfz2014buyz  -0.28865
gfz2014bycg   0.23147
gfz2014byes   0.15808
gfz2014bzus   0.44238
gfz2014cbfo   1.09930
gfz2014cgoi   0.15515
gfz2014cjao   0.33162
gfz2014ckqv   0.45024
gfz2014club   0.34161
gfz2014cncl   0.30891
gfz2014cokw   0.24170
gfz2014crac   0.61140
gfz2014cvnb   0.19549
gfz2014cwti  -0.72547
gfz2014dbmu  -0.02836
gfz2014dbqi  -0.08187
gfz2014dece  -0.22915
gfz2014dggw  -0.13268
gfz2014dihl  -0.02685
gfz2014diuu  -0.65773
gfz2014djhi  -0.30418
gfz2014djyj  -0.02666
gfz2014dpny   0.16502
gfz2014dpps   0.22722
gfz2014dsqr  -0.20341
gfz2014dtth   0.00876
gfz2014dtto  -0.27323
gfz2014dudd   0.39109
gfz2014dutu  -0.33956
gfz2014dwcp   0.19723
gfz2014dykt   0.43184
gfz2014ecor  -1.68310
gfz2014edjm   0.07963
gfz2014edmd   0.13200
gfz2014eflc   0.45742
gfz2014eglj   0.42089
gfz2014egvg  -1.17580
gfz2014eiav   0.56670
gfz2014eirs   0.20673
gfz2014ejfx  -0.03452
gfz2014emlw   0.05168
gfz2014eoay   0.34601
gfz2014epfm   0.44451
gfz2014epue  -0.39998
gfz2014esez   0.32387
gfz2014etgp   0.15212
gfz2014etqu   0.23127
gfz2014eunw   0.30361
gfz2014evgu   0.38077
gfz2014evhm  -0.27547
gfz2014exxj   0.59162
gfz2014eysf  -0.85804
gfz2014ezjq   0.00000
gfz2014ezld  -4.08070
gfz2014ezvj   1.68060
gfz2014faex   1.01570
gfz2014fbli   0.32301
gfz2014fbnr   0.06673
gfz2014fjfz   0.01854
gfz2014flxk   0.10192
gfz2014fmdc   0.05098
gfz2014fqas   0.46864
gfz2014fsir   0.23325
gfz2014fsje   0.21288
gfz2014fskh   0.10685
gfz2014fsvc   0.58395
gfz2014fvza   0.28320
gfz2014fwuf   0.08033
gfz2014fwxt   1.03730
gfz2014fxim   0.06987
gfz2014fxte   0.22562
gfz2014fxtv  -0.15235
gfz2014fxuy   0.29055
gfz2014gasb   0.36468
gfz2014gbxg  -0.18922
gfz2014gcgf   0.20287
gfz2014gcia   0.14864
gfz2014gdbh   0.29224
gfz2014geln   0.12460
gfz2014ggie  -3.66540
gfz2014ginr   0.48776
gfz2014gjfd   0.19352
gfz2014gnbw   0.25501
gfz2014gpnr   2.24540
gfz2014gqxg   0.20110
gfz2014grwv   0.00480
gfz2014gsfc   0.88177
gfz2014gssz  -0.40675
gfz2014gtee  -0.02311
gfz2014gtoj   0.49005
gfz2014gutd   0.79793
gfz2014gypw   0.42287
gfz2014hapg   0.02167
gfz2014happ   0.34356
gfz2014hhey  -0.12219
gfz2014hhis  -0.15714
gfz2014hjmc  -0.04832
gfz2014igrp   0.20775
gfz2014ijsa   0.97764
gfz2014ikvw  -0.53440
gfz2014iltl   0.86625
gfz2014imqh   0.34237
gfz2014ined   0.56821
gfz2014inrg   0.56070
gfz2014iolv   0.93201
gfz2014ipfu   0.33586
gfz2014irlf   0.36429
gfz2014irln   0.13575
gfz2014irly   0.38253
gfz2014isjg   0.23823
gfz2014isov   0.61436
gfz2014itlx   0.27184
gfz2014ivgm   0.16574
gfz2014ixlc  -0.31585
gfz2014iyuc   0.09123
gfz2014jarg  -0.04781
gfz2014jaxy  -0.11528
gfz2014jayh   0.37823
gfz2014jfmc  -0.59524
