# Nsamples: 90  MAD:  0.432  mean: -0.019  std:  0.506
gfz2010btme  -0.06640
gfz2010crgy  -0.35142
gfz2010dask   0.21264
gfz2010djib  -0.31320
gfz2010drit   0.71807
gfz2010drml   0.91810
gfz2010drmq   0.91810
gfz2010drun  -0.49304
gfz2010fjme   0.63741
gfz2010habf  -0.46642
gfz2010rljv   0.31803
gfz2010tzma  -0.49368
gfz2010uhjy   0.36470
gfz2010vong   1.32180
gfz2010zjun   1.41530
gfz2011ahvh   0.72877
gfz2011bpqm   0.24056
gfz2011bsvr  -0.09724
gfz2011cdge  -1.41540
gfz2011chsa   0.33358
gfz2011dabj  -0.18422
gfz2011dpyu   0.12139
gfz2011fnie  -0.21338
gfz2011gnbk   0.19076
gfz2011gpyr   0.21558
gfz2011hjof   0.04505
gfz2011kjzt   0.03730
gfz2011kjzv  -0.39267
gfz2011mjje  -0.14304
gfz2011ndhh  -0.14129
gfz2011nuqo  -0.20684
gfz2011ofpj   0.76756
gfz2011oslk  -0.26523
gfz2011owqa   0.69331
gfz2011qukj   1.15000
gfz2011sdax   0.36859
gfz2011tlwl  -0.33557
gfz2011tsgl  -0.73045
gfz2011uqry  -0.01887
gfz2011vahy  -0.19937
gfz2011wucg   0.54745
gfz2011wwze   0.38219
gfz2011wyei   0.23320
gfz2011yexx   0.47767
gfz2012cvfr  -0.17206
gfz2012dwwu  -0.05177
gfz2012fyny   0.07260
gfz2012gjdg  -0.19489
gfz2012zhyz  -0.42718
gfz2013byyy   0.09537
gfz2013cyvx   0.20263
gfz2013delq  -0.83486
gfz2013fnpa   0.56659
gfz2013fulo   0.07629
gfz2013fvht  -0.15491
gfz2013icql  -0.60273
gfz2013iwzn  -0.26189
gfz2013jfcn  -0.17113
gfz2013jhog  -0.20259
gfz2013kats  -0.51152
gfz2013kcdb   0.22400
gfz2013lbvl  -0.49076
gfz2013oizq   0.44964
gfz2013osmj  -0.39080
gfz2013qigb  -0.01919
gfz2013qoak  -0.49603
gfz2013quwz   0.23124
gfz2013rwkj  -0.17284
gfz2013ubgt  -0.03087
gfz2013unuv  -0.33605
gfz2013utqa  -0.85194
gfz2013vmrv   0.31906
gfz2013wyfl   0.05181
gfz2013xahp  -0.15218
gfz2013xjmo  -1.20920
gfz2013xmzw  -0.16583
gfz2013xswc  -0.73103
gfz2014fsir  -0.55109
gfz2014fxte  -0.69815
gfz2014gypw   0.53290
gfz2014hyea  -0.28687
gfz2014hzzf  -0.38290
gfz2014icov   0.35266
gfz2014iltl   0.08233
gfz2014ined  -0.64264
gfz2014irlf  -0.26049
gfz2014irln  -0.34824
gfz2014irly   0.08298
gfz2014iusw  -0.06180
gfz2014jarg  -0.02982
