# Nsamples: 42  MAD:  0.713  mean:  1.360  std:  0.839
gfz2012vile   2.00170
gfz2012xlas   0.55182
gfz2012xlfo   1.08990
gfz2012xncm   1.56580
gfz2013jfcn   3.89590
gfz2013kats   1.44690
gfz2013kbbg   1.87150
gfz2013kcdb   1.40410
gfz2013kxlr   1.58140
gfz2013mvgq   2.58220
gfz2013oizq   0.73089
gfz2013oywh   2.48320
gfz2013phhi   1.88270
gfz2013qoak   0.14204
gfz2013quwz   1.13250
gfz2013quyn   0.96352
gfz2013qxof   1.15060
gfz2013rdmn   1.48030
gfz2013unuv   1.12440
gfz2013veug   0.72346
gfz2013vmrv   1.22930
gfz2013vmsg   0.66220
gfz2013vnwa   1.87860
gfz2013vvre   1.95810
gfz2013vzel   0.39695
gfz2013xahp   0.96383
gfz2013xofz   0.59407
gfz2013yawe   2.01900
gfz2014bdju   1.40510
gfz2014fsir   0.92111
gfz2014fxte   1.88210
gfz2014gnvp   2.06950
gfz2014gsfc   0.45767
gfz2014gypw   2.02940
gfz2014hyea   1.01150
gfz2014hzzf   1.05010
gfz2014icov   2.34620
gfz2014irln   1.45500
gfz2014iyuc   0.81003
gfz2014jarg   1.89220
gfz2014jayh   1.72720
gfz2014jbgm  -1.45560
