# Nsamples: 34  MAD:  0.776  mean:  0.502  std:  1.218
gfz2012suqd  -0.65813
gfz2012wowu   0.47188
gfz2012xlas  -0.14374
gfz2012xlfo   0.34189
gfz2012xncm   0.52898
gfz2012zkhu   0.86818
gfz2013bwgw   1.79500
gfz2013cvve   0.67413
gfz2013delq  -0.05710
gfz2013dngd   1.33090
gfz2013fnpa   0.91073
gfz2013hdbp   2.54340
gfz2013kbbg   0.53397
gfz2013kcdb  -0.53346
gfz2013mvgq   1.42550
gfz2013oywh   1.44100
gfz2013stup   0.05999
gfz2013tert   0.49212
gfz2013unuv   0.02566
gfz2013upqj   2.80910
gfz2013vcgd  -0.14643
gfz2013veug   2.52240
gfz2013vmsg   0.39896
gfz2013vnwa   1.41830
gfz2013xahp   0.16428
gfz2013xuxr   1.00220
gfz2013zlak   0.38067
gfz2014befl  -0.99619
gfz2014cncl   1.00840
gfz2014gypw  -0.93460
gfz2014huqh   0.71852
gfz2014hyea   0.42847
gfz2014hzzf   0.32857
gfz2014inrg  -4.08400
