# Nsamples: 23  MAD:  1.552  mean:  1.255  std:  2.266
gfz2011fnie   0.94334
gfz2011gzde   6.61480
gfz2011ndhh   0.16337
gfz2011ndki   5.00320
gfz2011nfgt  -2.61280
gfz2011nilw  -0.20083
gfz2011niuw  -3.57230
gfz2011paqj   0.05828
gfz2011pfwq   0.22461
gfz2011qklh   3.20200
gfz2011scma   1.10510
gfz2011tsgl  -0.49519
gfz2011txxs  -0.22034
gfz2011udxo   4.76930
gfz2011uqry   0.86783
gfz2012amjx   1.40120
gfz2012hhlx   2.10230
gfz2012kmmz   2.43770
gfz2012ldjj   2.33010
gfz2012wowu   1.51890
gfz2012xncm   1.63930
gfz2013dngd   1.31530
gfz2013icql   0.27706
