# Nsamples: 18  MAD:  0.493  mean: -1.123  std:  0.836
gfz2013bwgw  -1.51350
gfz2013cokc  -1.81130
gfz2013ddrx  -1.45450
gfz2013dngd  -1.68750
gfz2013dwsp   1.47280
gfz2013gsnl  -1.58020
gfz2013iwzn  -0.09041
gfz2013mvgq  -1.91530
gfz2013ntiu  -0.38643
gfz2013pvsa  -1.58910
gfz2013xmzw  -0.83413
gfz2013yawe  -0.65015
gfz2014ayxf  -2.06380
gfz2014bkra  -1.02260
gfz2014etqu  -1.19320
gfz2014eysf  -1.55490
gfz2014gnbw  -1.26930
gfz2014huqh  -1.07440
