# Nsamples: 79  MAD:  0.843  mean:  0.245  std:  1.424
gfz2010btme   0.49788
gfz2010cyid  -4.01320
gfz2010djib   1.36860
gfz2010dmij   0.00000
gfz2010pdip   1.18930
gfz2010pgpo   5.55390
gfz2010rhvu   2.63650
gfz2010sdfs   1.74180
gfz2010tzma  -0.29156
gfz2010ugws   0.11324
gfz2010umyp  -1.63280
gfz2010zkle  -0.66716
gfz2011cdge  -0.45547
gfz2011fnie   0.21541
gfz2011hvzo  -0.15726
gfz2011jryv  -2.85490
gfz2011lwmg  -0.53786
gfz2011mllb  -0.09693
gfz2011ndki  -0.07751
gfz2011nejg   1.25240
gfz2011nejw  -4.23240
gfz2011nfww  -0.38345
gfz2011nhvt   2.30380
gfz2011nijp   0.05204
gfz2011nilw   1.50560
gfz2011nlnl   1.51010
gfz2011nlum   0.42993
gfz2011nsiy  -0.16369
gfz2011nssr   0.45625
gfz2011nsyi   2.00750
gfz2011nuqo  -0.19705
gfz2011nvty   0.08209
gfz2011nyzk  -0.02208
gfz2011okza  -2.95140
gfz2011paqj   1.35550
gfz2011pfwq   0.82638
gfz2011qgea   1.20320
gfz2011scma   0.10856
gfz2011twpz   0.08643
gfz2011txxs  -0.63684
gfz2011unud   0.15022
gfz2011urwz   0.66505
gfz2011vcyx  -0.08211
gfz2011wgoa  -1.64820
gfz2011wyei   0.43008
gfz2011xlod  -0.51752
gfz2011ymji   0.49809
gfz2012amjx  -0.13704
gfz2012byrq   0.11016
gfz2012bytv   0.09287
gfz2012byuk  -2.38880
gfz2012cksh   0.26699
gfz2012dleg  -0.39765
gfz2012dugf  -0.43962
gfz2012dysu   1.44110
gfz2012erds   0.65867
gfz2012gmsr   1.56520
gfz2012hzur   0.09109
gfz2012iotw   0.05795
gfz2012kbub  -1.98280
gfz2012mjuu   1.82050
gfz2012mrqk   0.19680
gfz2012nnqu   2.57850
gfz2012oieq   1.02900
gfz2012rjlp  -0.55782
gfz2012suqd  -0.41251
gfz2012ulei   0.57778
gfz2012uzww   1.84970
gfz2012wowu   0.47744
gfz2012xlfo   0.93514
gfz2013adih   1.03250
gfz2013dngd  -0.23066
gfz2013glkq   1.46890
gfz2013gsnl   0.96900
gfz2013rdmn   0.41002
gfz2013tert  -0.77744
gfz2013veug   1.51980
gfz2013vmsg   0.03412
gfz2014ijsa   0.86789
