# Nsamples: 14  MAD:  0.586  mean:  1.592  std:  0.753
gfz2012gmsr   3.24250
gfz2012hzur   1.14940
gfz2012iotw   2.19340
gfz2012nsxc   1.60460
gfz2012rjlp   2.01980
gfz2012suqd   1.74420
gfz2012ulei   1.43900
gfz2013kcdb   1.47770
gfz2013rdmn   1.31970
gfz2013tert   1.14190
gfz2013vmsg   1.78350
gfz2013vzel  -0.08113
gfz2014flxk   2.23720
gfz2014huqh   1.02230
