# Nsamples: 8  MAD:  1.246  mean:  1.726  std:  1.381
gfz2011nhvt   3.22760
gfz2011nsiy   0.87120
gfz2011pfwq   0.66080
gfz2012byrq   0.27082
gfz2012hzur   2.30590
gfz2012kbub   0.62563
gfz2012wowu   4.08680
gfz2013rdmn   1.75890
