# Nsamples: 39  MAD:  1.879  mean:  1.061  std:  1.766
gfz2010ugws   4.70690
gfz2010umxj   1.37630
gfz2010umyp   0.84759
gfz2010uogw   1.80820
gfz2011bqbx   2.55500
gfz2011bsvr   1.36030
gfz2011cdge   2.98380
gfz2011exxq   4.58810
gfz2011fnie   1.94490
gfz2011hvzo   3.54040
gfz2011jryv  -1.00220
gfz2011mllb   0.40283
gfz2011ndki  -0.40687
gfz2011ndlh   1.96170
gfz2011nejg  -0.49814
gfz2011nimp   1.37990
gfz2011nlnl  -0.99989
gfz2011nsiy   0.14903
gfz2011nsyi  -0.82719
gfz2011nuqo   1.99710
gfz2011pfwq  -0.50471
gfz2011twpz  -0.24956
gfz2011txxs  -0.52841
gfz2011udxo   0.34063
gfz2011urwz   2.72650
gfz2011ymji  -2.61320
gfz2012byrq  -0.12138
gfz2012dysu   3.22950
gfz2012hhlx   0.10485
gfz2012hzur   0.13796
gfz2012kbub  -0.41962
gfz2012suqd   1.27860
gfz2012wowu   4.08130
gfz2012xlfo   2.57820
gfz2013aggr  -2.03850
gfz2013ntiu   0.38111
gfz2013rdmn   0.26753
gfz2013tert   2.38600
gfz2013vmsg   2.46460
