# Nsamples: 23  MAD:  0.978  mean:  0.812  std:  1.227
gfz2010tzma   1.35140
gfz2010zaxv   1.11440
gfz2010zjun   0.50857
gfz2011bqbx   3.83070
gfz2011bsvr   0.98620
gfz2011cdge   2.34030
gfz2011exxq   2.84520
gfz2011nejg  -0.07523
gfz2011nsiy   0.19164
gfz2011nvty   1.20740
gfz2011pfwq   0.44999
gfz2011tsgl  -0.72791
gfz2012amjx   0.15213
gfz2012dysu  -1.10950
gfz2012gmsr   1.76180
gfz2012hyba  -0.41336
gfz2012hzur   0.58506
gfz2012wowu   1.56080
gfz2013dngd   0.37499
gfz2013kcdb   0.68822
gfz2013rdmn  -1.51410
gfz2013vmsg   1.34770
gfz2014huqh   1.21140
