# Nsamples: 782  MAD:  0.423  mean:  0.043  std:  0.650
gfz2010abfc  -0.00062
gfz2010abvu  -0.17986
gfz2010aggj   0.20421
gfz2010aimm  -0.00351
gfz2010aldp   0.06505
gfz2010aseg   0.07873
gfz2010azji   0.00000
gfz2010bkfi   0.27074
gfz2010bklj  -0.66343
gfz2010bqnk  -0.45876
gfz2010brrm   1.04460
gfz2010btme  -0.60266
gfz2010bukb  -0.61544
gfz2010bvit  -0.10348
gfz2010byau   0.87126
gfz2010bytu  -0.18055
gfz2010cbnp   0.29804
gfz2010ccse   0.29594
gfz2010clbw   0.34893
gfz2010cllh   0.06675
gfz2010cphq  -2.75030
gfz2010crgy   0.45713
gfz2010crir   0.09923
gfz2010csqy   0.08087
gfz2010cthm  -2.01440
gfz2010cvkn   0.31676
gfz2010dask   0.27870
gfz2010djib   0.77473
gfz2010dmkd  -0.17771
gfz2010drit   0.09817
gfz2010drml   1.46530
gfz2010drmq   1.46530
gfz2010drun   0.10120
gfz2010dwgy  -0.10318
gfz2010dxhq  -1.66690
gfz2010eibh  -0.33335
gfz2010ekvl  -0.07487
gfz2010ethu   0.05460
gfz2010ewyj   1.06690
gfz2010fgbo  -0.46311
gfz2010fjio  -0.33776
gfz2010fjme  -0.33291
gfz2010fkff  -0.15195
gfz2010ftfq  -1.07040
gfz2010fxhh  -0.15601
gfz2010fxut  -0.81668
gfz2010gcqp  -0.27403
gfz2010gonu  -0.17984
gfz2010gooc  -0.37790
gfz2010habf   0.45524
gfz2010hllp   0.14048
gfz2010hsgv   0.44345
gfz2010hueh  -0.45459
gfz2010huzl  -0.81058
gfz2010hxan   0.25841
gfz2010ifhd   0.83919
gfz2010ixjl   0.07568
gfz2010izag   0.11834
gfz2010jcby  -0.12846
gfz2010jlvp   0.44363
gfz2010jpkn  -0.14502
gfz2010ljmp   0.10232
gfz2010ljzf  -0.28268
gfz2010ngge   0.58028
gfz2010nlai   0.62122
gfz2010ocug   0.06640
gfz2010oguu   0.04968
gfz2010okpc   1.00330
gfz2010okww   0.21479
gfz2010ouvm  -0.46435
gfz2010pclq  -0.13262
gfz2010pcya  -2.71130
gfz2010pgpo   0.73238
gfz2010prnw  -0.15753
gfz2010pvnn  -0.33016
gfz2010pzza   0.95413
gfz2010qbcy   0.54870
gfz2010qdqk   0.11470
gfz2010qrta   0.16974
gfz2010qykh  -0.79240
gfz2010qylh  -0.73050
gfz2010qzvf  -0.47506
gfz2010rdip   0.18963
gfz2010rkuu  -0.21922
gfz2010rljv  -0.06683
gfz2010rnwt   2.83510
gfz2010rpbz  -0.41555
gfz2010rpjd  -0.19284
gfz2010schp  -0.13529
gfz2010scht   0.47825
gfz2010sdfs   0.57066
gfz2010shvn   0.07869
gfz2010tcgh   0.86387
gfz2010tmba  -0.08716
gfz2010tpcj  -0.03765
gfz2010tvit  -0.09040
gfz2010tzlz  -0.17222
gfz2010tzma   0.08925
gfz2010ugws   0.52019
gfz2010uhjy   0.14272
gfz2010ujqn  -0.15371
gfz2010umxj  -0.04684
gfz2010umyp  -0.31245
gfz2010uogw  -0.37277
gfz2010uraq  -0.61176
gfz2010ussf   0.10630
gfz2010uveo   0.69368
gfz2010uyng   0.43939
gfz2010vdcf   0.35582
gfz2010vhzx  -0.19570
gfz2010vong   0.53703
gfz2010vybx   0.11099
gfz2010wakc  -0.11015
gfz2010wwhf   0.34040
gfz2010wwnq   0.22074
gfz2010xamh  -0.16395
gfz2010xaxw  -0.70984
gfz2010xhqq  -0.37485
gfz2010xnbn  -0.16864
gfz2010xpzq   0.22353
gfz2010xzah   0.33693
gfz2010yfdr  -0.28487
gfz2010ygrd   0.72120
gfz2010yhhj   0.42627
gfz2010yilf  -0.69218
gfz2010yrex   0.07361
gfz2010yspe  -0.85025
gfz2010ytzb  -0.42736
gfz2010zaxv   0.18802
gfz2010zhvj   1.14690
gfz2010zjun  -0.26987
gfz2011ahvh   0.03957
gfz2011ameb   0.70042
gfz2011amst  -0.46519
gfz2011aqpp   0.06493
gfz2011awsv  -0.19075
gfz2011bazz  -0.29644
gfz2011bcvc   0.21693
gfz2011bffb  -0.24343
gfz2011bpqm   0.27584
gfz2011bqbx  -0.52966
gfz2011bsvr   0.34257
gfz2011bwsm  -1.52010
gfz2011bygs   0.07158
gfz2011bygu   0.24538
gfz2011bzio   0.03723
gfz2011cdge  -1.00030
gfz2011cfyy   0.28024
gfz2011chsa  -0.36940
gfz2011cjcv   1.74620
gfz2011cjuz   0.98555
gfz2011cwsm  -0.29295
gfz2011cxdj  -0.28840
gfz2011dabj   0.41401
gfz2011dbzc  -0.03693
gfz2011dhfg  -0.06709
gfz2011dhqk  -0.25044
gfz2011dpyu   0.19783
gfz2011drmu  -0.28857
gfz2011duvm  -0.79157
gfz2011dwae  -0.24351
gfz2011edrq  -0.16317
gfz2011etkc   1.09100
gfz2011exxq   1.08700
gfz2011ffdh   0.57103
gfz2011fges   0.38135
gfz2011fnie  -0.10169
gfz2011fyfu  -0.59217
gfz2011fzcw   2.50550
gfz2011gaax  -0.38257
gfz2011gdli  -0.21451
gfz2011gdrl  -0.47217
gfz2011ggnl   1.18370
gfz2011glpg   0.11924
gfz2011gnbk  -0.00628
gfz2011gpyr  -0.14284
gfz2011hatg   0.15740
gfz2011hibi  -0.81536
gfz2011hjof   0.08781
gfz2011hqjs   1.05690
gfz2011hrgt  -1.04320
gfz2011hvzo   2.33030
gfz2011iamf  -0.28338
gfz2011ioch   2.43420
gfz2011iryz   0.14434
gfz2011jryv  -0.31401
gfz2011kjzt  -0.11770
gfz2011kjzv  -0.00341
gfz2011kujo  -0.29180
gfz2011kylu   0.10338
gfz2011kymm   1.39750
gfz2011kyzy   0.10097
gfz2011lkkf  -0.43834
gfz2011lmug   0.07217
gfz2011lxga   0.58473
gfz2011mjje   0.02467
gfz2011mror  -1.54330
gfz2011ndhh   0.63977
gfz2011nejg   0.93882
gfz2011nejw   1.32940
gfz2011nerb   0.24149
gfz2011nfcz   0.26791
gfz2011nfln  -3.24700
gfz2011nftw   1.03960
gfz2011nhby  -0.18749
gfz2011nhvt  -0.13036
gfz2011nhwf  -0.51285
gfz2011nijp   0.99518
gfz2011nilw   0.29284
gfz2011nimp   0.98674
gfz2011nisj   0.81472
gfz2011niuw  -1.52580
gfz2011nlmf   0.67888
gfz2011nlnl  -0.62695
gfz2011npaf  -1.15780
gfz2011nsrx   0.47106
gfz2011nsyi   1.26140
gfz2011nuqo  -0.35439
gfz2011nvty  -0.06578
gfz2011nyzk  -0.44036
gfz2011oadm   0.00000
gfz2011ofpj   1.46040
gfz2011okza  -0.43399
gfz2011oqjl  -0.13301
gfz2011oslk   0.79265
gfz2011osmp  -0.16888
gfz2011osuy  -0.80872
gfz2011owqa  -0.20136
gfz2011paqj   0.25418
gfz2011pcqr  -0.26480
gfz2011pdgq  -0.20807
gfz2011pdsn   0.48820
gfz2011pfls  -0.23102
gfz2011pfwq  -0.75669
gfz2011pgzk  -0.06225
gfz2011pivq   1.75150
gfz2011ppsc  -0.11205
gfz2011pwbw  -0.30790
gfz2011pwld  -0.02291
gfz2011qenl   0.27009
gfz2011qgea   2.19820
gfz2011qklh  -1.20180
gfz2011qlkj  -0.37637
gfz2011qukj  -0.28246
gfz2011rkau   0.65146
gfz2011sdax   0.41031
gfz2011sfmu   1.04060
gfz2011sfph  -0.33206
gfz2011sqco   0.00000
gfz2011swfp   1.87780
gfz2011sxno  -0.25416
gfz2011syvj   0.94348
gfz2011syzr  -0.00042
gfz2011taqr   0.96854
gfz2011tarj  -0.25592
gfz2011tjpv  -0.28960
gfz2011tozo   1.13420
gfz2011tqgg   0.66963
gfz2011tsgl   0.69787
gfz2011tssv  -0.10473
gfz2011tvuv   0.56544
gfz2011udxo   2.65470
gfz2011ugbt  -0.38749
gfz2011uowi  -0.69845
gfz2011uqlz   0.17650
gfz2011uqry   0.30575
gfz2011urwz   0.47364
gfz2011vahy  -0.02702
gfz2011varl   0.61199
gfz2011vcyx   0.40818
gfz2011vimn  -0.35062
gfz2011vsag  -0.30849
gfz2011vxek   0.06755
gfz2011wbtc   0.26018
gfz2011wcvs   0.42398
gfz2011wfsk   0.22659
gfz2011wngi  -0.22308
gfz2011wnjg  -0.05140
gfz2011wqup   0.06472
gfz2011wucg  -0.29163
gfz2011wwze  -0.26734
gfz2011wzss  -0.16560
gfz2011xagc   0.61198
gfz2011xgwy   1.14060
gfz2011xkka  -0.08687
gfz2011xlod  -0.07186
gfz2011xnui   0.09040
gfz2011xpcq  -0.14050
gfz2011xwdv  -0.60599
gfz2011xxng   0.96133
gfz2011yexx  -0.18011
gfz2011yjtx  -0.33584
gfz2011ypfh   0.69680
gfz2011ytob   0.25715
gfz2011ywtj   0.68139
gfz2011zcwn  -0.57816
gfz2011zghc   0.06947
gfz2011zgxn  -0.29190
gfz2011ziyk  -0.06534
gfz2011zkbt   0.17136
gfz2012adja  -0.05330
gfz2012ahac   0.13051
gfz2012amjx   1.49580
gfz2012amvs  -0.19956
gfz2012aqpa   0.09564
gfz2012auqr   1.91060
gfz2012bcvn   0.56713
gfz2012beae  -0.84124
gfz2012bity  -0.17430
gfz2012bjhl  -0.14361
gfz2012bolx  -0.13106
gfz2012bovy  -0.07187
gfz2012bqcf   0.18175
gfz2012byrq  -0.04293
gfz2012bysu   0.57704
gfz2012bytv  -0.17522
gfz2012byuk  -0.05043
gfz2012cdju  -0.20853
gfz2012cksh  -0.00000
gfz2012cmww  -0.11101
gfz2012cntu   0.51573
gfz2012crpb   0.58553
gfz2012cvfr   0.03858
gfz2012cxhw   1.04610
gfz2012dbgt   0.84372
gfz2012dcjd  -0.18069
gfz2012dejg  -0.73096
gfz2012dleg  -0.23116
gfz2012dnig  -0.06789
gfz2012dpnu  -0.02758
gfz2012dpwv   0.20991
gfz2012drak   0.54143
gfz2012dtlu  -0.17030
gfz2012dttl  -0.23305
gfz2012dtvr   0.32816
gfz2012dugf  -0.13966
gfz2012dwwu  -0.01902
gfz2012dyck   0.22806
gfz2012dzot   0.06894
gfz2012ebrr   1.03280
gfz2012eeft   0.32978
gfz2012ekfp  -1.10080
gfz2012elek  -0.22749
gfz2012enio   1.07780
gfz2012enrg  -0.08996
gfz2012erds   0.48685
gfz2012evxn   0.02591
gfz2012facv   0.42618
gfz2012fbgz  -0.38619
gfz2012fcyq  -0.33735
gfz2012fcyr  -0.29753
gfz2012fhaf  -0.10400
gfz2012flqf   0.17770
gfz2012foih   0.67313
gfz2012fyny  -0.19084
gfz2012fyop   0.00000
gfz2012gbrs  -0.95651
gfz2012gczh  -0.52254
gfz2012gftg   0.66975
gfz2012ghiv   0.13236
gfz2012gjdg  -0.11735
gfz2012gjtd  -0.00547
gfz2012gnow  -0.23385
gfz2012gpcd  -0.06411
gfz2012heih  -1.25590
gfz2012hhlx   0.19090
gfz2012hkxs  -0.05713
gfz2012hmcv  -0.31158
gfz2012hvtu  -0.53979
gfz2012hwph   0.12787
gfz2012hzur  -0.52459
gfz2012iijk   0.38915
gfz2012imsm  -0.86326
gfz2012ipdc   0.66356
gfz2012iroy  -0.21313
gfz2012iyoi   1.54450
gfz2012izke   0.05308
gfz2012jbzr   0.79492
gfz2012jlez  -0.40358
gfz2012jqxx  -0.29764
gfz2012jxnm  -1.70610
gfz2012kadi  -0.01865
gfz2012kbub   0.61009
gfz2012kmbo  -0.08966
gfz2012kmmz  -0.36386
gfz2012kstg  -0.27361
gfz2012kwmx  -0.04232
gfz2012ldjj   0.20524
gfz2012lqhw   0.15036
gfz2012luzm   0.09133
gfz2012lwha  -0.37826
gfz2012mcrb  -0.12256
gfz2012mdzf  -0.27130
gfz2012mjuu  -1.84190
gfz2012mmiw   0.50813
gfz2012mowv   0.10130
gfz2012mpzo   0.30181
gfz2012mrqk   0.82787
gfz2012mrwu   0.26281
gfz2012mwhe  -0.33956
gfz2012mzqx   0.19609
gfz2012ndwt   0.13866
gfz2012nfos   0.45728
gfz2012nldz   1.03090
gfz2012nmja   0.54377
gfz2012nqvd  -0.31195
gfz2012nsxc   0.02443
gfz2012oafg  -0.29035
gfz2012oehy  -0.28811
gfz2012ojmv  -0.36850
gfz2012oork  -0.06449
gfz2012oozp  -0.96048
gfz2012oyja   0.06923
gfz2012pdav  -0.44467
gfz2012pekf   0.09614
gfz2012pgmw   0.06045
gfz2012phns  -0.44490
gfz2012pira   0.11620
gfz2012pokk  -0.25630
gfz2012ppcq  -0.52871
gfz2012prke  -0.21613
gfz2012pryl   0.24286
gfz2012pvve   0.12929
gfz2012pziw  -0.89878
gfz2012qfah   0.30036
gfz2012qllj  -0.26085
gfz2012qmhz  -0.89326
gfz2012rduv   1.58540
gfz2012rjlp   1.20290
gfz2012rknz  -0.51899
gfz2012roan   0.11216
gfz2012sjdy   0.53212
gfz2012sjox  -0.15547
gfz2012smyn  -0.11229
gfz2012socz  -0.35639
gfz2012sopp   0.65996
gfz2012sqsc  -0.57218
gfz2012svwz   0.44747
gfz2012sxbo  -0.08984
gfz2012sxpr  -0.03952
gfz2012sxzs  -0.22632
gfz2012taph  -0.54571
gfz2012tgta  -0.08279
gfz2012tisj   0.34952
gfz2012touh  -0.21941
gfz2012trfq  -0.12806
gfz2012trss   1.02150
gfz2012ttnf   0.04871
gfz2012tvgw  -0.16695
gfz2012twec  -0.02444
gfz2012udeo   2.40660
gfz2012udxg  -0.16251
gfz2012uegq   0.49401
gfz2012ukzg   0.00000
gfz2012ulei  -0.04041
gfz2012unxc  -0.28430
gfz2012urtu   0.38262
gfz2012uvoa  -2.17450
gfz2012uzww   0.24211
gfz2012vcqw  -0.18145
gfz2012vdra  -4.96790
gfz2012vdsl  -0.47747
gfz2012vgot  -0.24550
gfz2012vitw   0.27095
gfz2012vkjw   0.21832
gfz2012vlzv  -0.06419
gfz2012vqmq   0.66635
gfz2012vrqz   0.74429
gfz2012vurc   1.24280
gfz2012wdxk   0.12180
gfz2012wgdv  -0.24314
gfz2012wgmg   0.24653
gfz2012wjpf   0.13768
gfz2012wkki  -0.22742
gfz2012wowu  -0.45250
gfz2012woxj  -0.45424
gfz2012wpen   0.44470
gfz2012wqfz   0.73089
gfz2012wysg   0.32035
gfz2012wzja   0.96542
gfz2012xask   0.24681
gfz2012xbna   0.31284
gfz2012xfnu   0.51903
gfz2012xfsk   0.11548
gfz2012xfsl   0.25557
gfz2012xkln  -0.17420
gfz2012xkvu  -0.21399
gfz2012xlas  -0.61601
gfz2012xlfo  -0.48768
gfz2012xncm  -0.72450
gfz2012xrmq   0.04379
gfz2012xxdj   0.70311
gfz2012yegw  -0.08967
gfz2012yncm  -0.91668
gfz2012zhyz  -0.36717
gfz2012zido   0.38594
gfz2012zkhu  -1.36720
gfz2012zqis  -0.49072
gfz2013afzh   0.13289
gfz2013agbm   0.26770
gfz2013aggr  -0.41085
gfz2013akkd  -0.44989
gfz2013atak  -0.41838
gfz2013bwgw  -0.48438
gfz2013byyy   0.53973
gfz2013cfls   1.08100
gfz2013cokc   0.68743
gfz2013cpjc   0.44962
gfz2013cvve   1.11060
gfz2013cyvx   0.04525
gfz2013delq   0.44079
gfz2013dftb   0.19327
gfz2013dfvx   1.55910
gfz2013enga  -0.53751
gfz2013enqo   0.36083
gfz2013enrh  -0.15994
gfz2013esef  -0.07903
gfz2013ewht  -0.33142
gfz2013ezmc  -0.35190
gfz2013ffjt  -0.16029
gfz2013fmcd  -0.02105
gfz2013fmcp   0.61873
gfz2013fndg  -0.24473
gfz2013fnpa   0.43014
gfz2013foto   0.19354
gfz2013frxd   0.85276
gfz2013fulo  -0.54157
gfz2013fxyr   0.26104
gfz2013fybd  -0.33131
gfz2013gkyn   0.60442
gfz2013glkq   1.13720
gfz2013glpz   0.00251
gfz2013gomv  -0.03214
gfz2013grle   1.73760
gfz2013gsnl  -0.52211
gfz2013gugi  -0.69539
gfz2013gurk  -0.02825
gfz2013gxye  -0.16953
gfz2013gyce   1.05130
gfz2013gywl  -0.34631
gfz2013hbmi   0.00198
gfz2013hbtm  -0.15903
gfz2013hduf  -0.31552
gfz2013hiam   0.19005
gfz2013hqaa   0.44560
gfz2013hvzv  -0.10360
gfz2013hwps   0.76996
gfz2013icgx  -0.04956
gfz2013icql  -1.05790
gfz2013iuyv   0.71497
gfz2013ivvw  -0.91897
gfz2013iwhc   0.16705
gfz2013iybg   0.19685
gfz2013jfcn   0.44738
gfz2013jkqn  -0.22090
gfz2013jzcf  -0.13778
gfz2013kats  -0.51589
gfz2013kbbn  -0.70385
gfz2013kcdb  -0.41454
gfz2013kdfy   0.73563
gfz2013kjgh  -0.36853
gfz2013kpes  -0.24235
gfz2013kqab   0.05218
gfz2013ksaz  -0.03075
gfz2013kslp   0.53514
gfz2013kxlr   0.09680
gfz2013lbod  -0.07411
gfz2013lbvl   0.32959
gfz2013lgvf  -0.23544
gfz2013ljdu   0.53177
gfz2013lnts  -0.33833
gfz2013lvxe   0.46871
gfz2013mdxj  -0.00608
gfz2013muqm   0.04472
gfz2013mvgq   0.25270
gfz2013mynb  -0.29888
gfz2013mzaw  -0.25998
gfz2013njwj  -0.09351
gfz2013nkgd   0.06176
gfz2013nkgt   0.92010
gfz2013nnai  -0.11273
gfz2013noqf  -0.13553
gfz2013ntfc   0.07023
gfz2013ntiu  -0.19502
gfz2013ohnj   0.72740
gfz2013oizq  -0.29939
gfz2013ojza   0.00000
gfz2013okac   0.41336
gfz2013onvl  -0.09145
gfz2013ortl   0.02981
gfz2013oruq  -0.09795
gfz2013osmj   0.55988
gfz2013otuj  -0.37854
gfz2013oywh   0.35015
gfz2013phhi   0.00364
gfz2013phly   0.84010
gfz2013pizm  -0.12790
gfz2013pkmz  -0.26227
gfz2013pqkp   1.16530
gfz2013pvsa  -0.02034
gfz2013pzdr  -0.13375
gfz2013qdks  -0.29046
gfz2013qdpv   0.17095
gfz2013qdzg   0.49996
gfz2013qear   0.15987
gfz2013qigb  -0.65839
gfz2013qnqr   0.10167
gfz2013qntl  -0.21294
gfz2013qoak  -1.37250
gfz2013qogb  -0.41025
gfz2013quwz   0.00000
gfz2013qwnm   0.36492
gfz2013qxof  -0.41190
gfz2013rdmn   0.34717
gfz2013rfik  -0.21752
gfz2013rhbx   0.09563
gfz2013rhxf  -0.30543
gfz2013rnsa   0.04123
gfz2013rtvy  -0.05763
gfz2013ryph   0.03150
gfz2013skay   0.60192
gfz2013skvq  -0.52688
gfz2013stou   0.00000
gfz2013stup   1.27530
gfz2013swnj  -0.14843
gfz2013taeb  -0.53650
gfz2013tcju  -0.17388
gfz2013tekq  -0.27998
gfz2013tert   0.55181
gfz2013tjub   1.40710
gfz2013tkcg   0.16819
gfz2013tmyj  -0.00000
gfz2013tnff   0.11517
gfz2013tnrp   0.25269
gfz2013trsq   0.31068
gfz2013uafv  -1.39560
gfz2013udtw   0.02350
gfz2013uenl  -0.30926
gfz2013uepl  -0.35658
gfz2013ujze   0.26931
gfz2013unuv   0.13469
gfz2013upqj   0.91698
gfz2013utqa  -0.26569
gfz2013uwjo  -0.60333
gfz2013uxzw   0.77967
gfz2013uzmf   0.10369
gfz2013vcgd   0.14048
gfz2013vdam   0.02539
gfz2013vjrr   0.14438
gfz2013vldx   0.33273
gfz2013vmrv   0.22528
gfz2013vmsg  -0.70293
gfz2013vmsn   0.04890
gfz2013vnwa   1.30760
gfz2013voai  -0.11841
gfz2013vvre  -0.92194
gfz2013vwkh  -0.16001
gfz2013vxht   0.09685
gfz2013vzel   0.36063
gfz2013wgwz   0.19655
gfz2013wigs   1.11730
gfz2013wwee  -0.39859
gfz2013wyfl  -0.17646
gfz2013xahp   0.00393
gfz2013xddu  -1.19840
gfz2013xmzw  -0.31921
gfz2013xodn  -0.02071
gfz2013xofz  -0.40008
gfz2013xswc   0.18372
gfz2013xupg  -0.01969
gfz2013xvps   0.02801
gfz2013xycz  -0.01310
gfz2013yihv   0.30756
gfz2013ykkf  -0.31883
gfz2013ykqw  -0.43773
gfz2013yktj   0.29408
gfz2013ylxm  -1.42160
gfz2013ymhx  -0.13063
gfz2013yodm  -0.20342
gfz2013yqkz  -0.02361
gfz2013yqtu   0.86380
gfz2013ytfm   1.14340
gfz2013yvnj  -0.00363
gfz2013yxif   0.13167
gfz2013zbfb  -0.05658
gfz2013zedt   0.09525
gfz2013zeye  -0.28746
gfz2013zfbz  -0.18306
gfz2013zlak  -0.76311
gfz2014aapq   0.06768
gfz2014aedl   0.39053
gfz2014amgk   0.12207
gfz2014aqax   1.28940
gfz2014aqop  -0.23839
gfz2014ateb   0.14135
gfz2014avzp   0.18885
gfz2014ayxf  -1.00710
gfz2014azfu  -0.43484
gfz2014befl  -0.27163
gfz2014bgyv  -0.71604
gfz2014bmch  -0.18168
gfz2014bnea   0.44007
gfz2014byes  -0.14635
gfz2014bzus   0.00000
gfz2014cbfo  -0.36780
gfz2014cjao  -0.00054
gfz2014club  -0.10853
gfz2014cokw  -0.03450
gfz2014crac   0.71663
gfz2014cvnb   0.14491
gfz2014cwti  -0.76568
gfz2014dbmu   0.02072
gfz2014dbqi  -0.14462
gfz2014dece  -0.74844
gfz2014dggw   0.14805
gfz2014dihl  -0.53763
gfz2014djhi   0.16521
gfz2014djyj  -0.15379
gfz2014dmrw  -0.10094
gfz2014dpps   0.09444
gfz2014dudd  -0.20147
gfz2014dwcp  -0.07982
gfz2014dykt  -0.33486
gfz2014eflc   0.26729
gfz2014eiav  -0.38730
gfz2014eirs   0.04898
gfz2014emlw  -0.77182
gfz2014eoay  -0.08832
gfz2014epfm   0.36808
gfz2014epnq   0.39696
gfz2014epue  -1.32950
gfz2014esez   0.71307
gfz2014etgp  -0.30469
gfz2014eunw  -0.01417
gfz2014evgu  -0.48372
gfz2014evhm  -0.22758
gfz2014fbli  -0.00698
gfz2014ffqg  -0.08481
gfz2014fjfz  -0.04685
gfz2014flxk   0.35134
gfz2014fqas   0.42455
gfz2014fsir  -0.21293
gfz2014fsje  -0.39057
gfz2014fwuf  -0.01070
gfz2014fwxt   1.16770
gfz2014fxte   0.67468
gfz2014fxuy  -0.23334
gfz2014geln   0.94237
gfz2014ginr   0.57824
gfz2014gjfd   0.17804
gfz2014gnbw  -0.03217
gfz2014gsfc   0.78998
gfz2014hapg   0.41275
gfz2014happ   0.32584
gfz2014hhey  -0.02845
gfz2014hkcw  -0.10335
gfz2014hotu  -0.07019
gfz2014hqhv   0.15600
gfz2014huah   0.07944
gfz2014hyea   0.12198
gfz2014hzzf  -0.25484
gfz2014icov   0.43376
gfz2014igrp  -0.10824
gfz2014ijsa  -1.00910
gfz2014ikvw  -0.30001
gfz2014iltl  -0.11960
gfz2014ined   0.49345
gfz2014inrg   1.76810
gfz2014ipfu   0.35904
gfz2014irlf   0.35573
gfz2014irln   0.39939
gfz2014itlx  -0.62272
gfz2014ivgm  -0.07414
gfz2014ixlc  -0.59849
gfz2014iyuc  -0.52318
gfz2014jarg  -0.02733
gfz2014jaxy   0.95666
gfz2014jayh   0.16525
gfz2014jbfp  -0.24592
gfz2014jcbj   0.85114
gfz2014jckg  -0.78375
gfz2014jfmc  -0.95188
