# Nsamples: 119  MAD:  0.722  mean:  0.020  std:  1.020
gfz2010cphq   0.57562
gfz2010crgy  -0.47056
gfz2010crir   0.25041
gfz2010dask   0.29625
gfz2010djib  -0.27503
gfz2010drit  -0.27892
gfz2010drpv  -0.58792
gfz2010drun  -0.22780
gfz2010dtyx   0.40887
gfz2010fgbo   1.31230
gfz2010fjme  -0.96394
gfz2010gxki   1.16360
gfz2010habf   0.46566
gfz2010hueh   0.98000
gfz2010jlvp  -0.07119
gfz2010mdti   0.39253
gfz2010mqzz   0.75300
gfz2010ngge   1.31760
gfz2010nkrw   0.05859
gfz2010okpc  -3.02240
gfz2010pcya   0.35743
gfz2010rhvu   1.16490
gfz2011uqry  -0.53138
gfz2011urwz  -0.41047
gfz2011vahy  -0.29872
gfz2011vcyx  -0.09964
gfz2011wkyx   0.41619
gfz2011ykbd   0.17067
gfz2011zghc   0.14173
gfz2012amjx  -0.03909
gfz2012amvs  -0.24596
gfz2012arlo   2.11500
gfz2012bqcf  -0.02346
gfz2012byrq  -1.10610
gfz2012cksh   0.60277
gfz2012cvfr  -0.07199
gfz2012dejg   1.26670
gfz2012ekfp  -1.13620
gfz2012foih   1.56550
gfz2012hzur   0.26988
gfz2012iijk   0.37234
gfz2012jihg   1.55450
gfz2012kmmz  -1.17770
gfz2012ldjj   0.10964
gfz2012lqhw   0.56140
gfz2012lvlr   4.08020
gfz2012mjuu   0.10875
gfz2012nnqu  -0.98465
gfz2012oafg  -0.36743
gfz2012oieq  -0.96597
gfz2012pdav  -4.79430
gfz2012phns   0.13874
gfz2012qbbt   0.77437
gfz2012qmhz  -0.85998
gfz2012qpoc  -0.35742
gfz2012socz  -0.51072
gfz2012tjih   0.74316
gfz2012twec  -0.20024
gfz2012uhtc  -0.68070
gfz2012ulei  -1.62120
gfz2012uzww   0.09316
gfz2012wowu  -0.18532
gfz2012wysg  -0.31311
gfz2012xlfo  -0.22217
gfz2012xncm  -1.46570
gfz2012xqxw  -0.85483
gfz2012yegw   0.71075
gfz2012zkhu   0.82537
gfz2013dngd   2.16180
gfz2013eidd   0.33339
gfz2013fnpa  -0.66918
gfz2013gqtl   0.53580
gfz2013hwps   1.19580
gfz2013icql   0.28632
gfz2013irme   0.37236
gfz2013iwzn   2.16860
gfz2013jfcn  -1.39540
gfz2013kats  -0.27656
gfz2013kbbg   0.34484
gfz2013kcdb  -1.01130
gfz2013kpcb   1.23170
gfz2013kqab  -0.43984
gfz2013lbvl  -0.19697
gfz2013mzaw  -0.58682
gfz2013ntiu   0.58241
gfz2013oizq   1.91430
gfz2013olos  -0.48265
gfz2013oywh  -0.20367
gfz2013phhi   0.60203
gfz2013quwz  -0.49128
gfz2013quyn  -0.52238
gfz2013qxof   0.37321
gfz2013rdmn  -0.49880
gfz2013taeb   0.55041
gfz2013udtw  -0.32317
gfz2013ujze  -0.55992
gfz2013utqa   0.11392
gfz2013uxzw   0.57876
gfz2013veug   0.09232
gfz2013vmrv  -0.85067
gfz2013vmsg   1.02200
gfz2013vnwa  -1.53180
gfz2013wyfl  -0.67913
gfz2013xswc   0.89151
gfz2014aedl   0.21258
gfz2014ayxf  -0.34515
gfz2014cwti  -0.17588
gfz2014eirs  -1.83860
gfz2014epnq  -0.12035
gfz2014fbli   0.52577
gfz2014flxk   0.14652
gfz2014fsir  -0.28912
gfz2014fxte   0.25171
gfz2014icov  -1.13740
gfz2014iltl  -0.47068
gfz2014irlf  -0.50264
gfz2014isov   0.54398
gfz2014iyuc   0.24267
gfz2014jarg  -0.04331
