# Nsamples: 390  MAD:  1.028  mean:  0.081  std:  1.343
gfz2012cksh   0.67813
gfz2012crpb   2.22280
gfz2012cvfr  -0.70496
gfz2012cwhl   4.53380
gfz2012cxhw   0.32861
gfz2012dbgt  -2.38280
gfz2012dcjd   0.37878
gfz2012dejg   1.43200
gfz2012dleg  -1.24790
gfz2012dluf   7.28280
gfz2012duwm  -0.08706
gfz2012dwwu  -0.34196
gfz2012dysj  -0.70168
gfz2012dyua   0.18557
gfz2012dzjo   0.68237
gfz2012dzoh   1.39480
gfz2012dzot   0.13533
gfz2012dzou  -4.65110
gfz2012eajr  -0.06117
gfz2012eary   0.22247
gfz2012ebff  -0.46023
gfz2012ebhf   1.90280
gfz2012ekfp  -2.14330
gfz2012ekro   0.02922
gfz2012elek  -0.13180
gfz2012emin   1.50320
gfz2012enio   0.57392
gfz2012erds  -0.07938
gfz2012evav  -0.31757
gfz2012hlya  -0.91307
gfz2012hvtu   1.05670
gfz2012hyqh   1.06180
gfz2012hzhn   1.58180
gfz2012hzur   2.47650
gfz2012iblo   0.06629
gfz2012icjo   1.06760
gfz2012idxu   0.74658
gfz2012iedy   0.18274
gfz2012ieln  -0.18011
gfz2012imsm  -0.02202
gfz2012iphs  -0.54578
gfz2012ivyg   0.10066
gfz2012iyhs   1.44440
gfz2012izke  -0.70098
gfz2012jaun   1.99430
gfz2012jlez   0.59732
gfz2012jodg   1.20130
gfz2012jopi   2.07770
gfz2012klpl  -0.29595
gfz2012kmbo  -0.04747
gfz2012kmmz  -0.53298
gfz2012kwmx   0.47312
gfz2012lcro  -0.20581
gfz2012ldjj  -0.55858
gfz2012lqhw   0.46154
gfz2012luzm  -0.44176
gfz2012lvlr   0.72736
gfz2012lwha   0.84808
gfz2012lyqs   0.16235
gfz2012lyyr   0.33497
gfz2012mdzf   2.01420
gfz2012mhik  -0.15853
gfz2012mjzl  -0.67921
gfz2012mmiw   1.06200
gfz2012mpzo  -0.73866
gfz2012mrqk   0.33890
gfz2012mrwu  -0.49108
gfz2012mtyn   0.46261
gfz2012mvgu   0.03706
gfz2012nldz  -3.55070
gfz2012nnck  -0.88466
gfz2012nnqu   2.04450
gfz2012oafg  -1.16950
gfz2012ofnx   1.15650
gfz2012oieq   1.15070
gfz2012oiez   1.70060
gfz2012ojmv   1.25650
gfz2012ooij   0.22386
gfz2012oork  -1.31390
gfz2012oozp   0.18011
gfz2012oyja  -0.18122
gfz2012pcui   0.02478
gfz2012pdav   0.75931
gfz2012pgmw   0.15818
gfz2012phns  -1.31280
gfz2012pmuj   2.14290
gfz2012pmuq  -0.93950
gfz2012ppcq  -1.17860
gfz2012ppsw  -0.12383
gfz2012prke   0.02245
gfz2012pryl  -1.07570
gfz2012pumy   0.34598
gfz2012qbbt   0.52348
gfz2012qfah  -1.61040
gfz2012qfov   1.71560
gfz2012qllj  -2.50180
gfz2012qpoc  -0.63951
gfz2012rjlp  -1.07270
gfz2012rnml  -0.14913
gfz2012roan   1.01320
gfz2012rugl   0.21592
gfz2012rzwp  -0.50711
gfz2012sbix   0.53855
gfz2012sfao  -0.10990
gfz2012smyn  -0.61024
gfz2012sopp   1.07360
gfz2012sqsc   0.68472
gfz2012ssnb  -1.57820
gfz2012suqd  -0.32308
gfz2012svwz  -0.23654
gfz2012swbz  -0.35790
gfz2012sxbo  -0.05072
gfz2012sxpr   1.23160
gfz2012sxzs   0.42366
gfz2012syum  -0.98719
gfz2012tgta   0.42799
gfz2012tisj  -1.10600
gfz2012tjih  -1.64050
gfz2012tyoz   1.14540
gfz2012umob   0.46091
gfz2012uvea  -0.28897
gfz2012uvoa  -0.10553
gfz2012uwne  -0.15602
gfz2012uzww   0.05407
gfz2012vaqd   0.99610
gfz2012vcqw  -0.12214
gfz2012vdra   2.50070
gfz2012vdsl   0.72663
gfz2012vgot  -1.26470
gfz2012vile   0.43178
gfz2012vitw  -0.36781
gfz2012vqmq  -0.53421
gfz2012wowu  -0.77300
gfz2012woxj   0.09311
gfz2012wysg  -0.96093
gfz2012xfnu   1.12240
gfz2012xfsk   0.52212
gfz2012xkvu   0.50287
gfz2012xlfo   0.48846
gfz2012xncm   0.37146
gfz2012xppl   0.03774
gfz2012xrmq  -0.20532
gfz2012yegw  -0.14457
gfz2012ylai  -0.10696
gfz2012yncm   1.66000
gfz2012yvwc  -0.51462
gfz2012ywei  -1.30240
gfz2012zhyz   1.30170
gfz2012zqis   0.78250
gfz2013aclz  -1.40050
gfz2013adih  -1.97730
gfz2013afzh   0.89248
gfz2013aggr   3.12440
gfz2013agmt   0.44275
gfz2013akkd   1.17150
gfz2013bdvi   0.97495
gfz2013bgyg   1.15030
gfz2013bwgw   1.04990
gfz2013byyy  -0.02284
gfz2013cfls   3.42720
gfz2013cinv   0.69780
gfz2013cvve  -1.10520
gfz2013cyvx  -1.59460
gfz2013delq   0.03190
gfz2013dftb  -0.43380
gfz2013dfvx  -1.94470
gfz2013dksc   0.10507
gfz2013dmzh   1.43250
gfz2013dngd   0.74762
gfz2013dnot   0.12803
gfz2013dtjl   1.46030
gfz2013dvub  -0.13937
gfz2013dwsp   0.12853
gfz2013eavq  -0.44444
gfz2013efys   1.08440
gfz2013ektd   0.14026
gfz2013enqo   0.66630
gfz2013enrh  -0.30123
gfz2013esef   0.81913
gfz2013evcl  -0.63241
gfz2013fmcd   0.86239
gfz2013fmcp  -5.06480
gfz2013fnpa  -0.38867
gfz2013fvyr   2.22470
gfz2013gaqx   1.70380
gfz2013gbki  -0.58077
gfz2013gbma  -0.57881
gfz2013gglk  -0.86778
gfz2013gkyn  -0.62658
gfz2013gurk  -0.01922
gfz2013gywl  -3.42050
gfz2013havw   0.21735
gfz2013hduf   2.75550
gfz2013hiam  -0.26819
gfz2013hinw  -1.71770
gfz2013hjtt   1.30100
gfz2013hqaa   0.03693
gfz2013hvzv   0.04524
gfz2013icql  -2.14400
gfz2013idqu  -2.18030
gfz2013ifag  -0.57811
gfz2013irme  -1.25870
gfz2013isqh  -0.52036
gfz2013iwzn   0.77938
gfz2013jfcn  -0.48923
gfz2013jobl   1.91270
gfz2013kats   1.45160
gfz2013kbbg   1.42750
gfz2013kbbn   1.64650
gfz2013kbkp   4.03990
gfz2013kcdb  -2.98480
gfz2013kqab  -0.51891
gfz2013kuno   0.23460
gfz2013lbod   0.18162
gfz2013lbvl   0.03123
gfz2013lgvf  -2.58520
gfz2013ljdu   1.13940
gfz2013lxed  -0.69136
gfz2013lxnd   0.05823
gfz2013mdxj  -0.47722
gfz2013mimp   0.04617
gfz2013mynb   4.44760
gfz2013mzaw  -1.09080
gfz2013ohnj   1.69370
gfz2013okxa  -0.23142
gfz2013orot   1.31200
gfz2013osmj  -0.63289
gfz2013otuj  -1.43370
gfz2013phhi   2.62050
gfz2013phly   3.52830
gfz2013pizm  -0.46357
gfz2013pkmz   0.38048
gfz2013pqkp   2.99460
gfz2013pwsm  -0.00000
gfz2013qaex  -3.86690
gfz2013qdks   0.30736
gfz2013qdno   1.00760
gfz2013qigb  -0.25674
gfz2013qmkt   0.51905
gfz2013qntl   2.11050
gfz2013qoak  -2.61040
gfz2013qogb  -0.57187
gfz2013quwz  -0.41472
gfz2013quyn  -0.65637
gfz2013qwnm   0.65840
gfz2013qxof   1.07950
gfz2013rdmn   1.51150
gfz2013rhbx   0.86581
gfz2013rocs   0.13084
gfz2013rsyt  -0.18079
gfz2013rwog  -0.96295
gfz2013skvq  -0.02882
gfz2013stup  -0.93237
gfz2013suck  -0.23760
gfz2013syqv  -0.86492
gfz2013taeb  -0.45772
gfz2013tgyb  -1.12160
gfz2013tmyj   0.88172
gfz2013tnrp   0.80490
gfz2013tpwl   0.53420
gfz2013trsq  -0.02550
gfz2013twbc   2.07260
gfz2013udtw  -0.37757
gfz2013upqj  -0.81364
gfz2013utqa   0.25775
gfz2013uugc  -0.32914
gfz2013uwjo  -0.81719
gfz2013uxzw   0.82868
gfz2013uzmf  -1.05060
gfz2013vdam   0.43777
gfz2013veug   0.29969
gfz2013vgfb  -0.14214
gfz2013vjrr   0.04933
gfz2013vmrv  -3.31090
gfz2013vmsg   0.92394
gfz2013vmsn   0.64250
gfz2013vnwa  -1.00970
gfz2013vsdd   0.10311
gfz2013vvre   1.86750
gfz2013vxht   0.60552
gfz2013vzel  -1.14090
gfz2013wyfl  -0.67141
gfz2013xahp  -0.21860
gfz2013xbdc   0.80010
gfz2013xswc   0.38689
gfz2013xvps  -0.64832
gfz2013ykkf   0.73610
gfz2013ykqw  -0.84749
gfz2013yktj  -1.30760
gfz2013yodm   0.65574
gfz2013yqtu  -0.60097
gfz2013ytmi   0.92750
gfz2013yxhf   1.81580
gfz2013yywh  -1.21220
gfz2013zfbz  -0.88780
gfz2013zghn  -0.28773
gfz2013ziix   2.83860
gfz2013zkta  -0.58250
gfz2013zpwk  -0.84391
gfz2014aaae   0.34943
gfz2014aapq   1.50560
gfz2014aedl   2.06710
gfz2014aejh  -0.84336
gfz2014afbt   0.41739
gfz2014ajgi  -0.23300
gfz2014alzg   0.11624
gfz2014amgk  -1.09710
gfz2014amsy   2.62730
gfz2014aqax   0.42414
gfz2014aqop  -0.67991
gfz2014arox   0.59012
gfz2014ascp  -0.00087
gfz2014ateb  -0.65315
gfz2014avmd   2.10810
gfz2014ayxf   1.08820
gfz2014azfu  -0.01775
gfz2014bdju   0.84689
gfz2014befl   0.78963
gfz2014bgyv  -1.07890
gfz2014bhch   0.52125
gfz2014bkra   0.69132
gfz2014bmqw   0.13184
gfz2014bnea   0.07737
gfz2014bycg  -1.12730
gfz2014byes  -1.26300
gfz2014bzus  -0.52430
gfz2014cgoi   0.09563
gfz2014cgxj  -1.16690
gfz2014cjao   0.55056
gfz2014cncl   0.56120
gfz2014cokw   0.44554
gfz2014ctdl  -0.34127
gfz2014cwcj  -3.23850
gfz2014dbqi   0.86650
gfz2014dece   3.80290
gfz2014dggw  -0.51813
gfz2014diuu  -1.28530
gfz2014djhi   1.57190
gfz2014djyj  -0.45983
gfz2014dmrw  -1.37220
gfz2014dpny  -0.16891
gfz2014dpps   0.96512
gfz2014dsqr  -0.79313
gfz2014dtth   0.07215
gfz2014dutu   0.13193
gfz2014edjm   0.95087
gfz2014egvg  -0.45635
gfz2014eiav  -0.42275
gfz2014eirs  -0.75970
gfz2014emlw   0.11282
gfz2014fbli  -0.66080
gfz2014fbnr   1.03810
gfz2014fdhk   0.06353
gfz2014ffqg   0.76148
gfz2014fgbn  -0.38277
gfz2014fjfz   0.78956
gfz2014fwxt  -1.26520
gfz2014gutd  -1.12700
gfz2014gypw   0.97887
gfz2014hhis  -4.05800
gfz2014hjmc   0.39721
gfz2014hqhv   0.56663
gfz2014huah   1.60160
gfz2014hzzf   0.16419
gfz2014iaqm   2.41600
gfz2014iayo  -1.71950
gfz2014icov   0.97343
gfz2014igrp  -0.64281
gfz2014ijov   0.46524
gfz2014ikvw  -0.31614
gfz2014iltl  -2.34980
gfz2014imqh  -1.26600
gfz2014ined   0.04017
gfz2014inrg   0.61846
gfz2014ipfu  -4.51950
gfz2014ipwk   1.81280
gfz2014irlf  -0.54702
gfz2014irln   0.42717
gfz2014irly  -0.56531
gfz2014isjg   0.09900
gfz2014isov  -0.31421
gfz2014itlx  -0.58165
gfz2014iusw  -0.98492
gfz2014ivgm  -1.07100
gfz2014ixlc   0.03270
gfz2014iyuc  -0.08669
gfz2014jarg  -1.25700
gfz2014jaxy  -2.02310
gfz2014jayh  -0.95985
gfz2014jbfp  -0.65745
