# Nsamples: 13  MAD:  0.821  mean:  1.165  std:  1.041
gfz2010crgy   0.61073
gfz2010hueh   1.11970
gfz2010jlvp   1.41540
gfz2010mqzz   3.32390
gfz2010okpc   1.40920
gfz2010qdqk  -0.67660
gfz2010zjun   0.20585
gfz2011bpqm   1.41770
gfz2011cdge   0.32756
gfz2011qenl   2.32440
gfz2011tsgl   0.56578
gfz2012foih   2.19750
gfz2012iijk   0.90969
