# Nsamples: 8  MAD:  0.369  mean:  1.569  std:  1.068
gfz2010okpc   1.62190
gfz2010sdfs   1.58250
gfz2011cdge   1.97890
gfz2011kfch   1.22540
gfz2011rkau   1.12360
gfz2012ogqu   3.80080
gfz2012pifb   0.02780
gfz2012wowu   1.19070
