# Nsamples: 575  MAD:  0.431  mean: -0.011  std:  0.659
gfz2010abfc  -0.06447
gfz2010aggj   0.23473
gfz2010aimm   0.20018
gfz2010aseg   0.20011
gfz2010azji   0.01345
gfz2010bqnk  -0.12562
gfz2010brlc   0.16919
gfz2010btme  -1.44400
gfz2010bukb   0.40553
gfz2010ckoc  -0.64080
gfz2010clbw   0.24010
gfz2010cllh   0.38189
gfz2010cnhd   0.58016
gfz2010cnyi   1.53780
gfz2010cphq  -0.26915
gfz2010cpig   0.33640
gfz2010crir  -0.39760
gfz2010csle  -0.40189
gfz2010csmw  -0.50905
gfz2010csqg  -0.34733
gfz2010cyid   0.31911
gfz2010dask   0.88525
gfz2010ddan  -0.40840
gfz2010djib   0.26814
gfz2010drit  -0.18122
gfz2010drml   0.09175
gfz2010drmq   0.09175
gfz2010drpv   0.34165
gfz2010drun   0.35430
gfz2010dsjq   0.02058
gfz2010dslu   0.47576
gfz2010dumv   0.37374
gfz2010dwgy  -0.38265
gfz2010dxhq  -0.24225
gfz2010ewyj  -0.12136
gfz2010fkff   0.08081
gfz2010fpvw   0.47219
gfz2010fqnn  -0.28795
gfz2010fxhh  -0.11434
gfz2010gcrn  -2.05170
gfz2010hsgv  -0.27896
gfz2010hueh   0.43377
gfz2010iaay   0.16111
gfz2010izag   0.13019
gfz2010jlvp   0.12887
gfz2010kcyz   0.02563
gfz2010ljol  -0.33768
gfz2010mdti   0.23251
gfz2010mpvc  -0.51691
gfz2010ngge   0.08083
gfz2010nteg   0.36115
gfz2010oguu   0.02404
gfz2010okpc  -2.43420
gfz2010okww  -0.27297
gfz2010onxm  -0.60482
gfz2010pclq  -0.40998
gfz2010pcya  -0.86913
gfz2010pgpo  -0.31825
gfz2010pgrf   0.65538
gfz2010pxoi   1.24620
gfz2010pzza  -0.28164
gfz2010qqqx   0.29934
gfz2010qrta  -1.65200
gfz2010rhvu   0.48977
gfz2010rkuu  -0.05323
gfz2010rljv   0.26981
gfz2010rnqa   2.86340
gfz2010rnwt   0.43226
gfz2010rpjd  -1.57980
gfz2010schp   0.25999
gfz2010sdfs  -0.27702
gfz2010shvn  -0.46818
gfz2010swqy  -0.01115
gfz2010syqh  -0.24287
gfz2010tcgh   1.26800
gfz2010tmba   0.42677
gfz2010tpcj   0.90415
gfz2010tqyo  -0.43035
gfz2010tzlz  -0.48710
gfz2010tzma  -0.09788
gfz2010ugws  -0.07195
gfz2010uhjy   0.03094
gfz2010uidg   0.51991
gfz2010uopf   0.38269
gfz2010vdcf   0.25577
gfz2010vong   0.57598
gfz2010vybx   0.16068
gfz2010wakc  -0.11280
gfz2010wwnq   0.17774
gfz2010wyuj   0.37272
gfz2010xamh   0.86073
gfz2010xaxw  -0.10199
gfz2010xnbn   1.67790
gfz2010xpzq   0.80526
gfz2010xvev  -0.18387
gfz2010xytc  -0.78573
gfz2010xzte  -0.89286
gfz2010yczp  -0.15950
gfz2010yfdr  -0.00820
gfz2010yhhj  -0.61648
gfz2010yrex  -0.20346
gfz2010ytzb   0.01743
gfz2010zjun  -0.73042
gfz2011ahvh  -0.53521
gfz2011amst   0.94885
gfz2011aqpp  -0.33395
gfz2011awsv  -0.61649
gfz2011bazz  -0.33369
gfz2011bcvc  -0.51330
gfz2011bffb  -0.14356
gfz2011bsvr  -0.67137
gfz2011bygs   0.01669
gfz2011bygu   0.55735
gfz2011bzio   0.06456
gfz2011cdge   0.05577
gfz2011chsa   0.07100
gfz2011cjuz   1.09230
gfz2011cwsm  -0.63721
gfz2011cwzi  -0.30122
gfz2011cxbw  -2.87100
gfz2011dabj   0.10155
gfz2011dhfg  -0.10167
gfz2011dhqk  -0.27643
gfz2011dmdv  -0.30957
gfz2011dpyu   0.33365
gfz2011duvm   0.66937
gfz2011dwae  -0.56287
gfz2011edrq  -0.42424
gfz2011ekty   1.32250
gfz2011emzr   0.39268
gfz2011exxq  -1.03910
gfz2011ffdh   1.33240
gfz2011fnie   0.17661
gfz2011fszl   0.00000
gfz2011fzcw   1.02260
gfz2011ggnl  -0.40812
gfz2011glpg  -0.19801
gfz2011gnbk  -0.12300
gfz2011gpyr  -0.22298
gfz2011haaa   0.21075
gfz2011hatg  -0.43596
gfz2011hqjs  -0.14096
gfz2011hrgt   0.76167
gfz2011iryz  -0.02050
gfz2011ituo   1.53350
gfz2011jeta   0.09750
gfz2011jfyb   0.84673
gfz2011jphj  -0.74400
gfz2011jpob   0.21634
gfz2011jryv   0.35116
gfz2011jtij   0.58298
gfz2011kfch  -1.41970
gfz2011kjzt   0.22818
gfz2011kjzv   0.26279
gfz2011kylu   0.81921
gfz2011kyzy   0.67574
gfz2011lkkf   0.42468
gfz2011lmug  -0.28866
gfz2011lwmg  -0.61722
gfz2011mjje  -0.37794
gfz2011mntq   0.60633
gfz2011mror   0.41292
gfz2011mzvn  -0.43839
gfz2011ncyw   1.38590
gfz2011ndhh   0.86663
gfz2011ndki  -0.22109
gfz2011ndlh   0.01859
gfz2011ndse   0.50705
gfz2011ndtp  -0.18856
gfz2011ndvj  -1.19470
gfz2011ndyk   3.85710
gfz2011neai   0.42848
gfz2011nejg  -0.32431
gfz2011nejw   0.07746
gfz2011nerb   0.29411
gfz2011nfcz   0.39803
gfz2011nfgt   0.93230
gfz2011nfih   0.66179
gfz2011nfln  -0.22904
gfz2011nftw  -0.43180
gfz2011nfww   0.24635
gfz2011nhby   0.11616
gfz2011nhhd   0.08170
gfz2011nhjv   2.76630
gfz2011nhvt  -2.38640
gfz2011nhwf   1.07630
gfz2011nihq  -0.86458
gfz2011nijp   0.74424
gfz2011nilw  -0.30214
gfz2011nimp   0.28727
gfz2011nioi   0.23601
gfz2011nisj  -0.14255
gfz2011niuw   0.06426
gfz2011nlnl   1.93620
gfz2011nlum  -0.91561
gfz2011nsiy   0.03920
gfz2011ntyd   0.27870
gfz2011nuqo   1.14570
gfz2011nvty   0.26211
gfz2011nyzk   1.52530
gfz2011oadm  -0.17797
gfz2011oazk  -0.25478
gfz2011oekz   1.05000
gfz2011oesd  -0.52098
gfz2011ofpj  -0.31078
gfz2011ohgj   0.29013
gfz2011okza   1.14270
gfz2011omxt  -0.14349
gfz2011oqjl   0.74971
gfz2011ovvj  -0.15524
gfz2011owqa  -0.14494
gfz2011paqj   0.27640
gfz2011pfwq  -0.11091
gfz2011pivq  -1.98990
gfz2011pmuv   0.57310
gfz2011pphc   1.46380
gfz2011ppsc  -0.31015
gfz2011prrq  -0.23101
gfz2011pwbw   0.31972
gfz2011qenl   0.07097
gfz2011qgea  -1.29870
gfz2011qgvh   0.01884
gfz2011qklh   0.00000
gfz2011qukj  -0.15897
gfz2011xwdv   0.08889
gfz2011xxng  -0.53733
gfz2011yjtx  -0.30941
gfz2011ykbd  -0.46629
gfz2011ymji  -3.25410
gfz2011ypfh  -0.19363
gfz2011ytob  -1.24650
gfz2011zgxn  -0.06548
gfz2011zkbt  -0.14229
gfz2011zlga  -0.29008
gfz2012adja   0.11036
gfz2012aisj   0.37969
gfz2012amjx   0.36187
gfz2012amvs  -0.06685
gfz2012arlo   0.75900
gfz2012atjr   0.12688
gfz2012byrq  -0.04552
gfz2012bysu  -0.46835
gfz2012bytv  -0.62322
gfz2012byuk  -0.06462
gfz2012cdju  -0.35023
gfz2012cfdw  -0.69317
gfz2012cksh   0.61589
gfz2012cmww  -0.57369
gfz2012cntu  -0.08839
gfz2012cvfr  -0.11595
gfz2012cwhl   0.39627
gfz2012dbgt  -0.60412
gfz2012dejg   0.45378
gfz2012dpnu   1.10460
gfz2012dttl   0.28977
gfz2012dugf   0.48800
gfz2012duwm   0.12499
gfz2012ebrr   0.34285
gfz2012ekfp  -0.20420
gfz2012elek  -0.52085
gfz2012emin  -0.66559
gfz2012enio  -0.00000
gfz2012fcyq  -0.01545
gfz2012fcyr   0.00093
gfz2012foih  -1.41380
gfz2012fpyo  -0.81881
gfz2012ftks   0.10988
gfz2012fuyd   0.49728
gfz2012fyny  -0.10309
gfz2012fyop  -0.26710
gfz2012gczh   0.10654
gfz2012gftg   0.03935
gfz2012ghiv  -0.26641
gfz2012gjdg  -0.19173
gfz2012gjtd   0.71526
gfz2012gnow  -0.13801
gfz2012gpcd   0.27833
gfz2012gvxc   0.45847
gfz2012gzuk   0.02029
gfz2012hhlx  -0.30755
gfz2012hvtu   1.60890
gfz2012hyqh  -1.02930
gfz2012hysb  -0.56866
gfz2012hzhn  -0.03315
gfz2012hzur  -0.04324
gfz2012iblc   0.05615
gfz2012iblo  -0.13199
gfz2012ibyd  -0.23925
gfz2012imsm  -0.74117
gfz2012imuo  -0.84257
gfz2012iotw  -0.62718
gfz2012iphs  -1.00490
gfz2012iroy  -0.14612
gfz2012ivyg  -0.74444
gfz2012izke  -0.82122
gfz2012jaun  -0.52838
gfz2012jihg   1.15750
gfz2012jjxm   0.17463
gfz2012jksz  -0.77854
gfz2012jlez   0.27520
gfz2012jodg   0.06975
gfz2012jopi   0.62542
gfz2012kmbo   0.27698
gfz2012kmmz   2.33840
gfz2012kstg   0.40812
gfz2012ldjj   0.22153
gfz2012lwha  -0.48371
gfz2012lyyr  -0.24966
gfz2012mcrb   0.10112
gfz2012mdzf  -0.28736
gfz2012mekv  -0.32767
gfz2012mhik   0.10653
gfz2012mjuu  -0.16797
gfz2012mmiw   0.11162
gfz2012mpzo  -0.03519
gfz2012mrqk   0.22738
gfz2012mrwu   0.05987
gfz2012mtyn  -0.32197
gfz2012mvgu  -0.19122
gfz2012mwhe   0.30124
gfz2012ndwt  -0.28189
gfz2012nnqu  -0.16795
gfz2012nqvd  -0.31405
gfz2012nsxc  -0.04064
gfz2012oafg   0.26151
gfz2012oehy   0.00672
gfz2012ofnx  -0.67712
gfz2012oieq   0.10523
gfz2012oiez  -2.87180
gfz2012oork  -0.52567
gfz2012ormy   1.49230
gfz2012phns   0.29082
gfz2012pmuj   0.39844
gfz2012pvve  -0.17249
gfz2012qfah  -0.34914
gfz2012qfov  -0.76805
gfz2012qpoc  -0.32831
gfz2012rfhw  -1.69400
gfz2012rjlp  -0.70670
gfz2012roan  -0.13757
gfz2012rslf  -0.29502
gfz2012rzwp  -0.06642
gfz2012sbix   0.18669
gfz2012sgfd  -0.35814
gfz2012sjdy   1.24160
gfz2012smyn   0.80873
gfz2012socz   0.42305
gfz2012sqsc  -0.34532
gfz2012stxx   0.11021
gfz2012suqd   0.81762
gfz2012svwz   0.46987
gfz2012syum  -0.23458
gfz2012taph   0.00000
gfz2012tfij   0.76627
gfz2012tgta   0.17106
gfz2012tisj  -0.38061
gfz2012tjih   0.50276
gfz2012tjwg   1.72860
gfz2012trfq  -0.27646
gfz2012tyoz  -0.49564
gfz2012uhtc  -0.04405
gfz2012ulei  -0.86016
gfz2012umob   0.13864
gfz2012unxc   0.23435
gfz2012uovh  -0.47324
gfz2012urtu  -0.57818
gfz2012uvea  -0.04352
gfz2012uvoa  -0.49175
gfz2012uzww   0.04154
gfz2012vdra  -1.27860
gfz2012vgot   0.14591
gfz2012vitw   0.13828
gfz2012vlzv  -0.11006
gfz2012vnve   0.15691
gfz2012vurc  -0.25898
gfz2012wgmg   0.49306
gfz2012wkki  -0.14164
gfz2012wmmw   0.44697
gfz2012wowu  -0.18023
gfz2012wysg   0.32564
gfz2012xask   0.06862
gfz2012xcsf   0.06622
gfz2012xkln  -0.38867
gfz2012xlas   0.40767
gfz2012xncm  -0.01245
gfz2012xqxw   0.23111
gfz2012xrmq  -0.41914
gfz2012xtvu  -0.29420
gfz2012xxdj  -0.26465
gfz2012yegw   0.40574
gfz2012ylai   0.17356
gfz2012yygz  -0.35872
gfz2012yytb  -0.27075
gfz2012zhyz  -0.30038
gfz2012zkhu  -0.35916
gfz2012zmdf   0.79286
gfz2012zmfc   0.60970
gfz2012zqis  -0.21680
gfz2013agbm  -0.63683
gfz2013aggr   0.53853
gfz2013agmt   0.50310
gfz2013akkd  -0.18843
gfz2013ascz  -0.90600
gfz2013atak  -0.84117
gfz2013bdvi  -0.26615
gfz2013bwgw  -0.30232
gfz2013byyy  -0.24693
gfz2013cfls   0.11813
gfz2013cinv   0.27198
gfz2013ciof  -0.88441
gfz2013cvve   1.11700
gfz2013cyvx   0.22933
gfz2013delq  -0.19782
gfz2013dftb   0.12948
gfz2013dmzh   0.42864
gfz2013dngd  -0.16112
gfz2013dznt   0.72189
gfz2013dzvr   0.05466
gfz2013efct  -0.19988
gfz2013eidd  -0.13032
gfz2013esef   0.78657
gfz2013ewht  -0.20896
gfz2013exow  -0.15569
gfz2013fnpa  -0.26689
gfz2013frxd   0.10801
gfz2013fulo  -0.20715
gfz2013fvht  -0.48751
gfz2013fvyr  -0.11626
gfz2013gaqx   0.00000
gfz2013gbki  -0.97897
gfz2013gbma   1.01420
gfz2013gglk  -0.60307
gfz2013gkcx   0.25236
gfz2013gkyn  -0.30721
gfz2013gugi   1.35320
gfz2013gurk  -0.09611
gfz2013gxye   0.36432
gfz2013hbmi   0.40142
gfz2013hbtm   0.10248
gfz2013hqaa  -0.15644
gfz2013hvzv   0.21762
gfz2013hwps   0.05810
gfz2013icql   0.45271
gfz2013ifag  -0.79273
gfz2013irme  -0.13068
gfz2013jlli   0.06102
gfz2013jobl  -0.16068
gfz2013jrqf  -0.14660
gfz2013jzfz   0.09135
gfz2013kats  -0.02869
gfz2013kbbg   0.20456
gfz2013kbbn  -0.38860
gfz2013kcdb  -0.27299
gfz2013kdfy  -0.39382
gfz2013kjgh  -0.61286
gfz2013kpcb  -0.13003
gfz2013kpes  -1.34510
gfz2013kqab  -0.22521
gfz2013kslp  -0.15932
gfz2013lbod   0.15690
gfz2013lbvl   0.16558
gfz2013lcrk  -0.28837
gfz2013lxnd  -0.29878
gfz2013mdxj   0.04645
gfz2013mvgq  -0.17469
gfz2013mzaw   0.30163
gfz2013njwj   1.44290
gfz2013nkgd  -0.31966
gfz2013ntiu  -0.19024
gfz2013oeni   0.14042
gfz2013oizq  -0.55572
gfz2013okac  -0.04503
gfz2013olos  -0.04340
gfz2013orot  -1.63300
gfz2013oruq   0.11492
gfz2013pqkp  -0.20542
gfz2013qaov  -0.43656
gfz2013qdno   0.01090
gfz2013qigb  -0.54438
gfz2013qmkt   0.42365
gfz2013qoak   0.67228
gfz2013quwz  -0.05303
gfz2013quyn   0.19750
gfz2013qxof  -0.28812
gfz2013rdmn   0.16719
gfz2013rfik   0.10825
gfz2013rgcc  -0.20313
gfz2013rhbx  -0.15637
gfz2013rwkj  -0.04646
gfz2013ryph  -2.56180
gfz2013sbsl  -0.07597
gfz2013sdkg   0.00350
gfz2013skay  -0.07704
gfz2013tgyb  -0.15758
gfz2013tjub   0.27176
gfz2013tnff   1.23930
gfz2013vdam  -0.10397
gfz2013veoz   0.78550
gfz2013veug  -0.11508
gfz2013vjrr  -0.16734
gfz2013vldx  -0.04471
gfz2013vmsg  -0.72107
gfz2013vnwa  -0.21565
gfz2013voai  -0.05182
gfz2013vojy  -0.30151
gfz2013vzel   0.35076
gfz2013vzet   0.16761
gfz2013xahp  -0.30578
gfz2013xbdc  -0.83254
gfz2013xddu   0.72036
gfz2013xjmo  -0.51115
gfz2013xlic  -0.95113
gfz2013xmzw   0.13112
gfz2013xofz  -0.12802
gfz2013xswc   0.11120
gfz2013ykqw  -0.30363
gfz2013ylxm   0.57478
gfz2013ylxn  -0.23908
gfz2013yodm   0.26959
gfz2013yqtu  -0.40052
gfz2013yxhf  -0.28161
gfz2013zeye  -0.24396
gfz2013zfbz  -0.32140
gfz2013ziix  -0.37438
gfz2013zlak  -0.36675
gfz2014aedl   0.22789
gfz2014ajgi  -0.44618
gfz2014amgk   0.68160
gfz2014aqop   0.36612
gfz2014avux  -0.37962
gfz2014ayxf   0.09652
gfz2014bdju   0.36076
gfz2014befl   0.04991
gfz2014bkra  -0.34466
gfz2014bqpm   0.30621
gfz2014brkk   0.57732
gfz2014buyz  -0.15069
gfz2014bycg  -0.47695
gfz2014byes   0.00000
gfz2014cgoi   0.03768
gfz2014edjm   0.23294
gfz2014fsir   0.06221
gfz2014fsje   0.04201
gfz2014fskh  -0.09284
gfz2014fsvc   0.44768
gfz2014fwxt   0.26380
gfz2014fxim  -0.11576
gfz2014fxte   0.16227
gfz2014fxuy   0.11810
gfz2014gnbw   0.12556
gfz2014gssz   0.70237
gfz2014gtee   0.04919
gfz2014gutd   0.19247
gfz2014gypw   0.58034
gfz2014herz  -1.14350
gfz2014hjmc  -0.04816
gfz2014hkcw  -0.41164
gfz2014hotu   0.21455
gfz2014hqhv  -0.04771
gfz2014hyea   0.32824
gfz2014hzzf  -0.87068
gfz2014igrp   0.11129
gfz2014ijsa   0.01881
gfz2014imqh  -0.36574
gfz2014ined   0.28033
gfz2014irln  -0.33311
gfz2014irly   0.68984
gfz2014isov   0.31656
gfz2014itlx   0.10567
gfz2014iusw   0.17655
gfz2014ixlc   0.12611
gfz2014jaxy  -0.19564
gfz2014jayh  -0.00000
gfz2014jbfp  -0.36675
gfz2014jbgm   0.15139
