# Nsamples: 436  MAD:  0.443  mean:  0.014  std:  0.742
gfz2010abfc  -0.34355
gfz2010aggj  -0.30977
gfz2010aseg   0.32994
gfz2010azji  -0.39376
gfz2010ccse  -0.24678
gfz2010ccwc  -0.16443
gfz2010ccye  -0.34827
gfz2010clbw  -0.62306
gfz2010cllh  -0.83148
gfz2010cphq  -1.04480
gfz2010crgy  -0.31675
gfz2010crir   0.06676
gfz2010dask  -0.31028
gfz2010djib  -0.21623
gfz2010dmij  -0.14202
gfz2010drit   0.18199
gfz2010drml   0.59955
gfz2010drmq   0.59955
gfz2010fgbo   0.37675
gfz2010fjme   0.45671
gfz2010fnkr  -0.56130
gfz2010fvfz   0.26144
gfz2010gcrn  -0.64199
gfz2010gonu   0.42016
gfz2010habf  -0.32116
gfz2010hsgv  -0.47351
gfz2010hueh   0.45102
gfz2010ifhd  -0.58411
gfz2010izag  -0.49405
gfz2010izgb   0.05262
gfz2010jlvp   0.00579
gfz2010kcdq   0.51763
gfz2010ljmp  -0.55366
gfz2010ljzf  -0.21890
gfz2010mdti  -0.50415
gfz2010mqaj   1.69360
gfz2010ncwu  -0.27220
gfz2010ngge  -0.39608
gfz2010nwbd   2.11500
gfz2010okpc  -0.94978
gfz2010ouvm   2.02380
gfz2010pclq   0.17585
gfz2010pgpo   0.05908
gfz2010pzza  -0.45362
gfz2010qdqk  -1.03440
gfz2010qqqx   0.34377
gfz2010qrta   0.24634
gfz2010rhvu  -0.68432
gfz2010rkuu  -0.46609
gfz2010rljv  -0.01798
gfz2010rnqa   0.11461
gfz2010rnwt  -2.44710
gfz2010schp   2.55370
gfz2010sdfs  -0.46159
gfz2010shvn   0.40370
gfz2010swqy  -0.00612
gfz2010szxo   1.10030
gfz2010tcgh  -0.11408
gfz2010tmba  -0.33431
gfz2010tpcj   0.40166
gfz2010tzki  -0.54766
gfz2010tzlz  -0.20489
gfz2010tzma  -0.45428
gfz2010ugws   0.16793
gfz2010uhjy  -0.38175
gfz2010uidg  -1.07480
gfz2010umxj   0.71911
gfz2010umyp   0.08908
gfz2010ussf  -0.19061
gfz2010vhzx  -0.15617
gfz2010vong  -0.29888
gfz2010vybx   0.34616
gfz2010wakc   0.07473
gfz2010wigk  -0.67547
gfz2010wplk   2.06200
gfz2010wwnq   0.32820
gfz2010wyuj  -0.06810
gfz2010xamh   0.11584
gfz2010xaxw  -0.05943
gfz2010xcdd   0.28664
gfz2010xjsv  -0.88140
gfz2010xnbn  -0.57079
gfz2010xpzq  -0.23431
gfz2010yczp   0.40189
gfz2010yfdr  -0.19435
gfz2010ymih   0.08234
gfz2010yrex   0.15102
gfz2010zhvj  -1.16080
gfz2010zjun  -0.00000
gfz2010zkle  -0.59669
gfz2011ahvh  -0.27895
gfz2011amst   0.10771
gfz2011bazz   0.19695
gfz2011biin   0.68411
gfz2011bpqm   0.03308
gfz2011bsvr  -0.41836
gfz2011bwsm  -0.10337
gfz2011bygu   0.78855
gfz2011bzio  -0.04361
gfz2011cdge   0.01905
gfz2011chsa  -0.27441
gfz2011cwsm  -0.63349
gfz2011cwzi  -0.20426
gfz2011dhfg  -0.24286
gfz2011fnie  -0.28306
gfz2011fszl   0.33961
gfz2011fxmf   0.41273
gfz2011fzcw   0.94545
gfz2011gaax   0.03119
gfz2011gfer  -0.28489
gfz2011ggnl   0.48854
gfz2011gnbk   0.05534
gfz2011gpyr  -0.14977
gfz2011haaa   2.80320
gfz2011hatg   0.31917
gfz2011iryz  -0.27894
gfz2011ituo  -1.06060
gfz2011jdoz  -0.75699
gfz2011jeta  -0.62580
gfz2011jphj  -0.52988
gfz2011kfch  -0.92921
gfz2011kjzt  -0.73218
gfz2011kylu   0.48311
gfz2011kymm   1.38580
gfz2011kyzy   0.44706
gfz2011lkkf  -0.19440
gfz2011lmug  -0.31967
gfz2011mjje  -0.23276
gfz2011nhby   0.12061
gfz2011nhwf  -0.24198
gfz2011nijp  -0.36744
gfz2011nilw   0.29727
gfz2011niuw  -0.72764
gfz2011nkou  -2.31250
gfz2011nlnl  -1.05430
gfz2011nlum  -0.29460
gfz2011nsiy  -0.05193
gfz2011nuqo   0.25238
gfz2011oazk   0.07995
gfz2011ofpj  -0.00857
gfz2011ohgj  -0.32336
gfz2011oslk  -0.24861
gfz2011owqa  -0.64306
gfz2011paqj  -0.97795
gfz2011plzc   3.20280
gfz2011pmuv  -0.13542
gfz2011pphc   3.19480
gfz2011ppsc  -0.24794
gfz2011prrq   0.77750
gfz2011pwbw  -0.39084
gfz2011qenl   0.44848
gfz2011qgea   0.68710
gfz2011qukj   1.98510
gfz2011rbuo  -0.20228
gfz2011rczb  -0.61570
gfz2011sqco  -0.26156
gfz2011uqry  -0.02194
gfz2011urwz  -0.19235
gfz2011vahy   0.20701
gfz2011vbxv  -0.17339
gfz2011vcyx   0.58837
gfz2011vsag  -0.94010
gfz2011vswj  -0.08507
gfz2011vtzv  -0.51871
gfz2011vxek  -0.59001
gfz2011wcvs  -0.73924
gfz2011wkja  -0.75433
gfz2011wkyx   0.29115
gfz2011wpzt  -0.39921
gfz2011wucg   0.18470
gfz2011xagc  -0.13767
gfz2011xawm   0.26390
gfz2011xgbc  -0.02308
gfz2011xgwy  -0.01500
gfz2011xkka   0.88930
gfz2011xnui  -0.49610
gfz2011yeck   0.50495
gfz2011yexx   0.35748
gfz2011yrfa   0.15115
gfz2011ytob   0.23318
gfz2011zghc  -0.61588
gfz2011zgxn  -0.07900
gfz2011zkbt  -0.57925
gfz2012amjx  -1.14640
gfz2012amvs   0.10831
gfz2012arlo  -0.15393
gfz2012auqr   1.31880
gfz2012bcvn  -0.29411
gfz2012bqcf   0.16377
gfz2012cfdw   0.22111
gfz2012cksh  -1.18210
gfz2012cmww  -0.80565
gfz2012cntu  -0.46948
gfz2012crpb  -0.25499
gfz2012cvfr   0.07823
gfz2012dejg   0.36522
gfz2012dleg   3.08940
gfz2012dnig   0.90453
gfz2012dpwv   1.33240
gfz2012dtdt   0.67520
gfz2012dwwu   0.21710
gfz2012dyck   0.21995
gfz2012ebrr  -0.48173
gfz2012ekfp   0.46842
gfz2012elek   0.05934
gfz2012enio  -0.34445
gfz2012erds   2.24600
gfz2012fcyq   0.37794
gfz2012fcyr   0.36654
gfz2012fyny   0.04882
gfz2012ghiv  -0.30361
gfz2012gjdg  -0.38243
gfz2012gnow  -0.03276
gfz2012hdny  -0.75583
gfz2012hhlx  -0.49770
gfz2012hnyy  -0.48444
gfz2012hvtu   0.52680
gfz2012ibyd  -0.24944
gfz2012icjo   0.17503
gfz2012ieln   0.75950
gfz2012iijk  -0.18760
gfz2012imsm  -0.97376
gfz2012ivyg   0.07576
gfz2012iyhs   1.49810
gfz2012izke   1.69120
gfz2012jlez   0.39976
gfz2012ldjj  -0.14843
gfz2012lyyr  -0.20165
gfz2012mdzf  -0.12891
gfz2012mekv   1.69090
gfz2012mjuu  -0.28307
gfz2012mmiw   1.18880
gfz2012mrqk   0.74536
gfz2012mtyn  -0.16138
gfz2012ndwt   0.19886
gfz2012nmja  -0.34547
gfz2012nnqu   0.12493
gfz2012nqvd  -0.11841
gfz2012oafg   0.00000
gfz2012oehy  -0.23984
gfz2012oork   1.87120
gfz2012phns   0.25645
gfz2012qllj   0.12600
gfz2012qmhz   0.81249
gfz2012rnyn   1.94510
gfz2012rzwp  -0.41056
gfz2012sgfd  -0.70826
gfz2012socz   0.07184
gfz2012sqsc   0.30996
gfz2012suqd  -0.03907
gfz2012svwz   0.04507
gfz2012sxbo  -0.21356
gfz2012syum   1.22890
gfz2012tisj   1.72290
gfz2012tjwg   1.48270
gfz2012trfq  -0.18559
gfz2012tvgw  -0.46493
gfz2012uegq   0.82095
gfz2012uhsx  -0.35694
gfz2012uhtc  -0.46801
gfz2012ulei  -0.19217
gfz2012uovh   0.40286
gfz2012uvoa   0.02888
gfz2012uzww  -0.32263
gfz2012vdra  -0.51936
gfz2012vkjw  -0.31443
gfz2012vlzv   1.18520
gfz2012vqmq  -0.38317
gfz2012vrqz  -0.23033
gfz2012wgdv  -0.03272
gfz2012wgmg  -0.33261
gfz2012wiyv   4.04670
gfz2012wkki  -0.18124
gfz2012wowu   0.62385
gfz2012woxj   0.12754
gfz2012wpen   0.83758
gfz2012wysg   0.22946
gfz2012xcsf  -0.43621
gfz2012xkln  -0.34501
gfz2012xlfo  -0.71948
gfz2012xncm  -0.10891
gfz2012xrmq  -0.17332
gfz2012xxdj  -0.48175
gfz2012yegw   0.03933
gfz2013akkd  -0.04998
gfz2013ascz   0.49223
gfz2013bwgw  -0.20655
gfz2013byyy  -0.18064
gfz2013cpjc  -1.54260
gfz2013cvve  -0.18930
gfz2013cyvx  -0.00331
gfz2013delq  -0.11375
gfz2013dftb   0.31808
gfz2013djfi   1.25780
gfz2013dzvr  -0.43007
gfz2013eazm  -0.15837
gfz2013enqo   0.29688
gfz2013esef  -0.48511
gfz2013fmcd   1.04110
gfz2013fmcp   0.14482
gfz2013fnpa   0.00037
gfz2013fulo  -0.10957
gfz2013fvht  -0.00715
gfz2013fvyr  -0.15584
gfz2013fwbm  -0.16546
gfz2013fybd  -0.69307
gfz2013gkcx  -0.09791
gfz2013gkyn   1.81450
gfz2013grle   0.35118
gfz2013gxye  -0.21603
gfz2013hbmi   0.39307
gfz2013hbwy   1.02340
gfz2013hiam  -0.09791
gfz2013hqaa  -0.05396
gfz2013hwps   1.08390
gfz2013icql  -0.57213
gfz2013irme   1.08670
gfz2013iuyv  -0.63346
gfz2013iwzn  -0.13156
gfz2013jfcn  -0.31495
gfz2013jlli  -0.95694
gfz2013jobl  -0.22340
gfz2013jpir   0.29394
gfz2013jzcf   0.05554
gfz2013kats   0.19905
gfz2013kbbg  -0.00266
gfz2013kbbn  -0.35240
gfz2013kcdb   0.32055
gfz2013kjgh  -0.64114
gfz2013kpcb  -0.57516
gfz2013kqab   0.23931
gfz2013kuno   0.11527
gfz2013lbod   0.59807
gfz2013lbvl  -0.07524
gfz2013lcrk  -0.02894
gfz2013ljdu  -0.09123
gfz2013ljwt  -0.60910
gfz2013lvxe  -0.81824
gfz2013mdxj  -0.74295
gfz2013mktp   0.08296
gfz2013mvgq  -0.19346
gfz2013mzaw   0.06757
gfz2013nkgd   2.39650
gfz2013nkgt   0.66435
gfz2013oizq   0.17218
gfz2013orot  -0.79346
gfz2013oywh  -0.37741
gfz2013phhi  -0.40982
gfz2013pkmz  -1.01100
gfz2013pqkp   2.26170
gfz2013qigb   0.01193
gfz2013qoak  -0.21728
gfz2013quwz   0.00733
gfz2013rhxf   1.78750
gfz2013rocs  -0.36901
gfz2013stup  -0.08297
gfz2013syqv   0.46465
gfz2013taeb   0.01526
gfz2013tcju  -0.54474
gfz2013tdsx   0.82172
gfz2013tert   0.08290
gfz2013tjub   1.01100
gfz2013tkcg   0.09547
gfz2013udtw   0.09054
gfz2013utqa   0.06708
gfz2013uwjo  -1.90170
gfz2013uxzw  -0.34240
gfz2013veug   0.29019
gfz2013vjrr   0.84891
gfz2013vldx  -0.42284
gfz2013vmrv   0.03088
gfz2013vmsg   0.15326
gfz2013vmsn  -0.47376
gfz2013vnwa  -0.38863
gfz2013vojy  -0.46732
gfz2013vvre  -0.29446
gfz2013vzel  -0.77831
gfz2013wyfl  -0.09294
gfz2013xahp  -0.44856
gfz2013xmzw   0.17941
gfz2013xofz  -0.53719
gfz2013xswc   0.44702
gfz2013yodm  -0.30536
gfz2013yqtu   0.17191
gfz2013yxhf  -0.05043
gfz2013zfbz  -0.18153
gfz2013zkzb  -0.45435
gfz2013zlak  -0.82997
gfz2014aaae  -1.63930
gfz2014aedl  -0.32736
gfz2014ajgi   0.43894
gfz2014amgk  -0.24415
gfz2014aqax  -0.77845
gfz2014aqop  -0.20548
gfz2014ayxf  -0.14360
gfz2014bdju   0.04991
gfz2014bgxe  -0.02204
gfz2014bkra  -0.03486
gfz2014cokw   0.06000
gfz2014crac  -0.75296
gfz2014dggw   0.15702
gfz2014dihl  -0.40631
gfz2014djhi  -0.24470
gfz2014dmrw  -0.45357
gfz2014dtth  -0.28219
gfz2014eirs   0.16518
gfz2014eoay  -0.33521
gfz2014fbli  -1.54710
gfz2014flxk  -0.19323
gfz2014fsir  -0.15066
gfz2014fsje  -0.19609
gfz2014fxte  -0.12249
gfz2014fxuy  -0.46171
gfz2014gnbw   0.17698
gfz2014grwv   0.30127
gfz2014hkcw  -0.00587
gfz2014hqhv   0.19899
gfz2014huah  -0.67017
gfz2014huqh  -0.13133
gfz2014hyea  -1.50820
gfz2014hzzf   0.07867
gfz2014iayo  -0.63350
gfz2014icov   0.09083
gfz2014igrp   0.06313
gfz2014ijsa  -0.42069
gfz2014iltl   0.04292
gfz2014ined  -0.29251
gfz2014irlf   0.07970
gfz2014irln   0.44460
gfz2014irly   0.46163
gfz2014isjg  -0.33108
gfz2014iusw  -0.16875
gfz2014ixlc  -0.21027
gfz2014jarg  -0.28505
gfz2014jaxy  -0.10116
gfz2014jayh  -0.03799
