# Nsamples: 79  MAD:  0.683  mean: -0.024  std:  1.020
gfz2010aggj  -0.44460
gfz2010azji   0.09018
gfz2010clbw   0.20174
gfz2010crgy  -1.23300
gfz2010crir   0.94562
gfz2010cyid   0.76024
gfz2010dask   0.89264
gfz2010drit   0.48667
gfz2010drml   1.06250
gfz2010drmq   1.06250
gfz2010jlvp   0.09184
gfz2010ngge  -0.03213
gfz2010pgpo   0.34736
gfz2010pzza   0.14526
gfz2010rljv   1.54560
gfz2010tzma   0.12921
gfz2010xaxw   0.61479
gfz2010zjun   0.61387
gfz2011ahvh   0.16472
gfz2011fszl   0.53174
gfz2011gpyr   0.53277
gfz2011iryz   0.38680
gfz2011jryv   0.34050
gfz2011kjzt   0.39061
gfz2011mjje  -0.46519
gfz2011nuqo   0.46940
gfz2011ofpj  -0.00710
gfz2011ppsc  -0.14603
gfz2011qgea   1.62180
gfz2011qukj  -0.36843
gfz2011sdax   0.19041
gfz2011sqco  -0.99093
gfz2011tqgg  -0.53174
gfz2011vahy  -0.36863
gfz2011vtzv  -0.46875
gfz2012amvs  -0.15299
gfz2012atjr   0.61613
gfz2012cntu   0.11209
gfz2012dwwu  -0.25532
gfz2012ebrr  -0.21912
gfz2012ekfp   0.75342
gfz2012fyny   0.54339
gfz2012mdzf   0.65437
gfz2012oafg  -0.33227
gfz2012oehy  -0.02630
gfz2012phns   0.23121
gfz2012pmuq  -2.14480
gfz2012sqsc   1.21690
gfz2012uhtc   0.19846
gfz2012wgmg  -0.07265
gfz2012xxdj  -0.34305
gfz2013aggr   0.27620
gfz2013delq   0.56899
gfz2013dzvr  -0.06726
gfz2013efct  -0.33197
gfz2013icql  -0.99221
gfz2013kbbg  -0.64422
gfz2013kqab   1.93100
gfz2013lbvl  -1.02840
gfz2013qigb  -0.42099
gfz2013quwz  -0.40435
gfz2013rdmn  -0.53810
gfz2013uwjo  -2.15440
gfz2013vvre   1.93800
gfz2013xahp   0.97281
gfz2013xswc  -1.10580
gfz2013yodm   0.19148
gfz2014aqop  -5.64700
gfz2014bkra  -1.97750
gfz2014eoay   0.15808
gfz2014fsir  -0.38347
gfz2014fsje  -0.16444
gfz2014gnbw  -1.27940
gfz2014gnvp   0.25924
gfz2014huqh  -0.48108
gfz2014hzzf  -0.34045
gfz2014irln  -0.52336
gfz2014iusw  -0.04524
gfz2014jffe   1.00590
