# Nsamples: 397  MAD:  0.396  mean:  0.018  std:  0.606
gfz2010abfc  -0.24946
gfz2010aggj  -0.05790
gfz2010aseg   0.03968
gfz2010clbw   0.02698
gfz2010cllh  -0.71714
gfz2010cnhd  -0.16117
gfz2010crgy  -0.13657
gfz2010crir  -0.42476
gfz2010cthm  -1.34440
gfz2010cyid  -1.08580
gfz2010dask  -0.56078
gfz2010djib   0.01438
gfz2010dmij  -1.16910
gfz2010drit   0.77878
gfz2010drml   2.20990
gfz2010drmq   2.20990
gfz2010dwgy   0.21779
gfz2010ekvl   0.44344
gfz2010fgbo  -0.17394
gfz2010fjme  -0.09274
gfz2010fkff   0.26582
gfz2010fqzh  -0.59377
gfz2010fvfz   0.17409
gfz2010fxhh   0.61604
gfz2010ifhd  -0.60091
gfz2010izag  -0.14221
gfz2010jdhk   0.28774
gfz2010jlvp  -0.30107
gfz2010jpkn   0.42902
gfz2010mdti  -0.19574
gfz2010mqzz   0.15772
gfz2010ncwu  -0.65357
gfz2010ngge   0.02900
gfz2010pclq   1.88450
gfz2010pzza  -0.31770
gfz2010qdqk  -0.68912
gfz2010rhvu   0.50221
gfz2010rkuu  -0.46133
gfz2010rljv   0.10484
gfz2010rnwt  -1.67670
gfz2010rpjd  -1.92430
gfz2010schp  -0.37840
gfz2010sdfs  -0.22322
gfz2010shvn   0.03926
gfz2010tcgh  -0.22999
gfz2010tmba  -0.25975
gfz2010tpcj  -0.73134
gfz2010tzlz   0.16759
gfz2010ugws   0.77900
gfz2010uhjy  -0.32952
gfz2010vdcf   0.82214
gfz2010vhzx  -0.01171
gfz2010vong  -0.32721
gfz2010wakc  -0.17564
gfz2010wyuj  -0.57285
gfz2010xamh  -0.46512
gfz2010xaxw  -0.08786
gfz2010xjsv  -0.69268
gfz2010xnbn  -0.53710
gfz2010xpzq   0.18096
gfz2010xzte  -0.56675
gfz2010yfdr   1.19440
gfz2010zjun   0.64938
gfz2011ahvh  -0.45356
gfz2011boaz  -0.20973
gfz2011bpqm   0.04233
gfz2011bsvr  -0.26116
gfz2011bwsm   0.71205
gfz2011bygs   0.19619
gfz2011bygu   0.04793
gfz2011chsa  -0.13557
gfz2011cjuz   1.21100
gfz2011cwhx   2.43980
gfz2011cwsm   0.36015
gfz2011cwzi  -0.13033
gfz2011cxdj   0.31862
gfz2011dabj  -0.12819
gfz2011dhfg  -0.05783
gfz2011dhqk  -0.06100
gfz2011etkc  -0.15221
gfz2011ffdh  -0.14025
gfz2011fnie   0.37688
gfz2011fnuk  -0.45902
gfz2011fszl   0.36662
gfz2011gfer  -0.61025
gfz2011ggnl   0.24211
gfz2011gnbk   0.08395
gfz2011gpyr   0.30344
gfz2011haaa  -0.32887
gfz2011hatg   0.23875
gfz2011hqjs   0.35074
gfz2011ioch   1.93620
gfz2011iryz   0.04643
gfz2011jdoz   0.25539
gfz2011jphj  -1.03350
gfz2011kfch   0.38390
gfz2011kjzt  -0.30622
gfz2011kjzv   0.39107
gfz2011kyzy   0.35226
gfz2011lkkf   1.55390
gfz2011lmug  -0.08377
gfz2011lwmg   0.10065
gfz2011mjje  -0.13326
gfz2011mror   1.54620
gfz2011nftw   1.08970
gfz2011nhby  -0.42515
gfz2011nijp  -0.53124
gfz2011nilw  -0.17513
gfz2011niuw  -0.28436
gfz2011nlmf  -1.00600
gfz2011nlnl  -1.15230
gfz2011nlum  -0.64771
gfz2011nmdz   0.34425
gfz2011nmhg  -0.52121
gfz2011nsiy  -0.49971
gfz2011nuqo  -0.47566
gfz2011oazk   0.47945
gfz2011oekz   0.21776
gfz2011ofpj   0.14744
gfz2011ohgj  -0.61234
gfz2011oslk  -0.08320
gfz2011owqa  -0.13984
gfz2011paqj  -0.56112
gfz2011pfls  -0.53020
gfz2011pmuv   0.01789
gfz2011poug  -0.84418
gfz2011ppsc  -0.42994
gfz2011prrq  -0.22334
gfz2011pwbw  -0.21293
gfz2011qenl   0.06330
gfz2011qgea   0.35169
gfz2011qukj  -0.37883
gfz2011scma   0.09494
gfz2011sdax  -0.10155
gfz2011sqco  -0.60351
gfz2011sxno  -0.02096
gfz2011syvj   0.08885
gfz2011syzr   0.21976
gfz2011taqr   0.83268
gfz2011tlwl  -0.00633
gfz2011tqgg   0.02456
gfz2011tsgl   1.04650
gfz2011tssv   0.74292
gfz2011uqry  -0.14600
gfz2011urwz   1.21870
gfz2011vahy  -0.01356
gfz2011vbxv  -0.01824
gfz2011vtzv  -0.05499
gfz2011wcvs  -0.94731
gfz2011wkja  -0.53954
gfz2011wpzt  -0.15596
gfz2011wtfn  -1.36460
gfz2011wucg   0.03868
gfz2011wwze   0.45608
gfz2011xgbc  -0.56965
gfz2011xgwy  -0.19455
gfz2011xkka   0.81380
gfz2011xnui  -0.22338
gfz2011yeck  -0.12157
gfz2011yexx   0.40275
gfz2011ypfh  -0.34242
gfz2011ytob   1.26710
gfz2011zghc   0.40190
gfz2011zkbt   0.08278
gfz2012adja   0.04913
gfz2012amvs   0.18844
gfz2012bcvn  -0.45544
gfz2012bqcf   0.02195
gfz2012byrq   0.15756
gfz2012cdju  -0.18375
gfz2012cntu  -0.07248
gfz2012cvfr  -0.05540
gfz2012cwhl   1.25580
gfz2012dejg   1.39440
gfz2012dpwv   0.41895
gfz2012dugf  -0.02227
gfz2012dwwu   0.81161
gfz2012dyck   0.02966
gfz2012dysu  -0.25697
gfz2012dzot  -0.20985
gfz2012ebff   0.08304
gfz2012ebrr  -0.40150
gfz2012ekfp  -0.13468
gfz2012ekro  -0.63818
gfz2012elek  -0.21780
gfz2012erds  -0.21917
gfz2012eyti  -2.21980
gfz2012gnow  -0.25769
gfz2012hhlx   0.51500
gfz2012ipdc   0.45168
gfz2012izke   0.70088
gfz2012kmbo  -0.18141
gfz2012kmmz   0.51447
gfz2012kstg  -0.11117
gfz2012ldjj   0.20487
gfz2012luzm  -0.30255
gfz2012mdzf   0.51956
gfz2012mjuu  -0.39057
gfz2012mrqk   1.17290
gfz2012mrwu  -0.40404
gfz2012mtyn  -0.12106
gfz2012ndwt   0.91545
gfz2012nmja  -0.41019
gfz2012nnqu   0.07027
gfz2012nqvd   0.21132
gfz2012oafg   0.22877
gfz2012oehy   0.02305
gfz2012ofnx   0.11010
gfz2012oork   1.78540
gfz2012pdav  -0.05024
gfz2012phns   0.33465
gfz2012pmuj   0.09055
gfz2012qmhz  -0.37766
gfz2012qpoc   1.05630
gfz2012roan  -0.65822
gfz2012sgfd  -0.16684
gfz2012smyn   0.69505
gfz2012socz   0.76362
gfz2012suqd   0.09907
gfz2012svwz  -0.15027
gfz2012sxzs  -0.10484
gfz2012syum  -0.41199
gfz2012tisj   0.07484
gfz2012tqjc  -0.26966
gfz2012trfq  -0.02148
gfz2012uhsx  -0.45166
gfz2012uhtc  -0.08135
gfz2012uzww  -0.28387
gfz2012vitw  -0.09101
gfz2012vkjw  -1.15590
gfz2012vqmq  -0.83936
gfz2012vrqz  -0.62293
gfz2012vurc   0.17248
gfz2012wgdv  -0.06029
gfz2012wgmg  -0.53958
gfz2012wkki   0.41764
gfz2012wmmw   0.32114
gfz2012wowu   1.11350
gfz2012wqfz  -0.72611
gfz2012wysg   0.48659
gfz2012xask  -0.19318
gfz2012xfnu   0.68993
gfz2012xkln  -0.39715
gfz2012xlfo   0.10760
gfz2012xncm  -0.00000
gfz2012xrmq   0.07312
gfz2012xtvu  -0.18606
gfz2012xxdj  -0.36571
gfz2012yegw   0.01345
gfz2012ylai  -0.27712
gfz2013agmt   0.58409
gfz2013bwgw  -0.23294
gfz2013byyy  -0.14974
gfz2013cvve  -0.08598
gfz2013cyvx  -0.09687
gfz2013delq  -0.16705
gfz2013dftb   0.09685
gfz2013dzvr   0.66977
gfz2013esef   0.79415
gfz2013fmcd   1.07760
gfz2013fmcp   0.09721
gfz2013fnpa  -0.05526
gfz2013fthi  -0.43641
gfz2013fulo  -0.00690
gfz2013fvht  -0.33877
gfz2013fvyr   0.33012
gfz2013ghpd   0.13353
gfz2013gkcx  -0.08303
gfz2013gkyn  -0.54075
gfz2013glpz   1.09980
gfz2013gsnl   0.78685
gfz2013gurk   0.03548
gfz2013gxye  -0.11294
gfz2013hbmi  -0.30679
gfz2013hbtm   0.01784
gfz2013hqaa  -0.05594
gfz2013icql  -0.21748
gfz2013ikic  -0.26056
gfz2013irme   0.36325
gfz2013iuyv   0.95531
gfz2013ivvw  -0.20602
gfz2013iwzn   0.78520
gfz2013jfcn   0.09369
gfz2013jobl  -0.18809
gfz2013jrqf  -0.05056
gfz2013jtsg   0.22691
gfz2013jzcf  -0.36318
gfz2013kats   0.01596
gfz2013kbbg  -0.05955
gfz2013kbbn   0.05862
gfz2013kbkp   2.06280
gfz2013kcdb   0.09784
gfz2013kdfy  -0.28112
gfz2013kqab  -0.00108
gfz2013lbod   0.19180
gfz2013lbvl   0.04421
gfz2013lcrk   0.32950
gfz2013ljdu  -0.48385
gfz2013mktp  -0.13351
gfz2013mynb   0.86657
gfz2013mzaw  -0.11057
gfz2013nkgt   0.32559
gfz2013ntfc  -1.79360
gfz2013ntiu   1.08340
gfz2013oeni  -0.10468
gfz2013oizq   0.22480
gfz2013okac  -0.20922
gfz2013orot   0.43896
gfz2013oywh  -0.48384
gfz2013phhi  -0.02145
gfz2013pkmz   2.41500
gfz2013pqkp   0.77971
gfz2013qear   0.64423
gfz2013qigb  -0.26014
gfz2013qoak  -0.26526
gfz2013quwz  -0.51150
gfz2013quyn  -0.32693
gfz2013qxof  -0.00000
gfz2013rdmn  -0.31034
gfz2013rfik  -0.17422
gfz2013rocs  -0.19090
gfz2013rtvy  -0.63424
gfz2013ryph  -0.13736
gfz2013skvq  -0.03508
gfz2013stup   2.71920
gfz2013swnj  -0.46368
gfz2013taeb   0.98797
gfz2013tcju  -0.60421
gfz2013tdsx   0.38464
gfz2013tekq  -0.25935
gfz2013tgia  -0.34338
gfz2013tkcg   0.80972
gfz2013tnrp   0.29105
gfz2013twbc   0.18731
gfz2013ubgt  -0.38951
gfz2013udtw  -0.24163
gfz2013utqa  -0.06030
gfz2013uwjo   0.16440
gfz2013vdam  -0.01672
gfz2013veug   0.14216
gfz2013vfix   0.16174
gfz2013vldx   0.32894
gfz2013vmrv   0.04640
gfz2013vnwa  -0.28902
gfz2013voai  -0.15732
gfz2013vojy  -0.52578
gfz2013vvre  -0.38582
gfz2013vzel  -0.39809
gfz2013xmzw   0.22188
gfz2013xswc   0.06990
gfz2013xxbf   0.94385
gfz2013yodm  -0.07965
gfz2013yxhf  -0.20501
gfz2013zfbz   0.13833
gfz2013zlak   0.34205
gfz2014amgk  -0.95207
gfz2014aqop  -0.19680
gfz2014ayxf  -0.14969
gfz2014azfu  -0.16746
gfz2014dihl  -0.34239
gfz2014eirs  -0.02522
gfz2014eoay  -0.19530
gfz2014esez  -0.29973
gfz2014etgp   0.31727
gfz2014fbef  -0.06076
gfz2014fbli  -0.09890
gfz2014flxk  -0.07513
gfz2014fqas  -0.21754
gfz2014fsir   0.26603
gfz2014fsje   0.04530
gfz2014fwuf   0.02681
gfz2014fwxt  -0.07379
gfz2014fxte  -0.18910
gfz2014gnbw  -0.07177
gfz2014gnvp   0.24838
gfz2014gsfc   0.08093
gfz2014gssz  -0.20130
gfz2014gtee  -0.57639
gfz2014gtoj  -1.33180
gfz2014gypw   0.67556
gfz2014hqhv   0.08509
gfz2014huqh  -0.34243
gfz2014hyea  -0.24253
gfz2014hzzf  -0.42524
gfz2014icov  -0.47353
gfz2014igrp   0.29553
gfz2014iltl  -0.51831
gfz2014ined  -0.07616
gfz2014irlf   0.22403
gfz2014irln   0.25685
gfz2014irly   0.01776
gfz2014isjg  -0.09775
gfz2014iusw  -0.04044
gfz2014ixlc  -0.57367
gfz2014jarg  -0.31995
gfz2014jaxy   0.30341
gfz2014jayh  -0.11080
