# Nsamples: 715  MAD:  0.358  mean:  0.043  std:  0.584
gfz2011etkc   0.33142
gfz2011exxq  -1.53120
gfz2011ffdh   0.00000
gfz2011fnie   0.02265
gfz2011fnuk  -0.12374
gfz2011fnxz  -0.24245
gfz2011fszl   0.06756
gfz2011fxmf  -0.33187
gfz2011fzcw   0.04683
gfz2011gaax  -0.12254
gfz2011gdrl  -0.24631
gfz2011gfer   0.10660
gfz2011ggnl   1.60090
gfz2011glpg  -0.24336
gfz2011gnbk  -0.11688
gfz2011gpyr  -0.26694
gfz2011haaa  -0.24154
gfz2011hatg  -0.36368
gfz2011hbqc   0.52455
gfz2011hqjs   0.34971
gfz2011ifta   0.07027
gfz2011ioch   3.77380
gfz2011iryz  -0.17166
gfz2011itcv  -0.32241
gfz2011ituo  -0.27800
gfz2011ixpj   0.16824
gfz2011iybf   1.02170
gfz2011jdoz  -0.36405
gfz2011jfyb  -0.13574
gfz2011jghq   0.08243
gfz2011jphj  -1.03740
gfz2011kfch   0.03962
gfz2011kgvq  -0.48392
gfz2011kjzt  -0.31067
gfz2011kjzv  -0.40946
gfz2011kujo  -0.28301
gfz2011kylu   0.62583
gfz2011kyzy   0.43039
gfz2011ldgl   0.24522
gfz2011lkkf   0.74035
gfz2011lmug  -0.03993
gfz2011lwmg   0.11174
gfz2011mdyq   2.06780
gfz2011mjje  -0.00102
gfz2011mllb  -1.18580
gfz2011mntq  -0.19135
gfz2011mror  -0.69355
gfz2011mrpy  -1.40680
gfz2011mzvn   0.99870
gfz2011ncyw   1.32540
gfz2011ndhh  -0.29689
gfz2011neai   2.20960
gfz2011nejg   1.38200
gfz2011nejw  -2.01980
gfz2011nerb  -1.45970
gfz2011nfcz   0.39535
gfz2011nftw  -0.01066
gfz2011nhby   0.49516
gfz2011nhvt  -1.13060
gfz2011nifi   0.10797
gfz2011nijp   0.93216
gfz2011nilw   0.23026
gfz2011niuw   0.07568
gfz2011nkou   0.16455
gfz2011nlmf   0.68066
gfz2011nlnl  -0.10978
gfz2011nlum   0.65264
gfz2011nmdz  -0.05003
gfz2011nnda  -0.27830
gfz2011npaf  -0.48049
gfz2011npeu   1.09000
gfz2011nsej   1.88630
gfz2011nsiy   0.11558
gfz2011nsrx   0.01638
gfz2011nuqo   0.49831
gfz2011oadm  -0.23129
gfz2011oazk  -0.28274
gfz2011oekz   0.57681
gfz2011ofpj  -0.03478
gfz2011ohgj  -0.47237
gfz2011omxt   0.00000
gfz2011oslk   0.12403
gfz2011osmp   0.13362
gfz2011ovvj   0.62963
gfz2011owqa   0.30713
gfz2011paqj   0.52897
gfz2011pdsn   1.69080
gfz2011pfls  -0.10000
gfz2011pgzk   0.20640
gfz2011pivq  -0.84003
gfz2011pmuv   0.00383
gfz2011poug   0.47328
gfz2011ppsc  -0.12389
gfz2011prrq  -0.34373
gfz2011pwbw   0.04219
gfz2011qenl  -0.34108
gfz2011qgea  -0.47727
gfz2011qgvh   0.01302
gfz2011qukj  -0.46467
gfz2011rbuo  -0.12701
gfz2011rczb   0.13934
gfz2011rkau  -1.19270
gfz2011rkzx   0.09169
gfz2011rnsp  -0.17006
gfz2011scma  -0.30679
gfz2011sdax  -0.38523
gfz2011sdpl   0.36452
gfz2011sqco   0.84559
gfz2011sskq   0.87834
gfz2011sxno  -0.22407
gfz2011sylg   0.19338
gfz2011tfor   0.23532
gfz2011tgon  -0.04555
gfz2011tqgg   0.71330
gfz2011tsgl   0.06759
gfz2011tssv   0.05209
gfz2011tvuv  -0.17526
gfz2011udjs   0.09293
gfz2011ugbt   1.15530
gfz2011uowi   0.18849
gfz2011uqry   0.33368
gfz2011urwz  -0.50419
gfz2011vahy  -0.22657
gfz2011vbxv   0.09220
gfz2011vcyx   0.43446
gfz2011vimn  -0.11661
gfz2011vsag  -0.97413
gfz2011vtdl   2.12720
gfz2011vtzv  -0.18810
gfz2011vxek  -0.04969
gfz2011wbtc   0.03692
gfz2011wcvs  -0.75202
gfz2011wgoa  -0.29293
gfz2011wkja  -0.25523
gfz2011wkyx  -2.18440
gfz2011wngi  -0.23342
gfz2011wpzt  -0.02151
gfz2011wqup   0.08561
gfz2011wucg   0.14606
gfz2011wwze   0.24647
gfz2011wzss  -0.37981
gfz2011xagc   0.00000
gfz2011xawm  -0.96107
gfz2011xgwy  -0.19889
gfz2011xkka   0.09603
gfz2011xnui  -0.09266
gfz2011xwum   0.94741
gfz2011xxng   0.40124
gfz2011yeck  -0.02206
gfz2011yexx   0.05033
gfz2011ykbd   0.47812
gfz2011ypfh   0.49198
gfz2011yrfa   0.19653
gfz2011ytob   0.92606
gfz2011ywtj  -0.03019
gfz2011zcwn   0.95424
gfz2011zghc  -0.02991
gfz2011zgxn   0.41807
gfz2011zkbt   0.00000
gfz2011zlga   0.21141
gfz2012adja   0.10284
gfz2012ahac  -0.04858
gfz2012ahkl  -0.35702
gfz2012aisj  -0.06006
gfz2012alti   0.03195
gfz2012amjx  -0.61894
gfz2012amvs   0.13416
gfz2012aqpa  -0.62531
gfz2012arlo  -2.07530
gfz2012auqr   0.39756
gfz2012axrp  -0.19624
gfz2012azel   1.51010
gfz2012bcvn  -0.10947
gfz2012bity  -0.25512
gfz2012bjhl  -0.10934
gfz2012bqcf   0.26561
gfz2012byrq   1.18670
gfz2012byuk  -0.27321
gfz2012cdju   0.03616
gfz2012cksh   0.13102
gfz2012cmww  -0.11937
gfz2012cntu  -0.27846
gfz2012crpb   0.19986
gfz2012cvfr  -0.11671
gfz2012cwhl  -0.41183
gfz2012dbgt  -0.63285
gfz2012dcjd   0.02870
gfz2012dejg   0.24352
gfz2012dgfk   0.47482
gfz2012dkdy   0.07981
gfz2012dleg  -0.77568
gfz2012dnig  -0.28766
gfz2012dpem   0.56533
gfz2012dpnu  -0.47618
gfz2012dpwv  -0.36301
gfz2012drak  -0.15462
gfz2012drqd   0.31636
gfz2012dsei   0.88194
gfz2012dtdt  -0.33212
gfz2012dtlu  -0.03825
gfz2012dttl   0.07192
gfz2012dtvr  -0.24018
gfz2012duvf  -0.41428
gfz2012duwm  -0.86383
gfz2012dwwu  -0.15702
gfz2012dyck  -0.00630
gfz2012dyfw  -1.10480
gfz2012dysu   0.23034
gfz2012dyua   0.25619
gfz2012dzen   1.58650
gfz2012dzjo   0.26068
gfz2012dzot  -0.47604
gfz2012dzou  -0.55686
gfz2012dzul   0.23396
gfz2012eajr   0.66703
gfz2012ebff   0.01135
gfz2012ebhf   0.27158
gfz2012ebrr  -0.23018
gfz2012ekfp   1.52320
gfz2012elek  -0.38533
gfz2012emin  -0.18197
gfz2012erds  -0.24261
gfz2012evxn   0.84213
gfz2012eyti  -1.25930
gfz2012fcyq   0.04008
gfz2012fcyr   0.04942
gfz2012fpyo   0.38821
gfz2012fuyd   0.40429
gfz2012fyny  -0.08040
gfz2012fyop   0.44786
gfz2012gdye  -0.59898
gfz2012gftg   0.61990
gfz2012ghiv  -0.23733
gfz2012gjdg  -0.56456
gfz2012gjtd  -0.74323
gfz2012gmsr   0.51616
gfz2012gnow  -0.05039
gfz2012gpcd   0.21315
gfz2012gvxc   0.93310
gfz2012gzuk   2.40620
gfz2012hdny  -0.58823
gfz2012heih   0.31660
gfz2012hhlx  -0.19703
gfz2012hkxs   0.53287
gfz2012hmcv  -0.29577
gfz2012hqlo   1.03660
gfz2012hysb  -0.11018
gfz2012hzhn   0.07950
gfz2012hzur   1.57690
gfz2012iabn   0.05731
gfz2012ibyd  -0.08376
gfz2012icjo   0.27127
gfz2012ieln   0.12119
gfz2012iijk  -0.36786
gfz2012ipdc  -0.17133
gfz2012iphs  -0.03286
gfz2012ivyg   0.10816
gfz2012izke   0.79653
gfz2012jlez   1.94830
gfz2012kadi  -0.40476
gfz2012klpl   0.09521
gfz2012kmbo  -0.25142
gfz2012kmmz   0.16052
gfz2012krcm   0.31965
gfz2012kstg  -0.13333
gfz2012kwmx   0.35125
gfz2012ldjj   0.02008
gfz2012lqhw   0.15690
gfz2012luzm  -0.92244
gfz2012lvlr   0.74311
gfz2012lyyr   0.03039
gfz2012mcrb   0.25202
gfz2012mdzf  -0.13980
gfz2012mekv   0.56101
gfz2012mjuu   0.15910
gfz2012mmiw   0.25089
gfz2012mowv  -0.08526
gfz2012mpzo   0.30135
gfz2012mrqk   0.38571
gfz2012mrwu  -0.02691
gfz2012mvgu  -0.14530
gfz2012mwhe   0.53110
gfz2012ndwt   0.41870
gfz2012nldz   1.19490
gfz2012nlrb   0.41840
gfz2012nmja  -0.14199
gfz2012nnck   1.19860
gfz2012nnqu  -0.40055
gfz2012nqvd  -0.26685
gfz2012nsxc   0.08773
gfz2012oafg   0.12935
gfz2012oehy   0.08344
gfz2012ofnx   0.27293
gfz2012oork   0.31400
gfz2012pdav   0.43045
gfz2012phns   0.09530
gfz2012pmuj  -1.75910
gfz2012pokk   0.13046
gfz2012pumy   0.53900
gfz2012pvve  -0.14262
gfz2012pziw   0.40772
gfz2012qhqp   1.61570
gfz2012qllj   0.00539
gfz2012qmhz  -0.48431
gfz2012qpoc  -0.67987
gfz2012roan   0.08927
gfz2012rzwp   1.76520
gfz2012sgfd  -0.10465
gfz2012smyn   0.11447
gfz2012socz   0.35298
gfz2012sopp   0.20860
gfz2012sqsc   0.81740
gfz2012suqd   0.06626
gfz2012svwz  -0.59032
gfz2012swbz   0.20714
gfz2012sxbo   0.06326
gfz2012sxpr  -0.03716
gfz2012sxzs   0.32872
gfz2012syum  -0.48777
gfz2012taph  -0.07560
gfz2012tgta  -0.07938
gfz2012tisj   0.11732
gfz2012touh   0.08793
gfz2012tqjc   0.01504
gfz2012trss   0.05983
gfz2012ttnf  -0.04954
gfz2012twec  -0.08649
gfz2012uegq   1.60480
gfz2012uhsx  -0.03575
gfz2012uhtc  -0.01648
gfz2012ulei  -0.04812
gfz2012umob  -0.31765
gfz2012unxc  -0.19150
gfz2012urtu   0.33569
gfz2012uvea   0.03902
gfz2012uvoa   0.49283
gfz2012uzww  -0.14892
gfz2012vcqw   0.21134
gfz2012vgot   0.13134
gfz2012vile  -0.57829
gfz2012vioy   0.07641
gfz2012vitw  -0.22596
gfz2012vkjw  -0.61463
gfz2012vlzv  -0.46477
gfz2012vnve  -0.56020
gfz2012vqmq   0.48151
gfz2012vrqz  -0.45238
gfz2012vsav  -0.02284
gfz2012vurc  -0.20232
gfz2012wgdv  -0.19842
gfz2012wgmg  -0.57365
gfz2012wgmp  -0.46051
gfz2012wkki  -0.03863
gfz2012wmmw   0.21243
gfz2012wowu   0.48131
gfz2012woxj   0.74066
gfz2012wqfz   0.04896
gfz2012wysg   0.32291
gfz2012xask   0.00000
gfz2012xcsf  -0.04935
gfz2012xfnu   0.31765
gfz2012xfsl   0.12518
gfz2012xkln  -0.30890
gfz2012xlas  -0.09919
gfz2012xlfo  -0.32921
gfz2012xmwt  -0.27531
gfz2012xncm   0.15583
gfz2012xrmq   0.08404
gfz2012xtvu  -0.21671
gfz2012xxdj  -0.18312
gfz2012yegw  -0.10574
gfz2012yihn   1.23380
gfz2012ylai  -0.02706
gfz2012yvwc  -0.05899
gfz2012yygz   0.24073
gfz2012yytb  -0.80962
gfz2012zhyz  -0.22546
gfz2012zido   0.36432
gfz2012zkhu   1.10370
gfz2012zmfc   0.54442
gfz2012znou  -0.95508
gfz2012zqis   0.12264
gfz2013aggr   0.53288
gfz2013agmt  -0.56761
gfz2013akkd   0.57754
gfz2013atak   0.26992
gfz2013bwgw  -0.28071
gfz2013byyy  -0.04142
gfz2013cfls  -0.64011
gfz2013cinv  -0.11114
gfz2013cokc  -0.14853
gfz2013cpjc   0.02006
gfz2013cqak   0.71202
gfz2013cqee   1.27180
gfz2013cvve  -0.32802
gfz2013cyvx  -0.20623
gfz2013dbhl  -0.41218
gfz2013delq   0.03844
gfz2013dftb  -0.09528
gfz2013djfi   0.34861
gfz2013dmzh  -0.04412
gfz2013dngd   1.32890
gfz2013dzvr   0.25635
gfz2013eavq   0.77800
gfz2013efct   0.06363
gfz2013eidd  -0.19099
gfz2013esef   0.50113
gfz2013ewht  -0.23014
gfz2013eyyo   1.73020
gfz2013ezmc   0.84646
gfz2013fmcd  -0.04106
gfz2013fmcp   0.56282
gfz2013fndg   1.62500
gfz2013fnpa   0.10580
gfz2013foto   0.21690
gfz2013frxd   0.79211
gfz2013fskp   0.02123
gfz2013fthi   0.69249
gfz2013fulo   0.44475
gfz2013fvht   0.66967
gfz2013fvyr  -0.48500
gfz2013fvzv  -0.15025
gfz2013fwbm  -0.52644
gfz2013fxyr  -0.32183
gfz2013fybd   0.07351
gfz2013gaqx  -0.41346
gfz2013gbki  -0.16745
gfz2013gbma   0.41079
gfz2013ghpd  -0.34018
gfz2013gjmk  -0.15600
gfz2013gkcx  -0.10422
gfz2013gkyn  -0.15246
gfz2013glpz   0.65984
gfz2013gomv   0.14431
gfz2013gsnl  -0.28916
gfz2013gugi   0.01700
gfz2013gurk  -0.07259
gfz2013gxye  -0.03099
gfz2013havw   1.70880
gfz2013hbmi   0.39169
gfz2013hbtm   0.30448
gfz2013hdbp  -0.86184
gfz2013hduf   0.53566
gfz2013hiam  -0.20596
gfz2013hinw   1.20790
gfz2013hqaa  -0.08665
gfz2013hvzv  -0.08222
gfz2013hwps   1.02970
gfz2013icgx  -0.05251
gfz2013icql   0.31757
gfz2013ikic   0.05065
gfz2013irme  -0.07724
gfz2013iuyv  -0.66388
gfz2013ivvw  -0.06605
gfz2013iwhc   0.09655
gfz2013iwzn   0.43682
gfz2013iybg   0.08064
gfz2013jfcn   0.19822
gfz2013jhog   0.08694
gfz2013jjae   0.08624
gfz2013jkqn   0.75522
gfz2013jlli  -0.67123
gfz2013jobl   0.27910
gfz2013jpir   0.04052
gfz2013jqsk   1.51600
gfz2013jrqf  -0.36110
gfz2013jtsg  -0.24619
gfz2013jzcf   0.16968
gfz2013kats   0.24824
gfz2013kbbg  -0.24659
gfz2013kbbn  -0.55865
gfz2013kbkp  -0.47223
gfz2013kcdb   0.12365
gfz2013kdfy  -0.18652
gfz2013kjgh  -0.72236
gfz2013kpcb   0.10298
gfz2013kpes  -0.50981
gfz2013kqab  -0.33550
gfz2013kslp  -0.30962
gfz2013kxlr  -0.05011
gfz2013kxof  -1.22110
gfz2013lbod   0.31192
gfz2013lbvl  -0.13019
gfz2013lcrk  -0.44470
gfz2013lgvf   0.04476
gfz2013ljdu   0.34209
gfz2013ljwt  -0.09744
gfz2013lqjj   0.18531
gfz2013lvxe  -0.13295
gfz2013lxed   0.00441
gfz2013mdxj   0.20912
gfz2013mktp   0.02730
gfz2013mvgq  -0.33306
gfz2013mynb  -0.03128
gfz2013mzaw   0.32511
gfz2013nkgt   0.50935
gfz2013ntiu   1.38900
gfz2013oeni   0.14764
gfz2013ohdt   0.15544
gfz2013ohnj  -0.20408
gfz2013oizq   0.34873
gfz2013okac  -0.16373
gfz2013olos  -0.83429
gfz2013onvl   0.40222
gfz2013oruq   0.05826
gfz2013otuj  -0.07527
gfz2013phhi   0.86910
gfz2013pkmz  -0.82812
gfz2013pqkp   0.95570
gfz2013qapj  -0.02574
gfz2013qear   0.11012
gfz2013qigb   0.42818
gfz2013qntl  -0.55198
gfz2013qoak  -0.30262
gfz2013qqyo  -0.11614
gfz2013quwz  -0.20191
gfz2013quyn   0.22284
gfz2013qwnm  -0.06137
gfz2013qxof  -0.15765
gfz2013rdmn  -0.63729
gfz2013rhxf   0.11535
gfz2013rocs  -0.21523
gfz2013rtvy  -0.35096
gfz2013rwkj   0.06552
gfz2013rwog   0.14991
gfz2013ryfc  -0.07531
gfz2013ryph   0.35520
gfz2013sdkg  -0.15524
gfz2013sdym  -0.26803
gfz2013skvq   0.15699
gfz2013swnj  -0.55901
gfz2013taeb  -0.23372
gfz2013tcju  -0.31966
gfz2013tdsx   0.04816
gfz2013tekq   0.00662
gfz2013tgia  -0.28611
gfz2013tjub   0.61411
gfz2013tkcg  -0.19906
gfz2013tmnf  -0.25670
gfz2013tnrp   0.08095
gfz2013ubgt  -1.40200
gfz2013udtw  -0.01471
gfz2013uepl   0.09623
gfz2013ujze   0.58139
gfz2013umay   0.63254
gfz2013unuv  -0.06863
gfz2013upqj  -0.22536
gfz2013utqa  -0.07558
gfz2013uwjo  -0.22544
gfz2013uxzw  -0.79634
gfz2013vcgd  -0.49316
gfz2013vdam   0.00000
gfz2013veoz  -0.20787
gfz2013veug  -0.47289
gfz2013vgfb   0.42436
gfz2013vjrr  -0.19944
gfz2013vldx  -0.50152
gfz2013vmrv   0.08407
gfz2013vmsg  -0.30178
gfz2013vnwa  -0.57794
gfz2013voai   0.00414
gfz2013vojy  -0.23870
gfz2013vvre   1.64280
gfz2013vwkh  -0.02380
gfz2013vzel  -0.40703
gfz2013wigs  -0.36291
gfz2013wpns  -0.27027
gfz2013wwee  -0.17489
gfz2013wyfl  -0.54075
gfz2013xacx   0.12123
gfz2013xahp   0.06327
gfz2013xddu   0.32933
gfz2013xmzw  -0.14054
gfz2013xodn  -0.12475
gfz2013xofz   0.37080
gfz2013xswc   0.12242
gfz2013xvps   0.00000
gfz2013xycz  -0.02744
gfz2013xzxe  -0.22415
gfz2013ygsj  -1.65690
gfz2013yihv  -0.18319
gfz2013ykkf   0.05297
gfz2013ylxm   0.53376
gfz2013ylxn  -0.36439
gfz2013ymhx  -0.50118
gfz2013yodm  -0.14109
gfz2013yqkz   0.12584
gfz2013yqtu  -0.49932
gfz2013ytfm  -0.54424
gfz2013yvnj  -0.21758
gfz2013yxhf   0.39243
gfz2013zbfb  -1.34760
gfz2013zeye  -0.24336
gfz2013zfbz  -0.14773
gfz2013zkta   0.13771
gfz2013zkzb  -0.21596
gfz2013zlak  -0.76504
gfz2014aedl  -0.09657
gfz2014afbt   1.00690
gfz2014ajgi   2.41580
gfz2014amgk  -0.43586
gfz2014aqop   0.07323
gfz2014ateb   0.43631
gfz2014avzp  -0.20169
gfz2014ayxf  -0.19029
gfz2014azfu   0.00000
gfz2014bdju   0.29439
gfz2014befl  -0.02833
gfz2014bgxe   0.65457
gfz2014bkra  -2.74710
gfz2014bmdf  -0.09353
gfz2014bppg  -0.11121
gfz2014bqpm   0.04398
gfz2014buyz  -0.02316
gfz2014byes  -0.37163
gfz2014bzus  -0.03616
gfz2014cgoi  -0.20150
gfz2014cjao   0.09320
gfz2014ckqv  -0.40726
gfz2014cokw  -0.00660
gfz2014crac  -0.21919
gfz2014ctdl  -0.08905
gfz2014cvnb  -0.18004
gfz2014dbqi  -0.17774
gfz2014dece   0.20902
gfz2014dggw  -0.04988
gfz2014dihl  -0.56741
gfz2014dmrw  -0.00034
gfz2014dsqr  -0.44709
gfz2014dtth   0.00073
gfz2014dtto  -0.68167
gfz2014dwcp  -0.08612
gfz2014dykt  -0.33337
gfz2014edjm  -0.28432
gfz2014eirs   0.07028
gfz2014ejfx  -0.02459
gfz2014emlw  -0.10878
gfz2014eoay  -0.13439
gfz2014epnq  -0.02588
gfz2014epue  -0.28171
gfz2014esez   0.08863
gfz2014etgp  -0.08482
gfz2014etqu   0.09125
gfz2014eunw   0.18363
gfz2014evgu   0.08870
gfz2014ezjq   1.81440
gfz2014ezvj   1.31140
gfz2014faex  -0.60161
gfz2014fbef   0.01931
gfz2014fbli   0.02920
gfz2014fbnr   0.08169
gfz2014fdhk  -0.26052
gfz2014ffqg  -0.27510
gfz2014fgbn   0.36297
gfz2014fhki  -0.10849
gfz2014fjfz  -0.40750
gfz2014flxk   0.30821
gfz2014fqas  -0.42041
gfz2014fsir   0.21376
gfz2014fsje   0.11852
gfz2014fskh   0.02759
gfz2014fvza   0.02250
gfz2014fwuf  -0.00556
gfz2014fwxt   0.29949
gfz2014fxim  -0.28568
gfz2014fxte   0.17918
gfz2014fxtv  -0.00286
gfz2014fxuy  -0.04751
gfz2014gasb   0.61160
gfz2014gbxg  -0.04015
gfz2014geln   0.20481
gfz2014ggie   0.31779
gfz2014ginr  -1.55390
gfz2014gnbw   0.00929
gfz2014gnvp   0.35267
gfz2014grwv   0.09437
gfz2014gsfc   0.34404
gfz2014gssz   0.47323
gfz2014gtee   0.03723
gfz2014gtoj  -0.21873
gfz2014gypw   0.27565
gfz2014hapg   0.18262
gfz2014happ  -0.21795
gfz2014herz  -0.24714
gfz2014hhey   0.49289
gfz2014hhis   0.07012
gfz2014hjmc   0.17788
gfz2014hkcw  -0.07542
gfz2014hotu   0.06080
gfz2014hqhv   0.15854
gfz2014huah  -0.22361
gfz2014huqh   0.18121
gfz2014hyea   0.05144
gfz2014hzzf  -0.00000
gfz2014iayo  -0.70965
gfz2014icov  -0.36647
gfz2014igrp   0.05057
gfz2014iltl   0.45001
gfz2014imqh   0.51367
gfz2014ined   0.37863
gfz2014inrg  -0.12264
gfz2014irlf   0.14378
gfz2014irln  -0.28856
gfz2014irly   0.10199
gfz2014isjg   0.16834
gfz2014isov  -0.47242
gfz2014itlx   0.53569
gfz2014iusw   0.13720
gfz2014ivgm  -0.22304
gfz2014ixlc  -0.26307
gfz2014iyuc   0.14594
gfz2014jarg   0.07355
gfz2014jayh   0.01613
gfz2014jckg  -0.56457
gfz2014jfmc  -1.10140
