# Nsamples: 347  MAD:  0.549  mean:  0.011  std:  0.779
gfz2010btme  -2.43830
gfz2010cphq   0.11289
gfz2010crgy   0.24717
gfz2010djib   0.84345
gfz2010drit  -0.28626
gfz2010drml   2.65600
gfz2010drmq   2.65600
gfz2010drun   0.37547
gfz2010fqnn  -0.07653
gfz2010fxut   0.33419
gfz2010hxan   0.34289
gfz2010iaay  -0.12855
gfz2010izgb  -0.87056
gfz2010jlvp   0.26311
gfz2010nlai  -1.84640
gfz2010tpcj  -0.28532
gfz2010tzma  -0.41132
gfz2010ugws  -0.85341
gfz2010uhjy  -0.68585
gfz2010upod   0.00238
gfz2010uyng  -0.10143
gfz2010vdcf   0.22837
gfz2010vhzx   0.56178
gfz2010vong   1.00940
gfz2010vybx   0.59919
gfz2010wakc   0.66159
gfz2010wigk   0.64825
gfz2010wplk  -1.82740
gfz2010xamh  -0.32629
gfz2010xnbn   1.57640
gfz2010xpzq  -0.47879
gfz2010yfdr  -0.06402
gfz2010yhhj   0.14236
gfz2010zhvj  -0.76966
gfz2010zjun  -0.92634
gfz2010zkle   2.81780
gfz2011amst   0.26770
gfz2011boaz  -0.70369
gfz2011bsvr  -0.54621
gfz2011bwsm  -1.68220
gfz2011cwsm  -0.19612
gfz2011dabj   0.18235
gfz2011fnie   0.12624
gfz2011gaax   0.43304
gfz2011gfer  -0.17825
gfz2011ggnl  -1.69060
gfz2011gpyr   0.17280
gfz2011gzde   0.17829
gfz2011hatg  -0.60988
gfz2011hbqc   0.26812
gfz2011hibi   1.40760
gfz2011hjof  -0.57588
gfz2011hmnw  -0.23204
gfz2011hqjs   0.10322
gfz2011hvzo   0.44544
gfz2011iamf   0.44998
gfz2011ituo  -0.47261
gfz2011jfyb  -0.12049
gfz2011jpob  -0.47179
gfz2011jryv   1.77750
gfz2011kfch  -0.28187
gfz2011kjzt   0.51324
gfz2011kjzv   0.47086
gfz2011lmug  -0.19041
gfz2011mdyq   0.12050
gfz2011mjje   0.07336
gfz2011mror   0.36136
gfz2011ndhh   0.34587
gfz2011ndki  -0.57344
gfz2011ndlh  -0.67228
gfz2011ndse   0.22618
gfz2011ndvj   0.17191
gfz2011neai  -0.33861
gfz2011nejg   0.57610
gfz2011nejw   0.62578
gfz2011nfcz   0.08538
gfz2011nfln  -0.79116
gfz2011nftw   0.06101
gfz2011nfwd  -0.11973
gfz2011nfww  -1.52830
gfz2011nhvt  -0.06627
gfz2011nijp   0.42443
gfz2011nilw   1.06970
gfz2011niuw  -0.20945
gfz2011nkou   1.10890
gfz2011nlmf  -0.22500
gfz2011nlnl  -0.54225
gfz2011nlum  -0.43445
gfz2011npeu  -2.30140
gfz2011nsiy  -0.89513
gfz2011nswi  -0.21052
gfz2011nsyi   0.27496
gfz2011nuqo  -0.14193
gfz2011nvty  -0.54421
gfz2011nyzk  -0.67263
gfz2011oadm  -0.53337
gfz2011ofpj   0.21379
gfz2011ohgj   0.52897
gfz2011okza   0.73684
gfz2011oqjl   0.64447
gfz2011owqa  -0.05842
gfz2011paqj  -0.59747
gfz2011pdsn   0.32546
gfz2011pfwq  -0.23527
gfz2011pivq   0.81446
gfz2011plzc   0.10166
gfz2011pmuv   0.77839
gfz2011pphc   0.11467
gfz2011ptgd   0.04570
gfz2011pwbw   0.56243
gfz2011qenl  -0.13585
gfz2011qklh  -1.19500
gfz2011rkau  -0.00000
gfz2011scma   0.37898
gfz2011sqco  -0.60371
gfz2011sxno   0.27743
gfz2011tqgg  -0.37497
gfz2011tsgl  -0.43467
gfz2011twpz   0.07636
gfz2011udxo   0.84841
gfz2011ugbt  -0.65098
gfz2011uqry   0.53539
gfz2011urwz  -0.02221
gfz2011vcyx  -0.04640
gfz2011vsag   0.31048
gfz2011vtdl  -0.46454
gfz2011wkja  -0.49057
gfz2011wkyx  -0.34471
gfz2011wtfn  -2.38910
gfz2011wzss  -0.20063
gfz2011xgwy  -0.21528
gfz2011xlod   0.17712
gfz2011yexx  -0.76804
gfz2011ytwk  -0.08264
gfz2011ywtj  -0.38523
gfz2011zkbt  -0.11002
gfz2011znyq   0.49111
gfz2012ahac  -0.09711
gfz2012ahkl  -0.67863
gfz2012amjx   0.03295
gfz2012bjhl  -0.27193
gfz2012bolx  -0.26408
gfz2012byrq   0.33403
gfz2012bysu  -0.28809
gfz2012byuk  -0.37979
gfz2012cdju  -0.08397
gfz2012cksh  -1.26270
gfz2012dbgt   0.17011
gfz2012dcjd  -0.15658
gfz2012dleg   0.31264
gfz2012dpem   0.89811
gfz2012dpnu  -0.07695
gfz2012dpwv  -0.64309
gfz2012dtdt   0.05989
gfz2012dugf  -0.22755
gfz2012dwwu   0.10656
gfz2012dysu  -1.24300
gfz2012dzen   0.68169
gfz2012eary   1.15870
gfz2012ebhf   0.80738
gfz2012erds  -0.46954
gfz2012evxn  -0.05506
gfz2012fcyq  -0.06153
gfz2012fcyr   0.00000
gfz2012foih   1.42040
gfz2012fpyo   0.44043
gfz2012ftks  -0.09483
gfz2012fyny   0.82324
gfz2012gczh   0.44986
gfz2012gjdg  -0.15027
gfz2012gjtd  -0.15307
gfz2012hzur  -0.31992
gfz2012iotw  -0.17733
gfz2012iroy  -0.00000
gfz2012itxz  -0.54373
gfz2012iyhs   0.25345
gfz2012izke   0.50327
gfz2012jlez   0.56554
gfz2012kmbo   1.35600
gfz2012kmmz   0.15162
gfz2012lcca  -0.06638
gfz2012ldjj  -0.88748
gfz2012lqhw   0.18851
gfz2012mdzf   0.01698
gfz2012mhik   0.47451
gfz2012mjuu  -0.68967
gfz2012mmiw   0.25018
gfz2012movv  -1.60580
gfz2012mrqk   0.10935
gfz2012mtyn   0.44999
gfz2012mxdk   0.66668
gfz2012mxvk  -0.05448
gfz2012nnqu  -0.25337
gfz2012nqvd   0.87214
gfz2012nsxc   0.47001
gfz2012oehy  -0.04542
gfz2012onhu  -0.14445
gfz2012oork   0.19120
gfz2012phns   1.48330
gfz2012qbbt   0.28336
gfz2012qmhz   0.52817
gfz2012qpoc   0.68149
gfz2012roan   0.11816
gfz2012rslf   0.64225
gfz2012rzwp   1.41230
gfz2012sjdy  -0.14135
gfz2012sqsc   3.07140
gfz2012suqd  -0.47254
gfz2012sxpr   0.92639
gfz2012syum  -0.38846
gfz2012tisj   1.20400
gfz2012tjih   0.13848
gfz2012tqjc  -0.52895
gfz2012tsdz  -0.44136
gfz2012tyoz   0.47074
gfz2012uhtc  -0.09115
gfz2012ulei  -0.43146
gfz2012uovh   0.67875
gfz2012urtu  -0.23415
gfz2012uvoa  -0.23257
gfz2012uzww  -0.33801
gfz2012vile   0.93798
gfz2012vitw   0.32242
gfz2012wgdv   0.87613
gfz2012wgmg   0.00414
gfz2012wgmp   1.45530
gfz2012wiyv   3.03660
gfz2012wowu  -0.74650
gfz2012xlas  -0.91339
gfz2012xlfo  -0.88716
gfz2012xncm  -0.87260
gfz2012xtvu   0.51244
gfz2012xxdj   0.10921
gfz2012yncm   3.24250
gfz2013adih  -0.47028
gfz2013atak   0.08979
gfz2013aymi   0.16662
gfz2013cfls  -0.10030
gfz2013cinv   0.17020
gfz2013cokc  -0.43376
gfz2013cvve   0.78999
gfz2013djfi   0.69259
gfz2013dngd  -0.26576
gfz2013dzvr  -0.07583
gfz2013eazm   0.20013
gfz2013efct  -0.11517
gfz2013eidd  -0.04018
gfz2013ektd   0.76033
gfz2013ffjt   0.64710
gfz2013frxd  -1.30350
gfz2013fvyr   0.29679
gfz2013fwbm   1.30340
gfz2013fybd  -0.03690
gfz2013gbki  -0.28886
gfz2013gkcx  -0.21537
gfz2013gugi   0.83742
gfz2013hbmi  -1.16370
gfz2013hdbp   1.01040
gfz2013hjtt   0.76050
gfz2013hqaa  -0.31976
gfz2013hwps   0.10550
gfz2013icgx   0.24797
gfz2013icql  -0.44049
gfz2013jhog   0.02143
gfz2013jlli  -0.26245
gfz2013jobl   0.59589
gfz2013kbbg  -0.49765
gfz2013kcdb  -0.23070
gfz2013kqab   1.55210
gfz2013kxlr  -0.20786
gfz2013lbvl   0.44774
gfz2013ljwt  -0.20946
gfz2013lnne  -0.36453
gfz2013mvgq  -0.13178
gfz2013mzaw  -0.30637
gfz2013njwj   0.38351
gfz2013oizq  -1.45050
gfz2013okxa  -0.04763
gfz2013onvl   0.32380
gfz2013oywh   0.32923
gfz2013pkmz   1.21650
gfz2013pqkp   0.00000
gfz2013qoak  -1.24930
gfz2013quwz  -0.50586
gfz2013qxof   0.53295
gfz2013rdmn   0.03135
gfz2013rfik   0.00895
gfz2013rocs   0.23497
gfz2013rwog  -0.18836
gfz2013ryph   0.08532
gfz2013sbsp  -0.10970
gfz2013stup  -0.83987
gfz2013taeb   1.07230
gfz2013tert  -0.78682
gfz2013tgia   0.30374
gfz2013tjub   0.04328
gfz2013tmnf  -0.15476
gfz2013tnff  -0.02196
gfz2013tnrp  -0.01814
gfz2013ujze   0.16805
gfz2013unuv  -0.54253
gfz2013upqj  -0.57271
gfz2013veoz  -0.05445
gfz2013veug  -0.60818
gfz2013vmsg  -1.76940
gfz2013vnwa  -0.12546
gfz2013vojy   0.69636
gfz2013vvre   0.37849
gfz2013vzel   0.00000
gfz2013vzet   0.35846
gfz2013wpns   0.01425
gfz2013xahp  -0.60336
gfz2013xmzw   0.23625
gfz2013xofz  -0.95434
gfz2013xswc  -0.03861
gfz2013yawe  -0.41258
gfz2013yodm  -0.18976
gfz2013zkta   0.08827
gfz2013zlak  -0.34881
gfz2014aluc   0.25802
gfz2014ayxf   0.75056
gfz2014bdju  -0.37018
gfz2014befl  -0.41849
gfz2014bztn  -1.41360
gfz2014bzus  -0.10676
gfz2014cwti   0.61185
gfz2014dtth   0.30628
gfz2014eoay  -0.24888
gfz2014epnq   0.72774
gfz2014epue   0.34916
gfz2014ezjq  -1.71900
gfz2014faex   0.41989
gfz2014flxk   0.04059
gfz2014fxte  -0.49232
gfz2014fxtv  -0.25458
gfz2014gasb  -2.01080
gfz2014gnvp  -2.19010
gfz2014gsfc   1.01180
gfz2014gypw   0.25551
gfz2014hapg   0.60095
gfz2014huqh  -2.13490
gfz2014hyea  -0.02029
gfz2014hzzf  -0.55208
gfz2014ijsa   0.20985
gfz2014irln  -1.20100
gfz2014jayh  -0.68385
gfz2014jbgm   0.19797
