# Nsamples: 178  MAD:  0.575  mean:  0.001  std:  0.706
gfz2010ifhd  -0.91920
gfz2010jlvp  -0.62247
gfz2010kcdq   1.84040
gfz2010ngge   0.96797
gfz2010tcgh   0.84847
gfz2010tmba  -0.06548
gfz2010tpcj  -0.11171
gfz2010tqyo   1.07090
gfz2010tzlz  -0.04985
gfz2010tzma  -0.58397
gfz2010ugws   0.98076
gfz2010uhjy  -0.25624
gfz2010uogw  -1.05400
gfz2010uopf  -0.64147
gfz2010vong  -0.60161
gfz2011amst  -0.40062
gfz2011bcvc  -0.18033
gfz2011bpqm   0.75920
gfz2011bsvr   0.59453
gfz2011bygs   0.31567
gfz2011bygu   0.52605
gfz2011cdge   1.38240
gfz2011cfyy  -0.83482
gfz2011cjuz  -1.30580
gfz2011cwzi   1.53550
gfz2011dabj   0.11849
gfz2011dhfg  -0.59241
gfz2011dpyu  -0.39888
gfz2011etkc   0.35248
gfz2011qenl   0.17042
gfz2011qukj   1.72660
gfz2011rkau  -0.04746
gfz2011rnsp  -0.06905
gfz2011sdax   0.62758
gfz2011sqco   0.09427
gfz2011sxno   0.59962
gfz2011syvj  -0.15847
gfz2011syzr  -0.43314
gfz2011taqr   0.28144
gfz2011tgon   0.98634
gfz2011tsgl   0.32736
gfz2011uowi   0.14881
gfz2011uqry  -0.85652
gfz2011vahy  -0.45830
gfz2011vbxv  -0.65441
gfz2011wcvs  -0.89174
gfz2011wkja  -0.47456
gfz2011wpzt  -0.73233
gfz2011wucg  -0.15694
gfz2011wwze   0.26134
gfz2011xgbc  -0.12459
gfz2011xkka   0.51287
gfz2011yexx  -0.03965
gfz2011zghc  -0.16124
gfz2012amjx  -1.49650
gfz2012arlo   0.22535
gfz2012bqcf  -0.25727
gfz2012byrq  -0.02001
gfz2012cdju   0.22361
gfz2012cmww   0.13418
gfz2012cvfr   0.12779
gfz2012dzou   1.70310
gfz2012ekfp  -0.56432
gfz2012ghiv  -0.25910
gfz2012gjdg   1.65670
gfz2012gnow  -0.44937
gfz2012hzhn  -0.91542
gfz2012hzur   1.45730
gfz2012iblo  -0.95692
gfz2012iijk   0.07448
gfz2012kmbo   0.67437
gfz2012kmmz  -0.49750
gfz2012ldjj   1.47740
gfz2012mdzf   0.33369
gfz2012mtyn  -0.60688
gfz2012nnqu  -0.56081
gfz2012nqvd   0.22219
gfz2012oafg  -0.06128
gfz2012oehy  -0.05920
gfz2012phns  -0.15895
gfz2012qllj  -0.64001
gfz2012sgfd  -1.23520
gfz2012socz   0.96423
gfz2012ssnb  -0.66243
gfz2012suqd  -0.07873
gfz2012svwz   0.28747
gfz2012sxbo  -0.37310
gfz2012syum   1.00150
gfz2012tisj   0.45727
gfz2012uhsx  -0.58877
gfz2012uhtc  -0.21480
gfz2012ulei   0.20769
gfz2012uvoa  -0.58829
gfz2012uzww  -0.49018
gfz2012vqjw   0.52174
gfz2012vqmq   0.60815
gfz2012vrqz  -1.51080
gfz2012wkki   0.22217
gfz2013ljdu  -1.13840
gfz2013mzaw  -0.25279
gfz2013oizq   0.54778
gfz2013orot  -0.43473
gfz2013oruq   1.70470
gfz2013phhi   0.12773
gfz2013pkmz  -0.61707
gfz2013qigb  -0.62554
gfz2013qoak   0.73980
gfz2013quwz   0.97677
gfz2013quyn  -0.01541
gfz2013rfik   0.00468
gfz2013rocs  -0.14987
gfz2013rwkj  -0.81561
gfz2013stou  -0.22112
gfz2013swnj  -0.15555
gfz2013taeb   2.11540
gfz2013tcju  -0.61997
gfz2013tdsx   0.05438
gfz2013tekq  -0.18459
gfz2013tgia  -0.00395
gfz2013tkcg  -0.11319
gfz2013tnrp  -0.13052
gfz2013ubgt   0.56439
gfz2013udtw  -0.20747
gfz2013upqj  -2.02710
gfz2013utqa  -0.12405
gfz2013vdam  -0.45254
gfz2013veug   0.23548
gfz2013vfix   0.10482
gfz2013vjrr   0.37992
gfz2013vldx   1.10050
gfz2013vmrv  -0.23706
gfz2013vmsg   1.40000
gfz2013vnwa  -1.30170
gfz2013voai  -0.54871
gfz2013vojy  -0.67510
gfz2013vvre   0.48389
gfz2013wigs   0.04592
gfz2013wyfl  -0.24258
gfz2013xahp   0.20327
gfz2013xmzw   0.24332
gfz2013xswc  -0.18763
gfz2013yqtu   0.97788
gfz2013yxhf   1.54360
gfz2013zfbz  -0.09801
gfz2013zlak  -0.13072
gfz2014aaae  -0.48964
gfz2014amgk  -0.37135
gfz2014aqax   1.43750
gfz2014aqop  -0.02771
gfz2014bkra   0.61450
gfz2014ctdl  -0.38938
gfz2014dihl  -0.98617
gfz2014edjm  -0.23580
gfz2014eirs  -0.14100
gfz2014eoay  -0.06188
gfz2014esez  -0.15890
gfz2014flxk  -0.75664
gfz2014fsir   0.14814
gfz2014fwuf   1.00720
gfz2014fwxt  -0.20154
gfz2014fxte  -0.43639
gfz2014geln   0.09774
gfz2014gnbw  -0.18074
gfz2014hhis   0.30143
gfz2014hqhv  -0.43113
gfz2014huqh  -0.07683
gfz2014hzzf  -0.67992
gfz2014icov   0.35211
gfz2014igrp  -0.19993
gfz2014iltl  -0.48442
gfz2014irlf  -0.20104
gfz2014irln   0.10451
gfz2014irly  -0.50598
gfz2014isjg  -0.06203
gfz2014iusw   0.01515
gfz2014ixlc  -0.76550
gfz2014jarg  -0.38120
gfz2014jayh  -0.07602
