# Nsamples: 351  MAD:  0.432  mean:  0.006  std:  0.738
gfz2010abfc  -0.41410
gfz2010abvu  -0.71798
gfz2010aggj  -0.13323
gfz2010aseg   0.50151
gfz2010azji   0.02841
gfz2010bgrt   0.96541
gfz2010bkfi   0.31507
gfz2010bklj   0.47625
gfz2010bmls   6.92880
gfz2010bnqr  -0.32188
gfz2010brlc  -0.16716
gfz2010brrm   0.89257
gfz2010btme   1.36080
gfz2010bukb   0.07693
gfz2010byau  -1.02370
gfz2010ccse   0.80865
gfz2010ccwc  -0.05584
gfz2010ccye  -0.13711
gfz2010clbw  -0.52319
gfz2010cllh   0.02486
gfz2010cphq  -0.97745
gfz2010crgy  -0.25946
gfz2010crir   0.43157
gfz2010cyid  -0.10835
gfz2010dask   0.02943
gfz2010djib  -0.66402
gfz2010drit   0.38140
gfz2010drml   0.83694
gfz2010drmq   0.83694
gfz2010drpv   0.00166
gfz2010drun  -0.18187
gfz2010dumv  -0.37999
gfz2010dxhq  -2.68630
gfz2010ethu   0.10746
gfz2010ewyj   0.14428
gfz2010fgbo  -0.06006
gfz2010fjme   0.81552
gfz2010fkff   0.42903
gfz2010fnkr  -0.37262
gfz2010fvfz   0.05710
gfz2010gnvp   0.71313
gfz2010gonu   0.27396
gfz2010habf   0.25844
gfz2010hdxn  -0.06698
gfz2010hesh  -0.30122
gfz2010hexh   0.52186
gfz2010hllp  -0.97443
gfz2010hsgv   0.04375
gfz2010ifhd   0.38065
gfz2010izag   0.46687
gfz2010izgb   0.30775
gfz2010jlvp   0.78030
gfz2010kcdq   1.04260
gfz2010mdti  -0.30770
gfz2010mqaj  -2.35220
gfz2010ngge  -0.38257
gfz2010nwyk   0.67662
gfz2010oguu   0.21414
gfz2010ojhe  -0.02157
gfz2010okpc  -0.50847
gfz2010pclq   0.31862
gfz2010pcya  -0.91412
gfz2010pgpo   0.32670
gfz2010pvnn  -0.07528
gfz2010qdqk  -0.67315
gfz2010qrix  -0.31310
gfz2010qrta   0.10810
gfz2010qylh  -0.63805
gfz2010qzvf  -0.40842
gfz2010rkuu  -0.28414
gfz2010rljv   0.41070
gfz2010rmua   0.22415
gfz2010rnwt  -2.20910
gfz2010rpjd  -0.98786
gfz2010schp   2.03980
gfz2010tcgh   0.08763
gfz2010tfar   0.45582
gfz2010tmba  -0.27809
gfz2010tpcj   0.72835
gfz2010tqyo   0.72172
gfz2010tzlz  -0.49105
gfz2010tzma   0.39080
gfz2010ugws   0.58681
gfz2010uhjy   0.02752
gfz2010umyp   0.11304
gfz2010uogw  -1.31070
gfz2010utsc  -0.24926
gfz2010vong  -0.14438
gfz2010wakc   0.53617
gfz2010wwnq   0.47780
gfz2010xamh   0.70816
gfz2010xnbn  -0.39333
gfz2010xpzq   0.06450
gfz2010xvev   0.97544
gfz2010yczp  -0.19647
gfz2010yfdr   0.34860
gfz2010yilf  -2.56610
gfz2010yspe  -4.45020
gfz2010ytzb  -0.09520
gfz2010zjun  -0.11439
gfz2011ahvh  -0.35809
gfz2011amst   0.30036
gfz2011awsv  -0.69734
gfz2011bcvc   0.45612
gfz2011bffb   1.02480
gfz2011bpqm   0.30305
gfz2011bsvr  -1.10410
gfz2011bygs  -0.23895
gfz2011bygu  -0.02630
gfz2011bzio  -0.07440
gfz2011cdge   0.77671
gfz2011cfyy   1.11380
gfz2011cjuz  -0.61653
gfz2011dabj   0.15355
gfz2011dpyu   0.19168
gfz2011emzr   0.39828
gfz2011etkc   0.25007
gfz2011exxq   1.11740
gfz2011fnie   0.37212
gfz2011fnuk  -0.31497
gfz2011fszl   0.25883
gfz2011fzcw  -0.58197
gfz2011ggnl   0.89239
gfz2011gnbk   0.01510
gfz2011gpyr  -0.23160
gfz2011uqry  -0.37397
gfz2011vahy  -0.12924
gfz2011vbxv   0.09984
gfz2011vcyx  -0.27554
gfz2011vimn  -0.49794
gfz2011vswj  -0.38983
gfz2011vtzv   0.27259
gfz2011vxek   0.16787
gfz2011wcvs  -0.41498
gfz2011wkja  -0.08631
gfz2011wpzt  -0.39140
gfz2011wtfn   0.24939
gfz2011wucg  -0.54749
gfz2011wwze   0.26557
gfz2011xgbc   0.30525
gfz2011xxng  -0.21345
gfz2011yexx  -0.22039
gfz2011ypfh  -0.21903
gfz2011zghc   0.27093
gfz2011zkbt  -0.68515
gfz2012alti   0.23120
gfz2012amjx  -1.65070
gfz2012aqpa   0.52230
gfz2012bity   0.09891
gfz2012bqcf   0.19385
gfz2012cdju  -0.17961
gfz2012cmww  -0.42856
gfz2012cvfr   0.16247
gfz2012dttl  -0.10607
gfz2012evav  -0.43290
gfz2012fuyd   0.17520
gfz2012gdye  -0.12267
gfz2012ghiv  -0.08312
gfz2012gjdg  -0.21000
gfz2012gnow  -0.11910
gfz2012gpcd  -0.27869
gfz2012hzur   0.21333
gfz2012iblo  -0.29713
gfz2012iijk  -0.15359
gfz2012ipdc  -0.34855
gfz2012ldjj   0.07467
gfz2012lyyr  -0.40689
gfz2012mdzf  -0.21774
gfz2012mjuu  -0.29607
gfz2012mpzo   0.09249
gfz2012mrqk   0.25527
gfz2012mtyn  -1.31860
gfz2012nnqu   0.56210
gfz2012nqvd  -0.15338
gfz2012oafg   0.09152
gfz2012oehy   0.10808
gfz2012ofnx  -0.97007
gfz2012oozp  -0.25402
gfz2012phns   0.61946
gfz2012pmuj   0.43920
gfz2012ppcq   0.05573
gfz2012pumy  -0.58002
gfz2012pvve  -0.32699
gfz2012qpoc  -0.67555
gfz2012rzwp  -0.53516
gfz2012sgfd  -0.36604
gfz2012ssnb   1.56970
gfz2012suqd   0.41863
gfz2012svwz   0.38773
gfz2012sxbo  -0.51162
gfz2012sxzs  -1.24190
gfz2012syum   0.97878
gfz2012tisj   0.26031
gfz2012trfq   0.28616
gfz2012tvgw  -0.13728
gfz2012twec  -0.36405
gfz2012uhtc   0.11542
gfz2012ulei  -0.46250
gfz2012uovh  -0.22367
gfz2012uvoa  -0.18097
gfz2012uzww   0.11731
gfz2012vkjw  -0.27796
gfz2012wgdv  -0.23629
gfz2012wjxc   1.49020
gfz2012wkki  -0.06805
gfz2012wmmw   0.35592
gfz2012wowu   0.85045
gfz2012wpen   1.06230
gfz2012wqfz  -0.57194
gfz2012wysg   0.06425
gfz2012xask   0.02402
gfz2012xcsf  -0.22889
gfz2012xkln  -0.03714
gfz2012xlfo  -0.03423
gfz2012xncm  -0.49211
gfz2012xrmq  -0.14867
gfz2012xxdj  -0.08878
gfz2012ylai  -0.16363
gfz2012yncm  -1.30650
gfz2012yvwc  -0.24468
gfz2012zhyz  -0.04748
gfz2013cvve  -0.21356
gfz2013cyvx   0.09557
gfz2013delq   0.16644
gfz2013dftb  -0.35842
gfz2013dfvx  -0.56405
gfz2013dmzh   0.27733
gfz2013dngd   0.66891
gfz2013enqo  -1.64830
gfz2013enrh   0.78351
gfz2013fmcd   0.80208
gfz2013fmcp   0.66207
gfz2013fnpa  -0.14628
gfz2013fulo  -0.43191
gfz2013fvht   0.11428
gfz2013gkyn   0.07894
gfz2013glpz   0.17252
gfz2013gsnl   1.08670
gfz2013gurk  -0.60649
gfz2013gxye  -0.12216
gfz2013hbmi  -0.00913
gfz2013hbtm   0.17591
gfz2013hdbp  -1.11400
gfz2013hvzv  -0.03128
gfz2013icgx  -0.28409
gfz2013icql   0.19024
gfz2013ikic   0.24391
gfz2013iuyv   0.11519
gfz2013iwhc  -0.20436
gfz2013iwzn   0.94183
gfz2013jfcn   0.44679
gfz2013jobl  -0.18099
gfz2013jzcf  -0.08276
gfz2013kats   0.57671
gfz2013kbbg   0.13221
gfz2013kcdb   0.86797
gfz2013lbod   0.10403
gfz2013lbvl   0.20477
gfz2013lgvf   1.18750
gfz2013ljwt  -0.14883
gfz2013mdxj   0.14692
gfz2013mvgq   0.32636
gfz2013mzaw   0.08402
gfz2013ntiu   2.05610
gfz2013okac  -0.44528
gfz2013phhi  -1.06350
gfz2013pkmz  -0.02855
gfz2013qdpv  -0.13572
gfz2013qigb  -0.38988
gfz2013qmkt  -0.69195
gfz2013qoak   0.41577
gfz2013quwz   0.07863
gfz2013quyn   0.21976
gfz2013qxof  -0.22077
gfz2013rwkj   0.02498
gfz2013skay   0.49007
gfz2013stou   0.06682
gfz2013taeb   0.93763
gfz2013tdsx   0.10446
gfz2013tekq  -0.01954
gfz2013tert  -0.37124
gfz2013tkcg   0.76729
gfz2013tnrp  -0.21828
gfz2013udtw   0.14625
gfz2013utqa   0.26542
gfz2013uwjo  -1.04090
gfz2013uxzw  -0.64701
gfz2013veug   0.55824
gfz2013vjrr  -0.03304
gfz2013vldx  -0.27862
gfz2013vmrv   0.01461
gfz2013vmsg  -0.02550
gfz2013voai   0.00000
gfz2013vojy  -0.01709
gfz2013vvre   0.34706
gfz2013vzel  -1.27690
gfz2013wigs  -0.43533
gfz2013xswc  -0.47612
gfz2013yqtu  -0.19912
gfz2013yxhf   0.05212
gfz2013zfbz   0.00263
gfz2013zlak  -0.77870
gfz2013zlij  -0.08528
gfz2013zqan  -0.05769
gfz2014aedl  -1.10640
gfz2014amgk   0.24267
gfz2014aqop   0.00181
gfz2014ayxf   0.46868
gfz2014azfu   0.13560
gfz2014bkra   0.38145
gfz2014cokw  -0.02128
gfz2014crac   0.25073
gfz2014ctdl  -0.41286
gfz2014dggw   0.42646
gfz2014dihl  -0.47906
gfz2014edjm   0.09626
gfz2014eirs   0.18235
gfz2014eoay  -0.11895
gfz2014esez  -0.19596
gfz2014flxk  -0.17734
gfz2014fsir   0.13281
gfz2014fsje   0.14159
gfz2014fwuf   0.55797
gfz2014fxte   0.10794
gfz2014fxuy   0.15896
gfz2014gcgf   0.86214
gfz2014gcia  -0.03270
gfz2014gnbw   0.18536
gfz2014gnvp   0.31514
gfz2014grwv  -0.26000
gfz2014gsfc  -1.42580
gfz2014hapg   0.39393
gfz2014happ  -0.37531
gfz2014hkcw   0.45062
gfz2014hqhv   0.10656
gfz2014huqh   0.11895
gfz2014hyea  -0.04091
gfz2014hzzf   0.42694
gfz2014iayo  -0.30874
gfz2014igrp   0.08858
gfz2014iltl  -0.02126
gfz2014inrg   0.43973
gfz2014irlf   0.14513
gfz2014irln   0.66206
gfz2014irly   0.09783
gfz2014isjg   0.22117
gfz2014iusw   0.09800
gfz2014ixlc  -0.02440
gfz2014jarg   0.07566
gfz2014jaxy   1.30380
gfz2014jayh   0.02354
