# Nsamples: 72  MAD:  0.585  mean:  0.017  std:  0.917
gfz2010dask  -0.22880
gfz2010fgbo   0.97429
gfz2010fjme   0.88020
gfz2010habf  -0.41495
gfz2010jlvp  -0.56708
gfz2010ncwu   0.41164
gfz2010ngge  -0.59730
gfz2010pgpo   0.37619
gfz2010rkuu   0.59693
gfz2010rljv   0.21524
gfz2010tcgh   0.09619
gfz2010tmba  -0.32005
gfz2010tpcj   0.05419
gfz2010tzlz  -0.18273
gfz2010tzma  -0.36749
gfz2010ugws   0.28569
gfz2010uhjy  -1.35580
gfz2010vong  -1.95650
gfz2010wwnq   0.01227
gfz2010xpzq   0.51041
gfz2011ahvh   1.38060
gfz2011bpqm  -0.81024
gfz2011cwzi  -0.20748
gfz2011dabj  -0.23492
gfz2011dpyu  -0.42671
gfz2011fnie   0.00620
gfz2011ggnl  -0.03453
gfz2011gnbk   0.10525
gfz2011gpyr   0.82940
gfz2011lkkf   0.45895
gfz2011ndhh  -0.64718
gfz2011oslk  -0.30167
gfz2011qenl   1.69150
gfz2011qukj   4.99980
gfz2011sdax  -0.85510
gfz2011sqco   1.14270
gfz2011uqry  -0.25607
gfz2011vahy  -0.52340
gfz2011wcvs  -1.00900
gfz2011wkja   0.03466
gfz2011wwze   0.59808
gfz2011zghc   0.37195
gfz2011zkbt  -0.33083
gfz2012bqcf  -0.60558
gfz2012cdju  -0.39721
gfz2012cntu   1.12540
gfz2012cvfr   0.01676
gfz2012dttl  -0.44215
gfz2012ekfp  -0.40606
gfz2012ekro   0.60114
gfz2012gdye  -1.10320
gfz2012gnow  -0.50077
gfz2012gpcd  -0.28990
gfz2012ppcq  -0.29598
gfz2012touh  -2.62840
gfz2013fnpa  -0.33809
gfz2013fulo   0.01325
gfz2013fvht   0.21580
gfz2013icql  -0.33170
gfz2013iuyv   0.80963
gfz2013iwzn   0.42013
gfz2013jfcn   0.09458
gfz2013jobl  -0.49530
gfz2013kats  -0.41191
gfz2013kbbg   0.26704
gfz2013kcdb   0.13261
gfz2013kqab   0.64169
gfz2013lbod  -0.36824
gfz2013lbvl  -0.20711
gfz2013mdxj   0.33333
gfz2013mvgq   0.69043
gfz2013mzaw   0.26108
