# Nsamples: 295  MAD:  0.367  mean:  0.059  std:  0.638
gfz2010abfc   0.26148
gfz2010aggj  -0.21603
gfz2010cbnp  -0.81580
gfz2010ccse  -0.53403
gfz2010ccye   0.38784
gfz2010clbw  -0.36577
gfz2010cllh  -1.29380
gfz2010crgy  -0.02691
gfz2010crir  -0.29850
gfz2010csle   0.78314
gfz2010csqy   0.06091
gfz2010cvkn   0.03123
gfz2010cyid  -0.52535
gfz2010dask  -0.33161
gfz2010djib  -0.01826
gfz2010drit   0.25005
gfz2010drml   0.13174
gfz2010drmq   0.13174
gfz2010drpv  -0.42869
gfz2010drun  -0.05106
gfz2010dwgy   1.24480
gfz2010euue  -0.49128
gfz2010extu  -1.16080
gfz2010faly  -0.44457
gfz2010fgbo   0.01206
gfz2010fjme  -0.22230
gfz2010fkff   0.17161
gfz2010fqnn  -0.24603
gfz2010gonu  -0.02706
gfz2010habf  -0.06499
gfz2010hesh  -0.25143
gfz2010hllp   0.14250
gfz2010ifhd  -0.44151
gfz2010ioad   0.04315
gfz2010jcby   0.19403
gfz2010jlvp   0.01639
gfz2010jpkn   0.23959
gfz2010kuzb   0.25208
gfz2010kwks  -0.02213
gfz2010ljzf   0.15322
gfz2010mdti   0.83333
gfz2010mqaj   4.01600
gfz2010ncwu  -0.29196
gfz2010ngge  -0.39690
gfz2010ovvg   0.26073
gfz2010pclq   0.20900
gfz2010pcya  -1.11790
gfz2010pgpo   0.22299
gfz2010pvnn   0.03884
gfz2010qqqx  -0.45853
gfz2010rkuu  -0.32513
gfz2010rljv  -0.00327
gfz2010rmua   0.46306
gfz2010rnwt  -0.64080
gfz2010rpjd   2.32810
gfz2010schp   0.35277
gfz2010tcgh   0.41951
gfz2010tgmo   0.34414
gfz2010tmba  -0.25169
gfz2010tpcj  -0.60890
gfz2010tzki   3.08830
gfz2010tzlz  -0.82073
gfz2010tzma  -0.22143
gfz2010ugws   0.39054
gfz2010uhjy   0.25077
gfz2010vdcf   0.44022
gfz2010wakc   0.09212
gfz2010xamh  -0.13664
gfz2010xnbn   0.37335
gfz2010xpzq   0.12525
gfz2010xytc  -0.11935
gfz2010yfdr   0.03160
gfz2010ymih   0.59144
gfz2010zjun   0.09762
gfz2011ahvh   0.06768
gfz2011awsv   0.62431
gfz2011bpqm   0.03683
gfz2011bsvr   0.50528
gfz2011bygs   0.04286
gfz2011bygu   0.72478
gfz2011bzio   2.32320
gfz2011cdge  -1.02330
gfz2011cjuz  -0.09622
gfz2011dabj   0.08559
gfz2011dhfg  -0.33999
gfz2012grmf   1.19400
gfz2012kadi  -0.17956
gfz2012ldjj   0.29569
gfz2012lyyr   0.62168
gfz2012mjuu   0.17013
gfz2012mmiw  -0.53075
gfz2012mowv   0.62560
gfz2012mpzo   0.17460
gfz2012mrqk   0.87799
gfz2012mrwu   0.31443
gfz2012mtyn   0.41963
gfz2012nldz   1.27300
gfz2012nnqu  -0.63281
gfz2012nqvd  -0.58713
gfz2012oafg   0.03216
gfz2012oehy  -0.01728
gfz2012ofnx  -1.67340
gfz2012phns   0.47743
gfz2012pokk   0.15876
gfz2012pvve  -0.16452
gfz2012qllj   0.01532
gfz2012qpoc  -0.56821
gfz2012sgfd  -0.80313
gfz2012sopp  -0.08454
gfz2012suqd  -0.02566
gfz2012svwz   0.25095
gfz2012swbz  -0.05555
gfz2012sxzs  -0.45664
gfz2012taph  -0.20723
gfz2012tgta   0.12261
gfz2012tisj   0.27580
gfz2012tqjc   0.30376
gfz2012twec  -0.17161
gfz2012uhtc   0.13454
gfz2012uovh   0.12079
gfz2012uvoa   0.30643
gfz2012vdra  -0.51261
gfz2012vgot   0.07854
gfz2012vnve  -0.74124
gfz2012vrqz  -0.35289
gfz2012vsav  -0.46367
gfz2012wpen   0.30325
gfz2012wysg  -0.03904
gfz2012xask  -0.41156
gfz2012xbna   0.87557
gfz2012xcsf  -0.21104
gfz2012xfsl   0.10663
gfz2012xkln  -0.35433
gfz2012xlas  -0.02488
gfz2012xlfo  -0.25414
gfz2012xncm   0.08438
gfz2012xrmq  -0.10096
gfz2012ylai  -0.26412
gfz2012znou  -0.40994
gfz2013akkd   0.29210
gfz2013byyy   0.01809
gfz2013cinv  -0.31011
gfz2013cpjc  -0.04832
gfz2013cvve  -0.63667
gfz2013cyvx  -0.25958
gfz2013delq  -0.14356
gfz2013dftb   0.02740
gfz2013dzvr   0.10175
gfz2013eazm   0.32954
gfz2013efct   0.01694
gfz2013eidd  -0.50959
gfz2013enqo  -0.16324
gfz2013fmcd   0.86014
gfz2013fmcp   1.15930
gfz2013fnpa   0.14614
gfz2013fulo   0.13998
gfz2013fvht   0.05439
gfz2013fybd  -0.14076
gfz2013ghpd  -0.03088
gfz2013gkyn  -0.15930
gfz2013gsnl   2.93820
gfz2013gurk  -0.31302
gfz2013gxye  -0.38906
gfz2013hbmi  -0.04300
gfz2013hbtm  -0.12720
gfz2013hiam   0.05970
gfz2013icql   0.35056
gfz2013iuyv  -0.17761
gfz2013ivvw   0.02632
gfz2013iwhc  -0.19785
gfz2013iwzn   0.79524
gfz2013jfcn   0.01738
gfz2013jobl  -0.07202
gfz2013jzcf   0.22986
gfz2013jzfz   0.29615
gfz2013kats   0.19787
gfz2013kbbg  -0.00362
gfz2013kbbn  -0.71726
gfz2013kcdb   0.33887
gfz2013kjgh  -0.70165
gfz2013kpcb   0.16090
gfz2013kqab  -0.46038
gfz2013kslp   0.31264
gfz2013kuno   0.18035
gfz2013kxlr  -0.35695
gfz2013lbod   0.67288
gfz2013lbvl  -0.15024
gfz2013lgvf   0.25564
gfz2013ljdu  -0.13965
gfz2013lvxe   0.02387
gfz2013mdxj  -0.10155
gfz2013mzaw  -0.22490
gfz2013oeni   0.03210
gfz2013oizq   0.30310
gfz2013olos   0.83659
gfz2013orot  -0.45907
gfz2013phhi   0.62709
gfz2013pkmz  -0.14400
gfz2013qapj   0.29703
gfz2013rtvy  -0.21154
gfz2013rwkj   0.11256
gfz2013ryph   0.06563
gfz2013sbsp   0.08647
gfz2013skvq  -0.28950
gfz2013swnj  -0.28794
gfz2013tgia   0.83949
gfz2013tkcg  -0.25221
gfz2013tnrp  -0.47250
gfz2013trsq   0.24852
gfz2013twbc   0.71366
gfz2013ubgt   0.99286
gfz2013udtw  -0.37419
gfz2013ujze   0.73147
gfz2013unuv   0.27671
gfz2013upqj   3.42020
gfz2013utqa  -0.00758
gfz2013uugc   0.42788
gfz2013uwjo  -1.02780
gfz2013uxzw   0.41607
gfz2013vdam  -0.05235
gfz2013veoz  -0.00162
gfz2013vjrr  -0.26858
gfz2013vmrv   0.03650
gfz2013voai  -0.39645
gfz2013vojy  -0.41288
gfz2013vvre  -0.29430
gfz2013vwkh  -0.59925
gfz2013vzel  -0.24996
gfz2013wwee   0.21783
gfz2013xacx   0.20191
gfz2013xddu   0.59690
gfz2013xjmo  -0.30451
gfz2013xlic   1.04610
gfz2013xmzw  -0.09245
gfz2013xswc  -0.23106
gfz2013xvps   0.91827
gfz2013xxbf  -1.66640
gfz2013xycz   0.12058
gfz2013yodm  -0.42510
gfz2013yqkz   0.08135
gfz2013yqtu  -0.47810
gfz2013zkta   2.19920
gfz2013zlak  -0.25349
gfz2014aedl  -0.22385
gfz2014ajgi   0.12234
gfz2014amgk  -0.15739
gfz2014avzp  -0.22635
gfz2014azfu   0.31546
gfz2014bdju  -0.30369
gfz2014befl   0.65800
gfz2014bkra  -0.16371
gfz2014byes  -0.17310
gfz2014bzus   0.15095
gfz2014cjao  -0.44812
gfz2014cokw  -0.06196
gfz2014crac  -0.32643
gfz2014ctdl   0.03924
gfz2014cvnb   1.22580
gfz2014dece   0.26173
gfz2014dihl  -0.23234
gfz2014edjm  -0.26165
gfz2014eirs  -0.28821
gfz2014eoay  -0.22301
gfz2014epnq  -1.97360
gfz2014esez   0.11297
gfz2014eunw   0.04389
gfz2014evyu   0.38245
gfz2014eyne   0.19981
gfz2014flxk   0.58336
gfz2014fsir  -0.07792
gfz2014fsje  -0.07056
gfz2014fwxt   0.17736
gfz2014fxte   0.14470
gfz2014fxtv   0.19105
gfz2014fxuy  -0.06137
gfz2014gjfd   0.11179
gfz2014gnbw  -0.22729
gfz2014gtee  -0.23108
gfz2014hhey   0.40626
gfz2014hotu  -0.06508
gfz2014hqhv  -0.37153
gfz2014huqh  -0.24320
gfz2014hzzf   0.12592
gfz2014icov   0.11964
gfz2014igrp  -0.10097
gfz2014ijsa  -0.11822
gfz2014iltl   0.06479
gfz2014imqh   0.79642
gfz2014ined  -0.01900
gfz2014irlf   0.22800
gfz2014irln  -0.19157
gfz2014irly   0.21671
gfz2014jarg   0.11091
gfz2014jayh  -0.26285
gfz2014jckg  -0.35612
