# Nsamples: 62  MAD:  0.803  mean: -0.024  std:  1.066
gfz2010dask  -0.55619
gfz2010fvfz  -1.47560
gfz2010rkuu   0.64807
gfz2010tmba   3.18370
gfz2010ugws  -1.37930
gfz2010uhjy  -0.83049
gfz2011ahvh   1.52480
gfz2011oslk  -0.59790
gfz2011paqj  -1.45350
gfz2011ppsc   1.02260
gfz2011qukj   2.19560
gfz2011sdax  -0.17975
gfz2011sqco  -0.04885
gfz2011sxno   2.53860
gfz2011taqr   0.02101
gfz2011tsgl   0.10515
gfz2011uqry  -0.67298
gfz2011vahy  -0.21014
gfz2011xgwy   2.80140
gfz2011yexx   0.01828
gfz2012bqcf  -0.60470
gfz2012byrq  -0.65293
gfz2012ekfp  -0.18877
gfz2012gpcd  -0.68439
gfz2012uhtc  -0.30345
gfz2012uvoa   0.05995
gfz2012wgmg  -0.42669
gfz2012xcsf  -1.53570
gfz2012xrmq  -0.74088
gfz2013cvve   0.48487
gfz2013efct  -2.87550
gfz2013fmcp   0.42077
gfz2013fnpa  -0.60778
gfz2013fulo   0.37849
gfz2013fvht   0.28683
gfz2013icgx   1.60900
gfz2013iwzn   0.81180
gfz2013jfcn   0.05754
gfz2013noqf   0.50542
gfz2013orot   0.17082
gfz2013oywh  -0.33871
gfz2013phhi  -1.36150
gfz2013utqa  -0.31016
gfz2013uwjo  -1.83510
gfz2013vmrv  -0.12347
gfz2013vvre   0.76519
gfz2013xswc   0.29993
gfz2013zlak  -0.77581
gfz2014bkra   0.28944
gfz2014fwxt   0.47234
gfz2014fxte  -0.35008
gfz2014fxuy   0.11946
gfz2014gnbw   0.12793
gfz2014hyea  -0.67737
gfz2014hzzf  -1.00790
gfz2014icov  -0.88163
gfz2014igrp   0.87042
gfz2014iltl  -0.04391
gfz2014irlf   0.42347
gfz2014irln   0.41410
gfz2014jarg  -0.57195
gfz2014jayh   0.20104
