# Nsamples: 142  MAD:  0.443  mean:  0.160  std:  1.114
gfz2010abfc   0.06671
gfz2010abvu  -0.04333
gfz2010aggj   0.35215
gfz2010bmls   7.54170
gfz2010btme  -0.08924
gfz2010clbw   0.13545
gfz2010crgy   0.17054
gfz2010csqy  -0.09141
gfz2010cyid   0.09774
gfz2010dask   0.17016
gfz2010drit   0.67370
gfz2010fxut   0.40190
gfz2010gcqp   0.22512
gfz2010habf   0.11599
gfz2010hsgv  -0.13320
gfz2010iaay   0.95261
gfz2010izag  -0.21799
gfz2010jlvp  -0.33846
gfz2010kcdq  -0.24506
gfz2010mdti  -0.44427
gfz2010mqaj  -1.55340
gfz2010ncwu   0.42955
gfz2010ngge   0.26704
gfz2010pclq   2.68490
gfz2010pcya  -2.22370
gfz2010pgpo   0.52110
gfz2010qdqk   1.06430
gfz2010rkuu  -5.05680
gfz2010rljv  -0.25291
gfz2010rnwt   1.14560
gfz2010rpjd   0.00973
gfz2010tcgh   2.32550
gfz2010tmba  -0.00931
gfz2010tpcj   0.06006
gfz2010tzlz   0.90839
gfz2010tzma   0.17030
gfz2010ugws   0.80554
gfz2010uhjy   0.41662
gfz2010umyp   0.32008
gfz2010uopf   0.47977
gfz2010vong   0.26718
gfz2010wakc  -0.28208
gfz2010xamh   0.30986
gfz2010yfdr   0.52548
gfz2010ytzb  -0.06583
gfz2010zjun   0.91894
gfz2011ahvh  -0.04388
gfz2011amst   1.32950
gfz2011bcvc  -0.82353
gfz2011cdge   0.02121
gfz2011exxq   0.40982
gfz2011fnie  -0.42917
gfz2011fszl   0.20684
gfz2011fzcw   2.20140
gfz2011gnbk  -0.17489
gfz2011gpyr  -0.05737
gfz2011hqjs   0.00922
gfz2011jghq  -0.19743
gfz2011kjzt  -0.21728
gfz2011kjzv   0.12164
gfz2011kylu   3.44790
gfz2011kyzy   0.36318
gfz2011lwmg  -0.30092
gfz2011mjje  -0.22045
gfz2011mllb   0.97129
gfz2011mntq   0.36758
gfz2011ndhh  -0.25467
gfz2011nfcz  -0.09772
gfz2011nhby   0.30195
gfz2011nhvt  -3.99590
gfz2011nijp  -0.56671
gfz2011nilw  -0.56811
gfz2011niuw  -0.60888
gfz2011nkou   0.45804
gfz2011nlum   0.64136
gfz2011qenl   0.06602
gfz2011qukj  -0.16591
gfz2011rkau  -0.75995
gfz2011tqgg   0.07263
gfz2011uqry   0.17770
gfz2011vahy  -0.52174
gfz2011wucg   0.06810
gfz2011xkka   0.12873
gfz2011yexx   0.47721
gfz2011ypfh   0.19907
gfz2012ahac   0.19865
gfz2012byrq  -0.35982
gfz2012fuyd   0.14664
gfz2012hzur   0.67880
gfz2012nqvd  -0.41058
gfz2012oehy   0.17968
gfz2012syum  -0.20618
gfz2012wkki  -0.13357
gfz2012wysg   0.28069
gfz2012xask   0.09917
gfz2012xlas  -0.36489
gfz2012xncm  -0.20896
gfz2012xrmq   0.34136
gfz2012xxdj  -0.08067
gfz2013akkd   0.30177
gfz2013byyy   0.30568
gfz2013cvve  -0.15479
gfz2013cyvx  -0.17622
gfz2013dngd  -0.84883
gfz2013enqo   2.66240
gfz2013fmcd  -1.34960
gfz2013fnpa   0.38982
gfz2013fulo   0.21337
gfz2013fvht  -0.02486
gfz2013gsnl  -0.54967
gfz2013iwzn   1.02050
gfz2013jfcn   0.09731
gfz2013jobl   0.28578
gfz2013jzcf  -0.16427
gfz2013kats  -0.42712
gfz2013kbbg  -0.57229
gfz2013kbbn   1.33950
gfz2013kcdb   2.32300
gfz2013kpcb  -0.02825
gfz2013kqab   0.45824
gfz2013lbvl   0.18872
gfz2013mdxj  -0.34126
gfz2013mvgq  -0.14460
gfz2013mzaw  -0.09419
gfz2013zfbz   0.09621
gfz2014amgk   0.77028
gfz2014ayxf  -0.25661
gfz2014bkra   1.80630
gfz2014cokw   0.17236
gfz2014eirs  -0.03448
gfz2014flxk  -0.58338
gfz2014fsir  -1.17020
gfz2014fxte   0.43993
gfz2014gnbw  -0.15704
gfz2014huqh  -0.16352
gfz2014hzzf  -0.28139
gfz2014igrp   0.06767
gfz2014iltl   0.03281
gfz2014irlf   0.42156
gfz2014iusw   0.39185
gfz2014jarg   0.51636
gfz2014jayh   0.22898
