# Nsamples: 75  MAD:  0.475  mean:  0.083  std:  0.636
gfz2010abfc  -0.73487
gfz2010aggj   0.38823
gfz2010btme   0.18545
gfz2010clbw   0.40220
gfz2010crgy  -0.32034
gfz2010crir  -0.47828
gfz2010dask  -0.63391
gfz2010djib  -0.61116
gfz2010drit   0.53060
gfz2010fgbo   0.14420
gfz2010ngge   0.37089
gfz2010pclq   2.74240
gfz2010pgpo   0.14529
gfz2010qdqk   1.88950
gfz2011gpyr  -0.13598
gfz2011hqjs  -0.70608
gfz2011kjzt  -0.60044
gfz2011kjzv  -0.59511
gfz2011mjje   0.32013
gfz2011ndhh  -0.64012
gfz2011nijp  -0.00553
gfz2011nilw  -0.40960
gfz2011niuw  -0.14833
gfz2011oslk  -0.30570
gfz2011qukj  -0.36574
gfz2011sdax   0.02336
gfz2011sxno   0.44974
gfz2011tsgl   0.15839
gfz2011yexx   0.26037
gfz2011zghc   0.74702
gfz2012amjx   0.25695
gfz2012bqcf  -0.36951
gfz2012byrq  -0.38353
gfz2012cdju  -0.05479
gfz2012cksh   2.13100
gfz2012cntu  -0.03310
gfz2012cvfr   0.00000
gfz2012ekfp   1.22660
gfz2012iijk   0.38278
gfz2012kmbo  -0.32813
gfz2012ldjj   0.18733
gfz2012mdzf   0.02435
gfz2012mjuu  -0.26268
gfz2012oafg   0.30643
gfz2012oehy   0.05705
gfz2012phns   0.17426
gfz2012uhtc  -0.19536
gfz2012uvoa   0.24714
gfz2012uzww   0.05007
gfz2013byyy  -0.11996
gfz2013cvve  -0.38038
gfz2013cyvx  -0.05964
gfz2013delq  -0.05765
gfz2013dzvr  -0.01553
gfz2013fnpa  -0.06708
gfz2013fulo   0.02739
gfz2013fvht  -0.52384
gfz2013icql  -0.17552
gfz2013jfcn   0.26909
gfz2013jobl   0.04031
gfz2013kats  -0.66040
gfz2013kbbg  -0.88126
gfz2013kcdb   0.66228
gfz2013kqab   0.76357
gfz2013lbvl   0.35074
gfz2013mvgq   0.25925
gfz2013oizq   0.34209
gfz2013pkmz  -0.29496
gfz2013qigb   0.28671
gfz2013qoak  -0.03170
gfz2013quwz  -0.22484
gfz2013utqa  -0.76068
gfz2013uwjo   0.92862
gfz2013vmrv  -0.37929
gfz2013vvre   1.43030
