# Nsamples: 45  MAD:  1.167  mean: -0.167  std:  1.271
gfz2012iijk  -1.24100
gfz2012imuo   0.65370
gfz2012kmbo  -1.37260
gfz2012mdzf  -0.12351
gfz2012mjuu  -0.22707
gfz2012mmiw   1.29100
gfz2012nnqu   0.98864
gfz2012oafg   0.71595
gfz2012oehy  -0.86053
gfz2012phns   0.43822
gfz2012uhtc  -1.20010
gfz2012uvoa   0.63717
gfz2012uzww   0.32425
gfz2012wgmg   0.16388
gfz2012xlas  -0.73067
gfz2012xxdj   0.88114
gfz2012zhyz   1.20530
gfz2013byyy  -1.25170
gfz2013cyvx   0.38369
gfz2013dzvr   0.07966
gfz2013fnpa   0.26990
gfz2013fvht  -0.06806
gfz2013lbvl   0.01055
gfz2013olos  -0.39526
gfz2013tjub  -0.89046
gfz2013tnff  -3.79110
gfz2013uwjo  -2.37030
gfz2013vvre   2.23660
gfz2013wyfl   0.78794
gfz2013xahp   3.55320
gfz2013xswc  -1.44150
gfz2013yqtu   0.14999
gfz2013zlak   0.13353
gfz2014esez  -1.22030
gfz2014flxk  -0.07337
gfz2014fsir  -0.86228
gfz2014fxte  -0.19272
gfz2014hzzf  -1.43080
gfz2014icov  -0.47910
gfz2014ijsa   2.00990
gfz2014iltl  -1.17320
gfz2014irlf  -0.33136
gfz2014irln  -2.43000
gfz2014jarg   0.34940
gfz2014jayh  -0.63185
