# Nsamples: 101  MAD:  0.624  mean:  0.133  std:  0.903
gfz2010mqzz   0.03451
gfz2010ncwu   1.48120
gfz2010ngge  -0.13713
gfz2010pclq   0.57431
gfz2010qdqk   2.27320
gfz2010rkuu   0.61283
gfz2010rljv   0.16921
gfz2010rnwt  -0.40469
gfz2010rpjd  -1.24930
gfz2010tcgh   2.46240
gfz2010tmba   0.10043
gfz2010uhjy  -0.00216
gfz2010vong   0.00276
gfz2010xnbn   0.64035
gfz2010xpzq   0.13452
gfz2011kfch   0.20714
gfz2011kjzt  -0.87688
gfz2011ksxc  -2.48080
gfz2011kymm   2.83100
gfz2011kyzy   0.51130
gfz2011lkkf   0.87837
gfz2011lwmg   1.23210
gfz2011mjje  -0.01682
gfz2011mllb   1.95480
gfz2011mror  -1.65270
gfz2011ndhh  -0.71279
gfz2011nfcz  -0.15006
gfz2011nijp  -1.20710
gfz2011niuw  -0.56414
gfz2011nlum  -2.04240
gfz2011nsiy  -0.60925
gfz2011nuqo   0.02507
gfz2011oazk   1.21770
gfz2011ofpj   0.13770
gfz2011ohgj  -0.71864
gfz2011oslk  -0.09531
gfz2011owqa   1.55430
gfz2011paqj  -0.81265
gfz2011poug  -1.10800
gfz2011ppsc  -0.35580
gfz2011prrq  -0.55863
gfz2011pwbw  -0.27870
gfz2011qenl   0.06652
gfz2011qukj  -0.39127
gfz2011rkau  -0.15668
gfz2011scma   1.05490
gfz2011sdax   0.40142
gfz2011sqco   1.79030
gfz2011sxno   0.00974
gfz2011taqr   1.13460
gfz2011tqgg   0.33804
gfz2011tsgl   0.38688
gfz2011uqry  -0.44444
gfz2011vahy  -0.40242
gfz2011wcvs  -0.64500
gfz2011wwze   0.49036
gfz2011ypfh   0.63848
gfz2012cdju  -0.19409
gfz2012cksh  -0.66760
gfz2012cvfr   0.01135
gfz2012gnow  -0.19752
gfz2012kmbo  -0.59444
gfz2012ldjj   0.58370
gfz2012lyyr  -0.02695
gfz2012mdzf   0.04109
gfz2012mrqk  -0.66146
gfz2012oafg   0.39467
gfz2012oehy   0.01787
gfz2012phns  -0.08519
gfz2012ssnb   1.60220
gfz2012suqd  -0.09831
gfz2012svwz   0.51167
gfz2012swbz  -0.30304
gfz2012sxbo  -0.12971
gfz2012uhtc   0.12074
gfz2012uvoa   0.57811
gfz2012xncm   0.16943
gfz2013akkd   1.25840
gfz2013byyy  -0.40171
gfz2013cvve  -0.55206
gfz2013cyvx   0.01621
gfz2013dftb   0.06236
gfz2013dzvr   0.20515
gfz2013enqo   3.36090
gfz2013fnpa   0.13941
gfz2013fulo   0.57440
gfz2013fvht   0.44966
gfz2013fvyr  -0.00996
gfz2013icql  -0.32694
gfz2013iuyv  -0.10134
gfz2013lbod  -0.20750
gfz2013lbvl  -0.22863
gfz2013oizq   0.24974
gfz2013oywh   0.59004
gfz2013qigb   0.57818
gfz2013qoak  -0.79986
gfz2013quwz  -0.04721
gfz2013rocs  -0.20674
gfz2013rwog   0.74745
gfz2013yqtu  -0.43352
gfz2013zlak   0.14973
