# Nsamples: 444  MAD:  0.426  mean:  0.024  std:  0.735
gfz2010abfc  -1.08840
gfz2010abvu  -0.31240
gfz2010aggj  -0.39218
gfz2010aimm   0.00000
gfz2010aseg   0.27898
gfz2010azji   0.18988
gfz2010bkfi  -0.12410
gfz2010bklj  -0.31325
gfz2010bmls  -0.30948
gfz2010bqnk   0.35580
gfz2010brlc  -0.07523
gfz2010brrm   0.49282
gfz2010btme   0.41916
gfz2010bukb   0.21769
gfz2010bvit  -0.43925
gfz2010ccwc  -0.21152
gfz2010ccye  -0.29799
gfz2010clbw   0.12650
gfz2010cllh   0.46528
gfz2010cnhd   0.43737
gfz2010cphq   0.19092
gfz2010cpig   0.09828
gfz2010crgy  -0.33467
gfz2010crir  -0.59024
gfz2010csle   1.08230
gfz2010csmw  -0.06206
gfz2010cthm   4.14940
gfz2010cyid   0.28931
gfz2010dask  -0.13354
gfz2010depd  -0.52605
gfz2010djib  -0.59962
gfz2010dmij  -0.91237
gfz2010drit   0.82693
gfz2010drml  -0.91300
gfz2010drmq  -0.91300
gfz2010drpv   0.85853
gfz2010drun  -0.07288
gfz2010dslu  -0.70155
gfz2010dtgc   0.04897
gfz2010dtyx   0.01138
gfz2010dumv   0.47012
gfz2010dwgy   0.31372
gfz2010dxhq  -0.01047
gfz2010eepd   0.47093
gfz2010eibh   0.61992
gfz2010extu  -0.41529
gfz2010fgbo   0.06314
gfz2010fjio  -0.24396
gfz2010fjme  -0.10823
gfz2010fkff   0.25872
gfz2010fkpa  -0.16576
gfz2010fvfz  -0.52676
gfz2010fxhh  -0.24269
gfz2010fxut   0.71145
gfz2010gcqp  -0.11624
gfz2010gnvp  -0.05470
gfz2010gonu   0.50955
gfz2010gxki   0.68987
gfz2010habf  -0.02032
gfz2010hllp  -1.51270
gfz2010hsgv   0.62293
gfz2010hueh   0.58899
gfz2010iaay  -0.46170
gfz2010ifhd  -0.36216
gfz2010inbs   0.05678
gfz2010ioad   0.95836
gfz2010izag   0.06394
gfz2010jlvp  -0.37487
gfz2010jvsi   0.06704
gfz2010kwks   2.08940
gfz2010ljol   0.42569
gfz2010ljzf  -1.05810
gfz2010mdti  -0.26981
gfz2010mpvc  -0.62700
gfz2010ncwu  -0.20229
gfz2010ngge  -0.23038
gfz2010oguu  -0.05703
gfz2010pclq  -0.11835
gfz2010pcya  -1.10080
gfz2010qdqk  -0.60172
gfz2010qrix   0.90524
gfz2010qrta   0.20192
gfz2010qzvf  -0.83953
gfz2010rkuu  -0.36544
gfz2010rljv  -0.08756
gfz2010rnwt  -2.89990
gfz2010rpjd   1.67500
gfz2010schp   0.27494
gfz2010tcgh  -0.60767
gfz2010tfar   1.08240
gfz2010tmba  -0.35503
gfz2010tpcj  -0.04371
gfz2010tzlz  -0.50583
gfz2010tzma   0.20266
gfz2010ugws   0.15134
gfz2010uhjy  -0.42904
gfz2010uogw  -0.15377
gfz2010vdcf  -1.29970
gfz2010vong  -0.09982
gfz2010wakc  -0.16193
gfz2010wwhf  -0.29926
gfz2010xamh   0.21514
gfz2010xnbn  -0.33004
gfz2010xpzq   0.25893
gfz2010yfdr   0.59406
gfz2010ytzb  -0.16949
gfz2010zjun   0.54179
gfz2011ahvh  -0.26295
gfz2011amst   0.07792
gfz2011bcvc   0.35478
gfz2011bpqm  -0.10033
gfz2011bsvr  -0.41928
gfz2011bygs   0.19605
gfz2011bygu   0.08107
gfz2011cdge  -1.03800
gfz2011cfyy  -0.26527
gfz2011cjuz  -0.50508
gfz2011dabj  -0.82387
gfz2011dhfg  -0.18667
gfz2011dpyu  -0.04745
gfz2011emzr   0.48448
gfz2011exxq  -1.77770
gfz2011fnie  -0.20614
gfz2011fnuk  -0.14803
gfz2011fszl   0.93636
gfz2011fzcw   0.84008
gfz2011gfer  -0.14940
gfz2011ggnl   2.63210
gfz2011gnbk  -0.09229
gfz2011gpyr  -0.26860
gfz2011hqjs  -0.16133
gfz2011jghq  -0.06934
gfz2011jryv  -1.43180
gfz2011kfch  -0.57267
gfz2011kjzt   0.15777
gfz2011kjzv   0.20258
gfz2011kylu   1.86420
gfz2011kyzy  -0.10622
gfz2011lkkf   0.39787
gfz2011lwmg  -0.15485
gfz2011mjje  -0.17843
gfz2011mntq  -0.11252
gfz2011ndhh   0.12615
gfz2011neai  -0.96636
gfz2011nejg  -0.26545
gfz2011nejw  -0.04866
gfz2011nfcz  -0.16185
gfz2011nftw  -1.51430
gfz2011nhby   0.34477
gfz2011nhvt  -1.38700
gfz2011nijp   0.09506
gfz2011nilw   1.83660
gfz2011niuw  -0.26354
gfz2011nlmf   0.51826
gfz2011nlnl  -0.90114
gfz2011nlum   0.37761
gfz2011nlyw  -1.15870
gfz2011nnos   0.93103
gfz2011npeu   1.43160
gfz2011nsej   0.19980
gfz2011nsiy   0.48780
gfz2011nsrx   0.08784
gfz2011nuqo   0.22750
gfz2011oadm  -0.24670
gfz2011oazk   0.26453
gfz2011oekz   0.67435
gfz2011ofpj  -0.51466
gfz2011okza   1.01280
gfz2011oslk  -0.17757
gfz2011owqa   0.77845
gfz2011paqj  -0.57062
gfz2011pivq   0.18648
gfz2011ppsc  -0.21261
gfz2011pwbw  -0.05249
gfz2011qenl   0.06414
gfz2011qukj  -0.27286
gfz2011rkau  -1.71440
gfz2011rnny   0.08938
gfz2011rnsp  -0.39566
gfz2011rqut   0.55847
gfz2011sdax   0.00000
gfz2011sdpl   0.43439
gfz2011sqco   1.28530
gfz2011sxno  -0.29009
gfz2011syvj  -0.70594
gfz2011syzr   0.51741
gfz2011szbb  -1.03800
gfz2011szcj  -0.26391
gfz2011taqr   0.26626
gfz2011tarj   0.72840
gfz2011tdjj   0.45571
gfz2011tqgg  -0.10549
gfz2011tsgl  -0.59121
gfz2011uqry   0.39163
gfz2011vahy  -0.25647
gfz2011vbxv   0.79698
gfz2011vcyx  -0.10012
gfz2011xdox  -0.19930
gfz2011xkka   0.12255
gfz2011xxng   0.55749
gfz2011yexx  -0.52487
gfz2011ypfh  -0.27225
gfz2011zdyf  -0.81627
gfz2011zghc   0.12126
gfz2011zkbt  -0.42358
gfz2012adja   0.19809
gfz2012amjx   0.42222
gfz2012arlo   0.66850
gfz2012bity  -0.01557
gfz2012bqcf  -0.05712
gfz2012byuk  -0.71218
gfz2012cdju   0.02975
gfz2012cksh   0.20483
gfz2012cntu  -0.28943
gfz2012cvfr  -0.32131
gfz2012dejg  -0.08659
gfz2012dnig  -0.23782
gfz2012dttl   0.26749
gfz2012duwm   0.24928
gfz2012dwwu  -0.09186
gfz2012dyck   0.05587
gfz2012dysu  -0.26575
gfz2012eajr   1.94380
gfz2012ekfp   0.31332
gfz2012fuyd  -1.13530
gfz2012fxgc   1.61620
gfz2012gdye   0.07494
gfz2012ghiv   0.80643
gfz2012gnow  -0.09579
gfz2012hzur   1.26900
gfz2012iijk  -0.16677
gfz2012imsm  -0.46395
gfz2012imuo   5.47350
gfz2012jodg  -0.66919
gfz2012kmbo  -0.67825
gfz2012ldjj  -0.23222
gfz2012lvlr   0.44254
gfz2012lyyr  -0.31746
gfz2012mdzf   0.07492
gfz2012mjuu  -0.05685
gfz2012mpzo   0.20327
gfz2012mrqk  -0.13058
gfz2012mvgu  -0.11933
gfz2012nldz  -0.94782
gfz2012nnqu   0.53176
gfz2012nqvd  -0.31830
gfz2012oafg   0.08838
gfz2012oehy  -0.03292
gfz2012ofnx  -0.77824
gfz2012pdav  -0.96026
gfz2012pgmw  -0.26980
gfz2012phns  -0.46467
gfz2012pmuj   2.92820
gfz2012qfah  -0.29580
gfz2012qpoc   0.00000
gfz2012rzwp  -0.15048
gfz2012sfao  -0.55534
gfz2012sgfd   1.80730
gfz2012socz   0.41364
gfz2012sqsc  -0.17417
gfz2012suqd   0.34392
gfz2012svwz  -0.74278
gfz2012sxbo   0.14155
gfz2012syum  -0.93201
gfz2012taph   0.29827
gfz2012tisj  -0.37711
gfz2012trfq   0.15538
gfz2012tvgw  -0.44021
gfz2012uegq  -0.36631
gfz2012uhtc   0.29471
gfz2012uvoa  -0.04929
gfz2012uzww  -0.01065
gfz2012vdra  -1.61950
gfz2012vile  -0.53953
gfz2012vitw  -0.27701
gfz2012vkjw   0.10887
gfz2012vnve   0.58753
gfz2012vrqz  -0.19498
gfz2012wgmg  -0.22033
gfz2012wkki  -0.31199
gfz2012wmmw   0.14904
gfz2012wowu  -0.30137
gfz2012wysg   0.25110
gfz2012xask  -0.11254
gfz2012xcsf  -0.49723
gfz2012xkln  -0.29741
gfz2012xlas   0.23211
gfz2012xlfo   4.26870
gfz2012xncm   0.55195
gfz2012xxdj  -0.48447
gfz2012ylai  -0.25382
gfz2012yncm   1.41330
gfz2012yvwc   0.41683
gfz2013aggr  -0.15337
gfz2013agmt   0.25263
gfz2013akkd   2.22140
gfz2013bwgw  -0.73989
gfz2013byyy  -0.08442
gfz2013cinv   0.59108
gfz2013cokc   0.02031
gfz2013cvve  -0.36571
gfz2013cyvx  -0.00559
gfz2013delq  -0.39079
gfz2013dftb  -0.02939
gfz2013dfvx   0.51305
gfz2013dngd  -0.06876
gfz2013dzvr  -0.02259
gfz2013eazm   0.95162
gfz2013efct  -0.26065
gfz2013fmcd   0.66264
gfz2013fnpa  -0.09531
gfz2013fulo  -0.35641
gfz2013fvht  -0.04296
gfz2013fybd   0.19290
gfz2013gkyn   0.07566
gfz2013gsnl  -0.73577
gfz2013hbmi   0.29169
gfz2013hiam  -0.43109
gfz2013lbvl  -0.19325
gfz2013lqjj  -0.11054
gfz2013mdxj   0.06691
gfz2013mimp  -0.12376
gfz2013mvgq  -0.52622
gfz2013mzaw  -0.10843
gfz2013njck   1.25730
gfz2013ntiu  -0.05288
gfz2013oeni  -0.13039
gfz2013oizq  -0.09123
gfz2013olos   0.94084
gfz2013oruq   0.00000
gfz2013osmj  -0.43697
gfz2013otuj  -0.17444
gfz2013pegj  -0.48695
gfz2013pkmz   0.50912
gfz2013qigb   0.03984
gfz2013qmkt  -0.01207
gfz2013qoak  -1.31140
gfz2013quwz  -0.30983
gfz2013qxof  -0.09381
gfz2013rdmn  -0.43599
gfz2013rtvy  -0.13000
gfz2013stou   0.14773
gfz2013taeb   0.91335
gfz2013tdsx   0.31086
gfz2013tert   1.76980
gfz2013tjub  -0.16683
gfz2013tnrp  -0.38104
gfz2013trsq  -0.23157
gfz2013ubgt  -1.00510
gfz2013udtw  -0.32863
gfz2013ujze   0.07290
gfz2013unuv  -0.11609
gfz2013upqj   0.96411
gfz2013utqa  -0.59510
gfz2013uwjo   1.07290
gfz2013uxzw  -0.13682
gfz2013vcgd  -0.61659
gfz2013vdam  -0.36987
gfz2013vjrr   0.28737
gfz2013vldx  -0.02898
gfz2013vmrv  -0.19375
gfz2013vnwa   0.82070
gfz2013voai  -0.12197
gfz2013vojy  -0.40047
gfz2013vvre   0.60377
gfz2013vwkh   0.21469
gfz2013vxht   0.75814
gfz2013wgwz   0.68304
gfz2013wyfl  -0.19258
gfz2013xahp  -0.14648
gfz2013xjmo  -0.61225
gfz2013xlic  -0.21046
gfz2013xmzw  -0.17326
gfz2013xofz  -0.02836
gfz2013xswc   0.11734
gfz2013yodm   0.03863
gfz2013yqkz  -0.02920
gfz2013yqtu  -0.02173
gfz2013yxhf  -0.18658
gfz2013zfbz  -0.06803
gfz2013ziix  -0.26674
gfz2013zkgm   0.15184
gfz2013zkta   1.52860
gfz2013zlak  -0.04519
gfz2014aedl   0.23255
gfz2014ajgi   0.05826
gfz2014amgk  -0.44084
gfz2014aqax  -0.46759
gfz2014aqop   0.10663
gfz2014ayxf  -0.23725
gfz2014azfu  -0.18094
gfz2014bdju  -0.03972
gfz2014bkra   1.42510
gfz2014bnea   0.36404
gfz2014bqpm   0.10612
gfz2014byes  -0.47158
gfz2014cokw  -0.08641
gfz2014ctdl  -0.27632
gfz2014cvnb  -0.26582
gfz2014cwcj   0.18304
gfz2014dggw  -0.15213
gfz2014dihl  -0.61026
gfz2014diuu  -0.11545
gfz2014djhi   0.03318
gfz2014djyj   0.27391
gfz2014edjm   0.04216
gfz2014egvg   0.56451
gfz2014emlw  -0.25468
gfz2014eoay  -0.37561
gfz2014esez  -0.22875
gfz2014etgp   0.54093
gfz2014etqu  -0.36991
gfz2014eunw  -0.48542
gfz2014evhm   0.61875
gfz2014faex  -0.77139
gfz2014ffqg   0.56269
gfz2014fhki  -1.15370
gfz2014fjfz   0.00060
gfz2014flxk   0.40551
gfz2014fmdc   0.04974
gfz2014fsje  -0.36194
gfz2014fskh  -0.36376
gfz2014fvza   0.13878
gfz2014fwxt   0.29650
gfz2014fxte  -0.02353
gfz2014gnbw   0.04088
gfz2014grwv   0.07559
gfz2014gsfc   0.48552
gfz2014hkcw  -0.40498
gfz2014hotu  -0.98520
gfz2014hqhv   0.16706
gfz2014iayo   1.92420
gfz2014icov  -0.43774
gfz2014igrp  -0.12936
gfz2014iltl  -0.18157
gfz2014ined  -0.10821
gfz2014irlf  -0.03674
gfz2014irln   0.81433
gfz2014irly   0.36854
gfz2014itlx   0.23458
gfz2014iusw  -0.12315
gfz2014ixlc  -0.98101
gfz2014jarg   0.12028
gfz2014jayh   0.10692
