# Nsamples: 329  MAD:  0.338  mean:  0.022  std:  0.629
gfz2010abfc   0.25158
gfz2010abvu  -0.12046
gfz2010aggj  -0.25912
gfz2010aimm   0.16165
gfz2010amec   0.76956
gfz2010aseg   0.14236
gfz2010azji   0.56496
gfz2010bgrt   0.02117
gfz2010bkfi   0.18986
gfz2010bklj  -0.55199
gfz2010bmls  -0.47287
gfz2010bnqr  -0.51533
gfz2010bqnk  -0.25014
gfz2010brrm   0.40614
gfz2010btme  -0.58647
gfz2010bvit  -0.33332
gfz2010byau  -0.08439
gfz2010bytu  -0.09847
gfz2010ccwc  -0.00000
gfz2010ccye   0.02007
gfz2010clbw   0.08355
gfz2010cllh   0.21052
gfz2010cngg  -0.30379
gfz2010cnhd   0.30393
gfz2010cphq   0.40687
gfz2010cpig  -1.04050
gfz2010crgy  -0.03587
gfz2010crir  -0.19199
gfz2010csle  -0.26679
gfz2010csqy  -0.17082
gfz2010cyid   0.31668
gfz2010dask  -0.07891
gfz2010djib  -0.55568
gfz2010dmij  -1.04100
gfz2010drit   0.34563
gfz2010drml  -1.10140
gfz2010drmq  -1.10140
gfz2010drng   1.01390
gfz2010drpv   0.71091
gfz2010drun   0.04710
gfz2010dslu   1.28610
gfz2010dtgc   0.28333
gfz2010dtyx   0.27707
gfz2010dumv   0.84836
gfz2010dwgy  -0.32417
gfz2010dxhq  -0.98059
gfz2010eepd   0.06539
gfz2010extu   0.23113
gfz2010faly  -0.61747
gfz2010fgbo   0.06202
gfz2010fjio  -0.38660
gfz2010fjme   0.15046
gfz2010fkff  -0.63265
gfz2010fkpa  -0.57398
gfz2010ftfq  -0.15171
gfz2010fvfz  -0.05123
gfz2010fxhh  -0.45286
gfz2010fxut   0.10673
gfz2010gcqp  -0.52566
gfz2010gcrn  -0.70440
gfz2010gnvp  -0.32053
gfz2010gonu  -0.06327
gfz2010gooc   0.06900
gfz2010habf   0.24519
gfz2010hesh  -0.22988
gfz2010hllp  -0.89353
gfz2010hueh   0.01874
gfz2010hxan  -0.32883
gfz2010iaay  -0.24871
gfz2010iawy  -0.40837
gfz2010ifhd  -0.47952
gfz2010inbs   0.20652
gfz2010ioad  -0.25760
gfz2010izag   0.33565
gfz2010jlvp   0.04314
gfz2010kcdq  -0.93519
gfz2010kwks  -0.58097
gfz2010ljmp  -2.35740
gfz2010mjdl  -0.03847
gfz2010ncwu  -0.05190
gfz2010ngge   0.17530
gfz2010nwyk   0.04001
gfz2010oguu   0.21534
gfz2010pclq   0.02439
gfz2010pcya  -0.61450
gfz2010pgpo  -0.16345
gfz2010pngv   0.48648
gfz2010pvnn   0.29553
gfz2010qdqk   0.77978
gfz2010qrix   0.82541
gfz2010qrta   0.24655
gfz2010rkuu  -0.31735
gfz2010rljv   0.11277
gfz2010rnwt  -1.04060
gfz2010rpjd  -1.15420
gfz2010schp  -0.24245
gfz2010tcgh  -0.44060
gfz2010tfar   0.64696
gfz2010tmba  -0.19487
gfz2010tpcj   0.05623
gfz2010tzki  -0.13027
gfz2010tzlz   0.40084
gfz2010tzma   0.27269
gfz2010uogw   0.15895
gfz2010uopf  -0.00000
gfz2010vdcf   0.15439
gfz2010vong   0.25442
gfz2010wakc  -0.06004
gfz2010yfdr   5.23090
gfz2011nkou   3.98720
gfz2012dttl   0.10712
gfz2012ekro   0.37017
gfz2012evxn   0.31170
gfz2012ghyd   0.42003
gfz2012gnow  -0.18538
gfz2012gubu   0.21913
gfz2012lngq   0.20003
gfz2012mmiw  -0.25604
gfz2012mowv  -0.51884
gfz2012mrwu   0.20193
gfz2012ofnx   0.18505
gfz2012phns  -0.02236
gfz2012pmuj  -0.63548
gfz2012pumy  -0.30035
gfz2012pvve  -0.07165
gfz2012qfah  -0.71693
gfz2012qllj   0.14291
gfz2012qpoc  -0.17372
gfz2012rzwp  -0.03749
gfz2012sfao   0.22986
gfz2012sgfd  -0.39048
gfz2012socz   0.41552
gfz2012sqsc   0.86604
gfz2012ssnb   2.54350
gfz2012suqd   0.33549
gfz2012svwz   0.00000
gfz2012swbz  -0.01450
gfz2012sxbo  -0.36632
gfz2012syum   0.05441
gfz2012thyh   0.29788
gfz2012tisj  -0.37357
gfz2012trfq   0.22824
gfz2012uegq  -0.21481
gfz2012uhtc  -0.11769
gfz2012ulei   0.67318
gfz2012umob   0.21476
gfz2012uvoa   0.14080
gfz2012uzww  -0.21996
gfz2012vile  -0.27835
gfz2012vitw  -0.05525
gfz2012vkjw   0.10467
gfz2012vnve  -0.18504
gfz2012vqmq   0.69818
gfz2012vrqz  -0.14174
gfz2012wkki  -0.08569
gfz2012wysg   0.34751
gfz2012xask   0.26181
gfz2012xcsf   0.00857
gfz2012xkln  -0.13641
gfz2012xlas   0.33795
gfz2012xlfo   0.35842
gfz2012xncm  -0.31001
gfz2012xqxw  -0.19421
gfz2012xrmq  -0.09412
gfz2012yncm  -1.53250
gfz2012yvwc   0.18758
gfz2012zqis   0.45374
gfz2013agmt  -0.26872
gfz2013akkd   0.05755
gfz2013bwgw  -0.07553
gfz2013byyy  -0.54362
gfz2013cpjc   0.19024
gfz2013cyvx   0.21514
gfz2013delq   0.42022
gfz2013dftb   0.09541
gfz2013dfvx   0.57730
gfz2013efct  -0.36354
gfz2013eidd   0.12203
gfz2013enqo  -0.46713
gfz2013gkyn   0.33807
gfz2013glpz   0.11923
gfz2013gsnl  -0.69970
gfz2013gurk  -0.08859
gfz2013gxye   0.06718
gfz2013gywl   0.54821
gfz2013hbmi   0.44318
gfz2013hbtm   0.22220
gfz2013hvzv   0.22777
gfz2013icql   0.11113
gfz2013iuyv   0.35770
gfz2013iwzn   1.14520
gfz2013jfcn   0.17028
gfz2013jobl  -0.33039
gfz2013jzcf  -0.18820
gfz2013kats  -0.04251
gfz2013kbbg  -0.14137
gfz2013kbbn   0.74270
gfz2013kcdb   0.53915
gfz2013kpcb  -0.01125
gfz2013kqab  -0.14350
gfz2013kslp   0.07854
gfz2013lbvl   0.22428
gfz2013ljdu   0.22511
gfz2013mdxj   0.15249
gfz2013mvgq  -0.04472
gfz2013mzaw  -0.02393
gfz2013oeni   0.04196
gfz2013oizq   0.27014
gfz2013orot  -0.03771
gfz2013oruq   0.00963
gfz2013osmj  -0.53778
gfz2013oywh  -0.72611
gfz2013pegj  -0.28593
gfz2013phhi   4.09100
gfz2013pkmz  -0.10119
gfz2013qaex   0.03841
gfz2013qigb   0.27486
gfz2013qmkt  -0.58396
gfz2013qoak  -1.23470
gfz2013quwz  -0.16744
gfz2013qxof   0.20750
gfz2013rdmn   1.07430
gfz2013rhbx  -0.06951
gfz2013rocs  -0.63093
gfz2013rwkj  -0.14322
gfz2013skvq   0.57809
gfz2013stou   0.31582
gfz2013taeb   0.48856
gfz2013tdsx   0.17138
gfz2013tekq  -0.16363
gfz2013tert   0.01439
gfz2013tjub   0.18232
gfz2013tkcg  -0.20371
gfz2013tnrp  -0.23317
gfz2013ubgt  -0.22210
gfz2013udtw   0.26216
gfz2013uepl   0.43486
gfz2013ummt   0.73960
gfz2013unuv  -0.10505
gfz2013utqa  -0.34771
gfz2013uwjo  -0.24070
gfz2013uxzw  -0.94558
gfz2013vdam   0.19582
gfz2013vjrr   0.20525
gfz2013vldx  -0.19060
gfz2013vmrv   0.04123
gfz2013voai   0.04864
gfz2013vojy   0.02720
gfz2013vvre   0.02392
gfz2013vwkh  -0.25189
gfz2013vzel   0.16566
gfz2013wyfl  -0.19112
gfz2013xahp  -0.30638
gfz2013xddu   0.65885
gfz2013xjmo  -0.24787
gfz2013xlic  -0.16570
gfz2013xmzw  -0.06343
gfz2013xodn   0.05783
gfz2013xofz   0.52751
gfz2013xswc  -0.21370
gfz2013xzxe  -0.48656
gfz2013ylxn   0.05110
gfz2013yqtu  -0.85674
gfz2013yvnj   0.09132
gfz2013yxhf   0.17958
gfz2013zfbz  -0.01949
gfz2013zkta   0.02955
gfz2013zkzb  -0.18419
gfz2014ajgi  -0.44793
gfz2014amgk  -0.25876
gfz2014aqax  -0.71480
gfz2014aqop   0.30874
gfz2014ayxf  -0.51537
gfz2014bdju  -0.13176
gfz2014bgxe  -0.35210
gfz2014bkra  -0.28878
gfz2014bqpm   0.05173
gfz2014byes   0.11735
gfz2014cgoi   0.32885
gfz2014cokw  -0.07643
gfz2014ctdl  -0.03015
gfz2014cvnb   0.31321
gfz2014dggw  -0.20254
gfz2014dihl   0.77032
gfz2014dtth   0.13647
gfz2014edjm   0.09191
gfz2014edmd   0.47606
gfz2014eglj   0.45353
gfz2014eirs  -0.03726
gfz2014emlw   0.42431
gfz2014eoay  -0.15065
gfz2014epnq   0.04997
gfz2014esez   0.36559
gfz2014faex   0.29375
gfz2014fdhk   0.01307
gfz2014flxk   0.20397
gfz2014fsir   0.07757
gfz2014fsje   0.07336
gfz2014fxte  -0.02227
gfz2014gcia  -0.00980
gfz2014geln  -1.20420
gfz2014gnvp   0.16479
gfz2014gsfc  -0.10617
gfz2014gtee   0.10118
gfz2014gypw   0.70741
gfz2014hapg  -0.13622
gfz2014hjmc  -0.34032
gfz2014hkcw  -0.04717
gfz2014hotu  -0.26938
gfz2014hqhv   0.06467
gfz2014huqh  -0.04019
gfz2014hyea  -0.08926
gfz2014hzzf  -0.00040
gfz2014icov   0.00512
gfz2014igrp   0.02181
gfz2014ijsa   0.23127
gfz2014iltl   0.34269
gfz2014ined   0.34232
gfz2014ipwk   0.08198
gfz2014irlf  -0.09888
gfz2014irln   0.83517
gfz2014irly  -0.02015
gfz2014isjg  -0.13682
gfz2014itlx   0.63731
gfz2014iusw   0.15232
gfz2014ixlc  -0.92557
gfz2014jarg   0.05732
gfz2014jayh   0.27916
gfz2014jbgm  -1.63610
