# Nsamples: 363  MAD:  0.412  mean: -0.016  std:  0.714
gfz2010abfc  -0.23228
gfz2010abvu  -0.75987
gfz2010aggj  -0.00817
gfz2010aimm   0.54391
gfz2010aseg   0.67546
gfz2010azji   0.63370
gfz2010bkfi  -0.93737
gfz2010bklj   0.10910
gfz2010bnqr   4.19270
gfz2010bqnk   0.10640
gfz2010brlc   0.35335
gfz2010brrm  -0.53218
gfz2010btme   1.73840
gfz2010bvit   1.52600
gfz2010bytu   0.82478
gfz2010ccse  -0.04101
gfz2010ccwc   0.34764
gfz2010ccye  -0.23886
gfz2010clbw  -0.02765
gfz2010cllh  -0.87688
gfz2010cnhd  -0.11144
gfz2010crgy  -0.25684
gfz2010crir  -0.42776
gfz2010csle  -0.17761
gfz2010csmw  -0.16253
gfz2010csqy   0.02369
gfz2010cthm   0.21204
gfz2010cvam  -0.43332
gfz2010cvkn   0.74871
gfz2010cyid  -0.99790
gfz2010dask  -0.70088
gfz2010djib   0.12635
gfz2010ekvl  -0.16737
gfz2010eqyj  -0.04682
gfz2010euue  -0.42246
gfz2010extu   0.32693
gfz2010faly  -0.06968
gfz2010fgbo  -0.68073
gfz2010fjme   0.05583
gfz2010fkff  -0.10153
gfz2010fnkr   0.59430
gfz2010fopf   0.86095
gfz2010fpvw  -0.33165
gfz2010fqnn  -0.68763
gfz2010fqzh  -0.59429
gfz2010ftfq   0.06934
gfz2010fvfz   0.92784
gfz2010fxhh  -0.22256
gfz2010fxut  -0.89030
gfz2010gcqp   0.11961
gfz2010gcrn  -1.09220
gfz2010gnvp  -0.22443
gfz2010gonu  -0.36198
gfz2010gpjl  -1.64360
gfz2010gxki  -0.18558
gfz2010habf   3.22600
gfz2010hesh  -0.18455
gfz2010hexh   0.13135
gfz2010hllp  -0.21472
gfz2010hsgv   0.54141
gfz2010hueh  -2.22040
gfz2010hxan   0.39250
gfz2010iaay  -0.49475
gfz2010iawy   0.02144
gfz2010ifhd  -0.12880
gfz2010ifru   0.42874
gfz2010inbs   0.08912
gfz2010ioad   0.01507
gfz2010izag  -0.62896
gfz2010jcby  -0.04154
gfz2010jcpq   1.14190
gfz2010jdhk   0.22642
gfz2010jlvp  -0.01420
gfz2010jpkn  -0.16327
gfz2010juke  -0.17004
gfz2010jvsi  -1.08670
gfz2010kcyz   0.13411
gfz2010kwks   0.59111
gfz2010ljmp  -0.65837
gfz2010ljol   0.86971
gfz2010mdti  -0.51651
gfz2010mpvc  -0.67454
gfz2010mqaj  -0.23297
gfz2010ncwu  -0.10153
gfz2010ngge  -0.49984
gfz2010nlai   1.19750
gfz2010oguu  -0.19173
gfz2010ojhe   0.24700
gfz2010okpc  -2.21540
gfz2010ovvg   0.26688
gfz2010pclq   0.35545
gfz2010pcya  -0.72123
gfz2010pgpo   0.49795
gfz2010pngv   2.88680
gfz2010pvnn   0.32387
gfz2010pxoi  -0.49394
gfz2010qbcy  -0.48448
gfz2010qdqk   1.29000
gfz2010qqqx   0.42306
gfz2010qrix   0.16862
gfz2010qrta  -0.42072
gfz2010qzvf  -0.11578
gfz2010rkuu  -0.50078
gfz2010rljv  -0.28431
gfz2010rmua  -0.14821
gfz2010rnwt  -2.35110
gfz2010rpjd   0.37998
gfz2010schp   0.04810
gfz2010scht   0.02046
gfz2010vdcf   0.37643
gfz2010vkca  -0.76442
gfz2010vong  -0.22719
gfz2010wakc  -0.13099
gfz2010wwnq  -0.77526
gfz2010xamh  -0.54789
gfz2010xezr   1.51550
gfz2010xnbn  -0.62565
gfz2010xpzq  -0.06673
gfz2010xvev   0.10543
gfz2010xytc  -0.63418
gfz2010yfdr   0.35781
gfz2010yilf   1.08660
gfz2010ytzb  -0.41672
gfz2011sqco   0.26643
gfz2011sylg   0.01986
gfz2011syvj   0.63718
gfz2011syzr   0.87936
gfz2011taqr   0.08081
gfz2011tlwl   0.26567
gfz2011tsgl   0.83357
gfz2011tvuv  -0.25708
gfz2011uowi   0.12792
gfz2011uqry   0.13534
gfz2011vahy  -0.48072
gfz2011vbxv   0.04744
gfz2011vimn  -0.37342
gfz2011vtzv   0.14819
gfz2011wpzt  -0.35814
gfz2011wqup   0.06182
gfz2011wtfn  -0.31385
gfz2011wyei   1.55310
gfz2011ypfh   0.11425
gfz2011zghc  -0.17015
gfz2012adja   0.16343
gfz2012ahac   0.03787
gfz2012alti   0.15450
gfz2012arlo   0.10845
gfz2012bcvn   0.53315
gfz2012bity  -0.70052
gfz2012cdju  -0.00342
gfz2012cmww   0.11141
gfz2012dnig  -0.26337
gfz2012dsei   0.38098
gfz2012dtlu   0.14828
gfz2012dttl  -0.43380
gfz2012dyck  -0.30822
gfz2012dzou   2.17080
gfz2012eajr   1.98110
gfz2012eyti  -0.68854
gfz2012gdye  -0.25819
gfz2012gftg   0.13117
gfz2012gnow  -0.60199
gfz2012gpcd   0.00489
gfz2012heih   0.41568
gfz2012hzhn  -1.15010
gfz2012ipdc   0.17582
gfz2012iphs  -0.26400
gfz2012kadi   0.07687
gfz2012klpl  -0.32730
gfz2012luzm   0.12655
gfz2012lvlr   0.93963
gfz2012mmiw  -0.19035
gfz2012mpzo  -0.71152
gfz2012mrqk  -0.50577
gfz2012mrwu   0.41616
gfz2012mvgu   0.14786
gfz2012mzqx  -0.11398
gfz2012ofnx   0.38269
gfz2012oozp   0.56055
gfz2012pdav   0.43068
gfz2012pmuj  -1.15910
gfz2012pokk   0.09341
gfz2012pvve  -0.25910
gfz2012rzwp  -0.70725
gfz2012sfao   1.07780
gfz2012suqd  -0.24954
gfz2012svwz  -0.22486
gfz2012swbz  -0.20575
gfz2012syum  -0.04620
gfz2012taph  -0.62416
gfz2012tgta  -0.26773
gfz2012tqjc   0.49163
gfz2012trfq  -0.26590
gfz2012trss   0.83335
gfz2012ttnf   0.04955
gfz2012twec   0.18168
gfz2012uhsx  -0.37039
gfz2012umob  -0.03032
gfz2012vgot  -0.22355
gfz2012vile  -1.47800
gfz2012vitw   0.13385
gfz2012vkjw   0.29870
gfz2012vnve   0.09514
gfz2012wmmw  -0.02883
gfz2012wysg  -0.21670
gfz2012xask  -0.14170
gfz2012xbna   0.09069
gfz2012xfsl   0.24246
gfz2012xqxw   0.15028
gfz2012xrmq  -0.06151
gfz2012yihn  -0.37707
gfz2012ylai  -0.12309
gfz2012zktj  -2.09040
gfz2012znou   0.01288
gfz2012zqis   0.18995
gfz2013aggr  -0.51446
gfz2013ajxz  -0.11011
gfz2013bqfc  -0.52743
gfz2013bwgw  -0.09439
gfz2013byyy   0.06464
gfz2013cinv   0.00575
gfz2013cpjc  -0.09000
gfz2013cqak   0.98679
gfz2013cvve   0.21252
gfz2013dbhl   0.02010
gfz2013dftb  -0.45662
gfz2013dfvx   1.69600
gfz2013dksc  -0.82957
gfz2013eavq  -0.05430
gfz2013efct   0.15073
gfz2013eidd   0.08597
gfz2013enqo   1.83850
gfz2013fndg   0.01868
gfz2013fnpa   0.16760
gfz2013fthi   0.18832
gfz2013fulo  -0.03455
gfz2013fvht   0.07342
gfz2013gkyn  -0.00068
gfz2013glpz  -0.03588
gfz2013gurk  -0.14137
gfz2013gxye   0.23760
gfz2013hbmi   0.19165
gfz2013hbtm  -0.24735
gfz2013hdbp  -0.04492
gfz2013hiam   0.07009
gfz2013hvzv   0.58884
gfz2013icgx  -0.47875
gfz2013icql   0.11819
gfz2013ikic   0.19419
gfz2013iuyv   0.83536
gfz2013ivvw  -0.03981
gfz2013jfcn  -0.16078
gfz2013jobl   0.04486
gfz2013jzcf   0.11158
gfz2013jzfz   0.27348
gfz2013kats  -0.22285
gfz2013kbbg  -0.42607
gfz2013kcdb   0.66806
gfz2013kjgh  -0.85823
gfz2013kpcb  -0.04837
gfz2013kqab  -0.14234
gfz2013kslp   0.26350
gfz2013kxlr  -0.59684
gfz2013lbod   0.50476
gfz2013lbvl  -0.32948
gfz2013ljdu   0.11505
gfz2013ljwt  -0.17132
gfz2013lqjj  -0.13966
gfz2013lvxe   0.29088
gfz2013mdxj  -0.55901
gfz2013mvgq   0.93406
gfz2013mzaw  -0.09600
gfz2013nnai   0.18001
gfz2013oeni   0.56769
gfz2013oizq  -0.08351
gfz2013okac  -0.34312
gfz2013olos   0.30081
gfz2013orot   0.16469
gfz2013oruq  -0.40386
gfz2013osmj   1.18080
gfz2013otuj  -0.27386
gfz2013phhi  -4.90020
gfz2013pkmz  -1.16880
gfz2013qigb  -0.23750
gfz2013qmkt  -0.61501
gfz2013qoak  -0.65340
gfz2013quwz  -0.49081
gfz2013quyn  -0.10291
gfz2013qwnm   0.27833
gfz2013qxof  -0.60273
gfz2013rdmn   0.12249
gfz2013rfik   0.07269
gfz2013rgcc  -0.21875
gfz2013rocs   0.00325
gfz2013rtvy  -0.41639
gfz2013rwkj  -0.37086
gfz2013rwog  -0.20203
gfz2013ryfc   0.05943
gfz2013ryph  -0.14373
gfz2013sdkg   0.22744
gfz2013sdym   0.25708
gfz2013skvq  -0.20687
gfz2013stou  -0.06956
gfz2013swnj  -0.07720
gfz2013taeb  -0.24191
gfz2013tcju   0.02798
gfz2013tdsx  -0.00000
gfz2013tekq  -0.04690
gfz2013tert  -0.04943
gfz2013tjub   0.21279
gfz2013tkcg  -0.08101
gfz2013tnrp   0.13570
gfz2013trsq   0.55199
gfz2013twbc   1.20100
gfz2013ubgt  -0.58625
gfz2013udtw   0.10928
gfz2013uepl   0.05006
gfz2013ujze   0.16540
gfz2013unuv   0.49911
gfz2013uwjo  -0.30413
gfz2013uxzw  -1.47070
gfz2013vcgd  -0.66378
gfz2013vdam   0.01135
gfz2013veoz  -0.41770
gfz2013veug   0.39649
gfz2013vjrr  -0.48738
gfz2013vldx  -0.62160
gfz2013vmrv  -0.36155
gfz2013vnwa  -0.98700
gfz2013voai  -0.13695
gfz2013vojy  -0.72774
gfz2013vvre  -0.04608
gfz2013vwkh   0.15203
gfz2013wyfl  -0.73229
gfz2013wyho   1.16350
gfz2013xahp   0.02986
gfz2013xddu   0.48475
gfz2013xjmo  -0.70724
gfz2013xlic   0.27237
gfz2013xmzw  -0.79752
gfz2013xodn  -0.48974
gfz2013xofz   0.80244
gfz2013xswc  -0.17507
gfz2013xupg   0.52917
gfz2013xvps   0.41317
gfz2013xxbf   0.90659
gfz2013xycz  -0.09976
gfz2013xzxe   0.01322
gfz2013ylxm   0.52290
gfz2013ylxn  -0.11890
gfz2013ymhx   1.12730
gfz2013yodm  -0.19681
gfz2013yqkz   0.14318
gfz2013yqtu  -0.70600
gfz2013yvpn   0.33311
gfz2013zfbz  -0.02832
gfz2013zkta   0.57507
gfz2013zkzb  -0.23650
gfz2013zlak  -0.33900
gfz2013zqan   0.30338
gfz2014aaae  -0.47641
gfz2014aedl  -0.50228
gfz2014afbt  -0.14726
