# Nsamples: 201  MAD:  0.655  mean:  0.035  std:  1.139
gfz2010abfc  -0.26333
gfz2010abvu   0.64416
gfz2010aggj  -0.29054
gfz2010aimm  -0.39490
gfz2010aseg  -0.42031
gfz2010azji   0.25285
gfz2010bklj   2.04680
gfz2010btme   0.47280
gfz2010ccye   0.75981
gfz2010clbw  -0.51439
gfz2010cllh   0.08800
gfz2010cphq   0.44860
gfz2010cpig   0.25674
gfz2010crgy  -1.18350
gfz2010crir  -0.91213
gfz2010csle   1.44730
gfz2010cyid   0.27006
gfz2010dask  -0.33466
gfz2010djib  -1.02940
gfz2010drit   1.09570
gfz2010dwgy   2.32470
gfz2010fgbo   0.06022
gfz2010fkff   3.64720
gfz2010gooc   3.78980
gfz2010habf  -0.59755
gfz2010hsgv  -0.84618
gfz2010iaay   0.21645
gfz2010ifhd  -1.21500
gfz2010izag  -0.72748
gfz2010jlvp  -0.12199
gfz2010ljol  -0.71405
gfz2010mdti  -0.49270
gfz2010mvtj   5.99090
gfz2010ncwu  -0.56772
gfz2010ngge  -0.59618
gfz2010pclq   0.07181
gfz2010pcya   1.09270
gfz2010qrta   0.14847
gfz2010rkuu   0.62231
gfz2010rljv  -0.12737
gfz2010rnwt   0.62806
gfz2010rpjd   3.82170
gfz2010tcgh  -0.49509
gfz2010tmba  -0.46653
gfz2010tpcj  -1.50740
gfz2010tzlz  -0.67051
gfz2010tzma   0.49331
gfz2010ugws   0.35714
gfz2010uhjy  -0.72619
gfz2010uidg  -2.81770
gfz2010vong   0.18175
gfz2010wakc  -1.16100
gfz2010wplk   1.90770
gfz2010xamh   0.15773
gfz2010xnbn   0.10190
gfz2010xpzq   0.09687
gfz2011amst   1.06390
gfz2011bcvc   0.12819
gfz2011bpqm  -0.70590
gfz2011bsvr  -0.42156
gfz2011bygu   0.15476
gfz2011cdge  -1.29140
gfz2011cfyy  -0.96070
gfz2011cjuz  -1.62770
gfz2011dabj  -0.78702
gfz2011dpyu  -0.24538
gfz2011emzr  -0.23593
gfz2011exxq   7.23760
gfz2011fnie  -0.32803
gfz2011fszl  -0.87342
gfz2011fzcw   0.57051
gfz2011gnbk   0.05613
gfz2011gpyr  -0.10906
gfz2011hqjs  -0.30339
gfz2011jryv  -0.58364
gfz2011kjzt  -0.49875
gfz2011kjzv  -0.05791
gfz2011kyzy  -0.02066
gfz2011lkkf  -0.53415
gfz2011lmug   0.24190
gfz2011lwmg  -0.38657
gfz2011mjje  -0.04045
gfz2011ndhh  -0.55944
gfz2011nejw  -0.50485
gfz2011nfcz  -0.08581
gfz2011nhwf   0.21483
gfz2011nijp  -0.66438
gfz2011nilw   0.39907
gfz2011niuw   1.18870
gfz2011nlmf   1.28750
gfz2011nlnl   2.45390
gfz2011nlum   0.05451
gfz2011nsiy   0.21498
gfz2011oadm  -0.41098
gfz2011oazk   0.17734
gfz2011oekz   0.72143
gfz2011ofpj  -0.48541
gfz2011oslk  -1.04760
gfz2011paqj   0.16685
gfz2011ppsc   0.12519
gfz2011rkau   3.39500
gfz2011sdax  -1.16580
gfz2011sdpl   1.25760
gfz2011sqco   0.50526
gfz2011sxno   0.18206
gfz2011syvj   0.18150
gfz2011syzr   0.50247
gfz2011szbb  -1.02870
gfz2011szcj  -1.53990
gfz2011taqr   0.77223
gfz2011tdjj   0.07439
gfz2011tqgg  -0.12272
gfz2011tsgl  -1.42000
gfz2011uqry   0.05318
gfz2011vahy   0.26932
gfz2011vbxv   1.21070
gfz2011vcyx  -0.17516
gfz2011vsag   0.12587
gfz2011vtzv  -0.61961
gfz2011wcvs  -1.28460
gfz2011wwze   0.20722
gfz2011xkka  -1.56090
gfz2011yexx  -0.08088
gfz2011zghc  -0.06991
gfz2012amjx  -0.00484
gfz2012dwwu   0.27140
gfz2012dyck   1.63710
gfz2012dysu  -1.53000
gfz2012ekfp   0.47746
gfz2012gnow  -0.33170
gfz2012hzur   0.68097
gfz2012iblo   0.32063
gfz2012iijk   0.14072
gfz2012imsm   1.31250
gfz2012imuo   0.50581
gfz2012kmbo  -0.78374
gfz2012ldjj  -0.53884
gfz2012lyyr  -0.03840
gfz2012mjuu  -0.55336
gfz2012mrqk  -0.31609
gfz2012nnqu  -0.27186
gfz2012nqvd   0.74087
gfz2012oafg   0.11561
gfz2012oehy  -0.51625
gfz2012ofnx  -0.91989
gfz2012phns  -0.79889
gfz2012rzwp  -1.02270
gfz2012socz   1.42310
gfz2012sqsc   0.70990
gfz2012suqd   0.47607
gfz2012sxbo   0.29953
gfz2012syum   0.80200
gfz2012tisj   0.90086
gfz2012trfq  -0.69238
gfz2012uhtc  -0.28460
gfz2012uvoa  -0.18042
gfz2012uzww  -0.34273
gfz2012vrqz  -0.33767
gfz2012wgmg   0.10618
gfz2012wkki  -0.47961
gfz2012wowu  -0.77206
gfz2012wysg   0.07769
gfz2012xlas  -0.34306
gfz2012xncm   0.14864
gfz2012xxdj  -0.52744
gfz2013akkd   1.01260
gfz2013byyy  -0.82742
gfz2013cvve   0.28609
gfz2013cyvx  -0.14053
gfz2013delq  -0.27609
gfz2013dftb  -0.06337
gfz2013dfvx  -0.26821
gfz2013dngd  -0.02114
gfz2013dzvr   0.43699
gfz2013efct  -0.99654
gfz2013fnpa  -0.63403
gfz2013fulo  -0.89946
gfz2013fvht   0.04633
gfz2013fybd   1.20960
gfz2013gsnl   1.11930
gfz2013gurk  -0.71395
gfz2013yqtu  -0.33137
gfz2013yxhf   0.01599
gfz2013zlak  -0.90039
gfz2014ayxf  -0.79208
gfz2014bdju  -0.29525
gfz2014gnbw  -0.20909
gfz2014gnvp  -2.20330
gfz2014gtee  -0.22120
gfz2014hkcw   0.03645
gfz2014huqh   0.51881
gfz2014hzzf  -1.16620
gfz2014icov  -0.27720
gfz2014igrp  -0.30792
gfz2014iltl  -0.42886
gfz2014irlf  -0.34181
gfz2014irln  -1.04070
gfz2014isjg  -0.45043
gfz2014iusw  -0.03639
gfz2014jarg   0.28777
gfz2014jayh  -0.26553
