# Nsamples: 52  MAD:  0.681  mean: -0.069  std:  0.878
gfz2012wysg   0.80531
gfz2012xxdj   0.63381
gfz2012zhyz   0.85973
gfz2013akkd   0.70841
gfz2013byyy  -0.12819
gfz2013cvve   0.56606
gfz2013cyvx   1.18330
gfz2013dftb  -0.24972
gfz2013dzvr   0.00000
gfz2013fmcd  -0.31645
gfz2013fnpa  -1.48120
gfz2013fulo  -0.35688
gfz2013fvht   0.33669
gfz2013gglk   0.37069
gfz2013iuyv  -0.08504
gfz2013jfcn   0.24816
gfz2013jobl  -0.24878
gfz2013jzcf   0.47089
gfz2013kats   0.13866
gfz2013kbbg   0.37421
gfz2013kbbn  -0.73970
gfz2013kcdb  -0.61507
gfz2013kqab   0.58640
gfz2013lbvl  -0.25608
gfz2013ljdu  -0.26150
gfz2013mzaw   0.43131
gfz2013oeni  -2.63960
gfz2013oizq  -0.18980
gfz2013okac   0.04678
gfz2013oywh   0.33961
gfz2013phhi   1.46040
gfz2013pkmz   0.36178
gfz2013qigb   0.06546
gfz2013qoak  -2.48800
gfz2013quwz   0.28913
gfz2013qxof  -0.50545
gfz2013rhbx   1.46540
gfz2013rocs   0.22475
gfz2013stup  -1.06170
gfz2013udtw  -0.42561
gfz2013utqa  -0.50190
gfz2013vmrv  -0.38032
gfz2013vvre  -1.03760
gfz2013wyfl   1.12600
gfz2013xahp   0.32774
gfz2013xswc   0.86300
gfz2014bkra  -1.14070
gfz2014ctdl  -1.92260
gfz2014fbli  -1.32320
gfz2014flxk  -0.51072
gfz2014fsir   0.76789
gfz2014gnbw   0.22482
