# Nsamples: 221  MAD:  0.422  mean:  0.094  std:  0.593
gfz2012bqcf   0.61800
gfz2012byrq  -0.22410
gfz2012cdju   0.16230
gfz2012cksh   0.54677
gfz2012cmww  -0.01758
gfz2012cntu  -0.14715
gfz2012crpb  -0.63124
gfz2012cvfr   0.08426
gfz2012dcjd   0.14545
gfz2012dnig  -0.00418
gfz2012dtlu   0.09982
gfz2012dttl  -0.00000
gfz2012dwwu   0.28869
gfz2012dyck  -0.12095
gfz2012dysu   0.20754
gfz2012dzou  -0.82313
gfz2012ekfp   0.39481
gfz2012ekro   0.79206
gfz2012evxn  -0.10690
gfz2012eyti   1.01750
gfz2012foih   1.17450
gfz2012fpyo  -0.77816
gfz2012ftcq  -0.32199
gfz2012gdye   0.33522
gfz2012ghiv  -0.28212
gfz2012ghyd   1.75960
gfz2012gjdg  -0.28812
gfz2012gnow  -0.20296
gfz2012gpcd  -0.02437
gfz2012hvfw  -0.32625
gfz2012hvtu  -1.56220
gfz2012hzhn  -1.11400
gfz2012hzur  -0.88374
gfz2012iblo  -0.85648
gfz2012iijk  -0.08453
gfz2012imuo  -0.44294
gfz2012ipdc  -0.02675
gfz2012iphs   0.50145
gfz2012jnlt  -0.70684
gfz2012jodg  -0.11888
gfz2012kadi  -0.11594
gfz2012klpl   0.24860
gfz2012kmbo   0.03314
gfz2012kqjb   0.83629
gfz2012ldjj   0.38399
gfz2012luzm  -0.01985
gfz2012lyyr  -0.14258
gfz2012mdzf  -0.40428
gfz2012mjuu   0.10647
gfz2012mmiw   0.49559
gfz2012mowv  -0.01642
gfz2012mpzo  -0.04230
gfz2012mrqk   1.59710
gfz2012mrwu   0.42342
gfz2012mtyn   0.24420
gfz2012mvgu  -0.06201
gfz2012mzqx  -0.06460
gfz2012nldz  -0.59086
gfz2012nnqu   0.02883
gfz2012nqvd  -0.49518
gfz2012oafg   0.10718
gfz2012oehy   0.22362
gfz2012ofnx   3.47530
gfz2012onhu  -0.26989
gfz2012phns   0.27810
gfz2012pmuj  -0.30448
gfz2012pokk   0.31798
gfz2012pumy  -0.47970
gfz2012pvve   0.10001
gfz2012qfah   1.11160
gfz2012qllj   0.27800
gfz2012qpoc   2.90560
gfz2012rmvx   0.50831
gfz2012rzwp   2.36790
gfz2012sbix  -0.05017
gfz2012sgfd  -0.29923
gfz2012sqsc   0.23482
gfz2012suqd   0.19773
gfz2012svwz   0.56399
gfz2012swbz   0.07364
gfz2012sxbo   0.00273
gfz2012sxpr  -1.18800
gfz2012sxzs   0.37908
gfz2012syum   0.86932
gfz2012tgta   0.09936
gfz2012tisj  -0.30272
gfz2012touh   0.61089
gfz2012tqjc   0.11499
gfz2012trfq   0.47554
gfz2012ttnf   0.18584
gfz2012twec  -0.14495
gfz2012tyoz  -1.02070
gfz2012uegq   0.09400
gfz2012uhsx   0.02952
gfz2012uhtc  -0.15618
gfz2012ukzg   1.01620
gfz2012umob  -0.15991
gfz2012uovh   0.80439
gfz2012uvoa   0.66414
gfz2012uzww   0.06259
gfz2012vgot   0.14347
gfz2012vile  -1.57830
gfz2012vioy  -1.23730
gfz2012vitw  -0.03250
gfz2012vkjw  -0.08005
gfz2012vnve  -0.29350
gfz2012vqmq   0.17921
gfz2012vrqz   0.31064
gfz2012wgdv  -0.19474
gfz2012wgmg  -0.55859
gfz2012wkki   0.34254
gfz2012wmmw   0.48638
gfz2012wpen   0.08206
gfz2012wugc  -0.28756
gfz2012wysg   0.23084
gfz2012xask  -0.20480
gfz2012xcsf   0.13486
gfz2012xfsl   0.23976
gfz2012xlas  -0.37011
gfz2012xlfo  -0.34766
gfz2012xqxw   0.37505
gfz2012xrmq   0.52441
gfz2012yihn   0.36135
gfz2012ylai   0.17359
gfz2012yncm  -0.31121
gfz2012zhyz   0.08860
gfz2012zqis  -0.04725
gfz2013adih   0.61352
gfz2013agbm   0.43389
gfz2013agmt   0.06631
gfz2013akkd  -0.44098
gfz2013auew  -0.38788
gfz2013aymi  -0.54919
gfz2013bqfc   0.59984
gfz2013byyy  -0.18522
gfz2013cinv  -0.23402
gfz2013cvve  -0.42143
gfz2013delq   0.27346
gfz2013eidd  -0.14087
gfz2013fmcd   0.57292
gfz2013fmcp   0.19191
gfz2013fndg   0.25179
gfz2013fnpa   0.13419
gfz2013fthi   0.03750
gfz2013fulo   0.53554
gfz2013fvht   0.62950
gfz2013ghpd  -0.12856
gfz2013gkyn  -0.22704
gfz2013glpz   0.14383
gfz2013gomv   0.34424
gfz2013gsnl  -0.22287
gfz2013gxye   0.09312
gfz2013hinw   0.36934
gfz2013noqf   0.13463
gfz2013obof   0.47435
gfz2013ohdt   0.30429
gfz2013oizq   0.20355
gfz2013pkmz  -0.89390
gfz2013qapj   0.30119
gfz2013qigb   0.72255
gfz2013qntl  -0.80713
gfz2013qoak   0.19592
gfz2013rwkj   0.11961
gfz2013rwog   0.06842
gfz2013sdym  -0.46038
gfz2013skvq   0.29285
gfz2013tert   0.35610
gfz2013trsq   0.18619
gfz2013ttmk   0.07500
gfz2013ubgt   0.83507
gfz2013uepl  -0.49420
gfz2013ujze   0.04485
gfz2013unuv   0.04572
gfz2013vjrr  -0.33979
gfz2013vldx  -0.55312
gfz2013vwkh  -0.09755
gfz2013wwee   0.22263
gfz2013xddu   0.63942
gfz2014fxte   0.32073
gfz2014gcia   0.07567
gfz2014geln   0.52088
gfz2014gjfd   0.42371
gfz2014gnbw   0.16746
gfz2014gnvp  -0.71943
gfz2014grwv   0.37999
gfz2014gsfc  -0.54378
gfz2014gssz  -0.36752
gfz2014gtoj  -0.09149
gfz2014gutd  -0.85362
gfz2014hapg  -0.31424
gfz2014happ   0.38356
gfz2014herz  -0.19889
gfz2014hhey   0.70193
gfz2014hhis   0.13383
gfz2014hjmc  -0.29584
gfz2014hkcw   0.05812
gfz2014hotu   0.07237
gfz2014hqhv   0.00086
gfz2014huqh   0.07425
gfz2014hyea   0.00000
gfz2014hzzf   0.47023
gfz2014icov   0.86668
gfz2014igrp   0.00514
gfz2014ijsa   0.96659
gfz2014iltl   0.83189
gfz2014imqh  -0.38538
gfz2014ined   0.00000
gfz2014irlf   0.31086
gfz2014irln   0.53824
gfz2014isjg   0.21511
gfz2014isov  -0.58531
gfz2014iusw   0.16996
gfz2014ivgm  -0.38282
gfz2014ixlc  -0.22421
gfz2014iyuc   0.77220
gfz2014jarg   0.36616
gfz2014jaxy   0.81703
gfz2014jayh   0.07662
gfz2014jbfp   0.54299
gfz2014jbgm  -0.73787
gfz2014jckg  -0.00592
