# Nsamples: 160  MAD:  0.394  mean: -0.036  std:  0.847
gfz2010hsgv  -0.21409
gfz2010iaay   1.02410
gfz2010ifhd  -0.35766
gfz2010izag   0.16391
gfz2010jlvp  -0.76124
gfz2010kcdq  -0.17989
gfz2010mdti   0.00137
gfz2010mpvc   0.30110
gfz2010mqaj   2.82340
gfz2010mqzz  -0.45226
gfz2010ncwu  -0.36337
gfz2010ngge  -0.06546
gfz2010pclq  -0.04569
gfz2010pcya  -1.95520
gfz2010qdqk  -0.24411
gfz2010qrix   0.49369
gfz2010rljv  -0.06161
gfz2010rnwt   3.43640
gfz2010tcgh   0.68096
gfz2010tfar   0.04489
gfz2010tmba  -0.21561
gfz2010tpcj   0.54935
gfz2010tzlz   0.05583
gfz2010tzma   0.33194
gfz2010uhjy   0.33446
gfz2010vdcf  -0.94119
gfz2010vong   0.64911
gfz2010wakc  -0.78763
gfz2010wplk  -0.76891
gfz2010xamh  -0.21331
gfz2010xnbn  -0.95306
gfz2010xpzq   0.10936
gfz2010yfdr   0.45544
gfz2010ytzb  -0.02025
gfz2010zjun   0.51369
gfz2011ahvh  -0.27393
gfz2011bpqm  -0.88496
gfz2011bsvr  -0.64440
gfz2011bygu   0.24928
gfz2011cdge  -0.22555
gfz2011dabj  -0.52252
gfz2011dhfg   0.19454
gfz2011dpyu  -0.34539
gfz2011exxq  -1.37680
gfz2011fnie  -0.02842
gfz2011fnuk  -0.06082
gfz2011fszl  -0.25254
gfz2011fzcw  -0.25210
gfz2011gnbk  -0.09510
gfz2011gpyr  -0.17388
gfz2011hqjs  -0.33113
gfz2011uqry   0.33309
gfz2011zghc   0.46775
gfz2012bqcf  -0.06662
gfz2012cntu   0.10230
gfz2012cvfr   0.17007
gfz2012dejg   0.42330
gfz2012dwwu   0.19712
gfz2012ekfp  -0.33482
gfz2012iijk   0.76237
gfz2012kmbo   0.23478
gfz2012ldjj   0.36767
gfz2012mdzf   0.05802
gfz2012mjuu   0.24847
gfz2012qllj   0.11088
gfz2012qpoc  -0.75187
gfz2012rzwp   0.58464
gfz2012socz  -0.04631
gfz2012sqsc   0.57731
gfz2012suqd   0.34860
gfz2012svwz  -0.08750
gfz2012sxbo  -0.08883
gfz2012syum  -1.05700
gfz2012tisj  -0.20382
gfz2012tjwg   2.51240
gfz2012trfq   0.01113
gfz2012tvgw   0.62436
gfz2012tyoz  -1.36050
gfz2012uegq  -0.03266
gfz2012uhtc   0.27572
gfz2012ulei  -0.26096
gfz2012umob   0.04389
gfz2012uvoa  -0.18090
gfz2012uzww  -0.25801
gfz2012vile  -0.80669
gfz2012vitw   0.07893
gfz2012vkjw  -0.26908
gfz2012wkki   0.28158
gfz2012wmmw  -0.05792
gfz2012wysg   0.29339
gfz2012xask   0.10571
gfz2012xkln   1.89900
gfz2012xlas  -0.57424
gfz2012xlfo  -0.23227
gfz2012xncm   0.15786
gfz2012xxdj  -0.23564
gfz2013aggr  -0.57113
gfz2013akkd  -0.06575
gfz2013bwgw  -0.13907
gfz2013byyy  -0.71341
gfz2013cpjc  -0.49408
gfz2013cvve   0.04604
gfz2013cyvx  -0.13401
gfz2013delq  -0.11287
gfz2013dftb   0.04232
gfz2013dzvr   0.24244
gfz2013eavq  -0.35312
gfz2013enqo   2.29750
gfz2013fmcd  -1.11940
gfz2013fnpa   0.15574
gfz2013fulo  -0.08112
gfz2013fvht  -0.28604
gfz2013fybd  -0.36657
gfz2013gkyn  -0.04137
gfz2013hbmi   0.29485
gfz2013hbtm  -0.00632
gfz2013icql   0.55523
gfz2013iuyv  -0.92750
gfz2013iwzn   1.16340
gfz2013jfcn   0.00795
gfz2013kjgh  -0.76611
gfz2013mzaw   0.13264
gfz2013ntiu   1.85520
gfz2013oeni  -0.39148
gfz2013oizq  -0.02143
gfz2013okac  -0.29814
gfz2013olos   0.10339
gfz2013oruq  -0.00747
gfz2013oywh  -0.41243
gfz2013phhi   0.08961
gfz2013pkmz   2.70720
gfz2013qoak  -0.33659
gfz2013quwz  -0.31364
gfz2013qxof   0.03780
gfz2013taeb   1.01260
gfz2013tdsx   0.03812
gfz2013ubgt  -0.91815
gfz2013utqa  -0.30736
gfz2013vjrr   0.44764
gfz2013wyfl   0.19413
gfz2014bdju  -0.14667
gfz2014cjao  -0.13525
gfz2014cokw   0.18149
gfz2014dihl   0.58190
gfz2014djyj  -0.19452
gfz2014epnq  -0.75940
gfz2014fsir  -0.01735
gfz2014fsje  -0.01490
gfz2014fxte  -0.07093
gfz2014fxuy  -0.34822
gfz2014gsfc  -5.27940
gfz2014hkcw  -0.02685
gfz2014iaqm  -0.57838
gfz2014icov   0.41829
gfz2014iltl  -0.06001
gfz2014inrg  -1.15390
gfz2014irlf  -0.09984
gfz2014irln  -0.39641
gfz2014irly  -0.31893
gfz2014iusw  -2.27470
