# Nsamples: 82  MAD:  0.640  mean: -0.037  std:  0.960
gfz2010crgy  -0.24773
gfz2010csmw  -0.56274
gfz2010dask   0.38445
gfz2010fjme  -1.08710
gfz2010habf  -0.23390
gfz2010mqaj   3.22210
gfz2010mqzz  -0.51624
gfz2010ngge  -0.73753
gfz2010tzma  -1.30900
gfz2010uhjy  -0.53136
gfz2010xnbn  -0.61937
gfz2010zjun  -0.62154
gfz2011ahvh   0.83853
gfz2011bpqm   0.80365
gfz2011bsvr  -0.60833
gfz2011dabj   1.10010
gfz2011dpyu  -0.42622
gfz2011gnbk   0.16334
gfz2011uqry  -1.24230
gfz2011vahy  -0.11137
gfz2011zghc   0.51757
gfz2012alti  -1.69710
gfz2012cvfr   0.28083
gfz2012ekfp   0.51745
gfz2012kmbo   0.36119
gfz2012kmmz  -0.19514
gfz2012ldjj   1.49190
gfz2012mdzf   1.18060
gfz2012ndwt  -0.20707
gfz2012nnqu  -0.90387
gfz2012nqvd   2.21570
gfz2012oafg  -0.16010
gfz2012oehy  -0.44470
gfz2012ofnx   0.64228
gfz2012phns   0.08741
gfz2012pmuj  -0.04007
gfz2012qfah   0.37369
gfz2012qllj  -1.25760
gfz2012socz  -0.33254
gfz2012ssnb   1.20790
gfz2012suqd  -0.28957
gfz2012svwz   0.52742
gfz2012sxbo  -0.61118
gfz2012syum  -1.09140
gfz2012tqjc  -0.18872
gfz2012uhtc  -0.38116
gfz2012ulei   0.66383
gfz2012uvoa  -0.46019
gfz2012wgmg   0.73369
gfz2012wysg  -0.42361
gfz2012xkln   0.75174
gfz2012xncm  -0.13494
gfz2012zhyz  -0.26690
gfz2013byyy  -0.38897
gfz2013cvve  -1.51290
gfz2013cyvx  -0.58330
gfz2013delq  -0.09927
gfz2013dftb  -0.54599
gfz2013dzvr  -0.11924
gfz2013fmcd  -0.46177
gfz2013fnpa  -0.05655
gfz2013fulo  -0.26926
gfz2013fvht  -0.06575
gfz2013fvyr  -0.39774
gfz2013utqa  -0.92714
gfz2013uwjo  -0.44966
gfz2013vjrr   1.86510
gfz2013vmrv  -1.42610
gfz2013vojy   0.21895
gfz2013vvre  -1.05300
gfz2013wyfl   0.27260
gfz2013xahp   0.39604
gfz2013xmzw  -0.57088
gfz2013xswc  -1.15520
gfz2013yqtu   0.86264
gfz2013yxhf   4.13550
gfz2013zfbz  -0.38864
gfz2014amgk  -0.79239
gfz2014ayxf   0.60851
gfz2014bgxe  -0.48241
gfz2014bkra   0.74245
gfz2014eoay  -0.53537
