# Nsamples: 22  MAD:  0.460  mean: -0.068  std:  0.662
gfz2014evhm   0.57920
gfz2014fdhk  -0.17864
gfz2014fgbn  -0.10968
gfz2014fhki  -0.52414
gfz2014fjfz  -0.06564
gfz2014flxk   0.42837
gfz2014fmdc   0.71197
gfz2014gnbw   0.16355
gfz2014grwv   0.40123
gfz2014gsfc  -0.57985
gfz2014gtoj  -0.50602
gfz2014herz  -0.14498
gfz2014hkcw   0.07049
gfz2014iaqm  -0.44817
gfz2014ijsa  -0.98489
gfz2014iltl   0.30793
gfz2014ined   0.47259
gfz2014inrg  -2.28210
gfz2014irlf   0.13792
gfz2014irln   0.48108
gfz2014iusw   0.19786
gfz2014iyuc   0.38514
