# Nsamples: 42  MAD:  0.424  mean:  0.008  std:  1.209
gfz2010tmba   4.73850
gfz2010ugws   0.70721
gfz2010yilf  -5.16320
gfz2011bpqm   0.43560
gfz2011uqry  -1.43660
gfz2011vahy  -0.81134
gfz2011vtdl   0.59620
gfz2012cdju  -0.47879
gfz2012cvfr   0.29203
gfz2012ekfp  -0.10346
gfz2012ldjj   0.18974
gfz2012suqd   0.58714
gfz2012svwz   0.48215
gfz2012uhsx  -0.38166
gfz2012uhtc  -0.19086
gfz2012uvoa  -0.20971
gfz2012uzww  -0.22290
gfz2013cyvx   0.38203
gfz2013fvht   0.22381
gfz2013icql   0.32771
gfz2013iuyv  -0.02533
gfz2013iwzn  -0.17154
gfz2013jfcn  -0.26481
gfz2013jobl  -0.33872
gfz2013kats  -0.66216
gfz2013kbbg   0.68366
gfz2013kbbn   0.00249
gfz2013kcdb  -0.16174
gfz2013kqab  -0.01607
gfz2013mdxj   0.17536
gfz2013mvgq   0.20119
gfz2013mzaw  -0.27131
gfz2013oizq  -0.02512
gfz2013oywh   1.21560
gfz2013pkmz  -0.64780
gfz2013qigb  -0.28412
gfz2013utqa  -0.34033
gfz2013uwjo  -0.06003
gfz2013vldx   0.16417
gfz2013vnwa   0.03340
gfz2013vojy  -0.25948
gfz2013vvre   1.43350
