# Nsamples: 61  MAD:  0.707  mean: -0.005  std:  0.703
gfz2010dask  -0.47506
gfz2010djib  -0.30656
gfz2010drit  -2.45040
gfz2011zghc   1.11220
gfz2012cvfr   0.61441
gfz2012ekfp  -0.41545
gfz2012iijk   1.13320
gfz2012kmbo   0.95584
gfz2012ldjj   1.07450
gfz2012mdzf   0.52041
gfz2012mjuu  -0.91669
gfz2012nqvd   0.63575
gfz2012oehy   0.19258
gfz2012phns  -0.26530
gfz2012qfah   0.42709
gfz2012qpoc  -0.20375
gfz2012uvoa   0.54365
gfz2012uzww   0.36012
gfz2012wgmg   0.14400
gfz2013akkd  -0.11395
gfz2013byyy  -0.01195
gfz2013cvve  -0.67065
gfz2013cyvx   0.24843
gfz2013dzvr   0.66000
gfz2013fnpa   0.04584
gfz2013fulo  -0.83958
gfz2013fvht  -0.11836
gfz2013icql  -0.88799
gfz2013iuyv  -0.99570
gfz2013jfcn   0.62553
gfz2013jobl   0.10412
gfz2013kats  -0.42145
gfz2013kbbg  -0.12095
gfz2013mvgq   0.70748
gfz2013oizq   0.24522
gfz2013qigb   0.08739
gfz2013qoak  -0.80779
gfz2013quwz   0.10353
gfz2013rdmn   1.12010
gfz2013utqa  -0.96901
gfz2013vmrv   0.35761
gfz2013vvre   0.26277
gfz2013wyfl   0.99440
gfz2013xahp   0.30949
gfz2013xmzw  -0.42188
gfz2013xswc  -0.63132
gfz2013yqtu  -0.51163
gfz2013zfbz   1.50710
gfz2013zlak  -1.01930
gfz2014amgk  -1.15190
gfz2014bkra   0.45845
gfz2014flxk  -0.79251
gfz2014fxte  -0.06347
gfz2014huqh   0.51633
gfz2014hzzf  -0.19131
gfz2014icov   0.08360
gfz2014iltl  -0.09403
gfz2014irlf  -0.39311
gfz2014irln  -0.51311
gfz2014iusw   0.19131
gfz2014jarg   0.12574
