# Nsamples: 12  MAD:  0.494  mean:  1.080  std:  1.597
gfz2010crgy   0.06181
gfz2010dask   0.57367
gfz2010habf   0.35171
gfz2010wplk   5.56110
gfz2010xpzq   0.68609
gfz2011ahvh   2.80790
gfz2011bpqm   0.90670
gfz2011dpyu   0.09625
gfz2011ndhh   0.31076
gfz2011nijp   0.16266
gfz2011niuw   1.11860
gfz2011oslk   0.32854
