# Nsamples: 110  MAD:  0.477  mean: -0.012  std:  0.684
gfz2010abfc  -0.64876
gfz2010abvu   0.52548
gfz2010aggj  -0.27952
gfz2010aimm  -0.53258
gfz2010aseg   0.25772
gfz2010bklj  -0.49591
gfz2010clbw   0.06606
gfz2010cllh   0.29412
gfz2010cphq   0.02191
gfz2010crgy  -0.43121
gfz2010crir   0.42113
gfz2010cyid   0.91600
gfz2010dask   0.59189
gfz2010djib  -0.68314
gfz2010drit   0.66441
gfz2010drun   0.05875
gfz2010dumv   0.94031
gfz2010fxut  -0.57921
gfz2010habf   0.32337
gfz2010hesh  -0.07624
gfz2010hxan  -0.51316
gfz2010iaay   0.58881
gfz2010izag   0.46431
gfz2010jlvp  -0.30701
gfz2010kcdq  -0.98511
gfz2010ngge   0.50462
gfz2010pclq   1.60830
gfz2010pcya  -1.82300
gfz2010pgpo   0.41955
gfz2010pngv  -2.80730
gfz2010rljv   0.09939
gfz2010rnwt   0.91266
gfz2010rpjd  -1.16280
gfz2010schp   0.30007
gfz2010tcgh   0.20149
gfz2010tmba   0.19474
gfz2010tpcj  -0.30954
gfz2010tzma   0.35683
gfz2010ugws   0.98451
gfz2010uhjy   0.34564
gfz2010uogw   0.55246
gfz2010vong   0.24851
gfz2010wakc  -0.15820
gfz2011wpzt   2.36590
gfz2012umob  -0.13843
gfz2012uvoa   0.01173
gfz2012vile  -0.19368
gfz2012vitw   0.10437
gfz2012vkjw  -0.10130
gfz2013cvve  -0.36744
gfz2013cyvx   0.03186
gfz2013dzvr   0.27568
gfz2013fnpa   0.26698
gfz2013fulo  -0.00617
gfz2013fvht   0.40110
gfz2013gkyn   1.50170
gfz2013icql  -0.13716
gfz2013iuyv  -1.07300
gfz2013iwzn   0.25151
gfz2013jfcn   0.38434
gfz2013jhog  -0.02226
gfz2013jobl  -0.26524
gfz2013kats  -0.07021
gfz2013kbbg  -0.02515
gfz2013kbbn  -0.15506
gfz2013kcdb   0.16467
gfz2013kjgh  -0.31901
gfz2013kpcb   0.38005
gfz2013lbod  -0.24191
gfz2013lbvl  -0.31950
gfz2013lgvf  -0.44307
gfz2013mdxj   0.06282
gfz2013mzaw   0.00974
gfz2013ntiu   1.81940
gfz2013oizq  -1.66560
gfz2013osmj   0.10930
gfz2013pizm  -1.27230
gfz2013qdpv  -0.60209
gfz2013qoak   0.06337
gfz2013quwz  -0.45039
gfz2013qxof  -0.03014
gfz2013rdmn  -0.90897
gfz2013skvq  -0.48702
gfz2013tjub  -0.12853
gfz2013udtw  -0.00978
gfz2013ujze  -0.61836
gfz2013unuv  -0.81239
gfz2013utqa  -0.24970
gfz2013uwjo   0.05915
gfz2013uxzw   0.72017
gfz2013vcgd  -0.69091
gfz2013veug  -0.18849
gfz2013vjrr  -0.13783
gfz2013vldx  -0.52070
gfz2013vmrv   0.59728
gfz2013voai  -0.04501
gfz2013vojy  -0.22819
gfz2013vvre   0.94683
gfz2013vzel  -0.05953
gfz2013xahp  -0.20261
gfz2013xmzw   0.71539
gfz2013xswc   0.11025
gfz2013ykkf   0.40162
gfz2013yodm  -0.16881
gfz2013yqtu   0.13783
gfz2013zfbz   0.00693
gfz2014ayxf   0.48097
gfz2014bkra  -0.06137
gfz2014cokw  -0.83916
gfz2014dihl  -0.54105
