# Nsamples: 26  MAD:  0.420  mean: -0.384  std:  0.638
gfz2010aggj  -0.25340
gfz2010clbw  -0.06348
gfz2010cllh  -0.34923
gfz2010crgy  -0.35658
gfz2010crir  -0.61880
gfz2010csle  -0.06235
gfz2010csqy  -0.61606
gfz2010dask  -0.19249
gfz2010drit   0.29134
gfz2010drml  -0.69498
gfz2010drmq  -0.69498
gfz2010drun  -0.22462
gfz2010dxhq  -0.69930
gfz2010eibh   0.43920
gfz2010fgbo   0.10070
gfz2010fjio  -0.07179
gfz2010fjme  -0.77458
gfz2010fkff  -0.40771
gfz2010fopf   0.15851
gfz2010fqnn  -2.74640
gfz2010fvfz  -0.12663
gfz2010fxut   0.13091
gfz2010gonu  -0.40457
gfz2010habf  -0.14518
gfz2010hesh  -0.01264
gfz2010hllp  -1.59560
