# Nsamples: 40  MAD:  1.311  mean:  1.642  std:  1.783
gfz2010cllh   0.72280
gfz2010cngg   0.75810
gfz2010dask   2.21080
gfz2010ddan  -3.28250
gfz2010djib   0.02003
gfz2010dmij   0.08009
gfz2010drml   4.36010
gfz2010drmq   4.36010
gfz2010mqzz   7.89810
gfz2010pzza   2.16040
gfz2010qloa   4.86980
gfz2010qrta   0.75593
gfz2010tmba   2.58500
gfz2010uhjy   2.31510
gfz2010vong   2.25200
gfz2011ahvh   3.32500
gfz2011bpqm   0.44197
gfz2011dpyu   1.91030
gfz2011gnbk   1.98890
gfz2011hjof   0.80379
gfz2011kjzt   2.56490
gfz2011kjzv   0.97240
gfz2011ndhh   1.14440
gfz2011niuw   2.62690
gfz2011oslk   1.10310
gfz2011sdax   2.18710
gfz2011tsgl   1.18220
gfz2011vahy   1.05410
gfz2012cvfr   1.76350
gfz2012ekfp   1.35610
gfz2012mjuu   0.66280
gfz2012zhyz   2.58880
gfz2013cyvx   2.37810
gfz2013hbmi  -0.80386
gfz2013iuyv   1.87160
gfz2013kats   1.22350
gfz2013qapj   0.32932
gfz2013skvq  -0.53703
gfz2013uenl   0.57392
gfz2013vmsg   0.91668
