# Nsamples: 71  MAD:  0.961  mean: -0.112  std:  1.283
gfz2010djib  -1.51790
gfz2010habf  -0.65028
gfz2010jlvp  -5.30830
gfz2010mdti   0.83654
gfz2010mqzz  -0.22803
gfz2010ngge   0.83943
gfz2010okpc   1.37230
gfz2010pcya  -0.54190
gfz2010pgpo   0.17600
gfz2010pzza  -0.21715
gfz2010sdfs   1.99390
gfz2010uhjy  -0.37921
gfz2010vong   0.44034
gfz2010zjun  -1.10580
gfz2011cjuz   0.46853
gfz2011dpyu  -0.77536
gfz2011gnbk   0.96636
gfz2011hjof   0.92907
gfz2011lwmg  -1.35550
gfz2011mllb  -0.70618
gfz2011ndhh   0.15262
gfz2011neai  -1.40990
gfz2011nejg   0.38671
gfz2011nejw   0.30512
gfz2011nfcz  -0.68691
gfz2011nftw   0.35976
gfz2011nhwf  -0.33690
gfz2011nijp  -0.61381
gfz2011nilw   0.09909
gfz2011niuw   0.24510
gfz2011nlmf  -0.69709
gfz2011nlum   1.69920
gfz2011nnda   1.48660
gfz2011nuqo   1.17530
gfz2011ofpj  -0.92210
gfz2011oslk  -0.29847
gfz2011osmp   0.81613
gfz2011owqa  -1.06320
gfz2011pfwq   0.74667
gfz2011pwbw   0.86161
gfz2011sdax  -0.59520
gfz2011tsgl  -0.23078
gfz2012iijk  -0.87311
gfz2012kmbo  -0.15143
gfz2012ldjj   1.93060
gfz2012mhik   0.30814
gfz2012oafg  -1.17430
gfz2012qpoc  -0.40724
gfz2012syum  -1.16760
gfz2013dzvr   1.13060
gfz2013icql   0.21357
gfz2013iuyv  -0.26627
gfz2013jlli   2.26550
gfz2013kats  -0.66901
gfz2013kbbg  -0.15741
gfz2013kcdb   0.40749
gfz2013lbvl  -0.49838
gfz2013phhi  -0.82606
gfz2013qoak  -1.26660
gfz2013quwz   0.55075
gfz2013vmrv  -0.79978
gfz2013wyfl   0.69146
gfz2013xahp   0.83555
gfz2014fsir  -0.77958
gfz2014fxte   0.67487
gfz2014icov  -0.01047
gfz2014iltl  -1.37950
gfz2014irlf   0.05130
gfz2014irln   1.66340
gfz2014jarg   0.59060
gfz2014jfmc  -5.55280
