# Nsamples: 94  MAD:  0.897  mean: -0.009  std:  1.055
gfz2010btme  -0.35084
gfz2010cllh   0.84091
gfz2010cphq  -0.77953
gfz2010cthm   0.82166
gfz2010drit  -0.50084
gfz2010dtyx   0.88369
gfz2010ewyj   0.86976
gfz2010fvfz  -0.12673
gfz2010fxut  -0.24342
gfz2010gxki   3.69370
gfz2010hnuo   0.77135
gfz2010hueh  -1.89760
gfz2010huzl  -0.10072
gfz2010iaay  -0.46238
gfz2010kzzm   1.63590
gfz2010mqaj   0.41808
gfz2010qdqk  -0.06684
gfz2010qzvf   1.17900
gfz2010rhvu  -0.49542
gfz2010vyri   0.65740
gfz2010wigk   0.71178
gfz2010xkbz   0.09943
gfz2010yhhj   0.85766
gfz2010yspe  -2.78230
gfz2010zaxv   0.06744
gfz2011afyc  -2.76200
gfz2011amst   1.66290
gfz2011boaz   0.34935
gfz2011bqbx  -1.38800
gfz2011bvog   3.58030
gfz2011cdge  -1.10930
gfz2011duvm   1.87250
gfz2011exxq  -0.70421
gfz2011fnie   0.26292
gfz2011gcct  -0.10778
gfz2011hibi   0.28921
gfz2011hjof  -0.07268
gfz2011hvzo  -1.36530
gfz2011hyuh   0.58194
gfz2011inan   0.62017
gfz2011ioch  -2.52540
gfz2011jeta   0.48045
gfz2011jfyb   0.26619
gfz2011xwdv  -1.44460
gfz2012arlo   0.52051
gfz2012auqr   1.47290
gfz2012avvc   0.60842
gfz2012cksh   0.70253
gfz2012dbgt  -0.34043
gfz2012dleg  -0.10278
gfz2012dpem  -0.55555
gfz2012foih  -0.96784
gfz2012gmsr  -0.68910
gfz2012jxxe   0.83769
gfz2012ogqu  -0.08570
gfz2012qmhz  -0.17180
gfz2012suqd  -0.67095
gfz2012tisj  -0.05548
gfz2012wowu  -0.73136
gfz2012xwkx   0.18316
gfz2012zkhu  -1.29300
gfz2013adih   0.20048
gfz2013bwgw  -0.77153
gfz2013cokc  -0.27713
gfz2013ddrx   0.13241
gfz2013delq  -0.70927
gfz2013dngd  -0.19880
gfz2013dznt   0.93724
gfz2013hdbp   2.16330
gfz2013kbbg   0.05215
gfz2013kcdb  -0.95091
gfz2013mvgq  -0.61533
gfz2013oywh  -1.21740
gfz2013pvsa   0.60977
gfz2013stup  -0.18305
gfz2013syqv  -0.83064
gfz2013taeb   0.09863
gfz2013tert  -0.36557
gfz2013upqj  -0.00404
gfz2013vmsg  -0.72111
gfz2013vnwa  -0.12357
gfz2013xuxr  -1.55200
gfz2013yawe   0.58401
gfz2013yodm  -0.21964
gfz2013zkta  -0.06234
gfz2013zlak  -0.25896
gfz2014afbt   0.00000
gfz2014bkra  -0.44569
gfz2014epnq  -0.32581
gfz2014etqu   0.29283
gfz2014flxk  -0.63166
gfz2014iaqm   0.67743
gfz2014ijsa  -0.17563
gfz2014inrg   1.22200
