# Nsamples: 57  MAD:  0.614  mean: -0.075  std:  0.886
gfz2011ndhh  -1.69710
gfz2011nfcz   0.34639
gfz2011niuw   0.89455
gfz2011nnda   0.55260
gfz2011ofpj   0.92147
gfz2011oslk  -0.28755
gfz2011pdsn   1.16460
gfz2011pmuv  -0.30846
gfz2011prrq  -0.17132
gfz2011rkau   0.63819
gfz2011sdax   1.32240
gfz2011tsgl   0.34792
gfz2011ugbt  -1.40490
gfz2011uqry   0.05288
gfz2011vahy   0.28112
gfz2011wngi  -3.56610
gfz2011zghc  -0.39955
gfz2012bolx  -0.04471
gfz2012bqcf  -0.05967
gfz2012uvoa  -0.69242
gfz2012uzww   0.33679
gfz2012wicr  -0.78787
gfz2012xlfo   0.18000
gfz2013dftb   0.14300
gfz2013fvyr   0.81583
gfz2013icql   0.07898
gfz2013jfcn  -0.51339
gfz2013kats  -0.22966
gfz2013kbbg  -0.39754
gfz2013kcdb  -1.18080
gfz2013mdxj  -0.92927
gfz2013ohnj  -0.46538
gfz2013oywh   2.27810
gfz2013phhi   0.16582
gfz2013pkmz  -0.18654
gfz2013qapj   1.56040
gfz2013qigb   0.07379
gfz2013qnqr  -0.29740
gfz2013qoak   0.55761
gfz2013quwz  -0.97430
gfz2013quyn  -0.23635
gfz2013veug   0.20400
gfz2013wyfl   0.66910
gfz2013yodm  -0.92296
gfz2013yqtu   0.09776
gfz2014bdju   0.12843
gfz2014dtth   0.16085
gfz2014eoay  -0.11759
gfz2014fxte   0.71146
gfz2014icov  -0.88673
gfz2014iltl  -1.66690
gfz2014irlf  -0.05457
gfz2014irln  -0.35226
gfz2014iusw   0.46670
gfz2014jarg   0.17508
gfz2014jbfp   0.09643
gfz2014jcbj  -0.84981
