# Nsamples: 503  MAD:  0.499  mean: -0.037  std:  0.794
gfz2010aggj   0.01299
gfz2010aseg  -0.37524
gfz2010bqnk  -0.36492
gfz2010btme   0.96547
gfz2010bukb  -0.41269
gfz2010bvit  -0.12606
gfz2010ccye   0.77635
gfz2010clbw   0.13247
gfz2010cllh  -3.19870
gfz2010crgy   0.26139
gfz2010crir  -0.09005
gfz2010dask   1.04810
gfz2010djib   0.27817
gfz2010dmkd   0.02150
gfz2010drit  -0.48397
gfz2010drml   0.26153
gfz2010drmq   0.26153
gfz2010drng   0.72913
gfz2010dumv  -0.14212
gfz2010fgbo  -0.12845
gfz2010fjme   0.42075
gfz2010fopf  -0.11077
gfz2010fvfz   0.42579
gfz2010habf   0.03134
gfz2010hueh   1.23150
gfz2010hxan  -0.39937
gfz2010iaay   0.56854
gfz2010jkrp   0.00000
gfz2010jlvp  -0.49307
gfz2010kcyz   0.02215
gfz2010mdti  -0.02684
gfz2010mguv   0.16009
gfz2010mpvc   0.60667
gfz2010mqaj  -0.80515
gfz2010mqzz  -0.24786
gfz2010msss  -0.62374
gfz2010ngge  -0.24771
gfz2010nkrw  -0.78301
gfz2010nlai   0.68147
gfz2010nwbd   0.17539
gfz2010nwyk  -0.07717
gfz2010okpc  -0.06111
gfz2010pclq   1.45600
gfz2010pcya   1.44210
gfz2010pdip  -0.79152
gfz2010pgpo  -0.48244
gfz2010pvnn  -0.18015
gfz2010pxoi   0.28487
gfz2010pzza   0.49001
gfz2010qbcy  -0.16130
gfz2010qdqk   0.64828
gfz2010qloa   0.04376
gfz2010qqqx   0.31773
gfz2010qrta  -2.47530
gfz2010qzvf  -0.00000
gfz2010rdep   0.13346
gfz2010rhvu  -0.91158
gfz2010rkuu  -0.24106
gfz2010rnwt  -0.11350
gfz2010sdfs   0.14729
gfz2010sftm  -0.20665
gfz2010swqy   0.05881
gfz2010tcgh   1.88610
gfz2010tpcj  -0.35475
gfz2010ugws  -0.95672
gfz2010uhjy   0.16975
gfz2010umxj  -0.58731
gfz2010upod   0.70518
gfz2010uraq   1.09780
gfz2010ussf   2.08580
gfz2010vhzx   0.08447
gfz2010vong   0.00817
gfz2010wakc  -0.02966
gfz2010wigk  -0.20703
gfz2010wplk   0.14073
gfz2010xkbz   0.84142
gfz2010xnbn  -0.49671
gfz2010xpzq  -0.30449
gfz2010yczp   0.07429
gfz2010yfdr   0.18353
gfz2010yhhj  -0.06619
gfz2010yspe  -1.05030
gfz2010zhvj   0.64624
gfz2010zjun  -0.25873
gfz2010zkle   1.28040
gfz2011afyc  -0.71006
gfz2011ahvh  -0.12853
gfz2011amst  -0.23921
gfz2011bazz   1.15970
gfz2011bcvc  -0.18102
gfz2011bpqm   0.18208
gfz2011bsvr  -0.51491
gfz2011bvog   4.09440
gfz2011bwsm  -0.04448
gfz2011bygs  -0.64253
gfz2011bygu   0.11363
gfz2011cdge  -1.03540
gfz2011cjuz  -0.24291
gfz2011dabj  -0.34661
gfz2011duvm   0.06806
gfz2011exxq   4.53250
gfz2011fnie  -0.96403
gfz2011fszl   0.26184
gfz2011fzcw   0.25325
gfz2011gaax  -0.29396
gfz2011gnbk  -0.06961
gfz2011gpyr  -0.20085
gfz2011hibi  -0.75606
gfz2011hjof   0.22605
gfz2011hqjs   0.26144
gfz2011hvzo  -0.53327
gfz2011hyuh   1.61630
gfz2011ibew   3.70980
gfz2011inan   0.77884
gfz2011ioch  -0.73014
gfz2011iryz   0.15712
gfz2011ituo  -0.37532
gfz2011jdoz   0.04728
gfz2011jfyb   0.16197
gfz2011kfch  -1.07770
gfz2011kjzt   0.24412
gfz2011kjzv  -0.59713
gfz2011kylu   0.08457
gfz2011kymm  -0.61545
gfz2011lkkf   0.57194
gfz2011lmug  -0.30226
gfz2011lykm  -1.73290
gfz2011mdyq  -0.37657
gfz2011mjje  -0.21279
gfz2011mllb  -0.62434
gfz2011mror  -0.21510
gfz2011nblt   0.69026
gfz2011ndhh   0.22567
gfz2011ndki  -0.72318
gfz2011ndlh  -0.07069
gfz2011ndoe   1.92320
gfz2011ndse   0.60973
gfz2011ndvj  -0.62514
gfz2011ndyk  -0.49083
gfz2011neai   0.14116
gfz2011nejg  -0.85527
gfz2011nejw   0.58071
gfz2011nerb   0.30531
gfz2011nfcz   0.03580
gfz2011nfgt  -1.99310
gfz2011nfih   0.31552
gfz2011nfln   0.05481
gfz2011nftw   0.66495
gfz2011nfww   0.71816
gfz2011nhby   0.73108
gfz2011nhjv  -0.74863
gfz2011nhvt   2.27870
gfz2011nhwf   0.24563
gfz2011nifi   0.03282
gfz2011nihq   0.84645
gfz2011nijp  -0.63022
gfz2011nilw   0.53005
gfz2011niuw   0.51524
gfz2011nkou   3.08450
gfz2011nlmf  -0.62433
gfz2011nlnl  -0.17236
gfz2011nlum  -2.23880
gfz2011npaf  -0.75455
gfz2011npeu  -0.91767
gfz2011nsiy  -0.55852
gfz2011nsrx   0.50268
gfz2011nssr  -0.28166
gfz2011nuqo   0.10008
gfz2011nvty  -0.96582
gfz2011nyzk  -0.17042
gfz2011oadm  -0.45522
gfz2011oazk   0.04505
gfz2011ocif  -0.80295
gfz2011ofpj  -0.33812
gfz2011okza   0.51136
gfz2011omxt   0.67681
gfz2011osmp  -0.14113
gfz2011owqa   0.58883
gfz2011paqj  -0.02627
gfz2011pdsn  -0.32193
gfz2011pfls   0.16524
gfz2011pfwq  -0.61884
gfz2011pivq  -0.20100
gfz2011pphc   0.15800
gfz2011ppsc  -0.21698
gfz2011prrq  -0.39621
gfz2011ptgd   0.38293
gfz2011qgea   1.82390
gfz2011qhjw   0.75665
gfz2011qklh  -1.38470
gfz2011qowe  -0.18984
gfz2011qukj   0.03906
gfz2011rkau  -1.16060
gfz2011rnny   0.30509
gfz2011rnsp  -0.39581
gfz2011rplo   0.11306
gfz2011scma  -0.53245
gfz2011sdax  -0.31330
gfz2011sqco  -1.02950
gfz2011sskq   0.22477
gfz2011sxno   0.06299
gfz2011taqr  -0.15008
gfz2011tgon   0.06844
gfz2011tsgl  -0.18249
gfz2011twpz  -0.49053
gfz2011txxs   0.68535
gfz2011udjs  -0.40264
gfz2011udxo  -0.28491
gfz2011ugbt  -0.46826
gfz2011uqry  -0.08675
gfz2011urwz  -0.74566
gfz2011uvsi   0.26962
gfz2011vahy   0.11700
gfz2011vcyx  -0.68312
gfz2011wkyx  -0.77152
gfz2011xgwy  -0.06777
gfz2011xkka  -0.54019
gfz2011xlod  -0.69470
gfz2011xwdv  -0.36636
gfz2011yeck   0.29476
gfz2011yexx  -0.47239
gfz2011ykbd  -1.51680
gfz2011ytwk  -1.35010
gfz2011zghc   0.20279
gfz2011zgxn   0.37736
gfz2012ahkl   0.34578
gfz2012amjx   0.14455
gfz2012amvs   0.15371
gfz2012arlo   0.80869
gfz2012asin   3.09570
gfz2012auqr   0.15162
gfz2012avvc   0.15328
gfz2012beae  -0.04659
gfz2012bolx  -0.19077
gfz2012byrq  -0.03253
gfz2012byuk   0.24176
gfz2012cdju  -0.22784
gfz2012cksh   0.32434
gfz2012cmww  -0.25903
gfz2012cntu  -0.38477
gfz2012cvfr  -0.23720
gfz2012dbgt   0.42583
gfz2012dejg   0.36082
gfz2012dpem  -0.47474
gfz2012dpnu   0.11101
gfz2012dtdt  -0.23338
gfz2012dtvr  -0.59642
gfz2012dugf  -0.35184
gfz2012dwwu  -0.19400
gfz2012dysj  -1.29480
gfz2012dysu   0.22859
gfz2012dzen  -0.66248
gfz2012dzot   0.07168
gfz2012ekfp   0.34636
gfz2012eyti  -0.45374
gfz2012fcyq  -0.01836
gfz2012fcyr  -0.05118
gfz2012fhaf  -0.22084
gfz2012foih  -0.43681
gfz2012fyny  -0.01334
gfz2012ghiv   0.93185
gfz2012gjdg   0.44581
gfz2012gjtd   0.20477
gfz2012hvjc   0.40742
gfz2012hyqh   1.95220
gfz2012hzhn  -0.32400
gfz2012hzur  -0.84838
gfz2012iblo   0.53208
gfz2012jlez   0.25446
gfz2012jopi   0.54431
gfz2012kmbo   0.84360
gfz2012kmmz  -0.42029
gfz2012kstg   0.46632
gfz2012kyhj   2.89240
gfz2012ldjj  -0.07054
gfz2012lngq  -0.14443
gfz2012lqhw   0.17022
gfz2012lwha   0.30753
gfz2012mdzf   0.35425
gfz2012mjuu  -0.00721
gfz2012mrqk   0.41513
gfz2012mrwu   0.02447
gfz2012mzco   0.25276
gfz2012nnqu   0.23034
gfz2012nqvd  -0.08942
gfz2012nsxc  -0.07067
gfz2012oafg  -0.29383
gfz2012oehy   0.35738
gfz2012ofnx   0.88943
gfz2012oieq   3.83650
gfz2012onfs  -0.20668
gfz2012onhu  -0.48681
gfz2012oork  -0.46938
gfz2012oozp  -0.31169
gfz2012oxnh   0.43847
gfz2012pdfi   2.39920
gfz2012phns  -0.46309
gfz2012pmuj   1.00970
gfz2012pumy  -0.22275
gfz2012pziw   0.97765
gfz2012qbbt  -0.20196
gfz2012qfah   0.39043
gfz2012qmhz  -0.17242
gfz2012qvwy   0.22752
gfz2012rjlp  -0.68360
gfz2012rknz   0.20652
gfz2012rnml  -0.96053
gfz2012rzwp   0.42101
gfz2012sbix   0.38502
gfz2012scuk   0.49068
gfz2012socz  -0.23422
gfz2012sopp   0.35865
gfz2012sqsc   0.13006
gfz2012ssnb  -0.31763
gfz2012suqd   0.11675
gfz2012sxpr  -0.04079
gfz2012syum   0.13697
gfz2012tisj   0.46295
gfz2012tjih  -0.67892
gfz2012uhtc  -0.12445
gfz2012ulei  -0.62306
gfz2012uvoa  -0.08282
gfz2012vitw  -0.25563
gfz2012vkjw  -0.37123
gfz2012vurc  -0.06367
gfz2012wgdv  -0.25325
gfz2012wgmg   0.97708
gfz2012wiyv   0.07650
gfz2012wjpf  -0.22111
gfz2012wjsi  -1.80720
gfz2012wjxc  -0.26703
gfz2012wkki   0.21320
gfz2012wmas  -0.09935
gfz2012wowu  -0.83766
gfz2012wysg  -0.13945
gfz2012xcsf   0.31495
gfz2012xkln   0.24143
gfz2012xlas  -0.02609
gfz2012xlfo  -0.45337
gfz2012xncm  -0.77824
gfz2012xqxw  -0.91144
gfz2012xxdj  -0.46733
gfz2012yzcf  -0.55946
gfz2012zido  -0.12316
gfz2012zmfc   0.50503
gfz2012znou   0.20260
gfz2013bqfc   0.28264
gfz2013bwgw  -1.11570
gfz2013ccng  -0.20776
gfz2013cfls  -0.77762
gfz2013ciof   0.08408
gfz2013cyvx  -0.12684
gfz2013dftb  -0.25268
gfz2013dfvx  -1.08530
gfz2013dngd  -0.57017
gfz2013dtjl  -0.20132
gfz2013dzvr  -0.47742
gfz2013efys  -0.17302
gfz2013eidd  -0.12542
gfz2013esef   0.78019
gfz2013ffjt   0.32033
gfz2013fmcp  -0.93874
gfz2013fndg  -0.80587
gfz2013fnpa  -0.11707
gfz2013frxd   2.81800
gfz2013fulo  -0.42585
gfz2013fvyr   0.76020
gfz2013fxyr   0.09976
gfz2013fybd   0.08910
gfz2013gsnl   0.02227
gfz2013gugi   0.19122
gfz2013havw  -0.17811
gfz2013hdbp   0.97240
gfz2013hduf  -0.09493
gfz2013hjtt  -0.20029
gfz2013hqaa   1.33850
gfz2013hwps  -0.79922
gfz2013icql   0.27368
gfz2013idqu   0.74383
gfz2013irme   0.16704
gfz2013iuyv   0.15015
gfz2013iwzn  -0.18893
gfz2013jfcn  -0.10173
gfz2013jhog  -0.11177
gfz2013jqsk  -1.16220
gfz2013jtsg   0.83202
gfz2013kats   0.13922
gfz2013kbbg   0.15362
gfz2013kbkp   0.77060
gfz2013kcdb  -0.57730
gfz2013kjgh  -0.67673
gfz2013kpcb   0.16469
gfz2013kqab   0.11763
gfz2013kslp   0.26853
gfz2013lbvl  -0.40012
gfz2013lgvf  -0.32549
gfz2013ljdu  -0.65632
gfz2013mimp   0.18785
gfz2013mvgq  -0.60324
gfz2013mynb   0.92010
gfz2013mzaw   0.03178
gfz2013njwj   0.44093
gfz2013nkgd   0.38198
gfz2013oizq  -0.40270
gfz2013olos   0.76766
gfz2013onvl   0.00000
gfz2013opkx  -0.55414
gfz2013orot   0.54423
gfz2013osmj  -0.77404
gfz2013otuj  -0.25203
gfz2013oywh  -1.07380
gfz2013phhi  -2.30380
gfz2013pkmz   0.31099
gfz2013pqkp  -0.11703
gfz2013pvsa  -0.62053
gfz2013qaov   0.61098
gfz2013qmkt  -1.21570
gfz2013qoak  -2.60050
gfz2013quwz  -0.57200
gfz2013qxof   0.11046
gfz2013rdmn   0.42978
gfz2013rofg   0.95282
gfz2013rsyt  -0.27398
gfz2013ryph  -0.36636
gfz2013sbsp  -0.15192
gfz2013sdkg  -0.08410
gfz2013skay  -1.34140
gfz2013stup  -0.18154
gfz2013taeb  -1.03310
gfz2013tdsx  -0.36853
gfz2013tert  -0.76089
gfz2013udtw   0.25465
gfz2013ujze  -0.71649
gfz2013unuv   0.00000
gfz2013upqj  -0.44355
gfz2013urla  -0.45794
gfz2013uwxb  -0.25080
gfz2013uxzw  -0.14624
gfz2013uzmf  -0.01105
gfz2013vjrr  -0.51780
gfz2013vmrv  -0.28750
gfz2013vmsg  -0.57071
gfz2013vmsn  -0.10267
gfz2013vnwa  -0.04465
gfz2013vvre   0.01508
gfz2013vzel  -0.28892
gfz2013wyfl  -0.56577
gfz2013xahp  -0.38861
gfz2013xmzw  -0.15592
gfz2013xofz  -0.59758
gfz2013xswc  -0.36805
gfz2013yawe  -0.04536
gfz2013yodm  -0.54860
gfz2013yqtu   0.28312
gfz2013zfbz   0.03347
gfz2013zkta  -0.77255
gfz2013zlak  -0.38992
gfz2013zpse  -0.56741
gfz2014aedl   0.39252
gfz2014ajgi   0.00000
gfz2014aqop  -0.06339
gfz2014ayxf  -0.32768
gfz2014bdju  -0.40733
gfz2014bkra  -0.20033
gfz2014bnea   0.07866
gfz2014bqpm   0.04997
gfz2014bumr  -0.48670
gfz2014bzus  -0.32978
gfz2014cgxj  -0.75682
gfz2014cjao  -0.07656
gfz2014cwcj  -1.30880
gfz2014cwti  -0.18697
gfz2014dbmu  -0.37096
gfz2014diuu  -0.20426
gfz2014dwcp  -1.46630
gfz2014dykt   0.75357
gfz2014eirs   0.33948
gfz2014epnq   0.15710
gfz2014epue  -3.72280
gfz2014etqu  -0.29064
gfz2014flxk  -0.31840
gfz2014fsir  -0.41537
gfz2014fskh  -0.92071
gfz2014fwuf  -0.07900
gfz2014fxte  -0.47302
gfz2014fxtv  -0.13351
gfz2014fxuy  -0.27530
gfz2014gnbw   0.04071
gfz2014gnvp   0.49426
gfz2014gssz  -0.51793
gfz2014gypw  -0.83598
gfz2014hapg   0.31004
gfz2014huqh  -0.72598
gfz2014hyea   0.30356
gfz2014hzzf   0.00745
gfz2014icov   0.16554
gfz2014ijsa  -0.25119
gfz2014inrg  -0.29959
gfz2014irln  -0.03143
gfz2014irly  -0.16867
gfz2014iusw   0.18174
gfz2014jarg   0.23688
gfz2014jayh  -0.34915
