# Nsamples: 36  MAD:  0.694  mean:  0.228  std:  1.112
gfz2010xpzq  -0.40255
gfz2011wkyx  -0.30435
gfz2011ykbd   0.14009
gfz2012auqr   1.15120
gfz2012dbgt  -0.43894
gfz2012dpem   1.07290
gfz2012gmsr  -1.01280
gfz2012moul   0.02952
gfz2012movu  -0.12874
gfz2012nqvd   1.91990
gfz2012qfov   4.66290
gfz2012qmhz   0.65374
gfz2012trfq   0.88412
gfz2012ukzg  -0.16088
gfz2012ulei  -0.40408
gfz2012wowu  -1.07010
gfz2012yegw  -0.26488
gfz2012zkhu  -0.87389
gfz2013agbm   0.40464
gfz2013bwgw  -1.07160
gfz2013dngd  -0.14430
gfz2013dwsp   1.27540
gfz2013mvgq  -1.53030
gfz2013nhkw   0.40533
gfz2013oywh   0.47258
gfz2013pvsa   0.91938
gfz2013taeb  -0.85915
gfz2013tert   0.27748
gfz2013uxzw   1.48890
gfz2013vmsg   0.38080
gfz2013vnwa  -0.27579
gfz2013xmzw   1.45880
gfz2013yawe   0.43139
gfz2013zpse  -0.30775
gfz2014bkra  -0.20308
gfz2014etqu  -0.37174
