# Nsamples: 304  MAD:  0.938  mean: -0.082  std:  1.682
gfz2011bzio   0.07385
gfz2011cwzi   0.32740
gfz2011cxdj   0.50954
gfz2011dabj   1.39620
gfz2011dbzc  -0.90235
gfz2011dhfg   0.00391
gfz2011dpyu   0.37700
gfz2011duvm   1.60880
gfz2011dwae   0.32605
gfz2011fges  -0.64041
gfz2011fnie   3.43510
gfz2011fszl   0.09100
gfz2011fyfu  -0.62404
gfz2011fzcw  -0.92024
gfz2011gdli  -0.66975
gfz2011gnbk   0.80214
gfz2011gpyr   0.80271
gfz2011haaa   3.35570
gfz2011hatg  -0.72571
gfz2011hjof  -0.36245
gfz2011hqjs   1.07330
gfz2011hyct   0.06454
gfz2011iamf  -0.45631
gfz2011ibew  -1.02820
gfz2011ioch  -4.57170
gfz2011itcv   0.99155
gfz2011ituo  -0.06023
gfz2011kymm  -4.53440
gfz2011lkkf  -0.02563
gfz2011lmug   1.34010
gfz2011lxga   1.22060
gfz2011mjje  -0.66495
gfz2011mllb   0.84831
gfz2011mzvn   0.16708
gfz2011ndhh  -1.36510
gfz2011neai  -3.56740
gfz2011nfcz  -0.81978
gfz2011nnda   0.26697
gfz2011oadm   0.66674
gfz2011ofpj   0.68165
gfz2011ohgj  -0.79829
gfz2011oslk  -0.90697
gfz2011owqa  -1.31920
gfz2011paqj  -0.09622
gfz2011pcqr   0.32364
gfz2011pdgq  -0.36677
gfz2011pfwq  -2.46760
gfz2011pphc   0.46400
gfz2011prrq   0.49188
gfz2011qenl  -0.89640
gfz2011qhjw   1.68440
gfz2011qowe  12.15300
gfz2011rczb   0.94965
gfz2011rkau  -1.49440
gfz2011rnny   0.12052
gfz2011scma   0.07260
gfz2011sdax   0.34258
gfz2011sqco  -1.50620
gfz2011sskq  -0.93624
gfz2011sxno   0.55053
gfz2011tqgg   0.79042
gfz2011tsgl  -0.74765
gfz2011tvuv   0.21231
gfz2011tzcv  -0.11182
gfz2011ugbt  -0.41728
gfz2011uqry  -0.27453
gfz2011urwz  -2.16310
gfz2011vahy   0.75873
gfz2011vaoi   0.63677
gfz2011vcyx  -1.49320
gfz2011vimn   3.90620
gfz2011vsag  -1.19030
gfz2011vswj  -0.69352
gfz2011vtdl  -2.07480
gfz2011wkja  -0.38625
gfz2011wpzt   0.54606
gfz2011wqup   0.06883
gfz2011wwze   0.04902
gfz2011wzss  -1.04320
gfz2011xkka  -2.07710
gfz2011xlod  -1.87140
gfz2011xnui   1.04520
gfz2011yrfa  -1.73420
gfz2011zghc  -0.72519
gfz2011zgxn   1.97530
gfz2011ziyk  -0.65774
gfz2011znyq   2.36900
gfz2012amjx   3.54140
gfz2012aqpa  -0.91207
gfz2012beae  -1.04080
gfz2012bqcf  -0.13990
gfz2012cdju  -0.11092
gfz2012cfdw  -0.45094
gfz2012cksh   1.36790
gfz2012cmww  -0.10484
gfz2012cntu  -0.01658
gfz2012cvfr  -0.75022
gfz2012dejg   0.70432
gfz2012dpnu   1.88060
gfz2012dtlu  -1.97500
gfz2012dysu   3.09170
gfz2012dzjo   1.26350
gfz2012ebrr   0.19204
gfz2012eeft  -0.05495
gfz2012ekfp   0.20949
gfz2012elek   0.43455
gfz2012fcyr   1.63020
gfz2012fuyd  -1.67940
gfz2012fyny   1.00880
gfz2012gftg   0.38047
gfz2012ghiv   1.78560
gfz2012gjdg  -0.84784
gfz2012gnow  -0.47637
gfz2012gvxc   0.50548
gfz2012hdny  -0.12004
gfz2012hhlx   1.46510
gfz2012hwph   0.89419
gfz2012hzhn  -0.18482
gfz2012hzur   3.48870
gfz2012iblc   0.09686
gfz2012iblo  -0.26583
gfz2012iijk   0.36937
gfz2012iotw   0.17315
gfz2012iyhs  -0.39270
gfz2012jodg  -2.60760
gfz2012kmbo   1.03390
gfz2012kmmz   0.17030
gfz2012kstg   0.57195
gfz2012kyhj   1.50210
gfz2012ldjj   0.57593
gfz2012lqhw  -0.70517
gfz2012mpzo  -0.47566
gfz2012mrqk  -1.83700
gfz2012nqvd   0.14926
gfz2012nsxc  -0.72239
gfz2012oafg   1.12980
gfz2012ojmv  -5.18460
gfz2012onfs   0.21699
gfz2012oyja  -1.43610
gfz2012pekf  -0.35942
gfz2012pgmw   0.46321
gfz2012phns   0.02206
gfz2012pmuj   0.43844
gfz2012pvve  -0.17126
gfz2012qbbt   0.83593
gfz2012qfah  -2.04720
gfz2012rjlp  -1.14610
gfz2012sbix  -0.27991
gfz2012socz   1.88220
gfz2012ssnb  -4.33900
gfz2012suqd  -0.50076
gfz2012svwz  -0.25934
gfz2012swbz   0.67250
gfz2012sxbo  -0.33884
gfz2012sxzs  -1.17420
gfz2012twec  -0.44736
gfz2012uhtc  -0.00190
gfz2012ukzg  -1.25270
gfz2012uvoa   3.59530
gfz2012uzww   0.16469
gfz2012vdsl  -0.09691
gfz2012vioy   1.26260
gfz2012vitw  -0.39539
gfz2012wbeu   0.50044
gfz2012wgmg  -0.49244
gfz2012wkki  -0.47706
gfz2012wmmw  -0.32099
gfz2012xcsf   0.54120
gfz2012xlfo  -0.02045
gfz2012xncm  -0.64979
gfz2012xxdj   0.10158
gfz2012yegw   0.93794
gfz2012yncm  -2.04800
gfz2012yzih   0.30159
gfz2012zhyz   0.37298
gfz2012zmfc  -4.58760
gfz2013akkd   0.79106
gfz2013bwgw   0.59616
gfz2013cvve  -0.37594
gfz2013cyvx  -2.90640
gfz2013delq  -0.10282
gfz2013dftb   0.05643
gfz2013djfi  -5.99310
gfz2013dnot  -0.26244
gfz2013hvkg  -4.03580
gfz2013hwps  -2.59920
gfz2013icgx  -0.05491
gfz2013iwzn   3.11610
gfz2013jfcn   0.95842
gfz2013jobl  -0.38791
gfz2013jtsg   0.56370
gfz2013kats   1.19620
gfz2013kbbg   1.36750
gfz2013kbbn  -0.22948
gfz2013kcdb   0.47422
gfz2013kdfy   0.02280
gfz2013kqab  -0.94314
gfz2013kruh   0.62044
gfz2013kslp   0.27429
gfz2013lbvl  -0.97283
gfz2013ljdu  -0.80909
gfz2013mdxj  -0.05258
gfz2013mimp  -0.54699
gfz2013msmy   0.39268
gfz2013ntiu  -2.31110
gfz2013ohdt   1.29730
gfz2013oizq   2.59640
gfz2013oywh   0.84604
gfz2013phhi   4.70210
gfz2013pkmz   0.62387
gfz2013qaex  -1.15010
gfz2013qnqr  -0.56185
gfz2013quyn  -0.64154
gfz2013qwnm   2.13930
gfz2013qxof  -0.28773
gfz2013rdmn  -2.51260
gfz2013rhbx  -0.23847
gfz2013stup   1.74130
gfz2013tdsx   0.04331
gfz2013tgia  -0.11583
gfz2013timw   0.86740
gfz2013tkcg  -1.19580
gfz2013tmyj  -0.46638
gfz2013trsq  -0.19863
gfz2013udtw  -1.33020
gfz2013unuv  -0.29508
gfz2013utqa   1.15830
gfz2013uwjo   2.33410
gfz2013uwxi  -6.57290
gfz2013uxzw   1.12090
gfz2013vdam  -0.04357
gfz2013veug   1.84990
gfz2013vfix   0.07556
gfz2013vmrv  -0.82606
gfz2013vnwa  -2.48760
gfz2013voai  -0.05157
gfz2013vsdd   0.12663
gfz2013vvre   2.05000
gfz2013vzel   2.57970
gfz2013wyfl   0.38095
gfz2013xahp  -0.01212
gfz2013xjmo  -0.26086
gfz2013xmzw  -0.31473
gfz2013xodn   0.41660
gfz2013xswc   0.55558
gfz2013xupg   0.35755
gfz2013yihv   0.62339
gfz2013yqtu  -1.16190
gfz2013yvpn  -0.89810
gfz2013yxif   0.16022
gfz2013yywh  -0.10888
gfz2013zfbz  -0.33353
gfz2013zlak   2.25930
gfz2013zpwk   0.22249
gfz2013zqan  -0.36810
gfz2014aqop   0.50831
gfz2014ateb  -0.00000
gfz2014avag  -0.04711
gfz2014avmd  -0.66524
gfz2014bdju  -0.00335
gfz2014bkra  -2.41940
gfz2014bmch   0.67101
gfz2014bppg  -0.68800
gfz2014bqpm  -0.03789
gfz2014byes   1.03270
gfz2014ctdl   0.66252
gfz2014djhi   1.29970
gfz2014djyj  -1.26850
gfz2014dwcp  -0.05824
gfz2014fbnr   0.10949
gfz2014fdhk   0.20295
gfz2014fgbn  -9.65880
gfz2014fjfz  -0.18277
gfz2014fsir  -0.45734
gfz2014fsje  -0.09314
gfz2014fwxt   0.40394
gfz2014fxim   0.18573
gfz2014fxte  -0.91131
gfz2014fxtv  -0.99417
gfz2014fxuy  -1.10460
gfz2014gssz  -0.75860
gfz2014gtee   0.16722
gfz2014hhey   0.47748
gfz2014hkcw  -0.15584
gfz2014hqhv  -0.12161
gfz2014hzzf   0.16669
gfz2014iayo   0.40312
gfz2014icov   1.58810
gfz2014igrp  -0.10864
gfz2014ikvw  -0.05722
gfz2014iltl   0.69801
gfz2014ined  -0.50169
gfz2014ipfu  -0.23845
gfz2014irlf  -0.82663
gfz2014irln   0.14883
gfz2014irly   0.71382
gfz2014isjg  -0.86257
gfz2014isov  -1.29760
gfz2014itlx   0.27314
gfz2014iusw  -0.78350
gfz2014ixlc  -0.79294
gfz2014jarg  -2.88930
gfz2014jayh  -0.05960
gfz2014jbfp  -0.63751
