# Nsamples: 173  MAD:  0.569  mean: -0.052  std:  0.757
gfz2010aggj  -0.06974
gfz2010aimm  -0.03483
gfz2010clbw   0.16018
gfz2010cllh  -0.92931
gfz2010crgy  -0.13251
gfz2010dask  -0.65891
gfz2010habf  -0.26715
gfz2010hueh  -1.04890
gfz2010jgwj  -0.06447
gfz2010jlvp  -0.05725
gfz2010mqzz  -0.07852
gfz2010pgpo   0.34519
gfz2010pzza  -0.07757
gfz2010qdqk   0.40560
gfz2010rkuu   1.08430
gfz2010rljv   1.26370
gfz2010scht   0.09126
gfz2010sdfs   0.96952
gfz2010ugws   1.47540
gfz2010uhjy  -0.31712
gfz2010xpzq   0.44026
gfz2010yfdr   0.53839
gfz2010yhdn   0.97901
gfz2010zjun   0.16463
gfz2011ahvh   0.58870
gfz2011bcvc   1.49130
gfz2011cdge   1.08570
gfz2011dabj  -0.20753
gfz2011dpyu  -0.03413
gfz2011ffdh   0.48379
gfz2011ggnl   0.34830
gfz2011gnbk   0.20132
gfz2011gpyr   0.07506
gfz2011hjof   0.36634
gfz2011hmnw   0.90767
gfz2011hqjs  -0.43096
gfz2011hyct   0.33129
gfz2011kjzt   0.40132
gfz2011lmug   0.25547
gfz2011mjje   0.11364
gfz2011ndhh  -1.07100
gfz2011nfcz   0.74446
gfz2011nfgt  -1.28580
gfz2011nhby   0.19361
gfz2011nijp  -1.23900
gfz2011nilw   1.03820
gfz2011niuw   0.04013
gfz2011nkou   1.75380
gfz2011nlmf   0.50349
gfz2011nlnl  -1.50100
gfz2011nlum  -0.43249
gfz2011nnda   0.69688
gfz2011ofpj   0.20283
gfz2011ohgj  -0.44991
gfz2011oslk   0.13231
gfz2011owqa  -0.17866
gfz2011pfls  -0.63267
gfz2011pmuv  -0.47565
gfz2011prrq  -0.32886
gfz2011pwbw   0.13038
gfz2011qgea   1.11800
gfz2011qhjw   0.06567
gfz2011rkau   0.98591
gfz2011rnny  -0.53573
gfz2011rnsp   0.16975
gfz2011sdax   0.47350
gfz2011sskq  -0.19659
gfz2011sxno   1.38420
gfz2011tsgl  -0.44644
gfz2011uowi  -0.10158
gfz2011uqry  -0.92449
gfz2011uvsi  -0.55682
gfz2011vahy  -0.01793
gfz2011zghc   0.99759
gfz2012amvs   0.31365
gfz2012bqcf   0.17578
gfz2012cdju   0.25366
gfz2012cvfr   0.71021
gfz2012dyck   0.04767
gfz2012iijk   0.19683
gfz2012kmbo  -0.12515
gfz2012kmmz   0.91886
gfz2012ldjj   0.17952
gfz2012mdzf  -0.20203
gfz2012mmiw  -0.60060
gfz2012mpzo   0.38609
gfz2012nqvd   0.43860
gfz2012oafg  -0.02142
gfz2012oehy  -0.10208
gfz2012ohgd   0.15844
gfz2012phns   0.50239
gfz2012ppcq   0.02068
gfz2012pumy  -0.22159
gfz2012qpoc   0.06958
gfz2012rugl  -0.56139
gfz2012smyn   0.60833
gfz2012socz   0.02561
gfz2012swbz  -0.12856
gfz2012uhsx  -0.16284
gfz2012uhtc   0.07753
gfz2012uvoa  -0.57720
gfz2012uzww   0.17223
gfz2012vgot  -0.17454
gfz2012xlfo   0.32171
gfz2013byyy  -0.36278
gfz2013cyvx   0.58156
gfz2013dftb  -2.14700
gfz2013fndg  -0.46297
gfz2013fnpa   0.40955
gfz2013fvyr   0.15049
gfz2013hqaa  -0.05662
gfz2013icql  -0.42385
gfz2013iuyv  -0.71038
gfz2013jfcn  -0.05442
gfz2013jobl  -0.27728
gfz2013kats   0.48516
gfz2013kbbg   0.13801
gfz2013kbbn   0.91784
gfz2013kcdb  -0.43008
gfz2013kpcb  -1.34630
gfz2013kpes   0.16800
gfz2013kqab  -0.17686
gfz2013kruh   0.61059
gfz2013kslp  -0.44737
gfz2013lbvl  -0.82312
gfz2013lqjj  -0.20223
gfz2013mdxj   0.14002
gfz2013mzaw   0.01394
gfz2013ntfc   0.22443
gfz2013oeni   0.28203
gfz2013oizq   0.09690
gfz2013okac  -0.74888
gfz2013olos  -1.82200
gfz2013oruq  -0.34380
gfz2013otuj  -0.21762
gfz2013phhi  -0.39189
gfz2013pkmz   0.05977
gfz2013qigb  -0.49334
gfz2013quwz  -0.90206
gfz2013quyn  -3.65530
gfz2013qxof   0.64424
gfz2013rdmn  -0.97338
gfz2013rfik  -0.25202
gfz2013rocs  -0.56210
gfz2013swnj   1.57730
gfz2013tkcg  -0.00000
gfz2013upqj  -2.05510
gfz2013utqa  -0.36361
gfz2013uwjo   0.76255
gfz2013uxzw  -0.49462
gfz2013uzmf  -1.80710
gfz2013veug   0.40717
gfz2013vnwa  -1.80360
gfz2013wyfl   0.07893
gfz2013xahp   0.43751
gfz2013yqtu   0.45391
gfz2013yvnj  -0.01641
gfz2014bnea  -1.18360
gfz2014bppg  -0.95663
gfz2014edmd  -2.44950
gfz2014fsir   0.28307
gfz2014fxte   0.27399
gfz2014gnbw  -0.03964
gfz2014icov  -0.95805
gfz2014igrp  -0.10118
gfz2014iltl  -0.54798
gfz2014irlf  -0.24277
gfz2014irln   0.88214
gfz2014irly   0.28807
gfz2014isjg  -0.21926
gfz2014iusw  -1.41750
gfz2014jarg   0.34138
gfz2014jayh   0.05951
