# Nsamples: 254  MAD:  1.042  mean:  0.001  std:  1.467
gfz2010jlvp  -1.01660
gfz2010kuzb   0.96494
gfz2010mqaj   2.13900
gfz2010mqzz  -0.05540
gfz2010ngge   0.08953
gfz2010pclq   3.04110
gfz2010pvnn   0.50195
gfz2010pzza  -0.05068
gfz2010rnwt  -0.72872
gfz2010rpjd  -1.53020
gfz2010shvn   1.44020
gfz2010tpcj   1.85530
gfz2010ugws  -2.90440
gfz2010uhjy  -1.00660
gfz2010uvpz   1.40400
gfz2010uyng   7.42210
gfz2010vdcf  -3.29210
gfz2010vgfu  -0.84403
gfz2010vhzx  -0.24849
gfz2010vjac   1.00690
gfz2010yhdn   1.73490
gfz2010ymih  -0.16452
gfz2010zjun   0.07444
gfz2011ahvh   0.26023
gfz2011ameb   0.28632
gfz2011bpqm  -0.34663
gfz2011bygs  -0.02626
gfz2011bygu  -0.48804
gfz2011cfyy  -0.62521
gfz2011chsa   0.42045
gfz2011cjuz   1.09810
gfz2011dpyu   0.05191
gfz2011duvm   2.36730
gfz2011emzr   0.98497
gfz2011fnie   0.38094
gfz2011fnxz  -0.33461
gfz2011fszl   0.29499
gfz2011fzcw   0.43815
gfz2011gaax   0.04845
gfz2011ggnl  -1.55360
gfz2011gnbk  -1.23220
gfz2011gpyr   1.18280
gfz2011hjof   0.46248
gfz2011hvzo   0.32535
gfz2011hwbn  -0.80611
gfz2011hyct   0.00000
gfz2011jdoz   0.37640
gfz2011jphj  -0.62869
gfz2011kjzt   0.39493
gfz2011kylu   1.39700
gfz2011kymm  -1.23130
gfz2011lkkf  -1.52850
gfz2011lrpv  -1.94830
gfz2011lwmg   0.32597
gfz2011lykm   0.26697
gfz2011mjje   0.48739
gfz2011mror  -1.91090
gfz2011nblt  -1.96200
gfz2011ndhh  -2.48440
gfz2011nejg   1.06930
gfz2011nfcz   0.73483
gfz2011nhby  -0.55263
gfz2011nijp   1.43380
gfz2011nilw   0.02841
gfz2011niuw  -3.64960
gfz2011nkou  -0.01992
gfz2011oazk   0.91746
gfz2011ohgj   4.74740
gfz2011oslk  -0.72003
gfz2011owqa   2.27030
gfz2011paqj  -0.32830
gfz2011ppsc  -0.04536
gfz2011qukj   1.08150
gfz2011rkau  -2.63620
gfz2011scma   0.53151
gfz2011sdax  -0.34859
gfz2011sqco   0.48868
gfz2011syvj  -2.00920
gfz2011taqr  -1.56080
gfz2011tarj  -0.00000
gfz2011tgon   0.39356
gfz2011tlwl  -0.03737
gfz2011tqgg  -0.67069
gfz2011tsgl  -3.17210
gfz2011udxo  -1.51740
gfz2011uqry  -1.52170
gfz2011vcyx  -0.11293
gfz2011vxek  -0.58503
gfz2011wcvs  -0.42128
gfz2011wkja  -0.06442
gfz2011xgbc  -2.93720
gfz2011xlod   0.48108
gfz2011yeck   0.33192
gfz2011ytob   0.36104
gfz2011zghc  -1.06060
gfz2012amjx   0.29391
gfz2012amvs   0.90247
gfz2012bolx  -2.32820
gfz2012bqcf   0.46617
gfz2012cvfr   0.26719
gfz2012dugf  -1.53130
gfz2012dysu  -0.43959
gfz2012dzjo   2.34390
gfz2012dzoh   2.38690
gfz2012dzot   2.40560
gfz2012eajr  -0.91455
gfz2012ebgo   1.60170
gfz2012ebhf   1.43560
gfz2012ekfp  -1.13360
gfz2012ekro  -2.01030
gfz2012fcyq   0.08158
gfz2012fcyr  -0.05488
gfz2012gbrs   4.52430
gfz2012gpcd  -0.03557
gfz2012iijk   0.80748
gfz2012iyhs  -0.38596
gfz2012izke   0.30245
gfz2012jodg  -3.00530
gfz2012jvei  -0.72592
gfz2012kmbo  -2.27190
gfz2012kyhj  -2.74140
gfz2012ldjj   3.37770
gfz2012mrwu  -0.56690
gfz2012mtyn   0.12736
gfz2012mxdk   1.22420
gfz2012oafg  -1.35430
gfz2012oehy  -0.52031
gfz2012ofnx   0.58327
gfz2012ogwe  -0.98751
gfz2012phns  -3.31390
gfz2012pmuj   1.79320
gfz2012pumy   1.89320
gfz2012rmvx  -0.44162
gfz2012roan   2.14110
gfz2012sgfd  -0.12448
gfz2012sqsc   1.32360
gfz2012ssnb  -1.64700
gfz2012ssvn  -0.27525
gfz2012suqd   0.20718
gfz2012svwz  -0.50234
gfz2012swbz   0.08355
gfz2012thyh   0.21092
gfz2012uvoa  -0.23380
gfz2012uzww   0.10211
gfz2012vgot   0.30859
gfz2012vioy  -0.76488
gfz2012vqmq   0.13816
gfz2012wgmg   0.21898
gfz2012wkki  -1.44620
gfz2012wowu   1.87680
gfz2012wpen   0.20989
gfz2012wzja   0.54575
gfz2012xlfo   1.89640
gfz2012xncm   0.62844
gfz2012yegw   3.71180
gfz2012yihn  -1.20890
gfz2012yncm   0.77403
gfz2012ywei   0.42976
gfz2012zqis   1.43020
gfz2013akkd   0.68513
gfz2013atak   1.22220
gfz2013atec  -1.73720
gfz2013byyy   0.09003
gfz2013cyvx   0.17307
gfz2013dngd   1.38250
gfz2013dzvr   0.73497
gfz2013efct  -1.78670
gfz2013ektd  -0.53255
gfz2013enqo  -1.85690
gfz2013fnpa  -1.59680
gfz2013fulo  -0.22049
gfz2013fvht  -0.21012
gfz2013fybd  -0.26454
gfz2013gugi   1.92080
gfz2013isqh   3.96760
gfz2013iuyv  -0.12574
gfz2013iwzn  -0.78749
gfz2013jfcn  -1.53020
gfz2013jrqf   0.09797
gfz2013kats  -0.40098
gfz2013kbbg  -1.33140
gfz2013kcdb  -1.07270
gfz2013kpes   2.46860
gfz2013kqab  -1.53790
gfz2013lbvl  -0.11805
gfz2013mimp   0.11777
gfz2013mnux   2.28830
gfz2013mzaw  -1.31150
gfz2013ntiu   1.08910
gfz2013oywh  -0.91808
gfz2013phhi   1.55810
gfz2013pifg   0.72838
gfz2013pkmz  -0.31373
gfz2013qapj  -0.14887
gfz2013qigb  -0.26155
gfz2013qogb  -1.34080
gfz2013quwz   0.33387
gfz2013rhbx  -1.20550
gfz2013rtvy   0.68226
gfz2013twbc   0.21857
gfz2013utqa  -1.13770
gfz2013uwjo   1.42730
gfz2013vgfb   0.06081
gfz2013vjsz   1.23120
gfz2013vmrv  -1.45120
gfz2013vojy   0.82862
gfz2013vsdd   2.10900
gfz2013vvre  -2.77850
gfz2013vzel  -0.08068
gfz2013wigs  -0.97936
gfz2013wpns  -0.37673
gfz2013wyfl   1.28010
gfz2013xacx   0.63765
gfz2013xahp   0.00780
gfz2013xmzw   0.51301
gfz2013xofz  -0.39441
gfz2013xswc  -0.05387
gfz2013yqtu   0.25983
gfz2013zedt  -0.99592
gfz2013ziix   0.10944
gfz2013zkta  -0.95864
gfz2013zkzb   2.92030
gfz2013zlak   0.73020
gfz2014ajgi  -0.99126
gfz2014alzg   1.65650
gfz2014amgk  -0.10493
gfz2014aqax  -0.32145
gfz2014arox  -0.42534
gfz2014ateb  -4.25880
gfz2014bkra  -0.49452
gfz2014bnea  -0.78919
gfz2014bppg  -0.39156
gfz2014eiav   0.32114
gfz2014eirs   1.38380
gfz2014emlw   0.16639
gfz2014eoay  -0.39875
gfz2014eunw  -0.12905
gfz2014fsir   0.37741
gfz2014fwxt   0.07962
gfz2014fxte   0.28311
gfz2014fxuy   0.23647
gfz2014hotu   0.12909
gfz2014hzzf  -1.78230
gfz2014icov   0.64811
gfz2014iltl  -0.72279
gfz2014imqh   0.10998
gfz2014irlf   0.20939
gfz2014irln   0.92436
gfz2014irly   0.37267
gfz2014itlx  -1.26000
gfz2014jarg  -1.13200
gfz2014jaxy   0.81456
gfz2014jayh  -4.46880
gfz2014jbfp   0.67931
