# Nsamples: 297  MAD:  0.642  mean: -0.042  std:  1.253
gfz2010afyi  -2.19050
gfz2010aggj   0.28655
gfz2010aimm  -1.37800
gfz2010amec  -3.92780
gfz2010aseg   0.08984
gfz2010asxa  -0.66821
gfz2010bkfi  -0.05515
gfz2010bklj   1.20730
gfz2010bnbr  -0.54335
gfz2010bqnk   0.10260
gfz2010btme  -0.46455
gfz2010bukb  -1.19350
gfz2010clbw   0.10219
gfz2010cllh  -1.47650
gfz2010fgbo   0.13436
gfz2010gooc   0.78154
gfz2010habf   2.26110
gfz2010hueh  -1.29070
gfz2010huzl  -1.39620
gfz2010izgb   0.51309
gfz2010jgwj  -0.40164
gfz2010jlvp  -0.16468
gfz2010mqzz   0.26103
gfz2010pclq   1.30590
gfz2010pcya  -0.62737
gfz2010prnw  -0.95274
gfz2010pzza  -0.03735
gfz2010rnwt  -6.13620
gfz2010rpjd  -1.66100
gfz2010tmba  -0.46285
gfz2011iryz   0.36588
gfz2011ituo   0.97925
gfz2011ksxc  -2.14620
gfz2011kujo  -1.27660
gfz2011wngi  -0.14794
gfz2011wzss   0.45683
gfz2011xnui  -0.47697
gfz2011zghc   0.50110
gfz2011ziyk  -0.22647
gfz2011znyq  -0.16823
gfz2012amvs   0.37506
gfz2012avvc  -1.20060
gfz2012bolx   0.21201
gfz2012bqcf   0.81588
gfz2012cdju   0.23459
gfz2012cksh  -2.00610
gfz2012cntu   1.54020
gfz2012cvfr   0.53566
gfz2012dejg   0.73934
gfz2012drqd   0.05623
gfz2012dtlu  -0.45544
gfz2012dttl  -0.53084
gfz2012duwm   0.34032
gfz2012dyck  -0.17553
gfz2012dysu  -0.17214
gfz2012dzot   0.46944
gfz2012ekfp  -0.14669
gfz2012ekro   1.30910
gfz2012fhaf  -0.00000
gfz2012foih  -1.16130
gfz2012gdye   0.12731
gfz2012ghiv   0.61588
gfz2012gjdg   0.07607
gfz2012gnow   0.29842
gfz2012heih  -0.00064
gfz2012hzur   0.26583
gfz2012iblo  -0.04398
gfz2012ibyd  -0.12624
gfz2012ipdc   0.14834
gfz2012iphs  -0.89675
gfz2012iroy  -0.15181
gfz2012ivyg   1.61820
gfz2012jihg   0.93302
gfz2012jnlt  -0.53306
gfz2012jodg   1.22610
gfz2012jopi  -0.07817
gfz2012juem  -1.28800
gfz2012jxnm  -0.26906
gfz2012kadi  -0.07368
gfz2012kmbo  -1.55950
gfz2012kmmz   0.23069
gfz2012ldjj   1.53980
gfz2012lyyr  -0.08608
gfz2012mjuu  -1.40050
gfz2012mpzo   0.75113
gfz2012mrqk   0.08811
gfz2012ndsk  -1.29020
gfz2012nfzc   0.26591
gfz2012nnqu  -0.73976
gfz2012nqvd   0.23848
gfz2012nsxc   0.10771
gfz2012oafg   0.22859
gfz2012pdav   0.78298
gfz2012phns   0.35948
gfz2012pmuj  -2.43870
gfz2012prke  -0.96726
gfz2012pvve   0.01463
gfz2012pziw   5.26120
gfz2012qhqp   0.21328
gfz2012qmhz   0.10256
gfz2012rzwp   4.35490
gfz2012sbix   1.95830
gfz2012socz   0.11481
gfz2012sqsc   1.79850
gfz2012ssnb   1.58430
gfz2012suqd  -2.36990
gfz2012svwz   2.26860
gfz2012swbz   0.49648
gfz2012sxbo  -0.52877
gfz2012syum  -1.33910
gfz2012tgta   0.94879
gfz2012tisj  -2.33670
gfz2012tqjc   0.47158
gfz2012twec  -0.09385
gfz2012udxg   0.74553
gfz2012ukzg  -1.21620
gfz2012ulei   2.86420
gfz2012umob   0.41560
gfz2012uvoa   0.54303
gfz2012uzww   0.01887
gfz2012vcqw   0.37049
gfz2012vgot  -0.03704
gfz2012vitw   0.22575
gfz2012vlzv  -0.18186
gfz2012vnve  -0.03569
gfz2012vsav  -1.10850
gfz2012wbeu   0.38360
gfz2012wgmg   0.18436
gfz2012wmas  -0.99277
gfz2012wmmw   0.34404
gfz2012wugc  -0.48378
gfz2012wysg   0.20143
gfz2012xfsk   0.61077
gfz2012xfsl   0.46457
gfz2012xjgb  -3.62160
gfz2012xkln  -0.06732
gfz2012xlfo  -0.04884
gfz2012xwkx   0.38960
gfz2012yegw   0.37135
gfz2012yihn  -3.65130
gfz2012yncm  -5.55720
gfz2012yytb   0.52744
gfz2012zktj  -0.79976
gfz2013agbm   0.20939
gfz2013atak   0.83506
gfz2013bdvi   0.66998
gfz2013bwgw   4.01730
gfz2013byyy  -0.39677
gfz2013cokc   1.37100
gfz2013cyvx  -0.25335
gfz2013delq  -2.03090
gfz2013dftb  -0.11374
gfz2013djfi  -1.10660
gfz2013dngd  -1.20260
gfz2013dvub  -0.80350
gfz2013dzvr   0.36508
gfz2013eavq   2.04400
gfz2013evcl  -0.56522
gfz2013fnpa   0.36765
gfz2013frxd   3.59810
gfz2013gbma   1.57130
gfz2013gkyn   0.23681
gfz2013hvkg   3.06360
gfz2013hvzv   0.48764
gfz2013icql   0.30427
gfz2013iuyv   0.68314
gfz2013iwzn  -0.57669
gfz2013jfcn   0.27969
gfz2013jlli  -0.81737
gfz2013jobl  -0.11107
gfz2013jzcf   0.17855
gfz2013kats  -0.39671
gfz2013kcdb  -0.09056
gfz2013kpcb   3.02840
gfz2013kqab  -1.48010
gfz2013kslp   0.39772
gfz2013lbvl   0.01426
gfz2013lcrk  -0.56484
gfz2013msmy   0.76775
gfz2013mvgq   1.00080
gfz2013mynb  -0.58293
gfz2013mzaw   0.55129
gfz2013njjh  -0.53540
gfz2013ohnj  -0.64243
gfz2013ojza  -0.28082
gfz2013olos  -1.85430
gfz2013opkx  -0.09198
gfz2013orot  -0.22542
gfz2013ortl   0.40826
gfz2013oruq  -0.59839
gfz2013otuj   0.22345
gfz2013oywh   0.18660
gfz2013phhi   0.52732
gfz2013phly   0.47297
gfz2013pifg  -0.03860
gfz2013pizm  -0.30242
gfz2013pkmz   0.57251
gfz2013puiy  -0.27889
gfz2013pvsa   0.91071
gfz2013pwsm   0.23813
gfz2013qdzg  -1.43980
gfz2013qear  -0.28989
gfz2013qnqr   0.22798
gfz2013quwz  -0.08668
gfz2013quyn   0.23137
gfz2013qxof   0.83354
gfz2013rhbx   1.06360
gfz2013rhxf  -0.24863
gfz2013rnsa   0.19604
gfz2013rocs   0.11491
gfz2013rofg  -0.37690
gfz2013stou   0.29151
gfz2013suck  -0.34987
gfz2013syqp  -0.29339
gfz2013taeb  -2.26850
gfz2013tcju  -0.31930
gfz2013tgia   0.24602
gfz2013tmnf  -0.24237
gfz2013tmyj   1.11550
gfz2013trsq   0.01978
gfz2013ubgt  -0.18327
gfz2013udtw   0.19618
gfz2013ujze  -2.61810
gfz2013unuv  -0.09262
gfz2013upqj   0.41455
gfz2013uwjo   0.14114
gfz2013uxzw  -0.51844
gfz2013uzmf   0.13809
gfz2013veoz  -0.18474
gfz2013veug  -0.53624
gfz2013vjrr   0.53440
gfz2013vmrv   1.25260
gfz2013voai   0.13838
gfz2013vvre  -1.53970
gfz2013vwkh  -0.20841
gfz2013vzel   2.04740
gfz2013wwee  -0.14531
gfz2013wyfl   0.03987
gfz2013xlic   0.26559
gfz2013xmzw  -0.56979
gfz2013xofz   2.07010
gfz2013xswc  -0.27597
gfz2013xuxr   0.89795
gfz2013xvps   0.17028
gfz2013yqtu  -1.43510
gfz2013yvnj   0.13453
gfz2013zlak   0.28834
gfz2014aedl  -0.12044
gfz2014ateb  -0.33087
gfz2014bdju   0.14746
gfz2014befl   0.42940
gfz2014bfjb  -0.64931
gfz2014bkra   2.51790
gfz2014bmqw  -4.69030
gfz2014bumr   0.00863
gfz2014cgoi   0.42464
gfz2014cgxj   0.51163
gfz2014cjao  -0.16308
gfz2014cncl  -0.65349
gfz2014crac   0.26894
gfz2014ctdl  -0.08836
gfz2014cvnb   0.03826
gfz2014dbmu   0.94216
gfz2014djhi   1.04630
gfz2014djyj  -0.14485
gfz2014dmrw   0.18721
gfz2014dtth   0.26031
gfz2014eoay  -0.35908
gfz2014epfm  -2.69340
gfz2014epue  -0.66462
gfz2014fsir   0.53140
gfz2014fxim  -0.01767
gfz2014fxte  -0.15437
gfz2014fxuy  -0.20763
gfz2014ggie  -1.09620
gfz2014hqhv   0.13926
gfz2014huqh   2.01970
gfz2014hyea   0.03854
gfz2014hzzf  -1.49660
gfz2014iayo  -1.74530
gfz2014icov  -1.53020
gfz2014igrp  -0.11223
gfz2014ijsa  -0.99613
gfz2014iltl   0.21988
gfz2014imqh   2.38640
gfz2014inrg  -0.82513
gfz2014ipfu   0.08800
gfz2014irlf   0.08753
gfz2014irln   0.15751
gfz2014irly   0.28034
gfz2014isov  -0.08526
gfz2014itlx   0.85224
gfz2014iusw  -0.12851
gfz2014iyuc   1.00480
gfz2014jarg  -0.21411
gfz2014jayh  -3.08670
gfz2014jbfp   0.31701
