# Nsamples: 156  MAD:  0.411  mean:  0.052  std:  0.778
gfz2011pivq  -0.17536
gfz2011qenl   0.19223
gfz2011qgea  -0.37544
gfz2011qukj   1.24440
gfz2011rkau   0.70986
gfz2012hwph  -0.57094
gfz2012iblc  -0.13330
gfz2012iblo   0.39177
gfz2012ibyd  -0.52665
gfz2012icjo  -0.80401
gfz2012ipdc  -0.23498
gfz2012iphs  -0.48468
gfz2012iroy  -0.26283
gfz2012itxz   0.82060
gfz2012ivyg  -1.07770
gfz2012iyhs  -0.49038
gfz2012jaun   1.32910
gfz2012jopi   0.02256
gfz2012jvei  -0.54474
gfz2012jxxe  -0.72822
gfz2012kadi  -0.13906
gfz2012kmbo  -0.41537
gfz2012kmmz  -1.10080
gfz2012kstg  -0.26331
gfz2012kyhj  -2.60660
gfz2012ldjj  -0.20637
gfz2012lqhw   0.27056
gfz2012lyyr   0.11662
gfz2012mdzf   0.42929
gfz2012mrqk   0.04127
gfz2012ndwt   0.57905
gfz2012nldz   0.09568
gfz2012nmja  -0.45070
gfz2012nnqu   0.25623
gfz2012nqvd  -0.00299
gfz2012oafg   0.14629
gfz2012oehy   0.06757
gfz2012oozp   0.91456
gfz2012phns  -0.31097
gfz2012pmuj  -0.42990
gfz2012rzwp   0.16871
gfz2012ssnb   5.35520
gfz2012suqd   0.34166
gfz2012svwz   0.28885
gfz2012syum   0.17033
gfz2012uvoa  -0.31855
gfz2012uzww   0.00863
gfz2012vitw  -0.18179
gfz2012vnve  -0.90623
gfz2012wgmg  -0.26461
gfz2013atak  -0.14141
gfz2013bqfc  -0.58481
gfz2013bwgw   0.59756
gfz2013byyy  -0.31288
gfz2013ccng   0.15959
gfz2013cvve  -0.54499
gfz2013cyvx  -0.31277
gfz2013ddrx  -0.83761
gfz2013dftb  -0.08535
gfz2013djfi  -0.53561
gfz2013dngd  -0.34175
gfz2013dvub   0.28428
gfz2013dwsp  -0.88350
gfz2013dznt  -0.28605
gfz2013dzvr  -0.71012
gfz2013efct  -0.25829
gfz2013efys  -0.28909
gfz2013eidd  -0.27662
gfz2013enga  -0.40850
gfz2013enqo   1.63020
gfz2013esef  -0.52728
gfz2013exow  -0.52710
gfz2013ezmc  -0.64127
gfz2013ffjt  -0.28076
gfz2013fhzy  -0.40313
gfz2013fnpa   0.23791
gfz2013fvyr  -0.42724
gfz2013irme  -0.12103
gfz2013iuyv   0.09787
gfz2013jfcn  -0.33770
gfz2013jhog  -0.28383
gfz2013jlli  -0.11069
gfz2013jobl  -0.07984
gfz2013kats  -0.03452
gfz2013kbbg  -0.04682
gfz2013kcdb  -0.02251
gfz2013kjgh   0.75975
gfz2013kqab  -0.66091
gfz2013kruh   0.14127
gfz2013kslp  -0.06815
gfz2013kxlr   0.51790
gfz2013lbvl  -0.01225
gfz2013lcrk  -0.24322
gfz2013ljdu   0.20369
gfz2013ljwt   0.04828
gfz2013lqjj   0.53311
gfz2013mimp  -0.25329
gfz2013mzaw   0.06603
gfz2013oeni   0.10212
gfz2013oizq   0.97172
gfz2013ojza   0.68925
gfz2013okac  -0.07764
gfz2013onvl   0.08616
gfz2013oywh   0.22703
gfz2013phhi  -1.55560
gfz2013quyn   0.20255
gfz2013rnsa  -0.08472
gfz2013rocs  -0.27913
gfz2013ryph   0.63270
gfz2013udtw  -0.03495
gfz2013unuv   0.69498
gfz2013uxzw   1.13940
gfz2013veoz  -0.24254
gfz2013veug   0.25846
gfz2013vwkh  -0.09714
gfz2013wyfl   1.55120
gfz2013xahp   0.01263
gfz2013xmzw   0.89469
gfz2013yqtu   1.04110
gfz2014ayxf   0.45069
gfz2014bkra  -0.07772
gfz2014bmqw   2.94400
gfz2014bqpm  -0.06041
gfz2014cgxj  -0.06592
gfz2014cncl   1.06840
gfz2014dihl   0.69607
gfz2014dmrw   0.16254
gfz2014dtth   0.01009
gfz2014eirs   0.20078
gfz2014eoay   0.01564
gfz2014ezjq  -0.17803
gfz2014ezld   0.14741
gfz2014faex  -0.42791
gfz2014fbli  -0.43933
gfz2014fdhk   0.00443
gfz2014ffqg  -0.59251
gfz2014fjfz  -0.02845
gfz2014flxk   0.18642
gfz2014fsir   0.07112
gfz2014fwxt   0.69585
gfz2014gasb  -1.13490
gfz2014gnbw   0.11668
gfz2014gnvp   0.06026
gfz2014huah   0.72734
gfz2014hyea  -0.06056
gfz2014hzzf   0.06311
gfz2014ijsa  -0.53922
gfz2014ined   0.68331
gfz2014inrg   3.04840
gfz2014irln   0.40433
gfz2014irly   0.35004
gfz2014isjg  -0.29638
gfz2014iusw   0.25100
gfz2014ixlc  -0.03538
gfz2014jarg  -0.03877
gfz2014jayh   0.21390
