# Nsamples: 346  MAD:  0.489  mean: -0.047  std:  0.711
gfz2010tmba   0.02437
gfz2010tpcj   0.80527
gfz2010tzma   0.76148
gfz2010ugws  -0.46937
gfz2010uhjy  -0.73520
gfz2010umxj  -0.83756
gfz2010umyp  -0.14579
gfz2010vong  -0.80471
gfz2010wakc  -0.39990
gfz2010xamh   0.94224
gfz2010xaxw  -0.17058
gfz2010xnbn  -1.38820
gfz2010xpzq   0.48628
gfz2010yfdr   0.00983
gfz2010yspe  -1.13980
gfz2010ytzb  -0.48438
gfz2010zjun   0.08728
gfz2011ahvh   0.02277
gfz2011amst   0.81240
gfz2011aqpp  -0.44416
gfz2011bffb   0.39484
gfz2011bpqm  -0.22687
gfz2011bqbx   0.49231
gfz2011bwsm  -0.05455
gfz2011bygu  -0.14535
gfz2011cdge  -0.70828
gfz2011chsa   0.32493
gfz2011dabj  -1.00200
gfz2011dhfg  -0.13451
gfz2011dpyu  -0.09911
gfz2011duvm  -0.17278
gfz2011dzmf   0.99904
gfz2011emzr  -0.09191
gfz2011fnie  -0.13328
gfz2011fszl   0.46654
gfz2011fyfu   0.06109
gfz2011fzcw  -1.46710
gfz2011ggnl   2.20190
gfz2011gnbk  -0.08307
gfz2011gpyr  -0.00277
gfz2011hibi   0.08620
gfz2011hjof  -0.13264
gfz2011hmnw   0.69598
gfz2011hqjs  -0.41573
gfz2011hvzo   0.28084
gfz2011hyct   0.34018
gfz2011iamf   0.55474
gfz2011ibew  -1.11610
gfz2011kfch  -0.41873
gfz2011kgvq  -0.19350
gfz2011kjzt   0.99992
gfz2011kyzy   0.02171
gfz2011lkkf   0.23070
gfz2011lmug   0.96535
gfz2011mjje   0.13017
gfz2011ndhh  -0.36535
gfz2011nejg  -0.99031
gfz2011nejw  -1.64000
gfz2011nfcz  -0.15691
gfz2011nftw  -0.16468
gfz2011nhby  -0.28203
gfz2011nijp  -2.39640
gfz2011nilw  -2.04240
gfz2011niuw  -1.03340
gfz2011nlmf  -1.08820
gfz2011oadm   0.15878
gfz2011ofpj   0.16553
gfz2011ohgj   0.41722
gfz2011oslk  -0.01639
gfz2011pfls  -0.65123
gfz2011pgzk   0.04536
gfz2011poug   0.63384
gfz2011ppsc  -0.54199
gfz2011qenl  -0.18844
gfz2011qukj   0.62247
gfz2011rkau  -0.46011
gfz2011sdax   0.32657
gfz2011sqco  -0.60149
gfz2011sqxp   2.85470
gfz2011tdjj   0.51039
gfz2011tlwl   0.26243
gfz2011tqgg   0.17661
gfz2011tsgl  -0.22793
gfz2011tvuv  -0.32986
gfz2011uqry  -0.50256
gfz2011vahy  -0.28145
gfz2011wcvs  -0.78781
gfz2011wkja  -1.23490
gfz2011wngi  -0.07309
gfz2011wqup  -0.42469
gfz2011wucg  -0.36606
gfz2011wwze   0.12725
gfz2011xgbc  -0.77919
gfz2011xnui   0.10117
gfz2011yexx   0.09773
gfz2011ypfh  -0.34150
gfz2011ytob  -0.24791
gfz2011zghc  -0.25052
gfz2011zkbt  -0.77261
gfz2012adja  -0.40549
gfz2012ahac   0.08578
gfz2012amvs  -0.02192
gfz2012auqr  -0.28798
gfz2012beae  -0.04398
gfz2012bqcf  -0.14750
gfz2012byrq  -1.18610
gfz2012cdju  -0.08632
gfz2012cksh   0.18392
gfz2012cntu  -0.07864
gfz2012cvfr  -0.14001
gfz2012dejg  -0.58792
gfz2012dleg   1.86640
gfz2012dpnu   0.35158
gfz2012dpwv   0.30991
gfz2012dyck  -0.39955
gfz2012ekfp  -0.28975
gfz2012ekro  -0.65313
gfz2012elek  -0.24994
gfz2012enio  -0.86707
gfz2012erds   0.77730
gfz2012evxn   0.71615
gfz2012fhaf   0.81190
gfz2012fyny   0.00534
gfz2012gjdg   1.72810
gfz2012gnow  -0.19954
gfz2012hzur  -1.68310
gfz2012iijk  -0.17908
gfz2012jlez  -0.00000
gfz2012kmbo  -1.07410
gfz2012kmmz  -0.00408
gfz2012lngq   3.42910
gfz2012lwha  -0.47893
gfz2012lyyr   0.75456
gfz2012mdzf  -0.27101
gfz2012mmiw  -1.67470
gfz2012mrqk   0.13534
gfz2012mrwu   0.38528
gfz2012mtyn   0.42492
gfz2012mvgu  -0.24059
gfz2012mwhe   0.18225
gfz2012mxdk   0.46223
gfz2012ndwt   1.20510
gfz2012nfos  -0.03001
gfz2012oafg  -0.08217
gfz2012oehy  -0.12993
gfz2012ofnx  -0.31360
gfz2012phns   0.40964
gfz2012pira  -0.32694
gfz2012pmuj  -0.94756
gfz2012pokk  -0.31604
gfz2012ppsw   4.04200
gfz2012qfah  -0.18962
gfz2012qfov  -0.44870
gfz2012rzwp   0.05666
gfz2012socz  -0.42667
gfz2012sqsc   0.95341
gfz2012ssnb   2.65290
gfz2012stxx   0.04020
gfz2012suqd  -0.45688
gfz2012svwz   0.31033
gfz2012tqjc  -1.38210
gfz2012trss  -0.87934
gfz2012ttnf  -0.45645
gfz2012twec  -0.14344
gfz2012uhtc   0.66898
gfz2012ulei  -1.07000
gfz2012unxc   0.67560
gfz2012uvoa  -0.20576
gfz2012uzww   0.26286
gfz2012vcqw   0.46497
gfz2012vioy  -0.53808
gfz2012vitw   0.04110
gfz2012vlzv  -0.04435
gfz2012vrqz  -0.67559
gfz2012wgmg   0.19997
gfz2012wkki  -0.65808
gfz2012wmmw  -0.09144
gfz2012wowu   0.10494
gfz2012wpen  -0.32892
gfz2012wysg   0.35708
gfz2012xask  -0.04738
gfz2012xfnu   1.02930
gfz2012xncm   0.07005
gfz2012xxdj  -0.31886
gfz2012yegw   0.32598
gfz2012zhyz  -0.40023
gfz2012zkhu   2.29720
gfz2012zqis  -0.73781
gfz2013agbm  -0.89430
gfz2013atak   0.29704
gfz2013bwgw   0.23808
gfz2013byyy   0.12591
gfz2013cinv   0.16551
gfz2013cpjc  -0.47019
gfz2013cvve   0.34572
gfz2013cyvx  -0.08038
gfz2013delq  -0.58522
gfz2013dftb  -0.15842
gfz2013dngd   1.13690
gfz2013dnot  -0.23471
gfz2013eavq  -0.44080
gfz2013eazm  -0.48521
gfz2013efct  -0.18878
gfz2013egfv   1.39670
gfz2013eidd  -0.09340
gfz2013enjr   0.32557
gfz2013enqo  -0.16929
gfz2013enrh   1.49830
gfz2013fnpa   0.32817
gfz2013fulo  -0.16316
gfz2013fvht   0.39705
gfz2013fvyr   0.46947
gfz2013gkcx   0.04643
gfz2013gkyn   0.05266
gfz2013gurk   0.04807
gfz2013gxye  -0.48029
gfz2013hbwy   1.38960
gfz2013hinw   0.09060
gfz2013hqaa   0.15834
gfz2013hvkg   1.46390
gfz2013icgx   0.50869
gfz2013icql  -0.60327
gfz2013iuyv   0.12673
gfz2013iwzn  -0.39508
gfz2013jfcn   0.11358
gfz2013jobl   0.09149
gfz2013jzcf  -0.28928
gfz2013kats  -0.75661
gfz2013kbbg  -0.05718
gfz2013kcdb   0.82509
gfz2013kjgh   0.36101
gfz2013ksaz  -0.35954
gfz2013kslp  -0.06919
gfz2013kxlr  -0.05644
gfz2013lbvl  -0.28248
gfz2013ljdu  -0.24892
gfz2013lqjj   0.38071
gfz2013lvxe  -0.13687
gfz2013lxed  -0.59616
gfz2013mdxj  -0.02455
gfz2013mvgq  -0.70226
gfz2013mzaw  -0.23531
gfz2013oeni  -0.22036
gfz2013orot  -0.13139
gfz2013oruq  -0.27248
gfz2013oywh  -0.42573
gfz2013phhi  -0.45860
gfz2013qigb  -0.38690
gfz2013qogb  -0.30985
gfz2013quwz  -0.54822
gfz2013qwnm  -0.39887
gfz2013qxof  -0.43289
gfz2013rhbx  -0.04735
gfz2013rocs   0.68623
gfz2013rwog  -0.75456
gfz2013ryph  -0.41045
gfz2013stou   0.29730
gfz2013tcju   0.00000
gfz2013tdsx   0.94440
gfz2013tekq  -0.30272
gfz2013uafv   0.24054
gfz2013ubgt   0.16059
gfz2013udtw  -0.29609
gfz2013uepl   0.03991
gfz2013unuv  -0.08994
gfz2013upqj   2.11610
gfz2013utqa  -1.04100
gfz2013uwjo   0.74022
gfz2013uxzw  -0.25307
gfz2013vdam  -0.02781
gfz2013vjrr   0.63884
gfz2013vmrv  -0.86683
gfz2013voai  -0.12624
gfz2013vvre  -0.86005
gfz2013wyfl  -0.37932
gfz2013xahp   0.18416
gfz2013xddu   0.06232
gfz2013xlic   0.49514
gfz2013xmzw  -0.18583
gfz2013xodn   0.47695
gfz2013xofz  -0.63020
gfz2013xswc   0.35621
gfz2013xvps  -0.01410
gfz2013xycz   0.14775
gfz2013ylxm  -0.67387
gfz2013ymhx   0.70985
gfz2013yodm  -0.34954
gfz2013yqtu   0.31514
gfz2013yxhf  -0.04192
gfz2013zfbz  -0.53893
gfz2013zlak  -0.74260
gfz2014aedl  -0.17259
gfz2014aqop  -0.03322
gfz2014ateb  -0.21060
gfz2014ayxf  -0.87556
gfz2014azfu  -0.08702
gfz2014bdju  -0.24282
gfz2014bgyv  -0.09388
gfz2014bnea  -1.17650
gfz2014bqpm  -0.58880
gfz2014bzus   0.02262
gfz2014cgoi  -0.40561
gfz2014cjao  -0.14765
gfz2014cokw   0.23469
gfz2014crac   0.12596
gfz2014ctdl  -0.47907
gfz2014cvnb   0.17619
gfz2014dggw  -0.20554
gfz2014diuu  -0.22559
gfz2014djhi   0.42877
gfz2014dmrw  -0.12391
gfz2014dwcp  -0.42677
gfz2014edjm   0.23832
gfz2014eiav  -0.64138
gfz2014eirs   0.26764
gfz2014emlw  -0.79561
gfz2014eoay   0.11720
gfz2014esez  -0.05420
gfz2014etgp   0.95951
gfz2014fjfz  -0.18313
gfz2014flxk  -0.70168
gfz2014fsir  -0.19432
gfz2014fsje  -0.35052
gfz2014fsvc   1.10850
gfz2014fxte   0.47079
gfz2014gsfc  -1.22900
gfz2014gtoj  -0.26100
gfz2014gypw  -0.07975
gfz2014hapg  -0.83470
gfz2014hhey   0.60218
gfz2014hkcw  -0.63960
gfz2014hyea   0.03940
gfz2014hzzf  -0.54585
gfz2014icov  -1.06890
gfz2014iltl   0.47475
gfz2014ipfu   0.19113
gfz2014irlf   0.17104
gfz2014irln   0.05104
gfz2014irly   0.30006
gfz2014isjg  -0.60886
gfz2014itlx  -0.15705
gfz2014iusw  -0.21919
gfz2014ixlc  -0.40180
gfz2014jarg   0.51049
gfz2014jaxy  -0.47819
gfz2014jayh  -0.01965
