# Nsamples: 33  MAD:  1.723  mean:  0.839  std:  1.450
gfz2010brrm  -0.04020
gfz2010zjun   2.45820
gfz2011bpqm   1.59900
gfz2011mjje   1.77900
gfz2011ndhh   1.43590
gfz2011ofpj   1.78350
gfz2011oslk   1.83170
gfz2011qenl   3.07400
gfz2011sdax   2.54220
gfz2011uowi   1.41280
gfz2011uqry   0.38246
gfz2012amvs  -0.44266
gfz2012bqcf   1.29620
gfz2012ylai  -1.24310
gfz2013cvve  -1.39980
gfz2013jfcn  -0.47950
gfz2013kats   1.25370
gfz2013lnts  -1.74820
gfz2013oizq   2.57540
gfz2013syqp   0.20672
gfz2013ttmk  -0.36393
gfz2013ubgt   0.10983
gfz2013utqa   1.50550
gfz2013wyfl   1.31380
gfz2013xvps   0.79097
gfz2013ygsj  -2.51170
gfz2014flxk  -0.18298
gfz2014fxte   2.24940
gfz2014herz   1.91620
gfz2014icov   0.25805
gfz2014irlf   2.72970
gfz2014irln   2.60660
gfz2014jarg  -1.01600
