# Nsamples: 110  MAD:  0.672  mean: -0.080  std:  1.351
gfz2010pgpo  -0.71353
gfz2010pzza   0.36557
gfz2010qdqk   1.20610
gfz2010rhvu  -0.07468
gfz2010rnwt   4.20040
gfz2010rpjd  -0.75949
gfz2010sdfs   0.83510
gfz2010xpzq  -0.16953
gfz2010zjun  -0.27587
gfz2011ahvh  -0.49791
gfz2011bpqm  -0.07008
gfz2011dabj   0.50384
gfz2011dpyu   0.77377
gfz2011gnbk   0.57085
gfz2011ndhh  -0.44905
gfz2011nhhd   3.63920
gfz2011nkda  -4.78890
gfz2011nlum  -0.43721
gfz2011nnda  -0.41669
gfz2011nuqo  -2.12680
gfz2011oadm  -0.07296
gfz2011oslk  -0.00000
gfz2011owqa  -0.76653
gfz2011paqj  -0.74999
gfz2011pbgh   6.01780
gfz2011pdsn   0.15602
gfz2011pfwq  -2.86140
gfz2011pivq   0.36908
gfz2011pmuv  -0.24197
gfz2011pphc   0.86089
gfz2011ppsc  -0.28994
gfz2011pwbw  -0.50072
gfz2011qenl  -0.36530
gfz2011qgvx   1.40870
gfz2011rkau   0.70179
gfz2011scma   1.02820
gfz2011sdax  -0.34678
gfz2011sqco  -1.18050
gfz2011syzr  -0.38947
gfz2011taqr  -0.20584
gfz2011tqgg   1.38560
gfz2011tsgl  -0.69110
gfz2011ugbt  -0.16355
gfz2011uqry  -0.34483
gfz2011wzss   0.39670
gfz2012bjhl   0.08650
gfz2012bqcf  -1.19630
gfz2012cdju  -0.03243
gfz2012ekfp   0.03996
gfz2012iijk   1.49570
gfz2012kmmz   0.60295
gfz2012oafg   1.37900
gfz2012rknz  -0.22925
gfz2012rzwp   0.30423
gfz2012socz   0.45466
gfz2012uvoa  -1.33750
gfz2012uzww  -0.34859
gfz2012vitw  -0.69704
gfz2013enqo  -0.21283
gfz2013hbmi   3.22090
gfz2013icql  -0.58765
gfz2013kats   0.32742
gfz2013lbvl  -0.04122
gfz2013lgvf   3.45880
gfz2013mzaw   0.10915
gfz2013oizq  -0.06268
gfz2013okxa  -0.14267
gfz2013oywh  -0.68531
gfz2013phhi  -0.13345
gfz2013phly   0.26723
gfz2013qigb   0.11367
gfz2013quwz  -0.79140
gfz2013quyn  -0.76160
gfz2013rdmn  -0.67638
gfz2013rfik  -0.29754
gfz2013rocs   0.02894
gfz2013rwog   0.85603
gfz2013ryph  -0.45278
gfz2013sbsl  -0.00935
gfz2013suck  -2.32980
gfz2013taeb  -0.42700
gfz2013tert  -1.33590
gfz2013tjub  -0.15587
gfz2013tmnf  -0.35375
gfz2013tnrp  -0.48493
gfz2013uafv   0.28245
gfz2013unuv  -0.28005
gfz2013upqj  -0.73913
gfz2013utqa   0.08599
gfz2013uwjo   0.11028
gfz2013veug  -0.76784
gfz2013vmrv  -0.09573
gfz2013vvre  -0.90258
gfz2013wpns  -0.48535
gfz2013wyfl  -0.01814
gfz2013xahp  -0.80225
gfz2013xmzw   0.32697
gfz2013xofz  -1.17280
gfz2013xswc  -0.37933
gfz2013xycz  -0.17812
gfz2013yihv  -5.01630
gfz2013ykqw  -2.32270
gfz2013yodm  -0.13823
gfz2013yqtu   0.57974
gfz2013yxhf  -0.57397
gfz2013zlak  -1.18850
gfz2014dudd   0.48946
gfz2014icov   0.87648
gfz2014irlf   0.06119
gfz2014irln   0.02765
