# Nsamples: 149  MAD:  0.460  mean:  0.048  std:  0.837
gfz2010aggj  -0.15230
gfz2010cyid   1.31480
gfz2010dask  -0.36060
gfz2010drit  -0.43040
gfz2010drml   0.64131
gfz2010drmq   0.64131
gfz2010dumv  -0.25828
gfz2010fgbo  -0.03771
gfz2010hueh  -0.94585
gfz2010jlvp  -0.09936
gfz2010mdti   0.37344
gfz2010mqzz  -0.35799
gfz2010okpc   1.24500
gfz2010pgpo  -0.16505
gfz2010pzza   0.07706
gfz2010rkuu   0.19751
gfz2010rnqa  -0.61202
gfz2010rnwt  -1.37840
gfz2010sdfs   0.22078
gfz2010tzma   0.71384
gfz2010uhjy  -0.01778
gfz2010zjun  -0.41744
gfz2011ahvh   0.48996
gfz2011awsv  -0.31494
gfz2011bpqm  -0.75460
gfz2011cdge  -0.52740
gfz2011chsa  -0.59573
gfz2011cjuz   1.52670
gfz2011dabj  -0.13302
gfz2011dpyu   0.63498
gfz2011duvm   0.52416
gfz2011gnbk   0.45175
gfz2011hibi   5.32200
gfz2011hjof   0.39168
gfz2011hvzo   0.37135
gfz2011hyct   1.08580
gfz2011iryz   0.08825
gfz2011ituo   0.17653
gfz2011mjje  -0.11317
gfz2011mror  -0.69755
gfz2011nblt  -3.31010
gfz2011ndhh   0.17990
gfz2011nfcz  -0.26667
gfz2011nijp   0.37645
gfz2011niuw  -0.66402
gfz2011nkou  -1.64540
gfz2011nlum  -0.36198
gfz2011nsiy   0.49082
gfz2011nuqo   0.20752
gfz2011oadm   0.08218
gfz2011ofpj  -0.12707
gfz2011ohgj   2.12540
gfz2011oslk  -0.07368
gfz2011owqa   0.17836
gfz2011paqj  -0.07630
gfz2011pfls  -0.23088
gfz2011pmuv  -0.40217
gfz2011qgea   0.74416
gfz2011rkau  -0.11906
gfz2011sdax   0.01284
gfz2011tsgl  -0.14254
gfz2011uqry   0.26543
gfz2011wwze  -0.52598
gfz2011xgbc  -0.35810
gfz2011zghc   0.03493
gfz2012amjx  -0.29210
gfz2012amvs  -0.40315
gfz2012cdju   0.05126
gfz2012cntu  -0.01475
gfz2012cvfr   0.67555
gfz2012dpwv   0.85588
gfz2012ekfp  -0.04414
gfz2012fyny  -0.08520
gfz2012ghiv  -0.47842
gfz2012gnow  -0.21328
gfz2012iijk   0.07944
gfz2012ivyg  -0.36970
gfz2012jnlt  -0.05821
gfz2012kmmz   0.36033
gfz2012ldjj   0.01437
gfz2012lwha   1.31630
gfz2012mdzf   0.29199
gfz2012mmiw  -1.71390
gfz2012mpzo   0.27370
gfz2012nnqu  -0.65994
gfz2012oafg  -0.20860
gfz2012phns  -0.17244
gfz2012smyn  -0.19409
gfz2012socz   1.03870
gfz2012suqd  -0.36944
gfz2012svwz  -0.21042
gfz2012syum  -0.65516
gfz2012uhtc   0.15576
gfz2012uvoa   0.79523
gfz2012vitw  -0.16677
gfz2012wgmg   0.83954
gfz2013bwgw  -1.23820
gfz2013dftb  -0.07432
gfz2013dzvr   1.39700
gfz2013icql   0.39258
gfz2013iuyv   0.06042
gfz2013jfcn  -0.34974
gfz2013jobl  -0.17412
gfz2013kats  -0.47279
gfz2013kbbg   0.15423
gfz2013kbbn  -0.85408
gfz2013kcdb  -0.66944
gfz2013kpcb  -0.30686
gfz2013lbvl   0.01488
gfz2013ljdu  -0.58989
gfz2013mzaw   0.02632
gfz2013nkgd   2.03530
gfz2013ntfc  -0.43390
gfz2013ntiu   2.68940
gfz2013oeni   0.04328
gfz2013oizq   0.52594
gfz2013ojza   0.14661
gfz2013okac  -0.10310
gfz2013onvl   0.03306
gfz2013oywh   1.74830
gfz2013phhi   0.23036
gfz2013qigb   0.03458
gfz2013quwz  -0.69778
gfz2013rocs  -0.24838
gfz2013ryph  -0.02557
gfz2013tmyj  -0.53310
gfz2013tnrp  -0.32018
gfz2013udtw   0.01455
gfz2013utqa  -0.99457
gfz2013veug  -0.17212
gfz2013vmrv  -0.43888
gfz2013vnwa   0.81215
gfz2013wyfl   0.62125
gfz2013xahp  -0.16158
gfz2013xjmo  -0.66508
gfz2013xmzw   0.14472
gfz2014bqpm  -0.01449
gfz2014cgxj  -0.25041
gfz2014cvnb   0.14100
gfz2014cwcj   1.83920
gfz2014dtth  -0.02193
gfz2014eoay  -0.12381
gfz2014fsir   0.14106
gfz2014fxte  -0.86462
gfz2014gypw  -0.19410
gfz2014hzzf  -0.05046
gfz2014icov  -0.38676
gfz2014irlf  -0.13594
gfz2014irln   0.51138
