# Nsamples: 489  MAD:  1.084  mean:  0.107  std:  1.652
gfz2010abfc  -0.66037
gfz2010afyi  -1.06010
gfz2010aggj  -2.11940
gfz2010amec  -0.34110
gfz2010aseg   1.02070
gfz2010azji   0.18610
gfz2010bgrt  -0.30559
gfz2010bofe  -0.26534
gfz2010bqnk   0.06920
gfz2010btme  -0.11226
gfz2010bukb   0.89656
gfz2010cllh  -2.24870
gfz2010cphq   0.67757
gfz2010crgy  -0.17649
gfz2010csle   0.70976
gfz2010cthm  -1.18960
gfz2010cyid   1.46090
gfz2010dask  -1.71730
gfz2010diid  -0.49362
gfz2010djib   2.84160
gfz2010dmij  -1.74510
gfz2010dmkd  -0.72316
gfz2010drit   1.48520
gfz2010drml  -0.95154
gfz2010drmq  -0.95154
gfz2010drng  -0.35763
gfz2010dsjq   0.91899
gfz2010dslu  -0.08074
gfz2010dtgc  -0.18933
gfz2010dtyx   0.11144
gfz2010dumv   0.17697
gfz2010dxhq   0.50201
gfz2010fopf   0.89598
gfz2010gcqp   0.18250
gfz2010zaxv  -2.42580
gfz2010zhvj   0.07307
gfz2010zjun   0.78363
gfz2011afyc   0.32634
gfz2011biin   2.26930
gfz2011boaz  -0.19537
gfz2011bpqm  -0.50066
gfz2011bsvr  -2.26880
gfz2011byec   4.06960
gfz2011bzio  -0.53900
gfz2011cdge  -3.57790
gfz2011cjuz  -0.18514
gfz2011cwzi   1.74670
gfz2011dabj  -2.38540
gfz2011dpyu   1.09670
gfz2011dtcb  -0.37563
gfz2011duvm   0.33914
gfz2011dzmf  -0.06113
gfz2011etkc   1.62410
gfz2011exxq  -1.07700
gfz2011fbsl  -0.78072
gfz2011fnie  -1.19950
gfz2011fszl   0.27465
gfz2011fyfu   0.09285
gfz2011fzcw  -2.20610
gfz2011gcct  -0.76807
gfz2011gdrl  -0.00000
gfz2011ggnl  -0.12581
gfz2011ggsz   0.17128
gfz2011gnbk  -0.56926
gfz2011gpyr  -0.87325
gfz2011grby  -0.85251
gfz2011gzde   0.96010
gfz2011hbqc  -0.68668
gfz2011hibi   0.68769
gfz2011hjof  -0.19874
gfz2011hmnw  -0.41375
gfz2011hqjs   0.48804
gfz2011huon   8.93570
gfz2011hvzo  -1.42790
gfz2011hyct   1.17770
gfz2011iamf  -0.19728
gfz2011jryv   2.82340
gfz2011kfch  -1.63580
gfz2011kjzt   0.00648
gfz2011kjzv  -0.39182
gfz2011kmge  -0.66773
gfz2011ksxc  -3.14730
gfz2011lmug  -0.30821
gfz2011lwmg   0.56061
gfz2011mdyq   2.02590
gfz2011melb  -4.04900
gfz2011mjje  -1.38360
gfz2011mllb  -1.28800
gfz2011mrfm  -0.69685
gfz2011mror  -0.60482
gfz2011mrpy   0.71798
gfz2011mryu  -0.80538
gfz2011ndhh  -3.34220
gfz2011ndki   1.46340
gfz2011ndtp   0.01945
gfz2011ndvj  -1.32620
gfz2011ndyk   0.39520
gfz2011neai  -0.50505
gfz2011nejg  -0.26030
gfz2011nejw  -1.35980
gfz2011nerb   2.67280
gfz2011nfcz   0.65801
gfz2011nfgt   0.52803
gfz2011nfih  -0.81792
gfz2011nfln   1.53230
gfz2011nftw  -1.30100
gfz2011nhhd   1.08960
gfz2011nihq   1.39810
gfz2011nijp  -2.24960
gfz2011nilw  -0.51608
gfz2011nioi  -0.38842
gfz2011nisj   1.24750
gfz2011niuw  -0.51634
gfz2011nkda  -2.37520
gfz2011nkou   4.76210
gfz2011nlmf   1.08610
gfz2011nlnl  -0.81031
gfz2011nlou   1.29950
gfz2011nlum   0.41886
gfz2011nlyw   0.34918
gfz2011nnda  -0.61194
gfz2011nnos  -0.03184
gfz2011npaf  -1.24260
gfz2011npeu  -0.31763
gfz2011nsiy   0.29359
gfz2011nswi   1.04570
gfz2011nsyi   3.02860
gfz2011ntyd   1.09970
gfz2011nvty   1.11370
gfz2011nyzk  -1.63810
gfz2011oekz   0.04616
gfz2011ofpj  -0.61264
gfz2011ohgj  -0.50165
gfz2011okza   0.22922
gfz2011omxt  -0.30366
gfz2011oslk  -0.08214
gfz2011owqa   0.67044
gfz2011pdsn   1.34260
gfz2011pfls  -0.64138
gfz2011pfwq  -1.71390
gfz2011plzc  -0.50687
gfz2011pmuv   0.48177
gfz2011pphc   0.65692
gfz2011ppsc   0.34922
gfz2011prrq  -0.84315
gfz2011qenl   0.05209
gfz2011qgea  -6.28730
gfz2011qgvx   1.17230
gfz2011rkau  -0.25108
gfz2011rnny   3.26220
gfz2011rqut   1.61670
gfz2011scma   0.48374
gfz2011sdax  -0.47967
gfz2011sdpl   1.45680
gfz2011sqco   1.26670
gfz2011swfp  -0.24321
gfz2011sxno  -0.05432
gfz2011sylg   0.57265
gfz2011szis  -0.60057
gfz2011tsgl  -0.95864
gfz2011twpz   1.46100
gfz2011txdb  -4.32130
gfz2011tzcv   2.81660
gfz2011udjs   1.15960
gfz2011uqry  -1.13300
gfz2011vahy  -0.45612
gfz2011vsag  -1.96670
gfz2011vtdl   3.32340
gfz2011wcvs  -1.64660
gfz2011wkja  -0.37343
gfz2011wkyx  -0.28063
gfz2011wtfn  -0.40577
gfz2011wucg  -0.20544
gfz2011wyei  -1.72630
gfz2011xgbc   0.69672
gfz2011xgwy   1.66690
gfz2011xkka   1.98460
gfz2011xlod   0.91379
gfz2011xxng   5.79140
gfz2011yexx  -0.20215
gfz2011ykbd   0.35319
gfz2011ymji   5.11450
gfz2011ytob  -0.32404
gfz2011ytwk   0.28364
gfz2011ywtj   1.49340
gfz2011zcwn   0.08334
gfz2011zdyf  -0.56105
gfz2011zghc  -0.24851
gfz2011zgxn  -0.21947
gfz2011znyq   2.43060
gfz2012arlo  -1.52380
gfz2012auqr   4.93040
gfz2012avvc  -1.04970
gfz2012azel   7.35340
gfz2012bolx  -0.37196
gfz2012bqcf   0.16554
gfz2012bytv   0.76008
gfz2012byuk   0.33080
gfz2012cdju   0.04295
gfz2012cfdw  -1.19510
gfz2012cvfr  -0.17170
gfz2012cwhl   0.07058
gfz2012dbgt  -1.21420
gfz2012dejg   0.31458
gfz2012dleg  -1.05520
gfz2012dpem  -1.80200
gfz2012dpnu  -0.35008
gfz2012dpwv   0.51445
gfz2012drak   0.47931
gfz2012dugf   0.48497
gfz2012duvf   7.10060
gfz2012dwwu  -0.75954
gfz2012dyck  -0.40203
gfz2012dysj   4.50520
gfz2012dzot  -0.61754
gfz2012ekfp   1.99070
gfz2012elek  -0.03244
gfz2012enrg  -0.68167
gfz2012erds   0.20975
gfz2012foih  -1.61290
gfz2012fpyo  -2.19170
gfz2012ftcq  -0.20320
gfz2012fuyd   1.48580
gfz2012fyny  -0.61915
gfz2012gjtd   0.06191
gfz2012gmsr  -0.34591
gfz2012gubu  -1.15600
gfz2012hyqh  -1.03900
gfz2012hzhn   1.28730
gfz2012iblc  -0.29907
gfz2012iblo  -1.19570
gfz2012icjo  -0.39542
gfz2012idxu  -0.90821
gfz2012iedy   1.22480
gfz2012iijk   2.60330
gfz2012iphs  -0.19363
gfz2012ivyg  -0.54923
gfz2012jaun  -0.39105
gfz2012jihg  -0.60402
gfz2012jodg  -0.19408
gfz2012jopi  -0.68376
gfz2012kmbo   1.42280
gfz2012kmmz   0.95216
gfz2012kstg   1.41680
gfz2012kyhj   1.64960
gfz2012ldjj  -0.34893
gfz2012lngq  -0.82263
gfz2012lvwx  -0.77835
gfz2012lvxx  -2.02370
gfz2012lwha  -1.61110
gfz2012lyyr  -0.67421
gfz2012mdzf  -0.79631
gfz2012mjuu  -0.41207
gfz2012mmiw   2.08760
gfz2012moul   0.17107
gfz2012movv  -1.52900
gfz2012mrqk   3.67560
gfz2012mxvk   1.09980
gfz2012mzco   1.03460
gfz2012ndwt  -0.22612
gfz2012nldz   4.85620
gfz2012nnqu  -0.62153
gfz2012oafg  -0.29298
gfz2012oehy   0.42773
gfz2012ofaj   0.69188
gfz2012ogqu   5.20230
gfz2012oiez  -1.55980
gfz2012ojmv   0.20066
gfz2012onhu   1.04990
gfz2012oork   3.34730
gfz2012ormy  -0.29195
gfz2012pcui   0.39124
gfz2012pdav   2.26620
gfz2012phns  -0.81282
gfz2012pmuj  -1.63320
gfz2012qbbt  -0.50987
gfz2012qfov   0.08669
gfz2012qllj   0.26943
gfz2012rjlp   7.87020
gfz2012rknz  -0.15647
gfz2012roan   3.44400
gfz2012sgfd   0.03702
gfz2012sjdy   0.72245
gfz2012smyn   1.79330
gfz2012socz   1.75620
gfz2012sqsc  -2.03620
gfz2012svwz   1.55680
gfz2012sxbo  -0.27430
gfz2012sxpr   0.86242
gfz2012sxzs   0.50564
gfz2012syum  -1.61810
gfz2012tisj  -0.74661
gfz2012tjwg   0.39888
gfz2012touh   1.55940
gfz2012tqjc   1.99540
gfz2012trss   1.13940
gfz2012uhtc   0.09520
gfz2012unxc   0.37497
gfz2012uzww  -0.31696
gfz2012vitw   0.21457
gfz2012vqmq   1.36110
gfz2012vsav   1.63320
gfz2012vzkm   0.22788
gfz2012wbeu   0.89860
gfz2012wgmg  -0.38820
gfz2012wiyv   5.36310
gfz2012wjpf  -0.12381
gfz2012wowu  -2.02860
gfz2012wqfz  -1.56710
gfz2012xask  -0.23218
gfz2012xkln  -0.53771
gfz2012xlas  -0.17911
gfz2012xlfo  -0.11307
gfz2012xppl  -0.94923
gfz2012xtvu   0.25670
gfz2012xwgb  -0.27050
gfz2012xwkx   0.72614
gfz2012xxdj   0.29776
gfz2012yncm  -0.68931
gfz2012ywei   0.70551
gfz2012yygz  -0.35707
gfz2012yytb  -0.75443
gfz2012zkhu   1.52030
gfz2012zmfc   0.67100
gfz2013adih   0.12192
gfz2013aggr   3.03760
gfz2013agmt  -3.21260
gfz2013atec  -1.20640
gfz2013bdvi  -0.85140
gfz2013bwgw  -1.28050
gfz2013cqee  -0.09510
gfz2013cvve  -0.80772
gfz2013cyvx   0.42563
gfz2013delq  -1.25620
gfz2013dfvx  -2.33870
gfz2013djfi  -0.19368
gfz2013dngd  -0.79336
gfz2013dzvr   0.34088
gfz2013efct  -0.15793
gfz2013ezmc  -0.09939
gfz2013fmcp   0.95015
gfz2013foto   1.66300
gfz2013fthi  -0.26597
gfz2013fulo   0.66735
gfz2013fwbm   0.51071
gfz2013gbki   0.28901
gfz2013gglk   3.28490
gfz2013gqtl   0.89387
gfz2013gsnl  -0.64338
gfz2013gugi   0.41058
gfz2013gurk  -0.14156
gfz2013havw   0.70641
gfz2013hbwy  -0.97108
gfz2013hdbp  -0.21167
gfz2013hduf   0.03370
gfz2013hjtt   0.36628
gfz2013hqaa   0.14174
gfz2013icql   0.66202
gfz2013ifag   0.55525
gfz2013irme  -0.14464
gfz2013iuyv  -1.02380
gfz2013iwzn   4.43570
gfz2013jfcn   0.02398
gfz2013jjae  -1.34510
gfz2013jlli   0.30841
gfz2013jobl   0.04363
gfz2013kats  -2.48830
gfz2013kbbg  -2.54420
gfz2013kbbn  -0.21345
gfz2013kbkp   1.28530
gfz2013kcdb   0.78071
gfz2013kdfy   0.03532
gfz2013kqab  -1.79940
gfz2013kxof  -0.02982
gfz2013lbvl  -0.48031
gfz2013ljdu   0.46697
gfz2013lnne  -1.55290
gfz2013lxnd  -0.17935
gfz2013msmy  -2.32540
gfz2013mvgq  -0.04889
gfz2013mzaw  -0.05827
gfz2013njjh  -2.67000
gfz2013njwj  -2.91040
gfz2013nkgd   3.24580
gfz2013nkgt   0.74094
gfz2013ntiu  -0.74771
gfz2013oizq   0.00915
gfz2013oywh  -0.75516
gfz2013phhi   3.23410
gfz2013pifg  -1.64950
gfz2013pizm   0.73426
gfz2013pkmz  -0.20078
gfz2013pwsm  -0.03138
gfz2013qmkt   0.12572
gfz2013quwz  -1.50110
gfz2013quyn  -5.54070
gfz2013qxof   0.29332
gfz2013rdmn  -2.47140
gfz2013rhxf   0.28943
gfz2013stup   0.61542
gfz2013syqp  -0.61887
gfz2013taeb   0.18066
gfz2013tdsx   0.13859
gfz2013tjub   2.10270
gfz2013tkcg   1.40320
gfz2013tpwl  -0.05672
gfz2013trsq   0.84160
gfz2013ttmk  -0.09497
gfz2013twbc   1.98850
gfz2013uhio  -0.18523
gfz2013ujze   0.39279
gfz2013ummt  -0.95898
gfz2013upqj  -0.55265
gfz2013utqa  -0.43323
gfz2013uwjo   3.44460
gfz2013uwxb   1.06490
gfz2013uwxi   1.58370
gfz2013uxzw  -2.89140
gfz2013veoz   2.67390
gfz2013veug  -0.91646
gfz2013vjrr  -0.35737
gfz2013vmrv  -1.28670
gfz2013vnwa  -0.48246
gfz2013vojy  -1.22020
gfz2013vsdd   1.12460
gfz2013wgwz  -2.25490
gfz2013wyfl   0.11230
gfz2013xahp  -0.62979
gfz2013xjmo  -3.27580
gfz2013xmzw  -0.52651
gfz2013xofz   3.78320
gfz2013xswc  -1.04290
gfz2013xuxr   1.34720
gfz2013yawe  -1.60700
gfz2013ygsj  -2.81190
gfz2013ykqw   2.09580
gfz2013yodm  -0.54424
gfz2013ytmi   0.99129
gfz2013zbfb  -1.56420
gfz2013zfbz   0.03830
gfz2013zghn  -0.41584
gfz2013zkta   1.14500
gfz2014aqop   0.73865
gfz2014avux  -1.23210
gfz2014bdju  -0.32553
gfz2014brkk   0.63922
gfz2014bztn  -0.89013
gfz2014cokw  -0.81330
gfz2014cvnb  -0.28507
gfz2014dsqr  -2.92170
gfz2014dykt  -0.79808
gfz2014ecor  -0.36046
gfz2014edmd   0.56318
gfz2014egvg  -0.65859
gfz2014eirs   1.63180
gfz2014eoay   0.39920
gfz2014epfm   2.09250
gfz2014etqu   1.16440
gfz2014evyu   1.44510
gfz2014eysf  -0.26460
gfz2014ezjq   0.63438
gfz2014ezld   0.34738
gfz2014ezvd   0.95490
gfz2014fbnr   1.94950
gfz2014fdhk  -0.06187
gfz2014fsir  -0.41520
gfz2014fxte  -0.36786
gfz2014fxuy  -0.98196
gfz2014gnvp   0.29313
gfz2014gpnr   1.12380
gfz2014gsfc  -1.73970
gfz2014gutd  -0.47694
gfz2014gypw   1.74670
gfz2014huah  -1.61230
gfz2014hzzf   0.41368
gfz2014iaqm  -0.60232
gfz2014icov  -0.03663
gfz2014igrp   0.13985
gfz2014ijsa   0.37366
gfz2014iltl   2.88240
gfz2014irlf   0.02453
gfz2014irln  -0.28086
gfz2014isov   0.92685
gfz2014jarg  -1.22220
gfz2014jayh  -0.45761
gfz2014jbfp   0.89962
gfz2014jcbj   1.54550
gfz2014jckg  -2.86720
gfz2014jffe  -1.02600
