# Nsamples: 286  MAD:  0.782  mean: -0.088  std:  1.484
gfz2010abfc  -0.54928
gfz2010aggj   0.24917
gfz2010aseg  -1.17030
gfz2010bklj   1.60290
gfz2010btme   1.03370
gfz2010bukb   0.15739
gfz2010bytu   2.56770
gfz2010cbnp   0.39298
gfz2010ccse   1.85860
gfz2010clbw   0.74011
gfz2010cllh   0.36540
gfz2010cngg   1.20800
gfz2010cnhd  -0.36945
gfz2010crgy  -0.95448
gfz2010crir  -0.46304
gfz2010cwrk   0.24933
gfz2010dask   2.53540
gfz2010djib  -2.49490
gfz2010drit   1.62210
gfz2010guwa   2.73420
gfz2010habf  -1.61930
gfz2010hexh   0.13925
gfz2010izag   2.37250
gfz2010jlvp  -3.06600
gfz2010mdti   0.70865
gfz2010mguv   0.07335
gfz2010mqzz  -0.06747
gfz2010pcya   0.78759
gfz2010pzza  -0.38700
gfz2010qloa   0.69264
gfz2010rljv   6.47230
gfz2010rpjd  -0.28165
gfz2010scht   0.13125
gfz2010tpcj  -1.22600
gfz2010tzma  -1.33400
gfz2010vong   0.00149
gfz2010xhqq  -0.47051
gfz2010xnbn  -1.68400
gfz2010xney  -2.90180
gfz2010xpzq  -0.36387
gfz2010zjun   0.06106
gfz2011ahvh  -0.75073
gfz2011ameb  -0.48533
gfz2011aqpp   1.43560
gfz2011awsv  -0.49749
gfz2011bcvc  -0.10656
gfz2011bpqm  -1.06110
gfz2011bwsm   5.97650
gfz2011bygs  -0.24340
gfz2011cdge   2.80170
gfz2011chsa  -0.94778
gfz2011dabj  -1.54030
gfz2011dhfg  -0.00839
gfz2011dpyu  -2.52790
gfz2011drmu  -1.33700
gfz2011dwae  -0.27610
gfz2011ekty   0.56484
gfz2011etkc  -1.04650
gfz2011fges   0.11219
gfz2011fnie  -3.44950
gfz2011gdrl   0.61382
gfz2011ggnl   1.38480
gfz2011glpg  -0.15986
gfz2011gnbk   0.20607
gfz2011hatg  -0.05742
gfz2011hjof   0.69987
gfz2011iryz  -0.32346
gfz2011kgvq   0.23796
gfz2011lrpv   0.40133
gfz2011mjje   0.13754
gfz2011ndhh  -5.57730
gfz2011nejg   2.72400
gfz2011nfcz  -0.62110
gfz2011nijp  -3.45010
gfz2011niuw  -0.15355
gfz2011nlum  -0.07293
gfz2011oadm  -0.93231
gfz2011oazk   0.62947
gfz2011ofpj  -0.45875
gfz2011oqjl  -0.54063
gfz2011oslk  -2.73650
gfz2011owqa  -0.52918
gfz2011paqj  -0.08804
gfz2011pmuv  -0.03065
gfz2011poug  -1.39710
gfz2011ppsc   2.36300
gfz2011qukj   0.01188
gfz2011rkau  -1.85580
gfz2011scma  -1.33200
gfz2011sdax   0.07594
gfz2011sqxp   6.85220
gfz2011tqgg   0.19128
gfz2011tsgl   0.07236
gfz2011ugbt  -1.01440
gfz2011uowi   0.00469
gfz2011uqry  -3.94280
gfz2011urwz   3.36460
gfz2011wcvs  -2.14150
gfz2011wqup   0.14175
gfz2011wucg  -0.88846
gfz2011yexx  -0.20251
gfz2011zghc  -1.30370
gfz2012aisj   0.33136
gfz2012alti  -1.00490
gfz2012amjx  -0.51941
gfz2012aqpa   1.19320
gfz2012beae  -1.14730
gfz2012bjhl   1.61450
gfz2012bolx  -0.10220
gfz2012bqcf  -1.81150
gfz2012cdju   0.26501
gfz2012cmww  -0.58417
gfz2012cntu   0.03984
gfz2012dtlu  -0.40576
gfz2012dwwu   1.13340
gfz2012eeft   0.04306
gfz2012ekfp   0.34765
gfz2012fhaf   0.16975
gfz2012fiiz   1.58010
gfz2012ghiv  -0.12508
gfz2012gjdg   0.12322
gfz2012gjtd  -2.79740
gfz2012heih   0.27072
gfz2012hmcv   0.13197
gfz2012hvtu   2.69270
gfz2012iijk  -3.65970
gfz2012ipdc  -0.28586
gfz2012iroy   0.20637
gfz2012kadi   0.11204
gfz2012klpl   0.40669
gfz2012kmbo  -0.44354
gfz2012kmmz  -2.04950
gfz2012kwmx  -0.19115
gfz2012lqhw   2.43360
gfz2012mmiw  -2.76550
gfz2012nfos  -0.66629
gfz2012nldz  -2.90470
gfz2012nqvd  -0.56350
gfz2012oafg  -0.89618
gfz2012ofnx  -1.55920
gfz2012oozp   0.67129
gfz2012pgmw  -0.13979
gfz2012phns  -0.13509
gfz2012pmuj   0.53598
gfz2012qpoc   1.62340
gfz2012rknz   4.87650
gfz2012rzwp   0.99904
gfz2012scuk   0.28729
gfz2012socz   0.76273
gfz2012sqsc   1.88380
gfz2012suqd  -0.38258
gfz2012swbz   0.75994
gfz2012tgta   1.54070
gfz2012tisj   1.39530
gfz2012trss  -3.01910
gfz2012twec   0.41579
gfz2012uovh   2.23290
gfz2012uvoa  -0.65529
gfz2012uzww   0.15772
gfz2012vgot  -0.52641
gfz2012vitw  -0.15370
gfz2012wgdv   0.20954
gfz2012wgmg   1.06650
gfz2012wicr   0.30251
gfz2012wmas  -0.01854
gfz2012woxj   0.27342
gfz2012xlfo   0.15978
gfz2012xncm  -0.85994
gfz2012xxdj   0.03669
gfz2012zqis   1.96640
gfz2013agbm  -1.51050
gfz2013aggr  -0.90794
gfz2013akkd   0.79441
gfz2013bwgw  -1.64450
gfz2013byyy   0.35923
gfz2013cqak  -0.88979
gfz2013cvve  -2.21720
gfz2013cyvx  -0.55305
gfz2013dbhl   0.10728
gfz2013delq   0.45480
gfz2013dftb  -0.17457
gfz2013djfi  -0.78339
gfz2013dngd   1.28490
gfz2013dnot   0.13709
gfz2013dvub  -0.24302
gfz2013dzvr  -0.22219
gfz2013eazm  -0.59963
gfz2013efct  -0.11777
gfz2013eidd   0.12926
gfz2013enrh   1.22710
gfz2013evcl  -0.75240
gfz2013ffjt   0.38614
gfz2013fnpa   0.12803
gfz2013foto  -0.66310
gfz2013fulo  -0.89772
gfz2013fybd   0.75601
gfz2013gkyn   1.08180
gfz2013glkq  -2.36070
gfz2013gomv   1.04600
gfz2013hjtt  -1.70080
gfz2013irme  -1.03490
gfz2013iwzn  -0.29480
gfz2013iybg   0.65283
gfz2013jfcn  -1.74740
gfz2013jhog   0.13237
gfz2013jkqn   3.51530
gfz2013jrqf   0.25160
gfz2013kcdb  -1.21060
gfz2013kslp   1.01890
gfz2013ljdu   0.39023
gfz2013lnts   0.43564
gfz2013lvxe   0.12264
gfz2013lxed  -0.39476
gfz2013mimp   0.04811
gfz2013msmy  -0.07537
gfz2013ojza   0.50169
gfz2013onvl   1.14730
gfz2013oruq   4.92380
gfz2013oywh  -1.04510
gfz2013phhi   0.21863
gfz2013pkmz   0.99747
gfz2013qigb  -0.41136
gfz2013qogb  -0.72333
gfz2013qwnm  -0.02519
gfz2013qxof  -0.19020
gfz2013rdmn  -1.19860
gfz2013rocs  -0.20234
gfz2013rwkj  -0.92537
gfz2013ryph   0.38389
gfz2013taeb  -2.26250
gfz2013twbc   0.98071
gfz2013ubgt  -0.37717
gfz2013udtw  -0.72735
gfz2013uepl  -0.36824
gfz2013unuv  -0.12535
gfz2013uugc  -0.12292
gfz2013vmrv  -2.88800
gfz2013vnwa  -0.45844
gfz2013vvre  -1.11850
gfz2013vwkh   0.39880
gfz2013wpns  -0.72510
gfz2013wyfl  -0.48923
gfz2013xbdc   0.87033
gfz2013xofz  -1.25430
gfz2013xswc  -0.21496
gfz2013xycz   0.20846
gfz2013ylxn  -0.07626
gfz2013yqkz  -0.34519
gfz2013yqtu  -0.18399
gfz2014aqax   1.60760
gfz2014ateb  -0.73405
gfz2014avzp   0.01881
gfz2014bgyv   0.49035
gfz2014bnea   1.18990
gfz2014bqpm  -0.25193
gfz2014byes  -0.86195
gfz2014cgoi  -0.35984
gfz2014cokw   0.00899
gfz2014cvnb  -0.03688
gfz2014dggw   1.52890
gfz2014dmrw   0.08245
gfz2014dwcp  -0.05483
gfz2014eiav  -0.43714
gfz2014eoay  -0.14467
gfz2014esez  -0.44868
gfz2014eunw   0.04068
gfz2014fbli  -0.16239
gfz2014ffqg  -0.58288
gfz2014fsir  -0.44494
gfz2014fsje   0.02894
gfz2014fxte  -0.57688
gfz2014fxuy  -3.26230
gfz2014gnvp  -0.00000
gfz2014hyea   0.20913
gfz2014hzzf  -2.81980
gfz2014icov  -3.46810
gfz2014iltl  -1.11330
gfz2014irlf  -0.95628
gfz2014irln  -0.24161
gfz2014irly   0.25111
gfz2014isjg  -0.17892
gfz2014iusw  -0.46450
gfz2014ivgm   0.57614
gfz2014jarg  -1.61500
gfz2014jayh  -0.85384
gfz2014jckg  -0.00000
