# Nsamples: 48  MAD:  0.987  mean:  0.200  std:  1.313
gfz2010byau   1.15870
gfz2010djib   0.33862
gfz2010wakc   0.31980
gfz2010yhhj   0.65648
gfz2010zjun   0.34245
gfz2011bsvr  -0.56793
gfz2011ndki  -0.60754
gfz2011ndlh   0.24207
gfz2011ndse   0.08125
gfz2011neai  -1.20850
gfz2011nejg  -1.47520
gfz2011nejw   0.90845
gfz2011nfww   1.60210
gfz2011nijp   0.89912
gfz2011nilw  -1.13360
gfz2011niuw   0.71992
gfz2011nlmf   1.99130
gfz2011nlnl  -0.82928
gfz2011nyzk  -0.27521
gfz2011oadm   0.79319
gfz2011oqjl   0.09276
gfz2011paqj   0.52523
gfz2011pfwq   1.59000
gfz2011plzc  -0.79042
gfz2011qenl   3.47930
gfz2011tsgl   0.22856
gfz2011udxo   0.17370
gfz2011ugbt   0.24724
gfz2011urwz  -0.16380
gfz2011vcyx   0.24837
gfz2011wgoa  -2.14570
gfz2011ymji   0.14090
gfz2011ywtj   0.01984
gfz2012byrq   0.33702
gfz2012dugf   0.56364
gfz2012dysu   0.33794
gfz2012hzur  -0.43291
gfz2012kmmz   2.29940
gfz2012mjuu   0.93758
gfz2012mrqk  -0.47858
gfz2012qpoc  -0.39511
gfz2012syum  -0.59038
gfz2012tqjc  -0.95606
gfz2012wowu   4.71200
gfz2013lxed  -1.24110
gfz2013okac   0.78910
gfz2013sdkg  -0.50105
gfz2013wyho  -3.39830
