# Nsamples: 355  MAD:  0.648  mean: -0.026  std:  0.933
gfz2010crgy   0.16402
gfz2010crir   0.18733
gfz2010cthm   1.23690
gfz2010dxhq  -0.37927
gfz2010fgbo  -0.03593
gfz2010fnkr   0.27580
gfz2010ftfq  -0.28077
gfz2010gcqp   0.03645
gfz2010habf  -0.74274
gfz2010mguv  -0.24958
gfz2010mqaj  -6.30240
gfz2010mqzz   0.11327
gfz2010nkrw  -0.86962
gfz2010okpc  -0.18306
gfz2010osaq   0.12167
gfz2010pclq   1.16030
gfz2010pcya  -1.54810
gfz2010pgpo   0.51839
gfz2010pzza  -0.17261
gfz2010qdqk  -1.49380
gfz2010qloa  -0.92277
gfz2010rhvu   2.62760
gfz2010rkuu  -0.17434
gfz2010rnqa  -0.56835
gfz2010rnwt  -1.39960
gfz2010rpjd   0.16927
gfz2010scht  -0.36909
gfz2010sdfs   2.28100
gfz2010sook   0.65417
gfz2010tcgh   1.13970
gfz2010tmba  -0.29067
gfz2010ugws  -0.64298
gfz2010uhjy  -0.88622
gfz2010upod  -0.47523
gfz2010vong  -0.56979
gfz2010vyri  -0.65008
gfz2010wakc  -1.53790
gfz2010xamh   1.14690
gfz2010xkku  -0.04388
gfz2010xnbn  -1.68930
gfz2010yfdr   0.77161
gfz2010yhdn   1.18210
gfz2010yspe  -0.21910
gfz2010ytzb  -0.03576
gfz2010zjun  -0.03872
gfz2011ahvh   1.45590
gfz2011ameb  -0.69616
gfz2011awsv  -0.10387
gfz2011bffb  -0.13992
gfz2011bpqm  -0.09814
gfz2011bsvr  -1.90510
gfz2011bvog   1.12450
gfz2011bygs   0.10039
gfz2011bygu  -0.48894
gfz2011cdge   1.68450
gfz2011cjuz  -1.02630
gfz2011cwzi   1.30860
gfz2011cxdj   0.52909
gfz2011dabj  -1.23360
gfz2011dbzc  -0.86173
gfz2011dpyu   0.86745
gfz2011exxq  -0.30846
gfz2011fszl   0.34953
gfz2011fyfu  -0.00105
gfz2011fzcw   2.90070
gfz2011gdli  -0.44380
gfz2011gdrl   0.06565
gfz2011ggnl   0.93735
gfz2011gnbk   0.21148
gfz2011gpyr   0.42055
gfz2011haaa   0.17391
gfz2011hatg  -0.42449
gfz2011hibi   0.77985
gfz2011hjof   0.16666
gfz2011hmnw   0.30226
gfz2011hqjs  -0.36904
gfz2011hyct   1.43370
gfz2011iryz   0.36428
gfz2011ituo   0.51856
gfz2011jdoz   2.25940
gfz2011jphj  -0.63948
gfz2011kjzt   2.10960
gfz2011lwmg  -1.59600
gfz2011mjje   0.06224
gfz2011mllb  -0.78841
gfz2011mror  -1.49940
gfz2011nblt  -1.36610
gfz2011ndhh   0.95663
gfz2011nejg   1.47360
gfz2011nfcz   0.06948
gfz2011nfwd   0.04403
gfz2011nhhd   0.00000
gfz2011nilw  -0.22427
gfz2011niuw  -1.61940
gfz2011nkou  -0.56260
gfz2011nlum   1.22070
gfz2011nnda  -0.10228
gfz2011oadm  -0.34078
gfz2011ofpj   0.41839
gfz2011ohgj   0.32979
gfz2011oslk   0.08245
gfz2011osmp  -0.28144
gfz2011owqa  -1.60120
gfz2011paqj   0.40303
gfz2011pfls  -0.17479
gfz2011pimj  -0.08870
gfz2011pivq   1.23940
gfz2011pmuv   0.16581
gfz2011pphc  -0.08028
gfz2011prrq   0.26451
gfz2011qenl   1.05010
gfz2011qhjw  -0.52913
gfz2011rkau   1.36600
gfz2011rnny   0.33339
gfz2011scma  -1.64010
gfz2011sdax   0.76211
gfz2011sqco  -2.16240
gfz2011sskq  -0.27318
gfz2011tqgg   0.14188
gfz2011tsgl  -0.65741
gfz2011tssv   0.12763
gfz2011tzcv   0.82136
gfz2011ugbt  -1.28100
gfz2011uowi  -0.16718
gfz2011uqry   1.09190
gfz2011vahy  -0.39984
gfz2011vcyx   1.18180
gfz2011vswj  -0.93472
gfz2011vtzv   0.15968
gfz2011vxek  -0.30068
gfz2011wcvs  -1.93940
gfz2011wkja   0.03949
gfz2011wkyx  -0.74379
gfz2011wucg  -0.60872
gfz2011xnui  -0.78648
gfz2011zghc  -1.50240
gfz2012amvs   0.30008
gfz2012bolx   0.04119
gfz2012bqcf   0.05472
gfz2012byrq   2.23860
gfz2012cvfr   2.49430
gfz2012dejg   0.09662
gfz2012dtdt  -0.50823
gfz2012dwwu  -0.27321
gfz2012ebrr   0.47032
gfz2012ekfp  -1.77610
gfz2012elek   0.42765
gfz2012fyny   0.77770
gfz2012gjdg  -0.13951
gfz2012gmsr   1.76200
gfz2012gnow  -0.50448
gfz2012hdny   0.70799
gfz2012hwph   0.95870
gfz2012iijk  -1.85810
gfz2012ikke  -0.39568
gfz2012iroy   0.14500
gfz2012jnlt   0.01926
gfz2012kmbo   1.03980
gfz2012kmmz  -0.08435
gfz2012ldjj   0.43830
gfz2012lqhw   0.38276
gfz2012lwha  -0.03404
gfz2012mcrb  -0.12451
gfz2012mdzf  -0.51289
gfz2012mhik  -0.65449
gfz2012mjuu   0.37025
gfz2012moul  -0.64549
gfz2012mrqk   0.67550
gfz2012mvgu   0.00224
gfz2012mzco   2.32210
gfz2012nnqu  -1.43410
gfz2012nsxc  -0.29733
gfz2012oafg  -0.33681
gfz2012oehy   0.21172
gfz2012ogwe   0.04472
gfz2012ohgd  -0.03812
gfz2012pdav  -0.05077
gfz2012pdfi   1.36030
gfz2012pekf  -0.08579
gfz2012phns   0.06153
gfz2012pmuj  -0.80942
gfz2012pumy  -1.02950
gfz2012pvve  -0.30940
gfz2012qbbt  -0.82922
gfz2012qfov   0.92732
gfz2012rzwp   0.83514
gfz2012smyn   1.00940
gfz2012socz  -0.76702
gfz2012sqsc   0.32977
gfz2012ssnb   0.25341
gfz2012suqd  -0.53970
gfz2012svwz  -0.88555
gfz2012swbz  -0.53797
gfz2012syum  -0.46718
gfz2012taph  -0.43352
gfz2012tgta  -0.25607
gfz2012thyh   0.29491
gfz2012tqjc   0.08822
gfz2012twec  -0.34769
gfz2012udeo   0.90262
gfz2012uegq   1.55530
gfz2012uhsx  -0.06927
gfz2012uhtc   0.14439
gfz2012uvoa  -1.64550
gfz2012uzww  -0.22612
gfz2012vgot   0.27589
gfz2012vlzv  -0.07937
gfz2012vsav   0.72932
gfz2012wbeu   0.92153
gfz2012wgmg  -0.31509
gfz2012wicr   0.50108
gfz2012wiyv   1.49850
gfz2012wkki  -0.85402
gfz2012wowu   1.16420
gfz2012woxj  -0.33578
gfz2012wpen  -0.71070
gfz2012xlfo  -0.39283
gfz2012xncm  -0.62035
gfz2012xrmq  -0.13760
gfz2012xxdj   0.49427
gfz2012yegw  -0.65226
gfz2012yncm   0.63253
gfz2013bwgw  -0.75592
gfz2013byyy  -0.16014
gfz2013cinv  -0.46935
gfz2013cyvx   0.03024
gfz2013delq  -0.46686
gfz2013dftb  -0.14259
gfz2013djfi   0.35933
gfz2013dnot   0.01697
gfz2013dzvr   0.40008
gfz2013efct  -0.11712
gfz2013enqo   1.93300
gfz2013ezmc   0.00000
gfz2013fnpa  -0.33756
gfz2013foto  -0.61333
gfz2013fvyr  -0.49493
gfz2013hduf   0.32834
gfz2013hiam  -0.83474
gfz2013hjtt  -0.97071
gfz2013hqaa   0.86212
gfz2013icgx  -0.49658
gfz2013icql   1.01280
gfz2013iwzn   0.21236
gfz2013jfcn  -0.33577
gfz2013jlli   0.01536
gfz2013jobl  -0.26049
gfz2013jrqf   1.12510
gfz2013jtsg   1.75320
gfz2013kats  -0.22188
gfz2013kbbg   0.01230
gfz2013kbkp  -0.53589
gfz2013kcdb   0.12156
gfz2013kpcb   0.12332
gfz2013kqab  -0.66766
gfz2013kruh   0.20511
gfz2013kxlr   0.42303
gfz2013lbod  -0.74582
gfz2013lbvl   0.23383
gfz2013lcrk  -0.99032
gfz2013lgvf   0.22601
gfz2013mdxj  -0.25089
gfz2013msmy  -0.28340
gfz2013mvgq   0.27699
gfz2013mzaw   0.35889
gfz2013ntiu  -0.88423
gfz2013onvl  -0.12868
gfz2013oywh  -1.30660
gfz2013phhi   0.72309
gfz2013pkmz  -0.40203
gfz2013pwsm  -0.48237
gfz2013qaov  -0.04163
gfz2013qapj  -0.64021
gfz2013qigb  -0.56599
gfz2013qogb  -1.77390
gfz2013quwz  -0.92679
gfz2013quyn  -0.23538
gfz2013qxof  -0.02550
gfz2013rdmn   1.95630
gfz2013rhxf  -0.43262
gfz2013rocs  -0.18659
gfz2013skvq  -0.17121
gfz2013stup   3.51080
gfz2013syqp  -0.83553
gfz2013tdsx  -0.08031
gfz2013tgia  -0.13823
gfz2013timw   0.44477
gfz2013tkcg  -0.37620
gfz2013tmyj   0.28936
gfz2013trsq   0.07845
gfz2013twbc   0.91411
gfz2013udtw  -0.93626
gfz2013unuv   0.06050
gfz2013upqj  -0.27000
gfz2013utqa   0.31885
gfz2013uzmf  -0.04650
gfz2013veug  -0.53037
gfz2013vfix  -0.10047
gfz2013vgfb   0.39102
gfz2013vjrr   0.81663
gfz2013vmrv  -0.65835
gfz2013vnwa   1.91320
gfz2013vsdd   0.28191
gfz2013vvre  -2.64370
gfz2013vwkh   0.07464
gfz2013vzel  -0.27130
gfz2013wgwz   0.26707
gfz2013wyfl  -0.02299
gfz2013xahp   0.09680
gfz2013xjmo  -0.64532
gfz2013xlic  -2.29580
gfz2013xmzw   0.35968
gfz2013xodn  -0.94763
gfz2013xofz  -0.21689
gfz2013yihv   0.11429
gfz2013yqtu  -1.01170
gfz2013yxhf   0.59348
gfz2013zedt   0.16344
gfz2013ziix  -3.15750
gfz2013zlak   0.78725
gfz2014aqop   0.29664
gfz2014ayxf   0.86607
gfz2014bdju   0.24131
gfz2014bkra  -1.09110
gfz2014bmqw   0.90151
gfz2014bppg   0.26151
gfz2014cokw   0.28345
gfz2014cvnb  -0.01917
gfz2014eirs   0.19309
gfz2014eoay  -0.06731
gfz2014fjfz  -1.02040
gfz2014fsir   0.25119
gfz2014fwxt   0.08590
gfz2014fxim  -0.08014
gfz2014fxte   0.11196
gfz2014fxtv   0.10506
gfz2014fxuy   0.60214
gfz2014gasb   0.56479
gfz2014happ   0.73374
gfz2014hqhv  -0.19204
gfz2014hzzf   0.95156
gfz2014icov  -1.20410
gfz2014igrp   0.27619
gfz2014iltl  -0.79373
gfz2014inrg   0.61000
gfz2014ipfu  -0.19440
gfz2014irlf  -0.10977
gfz2014irln  -0.50978
gfz2014irly   0.18720
gfz2014isjg  -0.02899
gfz2014itlx  -0.37113
gfz2014iusw  -0.30804
gfz2014jarg   0.53083
gfz2014jayh  -0.08782
gfz2014jbfp  -0.74382
