# Nsamples: 147  MAD:  0.561  mean:  0.004  std:  0.959
gfz2010aggj  -0.33917
gfz2010azji   0.13003
gfz2010bukb  -1.09890
gfz2010cllh  -0.56993
gfz2010crgy  -0.49317
gfz2010crir  -0.04562
gfz2010dask  -0.18443
gfz2010ethu  -0.24509
gfz2010fkpa   0.41348
gfz2010habf  -0.05816
gfz2010hueh   1.99920
gfz2010ngge   0.65693
gfz2010okpc   2.40110
gfz2010pgpo   1.19370
gfz2010pzza  -0.74137
gfz2010rkuu   0.82063
gfz2010rljv   1.32350
gfz2010sdfs   3.15490
gfz2010swqy   0.57774
gfz2010tmba   0.27574
gfz2010tzlz   0.49869
gfz2010tzma   0.27478
gfz2010ugws  -0.30165
gfz2010uhjy   0.06595
gfz2010vong   0.34578
gfz2010yczp   0.82009
gfz2010zjun  -0.45747
gfz2010zkle   5.76800
gfz2011bpqm  -1.22300
gfz2011dabj  -0.31355
gfz2011dhfg  -0.35368
gfz2011dpyu   0.35403
gfz2011duvm   0.21812
gfz2011fnie  -0.16644
gfz2011ggnl   1.44580
gfz2011gnbk   0.11493
gfz2011haaa   0.45186
gfz2011hatg  -0.58245
gfz2011hjof   0.44606
gfz2011hqjs  -0.07683
gfz2011hyct   0.79345
gfz2011jryv   0.28722
gfz2011ndhh  -0.19967
gfz2011neai  -0.64647
gfz2011nejg  -0.92294
gfz2011nfgt  -0.20664
gfz2011nifi   0.54966
gfz2011niuw  -1.37050
gfz2011oadm   1.01070
gfz2011ofpj  -0.24886
gfz2011ohgj  -0.42581
gfz2011oslk   0.01469
gfz2011ovvj  -0.94616
gfz2011owqa  -0.02042
gfz2011paqj  -1.07660
gfz2011ppsc  -0.27685
gfz2011qenl   0.22716
gfz2011qklh  -0.42138
gfz2011rnny  -0.34637
gfz2011sdax   0.35804
gfz2011tsgl  -0.95138
gfz2011uqry   0.06761
gfz2011vahy   0.20001
gfz2011wwze  -0.15466
gfz2011xgbc  -0.68400
gfz2012bqcf  -0.11187
gfz2012cksh  -0.48567
gfz2012cntu   0.30106
gfz2012cvfr   0.27478
gfz2012dejg   0.85957
gfz2012ekfp   0.63920
gfz2012hdny  -0.21602
gfz2012iijk   0.58186
gfz2012iyhs   0.46160
gfz2012jnlt  -0.70664
gfz2012kmbo  -0.40713
gfz2012kstg   0.08003
gfz2012ldjj  -0.42777
gfz2012mdzf   0.00000
gfz2012nqvd  -0.34381
gfz2012oafg  -0.13974
gfz2012oork   1.70960
gfz2012pvve  -0.44257
gfz2012rzwp  -0.56904
gfz2012sqsc  -0.42730
gfz2012tisj   0.13954
gfz2012uvoa  -0.16176
gfz2012uzww  -0.18064
gfz2012wgmg   0.03341
gfz2012wysg   0.08440
gfz2013cyvx   0.14329
gfz2013delq  -0.60224
gfz2013dzvr   0.59927
gfz2013enqo  -1.35450
gfz2013hwps   0.90139
gfz2013icql  -0.29213
gfz2013irme  -0.04744
gfz2013iuyv   0.48244
gfz2013jfcn  -0.17257
gfz2013jhog  -0.19568
gfz2013jlli  -0.30381
gfz2013jobl  -0.26307
gfz2013kats  -0.28832
gfz2013kbbg  -0.52843
gfz2013kbbn  -1.46270
gfz2013kcdb  -0.13899
gfz2013kjgh   1.16020
gfz2013kpcb  -0.01606
gfz2013lbvl   0.33390
gfz2013ljwt  -2.64880
gfz2013mdxj  -0.05315
gfz2013mzaw   0.22166
gfz2013oizq  -1.98070
gfz2013phhi   0.59867
gfz2013pkmz  -0.56783
gfz2013pqkp   0.13370
gfz2013qnqr  -0.25898
gfz2013qoak  -0.02945
gfz2013rocs   0.35167
gfz2013rwkj  -0.47617
gfz2013ryph   0.05341
gfz2013skvq   0.06862
gfz2013syqp  -0.43646
gfz2013udtw   0.12079
gfz2013vcgd  -0.63938
gfz2013vmrv  -0.92409
gfz2013wyfl   0.39423
gfz2013xahp   1.30150
gfz2013xmzw   0.46557
gfz2013xswc   0.93383
gfz2013yxhf   0.46652
gfz2014bdju  -0.11740
gfz2014bqpm  -0.23877
gfz2014cwcj   0.59526
gfz2014edjm  -0.02503
gfz2014fbli   0.22958
gfz2014fsir  -0.12727
gfz2014fxte   0.05566
gfz2014hyea   0.12368
gfz2014icov  -0.65897
gfz2014iltl  -0.39604
gfz2014irlf  -0.46471
gfz2014irln   0.08963
gfz2014irly  -5.01070
gfz2014iusw   0.09104
gfz2014jarg  -0.16046
gfz2014jayh  -0.07022
