# Nsamples: 198  MAD:  0.356  mean:  0.007  std:  0.592
gfz2010dask   0.26913
gfz2010djib  -0.29362
gfz2010drit   0.06622
gfz2010dxhq  -1.21490
gfz2010fjme  -0.24897
gfz2010habf  -0.29342
gfz2010hueh  -0.30053
gfz2010iaay  -0.41505
gfz2010ifhd  -0.64149
gfz2010izag   0.13560
gfz2010jlvp  -0.41991
gfz2010mdti  -0.32643
gfz2010ngge   0.05071
gfz2010okpc   1.68250
gfz2010pclq   0.11600
gfz2010pcya   1.78360
gfz2010pzza  -0.55579
gfz2010qdqk  -0.56594
gfz2010qrta  -0.03356
gfz2010rkuu   0.05549
gfz2010rljv   0.00915
gfz2010rnwt   1.15430
gfz2010rpjd   0.32986
gfz2010sdfs   2.11890
gfz2010tmba   0.02465
gfz2010tpcj  -0.33932
gfz2010tzlz  -0.28120
gfz2010tzma  -0.15257
gfz2010ugws   0.27182
gfz2010uhjy  -0.00000
gfz2010umyp   0.85260
gfz2010uogw  -0.26363
gfz2010vong  -0.00153
gfz2010wakc   0.02781
gfz2010xamh   0.20882
gfz2010xnbn  -0.81389
gfz2010xpzq   0.44706
gfz2010zjun   0.07350
gfz2011amst   1.34700
gfz2011bpqm  -0.36843
gfz2011bygu   0.11400
gfz2011cdge  -0.25778
gfz2011dabj  -0.82946
gfz2011dhfg   0.07917
gfz2011dpyu  -0.07750
gfz2011fnie  -0.26687
gfz2011fszl   0.13709
gfz2011fzcw   1.28210
gfz2011ggnl  -1.14450
gfz2011gnbk  -0.13248
gfz2011hjof  -0.06965
gfz2011hqjs  -0.03797
gfz2011ituo   1.30450
gfz2011jryv   0.49950
gfz2011kjzt  -0.35301
gfz2011kjzv  -0.37727
gfz2011lkkf   0.73930
gfz2011lwmg  -0.61982
gfz2011mjje  -0.46987
gfz2011ndhh   0.46960
gfz2011nfcz  -0.19394
gfz2011nhby   0.22295
gfz2011nijp  -0.09507
gfz2011nilw   0.16380
gfz2011niuw   0.54146
gfz2011nlum   0.44041
gfz2011nsiy   1.02710
gfz2011nuqo   0.78495
gfz2011ofpj  -0.24742
gfz2011okza  -1.20170
gfz2011oslk  -0.18221
gfz2011owqa  -0.32221
gfz2011paqj  -0.06937
gfz2011pdsn   0.83629
gfz2011ppsc  -0.07467
gfz2011pwbw  -0.01902
gfz2011qenl   0.19886
gfz2011qukj  -0.34208
gfz2011sdax  -0.39041
gfz2011sqco   0.97010
gfz2011taqr   0.88780
gfz2011tqgg   0.11194
gfz2011tsgl  -0.25133
gfz2011uqry   0.51865
gfz2011vahy  -0.18975
gfz2011vbxv   0.22653
gfz2011vcyx   0.70310
gfz2011vtzv  -0.03488
gfz2011wcvs  -0.25533
gfz2011wqup  -0.08511
gfz2011wucg   0.14220
gfz2011wwze   0.49705
gfz2011wyei  -0.48853
gfz2011xxng  -0.00000
gfz2011zghc   0.19874
gfz2012amvs   0.14939
gfz2012arlo  -0.08829
gfz2012bqcf  -0.23459
gfz2012cksh   0.85517
gfz2012cntu  -0.21836
gfz2012cvfr   0.13239
gfz2012dwwu   0.01182
gfz2012dyck  -0.09445
gfz2012ekfp   0.54820
gfz2012fyny   0.07493
gfz2012ghiv   0.32965
gfz2012gnow  -0.15182
gfz2012hzur  -1.45870
gfz2012iijk  -0.26199
gfz2012ldjj  -0.18395
gfz2012lyyr  -0.16379
gfz2012mdzf  -0.36332
gfz2012mjuu  -0.15685
gfz2012nnqu  -0.23025
gfz2012nqvd  -0.32937
gfz2012oafg   0.13916
gfz2012oehy  -0.03933
gfz2012ofnx  -0.31779
gfz2012phns  -0.16932
gfz2012sgfd   1.04940
gfz2012socz   0.11130
gfz2012sqsc  -0.07462
gfz2012suqd   0.12487
gfz2012svwz   0.15621
gfz2012sxbo   0.59751
gfz2012syum  -1.28300
gfz2012tisj  -0.43641
gfz2012uhtc  -0.11896
gfz2012uvoa  -0.05203
gfz2012uzww  -0.29115
gfz2012vrqz  -0.62788
gfz2012wgmg  -0.24117
gfz2012wkki   0.65066
gfz2012wowu  -0.02874
gfz2012wysg   0.11616
gfz2012xkln   0.17179
gfz2012xlas   0.23003
gfz2012xncm  -0.03812
gfz2012xqxw   0.23065
gfz2012xxdj  -0.27389
gfz2012yytb  -0.52666
gfz2013akkd   0.70970
gfz2013byyy  -0.39618
gfz2013cpjc  -0.26692
gfz2013cvve   0.44531
gfz2013cyvx  -0.03440
gfz2013delq  -0.60257
gfz2013dftb  -0.08805
gfz2013dfvx   1.45010
gfz2013dngd  -0.34960
gfz2013dzvr  -0.09584
gfz2013efct  -0.28836
gfz2013fnpa  -0.13597
gfz2013fulo  -0.42324
gfz2013fvht  -0.03880
gfz2013gurk  -0.09921
gfz2013hbmi   0.13514
gfz2013icql  -0.12981
gfz2013iuyv  -1.25970
gfz2013iwzn   1.39770
gfz2013jfcn   0.21997
gfz2013jobl  -0.23844
gfz2013kats  -0.29590
gfz2013kbbg  -0.18439
gfz2013kbbn   0.45769
gfz2013kcdb  -0.08742
gfz2013kpcb  -0.15859
gfz2013kqab   0.52507
gfz2013lbvl   0.37674
gfz2013mzaw  -0.13073
gfz2013oeni   0.02100
gfz2013oizq   0.16506
gfz2013otuj   0.16514
gfz2013qigb  -0.03689
gfz2013qoak  -0.32817
gfz2013quwz  -0.23423
gfz2013rdmn   0.02446
gfz2013rhbx   0.15460
gfz2013skay  -1.03350
gfz2013skvq   0.03232
gfz2013tjub  -0.03549
gfz2013udtw   0.09184
gfz2013upqj   0.23153
gfz2013uxzw  -0.55081
gfz2013veug  -0.20595
gfz2013vldx  -0.64259
gfz2013vnwa  -0.03379
gfz2013voai  -0.17509
gfz2013vojy  -0.59313
gfz2013vsdd   0.53602
gfz2013vvre   0.62245
gfz2013vzel  -0.57008
gfz2013xmzw   0.35488
gfz2013xswc   0.79680
gfz2013yqtu   0.62123
gfz2014bkra  -3.48030
gfz2014fsir   0.01615
gfz2014fxte   0.29311
