# Nsamples: 33  MAD:  0.638  mean:  1.243  std:  0.891
gfz2010dask   1.40390
gfz2010djib   1.17310
gfz2010habf   1.27210
gfz2010hueh   1.67850
gfz2010mpvc   0.44650
gfz2010pzza   0.88860
gfz2011bpqm   0.41187
gfz2011dabj   0.43819
gfz2011gnbk   1.52150
gfz2011hjof   1.69950
gfz2011ldgl   2.48670
gfz2011ndhh   0.45379
gfz2011nijp   0.96564
gfz2011niuw   4.40210
gfz2011oslk   0.53571
gfz2011qukj   2.62310
gfz2011sdax   1.60830
gfz2011uqry   1.00380
gfz2012cvfr   1.56690
gfz2012imsm   1.46500
gfz2012uzww   1.94970
gfz2013fulo   0.58637
gfz2013jfcn   1.27850
gfz2013kats   0.29779
gfz2013kcdb   1.76720
gfz2013qigb   0.88007
gfz2013qoak   0.60529
gfz2013zlak   1.83880
gfz2014cokw  -0.80718
gfz2014icov   1.39660
gfz2014iltl   0.69947
gfz2014irlf   1.62670
gfz2014irln   0.84191
