# Nsamples: 15  MAD:  1.034  mean:  1.184  std:  1.850
gfz2013dngd   2.04460
gfz2013iuyv   1.54280
gfz2013kcdb   0.70383
gfz2013mvgq   1.46110
gfz2013oywh   2.46860
gfz2013suck  -4.96740
gfz2013taeb   2.78540
gfz2013tert   0.81787
gfz2013upqj   2.39970
gfz2013vmsg   0.76379
gfz2013yawe   2.23500
gfz2013zlak   0.89916
gfz2014etqu   2.47950
gfz2014hzzf   1.16240
gfz2014jayh   0.95934
