# Nsamples: 449  MAD:  0.383  mean:  0.021  std:  0.734
gfz2010abfc  -0.28015
gfz2010aggj   0.20395
gfz2010aseg  -0.49420
gfz2010azji   0.06860
gfz2010bklj  -0.15293
gfz2010btme   1.56900
gfz2010ccwc  -0.08389
gfz2010ccye   0.08823
gfz2010clbw   0.09101
gfz2010cllh   0.56156
gfz2010cngg   0.12783
gfz2010cnhd   0.30892
gfz2010crgy  -0.32789
gfz2010crir   0.03332
gfz2010csle  -0.12795
gfz2010csmw  -0.40490
gfz2010cwrk  -0.10015
gfz2010cyid  -0.34821
gfz2010dask   0.13660
gfz2010djib   0.13548
gfz2010drit  -0.67818
gfz2010drml   0.13159
gfz2010drmq   0.13159
gfz2010drpv  -0.61694
gfz2010drun  -0.59762
gfz2010dwgy   0.25330
gfz2010dxhq  -0.10848
gfz2010ethu   0.10576
gfz2010fgbo   0.72025
gfz2010fpvw  -0.41338
gfz2010fxhh  -0.12311
gfz2010gonu   0.26167
gfz2010habf   0.13254
gfz2010iaay  -0.95825
gfz2010iawy  -0.04109
gfz2010ifhd   0.30902
gfz2010jlvp  -0.12784
gfz2010jvsi  -0.51511
gfz2010mdti  -0.34263
gfz2010mpvc  -0.73247
gfz2010mqaj  -1.89060
gfz2010ncwu  -0.44084
gfz2010ngge  -0.19137
gfz2010nwbd  -0.37118
gfz2010pclq  -0.09090
gfz2010pcya   0.05161
gfz2010pgpo  -0.02835
gfz2010pxoi  -0.85629
gfz2010pzza  -0.41180
gfz2010qqqx   0.36725
gfz2010qrta   0.04094
gfz2010rhvu   1.58520
gfz2010rkuu  -0.10427
gfz2010rljv  -0.11608
gfz2010rnqa   2.85210
gfz2010rnwt   1.20810
gfz2010rpjd   0.86509
gfz2010sdfs   3.81370
gfz2010shvn  -0.30279
gfz2010tmba   0.23037
gfz2010tqyo  -0.40121
gfz2010tzlz   0.21392
gfz2010tzma  -0.24630
gfz2010ugws   0.37994
gfz2010uhjy   0.13122
gfz2010uidg  -0.00000
gfz2010umyp  -0.17767
gfz2010vong  -0.09431
gfz2010wakc  -0.31120
gfz2010wyuj   0.44265
gfz2010xamh   0.46036
gfz2010xaxw  -0.01956
gfz2010xpzq   0.48197
gfz2010yczp  -0.21478
gfz2010yfdr   0.28196
gfz2010yhhj  -0.03979
gfz2010zjun   0.07119
gfz2011amst   2.08260
gfz2011aqpp  -0.39175
gfz2011bpqm  -0.08497
gfz2011bsvr  -0.05041
gfz2011bygs  -0.06114
gfz2011bygu   0.25277
gfz2011cdge  -0.46445
gfz2011chsa  -0.05366
gfz2011cjuz  -0.69886
gfz2011cwsm  -0.45494
gfz2011cwzi   0.54076
gfz2011dabj  -0.43528
gfz2011dhfg  -0.16209
gfz2011dpyu   0.03704
gfz2011duvm   1.45770
gfz2011emzr   0.01158
gfz2011fnie   0.05733
gfz2011fszl   0.20343
gfz2011fzcw   2.26190
gfz2011ggnl  -0.64342
gfz2011glpg  -0.26092
gfz2011gnbk  -0.32743
gfz2011gpyr  -0.29218
gfz2011haaa   0.16739
gfz2011hjof   0.16200
gfz2011hmnw  -0.20193
gfz2011hqjs  -0.16219
gfz2011hvzo  -0.41491
gfz2011hyct  -0.11418
gfz2011iamf   1.02290
gfz2011iryz  -0.11492
gfz2011ituo   0.99476
gfz2011jryv   0.52194
gfz2011kfch  -2.80600
gfz2011kjzt  -0.19585
gfz2011kjzv  -0.87225
gfz2011lmug  -0.51740
gfz2011lwmg  -0.05056
gfz2011mjje  -0.16951
gfz2011mzvn   0.15594
gfz2011ncyw  -0.33647
gfz2011ndhh   0.63297
gfz2011ndki  -0.10340
gfz2011ndlh  -0.84723
gfz2011ndse  -0.55976
gfz2011nejg   0.39103
gfz2011nejw  -0.33125
gfz2011nerb   0.02172
gfz2011nfcz   0.20305
gfz2011nfgt  -0.54530
gfz2011nfln  -2.00350
gfz2011nftw   0.40357
gfz2011nhby  -0.25123
gfz2011nhvt  -1.10500
gfz2011nihq   0.05499
gfz2011nijp   0.47220
gfz2011nilw  -0.31624
gfz2011niuw  -0.26370
gfz2011nlmf   1.28790
gfz2011nlnl   0.17880
gfz2011nlum   0.83425
gfz2011nnda   0.78478
gfz2011nsej  -0.92556
gfz2011nsiy   0.22373
gfz2011nssr   0.27553
gfz2011nuqo   0.33022
gfz2011nyzk   2.54510
gfz2011oadm  -0.16331
gfz2011oazk  -0.05013
gfz2011oesd   0.26003
gfz2011ofpj  -0.29158
gfz2011ohgj  -0.09863
gfz2011okza   0.56394
gfz2011omxt  -0.04221
gfz2011oqjl   0.98222
gfz2011ovvj  -0.54248
gfz2011owqa  -0.60469
gfz2011paqj   0.15803
gfz2011pdsn  -0.07861
gfz2011pfls  -0.09589
gfz2011pfwq  -2.67360
gfz2011pivq  -1.20370
gfz2011pmuv   0.21207
gfz2011ppsc  -0.09658
gfz2011pwbw  -0.29473
gfz2011qenl  -0.09853
gfz2011qgea  -0.37281
gfz2011qgvh   0.37094
gfz2011qukj  -0.15042
gfz2011rkau  -1.22970
gfz2011rnny  -0.39241
gfz2011sdax  -0.71353
gfz2011sdpl   0.19534
gfz2011sqco  -0.86902
gfz2011sxno   0.51338
gfz2011syzr   0.21625
gfz2011taqr  -0.01979
gfz2011tdjj  -0.14721
gfz2011tlwl  -0.58587
gfz2011tqgg  -0.27992
gfz2011tsgl  -0.23499
gfz2011tvuv   0.17023
gfz2011udjs   0.90636
gfz2011urwz  -0.11314
gfz2011vahy  -0.09302
gfz2011vcyx   0.41855
gfz2011vtzv   0.24456
gfz2011wcvs  -0.46289
gfz2011wqup   0.10402
gfz2011wwze   0.34963
gfz2011wyei   0.90509
gfz2011xgwy   0.23363
gfz2011xxng  -1.41480
gfz2011ypfh  -0.16115
gfz2011zghc  -0.63184
gfz2011zgxn   0.48055
gfz2012adja   0.25055
gfz2012amjx   0.19913
gfz2012amvs  -0.20260
gfz2012bcvn  -0.67395
gfz2012byrq  -0.17742
gfz2012bytv  -0.39193
gfz2012byuk  -0.97176
gfz2012cdju  -0.14704
gfz2012cksh  -2.67740
gfz2012cntu  -0.01814
gfz2012cvfr   0.03602
gfz2012dejg   0.00000
gfz2012dpnu   0.55856
gfz2012dttl  -0.30977
gfz2012dugf   0.59831
gfz2012dwwu   1.12720
gfz2012dyck  -0.03763
gfz2012ebrr   0.35544
gfz2012ekfp   0.07632
gfz2012ekro   0.23242
gfz2012elek   0.09113
gfz2012emin  -0.10903
gfz2012enio  -1.85090
gfz2012erds   0.18595
gfz2012fcyq   0.67468
gfz2012fcyr   0.69034
gfz2012ftks   0.89179
gfz2012fyny  -0.26132
gfz2012fyop   0.34256
gfz2012gczh  -1.30820
gfz2012gftg   0.25404
gfz2012ghiv   0.06881
gfz2012gjdg  -0.22667
gfz2012gjtd   0.17042
gfz2012gnow  -0.13012
gfz2012gpcd   0.75432
gfz2012gubu   1.10790
gfz2012hyqh   2.62800
gfz2012hzur  -0.18377
gfz2012iblo   0.82096
gfz2012ibyd  -0.19282
gfz2012imsm  -0.35539
gfz2012imuo  -0.06672
gfz2012iotw   0.83270
gfz2012ipdc  -0.36856
gfz2012ivyg  -0.38042
gfz2012izke   1.37370
gfz2012jlez   1.07290
gfz2012kmbo   0.23815
gfz2012kmmz   0.78979
gfz2012kstg   0.35287
gfz2012ldjj   0.16747
gfz2012lqhw  -0.21745
gfz2012lwha  -0.08823
gfz2012lyyr  -0.15523
gfz2012mdzf  -0.45426
gfz2012mekv  -0.06352
gfz2012mjuu  -0.14609
gfz2012mmiw  -0.59099
gfz2012mpzo  -0.21920
gfz2012mrqk  -1.14390
gfz2012mrwu  -0.43478
gfz2012nnqu   0.74453
gfz2012ofnx  -0.74652
gfz2012phns   0.27489
gfz2012pmuj  -0.79505
gfz2012pvve  -0.13184
gfz2012svwz  -0.29230
gfz2012swbz   0.06860
gfz2012tfij  -0.15809
gfz2012tisj  -0.10758
gfz2012tjih   0.66565
gfz2012tyoz  -0.25512
gfz2012uhtc  -0.01149
gfz2012ulei  -0.81497
gfz2012umob  -0.12823
gfz2012unxc   0.95390
gfz2012uzww  -0.15787
gfz2012vcqw   0.41638
gfz2012vdra  -1.57360
gfz2012vile  -0.69178
gfz2012vitw  -0.38377
gfz2012vlzv  -0.34631
gfz2012vrqz  -0.71795
gfz2012vurc  -0.37972
gfz2012wgdv  -0.05648
gfz2012wgmg  -0.56785
gfz2012wgmp   2.19170
gfz2012wkki  -0.24545
gfz2012wowu  -0.31755
gfz2012woxj   0.30171
gfz2012wpen   1.33320
gfz2012wysg   0.22106
gfz2012xcsf   0.10430
gfz2012xkln  -0.06704
gfz2012xlas   0.10438
gfz2012xlfo   0.42587
gfz2012xncm  -0.25367
gfz2012xqxw  -0.27359
gfz2012xtvu  -0.09664
gfz2012xxdj  -0.19670
gfz2012ylai   0.07965
gfz2012yytb   0.98511
gfz2012zhyz  -0.10245
gfz2012zmfc   0.62663
gfz2012zqis   0.23042
gfz2013aggr  -0.11545
gfz2013atak   1.66350
gfz2013byyy  -0.41337
gfz2013cinv  -0.38774
gfz2013cqee   3.05530
gfz2013cvve   0.57347
gfz2013cyvx  -0.16314
gfz2013delq  -0.10242
gfz2013dftb  -0.05547
gfz2013dngd   0.70968
gfz2013dznt   0.55950
gfz2013dzvr  -0.11975
gfz2013eazm  -0.44965
gfz2013eidd  -0.47425
gfz2013enqo   2.25980
gfz2013esef   2.47150
gfz2013fulo  -0.22127
gfz2013fvht  -0.21689
gfz2013fvyr  -0.17902
gfz2013fwbm   1.13040
gfz2013gbki  -0.09104
gfz2013gkcx   0.07494
gfz2013gkyn  -0.00155
gfz2013glpz  -0.20340
gfz2013gxye  -0.05328
gfz2013gywl  -0.11367
gfz2013hqaa  -0.14524
gfz2013hwps  -0.27008
gfz2013icql  -0.31169
gfz2013irme  -0.15977
gfz2013iuyv   0.09896
gfz2013iwzn  -1.19930
gfz2013jhog   0.07006
gfz2013jjae  -0.09065
gfz2013jkqn  -0.37913
gfz2013jlli   0.60621
gfz2013jobl  -0.01949
gfz2013kats  -0.23474
gfz2013kbbg  -0.18535
gfz2013kjgh  -0.66164
gfz2013kpcb   0.00000
gfz2013kqab  -0.00976
gfz2013lbod   0.01564
gfz2013lbvl  -0.04551
gfz2013lcrk  -0.21273
gfz2013ljdu   0.36084
gfz2013lqjj  -0.26480
gfz2013lvxe  -0.33725
gfz2013mdxj   0.16700
gfz2013mimp  -0.26559
gfz2013mzaw   0.04900
gfz2013njwj   1.26610
gfz2013oeni   0.16729
gfz2013oizq   0.08473
gfz2013ojza  -0.38471
gfz2013okac  -0.27026
gfz2013pkmz  -0.33531
gfz2013pqkp  -0.56844
gfz2013qaov   1.24790
gfz2013qear  -0.03153
gfz2013qigb  -0.08232
gfz2013qoak   0.27664
gfz2013qogb   0.17390
gfz2013qxof  -0.10852
gfz2013rdmn   0.24433
gfz2013rocs  -0.25147
gfz2013rwkj  -0.17045
gfz2013sdkg   0.08852
gfz2013stou   0.22601
gfz2013stup   1.06410
gfz2013syqp  -0.04826
gfz2013tdsx   0.10596
gfz2013tjub  -0.09821
gfz2013tnrp  -0.38992
gfz2013trsq  -0.15863
gfz2013udtw  -0.29011
gfz2013uepl   0.31061
gfz2013ujze   0.39847
gfz2013unuv  -0.09150
gfz2013uwjo  -0.33484
gfz2013veug  -0.13149
gfz2013vjrr  -0.00000
gfz2013vldx  -0.11423
gfz2013vmsg   0.00000
gfz2013voai  -0.04092
gfz2013vojy  -0.35452
gfz2013vvre  -0.84033
gfz2013vzel  -0.20723
gfz2013wyfl  -0.06697
gfz2013xahp  -0.15334
gfz2013xddu   0.99862
gfz2013xmzw   0.36287
gfz2013xodn  -0.21508
gfz2013xofz  -0.02662
gfz2013xupg   0.99403
gfz2013xycz   0.21061
gfz2013ylxn  -0.02677
gfz2013yodm  -0.00429
gfz2013yqtu  -0.28518
gfz2013yxhf  -0.26367
gfz2013zfbz   0.59980
gfz2014amgk   0.07923
gfz2014aqop   0.23476
gfz2014bdju   0.07915
gfz2014befl   0.24650
gfz2014bqpm   0.24417
gfz2014buyz  -0.14083
gfz2014byes   0.03351
gfz2014cncl   0.03346
gfz2014cokw  -0.01413
gfz2014ctdl  -0.09008
gfz2014cwcj   0.16598
gfz2014cwti   3.28380
gfz2014djhi   0.17159
gfz2014dmrw  -0.13891
gfz2014dtth   0.11955
gfz2014egvg  -0.90513
gfz2014eirs   0.27311
gfz2014eoay  -0.02045
gfz2014epnq   0.12995
gfz2014epue   1.01640
gfz2014esez  -0.06709
gfz2014fbnr  -1.76040
gfz2014fdhk  -0.00000
gfz2014flxk   0.75283
gfz2014fsir   0.12477
gfz2014fsje   0.17379
gfz2014fwxt   0.26256
gfz2014fxte   0.38993
gfz2014gnbw  -0.03999
gfz2014gnvp   0.23318
gfz2014gsfc  -4.24450
gfz2014gutd  -0.92561
gfz2014hkcw  -0.35533
gfz2014hqhv  -0.34265
gfz2014huah   0.58349
gfz2014huqh   0.62860
gfz2014hyea  -0.13920
gfz2014hzzf  -0.50645
gfz2014iayo   2.16710
gfz2014igrp  -0.12654
gfz2014ijsa  -1.16080
gfz2014ined   0.12658
gfz2014inrg  -0.07888
gfz2014irlf  -0.02488
gfz2014irln  -0.68855
gfz2014irly   0.44774
gfz2014iusw   0.19606
gfz2014ixlc   0.08274
gfz2014jayh  -0.42697
