# Nsamples: 254  MAD:  1.118  mean: -0.044  std:  1.401
gfz2010aggj  -0.68228
gfz2010aseg   0.46253
gfz2010clbw  -1.24640
gfz2010cllh  -0.20918
gfz2010cphq   0.30248
gfz2010cpig   0.31597
gfz2010crgy  -0.91072
gfz2010crir  -1.22970
gfz2010cwrk  -2.18520
gfz2010djib  -0.18607
gfz2010drit   0.62210
gfz2010dtyx  -3.05290
gfz2010dumv  -1.41380
gfz2010fgbo   1.04030
gfz2010mzfb   3.40560
gfz2010ngge  -0.50899
gfz2010nwyk  -0.62246
gfz2010ocug   1.83340
gfz2010okpc  -0.84334
gfz2010okww   0.90632
gfz2010pclq   0.04840
gfz2010pcya   2.59520
gfz2010pgpo   1.84960
gfz2010pzza  -1.01070
gfz2010qdqk   0.38426
gfz2010qrta   0.16381
gfz2010qzvf  -0.56304
gfz2010rdip  -1.25770
gfz2010rhvu   1.74650
gfz2010rkuu  -0.48091
gfz2010rljv   0.16197
gfz2010rmua   1.32710
gfz2010rnqa   0.10385
gfz2010rnwt  -2.70820
gfz2010rpbz   2.57430
gfz2010rpjd  -1.51330
gfz2010schp   2.98380
gfz2010sdfs  -0.19464
gfz2010shvn   0.25788
gfz2010swqy   0.93152
gfz2010sylk   1.41690
gfz2010tcgh   1.44040
gfz2010tfar   0.72642
gfz2010tmba  -1.31220
gfz2010tmne   1.04210
gfz2010tpcj  -0.65831
gfz2010tzlz  -0.04075
gfz2010tzma  -3.79450
gfz2010ugws   1.09820
gfz2010uhjy   0.42311
gfz2010umyp  -0.40105
gfz2010vong   0.57394
gfz2010vybx   1.14720
gfz2010wakc  -1.70220
gfz2010wigk   0.50677
gfz2010wwnq   1.09130
gfz2010xamh   1.25230
gfz2010xaxw   0.27755
gfz2010xjsv   0.43236
gfz2010xkbz   1.41980
gfz2010xnbn  -1.96300
gfz2010xpzq  -0.89850
gfz2010xvev   1.11840
gfz2010yczp   0.87726
gfz2010yfdr   0.57914
gfz2010yrex   0.26717
gfz2010zhvj   2.61100
gfz2010zjun  -1.06470
gfz2010zkle   2.13900
gfz2011amst  -0.47046
gfz2011aqpp   1.67020
gfz2011bpqm  -0.83119
gfz2011bqbx   4.32940
gfz2011bygu  -3.12040
gfz2011cdge   1.27860
gfz2011cwzi   0.05576
gfz2011dabj  -0.11771
gfz2011dhfg  -0.85980
gfz2011dpyu  -0.79984
gfz2011duvm   0.77737
gfz2011dwae   1.65170
gfz2011fnie  -0.69156
gfz2011fszl  -0.51872
gfz2011fzcw   1.42470
gfz2011ggnl   0.33945
gfz2011gnbk  -0.60957
gfz2011gpyr  -0.46440
gfz2011haaa   2.93830
gfz2011hatg   0.06989
gfz2011hibi   3.08530
gfz2011hjof  -0.47134
gfz2011hmnw  -0.43986
gfz2011hqjs  -0.79407
gfz2011hvzo   1.26630
gfz2011hyct  -0.30114
gfz2011hyuh   0.75659
gfz2011iamf  -0.51245
gfz2011ibew   0.25642
gfz2011ifta   0.28282
gfz2011inan   1.87090
gfz2011ioch   0.44846
gfz2011iryz  -0.15146
gfz2011itcv   1.43950
gfz2011ituo   0.43974
gfz2011jdoz   0.37510
gfz2011jeta   0.13317
gfz2011jghq  -0.25673
gfz2011jphj  -0.07381
gfz2011jryv  -1.30440
gfz2011kfch  -1.46680
gfz2011kjzt   0.19917
gfz2011ksxc  -1.83850
gfz2011kylu  -0.81464
gfz2011kymm  -1.87500
gfz2011kyzy  -0.84239
gfz2011lmug  -0.02913
gfz2011lwmg  -0.49470
gfz2011mjje  -0.55796
gfz2011mllb   0.09286
gfz2011mntq   0.89256
gfz2011mror  -2.63050
gfz2011nblt   1.22550
gfz2011ncyw   3.03290
gfz2011ndhh  -0.38007
gfz2011nejg  -1.37120
gfz2011nhby  -0.90330
gfz2011nhvt  -0.49227
gfz2011nhwf  -1.54500
gfz2011nijp  -0.76299
gfz2011nilw  -0.28066
gfz2011niuw  -1.44250
gfz2011nkou  -1.51220
gfz2011nlnl  -0.71970
gfz2011nlou   1.53960
gfz2011nlum  -0.54177
gfz2011nmdz   1.28440
gfz2011nmhg   0.13170
gfz2011nnda   0.92674
gfz2011npeu  -0.71907
gfz2011nsiy  -1.54040
gfz2011nuqo   0.53280
gfz2011oadm   0.91392
gfz2011oazk  -0.23826
gfz2011ofpj  -0.39310
gfz2011ohgj   0.17259
gfz2011okza  -1.55240
gfz2011oslk  -0.69154
gfz2011owqa  -0.64896
gfz2011paqj   0.00881
gfz2011pmuv  -0.93657
gfz2011pphc   0.23496
gfz2011prrq  -1.35680
gfz2011pwbw   3.29810
gfz2011qenl  -0.36046
gfz2011qgea   5.45690
gfz2011qtoy   3.91160
gfz2011qukj   0.90754
gfz2011rkau  -1.78260
gfz2011rnsp  -1.02910
gfz2011rqut  -0.56003
gfz2011scma  -1.82250
gfz2011sdax  -0.75948
gfz2011sdpl  -2.32520
gfz2011sqco  -0.24022
gfz2011sskq   0.13651
gfz2011sxno   0.25870
gfz2011tdjj  -0.60760
gfz2011tlwl  -2.04320
gfz2011tqgg  -0.60385
gfz2011tsgl   0.60616
gfz2011uqry  -0.35377
gfz2011urwz  -0.32131
gfz2011vahy  -1.26790
gfz2011vbxv  -1.12000
gfz2011vcyx  -0.88547
gfz2011wcvs  -2.85410
gfz2011wpzt  -4.62050
gfz2011wzss   0.24596
gfz2011xgbc  -0.26443
gfz2011xnui  -0.54441
gfz2011yexx  -0.61308
gfz2011ykbd  -1.10830
gfz2011zghc  -0.91177
gfz2011zgxn   0.64225
gfz2012alti  -3.25710
gfz2012aqpa  -1.61310
gfz2012arlo  -5.13770
gfz2012bcvn   0.24596
gfz2012bqcf  -0.37826
gfz2012byrq  -2.29120
gfz2012cdju  -2.11680
gfz2012cksh  -0.51857
gfz2012cntu  -0.58336
gfz2012cvfr  -0.61552
gfz2012dbgt   2.09420
gfz2012dejg   0.19858
gfz2012dleg   1.62310
gfz2012dnig   0.28048
gfz2012dpnu   1.14370
gfz2012dpwv   0.55694
gfz2012dtdt   1.18670
gfz2012dttl  -0.60845
gfz2012dtvr   0.11144
gfz2012dysu  -1.02750
gfz2012dzot   0.79799
gfz2012ebff   1.83600
gfz2012ebrr   1.77200
gfz2012ekfp  -0.24446
gfz2012elek  -0.06156
gfz2012foih   1.83750
gfz2012fuyd  -0.52942
gfz2012fyny   0.12438
gfz2012ghiv   1.09240
gfz2012gjdg   0.00000
gfz2012gnow   0.06621
gfz2012hdny   0.26739
gfz2012hvtu   1.68620
gfz2012ibyd   0.01692
gfz2012icjo   0.99718
gfz2012ieln   1.00060
gfz2012iijk  -0.48350
gfz2012imsm  -0.18852
gfz2012ivyg  -0.09099
gfz2012jlez   0.60600
gfz2012kmbo  -0.71384
gfz2012kstg   0.37074
gfz2012lwha   0.85938
gfz2012lyyr  -0.39567
gfz2012mdzf  -0.38646
gfz2012mjuu  -1.04530
gfz2012nnck  -1.87590
gfz2012oozp  -0.00000
gfz2012phns  -1.18180
gfz2012pmuj  -0.76093
gfz2012pziw   1.02020
gfz2012qfah  -0.46807
gfz2012qfov   1.00170
gfz2012qpoc   1.77070
gfz2012rmvx  -1.76710
gfz2012sxzs   0.30963
gfz2012syum  -0.93952
gfz2012tisj   0.03426
gfz2012tjih   1.09370
gfz2012uegq   0.31572
gfz2012uhsx  -0.90247
gfz2012uhtc  -0.62734
gfz2012ulei   0.51371
gfz2012unxc   1.10660
gfz2012uzww  -0.43613
gfz2012vkjw  -3.93140
gfz2012vlzv   0.54501
gfz2012vrqz  -0.91295
gfz2012wgmg   0.75586
gfz2012wkki   0.73971
