# Nsamples: 469  MAD:  0.882  mean: -0.067  std:  1.214
gfz2010abfc  -0.10182
gfz2010abvu   0.16430
gfz2010aggj  -1.36350
gfz2010bgrt  -1.61530
gfz2010bklj   0.33661
gfz2010brlc   0.17918
gfz2010btme   0.16401
gfz2010bukb  -2.97530
gfz2010byau  -1.02120
gfz2010ccye   0.03542
gfz2010clbw   1.07730
gfz2010cllh   1.07860
gfz2010cngg  -0.71367
gfz2010cphq   1.03930
gfz2010crgy  -1.12970
gfz2010crir   0.49417
gfz2010csle  -2.52230
gfz2010ctak   0.51099
gfz2010cthm   0.05772
gfz2010cvkn  -0.43145
gfz2010dask   0.60035
gfz2010diid   2.16230
gfz2010djib   1.40510
gfz2010drit  -0.51763
gfz2010drun   0.16657
gfz2010dtyx   1.28710
gfz2010eqyj   0.39823
gfz2010fjme  -0.66395
gfz2010fxut  -0.18741
gfz2010gooc   1.15710
gfz2010guwa   0.51309
gfz2010habf  -0.09364
gfz2010hueh  -3.24270
gfz2010iaay  -0.59614
gfz2010izag  -1.07820
gfz2010jcby  -0.41379
gfz2010jlvp  -1.14910
gfz2010jyvd   0.26790
gfz2010kcyz   4.13410
gfz2010mdti   0.76482
gfz2010mguv  -0.12704
gfz2010mqaj   0.96634
gfz2010mqzz  -0.54547
gfz2010ocug   2.22330
gfz2010ogwn   0.16069
gfz2010okpc   0.26525
gfz2010osrl  -0.15084
gfz2010ovvg   0.01759
gfz2010pclq   2.57170
gfz2010pcya   1.30750
gfz2010pzza   0.00904
gfz2010qdqk   1.02750
gfz2010qloa  -0.20304
gfz2010qzvf  -0.36764
gfz2010rdep   0.46412
gfz2010rhvu  -1.01440
gfz2010rljv   1.94180
gfz2010rnwt  -3.65600
gfz2010rpbz  -0.49830
gfz2010rpjd   0.99571
gfz2010tcgh   3.11400
gfz2010tmba   0.44115
gfz2010tpcj   0.04712
gfz2010tzlz  -0.43768
gfz2010tzma   0.26360
gfz2010ugws   0.06430
gfz2010uhjy  -1.61350
gfz2010uogw  -0.26181
gfz2010ussf  -0.35074
gfz2010uveo   1.03310
gfz2010uvpz   0.72450
gfz2010vong  -0.48618
gfz2010vyri   0.91766
gfz2010wakc  -1.09200
gfz2010xhqq   3.08030
gfz2010xkbz  -1.33530
gfz2010xkku  -0.28213
gfz2010xnbn  -2.25960
gfz2010xney   1.39060
gfz2010xnwf  -0.05157
gfz2010xpzq   0.91661
gfz2010yilf  -1.37940
gfz2010ymih   0.11880
gfz2010yspe   0.08100
gfz2010zaxv   0.90888
gfz2010zjun  -1.20670
gfz2011afyc   0.37318
gfz2011ahvh  -0.30120
gfz2011aksu  -0.81361
gfz2011ameb   1.48180
gfz2011aqpp  -0.30867
gfz2011awsv  -1.49550
gfz2011bcvc   1.38050
gfz2011bpqm   0.29540
gfz2011bsvr  -1.97640
gfz2011bwsm   1.05000
gfz2011bygs   0.30853
gfz2011bygu  -0.52410
gfz2011cjcv   0.54054
gfz2011cjuz  -1.80840
gfz2011cwsm   0.44978
gfz2011cxdj   1.10810
gfz2011dabj  -0.41754
gfz2011dbzc  -0.69171
gfz2011dhfg   0.26942
gfz2011dpyu  -0.59987
gfz2011duvm   0.38881
gfz2011etkc   0.94702
gfz2011exxq  -0.80250
gfz2011fbsl   0.72902
gfz2011ffdh  -0.13982
gfz2011fges  -0.69075
gfz2011fzcw   1.85870
gfz2011gdli   0.38636
gfz2011ggnl   0.32803
gfz2011glpg   1.63950
gfz2011gnbk   0.26498
gfz2011hatg   0.02126
gfz2011hffq   0.82824
gfz2011hibi  -0.17409
gfz2011hjof   0.34414
gfz2011hqjs  -1.42680
gfz2011ioch  -1.96830
gfz2011iryz  -0.24491
gfz2011jeta   0.82058
gfz2011jfyb   0.22744
gfz2011jghq  -1.59390
gfz2011kfch   0.49161
gfz2011kjzt   1.46110
gfz2011ksxc   0.09799
gfz2011kylu  -0.43176
gfz2011kymm   0.06683
gfz2011kyzy  -0.89362
gfz2011mjje  -2.45370
gfz2011ndhh  -2.85950
gfz2011niuw  -3.45370
gfz2011nyzk   6.39540
gfz2011oadm  -0.27474
gfz2011oazk  -0.99387
gfz2011ofpj   0.23437
gfz2011ohgj   0.27106
gfz2011omxt   0.71535
gfz2011oslk  -0.61264
gfz2011osmp   1.79540
gfz2011owqa   0.13316
gfz2011paqj  -1.89420
gfz2011pbgh   0.87838
gfz2011pfls   0.16561
gfz2011pivq   0.52367
gfz2011pmuv  -0.64697
gfz2011poug   0.00296
gfz2011pphc   3.40300
gfz2011ppsc   0.57445
gfz2011qenl  -0.84716
gfz2011qgvx  -3.12510
gfz2011qhjw   0.74891
gfz2011qklh   0.73124
gfz2011qowe   0.76747
gfz2011qukj   4.63160
gfz2011rkau  -1.12020
gfz2011rnny   1.55500
gfz2011rnsp  -0.75563
gfz2011scma   0.45826
gfz2011sdax   0.35198
gfz2011sqco  -0.51890
gfz2011sqxp   0.49514
gfz2011sskq   0.72863
gfz2011swfp   2.35050
gfz2011syvj   0.19147
gfz2011taqr  -1.03270
gfz2011tarj   0.76185
gfz2011tdjj  -0.64947
gfz2011tfor   1.17990
gfz2011tjpv   4.28090
gfz2011tozo  -0.04072
gfz2011tqgg   0.71467
gfz2011tsgl  -0.92706
gfz2011ugbt   5.50780
gfz2011uqry   0.97921
gfz2011urwz   1.67500
gfz2011uvsi   0.54335
gfz2011vemg  -0.50195
gfz2011wgvh   1.70210
gfz2011wkyx   2.63560
gfz2011xgbc  -0.38845
gfz2011xkka   0.20196
gfz2011xlod  -0.37193
gfz2011xxng  -0.62926
gfz2011yexx  -0.83062
gfz2011yrfa   0.71649
gfz2011ytob   1.38670
gfz2011zcwn   0.08694
gfz2011zdyf   1.00350
gfz2011zghc  -1.48550
gfz2011zgxn   0.12250
gfz2012ahac   0.51823
gfz2012ahkl  -0.46296
gfz2012aisj   0.44223
gfz2012alti   0.33606
gfz2012amjx  -3.03720
gfz2012aqpa  -0.45214
gfz2012arlo  -0.68796
gfz2012auqr   1.00740
gfz2012bcvn  -2.50760
gfz2012beae   0.07635
gfz2012bjhl  -0.41445
gfz2012bqcf  -1.27170
gfz2012byrq   0.46269
gfz2012cdju  -0.24888
gfz2012cksh   1.55390
gfz2012cntu  -0.40794
gfz2012cvfr   0.32730
gfz2012cxhw   0.09469
gfz2012dbgt  -0.42978
gfz2012dejg  -1.23420
gfz2012dleg   0.70824
gfz2012dpem  -1.12080
gfz2012dpnu   0.66762
gfz2012dpwv   0.47336
gfz2012dysu   1.41740
gfz2012dzou  -3.84090
gfz2012eajr  -0.20600
gfz2012ebrr   1.38460
gfz2012ekfp  -0.97734
gfz2012enio  -0.29282
gfz2012erds  -0.65663
gfz2012fhaf   0.31400
gfz2012fiiz  -0.43131
gfz2012fjiu   0.73710
gfz2012fuyd  -0.60878
gfz2012fxgc   0.79940
gfz2012gbrs  -1.74380
gfz2012ghiv  -0.31270
gfz2012gjdg  -0.27454
gfz2012gjtd   0.27614
gfz2012gmsr  -0.27196
gfz2012gpcd  -0.72337
gfz2012heih   0.63886
gfz2012hvtu  -0.54052
gfz2012hysb   0.84169
gfz2012hzhn  -1.17680
gfz2012icjo   0.07956
gfz2012iijk  -0.71054
gfz2012ipdc  -0.41843
gfz2012iroy  -0.79289
gfz2012iyhs  -0.72216
gfz2012jnlt   1.35730
gfz2012kadi  -0.95215
gfz2012kmbo  -1.34980
gfz2012kmmz   0.52241
gfz2012kyhj   2.63540
gfz2012ldjj   0.13152
gfz2012lqhw   0.20452
gfz2012lvlr  -0.43247
gfz2012mdzf   0.75398
gfz2012mmiw   0.34739
gfz2012mrqk  -0.26262
gfz2012mtyn  -0.31516
gfz2012nfos  -0.23848
gfz2012nldz   0.13386
gfz2012nlrb   0.67572
gfz2012oafg  -1.13130
gfz2012ofnx   1.55420
gfz2012oork   0.31538
gfz2012ormy  -1.69700
gfz2012oyja  -0.91273
gfz2012pdav  -1.22740
gfz2012phns  -1.59650
gfz2012pifb   0.54314
gfz2012pmuj   1.26320
gfz2012qfah   1.05740
gfz2012qmhz   0.43108
gfz2012qpoc   0.24721
gfz2012rjlp  -1.47670
gfz2012rknz   0.50530
gfz2012roan   0.91594
gfz2012smyn   0.22994
gfz2012socz   0.25205
gfz2012sqsc   0.00986
gfz2012suqd  -3.65730
gfz2012svwz  -0.42181
gfz2012swbz  -0.57199
gfz2012sxbo   1.35010
gfz2012syum  -5.37270
gfz2012tisj   0.34742
gfz2012twec   0.90369
gfz2012uhtc  -0.84257
gfz2012ulei   0.07894
gfz2012uvoa  -0.53919
gfz2012uzww  -0.39640
gfz2012vsav  -1.53190
gfz2012vurc  -1.76220
gfz2012wgmg  -0.53571
gfz2012wgmp  -1.12940
gfz2012wjpf   1.41400
gfz2012xcsf   0.01320
gfz2012xfsl   1.01680
gfz2012xlfo   1.81690
gfz2012xncm  -0.15161
gfz2012xtvu   0.25570
gfz2012xxdj  -0.07864
gfz2012yegw   0.96600
gfz2012yihn  -1.15810
gfz2012yncm  -0.18972
gfz2012yytb  -0.19826
gfz2012yzcf   0.30547
gfz2012zkhu  -1.11590
gfz2012zqis  -0.13937
gfz2013ajxz   0.31823
gfz2013akkd   0.44143
gfz2013atak   1.07310
gfz2013aymi  -0.43575
gfz2013bqfc  -0.06752
gfz2013bwgw  -2.27980
gfz2013byyy   0.21573
gfz2013ccng  -0.06021
gfz2013cfls  -1.25200
gfz2013ciof  -0.84930
gfz2013cvve  -0.55379
gfz2013cyvx  -0.29226
gfz2013ddrx  -1.78440
gfz2013delq  -0.08028
gfz2013djfi   0.11786
gfz2013dksc   1.25270
gfz2013dngd  -0.29049
gfz2013dtjl  -0.84945
gfz2013dznt  -0.48575
gfz2013dzvr  -0.97874
gfz2013eazm   0.11387
gfz2013efct  -0.70485
gfz2013eidd  -1.44410
gfz2013enqo  -0.23879
gfz2013enrh  -0.59990
gfz2013fmcd  -0.43172
gfz2013fndg  -0.40162
gfz2013fulo  -0.10699
gfz2013fvht   0.26911
gfz2013fybd  -2.87370
gfz2013gbma  -0.88069
gfz2013gjmk   0.81015
gfz2013gkcx   0.86493
gfz2013gkyn  -0.54484
gfz2013glkq   1.71580
gfz2013gqtl   0.18710
gfz2013gugi   0.17049
gfz2013gurk   0.92231
gfz2013irme   0.72897
gfz2013iwzn  -0.46157
gfz2013jdwo   0.82634
gfz2013jfcn  -0.10026
gfz2013jhog  -0.35516
gfz2013jjae  -0.03115
gfz2013jkqn  -1.19420
gfz2013kats  -2.44180
gfz2013kbbn   0.41556
gfz2013kpcb   1.38290
gfz2013kqab  -0.63456
gfz2013kslp  -1.26600
gfz2013kxlr   1.40090
gfz2013lgvf   0.20976
gfz2013ljdu   0.27240
gfz2013lvxe  -1.23160
gfz2013lxed   0.01696
gfz2013mimp  -0.17479
gfz2013mvgq  -0.04997
gfz2013njwj   1.11330
gfz2013oeni   1.21600
gfz2013onvl  -0.22806
gfz2013orot  -1.77250
gfz2013oywh   0.18929
gfz2013phhi   1.87090
gfz2013phly  -0.06735
gfz2013pifg  -1.11630
gfz2013pkmz  -0.03370
gfz2013pvsa   0.12921
gfz2013qdno  -0.12046
gfz2013qear  -1.45210
gfz2013qigb  -0.12549
gfz2013qoak  -1.45490
gfz2013quwz  -0.55612
gfz2013qxof   0.21682
gfz2013rdmn  -2.91880
gfz2013taeb  -0.78690
gfz2013twbc   2.14160
gfz2013uepl   0.91317
gfz2013ummt   0.39454
gfz2013unuv  -0.98386
gfz2013utqa  -0.13182
gfz2013uugc  -0.78190
gfz2013vmrv  -2.29860
gfz2013vmsg   1.07710
gfz2013vnwa   0.31913
gfz2013vvre   0.12850
gfz2013wigs  -2.24370
gfz2013wpns   0.62265
gfz2013wyfl  -0.77569
gfz2013xbdc  -0.27715
gfz2013xjmo  -0.55360
gfz2013xofz   0.59121
gfz2013xswc   0.43289
gfz2013xuxr  -1.07180
gfz2013xzxe   0.39896
gfz2013ylxn   0.06455
gfz2013yqtu   0.06654
gfz2013yxhf   0.84876
gfz2013ziix  -0.32890
gfz2013zpse   0.98638
gfz2014ajgi  -0.67604
gfz2014amsy   0.81430
gfz2014aqax  -0.06753
gfz2014aqop  -0.22177
gfz2014ateb   0.05266
gfz2014ayxf  -2.05920
gfz2014bgxe   0.43676
gfz2014bgyv  -0.15058
gfz2014bkra  -1.07740
gfz2014bmdf  -1.14870
gfz2014bnea   0.10018
gfz2014buyz   0.92701
gfz2014ckqv   1.35160
gfz2014cokw   0.05810
gfz2014dbmu   0.24556
gfz2014dggw  -2.17480
gfz2014diuu   0.39633
gfz2014djhi  -0.37257
gfz2014dmrw  -1.35020
gfz2014eoay   0.23532
gfz2014epfm  -1.06040
gfz2014esez  -1.46200
gfz2014evhm  -0.65314
gfz2014exxj  -0.39257
gfz2014eyne  -1.31660
gfz2014eysf   0.59812
gfz2014fbef  -0.53351
gfz2014fbli  -0.07348
gfz2014ffqg  -0.05110
gfz2014fsir  -0.75419
gfz2014fsje  -0.50344
gfz2014fskh  -0.16896
gfz2014fsvc  -0.00000
gfz2014fwxt   0.30591
gfz2014fxte  -0.31448
gfz2014fxtv  -1.22670
gfz2014fxuy  -0.27389
gfz2014geln  -0.69610
gfz2014gjfd  -1.38170
gfz2014gnvp  -0.14783
gfz2014gsfc   0.05915
gfz2014gssz  -0.38692
gfz2014gypw  -1.18160
gfz2014hotu   1.04540
gfz2014hyea   2.03870
gfz2014hzzf  -0.41717
gfz2014iayo  -0.57975
gfz2014icov  -1.30720
gfz2014iltl   0.19209
gfz2014inrg  -1.11050
gfz2014ipwk  -1.42090
gfz2014irlf  -0.88324
gfz2014irln  -0.50186
gfz2014irly  -0.41096
gfz2014itlx   0.00975
gfz2014iusw  -0.29899
gfz2014iyuc  -0.17405
gfz2014jarg  -0.31900
gfz2014jayh  -0.80979
gfz2014jckg   0.20459
gfz2014jffe  -0.98045
gfz2014jfmc   0.46279
