# Nsamples: 297  MAD:  1.134  mean: -0.089  std:  1.632
gfz2010abfc   0.59169
gfz2010aggj  -0.01112
gfz2010brlc  -0.59656
gfz2010btme   0.13687
gfz2010bukb   0.36898
gfz2010byau  -2.48630
gfz2010ccse   1.76110
gfz2010cllh  -1.01410
gfz2010crgy  -1.27310
gfz2010crir  -0.76200
gfz2010cvkn  -0.44952
gfz2010dask  -1.09980
gfz2010djib   1.77340
gfz2010drit  -1.63950
gfz2010drml   1.76610
gfz2010drmq   1.76610
gfz2010drun  -1.67230
gfz2010fjme  -0.93329
gfz2010jlvp  -0.69233
gfz2010pclq   3.13770
gfz2010pcya  -1.42150
gfz2010pzza  -0.21731
gfz2010qbcy  -3.24940
gfz2010qrta  -0.21049
gfz2010rpbz   3.42120
gfz2010rpjd   0.52638
gfz2010tpcj  -0.22746
gfz2010tzma   1.42480
gfz2010uhjy   2.44130
gfz2010ussf   0.29918
gfz2010vong  -0.97847
gfz2010wakc  -1.50000
gfz2010xnbn  -0.50366
gfz2010xney   0.52138
gfz2010xpzq  -0.86193
gfz2010ymih  -0.35936
gfz2010zjun   1.07740
gfz2011ahvh   0.75488
gfz2011ameb  -1.25420
gfz2011aqpp  -1.26260
gfz2011bpqm  -1.24120
gfz2011bsvr  -3.27960
gfz2011dabj   1.26970
gfz2011dbzc  -1.04130
gfz2011dpyu  -1.18380
gfz2011fnie  -0.41455
gfz2011gnbk   0.76869
gfz2011gzde  -0.35891
gfz2011hatg   0.32120
gfz2011hibi  -0.41331
gfz2011hjof  -0.64998
gfz2011hvzo   0.50835
gfz2011hyct   0.73372
gfz2011iryz   0.99209
gfz2011ituo  -0.09713
gfz2011jryv  -0.75175
gfz2011kjzt  -0.94589
gfz2011lrpv  -0.22567
gfz2011mjje  -1.28850
gfz2011ndhh  -2.69570
gfz2011ndki  -0.32278
gfz2011ndlh  -0.19783
gfz2011ndvj   0.16416
gfz2011neai  -2.62640
gfz2011nejg   0.15617
gfz2011nejw   0.01046
gfz2011nerb  -0.33224
gfz2011nfcz  -0.25687
gfz2011nfgt   1.10210
gfz2011nfln   3.05380
gfz2011nftw  -0.38931
gfz2011nhjv   0.11106
gfz2011nhvt   2.18360
gfz2011nijp  -0.34901
gfz2011nilw  -1.01590
gfz2011nisj  -0.67415
gfz2011niuw   1.70090
gfz2011nlmf  -0.27795
gfz2011nlnl   0.03299
gfz2011npaf  -1.54840
gfz2011nssr  15.45900
gfz2011nsyi  -1.29070
gfz2011nyzk  -1.98060
gfz2011oadm   0.91296
gfz2011ocif  -1.21640
gfz2011oekz   0.92564
gfz2011oesd   2.37310
gfz2011ofpj   3.67090
gfz2011oqjl   0.88329
gfz2011oslk  -0.95230
gfz2011owqa   0.95521
gfz2011paqj  -1.54730
gfz2011pdsn   0.83554
gfz2011pfwq  -2.37700
gfz2011pgzk  -0.23850
gfz2011pivq  -0.06863
gfz2011plzc  -2.06580
gfz2011qklh   4.16360
gfz2011qukj  -0.32678
gfz2011rkau  -0.52315
gfz2011scma  -1.02210
gfz2011sdax  -0.66581
gfz2011taqr  -0.16283
gfz2011tdjj  -0.16430
gfz2011tozo  -0.80493
gfz2011tqgg  -0.43857
gfz2011tsgl  -1.70560
gfz2011udxo  -1.82940
gfz2011ugbt  -2.96470
gfz2011unud  -2.46010
gfz2011uqry  -1.37860
gfz2011urwz  -1.10170
gfz2011uvsi   1.72170
gfz2011vahy   0.46390
gfz2011vcyx   0.39600
gfz2011vsag   1.23020
gfz2011wfsk  -0.49629
gfz2011wgoa   0.93398
gfz2011wkyx  -0.53453
gfz2011xlod  -1.92110
gfz2011ymji  -0.16280
gfz2011ytob  -1.13470
gfz2011ytwk  -0.62839
gfz2011ywtj   1.18920
gfz2011zghc  -1.19740
gfz2012amjx   0.12374
gfz2012arlo   0.41246
gfz2012beae  -0.39941
gfz2012bolx   0.54904
gfz2012bqcf  -0.60651
gfz2012byrq  -1.08210
gfz2012bytv  -1.23580
gfz2012cdju   0.74362
gfz2012cksh  -0.60550
gfz2012crpb  -0.18405
gfz2012cvfr   2.04510
gfz2012cwhl   0.83116
gfz2012czvh  -1.26750
gfz2012dejg   5.14120
gfz2012dleg   2.11840
gfz2012dugf   2.42350
gfz2012dysu   0.74812
gfz2012eeft  -0.07485
gfz2012ekfp  -0.88686
gfz2012gczh  -1.26210
gfz2012ghiv   0.67764
gfz2012gjtd  -0.12175
gfz2012gnow  -0.68770
gfz2012heih   0.30665
gfz2012hvjc   1.16170
gfz2012hvtu   1.77580
gfz2012hzur  -1.54750
gfz2012ibyd  -0.01086
gfz2012iijk  -1.39640
gfz2012ivyg   0.56756
gfz2012juem  -0.29438
gfz2012kbub  -0.16179
gfz2012kmbo  -0.26871
gfz2012kmmz   0.57458
gfz2012mdzf   0.28276
gfz2012mmiw  -0.05521
gfz2012nfos   2.28930
gfz2012nldz   1.01070
gfz2012nqvd  -0.14945
gfz2012ofnx   0.27226
gfz2012oork   0.40847
gfz2012phns   0.19196
gfz2012qfah   1.08660
gfz2012qpoc  -2.36490
gfz2012rfhw  -0.04206
gfz2012roan  -0.73516
gfz2012rzwp  -0.13987
gfz2012sjdy  -1.40550
gfz2012sqsc   0.89918
gfz2012ssnb   2.87970
gfz2012swbz  -0.46283
gfz2012sxpr   2.14010
gfz2012tisj  -0.99001
gfz2012ulei  -0.69178
gfz2012uvoa  -0.93802
gfz2012vdsl  -0.57492
gfz2012vitw   0.12340
gfz2012wgmg   3.93000
gfz2012wiyv   0.16145
gfz2012wjsi   1.85340
gfz2012wkki   0.00000
gfz2012wpen   1.56910
gfz2012yegw   0.10474
gfz2012zmdf   0.29458
gfz2012zmfc   0.34995
gfz2012zqis   1.72240
gfz2013aggr  -0.43309
gfz2013bwgw  -1.09820
gfz2013byyy  -1.70980
gfz2013cqak  -0.90400
gfz2013cvve  -0.12321
gfz2013cyvx   1.04560
gfz2013dftb  -0.18976
gfz2013djfi  -1.62850
gfz2013dksc  -0.28516
gfz2013dngd  -0.37279
gfz2013dnot  -0.36836
gfz2013dtjl   1.09110
gfz2013dvub   2.16210
gfz2013dznt  -1.58060
gfz2013dzvr  -0.53594
gfz2013eidd   2.19020
gfz2013fmcd   0.54319
gfz2013frxd   1.98520
gfz2013fulo   0.05427
gfz2013fvht  -1.91630
gfz2013fxyr  -0.12444
gfz2013gbma  -0.02024
gfz2013gkyn  -1.33700
gfz2013glkq  -1.02840
gfz2013glpz  -0.20102
gfz2013gurk  -1.20890
gfz2013hwps   2.09240
gfz2013icgx   0.12695
gfz2013icql  -0.78521
gfz2013iwzn   1.12830
gfz2013jfcn  -0.16043
gfz2013jhog  -0.18189
gfz2013kbbn  -1.80450
gfz2013kcdb  -0.47435
gfz2013kpes  -1.35080
gfz2013kqab  -0.46442
gfz2013lbvl  -2.16880
gfz2013lvxe   1.74900
gfz2013mdxj   0.14079
gfz2013njwj   0.32194
gfz2013ntfc   0.57115
gfz2013ntiu   0.41800
gfz2013ohnj  -0.66578
gfz2013onvl   1.17800
gfz2013oywh  -1.52180
gfz2013phhi   0.63320
gfz2013phly  -0.53653
gfz2013pkmz   2.32320
gfz2013pwsm  -0.82393
gfz2013qdpv  -0.08417
gfz2013qdzg  -0.38966
gfz2013qigb  -1.39920
gfz2013qoak  -2.20590
gfz2013qogb  -0.82017
gfz2013quyn  -0.52186
gfz2013qwnm  -0.32099
gfz2013qxof  -0.73870
gfz2013rdmn  -3.04610
gfz2013ryph  -0.86284
gfz2013stup   0.68719
gfz2013taeb  -0.63187
gfz2013tcju  -1.74930
gfz2013tmyj   0.15736
gfz2013udtw  -0.63799
gfz2013unuv   0.22506
gfz2013upqj  -0.31365
gfz2013utqa  -0.20073
gfz2013uwjo  -1.78940
gfz2013vmrv  -0.69902
gfz2013vnwa  -2.39010
gfz2013voai  -0.69342
gfz2013vvre  -0.44424
gfz2013vzel   1.36330
gfz2013vzet   3.17270
gfz2013wpns   3.40940
gfz2013xofz  -0.68331
gfz2013xswc  -0.75670
gfz2013xzxe   1.19120
gfz2013ygsj  -2.90280
gfz2013yqtu  -0.15217
gfz2014ajgi   0.83212
gfz2014ateb  -0.11262
gfz2014bgyv  -1.10410
gfz2014bnea   0.10411
gfz2014byes  -1.12270
gfz2014cwti  -0.31378
gfz2014dwcp   0.46459
gfz2014eoay  -0.93853
gfz2014evhm   1.26520
gfz2014fbli   0.02902
gfz2014fjfz  -0.23617
gfz2014fwxt  -0.35610
gfz2014fxte  -0.80806
gfz2014fxuy   0.85945
gfz2014gpnr  -4.83880
gfz2014gypw  -1.97780
gfz2014hyea  -1.09380
gfz2014hzzf  -3.05120
gfz2014icov  -0.78305
gfz2014ikvw   0.53808
gfz2014iltl  -1.13110
gfz2014irlf  -0.44185
gfz2014irln  -0.63458
gfz2014itlx  -0.22420
gfz2014jarg  -0.17074
gfz2014jfmc  -2.31350
