# Nsamples: 1082  MAD:  0.861  mean: -0.009  std:  1.383
gfz2010abfc  -0.64720
gfz2010abvu   0.94923
gfz2010afyi   0.66625
gfz2010aggj  -1.23430
gfz2010aldp   0.99127
gfz2010amec  -4.05960
gfz2010aseg   0.12918
gfz2010asxa  -0.69976
gfz2010axdz   0.70564
gfz2010bgrt  -1.66930
gfz2010bklj   0.47408
gfz2010bmls  -1.60410
gfz2010bofe  -0.65950
gfz2010brlc   0.08069
gfz2010btme   0.96592
gfz2010bukb  -0.24638
gfz2010bvit   0.10399
gfz2010byau  -2.29730
gfz2010bytu  -0.31966
gfz2010cbnp  -0.48842
gfz2010ccse  -4.41560
gfz2010ccwc  -0.06474
gfz2010ccye   0.66525
gfz2010clbw  -1.94380
gfz2010cllh   0.77272
gfz2010cngg   0.37530
gfz2010cnhd   0.15995
gfz2010cnyi  -1.97960
gfz2010cphq   0.62091
gfz2010cpig  -0.32195
gfz2010cqoq   0.33798
gfz2010crgy  -1.53860
gfz2010crir  -0.04908
gfz2010csle  -4.57530
gfz2010csmw   0.47446
gfz2010csqy   0.02411
gfz2010ctak  -0.68589
gfz2010cthm  -0.10808
gfz2010cvkn   0.63127
gfz2010cwrk  -0.42349
gfz2010cyid  -6.34830
gfz2010dask  -0.43404
gfz2010diid  -0.22690
gfz2010djib  -1.90520
gfz2010dmij  -0.12163
gfz2010dpgt  -0.19786
gfz2010drit   1.08240
gfz2010drml   0.82733
gfz2010drmq   0.82733
gfz2010drpv   0.03688
gfz2010drun   1.20700
gfz2010dtyx   1.19640
gfz2010dumv  -1.23890
gfz2010dxhq   0.00576
gfz2010eepd   0.37478
gfz2010eibh   1.61840
gfz2010elge  -0.04160
gfz2010eqyj   0.38646
gfz2010ethu   1.47220
gfz2010ewyj  -1.52580
gfz2010faly  -0.38462
gfz2010fgbo  -0.16676
gfz2010fjme  -2.21220
gfz2010fkff   0.29951
gfz2010fopf   0.18486
gfz2010fvfz  -2.75310
gfz2010fxut  -0.32213
gfz2010gcqp   0.36351
gfz2010gonu   1.56760
gfz2010gooc   1.14190
gfz2010gpjl  -3.03670
gfz2010guwa   0.00000
gfz2010habf   0.72167
gfz2010hdxn  -0.43287
gfz2010hesh   0.55054
gfz2010hexh   0.20514
gfz2010hllp  -0.83053
gfz2010hnuo   1.99380
gfz2010hsgv  -0.62518
gfz2010hueh  -1.08340
gfz2010hxan  -0.09200
gfz2010iaay  -0.09194
gfz2010iawy   1.00150
gfz2010ifhd  -1.36770
gfz2010ioad  -0.58951
gfz2010izag  -0.61244
gfz2010izgb   1.27790
gfz2010jcby   0.26387
gfz2010jdhk   1.35860
gfz2010jgwj  -0.29198
gfz2010jlvp   0.28317
gfz2010jyvd  -0.03506
gfz2010kcyz  -1.24640
gfz2010ljmp   5.51450
gfz2010lvnj   0.25670
gfz2010mdti  -0.25845
gfz2010mguv  -0.48521
gfz2010mnoc   0.60549
gfz2010mpvc   0.12022
gfz2010mqaj  -1.19310
gfz2010mqzz   0.00000
gfz2010msss   4.50530
gfz2010mvmb   0.03943
gfz2010mwmd  -1.33770
gfz2010nbcr   0.39028
gfz2010ncwu   0.31458
gfz2010nkrw  -0.62310
gfz2010novb   0.13329
gfz2010nwbd   0.52426
gfz2010nwyk  -3.75170
gfz2010ocug   0.18180
gfz2010ogwn  -0.17488
gfz2010okpc   3.36110
gfz2010osaq  -2.22080
gfz2010osrl   0.64609
gfz2010ouvm   0.41956
gfz2010ovvg   0.13812
gfz2010pclq  -0.00000
gfz2010pcya  -6.54570
gfz2010pgpo  -0.84939
gfz2010pgrf   1.94020
gfz2010prnw  -1.35830
gfz2010pvnn  -0.75451
gfz2010pzza  -0.89561
gfz2010qbcy  -1.86770
gfz2010qdqk   1.47650
gfz2010qloa  -0.19871
gfz2010qrix   0.15278
gfz2010qrta   0.59252
gfz2010qykh   0.53443
gfz2010qylh   1.05170
gfz2010qzvf  -1.37820
gfz2010rdep   1.44460
gfz2010rhvu  -0.56199
gfz2010rkuu  -1.16760
gfz2010rljv   0.52641
gfz2010rmua  -1.07480
gfz2010rnqa   4.78440
gfz2010rnwt  -0.52961
gfz2010rpbz  -1.41700
gfz2010rpjd   0.00000
gfz2010schp   2.63210
gfz2010scht  -0.36924
gfz2010sdfs   0.10542
gfz2010swqy  -0.21534
gfz2010sylk   9.50460
gfz2010szxo   2.69200
gfz2010tcgh   1.93260
gfz2010tgmo   1.26050
gfz2010tmba  -1.08910
gfz2010tmne   1.23880
gfz2010tpcj  -0.09788
gfz2010tqyo  -0.07479
gfz2010tzlz  -0.29165
gfz2010tzma  -0.08111
gfz2010ugws   0.05184
gfz2010uhjy  -1.36290
gfz2010umxj  -1.41470
gfz2010umyp  -1.09240
gfz2010uogw  -1.44290
gfz2010uraq   0.71596
gfz2010ussf   0.75900
gfz2010utsc  -0.37780
gfz2010uveo  -0.84940
gfz2010uvpz  -0.39766
gfz2010uyng  -0.13051
gfz2010vdcf  -3.87450
gfz2010vhzx   0.66917
gfz2010viyi  -0.49656
gfz2010vong   0.13115
gfz2010vybx   0.84957
gfz2010vyri   0.85779
gfz2010wakc  -2.76130
gfz2010wdav   0.49795
gfz2010wigk   2.04310
gfz2010wplk   1.07400
gfz2010wtin   0.09792
gfz2010wyso   1.22540
gfz2010wyuj  -0.29675
gfz2010xamh  -0.52467
gfz2010xhqq  -1.62880
gfz2010xjsv   1.35250
gfz2010xkbz  -2.04540
gfz2010xkku  -1.13890
gfz2010xney   2.01420
gfz2010xnwf  -0.25089
gfz2010xpzq  -0.27317
gfz2010xytc  -0.08249
gfz2010xzah  -0.10403
gfz2010xzte  -0.87397
gfz2010yczp  -0.57432
gfz2010yfdr  -0.41607
gfz2010ygrd   0.29452
gfz2010yhdn  -0.54434
gfz2010yhhj  -0.23767
gfz2010yilf  -0.16345
gfz2010ymih  -0.02099
gfz2010yspe   4.14210
gfz2010ytzb   0.76562
gfz2010zaxv   0.92571
gfz2010zhvj  -0.55921
gfz2010zjun  -0.37126
gfz2011afyc   0.74598
gfz2011ahvh   0.22904
gfz2011aksu   1.03420
gfz2011ameb   0.79806
gfz2011amst   2.43690
gfz2011aqpp  -0.62901
gfz2011awsv  -0.79253
gfz2011bazz   0.44297
gfz2011bcvc  -0.68312
gfz2011biin  -1.42560
gfz2011bpqm   0.18448
gfz2011bqbx  -0.24284
gfz2011bsvr  -4.20190
gfz2011bvog   2.42860
gfz2011byec   1.35720
gfz2011bygs  -0.44419
gfz2011bygu   0.95701
gfz2011cdge  -1.62050
gfz2011cfyy  -0.41753
gfz2011chsa   0.76044
gfz2011cjcv  -1.30660
gfz2011cjuz   0.37922
gfz2011clwu  -0.10145
gfz2011cwhx  -0.32968
gfz2011cwsm  -0.40885
gfz2011cwzi   0.14611
gfz2011cxdj  -1.01340
gfz2011dabj  -0.40967
gfz2011dbzc   0.22267
gfz2011dhfg  -0.10098
gfz2011dhqk   1.30590
gfz2011dpyu  -0.52388
gfz2011duvm   0.32204
gfz2011dwae  -1.03810
gfz2011ffdh  -1.10180
gfz2011fges  -0.16118
gfz2011fnie  -0.65642
gfz2011fnuk   0.21071
gfz2011fszl  -0.24775
gfz2011fyfu   0.64934
gfz2011fzcw   2.98520
gfz2011gaax   0.04725
gfz2011gdli  -0.30834
gfz2011ggnl   2.93770
gfz2011ggsz  -0.35942
gfz2011gkdx  -0.67417
gfz2011glpg   0.39522
gfz2011gnbk  -0.29773
gfz2011gpyr   0.88172
gfz2011grby  -0.87064
gfz2011gzde  12.30100
gfz2011haaa  -0.26804
gfz2011hatg  -0.65711
gfz2011hffq   0.15024
gfz2011hibi  -1.14730
gfz2011hjof   0.20409
gfz2011hmnw   0.27470
gfz2011hqjs   0.27394
gfz2011hrgt  -0.86167
gfz2011hvzo   0.43517
gfz2011hyct   0.38130
gfz2011ibew   5.39510
gfz2011ioch   0.25734
gfz2011iryz  -0.85240
gfz2011ituo  -0.60300
gfz2011jeta   2.03630
gfz2011jfyb   1.43500
gfz2011jghq   0.33809
gfz2011jqyc   5.13930
gfz2011jrgh   0.64968
gfz2011kbzo   0.15125
gfz2011kfch  -2.77400
gfz2011kgvq  -0.18816
gfz2011kjzt   0.18545
gfz2011kjzv  -0.34789
gfz2011kmge   0.54975
gfz2011knht   0.75052
gfz2011ksxc  -0.18539
gfz2011kylu  -1.71890
gfz2011kyzy  -0.62537
gfz2011lbnn   5.40890
gfz2011lkkf   0.08709
gfz2011lmug  -0.03779
gfz2011lnzf   0.70897
gfz2011lrpv  -0.91556
gfz2011lwmg   0.40050
gfz2011lykm  -1.45800
gfz2011mimz   0.77821
gfz2011mjje  -1.24300
gfz2011mllb  -0.74879
gfz2011mntq  -1.15690
gfz2011ndhh  -2.42920
gfz2011ndki  -0.00252
gfz2011nejg  -0.55204
gfz2011nejw   1.89270
gfz2011nerb  -3.51310
gfz2011nfcz  -1.07090
gfz2011nftw   5.96110
gfz2011nhvt  -0.98907
gfz2011nhwf  -0.18935
gfz2011nijp  -2.36810
gfz2011nilw   2.63410
gfz2011nisj   0.13827
gfz2011nlmf  -0.33600
gfz2011nlnl   1.58200
gfz2011nsej   0.40021
gfz2011nsiy   2.62740
gfz2011nsrx   0.53119
gfz2011nswi   1.46810
gfz2011nsyi   1.51110
gfz2011nuqo   1.05430
gfz2011nyzk   0.58048
gfz2011oadm  -0.34360
gfz2011oazk  -0.78925
gfz2011ocif   1.88950
gfz2011oekz   2.46190
gfz2011ofpj  -1.04550
gfz2011ohgj   0.10900
gfz2011omxt   0.28661
gfz2011oqjl   0.50507
gfz2011oslk  -2.40800
gfz2011osmp  -1.14720
gfz2011osuy   1.66430
gfz2011owqa   1.86040
gfz2011paqj  -0.00000
gfz2011pbgh  -0.53831
gfz2011pbjh   0.29062
gfz2011pdsn  -2.51770
gfz2011pfls   0.14487
gfz2011pfwq   0.22245
gfz2011pgzk  -0.13858
gfz2011pivq   0.77557
gfz2011plzc  -4.07480
gfz2011pmuv  -0.46073
gfz2011poug  -0.87915
gfz2011pphc  -1.35810
gfz2011ppsc   0.65069
gfz2011prrq   0.83966
gfz2011ptgd   1.90910
gfz2011pulu   2.00540
gfz2011pwbw  -0.48989
gfz2011qenl   0.48660
gfz2011qgvh   0.00000
gfz2011qgvx   0.36393
gfz2011qhjw   0.21583
gfz2011qklh  -1.37660
gfz2011qowe  -0.54858
gfz2011qtoy   1.57110
gfz2011qukj   1.31310
gfz2011rbuo   1.26020
gfz2011rczb   0.35857
gfz2011rkau  -2.67990
gfz2011rkzx  -0.64810
gfz2011rnny  -1.33720
gfz2011rnsp   0.62050
gfz2011rplo   1.47290
gfz2011scma  -0.25647
gfz2011sdax  -1.63150
gfz2011sqco   0.02621
gfz2011sqxp  -0.54749
gfz2011sskq  -0.02204
gfz2011stzi  -0.26430
gfz2011swfp  -0.97817
gfz2011sxno  -0.40800
gfz2011sylg  -1.59110
gfz2011syvj  -0.22968
gfz2011syzr   3.69060
gfz2011szbb  -5.23750
gfz2011szcj   0.26581
gfz2011szis   1.33220
gfz2011taqr   1.01460
gfz2011tarj   0.04642
gfz2011tdjj   0.41089
gfz2011tfor   2.52110
gfz2011tgey  -0.05959
gfz2011tjpv   0.70914
gfz2011tozo  -2.40540
gfz2011tqgg   0.59464
gfz2011tsgl  -0.85682
gfz2011ugbt   3.34370
gfz2011uowi  -1.08870
gfz2011uqlz   0.54197
gfz2011uqry  -0.54170
gfz2011urwz  -1.05000
gfz2011uvsi  -0.63007
gfz2011vahy  -0.84732
gfz2011vbxv   0.30989
gfz2011vcyx  -1.43820
gfz2011vemg   0.86244
gfz2011vsag  -3.63490
gfz2011vswj  -0.22319
gfz2011vxek  -0.59549
gfz2011wbtc   1.50310
gfz2011wcvs  -2.07100
gfz2011wgoa  -0.49477
gfz2011wgvh   0.06472
gfz2011wkja  -0.30421
gfz2011wkyx  -0.54415
gfz2011wngi   0.56238
gfz2011wnjg   1.80820
gfz2011wnvu  -0.93847
gfz2011wpzt  -0.79993
gfz2011wqth   0.20406
gfz2011wqup  -0.97547
gfz2011wtfn  -0.93782
gfz2011wucg   0.03556
gfz2011wwze   0.11796
gfz2011xagc  -0.20165
gfz2011xdox   1.56790
gfz2011xgbc  -0.86316
gfz2011xgwy  -0.08817
gfz2011xkka  -0.55629
gfz2011xlod   0.00000
gfz2011xpcq  -0.03839
gfz2011xwum   0.80573
gfz2011xxng   1.15260
gfz2011yeck   1.39440
gfz2011yexx   0.60005
gfz2011yjtx  -0.90114
gfz2011ykbd   1.72610
gfz2011yrfa  -0.14671
gfz2011ytob   0.07691
gfz2011ywtj  -2.72890
gfz2011zcwn  -0.02317
gfz2011zdyf   0.82609
gfz2011zghc  -2.29960
gfz2011zgxn  -0.79165
gfz2011zhih   0.22666
gfz2011ziyk  -0.85004
gfz2011zkbt   0.04084
gfz2011zlga  -0.20887
gfz2012adja   0.59983
gfz2012agwh  -0.21940
gfz2012ahac  -0.47354
gfz2012ahkl   0.13235
gfz2012aisj   1.23240
gfz2012alti   0.68882
gfz2012aqpa   1.55970
gfz2012arlo   0.41417
gfz2012asin   2.24910
gfz2012atjr   0.51252
gfz2012auqr   1.61380
gfz2012avvc   0.46336
gfz2012azel  -0.24009
gfz2012bcvn  -0.72568
gfz2012beae  -0.60380
gfz2012bity   0.21690
gfz2012bjhl   0.31542
gfz2012bolx  -0.44334
gfz2012brrg  -0.30180
gfz2012bysu   0.80563
gfz2012bytv   1.52700
gfz2012byuk  -0.73651
gfz2012cdju  -0.90157
gfz2012cfdw   1.44140
gfz2012cksh   1.11190
gfz2012cmww  -0.60557
gfz2012crpb  -1.88730
gfz2012cvfr  -0.58160
gfz2012cxhw  -0.38118
gfz2012dbgt   1.17680
gfz2012dejg  -1.02230
gfz2012dgfk   0.17710
gfz2012dleg  -1.04960
gfz2012dpem  -0.70709
gfz2012dpnu  -0.14614
gfz2012dpwv  -0.25141
gfz2012dtdt   0.00000
gfz2012dtlu  -0.16312
gfz2012dwwu  -0.47707
gfz2012eajr   3.80140
gfz2012ebff   6.84840
gfz2012ebgo   2.91720
gfz2012ebrr  -0.86072
gfz2012eeft  -0.80065
gfz2012ekfp  -1.56040
gfz2012ekro   0.07636
gfz2012elek   0.21863
gfz2012enio   0.46490
gfz2012erds   0.54008
gfz2012eyti  -0.96419
gfz2012fbgz  -0.16318
gfz2012fcyq   1.43910
gfz2012fcyr   1.47600
gfz2012fhaf  -0.37600
gfz2012fiiz   0.15359
gfz2012fjiu   0.37643
gfz2012ftcq   0.40596
gfz2012ftks   0.79056
gfz2012fuyd  -0.19657
gfz2012fxgc   1.23160
gfz2012fyny   0.89125
gfz2012fyop   3.18580
gfz2012gbrs   1.52510
gfz2012gczh   0.07669
gfz2012gdye   2.19670
gfz2012gftg   0.51747
gfz2012ghiv  -0.65124
gfz2012gjdg  -0.42144
gfz2012gjtd   0.34115
gfz2012gmsr   1.29570
gfz2012gnow   0.21096
gfz2012gpcd   0.40577
gfz2012gubu  -1.24800
gfz2012gvxc  -0.15381
gfz2012heih  -0.12932
gfz2012hkxs  -0.46801
gfz2012hlya  -2.64840
gfz2012hnyy  -0.08221
gfz2012hvjc  -0.40256
gfz2012hvtu  -0.89406
gfz2012hwph   1.33970
gfz2012hysb   0.02149
gfz2012hzhn   0.06830
gfz2012ibyd  -0.79209
gfz2012icjo  -0.63866
gfz2012ieln  -0.43676
gfz2012iijk   1.11570
gfz2012ikke  -0.92934
gfz2012imsm  -1.00860
gfz2012imuo   0.52164
gfz2012ipdc   0.81467
gfz2012iroy  -0.83019
gfz2012ivyg   0.11646
gfz2012iyhs  -0.18026
gfz2012izke   0.33025
gfz2012jbzr   0.13740
gfz2012jetp  -0.10198
gfz2012jihg   1.28180
gfz2012juem   0.02318
gfz2012jvei  -0.01077
gfz2012jxnm  -0.79012
gfz2012jxxe   2.88360
gfz2012kadi  -0.38442
gfz2012kbub   0.10954
gfz2012klpl   1.24880
gfz2012kmbo  -0.86020
gfz2012kmmz  -0.72510
gfz2012kqjb   2.01780
gfz2012kstg   0.51062
gfz2012kwmx   0.02129
gfz2012kyhj  -1.43480
gfz2012ldjj  -0.34996
gfz2012lqhw  -0.93803
gfz2012lvlr  -0.00000
gfz2012lvxx  -2.54680
gfz2012lwha  -0.25240
gfz2012lyqs   0.87270
gfz2012lyyr   0.40095
gfz2012mdzf  -0.59514
gfz2012mekv   0.73626
gfz2012mmiw   0.75740
gfz2012movv  -1.02360
gfz2012mowv  -0.14271
gfz2012mpzo  -0.61091
gfz2012mrqk   2.04760
gfz2012mtyn   1.30890
gfz2012mwhe   6.15900
gfz2012mxdk   1.83790
gfz2012mxvk  -1.23490
gfz2012ndsk   3.08420
gfz2012ndwt  -0.21618
gfz2012nfos  -0.39185
gfz2012nfzc   0.47718
gfz2012nldz   0.19161
gfz2012nlrb  -0.54175
gfz2012nmja  -0.96790
gfz2012nnck  -1.89470
gfz2012nnsl  -2.19820
gfz2012nqvd  -1.87740
gfz2012nsxc   0.55083
gfz2012oafg  -0.78976
gfz2012oehy  -0.24512
gfz2012ofnx   0.67438
gfz2012oiez  -0.98059
gfz2012onfs  -0.00000
gfz2012oork  -0.57717
gfz2012oozp   1.71900
gfz2012ormy  -0.34989
gfz2012oxnh   0.28641
gfz2012oyja  -0.69829
gfz2012pcui  -0.94724
gfz2012pdav  -0.77113
gfz2012pdfi   1.23740
gfz2012pdjt   0.50018
gfz2012pekf   7.95240
gfz2012pgmw  -0.48781
gfz2012phns  -0.37411
gfz2012pifb   0.69111
gfz2012pira  -0.00000
gfz2012pmuj  -1.53670
gfz2012pokk   0.79221
gfz2012ppcq  -1.02560
gfz2012ppsw   0.67965
gfz2012pumy   0.41208
gfz2012pvve   0.19770
gfz2012pziw   0.46278
gfz2012qbbt  -0.19800
gfz2012qfah   2.08790
gfz2012qfov  -0.15741
gfz2012qmhz  -0.66593
gfz2012qmxz   1.75010
gfz2012rjlp   0.80913
gfz2012rknz  -1.40000
gfz2012rnyn   4.97120
gfz2012roan  -0.88902
gfz2012rugl   0.94937
gfz2012rzwp   1.33800
gfz2012scuk  -1.26380
gfz2012sgfd   1.60830
gfz2012sjox  -0.07113
gfz2012smyn   1.30360
gfz2012socz  -0.08696
gfz2012sopp  -0.18748
gfz2012sqsc  -0.55702
gfz2012ssnb   0.87616
gfz2012stxx   1.63040
gfz2012suqd  -1.09730
gfz2012svwz  -1.02670
gfz2012swbz  -0.13206
gfz2012sxbo  -0.19214
gfz2012sxpr  -0.25967
gfz2012sxzs  -0.13571
gfz2012tisj   0.12597
gfz2012tjih   0.53932
gfz2012touh   0.19174
gfz2012trss   0.29177
gfz2012tsdz   1.08410
gfz2012tvgw   0.55084
gfz2012twec   0.37561
gfz2012uegq  -2.36230
gfz2012uhsx  -0.31118
gfz2012uhtc   0.06348
gfz2012ukzg  -1.90700
gfz2012ulei  -0.53047
gfz2012umob   0.39763
gfz2012uovh  -0.10344
gfz2012uvoa   0.35352
gfz2012uzww  -0.51529
gfz2012vcqw   0.15122
gfz2012vdsl  -0.75981
gfz2012vioy  -2.19170
gfz2012vkjw  -0.87470
gfz2012vlzv  -0.54913
gfz2012vqmq   0.05225
gfz2012vrqz   0.71959
gfz2012vsav  -0.70191
gfz2012vurc  -0.58636
gfz2012vzkm  -0.20134
gfz2012wbeu   1.79280
gfz2012wdvt  -0.30801
gfz2012wdxk  -0.95289
gfz2012wgdv   0.86068
gfz2012wgmg  -0.59071
gfz2012wgmp  -0.66469
gfz2012wicr   0.20777
gfz2012wiyv   0.14540
gfz2012wjpf   0.00000
gfz2012wmas   0.22823
gfz2012wmmw   1.61200
gfz2012wmrf  -1.23710
gfz2012wowu   0.67578
gfz2012woxj   0.21542
gfz2012wpen   0.42869
gfz2012wqfz  -1.83490
gfz2012wugc  -0.61226
gfz2012wysg  -0.70125
gfz2012wzja  -0.58305
gfz2012xbna   1.70540
gfz2012xcsf  -0.29546
gfz2012xfsk   0.44072
gfz2012xfsl  -0.85998
gfz2012xjgb  -0.41406
gfz2012xkln  -0.20153
gfz2012xkvu  -0.43236
gfz2012xlfo  -0.14944
gfz2012xncm  -0.21095
gfz2012xqxw   0.04396
gfz2012xtvu  -0.67320
gfz2012xxdj  -0.50333
gfz2012yegw  -0.76936
gfz2012yihn  -0.79442
gfz2012ylai   0.09960
gfz2012yncm  -2.24880
gfz2012yytb  -0.34276
gfz2012yzcf  -0.07019
gfz2012zhyz   0.01265
gfz2012zkhu  -1.46760
gfz2012zktj   0.81084
gfz2012zmdf  -2.29040
gfz2012zqis  -0.00000
gfz2013agbm  -1.27730
gfz2013aggr  -0.66120
gfz2013agmt  -0.65780
gfz2013ajxz   0.27248
gfz2013akkd   0.59274
gfz2013ascz  -1.99760
gfz2013atak   0.18865
gfz2013atec  -0.90441
gfz2013auew  -0.26458
gfz2013aymi   0.20289
gfz2013bqfc  -0.88328
gfz2013bwgw  -1.59850
gfz2013byyy  -0.70250
gfz2013ccng   0.11689
gfz2013cfls  -1.04620
gfz2013cinv  -0.13411
gfz2013ciof   4.09530
gfz2013cokc   1.20620
gfz2013cqak   0.73890
gfz2013cqee  -0.40145
gfz2013cvve  -0.64858
gfz2013cyvx  -1.16340
gfz2013dbhl   0.55970
gfz2013ddrx   0.14328
gfz2013delq  -0.06546
gfz2013dftb  -0.18765
gfz2013dfvx  -3.50760
gfz2013djfi   0.18171
gfz2013dksc  -0.82294
gfz2013dngd   0.23793
gfz2013dnot   0.26604
gfz2013dtjl  -0.61352
gfz2013dvub   0.11811
gfz2013dwsp   0.81084
gfz2013dzvr  -1.28840
gfz2013eavq   0.37780
gfz2013eazm   0.78073
gfz2013efct  -0.95020
gfz2013egfv  -1.23290
gfz2013enga   0.06288
gfz2013enjr  -0.15719
gfz2013esef  -0.46934
gfz2013evcl   1.56900
gfz2013ewht   0.11742
gfz2013ffjt   0.47989
gfz2013fhzy   0.55734
gfz2013fmcd   1.24460
gfz2013fmcp  -0.67547
gfz2013fndg  -0.71260
gfz2013fnpa   0.28169
gfz2013foto  -0.20388
gfz2013frxd  -0.65272
gfz2013fskp  -0.26840
gfz2013fulo   0.27395
gfz2013fvht   0.23962
gfz2013fvyr  -0.39023
gfz2013fwbm   0.00506
gfz2013fxyr  -0.78907
gfz2013fybd   0.47889
gfz2013gaqx   1.55820
gfz2013gbki   1.08720
gfz2013gffe  -0.04998
gfz2013gglk  -1.45830
gfz2013gjmk  -0.57115
gfz2013gkcx  -0.03247
gfz2013gkyn  -0.54642
gfz2013glkq   0.31686
gfz2013glpz  -0.22861
gfz2013gomv   0.37263
gfz2013gqtl  -0.73589
gfz2013gsnl  -0.37775
gfz2013gugi  -0.28085
gfz2013gurk  -0.17895
gfz2013gxye   0.48195
gfz2013gyce  -0.16489
gfz2013hbmi  -0.93469
gfz2013hbwy  -1.05080
gfz2013hduf   0.31219
gfz2013hjtt  -0.58191
gfz2013hqaa   0.28069
gfz2013hwps   4.11740
gfz2013icgx  -0.90952
gfz2013irme  -0.11595
gfz2013iuyv   1.92460
gfz2013iwzn  -0.11289
gfz2013jdwo   4.74340
gfz2013jfcn  -1.76170
gfz2013jhog  -1.03490
gfz2013jjae  -0.67244
gfz2013jjfw   0.82660
gfz2013jkqn  -1.68930
gfz2013jobl   0.38212
gfz2013jrqf  -0.17491
gfz2013jtsg   0.08810
gfz2013jzfz  -0.48909
gfz2013kbbg  -0.65005
gfz2013kbbn  -0.05803
gfz2013kbkp  -0.45260
gfz2013kjgh   1.16680
gfz2013kpcb   0.17281
gfz2013kpes   1.04420
gfz2013kqab  -1.68940
gfz2013kruh  -0.40623
gfz2013kslp  -1.05470
gfz2013kxlr   0.59886
gfz2013kxof   1.51480
gfz2013lbod  -0.49652
gfz2013lbvl  -0.55708
gfz2013lcrk  -0.71914
gfz2013ljdu   0.27867
gfz2013ljwt  -0.46290
gfz2013lnts  -0.83499
gfz2013lqjj  -1.31140
gfz2013lwtr  -0.19723
gfz2013lxed  -0.05913
gfz2013lxnd   1.69170
gfz2013mbna   2.51170
gfz2013mdxj  -0.82251
gfz2013mimp  -1.33400
gfz2013mktp  -0.12797
gfz2013msmy  -0.39828
gfz2013mvgq  -2.08790
gfz2013mynb  -0.43976
gfz2013noqf  -0.51989
gfz2013ntfc   0.62802
gfz2013ntiu   0.30675
gfz2013oeni  -0.53039
gfz2013ohdt  -0.14039
gfz2013ohnj  -0.04705
gfz2013okac   0.20347
gfz2013onvl  -0.33031
gfz2013opkx   0.20333
gfz2013orot  -0.38306
gfz2013osmj   0.62437
gfz2013otxp   1.40370
gfz2013oywh  -2.56850
gfz2013phhi   0.06875
gfz2013phly   1.25800
gfz2013pifg  -0.44372
gfz2013pkmz  -1.54710
gfz2013pvsa  -0.37133
gfz2013pwsm   1.63800
gfz2013pzdr  -1.52030
gfz2013qaov   0.85696
gfz2013qapj   1.74630
gfz2013qdks   0.18001
gfz2013qdno  -0.61481
gfz2013qdzg  -0.34803
gfz2013qear  -2.23650
gfz2013qigb   0.68594
gfz2013qmkt   1.48730
gfz2013qoak   0.82470
gfz2013qogb   0.32663
gfz2013qqyo  -0.07597
gfz2013quyn   0.53832
gfz2013qwnm   0.04143
gfz2013qxof   0.08908
gfz2013rgcc  -0.44583
gfz2013rhbx  -0.25073
gfz2013rocs  -0.58220
gfz2013rofg  -1.72370
gfz2013rsyt   0.14206
gfz2013rtvy   1.85930
gfz2013rwkj  -0.00309
gfz2013rwog  -0.91214
gfz2013ryfc   0.43072
gfz2013ryph  -0.76894
gfz2013sbsl  -0.34885
gfz2013sbsp  -0.03766
gfz2013sdkg  -0.60049
gfz2013sdym  -0.72645
gfz2013skvq   0.30450
gfz2013suck  -0.56180
gfz2013swnj   1.56060
gfz2013syqp  -0.35812
gfz2013syqv   0.09405
gfz2013taeb  -0.73184
gfz2013tcju   1.35390
gfz2013tert  -0.53177
gfz2013tgia  -0.23738
gfz2013timw  -0.11393
gfz2013tjub   0.48891
gfz2013tkcg  -0.98383
gfz2013tmnf   0.73194
gfz2013tmyj  -0.39669
gfz2013tnff   0.16042
gfz2013tnrp   0.58067
gfz2013tpwl   0.82462
gfz2013trsq   0.04479
gfz2013twbc  -0.75853
gfz2013ubgt  -0.22637
gfz2013udtw  -0.08818
gfz2013uepl  -0.38500
gfz2013umay  -0.28288
gfz2013ummt   1.14500
gfz2013unuv  -0.72524
gfz2013upqj   0.26063
gfz2013uugc  -0.88475
gfz2013uwjo  -0.07466
gfz2013uwxb  -0.56899
gfz2013uxzw   0.45334
gfz2013uzmf  -0.93055
gfz2013vcgd  -0.60787
gfz2013vdam   0.09770
gfz2013veug  -0.03695
gfz2013vfix  -0.81320
gfz2013vgfb   1.12020
gfz2013vmrv  -2.17910
gfz2013vmsg  -0.74259
gfz2013vnwa   0.02992
gfz2013voai  -0.30818
gfz2013vojy   0.35991
gfz2013vvre   0.27543
gfz2013vwkh   0.62538
gfz2013vxht   0.23437
gfz2013wegs   0.19448
gfz2013wgwz   0.67936
gfz2013wpns  -0.29951
gfz2013wwee  -0.78143
gfz2013wyfl  -1.15850
gfz2013wyho  -0.43637
gfz2013xacx   0.29373
gfz2013xahp  -0.24252
gfz2013xbdc   0.24409
gfz2013xjmo  -2.73260
gfz2013xmzw  -0.31733
gfz2013xodn   0.49604
gfz2013xofz  -1.03010
gfz2013xswc  -0.20178
gfz2013xuxr   0.18112
gfz2013xvps   1.25140
gfz2013xzxe   0.51877
gfz2013yawe   1.11560
gfz2013ykkf   0.68588
gfz2013yktj   0.07687
gfz2013ylxm   1.84400
gfz2013ylxn   0.15855
gfz2013yodm  -0.03040
gfz2013yqkz   0.78079
gfz2013yqtu  -0.69838
gfz2013yxhf   0.54414
gfz2013zedt  -3.08150
gfz2013zfbz  -0.19191
gfz2013zghn   1.56090
gfz2013ziix   0.21317
gfz2013zkzb  -0.41511
gfz2013zlij  -0.50418
gfz2013zpse   0.50800
gfz2013zpwk   0.89268
gfz2014aaae   0.10762
gfz2014aapq  -0.15024
gfz2014aejh  -0.34578
gfz2014afbt  -1.45200
gfz2014ajgi  -0.48286
gfz2014aluc  -0.47560
gfz2014amgk   0.72910
gfz2014amsy   1.13120
gfz2014aqax   0.04613
gfz2014aqop   0.12498
gfz2014arox  -0.11973
gfz2014ascp   0.38665
gfz2014ateb  -1.26600
gfz2014avag  -0.58953
gfz2014avmd   0.27555
gfz2014avux  -0.14653
gfz2014avzp  -0.13295
gfz2014ayxf  -0.49905
gfz2014azfu   0.34142
gfz2014bfjb  -0.25759
gfz2014bgyv   0.14274
gfz2014bhch  -0.48120
gfz2014bkra  -0.54148
gfz2014bmdf   0.37013
gfz2014bmqw  -1.20030
gfz2014bnea  -0.50182
gfz2014bppg   0.91391
gfz2014bqpm   0.39409
gfz2014buyz  -0.28341
gfz2014bycg   0.80529
gfz2014byes  -1.93800
gfz2014bzus  -0.61167
gfz2014cgoi   0.10404
gfz2014cgxj  -0.06222
gfz2014cjao  -0.62550
gfz2014ckqv  -0.67333
gfz2014club  -0.66920
gfz2014cncl  -0.97412
gfz2014cokw   1.77340
gfz2014ctdl   0.22393
gfz2014cvnb   0.06258
gfz2014cwcj  -1.11740
gfz2014dbmu   0.00000
gfz2014dbqi  -0.31577
gfz2014dece   0.91080
gfz2014dggw  -0.53440
gfz2014diuu   0.78978
gfz2014djhi   0.55581
gfz2014djyj   0.20572
gfz2014dmrw  -0.35243
gfz2014dsqr  -0.73939
gfz2014dtth  -0.53147
gfz2014dtto  -1.46430
gfz2014dwcp  -0.13917
gfz2014dykt   1.04340
gfz2014eflc   1.10890
gfz2014eglj  -1.31890
gfz2014eiav   2.52090
gfz2014eirs  -0.73962
gfz2014ejfx   0.19230
gfz2014emlw   2.59050
gfz2014eoay  -0.65622
gfz2014epfm  -2.54570
gfz2014esez  -0.54628
gfz2014etqu  -1.77200
gfz2014eunw  -0.78232
gfz2014evgu  -0.55912
gfz2014evhm   0.93870
gfz2014exxj   0.81350
gfz2014eyne   0.54268
gfz2014eysf  -0.67065
gfz2014ezjq  -2.26710
gfz2014ezvd  -0.95981
gfz2014ezvj   0.75775
gfz2014fbef  -0.30339
gfz2014fbli   0.08353
gfz2014ffqg  -0.18707
gfz2014fhki   0.61002
gfz2014fjfz   0.10521
gfz2014fsir  -0.46558
gfz2014fsje  -0.45287
gfz2014fskh   0.26286
gfz2014fsvc   0.96189
gfz2014fvza  -0.70801
gfz2014fwuf   0.10619
gfz2014fwxt   0.89456
gfz2014fxim  -1.49760
gfz2014fxte  -1.00850
gfz2014fxtv  -0.27606
gfz2014fxuy   0.94307
gfz2014gasb   1.06600
gfz2014gbxg   0.84019
gfz2014gdbh   0.71462
gfz2014geln   0.95268
gfz2014gjfd  -0.18942
gfz2014gnvp  -0.19372
gfz2014gqxg   1.57890
gfz2014grwv   0.18784
gfz2014gsfc  -0.26151
gfz2014gssz  -0.00882
gfz2014gtee   0.07163
gfz2014gypw  -2.19120
gfz2014gzlm  -0.83820
gfz2014hapg  -3.83010
gfz2014hgjb   1.38760
gfz2014hotu   0.88548
gfz2014hqhv  -0.25414
gfz2014huah   0.31131
gfz2014huqh  -0.69379
gfz2014hyea  -0.89938
gfz2014hzzf  -4.79400
gfz2014iaqm  -0.05681
gfz2014iayo   1.38940
gfz2014icov  -0.01605
gfz2014igrp  -1.15570
gfz2014ijsa  -0.43581
gfz2014iltl  -0.38583
gfz2014ined  -0.87505
gfz2014inrg  -2.57070
gfz2014iolv   0.05007
gfz2014ipfu  -3.34000
gfz2014ipwk  -0.83793
gfz2014irlf  -0.51979
gfz2014irln  -0.10733
gfz2014irly  -0.00952
gfz2014isjg  -0.02323
gfz2014itlx   0.41669
gfz2014iusw  -1.55420
gfz2014ivgm  -0.89959
gfz2014ixlc  -0.60071
gfz2014iyuc   0.31626
gfz2014jarg  -0.84822
gfz2014jaxy  -0.09198
gfz2014jayh  -0.65760
gfz2014jbfp   0.67509
gfz2014jbgm   0.41567
gfz2014jcbj   0.46937
gfz2014jckg  -0.80917
gfz2014jffe   0.11228
gfz2014jfmc   4.63910
