# Nsamples: 242  MAD:  0.414  mean:  0.007  std:  0.651
gfz2010bkfi  -0.04932
gfz2010bklj  -0.60054
gfz2010clbw   0.09374
gfz2010cllh   0.18548
gfz2010cngg   0.27158
gfz2010cnyi   1.43550
gfz2010dmij  -1.18980
gfz2010extu  -0.45540
gfz2010fqnn  -0.17801
gfz2010hdgr   0.14898
gfz2010hdxn   0.08948
gfz2010hesh  -0.15003
gfz2010pclq  -0.14592
gfz2010pcya  -0.71988
gfz2010pgpo  -0.06373
gfz2010pngv   1.00570
gfz2010pvnn  -0.10241
gfz2010qqqx   1.43060
gfz2010qrta  -0.16939
gfz2010qzvf  -3.71350
gfz2010rdip   0.66449
gfz2010rkuu   0.04920
gfz2010rljv   0.43317
gfz2010tmba   0.25503
gfz2010wigk   0.52369
gfz2010wwhf  -0.03150
gfz2010wwnq  -0.20914
gfz2010xcdd  -0.87808
gfz2010xnbn  -0.60525
gfz2010xpzq  -0.59651
gfz2010xvev   0.18452
gfz2010yczp  -0.27628
gfz2010yfdr   0.12156
gfz2010yhhj   0.23830
gfz2010ytzb   0.13203
gfz2010zhvj   0.36719
gfz2011ahvh  -0.49002
gfz2011amst  -0.18838
gfz2011awsv  -0.12551
gfz2011biin  -0.59995
gfz2011cfyy  -0.08395
gfz2011chsa  -0.22349
gfz2011clwu  -0.30088
gfz2011cwzi   0.06702
gfz2011cxbw  -1.53040
gfz2011dhfg  -0.15879
gfz2011dmdv   0.34618
gfz2011dwae  -0.06541
gfz2011ekty  -0.43941
gfz2011emzr   0.28865
gfz2011exxq  -0.32755
gfz2011fnie   0.07932
gfz2011fnxz   0.20826
gfz2011fszl   0.12550
gfz2011fxmf   0.33416
gfz2011fzcw   2.65890
gfz2011gfer  -0.11132
gfz2011ggnl  -0.49695
gfz2011glpg  -0.24307
gfz2011gpyr  -0.22211
gfz2011haaa  -0.06647
gfz2011hatg  -0.50429
gfz2011hmnw  -0.05975
gfz2011hqjs  -0.14557
gfz2011hrgt  -0.07564
gfz2011hyct   0.31891
gfz2011ifta   0.13444
gfz2011iryz  -0.05754
gfz2011mdyq   0.84325
gfz2011mjje   0.08376
gfz2011mllb  -0.14056
gfz2011mntq  -0.30096
gfz2011mzvn   0.28440
gfz2011nfcz   0.49725
gfz2011nfgt   0.99843
gfz2011nfww   1.16280
gfz2011nhby  -0.37978
gfz2011nnda  -0.03031
gfz2011nsiy   0.17005
gfz2011ntyd   1.01450
gfz2011nuqo   0.56283
gfz2011oadm  -0.25784
gfz2011oazk  -0.31651
gfz2011ofpj   0.05698
gfz2011ohgj  -0.75531
gfz2011omxt  -0.06984
gfz2011ovvj   0.11617
gfz2011paqj   0.23503
gfz2011pdgq   0.12769
gfz2011pfls   0.09375
gfz2011pfwq  -0.19300
gfz2011prrq   0.44224
gfz2011ptgd   0.65768
gfz2011qklh   0.21780
gfz2011qlkj  -0.03007
gfz2011rbuo  -0.10640
gfz2011rkau  -0.30786
gfz2011rnsp  -0.67463
gfz2011rqut  -0.42499
gfz2011sdpl  -0.85667
gfz2011sfph  -1.76240
gfz2011sqco  -0.78365
gfz2011sskq   1.66460
gfz2011taqr   0.74013
gfz2011tdjj  -0.27197
gfz2011tqgg  -0.22889
gfz2011twpz   0.56299
gfz2011udxo   2.06970
gfz2011unud   0.94453
gfz2011vbxv  -0.38192
gfz2011vimn  -0.10122
gfz2011wgoa   0.94550
gfz2011wtfn   0.26559
gfz2011wwze  -0.54475
gfz2011wyei   0.91334
gfz2011xgwy   0.18411
gfz2011xlod  -1.40890
gfz2011xnui  -0.18557
gfz2011xxng  -0.45087
gfz2011yexx   0.41240
gfz2011ypfh  -0.11817
gfz2011zgxn   0.27142
gfz2011zkbt   0.33377
gfz2012ahac  -0.52378
gfz2012ahkl   0.99133
gfz2012amjx   0.36308
gfz2012amvs   0.15525
gfz2012aqpa  -1.94760
gfz2012arlo   1.52160
gfz2012asld   0.92952
gfz2012atjr   0.11694
gfz2012bolx  -0.09681
gfz2012bovy  -0.33469
gfz2012byrq  -0.67144
gfz2012bysu  -2.46940
gfz2012byuk  -0.62782
gfz2012cdju  -0.10286
gfz2012cntu  -0.16605
gfz2012dejg  -0.10555
gfz2012dgfk   0.79488
gfz2012dkdy   0.31767
gfz2012dleg  -0.34942
gfz2012dnig   0.40833
gfz2012dpnu  -0.03647
gfz2012dtdt   0.15002
gfz2012dttl   0.21085
gfz2012duwm  -0.32546
gfz2012dwwu  -0.01275
gfz2012dysj   0.49393
gfz2012dysu  -0.45840
gfz2012ebff   0.28947
gfz2012ekro   0.06478
gfz2012gdye   0.25181
gfz2012gnow   0.27861
gfz2012hzhn  -0.02096
gfz2012iphs   0.64503
gfz2012mpzo   0.43381
gfz2012mrqk  -0.63398
gfz2012mvgu  -0.21712
gfz2012ofnx  -1.02890
gfz2012pvve   0.00602
gfz2012syum  -0.48107
gfz2012tqjc  -0.00000
gfz2012tyoz  -0.61623
gfz2012uovh  -0.37845
gfz2012uvea  -0.39682
gfz2012uvoa  -0.17750
gfz2012uzww  -0.13389
gfz2012vcqw  -0.00000
gfz2012vgot  -0.30644
gfz2012vioy  -0.25601
gfz2012vitw   0.17702
gfz2012vkjw   0.14404
gfz2012vlzv  -0.25357
gfz2012vqjw   1.21040
gfz2012vqmq  -2.11600
gfz2012vrqz  -0.42958
gfz2012vurc  -0.45710
gfz2012wbeu   0.00000
gfz2012wgdv   0.08725
gfz2012wgmg  -0.74621
gfz2012wmas   0.02758
gfz2012wowu   0.57606
gfz2012woxj   0.05507
gfz2012wpen  -0.85286
gfz2012wysg   0.11729
gfz2012xask   0.18533
gfz2012xcsf   0.28574
gfz2012xfnu   1.02500
gfz2012xkln   0.13733
gfz2012xlas  -0.59458
gfz2012xncm   0.32175
gfz2012xqxw   0.45729
gfz2012xrmq  -0.13848
gfz2012xtvu  -0.19032
gfz2012xxdj  -0.07195
gfz2012yegw   1.18380
gfz2012yvwc   0.19767
gfz2012ywei   0.55901
gfz2012yytb   1.56870
gfz2012zhyz  -0.12364
gfz2012zido   0.93889
gfz2012zkhu   0.53075
gfz2012zmdf   0.32300
gfz2012zqis   0.12515
gfz2013aclz  -0.51671
gfz2013aggr   0.82466
gfz2013agmt   0.18581
gfz2013akkd  -0.15855
gfz2013atak  -0.73887
gfz2013byyy  -0.01116
gfz2013cfls   0.21004
gfz2013cinv   0.12933
gfz2013cpjc  -0.34040
gfz2013dftb   0.24341
gfz2013djfi   0.29674
gfz2013dmzh   0.22454
gfz2013dngd   0.25834
gfz2013dznt  -0.46919
gfz2013dzvr  -0.73392
gfz2013eazm  -0.15826
gfz2013efct  -0.01766
gfz2013egfv  -0.44118
gfz2013ewht   0.11627
gfz2013exow   0.09734
gfz2013fnpa   0.34973
gfz2013foto   0.02229
gfz2013fvht  -0.01096
gfz2013fvyr  -0.08805
gfz2013fybd   0.19881
gfz2013gaqx   0.79285
gfz2013gbki   0.13778
gfz2013gjmk   0.07878
gfz2013gkcx  -0.02950
gfz2013gkyn  -0.05476
gfz2013gugi   0.37877
gfz2013gurk  -0.35014
gfz2013gxye   0.41814
gfz2013havw  -0.10628
gfz2013hbmi  -0.06836
gfz2013hbtm   0.08155
gfz2013hqaa  -0.07460
