# Nsamples: 38  MAD:  1.428  mean:  1.165  std:  1.230
gfz2010bmls   1.38450
gfz2010ccwc   0.18331
gfz2010ccye  -0.78931
gfz2010clbw  -0.04754
gfz2010hsgv  -0.86997
gfz2010jcby   0.48484
gfz2010jlvp   2.04940
gfz2010mqzz   1.70030
gfz2010wwnq   2.17720
gfz2010wyuj   2.60890
gfz2010xamh   2.47810
gfz2010xaxw  -0.19761
gfz2010yczp  -0.03663
gfz2010yfdr  -0.57644
gfz2011aqpp   1.42760
gfz2011awsv  -0.16973
gfz2011bygs   0.04380
gfz2011bygu   2.10410
gfz2011chsa   1.97370
gfz2011cwsm   1.45910
gfz2011cwzi   2.01380
gfz2011dwae   2.06680
gfz2011edrq  -0.36594
gfz2011emzr   1.43230
gfz2011exxq   2.01800
gfz2011fnie   2.41140
gfz2011fszl  -0.39165
gfz2011haaa   1.83510
gfz2011hqjs  -0.20694
gfz2011huon   2.22300
gfz2011hvzo   3.51740
gfz2011hyct   1.92030
gfz2011ioch   1.02180
gfz2011iryz  -0.22225
gfz2011ituo   3.37990
gfz2011kjzt   1.82080
gfz2011kjzv   0.07045
gfz2011lmug   2.34260
