# Nsamples: 523  MAD:  0.561  mean: -0.014  std:  0.807
gfz2010inbs   0.00662
gfz2010ioad  -0.17581
gfz2010ixjl   0.10037
gfz2010izag   0.61272
gfz2010jcby  -0.00000
gfz2010jgwj   0.23049
gfz2010jkrp  -0.47701
gfz2010jpkn   0.60224
gfz2010juke   0.29532
gfz2010jvsi  -0.57810
gfz2010kcdq   0.66439
gfz2010kcyz   0.21737
gfz2010kwks  -0.34621
gfz2010ljol   1.63440
gfz2010lswe   2.24800
gfz2010mdti  -0.23109
gfz2010mjdl  -0.13262
gfz2010mnoc  -0.26348
gfz2010mpvc  -0.44429
gfz2010mqaj  -3.52330
gfz2010mqzz  -0.67805
gfz2010mwmd   2.73980
gfz2010myqg   0.30284
gfz2010mzfb  -0.58605
gfz2010nbcr  -0.28053
gfz2010ncwu  -0.22152
gfz2010ngge  -0.21635
gfz2010novb   0.17160
gfz2010nteg   0.27157
gfz2010ocug  -2.90970
gfz2010oguu  -0.08409
gfz2010ojhe   0.29327
gfz2010okpc   1.65670
gfz2010onxm   0.68151
gfz2010osaq  -0.66085
gfz2010ouvm   1.82460
gfz2010ovvg   0.76035
gfz2010pclq  -0.07756
gfz2010pcya  -0.76118
gfz2010pgpo   0.01058
gfz2010pgrf  -0.02019
gfz2010pngv  -2.81530
gfz2010pvnn  -0.07637
gfz2010pxoi   0.62352
gfz2010pzza  -0.37501
gfz2010qqqx  -0.75548
gfz2010qrta   0.39375
gfz2010qykh   0.38384
gfz2010qylh   0.54066
gfz2010qzvf   0.85814
gfz2010rdip   0.21219
gfz2010rhvu   0.02755
gfz2010rkuu  -0.14087
gfz2010rljv   0.47596
gfz2010rmua  -0.31748
gfz2010rnqa  -1.68510
gfz2010rnwt  -0.11007
gfz2010rpjd  -1.17190
gfz2010schp  -0.21949
gfz2010scht   0.27967
gfz2010sdfs  -0.20994
gfz2010shvn  -0.58128
gfz2010swqy  -0.49142
gfz2010sylk  -0.13802
gfz2010syqh   0.21551
gfz2010tmba   0.39637
gfz2010tvit   0.09577
gfz2010tzlz   0.13427
gfz2010tzma  -0.24793
gfz2010uhjy   0.26357
gfz2010uidg   1.08290
gfz2010umxj   0.69945
gfz2010umyp  -0.96000
gfz2010uopf  -0.18069
gfz2010uqba  -0.32295
gfz2010uveo   1.37010
gfz2010uvpz  -0.79389
gfz2010vdcf   0.67610
gfz2010vfyu   0.44056
gfz2010vhzx   0.34155
gfz2010vong   0.14824
gfz2010wakc  -0.12828
gfz2010wplk   0.34238
gfz2010wwnq   0.06864
gfz2010wyuj  -0.05058
gfz2010xamh   0.05149
gfz2010xaxw   0.16692
gfz2010xhqq  -0.28450
gfz2010xnbn  -1.01320
gfz2010xpzq   0.94407
gfz2010xvev  -0.02223
gfz2010xytc  -0.19857
gfz2010xzte  -0.54229
gfz2010yczp  -0.15578
gfz2010ygrd   0.08865
gfz2010yhhj  -0.56210
gfz2010yspe   0.30703
gfz2010ytzb   0.02215
gfz2010zhvj  -0.20282
gfz2010zjun  -0.05388
gfz2011amst   0.09880
gfz2011awsv   0.15178
gfz2011bcvc   0.73265
gfz2011cjuz   1.62960
gfz2011clwu   0.23650
gfz2011cwhx   0.13456
gfz2011cwsm  -0.27405
gfz2011cwzi  -0.29384
gfz2011cxbw   0.96742
gfz2011dabj  -0.46628
gfz2011dhfg  -0.00634
gfz2011dhqk   0.54921
gfz2011dmdv  -0.31761
gfz2011duvm  -0.08700
gfz2011dwae  -0.36976
gfz2011edrq   0.42559
gfz2011fnuk  -0.21537
gfz2011fnxz   0.30839
gfz2011inan  -0.21490
gfz2011ioch  -1.96480
gfz2011itcv  -0.02158
gfz2011ixpj   1.03300
gfz2011iybf   1.03150
gfz2011jdoz  -0.19395
gfz2011jeta   1.05090
gfz2011jfyb   0.30483
gfz2011jpob  -1.02800
gfz2011mdyq  -0.30031
gfz2011mjje   0.13080
gfz2011mllb  -0.77176
gfz2011mntq  -0.36930
gfz2011mrfm   0.06375
gfz2011mror   0.77892
gfz2011mrpy   0.17637
gfz2011mryu  -0.21105
gfz2011mzvn  -0.13894
gfz2011nblt   0.38258
gfz2011ncyw  -0.04395
gfz2011ndki  -0.01465
gfz2011ndlh   0.64739
gfz2011ndse   0.90529
gfz2011ndtp   2.07850
gfz2011ndvj  -1.02030
gfz2011neai   0.28674
gfz2011nejg   0.12745
gfz2011nerb   0.12992
gfz2011nfcz   0.17944
gfz2011nfgt   0.90574
gfz2011nfih   0.70005
gfz2011nfln   0.19682
gfz2011nftw  -0.12088
gfz2011nfww   0.53904
gfz2011nhby   0.58862
gfz2011nhhd   0.20307
gfz2011nhjv   3.16810
gfz2011nhvt   2.45430
gfz2011nhwf   1.09430
gfz2011nihq  -0.78377
gfz2011nijp   0.46208
gfz2011nilw  -0.33191
gfz2011nimp  -0.05509
gfz2011nioi   0.45655
gfz2011nisj  -0.95283
gfz2011niuw   0.65811
gfz2011nivw   0.27581
gfz2011nkda  -1.03450
gfz2011nlmf   0.35080
gfz2011nlou   0.10036
gfz2011nlum   0.46684
gfz2011nlyw  -0.19291
gfz2011nmdz  -0.13908
gfz2011nmhg  -0.76876
gfz2011nnda  -0.61256
gfz2011nsiy   1.47480
gfz2011nsrx   0.22422
gfz2011nswi  -0.12654
gfz2011nsyi   0.98033
gfz2011ntyd  -0.13777
gfz2011nuqo   0.97268
gfz2011nvty  -0.19516
gfz2011nyzk   0.25596
gfz2011oazk  -0.11274
gfz2011ocif   0.37356
gfz2011oekz   2.40300
gfz2011oesd  -0.35709
gfz2011ohgj  -0.60678
gfz2011okza   0.21606
gfz2011omxt  -0.16695
gfz2011oosp  -0.18994
gfz2011oqjl   0.26882
gfz2011osuy  -0.04923
gfz2011ovvj  -0.01879
gfz2011owqa   0.09046
gfz2011paqj   0.08047
gfz2011pbgh  -0.36205
gfz2011pbjh   0.41008
gfz2011pcqr   0.95989
gfz2011pdsn  -0.99446
gfz2011pfls   0.23177
gfz2011pfwq  -0.17543
gfz2011pimj   0.17396
gfz2011pivq   0.08428
gfz2011plzc   1.21250
gfz2011pmuv  -0.03961
gfz2011poug  -0.60838
gfz2011ppsc   0.06121
gfz2011prrq   0.34464
gfz2011pwbw   0.02090
gfz2011qenl   0.23052
gfz2011qgea  -1.78690
gfz2011qgvh  -0.37503
gfz2011qgvx  -0.73201
gfz2011qidi  -0.55215
gfz2011qlkj  -0.26042
gfz2011qtoy   2.50130
gfz2011qukj  -0.14219
gfz2011rbuo   0.14624
gfz2011rkau  -0.04339
gfz2011rkzx  -0.22254
gfz2011rnny  -0.21144
gfz2011rnsp   0.25848
gfz2011rpoo  -0.17441
gfz2011sdax   0.57290
gfz2011sqco   0.12194
gfz2011tvuv  -0.19419
gfz2011twpz   0.07243
gfz2011txdb  -0.01170
gfz2011tzcv  -0.75955
gfz2011udxo  -0.86986
gfz2011ugbt   1.00580
gfz2011urwz  -0.09334
gfz2011uvsi   0.48302
gfz2011vahy   0.03805
gfz2011vbxv   0.25866
gfz2011vsag   0.82808
gfz2011vtzv   0.57751
gfz2011wfsk   1.02990
gfz2011wgoa   0.49241
gfz2011wkja   0.56683
gfz2011wnjg   2.10240
gfz2011wpzt   0.26631
gfz2011wtfn   0.39453
gfz2011wucg   0.17129
gfz2011wwze   0.21218
gfz2011wyei   0.87380
gfz2011wzss   0.49400
gfz2011xgwy   0.29590
gfz2011xkka   0.13626
gfz2011xlod  -0.69338
gfz2011xnui   0.41899
gfz2011yexx   0.79070
gfz2011yjtx   0.76078
gfz2011ykbd  -0.36174
gfz2011ypfh  -0.02575
gfz2011yrfa   0.54726
gfz2011ytob  -1.93710
gfz2011ywtj   0.22581
gfz2011zkbt   0.18026
gfz2011znyq   0.04599
gfz2012ahac   0.62181
gfz2012aisj   0.80764
gfz2012amjx   0.16965
gfz2012aqpa  -0.42720
gfz2012arlo   0.79159
gfz2012atjr   0.35432
gfz2012bcvn  -0.07519
gfz2012beae   0.23980
gfz2012bity   0.35901
gfz2012bovy   0.48023
gfz2012bysu  -0.84755
gfz2012bytv  -0.27392
gfz2012byuk   0.47357
gfz2012cdju   0.41274
gfz2012cksh   0.10733
gfz2012cvfr  -0.92100
gfz2012dbgt  -0.26771
gfz2012dcjd  -0.27523
gfz2012dejg  -0.86615
gfz2012dgfk  -0.28641
gfz2012dleg  -0.18232
gfz2012dnig  -0.29017
gfz2012dtlu  -0.69914
gfz2012dtvr  -0.02607
gfz2012duvf  -1.40810
gfz2012duwm  -0.72924
gfz2012dwwu  -0.59861
gfz2012dyck  -0.82329
gfz2012dysj   1.30200
gfz2012dysu   0.21698
gfz2012dyua  -0.12014
gfz2012dzen  -0.25166
gfz2012dzjo   0.64465
gfz2012dzoh   2.55730
gfz2012dzot   0.11647
gfz2012ebff  -0.60130
gfz2012ebhf  -0.88862
gfz2012ebrr  -1.03380
gfz2012ekro   0.00000
gfz2012emin  -1.79610
gfz2012enio  -0.81812
gfz2012erds  -1.03240
gfz2012evxn  -0.00000
gfz2012eyti  -0.81445
gfz2012facv   1.38150
gfz2012fcyq  -0.76254
gfz2012fcyr  -0.75990
gfz2012fhaf  -0.67879
gfz2012fjiu  -0.51064
gfz2012foih  -0.56043
gfz2012fpyo  -0.07478
gfz2012ftcq   0.82047
gfz2012ftks  -0.50898
gfz2012fyny  -0.84112
gfz2012fyop  -0.69359
gfz2012gczh   0.41880
gfz2012gdye  -0.71310
gfz2012ghiv  -1.20600
gfz2012ghyd  -0.44639
gfz2012gjdg  -0.99046
gfz2012gnow  -0.83711
gfz2012gpcd  -0.83907
gfz2012gubu  -0.09749
gfz2012gzuk  -0.20754
gfz2012hhlx  -1.07750
gfz2012hkxs  -0.18808
gfz2012hvjc  -0.48141
gfz2012hvtu  -1.79000
gfz2012hwph  -0.41778
gfz2012hyqh  -1.01420
gfz2012hzai  -0.41661
gfz2012hzhn  -0.41312
gfz2012hzur  -1.61200
gfz2012iabn  -0.78441
gfz2012iblc  -0.44957
gfz2012iblo  -0.22633
gfz2012ibyd  -1.46980
gfz2012icjo  -0.88425
gfz2012iedy  -0.97337
gfz2012ikke  -2.50290
gfz2012imsm  -2.17380
gfz2012imuo  -2.24920
gfz2012inns  -0.76190
gfz2012ipdc  -0.61638
gfz2012iphs   0.34137
gfz2012iroy  -0.92544
gfz2012ivyg  -1.91570
gfz2012iyhs  -1.07940
gfz2012jaun  -1.14510
gfz2012jetp  -1.10440
gfz2012jihg   0.31182
gfz2012jjxm  -0.63787
gfz2012jlez  -1.38050
gfz2012jodg  -0.60783
gfz2012jopi  -0.76168
gfz2012jxnm  -0.11546
gfz2012kbub  -0.52604
gfz2012klpl  -0.26706
gfz2012kmbo  -1.34810
gfz2012kmmz  -1.07300
gfz2012kstg  -0.92992
gfz2012kwmx  -0.80421
gfz2012lcca  -1.28900
gfz2012lcro  -0.24410
gfz2012ldjj  -1.06170
gfz2012lops  -0.38579
gfz2012lqhw  -0.82233
gfz2012luzm  -0.09130
gfz2012mcrb  -0.88244
gfz2012mdzf  -1.23150
gfz2012mmiw  -0.50106
gfz2012mowv  -0.47302
gfz2012mpzo  -0.92403
gfz2012mrqk  -1.09720
gfz2012mrwu  -0.52229
gfz2012mtyn  -0.74571
gfz2012mvgu  -0.53990
gfz2012mwhe   0.35096
gfz2012mzco   0.48310
gfz2012ndwt  -0.52065
gfz2012nldz  -0.43082
gfz2012nlrb  -0.15335
gfz2012nnqu  -0.54653
gfz2012nqvd  -0.29843
gfz2012nsxc   0.05600
gfz2012oafg   0.28720
gfz2012oehy   0.07622
gfz2012ofaj  -0.02932
gfz2012onhu   0.06713
gfz2012oork  -0.37555
gfz2012pdjt   0.11915
gfz2012phns   0.31266
gfz2012pmuj   1.00690
gfz2012pmws   0.90024
gfz2012pokk   0.28674
gfz2012pryl   0.19078
gfz2012pvve   0.03268
gfz2012qfah   0.26569
gfz2012qfov   1.07290
gfz2012qhqp   1.10970
gfz2012qibe   1.89190
gfz2012qllj  -0.36084
gfz2012qmhz   0.89735
gfz2012qmxz   0.47937
gfz2012qoev   0.82805
gfz2012qpoc   0.46795
gfz2012qvwy  -4.81830
gfz2012rduv   0.31638
gfz2012rfhw   0.02015
gfz2012rjlp  -1.35270
gfz2012rslf  -0.44536
gfz2012sxbo   0.49817
gfz2012sxzs   0.19913
gfz2012syum   0.28323
gfz2012tfij   0.01892
gfz2012thyh   0.64059
gfz2012tisj  -0.38899
gfz2012tjih   0.73137
gfz2012tqjc   0.91163
gfz2012trfq   0.02560
gfz2012tvgw  -1.20540
gfz2012tyoz  -0.41641
gfz2012udxg  -0.51774
gfz2012uegq   1.28470
gfz2012uhsx   0.26858
gfz2012ulei   0.49908
gfz2012umob   0.14039
gfz2012uovh   0.12946
gfz2012urtu  -0.46060
gfz2012utdu   0.27175
gfz2012uvea   0.17664
gfz2012uvoa   0.23324
gfz2012uzww  -0.04312
gfz2012vcqw   0.81759
gfz2012vgot   0.51195
gfz2012vile  -0.11579
gfz2012vioy  -0.11556
gfz2012vitw   0.14605
gfz2012vkjw   0.80083
gfz2012vqjw  -0.42191
gfz2012vqmq   0.30503
gfz2012vrqz   0.17455
gfz2012wbeu   0.28770
gfz2012wgmg  -0.43457
gfz2012wjpf   0.59066
gfz2012wmas   0.44716
gfz2012wowu   0.75808
gfz2012woxj   0.58641
gfz2012wysg   0.22486
gfz2012wzja  -0.91328
gfz2012xfnu   0.32082
gfz2012xkln  -0.14449
gfz2012xlas   0.21785
gfz2012xlfo  -0.14687
gfz2012xmwt   0.14039
gfz2012xncm   1.11830
gfz2012xqxw  -0.21288
gfz2012xrmq   0.33178
gfz2012xtvu   0.43054
gfz2012xxdj   0.18329
gfz2012ylai   0.07796
gfz2012yncm  -0.94672
gfz2012yygz   0.23043
gfz2012yytb  -0.22247
gfz2012zhyz   0.18732
gfz2012zido   0.90381
gfz2012zmdf  -2.10420
gfz2012zmfc   0.23520
gfz2012znou   2.47900
gfz2013aclz  -0.49204
gfz2013aggr   0.30290
gfz2013akkd   0.46900
gfz2013atak  -0.23840
gfz2013bqfc   0.00000
gfz2013bwgw   0.06100
gfz2013byyy   0.22659
gfz2013bzwa   1.10700
gfz2013cfls   0.27279
gfz2013cinv   0.12744
gfz2013ciof  -0.64092
gfz2013cpjc   0.28237
gfz2013delq   0.15225
gfz2013dftb   0.54419
gfz2013dfvx  -0.01999
gfz2013djfi  -0.02610
gfz2013dmzh  -0.05992
gfz2013dngd   0.93584
gfz2013dvub   0.27883
gfz2013dwsp   2.47010
gfz2013dznt   0.35758
gfz2013dzvr  -0.76912
gfz2013efct   0.12983
gfz2013egfv  -0.77386
gfz2013eidd  -0.00494
gfz2013ektd  -0.04428
gfz2013enqo   1.11540
gfz2013esef  -0.12027
gfz2013exow  -0.28208
gfz2013fnpa   0.24534
gfz2013foto   0.26295
gfz2013fulo   0.22248
gfz2013fvht   0.24575
gfz2013fvyr  -0.10234
gfz2013fxyr  -0.25309
gfz2013fybd   0.68312
gfz2013gaqx   1.66170
gfz2013gjmk  -0.01503
gfz2013gkcx  -0.11710
gfz2013gkyn   0.00533
gfz2013glkq  -0.11726
gfz2013gomv   0.45697
gfz2013grle   0.90402
gfz2013gsnl  -0.58945
gfz2013gugi   0.53564
gfz2013gurk   0.00313
gfz2013gxye   0.46690
gfz2013gywl   1.08440
gfz2013hbmi   0.29878
gfz2013hbtm   0.11023
gfz2013hiam   0.97937
gfz2013hjtt  -0.05473
gfz2013hqaa   0.10088
gfz2013hvzv   0.67306
gfz2013hwps  -0.36501
