# Nsamples: 317  MAD:  0.593  mean:  0.042  std:  0.883
gfz2010bkfi  -1.26990
gfz2010bklj   0.18727
gfz2010btme  -1.71370
gfz2010cdnv  -1.67560
gfz2010clbw   0.23067
gfz2010cllh  -0.11067
gfz2010cphq  -0.23811
gfz2010crgy  -0.00294
gfz2010crir  -0.19689
gfz2010cwrk   0.07819
gfz2010cyid   0.74580
gfz2010ddan  -0.48324
gfz2010djib  -0.39154
gfz2010dmij   1.75230
gfz2010drit  -0.31956
gfz2010drml  -0.17461
gfz2010drmq  -0.17461
gfz2010dslu  -0.55229
gfz2010extu   0.18199
gfz2010faly   1.05030
gfz2010gcqp   0.29411
gfz2010hdxn  -0.33608
gfz2010hllp   1.37130
gfz2010hnuo   1.16270
gfz2010hueh  -0.79494
gfz2010iaay  -1.05770
gfz2010iawy  -0.59343
gfz2010inbs   0.75677
gfz2010jkrp  -0.55308
gfz2010mdti   0.39907
gfz2010mpvc  -0.40738
gfz2010mqzz  -0.22314
gfz2010ngge   0.30096
gfz2010ocug   4.47110
gfz2010pclq  -0.26498
gfz2010pcya  -0.66972
gfz2010rhvu   0.54486
gfz2010rkuu   0.92834
gfz2010rljv   0.46587
gfz2010rnqa   4.22640
gfz2010rnwt   0.73247
gfz2010rpjd  -1.00730
gfz2010schp   0.81546
gfz2010scht  -0.17824
gfz2010sdfs   0.14537
gfz2010shvn   0.59812
gfz2010wigk  -0.41929
gfz2010wplk   0.40927
gfz2010wyuj  -0.17061
gfz2010xamh   0.03024
gfz2010xaxw  -0.31755
gfz2010xjsv   1.53970
gfz2010xnbn  -1.78900
gfz2010xpzq   0.40676
gfz2010xytc   0.04126
gfz2010yczp   0.17752
gfz2010yfdr   0.34714
gfz2010yhhj   0.35729
gfz2010zjun  -0.05697
gfz2011amst   0.81133
gfz2011awsv   0.05001
gfz2011bcvc  -1.05950
gfz2011biin  -0.57148
gfz2011bqbx   2.37040
gfz2011bygs   0.30880
gfz2011bygu   0.38258
gfz2011bzio   1.43000
gfz2011cdge  -0.16879
gfz2011cfyy   0.05548
gfz2011chsa  -0.08446
gfz2011cjuz   0.50349
gfz2011cwsm  -0.60427
gfz2011dhfg  -0.06344
gfz2011duvm   0.54766
gfz2011dwae  -0.08922
gfz2011edrq  -0.09038
gfz2011ekty   0.83430
gfz2011emzr   0.42909
gfz2011fbsl   0.65175
gfz2011fnie  -0.25196
gfz2011fnxz  -0.02222
gfz2011fszl   0.51359
gfz2011fzcw   0.66491
gfz2011gfer   0.20236
gfz2011ggnl  -0.03858
gfz2011glpg  -0.05581
gfz2011haaa   0.11299
gfz2011hmnw   0.23391
gfz2011hqjs   0.31909
gfz2011hrgt   0.58098
gfz2011hvzo   0.27653
gfz2011hyct   0.34731
gfz2011ifta   0.07435
gfz2011ioch  -0.90401
gfz2011iryz   0.05583
gfz2011ituo   1.14580
gfz2011jphj  -0.58305
gfz2011jryv   1.31120
gfz2011kjzt  -0.03051
gfz2011kjzv   0.52612
gfz2011lmug   0.69473
gfz2011mjje   0.05963
gfz2011mllb  -1.16130
gfz2011mzvn   1.25040
gfz2011ndki   0.79883
gfz2011ndlh   0.68565
gfz2011ndse  -0.34855
gfz2011neai  -0.40145
gfz2011nejg   0.75629
gfz2011nejw  -0.15862
gfz2011nfcz   0.48721
gfz2011nfgt   0.69173
gfz2011nhvt  -0.88627
gfz2011nijp  -0.04831
gfz2011niuw  -2.63520
gfz2011nuqo  -2.93990
gfz2011oadm  -0.10220
gfz2011oazk   0.08300
gfz2011ofpj   0.22258
gfz2011ohgj  -0.10864
gfz2011okza   0.46562
gfz2011omxt   0.69688
gfz2011owqa  -0.19468
gfz2011paqj   0.47883
gfz2011pmuv   0.11341
gfz2011prrq   1.97980
gfz2011pwbw   0.22940
gfz2011qgea  -0.71038
gfz2011qukj   0.08426
gfz2011rkau  -1.25570
gfz2011rkzx   0.41567
gfz2011rnny   0.83472
gfz2011rqut  -1.86440
gfz2011sqco   2.50080
gfz2011twpz   0.43035
gfz2011vahy   0.11252
gfz2011vsag  -0.47782
gfz2011vtzv   0.46747
gfz2011wkja   0.15722
gfz2011wnjg   0.09528
gfz2011wwze  -0.77432
gfz2011xgwy   0.10101
gfz2011ypfh   0.26494
gfz2012ahkl  -0.20806
gfz2012amjx   0.46321
gfz2012amvs  -0.09614
gfz2012aqpa  -0.46670
gfz2012arlo  -0.90899
gfz2012atjr   0.05498
gfz2012byrq  -0.10252
gfz2012byuk  -0.50425
gfz2012dleg  -1.77130
gfz2012dtdt  -0.73115
gfz2012duwm  -0.82089
gfz2012dwwu  -0.85810
gfz2012dyck  -0.60949
gfz2012ebrr  -1.01650
gfz2012ekfp  -0.48029
gfz2012ekro  -0.24461
gfz2012enio  -1.94680
gfz2012erds  -1.28390
gfz2012evxn  -0.61039
gfz2012fcyq  -0.71281
gfz2012fcyr  -0.71209
gfz2012fiiz  -0.89734
gfz2012gbrs  -2.31720
gfz2012gczh   0.00851
gfz2012ghiv  -0.65843
gfz2012hhlx  -0.62027
gfz2012hmcv  -0.85330
gfz2012hvtu   0.37491
gfz2012hyqh  -0.61124
gfz2012hzhn  -0.32817
gfz2012hzur   0.75632
gfz2012iblo  -0.85936
gfz2012ibyd  -1.05540
gfz2012idxu  -0.81316
gfz2012imuo  -0.94053
gfz2012iphs  -1.15650
gfz2012iroy  -0.57417
gfz2012jodg  -0.00595
gfz2012kstg  -0.32636
gfz2012ldjj  -1.07230
gfz2012lqhw  -0.60122
gfz2012mdzf  -0.67286
gfz2012mjuu  -0.23528
gfz2012mrqk  -1.29500
gfz2012nmja  -0.13124
gfz2012nnqu  -0.61352
gfz2012nqvd  -0.00000
gfz2012oehy   0.02869
gfz2012phns   0.45230
gfz2012qmhz   1.67620
gfz2012qpoc  -0.49246
gfz2012rnbw   3.08370
gfz2012smyn  -0.25721
gfz2012socz   0.35176
gfz2012sqsc  -0.13786
gfz2012ssnb   2.09680
gfz2012suqd   0.52742
gfz2012svwz   0.52268
gfz2012swbz  -0.03427
gfz2012syum  -0.71022
gfz2012tjih   1.02760
gfz2012trfq  -0.04839
gfz2012tyoz  -0.40194
gfz2012udxg   0.14883
gfz2012uhsx   0.13450
gfz2012ulei   0.46464
gfz2012unxc   0.00897
gfz2012uovh   0.23052
gfz2012uvoa  -0.36388
gfz2012uzww  -0.15575
gfz2012vcqw   0.44759
gfz2012vdra   0.15517
gfz2012vgot  -0.05955
gfz2012vitw  -0.52524
gfz2012vlzv  -0.22930
gfz2012vrqz   0.57071
gfz2012wbeu  -0.50867
gfz2012wgdv   0.24678
gfz2012wgmg  -0.54837
gfz2012wmmw   0.04143
gfz2012wowu   0.77503
gfz2012wpen  -0.15288
gfz2012xcsf   0.05252
gfz2012xlas   0.20751
gfz2012xlfo  -0.53363
gfz2012xncm   0.13493
gfz2012xqxw   0.59134
gfz2012xrmq   0.33868
gfz2012xtvu   0.13174
gfz2012yegw   0.38668
gfz2012yytb   1.15150
gfz2012zmfc   0.87198
gfz2013aggr   1.02440
gfz2013akkd  -0.72581
gfz2013ascz  -0.79337
gfz2013byyy   0.30722
gfz2013cfls   0.21822
gfz2013cpjc  -0.25484
gfz2013delq  -0.28455
gfz2013dznt   0.82215
gfz2013eazm  -0.14594
gfz2013efct   0.19734
gfz2013egfv  -0.00000
gfz2013frxd   0.31886
gfz2013fthi   0.62724
gfz2013fulo  -0.54365
gfz2013fvht   0.18642
gfz2013fvyr  -0.04274
gfz2013gaqx   2.29200
gfz2013gglk  -0.87684
gfz2013gkcx  -0.02259
gfz2013gomv   0.18588
gfz2013grle   1.17860
gfz2013gugi   0.60568
gfz2013gywl   0.73310
gfz2013hbmi  -0.01187
gfz2013hqaa   1.09310
gfz2013qigb   0.07840
gfz2013quwz  -0.18974
gfz2013rocs   0.18231
gfz2013tdsx   0.44388
gfz2013tjub   0.11359
gfz2013tkcg  -0.26152
gfz2013tmnf   0.05001
gfz2013uafv   0.01980
gfz2013ubgt  -0.39001
gfz2013udtw  -2.20240
gfz2013ujze   0.98822
gfz2013veug   0.22313
gfz2013vwkh  -3.95310
gfz2013vzel  -0.09483
gfz2013xahp   0.32329
gfz2013xddu   1.60820
gfz2013xmzw   0.80513
gfz2013xofz   0.50621
gfz2013xswc   0.06381
gfz2013ykkf   0.11908
gfz2013yqtu   0.62160
gfz2013yxhf  -0.17220
gfz2013zfbz  -0.18319
gfz2013ziix   0.42785
gfz2013zlak   0.26555
gfz2014aqax   1.82310
gfz2014aqop   0.44430
gfz2014bdju  -0.33239
gfz2014buyz  -0.03560
gfz2014cgoi  -3.15800
gfz2014cgxj   1.24960
gfz2014club   0.01252
gfz2014cvnb  -0.00433
gfz2014dtth   0.45375
gfz2014dwcp   0.23995
gfz2014egvg  -0.06083
gfz2014eirs   0.17833
gfz2014epnq   0.01622
gfz2014esez   0.06126
gfz2014evyu   0.35207
gfz2014ezjq   0.73228
gfz2014ezld   0.40134
gfz2014faex   0.87482
gfz2014fbef   0.29360
gfz2014fdhk   0.96232
gfz2014flxk   0.92679
gfz2014fsir   0.24462
gfz2014fsje   0.10038
gfz2014gnbw   0.20861
gfz2014hyea   0.09223
gfz2014hzzf  -0.12261
gfz2014ined   0.46168
gfz2014inrg  -0.56856
gfz2014irln  -0.44098
gfz2014irly   0.04388
gfz2014isjg  -0.03248
gfz2014jayh   0.07283
