# Nsamples: 167  MAD:  0.596  mean: -0.036  std:  0.759
gfz2010habf   0.06660
gfz2010hdxn  -0.76802
gfz2010hsgv  -0.12316
gfz2010hueh  -0.95270
gfz2010iaay   1.00470
gfz2010iawy   0.30676
gfz2010ifhd  -0.04950
gfz2010inbs   0.59442
gfz2010izag   0.21278
gfz2010jvsi   0.17896
gfz2010mdti  -0.06755
gfz2010mpvc  -0.51609
gfz2010mqaj   1.03440
gfz2010ncwu  -0.37773
gfz2010ngge   0.85850
gfz2010nwbd  -0.43572
gfz2010oguu   0.16945
gfz2010tzma   0.44908
gfz2010wwnq   0.39379
gfz2010wyuj   0.89006
gfz2010xaxw   0.12412
gfz2010yfdr  -0.00867
gfz2011cjuz  -0.52790
gfz2011cwzi  -0.19417
gfz2011dabj  -0.33717
gfz2011dpyu  -0.89635
gfz2011duvm   1.04560
gfz2011gpyr  -0.06150
gfz2011hqjs   0.02856
gfz2011iryz  -0.20954
gfz2011ituo   0.80972
gfz2011jfyb   0.75259
gfz2011ldgl   0.35152
gfz2011lwmg  -0.43058
gfz2011mjje  -1.37460
gfz2011mntq   0.91792
gfz2011mror  -1.71150
gfz2011mzvn   0.50540
gfz2011ncyw   0.13167
gfz2011ndhh   0.36428
gfz2011ndki   1.14830
gfz2011ndlh   1.41330
gfz2011nejg  -1.15650
gfz2011nfcz   0.12977
gfz2011nhvt   2.23520
gfz2011nilw  -0.75402
gfz2011niuw  -0.66984
gfz2011nlmf  -0.15170
gfz2011nlnl  -0.52486
gfz2011nlou  -0.08562
gfz2011nmdz   0.12058
gfz2011nuqo   0.72966
gfz2011oadm  -0.53321
gfz2011oazk  -0.30181
gfz2011omxt  -0.14377
gfz2011pfls  -0.17504
gfz2011pmuv   0.35278
gfz2011qgea  -0.41146
gfz2011qukj   1.40670
gfz2011rkau   0.26184
gfz2011sdax  -0.57547
gfz2011sqco   0.25192
gfz2011taqr   0.16604
gfz2011tsgl   0.71592
gfz2011vahy   0.05120
gfz2011vbxv  -0.01342
gfz2011vtdl  -2.04520
gfz2011vtzv   0.31134
gfz2011wcvs   0.41479
gfz2012amvs   0.12032
gfz2012bcvn   0.45596
gfz2012bolx  -0.00000
gfz2012cdju   0.06543
gfz2012cntu   0.05212
gfz2012dwwu  -1.09410
gfz2012dyck  -0.59109
gfz2012foih   0.42973
gfz2012fyny  -0.58171
gfz2012gdye  -1.31290
gfz2012ghiv  -1.35920
gfz2012gjdg  -1.69080
gfz2012gubu   0.37967
gfz2012hhlx  -0.92700
gfz2012hvtu   2.90240
gfz2012hzur  -1.08200
gfz2012ibyd  -1.30050
gfz2012imsm  -0.85594
gfz2012iphs   0.12000
gfz2012ivyg  -0.90431
gfz2012jlez   0.03458
gfz2012kmbo  -1.32170
gfz2012kmmz   0.47101
gfz2012kstg  -0.40136
gfz2012ldjj  -0.86294
gfz2012nlrb   0.59394
gfz2012nqvd  -0.05296
gfz2012oafg   0.16897
gfz2012oehy   0.12955
gfz2012oork   1.11370
gfz2012pdfi   2.42750
gfz2012phns   0.43247
gfz2012suqd   0.72188
gfz2012svwz  -1.75200
gfz2012sxpr   0.19370
gfz2012tfij   0.50014
gfz2012tisj  -0.34246
gfz2012trfq   0.25374
gfz2012uhtc   0.29926
gfz2012ulei  -0.19902
gfz2012umob  -0.53512
gfz2012uvoa  -0.71208
gfz2012uzww   0.01277
gfz2012vile  -0.98144
gfz2012vitw  -0.08117
gfz2012vlzv  -0.55548
gfz2012vqjw  -0.35418
gfz2012vrqz  -0.89579
gfz2012vurc  -0.41960
gfz2012wgmg  -0.52842
gfz2012wowu  -0.03575
gfz2012woxj  -0.02914
gfz2012wpen  -0.93100
gfz2012wysg  -0.02972
gfz2012xcsf  -0.36616
gfz2012xkln   0.52939
gfz2012xncm   0.26821
gfz2012xqxw  -0.67496
gfz2012xtvu   0.23051
gfz2012xxdj   0.00221
gfz2013atak   2.06600
gfz2013exow  -0.31705
gfz2013fnpa   0.71677
gfz2013fulo  -1.00820
gfz2013fvht  -0.59841
gfz2013fvyr  -0.19095
gfz2013fvzv   0.37162
gfz2013fwbm  -0.05072
gfz2013fxyr  -0.05893
gfz2013gbki   0.81947
gfz2013gkcx   0.21862
gfz2013grle  -0.34066
gfz2013gsnl  -0.65379
gfz2013gxye   0.19991
gfz2013hqaa  -0.11050
gfz2013qigb  -0.73022
gfz2013qoak  -1.20910
gfz2013rgcc  -0.61541
gfz2013rocs  -0.16572
gfz2013sdkg  -0.14676
gfz2013tdsx   0.27804
gfz2013tjub  -0.05142
gfz2013tnrp  -0.20324
gfz2013trsq  -0.31101
gfz2013udtw   0.24699
gfz2013uepl  -0.21544
gfz2013unuv  -0.39923
gfz2013upqj   0.75683
gfz2013uwjo   1.56120
gfz2013uxzw  -0.29721
gfz2013vcgd  -0.49475
gfz2013vdam   0.08527
gfz2013vjrr   0.76243
gfz2013vmsg  -0.13844
gfz2013voai   0.26587
gfz2013vojy  -0.43921
gfz2013vsdd   1.29860
gfz2013vvre  -0.41668
