# Nsamples: 66  MAD:  0.581  mean: -0.102  std:  0.769
gfz2010habf  -0.82127
gfz2010jlvp   0.17877
gfz2010tzma  -0.13687
gfz2010uhjy   0.55372
gfz2010vong   0.44425
gfz2010zjun  -0.51779
gfz2011ahvh   0.26936
gfz2011bpqm  -2.19020
gfz2011dabj  -0.73718
gfz2011dpyu  -0.30353
gfz2011gnbk   0.18752
gfz2011hjof   0.52824
gfz2011ndhh   0.59164
gfz2011nijp  -0.12639
gfz2011niuw   0.45825
gfz2011nuqo  -0.74749
gfz2011ofpj   0.15772
gfz2011oslk  -0.26176
gfz2011owqa  -0.77366
gfz2011sdax   0.36609
gfz2011tsgl   0.17013
gfz2011uqry   0.32237
gfz2011vahy  -0.09114
gfz2011zghc  -0.06920
gfz2012bqcf  -0.72827
gfz2012cdju  -0.08971
gfz2012cntu   0.39796
gfz2012cvfr   0.16451
gfz2012ekfp  -0.52447
gfz2012iijk   1.36640
gfz2012ldjj   0.25067
gfz2012mdzf   0.22466
gfz2012oafg  -0.34688
gfz2012suqd   0.56216
gfz2012uvoa  -0.20568
gfz2012uzww   0.34210
gfz2012xbna  -1.72800
gfz2013cyvx  -0.04125
gfz2013delq  -0.41770
gfz2013djfi   1.23360
gfz2013dzvr  -0.02551
gfz2013fnpa   0.05401
gfz2013fulo  -0.59617
gfz2013icql  -0.03079
gfz2013iuyv   0.28227
gfz2013jfcn   0.37407
gfz2013jobl  -0.19561
gfz2013kats  -0.00162
gfz2013kbbg  -0.58625
gfz2013kcdb   0.96230
gfz2013kpcb   0.17946
gfz2013phhi  -0.39931
gfz2013qoak   0.95469
gfz2013rwkj  -1.68210
gfz2013ubgt  -3.38340
gfz2013vmrv   1.17300
gfz2013wyfl   0.62376
gfz2013xahp   0.19598
gfz2014bqpm  -0.44577
gfz2014fsir  -0.29054
gfz2014fxte   0.47995
gfz2014icov  -0.86516
gfz2014iltl  -0.45409
gfz2014irlf  -0.91822
gfz2014irln  -0.15449
gfz2014jarg   0.10394
