# Nsamples: 9  MAD:  1.533  mean: -0.520  std:  1.485
gfz2010hueh   1.89040
gfz2010okpc  -2.99300
gfz2011sqco  -0.46907
gfz2012moul   0.56514
gfz2012movu  -0.03225
gfz2013bwgw  -1.66180
gfz2013mvgq  -1.91940
gfz2013vmsg   0.50085
gfz2014bkra  -0.56176
