# Nsamples: 66  MAD:  0.844  mean:  0.073  std:  1.365
gfz2010bukb  -0.40085
gfz2010drit  -1.06170
gfz2010eqyj   0.16504
gfz2010hueh   1.34820
gfz2010mpvc  -0.09860
gfz2010okpc  -0.73961
gfz2010rhvu  -0.48748
gfz2010sdfs   0.00674
gfz2010tpcj   0.16939
gfz2010tzma  -0.37646
gfz2010ugws   1.19280
gfz2010xpzq  -0.32096
gfz2010yhhj  -5.42180
gfz2011cdge  -1.18090
gfz2011cjuz   1.54600
gfz2011duvm  -0.35670
gfz2011fnie  -0.49051
gfz2011fzcw   3.49910
gfz2011ggnl   2.25900
gfz2011hibi   0.15085
gfz2011hjof   0.39171
gfz2011hqjs   1.17960
gfz2011mllb  -0.07779
gfz2011nkou   3.23540
gfz2011nlum  -1.01380
gfz2011nmhg   2.46990
gfz2011nuqo   0.14023
gfz2011ofpj   1.83230
gfz2011qenl  -1.04750
gfz2011rkau  -0.90172
gfz2011rqut  -0.90593
gfz2011scma  -0.52199
gfz2011sqco  -1.82610
gfz2011tsgl  -1.43130
gfz2011wkyx  -0.01505
gfz2012ahkl   2.30400
gfz2012alti  -0.61144
gfz2012dleg   0.73416
gfz2012dpem   0.54615
gfz2012gmsr  -0.59205
gfz2012ldjj   1.16180
gfz2012nsxc  -0.37875
gfz2012qbbt   3.72100
gfz2012suqd  -0.47464
gfz2012tisj   0.75422
gfz2012wowu  -0.58881
gfz2012yegw  -0.07187
gfz2012zkhu  -0.32554
gfz2013bwgw  -0.65249
gfz2013delq  -0.93402
gfz2013dngd   0.35333
gfz2013hjtt   0.43045
gfz2013kbbg  -1.08210
gfz2013mvgq  -0.88068
gfz2013oywh  -0.82889
gfz2013taeb   0.27280
gfz2013tert  -0.19379
gfz2013vmsg   0.81138
gfz2013vnwa   0.23496
gfz2013vojy   0.29674
gfz2013vxht  -1.34010
gfz2013xuxr  -0.66204
gfz2013yawe   1.69450
gfz2013zlak  -0.19188
gfz2014bkra   0.46349
gfz2014inrg  -0.06613
