# Nsamples: 414  MAD:  0.388  mean: -0.010  std:  0.730
gfz2010aggj   0.41587
gfz2010aimm  -0.14232
gfz2010aseg   0.04243
gfz2010azji  -0.25888
gfz2010bkfi   0.18327
gfz2010bqnk   0.30286
gfz2010btme  -2.63520
gfz2010bukb  -0.20313
gfz2010ccwc  -0.18600
gfz2010clbw   0.01725
gfz2010colm   0.25698
gfz2010cphq   0.85171
gfz2010crgy  -0.14434
gfz2010crir  -0.14577
gfz2010cthm   3.04760
gfz2010dask   0.10259
gfz2010djib  -1.06200
gfz2010dmkd  -0.06413
gfz2010drit  -0.37726
gfz2010drml  -0.19533
gfz2010drmq  -0.19533
gfz2010drng  -0.58131
gfz2010drpv  -0.58816
gfz2010drun   0.30146
gfz2010dtyx   0.53723
gfz2010dumv  -0.05474
gfz2010eibh  -0.63588
gfz2010ewyj  -0.47503
gfz2010fgbo  -0.12917
gfz2010fopf   0.16717
gfz2010habf  -0.83993
gfz2010hnuo  -0.63069
gfz2010hueh  -0.33419
gfz2010huzl  -0.23757
gfz2010hxan  -0.78250
gfz2010iaay   0.12785
gfz2010inbs   0.09858
gfz2010jkrp  -0.75049
gfz2010jlvp   0.03141
gfz2010kcdq   0.45829
gfz2010kcyz  -0.08957
gfz2010mdti  -0.08112
gfz2010mpvc  -0.38090
gfz2010mqzz  -0.59613
gfz2010msss  -0.67544
gfz2010nccu  -0.08547
gfz2010ngge  -0.34125
gfz2010nlai   0.08111
gfz2010nwbd  -0.12759
gfz2010nwyk  -2.36250
gfz2010ojhe  -0.16643
gfz2010okpc  -1.64480
gfz2010osrl  -0.34371
gfz2010pngv   3.08410
gfz2010qrix   0.29840
gfz2010qrta   0.45802
gfz2010qzvf   0.15378
gfz2010rhvu  -0.76161
gfz2010rnqa   0.75777
gfz2010rnwt   1.98930
gfz2010sdfs  -0.53430
gfz2010swqy   0.05246
gfz2010tcgh   0.81600
gfz2010tgmo   0.36422
gfz2010tmba   0.74080
gfz2010tpcj   0.37301
gfz2010tqyo   0.49260
gfz2010tzlz  -0.64502
gfz2010tzma  -0.32004
gfz2010ugws  -1.19490
gfz2010uhjy  -0.03509
gfz2010upod   0.34103
gfz2010vjac  -0.18571
gfz2010vong  -0.24630
gfz2010wwnq  -0.22339
gfz2010xkbz  -0.08124
gfz2010xnbn   0.10511
gfz2010xpzq  -0.03069
gfz2010yczp  -0.23311
gfz2010yfdr   0.22439
gfz2010yrex   0.11184
gfz2010zjun  -0.32957
gfz2011amst   1.34270
gfz2011aqpp  -0.05302
gfz2011bpqm   0.18965
gfz2011bvog  -0.06819
gfz2011byec  -0.06880
gfz2011bygs  -0.18451
gfz2011bygu   0.21143
gfz2011bzio   0.18106
gfz2011cdge  -0.84363
gfz2011cjuz   0.51054
gfz2011cwzi  -0.35595
gfz2011dabj   0.08581
gfz2011dwae   0.26293
gfz2011fnie  -0.31604
gfz2011fnuk  -0.18004
gfz2011fszl   0.04408
gfz2011fxmf   1.08030
gfz2011fzcw   0.03546
gfz2011gaax  -0.24446
gfz2011gnbk  -0.43242
gfz2011gpyr  -0.37902
gfz2011hibi  -0.74641
gfz2011hjof   0.08709
gfz2011hmnw   3.05800
gfz2011hvzo  -0.18265
gfz2011hyct  -0.01661
gfz2011hyuh   0.35969
gfz2011iamf  -0.40208
gfz2011ibew   0.47189
gfz2011inan   0.35813
gfz2011ioch   1.02430
gfz2011kylu   0.56897
gfz2011lkkf   0.80713
gfz2011mdyq  -0.14743
gfz2011mjje  -0.26890
gfz2011mllb   0.27576
gfz2011nfcz   0.03940
gfz2011nhby  -0.36249
gfz2011nhvt  -0.80043
gfz2011nkou  -2.09320
gfz2011nlum  -0.20644
gfz2011nnda   1.49480
gfz2011nnos  -0.23528
gfz2011nsiy  -0.02826
gfz2011nuqo  -1.30590
gfz2011ofpj  -0.31336
gfz2011okza   0.49177
gfz2011omxt  -0.14016
gfz2011osmp   0.81381
gfz2011owqa   0.62697
gfz2011paqj  -0.43190
gfz2011pfls  -0.02797
gfz2011pgzk   0.07219
gfz2011pivq  -1.04070
gfz2011pmuv  -0.21020
gfz2011prrq   0.28859
gfz2011ptgd   0.32520
gfz2011qenl  -0.25372
gfz2011qgvx  -3.12660
gfz2011qklh   2.92590
gfz2011rkau  -0.85330
gfz2011rnny  -0.04239
gfz2011rnsp   0.28333
gfz2011rplo  -1.40420
gfz2011scma  -0.28882
gfz2011sfph   0.28219
gfz2011sqco   0.34664
gfz2011sqxp   0.43497
gfz2011sskq  -0.22633
gfz2011swfp   0.17130
gfz2011sxno   0.02901
gfz2011tsgl  -0.07893
gfz2011twpz   0.66822
gfz2011ugbt   1.88640
gfz2011urwz  -0.06594
gfz2011vahy   0.58457
gfz2011vcyx  -0.30575
gfz2011vtzv   0.15400
gfz2011wkyx   0.29905
gfz2011wngi  -0.02085
gfz2011wwze  -0.00579
gfz2011xwdv   1.07580
gfz2011ykbd   0.95880
gfz2011ymji  -0.82586
gfz2011zghc   0.64915
gfz2011zgxn  -0.18674
gfz2012ahkl   1.52830
gfz2012alti  -0.10781
gfz2012amjx  -0.99058
gfz2012amvs   0.10349
gfz2012arlo   0.15893
gfz2012auqr   0.53531
gfz2012beae  -0.09112
gfz2012bolx  -0.31565
gfz2012cksh  -0.46798
gfz2012cmww  -0.06169
gfz2012cntu  -0.33204
gfz2012dbgt   0.32098
gfz2012dejg  -0.08356
gfz2012dleg   0.01741
gfz2012dnig   0.16498
gfz2012dpem   0.34581
gfz2012drak  -0.12949
gfz2012dtdt  -0.32221
gfz2012dtlu  -0.55269
gfz2012dttl  -0.12964
gfz2012dtvr   0.13665
gfz2012duvf   6.44610
gfz2012dysu  -0.76731
gfz2012dzot  -0.08685
gfz2012ebff   0.19501
gfz2012ebhf   0.23750
gfz2012enrg  -0.06097
gfz2012erds   1.27610
gfz2012evav   0.24727
gfz2012eyti   0.02002
gfz2012fhaf   0.22938
gfz2012foih  -0.68925
gfz2012fyny  -0.38859
gfz2012gdye   0.24762
gfz2012ghiv   0.08388
gfz2012gjtd  -0.04398
gfz2012gmsr  -0.14703
gfz2012gnow  -0.04048
gfz2012gvxc   0.29442
gfz2012heih  -0.25071
gfz2012hwph  -0.04361
gfz2012iijk  -0.62830
gfz2012izke   0.05224
gfz2012jlez  -0.22104
gfz2012jopi   1.14930
gfz2012kadi   1.03760
gfz2012kmbo  -0.02189
gfz2012kmmz   0.15914
gfz2012kstg   0.36851
gfz2012ldjj  -0.00804
gfz2012lwha   1.42760
gfz2012lyyr  -0.12731
gfz2012moul   0.87444
gfz2012movu   0.59751
gfz2012mwhe   0.04842
gfz2012phns  -0.38868
gfz2012pmuj  -0.19805
gfz2012ppcq   0.22803
gfz2012ppsw   1.10170
gfz2012pvve  -0.17252
gfz2012qbbt  -0.26489
gfz2012qfah  -0.00000
gfz2012qfov  -0.23706
gfz2012qibe  -0.12980
gfz2012qmhz  -0.59923
gfz2012qpoc   0.49126
gfz2012rknz   0.50842
gfz2012rnbw  -0.48521
gfz2012rnml   0.55102
gfz2012rzwp  -0.24826
gfz2012sbix  -0.15565
gfz2012sfao  -1.84680
gfz2012sjox  -0.29484
gfz2012socz  -0.36024
gfz2012sqsc   0.05964
gfz2012ssnb  -0.30130
gfz2012suqd   0.31465
gfz2012svwz   0.08811
gfz2012tjih  -1.29940
gfz2012tsdz  -0.00000
gfz2012uhtc   0.04145
gfz2012ukzg  -0.29926
gfz2012ulei   0.48330
gfz2012utdu   0.07213
gfz2012uvoa  -0.74766
gfz2012uzww  -0.53079
gfz2012vaqd  -0.23787
gfz2012vile  -0.25305
gfz2012vitw  -0.22693
gfz2012vurc   0.34167
gfz2012wgmg   2.40520
gfz2012wkki   0.23409
gfz2012wowu  -0.57983
gfz2012wysg   0.24859
gfz2012xask  -0.26898
gfz2012xcsf   0.19116
gfz2012xkln   0.14643
gfz2012xlfo  -0.55275
gfz2012xncm  -0.29037
gfz2012xwgb  -2.46610
gfz2012xxdj  -0.33444
gfz2012yegw  -0.32629
gfz2012yncm  -0.16593
gfz2012yzcf   0.28823
gfz2012zhyz  -0.27785
gfz2012zkhu  -0.16391
gfz2013adih  -0.25331
gfz2013agmt  -0.48726
gfz2013atak   0.19246
gfz2013bwgw   0.02890
gfz2013cyvx  -0.32485
gfz2013delq  -0.22767
gfz2013dftb  -0.03278
gfz2013dfvx  -0.24694
gfz2013djfi   0.28463
gfz2013dngd   0.00901
gfz2013dwsp   0.62557
gfz2013dzvr  -0.45204
gfz2013efct  -0.27921
gfz2013efys  -0.28485
gfz2013exow   0.35380
gfz2013fnpa  -0.24539
gfz2013fthi  -0.15308
gfz2013fulo  -0.78989
gfz2013fwbm  -0.03440
gfz2013fxyr   0.27467
gfz2013gffe   0.09355
gfz2013gsnl  -0.30602
gfz2013havw  -0.23547
gfz2013hbmi  -0.25141
gfz2013hbwy   1.57220
gfz2013hdbp   1.33140
gfz2013hduf  -0.41251
gfz2013hjtt  -0.18627
gfz2013hqaa   0.35448
gfz2013irme  -0.24806
gfz2013iuyv   0.19416
gfz2013iwzn  -0.39128
gfz2013jfcn  -0.06779
gfz2013jhog   0.01753
gfz2013jqsk  -0.02362
gfz2013kbbg   1.30960
gfz2013kcdb  -0.44154
gfz2013kjgh  -0.50840
gfz2013kpcb   0.45292
gfz2013kqab  -0.29023
gfz2013ksaz  -0.17485
gfz2013kslp  -0.22557
gfz2013ljdu   0.30899
gfz2013mbna  -0.29215
gfz2013mdxj  -0.24623
gfz2013mimp   0.09116
gfz2013mvgq  -0.38289
gfz2013mzaw   0.02705
gfz2013njwj   1.08010
gfz2013ntfc  -0.55790
gfz2013ohnj  -0.14879
gfz2013oizq  -0.47087
gfz2013opkx  -0.50477
gfz2013ortl  -0.03029
gfz2013oruq   0.00023
gfz2013otuj  -0.13636
gfz2013oywh  -0.43608
gfz2013phhi  -1.80950
gfz2013pkmz  -0.32720
gfz2013pvsa   0.00000
gfz2013qdno  -0.07072
gfz2013qdpv  -0.07076
gfz2013qigb   0.16369
gfz2013qnqr  -0.09927
gfz2013qoak   0.08626
gfz2013qxof  -0.24797
gfz2013rfik   0.07456
gfz2013rnsa   0.03851
gfz2013rocs  -0.17256
gfz2013rofg   0.04270
gfz2013ryph  -0.88243
gfz2013sdkg  -0.02846
gfz2013skay   0.22788
gfz2013stup   0.73690
gfz2013suck   0.50185
gfz2013taeb  -0.60573
gfz2013tert  -0.42325
gfz2013tgyb  -0.04788
gfz2013ubgt   0.25616
gfz2013udtw   0.07580
gfz2013unuv  -0.90893
gfz2013upqj  -0.11414
gfz2013uwxb  -0.34582
gfz2013uxzw   0.46644
gfz2013uzmf  -0.00000
gfz2013veug  -0.41252
gfz2013vjrr  -0.16081
gfz2013vmsg  -0.84844
gfz2013vnwa  -0.30329
gfz2013voai   0.09727
gfz2013vojy   0.40791
gfz2013vsdd   0.83168
gfz2013wyfl  -0.45618
gfz2013xofz  -0.24098
gfz2013xvps  -0.12253
gfz2013yawe   0.40410
gfz2013yktj  -0.40392
gfz2013ymhx   0.23698
gfz2013yqtu  -0.39062
gfz2013yvnj   0.00000
gfz2013yywh  -0.53746
gfz2013zedt   0.50987
gfz2013zfbz   0.27668
gfz2013zlak   0.00507
gfz2013zpse   0.58040
gfz2014aedl   0.19692
gfz2014aqop  -1.48050
gfz2014ayxf   0.09407
gfz2014bdju  -1.24340
gfz2014bkra   0.14746
gfz2014bqpm   0.32008
gfz2014bzus  -0.56754
gfz2014cgxj  -0.21571
gfz2014cjao   0.19144
gfz2014cokw  -0.71870
gfz2014ctdl  -0.39395
gfz2014dbmu  -0.32466
gfz2014eirs   0.10199
gfz2014eoay   0.49578
gfz2014etqu  -0.03360
gfz2014eysf  -0.30591
gfz2014fbli  -0.26078
gfz2014ffqg   0.37976
gfz2014fjfz   0.48496
gfz2014fsir  -0.23002
gfz2014fsje  -0.03097
gfz2014fskh  -0.18902
gfz2014gnbw   0.17264
gfz2014gnvp  -0.00918
gfz2014gqxg   0.00000
gfz2014gypw   0.20009
gfz2014hgjb   0.19815
gfz2014huqh   0.01972
gfz2014hzzf   0.10962
gfz2014iaqm  -0.37401
gfz2014ijsa  -0.02176
gfz2014ipfu   0.13796
gfz2014iusw   0.21713
gfz2014jarg   0.11419
gfz2014jayh   0.32641
