# Nsamples: 1112  MAD:  0.551  mean: -0.006  std:  0.820
gfz2010abfc   1.13280
gfz2010abvu  -0.81377
gfz2010aggj   0.18087
gfz2010aimm  -0.12931
gfz2010amec  -0.60369
gfz2010aseg   0.20195
gfz2010asxa   0.03964
gfz2010azji   0.82057
gfz2010bkfi   0.31276
gfz2010bklj  -0.00857
gfz2010bnbr   0.85018
gfz2010bnqr   0.64902
gfz2010bofe   0.58404
gfz2010bqnk   0.45301
gfz2010brrm  -0.23924
gfz2010btme   1.03150
gfz2010bukb   0.23931
gfz2010bvit   0.36103
gfz2010byau   0.20803
gfz2010bytu   0.03367
gfz2010cbnp  -0.01983
gfz2010ccwc  -0.74057
gfz2010ccye   0.05389
gfz2010clbw  -0.11297
gfz2010cllh  -1.19110
gfz2010cngg  -0.75493
gfz2010cnhd  -0.01968
gfz2010cphq  -0.84475
gfz2010cpig  -1.10140
gfz2010crgy   0.38898
gfz2010crir  -0.09186
gfz2010csle  -2.20790
gfz2010csmw  -0.04340
gfz2010csqg   0.78720
gfz2010csqy  -0.31347
gfz2010cthm  -2.07020
gfz2010cvam   0.36512
gfz2010cvkn   0.62970
gfz2010cyid  -1.30330
gfz2010dask  -0.42053
gfz2010depd   0.64999
gfz2010diid   0.07369
gfz2010djib   1.36100
gfz2010dmij   0.27117
gfz2010dmkd  -0.26376
gfz2010dpgt  -1.20150
gfz2010drit  -1.04340
gfz2010drml  -1.18770
gfz2010drmq  -1.18770
gfz2010drng   0.80624
gfz2010drpv  -0.55482
gfz2010drun   0.13247
gfz2010dslu  -1.68260
gfz2010dtyx  -2.31340
gfz2010dumv  -0.16173
gfz2010dwgy   0.30848
gfz2010dxhq  -2.00870
gfz2010eepd  -0.43336
gfz2010eibh  -1.62820
gfz2010ekvl  -0.73434
gfz2010eqyj  -1.34930
gfz2010ethu  -0.15449
gfz2010euue   0.11316
gfz2010ewyj  -0.17514
gfz2010extu   0.34398
gfz2010fgbo  -0.22143
gfz2010fjio  -0.48176
gfz2010fjme  -0.20847
gfz2010fkpa   0.62577
gfz2010fnkr  -1.13120
gfz2010fopf   0.35985
gfz2010fpvw   1.52860
gfz2010fqnn   0.04064
gfz2010fqzh  -0.26395
gfz2010ftfq  -0.48955
gfz2010gcqp   1.22540
gfz2010gnvp  -0.76183
gfz2010gonu  -0.00000
gfz2010gpjl   4.06610
gfz2010habf   0.36014
gfz2010hdxn   0.10656
gfz2010hexh   0.16012
gfz2010hllp  -0.59192
gfz2010hsgv   0.10094
gfz2010hueh  -2.78130
gfz2010hxan   0.32736
gfz2010iaay  -1.64290
gfz2010iawy  -0.52971
gfz2010ifhd  -0.35772
gfz2010inbs   0.01629
gfz2010izag  -0.14105
gfz2010jlvp   0.68134
gfz2010jpkn   0.43204
gfz2010juke   0.11062
gfz2010kcdq   0.05053
gfz2010kcyz   0.29955
gfz2010kuzb  -1.00760
gfz2010kwks   0.56182
gfz2010ljmp   0.28128
gfz2010ljol  -0.20651
gfz2010mdti   0.77324
gfz2010mqzz   0.58536
gfz2010mvtj  -0.92412
gfz2010myqg  -0.44299
gfz2010ncwu   1.35380
gfz2010ngge   0.25383
gfz2010nlai  -0.36004
gfz2010novb   0.47123
gfz2010nwyk  -0.42842
gfz2010oguu   0.00000
gfz2010ogwn   0.12844
gfz2010ojhe  -0.25650
gfz2010okpc  -0.12132
gfz2010onxm  -0.68741
gfz2010osrl  -0.73660
gfz2010ouvm  -0.90800
gfz2010ovvg   0.30226
gfz2010pclq  -0.05326
gfz2010pcya  -0.40123
gfz2010pgpo   0.38429
gfz2010pgrf   0.56596
gfz2010pngv  -0.43117
gfz2010prnw   0.33156
gfz2010pvnn   0.29234
gfz2010pxoi   2.82430
gfz2010pzza   0.11722
gfz2010qdqk  -0.45637
gfz2010qloa  -0.52175
gfz2010qqqx  -0.74645
gfz2010qrix   0.39392
gfz2010qrta  -0.43447
gfz2010qykh   0.13313
gfz2010qylh   0.36628
gfz2010qzvf   1.08400
gfz2010rdep   0.76783
gfz2010rdip   0.22576
gfz2010rkuu  -0.29019
gfz2010rljv   0.11465
gfz2010rmua  -0.61496
gfz2010rnwt   0.41071
gfz2010rpjd  -0.55330
gfz2010schp   0.08705
gfz2010scht   0.78703
gfz2010sdfs   0.24872
gfz2010shvn  -0.15349
gfz2010swqy   0.62478
gfz2010sylk   0.04007
gfz2010tcgh  -1.55540
gfz2010tfar  -2.82100
gfz2010tgmo  -0.24955
gfz2010tmba  -0.21057
gfz2010tpcj  -1.06090
gfz2010tqyo   0.20614
gfz2010tzlz   0.37270
gfz2010tzma  -1.00510
gfz2010ugws  -1.06190
gfz2010uhjy  -1.09020
gfz2010uidg   1.89530
gfz2010ujqn   0.01433
gfz2010upod  -0.79414
gfz2010utsc   0.26256
gfz2010uyng  -0.08711
gfz2010vdcf   1.25620
gfz2010vfyu   0.20809
gfz2010vgfu  -0.35702
gfz2010vhzx   0.22171
gfz2010vong  -0.76965
gfz2010vybx  -0.12738
gfz2010wakc   0.67740
gfz2010wdav   1.17680
gfz2010wigk   4.68470
gfz2010wwhf  -0.08821
gfz2010wwnq  -0.29768
gfz2010wyuj   0.04450
gfz2010xamh   0.27847
gfz2010xaxw   0.06397
gfz2010xhqq   0.13320
gfz2010xjsv  -0.18191
gfz2010xkbz  -1.64260
gfz2010xkku  -0.42123
gfz2010xnbn  -0.71859
gfz2010xnwf  -0.15467
gfz2010xpzq  -0.44667
gfz2010xvev  -0.36915
gfz2010xzte   0.24213
gfz2010yczp   0.14056
gfz2010yfdr  -0.16319
gfz2010ygrd   0.21188
gfz2010yhdn  -0.60926
gfz2010yhhj  -0.97830
gfz2010yilf  -0.09657
gfz2010ymih  -0.20297
gfz2010yrex  -0.27975
gfz2010yspe  -0.61547
gfz2010ytzb   0.07653
gfz2010zaxv  -0.89853
gfz2010zhvj   0.38901
gfz2010zjun   0.23790
gfz2010zkle  -0.68090
gfz2011afyc  -0.68908
gfz2011ahvh   0.21779
gfz2011aksu   0.36928
gfz2011ameb  -0.41084
gfz2011amst  -1.17520
gfz2011aqpp  -0.22701
gfz2011awsv   0.06418
gfz2011bcvc  -0.66946
gfz2011bffb   0.28752
gfz2011biin  -0.08850
gfz2011boaz  -0.66235
gfz2011bpqm   0.62356
gfz2011bqbx  -1.80470
gfz2011bsvr   1.58060
gfz2011bvog  -0.49319
gfz2011bwsm  -0.88074
gfz2011bygs  -0.25787
gfz2011bygu  -0.28897
gfz2011bzio  -0.08371
gfz2011caca  -5.13000
gfz2011cdge  -0.41262
gfz2011cfyy   0.01355
gfz2011chsa   0.47019
gfz2011cjuz  -0.22831
gfz2011clwu  -0.02085
gfz2011cwzi   0.51851
gfz2011cxdj   0.92542
gfz2011dabj   1.19950
gfz2011dbzc   0.37072
gfz2011dhfg  -0.16489
gfz2011dhqk  -0.65905
gfz2011dmdv  -0.44410
gfz2011dpyu   0.63926
gfz2011dtcb  -0.78998
gfz2011duvm  -0.63020
gfz2011dwae   0.17925
gfz2011dzmf  -0.02478
gfz2011emzr   0.63654
gfz2011etkc  -1.15970
gfz2011fbsl  -1.33880
gfz2011ffdh   0.42706
gfz2011fges  -0.01684
gfz2011fnie  -0.83704
gfz2011fnuk  -0.00000
gfz2011fnxz  -0.22786
gfz2011fszl  -0.08046
gfz2011fxmf  -0.45960
gfz2011fyfu  -0.19865
gfz2011fzcw  -1.53660
gfz2011gaax   0.57398
gfz2011gdli  -0.18331
gfz2011gdrl   0.37650
gfz2011gfer   0.57632
gfz2011ggnl  -0.50964
gfz2011ggsz   0.40888
gfz2011glpg   0.61781
gfz2011gnbk  -0.10966
gfz2011gpyr  -0.18705
gfz2011haaa   0.66253
gfz2011hatg  -0.41898
gfz2011hibi  -0.24430
gfz2011hjof  -0.84574
gfz2011hmnw   0.24332
gfz2011hqjs  -0.06950
gfz2011hrgt   0.29065
gfz2011hvzo  -1.08060
gfz2011hwbn   1.29030
gfz2011hyct   0.32076
gfz2011hyuh  -1.02210
gfz2011iamf   0.35116
gfz2011ifta   0.10794
gfz2011ioch  -0.15423
gfz2011iryz  -0.14033
gfz2011ituo   0.22805
gfz2011ixpj  -0.00644
gfz2011iybf   0.30121
gfz2011jdoz  -0.88730
gfz2011jfyb  -2.36880
gfz2011jghq  -0.61125
gfz2011jphj   0.53052
gfz2011jryv  -0.66466
gfz2011kbzo  -0.27986
gfz2011kfch  -1.94410
gfz2011kgvq  -0.06468
gfz2011kjzt   0.20490
gfz2011kjzv   0.63132
gfz2011kujo  -0.63852
gfz2011kylu  -1.58520
gfz2011kymm   0.66960
gfz2011kyzy   0.30795
gfz2011lbnn   1.63540
gfz2011ldgl   0.09424
gfz2011lkkf  -0.16747
gfz2011lmug  -0.08203
gfz2011lrpv   0.28184
gfz2011lwmg   0.11880
gfz2011mdyq   0.34723
gfz2011mjje   0.53893
gfz2011mntq   0.20482
gfz2011mror  -0.56183
gfz2011mzvn  -0.44763
gfz2011nblt  -2.15940
gfz2011ncyw   0.08476
gfz2011ndhh   0.21150
gfz2011neai  -1.20140
gfz2011nejg   0.52167
gfz2011nejw  -0.05759
gfz2011nerb   0.95779
gfz2011nfcz  -0.05316
gfz2011nftw   0.20162
gfz2011nhby   0.32242
gfz2011nhhd   0.56820
gfz2011nhvt   2.11850
gfz2011nhwf   1.34430
gfz2011nifi   0.45907
gfz2011nijp   0.52757
gfz2011nilw   0.67586
gfz2011niuw   0.45810
gfz2011nkou   1.05530
gfz2011nlmf   0.41943
gfz2011nlnl   1.68850
gfz2011nlou  -0.23793
gfz2011nlum  -0.17744
gfz2011nmdz   0.77161
gfz2011nnda  -0.14682
gfz2011nnos   0.26507
gfz2011nsej  -1.03860
gfz2011nsiy  -0.13641
gfz2011nsrx   0.66459
gfz2011nssr   1.83800
gfz2011nswi   0.38548
gfz2011nsyi   0.75685
gfz2011nuqo  -0.03652
gfz2011oadm   0.59917
gfz2011oazk   0.32862
gfz2011oekz  -1.78730
gfz2011ofpj  -0.06276
gfz2011ohgj   0.56651
gfz2011okza   0.62619
gfz2011omxt  -0.12147
gfz2011oslk   0.21383
gfz2011osmp   0.77235
gfz2011owqa   0.03946
gfz2011paqj   0.23235
gfz2011pbjh   0.27826
gfz2011pcqr   0.00966
gfz2011pdgq   0.21480
gfz2011pfls  -0.23144
gfz2011pfwq  -0.87024
gfz2011pgzk  -0.05145
gfz2011pimj   0.02216
gfz2011pivq   0.41027
gfz2011pmuv   0.16299
gfz2011poug   0.25062
gfz2011pphc   0.04395
gfz2011ppsc   0.00000
gfz2011prrq   0.53581
gfz2011pulu  -0.37992
gfz2011pwbw   0.47494
gfz2011qasw   0.07989
gfz2011qenl  -0.33771
gfz2011qgea  -0.76914
gfz2011qgvh   0.32460
gfz2011qhjw  -0.55025
gfz2011qklh  -0.48011
gfz2011qlkj   0.04006
gfz2011qukj  -0.21848
gfz2011rbuo  -0.18948
gfz2011rczb  -0.53055
gfz2011rkau   0.93803
gfz2011rkzx   0.61512
gfz2011rnsp   0.23196
gfz2011scma   0.38425
gfz2011sdax   0.71428
gfz2011sfph  -0.08541
gfz2011sqco   0.13989
gfz2011sskq   0.94792
gfz2011stzi   0.33133
gfz2011sxno  -0.33037
gfz2011sylg  -0.84958
gfz2011syvj  -0.99254
gfz2011szcj   0.83570
gfz2011szis   0.62572
gfz2011taqr   0.49474
gfz2011tdjj   0.28338
gfz2011tfor   0.19477
gfz2011tgey   0.75568
gfz2011tgon  -0.12619
gfz2011tjpv  -0.14418
gfz2011tlwl   1.09990
gfz2011tozo  -1.23940
gfz2011tqgg   0.95911
gfz2011tsgl  -1.94500
gfz2011tssv  -0.14499
gfz2011tvuv  -0.18630
gfz2011txdb  -1.69260
gfz2011tzcv   1.17140
gfz2011ugbt  -0.34838
gfz2011uowi   0.22739
gfz2011uqlz  -0.78301
gfz2011uqry   0.32287
gfz2011urwz   0.78481
gfz2011vahy   0.33052
gfz2011varl   0.10100
gfz2011vcyx   0.83219
gfz2011vimn   0.21680
gfz2011vsag  -0.19992
gfz2011vswj  -0.10604
gfz2011vtdl   1.50480
gfz2011vtzv  -0.01421
gfz2011vxek   0.22388
gfz2011wbtc  -0.51159
gfz2011wcvs  -3.10970
gfz2011wkja   0.30027
gfz2011wkyx  -1.40250
gfz2011wngi  -0.08432
gfz2011wpzt  -0.13424
gfz2011wucg   0.04227
gfz2011wwze   0.31560
gfz2011wzss   0.64287
gfz2011xagc   0.06127
gfz2011xgbc  -1.29210
gfz2011xgwy  -0.05534
gfz2011xkka   0.06053
gfz2011xlod   0.15376
gfz2011xnui  -0.39141
gfz2011xpcq   0.20945
gfz2011xxng  -1.05430
gfz2011yeck   0.46569
gfz2011yexx   0.54683
gfz2011yjtx   0.59035
gfz2011yntu  -1.63630
gfz2011ypfh   1.01210
gfz2011yrfa   0.39476
gfz2011ytob  -0.86140
gfz2011zcwn  -2.41240
gfz2011zdyf  -2.45050
gfz2011zghc   0.20542
gfz2011zgxn  -0.10729
gfz2011zkbt   0.43754
gfz2012adja   0.19779
gfz2012ahac   0.21515
gfz2012aisj  -0.16003
gfz2012alti  -0.02840
gfz2012amjx  -0.17594
gfz2012amvs   0.32964
gfz2012aqpa  -0.52583
gfz2012arlo  -1.89150
gfz2012asin   5.64280
gfz2012atjr  -1.55320
gfz2012bcvn  -0.88874
gfz2012beae   0.58644
gfz2012bity   0.13058
gfz2012bjhl  -0.27647
gfz2012bnwa  -0.30330
gfz2012bolx   0.39921
gfz2012bqcf   1.09250
gfz2012brrg   0.02204
gfz2012byrq   0.82834
gfz2012bytv   0.96460
gfz2012byuk   0.03235
gfz2012cdju   0.58695
gfz2012cksh  -0.88736
gfz2012cmww   0.11572
gfz2012cntu  -0.20555
gfz2012crpb  -1.27360
gfz2012cvfr   0.27760
gfz2012cwhl  -0.88207
gfz2012cxhw  -0.77762
gfz2012dcjd   0.16693
gfz2012dejg   0.02751
gfz2012dgfk   1.25510
gfz2012dkdy   0.35148
gfz2012dleg  -2.68530
gfz2012dluf  -0.67922
gfz2012dnig   0.06959
gfz2012dpnu  -0.34238
gfz2012dpwv   0.16227
gfz2012drak   0.09788
gfz2012drld  -0.09806
gfz2012drqd  -0.93770
gfz2012dtlu  -0.25061
gfz2012dttl   0.11832
gfz2012dtvr   0.29653
gfz2012duwm   0.57457
gfz2012dwwu   0.09143
gfz2012dyck   0.30608
gfz2012dysu   1.40430
gfz2012dzen   0.07945
gfz2012dzjo  -0.78424
gfz2012dzoh  -0.27349
gfz2012dzot  -0.35555
gfz2012dzou   0.37183
gfz2012dzva  -0.37244
gfz2012eajr  -0.44735
gfz2012ebgo  -1.34450
gfz2012ebhf  -0.61945
gfz2012ebrr  -0.33868
gfz2012eeft   0.42255
gfz2012ekfp   0.27035
gfz2012ekro  -1.03870
gfz2012elek   0.03143
gfz2012enio   0.27046
gfz2012enrg  -1.18120
gfz2012erds  -0.37773
gfz2012evav   0.42926
gfz2012evxn   0.00000
gfz2012eyti   0.04883
gfz2012fbgz   0.07519
gfz2012fcyq   0.34635
gfz2012fcyr   0.32842
gfz2012fhaf   0.21796
gfz2012flqf  -0.27193
gfz2012fuyd   0.13487
gfz2012fxgc  -1.06930
gfz2012fyny  -0.58561
gfz2012fyop   0.31185
gfz2012gdye   0.21817
gfz2012ghiv  -0.19409
gfz2012gjdg   0.09609
gfz2012gjtd   0.21320
gfz2012gmsr   0.60810
gfz2012gnow  -0.18585
gfz2012gpcd  -0.55714
gfz2012grmf  -1.08170
gfz2012gubu  -2.17120
gfz2012gvxc  -0.18410
gfz2012heih   0.12241
gfz2012hmcv   0.74074
gfz2012hvfw   0.32836
gfz2012hvtu   1.88650
gfz2012hwph   0.23875
gfz2012hyba   1.75680
gfz2012hyqh  -0.73292
gfz2012hysb   0.80658
gfz2012hzhn   0.67489
gfz2012hzur   1.32920
gfz2012iabn   0.40797
gfz2012iblo  -1.35530
gfz2012ibyd  -0.06429
gfz2012icjo  -1.06710
gfz2012iijk  -0.99922
gfz2012imsm  -0.92519
gfz2012ipdc   2.36180
gfz2012iyhs   0.14993
gfz2012izke  -0.06291
gfz2012jawj  -0.17687
gfz2012jjxm   0.13126
gfz2012jlez  -0.22910
gfz2012jqxx   0.19074
gfz2012jxnm   0.55868
gfz2012klpl  -0.27078
gfz2012kmbo  -0.38054
gfz2012kmmz   0.44442
gfz2012kstg   0.37022
gfz2012kwmx   0.27805
gfz2012lcro   0.48442
gfz2012ldjj  -0.35344
gfz2012lops   0.21625
gfz2012lqhw   0.90633
gfz2012luzm   0.70425
gfz2012lvlr  -1.31140
gfz2012lvwx  -0.18070
gfz2012lwha  -0.78732
gfz2012lyyr   0.19094
gfz2012mcrb  -0.01832
gfz2012mdzf  -0.38811
gfz2012mhik   0.14552
gfz2012mjuu   1.69100
gfz2012mmiw   0.58075
gfz2012movv   0.19316
gfz2012mowv  -0.12126
gfz2012mpzo   0.85029
gfz2012mrqk   0.63858
gfz2012mrwu   0.31255
gfz2012mtyn   0.45486
gfz2012mvgu  -0.55197
gfz2012mwhe   0.06584
gfz2012mzco   0.25321
gfz2012mzqx   0.29712
gfz2012ndwt   0.12997
gfz2012nfos   0.63030
gfz2012nldz   0.33581
gfz2012nlrb   0.38661
gfz2012nmja   1.31660
gfz2012nnqu   1.29670
gfz2012nqvd   0.09973
gfz2012oafg  -0.10322
gfz2012oehy   0.48327
gfz2012ofaj   0.90122
gfz2012ofnx  -0.11107
gfz2012ohgd   0.36685
gfz2012ojmv  -0.96371
gfz2012onhu   1.43990
gfz2012oork  -0.70098
gfz2012oozp   0.04754
gfz2012oyja  -0.09722
gfz2012pdav  -0.92426
gfz2012pekf   0.41512
gfz2012pgmw   0.37784
gfz2012phns   0.01862
gfz2012pmuj  -1.11000
gfz2012pokk  -0.33277
gfz2012ppcq   0.07193
gfz2012prke   0.67848
gfz2012pryl  -0.16609
gfz2012pumy  -0.18557
gfz2012pvve   0.20069
gfz2012qbbt  -0.24665
gfz2012qfah  -0.88606
gfz2012qfov  -1.26600
gfz2012qmhz  -1.40490
gfz2012qoev   0.58200
gfz2012rnyn   0.35909
gfz2012roan  -0.07179
gfz2012rzwp   1.94300
gfz2012sjdy  -0.09209
gfz2012sjox   0.97579
gfz2012smyn  -0.58371
gfz2012socz  -0.09646
gfz2012sopp  -0.13172
gfz2012sqsc  -1.17720
gfz2012ssnb  -0.66907
gfz2012ssvn   0.59593
gfz2012stxx  -0.54533
gfz2012suqd  -0.93683
gfz2012svwz   0.58191
gfz2012swbz   0.16021
gfz2012sxbo  -1.31700
gfz2012sxpr   1.50610
gfz2012sxzs  -0.24777
gfz2012syum   0.23555
gfz2012tgta   0.13979
gfz2012thyh   0.45593
gfz2012tisj   0.32020
gfz2012touh   0.01979
gfz2012tqjc   0.39641
gfz2012trfq  -0.59268
gfz2012trss  -0.55050
gfz2012ttnf  -0.13213
gfz2012tvgw  -0.59168
gfz2012twec  -0.25908
gfz2012tyoz   0.28080
gfz2012uegq  -1.78570
gfz2012uhsx  -0.90431
gfz2012uhtc  -0.00796
gfz2012ukzg   1.79160
gfz2012ulei   0.76713
gfz2012umob   0.01260
gfz2012unxc   0.15955
gfz2012urtu  -0.18304
gfz2012uvea   0.20879
gfz2012uvoa   0.69313
gfz2012uwne   0.18788
gfz2012uzww   0.11105
gfz2012vaqd  -0.50583
gfz2012vcqw   0.30256
gfz2012vdra  -0.21917
gfz2012vdsl   0.56049
gfz2012vitw   0.42643
gfz2012vkjw  -0.74958
gfz2012vlzv  -0.60457
gfz2012vnve   1.08970
gfz2012vqmq   0.19479
gfz2012vrqz   0.80711
gfz2012vurc   0.26784
gfz2012wdvt  -0.17183
gfz2012wgdv   0.65942
gfz2012wgmg   0.51974
gfz2012wiyv  -1.97920
gfz2012wkki  -0.07511
gfz2012wmas   0.24755
gfz2012wmmw  -0.35010
gfz2012wowu  -2.54120
gfz2012woxj  -0.26034
gfz2012wpen  -0.18655
gfz2012wqfz  -1.96860
gfz2012wugc  -0.52623
gfz2012wysg   0.30358
gfz2012xask   0.64510
gfz2012xbna  -0.41049
gfz2012xcsf   0.43151
gfz2012xfnu  -0.11865
gfz2012xfsl  -0.41355
gfz2012xkln   0.14530
gfz2012xlas   0.97634
gfz2012xlfo   0.47569
gfz2012xncm  -0.26825
gfz2012xrmq   0.54274
gfz2012xtvu  -0.37686
gfz2012xwgb   0.54198
gfz2012xxdj   0.31556
gfz2012yegw  -0.19880
gfz2012ylai   0.11297
gfz2012yncm  -2.84160
gfz2012yzih  -0.77165
gfz2012zhyz   0.00040
gfz2012zido  -0.24223
gfz2012zkhu  -0.07435
gfz2012zktj  -1.22030
gfz2012znou   0.23932
gfz2012zqis   0.48378
gfz2013adih  -0.51818
gfz2013afzh  -1.09740
gfz2013agbm   0.44152
gfz2013aggr  -1.81780
gfz2013agmt  -0.33737
gfz2013akkd   0.08774
gfz2013atak   0.16085
gfz2013atec  -1.91240
gfz2013aymi  -0.32851
gfz2013bwgw   0.70379
gfz2013byyy   0.47560
gfz2013cfls  -0.59323
gfz2013cinv  -0.07118
gfz2013cqak   0.26284
gfz2013cvve  -1.13950
gfz2013cyvx  -0.19373
gfz2013dbhl   0.48679
gfz2013delq  -0.14189
gfz2013dftb   0.15779
gfz2013dfvx  -1.57990
gfz2013dksc   0.45674
gfz2013dmzh  -0.61366
gfz2013dngd  -2.18290
gfz2013dnot   0.11158
gfz2013dvub  -0.92003
gfz2013dwsp  -0.19664
gfz2013dznt   0.69354
gfz2013dzvr  -0.09063
gfz2013eavq   0.64901
gfz2013eazm   0.10433
gfz2013efct   0.31676
gfz2013efys  -0.09459
gfz2013eidd   0.03418
gfz2013ektd   1.44390
gfz2013enga   0.25138
gfz2013enqo  -1.43440
gfz2013enrh   1.74460
gfz2013esef  -0.17840
gfz2013evcl   1.67950
gfz2013ewht  -0.01026
gfz2013ffjt   0.06157
gfz2013fhzy  -0.08949
gfz2013fmcd   0.53325
gfz2013fndg  -0.31050
gfz2013fnpa   0.80637
gfz2013foto   0.35551
gfz2013frxd   0.79508
gfz2013fskp  -0.38759
gfz2013fthi   0.35214
gfz2013fulo   0.95695
gfz2013fvht   0.90519
gfz2013fvyr   0.09169
gfz2013fvzv   0.11949
gfz2013fxyr  -0.32986
gfz2013fybd   0.47143
gfz2013gbma  -0.26176
gfz2013gglk   1.92870
gfz2013ghpd   0.15272
gfz2013gkyn   0.72221
gfz2013glpz   0.30495
gfz2013gomv   0.08694
gfz2013gugi  -0.24905
gfz2013gurk   0.29469
gfz2013gxye   0.10840
gfz2013gyce   0.71742
gfz2013havw   0.10058
gfz2013hbmi   0.08384
gfz2013hbtm   0.49937
gfz2013hdbp   2.10120
gfz2013hduf   0.07372
gfz2013hiam   0.27965
gfz2013hinw   0.92105
gfz2013hjtt   0.70543
gfz2013hqaa  -0.07809
gfz2013hvzv   0.43445
gfz2013hwps   0.29900
gfz2013icgx  -0.08301
gfz2013icql   1.11320
gfz2013idqu  -0.85072
gfz2013ikic   0.62320
gfz2013irme   1.37940
gfz2013iuyv   0.50956
gfz2013ivvw   0.36004
gfz2013iwhc   0.11911
gfz2013iwzn  -0.88241
gfz2013jcnn  -0.16051
gfz2013jfcn  -0.25967
gfz2013jhog   0.00412
gfz2013jobl   0.27538
gfz2013jqsk  -0.39357
gfz2013jrqf  -0.09309
gfz2013jzcf   0.35090
gfz2013jzfz  -0.14368
gfz2013kats   1.20030
gfz2013kbbg   0.28566
gfz2013kbbn   0.00000
gfz2013kbkp   1.01730
gfz2013kcdb  -0.81588
gfz2013kdfy  -0.24887
gfz2013kpcb   1.14180
gfz2013kpes   1.31090
gfz2013kqab  -0.00872
gfz2013ksaz  -0.39333
gfz2013kslp   0.34262
gfz2013kuno   1.15670
gfz2013kxlr   0.21110
gfz2013lbod  -0.27471
gfz2013lbvl   0.72806
gfz2013lcrk   0.02230
gfz2013lgvf   0.53931
gfz2013ljdu   0.65895
gfz2013ljwt  -0.03895
gfz2013lqjj  -0.08097
gfz2013lxed   0.04618
gfz2013mdxj   0.35658
gfz2013mimp  -0.50152
gfz2013mktp  -0.46642
gfz2013mnux   1.69420
gfz2013mvgq   1.39660
gfz2013mynb   0.34570
gfz2013mzaw   0.57832
gfz2013nkgd   1.65280
gfz2013nkgt   1.42660
gfz2013noqf   0.32621
gfz2013ntfc   0.24459
gfz2013ntiu  -1.20190
gfz2013obof   0.23101
gfz2013oeni   0.46985
gfz2013ohdt   0.85873
gfz2013ohnj   0.07347
gfz2013oizq   0.37719
gfz2013okac  -0.69084
gfz2013okxa   0.38761
gfz2013olos   0.18096
gfz2013onvl   0.70185
gfz2013orot   0.44469
gfz2013ortl   0.54865
gfz2013oruq   0.13228
gfz2013otuj   0.15467
gfz2013oywh   0.14720
gfz2013phhi   4.08270
gfz2013pizm   0.53106
gfz2013pkmz  -0.51292
gfz2013qdks   0.45007
gfz2013qdno   0.31959
gfz2013qdpv  -0.12156
gfz2013qdzg  -0.20543
gfz2013qigb   0.76860
gfz2013qnqr   0.54831
gfz2013qntl  -0.31813
gfz2013qoak   0.17154
gfz2013qogb   0.99406
gfz2013qqyo   0.28545
gfz2013quwz   0.50269
gfz2013quyn   0.65185
gfz2013qwnm   0.27487
gfz2013qxof   0.18342
gfz2013rdmn  -1.23140
gfz2013rfik   0.47345
gfz2013rhbx   0.80166
gfz2013rnsa   0.34582
gfz2013rocs   0.01824
gfz2013rtvy  -0.01991
gfz2013rwkj   0.20466
gfz2013ryfc  -0.58240
gfz2013ryph   0.27521
gfz2013sbsp  -0.42331
gfz2013sdkg  -0.00392
gfz2013sdym   0.20707
gfz2013skay   0.58433
gfz2013skvq   0.36711
gfz2013stou   0.03596
gfz2013stup  -0.95965
gfz2013suck  -0.54791
gfz2013swnj   0.16826
gfz2013syqp   0.16590
gfz2013taeb  -0.43502
gfz2013tcju  -0.36604
gfz2013tdsx   0.15318
gfz2013tekq   0.25536
gfz2013tert   0.26658
gfz2013tgia  -0.01905
gfz2013tgyb   0.53318
gfz2013tjub  -0.93271
gfz2013tkcg   0.34686
gfz2013tmnf  -0.11348
gfz2013tmyj   0.16291
gfz2013tnrp   0.73287
gfz2013trsq   0.57840
gfz2013ttmk  -0.39691
gfz2013twbc   0.63361
gfz2013ubgt  -1.66260
gfz2013udtw   0.36964
gfz2013uenl  -0.67826
gfz2013uepl  -0.41799
gfz2013ummt  -4.03920
gfz2013unuv   0.16010
gfz2013upqj  -0.00000
gfz2013utqa   0.41609
gfz2013uwjo  -0.19151
gfz2013uwxi   1.36280
gfz2013uxzw  -1.67140
gfz2013uzmf   0.28766
gfz2013vcgd  -0.29538
gfz2013vdam   0.18181
gfz2013veoz   0.45582
gfz2013veug  -0.32591
gfz2013vfix   0.33807
gfz2013vjrr   0.00119
gfz2013vldx  -0.13077
gfz2013vmrv  -1.49080
gfz2013vmsg   0.29176
gfz2013vmsn  -1.00190
gfz2013vnwa  -1.83040
gfz2013voai   0.23442
gfz2013vojy  -0.31551
gfz2013vvre  -0.97658
gfz2013vwkh   0.52985
gfz2013vxht   0.59320
gfz2013vzel   0.80611
gfz2013wegs   0.83699
gfz2013wgwz   0.72894
gfz2013wigs   0.03916
gfz2013wpns   0.09604
gfz2013wwee  -0.05378
gfz2013wyfl  -0.68607
gfz2013wyho   0.56235
gfz2013xacx   0.27274
gfz2013xahp   0.37426
gfz2013xbdc  -1.02820
gfz2013xjmo   1.10310
gfz2013xjmy  -0.66845
gfz2013xodn  -0.11785
gfz2013xofz   1.54040
gfz2013xswc   0.41110
gfz2013xupg   0.34796
gfz2013xuxr  -0.56354
gfz2013xvps   0.08839
gfz2013xxbf   0.49590
gfz2013yawe  -0.42938
gfz2013yfwz  -0.33109
gfz2013ygsj  -1.98430
gfz2013yihv  -0.86703
gfz2013ykqw  -0.74517
gfz2013yktj  -0.89726
gfz2013ylxm   0.47183
gfz2013ylxn  -0.48814
gfz2013ymhx  -0.12475
gfz2013yodm   0.27161
gfz2013yqkz   0.23693
gfz2013yqtu   0.24116
gfz2013yvnj   0.06283
gfz2013yvpn   0.03269
gfz2013yxhf   0.70183
gfz2013yxif  -0.02002
gfz2013yywh   1.61920
gfz2013zbfb  -0.00000
gfz2013zedt  -0.09118
gfz2013zeye  -0.05253
gfz2013zfbz   0.15614
gfz2013zghn  -0.94167
gfz2013ziix  -0.48439
gfz2013zkgm  -0.11385
gfz2013zkta  -0.70152
gfz2013zkzb  -0.18094
gfz2013zlak  -1.22780
gfz2013zlij  -0.64076
gfz2013zpse  -2.21560
gfz2013zpwk   0.15338
gfz2013zqan  -0.17209
gfz2014aaae  -0.99535
gfz2014aapq  -0.11614
gfz2014aedl   0.33964
gfz2014aejh   0.12608
gfz2014afbt   1.26470
gfz2014ajgi   0.20832
gfz2014amgk  -0.72377
gfz2014aqax   0.39338
gfz2014aqop   0.21152
gfz2014ateb  -0.86944
gfz2014avag   0.18838
gfz2014avmd   0.47547
gfz2014ayxf  -0.27958
gfz2014azfu   0.36718
gfz2014bdju   0.24645
gfz2014befl   0.26526
gfz2014bfjb  -0.17619
gfz2014bgxe   0.90544
gfz2014bhch  -0.21548
gfz2014bkra  -0.56400
gfz2014bmch   0.16082
gfz2014bmdf  -2.17640
gfz2014bmqw  -0.89363
gfz2014bnea   1.41300
gfz2014bppg   0.05152
gfz2014bqpm  -0.14629
gfz2014buyz  -0.42405
gfz2014bycg   1.16560
gfz2014byes  -0.44387
gfz2014bzus   0.23203
gfz2014cgoi   0.25585
gfz2014cgxj   0.78425
gfz2014cjao   0.25663
gfz2014ckqv  -0.75841
gfz2014cokw   0.62537
gfz2014crac   0.02836
gfz2014ctdl  -0.12731
gfz2014cvnb   0.22661
gfz2014dbmu  -0.34287
gfz2014dbqi  -0.09842
gfz2014dece  -0.65769
gfz2014dggw  -1.86290
gfz2014dihl   0.77630
gfz2014djhi   0.08529
gfz2014djyj   0.25514
gfz2014dmrw   0.39793
gfz2014dpny  -0.21981
gfz2014dpps   0.43744
gfz2014dsqr  -0.66855
gfz2014dtth   0.00972
gfz2014dtto  -0.15638
gfz2014dudd  -2.72340
gfz2014dutu   0.48787
gfz2014dwcp  -0.07859
gfz2014dykt  -1.05980
gfz2014ecor  -2.57930
gfz2014edjm   0.08573
gfz2014edmd   0.55409
gfz2014eglj   0.39537
gfz2014eiav   0.98498
gfz2014eirs   0.19510
gfz2014emlw  -0.55777
gfz2014eoay   0.28796
gfz2014epnq   1.25070
gfz2014esez   0.01856
gfz2014etgp   0.24641
gfz2014etqu   1.17300
gfz2014eunw   0.46234
gfz2014evgu  -0.47037
gfz2014evhm  -0.50765
gfz2014evyu   1.06960
gfz2014exxj  -0.66689
gfz2014eyne   0.43177
gfz2014fbef   0.23391
gfz2014fbli   0.02138
gfz2014fhki  -1.32390
gfz2014fjfz  -0.64601
gfz2014flxk   1.47470
gfz2014fqas   0.67466
gfz2014fsir   0.33832
gfz2014fsje   0.32708
gfz2014fskh   0.25389
gfz2014fsvc  -0.24382
gfz2014fvza  -0.20192
gfz2014fwuf   0.51085
gfz2014fwxt  -0.30267
gfz2014fxim  -0.54411
gfz2014fxte   0.40070
gfz2014fxtv  -0.08692
gfz2014fxuy   0.34425
gfz2014gasb   0.35034
gfz2014gbxg  -0.76510
gfz2014gcia   0.18099
gfz2014geln   0.41164
gfz2014ginr  -0.50309
gfz2014gjfd  -0.59009
gfz2014gnbw   0.22373
gfz2014gpnr   0.17167
gfz2014grwv   0.01923
gfz2014gsfc  -0.70892
gfz2014gtoj  -0.16255
gfz2014gypw   1.29010
gfz2014hapg  -0.68458
gfz2014happ  -0.72606
gfz2014herz   0.71380
gfz2014hhey  -0.66393
gfz2014hhis  -0.01970
gfz2014hjmc  -0.45816
gfz2014hkcw   0.42838
gfz2014hotu   0.05082
gfz2014hqhv   0.37716
gfz2014huqh  -0.66763
gfz2014hyea   0.14838
gfz2014hzzf   0.84271
gfz2014iayo  -0.55314
gfz2014icov  -1.13360
gfz2014igrp  -0.02496
gfz2014ijov  -0.59091
gfz2014ijsa   0.72045
gfz2014ikvw   1.18210
gfz2014iltl   1.13500
gfz2014imqh  -0.11749
gfz2014ined  -0.02812
gfz2014inrg  -1.28730
gfz2014iolv  -0.72538
gfz2014ipfu   0.08345
gfz2014ipwk  -0.31197
gfz2014irlf   0.96786
gfz2014irln   0.85105
gfz2014irly   0.48154
gfz2014isjg  -0.05927
gfz2014itlx   0.31915
gfz2014iusw   0.15820
gfz2014ivgm  -0.55895
gfz2014ixlc   0.72413
gfz2014iyuc   0.76761
gfz2014jarg  -0.16429
gfz2014jaxy   0.53888
gfz2014jayh   0.23133
gfz2014jckg  -0.36347
gfz2014jfmc  -1.13690
