# Nsamples: 1514  MAD:  0.750  mean: -0.050  std:  1.035
gfz2010abfc   0.86773
gfz2010abvu  -1.11730
gfz2010afyi  -2.35280
gfz2010aggj   0.87673
gfz2010aimm   0.19682
gfz2010aldp   0.76292
gfz2010amec  -2.06300
gfz2010aseg  -0.37857
gfz2010asxa   0.40746
gfz2010axdz  -3.20800
gfz2010azji   0.40792
gfz2010bgrt  -2.79210
gfz2010bkfi   0.15093
gfz2010bklj  -0.56251
gfz2010bnbr   0.07835
gfz2010bnqr  -0.14280
gfz2010bofe  -1.00510
gfz2010bqnk   0.10231
gfz2010brlc   0.94613
gfz2010brrm   0.39826
gfz2010btme  -1.34100
gfz2010bukb  -0.07355
gfz2010bvit  -0.07529
gfz2010byau   1.47530
gfz2010bytu  -0.30747
gfz2010cbnp   1.00290
gfz2010ccse   0.55611
gfz2010ccwc   0.58946
gfz2010ccye   0.35582
gfz2010clbw   0.49015
gfz2010cllh  -2.30330
gfz2010cngg   0.31705
gfz2010cnhd   1.06330
gfz2010cnyi   0.04376
gfz2010cphq  -0.98660
gfz2010cpig  -0.92492
gfz2010cqoq  -0.38517
gfz2010crgy   1.07650
gfz2010crir   0.33479
gfz2010ctak  -0.67614
gfz2010cthm  -3.81620
gfz2010cuzg   0.17662
gfz2010cvam   0.03048
gfz2010cvkn   1.18170
gfz2010cwrk   1.44090
gfz2010cyid  -0.07041
gfz2010dask  -0.59789
gfz2010ddan   0.38319
gfz2010depd  -0.39994
gfz2010diid   0.32559
gfz2010djib   2.31760
gfz2010dmij   0.43739
gfz2010dmkd  -0.50136
gfz2010dpgt  -0.73136
gfz2010drit  -0.62979
gfz2010drml  -2.34060
gfz2010drmq  -2.34060
gfz2010drng  -1.13270
gfz2010drpv   0.26475
gfz2010drun   1.30300
gfz2010dsjq   0.21524
gfz2010dslu  -1.83410
gfz2010dtgc  -0.68258
gfz2010dtyx  -3.56700
gfz2010dumv  -0.13622
gfz2010dwgy   0.08150
gfz2010dxhq  -0.59579
gfz2010eepd   0.40249
gfz2010ehgf  -0.68427
gfz2010eibh  -0.56013
gfz2010ekvl  -0.49471
gfz2010elge   0.18049
gfz2010ethu   0.89595
gfz2010euue   0.13756
gfz2010ewyj  -0.55179
gfz2010extu  -0.39421
gfz2010faly   0.05560
gfz2010fgbo  -0.19658
gfz2010fjio  -0.08049
gfz2010fjme  -0.09009
gfz2010fkff   0.18213
gfz2010fkpa   1.76340
gfz2010fnkr   0.85249
gfz2010fopf  -0.64101
gfz2010fpvw  -3.90690
gfz2010fqnn   0.37284
gfz2010fqzh   0.87016
gfz2010ftfq  -0.43994
gfz2010fuky  -0.15091
gfz2010fvfz  -0.59325
gfz2010fxhh   0.37250
gfz2010fxut  -2.48670
gfz2010gcqp   0.60074
gfz2010gcrn   0.06708
gfz2010gnvp  -0.07691
gfz2010gonu   0.29664
gfz2010gooc  -0.53480
gfz2010gpjl   0.26385
gfz2010guwa   0.42693
gfz2010habf   0.24629
gfz2010hdxn  -0.08183
gfz2010hesh   0.47992
gfz2010hexh   0.68698
gfz2010hllp  -0.62002
gfz2010hnuo  -1.68420
gfz2010hsgv   0.50067
gfz2010hueh  -2.72750
gfz2010huzl  -0.78872
gfz2010hxan   0.19274
gfz2010iaay  -1.99880
gfz2010iawy  -0.30400
gfz2010ifhd   0.67355
gfz2010ifru  -0.29183
gfz2010inbs   0.13300
gfz2010inkz  -0.24524
gfz2010ioad   0.48835
gfz2010ixjl   0.13560
gfz2010izag   0.11297
gfz2010izgb   1.23500
gfz2010jcby   0.30422
gfz2010jcpq   0.90546
gfz2010jdhk  -0.46851
gfz2010jgwj  -0.01219
gfz2010jkrp   0.84959
gfz2010jlvp   0.68610
gfz2010jpkn   0.08458
gfz2010juke  -0.01960
gfz2010jvsi  -1.94020
gfz2010jyvd  -1.13940
gfz2010kcdq  -1.25230
gfz2010kcyz  -0.03494
gfz2010kuzb   1.10590
gfz2010kwks   0.11191
gfz2010ljmp   0.08989
gfz2010ljol  -0.10271
gfz2010ljzf  -0.35721
gfz2010lswe  -1.52530
gfz2010lvnj  -1.07200
gfz2010mdti   0.15249
gfz2010mjdl   0.63714
gfz2010mnoc   0.20389
gfz2010mpvc  -2.53570
gfz2010mqzz  -0.01481
gfz2010msss  -3.73130
gfz2010mvmb  -5.53790
gfz2010mvtj   2.49480
gfz2010mwmd  -0.73806
gfz2010nbcr   0.34852
gfz2010nccu  -0.22331
gfz2010ncwu   0.33261
gfz2010ngge  -0.11037
gfz2010nkrw   0.18273
gfz2010nlai   0.39111
gfz2010novb  -0.45154
gfz2010nteg  -2.33430
gfz2010nwbd  -0.08379
gfz2010nwyk  -1.26280
gfz2010ocug  -3.89520
gfz2010oguu   0.31883
gfz2010ogwn  -0.43720
gfz2010oibn   1.03350
gfz2010ojhe  -0.39781
gfz2010okpc  -1.82730
gfz2010okww  -0.31156
gfz2010onxm  -0.21500
gfz2010osaq   0.94213
gfz2010ouvm  -1.03490
gfz2010ovvg   1.04570
gfz2010pclq  -0.75610
gfz2010pcya  -0.49103
gfz2010pdip   0.02190
gfz2010pgpo   0.14662
gfz2010pgrf  -0.89432
gfz2010pngv  -0.27251
gfz2010prnw   0.42689
gfz2010pvnn   0.30056
gfz2010pzza   0.28626
gfz2010qbcy   0.79874
gfz2010qdqk  -0.72483
gfz2010qloa   1.04740
gfz2010qqqx   1.23020
gfz2010qrix  -0.14431
gfz2010qrta  -0.09511
gfz2010qykh  -0.72041
gfz2010qylh  -0.31355
gfz2010qzvf  -1.17740
gfz2010rdep  -1.02350
gfz2010rdip  -0.12782
gfz2010rkuu  -0.13040
gfz2010rljv  -0.13488
gfz2010rmua   0.09066
gfz2010rnqa  -2.62830
gfz2010rnwt   1.15160
gfz2010rpbz  -0.11179
gfz2010rpjd   0.02572
gfz2010schp  -0.20745
gfz2010scht   0.57395
gfz2010sdfs  -1.03760
gfz2010sftm  -1.67430
gfz2010shvn  -0.04532
gfz2010sook   0.46186
gfz2010swqy   0.27814
gfz2010sylk   0.22797
gfz2010syqh  -0.78242
gfz2010szxo  -1.27560
gfz2010tcgh  -2.15730
gfz2010tfar   0.14343
gfz2010tgmo  -3.52190
gfz2010tmba  -0.19601
gfz2010tmne  -0.61438
gfz2010tpcj  -0.92531
gfz2010tqyo   0.62787
gfz2010tvit   0.05656
gfz2010tzki  -0.55003
gfz2010tzlz  -0.76630
gfz2010tzma  -1.08110
gfz2010ugws  -1.16410
gfz2010uhjy  -0.85260
gfz2010uidg   0.02048
gfz2010ujqn   0.11188
gfz2010umxj  -1.15040
gfz2010umyp  -1.27220
gfz2010uogw  -1.44100
gfz2010uopf  -0.07597
gfz2010upod  -0.94869
gfz2010uqba  -2.18830
gfz2010uraq  -1.67270
gfz2010utsc  -0.39149
gfz2010uveo  -0.52285
gfz2010uyng   0.42295
gfz2010vdcf   0.49246
gfz2010vgfu   0.72785
gfz2010vhzx  -0.05130
gfz2010viyi  -0.23138
gfz2010vjac  -0.27894
gfz2010vkca   1.03140
gfz2010vong  -0.49053
gfz2010vxwv  -0.67416
gfz2010vybx   0.19131
gfz2010vyri  -1.03290
gfz2010wakc   0.96383
gfz2010wdav   0.51385
gfz2010wigk  -2.64660
gfz2010wtin  -1.45130
gfz2010wwhf   0.06580
gfz2010wwnq   0.11945
gfz2010wyso  -0.56543
gfz2010wyuj  -1.69660
gfz2010xamh  -0.11812
gfz2010xaxw  -0.62497
gfz2010xcdd   2.09760
gfz2010xezr   0.15191
gfz2010xhqq  -0.18805
gfz2010xjsv  -1.17780
gfz2010xkbz  -1.52590
gfz2010xkku   0.18579
gfz2010xnbn   0.55359
gfz2010xney   0.30069
gfz2010xpzq  -0.06462
gfz2010xvev   0.13073
gfz2010xytc   0.93064
gfz2010xzah  -0.21593
gfz2010xzte  -0.22748
gfz2010yczp   0.25290
gfz2010yfdr  -0.51357
gfz2010ygrd  -0.06439
gfz2010yhdn  -0.02197
gfz2010yhhj   0.87414
gfz2010yilf  -0.21310
gfz2010ymih   0.07908
gfz2010yrex   0.09071
gfz2010yspe  -0.20478
gfz2010ytzb   0.33679
gfz2010zaxv  -1.17730
gfz2010zhvj  -1.23240
gfz2010zjun   0.13945
gfz2010zkle  -1.41240
gfz2011afyc  -1.65640
gfz2011ahvh   0.63182
gfz2011aksu  -1.69710
gfz2011ameb  -0.51844
gfz2011amst  -2.37720
gfz2011aqpp  -0.23873
gfz2011awsv   0.22963
gfz2011bazz  -0.56386
gfz2011bcvc  -0.65056
gfz2011bffb  -0.79268
gfz2011biin  -0.69487
gfz2011bpqm   0.20970
gfz2011bqbx  -2.00180
gfz2011bsvr   1.69110
gfz2011bvog  -1.44870
gfz2011bwsm  -2.26370
gfz2011bygs   0.13802
gfz2011bygu   0.43379
gfz2011bzio  -0.30913
gfz2011caca  -0.64600
gfz2011cdge  -1.48990
gfz2011cfyy  -0.28870
gfz2011chsa   0.17442
gfz2011cjcv   0.12472
gfz2011cjuz  -0.30998
gfz2011cwhx  -0.57018
gfz2011cwsm  -0.16217
gfz2011cwzi  -0.77306
gfz2011cxbw  -3.47590
gfz2011cxdj   0.10564
gfz2011dabj   0.56729
gfz2011dbzc   0.08160
gfz2011dhfg   0.37156
gfz2011dhqk  -0.25167
gfz2011dmdv  -0.33499
gfz2011dpyu   0.84751
gfz2011drmu   0.88035
gfz2011dtcb   0.24637
gfz2011duvm  -1.16230
gfz2011dwae   0.00014
gfz2011dzmf  -1.24550
gfz2011ecce  -0.13131
gfz2011edrq   0.35310
gfz2011emzr   0.91672
gfz2011etkc  -0.67919
gfz2011exxq  -3.23200
gfz2011fbsl  -1.24080
gfz2011ffdh  -0.02306
gfz2011fges   0.48359
gfz2011fnie  -0.54174
gfz2011fnuk   0.03125
gfz2011fnxz   0.38692
gfz2011fszl  -0.06374
gfz2011fxmf  -0.02643
gfz2011fyfu  -0.52090
gfz2011fzcw  -1.10720
gfz2011gaax   0.06868
gfz2011gcct  -1.10040
gfz2011gdli   0.22235
gfz2011gdrl   0.40891
gfz2011gfer   0.14791
gfz2011ggnl   1.24770
gfz2011ggsz   0.36903
gfz2011glpg   0.15288
gfz2011gnbk   0.08148
gfz2011gpyr  -0.16432
gfz2011grby  -1.74770
gfz2011gzde   2.10150
gfz2011haaa   0.32820
gfz2011hatg   0.03378
gfz2011hbqc   1.73670
gfz2011hffq   0.92680
gfz2011hibi  -1.86410
gfz2011hjof  -0.44647
gfz2011hmnw   0.16385
gfz2011hqjs   0.36154
gfz2011hrgt  -0.67998
gfz2011huon   0.96705
gfz2011hvzo  -1.71920
gfz2011hyct  -0.32390
gfz2011hyuh  -0.09420
gfz2011iamf  -0.01952
gfz2011ibew  -1.09180
gfz2011ifta   0.12142
gfz2011inan   1.45130
gfz2011ioch  -1.76430
gfz2011iryz   0.18125
gfz2011itcv  -0.73617
gfz2011ituo   0.35220
gfz2011ixpj  -0.24423
gfz2011iybf   0.14864
gfz2011jdoz  -0.54423
gfz2011jghq   1.59260
gfz2011jphj  -0.67644
gfz2011jpob   0.00785
gfz2011jqyc  -0.17631
gfz2011jrgh   0.34541
gfz2011jryv   0.30328
gfz2011jtij  -0.20270
gfz2011kfch  -1.19570
gfz2011kgvq   0.81891
gfz2011kjzt   0.43837
gfz2011kjzv   0.39416
gfz2011kmge  -0.81145
gfz2011ksxc  -1.55340
gfz2011kujo  -0.24815
gfz2011kylu  -1.57630
gfz2011kymm  -0.93716
gfz2011kyzy   0.23854
gfz2011lbnn   0.27242
gfz2011ldgl   0.12794
gfz2011lkkf   0.36694
gfz2011lmug   0.10632
gfz2011lrpv   0.35069
gfz2011lwmg  -0.14485
gfz2011lxga   0.08553
gfz2011lykm   0.43648
gfz2011mdyq  -0.00257
gfz2011mjje   0.55265
gfz2011mllb  -1.88660
gfz2011mntq   0.86610
gfz2011moob  -1.43980
gfz2011mrfm  -2.36120
gfz2011mror   0.11098
gfz2011mrpy  -0.37469
gfz2011mryu  -2.13370
gfz2011nblt   3.30060
gfz2011ncyw   1.99520
gfz2011ndhh   2.22470
gfz2011ndki   1.03690
gfz2011ndlh   0.53471
gfz2011ndse   1.07290
gfz2011ndtp   0.64387
gfz2011ndvj   0.69505
gfz2011neai   1.27650
gfz2011nejg   1.79480
gfz2011nejw   2.15430
gfz2011nerb   1.75440
gfz2011nfcz   0.34480
gfz2011nfgt  -0.97920
gfz2011nfih  -1.56500
gfz2011nfln   1.41030
gfz2011nftw   0.70345
gfz2011nfwd   0.62850
gfz2011nfww  -1.06540
gfz2011nhby   0.19972
gfz2011nhhd  -0.24091
gfz2011nhjv   3.15770
gfz2011nhvt   0.05041
gfz2011nhwf  -1.70130
gfz2011nifi   0.14488
gfz2011nihq   0.42111
gfz2011nijp   2.62220
gfz2011nilw   0.77030
gfz2011nimp   1.67470
gfz2011nioi  -0.51968
gfz2011nisj  -0.02074
gfz2011niuw   2.63800
gfz2011nivw   0.19528
gfz2011nkda   0.57295
gfz2011nkou  -1.59640
gfz2011nlmf   1.13210
gfz2011nlnl  -0.67775
gfz2011nlok   1.57910
gfz2011nlou  -0.43994
gfz2011nlum  -0.33370
gfz2011nlyw   0.27276
gfz2011nmdz   0.17611
gfz2011nmhg   2.75280
gfz2011nnda   0.01179
gfz2011nnos  -1.25080
gfz2011npaf   1.31320
gfz2011npeu  -2.47110
gfz2011nsej  -0.00000
gfz2011nsiy  -1.55380
gfz2011nsrx  -0.17437
gfz2011nssr   0.43988
gfz2011nswi   0.55863
gfz2011nsyi  -0.99440
gfz2011ntyd   0.48561
gfz2011nuqo  -1.31840
gfz2011nvty   1.40390
gfz2011nyzk  -0.63260
gfz2011oadm   0.15878
gfz2011oazk   0.76666
gfz2011ocif   1.11020
gfz2011oekz  -0.89918
gfz2011oesd   0.38932
gfz2011ofpj   0.09926
gfz2011ohgj   0.05561
gfz2011okza  -1.42180
gfz2011omxt   0.47096
gfz2011oosp  -0.06277
gfz2011oqjl   1.30550
gfz2011oslk   1.30610
gfz2011osmp   0.25352
gfz2011osuy  -0.53410
gfz2011ovvj   0.06705
gfz2011owqa   0.12401
gfz2011paqj   0.51936
gfz2011pbgh  -4.30690
gfz2011pbjh  -0.25751
gfz2011pcqr  -0.66210
gfz2011pdgq   0.01034
gfz2011pdsn   2.85130
gfz2011pfls  -0.09832
gfz2011pfwq   0.85405
gfz2011pgzk   0.39732
gfz2011pimj   0.10797
gfz2011pivq   0.70984
gfz2011plzc   2.69470
gfz2011pmuv   1.09630
gfz2011poug   1.51240
gfz2011pphc  -1.82140
gfz2011ppsc   0.18094
gfz2011prrq   0.76099
gfz2011ptgd  -0.21740
gfz2011pulu  -1.10360
gfz2011pwbw   0.02920
gfz2011pwld  -0.38680
gfz2011qasw   0.04744
gfz2011qenl  -0.85357
gfz2011qgea  -1.98570
gfz2011qgvh   0.29440
gfz2011qgvx  -0.25958
gfz2011qidi  -0.52363
gfz2011qklh  -0.66074
gfz2011qlkj  -0.04161
gfz2011qowe  -0.98237
gfz2011qtoy  -1.09930
gfz2011qukj  -0.06435
gfz2011rbuo   0.48000
gfz2011rczb  -0.04187
gfz2011rkau  -0.06368
gfz2011rkzx  -0.37548
gfz2011rnny   0.64875
gfz2011rnsp   0.40562
gfz2011rplo  -0.27336
gfz2011rpoo   0.17021
gfz2011rqut   0.04482
gfz2011scma   0.30926
gfz2011sdax   0.23558
gfz2011sdpl   0.47607
gfz2011sfmu   0.50709
gfz2011sfph   0.34094
gfz2011sqco  -1.31020
gfz2011sskq  -1.09320
gfz2011stzi   0.54736
gfz2011swfp  -1.58200
gfz2011sxno  -0.12899
gfz2011sylg  -0.39576
gfz2011syvj   0.68072
gfz2011syzr   0.75262
gfz2011szau  -0.01224
gfz2011szbb   1.72090
gfz2011szcj  -0.67781
gfz2011szis  -1.42930
gfz2011taqr   0.19823
gfz2011tarj   1.35880
gfz2011tdjj   0.24108
gfz2011tfor  -1.17070
gfz2011tgey  -0.48012
gfz2011tgon  -0.02535
gfz2011tjpv  -0.24327
gfz2011tlwl   1.88850
gfz2011tozo   1.58530
gfz2011tqgg   1.72710
gfz2011tsgl   0.00252
gfz2011tssv   0.13119
gfz2011tvuv  -0.44904
gfz2011twpz   0.75443
gfz2011txdb  -2.31170
gfz2011txxs   0.86567
gfz2011tzcv   0.52767
gfz2011unud   1.20000
gfz2011uowi   0.64656
gfz2011uqlz  -0.95714
gfz2011uqry   1.48010
gfz2011urwz   0.11098
gfz2011uvsi   0.28552
gfz2011vahy   0.49622
gfz2011vaoi  -0.75494
gfz2011varl   1.02390
gfz2011vbxv   1.02510
gfz2011vcyx   1.14210
gfz2011vemg  -0.73971
gfz2011vimn   0.75007
gfz2011vsag   0.76716
gfz2011vswj   0.66484
gfz2011vtdl   0.36867
gfz2011vtzv  -0.04969
gfz2011vxek   0.59071
gfz2011wbtc   0.32594
gfz2011wcvs  -2.51590
gfz2011wfsk   1.22770
gfz2011wgoa  -0.05417
gfz2011wgvh  -2.37730
gfz2011wkja   0.65960
gfz2011wkyx  -1.37170
gfz2011wngi   0.43826
gfz2011wnjg  -0.19543
gfz2011wnvu  -2.37400
gfz2011wpzt   0.66741
gfz2011wqth   1.28590
gfz2011wqup   0.09840
gfz2011wtfn  -0.83449
gfz2011wucg   0.59428
gfz2011wwze   0.38464
gfz2011wzss  -1.07220
gfz2011xagc   0.25256
gfz2011xawm  -1.29970
gfz2011xdox  -0.16083
gfz2011xgbc  -0.83843
gfz2011xgwy   0.06162
gfz2011xkka   0.12957
gfz2011xlod   0.49221
gfz2011xnui   0.13563
gfz2011xpcq   0.56174
gfz2011xwdv  -3.28850
gfz2011xwum  -0.11094
gfz2011xxng  -0.84202
gfz2011yeck   0.12991
gfz2011yjtx   0.42107
gfz2011ykbd  -0.03541
gfz2011ymji   0.81577
gfz2011yntu   0.71883
gfz2011ypfh   2.25560
gfz2011yrfa   0.12533
gfz2011ytob   0.50343
gfz2011ytwk   0.25543
gfz2011ywtj   0.86767
gfz2011zcwn   0.95677
gfz2011zdyf  -1.21470
gfz2011zghc  -0.60881
gfz2011zgxn  -0.02196
gfz2011zhih  -1.13220
gfz2011ziyk   0.77675
gfz2011zkbt   0.17278
gfz2011zlga  -1.93700
gfz2012adja   0.43314
gfz2012ahac   0.62528
gfz2012ahkl  -0.83877
gfz2012aioo  -0.27880
gfz2012alti  -0.61840
gfz2012amjx   1.37300
gfz2012amvs   0.32241
gfz2012aqpa  -0.21029
gfz2012arlo  -1.75170
gfz2012asin  -2.07510
gfz2012asld  -0.17736
gfz2012atjr  -0.59528
gfz2012auqr  -1.18360
gfz2012avvc  -0.37057
gfz2012axrp  -0.73904
gfz2012bcvn  -0.71250
gfz2012beae  -0.03354
gfz2012bity   0.46589
gfz2012bjhl   0.40528
gfz2012bnwa   0.45193
gfz2012bolx   0.61288
gfz2012bovy   0.37682
gfz2012bqcf   1.13450
gfz2012btbq   1.74450
gfz2012byrq   1.19510
gfz2012bysu   0.75452
gfz2012bytv   1.64230
gfz2012byuk   1.66350
gfz2012cdju   0.88936
gfz2012cfdw   0.89910
gfz2012cksh  -1.20780
gfz2012cmww   0.96858
gfz2012cntu   0.01469
gfz2012crpb   0.25735
gfz2012cvfr   0.24418
gfz2012cwhl   0.99899
gfz2012cxhw  -0.87534
gfz2012czvh  -0.14533
gfz2012dbgt  -1.52520
gfz2012dcjd   0.65371
gfz2012dejg  -0.45950
gfz2012dgfk   0.51302
gfz2012dkdy  -0.52231
gfz2012dleg  -3.52990
gfz2012dluf   0.57565
gfz2012dnig   0.04299
gfz2012dpem  -0.59393
gfz2012dpnu  -0.32485
gfz2012dpwv  -1.29300
gfz2012drak  -0.16254
gfz2012drld  -0.12547
gfz2012drqd  -0.92555
gfz2012dsei  -1.51010
gfz2012dtdt   1.31860
gfz2012dtlu   0.53738
gfz2012dttl   0.35606
gfz2012dtvr   0.38047
gfz2012dugf   0.07517
gfz2012duvf  -0.83009
gfz2012dwwu   0.16566
gfz2012dyck   0.33669
gfz2012dyfw  -0.15529
gfz2012dysj   0.62183
gfz2012dysu   0.79589
gfz2012dyua   0.12844
gfz2012dzen   0.90760
gfz2012dzjo  -0.99202
gfz2012dzoh   0.04467
gfz2012dzot  -0.45612
gfz2012dzou   2.90680
gfz2012eajr  -0.77927
gfz2012ebff   0.35069
gfz2012ebgo  -0.62479
gfz2012ebhf   0.59261
gfz2012ebrr  -0.30308
gfz2012eeft   0.80804
gfz2012ekfp  -0.47084
gfz2012ekro   0.82220
gfz2012elek   0.03274
gfz2012emin  -0.33705
gfz2012enio   0.74438
gfz2012enrg  -0.08585
gfz2012erds  -0.50270
gfz2012evav   0.46344
gfz2012evxn   0.50059
gfz2012eyti   0.71521
gfz2012facv   0.75592
gfz2012fbgz  -0.05112
gfz2012fcyq  -0.48321
gfz2012fcyr  -0.43957
gfz2012fhaf   0.03409
gfz2012fiiz   0.76739
gfz2012fjiu   1.30980
gfz2012flqf   0.98024
gfz2012foih   2.42200
gfz2012fpyo   0.63436
gfz2012ftcq   0.07808
gfz2012ftks   0.40186
gfz2012fuyd  -0.06701
gfz2012fyny  -0.07337
gfz2012fyop  -0.23322
gfz2012gbrs  -0.68835
gfz2012gczh   1.24710
gfz2012gdye   0.17087
gfz2012gftg   0.75026
gfz2012ghiv   0.36068
gfz2012ghyd  -3.69200
gfz2012gjdg   0.11933
gfz2012gjtd  -0.92896
gfz2012gmsr  -1.40050
gfz2012gnow   0.19841
gfz2012gpcd   0.21756
gfz2012grmf   0.84315
gfz2012gubu  -0.77714
gfz2012gvxc  -0.30804
gfz2012gzuk  -1.08090
gfz2012hdny  -0.39624
gfz2012heih   0.16718
gfz2012hhlx  -0.45535
gfz2012hkxs  -0.07385
gfz2012hlya  -4.88490
gfz2012hmcv   0.04394
gfz2012hnyy  -2.08910
gfz2012hqlo   1.18290
gfz2012hvfw   0.56424
gfz2012hvjc   1.92830
gfz2012hvtu  -0.09546
gfz2012hwph  -0.09350
gfz2012hyba  -0.81635
gfz2012hyqh  -0.51792
gfz2012hysb  -1.70820
gfz2012hzhn  -0.06839
gfz2012hzur   1.25640
gfz2012iabn   0.12783
gfz2012iblo   1.08380
gfz2012ibyd   0.19878
gfz2012icjo  -1.29970
gfz2012idxu  -0.60814
gfz2012iedy  -0.46633
gfz2012ieln   0.41436
gfz2012iijk  -0.69311
gfz2012ikke  -0.88899
gfz2012imuo  -0.32745
gfz2012inns  -1.09360
gfz2012iotw   2.03880
gfz2012ipdc   0.97944
gfz2012iroy   0.07483
gfz2012ivyg  -1.79560
gfz2012iyhs   0.15137
gfz2012iyoi  -1.06160
gfz2012izke  -1.16700
gfz2012jaun  -1.43920
gfz2012jawj   0.04609
gfz2012jbzr   0.89571
gfz2012jetp   0.86514
gfz2012jksz  -0.31404
gfz2012jlez  -0.99928
gfz2012jqxx  -0.10673
gfz2012juem   0.58591
gfz2012jxnm   0.53300
gfz2012jxxe  -0.17563
gfz2012kadi   0.30228
gfz2012kbub   2.44580
gfz2012klpl   0.07131
gfz2012kmbo  -0.70094
gfz2012kmmz   0.10548
gfz2012kqjb  -0.66410
gfz2012kstg  -0.07702
gfz2012kvlx  -3.19000
gfz2012kwmx   0.85768
gfz2012lcro  -1.29320
gfz2012ldjj  -0.69478
gfz2012lngq  -1.25070
gfz2012lops  -0.30123
gfz2012lqhw   0.40207
gfz2012luzm   0.98544
gfz2012lvlr  -0.23090
gfz2012lwha  -1.41600
gfz2012lyqs  -2.69160
gfz2012lyyr  -0.07929
gfz2012mcrb  -0.09644
gfz2012mdzf  -0.17464
gfz2012mekv  -1.14160
gfz2012mhik   0.22171
gfz2012mjuu   1.02680
gfz2012mjzl  -0.33564
gfz2012mmiw   0.26610
gfz2012mnth  -1.36320
gfz2012mout   1.45450
gfz2012movu  -2.14040
gfz2012movv  -0.58083
gfz2012mowv   0.49920
gfz2012mpzo   0.95858
gfz2012mrqk   0.86342
gfz2012mrwu   0.65109
gfz2012mtyn   1.11730
gfz2012mvgu   0.27558
gfz2012mwhe  -0.26307
gfz2012mxdk   0.19693
gfz2012mxvk   0.44109
gfz2012mzco   0.03689
gfz2012mzqx   0.94188
gfz2012ndsk  -0.67267
gfz2012ndwt  -0.07156
gfz2012nfos   0.37743
gfz2012nfzc  -0.58078
gfz2012nldz   0.73463
gfz2012nlrb  -0.11780
gfz2012nmja   0.33568
gfz2012nnck  -0.00000
gfz2012nnqu   0.82975
gfz2012nnsl   0.02458
gfz2012nqvd   0.19930
gfz2012nsxc  -0.51052
gfz2012oafg   0.09593
gfz2012oehy   0.57284
gfz2012ofaj  -0.20355
gfz2012ofnx   1.04560
gfz2012ogqu   0.53368
gfz2012ogwe   0.46840
gfz2012ohgd   0.27676
gfz2012oieq  -0.55563
gfz2012oiez  -1.29450
gfz2012ojfv  -0.99030
gfz2012ojmv   0.54329
gfz2012onhu  -0.60702
gfz2012oork  -0.44481
gfz2012oozp  -0.69968
gfz2012ormy   0.16192
gfz2012oxnh  -0.52464
gfz2012oyja   0.92849
gfz2012pcui  -1.39330
gfz2012pdav  -0.50208
gfz2012pdfi  -0.81576
gfz2012pdjt  -0.18558
gfz2012pekf  -0.13599
gfz2012pgmw   0.97623
gfz2012phns   0.34403
gfz2012pifb  -0.52294
gfz2012pira   0.17109
gfz2012pmuj   0.99085
gfz2012pmuq  -0.22199
gfz2012pmws  -0.61516
gfz2012pokk   0.82134
gfz2012ppcq   0.42672
gfz2012prke   0.62349
gfz2012pryl   0.80630
gfz2012pumy   0.01584
gfz2012pvve   0.40148
gfz2012qfah   0.69060
gfz2012qfov  -2.09590
gfz2012qhqp  -2.37210
gfz2012qibe  -0.64435
gfz2012qllj  -1.40530
gfz2012qmhz  -1.71740
gfz2012qoev  -0.43214
gfz2012rduv  -0.40334
gfz2012rfhw  -1.97820
gfz2012rjlp   2.80410
gfz2012rknz  -0.04777
gfz2012rmvx   0.26364
gfz2012rnbw  -1.94770
gfz2012rnyn   0.23157
gfz2012roan  -0.32964
gfz2012rslf   0.46229
gfz2012rugl  -0.51784
gfz2012rzwp  -0.10826
gfz2012sbix   0.74126
gfz2012sfao   0.47732
gfz2012sgfd  -0.88794
gfz2012sjdy   1.14560
gfz2012sjox  -0.48808
gfz2012slfd   0.05845
gfz2012smyn  -1.14840
gfz2012socz  -0.13836
gfz2012sopp   0.18123
gfz2012sqsc  -1.96750
gfz2012ssnb  -1.35330
gfz2012ssvn   0.90347
gfz2012stxx  -0.06198
gfz2012suqd  -1.69410
gfz2012svwz  -0.45373
gfz2012swbz   0.65120
gfz2012sxbo  -1.45540
gfz2012sxpr  -1.97150
gfz2012sxzs   0.16408
gfz2012syum  -0.25075
gfz2012taph  -0.27299
gfz2012tgta   0.41691
gfz2012thyh   0.17162
gfz2012tisj  -0.89575
gfz2012tjih  -2.33500
gfz2012tjwg  -3.19550
gfz2012touh   0.36751
gfz2012tqjc   0.41582
gfz2012trfq  -0.11761
gfz2012trss  -0.94796
gfz2012tsdz  -2.07940
gfz2012ttnf   0.45296
gfz2012tvgw  -0.44282
gfz2012twec   0.53772
gfz2012tyoz   0.65924
gfz2012udeo  -1.16250
gfz2012udxg  -2.26300
gfz2012uegq  -0.80126
gfz2012uhsx  -0.27440
gfz2012uhtc   0.21434
gfz2012ukzg  -0.10581
gfz2012ulei  -0.86099
gfz2012umob   0.50599
gfz2012unxc  -0.08782
gfz2012uovh   0.06527
gfz2012urtu   2.75610
gfz2012utdu  -0.03749
gfz2012uvea  -0.55387
gfz2012uvoa   0.84080
gfz2012uwne   0.18661
gfz2012uzuu   0.23796
gfz2012uzww   0.34591
gfz2012vaqd   0.06453
gfz2012vcqw   0.27920
gfz2012vdra   1.53700
gfz2012vdsl   0.19890
gfz2012vgot   0.42869
gfz2012vile  -0.72365
gfz2012vioy   0.61559
gfz2012vitw   0.63377
gfz2012vkjw   0.58525
gfz2012vlzv  -0.29491
gfz2012vqjw   0.09221
gfz2012vqmq   0.46142
gfz2012vrqz   0.71597
gfz2012vurc   0.76892
gfz2012vzkm  -1.02150
gfz2012wbeu  -0.73792
gfz2012wdvt   0.28234
gfz2012wdxk  -0.20055
gfz2012wgdv   0.16384
gfz2012wgmg   0.17666
gfz2012wgxf   0.14004
gfz2012wiyv  -2.82680
gfz2012wjpf  -2.69130
gfz2012wjsi   0.04472
gfz2012wjxc  -0.86340
gfz2012wkki  -0.07004
gfz2012wmmw  -0.45258
gfz2012wowu  -1.86070
gfz2012woxj  -0.03290
gfz2012wpen   0.41530
gfz2012wqfz  -1.24690
gfz2012wugc   0.50745
gfz2012wysg   0.22758
gfz2012wzja   0.79185
gfz2012xask   0.15517
gfz2012xbna  -0.10620
gfz2012xcsf   0.52246
gfz2012xfnu  -0.17421
gfz2012xfsk   0.54717
gfz2012xfsl   0.49337
gfz2012xjgb   0.15406
gfz2012xkln   0.00525
gfz2012xkvu   0.95615
gfz2012xlas   1.42420
gfz2012xlfo  -0.45236
gfz2012xncm  -1.12620
gfz2012xqxw  -1.97410
gfz2012xrmq   0.18349
gfz2012xtvu   0.24141
gfz2012xwgb  -1.05710
gfz2012xwkx   0.57469
gfz2012xxdj   0.20073
gfz2012yegw  -0.93589
gfz2012yihn   0.85223
gfz2012ylai   0.36296
gfz2012yncm  -0.39204
gfz2012yvwc   0.79806
gfz2012ywei   0.80575
gfz2012yygz  -1.56260
gfz2012yytb  -2.04580
gfz2012yzih   0.24234
gfz2012zhyz  -0.09328
gfz2012zido   0.29686
gfz2012zkhu  -2.09450
gfz2012zktj   1.02440
gfz2012zmdf   1.50830
gfz2012zmfc   0.75676
gfz2012znou   0.63747
gfz2012zqis  -0.41720
gfz2013aclz  -0.94904
gfz2013adih   0.25702
gfz2013afzh   0.31308
gfz2013agbm   0.95804
gfz2013aggr   2.62920
gfz2013agmt  -1.13230
gfz2013ajxz  -0.23042
gfz2013akkd   0.55047
gfz2013ascz   0.15186
gfz2013atak  -0.64754
gfz2013atec   0.08952
gfz2013aymi   0.12884
gfz2013bdvi  -1.44080
gfz2013bgyg  -1.63100
gfz2013bqfc   0.25517
gfz2013bwgw  -0.87013
gfz2013byyy   0.67409
gfz2013ccng   0.58949
gfz2013cfls   0.01903
gfz2013cinv   0.67812
gfz2013ciof   0.02121
gfz2013cqak   0.32830
gfz2013cqee  -1.44100
gfz2013cvve  -0.90837
gfz2013cyvx   0.18807
gfz2013ddrx  -1.15120
gfz2013delq  -0.24462
gfz2013dftb   0.70840
gfz2013dfvx   1.67330
gfz2013djfi  -0.07585
gfz2013dksc  -0.35386
gfz2013dmzh  -0.06744
gfz2013dngd  -0.82115
gfz2013dnot   0.50187
gfz2013dwsp  -1.18270
gfz2013dznt  -2.57830
gfz2013dzvr   0.10485
gfz2013eavq   0.78539
gfz2013eazm   0.36804
gfz2013efct   0.30278
gfz2013efys  -0.01289
gfz2013egfv  -2.81700
gfz2013eidd   0.65193
gfz2013ektd   0.15338
gfz2013enga  -0.21169
gfz2013enqo   0.50166
gfz2013enrh   0.23676
gfz2013esef  -1.95390
gfz2013evcl   0.79226
gfz2013ewht   0.06478
gfz2013exow   2.30830
gfz2013eyyo  -1.25280
gfz2013ezmc   0.06712
gfz2013ffjt  -0.28446
gfz2013fhzy  -0.33410
gfz2013fmcd   0.71672
gfz2013fmcp  -0.29174
gfz2013fndg   0.48136
gfz2013fnpa   0.49372
gfz2013foto   0.14178
gfz2013frxd   1.06400
gfz2013fskp   0.65668
gfz2013fthi   0.38243
gfz2013fulo   0.63885
gfz2013fvht   0.36261
gfz2013fvyr  -0.60813
gfz2013fvzv   0.00000
gfz2013fwbm  -1.91340
gfz2013fxyr   0.84997
gfz2013fybd   0.83277
gfz2013gaqx  -0.59570
gfz2013gbki   0.18735
gfz2013gbma   1.30270
gfz2013gglk   3.03100
gfz2013gjmk   0.67777
gfz2013gkcx   1.11190
gfz2013gkyn   0.76868
gfz2013glkq   1.54680
gfz2013glpz   1.25120
gfz2013gomv   0.72405
gfz2013grle  -1.80730
gfz2013gugi  -0.11568
gfz2013gurk   0.58623
gfz2013gxye   0.51656
gfz2013gyce   0.41037
gfz2013gywl   1.23630
gfz2013havw   0.50165
gfz2013hbmi   0.24939
gfz2013hbtm   0.59471
gfz2013hbwy  -6.71040
gfz2013hdbp  -1.75440
gfz2013hduf  -0.06565
gfz2013hiam   0.58260
gfz2013hinw   1.64600
gfz2013hjtt  -0.84190
gfz2013hqaa   0.27523
gfz2013hvkg  -0.14092
gfz2013hvzv   0.35157
gfz2013hwps   0.20232
gfz2013icgx   0.37161
gfz2013icql   1.29140
gfz2013idqu   0.47395
gfz2013ikic  -0.03499
gfz2013irme   0.42770
gfz2013isqh   0.69719
gfz2013iuyv   1.63970
gfz2013ivvw   0.06688
gfz2013iwhc   0.38523
gfz2013iwzn  -0.07370
gfz2013iybg   0.24519
gfz2013jcnn  -0.01583
gfz2013jdwo  -2.85710
gfz2013jfcn   0.43630
gfz2013jhog   0.41197
gfz2013jjae  -0.71004
gfz2013jjfw  -0.72467
gfz2013jkqn  -1.36100
gfz2013jlli   0.30322
gfz2013jobl   0.97070
gfz2013jpir  -0.09018
gfz2013jrqf   0.35956
gfz2013jtsg  -1.04310
gfz2013jzcf   0.69918
gfz2013kats   0.58307
gfz2013kbbn  -0.59732
gfz2013kbkp   0.82904
gfz2013kcdb  -1.16020
gfz2013kdfy  -0.33345
gfz2013kjgh  -0.17284
gfz2013kpes   1.36750
gfz2013kqab  -0.17571
gfz2013kruh  -0.29223
gfz2013ksaz   0.45782
gfz2013kslp   0.49017
gfz2013kuno   2.09460
gfz2013kxlr   0.65599
gfz2013lbod   0.55276
gfz2013lbvl   1.17340
gfz2013lcrk  -0.21285
gfz2013lgvf   0.57018
gfz2013ljdu   0.69493
gfz2013ljwt   0.66585
gfz2013lnne  -3.09820
gfz2013lnts   0.51213
gfz2013lqjj   0.68620
gfz2013lxed   0.71010
gfz2013lxnd  -2.34040
gfz2013mbna  -0.11755
gfz2013mdxj   0.36646
gfz2013mimp   0.58432
gfz2013mktp  -0.20760
gfz2013mnux  -1.56540
gfz2013msmy   0.39549
gfz2013muqm  -0.15592
gfz2013mvgq  -0.60025
gfz2013mynb  -0.09168
gfz2013mzaw   0.44458
gfz2013nhkw  -2.61110
gfz2013njck   1.35000
gfz2013njwj   1.97750
gfz2013nkgd   2.52760
gfz2013nkgt   2.18530
gfz2013nnai   0.47084
gfz2013noqf   0.36482
gfz2013ntfc   0.63019
gfz2013ntiu  -2.19160
gfz2013oeni   0.63479
gfz2013ohdt   0.27387
gfz2013ohnj   0.14617
gfz2013oizq   0.13123
gfz2013ojza   0.41107
gfz2013okac   0.60667
gfz2013okxa   0.54574
gfz2013olos   2.48040
gfz2013onvl   0.08864
gfz2013opkx  -1.96290
gfz2013orot   0.04436
gfz2013ortl   0.39367
gfz2013oruq   0.26837
gfz2013osmj  -0.37774
gfz2013otuj   0.05354
gfz2013otxp  -0.73637
gfz2013oywh  -1.07080
gfz2013pegj  -0.44429
gfz2013phhi  -0.06783
gfz2013phly   2.18900
gfz2013pizm   0.63312
gfz2013pkmz  -0.31110
gfz2013pqkp   0.26502
gfz2013puiy   0.02473
gfz2013pvsa  -1.32300
gfz2013pwsm  -0.77329
gfz2013pzdr  -0.59060
gfz2013qaov  -1.00010
gfz2013qapj   0.17760
gfz2013qboo   0.72463
gfz2013qdks   0.39371
gfz2013qdno   0.47355
gfz2013qdpv   0.56649
gfz2013qdzg  -2.20290
gfz2013qear   0.61210
gfz2013qigb   1.27990
gfz2013qmkt  -0.66027
gfz2013qnqr   0.58769
gfz2013qntl   0.17235
gfz2013qoak  -0.71072
gfz2013qogb   0.47609
gfz2013qqyo  -0.00000
gfz2013quwz   0.44086
gfz2013quyn   0.96168
gfz2013qwnm   0.46022
gfz2013qxof   0.64020
gfz2013rdmn   0.53810
gfz2013rfik   0.35594
gfz2013rgcc   0.40134
gfz2013rhbx   0.08972
gfz2013rhxf  -0.35451
gfz2013rnsa   0.40369
gfz2013rocs   0.21026
gfz2013rsyt  -0.62629
gfz2013rtvy   0.56881
gfz2013rwkj   0.55533
gfz2013ryfc   0.29053
gfz2013ryph   0.93552
gfz2013sbsl   0.38195
gfz2013sbsp  -0.02594
gfz2013sdkg   0.51827
gfz2013sdym   0.62274
gfz2013skay  -0.03038
gfz2013skvq   0.49955
gfz2013stou   0.34404
gfz2013stup  -1.13490
gfz2013swnj   0.31543
gfz2013syqv  -1.56280
gfz2013taeb  -1.35370
gfz2013tcju   0.52667
gfz2013tdsx  -0.36068
gfz2013tekq   0.61039
gfz2013tert  -0.43130
gfz2013tgia   0.87564
gfz2013tgyb   0.43401
gfz2013timw  -0.32595
gfz2013tjub   1.79300
gfz2013tkcg   1.12410
gfz2013tmyj   0.68062
gfz2013tnff   0.12083
gfz2013tnrp   0.56443
gfz2013tpwl  -3.30110
gfz2013trsq   0.64375
gfz2013twbc   0.96194
gfz2013uafv   0.04566
gfz2013ubgt   0.77573
gfz2013udtw   0.65987
gfz2013uenl  -0.05673
gfz2013uepl   0.18855
gfz2013uhio  -0.99795
gfz2013ummt  -3.26350
gfz2013unuv   0.90085
gfz2013urla  -0.82986
gfz2013utqa   0.54122
gfz2013uugc   0.67803
gfz2013uwjo  -0.37870
gfz2013uwxi   0.64202
gfz2013uxzw  -1.23010
gfz2013uzmf   0.28031
gfz2013vcgd  -0.39782
gfz2013vdam   0.50642
gfz2013veoz   1.41170
gfz2013veug   0.13118
gfz2013vfix  -0.14474
gfz2013vgfb   0.22291
gfz2013vjrr  -0.06138
gfz2013vjsz   1.31810
gfz2013vldx   0.01070
gfz2013vmrv  -0.57831
gfz2013vmsg  -1.93970
gfz2013vmsn  -0.84848
gfz2013vnwa  -0.87991
gfz2013voai   0.36438
gfz2013vojy   0.11842
gfz2013vsdd  -0.16559
gfz2013vvre   0.43532
gfz2013vwkh   0.61095
gfz2013vxht   0.49718
gfz2013vzel   1.56050
gfz2013vzet   0.75068
gfz2013wegs  -0.52762
gfz2013wgwz  -0.18059
gfz2013wigs   0.53053
gfz2013wpns   0.74123
gfz2013wwee   0.33082
gfz2013wyfl  -0.43587
gfz2013wyho  -2.96550
gfz2013xacx   0.73669
gfz2013xahp   0.37869
gfz2013xbdc  -1.09510
gfz2013xjmo  -0.00899
gfz2013xjmy  -2.30930
gfz2013xlic   0.22087
gfz2013xmzw  -0.41888
gfz2013xodn   0.46615
gfz2013xofz   0.31849
gfz2013xswc   0.49108
gfz2013xupg   0.16397
gfz2013xvps   0.63637
gfz2013xxbf  -0.67088
gfz2013xycz   0.51714
gfz2013xzxe  -0.14046
gfz2013yapz   2.26610
gfz2013yawe  -1.70760
gfz2013yfwz  -2.31360
gfz2013ygsj   0.24211
gfz2013yihv  -0.73106
gfz2013ykqw  -1.03460
gfz2013yktj   0.28301
gfz2013ylxm  -0.55035
gfz2013ymhx   0.15382
gfz2013yodm   0.18811
gfz2013yqkz   0.68121
gfz2013yqtu   0.38466
gfz2013ytfm  -0.12325
gfz2013ytmi   1.66210
gfz2013yvnj   0.05174
gfz2013yvpn   0.25103
gfz2013yxhf   0.98561
gfz2013yxif   0.52352
gfz2013yywh   0.03679
gfz2013zbfb   0.98808
gfz2013zedt   0.39589
gfz2013zeye   0.03237
gfz2013zfbz   0.10814
gfz2013zghn  -1.13680
gfz2013ziix   1.04080
gfz2013zkgm  -0.02542
gfz2013zkzb   0.17299
gfz2013zlak  -0.44124
gfz2013zlij  -0.88636
gfz2013zpse  -2.82320
gfz2013zpwk   0.33008
gfz2013zqan   0.24619
gfz2014aapq   0.43554
gfz2014aedl   0.45381
gfz2014aejh   0.47889
gfz2014afbt  -0.99894
gfz2014ajgi  -0.31708
gfz2014aluc   0.73557
gfz2014alzg  -0.53463
gfz2014amgk  -0.52175
gfz2014amsy  -2.92750
gfz2014aqax  -0.77818
gfz2014aqop  -0.18236
gfz2014arox  -0.85356
gfz2014ascp   0.32843
gfz2014avag   1.15400
gfz2014avmd  -0.75148
gfz2014avzp   0.71799
gfz2014ayxf  -1.88170
gfz2014azfu   0.76998
gfz2014bdju  -0.98186
gfz2014befl   0.46171
gfz2014bfjb   0.03942
gfz2014bgxe   1.13230
gfz2014bgyv   1.33410
gfz2014bhch  -2.06600
gfz2014bkra  -0.94100
gfz2014bmch   0.36293
gfz2014bmdf  -2.20430
gfz2014bmqw   0.13859
gfz2014bnea   0.67296
gfz2014bppg   0.58907
gfz2014bqpm   0.38911
gfz2014brkk  -0.61451
gfz2014bumr   0.68157
gfz2014buyz  -0.12585
gfz2014bycg   0.13882
gfz2014byes   0.28926
gfz2014bzus   0.52017
gfz2014cbfo   0.46221
gfz2014cgoi   0.77815
gfz2014cjao   0.57679
gfz2014ckqv  -0.05310
gfz2014club   0.46716
gfz2014cncl  -0.80228
gfz2014cokw   0.47461
gfz2014crac   0.99961
gfz2014ctdl   0.02810
gfz2014cvnb   0.30692
gfz2014cwti   0.74844
gfz2014dbmu  -0.55701
gfz2014dbqi   0.13023
gfz2014dece   0.55144
gfz2014dggw   0.00387
gfz2014dihl   0.50451
gfz2014djhi   0.74087
gfz2014djyj   0.46740
gfz2014dmrw   0.71901
gfz2014dpny   0.40657
gfz2014dpps   0.43790
gfz2014dsqr   0.08329
gfz2014dtth   0.30481
gfz2014dtto   0.21003
gfz2014dudd  -0.17098
gfz2014dutu   0.40443
gfz2014dwcp   0.61722
gfz2014dykt  -0.55241
gfz2014ecor  -1.49580
gfz2014edjm   0.35878
gfz2014edmd   0.65875
gfz2014eflc   1.03270
gfz2014egvg   0.33890
gfz2014eiav   0.24955
gfz2014eirs   0.42452
gfz2014ejfx  -0.09927
gfz2014emlw  -0.21851
gfz2014eoay   0.76141
gfz2014epfm   0.44266
gfz2014epnq   1.65450
gfz2014epue   0.52376
gfz2014esez   0.86056
gfz2014etgp   0.18939
gfz2014etqu  -0.39885
gfz2014eunw   0.63916
gfz2014evgu   0.79146
gfz2014evhm   0.11721
gfz2014exxj   0.95546
gfz2014eyne   0.73596
gfz2014ezjq  -1.04380
gfz2014ezvd   0.69638
gfz2014faex   0.63997
gfz2014fbef   0.51531
gfz2014fbli   0.41453
gfz2014fbnr  -0.80175
gfz2014fhki  -1.14290
gfz2014fjfz   0.34757
gfz2014flxk   2.24050
gfz2014fmdc  -2.25770
gfz2014fqas   1.00670
gfz2014fsir   0.39228
gfz2014fsje   0.63047
gfz2014fskh   0.50960
gfz2014fsvc   0.27105
gfz2014fvza   0.31399
gfz2014fwuf  -0.04612
gfz2014fwxt   1.52330
gfz2014fxim  -0.28344
gfz2014fxte   1.26350
gfz2014fxtv   0.41556
gfz2014fxuy   0.54952
gfz2014gasb   0.54809
gfz2014gbxg  -1.33420
gfz2014gcgf   2.94040
gfz2014gcia   0.37995
gfz2014gdbh  -0.74880
gfz2014geln   0.45072
gfz2014ggie   0.03306
gfz2014ginr   0.83335
gfz2014gjfd   0.45330
gfz2014gnbw   0.33994
gfz2014gpnr   1.16640
gfz2014gqxg  -0.82200
gfz2014grwv   0.72702
gfz2014gsfc  -0.06838
gfz2014gtee  -0.00894
gfz2014gtoj   1.05230
gfz2014gutd  -1.04920
gfz2014gypw  -0.73984
gfz2014gzlm   0.43242
gfz2014hapg  -1.09500
gfz2014happ  -0.41456
gfz2014herz   0.92165
gfz2014hgjb  -0.34161
gfz2014hhey  -0.06063
gfz2014hhis   0.14356
gfz2014hjmc  -1.02390
gfz2014hkcw  -0.04900
gfz2014hotu   0.09970
gfz2014hqhv   0.48403
gfz2014huah  -2.06720
gfz2014hyea   0.61116
gfz2014hzzf   0.70714
gfz2014iayo   0.46586
gfz2014icov  -0.73692
gfz2014igrp   0.21399
gfz2014ijsa   0.13153
gfz2014ikvw  -0.25454
gfz2014iltl   1.04280
gfz2014imqh   1.04150
gfz2014ined   0.34236
gfz2014inrg   0.18201
gfz2014iolv  -1.08460
gfz2014ipfu   0.29313
gfz2014ipwk  -0.35266
gfz2014irlf   0.81208
gfz2014irln   1.11270
gfz2014irly   1.01290
gfz2014isjg   0.57158
gfz2014isov   0.06813
gfz2014itlx   0.01288
gfz2014iusw   0.45968
gfz2014ivgm   0.09220
gfz2014ixlc   0.58082
gfz2014iyuc   0.52220
gfz2014jarg  -0.16210
gfz2014jaxy   1.20810
gfz2014jayh   0.68166
gfz2014jbfp  -0.02501
gfz2014jbgm  -0.84945
gfz2014jckg  -0.02010
gfz2014jffe  -0.99131
gfz2014jfmc  -0.00000
