# Nsamples: 248  MAD:  0.354  mean:  0.030  std:  0.719
gfz2010dask  -0.76247
gfz2010djib   0.34217
gfz2010drit   0.64917
gfz2010dwgy   0.23408
gfz2010fgbo   0.74581
gfz2010fjme   1.41820
gfz2010habf  -0.02931
gfz2010hxan   0.56481
gfz2010iaay   1.48020
gfz2010ifhd  -0.66934
gfz2010izag   0.23895
gfz2010jlvp  -0.28818
gfz2010mdti   0.31693
gfz2010oguu   0.28668
gfz2010pclq   1.20450
gfz2010qrta   0.10477
gfz2010rkuu   1.44610
gfz2010rljv   0.05038
gfz2010sdfs  -0.00000
gfz2010tmba   0.17557
gfz2010vong  -0.19342
gfz2010ytzb  -0.19804
gfz2010zjun  -0.04091
gfz2011ahvh   0.64829
gfz2011aqpp  -0.56440
gfz2011bpqm  -0.15674
gfz2011bsvr  -0.83707
gfz2011bygu  -0.49622
gfz2011cdge   2.17390
gfz2011dabj  -0.29545
gfz2011dhfg   0.01331
gfz2011dpyu  -0.06840
gfz2011gnbk   0.23220
gfz2011gpyr   0.23882
gfz2011haaa   1.30140
gfz2011hjof  -0.17960
gfz2011hyct   0.94543
gfz2011kfch   0.93970
gfz2011kjzt  -0.29350
gfz2011kjzv  -0.64842
gfz2011kujo  -0.72926
gfz2011kylu  -1.90000
gfz2011lmug   0.26410
gfz2011mjje   0.77030
gfz2011ndhh   0.98570
gfz2011nfcz  -0.55389
gfz2011nhby  -0.07141
gfz2011nijp  -0.84062
gfz2011oadm   0.34114
gfz2011ofpj  -0.03063
gfz2011ohgj   0.58244
gfz2011oslk   0.21946
gfz2011owqa   0.85375
gfz2011paqj  -2.27810
gfz2011pfls  -0.35829
gfz2011pgzk   0.04419
gfz2011pivq   0.02433
gfz2011ppsc   1.04200
gfz2011qenl  -0.16589
gfz2011qukj   2.86200
gfz2011sdax   0.43314
gfz2011taqr  -1.89530
gfz2011tqgg  -2.03680
gfz2011tsgl  -0.47183
gfz2011tvuv  -0.64928
gfz2011uqlz  -1.16170
gfz2011uqry  -0.45691
gfz2011vahy   0.13722
gfz2011wngi   0.03941
gfz2011wqup   0.03227
gfz2011wwze   0.21358
gfz2011wzss   0.23871
gfz2011yexx   0.34510
gfz2011zghc   0.35471
gfz2012ahac  -0.15312
gfz2012amvs   0.00000
gfz2012bity  -0.31391
gfz2012bovy  -0.12569
gfz2012bqcf  -0.03790
gfz2012cdju   0.31911
gfz2012cksh  -0.15312
gfz2012cvfr   0.08547
gfz2012dpnu   0.72588
gfz2012dyck  -0.17942
gfz2012ekfp  -0.95885
gfz2012elek  -0.05913
gfz2012flqf   0.11300
gfz2012fyny   0.67166
gfz2012gdye  -0.96452
gfz2012gnow  -0.00222
gfz2012klpl   0.59356
gfz2012kmbo  -0.92185
gfz2012kmmz   0.43236
gfz2012kstg   0.61162
gfz2012ldjj   1.05950
gfz2012lyyr  -0.04708
gfz2012mdzf   0.02917
gfz2012mmiw  -0.02116
gfz2012mrqk  -0.74518
gfz2012mvgu   0.01139
gfz2012nfos   0.87867
gfz2012oafg   0.45461
gfz2012oehy   0.06764
gfz2012ofnx   0.31530
gfz2012pgmw   0.12017
gfz2012phns   0.52709
gfz2012pmuj   3.96300
gfz2012pumy  -0.06880
gfz2012pvve  -0.11080
gfz2012qfah  -0.31216
gfz2012suqd   0.09998
gfz2012tisj   1.05740
gfz2012trss   0.34430
gfz2012ttnf  -0.04007
gfz2012twec  -0.02160
gfz2012uvoa   0.11646
gfz2012uzww   0.62485
gfz2012vlzv   0.58626
gfz2012wgmg   1.79980
gfz2012wmmw  -0.35438
gfz2012wysg   0.12435
gfz2012xfsl  -0.45689
gfz2012xxdj   0.00000
gfz2012yegw   0.74204
gfz2012zhyz  -0.05948
gfz2013aggr  -0.81151
gfz2013byyy   0.11914
gfz2013cinv   0.29920
gfz2013cvve  -0.69371
gfz2013cyvx   0.13664
gfz2013delq  -0.73227
gfz2013dftb   0.01650
gfz2013dnot  -0.15593
gfz2013eavq  -0.13626
gfz2013eidd  -0.19843
gfz2013fnpa   0.07620
gfz2013fulo   0.08741
gfz2013gkyn   0.50041
gfz2013gurk   0.24471
gfz2013gxye   0.36762
gfz2013gyce  -1.72400
gfz2013hbmi  -0.11776
gfz2013hbtm   0.45245
gfz2013hdbp  -4.16750
gfz2013hqaa   0.22062
gfz2013icgx  -0.22153
gfz2013icql   0.18611
gfz2013iuyv  -0.26968
gfz2013jfcn   0.21890
gfz2013jobl   0.27904
gfz2013jzcf   0.29409
gfz2013kats  -0.10929
gfz2013kcdb  -0.00345
gfz2013kslp   0.42774
gfz2013lbvl   0.16691
gfz2013ljdu   0.10351
gfz2013lvxe  -0.05018
gfz2013mdxj   0.05467
gfz2013mimp  -0.30396
gfz2013mvgq   0.93355
gfz2013mzaw  -0.11336
gfz2013nnai  -1.65440
gfz2013oeni  -0.10684
gfz2013ohnj   0.02826
gfz2013oizq   0.64354
gfz2013okac  -0.11330
gfz2013okxa  -0.11702
gfz2013oruq  -0.10726
gfz2013pizm   0.45664
gfz2013pkmz  -0.93418
gfz2013qdno  -0.02687
gfz2013qnqr   0.04261
gfz2013qntl   0.48799
gfz2013qoak   1.09820
gfz2013quwz  -0.07972
gfz2013quyn  -0.07285
gfz2013qwnm  -0.51572
gfz2013qxof  -0.25826
gfz2013rfik  -0.13658
gfz2013rhbx   0.49186
gfz2013rtvy  -0.43867
gfz2013rwkj  -0.19124
gfz2013rwog  -0.13413
gfz2013skvq  -0.36646
gfz2013stou  -0.04151
gfz2013swnj  -0.60571
gfz2013tcju  -0.20856
gfz2013tekq  -0.01397
gfz2013tnrp  -0.09581
gfz2013udtw   0.14664
gfz2013uepl  -0.05857
gfz2013unuv   0.04195
gfz2013utqa  -0.33264
gfz2013uwjo  -1.22660
gfz2013vcgd  -0.76221
gfz2013veoz  -0.71058
gfz2013vmrv  -0.40319
gfz2013voai  -0.07311
gfz2013vwkh  -0.54921
gfz2013vzel   0.82274
gfz2013wyfl   0.23939
gfz2013xahp   0.69307
gfz2013xmzw  -0.78159
gfz2013xofz  -0.32381
gfz2013xswc   0.74032
gfz2013xvps   0.01881
gfz2013yodm   0.06399
gfz2013zfbz  -0.21085
gfz2013zlak  -0.05300
gfz2014aedl  -0.15446
gfz2014ateb   0.13666
gfz2014azfu   0.11267
gfz2014befl  -0.02071
gfz2014bqpm  -0.12498
gfz2014bzus   0.20790
gfz2014cjao  -0.03923
gfz2014ckqv   0.26376
gfz2014ctdl   0.07084
gfz2014cvnb   0.21083
gfz2014dbqi  -0.76097
gfz2014dggw  -0.09786
gfz2014edjm  -0.14792
gfz2014emlw  -0.21961
gfz2014eoay   0.19735
gfz2014etgp  -0.34085
gfz2014fbli   0.29640
gfz2014fjfz  -0.04557
gfz2014fsir  -0.06083
gfz2014fsje  -0.04738
gfz2014fxte   0.18737
gfz2014fxuy  -0.23279
gfz2014gnbw   0.02076
gfz2014gtee   0.05142
gfz2014gypw  -1.04470
gfz2014happ   1.36200
gfz2014hotu  -0.48332
gfz2014hqhv  -0.02512
gfz2014hyea   0.02697
gfz2014hzzf   0.42916
gfz2014icov  -0.18418
gfz2014iltl   0.01462
gfz2014irlf   1.09850
gfz2014irln   0.54301
gfz2014iusw   0.04150
gfz2014ivgm  -0.24857
gfz2014ixlc   0.04467
gfz2014jarg  -0.09232
gfz2014jayh   0.25610
