# Nsamples: 460  MAD:  0.532  mean: -0.016  std:  0.929
gfz2010abfc   0.22814
gfz2010aggj   0.70813
gfz2010aimm  -0.76449
gfz2010azji  -0.27906
gfz2010bkfi  -0.05117
gfz2010ewyj  -0.39819
gfz2010fgbo  -0.28656
gfz2010fjio   0.16859
gfz2010fjme   0.08310
gfz2010fkff   0.74037
gfz2010fvfz  -0.83068
gfz2010fxhh   0.29634
gfz2010gcqp   0.06517
gfz2010gonu   0.64296
gfz2010gooc   0.69002
gfz2010guwa  -0.62150
gfz2010habf   0.40045
gfz2010hueh  -0.76803
gfz2010hxan  -0.41251
gfz2010iaay   0.59610
gfz2010ifhd  -0.65770
gfz2010ioad   0.71616
gfz2010izag  -0.10089
gfz2010jgwj  -0.59267
gfz2010jlvp  -0.30772
gfz2010jpkn   1.12560
gfz2010kuzb   0.04550
gfz2010ljzf  -0.69437
gfz2010mdti   0.00000
gfz2010mqzz   1.18210
gfz2010ncwu  -0.21702
gfz2010oguu  -0.38221
gfz2010oibn   0.12577
gfz2010okpc  -1.85220
gfz2010ouvm   0.68572
gfz2010pclq  -0.89877
gfz2010pcya   3.54330
gfz2010prnw   0.75430
gfz2010qdqk  -1.09890
gfz2010qrta  -0.14822
gfz2010qykh   0.80859
gfz2010rkuu   0.04612
gfz2010rljv  -0.40721
gfz2010rnwt   0.84071
gfz2010rpbz   2.12340
gfz2010rpjd   1.74320
gfz2010schp   0.41299
gfz2010sdfs  -0.73438
gfz2010shvn  -0.52469
gfz2010tcgh   0.29744
gfz2010tmba  -0.13851
gfz2010tzki   0.50351
gfz2010tzlz  -0.24848
gfz2010tzma  -0.41376
gfz2010vhzx   0.15235
gfz2010vong  -0.07105
gfz2010vybx   0.35363
gfz2010wakc  -0.89318
gfz2010xamh   0.03759
gfz2010xaxw  -0.48292
gfz2010xnbn  -0.21753
gfz2010xpzq  -0.58433
gfz2010yfdr   0.22958
gfz2010yhhj  -1.57740
gfz2010yilf  -0.46135
gfz2010yrex   0.27605
gfz2010ytzb  -0.11109
gfz2010zhvj  -0.09835
gfz2010zjun   0.03730
gfz2011ahvh   0.11518
gfz2011ameb  -0.26807
gfz2011amst  -3.48580
gfz2011aqpp  -0.68681
gfz2011bcvc  -0.27161
gfz2011bffb  -0.22599
gfz2011bpqm  -0.65827
gfz2011bsvr  -0.53908
gfz2011bygu   0.13467
gfz2011cdge  -0.80832
gfz2011cfyy   0.66309
gfz2011chsa  -0.12987
gfz2011cjuz  -0.80882
gfz2011cwsm   0.25328
gfz2011cxdj   0.33904
gfz2011dabj  -0.20446
gfz2011dhfg  -0.09120
gfz2011dpyu  -0.28409
gfz2011duvm  -0.69546
gfz2011dwae  -0.31216
gfz2011emzr  -0.35149
gfz2011fnie  -0.43002
gfz2011fszl   0.20174
gfz2011fyfu  -0.10422
gfz2011fzcw  -1.41760
gfz2011gaax   0.34236
gfz2011gfer   1.03110
gfz2011ggnl  -1.56340
gfz2011glpg   0.75163
gfz2011gnbk  -0.20666
gfz2011gpyr  -0.42709
gfz2011hibi  -0.96602
gfz2011hjof  -0.42281
gfz2011hmnw   0.58774
gfz2011hqjs   0.57765
gfz2011hvzo   2.17270
gfz2011hyct  -0.29789
gfz2011iamf  -0.10260
gfz2011ibew  -0.81110
gfz2011ioch   4.11360
gfz2011iryz   1.02560
gfz2011jryv   0.08861
gfz2011kjzt  -0.93362
gfz2011kujo  -0.69864
gfz2011kyzy   0.21829
gfz2011lkkf   0.69658
gfz2011lmug   0.19830
gfz2011mjje   0.27224
gfz2011mntq  -0.92864
gfz2011ndhh  -0.96416
gfz2011ndki  -0.48552
gfz2011nejg  -0.87498
gfz2011nejw  -0.96333
gfz2011nerb   0.15441
gfz2011nfcz   0.22859
gfz2011nfgt  -1.53620
gfz2011nftw  -1.07810
gfz2011nhby   0.00104
gfz2011nhhd   0.07344
gfz2011nhvt   1.21230
gfz2011nhwf  -1.97160
gfz2011nijp  -1.58700
gfz2011nilw  -1.69940
gfz2011nimp  -1.06260
gfz2011nioi  -1.73430
gfz2011nisj  -0.39674
gfz2011niuw  -1.08840
gfz2011nlmf  -0.17662
gfz2011nlnl  -2.21940
gfz2011nlum  -0.21325
gfz2011nnda   0.16892
gfz2011nnos  -0.53571
gfz2011nsiy  -0.33458
gfz2011nssr   7.60980
gfz2011nsyi  -0.30520
gfz2011nvty   0.45721
gfz2011nyzk   0.06626
gfz2011oekz  -0.19834
gfz2011ofpj  -0.07856
gfz2011ohgj  -0.43304
gfz2011oslk   0.09835
gfz2011osmp   0.75517
gfz2011owqa   0.92255
gfz2011paqj  -0.42216
gfz2011pdsn   0.17623
gfz2011pfls  -0.41192
gfz2011pgzk  -0.36605
gfz2011pivq  -0.38335
gfz2011ppsc  -0.42728
gfz2011prrq   1.88910
gfz2011qenl  -0.85112
gfz2011qgea   1.44600
gfz2011qklh   0.75890
gfz2011scma  -0.34837
gfz2011sdax   0.26517
gfz2011sqco   1.28550
gfz2011sqxp   7.21470
gfz2011sskq   0.15485
gfz2011sxno  -0.25674
gfz2011syvj  -0.99370
gfz2011syzr  -0.56653
gfz2011taqr   0.61776
gfz2011tdjj   0.08804
gfz2011tlwl   0.87594
gfz2011tozo  -0.90310
gfz2011tqgg   0.77128
gfz2011tsgl   1.17030
gfz2011tssv   0.37706
gfz2011tvuv  -0.53073
gfz2011uqry  -0.67318
gfz2011urwz  -0.19741
gfz2011vahy   0.03617
gfz2011varl  -0.71297
gfz2011vimn  -0.26518
gfz2011vsag  -0.89556
gfz2011wngi  -0.37106
gfz2011wnjg   1.73010
gfz2011wqup  -0.15886
gfz2011wtfn  -0.33298
gfz2011wucg   0.18675
gfz2011wwze  -0.27419
gfz2011wzss  -0.24916
gfz2011xdox   0.51954
gfz2011xgbc  -0.85377
gfz2011xgwy   0.04654
gfz2011xlod   0.35944
gfz2011xnui  -0.20446
gfz2011yexx  -0.09562
gfz2011ytob  -0.85050
gfz2011zghc  -0.37372
gfz2011zkbt   0.32901
gfz2012adja   0.24966
gfz2012alti  -0.05718
gfz2012amjx  -0.38066
gfz2012amvs  -0.22720
gfz2012aqpa  -0.06037
gfz2012beae  -0.05381
gfz2012bity  -0.57070
gfz2012bjhl   1.68500
gfz2012bolx   0.09928
gfz2012bqcf  -0.06175
gfz2012byrq  -0.28391
gfz2012bysu  -0.33261
gfz2012bytv  -1.43530
gfz2012byuk  -1.27030
gfz2012cdju  -0.01247
gfz2012cksh   1.24380
gfz2012cntu   0.06800
gfz2012crpb  -0.77643
gfz2012cvfr  -0.38724
gfz2012cwhl  -1.40620
gfz2012dcjd  -0.05649
gfz2012dejg  -0.56835
gfz2012dleg  -0.78931
gfz2012dnig  -0.14285
gfz2012dpnu  -0.01527
gfz2012dttl  -0.50402
gfz2012dwwu  -0.14810
gfz2012dyck  -0.35477
gfz2012dzot   0.17998
gfz2012ekfp  -0.34230
gfz2012elek  -0.48792
gfz2012enio   0.48543
gfz2012erds  -0.30074
gfz2012fhaf   0.71699
gfz2012fiiz   1.36780
gfz2012flqf   0.37006
gfz2012fpyo   0.56409
gfz2012fyny  -0.30053
gfz2012gdye  -0.43555
gfz2012gjdg   0.13090
gfz2012gnow  -0.23749
gfz2012heih   0.38087
gfz2012hvtu   1.29250
gfz2012hzhn  -0.99234
gfz2012hzur  -0.44544
gfz2012ibyd   0.25955
gfz2012iijk  -0.36313
gfz2012kbub  -1.40390
gfz2012kmbo  -0.51133
gfz2012kmmz  -0.10875
gfz2012kstg   0.20017
gfz2012lyyr   0.36907
gfz2012mdzf  -0.55781
gfz2012mjuu  -0.66865
gfz2012mmiw  -0.45259
gfz2012mpzo  -0.00000
gfz2012mrqk  -1.48770
gfz2012mrwu   0.37787
gfz2012mtyn   0.80493
gfz2012mvgu  -0.01277
gfz2012mxdk   0.21334
gfz2012mzqx   0.14288
gfz2012ndwt   0.08812
gfz2012nfos  -0.23351
gfz2012nmja   0.59863
gfz2012oafg  -0.00102
gfz2012oehy   0.02100
gfz2012ofnx   0.69744
gfz2012oork   0.51201
gfz2012pdav  -0.85217
gfz2012phns   0.10003
gfz2012pira   0.10717
gfz2012pmuj  -1.22910
gfz2012pokk   0.40760
gfz2012ppcq  -0.48812
gfz2012pvve  -0.35070
gfz2012qfah   0.17392
gfz2012roan   0.21218
gfz2012rzwp   0.89240
gfz2012sfao   0.95652
gfz2012sgfd  -0.50389
gfz2012sjox  -0.19742
gfz2012smyn   2.27900
gfz2012socz  -0.14504
gfz2012wmmw  -0.55181
gfz2012wowu   0.21186
gfz2012wpen  -0.17150
gfz2012wugc  -0.78335
gfz2012wysg  -0.19237
gfz2012xask  -0.24638
gfz2013fvht   1.24520
gfz2013fvyr  -0.50829
gfz2013gkyn   0.38264
gfz2013gugi   0.87088
gfz2013gurk   0.08042
gfz2013gxye   0.54143
gfz2013gyce  -0.24390
gfz2013hbmi  -0.02836
gfz2013hbtm   0.09846
gfz2013hduf   0.05597
gfz2013hiam   0.32676
gfz2013hqaa   0.19303
gfz2013hvzv  -0.27897
gfz2013hwps  -0.00000
gfz2013icgx  -0.34988
gfz2013icql   0.08905
gfz2013ikic  -0.77819
gfz2013iuyv  -0.88750
gfz2013iwzn   0.57130
gfz2013jfcn  -0.17343
gfz2013jobl   0.29576
gfz2013jrqf   0.06442
gfz2013jzcf   0.09023
gfz2013kats  -0.51591
gfz2013kbbg  -0.93678
gfz2013kbbn   3.14040
gfz2013kcdb   0.09543
gfz2013kjgh  -0.03846
gfz2013kqab   1.27160
gfz2013kslp  -0.09038
gfz2013kxlr  -0.12487
gfz2013kxof   0.60424
gfz2013lbvl   0.36200
gfz2013ljdu   0.17855
gfz2013lqjj   0.20688
gfz2013mdxj  -0.19354
gfz2013mktp   0.22217
gfz2013mvgq  -0.13110
gfz2013mzaw  -0.38820
gfz2013nkgd   0.41477
gfz2013nkgt  -1.52260
gfz2013nnai  -1.34500
gfz2013ntfc   0.18041
gfz2013ntiu  -0.76580
gfz2013ohnj  -0.24243
gfz2013oizq   2.33210
gfz2013onvl   0.30178
gfz2013orot   0.25732
gfz2013oruq  -0.48992
gfz2013osmj   0.57931
gfz2013oywh  -0.95755
gfz2013phhi   0.10874
gfz2013phly   0.70594
gfz2013qdpv   0.06566
gfz2013qdzg  -1.40110
gfz2013qear  -0.79535
gfz2013qigb   0.02731
gfz2013qoak  -0.42960
gfz2013qogb   0.34279
gfz2013quwz  -0.68398
gfz2013quyn   0.95224
gfz2013qwnm   0.18313
gfz2013qxof   0.18855
gfz2013rdmn  -0.58532
gfz2013rhbx  -0.03369
gfz2013rnsa  -0.23388
gfz2013rwkj   0.16162
gfz2013ryph  -0.33017
gfz2013skay  -0.98329
gfz2013skvq  -0.29452
gfz2013stou  -0.29645
gfz2013swnj  -0.65402
gfz2013taeb  -0.53415
gfz2013tekq  -0.03873
gfz2013tjub   0.58492
gfz2013tmyj   0.07868
gfz2013tnrp   0.20599
gfz2013trsq  -0.18293
gfz2013uafv   0.60761
gfz2013udtw   0.06681
gfz2013uepl  -0.15293
gfz2013unuv   0.56140
gfz2013upqj   1.99120
gfz2013utqa   0.78705
gfz2013uugc   0.91078
gfz2013uwjo   0.63071
gfz2013uxzw   2.17690
gfz2013vcgd  -0.27102
gfz2013vdam   0.12038
gfz2013vfix  -0.48968
gfz2013vjrr   1.23550
gfz2013vldx   0.19778
gfz2013vmrv   0.65484
gfz2013vmsg   1.05680
gfz2013vnwa  -1.21020
gfz2013voai  -0.26242
gfz2013vojy   1.03030
gfz2013vvre   0.03927
gfz2013vwkh   0.05566
gfz2013vzel  -0.92844
gfz2013wyfl  -0.75960
gfz2013xahp   0.19985
gfz2013xswc  -0.08374
gfz2013xvps   0.13660
gfz2013ykkf  -1.19120
gfz2013yktj   0.15094
gfz2013ymhx   0.83592
gfz2013yodm  -0.32613
gfz2013yqtu  -1.08270
gfz2013ytfm   0.29357
gfz2013yxhf   0.77544
gfz2013zfbz  -0.02144
gfz2013zkgm  -0.42400
gfz2013zlak  -0.67564
gfz2014aedl  -0.33478
gfz2014ajgi  -1.25860
gfz2014amgk  -0.46201
gfz2014aqax  -0.57078
gfz2014ascp  -0.34287
gfz2014ateb   0.44730
gfz2014ayxf  -1.69460
gfz2014bgxe  -0.07096
gfz2014bgyv   0.42770
gfz2014bkra  -0.80799
gfz2014bmch  -0.36398
gfz2014bnea  -0.03104
gfz2014bzus   0.38926
gfz2014cjao  -0.33374
gfz2014cokw   0.38057
gfz2014ctdl  -0.11088
gfz2014cvnb  -0.11857
gfz2014dggw  -1.09420
gfz2014djyj   0.45592
gfz2014dmrw  -0.41110
gfz2014dpps  -0.39148
gfz2014dtth   0.03946
gfz2014dwcp   0.00000
gfz2014eiav  -0.08677
gfz2014eirs  -0.31386
gfz2014emlw  -0.38391
gfz2014epnq  -0.91355
gfz2014esez   0.23321
gfz2014etgp   0.49860
gfz2014etqu  -2.13970
gfz2014evhm   0.78691
gfz2014fjfz  -0.12711
gfz2014flxk  -0.86093
gfz2014fsir   0.14992
gfz2014fsje   0.01620
gfz2014fsvc   1.21940
gfz2014fvza  -0.36832
gfz2014fwuf  -0.27721
gfz2014fxuy   0.86335
gfz2014grwv  -0.07759
gfz2014gtee   0.48423
gfz2014herz  -0.04631
gfz2014hgjb   3.60660
gfz2014hhey   0.59898
gfz2014hkcw  -0.55062
gfz2014hqhv  -0.33523
gfz2014hyea  -0.13516
gfz2014icov  -0.27794
gfz2014igrp  -0.26868
gfz2014iltl   0.16409
gfz2014inrg   1.92530
gfz2014ipfu  -0.47995
gfz2014iusw  -0.20807
gfz2014jarg  -0.20086
gfz2014jaxy   0.21207
gfz2014jayh  -0.11160
