# Nsamples: 266  MAD:  1.044  mean: -0.012  std:  1.615
gfz2010abfc   0.48397
gfz2010aggj  -0.22994
gfz2010aseg  -1.49390
gfz2010cbnp   0.63359
gfz2010crgy   0.57144
gfz2010crir  -0.33671
gfz2010cyid   1.65700
gfz2010dask  -0.83832
gfz2010djib   2.19190
gfz2010drit  -1.33590
gfz2010drml   0.72214
gfz2010drmq   0.72214
gfz2010dumv   0.32493
gfz2010fgbo  -0.30276
gfz2010fjme   0.53445
gfz2010habf  -0.30885
gfz2010hllp  -0.80736
gfz2010hxan  -0.25836
gfz2010jlvp   1.75160
gfz2010kcyz  -0.34028
gfz2010lvnj  -3.61980
gfz2010mjdl   0.79992
gfz2010mqzz   0.65322
gfz2010onxm  -3.28690
gfz2010pcya   2.44820
gfz2010qzvf  -1.99860
gfz2010rljv   0.11536
gfz2010rnwt   2.53560
gfz2010rpbz   1.76590
gfz2010rpjd  -2.02240
gfz2010upod   1.96190
gfz2010vong  -0.79589
gfz2010wakc  -0.17980
gfz2010xamh   0.84719
gfz2010xnbn   1.45810
gfz2010xzte   0.64286
gfz2010yfdr   0.34569
gfz2010yhhj   2.10500
gfz2010ymih   0.23796
gfz2010zjun  -0.25765
gfz2011ahvh   0.14378
gfz2011ameb  -0.16054
gfz2011bpqm  -0.33730
gfz2011bsvr   2.41530
gfz2011cdge  -0.64513
gfz2011chsa   0.62425
gfz2011dabj   0.43166
gfz2011dpyu   0.77789
gfz2011drmu   0.61385
gfz2011etkc   1.17520
gfz2011gnbk  -0.36000
gfz2011gzde   5.61300
gfz2011hibi  -1.52200
gfz2011hjof  -0.66828
gfz2011hvzo   0.34783
gfz2011iryz  -0.39765
gfz2011jpob  -0.00136
gfz2011jryv  -0.07410
gfz2011kgvq  -0.99281
gfz2011kjzt   1.51810
gfz2011kjzv   0.40135
gfz2011kyzy   0.94573
gfz2011lkkf  -1.41910
gfz2011mjje   1.12590
gfz2011mror  -4.97900
gfz2011ndhh   2.62580
gfz2011ndki   2.37180
gfz2011nejg  -0.42632
gfz2011nejw   2.49350
gfz2011nfcz  -0.79319
gfz2011nftw  -0.28937
gfz2011nijp   3.13710
gfz2011nilw   0.89517
gfz2011nisj  -1.42640
gfz2011niuw   2.62290
gfz2011nlmf   2.52590
gfz2011nssr   8.72300
gfz2011nvty   0.86380
gfz2011oadm   1.10450
gfz2011ohgj   0.73520
gfz2011oqjl   0.12204
gfz2011oslk   0.74903
gfz2011osmp   0.55889
gfz2011ovvj   0.52966
gfz2011owqa  -2.68660
gfz2011paqj   0.45121
gfz2011pdsn   0.47517
gfz2011pfwq   0.51607
gfz2011pgzk  -3.39100
gfz2011plzc   0.28034
gfz2011ppsc   0.90693
gfz2011qenl  -0.64304
gfz2011qukj   0.57425
gfz2011rkau  -1.74470
gfz2011rnny   1.49580
gfz2011scma  -1.29350
gfz2011sdax   0.60360
gfz2011tgon   0.45211
gfz2011tozo   1.70590
gfz2011tqgg  -1.87020
gfz2011tsgl  -0.47439
gfz2011twpz  -0.13064
gfz2011txxs  -0.18663
gfz2011urwz   1.47740
gfz2011uvsi   0.77009
gfz2011vahy  -0.89361
gfz2011vsag   1.75640
gfz2011wfsk  -1.47870
gfz2011wqup  -0.36113
gfz2011wucg   0.26012
gfz2011xgwy   0.40789
gfz2011xlod  -0.66690
gfz2011yexx   0.60993
gfz2011yjtx  -1.10960
gfz2011ymji  -0.55027
gfz2011ypfh   1.81450
gfz2011ytob   0.45807
gfz2012amjx   2.72110
gfz2012bqcf   0.84478
gfz2012bysu   1.87350
gfz2012bytv  -1.12350
gfz2012cdju   0.25675
gfz2012crpb  -0.53074
gfz2012cvfr  -0.31823
gfz2012cwhl   1.15610
gfz2012czvh  -1.00760
gfz2012dttl  -0.35150
gfz2012dugf   1.28750
gfz2012dysu  -2.70960
gfz2012eajr   0.12652
gfz2012ebgo   1.28430
gfz2012ebhf   0.91818
gfz2012ekfp  -6.24930
gfz2012fhaf  -0.21288
gfz2012ftks   1.26090
gfz2012gzuk  -0.96709
gfz2012hzur  -0.12429
gfz2012iijk  -0.55071
gfz2012iroy   0.52224
gfz2012kmbo   0.42512
gfz2012kmmz  -0.00351
gfz2012mcrb   0.21408
gfz2012mjuu   2.27360
gfz2012mmiw  -0.53155
gfz2012mrqk   1.53070
gfz2012nfos  -0.74139
gfz2012oafg  -0.99010
gfz2012ofnx  -3.19830
gfz2012oork   0.46312
gfz2012roan   0.47567
gfz2012sjox   1.01640
gfz2012slfd   1.76500
gfz2012socz  -0.57223
gfz2012sopp   0.14088
gfz2012tgta   0.49057
gfz2012touh  -4.43540
gfz2012tqjc   2.05210
gfz2012uvoa  -2.37080
gfz2012vgot  -0.26957
gfz2012vlzv   0.34862
gfz2012vqmq  -0.22625
gfz2012wgdv   0.41666
gfz2012wgmg   0.33450
gfz2012wgxf  -0.51945
gfz2012wowu  -1.82790
gfz2012xbna   0.02228
gfz2012xfsl   0.08752
gfz2012yegw  -1.34280
gfz2012zhyz  -0.34572
gfz2012zmdf   1.96820
gfz2012zmfc   0.46431
gfz2013afzh  -3.35490
gfz2013agmt  -2.71630
gfz2013akkd   1.31860
gfz2013aymi   0.21078
gfz2013cfls   0.94195
gfz2013cvve   0.09649
gfz2013cyvx  -0.53404
gfz2013delq  -1.17930
gfz2013dftb  -1.48720
gfz2013dzvr   1.01210
gfz2013eidd  -1.45260
gfz2013fnpa   0.45127
gfz2013fulo  -2.09590
gfz2013fvht  -3.80330
gfz2013fybd   1.07030
gfz2013gugi   0.06043
gfz2013gurk  -0.28648
gfz2013hqaa  -0.14061
gfz2013hwps   1.00260
gfz2013icql   1.66010
gfz2013iwhc  -0.30916
gfz2013jfcn  -0.88029
gfz2013jrqf   0.96580
gfz2013kats  -0.22121
gfz2013kqab  -2.24950
gfz2013kxlr   0.42632
gfz2013lgvf   0.58839
gfz2013mdxj  -3.47600
gfz2013nkgd   2.22300
gfz2013nkgt   1.50060
gfz2013onvl  -0.13181
gfz2013oywh  -1.83660
gfz2013phhi  -0.18835
gfz2013qear   1.09060
gfz2013qigb  -2.59160
gfz2013qoak   0.39374
gfz2013quwz   0.83595
gfz2013qxof  -4.41850
gfz2013rdmn   0.46074
gfz2013ryph   0.57720
gfz2013taeb  -2.27020
gfz2013tjub   2.45960
gfz2013ubgt  -5.23800
gfz2013uepl   0.48145
gfz2013unuv   0.19790
gfz2013upqj  -1.23340
gfz2013utqa   0.06939
gfz2013uwjo  -0.51898
gfz2013vldx   0.03366
gfz2013vmrv  -1.49510
gfz2013vnwa  -0.26386
gfz2013vvre  -2.16810
gfz2013wegs  -4.32600
gfz2013wgwz  -2.36780
gfz2013wpns  -0.25053
gfz2013wwee   0.62800
gfz2013wyfl   0.08306
gfz2013xswc   0.18786
gfz2013ygsj   0.61633
gfz2013ykqw  -0.35838
gfz2013ylxm  -1.51850
gfz2013yqkz   0.25634
gfz2013yqtu   0.53654
gfz2013ytfm   1.67980
gfz2013yxhf  -0.48281
gfz2013zlak  -1.13220
gfz2014amgk  -0.50929
gfz2014aqax  -0.42454
gfz2014avzp   0.47589
gfz2014bfjb  -0.60266
gfz2014bgyv   1.47950
gfz2014cokw  -2.60880
gfz2014crac  -0.14085
gfz2014cwti   0.95005
gfz2014eirs  -0.96403
gfz2014eoay   0.00000
gfz2014eunw   0.58337
gfz2014evhm  -0.44595
gfz2014fsir  -0.14622
gfz2014fwxt   0.65334
gfz2014fxte   1.49380
gfz2014fxuy  -1.22870
gfz2014herz  -0.36927
gfz2014hotu  -0.60318
gfz2014hyea   0.38926
gfz2014icov  -1.17440
gfz2014ijsa   0.95911
gfz2014ikvw  -1.26370
gfz2014iltl  -2.41030
gfz2014imqh   2.36240
gfz2014irlf   0.68245
gfz2014irln   0.81116
gfz2014irly   0.04019
gfz2014jarg  -0.04446
gfz2014jfmc   0.28420
