# Nsamples: 812  MAD:  0.445  mean: -0.016  std:  0.708
gfz2010abfc  -0.18933
gfz2010aggj   0.15382
gfz2010aimm  -0.09205
gfz2010aseg  -0.91086
gfz2010asxa  -0.99246
gfz2010azji   0.41725
gfz2010bkfi  -0.21850
gfz2010bklj  -0.58578
gfz2010brlc  -0.00437
gfz2010brrm  -1.03700
gfz2010btme  -0.91784
gfz2010bukb   0.82926
gfz2010byau   1.61480
gfz2010ccse  -1.05590
gfz2010ccye  -0.05027
gfz2010clbw   0.03744
gfz2010cllh  -0.77611
gfz2010cnyi  -0.27255
gfz2010cphq  -1.60520
gfz2010cpig   0.18852
gfz2010crgy   0.03726
gfz2010crir  -0.30078
gfz2010csle  -1.52700
gfz2010csmw   0.05913
gfz2010csqy  -0.71936
gfz2010cthm   5.17360
gfz2010cvkn   0.20744
gfz2010dask  -0.39755
gfz2010diid  -0.45687
gfz2010djib   0.40306
gfz2010dmij  -0.89114
gfz2010dmkd  -0.27409
gfz2010drit  -0.93171
gfz2010drml  -0.32871
gfz2010drmq  -0.32871
gfz2010drpv  -1.68880
gfz2010dslu  -2.28320
gfz2010dwgy  -0.06672
gfz2010ehgf   2.08470
gfz2010eibh  -0.31330
gfz2010ekvl   0.24537
gfz2010elge   0.17626
gfz2010eqyj   0.99851
gfz2010ethu  -0.02059
gfz2010euue  -0.39551
gfz2010ewyj  -0.38286
gfz2010extu  -0.37849
gfz2010faly   0.00875
gfz2010fgbo  -0.18056
gfz2010fjio  -0.37802
gfz2010fjme  -0.75881
gfz2010fkff  -0.29308
gfz2010fnkr  -0.30111
gfz2010fopf   0.85110
gfz2010fqnn   1.17480
gfz2010fuky  -0.10731
gfz2010fvfz   0.42945
gfz2010gcqp   0.19304
gfz2010gcrn  -1.45300
gfz2010gnvp   0.03669
gfz2010gonu  -0.18908
gfz2010habf   0.12638
gfz2010hdxn  -0.52442
gfz2010hesh   0.89116
gfz2010hexh   0.03117
gfz2010hsgv  -0.03462
gfz2010hueh  -0.05258
gfz2010hxan  -0.20125
gfz2010iaay  -0.30212
gfz2010iawy  -0.86865
gfz2010ifhd  -0.26255
gfz2010nteg  -0.69633
gfz2010nwyk   0.46162
gfz2010oguu  -0.04371
gfz2010ogwn   0.46057
gfz2010ojhe  -0.19901
gfz2010okpc  -0.84850
gfz2010ouvm  -1.21470
gfz2010ovvg  -0.12587
gfz2010pclq  -0.23262
gfz2010prnw   0.41032
gfz2010pvnn   0.10908
gfz2010pxoi  -1.54780
gfz2010qbcy  -0.73232
gfz2010qdqk  -0.30437
gfz2010qqqx  -0.34631
gfz2010qrix   0.03104
gfz2010qrta   0.33154
gfz2010qylh  -0.02397
gfz2010qzvf   0.21775
gfz2010rdip   0.12451
gfz2010rkuu  -0.71540
gfz2010rljv   0.04729
gfz2010rnqa  -0.24939
gfz2010rnwt  -0.65352
gfz2010rpbz  -2.21040
gfz2010rpjd  -0.61906
gfz2010schp  -0.14602
gfz2010sdfs   0.09387
gfz2010shvn  -0.09629
gfz2010swqy   0.01025
gfz2010sylk  -0.24029
gfz2010tcgh  -0.58337
gfz2010tfar  -1.24240
gfz2010tgmo  -1.04550
gfz2010tmba  -0.13662
gfz2010tmne  -0.65555
gfz2010tpcj  -0.91942
gfz2010tqyo  -0.18850
gfz2010tzlz   0.05655
gfz2010tzma  -1.03910
gfz2010ugws  -0.13590
gfz2010uhjy  -0.65255
gfz2010uogw   0.09370
gfz2010uyng  -0.59007
gfz2010vdcf   0.13480
gfz2010vfyu  -0.63074
gfz2010vhzx  -0.37740
gfz2010vkca  -0.01996
gfz2010vong  -0.29134
gfz2010vxwv  -0.28773
gfz2010vybx  -0.29660
gfz2010wakc   0.69679
gfz2010wwhf  -0.27603
gfz2010wwnq  -0.33859
gfz2010wyuj   3.17100
gfz2010xamh  -0.36750
gfz2010xaxw   0.30114
gfz2010xhqq  -0.46202
gfz2010xkbz  -0.83305
gfz2010xkku  -0.41523
gfz2010xnbn   0.90400
gfz2010xnwf   0.04368
gfz2010xpzq  -0.00925
gfz2010xvev   0.07813
gfz2010xzte  -0.47973
gfz2010yczp  -0.17438
gfz2010yfdr   0.11867
gfz2010yilf   0.25655
gfz2010ymih  -0.46406
gfz2010yrex   0.39330
gfz2010yspe   1.68890
gfz2010ytzb   0.28329
gfz2010zaxv  -0.68532
gfz2010zhvj   0.60498
gfz2010zjun   0.04991
gfz2011afyc   0.04877
gfz2011ahvh  -0.34988
gfz2011aqpp   0.17807
gfz2011bcvc  -1.37370
gfz2011biin   1.11400
gfz2011boaz   0.37207
gfz2011bpqm   0.42697
gfz2011bqbx  -0.57814
gfz2011bsvr   0.81495
gfz2011bvog   3.01960
gfz2011bwsm  -0.51622
gfz2011bygs  -0.14927
gfz2011bygu  -0.13704
gfz2011bzio  -0.52198
gfz2011caca   0.77241
gfz2011cdge  -0.41353
gfz2011cfyy  -1.45330
gfz2011chsa  -0.22559
gfz2011cjuz   0.09131
gfz2011clwu  -0.47099
gfz2011cwzi   0.16066
gfz2011cxdj  -0.27040
gfz2011dabj   0.34827
gfz2011dhfg   0.01860
gfz2011dpyu   0.06423
gfz2011duvm   0.00000
gfz2011dwae   0.07083
gfz2011emzr  -0.30460
gfz2011etkc   0.67309
gfz2011ffdh  -0.10949
gfz2011fnie  -0.34831
gfz2011fnuk  -0.09252
gfz2011fszl  -0.25386
gfz2011fxmf  -0.18326
gfz2011fyfu  -0.11607
gfz2011fzcw  -0.28966
gfz2011gaax  -0.07487
gfz2011gfer  -0.07509
gfz2011ggnl  -3.18090
gfz2011gnbk   0.01701
gfz2011gpyr  -0.07466
gfz2011haaa   0.12277
gfz2011hatg  -0.03785
gfz2011hibi   1.25200
gfz2011hjof  -0.31123
gfz2011hmnw   0.18525
gfz2011hqjs   0.24340
gfz2011hrgt   0.41198
gfz2011hvzo  -1.13680
gfz2011hyct   0.52420
gfz2011iamf   0.19652
gfz2011ibew   0.11443
gfz2011ifta  -0.04252
gfz2011ioch  -1.30550
gfz2011iryz  -0.09409
gfz2011itcv  -0.32399
gfz2011ixpj  -0.17679
gfz2011iybf  -0.42945
gfz2011jdoz  -0.04827
gfz2011jghq  -0.15759
gfz2011jphj  -0.33972
gfz2011kgvq  -0.32296
gfz2011kjzt   0.06843
gfz2011kjzv  -0.99354
gfz2011kujo  -0.38318
gfz2011kylu   0.07057
gfz2011kymm  -2.20770
gfz2011kyzy   0.12056
gfz2011ldgl  -0.29781
gfz2011lkkf   0.83401
gfz2011lmug   0.04564
gfz2011lwmg   0.40337
gfz2011lykm   0.71511
gfz2011mdyq  -0.17397
gfz2011mjje   0.13128
gfz2011mllb  -0.23602
gfz2011mntq  -0.08656
gfz2011mror  -4.76850
gfz2011nblt   0.30244
gfz2011ncyw  -2.02480
gfz2011ndhh  -0.41175
gfz2011ndse   0.40435
gfz2011nejg  -0.22154
gfz2011nejw  -0.54870
gfz2011nfcz   0.28878
gfz2011nftw   0.45453
gfz2011nhby   0.51110
gfz2011nhhd   0.47755
gfz2011nilw   0.15531
gfz2011niuw  -0.02549
gfz2011nkou  -0.51614
gfz2011nlnl   1.35670
gfz2011nlum  -1.11730
gfz2011nmdz  -0.29034
gfz2011nnda  -0.03075
gfz2011nnos  -0.69372
gfz2011nsej   0.07838
gfz2011nsiy  -0.49099
gfz2011nsrx  -0.17167
gfz2011nssr   0.96552
gfz2011nswi   0.03936
gfz2011nuqo  -0.89906
gfz2011oadm   0.05376
gfz2011oekz  -0.96265
gfz2011ofpj  -0.18345
gfz2011omxt   0.09661
gfz2011oosp  -0.29676
gfz2011oslk   0.32663
gfz2011osmp  -0.38085
gfz2011owqa   0.97330
gfz2011paqj  -0.20524
gfz2011pbgh   1.23400
gfz2011pbjh  -0.07487
gfz2011pdgq   0.20564
gfz2011pfls  -0.26783
gfz2011pfwq  -0.93643
gfz2011pgzk   0.21660
gfz2011pimj  -0.05582
gfz2011pivq  -0.34543
gfz2011plzc  -0.42415
gfz2011pmuv   0.43394
gfz2011poug   0.14924
gfz2011pphc   0.26045
gfz2011ppsc  -0.31959
gfz2011prrq  -0.17367
gfz2011pulu  -0.86911
gfz2011pwbw  -0.46725
gfz2011qenl   0.08343
gfz2011qgvh   0.07109
gfz2011qgvx   3.81020
gfz2011qhjw  -0.69556
gfz2011qlkj   0.08045
gfz2011qtoy   1.80830
gfz2011qukj  -0.60700
gfz2011rczb  -0.19940
gfz2011rkau   0.20776
gfz2011rnsp   0.34449
gfz2011scma   0.60310
gfz2011sdax  -0.21670
gfz2011sdpl   0.62379
gfz2011sfph  -0.11024
gfz2011sqco   1.00400
gfz2011sskq   0.29690
gfz2011stzi  -0.08842
gfz2011sxno  -0.26578
gfz2011syvj   0.33071
gfz2011syzr  -0.02016
gfz2011taqr   0.21344
gfz2011tdjj  -0.25266
gfz2011tgon   2.88840
gfz2011tlwl   0.72683
gfz2011tqgg   0.30269
gfz2011tsgl  -0.22961
gfz2011tssv  -0.00835
gfz2011tvuv  -0.32414
gfz2011uowi  -0.09166
gfz2011uqlz  -1.04140
gfz2011uqry  -0.45297
gfz2011vahy   0.15538
gfz2011vcyx   2.26830
gfz2011vemg   2.11980
gfz2011vimn   0.10199
gfz2011vsag  -1.14480
gfz2011vswj   0.22051
gfz2011vtzv   0.38264
gfz2011wbtc  -0.04877
gfz2011wcvs  -2.08780
gfz2011wkja  -0.00000
gfz2011wkyx   1.28520
gfz2011wngi   0.14128
gfz2011wpzt   0.15251
gfz2011wqup  -0.03585
gfz2011wtfn  -1.04360
gfz2011wucg   0.13096
gfz2011wwze   0.51192
gfz2011wyei  -2.09330
gfz2011wzss   0.41428
gfz2011xdox   0.91650
gfz2011xgbc  -0.51811
gfz2011xgwy  -0.41934
gfz2011xkka  -0.04033
gfz2011xlod   0.15275
gfz2011xnui   0.03287
gfz2011xpcq   0.22641
gfz2011xxng  -0.53271
gfz2011yexx   0.40773
gfz2011ypfh   0.72022
gfz2011ytob  -0.09589
gfz2011zghc   0.44587
gfz2011zgxn   0.33468
gfz2011zkbt   0.13057
gfz2012adja   0.46126
gfz2012ahac  -0.09870
gfz2012alti   0.31259
gfz2012amjx   0.70076
gfz2012amvs   0.18402
gfz2012aqpa   0.48030
gfz2012arlo  -0.57925
gfz2012asld   0.59527
gfz2012atjr  -0.47050
gfz2012bcvn  -0.33212
gfz2012beae   0.61093
gfz2012bity   0.09523
gfz2012bolx   1.22970
gfz2012bovy  -0.02091
gfz2012bqcf   0.25853
gfz2012byrq   2.00110
gfz2012cdju   0.39507
gfz2012cksh  -0.57447
gfz2012cmww   0.17840
gfz2012cntu  -0.02208
gfz2012cvfr   0.10257
gfz2012cwhl   2.02280
gfz2012cxhw  -0.68989
gfz2012dcjd   0.08758
gfz2012dejg  -0.25064
gfz2012dleg   1.84400
gfz2012dnig   0.13399
gfz2012dpnu  -0.37747
gfz2012dpwv   0.78256
gfz2012drqd   1.48960
gfz2012dsei  -0.12231
gfz2012dtlu   0.38698
gfz2012dttl  -0.08135
gfz2012dwwu   0.41127
gfz2012dyck   0.48162
gfz2012dysu   0.41507
gfz2012dzjo  -0.36209
gfz2012dzot  -0.35506
gfz2012ebrr  -0.14263
gfz2012eeft   0.35674
gfz2012enio   0.61969
gfz2012erds  -0.30583
gfz2012evav  -0.01457
gfz2012fbgz   0.77596
gfz2012fhaf   0.93793
gfz2012flqf   0.39524
gfz2012foih  -0.73325
gfz2012fuyd   1.57560
gfz2012fyny  -0.25575
gfz2012gbrs   1.50600
gfz2012gdye   0.14289
gfz2012ghiv  -0.30842
gfz2012gjdg  -0.70241
gfz2012gjtd   0.56549
gfz2012gnow  -0.07008
gfz2012gpcd  -0.06618
gfz2012grmf   0.38555
gfz2012heih   0.16567
gfz2012hmcv  -0.13919
gfz2012hvfw  -0.10897
gfz2012hvtu   1.32550
gfz2012hzhn  -1.11060
gfz2012ibyd   0.22043
gfz2012icjo   0.07960
gfz2012iijk  -0.64829
gfz2012ipdc   0.07883
gfz2012iphs  -1.32430
gfz2012izke   0.44143
gfz2012jlez  -0.00000
gfz2012kbub  -2.34240
gfz2012klpl  -0.16520
gfz2012kmbo  -0.11775
gfz2012kmmz   0.08335
gfz2012kstg   0.12705
gfz2012ldjj   0.09151
gfz2012lngq  -0.98116
gfz2012lqhw  -0.43550
gfz2012luzm  -0.28241
gfz2012lvlr  -0.25404
gfz2012lwha  -0.51956
gfz2012lyyr   0.06789
gfz2012mdzf  -0.29931
gfz2012mjuu  -0.14961
gfz2012mmiw   0.10192
gfz2012mowv  -0.34319
gfz2012mpzo   0.59655
gfz2012mrqk   0.87144
gfz2012mrwu   0.16433
gfz2012mtyn  -0.06030
gfz2012mvgu   0.41506
gfz2012mwhe   0.32677
gfz2012mxdk  -0.82956
gfz2012mzqx   0.05292
gfz2012ndwt   0.16602
gfz2012nfos   1.19250
gfz2012nldz   1.64620
gfz2012nnqu   0.26791
gfz2012nnsl  -0.88271
gfz2012nqvd  -0.35462
gfz2012nsxc   0.14724
gfz2012oafg   0.08315
gfz2012oehy   0.15078
gfz2012ofnx   0.74672
gfz2012onhu   0.57544
gfz2012oork  -0.00000
gfz2012oozp  -0.94940
gfz2012pdav   0.34633
gfz2012phns  -0.31299
gfz2012pira   0.48717
gfz2012pmuj   0.26937
gfz2012ppcq  -0.05041
gfz2012prke  -0.07941
gfz2012pryl  -0.12744
gfz2012pvve   0.29786
gfz2012qbbt  -0.30429
gfz2012qfah   0.80911
gfz2012qhqp   1.16700
gfz2012qibe   0.26020
gfz2012qmhz  -0.72224
gfz2012rduv   0.76287
gfz2012roan  -0.41458
gfz2012rzwp  -0.32691
gfz2012sgfd  -0.73553
gfz2012sjox   0.65879
gfz2012smyn  -0.65341
gfz2012socz   0.00869
gfz2012sopp   0.63931
gfz2012sqsc  -0.86576
gfz2012ssnb  -2.13250
gfz2012suqd  -1.06470
gfz2012svwz   0.22885
gfz2012swbz   0.10382
gfz2012sxbo  -0.00761
gfz2012sxzs  -0.23364
gfz2012syum   0.05978
gfz2012taph   0.39976
gfz2012tisj  -0.53057
gfz2012touh  -0.28465
gfz2012trss  -0.43219
gfz2012ttnf  -0.04639
gfz2012tvgw  -0.60598
gfz2012twec  -0.17410
gfz2012tyoz  -1.06140
gfz2012uhsx   0.14705
gfz2012uhtc   0.04130
gfz2012ulei  -0.21340
gfz2012umob   0.25798
gfz2012uvoa  -0.08530
gfz2012uzww   0.00199
gfz2012vcqw  -0.38940
gfz2012vitw   0.28629
gfz2012vkjw  -0.54917
gfz2012vlzv  -0.43921
gfz2012vnve   0.75630
gfz2012vqmq  -0.08437
gfz2012vrqz  -0.00000
gfz2012wgdv  -0.27520
gfz2012wgmg  -0.36250
gfz2012wkki   0.48510
gfz2012wowu  -0.77410
gfz2012woxj   0.07591
gfz2012wpen  -0.06223
gfz2012wugc  -0.47749
gfz2012wysg   0.27164
gfz2012xask   0.39040
gfz2012xbna   0.44508
gfz2012xcsf   0.53620
gfz2012xfsl  -0.40462
gfz2012xkln   0.13559
gfz2012xlas  -0.63610
gfz2012xlfo  -0.52685
gfz2012xncm   0.23459
gfz2013ddrx   1.81640
gfz2013delq  -0.28168
gfz2013dksc   0.41456
gfz2013dmzh   0.08722
gfz2013dngd  -1.48660
gfz2013dnot   0.00717
gfz2013dzvr   0.06646
gfz2013eavq   0.50432
gfz2013eazm  -0.19215
gfz2013efct   0.26492
gfz2013eidd  -0.16337
gfz2013enqo  -0.40753
gfz2013fhzy   0.16749
gfz2013fmcd   0.62695
gfz2013fndg   0.27604
gfz2013fnpa   0.59106
gfz2013fskp   0.36081
gfz2013fthi  -0.15411
gfz2013fulo   0.42429
gfz2013fvht   0.24115
gfz2013fvyr  -0.20061
gfz2013fxyr  -0.27513
gfz2013fybd  -0.22366
gfz2013gkyn   0.36285
gfz2013glpz  -0.40499
gfz2013gugi   0.48300
gfz2013gurk   0.29686
gfz2013gxye   0.29372
gfz2013gyce   0.90308
gfz2013gywl   0.67482
gfz2013hbmi   0.81546
gfz2013hbtm   0.49246
gfz2013hduf   0.65938
gfz2013hiam   0.22739
gfz2013hinw   0.59490
gfz2013hqaa  -0.12077
gfz2013hvkg  -0.87769
gfz2013hvzv   0.24202
gfz2013hwps   0.69840
gfz2013icgx   0.12316
gfz2013icql   0.21645
gfz2013ikic   0.68093
gfz2013irme   0.20538
gfz2013iuyv   0.46706
gfz2013ivvw  -0.27925
gfz2013iwzn  -0.57243
gfz2013jfcn   0.06229
gfz2013jhog   0.31184
gfz2013jobl   0.10661
gfz2013jrqf  -0.32415
gfz2013jzcf   0.66537
gfz2013jzfz   0.54768
gfz2013kats   0.38038
gfz2013kbbg  -0.12248
gfz2013kbbn   0.70022
gfz2013kcdb   0.28122
gfz2013kdfy   0.11692
gfz2013kqab  -0.34797
gfz2013ksaz   0.24826
gfz2013kslp   0.18159
gfz2013kxlr  -0.04852
gfz2013lbod  -0.33552
gfz2013lbvl   0.22363
gfz2013ljdu   0.24953
gfz2013ljwt   0.02557
gfz2013lqjj   0.05657
gfz2013lvxe  -0.12426
gfz2013mdxj   0.50600
gfz2013mynb  -0.28797
gfz2013mzaw   0.26598
gfz2013nnai   0.66252
gfz2013ntiu  -1.14700
gfz2013obof  -0.06042
gfz2013oeni   0.33561
gfz2013ohnj  -0.03287
gfz2013oizq   0.15180
gfz2013ojza  -0.23783
gfz2013okac  -0.23259
gfz2013okxa  -0.00451
gfz2013olos   0.77680
gfz2013orot  -0.26189
gfz2013oruq  -0.10015
gfz2013otuj   0.20033
gfz2013oywh   0.00000
gfz2013phhi  -0.79626
gfz2013pkmz  -0.43410
gfz2013pqkp   0.36952
gfz2013pzdr   0.39183
gfz2013qaex   0.46003
gfz2013qapj  -0.36008
gfz2013qdks   0.77953
gfz2013qdno   0.08235
gfz2013qdpv   0.41964
gfz2013qear  -0.69631
gfz2013qigb   0.07219
gfz2013qnqr   0.30007
gfz2013qoak   0.40732
gfz2013qogb   0.51913
gfz2013quwz   0.08088
gfz2013quyn   0.54744
gfz2013qxof  -0.01757
gfz2013rdmn  -0.77068
gfz2013rfik   0.01611
gfz2013rhbx   0.62159
gfz2013rnsa   0.53584
gfz2013rocs  -0.02984
gfz2013rtvy  -0.28312
gfz2013rwkj  -0.15533
gfz2013rwog  -0.09404
gfz2013ryfc   0.25941
gfz2013ryph  -0.59358
gfz2013sbsl   0.00000
gfz2013sdkg   0.22356
gfz2013skay   0.16014
gfz2013skvq  -0.00000
gfz2013stou   0.06123
gfz2013swnj  -0.28550
gfz2013syqp   0.50250
gfz2013taeb  -0.15399
gfz2013tcju  -0.35965
gfz2013tekq   0.12056
gfz2013tert   0.19492
gfz2013tgia   0.17791
gfz2013tgyb   0.38879
gfz2013timw  -0.21756
gfz2013tkcg   0.36637
gfz2013tmnf   0.05885
gfz2013tnrp   0.30413
gfz2013trsq   0.37076
gfz2013ttmk  -0.18441
gfz2013twbc   0.64133
gfz2013uafv  -0.18579
gfz2013ubgt   0.82476
gfz2013udtw   0.46324
gfz2013uenl   0.76996
gfz2013uepl  -0.37009
gfz2013uhio  -0.59637
gfz2013unuv   0.24990
gfz2013upqj  -1.99810
gfz2013utqa  -0.08298
gfz2013uwjo  -0.66687
gfz2013uxzw  -1.14230
gfz2013uzmf   0.13105
gfz2013vdam   0.22896
gfz2013veoz   0.47671
gfz2013veug   0.05231
gfz2013vfix   0.06278
gfz2013vjrr  -0.32329
gfz2013vldx  -0.27086
gfz2013vmrv  -0.20709
gfz2013vmsg  -0.55405
gfz2013vnwa   0.42173
gfz2013voai  -0.04448
gfz2013vojy   0.06283
gfz2013vsdd   0.03624
gfz2013vvre  -0.94799
gfz2013vwkh  -0.18405
gfz2013vxht   0.81999
gfz2013wgwz   1.00390
gfz2013wpns  -0.04726
gfz2013wyfl  -0.16221
gfz2013xahp   0.32325
gfz2013xbdc  -0.53894
gfz2013xodn   0.10365
gfz2013xofz   0.61791
gfz2013xswc  -0.24687
gfz2013xupg   0.26844
gfz2013xuxr   0.31973
gfz2013xvps   0.38151
gfz2013xxbf   0.21146
gfz2013xycz  -0.01552
gfz2013xzxe   0.69571
gfz2013ygsj  -2.35910
gfz2013yihv   0.00000
gfz2013ykkf  -0.26739
gfz2013ykqw   1.13640
gfz2013yktj  -0.05320
gfz2013ylxm   0.16949
gfz2013ylxn   0.12800
gfz2013ymhx  -0.04371
gfz2013yodm   0.17836
gfz2013yqkz  -0.04616
gfz2013yqtu  -0.43050
gfz2013yvnj  -0.12686
gfz2013yxhf  -0.01957
gfz2013yxif  -0.12139
gfz2013zeye  -0.44881
gfz2013zfbz   0.29231
gfz2013zghn  -0.51743
gfz2013zkta  -1.41690
gfz2013zkzb   0.05121
gfz2013zlak  -0.26987
gfz2013zlij   0.24472
gfz2013zpwk   0.24889
gfz2013zqan   0.13629
gfz2014aaae  -1.37060
gfz2014aapq   0.06269
gfz2014aedl   0.28306
gfz2014aejh   0.07696
gfz2014ajgi   0.10813
gfz2014amgk  -0.91223
gfz2014aqop   0.07163
gfz2014ascp  -0.35054
gfz2014ateb  -0.51265
gfz2014avmd   0.60433
gfz2014bkra   1.98340
gfz2014bmdf  -1.03600
gfz2014bnea   0.40343
gfz2014bqpm   0.46472
gfz2014buyz  -0.29334
gfz2014byes  -0.47966
gfz2014bzus   0.16508
gfz2014cgoi   0.09208
gfz2014cjao   0.26731
gfz2014ckqv  -0.19442
gfz2014cokw   0.17877
gfz2014crac   0.18249
gfz2014ctdl   0.38599
gfz2014cvnb   0.16554
gfz2014cwti   0.86005
gfz2014dykt   0.00496
gfz2014edjm  -0.05720
gfz2014eiav   1.15900
gfz2014eirs   0.17587
gfz2014emlw   0.86045
gfz2014eoay   0.03322
gfz2014epfm  -0.09266
gfz2014epue   0.91485
gfz2014esez  -0.12179
gfz2014etgp   0.01987
gfz2014etqu   0.24678
gfz2014eunw  -0.29451
gfz2014evgu  -0.02346
gfz2014exxj  -0.57907
gfz2014ezjq  -1.29430
gfz2014faex  -1.10060
gfz2014fbef   0.38863
gfz2014fbli   0.18080
gfz2014fbnr  -1.65520
gfz2014fhki  -0.89937
gfz2014fjfz  -0.01109
gfz2014flxk   0.60687
gfz2014fqas   0.09131
gfz2014fsir   0.29125
gfz2014fsje   0.06043
gfz2014fskh   0.03981
gfz2014fvza  -0.26118
gfz2014fwuf   0.56431
gfz2014fwxt  -0.05721
gfz2014fxte  -0.07209
gfz2014fxtv  -0.22251
gfz2014fxuy  -0.21614
gfz2014gasb   0.39977
gfz2014gbxg  -0.75446
gfz2014gcia   0.48157
gfz2014geln  -0.44709
gfz2014ginr   0.09852
gfz2014gnbw   0.09605
gfz2014gnvp   0.13036
gfz2014grwv  -0.29787
gfz2014gsfc  -0.36508
gfz2014gssz   0.11290
gfz2014gtee  -0.15507
gfz2014gtoj   0.13505
gfz2014gypw   1.14880
gfz2014hapg  -0.19483
gfz2014happ   0.12681
gfz2014herz   0.15891
gfz2014hhey  -0.41229
gfz2014hhis  -0.20107
gfz2014hjmc  -0.52762
gfz2014hkcw   0.03075
gfz2014hotu  -0.39605
gfz2014hqhv  -0.00000
gfz2014huqh  -0.41289
gfz2014hyea  -0.34913
gfz2014hzzf  -0.26601
gfz2014iayo   0.33237
gfz2014icov  -0.92799
gfz2014igrp   0.20238
gfz2014ijov  -0.12065
gfz2014ijsa  -1.40800
gfz2014iltl   0.53444
gfz2014ined  -2.19720
gfz2014inrg  -1.40000
gfz2014iolv  -0.03101
gfz2014ipfu   0.27908
gfz2014ipwk  -0.37814
gfz2014irlf   1.02700
gfz2014irln   1.22170
gfz2014isjg   0.23322
gfz2014itlx   0.99347
gfz2014iusw   0.20796
gfz2014ivgm  -0.28390
gfz2014ixlc   0.25001
gfz2014iyuc   0.18285
gfz2014jarg   0.09365
gfz2014jaxy  -0.34379
gfz2014jayh   0.28449
gfz2014jbfp  -0.20709
gfz2014jbgm  -0.59020
gfz2014jcbj   0.18559
gfz2014jfmc  -1.72250
