# Nsamples: 9  MAD:  0.439  mean:  0.920  std:  0.422
gfz2012wowu   1.07940
gfz2012xncm   0.73500
gfz2012zkhu   0.98673
gfz2013icql   1.03690
gfz2013kats   1.49860
gfz2013kbbg   0.12238
gfz2013kcdb   0.68889
gfz2014fsir   1.43820
gfz2014gsfc   0.69061
