# Nsamples: 18  MAD:  0.570  mean: -1.308  std:  0.921
gfz2013bwgw  -1.95690
gfz2013cokc  -2.11820
gfz2013ddrx  -1.60480
gfz2013dngd  -1.86970
gfz2013dwsp   1.47970
gfz2013gsnl  -1.58440
gfz2013iwzn  -0.09537
gfz2013mvgq  -2.22530
gfz2013ntiu  -0.61679
gfz2013pvsa  -1.78330
gfz2013xmzw  -0.78622
gfz2013yawe  -1.41900
gfz2014ayxf  -2.47840
gfz2014bkra  -1.20240
gfz2014etqu  -1.17400
gfz2014eysf  -1.86860
gfz2014gnbw  -1.13820
gfz2014huqh  -1.10120
