# Nsamples: 23  MAD:  0.654  mean:  1.151  std:  0.902
gfz2010rhvu   1.53470
gfz2010sdfs   2.03670
gfz2010tpcj   1.25540
gfz2010tzma  -0.06019
gfz2010ugws   3.05100
gfz2010xpzq   0.92286
gfz2011cdge   0.11012
gfz2011mllb   1.24510
gfz2011nlum   0.81718
gfz2011rkau   1.03410
gfz2011scma   0.87991
gfz2011sqco   0.20648
gfz2011tsgl   0.58479
gfz2011wzss   0.59564
gfz2012dleg   1.20760
gfz2012gmsr   2.95610
gfz2013dngd   0.48194
gfz2013kbbg   0.18895
gfz2013kcdb   0.63748
gfz2013mvgq   0.55946
gfz2013oywh   2.96570
gfz2013taeb   1.70810
gfz2013vnwa   1.55370
