# Nsamples: 11  MAD:  1.162  mean:  0.707  std:  1.203
gfz2011nejg   1.11700
gfz2011nejw   1.98970
gfz2011nhvt  -0.04757
gfz2011nsiy   0.88161
gfz2011tsgl   1.60690
gfz2012bnwa  -1.22690
gfz2012byrq   0.33331
gfz2012hzur   1.21570
gfz2012suqd   2.08920
gfz2013kcdb   1.31520
gfz2013ntiu  -1.49220
