# Nsamples: 14  MAD:  0.662  mean:  1.547  std:  0.730
gfz2012gmsr   2.82250
gfz2012hzur   1.09870
gfz2012iotw   2.50490
gfz2012nsxc   1.57430
gfz2012rjlp   1.99130
gfz2012suqd   1.51970
gfz2012ulei   1.20100
gfz2013kcdb   1.52120
gfz2013rdmn   1.49030
gfz2013tert   0.98140
gfz2013vmsg   1.53990
gfz2013vzel   0.13379
gfz2014flxk   2.50750
gfz2014huqh   0.76459
