# Nsamples: 24  MAD:  0.960  mean:  2.290  std:  0.970
gfz2010dmij   2.89880
gfz2010msss   3.77980
gfz2010pgpo   4.11510
gfz2010rhvu   4.25990
gfz2010zhvj   2.55810
gfz2011bqbx   2.18010
gfz2011bsvr   1.95950
gfz2011cdge   1.44300
gfz2011fnie   3.17380
gfz2011hvzo   2.27360
gfz2011mllb   2.27490
gfz2011ndki   1.35200
gfz2011nejg   2.24170
gfz2011nsiy   2.00740
gfz2011nssr   2.02820
gfz2011nuqo   1.31710
gfz2011nvty   2.77700
gfz2011nyzk   1.98520
gfz2011okza   0.12780
gfz2011pfwq   1.30190
gfz2011qowe   3.05690
gfz2011txxs   1.29890
gfz2011urwz   2.81770
gfz2011vcyx   1.72480
