# Nsamples: 39  MAD:  1.262  mean:  1.478  std:  1.384
gfz2010ugws   4.27150
gfz2010umxj   1.08380
gfz2010umyp   0.55957
gfz2010uogw   1.15200
gfz2011bqbx   1.93490
gfz2011bsvr   1.07010
gfz2011cdge   2.96390
gfz2011exxq   4.17960
gfz2011fnie   1.78690
gfz2011hvzo   3.61200
gfz2011jryv  -1.15940
gfz2011mllb   0.40000
gfz2011ndki   0.81312
gfz2011ndlh   3.62780
gfz2011nejg   0.82530
gfz2011nimp   2.54080
gfz2011nlnl   0.30178
gfz2011nsiy   0.12551
gfz2011nsyi   0.20877
gfz2011nuqo   2.00690
gfz2011pfwq   0.73157
gfz2011twpz   1.01680
gfz2011txxs   0.62504
gfz2011udxo   1.23350
gfz2011urwz   2.83620
gfz2011ymji  -1.46220
gfz2012byrq   1.01630
gfz2012dysu   3.23710
gfz2012hhlx   0.10983
gfz2012hzur   1.14090
gfz2012kbub   0.95872
gfz2012suqd   1.05390
gfz2012wowu   3.88360
gfz2012xlfo   2.58680
gfz2013aggr  -0.16169
gfz2013ntiu   0.53567
gfz2013rdmn   1.52840
gfz2013tert   2.22760
gfz2013vmsg   2.22050
