# Nsamples: 7  MAD:  0.947  mean:  1.473  std:  1.484
gfz2011ahvh   3.02780
gfz2011dpyu   1.88760
gfz2011ndhh   2.28820
gfz2011uqry   2.28120
gfz2012ekfp   1.13030
gfz2012mjuu   1.24890
gfz2012mjzl  -1.54980
