# Nsamples: 417  MAD:  0.562  mean:  0.019  std:  0.859
gfz2010abfc  -0.35323
gfz2010aggj  -0.11212
gfz2010aimm  -0.02032
gfz2010azji   0.27315
gfz2010ccse  -0.43279
gfz2010ccye   0.32507
gfz2010cllh  -0.79674
gfz2010crgy  -0.28318
gfz2010crir  -0.53687
gfz2010dask  -0.55889
gfz2010djib  -0.11574
gfz2010drit  -0.25851
gfz2010drml   0.41323
gfz2010drmq   0.41323
gfz2010fjme  -0.53529
gfz2010fnkr   0.75850
gfz2010fqzh  -1.08800
gfz2010gonu  -0.27673
gfz2010habf   0.23893
gfz2010hsgv  -0.61167
gfz2010hxan   0.47179
gfz2010iawy  -0.04913
gfz2010jcby   0.28718
gfz2010jdhk   0.04545
gfz2010jlvp  -0.18311
gfz2010kcdq   4.40130
gfz2010lvnj  -0.60391
gfz2010mdti   0.62029
gfz2010mqzz  -0.26436
gfz2010ngge  -0.64724
gfz2010oguu   0.32737
gfz2010ouvm   0.34363
gfz2010ovvg  -1.24960
gfz2010pclq   0.13295
gfz2010pgpo   0.40429
gfz2010prnw   0.66607
gfz2010pzza  -0.35626
gfz2010qrta  -0.08671
gfz2010rdip  -2.06390
gfz2010rhvu   4.08670
gfz2010rkuu  -0.91339
gfz2010rljv   0.11030
gfz2010rnqa   5.22220
gfz2010rnwt  -2.89430
gfz2010rpjd  -1.71990
gfz2010schp  -0.24248
gfz2010scht   0.31344
gfz2010sdfs   1.98250
gfz2010tmba   0.42449
gfz2010tqyo   0.16576
gfz2010tzma  -0.27158
gfz2010ugws   1.14010
gfz2010uhjy  -0.36106
gfz2010upod  -1.55960
gfz2010vong  -0.61158
gfz2010vybx   0.33596
gfz2010xamh  -0.68708
gfz2010xaxw   1.58950
gfz2010xpzq  -0.26366
gfz2010yfdr  -0.06862
gfz2010ymih  -0.11059
gfz2010yrex   1.39640
gfz2010ytzb   0.13298
gfz2010zhvj   1.19330
gfz2010zjun   0.47457
gfz2011ahvh  -0.33609
gfz2011amst  -1.11950
gfz2011aqpp   0.70475
gfz2011bpqm   0.36992
gfz2011bqbx   1.65480
gfz2011bsvr  -0.41236
gfz2011bygs   0.44473
gfz2011bygu   0.85739
gfz2011cdge   0.10908
gfz2011cjuz  -1.80840
gfz2011clwu  -0.77657
gfz2011dabj   0.58275
gfz2011dpyu  -0.29406
gfz2011emzr  -0.38291
gfz2011etkc   0.62557
gfz2011fnie   0.24068
gfz2011fszl   0.83654
gfz2011fzcw   1.29230
gfz2011gfer  -0.04896
gfz2011ggnl  -0.01673
gfz2011glpg  -0.38241
gfz2011gnbk  -0.09812
gfz2011gpyr   0.59611
gfz2011haaa   0.13104
gfz2011hffq  -1.11880
gfz2011hqjs   0.91490
gfz2011iryz  -0.00093
gfz2011ituo  -0.03581
gfz2011kgvq  -1.04890
gfz2011kjzt  -0.41241
gfz2011kjzv  -2.12650
gfz2011kylu  -1.26430
gfz2011kyzy   0.00000
gfz2011mjje  -0.15892
gfz2011ndhh  -0.76912
gfz2011nfcz   0.04432
gfz2011nijp  -0.80686
gfz2011nsiy   0.05930
gfz2011nuqo  -0.44705
gfz2011oazk   0.38910
gfz2011oekz  -0.77456
gfz2011ofpj   0.31842
gfz2011ohgj  -0.71893
gfz2011oslk   0.22112
gfz2011owqa  -0.47340
gfz2011paqj  -0.40432
gfz2011pgzk   0.09583
gfz2011pmuv  -0.48561
gfz2011ppsc   0.87747
gfz2011prrq  -0.54078
gfz2011pwbw   0.19188
gfz2011qenl   0.35780
gfz2011qgea   1.15430
gfz2011qukj   0.91981
gfz2011sdax   0.24805
gfz2011sqco  -0.00000
gfz2011sxno   0.22590
gfz2011syzr  -0.91883
gfz2011tdjj   0.42193
gfz2011tlwl  -0.70432
gfz2011tozo   0.13217
gfz2011tqgg   0.95437
gfz2011tsgl  -0.02602
gfz2011txxs   0.39897
gfz2011uowi  -0.57429
gfz2011vahy   0.23100
gfz2011vimn  -0.43680
gfz2011wcvs  -2.07990
gfz2011wnjg  -0.96076
gfz2011wpzt  -0.10085
gfz2011wucg   0.12271
gfz2011wwze   0.46084
gfz2011xagc  -0.13191
gfz2011xgwy  -0.48737
gfz2011xkka   1.05720
gfz2011yexx  -0.07931
gfz2011ypfh   0.59179
gfz2011zghc  -0.01225
gfz2011zkbt   0.15584
gfz2012ahac  -0.76321
gfz2012alti   0.15361
gfz2012amvs   0.36753
gfz2012arlo  -0.49545
gfz2012bity  -0.22599
gfz2012bqcf  -0.02381
gfz2012cdju  -0.32512
gfz2012cntu  -0.13044
gfz2012dkdy   0.39551
gfz2012dpnu   0.66577
gfz2012dtdt   0.21295
gfz2012dttl  -0.19864
gfz2012dwwu  -0.86935
gfz2012dysu   1.89150
gfz2012dzot   1.05370
gfz2012ebrr   0.38147
gfz2012ekfp  -0.79697
gfz2012ekro   1.38240
gfz2012elek   1.11880
gfz2012enio   1.88390
gfz2012erds   1.27720
gfz2012evxn  -0.81539
gfz2012fyny   0.32195
gfz2012gdye  -0.40880
gfz2012ghiv  -0.02630
gfz2012gjdg  -0.05656
gfz2012gnow  -0.06851
gfz2012gpcd  -0.58607
gfz2012gvxc   0.12106
gfz2012hvtu  -1.73710
gfz2012iblo  -1.26200
gfz2012icjo  -0.41331
gfz2012idxu   3.04500
gfz2012ieln   0.62290
gfz2012iijk  -0.77373
gfz2012imsm  -0.75746
gfz2012iphs  -0.99971
gfz2012jjxm   0.32395
gfz2012kmbo  -0.00000
gfz2012kmmz   0.07696
gfz2012kstg   0.68859
gfz2012ldjj   0.39081
gfz2012lyyr   0.84897
gfz2012mdzf   0.81602
gfz2012mpzo   0.68751
gfz2012mrqk  -0.13339
gfz2012mrwu  -0.13210
gfz2012nmja  -0.30691
gfz2012nnqu  -0.37673
gfz2012nqvd  -0.03249
gfz2012oafg   0.43398
gfz2012oehy   0.49897
gfz2012phns   0.19843
gfz2012pmuj   0.49732
gfz2012pvve   0.63007
gfz2012smyn   1.54190
gfz2012socz   0.99812
gfz2012sqsc  -0.10104
gfz2012ssnb   1.36450
gfz2012suqd  -0.25750
gfz2012svwz   0.23686
gfz2012swbz  -0.43334
gfz2012sxbo  -0.00000
gfz2012sxpr  -0.53369
gfz2012sxzs   0.30979
gfz2012syum   0.22661
gfz2012tqjc  -0.66868
gfz2012tyoz  -1.02810
gfz2012uhtc   0.58916
gfz2012unxc   0.77638
gfz2012uvea   1.50820
gfz2012uvoa  -0.15297
gfz2012uzww   0.35431
gfz2012vcqw   0.27420
gfz2012vgot  -0.41484
gfz2012vitw   0.53353
gfz2012vkjw  -0.49736
gfz2012vurc  -0.07572
gfz2012wgdv  -0.31057
gfz2012wgmg   0.40130
gfz2012wiyv   0.04426
gfz2012wjpf  -1.17220
gfz2012wkki  -0.15081
gfz2012wmas  -0.05075
gfz2012wmmw   0.33906
gfz2012wowu   1.94650
gfz2012woxj  -0.05801
gfz2012wpen  -0.73322
gfz2012xask   0.01013
gfz2012xfsl  -0.75766
gfz2012xkln   0.12668
gfz2012xlfo   0.28935
gfz2012xmwt   0.58725
gfz2012xncm   0.08276
gfz2012xrmq   0.46456
gfz2012xtvu   0.39491
gfz2012ylai  -0.24911
gfz2012zhyz   0.00000
gfz2013aggr   1.23020
gfz2013ascz  -0.18383
gfz2013byyy  -0.06293
gfz2013cinv   0.01701
gfz2013cvve   0.13010
gfz2013cyvx  -0.01179
gfz2013delq  -0.25150
gfz2013dftb   0.33067
gfz2013dzvr   0.36577
gfz2013eavq   0.26423
gfz2013eazm  -0.54294
gfz2013efct   0.00776
gfz2013eidd  -0.20352
gfz2013enqo  -2.37530
gfz2013esef   0.17884
gfz2013fmcd  -0.04233
gfz2013fmcp   0.26818
gfz2013fndg   0.02651
gfz2013fnpa   0.15133
gfz2013fulo   0.09919
gfz2013fvht  -0.00244
gfz2013fvyr   1.05330
gfz2013gglk   1.64780
gfz2013gjmk  -0.11638
gfz2013gkyn  -0.64325
gfz2013glpz  -0.41117
gfz2013gqtl  -0.12187
gfz2013grle   1.08790
gfz2013gugi   0.07864
gfz2013gurk  -0.06457
gfz2013gxye   0.21746
gfz2013hbmi   0.13794
gfz2013hbtm   0.30592
gfz2013hiam  -0.70534
gfz2013hinw  -0.27172
gfz2013hqaa  -0.09195
gfz2013hwps   1.32850
gfz2013icgx  -0.21110
gfz2013icql  -0.92674
gfz2013ikic   1.11990
gfz2013iuyv  -0.14403
gfz2013iwzn   0.77863
gfz2013jfcn  -0.20029
gfz2013jlli  -0.14532
gfz2013jobl  -0.24356
gfz2013jzcf   0.88843
gfz2013kats   0.13494
gfz2013kbbg  -0.03026
gfz2013kbbn   0.75181
gfz2013kcdb  -0.86867
gfz2013kdfy   1.47960
gfz2013kpcb  -0.40758
gfz2013kqab  -0.41374
gfz2013kslp  -0.11934
gfz2013kxlr  -0.47532
gfz2013lbod  -0.49973
gfz2013lbvl  -0.20617
gfz2013ljdu   0.36658
gfz2013lxnd   3.76710
gfz2013mdxj   0.26331
gfz2013mzaw   0.33422
gfz2013oeni   0.11247
gfz2013oizq  -0.27924
gfz2013okac  -0.34653
gfz2013oywh   0.06301
gfz2013phhi  -0.86160
gfz2013pkmz   1.85260
gfz2013qaex   0.16887
gfz2013qdpv   0.00000
gfz2013qigb  -0.15652
gfz2013qoak   0.34332
gfz2013qogb   0.26425
gfz2013quwz  -0.00120
gfz2013quyn  -0.36101
gfz2013qwnm   0.43282
gfz2013rocs  -0.01997
gfz2013rtvy  -0.20456
gfz2013rwkj  -0.51821
gfz2013skvq  -0.35007
gfz2013stup   0.48530
gfz2013tcju  -0.68114
gfz2013tdsx   0.27452
gfz2013tekq  -0.06909
gfz2013tkcg  -0.07643
gfz2013tnrp  -0.10639
gfz2013trsq  -0.01147
gfz2013ubgt   0.44512
gfz2013udtw   0.22916
gfz2013unuv  -0.29649
gfz2013upqj  -1.66490
gfz2013utqa  -0.72579
gfz2013uwjo  -0.91100
gfz2013uxzw  -0.81382
gfz2013vdam   0.01915
gfz2013veoz   0.79744
gfz2013veug  -0.36854
gfz2013vfix   0.10735
gfz2013vjrr   0.10764
gfz2013vldx   0.86372
gfz2013vmrv  -0.69286
gfz2013vmsg   1.63800
gfz2013vnwa  -1.18110
gfz2013vvre  -1.25140
gfz2013vwkh  -0.31177
gfz2013wyfl  -0.10564
gfz2013xahp   0.18733
gfz2013xddu  -0.20918
gfz2013xjmo   2.19260
gfz2013xmzw   0.36477
gfz2013xofz  -0.32686
gfz2013xupg   0.71487
gfz2013xvps  -0.42614
gfz2013xycz  -0.51088
gfz2013ykqw  -1.40610
gfz2013ylxm   0.70854
gfz2013ylxn  -1.14120
gfz2013yodm   0.03290
gfz2013yqtu   1.22930
gfz2013yxhf  -0.16074
gfz2013zfbz  -0.12624
gfz2013zlak  -0.86426
gfz2013zlij   0.12276
gfz2014amgk  -0.71213
gfz2014ateb  -0.41267
gfz2014azfu   0.53100
gfz2014befl   0.05283
gfz2014bgxe  -1.48070
gfz2014bkra   2.95640
gfz2014byes  -0.99416
gfz2014bzus  -0.15706
gfz2014cgoi  -0.57458
gfz2014cjao   0.17564
gfz2014crac  -0.56055
gfz2014ctdl  -0.04041
gfz2014cvnb   0.25847
gfz2014cwcj  -1.68020
gfz2014dihl  -1.31870
gfz2014djhi   0.08068
gfz2014edjm   0.06440
gfz2014eiav   0.10101
gfz2014eirs   0.30673
gfz2014emlw   0.08440
gfz2014eoay  -0.09788
gfz2014epue   0.94563
gfz2014esez  -0.62632
gfz2014eunw  -0.51208
gfz2014exxj   0.10800
gfz2014flxk   0.47959
gfz2014fsir   0.14084
gfz2014fsje   0.01201
gfz2014fwxt  -0.81024
gfz2014fxte  -0.26597
gfz2014fxuy  -0.54130
gfz2014gnbw   0.14527
gfz2014happ   0.37393
gfz2014herz   0.09685
gfz2014hkcw  -0.00120
gfz2014hotu  -0.83102
gfz2014huah  -1.80890
gfz2014hzzf  -0.35328
gfz2014icov  -0.14481
gfz2014igrp   0.16458
gfz2014ijov  -0.78318
gfz2014ijsa  -1.48310
gfz2014iltl   0.09490
gfz2014irlf  -0.17274
gfz2014irln   0.02835
gfz2014irly  -0.23945
gfz2014isjg  -0.46391
gfz2014iusw  -0.06338
gfz2014iyuc  -0.55744
gfz2014jarg   0.28793
gfz2014jayh   0.20005
gfz2014jckg  -0.47993
gfz2014jfmc  -2.27890
