# Nsamples: 53  MAD:  0.959  mean:  0.034  std:  1.170
gfz2010clbw  -0.12456
gfz2010cphq  -0.10163
gfz2010crgy  -1.23360
gfz2010dask   0.24795
gfz2010iaay  -0.45084
gfz2010mqzz   2.52040
gfz2010pclq   2.17360
gfz2010rljv   0.61124
gfz2010rnwt   4.90790
gfz2010tmba   0.62223
gfz2010ugws   1.04300
gfz2010uhjy   0.05904
gfz2010vong   1.05480
gfz2010xnbn   0.99941
gfz2011ahvh   0.50010
gfz2011bpqm  -0.94198
gfz2011dabj  -1.23120
gfz2011dpyu  -1.38560
gfz2011fnie   0.48021
gfz2011gnbk   0.10741
gfz2011ndhh  -1.46650
gfz2011niuw  -0.62545
gfz2011oslk  -1.38490
gfz2011uqry  -1.14800
gfz2011vahy  -0.94309
gfz2011zghc   0.70165
gfz2012cntu   0.58593
gfz2012cvfr  -0.00609
gfz2012ekfp  -0.77160
gfz2012kmbo  -0.11781
gfz2012ldjj   1.58360
gfz2012mdzf   0.54428
gfz2012suqd   0.24791
gfz2012sxbo  -1.25570
gfz2012uzww  -0.18871
gfz2013cyvx   1.14320
gfz2013jfcn  -0.08790
gfz2013kats  -1.18620
gfz2013mvgq  -0.51117
gfz2013qigb  -0.82086
gfz2013qoak  -0.72761
gfz2013quwz  -0.08097
gfz2013vmrv   0.17237
gfz2013wyfl   0.91277
gfz2013xmzw  -0.09149
gfz2013yqtu   0.48046
gfz2013zlak   0.31451
gfz2014ayxf   0.22576
gfz2014faex  -2.54560
gfz2014icov   0.40221
gfz2014iltl  -0.61383
gfz2014irlf  -0.57815
gfz2014irln  -0.20317
