# Nsamples: 864  MAD:  0.698  mean:  0.062  std:  0.995
gfz2010abfc  -0.24567
gfz2010abvu  -1.00550
gfz2010axdz  -0.08533
gfz2010bklj   1.67140
gfz2010bofe   1.21310
gfz2010brlc   0.61339
gfz2010btme   0.00000
gfz2010bukb   1.18580
gfz2010ccye   0.67925
gfz2010crgy   0.12265
gfz2010crir  -0.13893
gfz2010cthm   1.73620
gfz2010djib   1.21190
gfz2010dslu   0.43172
gfz2010dtgc   0.41965
gfz2010dtyx   1.68900
gfz2010dumv   0.18424
gfz2010dxhq   1.92830
gfz2010eqyj   2.43090
gfz2010ewyj   1.45870
gfz2010faly  -0.14306
gfz2010fgbo  -0.13538
gfz2010fjio   0.69245
gfz2010fopf  -0.21088
gfz2010fqnn  -0.40210
gfz2010fqzh   0.54903
gfz2010fuky   0.19500
gfz2010fvfz   0.59290
gfz2010fxut  -0.60849
gfz2010gcrn   0.95036
gfz2010gooc  -0.20120
gfz2010gpjl   2.88190
gfz2010gxki  -2.84500
gfz2010habf   1.31510
gfz2010hdxn   0.28782
gfz2010hexh   0.45759
gfz2010hnuo   1.77880
gfz2010hueh   0.26363
gfz2010huzl   1.16770
gfz2010iaay  -0.07219
gfz2010ifhd   0.18588
gfz2010ihef   0.81735
gfz2010ioad   0.46950
gfz2010izag   1.09290
gfz2010izgb  -0.18307
gfz2010jcby   0.33377
gfz2010jcpq  -0.11250
gfz2010jgwj   0.22810
gfz2010jlvp   1.32290
gfz2010jpkn  -0.24941
gfz2010jvsi   0.29913
gfz2010kcdq   0.49563
gfz2010kzzm   0.23745
gfz2010ljol   0.25289
gfz2010lvnj   1.85270
gfz2010mdti   0.33261
gfz2010mnoc  -0.74965
gfz2010mpvc   0.00775
gfz2010mqaj   1.20770
gfz2010msss   0.16581
gfz2010mvmb   0.46819
gfz2010mvtj  -0.09062
gfz2010mwmd   1.95210
gfz2010mzfb  -1.20280
gfz2010nbcr  -0.22555
gfz2010nccu   0.15321
gfz2010ncwu  -1.02010
gfz2010nteg  -0.54989
gfz2010nwbd   0.64172
gfz2010ogwn   0.39153
gfz2010oibn  -3.38450
gfz2010ojhe   0.56305
gfz2010okpc   1.85950
gfz2010osrl   0.48151
gfz2010pclq  -1.01330
gfz2010pcya   0.64546
gfz2010pdip   0.05101
gfz2010pgpo  -0.87242
gfz2010pgrf   0.94052
gfz2010pvnn   1.23100
gfz2010pxoi  -0.74821
gfz2010pzza  -0.69097
gfz2010qbcy  -0.55906
gfz2010qdqk  -0.17820
gfz2010qqqx  -0.04472
gfz2010qrix  -0.50820
gfz2010qrta   0.08794
gfz2010qykh  -1.53260
gfz2010qylh   0.31929
gfz2010qzvf   1.58220
gfz2010rdep   0.88161
gfz2010rhvu  -0.89246
gfz2010rkuu  -0.42494
gfz2010rmua  -0.04658
gfz2010rnqa  -1.78650
gfz2010rnwt  -2.19290
gfz2010rpbz  -1.73650
gfz2010schp  -0.21274
gfz2010scht   0.67990
gfz2010sdfs  -0.55684
gfz2010sftm   0.76898
gfz2010shvn  -0.10608
gfz2010sook  -0.32941
gfz2010swqy   0.15491
gfz2010syqh   0.23760
gfz2010szxo  -0.18587
gfz2010tcgh  -0.68954
gfz2010tgmo   0.27611
gfz2010tpcj   1.03590
gfz2010tqyo  -0.45530
gfz2010tvit  -0.09116
gfz2010tzki   0.71983
gfz2010tzlz   1.01960
gfz2010tzma   1.78510
gfz2010ugws  -0.29076
gfz2010uhjy   0.43532
gfz2010uidg  -0.20629
gfz2010uogw  -1.03270
gfz2010upod  -0.23044
gfz2010uqba   0.77655
gfz2010uraq  -0.37310
gfz2010ussf   0.18184
gfz2010utsc  -0.39474
gfz2010uyng   0.02472
gfz2010vdcf   0.92580
gfz2010vfyu   0.89260
gfz2010vgfu  -0.30780
gfz2010viyi   0.05904
gfz2010vong   1.44080
gfz2010vybx  -0.32189
gfz2010vyri   0.44141
gfz2010wakc   0.34989
gfz2010wigk   0.97840
gfz2010wplk  -0.10153
gfz2010wtin   0.05448
gfz2010wwhf   0.26842
gfz2010wyuj  -0.59974
gfz2010xamh  -0.44049
gfz2010xjsv   0.78427
gfz2010xkbz  -0.33910
gfz2010xkku  -0.46222
gfz2010xnbn  -1.76960
gfz2010xpzq   0.44665
gfz2010yfdr   0.28695
gfz2010yilf  -0.16507
gfz2010ymih   0.91322
gfz2010ytzb  -0.68573
gfz2010zhvj   0.18104
gfz2010zjun  -0.33554
gfz2011aqpp   1.80030
gfz2011bqbx  -0.31942
gfz2011bvog   0.73878
gfz2011bwsm  -1.52210
gfz2011byec  -0.10267
gfz2011bygu  -0.90954
gfz2011cjuz   1.48860
gfz2011dabj   0.91263
gfz2011dpyu   0.05149
gfz2011fnie   0.64491
gfz2011fszl   0.23525
gfz2011fyfu   0.39839
gfz2011fzcw  -0.38596
gfz2011gaax   0.30411
gfz2011gcct   0.65060
gfz2011gfer  -0.31157
gfz2011ggnl  -0.60895
gfz2011glpg  -0.05737
gfz2011gnbk  -0.40239
gfz2011gpyr  -0.31646
gfz2011grby   0.16027
gfz2011gzde   1.20600
gfz2011hatg  -0.76074
gfz2011hbqc   0.37912
gfz2011hffq  -2.74970
gfz2011hibi   1.12140
gfz2011hjof   0.78692
gfz2011hmnw  -0.78170
gfz2011hqjs   0.45142
gfz2011hrgt   0.40180
gfz2011huon  -0.93159
gfz2011hvzo  -1.37450
gfz2011hwbn  -1.11030
gfz2011hyct  -0.27140
gfz2011hyuh  -1.17790
gfz2011iamf  -0.62041
gfz2011iryz  -0.23466
gfz2011itcv   0.73733
gfz2011ituo  -0.23200
gfz2011iybf  -0.56209
gfz2011jdoz   0.53336
gfz2011jeta  -0.36668
gfz2011jfyb  -0.76234
gfz2011jghq  -0.14289
gfz2011jphj  -0.02518
gfz2011jpob   0.38615
gfz2011jqyc  -0.48711
gfz2011jryv   2.33660
gfz2011kfch   0.50074
gfz2011kgvq   0.35487
gfz2011kjzt  -0.01004
gfz2011kjzv   1.01680
gfz2011kmge   0.80150
gfz2011kujo  -0.26589
gfz2011kylu  -0.62740
gfz2011kymm  -1.54180
gfz2011kyzy   0.02772
gfz2011lbnn   0.75762
gfz2011lkkf  -0.87345
gfz2011lmug  -0.45569
gfz2011lnzf   0.84868
gfz2011lrpv   0.05842
gfz2011lwmg  -0.96976
gfz2011lxga   0.01379
gfz2011lykm   0.18630
gfz2011lywj   2.05700
gfz2011mdyq   0.13019
gfz2011melb   1.75030
gfz2011mimz  -0.00000
gfz2011mjje  -0.44369
gfz2011mllb   0.42124
gfz2011mntq   0.10515
gfz2011moob   0.35292
gfz2011mrfm   1.34520
gfz2011mror   0.15586
gfz2011mrpy  -0.23272
gfz2011mryu   1.28120
gfz2011mzvn   0.38133
gfz2011nblt   0.50798
gfz2011ncyw   0.11509
gfz2011ndhh   0.74502
gfz2011ndki   0.24359
gfz2011ndoe  -0.40344
gfz2011ndse   0.44468
gfz2011ndtp   0.23219
gfz2011ndvj   0.19680
gfz2011ndyk   0.11180
gfz2011neai   0.69755
gfz2011nejg   0.90963
gfz2011nejw   0.99251
gfz2011nerb   1.18730
gfz2011nfcz   0.63271
gfz2011nfgt   2.70650
gfz2011nfih  -0.20555
gfz2011nfln  -1.24790
gfz2011nftw   0.79982
gfz2011nfwd  -0.37914
gfz2011nfww   0.21342
gfz2011nhby  -0.70897
gfz2011nhhd  -0.15130
gfz2011nhjv   0.68668
gfz2011nhvt  -0.06937
gfz2011nhwf   0.70049
gfz2011nifi  -0.80058
gfz2011nihq   2.66810
gfz2011nijp   0.68504
gfz2011nilw   0.55765
gfz2011nimp  -0.44416
gfz2011nioi  -0.01859
gfz2011nisj   0.55499
gfz2011niuw  -5.87320
gfz2011nivw  -0.22858
gfz2011nkda  -0.52858
gfz2011nkou  -0.19740
gfz2011nlmf   1.28920
gfz2011nlnl   2.32700
gfz2011nlok  -0.05410
gfz2011nlou  -0.36589
gfz2011nlum   0.72800
gfz2011nlyw   0.42292
gfz2011nmdz   0.35128
gfz2011nmhg   1.11440
gfz2011nnda  -0.94944
gfz2011nnos   0.84012
gfz2011npaf  -0.16547
gfz2011nsiy  -0.88917
gfz2011nsrx   0.30142
gfz2011nssr   0.89902
gfz2011nswi  -0.48268
gfz2011nsyi  -2.68700
gfz2011ntyd   0.59096
gfz2011nuqo   0.06256
gfz2011nvty   0.42596
gfz2011nyzk  -0.94481
gfz2011oadm  -0.67254
gfz2011oazk  -1.20910
gfz2011ocif   1.22590
gfz2011oekz   1.57760
gfz2011oesd  -0.73146
gfz2011ofpj  -1.23120
gfz2011ohgj  -0.91276
gfz2011okza   1.64970
gfz2011omxt  -0.56226
gfz2011oosp   1.21850
gfz2011oslk  -0.26644
gfz2011osmp   0.67849
gfz2011osuy  -0.85194
gfz2011ovvj   0.33870
gfz2011paqj  -0.77583
gfz2011pbgh   3.86240
gfz2011pbjh   0.29185
gfz2011pcqr   0.61394
gfz2011pdgq  -0.34088
gfz2011pdsn  -0.08869
gfz2011pfls   0.38968
gfz2011pfwq  -0.63336
gfz2011pimj  -0.03761
gfz2011pivq  -0.98479
gfz2011pmuv   0.18613
gfz2011poug   0.39056
gfz2011pphc  -0.32523
gfz2011ppsc  -0.97994
gfz2011prrq   0.22381
gfz2011ptgd  -0.40073
gfz2011pulu   0.15891
gfz2011pwbw  -0.35181
gfz2011qasw  -0.27519
gfz2011qenl  -0.68535
gfz2011qgea  -0.87076
gfz2011qgvh  -0.24162
gfz2011qgvx   0.82932
gfz2011qidi   1.11750
gfz2011qklh   1.46540
gfz2011qowe  -0.53368
gfz2011qtoy  -0.79787
gfz2011qukj  -0.32445
gfz2011rczb   0.44721
gfz2011rkau   0.76410
gfz2011rnny   0.51383
gfz2011rplo   0.32101
gfz2011rqut   0.75666
gfz2011scma  -0.61824
gfz2011sdax  -0.98647
gfz2011sfmu   0.74932
gfz2011sqco   0.18865
gfz2011sqxp   0.23114
gfz2011sskq   0.21554
gfz2011stzi  -0.21441
gfz2011swfp   0.31718
gfz2011sxno  -0.34401
gfz2011sylg   1.08660
gfz2011syvj  -2.01020
gfz2011szau  -0.03632
gfz2011szcj  -1.63940
gfz2011szis   0.64993
gfz2011taqr  -1.05180
gfz2011tarj  -1.05650
gfz2011tdjj   0.31968
gfz2011tfor  -1.11160
gfz2011tgey  -9.28130
gfz2011tlwl  -0.64444
gfz2011tqgg  -1.29870
gfz2011tsgl   0.53308
gfz2011tssv  -0.27395
gfz2011tvuv  -0.73927
gfz2011twpz  -0.65861
gfz2011txdb   0.37206
gfz2011txxs   0.14359
gfz2011tzcv  -0.91192
gfz2011udxo  -2.22250
gfz2011ugbt  -0.44387
gfz2011unud   0.91332
gfz2011uqry   1.38950
gfz2011uvsi   1.80110
gfz2011vahy  -0.20220
gfz2011vaoi   0.78386
gfz2011varl  -0.49868
gfz2011vbxv   0.35055
gfz2011vcyx   0.11177
gfz2011vemg  -0.27080
gfz2011vimn  -0.62942
gfz2011vsag   0.57721
gfz2011vswj  -0.63748
gfz2011vxek  -1.31650
gfz2011wfsk   0.20411
gfz2011wgoa   1.65570
gfz2011wgvh  -1.28000
gfz2011wkyx   0.19210
gfz2011wngi  -0.47916
gfz2011wnvu  -0.10904
gfz2011wpzt   0.20123
gfz2011wqup   0.61042
gfz2011wtfn   0.47751
gfz2011wucg   0.62390
gfz2011wyei  -0.69666
gfz2011wzss   0.02260
gfz2011xawm   0.30496
gfz2011xgwy   0.08746
gfz2011xkka   0.68156
gfz2011xlod   0.74529
gfz2011xnui  -0.23172
gfz2011xpcq  -0.02667
gfz2011xwdv   0.83983
gfz2011xxng   0.59728
gfz2011yexx  -0.62169
gfz2011ykbd  -1.20840
gfz2011ymji  -0.33903
gfz2011zghc   1.54080
gfz2011ziyk  -0.70748
gfz2011zkbt  -0.47547
gfz2011zlga  -1.43560
gfz2012adja   0.23857
gfz2012ahac  -0.19347
gfz2012ahkl  -0.00000
gfz2012alti   0.12309
gfz2012amjx   0.44245
gfz2012amvs  -0.34804
gfz2012arlo  -0.43978
gfz2012atjr   0.34105
gfz2012avvc   0.26105
gfz2012beae   0.56690
gfz2012bity  -0.21504
gfz2012bjhl  -0.24966
gfz2012bolx   0.04627
gfz2012bqcf  -1.31950
gfz2012byrq  -0.18773
gfz2012cdju   0.34379
gfz2012cntu   1.19750
gfz2012cvfr  -0.69610
gfz2012dejg   0.67261
gfz2012dpwv   0.14296
gfz2012dtdt  -0.48145
gfz2012dtvr   0.24525
gfz2012ebrr  -0.02913
gfz2012ekfp  -0.80654
gfz2012eyti  -0.74268
gfz2012fbgz   0.94142
gfz2012fhaf   0.18870
gfz2012fiiz  -1.97440
gfz2012fjiu   1.05340
gfz2012foih  -0.23932
gfz2012fpyo   0.51676
gfz2012ftks  -0.45827
gfz2012fuyd   0.46670
gfz2012fxgc   0.61451
gfz2012fyny  -0.11265
gfz2012ghiv   0.59586
gfz2012gjtd  -0.10832
gfz2012gmsr  -0.99643
gfz2012gnow  -0.19382
gfz2012gubu   1.72770
gfz2012gvxc   0.24621
gfz2012gzuk   0.53970
gfz2012hdny   0.40843
gfz2012heih   0.49243
gfz2012hmcv  -0.00000
gfz2012hzur   0.26419
gfz2012iblo   0.42952
gfz2012ibyd  -0.50985
gfz2012idxu  -0.28670
gfz2012ieln   0.26943
gfz2012iijk   1.00710
gfz2012imuo   0.89168
gfz2012iotw  -1.32280
gfz2012ipdc  -0.52433
gfz2012iphs  -0.04712
gfz2012iroy  -0.51599
gfz2012ivyg  -1.07400
gfz2012iyoi  -5.35420
gfz2012jetp   0.97926
gfz2012jihg  -0.30316
gfz2012jjxm  -0.08365
gfz2012jksz   4.66300
gfz2012jlez  -0.51611
gfz2012jodg  -0.06774
gfz2012jopi  -0.34569
gfz2012jvei  -0.13399
gfz2012jyhb  -0.62660
gfz2012kadi   0.21711
gfz2012kmbo   0.44759
gfz2012kmmz  -0.57257
gfz2012kstg  -0.29733
gfz2012kvlx   0.56088
gfz2012kwmx   0.69821
gfz2012lcca   0.02220
gfz2012ldjj  -0.21260
gfz2012lngq   0.03883
gfz2012lqhw  -0.45283
gfz2012lvlr   0.41204
gfz2012lwha  -0.04230
gfz2012lyyr  -0.43966
gfz2012mdzf  -0.64630
gfz2012mekv   0.40952
gfz2012mhik  -0.09617
gfz2012mjuu  -0.69339
gfz2012mjzl   0.59387
gfz2012mmiw   1.27970
gfz2012mnth   0.15189
gfz2012moul  -1.42840
gfz2012mout   0.29145
gfz2012movu  -0.06016
gfz2012movv   1.43070
gfz2012mowv   0.68033
gfz2012mpvl  -0.05139
gfz2012mpzo  -0.29858
gfz2012mrqk  -0.28363
gfz2012mrwu  -0.00210
gfz2012mtyn  -1.60640
gfz2012mwhe   1.27410
gfz2012mxdk  -3.38750
gfz2012mxvk   1.07810
gfz2012mzqx  -0.10336
gfz2012ndwt  -0.02871
gfz2012nfos   1.00230
gfz2012nfzc   0.15235
gfz2012nldz  -0.23934
gfz2012nlrb   0.05480
gfz2012nmja   0.13637
gfz2012nnck   0.09228
gfz2012nnqu  -0.81153
gfz2012nnsl  -0.08251
gfz2012nqvd  -0.53174
gfz2012nsxc  -1.01490
gfz2012oafg   0.04668
gfz2012oehy  -0.44455
gfz2012ofnx   0.28174
gfz2012ogqu   2.13730
gfz2012ogwe  -0.27997
gfz2012oieq   0.55137
gfz2012oiez   2.77300
gfz2012ojfv   0.47067
gfz2012onhu   0.82243
gfz2012ooij  -0.39669
gfz2012oork   0.61837
gfz2012oozp  -0.44957
gfz2012ormy  -0.12038
gfz2012oxnh   0.02208
gfz2012oyja   0.11487
gfz2012pcui   0.80073
gfz2012pdjt   1.42370
gfz2012pgmw   0.35006
gfz2012phns   0.02040
gfz2012pira  -0.24079
gfz2012pmuj  -1.46350
gfz2012pmuq  -1.25640
gfz2012pokk  -0.51499
gfz2012ppcq  -0.11442
gfz2012ppsw   1.43920
gfz2012pryl   0.00000
gfz2012pumy  -3.77060
gfz2012pvve  -0.20481
gfz2012pziw  -0.56693
gfz2012qbbt   0.62429
gfz2012qfah  -2.10120
gfz2012qfov   0.23957
gfz2012qhqp   0.86640
gfz2012qibe   0.96500
gfz2012qmhz   0.26598
gfz2012qpoc   2.16760
gfz2012qvwy   0.22775
gfz2012rduv   4.12620
gfz2012rfhw  -0.41835
gfz2012rjlp   0.95156
gfz2012rknz  -0.42961
gfz2012rnbw   0.71578
gfz2012rnml  -0.23750
gfz2012rugl   0.03839
gfz2012rzwp  -2.23640
gfz2012sbix   0.10936
gfz2012scuk   0.17402
gfz2012sgfd   0.36760
gfz2012sjdy  -0.46953
gfz2012sjox   1.08330
gfz2012slfd   0.81755
gfz2012smyn   0.02435
gfz2012socz  -0.40121
gfz2012sopp  -0.12466
gfz2012sqsc  -0.08427
gfz2012ssnb  -1.38480
gfz2012ssvn  -0.70805
gfz2012stxx   0.20749
gfz2012suqd   0.64293
gfz2012svwz   0.97994
gfz2012swbz  -0.40822
gfz2012sxbo   0.28526
gfz2012sxpr   0.33240
gfz2012sxzs   0.75017
gfz2012syum   0.05007
gfz2012taph  -0.85407
gfz2012tbho  -1.17440
gfz2012tfij  -0.02075
gfz2012tgta  -0.70356
gfz2012thyh   0.07897
gfz2012tisj   0.10910
gfz2012tjih   0.71968
gfz2012touh   0.69242
gfz2012tqjc  -0.36416
gfz2012trfq   0.34926
gfz2012trss   0.57127
gfz2012tsdz  -1.06470
gfz2012ttnf   0.59011
gfz2012tvgw   0.23897
gfz2012twec   0.21065
gfz2012udeo   0.04472
gfz2012udxg   0.39660
gfz2012uegq   1.35910
gfz2012uhsx  -0.81486
gfz2012uhtc  -0.15678
gfz2012ukzg   0.74828
gfz2012ulei   0.39012
gfz2012umob  -0.12684
gfz2012unxc  -0.28791
gfz2012uovh  -1.87120
gfz2012urtu   1.26870
gfz2012uvoa  -1.42810
gfz2012uzww  -0.86354
gfz2012vcqw  -0.66391
gfz2012vdsl   0.79368
gfz2012vgot  -0.31959
gfz2012vile  -0.67308
gfz2012vioy  -0.44267
gfz2012vitw  -0.35104
gfz2012vlzv  -0.31240
gfz2012vnve   1.21210
gfz2012vqjw   2.58490
gfz2012vqmq   1.03820
gfz2012vrqz  -1.26470
gfz2012vurc   0.64723
gfz2012vzkm  -0.80372
gfz2012wdvt   0.50308
gfz2012wdxk  -0.27261
gfz2012wgdv  -0.59746
gfz2012wgmg  -2.15780
gfz2012wgmp   0.38627
gfz2012wiyv  -1.20050
gfz2012wjpf  -0.20299
gfz2012wjsi   0.26473
gfz2012wjxc   0.58917
gfz2012wkki  -0.88438
gfz2012wmas  -0.42102
gfz2012wmmw   0.14178
gfz2012wowu  -1.42050
gfz2012woxj  -0.10168
gfz2012wpen  -2.07190
gfz2012wysg  -0.58806
gfz2012xkln  -0.65510
gfz2012xkvu  -1.63110
gfz2012xlas  -0.47000
gfz2012xlfo  -0.88329
gfz2012xncm   0.21098
gfz2012xqxw  -0.06243
gfz2012xrmq  -0.37712
gfz2012xtvu  -0.06211
gfz2012xwkx   1.71600
gfz2012xxdj  -0.44182
gfz2012yegw   0.47337
gfz2012yihn   0.83976
gfz2012ylai   0.34405
gfz2012yncm  -0.80668
gfz2012yygz   0.37012
gfz2012yytb   0.33127
gfz2012zhyz   1.77390
gfz2012zido   2.25900
gfz2012zktj  -1.87320
gfz2012zmdf  -0.44275
gfz2012zmfc  -0.02223
gfz2012znou   0.27088
gfz2012zqis   0.67548
gfz2013aclz   0.06030
gfz2013adih  -0.00000
gfz2013agbm   0.51760
gfz2013agmt   0.58791
gfz2013ajxz  -0.40988
gfz2013akkd  -0.74391
gfz2013ascz   1.00740
gfz2013atak  -0.62243
gfz2013aymi   0.00000
gfz2013bdvi   1.19010
gfz2013bwgw   0.50277
gfz2013cinv   0.14885
gfz2013cokc  -1.79090
gfz2013cvve   0.58887
gfz2013cyvx   0.18306
gfz2013djfi   1.85620
gfz2013dngd  -0.15169
gfz2013dnot   0.69325
gfz2013dzvr   0.35927
gfz2013efct   0.50803
gfz2013egfv   0.89075
gfz2013eidd   0.20613
gfz2013enqo  -3.37860
gfz2013esef   0.13789
gfz2013evcl   0.06385
gfz2013exow   0.26562
gfz2013ezmc  -0.30018
gfz2013fhzy   0.21687
gfz2013fmcp   1.00060
gfz2013fndg   0.75956
gfz2013fnpa  -0.19266
gfz2013foto   0.20373
gfz2013frxd   2.62840
gfz2013fskp  -0.23475
gfz2013fthi  -0.25945
gfz2013fulo  -0.48966
gfz2013fvht  -1.24300
gfz2013fvyr  -0.35207
gfz2013fwbm  -0.13214
gfz2013fybd  -0.29922
gfz2013gaqx   0.65547
gfz2013gbki  -1.02960
gfz2013gjmk   0.34840
gfz2013gkcx  -0.22835
gfz2013gkyn   0.12524
gfz2013glpz   0.47700
gfz2013gomv  -0.24175
gfz2013gqtl   0.15118
gfz2013gsnl  -0.13518
gfz2013gurk   0.47441
gfz2013gxye   0.27307
gfz2013gyce  -0.64240
gfz2013havw  -0.64197
gfz2013hbmi  -0.33419
gfz2013hbwy  -4.77140
gfz2013hdbp  -0.30280
gfz2013hduf  -0.40636
gfz2013hiam   0.11285
gfz2013hinw   1.21870
gfz2013hjtt  -0.53005
gfz2013hqaa  -0.28850
gfz2013hwps   0.58624
gfz2013icgx  -0.19558
gfz2013icql  -0.38487
gfz2013idqu  -0.56148
gfz2013ifag   0.10294
gfz2013ikic   0.62777
gfz2013irme  -0.63243
gfz2013iuyv  -0.38398
gfz2013ivvw  -0.20540
gfz2013iwzn   0.14546
gfz2013jfcn   1.27280
gfz2013jhog   0.50287
gfz2013jjae  -0.23657
gfz2013jjfw   0.30560
gfz2013jkqn   3.09960
gfz2013jlli  -0.37647
gfz2013jobl   0.60288
gfz2013jqsk   1.16050
gfz2013kats   0.16069
gfz2013kbbg  -0.14777
gfz2013kbbn   0.87566
gfz2013kcdb   0.26610
gfz2013kpes   0.20543
gfz2013kqab   0.62926
gfz2013ksaz   0.03582
gfz2013kslp   0.58338
gfz2013kxlr  -0.64676
gfz2013kxof  -0.31839
gfz2013lbod   0.57092
gfz2013lbvl  -0.91678
gfz2013lcrk  -0.60514
gfz2013ljdu   1.12630
gfz2013ljwt   0.00000
gfz2013lnne   0.80931
gfz2013lnts   0.15499
gfz2013lqjj   1.33590
gfz2013lvxe   0.36843
gfz2013lwtr   0.21582
gfz2013lxed  -0.06481
gfz2013lxnd  -0.27365
gfz2013mbna  -0.02236
gfz2013mdnp  -0.18019
gfz2013mdxj  -0.08497
gfz2013mimp   0.30699
gfz2013mnux   1.16140
gfz2013mvgq  -0.42256
gfz2013mzaw  -0.60174
gfz2013nhkw   0.14503
gfz2013njck   1.78580
gfz2013njwj   0.57617
gfz2013nkgd   1.86460
gfz2013nnai  -0.06403
gfz2013noqf   0.88600
gfz2013ntfc  -0.09064
gfz2013ntiu   1.07930
gfz2013ntxw  -0.52282
gfz2013obof  -0.36471
gfz2013ohdt  -0.23115
gfz2013ohnj  -0.31631
gfz2013xjmo  -0.00607
gfz2013xmzw  -0.19286
gfz2013xodn   0.58622
gfz2013xswc  -1.05700
gfz2013xuxr   0.12678
gfz2013xvps   0.00353
gfz2013xycz   0.08426
gfz2013xzxe   0.13836
gfz2013ygsj   2.05660
gfz2013yihv   0.87720
gfz2013ylxn   0.29484
gfz2013ymhx   0.04870
gfz2013yodm  -0.22438
gfz2013yqtu  -0.33740
gfz2013ytfm   0.10531
gfz2013yxhf   0.84395
gfz2013yxif  -0.16195
gfz2013zfbz  -0.10633
gfz2013zkta   0.47117
gfz2013zlak   0.25320
gfz2014aaae   0.43878
gfz2014aejh   0.04404
gfz2014aqax   1.09300
gfz2014ateb  -0.02861
gfz2014avag   0.63534
gfz2014ayxf   0.39657
gfz2014bdju  -0.94830
gfz2014befl  -0.23251
gfz2014bkra   0.57958
gfz2014bmqw   1.63360
gfz2014bumr   0.78951
gfz2014eirs  -0.21116
gfz2014eoay   0.60940
gfz2014epnq   0.80936
gfz2014epue   1.48250
gfz2014eunw  -0.36190
gfz2014eysf   0.24914
gfz2014fbli   0.35513
gfz2014fgbn  -0.10460
gfz2014fhki  -0.29001
gfz2014fjfz   0.53942
gfz2014flxk   0.49178
gfz2014fqas  -0.38375
gfz2014fsir  -0.64907
gfz2014fsje   0.34745
gfz2014fskh   0.12228
gfz2014fwxt   0.34432
gfz2014fxte  -1.25850
gfz2014fxuy  -0.79593
gfz2014gasb   0.71101
gfz2014gbxg   0.07863
gfz2014ggie  -0.02981
gfz2014gnvp   0.19660
gfz2014gqxg  -0.32317
gfz2014grwv  -0.11747
gfz2014gsfc   0.24312
gfz2014gssz   0.19102
gfz2014gutd  -3.33810
gfz2014gypw  -0.12091
gfz2014gzlm   0.42668
gfz2014hapg   1.60360
gfz2014happ  -0.99001
gfz2014herz  -0.80257
gfz2014hkcw  -0.62993
gfz2014hqhv  -0.38876
gfz2014huah   1.55740
gfz2014huqh   0.08872
gfz2014hyea  -0.05818
gfz2014hzzf   0.49460
gfz2014iaqm   1.10990
gfz2014iayo  -0.69575
gfz2014icov   2.24100
gfz2014igrp  -0.40077
gfz2014ijsa   0.17119
gfz2014iltl  -1.79720
gfz2014ined   0.40523
gfz2014inrg   0.80177
gfz2014ipfu   0.06153
gfz2014irln  -0.19044
gfz2014isjg   0.12665
gfz2014isov   1.01270
gfz2014iusw   0.12158
gfz2014ivgm   0.58241
gfz2014jarg   0.55233
gfz2014jayh  -0.31408
gfz2014jbfp   0.05047
gfz2014jbgm   0.41528
