# Nsamples: 239  MAD:  0.381  mean:  0.020  std:  0.613
gfz2012bqcf   0.57024
gfz2012byrq   0.25045
gfz2012bytv  -0.98030
gfz2012byuk  -0.59342
gfz2012cdju   0.41489
gfz2012cksh  -0.35188
gfz2012cmww   0.01997
gfz2012crpb  -1.03480
gfz2012cvfr   0.18267
gfz2012dcjd   0.17674
gfz2012dejg   0.21863
gfz2012dnig   0.25731
gfz2012drqd   0.22308
gfz2012dttl   0.30786
gfz2012duwm  -0.68349
gfz2012dwwu  -0.26530
gfz2012dyck   0.17367
gfz2012dysu   0.68211
gfz2012eajr  -1.08990
gfz2012ekfp   0.05242
gfz2012ekro   0.41842
gfz2012evxn   0.03325
gfz2012eyti   0.10388
gfz2012fbgz   0.18919
gfz2012gdye   0.50043
gfz2012gftg   0.12436
gfz2012ghiv  -0.22757
gfz2012gjdg  -0.42769
gfz2012gnow   0.07496
gfz2012gpcd  -0.28261
gfz2012heih   0.62421
gfz2012hvfw  -0.27827
gfz2012hvtu   0.89225
gfz2012hzhn  -1.67260
gfz2012hzur   0.12873
gfz2012iblo  -1.29470
gfz2012iijk  -0.45075
gfz2012ipdc   0.23412
gfz2012jodg  -1.82150
gfz2012klpl  -0.14823
gfz2012kmbo  -0.14052
gfz2012kmmz   0.36934
gfz2012kqjb  -0.79082
gfz2012ldjj   0.27729
gfz2012luzm   0.51634
gfz2012lvlr   0.06395
gfz2012lyyr   0.00728
gfz2012mdzf  -0.06845
gfz2012mjuu   0.04827
gfz2012mmiw   0.41854
gfz2012mowv  -0.03349
gfz2012mpzo   0.69828
gfz2012mrqk   0.84128
gfz2012mrwu   0.49820
gfz2012nldz  -0.48535
gfz2012nnqu  -0.23412
gfz2012nqvd  -0.24332
gfz2012oafg   0.26261
gfz2012oehy   0.41705
gfz2012ofnx  -1.08070
gfz2012onhu  -3.22290
gfz2012oozp  -0.06120
gfz2012phns   0.39331
gfz2012pmuj   0.06357
gfz2012pokk   0.12120
gfz2012pvve   0.35384
gfz2012qfah  -0.35528
gfz2012qhqp   0.53308
gfz2012qibe   0.23246
gfz2012qllj   0.03511
gfz2012rmvx   1.06280
gfz2012sgfd  -0.37753
gfz2012socz   0.38657
gfz2012sopp  -0.42045
gfz2012sqsc  -0.76670
gfz2012ssnb   1.58890
gfz2012suqd  -0.05955
gfz2012svwz   0.43698
gfz2012swbz  -0.02254
gfz2012sxbo  -1.19260
gfz2012sxpr   0.84677
gfz2012sxzs   0.19004
gfz2012syum   0.33335
gfz2012taph  -0.16426
gfz2012tgta  -0.21554
gfz2012thyh  -0.34135
gfz2012tisj  -0.44880
gfz2012tjwg   2.27630
gfz2012tqjc  -0.01255
gfz2012tsdz   0.82895
gfz2012twec   0.07357
gfz2012tyoz  -1.45300
gfz2012uegq  -0.31010
gfz2012uhsx   0.17960
gfz2012uhtc   0.01903
gfz2012ulei  -0.02301
gfz2012uovh  -0.07673
gfz2012urtu  -0.75367
gfz2012uvoa  -0.06818
gfz2012uzww   0.08772
gfz2012vile  -1.71670
gfz2012vlzv  -0.47642
gfz2012vqjw  -0.37586
gfz2012vqmq   0.35305
gfz2012vrqz  -0.11373
gfz2012vsav  -0.42578
gfz2012wgmg  -0.48594
gfz2012wkki   0.26013
gfz2012wmmw   0.42459
gfz2012wowu   0.00000
gfz2012wpen  -0.37912
gfz2012wugc  -0.25599
gfz2012wysg   0.21844
gfz2012xask   0.21734
gfz2012xbna   0.89265
gfz2012xcsf   0.28442
gfz2012xfsk  -0.24167
gfz2012xfsl  -0.11745
gfz2012xkln  -0.11771
gfz2012xlas  -0.23646
gfz2012xlfo  -0.31838
gfz2012xncm  -0.82905
gfz2012xrmq   0.44678
gfz2012xxdj  -0.14622
gfz2012yihn   1.95190
gfz2012ylai   0.21237
gfz2012yncm  -0.55142
gfz2013udtw   0.34277
gfz2013uepl   0.28439
gfz2013uhio  -0.25376
gfz2013ujze   0.17825
gfz2013unuv   0.28099
gfz2013upqj  -0.76634
gfz2013utqa   0.30696
gfz2013uwjo   0.56284
gfz2013uxzw  -0.66985
gfz2013vdam   0.11218
gfz2013vfix   0.53655
gfz2013vjrr  -0.05749
gfz2013vldx  -0.28327
gfz2013vmrv   0.15919
gfz2013vnwa  -0.23247
gfz2013voai   0.11261
gfz2013vojy   0.20267
gfz2013vvre   0.28487
gfz2013vwkh   0.19345
gfz2013vxht   0.64612
gfz2013wgwz   0.36395
gfz2013wigs   0.33008
gfz2013wpns   0.24186
gfz2013wyfl  -0.40827
gfz2013xacx  -0.28162
gfz2013xahp   0.31905
gfz2013xddu   0.19976
gfz2014dpps   0.23717
gfz2014dsqr  -0.13564
gfz2014dtth   0.33877
gfz2014dtto   0.19355
gfz2014dwcp   0.35420
gfz2014ecor  -0.34320
gfz2014edjm   0.33257
gfz2014eglj   0.44425
gfz2014eirs   0.44573
gfz2014ejfx  -0.00000
gfz2014emlw   0.11099
gfz2014eoay   0.26102
gfz2014epfm   1.40120
gfz2014epnq  -0.09178
gfz2014esez   0.30482
gfz2014etgp   0.48759
gfz2014evgu   0.09306
gfz2014evhm   0.13437
gfz2014exxj  -0.32783
gfz2014eyne  -0.04689
gfz2014ezvd   1.35940
gfz2014faex  -0.24838
gfz2014fbef   0.19607
gfz2014fbli   0.19451
gfz2014fbnr  -0.70835
gfz2014fjfz   0.13559
gfz2014flxk   0.68850
gfz2014fmdc   1.07900
gfz2014fqas   0.17592
gfz2014fsje   0.20443
gfz2014fskh   0.08983
gfz2014fsvc  -0.07108
gfz2014fvza  -0.13035
gfz2014fwuf   0.62306
gfz2014fwxt   0.07464
gfz2014fxim  -1.24970
gfz2014fxte   0.18650
gfz2014fxuy  -0.02496
gfz2014geln   0.21936
gfz2014gnbw   0.33040
gfz2014gnvp   0.20378
gfz2014grwv  -0.04623
gfz2014gsfc  -0.87914
gfz2014gssz  -1.20090
gfz2014gtee   0.15885
gfz2014gtoj  -0.18928
gfz2014gypw   0.91680
gfz2014hapg   0.34866
gfz2014happ   0.23138
gfz2014herz   0.14950
gfz2014hhey   0.49373
gfz2014hhis   0.25439
gfz2014hjmc  -1.84240
gfz2014hkcw  -0.02159
gfz2014hotu  -0.17166
gfz2014hqhv   0.10029
gfz2014huqh  -0.25956
gfz2014hyea   0.16355
gfz2014hzzf  -0.04302
gfz2014iayo   0.30208
gfz2014icov  -0.40658
gfz2014igrp   0.50255
gfz2014ijsa  -0.46864
gfz2014iltl   0.14774
gfz2014imqh  -0.88785
gfz2014ined  -0.16214
gfz2014inrg  -0.20148
gfz2014ipfu   0.23718
gfz2014ipwk  -0.29636
gfz2014irlf   0.31787
gfz2014irln   0.29282
gfz2014irly   0.20551
gfz2014isjg   0.30843
gfz2014isov  -1.16910
gfz2014itlx   0.50617
gfz2014iusw   0.18696
gfz2014ixlc   0.40644
gfz2014iyuc   0.71395
gfz2014jarg   0.33733
gfz2014jaxy   0.21857
gfz2014jayh   0.31789
gfz2014jbfp   0.47699
gfz2014jckg   0.02352
gfz2014jffe   1.57930
gfz2014jfmc  -1.77180
