# Nsamples: 178  MAD:  0.602  mean:  0.006  std:  0.762
gfz2010ifhd  -0.79528
gfz2010jlvp  -0.50825
gfz2010kcdq   2.00210
gfz2010ngge   0.85043
gfz2010tcgh   0.71987
gfz2010tmba   0.03205
gfz2010tpcj  -0.24811
gfz2010tqyo   1.17730
gfz2010tzlz  -0.17859
gfz2010tzma  -0.80604
gfz2010ugws   0.90487
gfz2010uhjy  -0.26559
gfz2010uogw  -0.79479
gfz2010uopf  -0.60940
gfz2010vong  -0.64077
gfz2011amst  -0.82088
gfz2011bcvc  -0.47775
gfz2011bpqm   0.88633
gfz2011bsvr   0.61783
gfz2011bygs   0.35418
gfz2011bygu   0.45683
gfz2011cdge   1.31000
gfz2011cfyy  -0.60968
gfz2011cjuz  -1.90300
gfz2011cwzi   2.00340
gfz2011dabj   0.11509
gfz2011dhfg  -0.47178
gfz2011dpyu  -0.34043
gfz2011etkc   0.71815
gfz2011qenl   0.61883
gfz2011qukj   1.65010
gfz2011rkau  -0.23285
gfz2011rnsp   0.23878
gfz2011sdax   0.24338
gfz2011sqco  -0.17041
gfz2011sxno   0.92123
gfz2011syvj  -0.15789
gfz2011syzr  -0.73307
gfz2011taqr   0.31332
gfz2011tgon   1.08900
gfz2011tsgl  -0.22297
gfz2011uowi  -0.05292
gfz2011uqry  -0.93068
gfz2011vahy  -0.23285
gfz2011vbxv  -0.67927
gfz2011wcvs  -1.42290
gfz2011wkja  -0.45378
gfz2011wpzt  -0.67743
gfz2011wucg  -0.08644
gfz2011wwze   0.60129
gfz2011xgbc  -0.18748
gfz2011xkka   0.56073
gfz2011yexx  -0.09821
gfz2011zghc  -0.41512
gfz2012amjx  -1.56160
gfz2012arlo  -0.21663
gfz2012bqcf  -0.09188
gfz2012byrq  -0.11093
gfz2012cdju  -0.07534
gfz2012cmww  -0.23110
gfz2012cvfr   0.35589
gfz2012dzou   1.55370
gfz2012ekfp  -0.57077
gfz2012ghiv  -0.34990
gfz2012gjdg   1.42450
gfz2012gnow  -0.13625
gfz2012hzhn  -1.09440
gfz2012hzur   1.37650
gfz2012iblo  -1.14670
gfz2012iijk  -0.04421
gfz2012kmbo   0.54951
gfz2012kmmz  -0.68175
gfz2012ldjj   1.63720
gfz2012mdzf   0.62897
gfz2012mtyn  -0.50730
gfz2012nnqu  -0.32149
gfz2012nqvd   0.31327
gfz2012oafg   0.11363
gfz2012oehy  -0.38032
gfz2012phns  -0.12662
gfz2012qllj  -0.51634
gfz2012sgfd  -1.30140
gfz2012socz   1.08060
gfz2012ssnb  -0.66741
gfz2012suqd  -0.51978
gfz2012svwz   0.00968
gfz2012sxbo  -1.43890
gfz2012syum   0.92172
gfz2012tisj   0.38060
gfz2012uhsx  -0.58158
gfz2012uhtc  -0.06593
gfz2012ulei   0.30484
gfz2012uvoa  -0.50007
gfz2012uzww  -0.21033
gfz2012vqjw   0.82029
gfz2012vqmq   0.46175
gfz2012vrqz  -1.38470
gfz2012wkki   0.22217
gfz2013ljdu  -0.83925
gfz2013mzaw   0.01424
gfz2013oizq   0.42460
gfz2013orot  -0.40069
gfz2013oruq   1.97020
gfz2013phhi   0.11187
gfz2013pkmz  -0.54539
gfz2013qigb  -0.55027
gfz2013qoak   0.56458
gfz2013quwz   1.05690
gfz2013quyn  -0.34141
gfz2013rfik  -0.20769
gfz2013rocs   0.03227
gfz2013rwkj  -0.62589
gfz2013stou   0.00000
gfz2013swnj  -0.35088
gfz2013taeb   1.97470
gfz2013tcju  -1.00440
gfz2013tdsx  -0.14703
gfz2013tekq  -0.37771
gfz2013tgia  -0.39594
gfz2013tkcg  -0.09858
gfz2013tnrp  -0.32676
gfz2013ubgt   0.58788
gfz2013udtw   0.00000
gfz2013upqj  -2.49410
gfz2013utqa  -0.40364
gfz2013vdam  -0.18544
gfz2013veug   0.57918
gfz2013vfix   0.26185
gfz2013vjrr   0.58840
gfz2013vldx   1.52470
gfz2013vmrv  -0.36596
gfz2013vmsg   1.29570
gfz2013vnwa  -1.46150
gfz2013voai  -0.25706
gfz2013vojy  -0.30850
gfz2013vvre   0.63554
gfz2013wigs   0.09006
gfz2013wyfl   0.17450
gfz2013xahp  -0.18640
gfz2013xmzw   0.58447
gfz2013xswc  -0.06396
gfz2013yqtu   1.02350
gfz2013yxhf   1.95150
gfz2013zfbz   0.17508
gfz2013zlak  -0.05561
gfz2014aaae  -0.49901
gfz2014amgk  -0.81472
gfz2014aqax   1.43440
gfz2014aqop   0.12791
gfz2014bkra   0.32793
gfz2014ctdl  -0.04302
gfz2014dihl  -1.07190
gfz2014edjm   0.00914
gfz2014eirs   0.18176
gfz2014eoay  -0.24536
gfz2014esez  -0.32950
gfz2014flxk  -0.55768
gfz2014fsir   0.14860
gfz2014fwuf   1.31260
gfz2014fwxt  -0.28608
gfz2014fxte  -0.18494
gfz2014geln   0.06465
gfz2014gnbw   0.04383
gfz2014hhis   0.37741
gfz2014hqhv  -0.34672
gfz2014huqh  -0.14640
gfz2014hzzf  -0.59390
gfz2014icov   0.28553
gfz2014igrp   0.20933
gfz2014iltl  -0.27721
gfz2014irlf  -0.12875
gfz2014irln   0.25737
gfz2014irly  -0.41121
gfz2014isjg   0.00925
gfz2014iusw   0.11793
gfz2014ixlc  -0.80300
gfz2014jarg  -0.24189
gfz2014jayh   0.07651
