# Nsamples: 53  MAD:  0.511  mean:  0.067  std:  0.750
gfz2010bklj  -0.12164
gfz2010clbw  -0.09012
gfz2010cllh  -0.58265
gfz2010crgy   0.05498
gfz2010crir  -0.42702
gfz2010dask  -0.19475
gfz2010djib  -0.14873
gfz2010drit   0.48657
gfz2010fjme   0.81558
gfz2010habf   0.37029
gfz2010jlvp  -1.35250
gfz2010ngge   0.53276
gfz2010rljv   1.08560
gfz2010tmba   0.29122
gfz2010uhjy   0.31984
gfz2010vong   0.02716
gfz2010xnbn  -0.05309
gfz2010xpzq   0.06089
gfz2010yfdr   0.52456
gfz2011ahvh   1.08070
gfz2011amst  -0.32369
gfz2011bpqm   0.04222
gfz2011cdge   0.12848
gfz2011dabj  -0.31522
gfz2011dpyu   0.28210
gfz2011ggnl   2.73560
gfz2011gnbk   0.13712
gfz2011gpyr   0.73436
gfz2011ndhh  -1.18120
gfz2011nijp   0.24984
gfz2011oslk  -0.14399
gfz2011sdax  -0.19627
gfz2012bqcf  -0.31803
gfz2012cvfr   0.48233
gfz2012ekfp   0.73027
gfz2012iijk   0.40542
gfz2012kmbo  -0.86905
gfz2012qllj  -1.37960
gfz2012uvoa   0.30776
gfz2013fnpa   0.48636
gfz2013hiam  -1.02460
gfz2013jfcn   0.14888
gfz2013jobl   0.16149
gfz2013kats  -0.05557
gfz2013kbbg  -0.60417
gfz2013qoak  -0.92817
gfz2013quwz   1.88420
gfz2013stou  -1.63330
gfz2013utqa  -0.14479
gfz2013vmrv   0.49318
gfz2013yqtu  -0.01314
gfz2013zlak   0.40571
gfz2014ayxf   0.20822
