# Nsamples: 147  MAD:  0.633  mean:  0.049  std:  1.277
gfz2010abfc  -0.55678
gfz2010aggj  -0.20151
gfz2010aimm   0.16741
gfz2010aseg   0.36482
gfz2010bgrt   0.74800
gfz2010bqnk   0.28608
gfz2010brrm   0.58870
gfz2010clbw  -0.11640
gfz2010cllh   0.26889
gfz2010cphq   0.32546
gfz2010crgy  -0.19405
gfz2010crir  -0.58406
gfz2010csle  -1.81990
gfz2010cyid  -1.67120
gfz2010dask  -0.39053
gfz2010ddan  -5.20220
gfz2010depd  -0.34331
gfz2010djib  -1.10390
gfz2010dmij  -0.46272
gfz2010drit   0.10161
gfz2010drml  -0.62523
gfz2010drmq  -0.62523
gfz2010drun  -0.56122
gfz2010dumv  -1.33610
gfz2010dwgy  -0.25341
gfz2010dxhq  -0.86028
gfz2010faly   0.48442
gfz2010fgbo   0.09861
gfz2010fjio   1.25110
gfz2010fjme   0.50035
gfz2010fkff   0.67302
gfz2010fqnn   3.72530
gfz2010ftfq   0.71399
gfz2010fvfz   0.30126
gfz2010fxhh   4.57520
gfz2010fxut   0.41192
gfz2010gcqp  -0.55934
gfz2010gpjl   3.91750
gfz2010guwa   3.91800
gfz2010habf   0.01024
gfz2010hdxn  -0.28683
gfz2010hllp  -2.46650
gfz2010hsgv   0.58598
gfz2010hueh   1.71120
gfz2010hxan  -0.72644
gfz2010iaay   0.98428
gfz2010iawy   0.90244
gfz2010ifhd  -0.76292
gfz2010izag   0.42368
gfz2010jlvp  -0.56157
gfz2010jvsi   5.23280
gfz2010kwks   3.28290
gfz2010mdti   0.12245
gfz2010mzfb  -0.93419
gfz2010nwyk   2.20840
gfz2010okpc  -0.05643
gfz2010rljv   0.31694
gfz2010rnwt  -1.65430
gfz2010rpjd  -1.01870
gfz2010schp  -0.03263
gfz2010tcgh   0.29642
gfz2010tfar   0.84386
gfz2010tmba  -0.39116
gfz2010tpcj  -0.40631
gfz2010tzlz  -0.35254
gfz2010tzma  -0.31544
gfz2010ugws   0.14820
gfz2010uhjy   0.18866
gfz2010uidg  -0.74456
gfz2010umyp  -0.00000
gfz2010uogw  -0.27327
gfz2010uopf  -0.45445
gfz2010vdcf  -1.47090
gfz2010vong  -0.01263
gfz2010wakc  -0.85046
gfz2010xamh  -0.47533
gfz2010xnbn  -0.41374
gfz2010xpzq   0.11548
gfz2010yczp   4.64500
gfz2010yfdr   0.16187
gfz2010zjun   0.38215
gfz2011ahvh  -0.13443
gfz2011amst   1.58600
gfz2011awsv  -0.73924
gfz2011bpqm   0.05881
gfz2011bsvr  -0.51435
gfz2011bygs  -0.16689
gfz2011bygu   0.04227
gfz2011caca   0.93653
gfz2011cdge   0.16292
gfz2011cfyy   0.38220
gfz2011cjuz  -0.52524
gfz2011dabj  -0.59469
gfz2011dhfg  -0.29570
gfz2011dpyu  -0.26400
gfz2011emzr   0.11750
gfz2011fnie  -0.26434
gfz2011fnuk  -0.29482
gfz2011fszl  -0.26533
gfz2011fzcw  -0.25288
gfz2011ggnl   0.00000
gfz2011gnbk   0.03392
gfz2011gpyr   0.13027
gfz2011hqjs   0.20245
gfz2011kfch  -0.51916
gfz2011kjzt  -0.72230
gfz2011kylu   2.29630
gfz2011kymm   1.30960
gfz2011kyzy   0.40112
gfz2011lkkf  -0.60959
gfz2011lwmg   0.22330
gfz2011mjje   0.20902
gfz2011mllb  -0.53943
gfz2011mntq  -0.24612
gfz2011mror  -2.73500
gfz2011nblt   1.90160
gfz2011ndhh  -0.46395
gfz2011nejg   1.04780
gfz2011nejw  -0.05145
gfz2011nfcz  -0.08225
gfz2011nftw  -1.45190
gfz2011nhby   0.45918
gfz2011nhwf  -0.46728
gfz2011nijp  -1.46710
gfz2011nilw  -0.81275
gfz2011niuw  -1.04980
gfz2011nkou  -0.99356
gfz2011nlmf  -1.10810
gfz2011nlnl  -0.19962
gfz2011nlum  -0.30458
gfz2011nsiy  -0.49415
gfz2011nuqo  -0.26478
gfz2011oadm  -0.46363
gfz2011oazk  -0.30432
gfz2011ofpj  -0.16133
gfz2011ohgj  -0.63742
gfz2011oslk  -0.24511
gfz2011paqj   0.04708
gfz2011pfls   0.08169
gfz2011pivq  -0.58838
gfz2011pmuv  -0.01520
gfz2011poug   0.56784
gfz2011ppsc  -0.47329
gfz2011pwbw   0.81627
gfz2011qenl   0.38063
gfz2011rqut   1.52920
gfz2011sxno   0.19821
