# Nsamples: 72  MAD:  0.553  mean:  0.045  std:  0.928
gfz2010dask  -0.09651
gfz2010fgbo   1.23490
gfz2010fjme   1.05420
gfz2010habf  -0.60921
gfz2010jlvp  -0.42967
gfz2010ncwu   0.22629
gfz2010ngge  -0.58198
gfz2010pgpo   0.51559
gfz2010rkuu   0.49842
gfz2010rljv   0.04721
gfz2010tcgh  -0.00000
gfz2010tmba  -0.16029
gfz2010tpcj  -0.32529
gfz2010tzlz  -0.49955
gfz2010tzma  -0.36622
gfz2010ugws   0.44617
gfz2010uhjy  -1.16850
gfz2010vong  -2.29470
gfz2010wwnq   0.13655
gfz2010xpzq   0.31082
gfz2011ahvh   1.44330
gfz2011bpqm  -1.20870
gfz2011cwzi  -0.08165
gfz2011dabj  -0.49360
gfz2011dpyu  -0.41529
gfz2011fnie  -0.21483
gfz2011ggnl  -0.21275
gfz2011gnbk   0.33336
gfz2011gpyr   1.09960
gfz2011lkkf   0.45895
gfz2011ndhh  -0.72596
gfz2011oslk  -0.26252
gfz2011qenl   1.91060
gfz2011qukj   4.96710
gfz2011sdax  -0.63723
gfz2011sqco   0.87195
gfz2011uqry  -0.32495
gfz2011vahy  -0.26999
gfz2011wcvs  -1.25660
gfz2011wkja   0.09010
gfz2011wwze   0.63336
gfz2011zghc   0.04537
gfz2011zkbt  -0.23972
gfz2012bqcf  -0.55094
gfz2012cdju  -0.16583
gfz2012cntu   1.13570
gfz2012cvfr   0.25235
gfz2012dttl  -0.12081
gfz2012ekfp  -0.44533
gfz2012ekro   1.20500
gfz2012gdye  -0.87333
gfz2012gnow  -0.22371
gfz2012gpcd  -0.17005
gfz2012ppcq  -0.12545
gfz2012touh  -2.24590
gfz2013fnpa  -0.12055
gfz2013fulo   0.13731
gfz2013fvht   0.35767
gfz2013icql  -0.22188
gfz2013iuyv   0.57211
gfz2013iwzn   0.55283
gfz2013jfcn  -0.15627
gfz2013jobl  -0.35595
gfz2013kats  -0.30613
gfz2013kbbg  -0.38713
gfz2013kcdb   0.23325
gfz2013kqab   0.65062
gfz2013lbod  -0.23198
gfz2013lbvl  -0.14583
gfz2013mdxj   0.41471
gfz2013mvgq   0.62380
gfz2013mzaw   0.47233
