# Nsamples: 62  MAD:  0.752  mean:  0.065  std:  1.060
gfz2010dask  -0.42077
gfz2010fvfz  -1.52900
gfz2010rkuu   0.66896
gfz2010tmba   3.30160
gfz2010ugws  -1.20790
gfz2010uhjy  -0.63554
gfz2011ahvh   1.59260
gfz2011oslk  -0.42221
gfz2011paqj  -1.18760
gfz2011ppsc   1.23030
gfz2011qukj   2.50300
gfz2011sdax   0.18440
gfz2011sqco  -0.32656
gfz2011sxno   2.55140
gfz2011taqr   0.04797
gfz2011tsgl  -0.00489
gfz2011uqry  -0.74272
gfz2011vahy  -0.16682
gfz2011xgwy   2.75780
gfz2011yexx   0.13265
gfz2012bqcf  -0.43555
gfz2012byrq  -0.74318
gfz2012ekfp  -0.22017
gfz2012gpcd  -0.60275
gfz2012uhtc  -0.29204
gfz2012uvoa   0.12789
gfz2012wgmg  -0.25511
gfz2012xcsf  -1.13470
gfz2012xrmq  -0.47110
gfz2013cvve   0.35550
gfz2013efct  -2.48650
gfz2013fmcp   0.42760
gfz2013fnpa  -0.16482
gfz2013fulo   0.50835
gfz2013fvht   0.42908
gfz2013icgx   1.65350
gfz2013iwzn   0.94618
gfz2013jfcn   0.00000
gfz2013noqf   1.03370
gfz2013orot   0.19528
gfz2013oywh  -0.54325
gfz2013phhi  -1.39750
gfz2013utqa  -0.29338
gfz2013uwjo  -1.96150
gfz2013vmrv   0.11311
gfz2013vvre   0.90658
gfz2013xswc   0.30758
gfz2013zlak  -0.77744
gfz2014bkra   0.05500
gfz2014fwxt   0.54313
gfz2014fxte  -0.24442
gfz2014fxuy   0.16383
gfz2014gnbw   0.15410
gfz2014hyea  -0.63527
gfz2014hzzf  -0.77794
gfz2014icov  -0.74196
gfz2014igrp   1.04280
gfz2014iltl   0.14217
gfz2014irlf   0.59455
gfz2014irln   0.50475
gfz2014jarg  -0.53781
gfz2014jayh   0.21316
