# Nsamples: 142  MAD:  0.430  mean:  0.043  std:  1.165
gfz2010abfc  -0.28933
gfz2010abvu  -0.47377
gfz2010aggj   0.00662
gfz2010bmls   7.65820
gfz2010btme   0.07845
gfz2010clbw  -0.08497
gfz2010crgy  -0.36308
gfz2010csqy  -0.81749
gfz2010cyid  -0.20620
gfz2010dask   0.20691
gfz2010drit   0.40645
gfz2010fxut   0.33221
gfz2010gcqp  -0.26379
gfz2010habf  -0.21529
gfz2010hsgv  -0.23335
gfz2010iaay   1.22310
gfz2010izag   0.01997
gfz2010jlvp  -0.38536
gfz2010kcdq  -0.51130
gfz2010mdti  -0.48085
gfz2010mqaj  -1.00320
gfz2010ncwu   0.36451
gfz2010ngge  -0.30800
gfz2010pclq   2.72390
gfz2010pcya  -2.41640
gfz2010pgpo   0.03364
gfz2010qdqk   1.38870
gfz2010rkuu  -5.63670
gfz2010rljv  -0.14446
gfz2010rnwt   1.10950
gfz2010rpjd  -0.03941
gfz2010tcgh   2.16280
gfz2010tmba  -0.24065
gfz2010tpcj   0.20333
gfz2010tzlz   0.88480
gfz2010tzma  -0.01228
gfz2010ugws   0.76670
gfz2010uhjy   0.36087
gfz2010umyp   0.26778
gfz2010uopf   0.24245
gfz2010vong   0.07183
gfz2010wakc  -0.57347
gfz2010xamh  -0.23832
gfz2010yfdr  -0.06437
gfz2010ytzb  -0.09105
gfz2010zjun   0.40920
gfz2011ahvh  -0.00000
gfz2011amst   1.02560
gfz2011bcvc  -1.23840
gfz2011cdge   0.10445
gfz2011exxq   0.68985
gfz2011fnie  -0.42964
gfz2011fszl  -0.14059
gfz2011fzcw   2.21370
gfz2011gnbk  -0.21587
gfz2011gpyr  -0.08614
gfz2011hqjs  -0.03201
gfz2011jghq  -0.52920
gfz2011kjzt  -0.47895
gfz2011kjzv  -0.18325
gfz2011kylu   3.36020
gfz2011kyzy  -0.12800
gfz2011lwmg  -0.60165
gfz2011mjje  -0.69624
gfz2011mllb   1.18040
gfz2011mntq   0.52837
gfz2011ndhh  -0.36836
gfz2011nfcz  -0.14004
gfz2011nhby   0.19582
gfz2011nhvt  -4.26140
gfz2011nijp  -0.66948
gfz2011nilw  -0.76928
gfz2011niuw  -0.74162
gfz2011nkou   0.77397
gfz2011nlum   0.57639
gfz2011qenl   0.25900
gfz2011qukj  -0.71390
gfz2011rkau  -0.46143
gfz2011tqgg   0.39274
gfz2011uqry   0.13343
gfz2011vahy  -0.56948
gfz2011wucg  -0.26167
gfz2011xkka  -0.08082
gfz2011yexx  -0.09980
gfz2011ypfh   0.80401
gfz2012ahac  -0.49238
gfz2012byrq  -0.44471
gfz2012fuyd   0.60711
gfz2012hzur   0.56258
gfz2012nqvd  -0.53734
gfz2012oehy  -0.24534
gfz2012syum  -0.28391
gfz2012wkki  -0.13357
gfz2012wysg   0.18583
gfz2012xask   0.17792
gfz2012xlas  -0.32203
gfz2012xncm  -0.28997
gfz2012xrmq  -0.37164
gfz2012xxdj  -0.33096
gfz2013akkd   0.43949
gfz2013byyy  -0.34689
gfz2013cvve  -0.25288
gfz2013cyvx  -0.12930
gfz2013dngd  -0.72114
gfz2013enqo   2.29690
gfz2013fmcd  -1.29690
gfz2013fnpa  -0.18351
gfz2013fulo   0.31458
gfz2013fvht   0.15998
gfz2013gsnl  -0.70819
gfz2013iwzn   1.14230
gfz2013jfcn   0.12600
gfz2013jobl  -0.27965
gfz2013jzcf  -0.07847
gfz2013kats  -0.54997
gfz2013kbbg  -0.74631
gfz2013kbbn   1.21870
gfz2013kcdb   2.27380
gfz2013kpcb   0.19947
gfz2013kqab   0.29184
gfz2013lbvl  -0.26781
gfz2013mdxj  -0.27368
gfz2013mvgq   0.12355
gfz2013mzaw  -0.17351
gfz2013zfbz   0.07748
gfz2014amgk   0.55014
gfz2014ayxf   0.11649
gfz2014bkra   2.06400
gfz2014cokw   0.02213
gfz2014eirs  -0.03595
gfz2014flxk  -0.36770
gfz2014fsir  -1.38670
gfz2014fxte   0.09931
gfz2014gnbw  -0.18165
gfz2014huqh  -0.56420
gfz2014hzzf  -0.07789
gfz2014igrp   0.13254
gfz2014iltl   0.16414
gfz2014irlf  -0.06676
gfz2014iusw   0.15972
gfz2014jarg   0.43321
gfz2014jayh   0.19845
