# Nsamples: 102  MAD:  0.524  mean:  0.070  std:  1.084
gfz2010clbw  -0.58730
gfz2010crgy  -0.78539
gfz2010crir  -0.64408
gfz2010csle   1.85810
gfz2010csqy  -0.33110
gfz2010cyid  -0.55545
gfz2010dask  -0.55780
gfz2010djib  -0.72950
gfz2010drit   0.18767
gfz2010drml   1.07630
gfz2010drmq   1.07630
gfz2010fgbo   1.20080
gfz2010fjme  -0.29712
gfz2010fxhh  -0.16696
gfz2010habf  -0.05074
gfz2010jlvp  -0.47110
gfz2010ngge   0.10327
gfz2010rljv   0.03913
gfz2010tmba   0.03427
gfz2010tzma   0.46181
gfz2010uhjy  -0.40215
gfz2010vong  -0.32981
gfz2010wakc   0.04703
gfz2010yfdr   6.91780
gfz2010zjun   2.27650
gfz2011ahvh   0.76986
gfz2011amst  -0.59927
gfz2011bpqm  -0.46715
gfz2011bsvr   0.84307
gfz2011bygu  -0.43463
gfz2011cdge   2.32700
gfz2011dabj  -0.96197
gfz2011dpyu  -0.48121
gfz2011gnbk  -0.32385
gfz2011gpyr  -0.19907
gfz2011kjzt  -0.03440
gfz2011kjzv   0.45623
gfz2011lkkf  -0.27377
gfz2011mjje   0.12393
gfz2011ndhh  -0.34968
gfz2011nfcz  -0.52879
gfz2011nhby  -0.33216
gfz2011nijp  -0.66524
gfz2011nilw   3.22070
gfz2011niuw  -0.73633
gfz2011nuqo   0.17757
gfz2011ofpj   1.14190
gfz2011oslk  -0.62287
gfz2011sdax  -0.13575
gfz2011sxno  -0.27416
gfz2011tqgg   2.01290
gfz2011tsgl  -0.24121
gfz2011uowi  -0.67635
gfz2011uqry   0.11979
gfz2011vahy  -0.50825
gfz2012dttl  -0.16629
gfz2012dysu  -1.49300
gfz2012ekfp   1.34370
gfz2012gnow  -0.76108
gfz2012iijk   0.36145
gfz2012kmbo  -0.10246
gfz2012kmmz  -0.66914
gfz2012ldjj  -0.07431
gfz2012oafg  -0.09930
gfz2012oehy  -0.32932
gfz2012phns  -0.43324
gfz2012uvoa   0.01311
gfz2012uzww   0.12207
gfz2012vnve  -0.11100
gfz2012wgmg   1.45140
gfz2012wowu  -0.03948
gfz2012xkln  -0.15707
gfz2012xrmq   0.21451
gfz2013byyy  -0.88068
gfz2013cvve  -1.76700
gfz2013cyvx  -0.26164
gfz2013delq  -0.48889
gfz2013dftb  -0.25205
gfz2013fnpa  -0.35435
gfz2013fulo   0.21336
gfz2013qoak   0.46982
gfz2013quwz   0.22331
gfz2013tnrp   0.39373
gfz2013unuv   0.46851
gfz2013utqa   0.93530
gfz2013uwjo  -1.14550
gfz2013vmrv  -0.27648
gfz2013voai   0.11513
gfz2013vwkh  -0.39883
gfz2013wyfl  -0.60421
gfz2013xahp  -0.29322
gfz2013xmzw  -0.30559
gfz2013xofz   2.28450
gfz2013yodm  -0.75351
gfz2013yqtu  -0.29188
gfz2013zfbz  -1.01940
gfz2013zlak  -0.50707
gfz2014bkra   1.77420
gfz2014bqpm   0.48735
gfz2014byes  -1.17980
gfz2014cokw  -0.17017
gfz2014ctdl  -0.03315
