# Nsamples: 35  MAD:  0.571  mean:  0.737  std:  0.627
gfz2012iijk   1.61800
gfz2012kmbo   0.96768
gfz2012mjuu   0.69037
gfz2012mvgu   0.02871
gfz2012oafg   1.51030
gfz2012oehy   0.61239
gfz2012sxbo   0.71543
gfz2012syum  -0.70848
gfz2013lbvl   1.10260
gfz2013mzaw   1.18630
gfz2013njck   2.12960
gfz2013oeni   0.61624
gfz2013oizq   1.09820
gfz2013qdpv   0.15202
gfz2013qigb   0.35823
gfz2013quwz   1.60050
gfz2013xswc   1.10030
gfz2013zfbz   0.79663
gfz2013ziix   0.68509
gfz2013zlak   1.20090
gfz2014aqop   0.64538
gfz2014byes   0.32049
gfz2014emlw  -0.72658
gfz2014eoay   0.50836
gfz2014esez   0.47120
gfz2014fsir   0.82286
gfz2014fsje   0.52128
gfz2014fxte   0.89958
gfz2014hyea   0.30823
gfz2014hzzf  -0.57666
gfz2014icov   1.18630
gfz2014irlf   0.59691
gfz2014irln   1.35540
gfz2014iusw   0.73377
gfz2014jarg   1.26910
