# Nsamples: 75  MAD:  0.480  mean:  0.090  std:  0.636
gfz2010abfc  -0.62966
gfz2010aggj   0.37691
gfz2010btme   0.33979
gfz2010clbw   0.37361
gfz2010crgy  -0.37792
gfz2010crir  -0.63694
gfz2010dask  -0.52973
gfz2010djib  -0.74142
gfz2010drit   0.59665
gfz2010fgbo   0.20675
gfz2010ngge   0.34817
gfz2010pclq   2.76530
gfz2010pgpo   0.04229
gfz2010qdqk   1.64560
gfz2011gpyr  -0.08303
gfz2011hqjs  -0.60583
gfz2011kjzt  -0.50490
gfz2011kjzv  -0.51080
gfz2011mjje   0.29151
gfz2011ndhh  -0.75330
gfz2011nijp  -0.11269
gfz2011nilw  -0.61168
gfz2011niuw  -0.28566
gfz2011oslk  -0.36265
gfz2011qukj  -0.47105
gfz2011sdax  -0.00644
gfz2011sxno   0.53421
gfz2011tsgl   0.05717
gfz2011yexx   0.17179
gfz2011zghc   0.45441
gfz2012amjx   0.12792
gfz2012bqcf  -0.32090
gfz2012byrq  -0.46909
gfz2012cdju  -0.05664
gfz2012cksh   2.31440
gfz2012cntu  -0.00549
gfz2012cvfr   0.06309
gfz2012ekfp   1.16780
gfz2012iijk   0.40874
gfz2012kmbo  -0.28905
gfz2012ldjj   0.30495
gfz2012mdzf   0.00125
gfz2012mjuu  -0.19775
gfz2012oafg   0.30085
gfz2012oehy   0.03472
gfz2012phns   0.14349
gfz2012uhtc  -0.17678
gfz2012uvoa   0.28466
gfz2012uzww   0.04923
gfz2013byyy  -0.23868
gfz2013cvve  -0.50941
gfz2013cyvx   0.01690
gfz2013delq  -0.14307
gfz2013dzvr  -0.06714
gfz2013fnpa  -0.07874
gfz2013fulo   0.13024
gfz2013fvht  -0.34269
gfz2013icql  -0.05607
gfz2013jfcn   0.48918
gfz2013jobl   0.01602
gfz2013kats  -0.47657
gfz2013kbbg  -0.78983
gfz2013kcdb   0.74872
gfz2013kqab   0.85191
gfz2013lbvl   0.37292
gfz2013mvgq   0.09872
gfz2013oizq   0.46082
gfz2013pkmz  -0.18657
gfz2013qigb   0.30826
gfz2013qoak   0.09753
gfz2013quwz  -0.11887
gfz2013utqa  -0.69253
gfz2013uwjo   0.77496
gfz2013vmrv  -0.13055
gfz2013vvre   1.55350
