# Nsamples: 45  MAD:  1.097  mean: -0.146  std:  1.337
gfz2012iijk  -1.20960
gfz2012imuo   0.38395
gfz2012kmbo  -1.48540
gfz2012mdzf  -0.22535
gfz2012mjuu  -0.16511
gfz2012mmiw   1.39410
gfz2012nnqu   1.00170
gfz2012oafg   0.81822
gfz2012oehy  -0.80456
gfz2012phns   0.45696
gfz2012uhtc  -1.05630
gfz2012uvoa   0.67693
gfz2012uzww   0.27995
gfz2012wgmg   0.18199
gfz2012xlas  -0.67689
gfz2012xxdj   0.88117
gfz2012zhyz   1.28440
gfz2013byyy  -1.37280
gfz2013cyvx   0.41590
gfz2013dzvr   0.06320
gfz2013fnpa   0.22348
gfz2013fvht   0.16872
gfz2013lbvl   0.11007
gfz2013olos  -0.33328
gfz2013tjub  -1.01150
gfz2013tnff  -4.52900
gfz2013uwjo  -2.54220
gfz2013vvre   2.35780
gfz2013wyfl   0.78395
gfz2013xahp   3.66110
gfz2013xswc  -1.40510
gfz2013yqtu   0.15147
gfz2013zlak   0.13203
gfz2014esez  -1.11660
gfz2014flxk   0.16722
gfz2014fsir  -0.82926
gfz2014fxte  -0.07437
gfz2014hzzf  -1.24040
gfz2014icov  -0.32888
gfz2014ijsa   2.03960
gfz2014iltl  -1.05740
gfz2014irlf  -0.24103
gfz2014irln  -2.30840
gfz2014jarg   0.40701
gfz2014jayh  -0.60959
