# Nsamples: 363  MAD:  0.483  mean: -0.031  std:  0.743
gfz2010abfc   0.22738
gfz2010abvu  -1.16200
gfz2010aggj  -0.10794
gfz2010aimm   0.48448
gfz2010aseg   0.46414
gfz2010azji   0.87860
gfz2010bkfi  -0.65865
gfz2010bklj   0.01810
gfz2010bnqr   4.54300
gfz2010bqnk   0.31694
gfz2010brlc   0.26101
gfz2010brrm  -0.61820
gfz2010btme   1.67680
gfz2010bvit   1.84510
gfz2010bytu   0.90820
gfz2010ccse   0.41503
gfz2010ccwc   0.33494
gfz2010ccye  -0.42547
gfz2010clbw  -0.27096
gfz2010cllh  -1.13080
gfz2010cnhd  -0.07733
gfz2010crgy  -0.04567
gfz2010crir  -0.34804
gfz2010csle  -1.10670
gfz2010csmw  -0.40437
gfz2010csqy  -0.03086
gfz2010cthm  -0.02048
gfz2010cvam  -0.65214
gfz2010cvkn   0.81956
gfz2010cyid  -1.46810
gfz2010dask  -0.57174
gfz2010djib  -0.37054
gfz2010ekvl   0.02127
gfz2010eqyj  -0.45584
gfz2010euue  -0.22247
gfz2010extu   0.83119
gfz2010faly  -0.25385
gfz2010fgbo  -0.47740
gfz2010fjme   0.19375
gfz2010fkff  -0.39418
gfz2010fnkr   0.49498
gfz2010fopf   1.00430
gfz2010fpvw  -0.65914
gfz2010fqnn  -0.49933
gfz2010fqzh  -0.59429
gfz2010ftfq   0.33315
gfz2010fvfz   0.65971
gfz2010fxhh  -0.25861
gfz2010fxut  -1.33400
gfz2010gcqp   0.19700
gfz2010gcrn  -1.15400
gfz2010gnvp  -0.06452
gfz2010gonu  -0.11414
gfz2010gpjl  -1.68520
gfz2010gxki  -0.38701
gfz2010habf   3.17670
gfz2010hesh  -0.51974
gfz2010hexh   0.03481
gfz2010hllp  -0.83025
gfz2010hsgv   0.66269
gfz2010hueh  -2.68700
gfz2010hxan   0.25125
gfz2010iaay  -0.92196
gfz2010iawy  -0.26751
gfz2010ifhd  -0.33549
gfz2010ifru   0.59280
gfz2010inbs   0.37147
gfz2010ioad   0.15760
gfz2010izag  -0.53184
gfz2010jcby  -0.23079
gfz2010jcpq   0.66198
gfz2010jdhk   0.15208
gfz2010jlvp  -0.14583
gfz2010jpkn  -0.17314
gfz2010juke  -0.23493
gfz2010jvsi  -1.22150
gfz2010kcyz  -0.06001
gfz2010kwks   1.00220
gfz2010ljmp  -0.44060
gfz2010ljol   0.59205
gfz2010mdti  -0.52567
gfz2010mpvc  -0.27346
gfz2010mqaj  -0.25544
gfz2010ncwu   0.37146
gfz2010ngge  -0.19859
gfz2010nlai   1.24870
gfz2010oguu   0.15055
gfz2010ojhe   0.14207
gfz2010okpc  -2.64850
gfz2010ovvg   0.27205
gfz2010pclq   0.90906
gfz2010pcya  -1.26830
gfz2010pgpo   0.35920
gfz2010pngv   2.57880
gfz2010pvnn   0.56689
gfz2010pxoi  -0.69150
gfz2010qbcy  -0.46109
gfz2010qdqk   0.87533
gfz2010qqqx   0.48968
gfz2010qrix   0.12467
gfz2010qrta  -0.22452
gfz2010qzvf  -0.19496
gfz2010rkuu  -0.37637
gfz2010rljv  -0.44586
gfz2010rmua  -0.17270
gfz2010rnwt  -2.38720
gfz2010rpjd   0.31868
gfz2010schp  -0.05950
gfz2010scht  -0.09389
gfz2010vdcf  -0.34549
gfz2010vkca  -0.45081
gfz2010vong  -0.32224
gfz2010wakc  -0.64552
gfz2010wwnq  -0.59225
gfz2010xamh  -0.25105
gfz2010xezr   1.34320
gfz2010xnbn  -0.42893
gfz2010xpzq   0.00301
gfz2010xvev   0.08484
gfz2010xytc  -0.52127
gfz2010yfdr   0.24939
gfz2010yilf   1.24280
gfz2010ytzb  -0.11522
gfz2011sqco  -0.28246
gfz2011sylg  -0.88438
gfz2011syvj   0.98183
gfz2011syzr   0.92395
gfz2011taqr   0.52809
gfz2011tlwl   0.64023
gfz2011tsgl   0.44923
gfz2011tvuv  -0.38610
gfz2011uowi   0.22354
gfz2011uqry  -0.15959
gfz2011vahy  -0.22543
gfz2011vbxv   0.08228
gfz2011vimn  -0.53720
gfz2011vtzv  -0.11599
gfz2011wpzt  -0.37311
gfz2011wqup  -0.06786
gfz2011wtfn  -0.49727
gfz2011wyei   1.51630
gfz2011ypfh   1.17440
gfz2011zghc  -0.66766
gfz2012adja   0.23129
gfz2012ahac   0.08691
gfz2012alti  -0.01394
gfz2012arlo  -0.37649
gfz2012bcvn   0.47686
gfz2012bity  -0.48675
gfz2012cdju  -0.03625
gfz2012cmww   0.04242
gfz2012dnig  -0.00000
gfz2012dsei  -0.30598
gfz2012dtlu   0.17253
gfz2012dttl  -0.10962
gfz2012dyck  -0.02920
gfz2012dzou   1.94420
gfz2012eajr   1.30660
gfz2012eyti  -0.98131
gfz2012gdye  -0.12631
gfz2012gftg  -0.00000
gfz2012gnow  -0.25118
gfz2012gpcd   0.20521
gfz2012heih   0.28077
gfz2012hzhn  -1.31520
gfz2012ipdc   0.33308
gfz2012iphs  -0.67858
gfz2012kadi   0.15752
gfz2012klpl  -0.00000
gfz2012luzm  -0.06661
gfz2012lvlr   0.78274
gfz2012mmiw  -0.17663
gfz2012mpzo   0.20698
gfz2012mrqk  -0.78925
gfz2012mrwu   0.65984
gfz2012mvgu   0.02332
gfz2012mzqx  -0.15591
gfz2012ofnx   0.32956
gfz2012oozp   0.31809
gfz2012pdav   0.30093
gfz2012pmuj  -1.11190
gfz2012pokk   0.10662
gfz2012pvve   0.19099
gfz2012rzwp  -0.73865
gfz2012sfao   0.77896
gfz2012suqd  -0.48832
gfz2012svwz  -0.79931
gfz2012swbz  -0.09378
gfz2012syum  -0.26773
gfz2012taph  -0.36464
gfz2012tgta  -0.01967
gfz2012tqjc   0.16498
gfz2012trfq  -0.08283
gfz2012trss   0.34065
gfz2012ttnf  -0.13588
gfz2012twec   0.25738
gfz2012uhsx  -0.55660
gfz2012umob  -0.05859
gfz2012vgot   0.11173
gfz2012vile  -1.10990
gfz2012vitw   0.13849
gfz2012vkjw   0.36472
gfz2012vnve   0.24509
gfz2012wmmw  -0.06732
gfz2012wysg  -0.13245
gfz2012xask   0.15984
gfz2012xbna   0.32530
gfz2012xfsl   0.13585
gfz2012xqxw  -0.29361
gfz2012xrmq  -0.26037
gfz2012yihn  -0.57046
gfz2012ylai  -0.10060
gfz2012zktj  -2.29270
gfz2012znou  -0.30750
gfz2012zqis   0.10115
gfz2013aggr  -0.73666
gfz2013ajxz   0.38770
gfz2013bqfc  -0.52743
gfz2013bwgw  -0.60524
gfz2013byyy  -0.14097
gfz2013cinv   0.01875
gfz2013cpjc   0.49081
gfz2013cqak   0.90613
gfz2013cvve  -0.30130
gfz2013dbhl  -0.23665
gfz2013dftb  -0.10565
gfz2013dfvx   1.51260
gfz2013dksc  -0.60435
gfz2013eavq   0.19470
gfz2013efct   0.13291
gfz2013eidd   0.21712
gfz2013enqo   1.64560
gfz2013fndg  -0.00000
gfz2013fnpa   0.12765
gfz2013fthi   0.36563
gfz2013fulo   0.47827
gfz2013fvht   0.19843
gfz2013gkyn   0.17942
gfz2013glpz  -0.19489
gfz2013gurk  -0.09963
gfz2013gxye   0.35904
gfz2013hbmi   0.51137
gfz2013hbtm   0.39125
gfz2013hdbp  -0.04031
gfz2013hiam  -0.07357
gfz2013hvzv   0.85290
gfz2013icgx  -0.23133
gfz2013icql   0.16880
gfz2013ikic   0.11070
gfz2013iuyv   0.83201
gfz2013ivvw  -0.10150
gfz2013jfcn  -0.33385
gfz2013jobl  -0.04586
gfz2013jzcf   0.53726
gfz2013jzfz   0.11258
gfz2013kats  -0.19093
gfz2013kbbg  -0.47401
gfz2013kcdb   0.48028
gfz2013kjgh  -1.03080
gfz2013kpcb  -0.07038
gfz2013kqab  -0.20228
gfz2013kslp   0.43016
gfz2013kxlr  -0.38246
gfz2013lbod   0.51020
gfz2013lbvl  -0.03837
gfz2013ljdu   0.21472
gfz2013ljwt  -0.33766
gfz2013lqjj  -0.18507
gfz2013lvxe   0.43209
gfz2013mdxj   0.00000
gfz2013mvgq   0.66219
gfz2013mzaw  -0.00573
gfz2013nnai  -0.57600
gfz2013oeni   0.73075
gfz2013oizq  -0.05016
gfz2013okac  -0.23686
gfz2013olos  -0.06553
gfz2013orot   0.18055
gfz2013oruq  -0.30778
gfz2013osmj   0.78249
gfz2013otuj  -0.15597
gfz2013phhi  -4.52250
gfz2013pkmz  -1.24540
gfz2013qigb   0.46385
gfz2013qmkt  -0.86288
gfz2013qoak  -0.67210
gfz2013quwz  -0.28664
gfz2013quyn  -0.11997
gfz2013qwnm   0.48814
gfz2013qxof  -0.53659
gfz2013rdmn  -0.26035
gfz2013rfik  -0.09448
gfz2013rgcc  -0.28745
gfz2013rocs  -0.05659
gfz2013rtvy  -0.34015
gfz2013rwkj  -0.25105
gfz2013rwog  -0.19656
gfz2013ryfc  -0.05979
gfz2013ryph  -0.00000
gfz2013sdkg   0.13589
gfz2013sdym   0.14281
gfz2013skvq  -0.42842
gfz2013stou   0.16904
gfz2013swnj  -0.22325
gfz2013taeb  -0.32387
gfz2013tcju   0.02487
gfz2013tdsx  -0.10644
gfz2013tekq  -0.16477
gfz2013tert   0.01470
gfz2013tjub  -0.34767
gfz2013tkcg   0.14159
gfz2013tnrp   0.14911
gfz2013trsq   0.65255
gfz2013twbc   2.16210
gfz2013ubgt  -0.54222
gfz2013udtw   0.28509
gfz2013uepl  -0.09623
gfz2013ujze  -0.35048
gfz2013unuv   0.59249
gfz2013uwjo  -0.60222
gfz2013uxzw  -1.58320
gfz2013vcgd  -0.61680
gfz2013vdam  -0.03378
gfz2013veoz  -0.95039
gfz2013veug   0.33092
gfz2013vjrr  -0.47150
gfz2013vldx  -0.48432
gfz2013vmrv  -0.19709
gfz2013vnwa  -0.99943
gfz2013voai   0.11484
gfz2013vojy  -0.75531
gfz2013vvre   0.75036
gfz2013vwkh  -0.00000
gfz2013wyfl  -0.61308
gfz2013wyho   0.88417
gfz2013xahp   0.02033
gfz2013xddu   0.52438
gfz2013xjmo  -1.02040
gfz2013xlic  -0.17877
gfz2013xmzw  -0.42470
gfz2013xodn  -0.46589
gfz2013xofz   0.92632
gfz2013xswc  -0.05100
gfz2013xupg   0.38578
gfz2013xvps   0.54452
gfz2013xxbf   0.99971
gfz2013xycz   0.23443
gfz2013xzxe  -0.24296
gfz2013ylxm   0.52555
gfz2013ylxn  -0.38941
gfz2013ymhx   1.14890
gfz2013yodm  -0.24240
gfz2013yqkz   0.44001
gfz2013yqtu  -0.84671
gfz2013yvpn   0.47152
gfz2013zfbz   0.00176
gfz2013zkta  -0.02070
gfz2013zkzb  -0.67197
gfz2013zlak  -0.32672
gfz2013zqan   0.50496
gfz2014aaae  -0.75038
gfz2014aedl  -0.13681
gfz2014afbt   0.16824
