# Nsamples: 21  MAD:  0.895  mean:  1.407  std:  1.388
gfz2010abfc  -3.45400
gfz2010crgy   0.20300
gfz2010csle   1.22120
gfz2010cyid   1.55080
gfz2010dask   1.71530
gfz2010rljv   2.87850
gfz2010xpzq   2.36730
gfz2011ahvh   2.07760
gfz2011gnbk   1.95050
gfz2011nuqo   2.36420
gfz2011ofpj   2.20190
gfz2011sdax   1.66370
gfz2012mdzf   2.07680
gfz2012uzww   2.31880
gfz2013qigb   0.26652
gfz2013qoak   2.99290
gfz2013quwz   0.85436
gfz2013zlak   1.91020
gfz2014fsir   1.63070
gfz2014hzzf   0.46383
gfz2014irln   0.28301
