# Nsamples: 169  MAD:  0.575  mean:  0.034  std:  1.330
gfz2010abvu  -0.60860
gfz2010aggj  -0.72553
gfz2010aimm  -0.22548
gfz2010azji   2.30000
gfz2010ccye   2.18970
gfz2010clbw  -0.57517
gfz2010cllh  -1.07590
gfz2010crgy  -0.57295
gfz2010crir  -0.71598
gfz2010cyid   1.00050
gfz2010dask  -1.30550
gfz2010djib  -0.32758
gfz2010drit  -0.66565
gfz2010drpv   2.82030
gfz2010fjme  -0.91485
gfz2010fkff   5.88950
gfz2010fvfz  -0.67879
gfz2010gcqp  -1.00550
gfz2010gonu  -0.41783
gfz2010habf  -0.45026
gfz2010hllp  -0.76933
gfz2010jpkn  -0.56977
gfz2010mqzz  -0.64033
gfz2010ngge  -0.45211
gfz2010qdqk   1.89430
gfz2010qrta  -0.18146
gfz2010rkuu  -0.05139
gfz2010rljv   0.07958
gfz2010schp   0.24361
gfz2010scht  -0.47839
gfz2010tmba  -0.17536
gfz2010tpcj   2.41080
gfz2010tqyo   3.98000
gfz2010ugws  -1.93570
gfz2010uhjy  -1.31450
gfz2010vong  -0.78134
gfz2010wwnq   0.91581
gfz2010xamh   1.82710
gfz2010xnbn  -0.02885
gfz2010xpzq  -0.08165
gfz2010xvev   4.17270
gfz2010yfdr  -0.23933
gfz2010zjun  -0.27477
gfz2011ahvh   3.74830
gfz2011amst  -0.63782
gfz2011bpqm   1.05670
gfz2011bsvr  -0.61608
gfz2011bygs  -0.51502
gfz2011bygu  -0.45535
gfz2011cdge  -0.14346
gfz2011chsa   2.54250
gfz2011cjuz   0.71921
gfz2011dabj  -0.14202
gfz2011dpyu  -0.67232
gfz2011edrq  -0.10534
gfz2011etkc  -0.61877
gfz2011fnie  -0.34233
gfz2011fszl  -0.04160
gfz2011ggnl  -0.57973
gfz2011gnbk  -0.06292
gfz2011gpyr  -0.24971
gfz2011hqjs  -0.19730
gfz2011kjzt   3.04250
gfz2011lwmg  -1.08450
gfz2011ndhh  -1.16470
gfz2011niuw  -1.83730
gfz2011nsiy  -1.02230
gfz2011nuqo  -1.09570
gfz2011ofpj   0.78876
gfz2011ohgj  -1.26300
gfz2011oslk  -0.32755
gfz2011paqj  -0.01842
gfz2011ppsc  -0.19120
gfz2011prrq  -0.29069
gfz2011pwbw   4.18120
gfz2011qenl   0.48669
gfz2011qukj  -0.40294
gfz2011rnsp   0.36802
gfz2011sdax   0.04270
gfz2011sqco   1.15260
gfz2011sxno   0.18122
gfz2011tgon   2.18830
gfz2011tsgl   0.09398
gfz2011uqry  -1.24550
gfz2011vahy  -0.37103
gfz2011vbxv  -0.31641
gfz2011wcvs  -2.18730
gfz2011wucg  -0.56480
gfz2011xgbc  -0.27998
gfz2011xkka   0.75722
gfz2011yexx  -0.32519
gfz2011zghc  -0.72638
gfz2011zkbt  -0.87785
gfz2012bqcf  -0.40648
gfz2012cntu   0.34670
gfz2012cvfr  -0.11310
gfz2012dwwu   1.67150
gfz2012dzou   1.25850
gfz2012ekfp  -1.13070
gfz2012ghiv   4.09450
gfz2012iblo  -1.22090
gfz2012iijk  -0.74562
gfz2012kmbo  -1.85480
gfz2012kmmz  -0.62921
gfz2012ldjj   1.40840
gfz2012mdzf  -0.23649
gfz2012nldz  -1.55390
gfz2012nnqu  -0.43756
gfz2012nqvd   1.01900
gfz2012oafg  -0.00519
gfz2012oehy  -0.24584
gfz2012oork   1.46410
gfz2012phns  -0.96468
gfz2012pmuq   0.06010
gfz2012sgfd  -1.67110
gfz2012vqmq  -0.21028
gfz2012wgdv   2.88130
gfz2013mzaw  -0.05261
gfz2013oizq  -0.12045
gfz2013phhi   4.01730
gfz2013pkmz  -0.76939
gfz2013quwz   0.55609
gfz2013rwkj  -0.99358
gfz2013stup  -1.37400
gfz2013tdsx   0.60052
gfz2013tnrp  -0.35245
gfz2013udtw  -0.11162
gfz2013uepl  -0.89511
gfz2013utqa  -0.94528
gfz2013uwjo  -0.55674
gfz2013uxzw  -0.60576
gfz2013vjrr  -0.33175
gfz2013vmrv  -0.94834
gfz2013vnwa   0.65787
gfz2013wgwz   1.35770
gfz2013wyfl  -0.60772
gfz2013xahp  -0.39777
gfz2013xmzw  -0.53480
gfz2013xswc  -0.03945
gfz2013yxhf   3.25270
gfz2013zfbz  -0.40957
gfz2013zlak   0.00000
gfz2014aaae  -0.48238
gfz2014amgk  -1.00320
gfz2014aqop  -0.25851
gfz2014bkra   2.35570
gfz2014eirs   0.12067
gfz2014eoay  -0.83243
gfz2014esez  -0.53129
gfz2014flxk  -1.19350
gfz2014fsir  -0.26462
gfz2014fsje  -0.19785
gfz2014fwxt  -1.01700
gfz2014fxte  -0.79732
gfz2014fxuy  -1.07820
gfz2014gnbw  -0.32879
gfz2014grwv  -0.29394
gfz2014gtoj   0.83792
gfz2014hkcw  -0.43902
gfz2014hqhv  -0.12226
gfz2014hzzf  -1.01850
gfz2014icov  -0.17644
gfz2014igrp  -0.18390
gfz2014iltl  -1.16190
gfz2014irlf  -0.20865
gfz2014irln  -0.15811
gfz2014iusw  -0.24016
gfz2014jarg  -0.76259
gfz2014jayh   0.06959
