# Nsamples: 9  MAD:  0.272  mean: -0.523  std:  0.334
gfz2010clbw  -0.81488
gfz2010cllh  -0.86313
gfz2010crgy  -0.48685
gfz2010crir  -0.76883
gfz2010dask  -0.72053
gfz2010djib  -0.67984
gfz2010drit  -0.08322
gfz2010fgbo  -0.34828
gfz2010fjme   0.06257
