# Nsamples: 370  MAD:  0.507  mean:  0.020  std:  0.685
gfz2010abfc   0.67004
gfz2010aggj   0.06288
gfz2010aimm   0.40291
gfz2010aseg   0.17509
gfz2010azji   0.80256
gfz2010bkfi   0.41819
gfz2010brrm   0.58091
gfz2010ccwc   1.75770
gfz2010ccye   0.47132
gfz2010cllh  -0.10743
gfz2010cphq   2.42580
gfz2010crgy  -0.15837
gfz2010crir  -0.09259
gfz2010cyid  -1.21620
gfz2010dask  -0.61874
gfz2010diid   0.87143
gfz2010djib  -0.32327
gfz2010drit  -0.29353
gfz2010drml  -0.25070
gfz2010drmq  -0.25070
gfz2010drpv  -0.13332
gfz2010drun  -0.80475
gfz2010fjme  -0.35108
gfz2010fkff  -0.03901
gfz2010fopf   0.81584
gfz2010fqzh  -0.79295
gfz2010fvfz   0.12091
gfz2010gonu  -0.04624
gfz2010habf   0.27194
gfz2010hesh  -0.61582
gfz2010hllp  -0.21327
gfz2010hsgv   0.35740
gfz2010hxan   0.66620
gfz2010iaay  -0.41683
gfz2010ifhd  -0.21822
gfz2010ioad  -0.47728
gfz2010izag   0.28288
gfz2010izgb  -0.40091
gfz2010jdhk   0.41766
gfz2010jlvp  -0.15046
gfz2010jpkn   0.05069
gfz2010mdti   0.22676
gfz2010mqaj  -0.31104
gfz2010mqzz  -0.28488
gfz2010ncwu   0.66898
gfz2010ngge  -0.56529
gfz2010nlai  -0.02236
gfz2010okpc  -0.73678
gfz2010osaq   0.56490
gfz2010pclq   0.58728
gfz2010pvnn   1.66060
gfz2010qdqk   1.40520
gfz2010qrta   0.31776
gfz2010rdip  -0.23888
gfz2010rkuu  -0.57295
gfz2010rljv   0.37363
gfz2010rmua  -0.38171
gfz2010rnwt  -1.90090
gfz2010rpjd   1.44030
gfz2010schp  -0.32180
gfz2010scht   0.16554
gfz2010tcgh   0.34153
gfz2010tmba  -0.06248
gfz2010tqyo  -0.39579
gfz2010tzma  -0.13466
gfz2010ugws   0.28648
gfz2010uhjy   0.02967
gfz2010uidg  -1.72890
gfz2010ujqn  -0.02791
gfz2010umxj  -0.52541
gfz2010umyp  -0.18756
gfz2010uogw  -0.50760
gfz2010vong  -0.18376
gfz2010xamh  -0.36179
gfz2010xezr   0.48400
gfz2010xnbn  -0.87300
gfz2010xpzq   0.32180
gfz2010xvev  -0.22632
gfz2010xytc   0.15175
gfz2010yfdr   0.37637
gfz2010yilf   0.47497
gfz2010ymih   0.08356
gfz2010zjun  -0.12952
gfz2011ahvh   0.32002
gfz2011awsv  -0.33050
gfz2011bcvc  -0.19796
gfz2011bffb   0.38163
gfz2011boaz   0.57230
gfz2011bpqm   0.36180
gfz2011bsvr  -0.46787
gfz2011bygs  -0.01390
gfz2011bygu  -0.04944
gfz2011cdge   0.19012
gfz2011cjuz  -0.82958
gfz2011cwzi   0.34288
gfz2011dabj   0.08242
gfz2011dhfg  -0.20315
gfz2011dhqk   0.64032
gfz2011dpyu  -0.15279
gfz2011emzr   0.29583
gfz2011etkc   0.33970
gfz2011fnie  -0.09417
gfz2011fnuk   0.05335
gfz2011fszl   0.82316
gfz2011fzcw  -1.26680
gfz2011ggnl  -1.18990
gfz2011gnbk   0.14730
gfz2011gpyr  -0.02451
gfz2011hqjs   0.19931
gfz2011kfch   0.08780
gfz2011kgvq  -0.41032
gfz2011lkkf   1.31910
gfz2011lwmg   0.45657
gfz2011mror  -0.48330
gfz2011ndhh  -0.64547
gfz2011nejg   0.26631
gfz2011nejw  -0.07748
gfz2011nfcz   0.45018
gfz2011nijp  -0.96993
gfz2011nilw  -1.88270
gfz2011niuw  -1.25840
gfz2011nkou   1.33360
gfz2011nlum  -0.68957
gfz2011nuqo  -0.27790
gfz2011oadm   0.35994
gfz2011oazk   0.12244
gfz2011ofpj   0.41043
gfz2011ohgj  -0.60624
gfz2011owqa  -0.20867
gfz2011paqj  -0.60915
gfz2011pmuv   0.17099
gfz2011poug  -0.40309
gfz2011ppsc  -0.23646
gfz2011prrq  -0.50267
gfz2011qenl   0.43219
gfz2011qukj  -0.06512
gfz2011rkau  -0.32656
gfz2011rnsp   0.46317
gfz2011sqco   0.19955
gfz2011sxno   0.20678
gfz2011syvj  -0.26819
gfz2011taqr   0.40503
gfz2011tarj   0.02010
gfz2011tgon  -0.21819
gfz2011tlwl  -0.04535
gfz2011tqgg   1.54220
gfz2011tsgl  -0.67699
gfz2011uowi   0.01987
gfz2011uqry  -0.66835
gfz2011vahy   0.22335
gfz2011vbxv   0.17382
gfz2011vcyx  -0.96751
gfz2011vimn  -0.46820
gfz2011vtzv  -0.56240
gfz2011wcvs  -1.34970
gfz2011wpzt  -0.06805
gfz2011wtfn  -1.56420
gfz2011wucg  -0.02976
gfz2011wwze   0.63519
gfz2011xgbc   0.27195
gfz2011xgwy  -0.50604
gfz2011xkka   0.14527
gfz2011yexx  -0.00000
gfz2011ypfh   1.04790
gfz2011zghc   0.40834
gfz2012alti  -0.02160
gfz2012aqpa   1.12690
gfz2012arlo  -0.15090
gfz2012bity  -0.36072
gfz2012byrq   0.58830
gfz2012bysu   1.00570
gfz2012bytv  -1.49830
gfz2012byuk  -1.39160
gfz2012cdju   0.02772
gfz2012cksh  -1.04640
gfz2012cmww  -0.02829
gfz2012cvfr   0.36057
gfz2012dejg   1.48420
gfz2012dnig   0.29542
gfz2012dttl   0.53472
gfz2012duwm   0.27457
gfz2012dwwu  -0.55952
gfz2012dyck   0.70410
gfz2012dysu   0.66007
gfz2012eajr   1.81460
gfz2012ekfp  -0.83036
gfz2012evxn  -0.35842
gfz2012gdye   0.12797
gfz2012ghiv  -0.10727
gfz2012ghyd  -0.69659
gfz2012gjdg  -0.34927
gfz2012gnow   0.32461
gfz2012hvtu   1.97400
gfz2012hzur  -1.62430
gfz2012iblo  -0.24154
gfz2012kmbo  -0.15306
gfz2012kmmz   0.40687
gfz2012ldjj   0.53218
gfz2012lyyr   0.17675
gfz2012mdzf  -0.07125
gfz2012mrqk   0.67523
gfz2012mrwu   0.17309
gfz2012mtyn   0.80744
gfz2012nnqu  -1.13130
gfz2012nqvd  -0.02988
gfz2012oehy   0.16166
gfz2012oork   0.85766
gfz2012pdav   0.06760
gfz2012pmuj  -0.99239
gfz2012sgfd  -0.24093
gfz2012socz   1.41400
gfz2012suqd  -0.15407
gfz2012svwz   0.23149
gfz2012swbz  -0.17023
gfz2012sxbo  -0.55107
gfz2012sxpr  -1.09560
gfz2012sxzs  -0.36835
gfz2012syum   0.82248
gfz2012wgmg  -0.55178
gfz2012wkki   0.56010
gfz2012wmmw   0.60319
gfz2012wysg   0.78216
gfz2012xask   0.45564
gfz2012xcsf   0.05801
gfz2012xkln  -0.17179
gfz2012xlas  -0.24996
gfz2012xlfo  -0.35245
gfz2012xncm  -0.54667
gfz2012xqxw  -0.36784
gfz2012xrmq   0.06938
gfz2012yihn   0.87571
gfz2012ylai   0.14459
gfz2013agmt   0.00536
gfz2013akkd   0.54967
gfz2013bqfc  -0.12034
gfz2013bwgw   0.19657
gfz2013byyy   0.01595
gfz2013cpjc   0.62312
gfz2013cvve   0.23321
gfz2013cyvx   0.31352
gfz2013delq  -0.10249
gfz2013dftb   0.60055
gfz2013dngd  -0.03871
gfz2013dzvr  -0.00905
gfz2013eavq   0.36046
gfz2013efct   0.30029
gfz2013enqo   0.83284
gfz2013fmcd   1.19760
gfz2013fndg   0.39416
gfz2013fnpa   0.08523
gfz2013lvxe  -0.54371
gfz2013mvgq   0.40333
gfz2013mzaw   0.33649
gfz2013nkgt   0.01974
gfz2013oeni   0.26309
gfz2013oizq  -0.03416
gfz2013phhi  -0.89746
gfz2013pkmz  -0.37354
gfz2013qapj   0.02101
gfz2013qigb   0.21793
gfz2013qoak  -0.33741
gfz2013quwz   0.03530
gfz2013quyn  -0.23821
gfz2013qxof   2.10360
gfz2013rtvy  -0.80035
gfz2013ryph   0.81214
gfz2013skvq  -0.13416
gfz2013stou   0.30575
gfz2013stup  -1.23770
gfz2013swnj  -0.15336
gfz2013taeb   3.10720
gfz2013tcju  -0.72618
gfz2013tdsx   0.20522
gfz2013tekq   0.06961
gfz2013tert   0.47407
gfz2013tgia   0.01992
gfz2013tjub   0.16638
gfz2013tnrp  -0.22884
gfz2013trsq   0.20864
gfz2013ubgt   0.78807
gfz2013udtw   0.43213
gfz2013uepl   0.02315
gfz2013unuv   0.05954
gfz2013upqj  -3.84520
gfz2013utqa  -0.34794
gfz2013uwjo  -1.49840
gfz2013uxzw  -0.05219
gfz2013vcgd  -0.48663
gfz2013vdam   0.35734
gfz2013veug   1.03030
gfz2013vjrr  -0.09866
gfz2013vldx   1.61070
gfz2013vmrv   0.20500
gfz2013voai   0.14713
gfz2013vojy   0.20819
gfz2013vvre   0.31071
gfz2013wyfl   0.08848
gfz2013xacx   0.58608
gfz2013xahp   0.11168
gfz2013xbdc  -0.11772
gfz2013xmzw   0.26956
gfz2013xodn  -0.22614
gfz2013xofz   0.59961
gfz2013xswc  -0.41314
gfz2013xvps   0.45607
gfz2013xycz  -0.00333
gfz2013ylxm   0.52194
gfz2013ylxn  -0.28841
gfz2013yodm   0.23149
gfz2013yqtu  -0.24775
gfz2013yxhf   0.54850
gfz2013zkzb  -0.54631
gfz2013zlak  -0.59231
gfz2014aaae  -0.45058
gfz2014aedl   0.67885
gfz2014ajgi  -0.08368
gfz2014amgk  -1.71500
gfz2014aqop   0.20650
gfz2014ateb  -0.08847
gfz2014ayxf  -0.69584
gfz2014bdju   0.47419
gfz2014bkra   0.32853
gfz2014cjao   0.36200
gfz2014cokw   0.00053
gfz2014crac  -0.07171
gfz2014ctdl  -0.09544
gfz2014cvnb   0.59150
gfz2014dbqi  -0.17263
gfz2014dihl  -0.75055
gfz2014edjm   0.40481
gfz2014eirs   0.46885
gfz2014eoay  -0.03227
gfz2014esez  -2.14640
gfz2014fbli   0.32124
gfz2014fbnr   0.16382
gfz2014fdhk  -1.66910
gfz2014fjfz   0.26431
gfz2014flxk  -0.09891
gfz2014fsir   0.39090
gfz2014fsje  -0.04330
gfz2014fwuf   0.75235
gfz2014fwxt   0.08033
gfz2014fxte  -0.18987
gfz2014fxuy  -0.27080
gfz2014gnbw   0.46355
gfz2014grwv   0.41607
gfz2014happ  -0.13747
gfz2014hhey  -0.23690
gfz2014hhis   0.07708
gfz2014hjmc  -0.18814
gfz2014hkcw   0.34454
gfz2014hqhv   0.21149
gfz2014huqh  -0.26406
gfz2014hyea  -0.37243
gfz2014hzzf  -0.32866
gfz2014iaqm   1.26850
gfz2014iayo   0.02098
gfz2014icov  -0.18440
gfz2014igrp   0.46247
gfz2014ijsa  -1.41920
gfz2014iltl   0.36558
gfz2014ined   0.00000
gfz2014irlf   0.00423
gfz2014irln   0.46266
gfz2014irly  -0.30044
gfz2014isjg  -0.03816
gfz2014iusw  -0.32478
gfz2014ixlc  -0.35147
gfz2014jarg   0.38528
gfz2014jayh   0.27276
