# Nsamples: 26  MAD:  0.662  mean:  1.181  std:  1.345
gfz2010qykh   0.60170
gfz2011bpqm   0.90789
gfz2011bsvr  -0.20899
gfz2011dpyu   0.56291
gfz2011gnbk   7.07480
gfz2011kjzt   1.49780
gfz2011sdax   1.71090
gfz2011tqgg   1.94310
gfz2011vahy   0.64109
gfz2011wcvs   0.08395
gfz2012cvfr   2.16080
gfz2012mjuu   1.27030
gfz2012umob   1.56840
gfz2012uvoa   1.01030
gfz2013cyvx   1.32210
gfz2013fulo   0.61055
gfz2013kpcb   1.34100
gfz2013qigb   0.44768
gfz2013qoak   1.09480
gfz2013quwz   0.68171
gfz2014fjfz   0.20358
gfz2014flxk   1.81620
gfz2014fsir   0.88977
gfz2014fxte   0.28074
gfz2014irlf   0.42750
gfz2014irln   0.77554
