# Nsamples: 154  MAD:  0.726  mean: -0.005  std:  0.781
gfz2010aseg   0.84293
gfz2010azji   0.88919
gfz2010bklj  -0.63051
gfz2010bqnk   0.39933
gfz2010btme   2.81840
gfz2010ccwc   0.01456
gfz2010ccye  -0.14109
gfz2010clbw  -0.66446
gfz2010cllh   0.21000
gfz2010cphq   0.26045
gfz2010cpig   1.28010
gfz2010crgy  -1.12540
gfz2010crir  -0.65822
gfz2010csle  -0.26970
gfz2010csqy   1.17480
gfz2010cyid   0.16278
gfz2010dask   0.08536
gfz2010djib  -1.49070
gfz2010drit   0.25957
gfz2010drml   0.34358
gfz2010drmq   0.34358
gfz2010drun  -1.31840
gfz2010dslu  -0.17755
gfz2010fqnn  -0.42920
gfz2010habf  -0.09255
gfz2010hueh   1.87360
gfz2010jvsi   0.01533
gfz2010pcya  -2.37760
gfz2010rljv   0.26329
gfz2010sdfs   1.04830
gfz2010tmba   0.26555
gfz2010tpcj  -1.18410
gfz2010tzma  -1.03570
gfz2010uhjy   0.07113
gfz2011ahvh  -0.39084
gfz2011vahy   0.04280
gfz2011vbxv   0.14344
gfz2011vcyx   0.20414
gfz2011vtzv   0.22053
gfz2011wcvs  -0.23996
gfz2011zghc   1.13190
gfz2012arlo   1.43980
gfz2012dejg   0.60167
gfz2012dttl   0.49867
gfz2012dwwu  -0.17141
gfz2012qfah   0.57344
gfz2012qpoc  -0.01385
gfz2012sgfd   1.01280
gfz2012socz   0.10736
gfz2012sqsc   0.12242
gfz2012suqd   0.68645
gfz2012svwz   0.38270
gfz2012syum  -1.10970
gfz2012tvgw   1.05660
gfz2012uegq   0.51254
gfz2012uhtc   0.20892
gfz2012uvoa  -0.38127
gfz2012uzww   0.00872
gfz2012wgmg   0.23728
gfz2012wkki   0.34764
gfz2012wowu   0.64155
gfz2012wysg   0.48836
gfz2012xcsf   0.69491
gfz2012xkln   0.36218
gfz2012xlas  -1.01160
gfz2012xncm   0.73566
gfz2012xqxw   0.20927
gfz2012xrmq   0.37730
gfz2012xxdj  -0.40485
gfz2013agmt   0.79295
gfz2013akkd   0.57300
gfz2013bwgw  -0.09173
gfz2013byyy  -0.24605
gfz2013cvve   0.56869
gfz2013cyvx  -0.54835
gfz2013delq  -0.53290
gfz2013dngd   0.17816
gfz2013dzvr  -0.11644
gfz2013efct   0.12580
gfz2013fulo  -1.37150
gfz2013fvht   1.27920
gfz2013jfcn  -0.14930
gfz2013jobl   0.42997
gfz2013kats  -1.04010
gfz2013kcdb   0.26260
gfz2013kpcb  -0.88655
gfz2013kqab   0.34120
gfz2013lbvl  -1.19530
gfz2013mdxj   0.55059
gfz2013nkgd  -1.03030
gfz2013oizq  -0.62606
gfz2013olos  -0.38252
gfz2013orot   0.65939
gfz2013qigb  -0.92432
gfz2013qmkt  -0.07313
gfz2013qoak  -0.56393
gfz2013quwz  -1.20720
gfz2013qxof   0.08112
gfz2013skvq   0.07535
gfz2013tdsx   0.06953
gfz2013tjub  -1.14210
gfz2013upqj   2.23870
gfz2013uwjo   0.74431
gfz2013uxzw   0.24755
gfz2013vmsg   0.39891
gfz2013vnwa   0.48902
gfz2013vojy   0.85899
gfz2013vzel  -1.21080
gfz2013wyfl  -0.26755
gfz2013xahp  -0.04449
gfz2013xjmo  -0.79755
gfz2013xmzw   0.82631
gfz2013xswc  -0.46159
gfz2013ylxn  -0.12322
gfz2013yqtu   1.26920
gfz2013zfbz  -0.11575
gfz2013zlak   0.40837
gfz2014amgk   0.25265
gfz2014aqop  -1.56720
gfz2014ayxf   0.54319
gfz2014bdju   0.01845
gfz2014bgxe  -1.14380
gfz2014bkra  -0.78630
gfz2014cokw   0.14191
gfz2014dggw   0.12277
gfz2014dihl  -0.78300
gfz2014diuu   0.94288
gfz2014egvg   0.91841
gfz2014eirs  -0.48720
gfz2014eoay   0.14062
gfz2014epnq  -0.51131
gfz2014esez   0.06488
gfz2014fbnr   1.39940
gfz2014fdhk  -0.41311
gfz2014flxk   0.06006
gfz2014fsir  -0.70444
gfz2014fsje  -0.89924
gfz2014fxte  -1.01220
gfz2014fxuy  -0.52124
gfz2014gnbw  -0.28483
gfz2014gypw   0.89678
gfz2014hkcw  -0.41102
gfz2014hqhv  -0.13524
gfz2014huqh   0.89915
gfz2014hzzf  -0.86608
gfz2014igrp  -0.47551
gfz2014ijsa  -1.38420
gfz2014iltl  -0.83005
gfz2014irlf  -1.21100
gfz2014irln  -0.26113
gfz2014irly  -0.65527
gfz2014iusw  -0.35701
gfz2014jarg   0.67127
gfz2014jayh  -0.81263
