# Nsamples: 378  MAD:  0.428  mean:  0.012  std:  0.732
gfz2010abfc  -0.02478
gfz2010aggj  -0.13475
gfz2010aimm  -0.49315
gfz2010aseg   1.00150
gfz2010azji   0.29365
gfz2010bkfi   0.21560
gfz2010brrm   0.23926
gfz2010bukb   0.64027
gfz2010bvit   0.56506
gfz2010ccse  -0.08273
gfz2010ccwc   0.26172
gfz2010ccye  -0.34281
gfz2010clbw   0.00312
gfz2010cllh  -0.77039
gfz2010cnyi  -0.02899
gfz2010cphq  -0.43077
gfz2010cqoq   0.20008
gfz2010crgy  -0.23313
gfz2010crir  -0.54104
gfz2010csmw  -0.25483
gfz2010cvkn   0.37014
gfz2010cyid  -1.55850
gfz2010dask  -0.22404
gfz2010djib  -0.44246
gfz2010drit  -0.38803
gfz2010drml  -0.12918
gfz2010drmq  -0.12918
gfz2010dwgy  -0.04524
gfz2010fgbo   0.02852
gfz2010fjme  -0.53931
gfz2010fkff  -0.38930
gfz2010fqnn  -0.74443
gfz2010ftfq   0.06910
gfz2010fxhh  -0.01529
gfz2010gonu  -0.26367
gfz2010gpjl   7.24290
gfz2010habf   0.12332
gfz2010hdxn   0.29583
gfz2010hesh  -0.59442
gfz2010hllp  -0.98508
gfz2010hsgv   0.36474
gfz2010hxan   0.17248
gfz2010iaay   0.91879
gfz2010iawy   0.45331
gfz2010ifhd  -0.31882
gfz2010inbs   0.23512
gfz2010izag   0.27442
gfz2010jkrp  -0.74090
gfz2010jlvp  -0.27697
gfz2010jpkn  -0.21290
gfz2010kcdq   2.91280
gfz2010mdti  -0.19043
gfz2010mqaj   3.46680
gfz2010ncwu  -0.09424
gfz2010ngge  -0.71401
gfz2010okpc  -1.00170
gfz2010pclq   0.36217
gfz2010pcya  -2.24140
gfz2010pvnn  -0.02203
gfz2010qdqk  -0.94778
gfz2010qqqx  -0.09434
gfz2010qrta   0.04142
gfz2010rkuu  -0.69138
gfz2010rljv   0.15758
gfz2010rmua  -0.22301
gfz2010rnwt  -1.30810
gfz2010schp  -0.14586
gfz2010tcgh   0.62050
gfz2010tgmo   0.27014
gfz2010tmba  -0.32751
gfz2010tpcj  -0.14836
gfz2010tqyo  -0.16325
gfz2010tzlz   0.36335
gfz2010tzma  -0.49046
gfz2010ugws   0.24498
gfz2010uhjy   0.04156
gfz2010uidg  -1.10220
gfz2010umxj  -0.57686
gfz2010umyp  -0.07092
gfz2010uogw   0.41856
gfz2010vong  -0.35702
gfz2010wakc  -0.47684
gfz2010wwnq   0.10697
gfz2010xamh  -0.55148
gfz2010xaxw   0.03987
gfz2010xezr   0.45026
gfz2010xnbn  -0.53639
gfz2010xpzq   0.23612
gfz2010yfdr   0.16708
gfz2010ytzb   0.01178
gfz2010zjun   0.08786
gfz2011ahvh   0.18207
gfz2011amst   1.71840
gfz2011awsv  -0.15848
gfz2011bffb   0.29238
gfz2011bpqm   0.05492
gfz2011bsvr  -0.11422
gfz2011bygs  -0.51525
gfz2011bygu  -0.12059
gfz2011bzio  -0.01775
gfz2011cdge  -0.37014
gfz2011cjuz  -0.62775
gfz2011dabj  -0.35489
gfz2011dhfg  -0.14505
gfz2011dpyu  -0.14827
gfz2011emzr   0.37575
gfz2011etkc   1.06960
gfz2011fnie  -0.23007
gfz2011fnuk  -0.03751
gfz2011fszl   0.02953
gfz2011gfer   0.14542
gfz2011ggnl  -0.60098
gfz2011gnbk   0.06253
gfz2011gpyr   0.03261
gfz2011hqjs   0.19834
gfz2011jghq  -0.27064
gfz2011jphj  -0.11007
gfz2011jryv  -1.73090
gfz2011kjzt  -0.53579
gfz2011kujo  -1.07500
gfz2011kylu   1.46250
gfz2011kyzy   0.29258
gfz2011lkkf   0.24069
gfz2011lmug  -0.07081
gfz2011lwmg   0.18800
gfz2011mjje  -0.20952
gfz2011mllb   0.59307
gfz2011ndhh  -0.43005
gfz2011nfcz   0.33561
gfz2011nfgt  -0.55169
gfz2011nhby   0.62434
gfz2011nilw  -0.47943
gfz2011nlum  -0.89830
gfz2011nlyw   0.17783
gfz2011nuqo  -0.13507
gfz2011oazk  -0.31671
gfz2011ohgj  -0.78788
gfz2011oslk  -0.10555
gfz2011owqa  -0.37608
gfz2011paqj  -0.80169
gfz2011pfls  -0.39963
gfz2011qenl   0.47838
gfz2011qukj  -0.63075
gfz2011rkau   0.20647
gfz2011rnsp   0.43563
gfz2011scma   0.47987
gfz2011sdax  -0.13373
gfz2011sfph   0.07625
gfz2011sqco   1.26690
gfz2011sxno  -0.01707
gfz2011syzr   0.64583
gfz2011taqr   0.33368
gfz2011tgon  -0.13281
gfz2011tqgg   0.44829
gfz2011tsgl   0.20884
gfz2011udjs   0.13313
gfz2011uqry  -0.14599
gfz2011vahy  -0.36296
gfz2011vbxv  -0.14920
gfz2011vcyx  -0.00000
gfz2011vtzv  -0.03773
gfz2011wcvs  -0.35879
gfz2011wgoa   0.66998
gfz2011wpzt  -0.05571
gfz2011wtfn  -0.80591
gfz2011wucg  -0.18456
gfz2011wwze   0.61386
gfz2011wzss   0.39940
gfz2011xgbc  -0.35704
gfz2011xkka  -0.37862
gfz2011xxng   0.39961
gfz2011ypfh   1.13300
gfz2011ytob   1.58800
gfz2011zghc   0.41958
gfz2011zkbt  -0.22047
gfz2012adja   0.37808
gfz2012ahac  -0.68549
gfz2012amjx  -2.11770
gfz2012aqpa   0.10458
gfz2012arlo  -0.32096
gfz2012bcvn   0.25402
gfz2012bity  -0.00628
gfz2012bqcf  -0.02880
gfz2012byrq   0.34735
gfz2012bytv  -1.46650
gfz2012byuk  -0.82335
gfz2012cdju   0.03632
gfz2012cksh   0.18243
gfz2012cvfr   0.14586
gfz2012dcjd  -0.10515
gfz2012ldjj  -0.00920
gfz2012luzm  -1.90520
gfz2012lvlr   2.75100
gfz2012lyyr   0.01853
gfz2012mjuu  -0.20435
gfz2012mpzo   0.37250
gfz2012mrqk   0.41901
gfz2012mrwu  -0.08945
gfz2012mtyn  -1.09510
gfz2012nnqu  -0.63680
gfz2012nqvd  -0.22063
gfz2012oafg  -0.06913
gfz2012oehy  -0.05087
gfz2012phns  -0.19405
gfz2012pvve   0.37097
gfz2012qllj  -0.16822
gfz2012qpoc   0.75189
gfz2012rzwp   1.28720
gfz2012sgfd  -0.47866
gfz2012ssnb   1.17520
gfz2012suqd  -0.18891
gfz2012svwz   0.25459
gfz2012swbz  -0.09966
gfz2012sxbo  -0.91596
gfz2012sxzs  -0.19514
gfz2012syum  -0.31273
gfz2012tisj  -0.26715
gfz2012tqjc  -0.63142
gfz2012tvgw   0.26164
gfz2012twec  -0.32967
gfz2012uhsx  -0.44513
gfz2012uhtc   0.12847
gfz2012uovh   1.05900
gfz2012uvoa   0.43278
gfz2012vgot  -0.36553
gfz2012vitw   0.35955
gfz2012vrqz   0.16284
gfz2012wkki   0.42120
gfz2012wmmw   0.36695
gfz2012wysg   0.43266
gfz2012xask   0.43241
gfz2012xcsf   0.05117
gfz2012xkln  -0.39507
gfz2012xlas   0.02048
gfz2012xlfo   0.07184
gfz2012xncm   0.07886
gfz2012xqxw  -0.32397
gfz2012xrmq  -0.20786
gfz2012ylai  -0.01772
gfz2013agmt   0.25672
gfz2013akkd   0.12835
gfz2013bwgw   0.05898
gfz2013byyy  -0.17206
gfz2013cinv  -0.21246
gfz2013cvve  -0.26879
gfz2013cyvx   0.02130
gfz2013delq  -0.05185
gfz2013dftb   0.30202
gfz2013dngd  -1.47400
gfz2013dzvr  -0.27730
gfz2013eazm   0.93432
gfz2013efct   0.09134
gfz2013eidd  -0.54810
gfz2013fmcd   1.15350
gfz2013fmcp   1.74670
gfz2013fnpa   0.05582
gfz2013fulo   0.39758
gfz2013fvht   0.59058
gfz2013fybd  -0.66762
gfz2013gkyn  -0.26652
gfz2013gsnl   0.42676
gfz2013gxye   0.11972
gfz2013hbmi   0.11090
gfz2013hbtm   0.54340
gfz2013hiam  -0.03402
gfz2013hvzv   0.47235
gfz2013icgx   0.08296
gfz2013icql   0.05557
gfz2013iuyv  -0.62630
gfz2013ivvw  -0.16457
gfz2013iwzn   1.11730
gfz2013jfcn   0.33259
gfz2013jhog  -0.24411
gfz2013jobl  -0.12116
gfz2013jzcf   0.20981
gfz2013kats  -0.16032
gfz2013kbbg  -0.35291
gfz2013kcdb   0.29237
gfz2013kpcb  -0.32109
gfz2013kslp  -0.17736
gfz2013lbod  -0.40060
gfz2013lbvl  -0.26851
gfz2013ljdu   0.27032
gfz2013ljwt  -0.49080
gfz2013lqjj  -0.14082
gfz2013lvxe  -0.15543
gfz2013mdxj   0.26017
gfz2013mvgq   0.08060
gfz2013mzaw   0.18133
gfz2013ntiu   0.89456
gfz2013oeni   0.13878
gfz2013oizq  -0.25015
gfz2013orot   0.17636
gfz2013oruq   0.14830
gfz2013oywh   0.94660
gfz2013phhi  -0.02607
gfz2013pkmz  -1.21980
gfz2013rwkj  -0.31417
gfz2013sdkg   0.25707
gfz2013skvq  -0.41559
gfz2013stou   0.56903
gfz2013swnj  -0.53051
gfz2013taeb   1.13800
gfz2013tekq  -0.26413
gfz2013tkcg  -0.05310
gfz2013tnrp  -0.20932
gfz2013udtw   0.15873
gfz2013uepl  -0.71089
gfz2013ujze  -0.44754
gfz2013utqa  -0.69933
gfz2013uwjo  -0.82229
gfz2013uxzw   1.05570
gfz2013vcgd  -0.24584
gfz2013vdam   0.01955
gfz2013vjrr  -0.10473
gfz2013vldx   0.09457
gfz2013vmrv   0.50425
gfz2013voai   0.25175
gfz2013vojy  -0.04839
gfz2013vvre  -0.11829
gfz2013vwkh   0.15090
gfz2013vzel  -0.66276
gfz2013wwee  -0.68707
gfz2013xlic   1.61900
gfz2013xodn  -0.04465
gfz2013xswc   0.15441
gfz2013ykkf   0.87297
gfz2013yodm  -0.55874
gfz2013yqtu   0.26975
gfz2013yvnj   0.23282
gfz2013zkta  -1.63010
gfz2013zkzb  -0.56770
gfz2013zlak   0.25405
gfz2014aedl   0.32492
gfz2014amgk  -0.93029
gfz2014aqax   2.18220
gfz2014ayxf   0.45327
gfz2014bdju   0.08391
gfz2014bkra   0.53104
gfz2014bzus  -0.44376
gfz2014cokw  -0.23308
gfz2014cvnb   0.17541
gfz2014cwti  -1.07070
gfz2014dbqi  -0.44389
gfz2014dihl  -0.10807
gfz2014djhi   0.34442
gfz2014dpps   0.47551
gfz2014dwcp   0.15429
gfz2014eirs   0.32717
gfz2014eoay  -0.21949
gfz2014epnq  -0.57678
gfz2014esez  -0.29493
gfz2014eunw  -0.32864
gfz2014flxk  -0.26563
gfz2014fsir   0.03400
gfz2014fxte  -0.20371
gfz2014fxuy  -0.58052
gfz2014gnbw   0.23086
gfz2014grwv   0.25404
gfz2014gsfc  -0.12340
gfz2014hapg  -0.24368
gfz2014hkcw   0.13325
gfz2014hqhv   0.02778
gfz2014huqh  -0.21709
gfz2014hzzf  -0.61953
gfz2014iayo   1.41790
gfz2014icov  -0.26366
gfz2014igrp   0.26156
gfz2014iltl   0.53348
gfz2014ined   0.19117
gfz2014inrg   2.09190
gfz2014ipfu   0.63392
gfz2014irlf  -0.21044
gfz2014irln  -0.15194
gfz2014irly  -0.20349
gfz2014isjg   0.11403
gfz2014jarg  -0.05824
gfz2014jayh   0.12404
