# Nsamples: 82  MAD:  0.707  mean:  0.063  std:  0.714
gfz2010vong   0.72057
gfz2010wakc  -1.10170
gfz2010xamh   0.31656
gfz2010xnbn   0.51591
gfz2010xpzq   0.50572
gfz2011amst  -1.03980
gfz2011bcvc   1.49020
gfz2011bpqm  -0.56627
gfz2011dabj  -0.72553
gfz2011dpyu  -0.77134
gfz2011gnbk   0.03456
gfz2011gpyr   0.09098
gfz2011kjzt  -0.52682
gfz2011kjzv  -0.49105
gfz2011lkkf   1.15900
gfz2011mjje  -0.44344
gfz2011ndhh  -0.23239
gfz2011nhvt   1.13550
gfz2011nijp  -1.54250
gfz2011nilw   1.07650
gfz2011niuw  -1.22250
gfz2011nlum   0.24178
gfz2011nuqo  -0.29022
gfz2011oazk  -0.00000
gfz2011ofpj  -0.11033
gfz2011okza   0.08506
gfz2011owqa  -0.25668
gfz2011paqj  -0.51730
gfz2011ypfh   0.45976
gfz2011zghc   0.87871
gfz2012amjx  -0.97230
gfz2012byrq  -0.33733
gfz2012cdju  -0.51131
gfz2012cksh   0.66530
gfz2012cntu  -0.18357
gfz2012cvfr   0.06505
gfz2012ekfp   0.29260
gfz2012enio  -0.03119
gfz2012mdzf   0.34752
gfz2012mmiw  -0.95394
gfz2012oafg   0.89145
gfz2012phns   0.43438
gfz2012suqd   0.46266
gfz2012wgmg   0.93803
gfz2013mzaw   0.29391
gfz2013oizq  -0.24867
gfz2013olos   1.76290
gfz2013orot  -0.46505
gfz2013phhi   0.36543
gfz2013pkmz   1.99590
gfz2013qigb  -0.54871
gfz2013qmkt   0.75817
gfz2013qoak   0.26239
gfz2013quwz  -1.20860
gfz2013qxof  -0.32821
gfz2013rdmn  -0.59555
gfz2013sdkg   0.39089
gfz2013tdsx   0.18641
gfz2013tjub  -0.61518
gfz2013tnrp  -0.48882
gfz2013upqj   0.28197
gfz2013vdam   0.09155
gfz2013vnwa   1.16850
gfz2013wyfl   0.10107
gfz2013xahp   0.20659
gfz2013xmzw   0.30981
gfz2013xofz   0.08055
gfz2013xswc  -1.09380
gfz2013yxhf   0.62372
gfz2013zfbz   0.16389
gfz2013zlak   1.36000
gfz2014ayxf   0.51215
gfz2014bnea   0.60292
gfz2014dihl   0.92034
gfz2014epnq   0.52750
gfz2014fsir   0.17169
gfz2014ined   0.04002
gfz2014irlf  -0.57770
gfz2014irln  -0.92486
gfz2014irly  -0.51007
gfz2014iusw  -0.20245
gfz2014jayh  -0.15962
