# Nsamples: 67  MAD:  0.548  mean:  0.010  std:  0.650
gfz2011tzcv  -0.02036
gfz2011udjs  -1.43510
gfz2011uowi  -0.19386
gfz2011uqlz  -0.72968
gfz2011uqry  -0.56757
gfz2011vahy   0.50837
gfz2011vimn  -0.03650
gfz2011vswj   0.74332
gfz2011vtzv   0.15487
gfz2011vxek  -0.34917
gfz2011wcvs  -1.83840
gfz2011wpzt   0.20722
gfz2011wtfn  -0.72214
gfz2011wucg   0.14357
gfz2011wwze   0.62388
gfz2011wzss   0.77766
gfz2011ypfh   1.12300
gfz2012alti   0.38262
gfz2012amjx  -0.47079
gfz2012aqpa   0.12053
gfz2012bity   0.44272
gfz2012dpnu  -0.27425
gfz2012dttl   0.33272
gfz2012enio  -0.28918
gfz2012evxn  -0.61670
gfz2012gdye   0.53097
gfz2012ghiv  -0.16258
gfz2012gnow   0.28586
gfz2012gpcd  -1.53310
gfz2012hmcv  -0.16490
gfz2013lbod   1.30610
gfz2013lqjj  -0.05714
gfz2013mdxj   0.70688
gfz2013mzaw   0.64952
gfz2013oeni  -0.07248
gfz2013ohnj  -0.02114
gfz2013oizq   0.22439
gfz2013okac  -0.15984
gfz2013oruq   0.31632
gfz2013qaex  -0.89054
gfz2013qigb   0.35153
gfz2013qoak   0.46771
gfz2013quwz   0.38440
gfz2013quyn   0.15649
gfz2013qxof   0.68060
gfz2013rtvy  -0.51618
gfz2013rwkj  -0.19523
gfz2013ryph   0.65642
gfz2013sbsp  -0.20524
gfz2013skvq   0.37384
gfz2013stup  -1.39460
gfz2013tgia  -0.33243
gfz2013vvre  -0.88537
gfz2013vzel  -0.82146
gfz2013xofz   0.52162
gfz2014aqop   0.14900
gfz2014azfu   0.15686
gfz2014crac   0.03825
gfz2014cwti   1.57420
gfz2014gnbw   0.49013
gfz2014gnvp   0.25303
gfz2014happ  -0.00000
gfz2014hjmc  -0.97157
gfz2014iltl   0.71658
gfz2014isjg   0.03743
gfz2014iusw   0.29488
gfz2014ixlc  -0.25966
