# Nsamples: 40  MAD:  0.428  mean:  0.876  std:  0.685
gfz2010cbnp  -1.47970
gfz2010crgy   0.30215
gfz2010dask   0.44217
gfz2010depd   1.14310
gfz2010djib   1.03850
gfz2010fjme   0.94722
gfz2010habf   0.68650
gfz2010izag   0.87390
gfz2010jlvp   0.55688
gfz2010ngge   1.04780
gfz2010pgpo   0.92713
gfz2010rljv   2.40510
gfz2010rnwt  -0.49115
gfz2010tmba   0.80061
gfz2010tpcj   1.31220
gfz2010uhjy   0.71105
gfz2010vong   0.63604
gfz2010xpzq   0.99976
gfz2011zghc   1.24200
gfz2012cmww  -0.03493
gfz2012cvfr   0.91967
gfz2012dwwu   2.50940
gfz2012ekfp   0.13656
gfz2012gnow   0.43468
gfz2012iijk   1.65170
gfz2012kmbo   1.06270
gfz2012lvlr   1.95430
gfz2012mdzf   1.44960
gfz2012oafg   0.47882
gfz2012pvve   0.84075
gfz2012tisj   1.21340
gfz2012uvoa   0.76312
gfz2012uzww   0.90275
gfz2013fulo   0.99355
gfz2013fvht   1.01090
gfz2013icql   0.43956
gfz2013vmrv   1.01560
gfz2013xmzw   1.16060
gfz2013xofz   1.41210
gfz2014cjao   0.60607
