# Nsamples: 55  MAD:  0.862  mean: -0.004  std:  1.439
gfz2010ccye  -0.71657
gfz2010crgy  -0.71565
gfz2010djib   0.33621
gfz2010drit  -0.99926
gfz2010fgbo   0.50058
gfz2010iawy  -0.33718
gfz2010jlvp  -0.48305
gfz2010jpkn  -1.80210
gfz2010mqzz  -0.07205
gfz2010ncwu  -0.14691
gfz2010ngge  -0.33539
gfz2010ouvm  -1.51770
gfz2010pclq   4.79930
gfz2012kmbo   0.34649
gfz2012ldjj   1.14450
gfz2012mtyn  -2.03250
gfz2012oafg   0.29612
gfz2012oehy   0.00577
gfz2012pmuj   1.23490
gfz2012pokk  -2.38500
gfz2012smyn   1.37320
gfz2012socz   0.50683
gfz2012svwz   0.48859
gfz2012uhtc  -0.55646
gfz2012uvoa   0.22453
gfz2013lbvl  -0.19977
gfz2013utqa  -0.71265
gfz2013vcgd  -4.31090
gfz2013vmrv  -0.58710
gfz2013wyfl   0.87395
gfz2013xahp   1.03640
gfz2013xswc  -0.83063
gfz2013yqtu   0.51640
gfz2013yxhf   3.80230
gfz2013zlak   0.59195
gfz2014amgk  -1.33590
gfz2014bkra  -2.83780
gfz2014edjm   0.37352
gfz2014eirs   0.52420
gfz2014eoay  -0.50046
gfz2014esez  -0.40659
gfz2014flxk   0.17627
gfz2014fsir   0.36224
gfz2014fxte  -0.92801
gfz2014gnbw   0.43585
gfz2014hyea  -0.64669
gfz2014hzzf  -0.65301
gfz2014igrp   0.71876
gfz2014iltl  -0.35322
gfz2014irlf   0.12780
gfz2014irln   0.59342
gfz2014irly   0.01057
gfz2014jarg   0.79511
gfz2014jayh   0.33387
gfz2014jffe   3.64130
