# Nsamples: 201  MAD:  0.437  mean:  0.034  std:  0.768
gfz2010clbw  -0.43524
gfz2010colm   1.30570
gfz2010crgy  -0.14629
gfz2010crir  -0.25211
gfz2010cvkn   0.62390
gfz2010dask  -0.50899
gfz2010djib  -0.33415
gfz2010ethu  -1.37460
gfz2010fgbo  -0.12311
gfz2010fjme  -0.70337
gfz2010fopf  -0.54646
gfz2010fqnn  -0.02228
gfz2010ftfq  -0.53392
gfz2010gonu   0.68321
gfz2010habf  -0.06013
gfz2010hesh   0.62618
gfz2010ifhd  -0.76282
gfz2010jkrp  -0.13493
gfz2010jlvp  -0.51697
gfz2010ljzf   1.22320
gfz2010mdti   0.11151
gfz2010mqaj   3.68110
gfz2010ncwu   0.45286
gfz2010ngge  -0.35196
gfz2010oguu   0.07363
gfz2010okpc   1.05140
gfz2010pclq   0.47303
gfz2010pgpo   0.22764
gfz2010qdqk  -0.66121
gfz2010rhvu   0.93803
gfz2010rkuu   0.14914
gfz2010rljv   0.01832
gfz2010rnwt  -2.70780
gfz2010rpjd   2.19240
gfz2010tcgh   0.11826
gfz2010tmba  -0.40570
gfz2010tpcj  -0.35870
gfz2010tzlz  -0.42537
gfz2010tzma  -0.78618
gfz2010ugws   0.13808
gfz2010uhjy  -0.26827
gfz2010vong  -0.33410
gfz2010wakc   0.13175
gfz2010xamh   1.87550
gfz2010xnbn   0.74956
gfz2010xpzq  -0.00922
gfz2010zjun   1.17710
gfz2011ahvh   0.54639
gfz2011bffb   0.10753
gfz2011bpqm   0.19610
gfz2011bsvr  -0.87383
gfz2011bygs  -0.21521
gfz2011bygu   0.08609
gfz2011bzio   0.62647
gfz2011cjuz  -0.83159
gfz2011dabj  -0.35156
gfz2011dhfg  -0.42034
gfz2011dpyu  -0.06390
gfz2011emzr   0.90729
gfz2011fnie   0.00000
gfz2011fszl  -0.33129
gfz2011ggnl  -0.17070
gfz2011gnbk   0.09433
gfz2011gpyr  -0.03353
gfz2011ituo   0.00000
gfz2011jphj  -0.75913
gfz2011kfch  -1.11950
gfz2011kjzt  -0.00905
gfz2011kyzy   0.48167
gfz2011lkkf   0.99952
gfz2011lwmg   0.80424
gfz2011mjje  -0.14811
gfz2011mllb  -0.71413
gfz2011mntq  -0.81690
gfz2011ndhh  -0.23100
gfz2011nejg   0.44757
gfz2011nejw   0.05689
gfz2011nftw   0.40314
gfz2011nijp  -0.30717
gfz2011nilw  -0.37565
gfz2011niuw  -0.48924
gfz2011nkou   0.52753
gfz2011nlnl  -0.28092
gfz2011nlum  -0.51513
gfz2011nuqo  -0.07014
gfz2011ofpj  -0.17013
gfz2011ohgj   1.99860
gfz2011oslk  -0.05232
gfz2011owqa   0.38625
gfz2011paqj  -0.88829
gfz2011pfls  -0.23658
gfz2011pwbw   0.96535
gfz2011qukj   1.41480
gfz2011scma   0.46749
gfz2011sdax   0.00166
gfz2011sqco  -1.20930
gfz2011tgon   4.17310
gfz2011tlwl   0.71818
gfz2011tqgg   0.81757
gfz2011tsgl   0.40097
gfz2011uqry   0.10942
gfz2011vahy  -0.17734
gfz2011vcyx   1.11750
gfz2011vtzv  -0.10241
gfz2011wcvs  -0.89736
gfz2011wucg  -0.14650
gfz2011wwze   0.19790
gfz2011yexx  -0.17287
gfz2011ytob   0.86837
gfz2011zghc  -0.09381
gfz2012ahac  -0.48213
gfz2012amvs   0.17435
gfz2012arlo  -0.91533
gfz2012bcvn  -0.21751
gfz2012bqcf   0.10895
gfz2012byrq   0.89214
gfz2012bytv  -0.33783
gfz2012byuk  -1.48220
gfz2012cdju  -0.47570
gfz2012cksh  -0.99181
gfz2012cvfr   0.01143
gfz2012dttl  -0.35787
gfz2012dwwu  -0.14660
gfz2012dyck  -0.09564
gfz2012dysu   0.99946
gfz2012ekfp   0.61701
gfz2012fuyd  -0.76267
gfz2012gnow  -0.19890
gfz2012hzur   1.72740
gfz2012ibyd   0.01912
gfz2012kmbo  -1.50320
gfz2012yihn  -0.63950
gfz2013fybd  -0.31729
gfz2013gkyn  -0.56634
gfz2013hbmi   0.49828
gfz2013hvzv  -0.28519
gfz2013icgx  -0.44226
gfz2013icql   0.13557
gfz2013iuyv  -0.06411
gfz2013iwzn   0.92367
gfz2013jfcn   0.35800
gfz2013jobl  -0.20168
gfz2013jzcf   0.27340
gfz2013kats  -0.15618
gfz2013kbbg  -0.39032
gfz2013kcdb   0.29283
gfz2013kjgh  -0.77745
gfz2013kpcb  -0.05494
gfz2013kqab  -0.29429
gfz2013lbvl   0.02253
gfz2013mdxj   0.07057
gfz2013mvgq  -0.29032
gfz2013mzaw  -0.05615
gfz2013ntiu   1.37560
gfz2013oizq  -0.03965
gfz2013phhi  -0.84254
gfz2013qigb   0.63757
gfz2013qoak  -0.23169
gfz2013quwz   0.08290
gfz2013qxof   1.30640
gfz2013rwkj  -0.30685
gfz2013sdkg  -0.17117
gfz2013skay   0.26405
gfz2013tnrp  -0.43847
gfz2013uepl  -0.14654
gfz2013ujze  -0.04739
gfz2013unuv  -0.09992
gfz2013utqa  -0.59913
gfz2013uwjo  -1.78220
gfz2013uxzw   0.03918
gfz2013vmrv   0.43450
gfz2013vojy   0.16523
gfz2013vvre   0.45556
gfz2013wyfl  -0.21830
gfz2013xmzw  -0.04364
gfz2013xodn  -0.63914
gfz2013xofz   0.86351
gfz2013xswc   0.27830
gfz2013xvps  -0.33371
gfz2013xxbf   1.56780
gfz2013yodm  -0.29930
gfz2013yqkz  -0.16826
gfz2013yqtu  -0.40584
gfz2014ctdl  -0.35070
gfz2014cvnb  -0.15553
gfz2014dihl  -0.73734
gfz2014gnbw   0.00244
gfz2014grwv   0.03565
gfz2014gsfc  -0.06998
gfz2014hkcw  -0.10789
gfz2014hqhv  -0.20678
gfz2014huqh  -0.35787
gfz2014hzzf  -0.30504
gfz2014iaqm   0.36862
gfz2014iayo   0.14122
gfz2014icov  -0.19199
gfz2014ijsa   0.91276
gfz2014iltl   0.74271
gfz2014irln   0.10286
gfz2014irly  -0.05196
gfz2014jarg  -0.19905
