# Nsamples: 1059  MAD:  0.510  mean: -0.008  std:  0.727
gfz2010abfc  -0.47773
gfz2010afyi   1.63000
gfz2010aggj   0.38216
gfz2010aseg   0.44675
gfz2010asxa  -0.12492
gfz2010axdz  -0.24762
gfz2010azji   0.72850
gfz2010bklj  -0.24095
gfz2010bnbr   2.48630
gfz2010bofe   1.56090
gfz2010bqnk   0.06618
gfz2010brlc  -0.52032
gfz2010btme  -0.00643
gfz2010bukb   0.32048
gfz2010bvit  -0.19393
gfz2010byau  -0.01993
gfz2010cbnp  -0.26659
gfz2010ccwc  -0.16057
gfz2010ccye   0.02028
gfz2010cdnv   0.19490
gfz2010ckoc   0.69937
gfz2010clbw  -0.09234
gfz2010cllh   0.24230
gfz2010cnyi  -0.50962
gfz2010colm   2.26250
gfz2010cphq   1.02220
gfz2010cpig   0.52714
gfz2010cqoq   0.57762
gfz2010crgy  -0.04054
gfz2010crir  -0.23838
gfz2010csle   0.11266
gfz2010ctak   1.57230
gfz2010cthm   1.89240
gfz2010cvam   0.83058
gfz2010dask  -0.64175
gfz2010ddan   0.29950
gfz2010depd   0.41758
gfz2010djib   0.18058
gfz2010dmij  -0.11432
gfz2010dmkd   0.00000
gfz2010drit   0.34232
gfz2010drml  -1.13790
gfz2010drmq  -1.13790
gfz2010drng  -0.11769
gfz2010drpv   0.18206
gfz2010drun  -0.44698
gfz2010dsjq   0.27382
gfz2010dtgc  -0.85393
gfz2010dtyx   0.76421
gfz2010dumv   0.28609
gfz2010dwgy   0.13720
gfz2010dxhq   0.18162
gfz2010eibh   0.03561
gfz2010elge  -1.51100
gfz2010eqyj  -0.16194
gfz2010euue  -0.04472
gfz2010ewyj   0.51099
gfz2010extu  -0.70175
gfz2010faly  -0.32458
gfz2010fgbo  -0.04592
gfz2010fjio  -0.20991
gfz2010fkpa   0.44217
gfz2010fopf   0.02828
gfz2010fqzh   0.02615
gfz2010fvfz   0.71342
gfz2010fxut  -0.35022
gfz2010gonu  -0.26303
gfz2010gooc  -0.25952
gfz2010gpjl  -1.06890
gfz2010gxki  -1.45000
gfz2010habf   0.19384
gfz2010hesh  -0.21693
gfz2010hexh  -0.37655
gfz2010hnuo   1.01850
gfz2010hsgv   0.41976
gfz2010hueh  -0.17683
gfz2010huzl   1.11490
gfz2010hxan   0.14461
gfz2010iaay  -0.21498
gfz2010ihef   0.53062
gfz2010inbs   0.12280
gfz2010ioad  -0.50967
gfz2010izag  -0.02038
gfz2010izgb  -0.04843
gfz2010jcby  -0.09111
gfz2010jgwj   0.13897
gfz2010jkrp   0.92141
gfz2010jlvp   0.54333
gfz2010jvsi  -0.12751
gfz2010kcdq   0.07998
gfz2010kcyz  -0.51570
gfz2010kzzm  -1.33180
gfz2010lvnj   0.94597
gfz2010mjdl  -0.06856
gfz2010mqaj   1.27770
gfz2010mvmb   0.66634
gfz2010mwmd   0.31525
gfz2010nteg   0.09660
gfz2010ogwn  -0.00000
gfz2010okpc   0.27617
gfz2010osrl   0.08363
gfz2010ovvg  -0.46445
gfz2010pngv   1.99080
gfz2010qdqk  -2.15780
gfz2010qrix   0.36939
gfz2010qrta   0.16064
gfz2010qykh   0.45654
gfz2010qzvf  -0.13241
gfz2010rdep  -0.29038
gfz2010rhvu  -1.02020
gfz2010rkuu  -0.25923
gfz2010rljv   0.11889
gfz2010rmua  -0.02224
gfz2010rnqa   1.85690
gfz2010schp  -0.15266
gfz2010scht   0.08282
gfz2010sdfs  -0.76088
gfz2010sftm   0.73958
gfz2010sook  -0.40003
gfz2010swqy  -0.14133
gfz2010sylk  -0.00000
gfz2010tcgh   0.01328
gfz2010tgmo  -0.49234
gfz2010tmba   0.11178
gfz2010tmne   0.10357
gfz2010tpcj  -0.22493
gfz2010tqyo  -0.08761
gfz2010tvit  -0.24685
gfz2010tzlz   0.92288
gfz2010tzma   0.47165
gfz2010ugws  -0.47963
gfz2010uhjy   0.02910
gfz2010uidg  -0.14326
gfz2010umxj   0.41414
gfz2010umyp  -0.08037
gfz2010uogw  -1.18240
gfz2010uopf  -0.25175
gfz2010upod   0.19557
gfz2010uqba  -1.28630
gfz2010uraq   1.10700
gfz2010ussf  -0.50604
gfz2010uyng  -0.51301
gfz2010vhzx  -0.46609
gfz2010viyi   0.00000
gfz2010vjac  -0.00000
gfz2010vong   0.65676
gfz2010vybx   0.32466
gfz2010vyri   1.17310
gfz2010wakc  -0.23296
gfz2010wigk   0.22263
gfz2010wplk   0.17084
gfz2010wtin   0.18696
gfz2010wwhf   0.50310
gfz2010wwnq  -0.07350
gfz2010wyuj  -0.49684
gfz2010xamh  -0.27377
gfz2010xaxw  -0.36362
gfz2010xezr   0.96047
gfz2010xjsv   1.45560
gfz2010xkbz   0.14083
gfz2010xnbn  -0.21625
gfz2010xnwf   0.10693
gfz2010xpzq   0.29902
gfz2010xytc   2.89600
gfz2010xzah   0.52678
gfz2010xzte   0.95934
gfz2010yczp  -0.35521
gfz2010yfdr  -0.96723
gfz2010ygrd   1.27560
gfz2010yhdn   0.59593
gfz2010yhhj  -0.26620
gfz2010yrex  -0.27607
gfz2010yspe   1.13730
gfz2010zaxv  -0.16374
gfz2010zhvj  -0.44106
gfz2010zjun  -0.52395
gfz2010zkle  -1.53040
gfz2011afyc   1.23980
gfz2011ahvh  -0.42040
gfz2011amst  -0.54122
gfz2011aqpp  -0.18701
gfz2011awsv   0.36993
gfz2011bazz  -0.31571
gfz2011bcvc   0.95116
gfz2011bffb  -0.13864
gfz2011biin   0.02215
gfz2011bpqm   0.29665
gfz2011bqbx  -2.78710
gfz2011bsvr  -0.33487
gfz2011bwsm  -0.44343
gfz2011byec   0.31681
gfz2011bygs  -0.28930
gfz2011bygu   0.26114
gfz2011cdge  -1.24700
gfz2011cfyy  -0.35525
gfz2011cjcv   1.10590
gfz2011cjuz   0.45054
gfz2011cwsm   0.61706
gfz2011cwzi  -0.33624
gfz2011cxbw  -7.13220
gfz2011cxdj  -0.25991
gfz2011dabj   0.70533
gfz2011dhqk  -0.43606
gfz2011dtcb   0.39062
gfz2011duvm  -0.24894
gfz2011dwae  -0.35896
gfz2011dzmf  -0.19468
gfz2011ecce  -0.50583
gfz2011edrq  -0.57679
gfz2011fnie  -0.54613
gfz2011fnuk  -0.33089
gfz2011fnxz   0.03590
gfz2011fszl  -0.01264
gfz2011fxmf   0.87955
gfz2011fyfu  -0.28203
gfz2011fzcw  -0.43471
gfz2011gaax  -0.43198
gfz2011gcct  -0.23307
gfz2011gfer  -0.30133
gfz2011ggnl   0.85254
gfz2011ggsz  -0.38328
gfz2011gkdx   0.41354
gfz2011glpg   0.81144
gfz2011gpyr  -0.51572
gfz2011grby  -4.25700
gfz2011gzde  -0.55252
gfz2011haaa  -0.11586
gfz2011hatg   1.38710
gfz2011hffq  -0.27319
gfz2011hibi  -0.48835
gfz2011hjof   0.38495
gfz2011hmnw  -0.32860
gfz2011hqjs  -0.21197
gfz2011huon  -1.02900
gfz2011hvzo  -1.40820
gfz2011hwbn  -0.33824
gfz2011hyct  -0.48184
gfz2011hyuh  -0.29445
gfz2011iamf  -0.60930
gfz2011ibew   0.21283
gfz2011ifta  -0.38363
gfz2011inan   0.50881
gfz2011ioch   2.05690
gfz2011iryz   0.01695
gfz2011ituo  -0.36114
gfz2011ixpj  -0.16575
gfz2011jdoz  -0.12036
gfz2011jeta   1.03100
gfz2011jphj   0.40510
gfz2011jpob   0.91138
gfz2011jqyc   1.62730
gfz2011jrgh   0.06221
gfz2011jryv   0.66689
gfz2011kbzo  -0.09614
gfz2011kfch   0.19730
gfz2011kjzt  -0.29516
gfz2011kmge   0.50974
gfz2011knht   0.30776
gfz2011kylu   0.94383
gfz2011kymm   0.06019
gfz2011kyzy   0.05998
gfz2011ldgl  -0.04380
gfz2011lkkf   0.28878
gfz2011lmug  -0.68074
gfz2011lnzf   0.96646
gfz2011lrpv  -0.05248
gfz2011lwmg   0.32984
gfz2011lxga   0.75965
gfz2011lykm   0.21950
gfz2011lywj   0.67972
gfz2011mdyq  -0.51631
gfz2011melb  -0.50604
gfz2011mimz   0.37587
gfz2011mjje  -0.05201
gfz2011mllb   0.01890
gfz2011mntq  -0.81795
gfz2011moob  -0.32226
gfz2011mrfm   0.17715
gfz2011mror   0.29363
gfz2011mzvn  -0.29063
gfz2011nblt   0.20564
gfz2011ncyw  -0.45517
gfz2011ndki  -1.09470
gfz2011ndlh  -0.36534
gfz2011ndoe  -0.48708
gfz2011ndse  -0.77448
gfz2011ndvj  -0.59029
gfz2011ndyk  -0.37366
gfz2011neai  -0.37523
gfz2011nejg  -0.98409
gfz2011nejw  -0.06263
gfz2011nerb  -0.37949
gfz2011nfcz  -0.12097
gfz2011nfgt   2.12120
gfz2011nfih   0.10763
gfz2011nfln   0.18267
gfz2011nftw   0.34127
gfz2011nfwd   0.51392
gfz2011nfww  -0.32218
gfz2011nhby   0.16806
gfz2011nhhd  -0.39449
gfz2011nhjv  -1.34210
gfz2011nhvt   0.58385
gfz2011nhwf   0.31947
gfz2011nifi  -0.27757
gfz2011nihq  -0.45896
gfz2011nijp  -0.17436
gfz2011nilw   0.00000
gfz2011nioi  -1.48310
gfz2011nivw  -0.30737
gfz2011nkda   0.26944
gfz2011nkou  -1.11800
gfz2011nlmf   0.55125
gfz2011nlnl  -1.11350
gfz2011nlok  -0.96632
gfz2011nlou   0.84135
gfz2011nlum   0.26341
gfz2011nlyw   0.27018
gfz2011nmdz   0.19372
gfz2011nmhg   0.73293
gfz2011nnos   0.44413
gfz2011npaf   0.47762
gfz2011nsiy  -0.15530
gfz2011nsrx  -0.19155
gfz2011nssr  -0.59933
gfz2011nswi  -0.43153
gfz2011ntyd  -0.76731
gfz2011nuqo  -0.04166
gfz2011nvty  -1.32330
gfz2011nyzk  -0.30026
gfz2011oadm  -0.55182
gfz2011ocif  -0.11628
gfz2011oesd   1.37360
gfz2011ofpj  -0.20151
gfz2011okza   0.53103
gfz2011omxt  -0.42506
gfz2011oqjl  -0.51928
gfz2011osmp  -0.68139
gfz2011ovvj   0.94059
gfz2011owqa   0.07445
gfz2011paqj  -0.53539
gfz2011pbgh  -0.91279
gfz2011pbjh   0.18162
gfz2011pdgq  -0.27224
gfz2011pdsn  -0.71546
gfz2011pfls   0.65505
gfz2011pfwq  -0.26913
gfz2011pgzk  -0.13013
gfz2011pivq   0.35217
gfz2011plzc  -0.28070
gfz2011pmuv  -0.29863
gfz2011poug   0.57508
gfz2011pphc  -0.43493
gfz2011ppsc  -0.00563
gfz2011prrq   0.40927
gfz2011ptgd  -0.37492
gfz2011pulu   0.26909
gfz2011pwbw  -0.38492
gfz2011pwld   0.00000
gfz2011qasw   0.38720
gfz2011qenl  -0.34547
gfz2011qgea  -1.44660
gfz2011qgvh   0.14270
gfz2011qgvx  -1.26200
gfz2011qhjw  -0.66779
gfz2011qidi   0.29445
gfz2011qowe  -0.79106
gfz2011qtoy  -0.06631
gfz2011qukj  -0.34886
gfz2011rkau  -0.12659
gfz2011rnny   0.28890
gfz2011rnsp   0.24339
gfz2011rplo  -2.31120
gfz2011rqut  -0.12869
gfz2011scma  -0.53789
gfz2011sdpl   0.17632
gfz2011sfmu   1.53780
gfz2011sfph   0.44353
gfz2011sqco   0.08736
gfz2011sqxp  -0.61716
gfz2011sskq  -0.08949
gfz2011swfp  -0.34697
gfz2011sxno  -0.52594
gfz2011syvj  -0.36174
gfz2011szis   0.16201
gfz2011taqr  -0.17980
gfz2011tfor  -0.46881
gfz2011tgon  -0.27999
gfz2011tjpv  -0.07886
gfz2011tozo   2.28900
gfz2011tsgl   0.28683
gfz2011tssv   1.96820
gfz2011twpz  -0.72211
gfz2011txdb   0.16322
gfz2011txxs  -0.32433
gfz2011tzcv   0.12349
gfz2011udjs   0.29153
gfz2011udxo  -0.55317
gfz2011ugbt  -0.09796
gfz2011uowi  -0.40087
gfz2011urwz  -0.84156
gfz2011uvsi  -0.22474
gfz2011vahy   0.38552
gfz2011vaoi  -0.01491
gfz2011varl   0.28021
gfz2011vcyx  -0.81286
gfz2011vsag  -0.30025
gfz2011vtzv   0.19653
gfz2011wbtc  -0.33947
gfz2011wkja  -0.03886
gfz2011wkyx  -0.23120
gfz2011wngi   0.37005
gfz2011wnvu   0.29826
gfz2011wqth   2.51510
gfz2011wtfn  -0.89247
gfz2011wucg   0.50191
gfz2011wwze  -0.21129
gfz2011wyei  -0.13689
gfz2011wzss  -0.71106
gfz2011xagc  -0.24377
gfz2011xawm  -0.37053
gfz2011xgbc  -0.32841
gfz2011xgwy  -0.11441
gfz2011xkka   0.11133
gfz2011xlod   0.66690
gfz2011xwdv  -0.86683
gfz2011yeck  -0.10233
gfz2011yexx  -0.57478
gfz2011ykbd   0.02635
gfz2011yntu  -1.77680
gfz2011ytwk   0.88247
gfz2011ywtj  -0.35532
gfz2011zdyf  -0.58854
gfz2011zghc   0.66295
gfz2011zgxn  -0.26614
gfz2011ziyk   0.36141
gfz2011zkbt   0.03902
gfz2011znyq  -0.39316
gfz2012agwh   0.94129
gfz2012ahac  -0.36117
gfz2012ahkl  -2.05540
gfz2012aioo   0.07954
gfz2012alti   0.38709
gfz2012amjx  -0.45038
gfz2012amvs  -0.08274
gfz2012aqpa  -0.64256
gfz2012arlo  -1.53010
gfz2012asin  -0.62713
gfz2012atjr   0.11102
gfz2012auqr  -1.32190
gfz2012avvc   0.17480
gfz2012azel   2.88280
gfz2012bcvn   0.27771
gfz2012beae   0.41927
gfz2012bjhl  -0.31369
gfz2012bnwa   0.11459
gfz2012bolx  -0.42855
gfz2012bovy  -0.53271
gfz2012brrg  -0.16771
gfz2012byrq  -0.57716
gfz2012bysu  -0.68831
gfz2012bytv  -0.67855
gfz2012byuk  -0.13846
gfz2012cdju  -0.18639
gfz2012cfdw  -0.07447
gfz2012cksh   0.48999
gfz2012cmww  -0.16322
gfz2012cntu  -0.35444
gfz2012dbgt   0.38937
gfz2012dejg  -0.07365
gfz2012dleg  -0.01826
gfz2012dluf   0.23958
gfz2012dnig   0.22281
gfz2012dpem  -0.43730
gfz2012dpnu  -0.53066
gfz2012dpwv  -0.11394
gfz2012drak  -0.34255
gfz2012drld   0.14403
gfz2012dsei   1.71530
gfz2012dtdt  -0.41409
gfz2012dtlu   0.51534
gfz2012dtvr  -0.51135
gfz2012duvf  -1.46920
gfz2012duwm   0.30450
gfz2012dwwu  -0.44608
gfz2012dyck   0.11106
gfz2012dyfw   0.82562
gfz2012dysj   0.89096
gfz2012dysu  -0.11248
gfz2012dyua  -0.21687
gfz2012dzat  -1.47990
gfz2012dzen  -0.89251
gfz2012dzjo  -0.62830
gfz2012dzoh  -0.55007
gfz2012dzot  -0.60757
gfz2012dzou  -0.70746
gfz2012dzul  -0.24122
gfz2012dzva  -0.56917
gfz2012eajr   0.63278
gfz2012eary  -1.55700
gfz2012ebff  -0.02208
gfz2012ebgo  -0.77009
gfz2012ebhf  -0.30270
gfz2012ebrr  -0.11955
gfz2012eeft  -0.55511
gfz2012emin   1.49400
gfz2012enrg   0.61177
gfz2012erds  -1.01500
gfz2012evav   0.06061
gfz2012evxn  -0.92851
gfz2012eyti   0.63980
gfz2012fcyq  -0.51883
gfz2012fcyr  -0.52573
gfz2012fhaf  -0.33932
gfz2012fjiu   0.49581
gfz2012flqf  -0.22410
gfz2012foih   0.82084
gfz2012fpyo  -0.34529
gfz2012fuyd   0.42941
gfz2012fxgc  -0.19039
gfz2012fyny  -0.38405
gfz2012fyop   0.14799
gfz2012gczh   0.34067
gfz2012gdye   0.30611
gfz2012ghiv  -0.32750
gfz2012ghyd  -1.38970
gfz2012gjdg  -0.24394
gfz2012gjtd   0.11524
gfz2012gmsr  -0.91091
gfz2012grmf  -0.35486
gfz2012gubu  -0.27155
gfz2012gvxc  -0.39839
gfz2012gzuk  -0.44502
gfz2012hdny   1.77520
gfz2012heih  -0.09458
gfz2012hmcv   0.28346
gfz2012hnyy   1.37670
gfz2012hvjc  -0.52938
gfz2012hwph   0.34470
gfz2012hyqh  -0.00000
gfz2012hzhn   0.17103
gfz2012hzur  -1.05820
gfz2012ibyd   2.77890
gfz2012icjo   0.46882
gfz2012idxu  -0.04396
gfz2012iedy   1.46330
gfz2012iijk   0.04976
gfz2012ikke   1.18500
gfz2012imuo  -1.23830
gfz2012inns   0.52704
gfz2012iotw  -0.31632
gfz2012ipdc   0.79943
gfz2012iphs   0.32748
gfz2012iroy  -0.06320
gfz2012itxz   0.15884
gfz2012ivyg  -1.28000
gfz2012iyhs  -0.03740
gfz2012iyoi   0.04363
gfz2012izke   0.12786
gfz2012jaun   0.53573
gfz2012jbzr  -0.82956
gfz2012jetp   0.61015
gfz2012jihg   0.98758
gfz2012jjxm   0.98496
gfz2012jksz  -0.94483
gfz2012jlez  -0.49060
gfz2012jodg   0.80417
gfz2012jopi  -0.16391
gfz2012jxnm   0.12888
gfz2012jxxe   1.37740
gfz2012jyhb  -0.19681
gfz2012kadi  -0.26831
gfz2012kjzx  -0.48613
gfz2012kmbo   0.20996
gfz2012kmmz  -0.64788
gfz2012krcm   0.18618
gfz2012kstg  -0.14463
gfz2012kvlx   0.12763
gfz2012kwmx   0.05920
gfz2012kyhj  -3.52980
gfz2012lcca   0.60698
gfz2012lcro  -0.77264
gfz2012ldjj  -0.26238
gfz2012lngq   1.10270
gfz2012lqhw  -0.58676
gfz2012lvlr  -0.08344
gfz2012lvxx   0.84378
gfz2012lwha  -0.19788
gfz2012lyqs   0.59163
gfz2012lyyr  -0.51090
gfz2012mdzf  -0.45527
gfz2012mekv   0.08781
gfz2012mhik  -0.21606
gfz2012mjuu  -0.39892
gfz2012mjzl  -0.15303
gfz2012mmiw  -0.39897
gfz2012mnth  -0.06428
gfz2012moul   0.76909
gfz2012mout  -1.40830
gfz2012movu  -0.25189
gfz2012movv   0.54022
gfz2012mowv  -0.49961
gfz2012mrqk   0.13546
gfz2012mrwu   0.20318
gfz2012mwhe  -0.43821
gfz2012mxvk   1.06860
gfz2012mzco  -0.69668
gfz2012mzqx   0.18878
gfz2012ndsk   0.06463
gfz2012ndwt   0.13798
gfz2012nldz  -1.30410
gfz2012nlrb  -0.22699
gfz2012nmja   1.24860
gfz2012nnck  -0.53803
gfz2012nnqu  -0.47090
gfz2012nqvd  -0.37989
gfz2012nsxc  -0.35992
gfz2012oehy  -0.11592
gfz2012ofnx   0.02482
gfz2012ogqu   1.33290
gfz2012ogwe   1.82670
gfz2012ohgd  -0.42084
gfz2012oieq  -0.68762
gfz2012ojfv   2.21230
gfz2012onfs  -0.48687
gfz2012onhu   0.53113
gfz2012ooij  -0.15101
gfz2012oork  -0.51482
gfz2012oozp   0.55366
gfz2012ormy   0.47252
gfz2012oxnh   0.12153
gfz2012oyja   0.10731
gfz2012pcui  -0.18073
gfz2012pdav   0.03006
gfz2012pdfi  -3.35620
gfz2012pdjt  -0.66510
gfz2012phns  -0.63164
gfz2012pifb  -0.16320
gfz2012pmuj   0.52275
gfz2012pmws   0.82762
gfz2012prke   0.17862
gfz2012pvve  -0.29668
gfz2012pziw   0.02211
gfz2012qbbt  -0.40558
gfz2012qfah   0.29841
gfz2012qfov  -0.06466
gfz2012qhqp  -0.13805
gfz2012qibe   0.95688
gfz2012qmhz  -0.52037
gfz2012qpoc  -0.20607
gfz2012qvwy   0.13145
gfz2012rfhw  -1.06320
gfz2012rknz  -0.58462
gfz2012rnbw   0.50249
gfz2012rnml   0.00000
gfz2012rnyn  -0.22939
gfz2012roan  -0.08761
gfz2012rslf  -0.15652
gfz2012rugl   0.53881
gfz2012rzwp  -1.14180
gfz2012sbix  -0.09114
gfz2012scuk  -0.43740
gfz2012sfao   0.83073
gfz2012sgfd   0.67735
gfz2012sjox   0.19697
gfz2012slfd   1.36490
gfz2012smyn   0.16171
gfz2012socz  -0.63217
gfz2012sopp  -0.18028
gfz2012sqsc  -0.32448
gfz2012ssnb  -0.49059
gfz2012stxx  -0.05859
gfz2012suqd  -0.67625
gfz2012svwz   0.17636
gfz2012sxpr  -0.32744
gfz2012sxzs  -0.07827
gfz2012syum   0.69758
gfz2012tisj  -0.18020
gfz2012tjih   0.61425
gfz2012tqjc   0.04984
gfz2012trfq   0.07482
gfz2012trss   0.77722
gfz2012tsdz   0.18085
gfz2012tvgw  -0.82305
gfz2012twec  -0.11329
gfz2012udxg  -0.11581
gfz2012uegq   0.57470
gfz2012uhsx   0.18867
gfz2012uhtc  -0.15481
gfz2012ukzg   1.24600
gfz2012ulei  -0.55771
gfz2012umob  -0.10341
gfz2012unxc  -0.07347
gfz2012uovh  -0.65398
gfz2012utdu  -0.56866
gfz2012uwne  -0.08453
gfz2012uzww  -0.33928
gfz2012vaqd  -0.21832
gfz2012vcqw  -0.38661
gfz2012vile   0.25716
gfz2012vitw   0.06946
gfz2012vkjw  -0.01284
gfz2012vnve   0.10074
gfz2012vqjw  -0.35626
gfz2012vqmq  -0.54311
gfz2012vurc  -0.06321
gfz2012wbeu   2.32270
gfz2012wgdv  -0.56128
gfz2012wgmg  -0.53386
gfz2012wiyv  -1.08550
gfz2012wjpf  -0.02194
gfz2012wjsi   0.40846
gfz2012wjxc  -0.28113
gfz2012wkki   0.18607
gfz2012wowu  -0.78575
gfz2012woxj  -0.08164
gfz2012wysg   0.41818
gfz2012xcsf  -0.04863
gfz2012xfnu  -0.48693
gfz2012xjgb  -1.07140
gfz2012xkln   0.08948
gfz2012xlas  -0.02588
gfz2012xlfo  -0.63404
gfz2012xmwt  -0.27275
gfz2012xncm   0.30684
gfz2012xppl   0.67846
gfz2012xqxw   0.12541
gfz2012xrmq  -0.11678
gfz2012xtvu   0.07908
gfz2012xwgb   1.08650
gfz2012xwkx   0.64235
gfz2012xxdj  -0.71921
gfz2012yegw  -0.09436
gfz2012yihn   0.28541
gfz2012ylai   0.34356
gfz2012yncm   0.31043
gfz2012ywei   0.67954
gfz2012yygz   0.66335
gfz2012yzcf   0.78702
gfz2012zhyz  -0.19656
gfz2012zido  -0.33267
gfz2012zkhu  -0.61469
gfz2012zmfc  -1.07080
gfz2012znou  -0.05485
gfz2013aclz   3.09470
gfz2013adih   0.10201
gfz2013afzh   0.04222
gfz2013agbm   0.59353
gfz2013aggr  -0.51754
gfz2013agmt   1.08020
gfz2013ajxz  -0.15428
gfz2013ascz   0.23908
gfz2013atak  -0.18867
gfz2013atec   0.92014
gfz2013aymi  -0.33761
gfz2013bdvi  -0.53898
gfz2013bqfc   0.25648
gfz2013bwgw   0.03283
gfz2013byyy  -0.51528
gfz2013ccng  -0.08313
gfz2013cfls  -0.32407
gfz2013cinv  -0.39808
gfz2013cokc   0.61283
gfz2013cqak  -0.72857
gfz2013cqee  -0.40358
gfz2013cvve  -0.43569
gfz2013ddrx   0.12838
gfz2013delq   0.47300
gfz2013dftb  -0.00869
gfz2013dfvx  -0.16512
gfz2013djfi  -0.03661
gfz2013dksc   0.58403
gfz2013dngd  -0.17618
gfz2013dtjl   0.14852
gfz2013dvub   0.17878
gfz2013dwsp  -1.56020
gfz2013dznt  -1.41890
gfz2013dzvr  -0.88698
gfz2013efct  -0.22040
gfz2013efys  -0.26569
gfz2013eidd  -0.35379
gfz2013ektd  -0.71680
gfz2013enga  -0.48106
gfz2013esef  -0.42198
gfz2013evcl  -2.10880
gfz2013ewht  -0.00938
gfz2013exow   0.36709
gfz2013ezmc   0.53450
gfz2013ffjt  -0.56415
gfz2013fhzy  -0.22714
gfz2013fmcp  -0.07985
gfz2013fndg  -0.20002
gfz2013fnpa   0.02569
gfz2013foto   0.30121
gfz2013frxd  -1.70300
gfz2013fthi  -0.66194
gfz2013fvyr  -0.43026
gfz2013fvzv   0.12747
gfz2013fwbm  -0.45245
gfz2013fybd  -0.40203
gfz2013gaqx   0.81717
gfz2013gbki   0.42114
gfz2013gbma  -1.57870
gfz2013gffe   0.50382
gfz2013gjmk  -0.05192
gfz2013glkq  -1.12660
gfz2013gqtl   1.14860
gfz2013gsnl   0.04973
gfz2013gugi  -0.36866
gfz2013gurk  -0.65900
gfz2013gyce   0.87829
gfz2013havw   0.53021
gfz2013hbwy   1.33670
gfz2013hdbp  -1.19040
gfz2013hduf  -0.56004
gfz2013hinw  -0.18706
gfz2013hjtt  -0.46903
gfz2013hqaa  -0.25486
gfz2013hqcd   0.30005
gfz2013hvzv  -0.26454
gfz2013hwps  -0.96516
gfz2013icgx  -0.22805
gfz2013idqu   0.54209
gfz2013ifag   0.33277
gfz2013ikic   0.94946
gfz2013irme  -0.31755
gfz2013isqh  -0.39296
gfz2013iuyv   0.24132
gfz2013iwzn  -0.97332
gfz2013iybv   0.81254
gfz2013jcnn   0.18386
gfz2013jdwo   2.44400
gfz2013jfcn   0.01510
gfz2013jhog  -0.02667
gfz2013jjae   0.46185
gfz2013jkqn   0.58699
gfz2013jlli   0.13370
gfz2013jobl  -0.16009
gfz2013jpir  -0.18286
gfz2013jqsk   1.47690
gfz2013jtsg  -0.05036
gfz2013kbbg   0.32479
gfz2013kbbn   0.55178
gfz2013kbkp  -0.35021
gfz2013kcdb  -0.49627
gfz2013kjgh  -0.18216
gfz2013kpcb   0.06212
gfz2013kqab  -0.16476
gfz2013kslp   0.22180
gfz2013kxlr   0.11056
gfz2013kxof   1.01300
gfz2013lbod   0.63452
gfz2013lcrk   1.68950
gfz2013lgvf   0.16148
gfz2013ljdu   0.08622
gfz2013lnne  -0.48018
gfz2013lnts   0.18348
gfz2013lrkp   0.67377
gfz2013lwtr   0.24145
gfz2013lxed  -0.07581
gfz2013lxnd   0.69574
gfz2013mbna  -0.34440
gfz2013mdnp  -0.71682
gfz2013mimp   0.09381
gfz2013mktp   0.43499
gfz2013mvgq  -0.34371
gfz2013mynb  -0.58743
gfz2013mzaw  -0.20907
gfz2013nhkw  -1.22270
gfz2013njjh   0.18824
gfz2013njwj   0.45711
gfz2013nkgd   1.02940
gfz2013ntfc  -0.00000
gfz2013obof   0.53447
gfz2013oeni  -0.21824
gfz2013ohdt  -0.27173
gfz2013ohnj  -0.20031
gfz2013oizq  -0.58508
gfz2013ojza  -0.32010
gfz2013okxa  -0.01504
gfz2013olos   0.41639
gfz2013onvl  -0.49276
gfz2013opkx  -0.04002
gfz2013orot   0.72513
gfz2013ortl   0.40788
gfz2013oruq   0.07259
gfz2013osmj   0.66536
gfz2013otuj  -0.00000
gfz2013oywh   0.27509
gfz2013pegj   0.44415
gfz2013phly  -0.53013
gfz2013pizm   0.23870
gfz2013pkmz  -0.29591
gfz2013pqkp  -0.34720
gfz2013pvsa  -0.12566
gfz2013qigb  -0.11753
gfz2013qmkt   0.48992
gfz2013qntl   0.17555
gfz2013quyn  -0.13002
gfz2013qxof  -0.57569
gfz2013rdmn  -0.46112
gfz2013rfik   0.04394
gfz2013rgcc   0.43924
gfz2013rnsa  -0.05393
gfz2013rofg   0.30405
gfz2013rsyt   0.35830
gfz2013ryph  -0.32877
gfz2013sbsp  -0.42250
gfz2013sdkg  -0.03197
gfz2013stup  -0.20374
gfz2013taeb  -0.77742
gfz2013tdsx  -0.55838
gfz2013tert  -0.51479
gfz2013tgyb  -0.03517
gfz2013tnrp  -0.06487
gfz2013tpwl   0.51118
gfz2013trsq  -0.25345
gfz2013ttmk  -0.20143
gfz2013ubgt   2.27800
gfz2013udtw   0.21185
gfz2013ujze  -0.24417
gfz2013unuv  -0.14745
gfz2013upqj   0.04709
gfz2013uwxb   0.46662
gfz2013uxzw  -0.11564
gfz2013uzmf   0.26248
gfz2013vdam  -0.12125
gfz2013veoz   0.29754
gfz2013veug  -0.15785
gfz2013vjrr  -0.62222
gfz2013vldx   0.59030
gfz2013vmrv   0.12802
gfz2013vmsg  -1.52090
gfz2013vmsn   0.40997
gfz2013vnwa  -0.13659
gfz2013voai   0.14526
gfz2013vojy  -0.16127
gfz2013vsdd   0.02826
gfz2013vvre   0.21654
gfz2013vwkh  -0.33473
gfz2013vzel  -0.03277
gfz2013wpns   0.03370
gfz2013wyfl  -0.49449
gfz2013xahp  -0.63531
gfz2013xjmo  -0.12441
gfz2013xlic  -1.30530
gfz2013xmzw  -0.35142
gfz2013xodn   0.24825
gfz2013xofz   0.17379
gfz2013xuxr  -0.01658
gfz2013xvps  -0.06172
gfz2013xzxe   0.58321
gfz2013yawe   0.07745
gfz2013yihv   0.54415
gfz2013yktj   0.26388
gfz2013ylxm  -0.94355
gfz2013ymhx  -0.26179
gfz2013yodm  -0.04430
gfz2013yqtu  -0.68092
gfz2013ytfm   0.26287
gfz2013yvpn   0.01396
gfz2013yywh  -0.41531
gfz2013zedt   0.28228
gfz2013zfbz  -0.07999
gfz2013zkta   0.56991
gfz2013zlak   0.08071
gfz2013zpse   0.82281
gfz2013zpwk   0.05369
gfz2014aaae   0.38182
gfz2014aedl   0.90945
gfz2014afbt  -0.23313
gfz2014ajgi  -0.07640
gfz2014aluc  -0.18682
gfz2014aqop   0.47478
gfz2014avmd   0.31668
gfz2014avzp  -0.11637
gfz2014ayxf  -0.91100
gfz2014bdju   0.40605
gfz2014befl  -0.62397
gfz2014bkra   0.27352
gfz2014bmqw   1.15370
gfz2014bnea  -0.05556
gfz2014bqpm   0.07084
gfz2014bumr   0.14067
gfz2014bycg  -0.17878
gfz2014bztn   2.30180
gfz2014bzus   0.31729
gfz2014cgxj   0.67363
gfz2014cjao   0.24993
gfz2014club  -0.16984
gfz2014cncl  -0.07823
gfz2014cokw   0.41059
gfz2014cwcj  -0.12551
gfz2014dbmu   0.75508
gfz2014dggw   0.50031
gfz2014dihl   0.04190
gfz2014diuu   0.37111
gfz2014dmrw  -0.06391
gfz2014dpps  -0.50545
gfz2014dtto   0.74587
gfz2014dudd   0.33223
gfz2014dutu   0.30855
gfz2014dwcp   0.41364
gfz2014dykt   0.78013
gfz2014ecor  -0.20610
gfz2014eglj   0.67232
gfz2014egvg   0.91128
gfz2014eirs   0.12268
gfz2014eoay  -0.18126
gfz2014epfm   0.29779
gfz2014epnq   0.23353
gfz2014epue   0.60589
gfz2014esez   0.36901
gfz2014etqu   0.11323
gfz2014evyu   0.16708
gfz2014exxj   0.51741
gfz2014eysf   0.94669
gfz2014ezjq   0.69456
gfz2014ezld  -0.15401
gfz2014faex  -0.29086
gfz2014fbef  -0.24603
gfz2014fbli   0.18796
gfz2014fdhk   0.20164
gfz2014ffqg   0.48128
gfz2014fgbn   2.13360
gfz2014flxk   0.02373
gfz2014fmdc   0.19588
gfz2014fsir  -0.28755
gfz2014fsje   0.08723
gfz2014fskh   0.33386
gfz2014fxtv  -0.12913
gfz2014fxuy  -0.49171
gfz2014gbxg   0.91016
gfz2014gnbw   0.04340
gfz2014gnvp  -0.03448
gfz2014gqxg  -0.39014
gfz2014grwv  -0.20071
gfz2014gsfc  -0.46039
gfz2014gssz  -0.14317
gfz2014gypw  -0.28174
gfz2014hapg   0.50134
gfz2014hgjb   1.04960
gfz2014hhis   0.09394
gfz2014hqhv  -0.03585
gfz2014huqh  -0.08542
gfz2014hyea  -0.20070
gfz2014hzzf  -0.18282
gfz2014iaqm   0.80765
gfz2014ijsa  -0.07763
gfz2014inrg   0.66708
gfz2014ipfu  -0.10001
gfz2014irly  -0.02549
gfz2014isjg   0.31070
gfz2014isov   0.25001
gfz2014itlx   0.41378
gfz2014iusw   0.16558
gfz2014jayh  -0.19964
gfz2014jbgm   0.58397
gfz2014jffe   0.23189
