# Nsamples: 871  MAD:  0.519  mean:  0.049  std:  0.733
gfz2010aimm   0.21383
gfz2010aseg   0.21897
gfz2010axdz   0.28996
gfz2010azji   0.10726
gfz2010bgrt  -0.10853
gfz2010bklj  -0.78205
gfz2010bmls  -0.86909
gfz2010bnqr  -0.69698
gfz2010bqnk   0.89170
gfz2010btme   0.26105
gfz2010bvit  -0.21549
gfz2010bytu  -0.25308
gfz2010ccwc  -0.36463
gfz2010ccye  -0.33346
gfz2010clbw   0.05577
gfz2010cllh   0.65046
gfz2010cngg   0.37613
gfz2010cnyi   0.51839
gfz2010cphq   0.67855
gfz2010cpig   1.04270
gfz2010crgy   0.24975
gfz2010crir  -0.07209
gfz2010csle  -0.64286
gfz2010csqg   0.40251
gfz2010cuzg  -0.23817
gfz2010cvam  -0.32323
gfz2010cvkn   0.82335
gfz2010cwrk  -0.75708
gfz2010cyid   0.49258
gfz2010ddan  -2.12240
gfz2010djib  -6.14090
gfz2010dmij   0.52637
gfz2010drit   0.48850
gfz2010drng  -1.02860
gfz2010drpv   0.45151
gfz2010drun   0.53011
gfz2010dslu   0.19902
gfz2010dtgc   0.06340
gfz2010dtyx   0.63231
gfz2010dumv   0.21257
gfz2010dwgy  -0.45663
gfz2010dxhq   0.65446
gfz2010eepd  -0.49638
gfz2010ethu  -0.34113
gfz2010extu   0.20645
gfz2010faly  -0.24821
gfz2010fgbo   0.08102
gfz2010fjio  -0.58494
gfz2010fxhh  -0.60460
gfz2010fxut  -0.04079
gfz2010gcqp   0.10843
gfz2010gcrn   1.61200
gfz2010gonu   0.51256
gfz2010gpjl   5.01530
gfz2010iaay   0.85253
gfz2010inbs  -0.00724
gfz2010ioad  -0.18988
gfz2010izag   0.25028
gfz2010izgb  -0.10371
gfz2010jcby   0.32605
gfz2010jcpq  -0.71604
gfz2010jgwj  -0.17222
gfz2010juke  -0.14014
gfz2010kcdq  -0.69701
gfz2010kcyz   0.26628
gfz2010kuzb  -0.25487
gfz2010ljol   0.56578
gfz2010mjdl   0.30902
gfz2010nteg   0.34432
gfz2010oibn   0.37320
gfz2010okpc   0.47500
gfz2010pngv   0.94463
gfz2010qrix   0.26245
gfz2010qrta  -0.08883
gfz2010qzvf   0.41786
gfz2010rdip  -0.05699
gfz2010rhvu  -0.46719
gfz2010rkuu   0.02532
gfz2010rljv   0.31894
gfz2010rnwt   0.32179
gfz2010rpbz  -2.19700
gfz2010rpjd  -1.23870
gfz2010schp   0.23493
gfz2010scht   0.51264
gfz2010sdfs  -0.32805
gfz2010shvn  -0.50264
gfz2010swqy  -0.52295
gfz2010sylk  -0.06689
gfz2010syqh  -0.32819
gfz2010tcgh   0.62160
gfz2010tfar   0.57987
gfz2010tmba  -0.20420
gfz2010tmne  -0.23780
gfz2010tpcj   0.68038
gfz2010tqyo  -0.58248
gfz2010tzlz   0.98881
gfz2010tzma   0.79198
gfz2010ugws   0.68634
gfz2010uidg   0.98881
gfz2010umxj  -0.49163
gfz2010umyp   0.32590
gfz2010uogw   0.52823
gfz2010uopf   0.03444
gfz2010upod   0.08034
gfz2010uqba   0.64845
gfz2010utsc  -0.25270
gfz2010uveo  -0.22890
gfz2010uvpz  -0.60344
gfz2010uyng   0.29131
gfz2010vdcf  -1.38130
gfz2010vfyu  -0.14056
gfz2010vhzx   0.34200
gfz2010vybx  -0.47894
gfz2010wakc  -0.49734
gfz2010wigk  -0.52044
gfz2010wplk  -0.07450
gfz2010wwhf  -0.65100
gfz2010wwnq  -0.45392
gfz2010xamh  -0.17506
gfz2010xaxw  -0.31887
gfz2010xhqq   0.45268
gfz2010xjsv  -0.98437
gfz2010xkbz  -0.34669
gfz2010xkku  -0.50486
gfz2010xnbn  -0.97668
gfz2010xnwf  -0.63100
gfz2010xpzq   0.04215
gfz2010xvev  -0.38675
gfz2010xytc   0.04597
gfz2010xzte  -1.34430
gfz2010yczp  -0.48846
gfz2010yfdr  -0.35383
gfz2010yhhj  -0.69904
gfz2010yrex  -0.16972
gfz2010ytzb  -0.27918
gfz2010zhvj  -0.93900
gfz2010zjun   0.18152
gfz2010zkle   1.53620
gfz2011afyc  -0.05659
gfz2011ahvh  -0.42342
gfz2011amst   2.31300
gfz2011aqpp  -0.78288
gfz2011awsv  -0.03132
gfz2011bazz   0.21494
gfz2011bcvc   0.61670
gfz2011bffb   0.06577
gfz2011biin  -1.27310
gfz2011bqbx   0.91260
gfz2011bsvr   0.59573
gfz2011bwsm   0.71899
gfz2011bygs  -0.21082
gfz2011bygu  -0.18620
gfz2011bzio  -0.56616
gfz2011cdge  -0.18399
gfz2011cfyy  -0.19975
gfz2011chsa  -0.20184
gfz2011cjuz   0.44659
gfz2011clwu   0.06858
gfz2011cwhx  -0.22412
gfz2011cwsm  -0.48420
gfz2011cwzi  -0.02341
gfz2011cxbw  -1.43330
gfz2011cxdj   0.01575
gfz2011dhfg  -0.19889
gfz2011dhqk  -0.23043
gfz2011duvm  -0.34313
gfz2011dwae  -0.68643
gfz2011dzmf   0.00000
gfz2011edrq   0.21596
gfz2011ekty  -0.35447
gfz2011emzr   0.14883
gfz2011exxq  -0.62098
gfz2011fbsl   0.04730
gfz2011ffdh  -0.39187
gfz2011fnie  -0.00295
gfz2011fnuk  -0.22078
gfz2011fnxz  -0.07224
gfz2011fszl  -0.11279
gfz2011fxmf  -0.53242
gfz2011fzcw   0.61612
gfz2011gaax   0.39495
gfz2011gkdx  -0.36662
gfz2011glpg  -0.34036
gfz2011gpyr  -0.24559
gfz2011haaa   0.03798
gfz2011hatg  -0.58057
gfz2011hffq   0.53723
gfz2011hibi   0.83745
gfz2011hjof   0.11816
gfz2011hmnw  -0.25274
gfz2011hqjs  -0.16877
gfz2011hrgt  -0.97296
gfz2011huon  -0.09607
gfz2011hvzo  -0.04231
gfz2011hwbn   0.16349
gfz2011hyct  -0.23694
gfz2011iamf   0.03271
gfz2011ibew  -0.44159
gfz2011ifta  -0.41684
gfz2011inan   0.20294
gfz2011ioch  -0.59843
gfz2011iryz  -0.29703
gfz2011ituo  -0.10514
gfz2011iybf  -0.63337
gfz2011jdoz  -0.67268
gfz2011jeta  -0.23892
gfz2011jghq  -0.64541
gfz2011jphj   2.29940
gfz2011jpob   0.63425
gfz2011jryv   0.19462
gfz2011kbzo   0.12927
gfz2011kfch  -0.61774
gfz2011kgvq  -0.06871
gfz2011kjzt  -0.02872
gfz2011kjzv   0.85428
gfz2011kujo  -0.08767
gfz2011kylu   1.50110
gfz2011kymm   1.13730
gfz2011kyzy   0.24436
gfz2011ldgl  -0.77315
gfz2011lkkf  -0.21466
gfz2011lmug  -0.38301
gfz2011lwmg  -0.50729
gfz2011mdyq  -0.18423
gfz2011mjje   0.03157
gfz2011mntq   1.36020
gfz2011mrfm  -1.44300
gfz2011mror   0.52328
gfz2011mrpy   0.51005
gfz2011mryu  -0.95591
gfz2011mzvn   0.49265
gfz2011ndki   0.01826
gfz2011ndlh   0.68085
gfz2011ndse  -0.45874
gfz2011neai   0.82395
gfz2011nejg   0.35186
gfz2011nejw  -0.16172
gfz2011nfcz  -0.04928
gfz2011nfgt  -6.44780
gfz2011nftw  -1.40550
gfz2011nfww   0.66483
gfz2011nhby   0.25715
gfz2011nhvt  -0.48925
gfz2011nhwf   1.65360
gfz2011nifi   0.34103
gfz2011nijp  -0.45869
gfz2011nilw  -1.54860
gfz2011niuw  -0.25420
gfz2011nivw   0.82405
gfz2011nkou  -0.73334
gfz2011nlmf  -0.94709
gfz2011nlnl   0.02007
gfz2011nlou  -0.15709
gfz2011nlum   1.52360
gfz2011nmdz  -0.53170
gfz2011nnda  -0.42560
gfz2011nsej  -0.93018
gfz2011nsiy   0.85930
gfz2011nsrx   0.61553
gfz2011ntyd   0.68564
gfz2011nuqo   1.33280
gfz2011oadm  -0.24922
gfz2011oazk  -0.31558
gfz2011oekz   1.26700
gfz2011ofpj  -0.28491
gfz2011ohgj  -0.69099
gfz2011okza   0.06949
gfz2011omxt  -0.30807
gfz2011oosp   0.33103
gfz2011oqjl   1.85110
gfz2011osuy   0.05642
gfz2011ovvj   0.00000
gfz2011owqa   0.04199
gfz2011paqj  -0.14764
gfz2011pdgq   0.45166
gfz2011pfls   0.06524
gfz2011pfwq  -1.04900
gfz2011pimj  -0.28299
gfz2011pivq  -0.94762
gfz2011pmuv  -0.01588
gfz2011pphc   0.12702
gfz2011ppsc   0.03821
gfz2011prrq  -0.20489
gfz2011ptgd   0.02225
gfz2011pulu  -0.04347
gfz2011pwbw  -0.20807
gfz2011qenl  -0.05452
gfz2011qgea  -0.63721
gfz2011qgvh  -0.12315
gfz2011qlkj  -0.76021
gfz2011qtoy   1.74270
gfz2011qukj  -0.26029
gfz2011rbuo   0.20306
gfz2011rkau   0.08578
gfz2011rkzx  -0.17233
gfz2011rnny   0.02255
gfz2011rqut   0.47220
gfz2011scma   0.73792
gfz2011sdpl   0.24783
gfz2011sqco   0.76778
gfz2011sqxp   0.14101
gfz2011sskq   1.59830
gfz2011sxno  -0.27230
gfz2011sylg  -0.80636
gfz2011syvj   0.14956
gfz2011syzr   0.69829
gfz2011szcj   0.33039
gfz2011taqr  -0.06579
gfz2011tarj   0.36966
gfz2011tdjj  -0.14262
gfz2011tgon   0.39149
gfz2011tlwl  -0.02009
gfz2011tqgg   0.08893
gfz2011tssv  -0.35972
gfz2011tvuv  -0.34382
gfz2011twpz   0.02232
gfz2011txdb  -0.27708
gfz2011tzcv   0.90240
gfz2011ugbt  -0.39351
gfz2011unud   1.24810
gfz2011urwz   0.10737
gfz2011vbxv  -0.10696
gfz2011vcyx   0.24344
gfz2011vimn   0.28727
gfz2011vsag   0.21689
gfz2011vtdl  -1.63620
gfz2011vtzv  -0.04092
gfz2011wcvs   0.47713
gfz2011wgoa   0.67976
gfz2011wgvh   1.25080
gfz2011wkja   0.23918
gfz2011wkyx   1.03520
gfz2011wnjg  -0.88540
gfz2011wnvu   0.89100
gfz2011wpzt  -0.38306
gfz2011wtfn   1.07870
gfz2011wucg   0.39035
gfz2011wwze   0.16517
gfz2011wyei   1.07800
gfz2011wzss  -0.19492
gfz2011xdox   0.36241
gfz2011xgbc   1.04800
gfz2011xgwy   0.15675
gfz2011xkka  -0.33226
gfz2011xlod   0.48958
gfz2011xnui  -0.69125
gfz2011yeck   0.63908
gfz2011yexx  -0.31614
gfz2011ykbd  -0.34690
gfz2011ypfh   0.81531
gfz2011yrfa   0.21220
gfz2011zgxn  -0.38521
gfz2011zkbt   0.34585
gfz2011zlga   0.31199
gfz2011znyq  -0.22675
gfz2012adja   0.47881
gfz2012agwh   0.85386
gfz2012ahac   0.17426
gfz2012amjx   0.01528
gfz2012amvs  -0.19296
gfz2012aqpa  -0.49680
gfz2012arlo   0.16639
gfz2012asld   0.31338
gfz2012atjr   0.18464
gfz2012avvc   1.03070
gfz2012bcvn   0.01583
gfz2012bolx   0.08730
gfz2012bovy   0.39263
gfz2012brrg  -0.66355
gfz2012btbq  -0.49315
gfz2012byrq  -0.33818
gfz2012bysu  -1.74890
gfz2012bytv  -0.98914
gfz2012byuk  -0.48163
gfz2012cdju   0.46480
gfz2012cksh   1.10980
gfz2012cmww   0.10579
gfz2012cntu  -0.36884
gfz2012dejg  -0.00316
gfz2012dgfk   0.99766
gfz2012dkdy   0.07160
gfz2012dleg  -0.80703
gfz2012dnig   0.04300
gfz2012dpem   2.17320
gfz2012dpnu  -0.24641
gfz2012dpwv   0.40388
gfz2012dtdt  -0.13453
gfz2012dttl  -0.21009
gfz2012dtvr   0.31840
gfz2012dugf   0.22721
gfz2012duwm  -0.67649
gfz2012dwwu  -0.06200
gfz2012dyck  -0.09578
gfz2012dysu  -0.16768
gfz2012dzen   1.16190
gfz2012dzjo   1.55980
gfz2012dzoh   1.93420
gfz2012dzot   0.08881
gfz2012dzou   1.31270
gfz2012ebff  -0.13207
gfz2012ebhf   0.43512
gfz2012ebrr  -0.51533
gfz2012ekfp   0.30408
gfz2012ekro   1.46650
gfz2012elek  -0.54897
gfz2012emin  -0.45522
gfz2012enio   0.40750
gfz2012erds  -0.35654
gfz2012evxn   0.18249
gfz2012eyti  -0.67606
gfz2012fcyq  -0.12551
gfz2012fcyr  -0.11467
gfz2012fhaf   0.13923
gfz2012fiiz   0.16419
gfz2012fjiu   0.26839
gfz2012foih   2.31320
gfz2012fpyo   0.23641
gfz2012ftcq   1.89030
gfz2012ftks   0.53622
gfz2012fyny  -0.21191
gfz2012fyop  -0.05113
gfz2012gbrs  -0.72928
gfz2012gczh   0.03671
gfz2012gftg  -0.08924
gfz2012ghiv  -0.27081
gfz2012gjdg  -0.38794
gfz2012gjtd  -0.33012
gfz2012gmsr   0.21576
gfz2012gnow  -0.26905
gfz2012gubu   1.16390
gfz2012gvxc  -0.09520
gfz2012gzuk  -0.55009
gfz2012hdny   0.23333
gfz2012heih   0.10781
gfz2012hhlx  -0.47357
gfz2012hlya   1.33230
gfz2012hmcv   0.07327
gfz2012hvtu  -0.50770
gfz2012hyqh  -0.37402
gfz2012hzai   0.75976
gfz2012hzhn   0.42927
gfz2012hzur   1.46570
gfz2012iabn   1.11410
gfz2012iblc  -0.16411
gfz2012iblo   0.71617
gfz2012ibyd  -0.64956
gfz2012icjo  -0.13066
gfz2012idxu   0.38792
gfz2012iedy   0.96040
gfz2012ieln  -0.49873
gfz2012ikke  -1.57210
gfz2012imsm  -1.60230
gfz2012imuo  -1.35580
gfz2012iotw   0.53506
gfz2012iphs   0.56653
gfz2012iroy  -0.21590
gfz2012ivyg  -0.32502
gfz2012iyhs  -0.12804
gfz2012izke   2.67960
gfz2012jaun  -0.83589
gfz2012jetp  -0.43246
gfz2012jihg  -0.49017
gfz2012jjxm   0.77374
gfz2012jlez   1.56670
gfz2012jodg   0.18065
gfz2012jopi   0.06175
gfz2012jyhb   0.62037
gfz2012kjzx   0.35039
gfz2012klpl   0.65373
gfz2012kmmz   0.18227
gfz2012krcm  -0.05994
gfz2012kstg   0.00000
gfz2012kvlx  -1.97420
gfz2012lcca  -0.04111
gfz2012ldjj  -0.57529
gfz2012lqhw   0.00000
gfz2012lwha  -0.08027
gfz2012lyyr  -0.23329
gfz2012mcrb   0.15502
gfz2012mdzf  -0.61199
gfz2012mekv   0.09842
gfz2012mhik   0.00000
gfz2012mjuu   0.31017
gfz2012mmiw   0.27827
gfz2012mowv   0.04967
gfz2012mrqk  -0.00000
gfz2012mtyn   0.69992
gfz2012mvgu   0.22738
gfz2012mzco   0.11199
gfz2012ndwt  -0.30385
gfz2012nldz  -0.36570
gfz2012nlrb   0.04692
gfz2012nmja  -0.48219
gfz2012nnqu  -0.76298
gfz2012nqvd  -0.78183
gfz2012oehy   0.07575
gfz2012ofaj   1.70050
gfz2012ofnx   0.22219
gfz2012ogwe  -0.08112
gfz2012oieq   0.15506
gfz2012oiez   0.67621
gfz2012onfs  -0.16209
gfz2012oork   0.64934
gfz2012oozp   0.50943
gfz2012phns   0.28094
gfz2012pmuj   2.57860
gfz2012pmws   0.17936
gfz2012pvve  -0.24052
gfz2012pziw  -0.07242
gfz2012qfah   0.12511
gfz2012qfov   0.48830
gfz2012qllj  -0.63082
gfz2012qmhz   0.99239
gfz2012qpoc   1.04630
gfz2012qvwy  -2.48000
gfz2012rduv   0.63229
gfz2012rfhw   1.10180
gfz2012rknz   0.42918
gfz2012rnml   0.33850
gfz2012rnyn   0.06871
gfz2012roan  -0.90832
gfz2012rzwp  -0.53762
gfz2012sbix  -0.24516
gfz2012smyn  -0.45315
gfz2012socz  -0.68209
gfz2012stxx   0.32734
gfz2012suqd   1.24390
gfz2012svwz   0.00000
gfz2012swbz   0.45955
gfz2012sxbo   0.14147
gfz2012sxpr  -0.19095
gfz2012sxzs   0.22293
gfz2012syum   0.03786
gfz2012taph   0.50973
gfz2012tfij   0.49708
gfz2012tisj  -0.05414
gfz2012tjih   0.82574
gfz2012tqjc  -0.82137
gfz2012trfq   0.48629
gfz2012tyoz  -1.13710
gfz2012udeo   0.07081
gfz2012udxg  -0.39186
gfz2012uegq  -0.72314
gfz2012uhsx  -0.44970
gfz2012uhtc  -0.32318
gfz2012ukzg   0.28934
gfz2012ulei   0.58803
gfz2012umob  -0.13398
gfz2012unxc  -0.47413
gfz2012uovh  -0.56657
gfz2012uvea  -0.57036
gfz2012uvoa  -0.26936
gfz2012uzww  -0.47216
gfz2012vcqw   0.46721
gfz2012vdra   0.08271
gfz2012vioy  -0.80225
gfz2012vitw  -0.07684
gfz2012vkjw  -0.41544
gfz2012vlzv  -0.59021
gfz2012vnve  -0.62719
gfz2012vqjw   0.27358
gfz2012vqmq   0.25376
gfz2012vrqz  -0.30885
gfz2012vurc  -0.48942
gfz2012vzkm   0.14589
gfz2012wbeu  -1.16200
gfz2012wgdv  -0.02312
gfz2012wgmg  -0.86219
gfz2012wgmp  -0.39745
gfz2012wkki  -0.31322
gfz2012wmas   0.00000
gfz2012wmmw   0.22962
gfz2012wowu   0.46726
gfz2012woxj  -0.36337
gfz2012wpen  -0.34883
gfz2012wysg   0.16921
gfz2012wzja  -0.62449
gfz2012xask   0.15573
gfz2012xcsf   0.02229
gfz2012xfnu   0.65599
gfz2012xkln  -0.21357
gfz2012xlas  -0.39479
gfz2012xlfo  -0.96491
gfz2012xncm   0.51613
gfz2012xqxw   0.73784
gfz2012xrmq  -0.05214
gfz2012xtvu  -0.41893
gfz2012xxdj  -0.30062
gfz2012yegw  -0.20155
gfz2012ylai   0.17722
gfz2012yncm   0.74543
gfz2012yvwc   0.48678
gfz2012yygz   0.04405
gfz2012yytb   0.53185
gfz2012zhyz  -0.24149
gfz2012zido   0.57449
gfz2012zkhu   0.02214
gfz2012zmfc   0.51960
gfz2012zqis   0.47542
gfz2013aggr  -0.04439
gfz2013agmt  -0.48119
gfz2013akkd  -0.32793
gfz2013ascz  -0.66897
gfz2013atak  -0.50977
gfz2013auew  -0.44249
gfz2013bdvi  -0.02234
gfz2013bqfc  -0.56220
gfz2013bwgw   0.20338
gfz2013byyy  -0.11288
gfz2013cfls  -0.17334
gfz2013cinv   0.17853
gfz2013cokc   0.03682
gfz2013cpjc   0.90462
gfz2013cvve   0.23614
gfz2013ddrx  -0.23413
gfz2013delq   0.37361
gfz2013dftb   0.02206
gfz2013djfi  -0.32683
gfz2013dmzh  -0.43663
gfz2013dngd  -0.27904
gfz2013dvub  -0.36968
gfz2013dznt   0.13752
gfz2013dzvr  -0.97433
gfz2013eazm   0.17348
gfz2013efct   0.15026
gfz2013egfv  -0.10872
gfz2013eidd   0.23749
gfz2013enqo  -1.15310
gfz2013enrh  -0.14714
gfz2013esef   1.02550
gfz2013exow  -0.24401
gfz2013fhzy   0.26650
gfz2013fmcd  -0.40863
gfz2013fnpa   0.54109
gfz2013foto   0.13525
gfz2013gaqx  -0.59343
gfz2013gbki  -0.16831
gfz2013gffe  -0.07694
gfz2013gglk  -1.26660
gfz2013gjmk  -0.14975
gfz2013gkcx  -0.42614
gfz2013gkyn   0.12358
gfz2013grle   0.86137
gfz2013gsnl  -0.65845
gfz2013gugi   0.37454
gfz2013gurk  -0.08060
gfz2013gxye   0.58578
gfz2013gywl   1.17770
gfz2013hbmi   0.01488
gfz2013hdbp   0.83173
gfz2013hiam  -0.16391
gfz2013hjtt   0.40386
gfz2013hqaa   0.17423
gfz2013hqcd   0.25544
gfz2013hwps  -0.08985
gfz2013ifag  -1.14710
gfz2013ikic   0.80727
gfz2013irme  -0.33162
gfz2013isqh  -0.24973
gfz2013iuyv  -0.99159
gfz2013ivvw   0.63177
gfz2013iwzn  -1.19450
gfz2013iybv  -0.29980
gfz2013jhog  -0.31713
gfz2013jjae   0.09699
gfz2013jkqn   0.78889
gfz2013jlli  -0.09279
gfz2013jobl   0.50378
gfz2013jpir  -0.12027
gfz2013kbbg  -0.38209
gfz2013kbbn  -0.41765
gfz2013kbkp   0.15992
gfz2013kdfy  -0.04072
gfz2013kjgh  -0.55228
gfz2013kpcb   0.00594
gfz2013kqab  -0.51378
gfz2013kruh   0.23497
gfz2013kslp   0.10577
gfz2013kxlr   0.23565
gfz2013kxof   0.80452
gfz2013lbod   0.84986
gfz2013lbvl  -0.19613
gfz2013lcrk  -0.36125
gfz2013lgvf   0.05161
gfz2013ljdu   0.25958
gfz2013ljwt  -0.03539
gfz2013lqjj   0.35762
gfz2013lvxe   0.11984
gfz2013lxnd  -0.75265
gfz2013mdxj   0.17256
gfz2013mimp   0.37330
gfz2013mktp  -0.23202
gfz2013mnux  -0.43023
gfz2013mvgq  -0.16071
gfz2013mynb   0.68004
gfz2013mzaw   0.29354
gfz2013ntiu  -0.15771
gfz2013oeni   0.26077
gfz2013ojza   0.57721
gfz2013okac   0.02002
gfz2013olos   0.04176
gfz2013onvl   0.36570
gfz2013orot  -0.55429
gfz2013oywh  -0.37474
gfz2013pegj  -0.19321
gfz2013phhi   0.63861
gfz2013pkmz  -1.03230
gfz2013pqkp  -0.20612
gfz2013qigb   0.05815
gfz2013qmkt   0.26291
gfz2013quyn  -0.04492
gfz2013qxof  -0.45991
gfz2013rdmn   0.61284
gfz2013rfik   0.03078
gfz2013rgcc   0.26330
gfz2013rhbx   0.22795
gfz2013rocs  -0.09906
gfz2013rtvy   0.22915
gfz2013rwkj   0.09071
gfz2013ryph  -0.27699
gfz2013sbsp   1.22270
gfz2013sdkg  -0.19331
gfz2013skay   0.52268
gfz2013stou  -0.79941
gfz2013stup   0.03437
gfz2013syqp   0.34009
gfz2013syqv   0.42539
gfz2013taeb   0.32408
gfz2013tdsx   0.02377
gfz2013tert  -0.16423
gfz2013tgia   0.04885
gfz2013tgyb  -0.32231
gfz2013tjub   0.17136
gfz2013tkcg  -0.44251
gfz2013tmnf   0.11240
gfz2013tnrp   0.09297
gfz2013trsq   0.22114
gfz2013uafv   0.02070
gfz2013ubgt  -0.30119
gfz2013udtw   0.09728
gfz2013uhio   1.07370
gfz2013ujze   0.56588
gfz2013unuv  -0.24211
gfz2013upqj   1.16160
gfz2013vjrr  -0.25071
gfz2013vldx  -0.96409
gfz2013vmsg  -0.06032
gfz2013voai  -0.03497
gfz2013vojy  -0.02227
gfz2013vsdd  -0.43479
gfz2013vvre  -1.24970
gfz2013vwkh   0.22246
gfz2013vxht   0.66750
gfz2013vzel   0.07826
gfz2013wegs   0.36780
gfz2013xahp   0.06862
gfz2013xddu   1.79840
gfz2013xjmo   0.75112
gfz2013xlic   1.04050
gfz2013xmzw  -0.16234
gfz2013xodn  -0.30568
gfz2013xofz   0.04144
gfz2013xswc   0.02388
gfz2013xxbf  -0.02012
gfz2013xzxe   0.99606
gfz2013yapz  -0.48507
gfz2013yawe  -0.47223
gfz2013yodm   0.07507
gfz2013yqkz   0.73712
gfz2013yxhf   0.32229
gfz2013zfbz  -0.26996
gfz2013ziix   0.10220
gfz2013zlak   0.13317
gfz2013zpwk  -0.04766
gfz2014aaae   0.41709
gfz2014aedl  -0.02863
gfz2014ajgi  -0.12039
gfz2014alzg  -1.09410
gfz2014aqax  -0.25565
gfz2014aqop   0.38692
gfz2014avag  -0.46306
gfz2014avux  -0.07503
gfz2014avzp  -0.07183
gfz2014ayxf   0.19960
gfz2014bdju   0.01798
gfz2014befl   0.20360
gfz2014bgxe   0.29251
gfz2014bmqw   3.81740
gfz2014bnea   0.37873
gfz2014bppg   0.40037
gfz2014bqpm   0.50942
gfz2014brkk   1.57100
gfz2014buyz  -0.08181
gfz2014byes   0.26385
gfz2014bztn   1.53820
gfz2014bzus   0.62172
gfz2014cgoi  -0.01534
gfz2014cgxj  -0.59398
gfz2014cjao   0.37323
gfz2014club  -0.56899
gfz2014cncl  -0.22092
gfz2014cokw  -0.03044
gfz2014ctdl  -0.00000
gfz2014cvnb  -0.10639
gfz2014cwcj   0.95618
gfz2014cwti   3.14710
gfz2014dggw   0.07036
gfz2014diuu   0.22303
gfz2014djhi   0.43774
gfz2014dmrw   0.04042
gfz2014dtth   0.21107
gfz2014dtto  -0.29076
gfz2014dwcp  -0.13856
gfz2014eflc   0.74435
gfz2014egvg  -0.02554
gfz2014eirs  -0.08282
gfz2014emlw   0.42194
gfz2014eoay   0.29714
gfz2014epue  -0.35236
gfz2014esez   0.20910
gfz2014etqu   0.37740
gfz2014eunw   0.50004
gfz2014evyu   0.25911
gfz2014exxj  -0.12348
gfz2014ezjq   0.99492
gfz2014ezld   0.77750
gfz2014faex   1.04840
gfz2014fbef   0.01894
gfz2014fbnr   2.02350
gfz2014fdhk   0.26012
gfz2014ffqg  -0.08311
gfz2014fgbn   0.57521
gfz2014flxk   0.69386
gfz2014fqas  -0.45826
gfz2014fsje  -0.13972
gfz2014fskh   0.09154
gfz2014fwxt   0.41665
gfz2014fxim  -0.56290
gfz2014fxuy   0.76816
gfz2014gasb   1.18650
gfz2014gnbw  -0.03907
gfz2014gnvp   0.02874
gfz2014gqxg   0.46848
gfz2014grwv  -0.08476
gfz2014gsfc  -1.70560
gfz2014gssz   0.46983
gfz2014gtee   0.06289
gfz2014gutd  -0.06061
gfz2014gypw   0.33153
gfz2014hapg   0.70573
gfz2014herz  -0.33264
gfz2014hgjb  -0.97655
gfz2014hjmc  -0.99956
gfz2014hkcw  -0.18529
gfz2014hotu   0.75151
gfz2014hqhv  -0.31697
gfz2014huah   0.27575
gfz2014huqh   0.68066
gfz2014hyea   0.00000
gfz2014igrp   0.02855
gfz2014ijsa   0.57839
gfz2014ined   0.27197
gfz2014irly   0.42024
gfz2014isjg  -0.00885
gfz2014isov   0.80505
gfz2014iusw   0.06610
gfz2014iyuc   0.57553
gfz2014jaxy   1.03440
gfz2014jayh  -0.25230
gfz2014jbgm   1.24120
gfz2014jffe  -0.03971
