# Nsamples: 655  MAD:  0.800  mean: -0.004  std:  0.936
gfz2010bklj  -0.45270
gfz2010btme   3.09330
gfz2010byau   2.85700
gfz2010bytu  -0.61604
gfz2010cbnp   0.26672
gfz2010clbw   0.45449
gfz2010cllh   0.72218
gfz2010crgy  -0.27481
gfz2010crir  -0.09676
gfz2010cyid   1.59450
gfz2010dask   0.13140
gfz2010djib  -0.10736
gfz2010drit   0.57682
gfz2010drml  -1.09130
gfz2010drmq  -1.09130
gfz2010dxhq   1.40650
gfz2010ewyj   0.00793
gfz2010fvfz   1.09940
gfz2010fxut   0.79267
gfz2010gooc  -0.83433
gfz2010gpjl   0.95671
gfz2010guwa  -0.78981
gfz2010hsgv  -0.00304
gfz2010hueh   1.12130
gfz2010huzl   0.91669
gfz2010hxan   0.13155
gfz2010iaay   1.14140
gfz2010ifhd   1.48360
gfz2010inbs   0.57835
gfz2010ioad  -0.42160
gfz2010izag   0.15073
gfz2010jcby   0.39484
gfz2010jcpq  -0.80691
gfz2010jgwj  -0.31833
gfz2010kcdq   0.09927
gfz2010ljol  -0.94941
gfz2010lvnj   0.60414
gfz2010mdti  -0.01792
gfz2010mqaj  -1.34260
gfz2010msss   0.52776
gfz2010nbcr  -0.19893
gfz2010ncwu  -0.92830
gfz2010nwbd   0.06242
gfz2010okpc   2.82940
gfz2010onxm  -0.69968
gfz2010osrl   0.74042
gfz2010ouvm   0.19185
gfz2010pclq  -0.72684
gfz2010pdip  -1.71830
gfz2010pgpo  -0.03095
gfz2010qqqx   0.66904
gfz2010qrix  -0.89531
gfz2010qrta   0.49252
gfz2010qylh   0.77789
gfz2010qzvf   0.94035
gfz2010rhvu   0.87835
gfz2010rkuu  -0.61480
gfz2010rljv  -0.14225
gfz2010rpbz  -1.08030
gfz2010rpjd  -0.68620
gfz2010schp  -0.43197
gfz2010scht   0.29107
gfz2010sdfs  -0.70826
gfz2010shvn  -0.20190
gfz2010sook   0.43006
gfz2010swqy   0.06092
gfz2010syqh   0.61496
gfz2010tgmo   0.80610
gfz2010tmne  -0.08798
gfz2010tpcj   0.78235
gfz2010tvit  -0.86740
gfz2010tzlz   0.57634
gfz2010tzma  -0.37551
gfz2010ugws   0.25902
gfz2010uhjy   1.29870
gfz2010uidg   0.26113
gfz2010uogw  -0.06929
gfz2010upod  -1.81220
gfz2010uqba  -0.24674
gfz2010ussf  -0.46043
gfz2010utsc  -0.96744
gfz2010uveo  -0.62909
gfz2010uyng  -0.45307
gfz2010vdcf  -1.02930
gfz2010vfyu  -0.02214
gfz2010vgfu  -0.74889
gfz2010vong   1.53460
gfz2010vxwv   1.02570
gfz2010wakc  -1.30990
gfz2010wigk   0.06420
gfz2011bpqm   0.96050
gfz2011bwsm   0.79920
gfz2011bygs  -0.08388
gfz2011bygu   0.64482
gfz2011cdge  -0.23029
gfz2011cjuz   1.35440
gfz2011cwzi   0.82104
gfz2011dpyu  -0.68830
gfz2011exxq  -1.02150
gfz2011fbsl  -0.14677
gfz2011fnie   0.19462
gfz2011fyfu   0.26884
gfz2011fzcw  -0.03300
gfz2011ggnl   0.25954
gfz2011gnbk   1.92020
gfz2011gpyr  -0.04549
gfz2011gzde   0.22806
gfz2011hatg   0.29250
gfz2011hbqc  -1.22260
gfz2011hibi   0.53380
gfz2011hjof   0.73805
gfz2011hmnw   0.91764
gfz2011hvzo  -0.34594
gfz2011ioch  -0.29093
gfz2011iryz  -0.12645
gfz2011ituo  -0.80590
gfz2011jphj   4.09000
gfz2011jpob  -0.80158
gfz2011jqyc  -0.52612
gfz2011jryv   1.53690
gfz2011jtij  -0.73661
gfz2011kfch   0.32603
gfz2011kjzt  -1.16520
gfz2011kjzv  -1.33360
gfz2011kmge   0.54125
gfz2011kujo  -0.34438
gfz2011kylu  -1.36830
gfz2011kymm   1.64840
gfz2011kyzy  -0.91704
gfz2011lkkf   0.21292
gfz2011lnzf   0.59158
gfz2011lwmg   0.05482
gfz2011lxga  -0.28750
gfz2011lykm  -0.32072
gfz2011mdyq  -0.38480
gfz2011melb   0.52684
gfz2011mllb   0.87576
gfz2011mntq   0.76873
gfz2011moob  -0.22377
gfz2011mrfm   0.89926
gfz2011nblt   2.63410
gfz2011ncyw  -1.62080
gfz2011ndhh   0.22186
gfz2011ndki  -0.48275
gfz2011ndlh   1.93660
gfz2011ndoe  -0.14138
gfz2011ndse   0.66504
gfz2011ndtp  -0.62399
gfz2011ndvj   0.29252
gfz2011ndyk  -0.43842
gfz2011neai   0.07473
gfz2011nejg  -0.47353
gfz2011nejw  -0.34581
gfz2011nerb  -0.48983
gfz2011nfcz   0.64802
gfz2011nfgt   1.50010
gfz2011nfih  -1.38870
gfz2011nfln  -0.34377
gfz2011nftw  -0.41147
gfz2011nfwd  -0.28660
gfz2011nfww   0.86258
gfz2011nhby   0.09027
gfz2011nhhd  -0.31773
gfz2011nhjv  -2.66340
gfz2011nhvt   0.90726
gfz2011nhwf   0.86716
gfz2011nifi  -1.36650
gfz2011nihq   0.70877
gfz2011nijp  -0.15567
gfz2011nilw  -0.95550
gfz2011nimp  -1.05180
gfz2011nioi  -0.02965
gfz2011nisj   0.63861
gfz2011niuw   0.08770
gfz2011nivw  -0.79684
gfz2011nkda   1.13110
gfz2011nkou  -1.93660
gfz2011nnda  -0.31488
gfz2011nnos   0.72987
gfz2011npaf  -0.02777
gfz2011npeu   0.68539
gfz2011nsiy  -0.47960
gfz2011nsrx  -1.41130
gfz2011nssr  -1.83110
gfz2011nswi  -0.55444
gfz2011nsyi   0.20458
gfz2011oqjl   0.38605
gfz2011oslk  -0.96828
gfz2011osmp  -0.79611
gfz2011osuy  -0.76605
gfz2011ovvj  -0.77233
gfz2011owqa  -0.49735
gfz2011paqj  -1.04940
gfz2011pbgh  -1.28040
gfz2011pbjh  -0.19686
gfz2011pcqr   0.37450
gfz2011wbtc  -0.01975
gfz2011wcvs   0.13346
gfz2011wgvh   0.44046
gfz2011wqup  -0.15989
gfz2011wwze   0.30840
gfz2011wzss  -0.24711
gfz2011xdox  -1.58720
gfz2011xlod   1.72240
gfz2011xnui   0.45648
gfz2011yexx  -0.89938
gfz2011ymji   0.12638
gfz2012cksh   1.77840
gfz2012cvfr  -0.26766
gfz2012dtvr   0.52447
gfz2012dugf   2.64390
gfz2012ekfp   0.52374
gfz2012eyti  -1.78730
gfz2012fiiz  -0.68615
gfz2012foih   4.09550
gfz2012ftks  -1.35760
gfz2012fyny   0.25125
gfz2012ghiv   0.14534
gfz2012ghyd   0.44368
gfz2012gjtd   0.17632
gfz2012gnow  -0.27879
gfz2012gpcd  -0.50999
gfz2012gubu   0.43337
gfz2012heih   0.39593
gfz2012hyqh   1.65040
gfz2012hzhn   1.26630
gfz2012hzur  -0.85834
gfz2012iblo   1.07510
gfz2012ibyd  -0.00912
gfz2012icjo  -0.23726
gfz2012idxu  -0.25726
gfz2012iijk   1.08770
gfz2012imuo  -0.36934
gfz2012iphs   0.83015
gfz2012iroy  -0.63958
gfz2012ivyg  -0.33860
gfz2012iyhs  -1.27740
gfz2012izke   2.35570
gfz2012jnlt   0.00000
gfz2012jodg   0.19418
gfz2012jopi  -0.13924
gfz2012jvei   0.52516
gfz2012jyhb  -0.23062
gfz2012kbub   0.15237
gfz2012kmbo   0.21852
gfz2012kmmz  -0.79897
gfz2012kstg  -0.29018
gfz2012kyhj  -1.68550
gfz2012lcca  -1.25030
gfz2012lcro   1.08380
gfz2012ldjj   0.96427
gfz2012lngq   0.93251
gfz2012lqhw   0.01021
gfz2012lwha  -0.02165
gfz2012lyqs  -2.20400
gfz2012lyyr  -0.79837
gfz2012mcrb  -1.10570
gfz2012mdzf  -0.46677
gfz2012mhik  -0.62794
gfz2012mjuu  -1.98450
gfz2012mmiw   1.18160
gfz2012mout   0.49746
gfz2012movu   0.20233
gfz2012movv   0.63611
gfz2012mowv  -0.14765
gfz2012mrqk  -1.26490
gfz2012mrwu  -0.98332
gfz2012mtyn   0.45392
gfz2012mvgu  -0.04039
gfz2012mwhe  -0.35437
gfz2012mxdk   0.11321
gfz2012mxvk   0.95216
gfz2012ndwt  -0.19690
gfz2012nfos   0.42796
gfz2012nldz   0.08116
gfz2012nlrb  -0.39046
gfz2012nmja  -1.08350
gfz2012nnck  -0.04698
gfz2012nnqu  -2.57160
gfz2012nqvd   0.94980
gfz2012nsxc  -0.77136
gfz2012oafg   0.24968
gfz2012oehy  -0.23416
gfz2012ofaj  -0.33750
gfz2012ofnx   0.16018
gfz2012ogqu  -0.02032
gfz2012oieq  -0.12920
gfz2012oiez   2.73240
gfz2012ojmv   2.12520
gfz2012onhu   1.14110
gfz2012ooij   0.58766
gfz2012oork  -0.16505
gfz2012oozp  -0.46066
gfz2012ormy   0.03179
gfz2012oxnh  -0.39814
gfz2012oyja  -0.70014
gfz2012pcui  -0.02232
gfz2012pdav  -0.12065
gfz2012pdfi  -0.61997
gfz2012pdjt   0.62434
gfz2012pgmw   0.48123
gfz2012phns  -0.12044
gfz2012pira  -1.09440
gfz2012pmuj  -1.60890
gfz2012pmws   0.48256
gfz2012pokk  -0.36735
gfz2012ppcq   0.22952
gfz2012pvve   0.03623
gfz2012pziw  -0.75778
gfz2012qbbt   0.37428
gfz2012qfah   0.31950
gfz2012qfov  -0.04421
gfz2012qllj  -0.91423
gfz2012qmhz   0.25335
gfz2012qmxz  -0.37645
gfz2012qoev  -1.29670
gfz2012qpoc   1.34090
gfz2012rjlp   0.78071
gfz2012rknz  -0.53708
gfz2012rnbw  -1.02060
gfz2012rnml   0.05045
gfz2012rnyn  -0.21694
gfz2012roan  -0.19217
gfz2012rslf  -0.21707
gfz2012rugl  -0.32443
gfz2012rzwp   0.69125
gfz2012sbix   0.04359
gfz2012scuk   0.30269
gfz2012sfao  -0.84598
gfz2012sgfd   0.02192
gfz2012sjdy  -0.72484
gfz2012smyn   1.06800
gfz2012socz   0.54557
gfz2012ssnb  -1.73050
gfz2012stxx  -0.20941
gfz2012suqd   0.55658
gfz2012svwz   0.49404
gfz2012swbz  -0.67962
gfz2012sxbo   0.74356
gfz2012sxpr  -0.70112
gfz2012sxzs   0.50177
gfz2012syum  -0.67828
gfz2012taph  -0.59714
gfz2012tisj   0.19106
gfz2012tjih   0.35389
gfz2012tjwg   1.75530
gfz2012touh   0.55001
gfz2012tqjc  -1.11650
gfz2012trss   0.68396
gfz2012ttnf   0.12496
gfz2012tvgw   0.66954
gfz2012twec  -0.53012
gfz2012tyoz  -1.90760
gfz2012udeo   0.08544
gfz2012udxg   0.41823
gfz2012uhtc  -0.42821
gfz2012urtu  -0.59330
gfz2012uvea  -0.26456
gfz2012uvoa  -0.50791
gfz2012uzuu   0.29048
gfz2012uzww  -0.59890
gfz2012vcqw  -0.67094
gfz2012vdsl   0.53061
gfz2012vgot  -0.81342
gfz2012vile   0.18684
gfz2012vitw   0.26996
gfz2012vkjw  -0.06218
gfz2012vlzv  -0.70218
gfz2012vnve   0.53683
gfz2012vqjw   0.31726
gfz2012vqmq   0.83211
gfz2012vrqz  -1.16670
gfz2012vurc   1.58250
gfz2012wdxk   1.20590
gfz2012wgdv  -1.16360
gfz2012wgmg  -1.47500
gfz2012wgmp  -0.98983
gfz2012wiyv  -1.51710
gfz2012wjpf   0.57401
gfz2012wowu   0.20062
gfz2012woxj   0.62486
gfz2012wpen  -0.97468
gfz2012wysg  -0.37029
gfz2012xask   0.10498
gfz2012xkln  -0.02637
gfz2012xlas  -1.55730
gfz2012xlfo  -0.87974
gfz2012xncm   0.34195
gfz2012xqxw   0.26921
gfz2012yegw   0.69409
gfz2012yncm   0.18351
gfz2012yvwc  -0.14509
gfz2012zhyz  -0.53176
gfz2012zido   0.32848
gfz2012zktj  -1.28910
gfz2012zmfc   0.51032
gfz2012znou  -0.62138
gfz2013aggr   2.87710
gfz2013akkd  -0.54167
gfz2013ascz  -0.39656
gfz2013bwgw   0.61699
gfz2013byyy  -0.04666
gfz2013cokc  -0.65672
gfz2013cpjc   0.54444
gfz2013cqee   5.05980
gfz2013cvve  -0.27318
gfz2013ddrx   1.90440
gfz2013dftb   0.59665
gfz2013dngd   0.75650
gfz2013dzvr  -0.29294
gfz2013eazm  -0.75060
gfz2013efct   0.60739
gfz2013egfv   1.74750
gfz2013eidd  -0.44523
gfz2013esef   1.19770
gfz2013evcl   1.43960
gfz2013fhzy  -0.14081
gfz2013fmcd  -1.53970
gfz2013fmcp   0.57952
gfz2013fndg   0.64093
gfz2013fnpa  -0.52892
gfz2013foto   0.15652
gfz2013frxd   0.58893
gfz2013fthi   0.07173
gfz2013fulo  -0.78932
gfz2013fvht  -0.43721
gfz2013fvyr  -0.47615
gfz2013fwbm   0.63864
gfz2013fybd  -0.36266
gfz2013gbma  -0.07033
gfz2013gjmk   0.23020
gfz2013gkcx  -0.28133
gfz2013gkyn  -0.55395
gfz2013glkq   3.69690
gfz2013glpz  -0.14902
gfz2013gsnl  -0.34141
gfz2013gugi  -1.20340
gfz2013gurk   0.31072
gfz2013gxye   0.61577
gfz2013havw  -0.26757
gfz2013hbmi   0.22258
gfz2013hbtm   0.55025
gfz2013hbwy  -3.05740
gfz2013hdbp  -1.41320
gfz2013hduf   0.08165
gfz2013hiam  -0.19670
gfz2013hjtt  -0.16432
gfz2013hwps   0.32602
gfz2013icql  -0.98820
gfz2013ikic   0.68474
gfz2013iuyv   2.14040
gfz2013iwzn  -1.13500
gfz2013jfcn   0.74226
gfz2013jhog   0.61298
gfz2013jjae   0.75913
gfz2013jobl   0.31782
gfz2013jqsk  -0.28665
gfz2013jtsg   1.54610
gfz2013kats   0.14914
gfz2013kbbg   0.09936
gfz2013kbbn   0.44304
gfz2013kcdb  -0.40455
gfz2013kdfy  -0.14050
gfz2013kjgh  -0.66994
gfz2013kpcb  -0.99762
gfz2013kpes   1.07530
gfz2013kqab   0.07381
gfz2013kslp  -0.31177
gfz2013lbod   0.24479
gfz2013lbvl  -1.27340
gfz2013lcrk  -0.36054
gfz2013ljwt  -0.06913
gfz2013lnne   0.90686
gfz2013lnts  -0.50372
gfz2013lqjj   0.09868
gfz2013lvxe  -0.16230
gfz2013lwtr   0.12230
gfz2013lxed  -0.38576
gfz2013lxnd  -0.70844
gfz2013mdxj   0.36232
gfz2013mimp  -0.13849
gfz2013mktp   0.30941
gfz2013muqm  -0.89887
gfz2013mvgq  -0.50994
gfz2013mzaw  -0.23838
gfz2013njck   1.38590
gfz2013njwj   0.17399
gfz2013nkgd  -0.98747
gfz2013nkgt  -0.95709
gfz2013nnai  -1.25730
gfz2013noqf  -0.10485
gfz2013ntfc  -0.05048
gfz2013ntiu   0.35324
gfz2013ohdt  -0.53556
gfz2013ohnj   0.68837
gfz2013oizq  -0.74960
gfz2013ojza  -0.39847
gfz2013okac  -0.15659
gfz2013okxa  -0.07579
gfz2013olos  -2.07210
gfz2013onvl  -1.25460
gfz2013orot   0.62682
gfz2013osmj  -0.13548
gfz2013oywh   0.15764
gfz2013phhi  -0.87770
gfz2013phly   0.01987
gfz2013pkmz   1.31980
gfz2013pqkp  -1.85790
gfz2013puiy  -0.25061
gfz2013pvsa  -0.24959
gfz2013pwsm   1.18390
gfz2013qaov  -0.26716
gfz2013qapj  -0.49883
gfz2013qdzg  -0.29209
gfz2013qear  -1.67660
gfz2013qigb  -0.76603
gfz2013qmkt   1.45610
gfz2013qntl  -0.11914
gfz2013quwz  -2.07410
gfz2013quyn  -0.18237
gfz2013qwnm   0.57121
gfz2013qxof  -0.37437
gfz2013rdmn   0.07853
gfz2013rfik   0.23578
gfz2013rgcc   0.21958
gfz2013rnsa  -0.18907
gfz2013rocs   0.04691
gfz2013rwkj   2.95090
gfz2013ryph  -0.54636
gfz2013sbsl   0.94626
gfz2013skay  -0.37631
gfz2013stou  -0.21026
gfz2013stup  -0.33475
gfz2013suck   0.03942
gfz2013swnj   0.37491
gfz2013taeb   0.99104
gfz2013tcju  -0.44132
gfz2013tdsx  -0.97089
gfz2013tekq   0.53721
gfz2013tert  -0.16479
gfz2013tgia   0.26696
gfz2013tjub  -1.43940
gfz2013tmnf  -0.39234
gfz2013tmyj   0.19467
gfz2013tnff  -2.71940
gfz2013tnrp   0.14553
gfz2013tpwl  -0.15380
gfz2013trsq   0.05002
gfz2013ttmk  -0.04895
gfz2013uhio   0.00000
gfz2013ujze  -1.21290
gfz2013ummt   2.22920
gfz2013unuv  -1.01260
gfz2013upqj   0.32292
gfz2013urla   0.28712
gfz2013utqa   0.70462
gfz2013uugc  -0.39049
gfz2013uwjo   0.46949
gfz2013uzmf   0.10435
gfz2013vcgd  -0.63863
gfz2013vdam   0.29291
gfz2013veoz  -1.01890
gfz2013veug  -0.97927
gfz2013vgfb  -0.76641
gfz2013vjrr  -0.36333
gfz2013vldx  -0.19862
gfz2013vmrv   0.44162
gfz2013vmsg  -0.97686
gfz2013vnwa   0.87718
gfz2013voai   0.20279
gfz2013vvre  -1.09690
gfz2013vwkh  -0.12662
gfz2013vxht   0.17944
gfz2013vzel  -0.07785
gfz2013wpns  -0.66721
gfz2013wwee  -0.61229
gfz2013wyfl   1.35410
gfz2013xddu   0.68314
gfz2013xjmo   0.45459
gfz2013xlic   0.70935
gfz2013xmzw   0.02266
gfz2013xodn   0.18727
gfz2013xofz  -1.01480
gfz2013xswc  -0.77616
gfz2013xvps  -0.50111
gfz2013xycz  -0.31821
gfz2013ygsj  -0.26688
gfz2013yodm  -0.45671
gfz2013yqtu  -0.23468
gfz2013ytfm  -0.82756
gfz2013yvnj  -0.21065
gfz2013yxhf  -0.23582
gfz2013zbfb  -0.00626
gfz2013zeye  -0.06139
gfz2013zfbz  -0.41923
gfz2013zkta   0.41672
gfz2014aedl   0.13825
gfz2014aejh  -0.17581
gfz2014afbt   0.88242
gfz2014avzp  -0.65162
gfz2014ayxf   0.31373
gfz2014bkra   0.09964
gfz2014bzus  -0.27438
gfz2014cgxj  -1.06190
gfz2014cncl   0.91358
gfz2014cokw   0.01523
gfz2014cwti  -0.52521
gfz2014diuu   0.69236
gfz2014djhi  -0.19538
gfz2014dmrw  -0.38964
gfz2014edmd  -0.33809
gfz2014eirs   0.36344
gfz2014epnq   0.19366
gfz2014epue  -0.80990
gfz2014ezjq   2.83720
gfz2014fbli   0.35239
gfz2014fjfz   0.55185
gfz2014flxk  -0.92412
gfz2014fsir  -0.14392
gfz2014fwxt  -0.66295
gfz2014fxte  -0.73915
gfz2014fxuy  -0.19756
gfz2014ggie  -1.95330
gfz2014gjfd   0.48453
gfz2014grwv   0.06701
gfz2014gsfc   1.85720
gfz2014gssz   0.91525
gfz2014gtee   0.51297
gfz2014gypw  -0.18026
gfz2014gzlm  -0.07595
gfz2014hapg   0.73130
gfz2014hgjb  -1.12980
gfz2014hjmc   1.19500
gfz2014hotu  -1.10200
gfz2014hqhv  -0.26031
gfz2014huah   1.51660
gfz2014huqh  -0.23073
gfz2014hyea  -0.69542
gfz2014hzzf   0.49706
gfz2014iaqm   0.34293
gfz2014iayo   0.05301
gfz2014icov   1.79640
gfz2014iltl  -0.97084
gfz2014imqh   0.29235
gfz2014ined   2.08820
gfz2014ipfu   0.11753
gfz2014irlf  -0.53083
gfz2014irln  -0.79150
gfz2014irly  -0.93986
gfz2014isov   1.51590
gfz2014itlx   0.05169
gfz2014iusw   0.22827
gfz2014jarg   1.13500
gfz2014jayh  -1.70720
gfz2014jfmc  -1.90710
