# Nsamples: 304  MAD:  1.251  mean: -0.161  std:  1.847
gfz2011bzio  -0.16559
gfz2011cwzi  -0.23515
gfz2011cxdj  -0.14461
gfz2011dabj   5.42650
gfz2011dbzc  -0.16163
gfz2011dhfg  -0.81574
gfz2011dpyu  -0.70001
gfz2011duvm   4.10840
gfz2011dwae  -0.68423
gfz2011fges  -1.20560
gfz2011fnie   5.37440
gfz2011fszl  -0.51074
gfz2011fyfu  -1.14220
gfz2011fzcw  -1.65410
gfz2011gdli  -0.82918
gfz2011gnbk  -0.08104
gfz2011gpyr   0.05921
gfz2011haaa   2.41020
gfz2011hatg  -1.60860
gfz2011hjof   0.91158
gfz2011hqjs   0.98152
gfz2011hyct  -0.76694
gfz2011iamf  -0.94059
gfz2011ibew  -1.02820
gfz2011ioch  -4.14050
gfz2011itcv   0.46342
gfz2011ituo  -0.91995
gfz2011kymm  -4.98470
gfz2011lkkf  -0.02563
gfz2011lmug   1.38980
gfz2011lxga   1.76690
gfz2011mjje  -1.56570
gfz2011mllb   2.23860
gfz2011mzvn  -1.77810
gfz2011ndhh  -0.44232
gfz2011neai  -3.58690
gfz2011nfcz  -1.30850
gfz2011nnda   0.33337
gfz2011oadm  -0.19747
gfz2011ofpj   0.30503
gfz2011ohgj  -1.35400
gfz2011oslk  -1.16840
gfz2011owqa  -1.31920
gfz2011paqj  -1.04080
gfz2011pcqr   0.68927
gfz2011pdgq  -0.71486
gfz2011pfwq  -2.70440
gfz2011pphc   2.92900
gfz2011prrq   1.38280
gfz2011qenl  -1.37760
gfz2011qhjw   2.03500
gfz2011qowe  10.74700
gfz2011rczb   0.81211
gfz2011rkau   0.01866
gfz2011rnny  -0.53639
gfz2011scma  -0.31108
gfz2011sdax  -0.42252
gfz2011sqco  -1.99720
gfz2011sskq  -1.24490
gfz2011sxno   0.14836
gfz2011tqgg   0.80473
gfz2011tsgl   0.30841
gfz2011tvuv  -0.18062
gfz2011tzcv  -1.08820
gfz2011ugbt  -0.56559
gfz2011uqry  -0.19923
gfz2011urwz  -2.59770
gfz2011vahy  -0.16399
gfz2011vaoi   0.29265
gfz2011vcyx  -2.47100
gfz2011vimn   3.37570
gfz2011vsag  -2.48440
gfz2011vswj  -0.56368
gfz2011vtdl   0.11931
gfz2011wkja  -1.27260
gfz2011wpzt   0.23470
gfz2011wqup  -0.54397
gfz2011wwze  -0.68905
gfz2011wzss  -0.38609
gfz2011xkka   0.61366
gfz2011xlod  -2.25940
gfz2011xnui   0.65439
gfz2011yrfa  -2.38960
gfz2011zghc  -0.23461
gfz2011zgxn   1.11970
gfz2011ziyk  -1.41920
gfz2011znyq   1.71370
gfz2012amjx   3.13470
gfz2012aqpa  -0.91207
gfz2012beae  -1.41170
gfz2012bqcf  -0.92504
gfz2012cdju  -0.74219
gfz2012cfdw  -0.47279
gfz2012cksh   2.78680
gfz2012cmww  -0.44054
gfz2012cntu  -0.59446
gfz2012cvfr  -1.27950
gfz2012dejg   1.19730
gfz2012dpnu   1.71020
gfz2012dtlu  -2.51650
gfz2012dysu   2.20980
gfz2012dzjo   1.10160
gfz2012ebrr  -0.41203
gfz2012eeft  -0.62771
gfz2012ekfp   0.59891
gfz2012elek   0.22780
gfz2012fcyr   0.81430
gfz2012fuyd  -1.27190
gfz2012fyny   0.69096
gfz2012gftg   1.18320
gfz2012ghiv   0.98080
gfz2012gjdg  -2.16310
gfz2012gnow  -1.10010
gfz2012gvxc  -0.30823
gfz2012hdny   0.96962
gfz2012hhlx   0.83706
gfz2012hwph   0.48880
gfz2012hzhn  -0.59116
gfz2012hzur   2.09610
gfz2012iblc   0.56439
gfz2012iblo  -1.06980
gfz2012iijk   1.65110
gfz2012iotw   0.28461
gfz2012iyhs  -1.02990
gfz2012jodg  -2.35530
gfz2012kmbo   2.30570
gfz2012kmmz  -0.54254
gfz2012kstg   0.17256
gfz2012kyhj   0.45867
gfz2012ldjj   2.60500
gfz2012lqhw  -1.56600
gfz2012mpzo  -0.44469
gfz2012mrqk  -1.82610
gfz2012nqvd   0.07882
gfz2012nsxc  -0.82511
gfz2012oafg   0.48059
gfz2012ojmv  -4.23440
gfz2012onfs   0.21394
gfz2012oyja  -2.18140
gfz2012pekf   0.14240
gfz2012pgmw   0.17344
gfz2012phns  -0.41425
gfz2012pmuj   0.24266
gfz2012pvve  -0.31891
gfz2012qbbt   0.41127
gfz2012qfah  -2.04720
gfz2012rjlp  -1.10590
gfz2012sbix  -0.27616
gfz2012socz   1.70060
gfz2012ssnb  -4.50650
gfz2012suqd   0.53143
gfz2012svwz   1.39660
gfz2012swbz   0.15122
gfz2012sxbo   1.32120
gfz2012sxzs   1.36060
gfz2012twec  -0.94914
gfz2012uhtc  -0.46419
gfz2012ukzg  -1.73160
gfz2012uvoa   3.85400
gfz2012uzww   0.20674
gfz2012vdsl   0.12812
gfz2012vioy   0.26308
gfz2012vitw  -1.07770
gfz2012wbeu   1.22000
gfz2012wgmg  -1.59800
gfz2012wkki  -0.47706
gfz2012wmmw   1.03910
gfz2012xcsf   0.05611
gfz2012xlfo   1.72590
gfz2012xncm   0.63341
gfz2012xxdj  -0.41096
gfz2012yegw   2.44350
gfz2012yncm  -2.85780
gfz2012yzih   0.51148
gfz2012zhyz  -0.30495
gfz2012zmfc  -4.90270
gfz2013akkd  -0.18005
gfz2013bwgw   1.16260
gfz2013cvve   1.09310
gfz2013cyvx  -3.18350
gfz2013delq   5.40850
gfz2013dftb   0.19306
gfz2013djfi  -7.28900
gfz2013dnot   0.33320
gfz2013hvkg  -6.69790
gfz2013hwps  -2.87260
gfz2013icgx  -0.82748
gfz2013iwzn   3.07480
gfz2013jfcn   1.96250
gfz2013jobl  -0.93655
gfz2013jtsg   0.75172
gfz2013kats   1.44900
gfz2013kbbg   2.57060
gfz2013kbbn   0.58705
gfz2013kcdb   0.43915
gfz2013kdfy   0.31754
gfz2013kqab  -1.13330
gfz2013kruh  -0.53962
gfz2013kslp  -0.61217
gfz2013lbvl  -2.08850
gfz2013ljdu  -1.50170
gfz2013mdxj  -0.19040
gfz2013mimp  -0.66005
gfz2013msmy  -1.35650
gfz2013ntiu  -2.09560
gfz2013ohdt  -0.16825
gfz2013oizq   2.66090
gfz2013oywh   1.15550
gfz2013phhi   4.96620
gfz2013pkmz   1.96050
gfz2013qaex  -1.15010
gfz2013qnqr  -1.04150
gfz2013quyn  -0.59032
gfz2013qwnm   1.95460
gfz2013qxof  -0.74426
gfz2013rdmn  -2.20250
gfz2013rhbx  -0.00000
gfz2013stup   2.25020
gfz2013tdsx  -0.30545
gfz2013tgia  -0.04459
gfz2013timw   1.16490
gfz2013tkcg  -1.76700
gfz2013tmyj  -0.40365
gfz2013trsq  -0.25237
gfz2013udtw  -1.17620
gfz2013unuv  -1.39170
gfz2013utqa   1.22490
gfz2013uwjo   3.17710
gfz2013uwxi  -0.60870
gfz2013uxzw   3.97980
gfz2013vdam  -0.39695
gfz2013veug   1.32680
gfz2013vfix   0.18479
gfz2013vmrv   0.47808
gfz2013vnwa  -1.18110
gfz2013voai  -0.54365
gfz2013vsdd   0.38474
gfz2013vvre   2.06230
gfz2013vzel   0.83758
gfz2013wyfl   0.18686
gfz2013xahp  -0.47016
gfz2013xjmo  -1.79370
gfz2013xmzw  -0.70146
gfz2013xodn   0.58894
gfz2013xswc  -0.75096
gfz2013xupg   0.61241
gfz2013yihv   0.76792
gfz2013yqtu  -1.57710
gfz2013yvpn  -1.30960
gfz2013yxif  -0.21063
gfz2013yywh  -0.10424
gfz2013zfbz  -0.82765
gfz2013zlak   3.77480
gfz2013zpwk  -0.38531
gfz2013zqan  -0.04776
gfz2014aqop   0.76475
gfz2014ateb   0.14517
gfz2014avag   0.24313
gfz2014avmd  -1.11260
gfz2014bdju  -0.06920
gfz2014bkra  -2.34760
gfz2014bmch   0.49503
gfz2014bppg  -1.27820
gfz2014bqpm  -0.93231
gfz2014byes   0.53959
gfz2014ctdl  -0.07266
gfz2014djhi   1.24760
gfz2014djyj  -1.69840
gfz2014dwcp  -0.30104
gfz2014fbnr   0.54736
gfz2014fdhk  -0.83886
gfz2014fgbn  -8.49870
gfz2014fjfz  -0.24534
gfz2014fsir  -1.00310
gfz2014fsje  -0.11993
gfz2014fwxt  -0.48863
gfz2014fxim  -0.19212
gfz2014fxte  -2.09770
gfz2014fxtv  -2.16380
gfz2014fxuy  -2.36140
gfz2014gssz  -1.65540
gfz2014gtee   0.46384
gfz2014hhey  -0.55204
gfz2014hkcw  -0.52688
gfz2014hqhv  -1.00140
gfz2014hzzf  -0.11283
gfz2014iayo   1.17180
gfz2014icov   3.14480
gfz2014igrp  -0.24309
gfz2014ikvw  -0.06340
gfz2014iltl   0.90277
gfz2014ined  -0.74495
gfz2014ipfu  -0.53610
gfz2014irlf  -1.88630
gfz2014irln  -0.93455
gfz2014irly  -0.35383
gfz2014isjg  -1.42910
gfz2014isov  -2.11440
gfz2014itlx   0.27314
gfz2014iusw  -1.14650
gfz2014ixlc  -1.13330
gfz2014jarg  -1.25860
gfz2014jayh  -0.26314
gfz2014jbfp  -0.24138
