# Nsamples: 297  MAD:  0.785  mean: -0.352  std:  1.454
gfz2010afyi  -1.74200
gfz2010aggj  -0.46803
gfz2010aimm  -2.10400
gfz2010amec  -2.67740
gfz2010aseg  -0.17980
gfz2010asxa  -1.38450
gfz2010bkfi  -0.58893
gfz2010bklj   0.89580
gfz2010bnbr  -1.36620
gfz2010bqnk  -0.20554
gfz2010btme  -0.94082
gfz2010bukb  -1.85660
gfz2010clbw  -0.38732
gfz2010cllh  -1.73030
gfz2010fgbo  -0.43242
gfz2010gooc   0.36848
gfz2010habf   2.36990
gfz2010hueh  -0.94132
gfz2010huzl  -0.70748
gfz2010izgb   0.64607
gfz2010jgwj  -0.77473
gfz2010jlvp   0.19006
gfz2010mqzz  -0.19086
gfz2010pclq   1.06720
gfz2010pcya  -0.13449
gfz2010prnw  -1.51050
gfz2010pzza  -0.81456
gfz2010rnwt  -6.17230
gfz2010rpjd  -1.42350
gfz2010tmba  -0.80813
gfz2011iryz  -0.39003
gfz2011ituo   0.57908
gfz2011ksxc  -1.33250
gfz2011kujo  -1.75170
gfz2011wngi  -0.98479
gfz2011wzss  -0.10953
gfz2011xnui  -0.85478
gfz2011zghc  -1.62470
gfz2011ziyk  -0.82868
gfz2011znyq   0.20459
gfz2012amvs  -0.23427
gfz2012avvc  -2.13230
gfz2012bolx  -0.63168
gfz2012bqcf   0.73464
gfz2012cdju  -0.35899
gfz2012cksh  -2.36780
gfz2012cntu   0.94370
gfz2012cvfr  -0.20503
gfz2012dejg   0.27041
gfz2012drqd  -0.32135
gfz2012dtlu  -0.79872
gfz2012dttl  -1.18840
gfz2012duwm   0.91083
gfz2012dyck  -1.03690
gfz2012dysu  -0.81216
gfz2012dzot  -0.14897
gfz2012ekfp   0.11716
gfz2012ekro   1.91340
gfz2012fhaf  -0.72594
gfz2012foih  -4.25120
gfz2012gdye  -0.55808
gfz2012ghiv   0.06456
gfz2012gjdg  -0.67868
gfz2012gnow  -0.20371
gfz2012heih  -0.72546
gfz2012hzur   1.18920
gfz2012iblo  -0.54339
gfz2012ibyd  -0.84719
gfz2012ipdc  -0.14631
gfz2012iphs   0.32052
gfz2012iroy  -0.80644
gfz2012ivyg   1.15500
gfz2012jihg   2.15560
gfz2012jnlt  -0.53626
gfz2012jodg   2.00590
gfz2012jopi  -0.84035
gfz2012juem  -2.04440
gfz2012jxnm  -0.74915
gfz2012kadi  -0.59957
gfz2012kmbo  -2.03640
gfz2012kmmz  -0.22026
gfz2012ldjj   1.44680
gfz2012lyyr  -0.63442
gfz2012mjuu  -0.60142
gfz2012mpzo   0.63328
gfz2012mrqk  -0.07305
gfz2012ndsk  -1.18820
gfz2012nfzc   0.93579
gfz2012nnqu   0.26292
gfz2012nqvd  -0.13708
gfz2012nsxc  -0.27632
gfz2012oafg  -0.47395
gfz2012pdav  -0.30425
gfz2012phns  -0.15225
gfz2012pmuj  -2.52120
gfz2012prke  -1.47280
gfz2012pvve  -0.54845
gfz2012pziw   5.08460
gfz2012qhqp  -0.55220
gfz2012qmhz   1.18020
gfz2012rzwp   4.34690
gfz2012sbix   1.44050
gfz2012socz  -0.26860
gfz2012sqsc   2.36130
gfz2012ssnb   1.48260
gfz2012suqd  -2.75680
gfz2012svwz   0.83500
gfz2012swbz   1.21870
gfz2012sxbo  -0.04146
gfz2012syum  -1.06060
gfz2012tgta   0.84266
gfz2012tisj  -2.64920
gfz2012tqjc   0.71565
gfz2012twec  -0.38829
gfz2012udxg   1.13690
gfz2012ukzg  -5.34170
gfz2012ulei   2.57480
gfz2012umob   0.13690
gfz2012uvoa   0.69841
gfz2012uzww  -0.52055
gfz2012vcqw  -0.16854
gfz2012vgot  -0.36293
gfz2012vitw  -0.49386
gfz2012vlzv  -0.88432
gfz2012vnve   0.62063
gfz2012vsav  -1.61210
gfz2012wbeu  -0.22561
gfz2012wgmg  -0.27854
gfz2012wmas  -1.37910
gfz2012wmmw   0.14541
gfz2012wugc  -1.59970
gfz2012wysg  -0.47589
gfz2012xfsk  -0.16343
gfz2012xfsl  -0.18922
gfz2012xjgb  -3.20260
gfz2012xkln  -0.32287
gfz2012xlfo  -0.24641
gfz2012xwkx  -3.10420
gfz2012yegw  -0.46326
gfz2012yihn  -2.33740
gfz2012yncm  -7.19750
gfz2012yytb   1.89820
gfz2012zktj  -2.73330
gfz2013agbm  -0.13944
gfz2013atak   0.06176
gfz2013bdvi   0.61324
gfz2013bwgw   1.05080
gfz2013byyy  -0.96801
gfz2013cokc   0.34741
gfz2013cyvx  -1.13470
gfz2013delq  -0.23897
gfz2013dftb  -0.33333
gfz2013djfi  -2.18920
gfz2013dngd  -1.64610
gfz2013dvub  -1.25750
gfz2013dzvr  -0.21041
gfz2013eavq   1.31100
gfz2013evcl  -0.83879
gfz2013fnpa  -0.10497
gfz2013frxd   5.25400
gfz2013gbma   1.75450
gfz2013gkyn  -0.45628
gfz2013hvkg   1.26130
gfz2013hvzv  -0.00929
gfz2013icql   0.74269
gfz2013iuyv   0.73853
gfz2013iwzn  -0.64111
gfz2013jfcn  -0.38966
gfz2013jlli  -0.16799
gfz2013jobl  -0.46249
gfz2013jzcf  -0.28246
gfz2013kats  -0.56498
gfz2013kcdb   0.22606
gfz2013kpcb   3.26150
gfz2013kqab  -1.92130
gfz2013kslp  -0.18293
gfz2013lbvl  -0.52220
gfz2013lcrk  -0.44060
gfz2013msmy   0.45320
gfz2013mvgq   0.89378
gfz2013mynb  -1.14380
gfz2013mzaw  -0.25065
gfz2013njjh  -0.30876
gfz2013ohnj  -1.42700
gfz2013ojza  -0.74753
gfz2013olos  -0.96839
gfz2013opkx   0.59424
gfz2013orot  -0.10582
gfz2013ortl   0.28944
gfz2013oruq  -0.77033
gfz2013otuj  -0.29985
gfz2013oywh  -2.91360
gfz2013phhi   0.64556
gfz2013phly   0.91099
gfz2013pifg   0.51057
gfz2013pizm  -0.56702
gfz2013pkmz   0.14803
gfz2013puiy  -0.03529
gfz2013pvsa   1.16460
gfz2013pwsm   1.88820
gfz2013qdzg  -3.29850
gfz2013qear   0.28921
gfz2013qnqr  -0.35045
gfz2013quwz  -0.51254
gfz2013quyn  -0.09115
gfz2013qxof   0.21412
gfz2013rhbx   0.44208
gfz2013rhxf  -0.24006
gfz2013rnsa  -0.05314
gfz2013rocs  -0.29702
gfz2013rofg  -0.78304
gfz2013stou  -0.41207
gfz2013suck  -0.66623
gfz2013syqp  -0.48018
gfz2013taeb  -4.05650
gfz2013tcju  -1.26900
gfz2013tgia   0.24681
gfz2013tmnf  -0.61835
gfz2013tmyj   0.64685
gfz2013trsq  -0.32053
gfz2013ubgt  -0.32536
gfz2013udtw  -0.31880
gfz2013ujze  -1.32730
gfz2013unuv  -0.62368
gfz2013upqj   1.26560
gfz2013uwjo   0.53944
gfz2013uxzw  -0.06878
gfz2013uzmf  -0.43727
gfz2013veoz   0.41296
gfz2013veug  -0.98779
gfz2013vjrr   0.20037
gfz2013vmrv   0.65600
gfz2013voai  -0.48519
gfz2013vvre  -1.52120
gfz2013vwkh  -0.58338
gfz2013vzel   2.85760
gfz2013wwee   0.12273
gfz2013wyfl  -0.43792
gfz2013xlic   0.25973
gfz2013xmzw  -1.06430
gfz2013xofz   2.11490
gfz2013xswc  -0.56534
gfz2013xuxr   1.25950
gfz2013xvps  -0.48664
gfz2013yqtu  -2.06950
gfz2013yvnj  -0.57106
gfz2013zlak  -0.21751
gfz2014aedl  -0.59976
gfz2014ateb  -0.89802
gfz2014bdju  -0.27762
gfz2014befl  -0.11828
gfz2014bfjb  -0.95125
gfz2014bkra   0.04691
gfz2014bmqw  -7.20530
gfz2014bumr   0.49829
gfz2014cgoi  -0.22431
gfz2014cgxj   0.18492
gfz2014cjao  -0.77326
gfz2014cncl  -1.31810
gfz2014crac   0.26227
gfz2014ctdl  -0.67342
gfz2014cvnb  -0.60548
gfz2014dbmu   1.12020
gfz2014djhi   1.40460
gfz2014djyj  -1.18040
gfz2014dmrw  -0.43401
gfz2014dtth  -0.24581
gfz2014eoay  -0.84145
gfz2014epfm  -4.03180
gfz2014epue   0.02014
gfz2014fsir  -0.22333
gfz2014fxim  -0.37166
gfz2014fxte  -0.43001
gfz2014fxuy  -0.51697
gfz2014ggie  -1.00330
gfz2014hqhv  -0.77577
gfz2014huqh   3.57440
gfz2014hyea  -0.75143
gfz2014hzzf  -1.68470
gfz2014iayo  -1.75270
gfz2014icov  -1.42190
gfz2014igrp  -0.55949
gfz2014ijsa   0.44521
gfz2014iltl   0.22489
gfz2014imqh   3.11570
gfz2014inrg  -1.28670
gfz2014ipfu  -0.29041
gfz2014irlf  -0.14334
gfz2014irln  -0.06463
gfz2014irly   0.08580
gfz2014isov  -0.78126
gfz2014itlx   0.85224
gfz2014iusw  -0.65718
gfz2014iyuc   1.00200
gfz2014jarg  -0.46777
gfz2014jayh  -3.82320
gfz2014jbfp  -0.03724
