# Nsamples: 595  MAD:  0.528  mean: -0.051  std:  0.839
gfz2010afyi   0.72568
gfz2010aggj  -0.03737
gfz2010aseg  -0.13318
gfz2010azji   0.21098
gfz2010bkfi  -0.06402
gfz2010bklj   0.07721
gfz2010bqnk   0.26574
gfz2010btme   0.30795
gfz2010bukb   0.16521
gfz2010bvit   0.63375
gfz2010byau  -0.37668
gfz2010ccwc   0.47045
gfz2010ccye   0.14288
gfz2010cdnv  -0.61858
gfz2010clbw   0.05031
gfz2010cllh  -0.02075
gfz2010colm   1.17560
gfz2010cphq  -0.25202
gfz2010crgy  -0.64634
gfz2010csle   0.45664
gfz2010ctak   2.42490
gfz2010cthm  -0.57819
gfz2010cyid   1.33460
gfz2010dask   0.33479
gfz2010depd   0.41687
gfz2010dmij  -0.45616
gfz2010dmkd  -0.03645
gfz2010drit  -0.42436
gfz2010drml  -0.82404
gfz2010drmq  -0.82404
gfz2010drng  -0.23359
gfz2010drpv  -0.27460
gfz2010drun  -0.06302
gfz2010dtgc  -0.42050
gfz2010dtyx  -0.24438
gfz2010dumv   0.24352
gfz2010dxhq   0.41935
gfz2010eibh  -0.24613
gfz2010ewyj  -0.33280
gfz2010faly   0.34629
gfz2010fgbo  -0.14186
gfz2010fjio   0.31529
gfz2010fkpa   0.53339
gfz2010fopf   0.13168
gfz2010fvfz  -0.20741
gfz2010gxki  -0.15386
gfz2010hnuo   1.33900
gfz2010hsgv   0.17513
gfz2010hueh  -1.33250
gfz2010huzl   0.00000
gfz2010hxan  -0.63378
gfz2010iaay  -1.32710
gfz2010ihef   0.16818
gfz2010inbs   0.19918
gfz2010jgwj   0.17046
gfz2010jkrp   0.79983
gfz2010jpkn  -0.35465
gfz2010kcdq   0.00000
gfz2010kcyz  -0.41698
gfz2010kzzm   0.74757
gfz2010lvnj  -0.11503
gfz2010mpvc  -0.18368
gfz2010mqaj   0.43794
gfz2010mqzz  -0.44821
gfz2010msss   0.40057
gfz2010mwmd  -1.53770
gfz2010mzfb   1.54580
gfz2010nccu  -0.14279
gfz2010ngge  -0.45654
gfz2010nlai   0.35510
gfz2010nteg  -1.25290
gfz2010nwbd  -0.03175
gfz2010ojhe   0.44211
gfz2010okpc  -1.64910
gfz2010pdip  -0.07580
gfz2010pgpo  -0.57577
gfz2010pngv   0.76188
gfz2010pxoi   0.48969
gfz2010pzza   0.35070
gfz2010qdqk  -0.52732
gfz2010qqqx   0.34313
gfz2010qrix  -0.14986
gfz2010qrta   0.15085
gfz2010qykh   0.98815
gfz2010qylh   0.64437
gfz2010rhvu  -1.56740
gfz2010rnwt   0.50181
gfz2010sdfs  -0.74454
gfz2010tcgh  -0.30413
gfz2010tpcj  -0.58164
gfz2010tzlz  -0.10207
gfz2010tzma  -0.43602
gfz2010ugws  -0.46657
gfz2010uhjy  -0.37986
gfz2010umxj  -0.46103
gfz2010uraq   0.26893
gfz2010ussf  -0.81129
gfz2010uyng   0.29153
gfz2010viyi  -0.20879
gfz2010vjac  -0.10729
gfz2010vyri   0.29346
gfz2010wakc  -0.32207
gfz2010wigk  -0.40975
gfz2010wwnq   0.01455
gfz2010xaxw   0.09246
gfz2010xkbz  -0.14361
gfz2010xnbn  -0.69040
gfz2010xpzq  -0.55265
gfz2010xzte  -0.37539
gfz2010yczp  -0.13866
gfz2010yfdr  -0.27636
gfz2010yhdn   0.37495
gfz2010yhhj  -0.32427
gfz2010yrex  -0.13372
gfz2010yspe   1.76800
gfz2010zhvj  -0.59556
gfz2010zjun  -0.49038
gfz2010zkle  -0.96970
gfz2011afyc   0.32627
gfz2011ahvh   3.94790
gfz2011aksu  -1.46300
gfz2011amst  -2.45740
gfz2011aqpp  -0.32676
gfz2011bazz  -0.81899
gfz2011bffb   0.04553
gfz2011bqbx  -1.92930
gfz2011bsvr  -0.10273
gfz2011bwsm  -0.16149
gfz2011byec   0.13924
gfz2011bygs  -0.24149
gfz2011bygu   0.59949
gfz2011bzio  -0.10155
gfz2011cdge  -0.86347
gfz2011cjuz   0.36842
gfz2011cwzi  -0.35501
gfz2011dhqk  -0.33814
gfz2011dtcb  -0.04387
gfz2011duvm  -0.73326
gfz2011dwae  -0.51322
gfz2011dzmf  -0.26125
gfz2011ecce   6.82280
gfz2011exxq   1.60600
gfz2011fnie  -0.59655
gfz2011fnuk  -0.23842
gfz2011fszl  -0.00000
gfz2011fyfu  -0.29506
gfz2011fzcw  -0.46463
gfz2011gaax   0.00451
gfz2011gcct  -0.20494
gfz2011ggnl  -0.41327
gfz2011gpyr  -0.34539
gfz2011gzde  -0.23731
gfz2011hffq   0.54313
gfz2011hibi  -1.01610
gfz2011hjof   0.66202
gfz2011hqjs  -0.11489
gfz2011huon  -0.17385
gfz2011hvzo  -0.00000
gfz2011hyuh   2.91730
gfz2011iamf  -0.46362
gfz2011ibew   1.26350
gfz2011inan   0.54030
gfz2011ioch  -0.41718
gfz2011iryz   0.07287
gfz2011jdoz  -0.38536
gfz2011jphj   0.48035
gfz2011jpob  -0.04338
gfz2011kfch  -0.22072
gfz2011kjzt  -0.01952
gfz2011kmge  -0.26964
gfz2011kylu  -0.29346
gfz2011kymm   0.21338
gfz2011lkkf  -0.41057
gfz2011lmug  -0.44719
gfz2011lxga   0.94751
gfz2011lywj  -0.39176
gfz2011mdyq  -0.52054
gfz2011melb   0.93678
gfz2011mimz   1.06680
gfz2011mjje  -0.13674
gfz2011mllb  -0.57799
gfz2011mntq   0.44526
gfz2011moob   0.12099
gfz2011mrfm   0.23080
gfz2011mror   0.77790
gfz2011mzvn  -0.65083
gfz2011ndlh  -0.20510
gfz2011ndoe   1.67240
gfz2011ndse  -0.51253
gfz2011ndvj  -0.87595
gfz2011ndyk   0.14080
gfz2011neai   0.14196
gfz2011nejg  -0.02096
gfz2011nejw  -0.80454
gfz2011nfcz  -0.17850
gfz2011nfih   0.10764
gfz2011nftw   0.60071
gfz2011nfww  -0.06634
gfz2011nhby   0.17149
gfz2011nhhd  -0.34845
gfz2011nhjv  -0.94880
gfz2011nhvt   0.12951
gfz2011nhwf  -0.78536
gfz2011nihq   0.45899
gfz2011nijp  -0.29460
gfz2011nilw  -0.52633
gfz2011nkou   0.20924
gfz2011nlnl   1.42680
gfz2011nlum  -0.47431
gfz2011nmhg   1.35910
gfz2011nnos   0.13410
gfz2011nsiy   0.19369
gfz2011nuqo  -0.78987
gfz2011nvty  -0.46806
gfz2011nyzk  -0.23250
gfz2011oadm   0.06513
gfz2011ofpj  -0.45339
gfz2011okza   0.10408
gfz2011omxt   0.97385
gfz2011oqjl   1.11460
gfz2011osmp   1.45200
gfz2011owqa  -0.07931
gfz2011paqj  -0.38004
gfz2011pbgh  -0.61817
gfz2011pdsn  -0.84025
gfz2011pfls  -0.08004
gfz2011pfwq   0.17785
gfz2011plzc   0.15555
gfz2011pphc  -1.06550
gfz2011prrq   0.33604
gfz2011ptgd  -0.52916
gfz2011qenl  -0.74866
gfz2011qgea   2.73410
gfz2011qhjw  -0.05039
gfz2011qowe   1.52990
gfz2011qukj   3.56000
gfz2011rkau  -1.24610
gfz2011rnny   0.34005
gfz2011rnsp  -0.18414
gfz2011rplo   0.68436
gfz2011rqut  -0.78351
gfz2011scma  -0.68128
gfz2011sfph   0.06337
gfz2011sskq  -0.01323
gfz2011swfp   0.44960
gfz2011sxno  -0.54568
gfz2011tsgl  -0.35462
gfz2011twpz  -0.54132
gfz2011txxs  -0.11173
gfz2011udxo  -0.30934
gfz2011unud   0.02383
gfz2011urwz  -0.92976
gfz2011vbxv   0.11908
gfz2011vcyx  -0.85661
gfz2011vsag   0.34712
gfz2011wgoa   0.00000
gfz2011wkyx  -0.78808
gfz2011wtfn  -0.04653
gfz2011wwze   0.09388
gfz2011wyei  -0.62402
gfz2011wzss  -0.61096
gfz2011xkka   0.54946
gfz2011xlod   0.21877
gfz2011xwdv   2.23220
gfz2011xwum  -0.01891
gfz2011yexx   0.17584
gfz2011ykbd   0.26568
gfz2011ytwk  -0.14871
gfz2011ywtj  -0.67049
gfz2011zghc  -0.27078
gfz2011zgxn  -0.39014
gfz2012ahkl  -2.17510
gfz2012amjx  -0.31890
gfz2012amvs  -0.66323
gfz2012arlo  -0.33427
gfz2012auqr   1.12200
gfz2012beae   0.15506
gfz2012bnwa   0.89845
gfz2012bolx   0.31915
gfz2012byrq  -0.64691
gfz2012bysu   0.52491
gfz2012bytv  -0.18992
gfz2012cfdw  -0.03720
gfz2012cksh   0.21986
gfz2012cmww   0.28116
gfz2012cntu  -0.17701
gfz2012dbgt  -0.70665
gfz2012dejg  -0.18302
gfz2012dleg  -0.09461
gfz2012dnig   0.04583
gfz2012dpem  -0.71676
gfz2012dpnu  -0.22192
gfz2012drak  -0.02970
gfz2012dtdt  -0.49259
gfz2012dugf  -1.03080
gfz2012duwm   0.31276
gfz2012dysj  -1.23570
gfz2012dysu  -0.12541
gfz2012dzen   1.50140
gfz2012dzjo   0.62055
gfz2012dzot  -0.25937
gfz2012ebff   0.15650
gfz2012ebhf  -0.34523
gfz2012eeft   0.51618
gfz2012erds  -0.45668
gfz2012evav   0.13771
gfz2012eyti  -0.09836
gfz2012fcyq   0.54350
gfz2012fcyr   0.53229
gfz2012fhaf  -0.20623
gfz2012foih  -0.77833
gfz2012fuyd  -1.32250
gfz2012fyny  -0.19186
gfz2012gczh   0.19057
gfz2012gdye   0.24388
gfz2012ghiv   0.00000
gfz2012gjtd  -0.33095
gfz2012gmsr  -1.16240
gfz2012grmf  -0.00000
gfz2012gvxc   0.64721
gfz2012heih  -0.17760
gfz2012hvjc  -0.08522
gfz2012hwph   0.19339
gfz2012hyqh   0.57354
gfz2012hzhn   0.25797
gfz2012hzur  -0.86048
gfz2012iblo   0.89992
gfz2012icjo   0.37166
gfz2012imuo  -1.14280
gfz2012iotw   0.76475
gfz2012iphs  -0.02001
gfz2012iyoi   0.72749
gfz2012izke   0.08413
gfz2012jaun   0.35999
gfz2012jlez  -0.55680
gfz2012jodg   0.52034
gfz2012jopi  -0.24052
gfz2012jxxe   1.72160
gfz2012kmbo  -1.00680
gfz2012kmmz  -0.42864
gfz2012kstg   0.40665
gfz2012lcro  -0.15597
gfz2012ldjj  -0.20480
gfz2012lqhw   0.01719
gfz2012lvxx  -1.51270
gfz2012lwha  -0.55676
gfz2012lyyr  -0.43769
gfz2012mdzf  -0.20004
gfz2012mjuu  -0.12491
gfz2012mmiw  -0.38014
gfz2012moul  -0.04387
gfz2012mout  -0.61673
gfz2012movu  -0.58372
gfz2012movv  -0.47028
gfz2012mrqk  -0.00693
gfz2012mwhe  -0.39790
gfz2012mxvk  -0.47520
gfz2012mzco  -0.52266
gfz2012mzqx  -0.34770
gfz2012ndsk   0.37899
gfz2012ndwt  -0.03488
gfz2012nldz   0.28952
gfz2012nnqu   0.18097
gfz2012nqvd  -0.42037
gfz2012nsxc  -0.42164
gfz2012oehy  -0.30811
gfz2012ofnx   0.82002
gfz2012oieq   0.05039
gfz2012onfs  -0.17235
gfz2012onhu   0.08389
gfz2012oork   0.11243
gfz2012oozp   1.23340
gfz2012phns  -0.83142
gfz2012pmuj   0.39412
gfz2012pmws   0.24120
gfz2012ppsw  -1.37820
gfz2012pziw  -0.13889
gfz2012qbbt  -0.47006
gfz2012qfah   0.36108
gfz2012qfov  -0.77280
gfz2012qmhz  -0.77962
gfz2012qpoc  -0.15892
gfz2012qvwy  -0.20122
gfz2012rjlp  -1.03790
gfz2012rnbw   0.58117
gfz2012roan  -0.34517
gfz2012rugl   0.15980
gfz2012rzwp  -0.22344
gfz2012smyn  -0.18053
gfz2012socz   0.11923
gfz2012sqsc  -0.15203
gfz2012ssnb  -0.77919
gfz2012suqd  -0.08368
gfz2012svwz   0.27574
gfz2012tisj  -0.24856
gfz2012tjih   1.13760
gfz2012tsdz   0.07667
gfz2012uhtc  -0.07547
gfz2012ukzg  -0.05562
gfz2012ulei  -0.30487
gfz2012unxc   0.22762
gfz2012utdu  -0.02121
gfz2012uzww   0.18163
gfz2012vaqd   0.19594
gfz2012vkjw  -0.22842
gfz2012vqmq  -0.82727
gfz2012wbeu   0.62269
gfz2012wiyv  -1.30120
gfz2012wowu  -1.52530
gfz2012wqfz  -0.92192
gfz2012wysg  -0.00309
gfz2012xlas   0.83637
gfz2012xlfo  -0.73034
gfz2012xmwt   0.69785
gfz2012xncm   0.12821
gfz2012xqxw  -0.38575
gfz2012xwgb   0.90445
gfz2012xwkx   0.69036
gfz2012xxdj  -0.67696
gfz2012yegw  -0.54120
gfz2012yncm  -1.83760
gfz2012yytb   0.65267
gfz2012yzih   0.61176
gfz2012zmdf   0.50314
gfz2012zmfc  -0.53732
gfz2012znou   0.43497
gfz2013adih  -1.03050
gfz2013agmt  -1.59170
gfz2013ascz   0.58810
gfz2013atak  -0.27103
gfz2013bqfc  -0.23033
gfz2013bwgw  -0.98275
gfz2013byyy   0.13892
gfz2013cokc  -0.00000
gfz2013ddrx  -0.30585
gfz2013dfvx   0.05292
gfz2013dksc   0.12958
gfz2013dngd  -0.86129
gfz2013dwsp   1.28940
gfz2013dznt   2.23800
gfz2013dzvr  -0.83919
gfz2013efct  -0.43951
gfz2013efys  -0.13163
gfz2013esef   3.18760
gfz2013ezmc   0.28658
gfz2013fndg  -0.28746
gfz2013fnpa  -0.27695
gfz2013frxd   0.93952
gfz2013fthi  -0.65953
gfz2013fvyr   1.38940
gfz2013fwbm   1.26720
gfz2013gbki   0.33789
gfz2013gffe   0.12314
gfz2013gqtl   0.14997
gfz2013gsnl  -0.21382
gfz2013gyce   0.05027
gfz2013havw   0.13758
gfz2013hbwy  -1.21710
gfz2013hdbp  -0.33732
gfz2013hduf  -0.35200
gfz2013hjtt  -0.77678
gfz2013hvzv  -0.24059
gfz2013hwps  -0.77230
gfz2013idqu  -2.09680
gfz2013ifag   2.72050
gfz2013irme  -0.31308
gfz2013iuyv   0.06921
gfz2013iwzn  -0.32813
gfz2013jcnn   0.18891
gfz2013jhog  -0.45728
gfz2013jlli   0.73205
gfz2013jobl  -0.09804
gfz2013jpir  -0.06157
gfz2013jqsk   0.15108
gfz2013kbbg   0.15798
gfz2013kbbn   0.64127
gfz2013kcdb  -0.03572
gfz2013kjgh  -0.05822
gfz2013kpcb  -0.00103
gfz2013kqab  -0.34587
gfz2013kxof   0.68547
gfz2013lbod   0.74024
gfz2013ljdu   0.11658
gfz2013lnne   1.50010
gfz2013mbna  -0.68526
gfz2013mdnp   0.10176
gfz2013mimp   0.29657
gfz2013muqm  -6.63710
gfz2013mvgq  -0.99825
gfz2013mzaw  -0.31502
gfz2013nhkw   0.63866
gfz2013njwj   0.49610
gfz2013ntfc   0.21802
gfz2013ohnj  -0.07455
gfz2013olos   1.18070
gfz2013ortl  -0.04462
gfz2013oruq   0.12504
gfz2013otuj  -0.06640
gfz2013oywh  -0.83288
gfz2013pkmz  -0.41262
gfz2013pqkp   0.04453
gfz2013pvsa  -0.81495
gfz2013qmkt   0.09905
gfz2013qnqr   0.21986
gfz2013qxof  -0.47288
gfz2013rdmn   0.03900
gfz2013rwog  -2.67140
gfz2013ryph   0.35950
gfz2013sdkg   0.54034
gfz2013stup   0.06236
gfz2013syqv   0.33498
gfz2013taeb  -1.47950
gfz2013tert  -1.25490
gfz2013tgyb   0.19834
gfz2013ttmk   0.16181
gfz2013ubgt   1.77060
gfz2013udtw   0.40227
gfz2013upqj   0.03139
gfz2013uwjo  -0.82758
gfz2013uxzw  -0.44337
gfz2013uzmf   0.22702
gfz2013vdam  -0.52523
gfz2013veug   1.26410
gfz2013vjrr  -0.42960
gfz2013vmsg  -1.46590
gfz2013vnwa  -0.94853
gfz2013voai  -0.11679
gfz2013vojy  -1.07510
gfz2013vsdd  -0.70537
gfz2013vwkh  -0.59288
gfz2013vzel  -0.22932
gfz2013xahp  -0.01877
gfz2013xjmo  -0.57300
gfz2013xlic   3.10520
gfz2013xmzw  -0.33794
gfz2013xuxr  -0.65174
gfz2013yawe  -0.47143
gfz2013yihv  -0.09248
gfz2013yktj  -0.10169
gfz2013ytfm  -0.20117
gfz2013yywh  -0.33544
gfz2013zedt   0.03836
gfz2013zfbz  -0.07572
gfz2013zkta   0.31100
gfz2013zlak  -0.80843
gfz2013zpse   0.27167
gfz2014aedl  -0.54726
gfz2014afbt  -0.42002
gfz2014ajgi  -0.74203
gfz2014aqop  -0.22735
gfz2014avmd   0.10327
gfz2014ayxf  -0.96228
gfz2014bdju  -0.49926
gfz2014bkra  -0.12833
gfz2014bumr   0.92884
gfz2014cgxj   0.11355
gfz2014cjao   0.21710
gfz2014cncl  -0.70015
gfz2014cokw   0.02550
gfz2014cwti  -0.54220
gfz2014dbmu  -0.13331
gfz2014dggw  -0.37757
gfz2014diuu  -0.48668
gfz2014dpps   1.37550
gfz2014eirs   0.05050
gfz2014epnq   0.13131
gfz2014epue   0.37290
gfz2014etqu  -0.93196
gfz2014exxj  -0.39945
gfz2014eysf   0.52090
gfz2014ezjq   1.00420
gfz2014faex  -0.53506
gfz2014fbli   0.12164
gfz2014fdhk  -0.18792
gfz2014ffqg   0.15465
gfz2014flxk  -0.19690
gfz2014fsje  -0.45427
gfz2014fxuy   0.47421
gfz2014gnbw  -0.01257
gfz2014gnvp  -0.08385
gfz2014gsfc  -0.60556
gfz2014gssz  -0.22446
gfz2014hgjb   1.61150
gfz2014hhis  -0.51563
gfz2014huah  -0.55417
gfz2014huqh  -0.10657
gfz2014hyea  -2.30020
gfz2014iaqm  -1.13170
gfz2014ijsa  -0.02605
gfz2014imqh  -0.40211
gfz2014inrg   0.62856
gfz2014isov   0.64362
gfz2014iusw  -0.06256
gfz2014jayh  -0.11382
gfz2014jbgm   0.87584
