# Nsamples: 20  MAD:  1.215  mean:  1.115  std:  1.560
gfz2010hueh   0.89296
gfz2010iaay   0.30566
gfz2010okpc   2.19150
gfz2010rhvu   3.60740
gfz2010tcgh   4.14960
gfz2010tzma  -0.09855
gfz2011cdge   1.49430
gfz2011cjuz   2.30720
gfz2011hibi   2.90590
gfz2011nblt  -2.07220
gfz2012facv  -1.88690
gfz2012ukzg   1.94440
gfz2012ulei  -0.37482
gfz2012wowu   0.98910
gfz2013dngd   0.61932
gfz2013mvgq   0.68287
gfz2013oywh   1.28170
gfz2013tert   0.81541
gfz2013yawe   1.30710
gfz2013zlak   1.24080
