# Nsamples: 58  MAD:  0.441  mean: -0.122  std:  0.724
gfz2010aggj   0.17988
gfz2010clbw  -0.26840
gfz2010cphq  -1.17650
gfz2010crgy  -0.18423
gfz2010crir   0.01308
gfz2010djib   0.08860
gfz2010drit   0.67508
gfz2010gcqp   0.00000
gfz2010habf  -0.04759
gfz2010hueh   0.24038
gfz2010jlvp  -0.08741
gfz2010mqzz   0.15735
gfz2010oguu  -0.18084
gfz2013jobl  -0.27148
gfz2013jtsg  -0.55059
gfz2013kats  -0.23667
gfz2013kcdb  -0.47006
gfz2013kslp   0.12851
gfz2013lbvl   0.02143
gfz2013mimp  -0.49101
gfz2013mvgq   0.78494
gfz2013mzaw  -0.00057
gfz2013opkx   0.35666
gfz2013oywh  -0.83268
gfz2013phhi   0.81791
gfz2013pifg  -0.20304
gfz2013pvsa   0.78480
gfz2013quwz   0.01901
gfz2013stou   0.24028
gfz2013udtw   0.06352
gfz2013unuv   0.10261
gfz2013veug  -0.35900
gfz2013vmrv  -1.43190
gfz2013vnwa  -1.98070
gfz2013wyfl  -0.51111
gfz2013xahp  -0.29968
gfz2013xofz   0.99978
gfz2013xswc  -0.00555
gfz2013yawe  -0.45020
gfz2013zlak  -2.53660
gfz2014bkra   0.88115
gfz2014cgoi  -0.08111
gfz2014ctdl  -0.38653
gfz2014dmrw   0.48635
gfz2014epnq   0.59320
gfz2014ezvd  -2.03570
gfz2014fsir   0.22776
gfz2014fwxt   0.60772
gfz2014fxte   0.08859
gfz2014fxuy   0.35798
gfz2014icov  -1.15670
gfz2014ikvw  -0.30087
gfz2014iltl   0.74213
gfz2014inrg   0.25856
gfz2014irlf   1.05770
gfz2014irln  -0.06384
gfz2014irly  -1.16500
gfz2014iusw  -0.29333
