# Nsamples: 91  MAD:  0.634  mean: -0.093  std:  0.756
gfz2010aggj  -0.54021
gfz2010brlc  -0.65134
gfz2010eibh  -2.10250
gfz2010habf  -0.96826
gfz2010hueh  -0.45898
gfz2010jlvp  -0.27712
gfz2010mqzz  -0.36493
gfz2010okpc   1.49980
gfz2010pzza  -0.36180
gfz2010rhvu   0.02878
gfz2010rljv   0.33460
gfz2010tzlz   0.48001
gfz2010uhjy   0.29420
gfz2010vong  -0.09337
gfz2010zjun  -0.42588
gfz2011bpqm  -0.43205
gfz2011gnbk   0.00209
gfz2011hjof   0.20369
gfz2011iryz   0.13040
gfz2011ndhh  -0.39262
gfz2011nfcz   0.22460
gfz2011nijp  -0.28318
gfz2011nilw   0.93394
gfz2011niuw   1.01340
gfz2011nlum   0.33635
gfz2011nnda  -0.62538
gfz2011nuqo   0.49586
gfz2011ofpj   0.57749
gfz2011oslk  -0.29252
gfz2011pfls  -0.08399
gfz2011pgzk   0.96643
gfz2011pmuv  -0.05246
gfz2011rkau  -1.32020
gfz2011rnny  -0.98099
gfz2011sdax   0.14568
gfz2011tsgl   1.57680
gfz2011xgbc  -0.81059
gfz2011zghc  -1.35620
gfz2012bqcf  -0.38307
gfz2012cntu  -0.05711
gfz2012cvfr   0.24187
gfz2012iijk   1.03590
gfz2012kmbo  -0.13045
gfz2012kstg   0.12344
gfz2012ldjj   0.72952
gfz2012lwha   1.78470
gfz2012mvgu  -0.56177
gfz2012oafg   0.00679
gfz2012phns   0.31889
gfz2012qmhz   1.46430
gfz2012roan   1.13700
gfz2012sqsc  -0.07334
gfz2012suqd   0.30503
gfz2012uzww   0.02830
gfz2012xlfo  -0.00000
gfz2012ylai  -0.75812
gfz2013agmt  -1.01820
gfz2013dzvr   1.48890
gfz2013gxye  -0.73840
gfz2013hbmi  -1.22930
gfz2013ikic  -0.81447
gfz2013jlli  -0.29659
gfz2013jobl  -0.59076
gfz2013kats  -0.25588
gfz2013kbbg  -0.70488
gfz2013kcdb  -0.25409
gfz2013ntiu   0.41869
gfz2013oizq   1.09200
gfz2013oywh   1.55990
gfz2013phhi  -0.26398
gfz2013pkmz  -0.19280
gfz2013qdno  -0.95777
gfz2013quwz   0.42121
gfz2013quyn  -0.35013
gfz2013rocs  -0.60760
gfz2013udtw  -0.22116
gfz2013vmrv   0.08529
gfz2013vojy   0.04726
gfz2013wyfl  -0.38710
gfz2013xahp  -0.02554
gfz2013yodm  -1.24180
gfz2014bdju  -0.03059
gfz2014bqpm  -0.67763
gfz2014fjfz  -0.99019
gfz2014fsir  -1.89130
gfz2014fxte   0.39208
gfz2014icov   0.01832
gfz2014iltl  -1.05440
gfz2014irlf  -0.56001
gfz2014iusw  -0.23063
gfz2014jarg   0.04727
