# Nsamples: 33  MAD:  0.764  mean:  1.243  std:  0.858
gfz2010dask   1.49060
gfz2010djib   1.01480
gfz2010habf   1.22510
gfz2010hueh   1.30820
gfz2010mpvc   0.83709
gfz2010pzza   0.86034
gfz2011bpqm   0.41805
gfz2011dabj   0.35483
gfz2011gnbk   1.55560
gfz2011hjof   1.61350
gfz2011ldgl   2.47400
gfz2011ndhh   0.41849
gfz2011nijp   0.88116
gfz2011niuw   4.29810
gfz2011oslk   0.57247
gfz2011qukj   2.61350
gfz2011sdax   1.61030
gfz2011uqry   0.97371
gfz2012cvfr   1.59000
gfz2012imsm   1.03120
gfz2012uzww   1.91110
gfz2013fulo   0.69412
gfz2013jfcn   1.25300
gfz2013kats   0.37925
gfz2013kcdb   1.86520
gfz2013qigb   0.91343
gfz2013qoak   0.70354
gfz2013zlak   1.83480
gfz2014cokw  -0.72628
gfz2014icov   1.54620
gfz2014iltl   0.82069
gfz2014irlf   1.72290
gfz2014irln   0.96648
