# Nsamples: 198  MAD:  0.521  mean:  0.056  std:  0.654
gfz2010dask   0.54357
gfz2010djib  -0.83116
gfz2010drit   0.29923
gfz2010dxhq  -1.49440
gfz2010fjme  -0.34449
gfz2010habf  -0.12641
gfz2010hueh  -0.43465
gfz2010iaay  -0.30111
gfz2010ifhd  -0.85728
gfz2010izag   0.51732
gfz2010jlvp  -0.45131
gfz2010mdti  -0.21524
gfz2010ngge  -0.23808
gfz2010okpc   1.63890
gfz2010pclq   0.21794
gfz2010pcya   1.30190
gfz2010pzza  -0.49251
gfz2010qdqk  -0.54828
gfz2010qrta   0.06374
gfz2010rkuu  -0.25528
gfz2010rljv   0.37311
gfz2010rnwt   1.11820
gfz2010rpjd   0.29811
gfz2010sdfs   2.26910
gfz2010tmba  -0.01316
gfz2010tpcj   0.10363
gfz2010tzlz   0.23755
gfz2010tzma   0.17693
gfz2010ugws   1.02680
gfz2010uhjy   0.75889
gfz2010umyp   1.55620
gfz2010uogw   0.56784
gfz2010vong   0.43837
gfz2010wakc  -0.64649
gfz2010xamh  -0.08302
gfz2010xnbn  -0.62129
gfz2010xpzq   0.63539
gfz2010zjun  -0.22489
gfz2011amst   2.07380
gfz2011bpqm  -0.13555
gfz2011bygu   0.17957
gfz2011cdge  -0.03091
gfz2011dabj  -0.69828
gfz2011dhfg   0.09256
gfz2011dpyu  -0.36296
gfz2011fnie   0.16615
gfz2011fszl   0.21549
gfz2011fzcw   1.30570
gfz2011ggnl  -1.09440
gfz2011gnbk   0.00000
gfz2011hjof   0.16355
gfz2011hqjs   0.01579
gfz2011ituo   1.12640
gfz2011jryv   0.16443
gfz2011kjzt  -0.51779
gfz2011kjzv  -0.59133
gfz2011lkkf   0.73930
gfz2011lwmg  -0.41725
gfz2011mjje  -0.67733
gfz2011ndhh   0.07843
gfz2011nfcz  -0.07633
gfz2011nhby   0.26844
gfz2011nijp  -0.55882
gfz2011nilw  -0.34199
gfz2011niuw   0.05815
gfz2011nlum   0.47091
gfz2011nsiy   0.89222
gfz2011nuqo   0.97157
gfz2011ofpj  -0.11198
gfz2011okza  -1.02640
gfz2011oslk  -0.48393
gfz2011owqa  -0.32221
gfz2011paqj  -0.32593
gfz2011pdsn   0.13753
gfz2011ppsc  -0.27234
gfz2011pwbw  -0.24651
gfz2011qenl   0.35341
gfz2011qukj  -0.64151
gfz2011sdax  -0.34410
gfz2011sqco   0.84862
gfz2011taqr   0.94391
gfz2011tqgg   0.43077
gfz2011tsgl   0.20472
gfz2011uqry   0.13290
gfz2011vahy  -0.04228
gfz2011vbxv   0.55887
gfz2011vcyx   0.38647
gfz2011vtzv   0.02153
gfz2011wcvs   0.26158
gfz2011wqup  -0.06901
gfz2011wucg   0.06480
gfz2011wwze   0.66426
gfz2011wyei  -0.34213
gfz2011xxng   0.58053
gfz2011zghc   0.25311
gfz2012amvs   0.32979
gfz2012arlo   0.20696
gfz2012bqcf  -0.48622
gfz2012cksh   1.36920
gfz2012cntu  -0.16476
gfz2012cvfr   0.13469
gfz2012dwwu  -0.36041
gfz2012dyck   0.09937
gfz2012ekfp   0.51826
gfz2012fyny   0.19402
gfz2012ghiv   0.40557
gfz2012gnow   0.06766
gfz2012hzur  -1.94210
gfz2012iijk   0.32742
gfz2012ldjj  -0.03064
gfz2012lyyr   0.02756
gfz2012mdzf  -0.40182
gfz2012mjuu  -0.39378
gfz2012nnqu  -0.44200
gfz2012nqvd  -0.34612
gfz2012oafg   0.16530
gfz2012oehy   0.09281
gfz2012ofnx  -0.32576
gfz2012phns  -0.16822
gfz2012sgfd   1.51300
gfz2012socz   0.03678
gfz2012sqsc   0.12288
gfz2012suqd   0.48878
gfz2012svwz   0.01112
gfz2012sxbo   0.54154
gfz2012syum  -1.37810
gfz2012tisj  -0.00000
gfz2012uhtc  -0.06922
gfz2012uvoa  -0.00000
gfz2012uzww  -0.24272
gfz2012vrqz  -0.52045
gfz2012wgmg  -0.51150
gfz2012wkki   0.65066
gfz2012wowu   0.55458
gfz2012wysg   0.16419
gfz2012xkln   0.07774
gfz2012xlas  -0.16334
gfz2012xncm   0.30665
gfz2012xqxw   0.55329
gfz2012xxdj  -0.14387
gfz2012yytb  -0.44248
gfz2013akkd   0.65478
gfz2013byyy  -0.55515
gfz2013cpjc   0.28621
gfz2013cvve   0.93758
gfz2013cyvx   0.04064
gfz2013delq  -0.09459
gfz2013dftb   0.06835
gfz2013dfvx   1.77140
gfz2013dngd  -0.08231
gfz2013dzvr  -0.11453
gfz2013efct  -0.23953
gfz2013fnpa  -0.18201
gfz2013fulo  -0.31547
gfz2013fvht   0.21518
gfz2013gurk   0.03927
gfz2013hbmi   0.28304
gfz2013icql  -0.29626
gfz2013iuyv  -1.08870
gfz2013iwzn   1.51360
gfz2013jfcn   0.50607
gfz2013jobl  -0.29830
gfz2013kats  -0.37367
gfz2013kbbg  -0.15102
gfz2013kbbn   0.57639
gfz2013kcdb   0.12115
gfz2013kpcb  -0.25704
gfz2013kqab   0.36292
gfz2013lbvl   0.13387
gfz2013mzaw  -0.06403
gfz2013oeni  -0.30925
gfz2013oizq   0.12494
gfz2013otuj   0.30652
gfz2013qigb  -0.00356
gfz2013qoak  -0.34276
gfz2013quwz  -0.39868
gfz2013rdmn  -0.44148
gfz2013rhbx   0.38044
gfz2013skay  -1.14730
gfz2013skvq   0.04588
gfz2013tjub  -0.67160
gfz2013udtw   0.15078
gfz2013upqj   0.20841
gfz2013uxzw   0.08750
gfz2013veug  -0.05069
gfz2013vldx  -0.45110
gfz2013vnwa   0.69368
gfz2013voai  -0.04989
gfz2013vojy  -0.37811
gfz2013vsdd   0.41072
gfz2013vvre   0.75050
gfz2013vzel  -0.96775
gfz2013xmzw   0.47068
gfz2013xswc   0.48870
gfz2013yqtu   0.72521
gfz2014bkra  -3.57270
gfz2014fsir   0.16016
gfz2014fxte   0.06218
