# Nsamples: 148  MAD:  0.524  mean:  0.025  std:  0.831
gfz2013cokc  -0.38490
gfz2013cvve   0.31363
gfz2013cyvx   0.72223
gfz2013dftb   0.53375
gfz2013dfvx   0.41336
gfz2013dngd  -0.09810
gfz2013dzvr  -0.30328
gfz2013efct   0.42873
gfz2013eidd  -0.10275
gfz2013enga  -0.24739
gfz2013ffjt  -0.32058
gfz2013fnpa   0.00000
gfz2013fulo   0.09720
gfz2013fvyr   0.26093
gfz2013fwbm   3.87890
gfz2013fxyr   0.15764
gfz2013fybd   0.25223
gfz2013gbki  -5.17720
gfz2013gffe  -0.02337
gfz2013gjmk   0.34248
gfz2013gomv   0.35889
gfz2013gqtl   1.13130
gfz2013gsnl   0.71672
gfz2013gugi  -0.41398
gfz2013gurk  -0.35198
gfz2013hdbp   0.71273
gfz2013hduf   0.46226
gfz2013hinw  -0.11838
gfz2013hqaa  -0.22774
gfz2013hvkg   1.95710
gfz2013irme   0.25286
gfz2013iuyv  -0.38972
gfz2013iwzn   0.01082
gfz2013jcnn   0.41823
gfz2013jfcn   0.17807
gfz2013jhog   0.36156
gfz2013jobl  -2.92340
gfz2013jpir   0.37364
gfz2013kats   0.07780
gfz2013kbbg  -0.21572
gfz2013kbkp  -0.35615
gfz2013kcdb  -0.44357
gfz2013kjgh  -0.03860
gfz2013kpcb   0.10218
gfz2013kqab  -0.32547
gfz2013kxof  -0.02781
gfz2013lbod  -0.40322
gfz2013lbvl  -0.14843
gfz2013ljdu   0.57283
gfz2013lnts   0.29222
gfz2013lvxe   0.08762
gfz2013lxed   0.42701
gfz2013mbna   1.00440
gfz2013mdnp  -0.36497
gfz2013mimp   0.47419
gfz2013mynb  -0.16514
gfz2013mzaw   0.52758
gfz2013njjh  -0.39817
gfz2013njwj   0.45040
gfz2013nkgd   0.44414
gfz2013oeni  -0.17482
gfz2013ohdt   0.29932
gfz2013ohnj   0.80139
gfz2013oizq  -0.76623
gfz2013onvl  -0.05128
gfz2013opkx  -0.31014
gfz2013orot  -0.54100
gfz2013osmj   0.44543
gfz2013otuj   0.20333
gfz2013oywh  -0.02923
gfz2013phhi   1.21730
gfz2013pkmz  -0.40360
gfz2013pqkp  -0.38705
gfz2013pvsa  -0.46667
gfz2013qapj   0.04257
gfz2013qntl   0.19983
gfz2013qoak   0.75206
gfz2013qxof   0.22474
gfz2013rdmn  -0.65580
gfz2013rofg   0.65729
gfz2013rwkj   0.25404
gfz2013ryph   0.07064
gfz2013sbsp  -0.64824
gfz2013stup  -0.55751
gfz2013taeb  -0.79739
gfz2013tdsx  -0.21001
gfz2013tert  -0.67753
gfz2013tgyb   0.66830
gfz2013udtw   0.89366
gfz2013unuv   0.42519
gfz2013upqj  -0.65139
gfz2013uxzw   1.21380
gfz2013uzmf   0.22866
gfz2013vdam   0.15582
gfz2013veoz   0.07088
gfz2013veug  -0.07099
gfz2013vjrr   0.01200
gfz2013vmrv  -0.29731
gfz2013vmsg  -0.43334
gfz2013vnwa  -0.35208
gfz2013vojy   0.08885
gfz2013vzel  -0.68517
gfz2013wpns   0.31802
gfz2013wyfl  -0.21387
gfz2013xahp  -0.40596
gfz2013xjmo  -0.34189
gfz2013xmzw   0.34618
gfz2013xswc  -0.42582
gfz2013xupg  -0.58835
gfz2013yawe  -0.06732
gfz2013ylxm  -0.08319
gfz2013yodm  -0.15143
gfz2014aqop  -3.96500
gfz2014avzp   0.60001
gfz2014bkra   0.19575
gfz2014bqpm   0.52041
gfz2014bumr  -0.17111
gfz2014bycg   0.05400
gfz2014bzus   0.03004
gfz2014cwti  -0.74382
gfz2014dbmu  -0.34282
gfz2014dggw  -0.71339
gfz2014diuu   1.16310
gfz2014ecor   0.31386
gfz2014eirs   0.82716
gfz2014epnq  -0.22906
gfz2014etqu   0.32273
gfz2014fsir  -0.13216
gfz2014fsje   0.70547
gfz2014fskh   0.52487
gfz2014fxtv  -0.02925
gfz2014fxuy  -0.10183
gfz2014gbxg  -1.03080
gfz2014gnbw   0.73497
gfz2014gqxg   0.18024
gfz2014gsfc  -0.10719
gfz2014gssz   0.17901
gfz2014huqh  -0.88340
gfz2014hyea  -0.01687
gfz2014hzzf  -0.05736
gfz2014iaqm   1.15120
gfz2014icov   0.44780
gfz2014ijsa  -0.12010
gfz2014inrg   0.57268
gfz2014irly   0.00538
gfz2014iusw   0.34371
gfz2014jarg   0.14292
gfz2014jayh   0.38642
