# Nsamples: 8  MAD:  0.833  mean:  1.102  std:  1.073
gfz2013fnpa   1.09280
gfz2013fybd   0.14225
gfz2013hvzv   3.13620
gfz2013icql   0.55301
gfz2013iwzn   2.14480
gfz2013kats   0.45050
gfz2013mvgq   0.02774
gfz2013mzaw   1.26580
