# Nsamples: 15  MAD:  0.623  mean:  1.081  std:  1.772
gfz2013dngd   1.79290
gfz2013iuyv   1.57430
gfz2013kcdb   0.82324
gfz2013mvgq   1.16670
gfz2013oywh   2.45190
gfz2013suck  -4.76140
gfz2013taeb   2.65190
gfz2013tert   0.74615
gfz2013upqj   2.53350
gfz2013vmsg   0.49508
gfz2013yawe   1.25950
gfz2013zlak   0.88639
gfz2014etqu   2.50130
gfz2014hzzf   1.09190
gfz2014jayh   0.99486
