# Nsamples: 64  MAD:  0.526  mean:  0.101  std:  1.172
gfz2013cqee   3.41630
gfz2013delq  -0.21093
gfz2013dngd   0.33004
gfz2013dzvr   0.05841
gfz2013eidd  -0.16970
gfz2013fnpa   0.85769
gfz2013fybd   0.44421
gfz2013havw  -2.63700
gfz2013hdbp  -0.31002
gfz2013hduf   2.38300
gfz2013icql  -0.16258
gfz2013iuyv   0.32640
gfz2013iwzn   0.48740
gfz2013jfcn   0.17482
gfz2013jhog  -0.38116
gfz2013jobl   0.35315
gfz2013kats  -0.05647
gfz2013kbbg  -0.15650
gfz2013kcdb  -1.07630
gfz2013lbvl   0.10159
gfz2013lcrk  -4.77490
gfz2013mvgq  -0.39698
gfz2013mzaw   0.42264
gfz2013oizq   0.05742
gfz2013onvl   0.85242
gfz2013oywh   0.18441
gfz2013phhi   0.29614
gfz2013qoak  -0.45403
gfz2013quwz   0.36446
gfz2013qxof  -0.43617
gfz2013rdmn  -1.15080
gfz2013ryph   0.55333
gfz2013taeb   0.59500
gfz2013tdsx  -0.29393
gfz2013tert  -0.65857
gfz2013unuv   0.39800
gfz2013upqj   0.63322
gfz2013veoz   0.49894
gfz2013veug   0.30292
gfz2013vmrv  -0.09479
gfz2013vmsg   0.82341
gfz2013wpns  -1.01420
gfz2013wyfl   0.19766
gfz2013xahp  -0.40088
gfz2013xjmo   0.18389
gfz2013xmzw   0.97238
gfz2013xswc  -0.27486
gfz2013xuxr   0.33598
gfz2013yqtu   0.26338
gfz2013zlak   0.23538
gfz2014bkra  -3.32230
gfz2014bztn   3.92700
gfz2014cwti  -0.03539
gfz2014epnq   0.61756
gfz2014etqu   0.31354
gfz2014fbli   0.42034
gfz2014flxk  -0.29252
gfz2014fsir   0.45351
gfz2014gnbw   0.60081
gfz2014hyea   0.30127
gfz2014hzzf   0.13297
gfz2014icov   0.54461
gfz2014irly   0.13841
gfz2014jarg   0.64667
