# Nsamples: 550  MAD:  0.530  mean:  0.036  std:  0.893
gfz2010abfc  -0.57874
gfz2010aggj  -0.05718
gfz2010aimm  -0.23781
gfz2010aseg   0.38522
gfz2010azji   0.89822
gfz2010bkfi   0.10018
gfz2010bklj  -0.37944
gfz2010bqnk   0.71575
gfz2010byau  -1.25880
gfz2010ccwc   0.82419
gfz2010ccye  -0.22454
gfz2010clbw  -0.01044
gfz2010cllh   0.95584
gfz2010cphq  -1.69460
gfz2010cpig  -1.77510
gfz2010crgy  -0.16630
gfz2010crir  -0.04637
gfz2010csle  -1.21130
gfz2010dask   0.25795
gfz2010djib  -0.92126
gfz2010drit   0.48798
gfz2010drml  -0.64363
gfz2010drmq  -0.64363
gfz2010drun  -0.41838
gfz2010dumv  -1.22720
gfz2010dwgy  -0.08821
gfz2010dxhq  -0.97337
gfz2010eepd   0.19894
gfz2010eibh   1.42050
gfz2010fgbo   0.40694
gfz2010fjme   0.77237
gfz2010fqnn  -0.72510
gfz2010ftfq   0.24999
gfz2010fxhh   0.01269
gfz2010fxut   1.15510
gfz2010gonu  -0.12566
gfz2010habf  -0.16738
gfz2010hsgv  -0.31898
gfz2010hueh  -0.10957
gfz2010iaay   1.45470
gfz2010iawy   0.94382
gfz2010inbs   0.64869
gfz2010izag   0.48185
gfz2010jcpq   0.02220
gfz2010jlvp  -0.56545
gfz2010kcdq  -0.37268
gfz2010kwks  -1.00430
gfz2010lvnj  -4.19100
gfz2010mdti  -0.11107
gfz2010mqaj  -0.21338
gfz2010mqzz  -0.47848
gfz2010ncwu   0.27330
gfz2010ngge  -0.39495
gfz2010nwbd  -0.18979
gfz2010nwyk   0.01898
gfz2010ocug   2.12020
gfz2010oguu   0.27683
gfz2010okpc  -1.91260
gfz2010pclq  -0.17147
gfz2010pcya  -1.64290
gfz2010pgpo   0.22483
gfz2010pvnn  -0.49830
gfz2010pxoi   2.51720
gfz2010pzza  -0.26425
gfz2010qbcy   0.16424
gfz2010qdqk   1.45410
gfz2010qqqx   1.46230
gfz2010qrta   0.19154
gfz2010rhvu   0.46674
gfz2010rkuu  -0.22112
gfz2010rljv   0.25158
gfz2010rnqa   1.54190
gfz2010rnwt  -2.16150
gfz2010rpjd  -0.20524
gfz2010schp  -0.50326
gfz2010sdfs  -0.02860
gfz2010shvn   0.05088
gfz2010swqy  -0.17462
gfz2010tcgh   0.83233
gfz2010tmba  -0.10164
gfz2010tmne  -0.59387
gfz2010tpcj   0.64462
gfz2010tzma   0.43099
gfz2010ugws   0.65327
gfz2010uhjy   0.92452
gfz2010umxj   2.32970
gfz2010uogw   0.61233
gfz2010vdcf   0.10341
gfz2010vong   0.42833
gfz2010wakc  -0.88194
gfz2010wplk  -0.87062
gfz2010wwhf  -0.34589
gfz2010wwnq  -0.18899
gfz2010wyuj   1.14590
gfz2010xamh  -0.44082
gfz2010xaxw   0.26601
gfz2010xcdd   1.58970
gfz2010xjsv  -0.37780
gfz2010xkbz   0.39848
gfz2010xnbn   0.11965
gfz2010xpzq   0.59595
gfz2010xvev  -0.06163
gfz2010yczp   0.96133
gfz2010yfdr  -0.10292
gfz2010yhhj  -1.41150
gfz2010ytzb   0.01256
gfz2010zjun   0.03049
gfz2011amst   1.58580
gfz2011aqpp   0.08892
gfz2011bpqm  -0.10894
gfz2011bqbx   0.36007
gfz2011bsvr  -1.15670
gfz2011bwsm   1.07400
gfz2011bygs   0.30022
gfz2011bygu   0.41934
gfz2011cdge   0.03414
gfz2011cfyy   0.17010
gfz2011chsa  -0.33657
gfz2011cjuz  -0.03027
gfz2011cwzi   0.04498
gfz2011dabj  -0.00180
gfz2011dhfg   0.07725
gfz2011dpyu  -0.12861
gfz2011duvm   0.12166
gfz2011dwae  -0.04213
gfz2011exxq   3.63440
gfz2011fbsl   0.26136
gfz2011fnie  -0.06043
gfz2011fszl   0.06599
gfz2011fxmf  -0.22192
gfz2011fzcw  -1.50030
gfz2011gaax  -0.20081
gfz2011ggnl   1.39400
gfz2011glpg  -0.58230
gfz2011gnbk   0.02839
gfz2011gpyr   0.03512
gfz2011haaa  -0.20662
gfz2011hatg  -0.18732
gfz2011hbqc  -2.41380
gfz2011hibi   4.31090
gfz2011hjof  -0.06060
gfz2011hmnw   0.09742
gfz2011hqjs   0.10148
gfz2011hrgt   0.87376
gfz2011hvzo  -0.51769
gfz2011hyct   0.23265
gfz2011iamf   0.28659
gfz2011ibew   0.05634
gfz2011ifta   0.18264
gfz2011ioch   1.87050
gfz2011iryz  -0.17361
gfz2011itcv   0.48817
gfz2011ituo  -1.18360
gfz2011ixpj   0.19741
gfz2011jdoz  -0.59802
gfz2011jeta  -1.26560
gfz2011jphj   0.33898
gfz2011jryv  -2.17970
gfz2011jtij   0.11940
gfz2011kbzo  -0.18449
gfz2011kjzt  -0.70948
gfz2011kjzv  -0.49171
gfz2011kyzy   0.09674
gfz2011lkkf   1.42320
gfz2011lmug  -0.15605
gfz2011lwmg   0.11912
gfz2011mjje  -0.44995
gfz2011mllb   0.72744
gfz2011mror   0.19790
gfz2011ncyw   0.19294
gfz2011ndhh  -0.04063
gfz2011ndki  -0.05282
gfz2011ndlh   1.86170
gfz2011ndvj   1.23600
gfz2011neai  -0.54743
gfz2011nejg  -0.55468
gfz2011nejw  -0.39335
gfz2011nerb  -0.46482
gfz2011nfcz   0.59564
gfz2011nfih  -2.82360
gfz2011nfln  -1.11300
gfz2011nftw  -0.76158
gfz2011nfww  -0.97423
gfz2011nhby   0.33049
gfz2011nhjv   5.06690
gfz2011nhvt   0.12359
gfz2011nifi  -0.21046
gfz2011nihq  -0.63168
gfz2011nijp  -0.30171
gfz2011nilw  -0.46905
gfz2011nimp  -0.06098
gfz2011nioi  -1.22590
gfz2011nisj  -0.05568
gfz2011niuw   0.40862
gfz2011nkda  -1.83440
gfz2011nkou  -5.36880
gfz2011nlmf  -0.22231
gfz2011nlnl  -0.94408
gfz2011nlou  -0.13137
gfz2011nlum  -0.38726
gfz2011nmdz   0.06333
gfz2011nnda  -0.21306
gfz2011nnos   0.10142
gfz2011nsiy   0.21073
gfz2011nuqo   0.87297
gfz2011nyzk  -0.24903
gfz2011oadm  -0.66114
gfz2011oazk  -0.96822
gfz2011ocif  -1.42550
gfz2011oesd  -0.02229
gfz2011ofpj   0.14993
gfz2011ohgj  -0.58632
gfz2011oqjl   0.30990
gfz2011oslk  -0.38324
gfz2011osuy   0.40953
gfz2011ovvj  -0.84318
gfz2011owqa   0.13718
gfz2011paqj  -0.42318
gfz2011pbjh   0.56428
gfz2011pfls  -0.03935
gfz2011pfwq  -1.22900
gfz2011pivq  -0.32654
gfz2011pmuv  -0.02482
gfz2011poug  -0.09870
gfz2011pphc   2.47960
gfz2011ppsc  -0.40854
gfz2011prrq  -0.49420
gfz2011pwbw  -0.28656
gfz2011qenl  -0.05627
gfz2011qgea   0.69472
gfz2011qgvh   0.19671
gfz2011qgvx   1.08260
gfz2011qklh   2.32220
gfz2011qtoy   3.02050
gfz2011qukj  -0.91812
gfz2011rczb   0.70013
gfz2011rkau  -0.14555
gfz2011rkzx  -0.79827
gfz2011rnny  -0.69711
gfz2011rnsp   0.20411
gfz2011scma   0.56474
gfz2011sdax  -0.06741
gfz2011sqco   0.38029
gfz2011sskq   0.02792
gfz2011sxno  -0.00000
gfz2011syzr  -0.06547
gfz2011taqr  -0.23695
gfz2011tarj   0.24626
gfz2011tdjj   0.38391
gfz2011tqgg   0.30265
gfz2011tsgl  -0.04732
gfz2011tssv   0.23320
gfz2011twpz   1.04500
gfz2011txxs  -0.77783
gfz2011udxo  -0.29196
gfz2011uqry   0.47129
gfz2011urwz  -1.10700
gfz2011vahy   0.08424
gfz2011vcyx  -0.65171
gfz2011wcvs   0.00471
gfz2011wucg   0.02472
gfz2011wzss  -0.09641
gfz2011xgbc   0.27576
gfz2011xgwy   0.03828
gfz2011yexx   0.07741
gfz2011yjtx  -1.25920
gfz2011ymji   0.54507
gfz2011ytob  -0.09987
gfz2011zdyf   2.11640
gfz2011zghc   0.64715
gfz2011zgxn   0.23562
gfz2012amvs   0.36274
gfz2012arlo  -2.29210
gfz2012bcvn   1.10740
gfz2012bqcf  -0.24409
gfz2012byrq  -0.10722
gfz2012bysu  -0.35820
gfz2012bytv  -0.06965
gfz2012byuk  -0.36718
gfz2012cdju  -0.06306
gfz2012cksh  -0.36010
gfz2012cntu   0.07129
gfz2012crpb  -0.09543
gfz2012cvfr   0.11357
gfz2012cwhl  -1.11580
gfz2012dbgt   0.13188
gfz2012dleg   0.91063
gfz2012ekfp   0.06110
gfz2012elek   0.20064
gfz2012erds  -0.15237
gfz2012foih   3.20750
gfz2012ftks  -0.88480
gfz2012fuyd   0.69205
gfz2012fyny   0.09025
gfz2012fyop   0.67152
gfz2012ghiv   0.05161
gfz2012gjdg  -0.52573
gfz2012gjtd  -0.19445
gfz2012gnow  -0.19602
gfz2012gvxc   0.21902
gfz2012gzuk  -0.06217
gfz2012hdny  -0.66802
gfz2012hmcv   0.15917
gfz2012hzur  -0.96344
gfz2012iblc   0.30388
gfz2012iblo  -0.17730
gfz2012ibyd   0.25303
gfz2012icjo  -0.01854
gfz2012ieln   0.16789
gfz2012iijk  -0.18427
gfz2012imsm   1.18260
gfz2012iotw  -1.25200
gfz2012iyhs  -0.82264
gfz2012izke   1.34970
gfz2012jlez   0.93388
gfz2012kbub  -2.78250
gfz2012kjzx  -0.23835
gfz2012klpl  -0.43967
gfz2012kmbo  -0.40303
gfz2012kmmz   0.40893
gfz2012kstg   0.61261
gfz2012kyhj   2.78030
gfz2012ldjj  -0.36419
gfz2012lqhw  -0.10487
gfz2012lyyr  -0.06039
gfz2012mcrb  -0.75645
gfz2012mdzf  -0.33852
gfz2012mekv  -0.40319
gfz2012mhik   0.68264
gfz2012mjuu  -0.55728
gfz2012mmiw   0.15074
gfz2012mrqk   0.46799
gfz2012mrwu  -0.03613
gfz2012nmja  -0.58091
gfz2012nnqu  -0.55553
gfz2012ofnx   0.00000
gfz2012pdav  -0.00000
gfz2012phns   0.39968
gfz2012pmuj  -0.00000
gfz2012pvve   0.04557
gfz2012qbbt   0.37335
gfz2012qfah  -0.53942
gfz2012qfov   1.16590
gfz2012qibe  -1.65240
gfz2012qpoc  -0.77508
gfz2012qvwy   3.36790
gfz2012svwz  -0.08948
gfz2012swbz  -0.01520
gfz2012sxbo  -0.88107
gfz2012sxzs   0.15010
gfz2012syum  -1.45080
gfz2012tgta  -0.59336
gfz2012tisj   0.03788
gfz2012ulei   1.18280
gfz2012unxc   0.26795
gfz2012uovh  -0.65546
gfz2012uvea   0.93730
gfz2012uzww  -0.03471
gfz2012vile  -0.02361
gfz2012vitw   0.24806
gfz2012vlzv  -0.02366
gfz2012vrqz   0.23051
gfz2012vurc  -0.27738
gfz2012wgdv   0.34495
gfz2012wgmg  -0.64633
gfz2012wkki   1.01980
gfz2012wowu   0.63006
gfz2012wysg   0.37886
gfz2012xask   0.57187
gfz2012xcsf   0.00000
gfz2012xfnu   0.37491
gfz2012xkln   0.27340
gfz2012xlas  -0.34203
gfz2012xlfo  -0.02743
gfz2012xncm  -0.39613
gfz2012xtvu   0.63784
gfz2012xxdj   0.31355
gfz2012yegw   0.30318
gfz2012yihn  -0.82558
gfz2012yvwc  -0.15766
gfz2012zhyz   0.41060
gfz2012zido   0.58049
gfz2012zkhu   0.29815
gfz2012zmdf   0.43227
gfz2012zmfc  -0.92374
gfz2013agbm   0.86507
gfz2013agmt   1.16090
gfz2013akkd  -0.30877
gfz2013bwgw  -0.51621
gfz2013byyy  -0.05194
gfz2013cfls  -0.42393
gfz2013cinv   0.07695
gfz2013cokc  -0.23268
gfz2013cvve   0.25563
gfz2013cyvx   0.22455
gfz2013delq   0.36549
gfz2013dftb   0.12854
gfz2013dzvr  -0.17059
gfz2013eazm  -0.24750
gfz2013enqo   1.17910
gfz2013fmcd  -0.47808
gfz2013fmcp   0.01950
gfz2013frxd  -1.29090
gfz2013fulo   0.41827
gfz2013fvht   0.11199
gfz2013fvyr  -0.14848
gfz2013gkcx   0.12577
gfz2013gkyn   0.34315
gfz2013grle   1.23600
gfz2013gsnl  -0.36522
gfz2013gugi  -0.38088
gfz2013gxye   0.36031
gfz2013hqaa   0.07346
gfz2013hvzv   0.39518
gfz2013hwps  -1.12380
gfz2013icql   0.14368
gfz2013irme  -0.02929
gfz2013iuyv   0.82492
gfz2013jfcn   0.38068
gfz2013jhog   0.17024
gfz2013jjae   0.43411
gfz2013jkqn   0.65910
gfz2013jlli  -0.87720
gfz2013jobl  -0.05807
gfz2013jrqf  -0.60745
gfz2013kats  -0.13324
gfz2013kbbg   0.11873
gfz2013kdfy   0.34543
gfz2013kjgh   0.11313
gfz2013kpcb  -0.43489
gfz2013lcrk   0.37283
gfz2013ljdu   0.58955
gfz2013lqjj   0.03044
gfz2013lxnd   1.55190
gfz2013mdxj   0.41791
gfz2013mktp   0.11146
gfz2013mzaw   0.05585
gfz2013njwj   1.03690
gfz2013nkgd   0.48004
gfz2013oeni  -0.17209
gfz2013oizq  -1.55120
gfz2013pegj   0.06586
gfz2013phhi   0.88950
gfz2013pkmz   0.66773
gfz2013pqkp  -0.86931
gfz2013qear  -2.08450
gfz2013qigb   0.26617
gfz2013qoak   0.15087
gfz2013qogb   0.61424
gfz2013qqyo   0.51660
gfz2013quwz  -0.49897
gfz2013qxof  -0.00339
gfz2013rdmn  -0.23975
gfz2013rwkj  -0.29469
gfz2013skay   0.06219
gfz2013skvq  -0.12711
gfz2013stup   1.43100
gfz2013syqv   1.19480
gfz2013taeb   0.75010
gfz2013tjub   0.30479
gfz2013tnff  -2.10650
gfz2013ttmk  -0.77006
gfz2013udtw   0.13498
gfz2013ujze  -0.28861
gfz2013utqa  -0.47631
gfz2013vcgd  -0.13220
gfz2013vdam   0.29476
gfz2013veug   0.17835
gfz2013vjrr   0.23425
gfz2013vldx  -0.50698
gfz2013vmrv   1.20260
gfz2013vmsg   0.73024
gfz2013vnwa   0.27033
gfz2013voai   0.20470
gfz2013vojy  -0.01699
gfz2013vsdd   0.13040
gfz2013vvre  -0.36661
gfz2013vwkh  -0.21991
gfz2013vzel  -0.63363
gfz2013vzet  -0.49573
gfz2013wyfl  -0.16990
gfz2013xahp  -0.05688
gfz2013xjmo   0.07041
gfz2013xmzw   0.21877
gfz2013xofz   0.19467
gfz2013xswc  -0.65010
gfz2013yodm  -0.07011
gfz2013yqkz  -0.39219
gfz2013yqtu  -0.41997
gfz2013yxhf   0.68277
gfz2013zfbz   0.04877
gfz2013zlak   0.62674
gfz2014aedl  -0.13220
gfz2014aqax   1.81760
gfz2014aqop   0.43950
gfz2014ayxf  -0.41094
gfz2014bdju   0.36280
gfz2014bgxe  -0.32585
gfz2014cgxj  -3.37920
gfz2014cjao   0.30990
gfz2014cokw  -0.05440
gfz2014cvnb   0.35573
gfz2014cwcj   0.00416
gfz2014cwti   3.16060
gfz2014djhi   0.88258
gfz2014dtth   0.38056
gfz2014dwcp  -0.08462
gfz2014ecor   1.36840
gfz2014edmd  -0.54660
gfz2014eirs   0.35789
gfz2014eoay   0.00600
gfz2014epnq  -0.19864
gfz2014epue   0.65003
gfz2014esez  -0.38830
gfz2014flxk   0.31617
gfz2014fqas  -0.04596
gfz2014fsir   0.30671
gfz2014fsje  -0.01202
gfz2014fwxt   0.24701
gfz2014fxte  -0.29044
gfz2014fxuy  -0.01875
gfz2014gasb   0.36650
gfz2014gbxg   1.50420
gfz2014gcgf   0.06690
gfz2014gnbw   0.27179
gfz2014gnvp   0.27319
gfz2014grwv  -0.28373
gfz2014gsfc   0.52631
gfz2014gssz   0.22214
gfz2014gypw  -0.47964
gfz2014hapg   0.74994
gfz2014hkcw   0.07087
gfz2014hotu  -0.69601
gfz2014hqhv  -0.05674
gfz2014huah  -0.00948
gfz2014huqh   0.80110
gfz2014hyea  -0.55240
gfz2014hzzf  -0.63933
gfz2014icov   0.44504
gfz2014igrp   0.16544
gfz2014iltl   0.35096
gfz2014imqh  -0.55706
gfz2014ined   0.47168
gfz2014irlf  -0.35920
gfz2014irln  -0.19604
gfz2014irly  -0.40287
gfz2014isjg   0.04778
gfz2014jarg   0.17060
gfz2014jaxy   0.92626
gfz2014jayh   0.10623
