# Nsamples: 20  MAD:  1.212  mean:  0.882  std:  2.308
gfz2010djib  -2.87320
gfz2010hueh  -0.36371
gfz2010rhvu   1.52730
gfz2011cdge   0.39804
gfz2011exxq   7.85710
gfz2011mllb   2.11760
gfz2011nuqo   0.30281
gfz2011qukj  -3.21820
gfz2011rkau   1.54490
gfz2011scma   0.81592
gfz2012cksh  -0.75440
gfz2012foih   4.39130
gfz2012suqd   0.36148
gfz2012wowu   0.55462
gfz2013bwgw   1.27170
gfz2013delq   0.52834
gfz2013kcdb  -0.02201
gfz2013mvgq   0.60364
gfz2013taeb   1.64190
gfz2013vnwa   0.95085
