# Nsamples: 74  MAD:  0.748  mean: -0.088  std:  0.935
gfz2010abfc  -4.07390
gfz2010aggj   0.08072
gfz2010cnhd  -1.92240
gfz2010dask   0.32718
gfz2010djib  -1.67970
gfz2010mdti   0.56177
gfz2010mqzz  -0.07015
gfz2010ngge   1.18150
gfz2010okpc   0.32064
gfz2010rpjd   0.03749
gfz2010uhjy  -0.85346
gfz2010xpzq   1.03780
gfz2011bpqm   1.09220
gfz2011bsvr  -0.81181
gfz2011dpyu  -0.16815
gfz2011mjje   0.03602
gfz2011ndhh   0.22430
gfz2011nhby  -0.55683
gfz2011niuw  -2.30070
gfz2011oslk   0.18127
gfz2011scma  -0.21246
gfz2011sdax  -0.65284
gfz2011uowi  -0.59041
gfz2011uqry  -0.61369
gfz2011urwz   1.09460
gfz2011wkja  -0.29933
gfz2011zghc  -0.14971
gfz2012hzhn  -0.91668
gfz2012lyyr   0.77770
gfz2012mrwu  -1.08120
gfz2012oafg   0.25277
gfz2012oyja  -0.65309
gfz2012taph  -1.40490
gfz2012vgot  -0.87275
gfz2013byyy  -0.19445
gfz2013dftb   0.61195
gfz2013eidd   0.34600
gfz2013icql  -0.42313
gfz2013iuyv   0.92686
gfz2013jobl  -0.00806
gfz2013kats   1.18820
gfz2013kcdb   1.15670
gfz2013mzaw   0.59583
gfz2013phhi   0.76167
gfz2013qdno   0.09893
gfz2013qigb   0.33790
gfz2013qoak   1.67840
gfz2013quyn   0.44391
gfz2013rfik   0.06522
gfz2013rocs  -0.03862
gfz2013rwkj  -1.00480
gfz2013skvq   0.40882
gfz2013tgia   0.12831
gfz2013tkcg   0.20105
gfz2013tmnf   0.39668
gfz2013uepl   0.24464
gfz2013utqa   0.65372
gfz2013uwjo  -0.05033
gfz2013vcgd   0.04319
gfz2014bdju   0.86313
gfz2014bkra   0.08534
gfz2014byes  -0.68157
gfz2014cgoi  -0.44683
gfz2014ctdl   0.10201
gfz2014dtth   0.52386
gfz2014eoay   0.44303
gfz2014fxte  -0.59881
gfz2014fxuy  -0.37209
gfz2014icov  -0.89758
gfz2014iltl  -0.96259
gfz2014irlf  -0.37597
gfz2014irln  -1.90490
gfz2014itlx  -0.03124
gfz2014jarg   1.83870
