# Nsamples: 277  MAD:  0.662  mean:  0.052  std:  1.019
gfz2010azji   0.39907
gfz2010bklj  -0.61078
gfz2010bnqr  -0.21653
gfz2010btme   2.39750
gfz2010bukb   0.91284
gfz2010bvit  -0.13351
gfz2010ccwc   0.11056
gfz2010cdnv  -0.23394
gfz2010clbw   0.03558
gfz2010cllh   1.57530
gfz2010cngg   0.82825
gfz2010cnhd   0.46239
gfz2010cnyi   0.90740
gfz2010cphq   0.25927
gfz2010cpig   0.42332
gfz2010crgy   0.48962
gfz2010crir   0.16834
gfz2010csle   0.52748
gfz2010csmw  -0.74626
gfz2010csqg   0.75936
gfz2010cthm   1.83850
gfz2010cvkn   0.38039
gfz2010cyid   0.46563
gfz2010ddan  -0.23378
gfz2010djib  -3.48030
gfz2010dmij   1.81810
gfz2010drml  -0.68627
gfz2010drmq  -0.68627
gfz2010drng  -0.85558
gfz2010drpv   0.62412
gfz2010dslu   0.37233
gfz2010dtyx   0.82572
gfz2010dwgy  -0.09253
gfz2010dxhq   0.82971
gfz2010extu   0.67939
gfz2010faly   0.20225
gfz2010fgbo   0.26304
gfz2010fjio   0.00065
gfz2010fkff   0.17970
gfz2010fkpa  -0.26059
gfz2010fopf   0.77084
gfz2010fpvw   0.25845
gfz2010fqnn  -0.19617
gfz2010fxhh  -0.14695
gfz2010gcqp   0.45852
gfz2010gcrn   1.99140
gfz2010gooc   0.64018
gfz2010gpjl   4.41260
gfz2010hdgr  -1.20740
gfz2010hdxn   1.23660
gfz2010hesh   0.41342
gfz2010hllp   0.17764
gfz2010hsgv  -0.10257
gfz2010hueh   0.07228
gfz2010kwks   0.12942
gfz2010ljol   1.13140
gfz2010mdti  -0.20402
gfz2010mjdl   0.27127
gfz2010mnoc  -0.04127
gfz2010msss   5.92910
gfz2010mvtj   1.82600
gfz2010mwmd   1.77380
gfz2010myqg  -0.05163
gfz2010nbcr  -0.36834
gfz2010ncwu   0.85371
gfz2010ngge   0.05458
gfz2010nlai  -0.54545
gfz2010nwbd  -0.56208
gfz2010nwyk  -0.11955
gfz2010oibn   0.12865
gfz2010ouvm   1.77010
gfz2010ovvg   0.46558
gfz2010pgpo   0.24506
gfz2010pgrf  -0.20316
gfz2010xjsv  -0.43089
gfz2010xkbz  -0.20647
gfz2010xkku  -0.44430
gfz2010xnbn  -0.19447
gfz2010xpzq   0.26383
gfz2010xvev  -0.19515
gfz2010xytc  -0.22674
gfz2010yczp  -0.30732
gfz2010yfdr  -0.00000
gfz2010yhhj  -0.43432
gfz2010zhvj  -0.66659
gfz2010zjun   0.12270
gfz2010zkle   2.35830
gfz2011ahvh  -0.28466
gfz2011amst   1.34200
gfz2011aqpp  -0.58624
gfz2011bqbx   0.64194
gfz2011bsvr   1.15650
gfz2011bwsm   1.05010
gfz2011bygs  -0.04740
gfz2011bygu   0.10101
gfz2011bzio  -0.37163
gfz2011cdge  -0.09723
gfz2011cfyy  -0.00000
gfz2011chsa   0.03352
gfz2011clwu   0.15913
gfz2011cwsm  -0.44360
gfz2011cwzi  -0.09849
gfz2011cxbw  -1.44540
gfz2011cxdj  -0.04381
gfz2011dhfg  -0.01466
gfz2011dhqk  -0.05739
gfz2011dmdv  -0.25467
gfz2011duvm   0.09592
gfz2011ecce   1.02020
gfz2011edrq   0.46513
gfz2011ekty  -0.41226
gfz2011emzr   0.30675
gfz2011exxq  -0.25733
gfz2011fbsl   0.28333
gfz2011fnuk  -0.13324
gfz2011fnxz   0.06175
gfz2011fszl   0.05367
gfz2011fxmf  -0.44939
gfz2011fzcw   1.59170
gfz2011gaax   0.53093
gfz2011gfer   0.27360
gfz2011ggnl  -0.11715
gfz2011glpg  -0.20319
gfz2011hffq   0.68297
gfz2011hibi   1.12570
gfz2011hjof   0.33618
gfz2011hqjs   0.10515
gfz2011hrgt  -0.78142
gfz2011huon   0.07916
gfz2011iamf   0.12982
gfz2011ibew  -0.17718
gfz2011ifta  -0.32875
gfz2011inan   3.70240
gfz2011ioch   0.05786
gfz2011iryz  -0.22557
gfz2011ituo   0.15501
gfz2011iybf  -0.46251
gfz2011jdoz  -0.47965
gfz2011jeta   0.64194
gfz2011jfyb   0.28061
gfz2011jghq  -0.46063
gfz2011kjzt   0.22838
gfz2011kjzv   0.81141
gfz2011kylu   2.18020
gfz2011kymm  -0.47009
gfz2011kyzy   0.29017
gfz2011ldgl   0.01744
gfz2011lkkf   0.00862
gfz2011lmug   0.01350
gfz2011lwmg  -0.30906
gfz2011mdyq   0.36937
gfz2011mjje   0.26245
gfz2011mllb   0.58123
gfz2011mntq   0.85607
gfz2011mrfm  -1.26810
gfz2011mror   0.69869
gfz2011mrpy  -0.81393
gfz2011mryu  -0.68124
gfz2011ncyw   0.12464
gfz2011ndki   1.01270
gfz2011ndlh   0.87507
gfz2011ndse   0.42399
gfz2011nejg   0.03026
gfz2011nejw  -2.38500
gfz2011nerb  -1.42440
gfz2011nfcz   0.13246
gfz2011nfgt  -2.44990
gfz2011nfih  -1.51100
gfz2011nftw  -0.42526
gfz2011nfww   0.65167
gfz2011nhby   0.54384
gfz2011nhhd   0.38761
gfz2011nhvt   2.41050
gfz2011nhwf   0.35346
gfz2011nifi   0.47608
gfz2011nijp   1.11240
gfz2011nilw  -0.17551
gfz2011niuw   0.41710
gfz2011nivw   0.36191
gfz2011nkou  -1.10680
gfz2011nlmf  -0.97614
gfz2011nlou   0.10045
gfz2011nlum   1.11690
gfz2011nlyw   1.34640
gfz2011nmdz  -0.15819
gfz2011nnda  -0.23860
gfz2011omxt  -0.12850
gfz2011oosp   0.09137
gfz2011oqjl   1.04480
gfz2011osuy   0.19319
gfz2011ovvj   0.05894
gfz2011owqa  -0.18151
gfz2011paqj   0.07593
gfz2011pbjh   1.54770
gfz2011pdgq   0.14933
gfz2011pdsn  -0.45763
gfz2011pfls  -0.02794
gfz2011pgzk   0.23451
gfz2011pimj  -0.21650
gfz2011pivq  -0.10323
gfz2011poug  -0.34464
gfz2011pphc   0.79464
gfz2011ppsc   0.17331
gfz2011pulu   0.22969
gfz2011pwbw  -0.06289
gfz2011qtoy  -0.90047
gfz2011qukj  -0.12422
gfz2011rbuo   0.24229
gfz2011rkau   0.26097
gfz2011rkzx  -0.03624
gfz2011rnny   0.17941
gfz2011rqut  -0.08768
gfz2012dbgt  -0.12201
gfz2012dcjd  -0.66925
gfz2012dejg  -1.12130
gfz2012dleg  -1.56970
gfz2012dnig  -0.87295
gfz2012dpem   1.23940
gfz2012dpnu  -1.04920
gfz2012dpwv  -1.03580
gfz2012dtdt  -1.06690
gfz2012dtlu  -0.41411
gfz2012dttl  -0.72493
gfz2012dtvr  -0.61077
gfz2012dugf   1.92140
gfz2012duwm  -1.71670
gfz2012dwwu  -1.02870
gfz2012dyck  -1.02070
gfz2012dysu  -0.21541
gfz2012dzen  -0.78363
gfz2012dzjo  -1.37960
gfz2012dzot  -0.82337
gfz2012eajr   1.16730
gfz2012ebff  -0.95408
gfz2012ebhf  -0.60535
gfz2012ebrr  -1.34590
gfz2012ekfp  -0.56530
gfz2012elek  -1.36710
gfz2012enio   0.02581
gfz2012evxn  -0.38171
gfz2012eyti  -1.21590
gfz2012fbgz  -0.96777
gfz2012fcyq  -1.08700
gfz2012fcyr  -1.07610
gfz2012fhaf  -0.68939
gfz2012fiiz  -0.35253
gfz2012fjiu  -0.59358
gfz2012foih  -0.94091
gfz2012fpyo  -0.28953
gfz2012ftcq   0.51451
gfz2012ftks   1.09310
gfz2012fyny  -1.04060
gfz2012fyop  -0.79313
gfz2012gbrs  -1.70010
gfz2012gczh  -0.78075
gfz2012gdye  -0.58725
gfz2012gftg  -0.01933
gfz2012ghiv  -1.10800
gfz2012gzuk  -0.19298
gfz2012hhlx  -1.09230
gfz2012hyqh   0.59745
gfz2012iblo   0.38646
gfz2012oehy   0.63468
gfz2012wgmg   1.26050
gfz2013fulo   0.01916
gfz2013fvyr   0.65111
gfz2013qigb   0.19101
gfz2013rtvy  -2.43770
gfz2013tcju  -3.25320
gfz2013uwjo   2.15680
gfz2013voai  -2.14880
gfz2013vwkh   0.16971
gfz2013yodm   0.85188
gfz2014brkk   1.88830
gfz2014epfm  -0.29222
gfz2014hyea   0.73838
gfz2014jayh  -3.16730
