# Nsamples: 242  MAD:  0.484  mean:  0.119  std:  0.700
gfz2010bkfi   0.07100
gfz2010bklj  -0.32606
gfz2010clbw   0.20837
gfz2010cllh   0.72418
gfz2010cngg   0.49707
gfz2010cnyi   1.96960
gfz2010dmij  -0.42834
gfz2010extu   0.56845
gfz2010fqnn  -0.42275
gfz2010hdgr   0.60316
gfz2010hdxn   0.46763
gfz2010hesh   0.00000
gfz2010pclq   0.04482
gfz2010pcya  -0.77739
gfz2010pgpo   0.22942
gfz2010pngv   1.51770
gfz2010pvnn  -0.08672
gfz2010qqqx   2.04330
gfz2010qrta  -0.23819
gfz2010qzvf  -3.69130
gfz2010rdip   0.53757
gfz2010rkuu   0.13655
gfz2010rljv   0.60435
gfz2010tmba   0.55037
gfz2010wigk   0.21623
gfz2010wwhf  -0.14707
gfz2010wwnq  -0.30159
gfz2010xcdd  -1.14310
gfz2010xnbn  -0.41853
gfz2010xpzq  -0.48276
gfz2010xvev   0.17654
gfz2010yczp  -0.07461
gfz2010yfdr   0.45874
gfz2010yhhj   0.07738
gfz2010ytzb   0.05636
gfz2010zhvj   0.60389
gfz2011ahvh  -0.41799
gfz2011amst   0.36729
gfz2011awsv   0.10786
gfz2011biin  -0.40317
gfz2011cfyy   0.03429
gfz2011chsa  -0.21728
gfz2011clwu  -0.21978
gfz2011cwzi   0.27896
gfz2011cxbw  -1.13590
gfz2011dhfg  -0.00944
gfz2011dmdv   0.58491
gfz2011dwae  -0.18827
gfz2011ekty  -0.47212
gfz2011emzr   0.25000
gfz2011exxq  -0.51546
gfz2011fnie   0.38321
gfz2011fnxz   0.04351
gfz2011fszl   0.36609
gfz2011fxmf   0.21557
gfz2011fzcw   2.69650
gfz2011gfer   0.13021
gfz2011ggnl  -0.65467
gfz2011glpg  -0.28048
gfz2011gpyr  -0.19244
gfz2011haaa   0.03979
gfz2011hatg  -0.45132
gfz2011hmnw   0.19751
gfz2011hqjs   0.06379
gfz2011hrgt   0.19058
gfz2011hyct   0.31524
gfz2011ifta  -0.07852
gfz2011iryz   0.04850
gfz2011mdyq   1.22350
gfz2011mjje   0.15904
gfz2011mllb  -0.07524
gfz2011mntq  -0.42366
gfz2011mzvn   0.98421
gfz2011nfcz   0.49310
gfz2011nfgt   0.84446
gfz2011nfww   0.81652
gfz2011nhby  -0.42884
gfz2011nnda  -0.00426
gfz2011nsiy   0.71950
gfz2011ntyd   0.78295
gfz2011nuqo   1.30730
gfz2011oadm  -0.34949
gfz2011oazk  -0.38071
gfz2011ofpj   0.01836
gfz2011ohgj  -0.74288
gfz2011omxt   0.08631
gfz2011ovvj   0.07895
gfz2011paqj   0.17113
gfz2011pdgq   0.10104
gfz2011pfls   0.19941
gfz2011pfwq  -0.56743
gfz2011prrq   0.82772
gfz2011ptgd   1.08090
gfz2011qklh   0.06631
gfz2011qlkj  -0.17790
gfz2011rbuo  -0.18981
gfz2011rkau  -0.56546
gfz2011rnsp  -0.65605
gfz2011rqut  -0.42874
gfz2011sdpl  -0.47711
gfz2011sfph  -1.84340
gfz2011sqco  -0.97789
gfz2011sskq   1.79800
gfz2011taqr   0.82588
gfz2011tdjj  -0.37241
gfz2011tqgg  -0.07940
gfz2011twpz   0.28842
gfz2011udxo   1.72010
gfz2011unud   0.84646
gfz2011vbxv   0.02149
gfz2011vimn   0.15839
gfz2011wgoa   0.69649
gfz2011wtfn   0.89819
gfz2011wwze  -0.53087
gfz2011wyei   1.49870
gfz2011xgwy  -0.00000
gfz2011xlod  -1.16440
gfz2011xnui  -0.12936
gfz2011xxng   0.19455
gfz2011yexx   0.34405
gfz2011ypfh   0.43911
gfz2011zgxn   0.38105
gfz2011zkbt   0.54628
gfz2012ahac  -0.62225
gfz2012ahkl   1.93550
gfz2012amjx   0.29823
gfz2012amvs   0.21709
gfz2012aqpa  -1.94760
gfz2012arlo   1.34920
gfz2012asld   1.22880
gfz2012atjr   0.28621
gfz2012bolx  -0.10583
gfz2012bovy  -0.06840
gfz2012byrq  -0.73854
gfz2012bysu  -2.85500
gfz2012byuk  -0.77877
gfz2012cdju   0.20553
gfz2012cntu   0.02569
gfz2012dejg   0.18682
gfz2012dgfk   0.60701
gfz2012dkdy   0.59233
gfz2012dleg   0.22054
gfz2012dnig   0.46167
gfz2012dpnu  -0.00000
gfz2012dtdt   0.20835
gfz2012dttl   0.30494
gfz2012duwm  -0.62239
gfz2012dwwu  -0.27111
gfz2012dysj   0.20118
gfz2012dysu  -0.27480
gfz2012ebff   0.62475
gfz2012ekro   0.72013
gfz2012gdye   0.24663
gfz2012gnow   0.37905
gfz2012hzhn   0.40516
gfz2012iphs   0.87582
gfz2012mpzo   0.66200
gfz2012mrqk  -0.60617
gfz2012mvgu  -0.03344
gfz2012ofnx  -1.02010
gfz2012pvve   0.04562
gfz2012syum  -0.27424
gfz2012tqjc   0.09933
gfz2012tyoz  -0.78286
gfz2012uovh  -0.32066
gfz2012uvea  -0.63050
gfz2012uvoa  -0.11008
gfz2012uzww  -0.16150
gfz2012vcqw   0.17607
gfz2012vgot  -0.10695
gfz2012vioy  -0.63409
gfz2012vitw   0.07499
gfz2012vkjw   0.16174
gfz2012vlzv  -0.18486
gfz2012vqjw   1.32200
gfz2012vqmq  -1.68530
gfz2012vrqz  -0.28683
gfz2012vurc  -0.20239
gfz2012wbeu   0.20802
gfz2012wgdv   0.08705
gfz2012wgmg  -0.82825
gfz2012wmas  -0.25823
gfz2012wowu   0.79064
gfz2012woxj   0.18610
gfz2012wpen  -0.74172
gfz2012wysg   0.08503
gfz2012xask   0.28674
gfz2012xcsf   0.66600
gfz2012xfnu   1.23540
gfz2012xkln   0.36240
gfz2012xlas  -0.60136
gfz2012xncm   0.38378
gfz2012xqxw   0.97332
gfz2012xrmq   0.15174
gfz2012xtvu  -0.00000
gfz2012xxdj   0.07280
gfz2012yegw   1.02680
gfz2012yvwc   0.35618
gfz2012ywei   0.46266
gfz2012yytb   1.74420
gfz2012zhyz   0.13374
gfz2012zido   0.90573
gfz2012zkhu   0.87352
gfz2012zmdf  -0.17519
gfz2012zqis   0.46277
gfz2013aclz  -0.42342
gfz2013aggr   0.69798
gfz2013agmt   0.02423
gfz2013akkd  -0.10108
gfz2013atak  -0.51291
gfz2013byyy   0.16319
gfz2013cfls  -0.10936
gfz2013cinv   0.57851
gfz2013cpjc   0.25433
gfz2013dftb   0.26925
gfz2013djfi   0.75814
gfz2013dmzh   0.16083
gfz2013dngd   0.31893
gfz2013dznt  -0.13296
gfz2013dzvr  -0.37017
gfz2013eazm  -0.07445
gfz2013efct   0.43321
gfz2013egfv   0.06773
gfz2013ewht   0.08459
gfz2013exow   0.44126
gfz2013fnpa   0.60768
gfz2013foto   0.13483
gfz2013fvht   0.32381
gfz2013fvyr  -0.22600
gfz2013fybd   0.09029
gfz2013gaqx   0.58470
gfz2013gbki   0.20071
gfz2013gjmk   0.33719
gfz2013gkcx   0.02545
gfz2013gkyn  -0.00000
gfz2013gugi   0.30533
gfz2013gurk  -0.06568
gfz2013gxye   0.92021
gfz2013havw   0.06824
gfz2013hbmi  -0.08140
gfz2013hbtm   0.35708
gfz2013hqaa   0.20444
