# Nsamples: 523  MAD:  0.705  mean:  0.070  std:  0.865
gfz2010inbs  -0.04772
gfz2010ioad  -0.23076
gfz2010ixjl   0.38082
gfz2010izag   0.77504
gfz2010jcby   0.11187
gfz2010jgwj   0.14940
gfz2010jkrp  -1.05720
gfz2010jpkn   0.69035
gfz2010juke   0.49414
gfz2010jvsi  -0.02224
gfz2010kcdq   1.01340
gfz2010kcyz   0.21898
gfz2010kwks  -0.40721
gfz2010ljol   1.36510
gfz2010lswe   2.36010
gfz2010mdti  -0.25578
gfz2010mjdl   0.80151
gfz2010mnoc  -0.74839
gfz2010mpvc   0.67280
gfz2010mqaj  -2.52940
gfz2010mqzz  -0.98893
gfz2010mwmd   3.01060
gfz2010myqg   0.21445
gfz2010mzfb  -1.57020
gfz2010nbcr  -0.24173
gfz2010ncwu  -0.63063
gfz2010ngge  -0.07759
gfz2010novb  -0.09405
gfz2010nteg   0.89627
gfz2010ocug  -3.41310
gfz2010oguu  -0.08123
gfz2010ojhe   0.09167
gfz2010okpc   1.62380
gfz2010onxm   0.65854
gfz2010osaq  -0.40425
gfz2010ouvm   1.69490
gfz2010ovvg   0.55701
gfz2010pclq  -0.36738
gfz2010pcya  -0.70991
gfz2010pgpo  -0.00630
gfz2010pgrf  -0.05226
gfz2010pngv  -2.12660
gfz2010pvnn  -0.19467
gfz2010pxoi   1.13500
gfz2010pzza  -0.39323
gfz2010qqqx   0.11787
gfz2010qrta   0.31577
gfz2010qykh   0.39493
gfz2010qylh   0.25349
gfz2010qzvf   1.17970
gfz2010rdip   0.04659
gfz2010rhvu   0.07536
gfz2010rkuu  -0.14102
gfz2010rljv   0.54659
gfz2010rmua  -0.49754
gfz2010rnqa  -1.94760
gfz2010rnwt  -0.16417
gfz2010rpjd  -1.45620
gfz2010schp  -0.09700
gfz2010scht   0.46352
gfz2010sdfs  -0.06711
gfz2010shvn  -0.33832
gfz2010swqy  -0.29444
gfz2010sylk   0.09877
gfz2010syqh   0.62312
gfz2010tmba   0.40949
gfz2010tvit   0.03179
gfz2010tzlz   1.02560
gfz2010tzma   0.43176
gfz2010uhjy   1.29420
gfz2010uidg   1.71140
gfz2010umxj   1.71130
gfz2010umyp   0.03532
gfz2010uopf  -0.48048
gfz2010uqba   1.37210
gfz2010uveo   1.07210
gfz2010uvpz  -1.11220
gfz2010vdcf   0.78687
gfz2010vfyu   0.76640
gfz2010vhzx   0.19751
gfz2010vong   1.08210
gfz2010wakc  -0.02162
gfz2010wplk   0.33828
gfz2010wwnq  -0.11968
gfz2010wyuj   0.66523
gfz2010xamh  -0.05681
gfz2010xaxw   0.02222
gfz2010xhqq  -0.73468
gfz2010xnbn  -0.86313
gfz2010xpzq   0.86368
gfz2010xvev  -0.09036
gfz2010xytc  -0.38760
gfz2010xzte  -0.42604
gfz2010yczp  -0.31098
gfz2010ygrd  -0.53349
gfz2010yhhj  -0.30233
gfz2010yspe   1.64270
gfz2010ytzb  -0.05672
gfz2010zhvj  -0.65951
gfz2010zjun   0.12109
gfz2011amst   0.91770
gfz2011awsv   0.11869
gfz2011bcvc   1.64170
gfz2011cjuz   1.28300
gfz2011clwu   0.24994
gfz2011cwhx  -0.28105
gfz2011cwsm  -0.43454
gfz2011cwzi  -0.15655
gfz2011cxbw   1.52530
gfz2011dabj  -0.10523
gfz2011dhfg  -0.04718
gfz2011dhqk   0.33494
gfz2011dmdv  -0.26320
gfz2011duvm   0.22418
gfz2011dwae  -0.41869
gfz2011edrq   0.49604
gfz2011fnuk  -0.25905
gfz2011fnxz  -0.02087
gfz2011inan  -0.02561
gfz2011ioch  -1.69260
gfz2011itcv  -0.25558
gfz2011ixpj   0.92090
gfz2011iybf   1.11480
gfz2011jdoz  -0.50379
gfz2011jeta   0.70181
gfz2011jfyb   0.45536
gfz2011jpob  -0.31957
gfz2011mdyq  -0.00451
gfz2011mjje   0.01358
gfz2011mllb  -0.26693
gfz2011mntq  -0.40523
gfz2011mrfm  -1.01730
gfz2011mror   0.72869
gfz2011mrpy  -0.10180
gfz2011mryu  -0.71554
gfz2011mzvn   0.21803
gfz2011nblt   0.58692
gfz2011ncyw  -0.38542
gfz2011ndki   0.35749
gfz2011ndlh   0.92861
gfz2011ndse   1.04350
gfz2011ndtp   2.50960
gfz2011ndvj  -1.07400
gfz2011neai   0.84722
gfz2011nejg   0.36300
gfz2011nerb   0.31593
gfz2011nfcz   0.10812
gfz2011nfgt   1.46560
gfz2011nfih   1.04960
gfz2011nfln   0.52387
gfz2011nftw   0.28366
gfz2011nfww   0.76258
gfz2011nhby   0.52547
gfz2011nhhd   0.44984
gfz2011nhjv   3.00180
gfz2011nhvt   3.08300
gfz2011nhwf   1.81410
gfz2011nihq  -0.26887
gfz2011nijp   0.64207
gfz2011nilw   0.05547
gfz2011nimp  -0.19956
gfz2011nioi   0.71874
gfz2011nisj  -0.76570
gfz2011niuw   0.84516
gfz2011nivw  -0.04632
gfz2011nkda  -0.91759
gfz2011nlmf   0.55709
gfz2011nlou   0.26262
gfz2011nlum   1.12840
gfz2011nlyw   0.11467
gfz2011nmdz  -0.20336
gfz2011nmhg  -0.76876
gfz2011nnda  -0.62435
gfz2011nsiy   1.34070
gfz2011nsrx   0.11508
gfz2011nswi   0.06005
gfz2011nsyi   0.45332
gfz2011ntyd   0.32947
gfz2011nuqo   1.79410
gfz2011nvty  -0.21308
gfz2011nyzk   1.19030
gfz2011oazk  -0.46214
gfz2011ocif   0.32812
gfz2011oekz   2.12630
gfz2011oesd   0.21680
gfz2011ohgj  -0.73204
gfz2011okza   0.88664
gfz2011omxt  -0.17974
gfz2011oosp   0.11024
gfz2011oqjl   0.61154
gfz2011osuy  -0.18293
gfz2011ovvj   0.07962
gfz2011owqa   0.09046
gfz2011paqj  -0.39225
gfz2011pbgh  -0.14206
gfz2011pbjh   0.42296
gfz2011pcqr   1.46140
gfz2011pdsn  -0.87278
gfz2011pfls  -0.07654
gfz2011pfwq  -0.10551
gfz2011pimj   0.17657
gfz2011pivq   0.08428
gfz2011plzc   1.07040
gfz2011pmuv   0.12714
gfz2011poug  -0.69571
gfz2011ppsc   0.02149
gfz2011prrq  -0.11633
gfz2011pwbw  -0.05393
gfz2011qenl   0.16365
gfz2011qgea  -0.60278
gfz2011qgvh  -0.14829
gfz2011qgvx  -0.26309
gfz2011qidi  -0.84867
gfz2011qlkj  -0.46380
gfz2011qtoy   2.48610
gfz2011qukj  -0.27357
gfz2011rbuo   0.12939
gfz2011rkau  -0.04800
gfz2011rkzx  -0.36930
gfz2011rnny   0.08547
gfz2011rnsp   0.26730
gfz2011rpoo  -0.58122
gfz2011sdax   0.80216
gfz2011sqco   0.01655
gfz2011tvuv  -0.23018
gfz2011twpz   0.46254
gfz2011txdb   0.06576
gfz2011tzcv  -0.62200
gfz2011udxo   0.36215
gfz2011ugbt   1.34060
gfz2011urwz   0.11438
gfz2011uvsi   0.53093
gfz2011vahy   0.02807
gfz2011vbxv   0.64702
gfz2011vsag   1.03930
gfz2011vtzv   0.68254
gfz2011wfsk   1.22820
gfz2011wgoa   0.92303
gfz2011wkja   0.45647
gfz2011wnjg   1.96490
gfz2011wpzt   0.05760
gfz2011wtfn   0.82230
gfz2011wucg   0.23272
gfz2011wwze   0.39775
gfz2011wyei   1.21790
gfz2011wzss   0.51370
gfz2011xgwy  -0.04430
gfz2011xkka   0.03452
gfz2011xlod  -1.18430
gfz2011xnui   0.43186
gfz2011yexx   0.18916
gfz2011yjtx   0.55481
gfz2011ykbd  -0.14778
gfz2011ypfh   0.16973
gfz2011yrfa   0.35186
gfz2011ytob  -1.20650
gfz2011ywtj   0.24059
gfz2011zkbt   0.23097
gfz2011znyq   0.07118
gfz2012ahac   0.55427
gfz2012aisj   0.68593
gfz2012amjx   0.56766
gfz2012aqpa  -0.42720
gfz2012arlo   1.14340
gfz2012atjr   0.82750
gfz2012bcvn   1.09040
gfz2012beae   0.41971
gfz2012bity   0.00000
gfz2012bovy   0.57983
gfz2012bysu  -0.94832
gfz2012bytv  -0.28629
gfz2012byuk   0.51744
gfz2012cdju   0.53685
gfz2012cksh   0.92320
gfz2012cvfr  -1.03510
gfz2012dbgt   0.52506
gfz2012dcjd  -0.22110
gfz2012dejg  -1.15450
gfz2012dgfk  -0.64591
gfz2012dleg   0.56148
gfz2012dnig  -0.24449
gfz2012dtlu  -0.49184
gfz2012dtvr   0.05530
gfz2012duvf  -2.09440
gfz2012duwm  -0.76059
gfz2012dwwu  -1.04250
gfz2012dyck  -0.79325
gfz2012dysj   0.97860
gfz2012dysu   0.51465
gfz2012dyua  -0.08990
gfz2012dzen   0.00000
gfz2012dzjo   0.37137
gfz2012dzoh   2.55500
gfz2012dzot   0.12706
gfz2012ebff  -0.53067
gfz2012ebhf  -0.86287
gfz2012ebrr  -0.95311
gfz2012ekro   0.19890
gfz2012emin  -1.27210
gfz2012enio  -0.52789
gfz2012erds  -1.21430
gfz2012evxn  -0.37973
gfz2012eyti  -0.85198
gfz2012facv   1.46300
gfz2012fcyq  -0.97080
gfz2012fcyr  -0.96302
gfz2012fhaf  -0.46537
gfz2012fjiu  -1.04820
gfz2012foih  -0.90211
gfz2012fpyo   0.18185
gfz2012ftcq   2.16330
gfz2012ftks  -0.53189
gfz2012fyny  -0.94279
gfz2012fyop  -0.49800
gfz2012gczh   0.43823
gfz2012gdye  -0.74518
gfz2012ghiv  -1.04120
gfz2012ghyd  -0.70727
gfz2012gjdg  -1.36980
gfz2012gnow  -0.83330
gfz2012gpcd  -0.88929
gfz2012gubu   0.17145
gfz2012gzuk   0.22698
gfz2012hhlx  -0.99434
gfz2012hkxs  -0.52124
gfz2012hvjc  -0.41123
gfz2012hvtu  -1.73950
gfz2012hwph  -0.15816
gfz2012hyqh  -1.22760
gfz2012hzai  -0.09434
gfz2012hzhn  -0.42007
gfz2012hzur  -1.07900
gfz2012iabn  -0.88974
gfz2012iblc  -0.48654
gfz2012iblo  -0.35244
gfz2012ibyd  -1.41570
gfz2012icjo  -0.92897
gfz2012iedy  -1.44330
gfz2012ikke  -2.75620
gfz2012imsm  -2.32140
gfz2012imuo  -1.74900
gfz2012inns  -0.67437
gfz2012ipdc  -1.02290
gfz2012iphs   0.07770
gfz2012iroy  -1.69200
gfz2012ivyg  -1.18890
gfz2012iyhs  -1.47750
gfz2012jaun  -1.84210
gfz2012jetp  -1.09670
gfz2012jihg   0.09231
gfz2012jjxm  -0.62820
gfz2012jlez  -1.42980
gfz2012jodg  -0.58901
gfz2012jopi  -0.73610
gfz2012jxnm  -0.25424
gfz2012kbub  -1.09120
gfz2012klpl  -0.25579
gfz2012kmbo  -1.50370
gfz2012kmmz  -1.01880
gfz2012kstg  -0.82749
gfz2012kwmx  -1.19140
gfz2012lcca  -1.01120
gfz2012lcro   0.18667
gfz2012ldjj  -1.42910
gfz2012lops  -0.22239
gfz2012lqhw  -0.95691
gfz2012luzm  -0.16755
gfz2012mcrb  -1.26840
gfz2012mdzf  -1.46130
gfz2012mmiw  -0.88251
gfz2012mowv  -0.78238
gfz2012mpzo  -0.59201
gfz2012mrqk  -0.65418
gfz2012mrwu  -0.54610
gfz2012mtyn  -1.21160
gfz2012mvgu  -0.45529
gfz2012mwhe   0.35659
gfz2012mzco   0.52442
gfz2012ndwt  -0.42652
gfz2012nldz  -0.31684
gfz2012nlrb  -0.10784
gfz2012nnqu  -0.12628
gfz2012nqvd  -0.51558
gfz2012nsxc  -0.05069
gfz2012oafg   0.33349
gfz2012oehy   0.33520
gfz2012ofaj  -0.21844
gfz2012onhu   0.01516
gfz2012oork  -0.58782
gfz2012pdjt   0.48192
gfz2012phns   0.35824
gfz2012pmuj   1.04980
gfz2012pmws   0.81876
gfz2012pokk  -0.03970
gfz2012pryl   0.13523
gfz2012pvve   0.11355
gfz2012qfah   0.26569
gfz2012qfov   0.93121
gfz2012qhqp   0.88424
gfz2012qibe   1.85140
gfz2012qllj  -0.33385
gfz2012qmhz   1.80550
gfz2012qmxz   0.04404
gfz2012qoev   0.73576
gfz2012qpoc   0.92413
gfz2012qvwy  -2.82100
gfz2012rduv   0.22158
gfz2012rfhw   0.51520
gfz2012rjlp  -0.94418
gfz2012rslf  -0.59224
gfz2012sxbo   0.84279
gfz2012sxzs   0.45329
gfz2012syum   0.86093
gfz2012tfij   0.56343
gfz2012thyh   0.55606
gfz2012tisj   0.11726
gfz2012tjih   1.16980
gfz2012tqjc   1.55680
gfz2012trfq   0.18660
gfz2012tvgw  -0.27657
gfz2012tyoz  -0.15913
gfz2012udxg  -0.14639
gfz2012uegq   1.53690
gfz2012uhsx   0.10842
gfz2012ulei   1.40810
gfz2012umob   0.28310
gfz2012uovh   0.19382
gfz2012urtu  -0.24052
gfz2012utdu   1.05200
gfz2012uvea  -0.18917
gfz2012uvoa  -0.14988
gfz2012uzww  -0.14860
gfz2012vcqw   0.67192
gfz2012vgot   0.49920
gfz2012vile   0.94337
gfz2012vioy  -0.61988
gfz2012vitw   0.10274
gfz2012vkjw   0.53124
gfz2012vqjw   0.05685
gfz2012vqmq   0.45477
gfz2012vrqz  -0.18014
gfz2012wbeu  -0.11033
gfz2012wgmg  -0.73139
gfz2012wjpf   0.94402
gfz2012wmas  -0.04371
gfz2012wowu   1.50170
gfz2012woxj   0.57772
gfz2012wysg   0.21826
gfz2012wzja  -1.09490
gfz2012xfnu   0.62432
gfz2012xkln  -0.01203
gfz2012xlas   0.54972
gfz2012xlfo  -0.59515
gfz2012xmwt   0.10579
gfz2012xncm   0.74682
gfz2012xqxw   0.58206
gfz2012xrmq   0.34539
gfz2012xtvu   0.56171
gfz2012xxdj   0.17453
gfz2012ylai   0.20718
gfz2012yncm  -0.94059
gfz2012yygz   0.84203
gfz2012yytb   0.02832
gfz2012zhyz   0.32264
gfz2012zido   0.71634
gfz2012zmdf  -2.19310
gfz2012zmfc   0.66591
gfz2012znou   3.05010
gfz2013aclz  -0.19725
gfz2013aggr   0.76140
gfz2013akkd   0.37841
gfz2013atak  -0.21941
gfz2013bqfc   0.00000
gfz2013bwgw   0.07641
gfz2013byyy   0.08523
gfz2013bzwa   1.42250
gfz2013cfls  -0.07385
gfz2013cinv   0.50002
gfz2013ciof  -0.96956
gfz2013cpjc   0.52822
gfz2013delq   0.69242
gfz2013dftb   0.46847
gfz2013dfvx   0.31912
gfz2013djfi   0.08336
gfz2013dmzh  -0.19104
gfz2013dngd   1.46870
gfz2013dvub   0.00000
gfz2013dwsp   2.56160
gfz2013dznt   0.57352
gfz2013dzvr  -0.67153
gfz2013efct   0.33543
gfz2013egfv  -0.68644
gfz2013eidd   0.10488
gfz2013ektd  -0.04647
gfz2013enqo   0.39493
gfz2013esef   0.61676
gfz2013exow  -0.06352
gfz2013fnpa   0.32787
gfz2013foto   0.19452
gfz2013fulo   0.03975
gfz2013fvht   0.24044
gfz2013fvyr  -0.32116
gfz2013fxyr  -0.16945
gfz2013fybd   0.35812
gfz2013gaqx   1.44930
gfz2013gjmk   0.00000
gfz2013gkcx  -0.18972
gfz2013gkyn   0.05951
gfz2013glkq   0.52581
gfz2013gomv  -0.05188
gfz2013grle   0.94073
gfz2013gsnl  -0.14700
gfz2013gugi   0.26207
gfz2013gurk   0.18659
gfz2013gxye   0.74430
gfz2013gywl   0.58122
gfz2013hbmi   0.41508
gfz2013hbtm   0.34515
gfz2013hiam   0.93895
gfz2013hjtt   0.17833
gfz2013hqaa   0.24750
gfz2013hvzv   0.68748
gfz2013hwps   0.11248
