# Nsamples: 344  MAD:  0.603  mean: -0.022  std:  1.083
gfz2010dumv   0.88052
gfz2010faly   0.24984
gfz2010fjme  -1.28010
gfz2010fkff   0.36335
gfz2010gonu   1.75570
gfz2010habf  -0.47292
gfz2010hueh   1.09130
gfz2010iaay   0.85188
gfz2010iawy   1.50610
gfz2010izag   0.06119
gfz2010jgwj  -1.06950
gfz2010jlvp  -0.26719
gfz2010jpkn   0.13263
gfz2010jvsi  -0.08484
gfz2010mdti  -0.25010
gfz2010mpvc   0.58753
gfz2010mqaj   3.90950
gfz2010ngge  -0.12939
gfz2010nwbd  -0.09435
gfz2010okpc   2.33170
gfz2010ouvm   1.05210
gfz2010pclq  -0.60084
gfz2010pcya   5.64440
gfz2010pgpo  -0.25410
gfz2010pzza  -1.18510
gfz2010qdqk   1.38850
gfz2010qrta  -0.28076
gfz2010rhvu   0.48130
gfz2010rkuu  -0.61830
gfz2010rljv   0.87650
gfz2010rmua  -0.42239
gfz2010rnwt  -0.44460
gfz2010rpjd   1.19870
gfz2010schp  -0.25660
gfz2010scht  -0.78679
gfz2010sdfs  -0.08157
gfz2010swqy  -0.89012
gfz2010tcgh   1.68400
gfz2010tmba  -0.62096
gfz2010tpcj  -0.43956
gfz2010tzlz   0.03011
gfz2010tzma   0.41884
gfz2010ugws   0.95733
gfz2010uhjy  -0.13528
gfz2010umyp  -1.42050
gfz2010uogw   0.97034
gfz2010vong  -0.13550
gfz2010wakc  -0.12141
gfz2010xamh  -0.45991
gfz2010xaxw   0.29807
gfz2010xjsv   1.03910
gfz2010xkbz   0.59151
gfz2010xkku   1.69390
gfz2010xnbn  -0.93239
gfz2010xpzq   1.06550
gfz2010xvev   0.34917
gfz2010yczp  -0.63065
gfz2010yfdr  -0.14387
gfz2010yhdn  -0.60043
gfz2010zjun  -0.69133
gfz2010zkle   3.22410
gfz2011ahvh  -0.68901
gfz2011amst   1.20850
gfz2011awsv  -0.54735
gfz2011bpqm  -0.75115
gfz2011bygs  -0.53167
gfz2011bygu  -0.46108
gfz2011bzio   0.57947
gfz2011cdge  -0.11366
gfz2011chsa  -0.48872
gfz2011cjuz  -0.19674
gfz2011dabj  -0.76942
gfz2011dhfg  -0.97261
gfz2011dpyu  -1.17770
gfz2011duvm  -0.11404
gfz2011exxq  -0.74363
gfz2011fbsl  -0.30614
gfz2011fnie   0.19748
gfz2011fnuk  -0.35573
gfz2011fszl   0.15100
gfz2011fzcw   3.61340
gfz2011gfer  -0.22980
gfz2011ggnl   0.22731
gfz2011gnbk  -0.33110
gfz2011gpyr  -0.07130
gfz2011haaa  -0.56849
gfz2011hatg  -0.63686
gfz2011hibi   6.24110
gfz2011hjof   0.03379
gfz2011hmnw   0.05423
gfz2011hqjs  -0.44998
gfz2011hrgt  -0.18614
gfz2011hvzo   0.43050
gfz2011hyct   0.22897
gfz2011iamf   0.28206
gfz2011iryz  -0.55995
gfz2011ituo   0.96255
gfz2011jdoz   1.54790
gfz2011jryv  -0.19265
gfz2011kjzt   1.07300
gfz2011kylu   0.63914
gfz2011kymm   1.53170
gfz2011kyzy   0.59146
gfz2011lmug  -0.58051
gfz2011lwmg  -0.27474
gfz2011mdyq  -0.04690
gfz2011mjje  -0.73651
gfz2011mllb  -0.68422
gfz2011mror  -0.73992
gfz2011nblt   3.89040
gfz2011ndhh  -0.37743
gfz2011neai  -1.54150
gfz2011nfgt  -0.17879
gfz2011nhvt   1.08180
gfz2011nhwf   0.66160
gfz2011nijp  -1.57510
gfz2011nimp  -1.69050
gfz2011niuw   1.11740
gfz2011nlou   6.90960
gfz2011nnda  -0.14291
gfz2011nsiy   0.04478
gfz2011nuqo   0.12950
gfz2011oadm  -1.09750
gfz2011ofpj  -0.70837
gfz2011ohgj  -1.07110
gfz2011omxt  -0.62507
gfz2011oslk  -0.77734
gfz2011owqa  -0.48255
gfz2011paqj  -0.62741
gfz2011pivq   0.57115
gfz2011pmuv  -0.84067
gfz2011poug   1.04250
gfz2011ppsc  -0.33284
gfz2011prrq  -1.44150
gfz2011pwbw  -0.61000
gfz2011qenl   0.08625
gfz2011qgea  -0.07164
gfz2011qgvh  -0.30370
gfz2011qukj   1.54770
gfz2011rkau   0.00000
gfz2011rnny  -0.91869
gfz2011rqut  -1.13890
gfz2011sdax  -0.47937
gfz2011sdpl   1.02810
gfz2011sqco  -0.99129
gfz2011sskq   0.03686
gfz2011tqgg   1.48410
gfz2011tsgl  -0.46576
gfz2011uqry  -0.51444
gfz2011vahy  -0.53328
gfz2011vtzv  -0.88584
gfz2011wcvs  -0.61804
gfz2011wucg  -0.50213
gfz2011xgbc  -0.61121
gfz2011zghc  -0.46755
gfz2011zgxn  -0.04174
gfz2011zkbt  -1.16680
gfz2012aqpa  -0.54802
gfz2012bovy  -0.83711
gfz2012bqcf  -1.03770
gfz2012cdju  -0.15225
gfz2012cntu  -0.77483
gfz2012cvfr  -0.13440
gfz2012dejg  -0.34306
gfz2012dpnu   0.40183
gfz2012dtdt  -0.19051
gfz2012ebrr   0.00535
gfz2012ekfp   0.13091
gfz2012elek   0.13861
gfz2012erds  -0.39030
gfz2012fcyq   0.48851
gfz2012fcyr   0.46791
gfz2012fyny  -0.13733
gfz2012ghiv  -0.73105
gfz2012gjdg  -0.20098
gfz2012hdny  -0.89941
gfz2012hzhn  -1.19080
gfz2012iblo  -0.69096
gfz2012ibyd   0.54728
gfz2012icjo   0.50807
gfz2012iijk   0.37004
gfz2012iotw   0.41698
gfz2012iphs  -0.35090
gfz2012kmbo  -0.51858
gfz2012kstg  -0.32868
gfz2012lqhw  -0.31134
gfz2012lwha   0.23679
gfz2012lyyr  -0.44809
gfz2012mdzf  -0.40419
gfz2012mekv   1.59080
gfz2012ndwt  -1.54910
gfz2012nmja  -0.36643
gfz2012nnqu   0.56469
gfz2012nqvd  -0.77671
gfz2012oafg  -0.40890
gfz2012oehy  -0.25255
gfz2012onhu  -2.04140
gfz2012qfah   0.66646
gfz2012qmhz   0.92472
gfz2012rzwp  -0.21677
gfz2012smyn  -0.57230
gfz2012socz  -0.96266
gfz2012sqsc  -0.22428
gfz2012ssnb   4.81990
gfz2012suqd   0.66541
gfz2012svwz  -0.18687
gfz2012sxbo  -0.34457
gfz2012tisj  -0.01951
gfz2012uhtc   0.66498
gfz2012uvoa  -0.64413
gfz2012uzww  -0.78019
gfz2012vrqz  -1.93560
gfz2012vurc  -0.52876
gfz2012wgdv   0.41801
gfz2012wgmg  -1.05340
gfz2012wowu   1.49230
gfz2012xcsf  -0.93310
gfz2012xkln  -0.39302
gfz2012xlfo  -0.07747
gfz2012xncm   0.31751
gfz2012xrmq   0.09348
gfz2012xtvu  -0.36307
gfz2012xxdj  -0.31544
gfz2012zhyz  -0.52185
gfz2012zido   1.20740
gfz2012zmfc   2.39220
gfz2013bwgw  -0.73002
gfz2013byyy  -0.08345
gfz2013cinv  -0.50627
gfz2013cvve   1.67240
gfz2013cyvx  -0.28074
gfz2013delq   0.22742
gfz2013dftb  -0.12315
gfz2013djfi  -0.04034
gfz2013efct  -0.32582
gfz2013eidd  -0.67125
gfz2013enqo   0.63258
gfz2013fnpa   0.63892
gfz2013fulo   0.92485
gfz2013fvht   0.15344
gfz2013fvyr  -0.27276
gfz2013gkyn   0.53413
gfz2013gxye  -0.35725
gfz2013hqaa  -0.34960
gfz2013hwps  -0.33775
gfz2013icql  -1.08150
gfz2013irme  -0.04916
gfz2013iuyv   0.84571
gfz2013jfcn   0.38140
gfz2013jlli  -0.35091
gfz2013jobl  -0.55016
gfz2013kats  -0.48167
gfz2013kbbg  -0.53423
gfz2013kbbn  -0.27560
gfz2013kcdb   0.41201
gfz2013kdfy   0.62657
gfz2013kjgh  -0.05810
gfz2013kpcb  -0.30733
gfz2013kqab  -0.70463
gfz2013kruh   0.27476
gfz2013kslp  -0.50693
gfz2013kxlr  -0.52393
gfz2013lbvl  -0.55981
gfz2013lcrk  -0.33184
gfz2013ljdu  -0.82515
gfz2013mzaw   0.48451
gfz2013oeni  -0.35711
gfz2013oizq  -2.09500
gfz2013orot  -0.31044
gfz2013osmj   2.10390
gfz2013oywh  -0.11290
gfz2013phhi   1.14560
gfz2013pkmz  -0.88758
gfz2013pqkp  -0.31560
gfz2013qdks   0.04670
gfz2013qigb  -0.36615
gfz2013qoak  -0.65444
gfz2013qogb  -0.22854
gfz2013quwz   0.15290
gfz2013quyn  -0.42457
gfz2013rhxf   0.38283
gfz2013rwkj  -0.83717
gfz2013syqp  -0.40030
gfz2013syqv   0.64945
gfz2013tdsx   0.11246
gfz2013ubgt  -0.44782
gfz2013udtw  -0.26959
gfz2013upqj   2.84910
gfz2013utqa   0.56762
gfz2013uxzw  -0.00000
gfz2013vcgd  -1.19680
gfz2013veug  -0.10965
gfz2013vmrv   0.62375
gfz2013vmsg   1.39470
gfz2013vnwa   0.87399
gfz2013vojy   0.49558
gfz2013vsdd   0.64965
gfz2013vvre  -0.15818
gfz2013wyfl   0.02556
gfz2013xahp  -0.35418
gfz2013xmzw   0.22437
gfz2013xofz   1.44840
gfz2013yodm  -0.70221
gfz2013yqtu   0.01416
gfz2013yxhf  -0.03515
gfz2013zfbz  -0.03045
gfz2013zlak   0.73524
gfz2014aqop  -1.47610
gfz2014bdju  -1.13870
gfz2014bkra  -0.80210
gfz2014bqpm  -1.15230
gfz2014bzus  -0.55914
gfz2014cgxj  -2.01480
gfz2014cokw  -0.38370
gfz2014dihl  -0.00751
gfz2014djhi  -0.61943
gfz2014dtth  -0.38099
gfz2014ecor  -0.28872
gfz2014eoay  -0.51758
gfz2014etgp  -2.02620
gfz2014fdhk  -1.93570
gfz2014fsir  -0.73789
gfz2014fsje  -0.37834
gfz2014fwxt  -0.11811
gfz2014fxte  -0.25885
gfz2014gnbw  -0.03692
gfz2014gnvp  -0.59613
gfz2014gssz  -0.15278
gfz2014hkcw   0.01048
gfz2014huah  -0.13902
gfz2014huqh   0.35954
gfz2014hyea  -0.58780
gfz2014hzzf  -0.69436
gfz2014icov  -0.90270
gfz2014igrp   0.22896
gfz2014iltl  -0.41965
gfz2014ined   0.13272
gfz2014ipwk  -0.85397
gfz2014irlf  -1.10080
gfz2014irln  -0.97643
gfz2014iusw  -0.66490
gfz2014ixlc  -1.51480
gfz2014jarg  -0.44896
gfz2014jayh  -0.38407
