# Nsamples: 415  MAD:  0.663  mean: -0.011  std:  1.117
gfz2010cwrk   1.14440
gfz2010dmkd  -0.65474
gfz2010drit  -0.47163
gfz2010drun   0.26908
gfz2010faly   0.50454
gfz2010fgbo   0.89061
gfz2010fopf  -1.23200
gfz2010fxut  -1.13700
gfz2010gonu   0.47953
gfz2010gooc   0.20812
gfz2010gpjl   1.46830
gfz2010habf  -1.44530
gfz2010hesh   0.72561
gfz2010hllp  -0.19206
gfz2010hnuo   0.17366
gfz2010hueh  -0.39730
gfz2010huzl   0.74522
gfz2010hxan   0.15488
gfz2010iaay  -0.34572
gfz2010iawy   0.10035
gfz2010ioad   0.30739
gfz2010jlvp  -0.44909
gfz2010kcyz   0.60356
gfz2010kzzm   4.87110
gfz2010mqzz   0.44635
gfz2010ngge   0.55563
gfz2010novb   1.69890
gfz2010nwbd   0.92105
gfz2010nwyk  -0.41933
gfz2010okpc  -1.43550
gfz2010pgpo   0.44169
gfz2010qrta  -0.17029
gfz2010qzvf   0.47877
gfz2010rhvu  -1.08850
gfz2010rnwt  -0.81891
gfz2010sook  -3.68930
gfz2010tpcj  -0.24766
gfz2010tvit   0.17643
gfz2010tzlz   0.04748
gfz2010tzma  -0.16943
gfz2010ugws  -0.15724
gfz2010uhjy   0.51885
gfz2010upod   0.38757
gfz2010uraq   1.00210
gfz2010ussf   0.33637
gfz2010uyng   0.38510
gfz2010vhzx   0.55564
gfz2010vjac  -0.26974
gfz2010vong  -0.43415
gfz2010vyri   1.11950
gfz2010wakc   0.29944
gfz2010wtin   0.71005
gfz2010wwnq   0.39237
gfz2010xezr   0.31383
gfz2010xjsv   0.42523
gfz2010xkbz  -0.02197
gfz2010xnbn  -1.32780
gfz2010xpzq  -0.66036
gfz2010yczp   0.07979
gfz2010yfdr  -0.35886
gfz2010yhhj  -0.60034
gfz2010yrex   0.67731
gfz2010zaxv  -0.21951
gfz2010zjun  -0.50976
gfz2010zkle  -1.51930
gfz2011amst  -0.08244
gfz2011bqbx  -1.36070
gfz2011bsvr  -0.42495
gfz2011bvog  -0.38516
gfz2011bwsm  -0.31290
gfz2011byec   0.38449
gfz2011bygs  -0.76038
gfz2011bygu  -0.68711
gfz2011cdge  -0.94744
gfz2011cjuz  -0.49216
gfz2011cwzi   0.39308
gfz2011dabj  -0.10878
gfz2011duvm  -0.35475
gfz2011dwae   0.14884
gfz2011dzmf  -0.04787
gfz2011fnie  -0.65195
gfz2011fszl   0.03916
gfz2011fyfu   0.54032
gfz2011fzcw   0.61654
gfz2011gaax   0.00548
gfz2011gcct   0.20113
gfz2011ggnl  -0.96787
gfz2011ggsz   2.21540
gfz2011gkdx   0.60101
gfz2011gpyr  -0.08662
gfz2011gzde   0.30689
gfz2011haaa   0.82463
gfz2011hibi  -0.79374
gfz2011hjof  -0.30366
gfz2011hmnw   0.68846
gfz2011hyct  -0.01761
gfz2011hyuh  -0.24661
gfz2011iamf   0.43036
gfz2011inan   0.11221
gfz2011ioch  -0.25946
gfz2011iryz   0.47205
gfz2011ituo  -0.19408
gfz2011jphj   0.23205
gfz2011jrgh   0.81708
gfz2011kjzt   0.34744
gfz2011kmge   0.12990
gfz2011kylu  -0.03860
gfz2011lkkf  -0.62436
gfz2011lykm   2.88680
gfz2011mdyq  -0.18884
gfz2011mllb   0.43980
gfz2011nblt   0.56448
gfz2011ndki  -0.80071
gfz2011neai   1.05600
gfz2011nejg  -0.15786
gfz2011nejw  -2.67980
gfz2011nftw   1.01290
gfz2011nfww   0.58672
gfz2011nhvt  -1.57090
gfz2011nhwf   0.09199
gfz2011niuw  -1.04400
gfz2011nivw   0.61208
gfz2011nkou   1.11740
gfz2011nlnl   0.74219
gfz2011nlum  -0.06799
gfz2011nnda   5.69530
gfz2011nnos  -0.64936
gfz2011nsiy  -0.68980
gfz2011nsrx   0.82621
gfz2011nuqo  -1.03760
gfz2011nyzk   0.36055
gfz2011oadm   0.30052
gfz2011ofpj   1.45660
gfz2011osmp  -0.07537
gfz2011owqa   0.05667
gfz2011pcqr  -4.14350
gfz2011pdsn   0.61990
gfz2011pmuv   0.02052
gfz2011pphc  -0.17552
gfz2011pwbw   0.34390
gfz2011pwld   1.01030
gfz2011qenl  -0.63066
gfz2011qklh  -0.35102
gfz2011xwdv   0.46423
gfz2011yexx   1.51750
gfz2011ykbd  -0.47933
gfz2011ymji  -2.70380
gfz2011ytwk  -1.19980
gfz2011zghc  -0.20011
gfz2011zgxn   0.25407
gfz2011ziyk   1.33960
gfz2011zkbt  -0.13148
gfz2011znyq  -0.10164
gfz2012ahkl   1.44430
gfz2012amjx  -0.29082
gfz2012arlo   0.60048
gfz2012asin   4.43420
gfz2012avvc   0.61253
gfz2012beae  -0.00000
gfz2012bolx  -0.12143
gfz2012byrq  -1.12990
gfz2012bysu   0.42768
gfz2012bytv  -0.07623
gfz2012byuk   0.04695
gfz2012cdju   0.81541
gfz2012cfdw   0.53501
gfz2012cksh   0.29437
gfz2012cmww  -0.38956
gfz2012cntu   0.22730
gfz2012dejg   0.60446
gfz2012dleg   0.17169
gfz2012dpem   0.18630
gfz2012drld  -1.51920
gfz2012dtdt   0.48360
gfz2012dtlu  -0.42514
gfz2012dugf   0.44608
gfz2012duwm   0.34550
gfz2012dwwu   0.94363
gfz2012dzot  -0.48097
gfz2012ebrr   1.85560
gfz2012eeft  -8.97020
gfz2012enrg  -1.11220
gfz2012eyti  -0.22857
gfz2012fcyq   0.69167
gfz2012fcyr   0.67768
gfz2012fhaf   0.03822
gfz2012fjiu   6.14310
gfz2012foih   0.73330
gfz2012fyny   0.54196
gfz2012ghiv   0.48932
gfz2012gjdg   0.97405
gfz2012gjtd  -3.00610
gfz2012gvxc   0.21048
gfz2012heih  -0.07865
gfz2012hzur  -1.14980
gfz2012iijk  -0.26653
gfz2012iroy   1.24590
gfz2012iyoi   0.09652
gfz2012jlez  -0.00588
gfz2012jopi   2.61380
gfz2012kmbo  -0.36816
gfz2012kmmz  -0.75460
gfz2012kstg   0.71820
gfz2012kyhj   1.96710
gfz2012ldjj  -0.38581
gfz2012lqhw  -0.05284
gfz2012lvlr   0.13638
gfz2012lvxx  -0.70188
gfz2012lwha   0.06307
gfz2012mjuu  -0.19404
gfz2012moul  -3.77360
gfz2012movu  -0.00000
gfz2012mowv   0.22331
gfz2012mrqk   0.38496
gfz2012mrwu   0.29259
gfz2012mwhe   0.43478
gfz2012mxvk   0.88493
gfz2012mzco  -0.37578
gfz2012nldz  -1.54080
gfz2012nnqu  -0.15022
gfz2012nqvd  -0.38265
gfz2012nsxc   0.36492
gfz2012oehy  -0.24255
gfz2012ogqu  -0.71104
gfz2012onfs  -0.14194
gfz2012oork  -0.40152
gfz2012oozp  -0.68703
gfz2012pcui   0.56906
gfz2012pdav   0.69170
gfz2012pdfi   1.91230
gfz2012phns  -0.48357
gfz2012pifb  -0.01762
gfz2012pmuj   0.05770
gfz2012pziw  -0.14005
gfz2012qbbt  -0.53768
gfz2012qfah   1.33500
gfz2012qfov  -0.61966
gfz2012qibe  -0.72611
gfz2012qmhz  -0.68684
gfz2012qpoc  -0.08502
gfz2012qvwy  -0.11551
gfz2012rjlp  -0.61889
gfz2012rknz  -0.36869
gfz2012rnbw   1.17900
gfz2012rnml  -0.15661
gfz2012rzwp   1.31000
gfz2012sbix   0.25369
gfz2012scuk   0.13716
gfz2012sgfd  -1.00250
gfz2012socz  -0.42233
gfz2012sqsc  -0.02923
gfz2012ssnb   3.92230
gfz2012suqd  -0.71689
gfz2012svwz  -0.54547
gfz2012syum  -0.07537
gfz2012tisj  -1.01240
gfz2012tjih  -0.81869
gfz2012tsdz   0.03976
gfz2012uegq   0.50671
gfz2012uhtc  -0.07329
gfz2012ukzg  -0.69869
gfz2012ulei  -1.10900
gfz2012uzww   0.23318
gfz2012vaqd   0.35535
gfz2012vcqw   0.61484
gfz2012vile  -0.34949
gfz2012wgmg   1.06230
gfz2012wjpf   1.00610
gfz2012wowu  -1.10100
gfz2012woxj   0.75270
gfz2012wysg  -0.51591
gfz2012xcsf   0.23007
gfz2012xfnu   0.51764
gfz2012xjgb  -0.44174
gfz2012xkln   0.42422
gfz2012xlas   0.27306
gfz2012xlfo   0.05860
gfz2012xncm  -0.95315
gfz2012xqxw   0.74819
gfz2012xxdj   0.16602
gfz2012yegw  -0.47778
gfz2012yihn   0.22640
gfz2012yncm  -2.11670
gfz2012yytb  -0.46516
gfz2012zhyz   0.20986
gfz2012zkhu  -0.94832
gfz2012zktj   2.92030
gfz2012zmdf  -0.27506
gfz2012zmfc  -0.77408
gfz2013atak   0.02227
gfz2013atec  -0.10154
gfz2013aymi  -0.14625
gfz2013bwgw  -0.39527
gfz2013byyy   0.48735
gfz2013cokc  -0.01873
gfz2013cvve   0.18255
gfz2013delq  -0.64136
gfz2013dftb  -0.07301
gfz2013dfvx  -0.32575
gfz2013dngd  -0.31689
gfz2013dwsp   0.67845
gfz2013dzvr   0.11675
gfz2013efys   0.84013
gfz2013fmcp  -0.55243
gfz2013fnpa  -0.19917
gfz2013fwbm  -0.26029
gfz2013fybd   0.02200
gfz2013gbma  -0.87740
gfz2013gsnl   0.17416
gfz2013gugi   0.46943
gfz2013gurk   0.18919
gfz2013hduf   0.28838
gfz2013hjtt  -0.25061
gfz2013hqaa   0.25198
gfz2013hwps   3.00660
gfz2013irme   0.69271
gfz2013iuyv  -0.18635
gfz2013jfcn  -0.59080
gfz2013jobl   0.94243
gfz2013jpir   0.27068
gfz2013jqsk   1.43110
gfz2013jtsg   0.05289
gfz2013kbbg  -0.78653
gfz2013kcdb  -1.07920
gfz2013kjgh  -0.42472
gfz2013kpcb  -0.13706
gfz2013kqab   0.80694
gfz2013kxof  -0.20276
gfz2013ljdu  -1.26580
gfz2013mdnp  -1.62180
gfz2013mimp   0.49236
gfz2013mvgq  -0.60328
gfz2013mynb   0.22092
gfz2013mzaw  -0.42445
gfz2013oruq   0.71235
gfz2013oywh  -0.57042
gfz2013pqkp   0.70210
gfz2013pvsa  -0.69133
gfz2013qxof  -0.67777
gfz2013rfik  -0.35141
gfz2013rgcc   0.13456
gfz2013stou  -1.16760
gfz2013stup  -0.07974
gfz2013taeb  -1.09400
gfz2013trsq   0.06515
gfz2013twbc  -2.93230
gfz2013udtw   0.24438
gfz2013unuv  -0.70397
gfz2013upqj  -0.12261
gfz2013urla  -0.77368
gfz2013uwxb  -0.51510
gfz2013uxzw  -0.48006
gfz2013uzmf   0.35481
gfz2013vdam   0.66226
gfz2013veug   0.10394
gfz2013vjrr  -0.07384
gfz2013vmsg  -1.58890
gfz2013vnwa  -0.81486
gfz2013voai  -0.32251
gfz2013vojy  -0.24218
gfz2013vsdd  -0.71611
gfz2013vzel   0.13301
gfz2013wyfl  -0.79222
gfz2013xahp  -0.29917
gfz2013xjmo   0.45790
gfz2013xlic   1.61150
gfz2013xmzw  -0.52345
gfz2013yawe   0.47409
gfz2013ytfm  -0.35208
gfz2013yvpn  -0.21381
gfz2013zedt   0.19879
gfz2013zfbz  -0.18106
gfz2013zlak  -0.51827
gfz2013zpse   0.26475
gfz2014ayxf  -0.70363
gfz2014bdju  -0.13907
gfz2014bkra  -0.03123
gfz2014bmqw   0.12735
gfz2014cgxj   0.06630
gfz2014cncl   0.27510
gfz2014cokw   0.69938
gfz2014cwti  -1.01980
gfz2014dggw  -0.03120
gfz2014diuu  -0.19452
gfz2014dmrw  -0.37523
gfz2014dutu  -0.02127
gfz2014dykt  -0.37051
gfz2014eirs   0.26447
gfz2014eysf   0.30197
gfz2014faex  -0.67746
gfz2014ffqg   0.42063
gfz2014fgbn  -0.14089
gfz2014fjfz   2.04820
gfz2014flxk   0.12625
gfz2014fsir  -0.41886
gfz2014fsje   0.00000
gfz2014fskh   0.16413
gfz2014fxuy  -0.56202
gfz2014gbxg  -0.27490
gfz2014gnbw  -0.12770
gfz2014gnvp  -0.11759
gfz2014gqxg   0.08676
gfz2014gsfc   0.18183
gfz2014gssz   0.01266
gfz2014gypw  -0.41816
gfz2014hapg  -3.12800
gfz2014huah  -0.16576
gfz2014huqh  -0.87806
gfz2014hyea   0.13369
gfz2014iaqm  -0.50192
gfz2014inrg  -0.20995
gfz2014itlx  -3.49790
gfz2014iusw  -0.02594
gfz2014ixlc   0.75140
gfz2014jayh  -0.04660
