# Nsamples: 932  MAD:  0.437  mean: -0.021  std:  0.706
gfz2010abfc   0.29078
gfz2010afyi   1.34580
gfz2010aggj   0.67942
gfz2010aimm   0.50103
gfz2010aseg   0.16777
gfz2010asxa   0.32272
gfz2010axdz  -0.69320
gfz2010azji   0.55608
gfz2010bgrt   0.05229
gfz2010bkfi   0.61121
gfz2010bnbr   1.91890
gfz2010bofe   0.55215
gfz2010bqnk   0.28977
gfz2010brlc   0.54053
gfz2010btme  -0.61432
gfz2010bukb   0.77488
gfz2010bvit  -0.32353
gfz2010byau   0.46154
gfz2010cbnp   0.32836
gfz2010ccwc  -0.12212
gfz2010ccye   0.35054
gfz2010cdnv   0.06304
gfz2010ckoc  -0.50345
gfz2010clbw   0.35549
gfz2010cllh   0.43777
gfz2010cnyi  -0.18818
gfz2010colm   2.74880
gfz2010cphq   0.29656
gfz2010cpig   0.81169
gfz2010cqoq   0.38583
gfz2010crgy   0.19002
gfz2010crir  -0.15674
gfz2010csle   1.17620
gfz2010csqy   0.46915
gfz2010ctak   0.38783
gfz2010cthm   0.73677
gfz2010cvam  -0.18504
gfz2010cwrk   1.04120
gfz2010dask  -0.72755
gfz2010ddan  -0.11858
gfz2010depd   0.40373
gfz2010djib   0.05003
gfz2010dmij  -3.60910
gfz2010dmkd   0.59264
gfz2010drit   0.13478
gfz2010drml  -0.08884
gfz2010drmq  -0.08884
gfz2010drng   2.15240
gfz2010drpv   0.18576
gfz2010drun  -0.27871
gfz2010dtgc   2.27340
gfz2010dtyx   0.24098
gfz2010dwgy  -0.09550
gfz2010dxhq  -1.43660
gfz2010eepd   0.10681
gfz2010eibh   0.41811
gfz2010elge  -1.78540
gfz2010eqyj   0.31139
gfz2010euue   0.21013
gfz2010ewyj  -0.02947
gfz2010faly  -0.04840
gfz2010fgbo   0.08754
gfz2010fkpa   0.27648
gfz2010fopf   0.11069
gfz2010fuky   0.06376
gfz2010fvfz   0.24057
gfz2010fxut  -0.57113
gfz2010gonu   0.05853
gfz2010gooc  -0.29343
gfz2010gpjl   0.65810
gfz2010guwa   0.02165
gfz2010gxki  -0.64228
gfz2010habf   0.05512
gfz2010hesh  -0.24660
gfz2010hnuo   1.09980
gfz2010hsgv   0.20834
gfz2010hueh  -0.43801
gfz2010huzl   0.63559
gfz2010hxan   0.38776
gfz2010iaay  -0.38101
gfz2010iawy  -0.45146
gfz2010ifru  -0.03840
gfz2010ihef   1.61370
gfz2010inbs   0.23048
gfz2010ioad  -0.26751
gfz2010ixjl  -0.26227
gfz2010izag  -0.23820
gfz2010izgb  -0.32979
gfz2010jcby   0.08740
gfz2010jdhk  -0.00465
gfz2010jgwj   0.31839
gfz2010jkrp   1.57460
gfz2010jlvp   0.36363
gfz2010jpkn   0.49399
gfz2010jvsi  -0.08028
gfz2010jyvd   2.16870
gfz2010kcdq  -0.55528
gfz2010kcyz  -0.12601
gfz2010kzzm  -1.67030
gfz2010ljmp   0.85736
gfz2010lvnj   0.44598
gfz2010mdti  -0.04016
gfz2010mguv   0.24994
gfz2010mjdl   0.43315
gfz2010mnoc   0.54810
gfz2010mpvc   0.10976
gfz2010mqaj   1.28840
gfz2010mqzz  -0.22259
gfz2010msss  -0.36712
gfz2010mvmb   1.59090
gfz2010mwmd   1.02350
gfz2010mzfb  -0.30755
gfz2010nbcr  -0.67225
gfz2010nccu   0.45801
gfz2010ngge  -0.48763
gfz2010nlai   0.28826
gfz2010novb  -0.35399
gfz2010nteg  -0.00000
gfz2010nwbd  -0.14099
gfz2010oguu   0.60944
gfz2010ogwn  -0.32702
gfz2010ojhe   0.15195
gfz2010okpc  -0.11522
gfz2010okww  -0.21895
gfz2010osaq   1.33490
gfz2010osrl   0.08432
gfz2010ovvg   0.11860
gfz2010pclq   0.38861
gfz2010pdip  -0.14703
gfz2010pgpo  -0.26508
gfz2010pgrf   0.09734
gfz2010pngv   1.73440
gfz2010pxoi  -0.36510
gfz2010qdqk  -1.51640
gfz2010qloa   0.05396
gfz2010qqqx  -0.99517
gfz2010qrix   0.03490
gfz2010qrta   0.38106
gfz2010qykh   0.65129
gfz2010qylh  -0.42498
gfz2010qzvf  -0.16087
gfz2010rdep  -0.56659
gfz2010rhvu  -1.11650
gfz2010rkuu   0.08495
gfz2010rljv  -0.42546
gfz2010rmua   1.52260
gfz2010rnqa  -0.22928
gfz2010rnwt  -2.19830
gfz2010rpbz   1.11350
gfz2010rpjd   0.59113
gfz2010schp  -0.10544
gfz2010scht   0.73732
gfz2010sdfs  -0.23611
gfz2010sftm  -0.19233
gfz2010sook  -0.00898
gfz2010swqy   0.03208
gfz2010sylk   0.04224
gfz2010tcgh  -0.22031
gfz2010tgmo  -0.45183
gfz2010tmba   0.35659
gfz2010tmne  -0.09344
gfz2010tpcj  -0.51636
gfz2010tqyo   0.35455
gfz2010tvit  -0.00000
gfz2010tzlz  -0.20778
gfz2010tzma   0.48654
gfz2010ugws  -0.49993
gfz2010uhjy   0.26624
gfz2010uidg   0.35205
gfz2010upod   0.00000
gfz2010uqba  -3.10550
gfz2010uraq  -1.16050
gfz2010ussf   0.48495
gfz2010uyng  -0.14973
gfz2010vhzx  -0.14863
gfz2010viyi   0.12094
gfz2010vjac   0.17839
gfz2010vong   0.50740
gfz2010vxwv  -0.08664
gfz2010vybx  -0.33555
gfz2010vyri   0.15446
gfz2010wakc  -0.66156
gfz2010wdav   0.11020
gfz2010wigk   0.01679
gfz2010wplk   0.36289
gfz2010wtin   0.04360
gfz2010wwhf  -0.13096
gfz2010wwnq  -0.19254
gfz2010wyuj  -0.66143
gfz2010xamh   0.00850
gfz2010xaxw   0.10299
gfz2010xezr  -0.45816
gfz2010xjsv  -0.58218
gfz2010xkbz  -0.25339
gfz2010xkku   0.94902
gfz2010xnbn  -0.64367
gfz2010xnwf   0.39113
gfz2010xpzq   0.21763
gfz2010xvev   0.26062
gfz2010xzah   0.34408
gfz2010yczp  -0.12493
gfz2010yfdr  -0.78993
gfz2010yhhj  -0.38997
gfz2010yrex  -0.16879
gfz2010zaxv  -0.47216
gfz2010zhvj   0.95855
gfz2010zjun  -0.18577
gfz2010zkle  -2.36400
gfz2011amst  -0.47991
gfz2011aqpp  -0.22250
gfz2011boaz  -1.92540
gfz2011bpqm   0.69060
gfz2011bqbx  -2.21900
gfz2011bsvr  -0.35745
gfz2011bvog  -1.79510
gfz2011bwsm  -0.41602
gfz2011byec   0.04265
gfz2011bygs  -0.10596
gfz2011bygu   0.35811
gfz2011bzio  -0.09115
gfz2011cdge  -0.92763
gfz2011cfyy  -0.09500
gfz2011cjcv   1.02660
gfz2011cjuz   0.48532
gfz2011cwsm  -0.18899
gfz2011cwzi  -0.34103
gfz2011cxdj   0.05486
gfz2011dabj   0.30072
gfz2011dhqk  -0.12470
gfz2011dmdv   0.27926
gfz2011duvm  -0.47572
gfz2011dwae  -0.45599
gfz2011dzmf  -0.15047
gfz2011ecce  -1.97710
gfz2011edrq   0.19691
gfz2011ekty  -0.23436
gfz2011emzr   0.40570
gfz2011exxq  -0.28125
gfz2011fnie  -0.69088
gfz2011fnuk   0.10693
gfz2011fnxz   0.24315
gfz2011fszl   0.24914
gfz2011fxmf  -0.72560
gfz2011fyfu  -0.04412
gfz2011fzcw  -1.28560
gfz2011gaax  -0.01999
gfz2011gcct  -0.54272
gfz2011gfer   0.32241
gfz2011ggnl   0.43127
gfz2011ggsz  -0.40990
gfz2011gkdx  -0.13052
gfz2011glpg   0.04422
gfz2011gnbk  -0.18147
gfz2011gpyr  -0.27920
gfz2011grby   1.17690
gfz2011gzde  -0.02194
gfz2011haaa   0.24836
gfz2011hatg   0.64308
gfz2011hbqc   0.38900
gfz2011hffq   1.84080
gfz2011hibi  -0.93717
gfz2011hjof  -0.01815
gfz2011hmnw   0.08321
gfz2011hqjs  -0.21067
gfz2011huon   0.44055
gfz2011hvzo  -0.48545
gfz2011hwbn  -0.04370
gfz2011hyct  -0.09125
gfz2011hyuh  -0.81799
gfz2011iamf  -0.26324
gfz2011ibew   0.43090
gfz2011ifta  -0.34053
gfz2011inan   0.58389
gfz2011ioch   0.53308
gfz2011kjzt  -0.11329
gfz2011kjzv  -0.76746
gfz2011kylu   0.16132
gfz2011kymm   0.52123
gfz2011kyzy   0.32745
gfz2011ldgl   0.29020
gfz2011lkkf   0.66616
gfz2011lmug  -0.15440
gfz2011lnzf   0.03796
gfz2011lrpv   0.25964
gfz2011lwmg  -0.32512
gfz2011lxga   0.52605
gfz2011lykm   0.50702
gfz2011lywj   0.18214
gfz2011mdyq  -0.13680
gfz2011melb   0.75948
gfz2011mimz  -0.07882
gfz2011mjje   0.33108
gfz2011mllb  -0.15679
gfz2011mntq  -0.28779
gfz2011moob  -0.51746
gfz2011mror  -2.47210
gfz2011nblt  -0.98840
gfz2011ncyw  -3.37280
gfz2011ndki  -0.84472
gfz2011ndlh  -0.35988
gfz2011ndoe   0.24701
gfz2011ndse   0.30209
gfz2011ndtp  -0.12258
gfz2011ndvj  -0.39170
gfz2011ndyk  -0.27460
gfz2011neai  -0.10730
gfz2011nejg  -1.18800
gfz2011nejw   0.57403
gfz2011nerb  -0.15348
gfz2011nfcz  -0.06593
gfz2011nfgt   3.22370
gfz2011nfih   0.37318
gfz2011nfln  -0.14748
gfz2011nftw   0.36141
gfz2011nfwd   0.26698
gfz2011nfww   0.03031
gfz2011nhby   0.31023
gfz2011nhhd  -0.30152
gfz2011nhjv  -0.77006
gfz2011nhvt   0.77044
gfz2011nhwf   0.31231
gfz2011nifi   0.06421
gfz2011nihq  -1.19680
gfz2011nijp   0.29605
gfz2011nilw   0.18334
gfz2011nimp  -0.29981
gfz2011nioi  -0.98189
gfz2011nisj   0.65337
gfz2011niuw   0.72806
gfz2011nivw  -0.16568
gfz2011nkda   3.68600
gfz2011nkou  -1.70870
gfz2011nlmf   0.73683
gfz2011nlnl  -1.73350
gfz2011nlok  -0.77450
gfz2011nlou   0.50555
gfz2011nlum   0.26259
gfz2011nlyw  -0.95288
gfz2011nmdz   0.09604
gfz2011nmhg   0.21701
gfz2011nnda  -0.22970
gfz2011nnos   0.14380
gfz2011npaf   0.74571
gfz2011nsiy  -0.00218
gfz2011nsrx   0.04748
gfz2011nssr  -0.08102
gfz2011nswi   2.15950
gfz2011nsyi  -1.14830
gfz2011ntyd  -0.52552
gfz2011nuqo  -0.33316
gfz2011nvty  -1.14840
gfz2011nyzk  -0.14363
gfz2011oadm  -0.11052
gfz2011oazk   1.14700
gfz2011oesd   0.32198
gfz2011ofpj   0.24838
gfz2011okza   1.40350
gfz2011omxt  -0.20530
gfz2011oqjl  -0.90596
gfz2011osmp  -0.35344
gfz2011osuy   0.22882
gfz2011ovvj   1.22370
gfz2011owqa   0.69497
gfz2011paqj  -0.21330
gfz2011pbgh  -1.54530
gfz2011pbjh  -0.23502
gfz2011pdgq  -0.20718
gfz2011pdsn  -0.06803
gfz2011pfls   0.24449
gfz2011pfwq  -0.33063
gfz2011pgzk  -0.07120
gfz2011pivq   0.46341
gfz2011plzc  -0.17317
gfz2011pmuv   0.26015
gfz2011poug   0.25339
gfz2011pphc  -0.49629
gfz2011ppsc   0.35359
gfz2011prrq   0.57928
gfz2011ptgd  -0.58975
gfz2011pulu   0.03433
gfz2011pwbw  -0.27781
gfz2011pwld   0.12954
gfz2011qasw  -0.03213
gfz2011qenl  -0.63207
gfz2011qgea   0.18513
gfz2011qgvh   0.06674
gfz2011qgvx  -1.99160
gfz2011qhjw   0.83005
gfz2011qidi  -0.10039
gfz2011qklh  -1.39880
gfz2011qowe  -0.99189
gfz2011qtoy  -0.22887
gfz2011qukj  -0.11964
gfz2011rbuo   0.14338
gfz2011rkau  -0.48872
gfz2011rnny   0.17699
gfz2011rnsp   0.22852
gfz2011rplo   0.20068
gfz2011rqut  -0.53233
gfz2011scma  -0.30319
gfz2011sdpl   0.08740
gfz2011sfmu  -0.18035
gfz2011sfph   0.16410
gfz2011sqco   0.38447
gfz2011sqxp  -0.40058
gfz2011sskq  -0.21190
gfz2011swfp  -0.72552
gfz2011sxno  -0.26275
gfz2011szis   0.00000
gfz2011taqr  -0.14452
gfz2011tfor  -0.59125
gfz2011tgon   0.17214
gfz2011tozo  -1.22240
gfz2011tqgg   0.26169
gfz2011tsgl   0.22861
gfz2011tssv  -0.20507
gfz2011twpz  -0.61692
gfz2011txdb   0.24233
gfz2011txxs   0.44742
gfz2011tzcv  -0.62271
gfz2011udjs   0.50933
gfz2011udxo  -0.36594
gfz2011ugbt  -0.40132
gfz2011unud  -0.15573
gfz2011uowi  -0.05815
gfz2011urwz  -0.78777
gfz2011uvsi   0.40350
gfz2011vahy   0.66630
gfz2011vaoi  -0.39053
gfz2011varl  -0.27547
gfz2011vcyx  -0.48745
gfz2011vimn  -0.33639
gfz2011vsag  -0.57313
gfz2011vtzv   0.57549
gfz2011wbtc   0.17740
gfz2011wfsk  -0.20237
gfz2011wgoa  -0.97645
gfz2011wgvh   0.00000
gfz2011wkja  -0.09733
gfz2011wkyx  -0.33162
gfz2011wngi   0.10424
gfz2011wnvu  -0.27817
gfz2011wqth  -1.26260
gfz2011wtfn   0.89995
gfz2011wucg   0.39604
gfz2011wwze   0.47181
gfz2011wyei  -0.09219
gfz2011wzss  -0.32766
gfz2011xagc   0.07212
gfz2011xawm  -0.12654
gfz2011xgbc  -1.30680
gfz2011xgwy   0.18868
gfz2011xkka   0.05233
gfz2011xlod  -1.56190
gfz2011xnui   0.22392
gfz2011xwdv  -1.78180
gfz2011xxng  -0.70367
gfz2011yeck   0.15167
gfz2011yexx  -0.29300
gfz2011ykbd   0.17692
gfz2011yntu   0.16188
gfz2011ytwk  -0.81524
gfz2011ywtj  -0.00000
gfz2011zdyf  -0.31780
gfz2011zghc   0.06757
gfz2011zgxn  -0.21462
gfz2011ziyk   0.33709
gfz2011zkbt   0.34042
gfz2011znyq  -0.20201
gfz2012agwh   0.74671
gfz2012ahac   0.10380
gfz2012ahkl  -3.38990
gfz2012aioo  -0.23264
gfz2012alti   0.03250
gfz2012amjx  -0.24022
gfz2012amvs   0.50714
gfz2012aqpa   0.61866
gfz2012arlo  -0.59728
gfz2012asin  -1.73460
gfz2012atjr  -0.21221
gfz2012auqr   0.05745
gfz2012avvc   0.08175
gfz2012axrp  -0.14684
gfz2012azel   2.37480
gfz2012bcvn  -0.95671
gfz2012beae   0.57318
gfz2012bjhl  -0.23390
gfz2012bnwa  -0.05441
gfz2012bolx   0.04462
gfz2012bovy   0.25364
gfz2012brrg   0.48388
gfz2012byrq  -0.91852
gfz2012bysu   0.20750
gfz2012bytv   1.10220
gfz2012byuk   0.52009
gfz2012cdju   0.17910
gfz2012cfdw  -0.02092
gfz2012cksh   0.18328
gfz2012cmww   0.09360
gfz2012cntu  -0.10017
gfz2012cvfr  -0.17358
gfz2012cwhl  -0.12530
gfz2012dbgt  -0.30881
gfz2012dcjd   0.11036
gfz2012dejg  -0.13431
gfz2012dgfk  -0.01656
gfz2012dleg   0.01161
gfz2012dluf   0.58186
gfz2012dnig   0.22875
gfz2012dpem  -1.08930
gfz2012dpnu   0.06034
gfz2012dpwv  -0.33301
gfz2012drak  -0.34519
gfz2012dsei  -1.05730
gfz2012dtdt  -0.05142
gfz2012dtlu   0.66889
gfz2012dttl   0.46475
gfz2012dtvr   0.45707
gfz2012dugf  -1.18790
gfz2012duvf  -3.09560
gfz2012duwm   0.04466
gfz2012dwwu  -0.15112
gfz2012dyck   0.32590
gfz2012dysj  -0.12094
gfz2012dysu   0.61793
gfz2012dzen   0.06243
gfz2012dzot  -0.66040
gfz2012eajr   0.26520
gfz2012ebff   0.26654
gfz2012ebhf  -0.21508
gfz2012ebrr  -0.15935
gfz2012eeft   0.30696
gfz2012enrg   0.84529
gfz2012erds  -0.58363
gfz2012evav   0.09556
gfz2012evxn  -0.33932
gfz2012eyti   0.00820
gfz2012fbgz   0.07151
gfz2012fcyq  -0.09272
gfz2012fcyr  -0.10876
gfz2012fhaf  -0.16459
gfz2012flqf   0.45299
gfz2012foih   0.26412
gfz2012fuyd   0.13444
gfz2012fxgc   0.36984
gfz2012fyny  -0.20847
gfz2012fyop   0.06972
gfz2012gczh   0.00000
gfz2012gdye   0.44866
gfz2012ghiv  -0.01927
gfz2012ghyd   0.41081
gfz2012gjdg   0.05692
gfz2012gjtd   0.10889
gfz2012gmsr  -0.61418
gfz2012gnow   0.10349
gfz2012grmf   0.33548
gfz2012gubu  -0.74109
gfz2012gvxc  -0.08429
gfz2012hdny   0.42745
gfz2012heih   0.18400
gfz2012hkxs  -0.03916
gfz2012hmcv   0.17745
gfz2012hnyy   0.49526
gfz2012hvjc  -0.31645
gfz2012hwph  -0.09514
gfz2012hzur  -1.07200
gfz2012iblc  -0.26823
gfz2012iblo  -0.13857
gfz2012icjo   0.18469
gfz2012iijk  -0.40944
gfz2012inns   0.38808
gfz2012iotw  -0.23825
gfz2012ipdc   0.22101
gfz2012iphs  -0.37540
gfz2012iroy   0.12363
gfz2012ivyg  -1.22940
gfz2012iyhs   1.62010
gfz2012iyoi  -0.64959
gfz2012izke  -0.43296
gfz2012jetp   0.34854
gfz2012jjxm   0.00000
gfz2012jksz  -0.16063
gfz2012jlez  -0.36728
gfz2012jnlt   0.50358
gfz2012jodg   0.85036
gfz2012jopi   0.32550
gfz2012jxnm  -0.41199
gfz2012jxxe   1.36360
gfz2012kadi  -0.95332
gfz2012kjzx   0.34611
gfz2012kmbo  -0.22426
gfz2012kmmz  -0.19158
gfz2012kstg  -0.09836
gfz2012kvlx   2.14960
gfz2012kwmx  -0.09570
gfz2012lcca   1.69330
gfz2012lcro  -0.59014
gfz2012ldjj  -0.19339
gfz2012lngq   0.91271
gfz2012lops   0.11732
gfz2012lqhw  -0.13914
gfz2012luzm   0.29376
gfz2012lvlr  -0.30804
gfz2012lvxx   0.13792
gfz2012lwha  -0.39854
gfz2012lyqs  -0.18925
gfz2012mdzf  -0.29862
gfz2012mekv  -0.41605
gfz2012mhik  -0.10757
gfz2012mjuu  -0.49164
gfz2012mjzl   0.10844
gfz2012mmiw   0.11991
gfz2012mnth  -0.16611
gfz2012moul   0.40631
gfz2012mout  -0.49165
gfz2012movu  -0.53837
gfz2012movv  -0.39144
gfz2012mowv   0.34692
gfz2012mpvl   0.93329
gfz2012mrqk   0.03449
gfz2012mrwu   0.30071
gfz2012mtyn   0.02149
gfz2012mwhe  -0.28157
gfz2012mxvk   1.43080
gfz2012mzco  -0.48644
gfz2012mzqx  -0.09393
gfz2012ndsk  -0.29137
gfz2012ndwt   0.07582
gfz2012nfos   0.00000
gfz2012nfzc   0.08965
gfz2012nldz  -0.94631
gfz2012nlrb   0.04823
gfz2012nmja  -0.21265
gfz2012nnck  -1.57870
gfz2012nnqu  -0.15274
gfz2012nqvd  -0.33226
gfz2012nsxc  -0.16398
gfz2012oafg  -0.06564
gfz2012oehy   0.28212
gfz2012ofnx   0.33213
gfz2012ogqu   0.97389
gfz2012ogwe  -0.37755
gfz2012ohgd   0.28484
gfz2012oieq  -0.57458
gfz2012ojfv  -0.17418
gfz2012onfs  -0.24169
gfz2012onhu  -0.19145
gfz2012ooij   0.12446
gfz2012oork  -0.37030
gfz2012oozp   0.37071
gfz2012ormy  -0.51807
gfz2012oxnh   0.08197
gfz2012oyja   0.00542
gfz2012pcui  -0.33365
gfz2012pdav   0.04744
gfz2012pdfi   0.22226
gfz2012pdjt  -0.00000
gfz2012phns  -0.29618
gfz2012pifb  -0.42624
gfz2012pmuj   0.65576
gfz2012pmuq  -0.22811
gfz2012pmws  -0.59118
gfz2012ppcq   0.56110
gfz2012ppsw  -0.88753
gfz2012prke   0.06336
gfz2012pryl  -0.52732
gfz2012pumy   0.12190
gfz2012pvve   0.21699
gfz2012pziw  -0.08361
gfz2012qbbt  -0.22108
gfz2012qfah   0.15415
gfz2012qfov  -0.63717
gfz2012qhqp  -0.56940
gfz2012qibe   0.31211
gfz2012qmhz  -0.88324
gfz2012qpoc   0.01860
gfz2012qvwy  -0.50227
gfz2012rfhw  -0.59058
gfz2012rknz  -0.19158
gfz2012rnbw  -4.18370
gfz2012rnml   0.21762
gfz2012rnyn  -0.38115
gfz2012roan  -0.04861
gfz2012rslf   1.62630
gfz2012rzwp  -0.28618
gfz2012sbix  -0.29084
gfz2012scuk  -0.32274
gfz2012sfao   0.96042
gfz2012sgfd   0.22795
gfz2012sjox   0.77268
gfz2012slfd   2.25980
gfz2012smyn   0.05548
gfz2012socz  -0.41091
gfz2012sopp   0.13580
gfz2012sqsc  -0.46294
gfz2012ssnb  -0.42435
gfz2012stxx  -0.06352
gfz2012suqd  -0.42136
gfz2012svwz  -0.21796
gfz2012sxpr  -0.07480
gfz2012sxzs   0.52239
gfz2012syum   0.92268
gfz2012taph   0.54226
gfz2012tbho  -0.94394
gfz2012tfij   1.61050
gfz2012tisj  -0.65882
gfz2012tjih   0.70911
gfz2012tqjc  -0.28932
gfz2012trfq  -0.22688
gfz2012trss   0.40211
gfz2012tsdz   0.62301
gfz2012tvgw   0.07404
gfz2012twec   0.13517
gfz2012udxg  -0.66250
gfz2012uegq  -0.58595
gfz2012uhsx  -0.12029
gfz2012uhtc   0.09669
gfz2012ukzg   0.65344
gfz2012ulei  -0.68157
gfz2012unxc   0.06907
gfz2012uovh  -0.03692
gfz2012utdu  -0.18251
gfz2012uvoa  -0.36680
gfz2012uwne   0.17628
gfz2012uzww  -0.31537
gfz2012vaqd  -0.25384
gfz2012vcqw   0.00040
gfz2012vile   0.06226
gfz2012vitw   0.05326
gfz2012vkjw   0.26287
gfz2012vqjw   0.18537
gfz2012vqmq  -1.35180
gfz2012vrqz   1.54170
gfz2012vurc  -0.20814
gfz2012wgdv  -0.19383
gfz2012wgmg  -0.58934
gfz2012wgmp  -0.46120
gfz2012wiyv  -1.74960
gfz2012wjpf  -0.42635
gfz2012wjsi  -2.11940
gfz2012wjxc  -0.42889
gfz2012wkki   0.16872
gfz2012wmas   0.14477
gfz2012wmmw  -0.12262
gfz2012wowu  -1.02900
gfz2012woxj   0.02150
gfz2012wqfz   0.89273
gfz2012wysg   0.31851
gfz2012xask   0.44300
gfz2012xcsf   0.19632
gfz2012xfnu  -0.42953
gfz2012xjgb  -0.10690
gfz2012xkln  -0.06596
gfz2012xlas  -0.09414
gfz2012xlfo  -0.41850
gfz2012xmwt   0.02179
gfz2012xncm  -0.40352
gfz2012xppl   0.49709
gfz2012xqxw   0.13986
gfz2012xtvu  -0.02363
gfz2012xwgb   1.16170
gfz2012xwkx  -0.03027
gfz2012xxdj  -0.37899
gfz2012yegw  -0.43320
gfz2012yihn  -0.07824
gfz2012ylai   0.46243
gfz2012yncm   0.34605
gfz2012ywei   0.59878
gfz2012yygz   0.24005
gfz2012yzcf   0.21309
gfz2012yzih   0.39602
gfz2012zhyz  -0.04166
gfz2012zido  -0.01536
gfz2012zkhu  -0.77301
gfz2012zktj  -0.37429
gfz2012zmfc  -0.59478
gfz2012znou   0.24915
gfz2013aclz  -1.44920
gfz2013adih  -0.11780
gfz2013aggr  -0.04159
gfz2013agmt   0.02897
gfz2013ajxz   0.16216
gfz2013ascz   0.00000
gfz2013atak  -0.10549
gfz2013atec  -0.70875
gfz2013aymi  -0.04111
gfz2013bdvi  -0.15143
gfz2013bqfc   0.17042
gfz2013bwgw   0.09301
gfz2013byyy  -0.27022
gfz2013ccng   0.03955
gfz2013cfls  -0.31836
gfz2013cinv   0.24387
gfz2013ciof   0.65739
gfz2013cokc   0.66505
gfz2013cvve  -0.32125
gfz2013cyvx  -0.15360
gfz2013ddrx   0.08350
gfz2013delq   0.25043
gfz2013dftb   0.35069
gfz2013dfvx   0.60670
gfz2013djfi   0.08529
gfz2013dksc   0.36153
gfz2013dngd  -0.60353
gfz2013dtjl  -0.42647
gfz2013dvub   0.32259
gfz2013dwsp  -2.14170
gfz2013dznt  -1.28750
gfz2013dzvr  -0.57142
gfz2013efct   0.04460
gfz2013eidd   0.14102
gfz2013ektd  -0.39878
gfz2013enga   0.37240
gfz2013esef  -0.98933
gfz2013evcl   0.44026
gfz2013exow   0.14253
gfz2013ezmc  -0.25469
gfz2013ffjt  -0.56648
gfz2013fhzy   0.53678
gfz2013fmcd  -0.10158
gfz2013fmcp  -0.00733
gfz2013fndg   0.13391
gfz2013fnpa   0.16007
gfz2013foto   0.03186
gfz2013frxd   1.13860
gfz2013fskp  -0.02909
gfz2013fthi   0.26464
gfz2013fulo   0.48676
gfz2013fvyr   0.86566
gfz2013fvzv  -0.16678
gfz2013fwbm  -0.85754
gfz2013fxyr   0.08943
gfz2013fybd   0.12570
gfz2013gbki   0.60336
gfz2013gffe   0.23089
gfz2013gjmk  -0.08988
gfz2013glkq  -0.81076
gfz2013gomv  -0.06705
gfz2013gqtl   0.15133
gfz2013gsnl  -0.33501
gfz2013gugi  -0.25881
gfz2013gurk  -0.49911
gfz2013gyce   0.22749
gfz2013havw   0.45180
gfz2013hbmi   0.27988
gfz2013hdbp   0.75812
gfz2013hduf  -0.29097
gfz2013hinw  -0.09006
gfz2013hjtt  -0.55201
gfz2013hqaa  -0.12701
gfz2013hqcd   0.55686
gfz2013hvkg   0.05530
gfz2013hvzv   0.02083
gfz2013hwps  -0.89662
gfz2013icgx  -0.22868
gfz2013idqu  -0.02317
gfz2013ifag   0.02194
gfz2013ikic  -0.68668
gfz2013irme  -0.22353
gfz2013isqh  -0.47112
gfz2013iuyv  -1.33480
gfz2013iwzn  -0.23432
gfz2013iybv   0.36291
gfz2013jcnn  -0.27872
gfz2013jfcn   0.11684
gfz2013jhog  -0.06680
gfz2013jjae  -0.06650
gfz2013jjfw   0.26840
gfz2013jlli  -0.00000
gfz2013jobl   0.48282
gfz2013jpir  -0.10317
gfz2013jqsk   0.14655
gfz2013jtsg  -0.08887
gfz2013jzfz  -0.28706
gfz2013kbbg   0.46023
gfz2013kbbn   1.79150
gfz2013kbkp  -0.32571
gfz2013kcdb  -0.47068
gfz2013kjgh   0.13608
gfz2013kpcb  -0.33723
gfz2013kqab  -0.10485
gfz2013ksaz   0.13676
gfz2013kslp   0.26235
gfz2013kxlr   0.02178
gfz2013lbvl  -0.08998
gfz2013ljdu   0.32095
gfz2013lnne   0.27173
gfz2013lnts   0.75313
gfz2013lqjj  -0.13341
gfz2013lrkp   0.07818
gfz2013lvxe   0.09315
gfz2013lwtr   0.73135
gfz2013lxed   0.16359
gfz2013lxnd   0.82787
gfz2013mbna  -0.35130
gfz2013mdnp   0.26439
gfz2013mdxj   0.53177
gfz2013mimp   0.68780
gfz2013mktp   0.03713
gfz2013mnux   3.64760
gfz2013mvgq  -0.39627
gfz2013mynb  -0.28930
gfz2013mzaw   0.21527
gfz2013nhkw  -0.71219
gfz2013njjh   0.04093
gfz2013njwj   0.52553
gfz2013nnai  -0.00000
gfz2013ntfc   0.04136
gfz2013ntiu  -0.61821
gfz2013ntxw   3.30020
gfz2013obof   0.09320
gfz2013oeni   0.18736
gfz2013ohdt   0.10142
gfz2013ohnj  -0.05475
gfz2013oizq  -0.26312
gfz2013ojza   0.11530
gfz2013okac  -0.07079
gfz2013okxa   0.16193
gfz2013olos  -0.06855
gfz2013onvl  -0.26290
gfz2013opkx   0.37096
gfz2013orot   0.25496
gfz2013ortl   0.33649
gfz2013oruq   0.74448
gfz2013osmj   0.12689
gfz2013oywh   0.22020
gfz2013pegj  -0.05872
gfz2013phhi  -0.34027
gfz2013pkmz  -0.11534
gfz2013pqkp  -0.49300
gfz2013puiy   0.01887
gfz2013pvsa  -0.17599
