# Nsamples: 956  MAD:  0.480  mean: -0.054  std:  0.725
gfz2010afyi   1.95000
gfz2010aggj   0.49346
gfz2010aseg   0.03153
gfz2010asxa   0.53069
gfz2010axdz   0.13315
gfz2010azji   0.05070
gfz2010bgrt   3.71850
gfz2010bkfi   0.40193
gfz2010bmls   0.23282
gfz2010bnbr   2.18520
gfz2010bqnk   0.18571
gfz2010btme   0.21445
gfz2010bukb  -0.03512
gfz2010bvit  -0.49665
gfz2010byau  -0.05795
gfz2010cbnp  -0.12584
gfz2010ccwc  -0.04871
gfz2010ccye   0.33585
gfz2010cdnv   0.95541
gfz2010clbw   0.37173
gfz2010cllh   0.08267
gfz2010colm   2.23420
gfz2010cphq   0.53735
gfz2010cpig   0.61946
gfz2010crgy   0.00000
gfz2010crir  -0.04721
gfz2010csle   0.61068
gfz2010ctak   1.42960
gfz2010cthm   0.03817
gfz2010cwrk   0.39891
gfz2010cyid   0.86860
gfz2010dask  -0.42921
gfz2010depd   1.75690
gfz2010djib   0.21181
gfz2010dmij  -0.67165
gfz2010dmkd   0.56150
gfz2010drit   0.00035
gfz2010drml  -0.86458
gfz2010drmq  -0.86458
gfz2010drng  -0.28947
gfz2010drpv   0.19990
gfz2010drun  -0.84719
gfz2010dsjq  -0.41431
gfz2010dtgc  -0.51068
gfz2010dtyx   0.13399
gfz2010dwgy   0.49278
gfz2010dxhq  -2.67590
gfz2010eibh   0.05400
gfz2010eqyj  -0.00000
gfz2010ewyj   0.13009
gfz2010fgbo  -0.09202
gfz2010fjio   0.37050
gfz2010fjme   0.41399
gfz2010fkpa   0.17873
gfz2010fopf  -0.08545
gfz2010fvfz   0.50905
gfz2010fxut   0.54908
gfz2010gonu   0.11009
gfz2010gooc   0.65289
gfz2010guwa   0.02286
gfz2010gxki  -0.16613
gfz2010habf   0.15900
gfz2010hesh   0.40216
gfz2010hexh  -0.22727
gfz2010hnuo  -0.37982
gfz2010hsgv   0.00000
gfz2010hueh  -0.34204
gfz2010huzl   0.04322
gfz2010hxan  -0.15876
gfz2010iaay  -0.50309
gfz2010iawy  -0.68054
gfz2010ioad   0.82943
gfz2010izgb   3.44620
gfz2010jcby   0.34380
gfz2010jkrp  -0.78124
gfz2010jlvp   0.36982
gfz2010jpkn   0.36326
gfz2010kcdq  -0.51298
gfz2010kcyz  -0.06578
gfz2010kzzm   4.42020
gfz2010ljmp   0.68160
gfz2010lswe  -0.72355
gfz2010lvnj   0.30081
gfz2010mguv   0.56434
gfz2010mnoc  -0.25735
gfz2010mpvc   0.14238
gfz2010mqaj   1.50590
gfz2010mqzz   0.27666
gfz2010msss  -0.31616
gfz2010mvmb   2.33290
gfz2010mvtj   0.33062
gfz2010mwmd   1.04120
gfz2010mzfb   1.13770
gfz2010nbcr  -0.20129
gfz2010ncwu   0.26517
gfz2010ngge  -0.44670
gfz2010nlai   0.16463
gfz2010novb  -0.23493
gfz2010nteg   0.38957
gfz2010nwbd  -0.13806
gfz2010nwyk  -0.39503
gfz2010oguu  -0.12991
gfz2010ogwn  -0.11475
gfz2010ojhe   0.04650
gfz2010okpc  -0.21629
gfz2010okww  -0.20705
gfz2010osrl   0.20648
gfz2010ouvm   0.45963
gfz2010ovvg   0.16252
gfz2010pclq  -0.63628
gfz2010pdip  -0.10956
gfz2010pgpo  -0.33387
gfz2010pgrf  -0.13360
gfz2010pngv   0.22800
gfz2010pvnn  -0.26218
gfz2010pxoi  -0.41461
gfz2010qdqk  -1.51610
gfz2010qloa  -0.12922
gfz2010qqqx  -0.37130
gfz2010qrix  -0.72316
gfz2010qrta   0.19850
gfz2010qykh   0.22014
gfz2010qylh  -0.39427
gfz2010qzvf  -0.33147
gfz2010rdep  -0.31650
gfz2010rhvu  -1.29470
gfz2010rkuu   0.03361
gfz2010rljv  -0.44629
gfz2010rmua  -0.23922
gfz2010rnqa   0.21238
gfz2010rnwt  -2.24990
gfz2010rpjd   0.27284
gfz2010schp   0.39315
gfz2010scht   1.03390
gfz2010sdfs  -0.31214
gfz2010sftm  -0.06436
gfz2010sook  -0.21090
gfz2010swqy   0.34898
gfz2010sylk   0.24001
gfz2010syqh  -1.83470
gfz2010tcgh  -0.43630
gfz2010tmba  -0.00650
gfz2010tmne  -0.17455
gfz2010tpcj  -0.75391
gfz2010tqyo   0.57752
gfz2010tvit   0.39056
gfz2010tzlz  -0.71681
gfz2010tzma   0.39011
gfz2010ugws  -0.96834
gfz2010uhjy   0.08839
gfz2010uidg   0.67172
gfz2010upod  -0.15969
gfz2010uqba  -0.75927
gfz2010uraq  -1.51560
gfz2010ussf  -0.16180
gfz2010uyng   0.25224
gfz2010vhzx  -0.09427
gfz2010viyi  -0.23477
gfz2010vjac  -0.28361
gfz2010vong  -0.72756
gfz2010vxwv   0.27136
gfz2010vybx  -0.64124
gfz2010vyri  -0.53843
gfz2010wakc  -0.32385
gfz2010wigk   0.09902
gfz2010wtin   0.36140
gfz2010wwnq  -0.34373
gfz2010wyuj   1.29850
gfz2010xamh  -0.38731
gfz2010xaxw  -0.07996
gfz2010xezr  -0.33899
gfz2010xjsv  -0.35548
gfz2010xkbz  -0.29822
gfz2010xnbn   0.55575
gfz2010xnwf   0.23389
gfz2010xpzq   0.06767
gfz2010xvev   0.06801
gfz2010xzte   0.30470
gfz2010yczp  -0.16268
gfz2010yfdr  -0.33391
gfz2010ygrd  -0.30832
gfz2010yhdn   0.35105
gfz2010yhhj  -0.25964
gfz2010yrex  -0.56963
gfz2010zaxv  -0.26827
gfz2010zhvj  -0.24360
gfz2010zjun  -0.28749
gfz2010zkle  -1.77860
gfz2011amst  -0.33744
gfz2011aqpp  -0.02470
gfz2011bpqm   0.18554
gfz2011bqbx   3.04290
gfz2011bvog  -1.07340
gfz2011bwsm  -0.23462
gfz2011byec   0.54088
gfz2011bygs  -0.20078
gfz2011bygu   0.11725
gfz2011bzio  -0.20889
gfz2011cdge  -0.42561
gfz2011cjcv   0.68763
gfz2011cjuz   0.11798
gfz2011cxbw  -7.41790
gfz2011cxdj   0.06295
gfz2011dabj   0.14319
gfz2011dhqk  -0.12580
gfz2011dtcb   0.04751
gfz2011duvm  -0.43055
gfz2011dwae  -0.45265
gfz2011dzmf  -0.15828
gfz2011ecce   0.70863
gfz2011emzr  -0.34886
gfz2011exxq   0.05705
gfz2011fnie  -0.97850
gfz2011fnuk   0.07785
gfz2011fnxz  -0.11516
gfz2011fszl   0.25346
gfz2011fxmf  -0.65158
gfz2011fyfu  -0.27491
gfz2011fzcw  -0.64186
gfz2011gaax  -0.08657
gfz2011gcct  -0.51739
gfz2011gfer   1.08360
gfz2011ggnl   0.54205
gfz2011ggsz  -0.56129
gfz2011gkdx  -0.27211
gfz2011gnbk  -0.40239
gfz2011gpyr  -0.41970
gfz2011gzde  -0.03219
gfz2011haaa   0.51843
gfz2011hffq  -0.62779
gfz2011hibi  -0.94765
gfz2011hjof  -0.08460
gfz2011hmnw  -0.02220
gfz2011hqjs  -0.30622
gfz2011hvzo  -1.34890
gfz2011hwbn  -0.13770
gfz2011hyct  -0.38150
gfz2011hyuh  -0.65111
gfz2011iamf  -0.57819
gfz2011ibew   0.18477
gfz2011ifta  -0.51081
gfz2011inan   0.40537
gfz2011ioch  -0.50767
gfz2011kjzt  -0.35452
gfz2011kjzv  -1.70850
gfz2011kylu  -0.65343
gfz2011kymm   0.93485
gfz2011lkkf   0.33322
gfz2011lmug   0.44322
gfz2011lnzf  -0.55708
gfz2011lrpv  -0.03819
gfz2011lxga   0.47357
gfz2011lykm  -0.02818
gfz2011lywj   0.34446
gfz2011mdyq  -0.23279
gfz2011melb  -1.10200
gfz2011mimz  -0.14829
gfz2011mjje  -0.16986
gfz2011mllb  -0.34617
gfz2011mntq  -0.53660
gfz2011moob   3.86140
gfz2011mror   0.17193
gfz2011mrpy   1.54720
gfz2011mryu   1.31710
gfz2011mzvn  -0.66320
gfz2011nblt  -0.36635
gfz2011ndki  -1.11900
gfz2011ndlh  -0.41795
gfz2011ndoe  -1.17590
gfz2011ndse  -0.10433
gfz2011ndvj  -0.50809
gfz2011neai  -0.00000
gfz2011nejg  -0.78578
gfz2011nejw  -0.24704
gfz2011nfcz   0.05361
gfz2011nfln  -0.17435
gfz2011nftw   0.73370
gfz2011nhby   0.17300
gfz2011nhhd  -0.23081
gfz2011nhjv   3.40710
gfz2011nhvt   0.67128
gfz2011nhwf   0.59436
gfz2011nifi   0.02530
gfz2011nihq   0.34051
gfz2011nijp   0.17566
gfz2011nilw  -0.93023
gfz2011niuw  -0.39386
gfz2011nivw   0.11060
gfz2011nkou  -0.60538
gfz2011nlmf  -2.67960
gfz2011nlnl  -1.46410
gfz2011nlok   0.38413
gfz2011nlum   0.30509
gfz2011nlyw  -3.09770
gfz2011nmdz   0.01705
gfz2011nmhg   0.35493
gfz2011nnda   0.29517
gfz2011nnos  -0.13037
gfz2011nsiy   0.14823
gfz2011nsrx   0.04597
gfz2011nuqo  -0.85930
gfz2011nvty  -0.02151
gfz2011nyzk   0.40799
gfz2011oadm  -0.14059
gfz2011oazk  -0.18509
gfz2011ocif   0.37190
gfz2011ofpj  -0.11783
gfz2011okza   0.35472
gfz2011omxt  -0.32024
gfz2011oqjl  -0.55506
gfz2011osmp  -0.36399
gfz2011owqa   0.55221
gfz2011paqj  -0.15954
gfz2011pbgh  -0.38321
gfz2011pdgq  -0.34477
gfz2011pdsn   0.57553
gfz2011pfls  -0.03150
gfz2011pfwq  -0.81199
gfz2011pgzk  -0.12737
gfz2011pivq   0.29231
gfz2011plzc  -0.19924
gfz2011pmuv  -0.13001
gfz2011poug  -0.00000
gfz2011pphc  -0.51900
gfz2011ppsc  -0.07179
gfz2011prrq   0.55084
gfz2011ptgd  -0.38230
gfz2011pulu   0.56246
gfz2011pwbw   0.10594
gfz2011pwld   0.11371
gfz2011qasw  -0.41397
gfz2011qenl  -0.64543
gfz2011qgea  -0.15165
gfz2011qgvh  -0.03323
gfz2011qgvx  -2.67990
gfz2011qhjw  -0.49524
gfz2011qidi  -0.21297
gfz2011qklh  -1.31440
gfz2011qowe  -1.30110
gfz2011qtoy  -0.30988
gfz2011qukj  -0.23151
gfz2011rkau  -0.61720
gfz2011rnny   0.08693
gfz2011rnsp  -0.22480
gfz2011rplo   0.13699
gfz2011rpoo   0.49733
gfz2011rqut  -0.72170
gfz2011scma  -0.61792
gfz2011sdax  -0.25373
gfz2011sdpl   0.14231
gfz2011sfmu   0.24525
gfz2011sfph   0.17800
gfz2011sqco   0.17956
gfz2011sqxp  -0.91929
gfz2011sskq  -0.47946
gfz2011swfp  -0.38785
gfz2011sxno  -0.44628
gfz2011sylg   0.42440
gfz2011syvj   0.35147
gfz2011szis  -0.38188
gfz2011taqr   0.32652
gfz2011tarj   0.45622
gfz2011tdjj   0.33252
gfz2011tfor  -0.50208
gfz2011tgon   0.12665
gfz2011tjpv  -0.35022
gfz2011tqgg  -0.24114
gfz2011tsgl  -0.34158
gfz2011tssv  -0.45397
gfz2011tvuv   0.12929
gfz2011twpz  -0.48569
gfz2011txxs  -0.90961
gfz2011udjs   0.11889
gfz2011udxo  -0.43047
gfz2011ugbt  -0.41545
gfz2011unud  -0.25757
gfz2011uowi  -0.30749
gfz2011urwz  -1.14720
gfz2011vahy   0.00672
gfz2011vaoi  -0.48189
gfz2011vcyx  -0.93714
gfz2011vimn   0.37333
gfz2011vsag   0.14337
gfz2011vtdl  -0.51623
gfz2011vtzv  -0.02577
gfz2011vxek  -0.05680
gfz2011wbtc   0.31314
gfz2011wkja   0.39770
gfz2011wkyx  -0.54268
gfz2011wngi  -0.11504
gfz2011wtfn   0.47392
gfz2011wucg  -0.09237
gfz2011wwze  -0.09975
gfz2011wyei  -0.04491
gfz2011xdox   2.74600
gfz2011xgbc   0.66683
gfz2011xgwy  -0.03605
gfz2011xkka   0.15799
gfz2011xlod   0.57270
gfz2011xnui   0.19989
gfz2011xpcq  -0.16105
gfz2011xwdv  -0.20325
gfz2011yeck   0.03674
gfz2011yexx  -0.44664
gfz2011ykbd   0.64461
gfz2011ymji  -2.23630
gfz2011ytwk  -0.02066
gfz2011zghc  -0.26479
gfz2011zgxn  -0.37593
gfz2011zkbt   0.84245
gfz2012agwh  -0.16881
gfz2012ahac  -0.29571
gfz2012ahkl  -1.19460
gfz2012alti  -0.40998
gfz2012amjx  -0.19414
gfz2012amvs   0.39421
gfz2012aqpa   0.25883
gfz2012arlo  -0.94912
gfz2012asin  -1.14830
gfz2012atjr  -0.61028
gfz2012auqr  -0.69932
gfz2012avvc   0.25947
gfz2012axrp  -0.13116
gfz2012beae   0.15619
gfz2012bjhl  -0.34075
gfz2012bnwa   0.15512
gfz2012bolx  -0.01570
gfz2012bovy   0.20875
gfz2012brrg  -0.01630
gfz2012byrq  -0.92819
gfz2012bysu  -0.81619
gfz2012bytv   0.48208
gfz2012byuk   0.59400
gfz2012cdju  -0.14565
gfz2012cfdw   0.04135
gfz2012cksh  -0.18245
gfz2012cmww  -0.13741
gfz2012cntu  -0.16544
gfz2012cvfr  -0.30037
gfz2012dbgt  -0.11570
gfz2012dejg  -0.05281
gfz2012dgfk  -0.24591
gfz2012dleg   0.00000
gfz2012dluf   0.83284
gfz2012dnig  -0.07380
gfz2012dpem  -0.31410
gfz2012dpnu  -0.14527
gfz2012dpwv  -0.04420
gfz2012drak  -0.30047
gfz2012drld   0.02236
gfz2012dttl   0.23463
gfz2012dtvr  -0.86968
gfz2012dugf  -0.44569
gfz2012duvf   1.48080
gfz2012duwm  -0.07627
gfz2012dwwu  -0.13894
gfz2012dyck   0.03326
gfz2012dysj   1.19810
gfz2012dysu   0.80735
gfz2012dzen  -0.02831
gfz2012dzjo   0.38227
gfz2012dzot  -0.82011
gfz2012eajr  -2.00260
gfz2012eary   1.56830
gfz2012ebff   0.13795
gfz2012ebgo  -0.58120
gfz2012ebhf  -0.33301
gfz2012ebrr   0.02920
gfz2012eeft   0.20087
gfz2012enrg   0.19232
gfz2012erds  -0.54769
gfz2012evav  -0.01910
gfz2012evxn   0.71013
gfz2012eyti   0.12347
gfz2012fcyq   0.27307
gfz2012fcyr   0.25493
gfz2012fhaf  -0.11625
gfz2012flqf   0.34388
gfz2012foih   0.59223
gfz2012fuyd   0.40825
gfz2012fxgc  -0.67295
gfz2012fyny  -0.22996
gfz2012gdye   0.49623
gfz2012ghiv   0.27208
gfz2012gjdg   0.03287
gfz2012gmsr  -0.70063
gfz2012gnow  -0.26542
gfz2012grmf   0.09085
gfz2012gvxc  -0.35208
gfz2012hdny  -0.23852
gfz2012heih   0.12265
gfz2012hmcv   0.11268
gfz2012hvjc   0.00000
gfz2012hwph  -0.23402
gfz2012hyqh   0.19204
gfz2012hzhn   0.15623
gfz2012hzur  -1.23240
gfz2012iblc  -0.34878
gfz2012iblo   0.78628
gfz2012ibyd   0.49157
gfz2012icjo   0.19754
gfz2012iedy   1.39230
gfz2012ieln  -0.14816
gfz2012iijk  -0.64271
gfz2012iotw   0.42040
gfz2012ipdc   1.09340
gfz2012iroy  -0.01474
gfz2012ivyg  -1.26250
gfz2012iyhs   0.45425
gfz2012iyoi  -0.58734
gfz2012izke  -0.37069
gfz2012jaun  -0.08768
gfz2012jetp   0.21639
gfz2012jihg   0.77517
gfz2012jjxm   0.50702
gfz2012jlez  -0.51775
gfz2012jnlt   0.55970
gfz2012jodg   0.66641
gfz2012jopi  -0.33081
gfz2012jqxx  -0.52543
gfz2012jxnm   0.63811
gfz2012jxxe   1.30260
gfz2012jyhb  -0.08075
gfz2012kmbo  -0.42500
gfz2012kmmz  -0.31655
gfz2012kstg  -0.23431
gfz2012kwmx   0.31530
gfz2012lcro  -0.76090
gfz2012ldjj  -0.21408
gfz2012lqhw  -0.21492
gfz2012lvlr  -0.33651
gfz2012lwha  -0.32766
gfz2012mdzf   0.07472
gfz2012mjuu   0.09201
gfz2012mnth  -0.33777
gfz2012moul   0.77883
gfz2012mout   2.60430
gfz2012movu  -0.46998
gfz2012movv  -0.60487
gfz2012mowv   0.18635
gfz2012mpvl   0.72550
gfz2012mrqk  -0.11234
gfz2012mrwu   0.15029
gfz2012mtyn   0.52365
gfz2012mwhe  -0.35983
gfz2012mxdk  -0.52072
gfz2012mxvk  -1.69930
gfz2012mzco  -0.58017
gfz2012mzqx   0.02607
gfz2012ndsk   0.63152
gfz2012ndwt  -0.20422
gfz2012nfzc  -0.33592
gfz2012nldz   0.57671
gfz2012nmja   1.17040
gfz2012nnck  -0.00418
gfz2012nnqu  -0.08954
gfz2012nqvd  -0.16659
gfz2012nsxc  -0.29518
gfz2012oafg   0.20929
gfz2012oehy   0.39166
gfz2012ofnx  -0.76068
gfz2012ogqu  -0.82991
gfz2012ohgd  -0.05874
gfz2012oieq   0.22430
gfz2012onfs  -0.32202
gfz2012onhu   0.30569
gfz2012ooij  -0.00000
gfz2012oork  -0.34860
gfz2012oozp   0.14662
gfz2012oxnh  -0.04816
gfz2012pcui  -0.35096
gfz2012pdfi  -0.81078
gfz2012pdjt   0.43672
gfz2012phns  -0.19114
gfz2012pifb  -0.20398
gfz2012pmuj  -0.07254
gfz2012pmuq  -0.79218
gfz2012pmws  -0.83243
gfz2012ppcq  -0.04385
gfz2012ppsw  -1.18140
gfz2012prke  -0.11013
gfz2012pumy  -0.44011
gfz2012pvve   0.01203
gfz2012pziw  -0.18405
gfz2012qbbt  -0.49598
gfz2012qfah   1.92610
gfz2012qfov   1.80390
gfz2012qibe  -2.12670
gfz2012qmhz  -0.82678
gfz2012qmxz  -0.10361
gfz2012rfhw   0.74849
gfz2012rjlp   0.41298
gfz2012rknz  -0.08060
gfz2012rnbw  -0.26364
gfz2012rnml   0.56515
gfz2012roan  -0.19820
gfz2012rzwp  -1.02660
gfz2012sbix  -0.19911
gfz2012scuk   0.24369
gfz2012sgfd  -0.02952
gfz2012sjox  -0.61681
gfz2012slfd  -1.04210
gfz2012smyn  -0.45521
gfz2012socz  -0.52916
gfz2012sopp   0.05576
gfz2012sqsc  -0.65453
gfz2012ssnb  -0.60688
gfz2012stxx   0.10657
gfz2012suqd  -0.54871
gfz2012svwz  -0.12454
gfz2012sxpr  -0.16856
gfz2012syum  -0.44187
gfz2012tfij  -2.03680
gfz2012tisj  -0.95348
gfz2012tjih   0.65348
gfz2012trfq  -0.87254
gfz2012trss  -0.16882
gfz2012tsdz   0.42323
gfz2012twec  -0.16101
gfz2012udxg   1.26790
gfz2012uhsx  -0.11833
gfz2012uhtc  -0.00912
gfz2012ukzg   0.58015
gfz2012ulei  -1.08580
gfz2012umob   0.31166
gfz2012unxc  -0.06757
gfz2012uovh  -0.24560
gfz2012utdu  -0.23147
gfz2012uwne   0.38592
gfz2012uzww  -0.35772
gfz2012vaqd  -0.44860
gfz2012vcqw  -0.06787
gfz2012vile  -0.67489
gfz2012vitw  -0.17463
gfz2012vkjw   0.27158
gfz2012vqmq  -0.43590
gfz2012vrqz   0.33917
gfz2012vurc   0.01872
gfz2012wbeu   0.52248
gfz2012wgdv  -0.25647
gfz2012wgmg  -0.75518
gfz2012wiyv  -1.51360
gfz2012wjpf  -0.28521
gfz2012wjsi   0.76262
gfz2012wjxc   0.28184
gfz2012wkki   0.12127
gfz2012wmas  -0.87925
gfz2012wowu  -1.28620
gfz2012woxj  -0.14198
gfz2012wpen   1.79660
gfz2012wysg   0.27161
gfz2012wzja   0.76595
gfz2012xask  -0.04991
gfz2012xcsf   0.09469
gfz2012xfnu  -0.27131
gfz2012xjgb  -0.48698
gfz2012xkln   0.94552
gfz2012xlas  -0.19737
gfz2012xlfo  -0.35026
gfz2012xmwt  -0.46329
gfz2012xncm  -0.84968
gfz2012xtvu  -0.26868
gfz2012xwkx  -0.31063
gfz2012xxdj  -0.42666
gfz2012yegw  -0.68492
gfz2012ylai   0.40939
gfz2012yncm   1.16030
gfz2012yvwc   0.31325
gfz2012ywei  -0.46275
gfz2012yytb  -0.06934
gfz2012yzcf  -0.31777
gfz2012yzih   0.04747
gfz2012zhyz   0.22400
gfz2012zkhu  -0.99510
gfz2012zktj   1.27070
gfz2012zmdf  -0.05254
gfz2012zmfc  -0.65851
gfz2012znou  -0.82776
gfz2013aclz   0.75165
gfz2013agbm  -1.45440
gfz2013agmt  -0.39945
gfz2013ajxz   0.22017
gfz2013ascz   0.44695
gfz2013atak   0.29089
gfz2013aymi  -0.15847
gfz2013bdvi  -0.41668
gfz2013bqfc   0.81595
gfz2013bwgw  -0.22530
gfz2013byyy  -0.41688
gfz2013ccng   0.03911
gfz2013cfls  -0.38922
gfz2013ciof  -0.08270
gfz2013cokc   0.69323
gfz2013cqee   0.12789
gfz2013cyvx  -0.29043
gfz2013ddrx  -0.17775
gfz2013delq  -0.04170
gfz2013dftb   0.29339
gfz2013dfvx  -0.21475
gfz2013djfi  -0.17697
gfz2013dksc  -0.53307
gfz2013dngd  -0.55151
gfz2013dwsp  -0.91618
gfz2013dznt   2.07350
gfz2013dzvr  -0.46889
gfz2013eazm   0.52239
gfz2013efct  -0.09402
gfz2013efys  -0.33380
gfz2013eidd  -0.28612
gfz2013ektd  -0.46830
gfz2013enga  -0.28043
gfz2013esef  -0.80378
gfz2013evcl   0.33832
gfz2013ewht  -0.78505
gfz2013exow   0.03006
gfz2013ezmc  -0.47185
gfz2013ffjt  -0.64705
gfz2013fmcp   0.37651
gfz2013fndg   0.31202
gfz2013fnpa  -0.05993
gfz2013fthi  -0.12954
gfz2013fulo   0.49954
gfz2013fvyr  -0.15518
gfz2013fvzv  -0.21166
gfz2013fwbm  -0.96461
gfz2013fxyr   0.15201
gfz2013fybd   0.15230
gfz2013gbki   0.24297
gfz2013gffe   0.42061
gfz2013gjmk   0.13683
gfz2013gkyn  -0.12326
gfz2013glkq  -0.88959
gfz2013gomv  -0.03634
gfz2013gsnl  -0.53095
gfz2013gyce   0.28932
gfz2013hdbp  -0.42636
gfz2013hduf  -0.46523
gfz2013hinw  -1.25350
gfz2013hjtt  -0.65259
gfz2013hqaa  -0.24422
gfz2013hqcd   0.68240
gfz2013hvzv   0.06507
gfz2013hwps  -1.01250
gfz2013idqu  -0.00000
gfz2013ifag  -0.42626
gfz2013irme  -0.24237
gfz2013iuyv   0.50443
gfz2013iwzn  -0.33128
gfz2013iybv  -0.22951
gfz2013jcnn  -0.52151
gfz2013jfcn  -0.56673
gfz2013jhog   0.26625
gfz2013jlli   0.38778
gfz2013jobl  -0.07236
gfz2013jpir   0.05061
gfz2013jqsk  -0.00000
gfz2013jtsg  -0.52337
gfz2013kats   0.66283
gfz2013kbbg   0.29655
gfz2013kbbn  -0.19903
gfz2013kbkp  -0.30266
gfz2013kjgh  -0.17357
gfz2013kpcb  -0.36945
gfz2013kqab  -0.15081
gfz2013ksaz  -0.02253
gfz2013kslp   0.15517
gfz2013kxof   1.41110
gfz2013lbod   0.08109
gfz2013lbvl  -0.13912
gfz2013lgvf   0.31142
gfz2013ljdu   0.28966
gfz2013lqjj   0.45831
gfz2013lrkp   0.18591
gfz2013mbna  -0.37214
gfz2013mdnp   0.13758
gfz2013mdxj  -0.76070
gfz2013mimp   0.41323
gfz2013mktp  -0.05330
gfz2013mnux  -0.78768
gfz2013mvgq  -0.29257
gfz2013mzaw   0.27247
gfz2013nhkw   0.51568
gfz2013njjh  -0.05985
gfz2013nkgd   0.95058
gfz2013ntfc   0.07629
gfz2013ntiu  -0.05203
gfz2013ntxw  -1.19120
gfz2013oeni   0.25107
gfz2013ohdt  -0.19889
gfz2013ohnj  -0.24766
gfz2013oizq  -0.27962
gfz2013ojza  -0.58968
gfz2013okac  -0.20272
gfz2013olos   0.21762
gfz2013onvl  -0.25851
gfz2013opkx   0.62796
gfz2013orot  -2.13990
gfz2013ortl   0.10469
gfz2013oruq   0.30170
gfz2013osmj   0.37876
gfz2013otuj  -0.02477
gfz2013oywh  -0.01201
gfz2013phhi   0.34667
gfz2013phly   0.13847
gfz2013pizm   0.66425
gfz2013pqkp  -0.58260
gfz2013puiy  -0.59502
gfz2013pvsa  -0.33701
gfz2013qaov  -0.28065
gfz2013qapj   0.02050
gfz2013qdno   0.33769
gfz2013qdpv   0.25547
gfz2013qigb   0.65308
gfz2013qmkt   1.03900
gfz2013qntl  -0.02438
gfz2013qoak  -1.19390
gfz2013qogb   0.47029
gfz2013qxof  -0.45061
gfz2013rdmn   0.39200
gfz2013rfik   0.41641
gfz2013rgcc   0.46290
gfz2013rnsa   0.19216
gfz2013rocs   0.42284
gfz2013rofg  -0.38879
gfz2013rsyt  -0.62364
gfz2013rtvy   0.06799
gfz2013rwkj   0.26765
gfz2013rwog   1.24770
gfz2013ryph  -0.00541
gfz2013sbsp  -0.30494
gfz2013sdkg  -0.39418
gfz2013suck   0.47297
gfz2013taeb  -1.06990
gfz2013tert  -0.45773
gfz2013tgyb  -0.23759
gfz2013wigs  -0.00000
gfz2013wpns  -0.00000
gfz2013wyfl  -0.70403
gfz2013xahp  -0.16996
gfz2013xjmo  -0.55696
gfz2013xlic  -0.15876
gfz2013xmzw  -0.44606
gfz2013xodn  -0.15091
gfz2013xofz  -0.38111
gfz2013xswc  -0.55378
gfz2013xuxr  -0.82699
gfz2013xvps   0.22899
gfz2013yawe  -0.37329
gfz2013yihv  -0.26976
gfz2013ykqw   0.48669
gfz2013yktj   0.21787
gfz2013ymhx   0.18871
gfz2013yqtu  -0.64815
gfz2013ytfm  -0.67620
gfz2013yvnj  -0.07577
gfz2013yvpn  -0.04782
gfz2013yywh  -0.73103
gfz2013zedt   0.14303
gfz2013zfbz  -0.09561
gfz2013zlak  -0.38170
gfz2013zpwk   0.41326
gfz2014aaae   0.18796
gfz2014aedl   0.84853
gfz2014afbt   0.63660
gfz2014ajgi   0.42679
gfz2014alzg   0.62510
gfz2014aqax   0.73541
gfz2014aqop   0.63747
gfz2014avmd   0.23444
gfz2014avzp   0.25763
gfz2014ayxf  -0.25647
gfz2014bdju   0.51827
gfz2014bfjb   0.30371
gfz2014bhch   0.56212
gfz2014bkra  -0.04078
gfz2014bmqw   0.32508
gfz2014bnea   0.31437
gfz2014bqpm   0.24631
gfz2014bumr   0.00820
gfz2014bycg  -0.08954
gfz2014bzus   0.04004
gfz2014cgxj   0.39936
gfz2014cjao   0.41796
gfz2014club  -0.02098
gfz2014cncl   0.05820
gfz2014cokw   0.43084
gfz2014ctdl   0.54699
gfz2014cwcj  -1.04810
gfz2014cwti  -0.78689
gfz2014dbmu   0.33300
gfz2014dggw  -2.61130
gfz2014diuu  -0.36825
gfz2014dpps  -0.60661
gfz2014dtth   0.24729
gfz2014dtto  -0.16299
gfz2014dutu   0.80531
gfz2014dykt  -0.31839
gfz2014edjm   0.42331
gfz2014egvg   0.95076
gfz2014eirs   0.23534
gfz2014eoay   0.40497
gfz2014epnq  -0.13436
gfz2014epue  -0.22162
gfz2014esez  -0.01336
gfz2014etgp   0.61730
gfz2014etqu   0.06980
gfz2014eysf   0.21215
gfz2014ezjq   0.04218
gfz2014ezld   0.85370
gfz2014faex  -0.32673
gfz2014fbef  -0.00000
gfz2014fbli   0.08916
gfz2014fbnr  -0.78961
gfz2014ffqg   0.40052
gfz2014fgbn  -0.74694
gfz2014flxk   0.28826
gfz2014fmdc   0.24524
gfz2014fsir  -0.09129
gfz2014fsje   0.44237
gfz2014fskh   0.08002
gfz2014fwuf   0.19657
gfz2014fxtv   0.02942
gfz2014fxuy  -0.11770
gfz2014gbxg  -0.87780
gfz2014gdbh  -0.07905
gfz2014ginr  -0.08511
gfz2014gnbw   0.15452
gfz2014gnvp   0.24939
gfz2014gqxg   0.16178
gfz2014grwv  -0.07707
gfz2014gssz  -0.02106
gfz2014gutd   0.60503
gfz2014gypw  -0.47617
gfz2014hapg  -1.05380
gfz2014happ   0.42602
gfz2014hgjb   0.59119
gfz2014hhis   0.35931
gfz2014hkcw   0.51062
gfz2014huah   0.25086
gfz2014huqh   0.03984
gfz2014hyea  -0.02925
gfz2014hzzf  -0.58797
gfz2014iaqm   0.71393
gfz2014iayo   0.68991
gfz2014icov   0.67214
gfz2014igrp  -0.12553
gfz2014ijsa  -0.04975
gfz2014ined   0.02650
gfz2014inrg   0.16455
gfz2014irly  -0.18985
gfz2014iusw   0.38667
gfz2014iyuc  -0.87252
gfz2014jarg   0.06004
gfz2014jayh   0.09178
gfz2014jbfp  -3.02240
gfz2014jffe  -0.00000
