# Nsamples: 202  MAD:  0.616  mean:  0.243  variance:  0.619
gfz2010eazu  -1.22350
gfz2010eccq   1.50840
gfz2010edde  -2.54130
gfz2010eutw   0.29673
gfz2010exdl  -3.69780
gfz2010fupn   0.82131
gfz2010kjmp  -0.26661
gfz2010mwdq   0.19149
gfz2010ncrl  -0.38433
gfz2010nmpc  -0.40253
gfz2010nqwf   0.78711
gfz2010nqwo  -0.04066
gfz2010nrjo   0.68888
gfz2010nsck  -0.46575
gfz2010nxsy  -0.17421
gfz2010ocxq  -0.39350
gfz2010pxgh   1.87450
gfz2010qpvi   0.05737
gfz2010qwwx  -0.15851
gfz2010rhas  -0.46125
gfz2010rkfp   0.87209
gfz2010rqwj  -0.85412
gfz2010rywq   0.29308
gfz2010sfee  -0.15866
gfz2010srdb  -0.45807
gfz2010svtn   0.85023
gfz2010szim  -0.46950
gfz2010tcrl   0.84459
gfz2010upfb   0.36442
gfz2010usho   0.34612
gfz2010ustq   0.88046
gfz2010utcg  -0.03499
gfz2010vtdg   2.13860
gfz2010vzzz   0.54778
gfz2010wrxx   1.32200
gfz2010xgzw   0.93273
gfz2010xjck  -0.98854
gfz2010yjev   1.17990
gfz2010yosr  -0.28246
gfz2011cndo   0.07505
gfz2011csju  -0.06300
gfz2011cvcg  -0.44415
gfz2011cvfg   0.72065
gfz2011cykd  -0.63102
gfz2011cynl  -0.05264
gfz2011cyre  -0.27687
gfz2011cyuk   0.29988
gfz2011dbev  -0.23739
gfz2011dbig  -0.24723
gfz2011dbon   0.00865
gfz2011dbwt  -1.17280
gfz2011dcqb   1.54120
gfz2011dcqf  -0.30965
gfz2011deaf   0.49049
gfz2011dkyi  -0.14783
gfz2011dpqx   0.88434
gfz2011ehzq   0.19330
gfz2011eiis   0.13297
gfz2011enva  -0.36060
gfz2011etje   0.41691
gfz2011fgvr   1.14180
gfz2011fnsw   0.00000
gfz2011gbmx  -0.56985
gfz2011gjlx  -0.49232
gfz2011gkzt  -0.53239
gfz2011haid   0.39276
gfz2011hfkj  -0.10945
gfz2011hlqw   0.04957
gfz2011hlsa   0.05541
gfz2011hlth   0.50054
gfz2011hpqp   0.79485
gfz2011hvbu   0.54807
gfz2011jplh  -0.13822
gfz2011jtlg   0.45620
gfz2011kqwo   0.47739
gfz2011kqyg   1.36970
gfz2011kwld   0.94095
gfz2011kxzp  -1.20370
gfz2011lcxq   2.00670
gfz2011lzwj   0.19635
gfz2011mdie   0.52769
gfz2011mpme   0.36143
gfz2011nmnq   1.70810
gfz2011nrwc   0.84401
gfz2011nrwv   0.30795
gfz2011ntkh   0.12568
gfz2011nudm  -0.76571
gfz2011olkk  -0.17073
gfz2011orgn  -0.22345
gfz2011ornx  -0.26486
gfz2011owvz  -0.07022
gfz2011rewa   0.12448
gfz2011rgwp  -1.17570
gfz2011rqui   0.03595
gfz2011sagt   0.15995
gfz2011tbas  -0.18951
gfz2011tcij  -0.28064
gfz2011toub   0.74260
gfz2011tpbl   0.40874
gfz2011ueni  -0.70147
gfz2011vhfi   0.46823
gfz2011vnza  -0.24705
gfz2011vxns  -0.41817
gfz2011vxod   0.74454
gfz2011wxfs  -0.12624
gfz2011wxtk   0.30218
gfz2011xyxj   0.06332
gfz2011zklv   0.00000
gfz2012aqgp   0.61546
gfz2012attr   0.04671
gfz2012bfah  -0.15815
gfz2012bpkx  -0.09905
gfz2012cxdn   0.20455
gfz2012ekda   0.45396
gfz2012fivh  -0.78893
gfz2012hnul  -0.59622
gfz2012hnuw   1.72740
gfz2012ihdl  -0.59741
gfz2012ilvn  -0.09307
gfz2012jgvj  -0.01614
gfz2012jlox   0.79541
gfz2012jpgs   0.11736
gfz2012jupx   0.90602
gfz2012keor  -0.17973
gfz2012kkcp   0.27962
gfz2012kkup   0.34379
gfz2012klhx   0.42507
gfz2012kuct  -0.48150
gfz2012kudo  -0.00982
gfz2012kwgo   2.58190
gfz2012lczo   0.02423
gfz2012ldxg   1.87460
gfz2012lxkv   0.66775
gfz2012nkdf  -0.09359
gfz2012oazn   0.80484
gfz2012obgw   0.61222
gfz2012pciw   0.27229
gfz2012rwov   0.78996
gfz2012sphd   0.02062
gfz2012teic  -0.31252
gfz2012thfx  -0.64179
gfz2012tvmv  -0.03093
gfz2012tzcc   0.05827
gfz2012uafg   0.57697
gfz2012uaqj  -0.07282
gfz2012vrgb   1.53580
gfz2012wklq   0.54353
gfz2012wvfl   1.45600
gfz2012wxlg   0.42524
gfz2012wypz   0.09626
gfz2012zfag   0.99068
gfz2012zitl   0.37517
gfz2012zjpv   1.09370
gfz2013axoj   0.38781
gfz2013ccnr  -0.50160
gfz2013cwpn   0.79240
gfz2013dkly   0.20710
gfz2013drxz  -0.07475
gfz2013gdnq   1.51980
gfz2013iunn   0.08956
gfz2013jdrx   0.70160
gfz2013jesk   0.37677
gfz2013jgij  -0.04185
gfz2013jgip  -0.49185
gfz2013jkut   1.46900
gfz2013jwvc   0.29087
gfz2013kdeo   1.51410
gfz2013lixa  -0.18613
gfz2013lxyn   1.15270
gfz2013lyko   0.08162
gfz2013mqmv   1.95330
gfz2013ngnt   0.29341
gfz2013nkgj   0.04986
gfz2013nnzf   0.19502
gfz2013nvdj   0.27977
gfz2013nwdi   1.29520
gfz2013ogde  -0.03299
gfz2013pfbx   0.94421
gfz2013pxsj  -0.70463
gfz2013qmer   0.23977
gfz2013sdus   0.85417
gfz2013suvn  -0.61853
gfz2013svci  -0.28681
gfz2013tcxc   0.89968
gfz2013tlaf  -0.31545
gfz2013toea  -0.00000
gfz2013twwf   3.24300
gfz2013uauo  -0.47743
gfz2014ande   0.67585
gfz2014arpf  -0.29933
gfz2014bfng   0.98629
gfz2014bldx  -0.49944
gfz2014bwue   0.16278
gfz2014bzxy   0.13980
gfz2014cbtl  -0.10470
gfz2014hjgr   1.46480
gfz2014hzfw   0.55020
gfz2014hzhe  -0.55894
gfz2014ubwn   0.91540
gfz2014watn   0.05200
gfz2014xjri   0.63494
gfz2014yhhm   0.88803
