# Nsamples: 35  MAD:  0.527  mean: -0.434  variance:  0.406
gfz2010bxxs  -0.85083
gfz2010grjd  -0.95933
gfz2010iull  -0.82003
gfz2010nmpc  -0.78643
gfz2011aatr  -0.44897
gfz2011enva  -0.29189
gfz2011hlqw  -0.27171
gfz2011hlsa  -0.49679
gfz2011lcxq  -0.30005
gfz2011lzwj  -1.05350
gfz2011rewa  -0.21503
gfz2011toub  -0.87515
gfz2011wxfs  -0.93403
gfz2012enno  -0.10297
gfz2012jlox  -1.00010
gfz2012kkup  -0.64637
gfz2012klhx  -0.56400
gfz2012kudo  -0.66788
gfz2012wypz  -0.43253
gfz2013ccnr   1.10610
gfz2013drxz  -0.20858
gfz2013jkut  -0.18300
gfz2013kdeo   0.12788
gfz2013pfbx  -0.99728
gfz2014bwue  -1.06050
gfz2014fhla   1.46080
gfz2014ftka   0.22850
gfz2014gkqf  -0.67345
gfz2014gmge   1.05500
gfz2014goba  -1.01230
gfz2014hasj  -0.62751
gfz2014jpep  -0.19832
gfz2014nqfm  -0.71949
gfz2014ssvz  -1.67670
gfz2015mpte  -0.09450
