# Nsamples: 21  MAD:  0.775  mean:  0.007  variance:  2.136
gfz2010nmpc  -0.37886
gfz2011aatr  -0.30909
gfz2011enva  -0.13843
gfz2011gkzt  -2.21100
gfz2011hlsa   0.43573
gfz2011toub  -0.37868
gfz2012enno  -0.21409
gfz2012kkup  -0.11489
gfz2012ldxg   0.32501
gfz2012ldzj   3.63670
gfz2012teic   2.40770
gfz2012ttoa   1.76300
gfz2012vrgb   0.15019
gfz2013kdeo   0.85938
gfz2014bwue  -0.63762
gfz2014goba   1.00680
gfz2014ifzj  -1.53490
gfz2014nqfm  -1.82940
gfz2014qqhm  -3.00490
gfz2014ssvz   0.40483
gfz2015mpte  -0.09622
