# Nsamples: 182  MAD:  0.899  mean: -0.155  variance:  2.418
gfz2012mkpn  -2.34360
gfz2012naqz   2.31420
gfz2012nedn  -1.63700
gfz2012oedb  -0.26493
gfz2012pazr   1.07620
gfz2012pkel  -2.62030
gfz2012qtgs  -6.06300
gfz2012quso   0.05504
gfz2012rats   0.73333
gfz2012rboy  -0.54151
gfz2012rknn  -2.73630
gfz2012royy  -0.39281
gfz2012rwql   7.85360
gfz2012sphd  -1.32510
gfz2012ttoa  -0.33960
gfz2012wklq  -0.45106
gfz2012wrir  -1.39500
gfz2012wvfl  -0.04336
gfz2012wypz  -0.28600
gfz2012xbjq  -0.52267
gfz2012xeul  -0.25791
gfz2012xyua  -0.05220
gfz2012yfrp  -0.56594
gfz2012ziml   0.98275
gfz2012zitl   1.71910
gfz2012zjpv   5.23890
gfz2013apmm   3.37180
gfz2013bnxc   0.29815
gfz2013bouj   0.86827
gfz2013drxz  -1.49390
gfz2013fnzr   1.24240
gfz2013fwxa  -0.87466
gfz2013gihf  -0.46160
gfz2013gock  -0.28667
gfz2013hkja   1.92330
gfz2013huwr   0.95498
gfz2013iayx  -0.52950
gfz2013idbb  -0.15186
gfz2013iexo  -0.75722
gfz2013ifpq   0.05764
gfz2013ikgo  -3.00010
gfz2013inux   1.34720
gfz2013iqzq   1.69490
gfz2013iunn   1.24180
gfz2013jgip  -1.51680
gfz2013jkut   0.71986
gfz2013jusj   0.13317
gfz2013kdeo   2.27630
gfz2013kheb  -3.43290
gfz2013kwps   1.61890
gfz2013ldqb  -0.85703
gfz2013lixa  -0.08722
gfz2013mqik  -0.88345
gfz2013mqmv   2.14430
gfz2014duqn  -0.45351
gfz2014eght  -0.52708
gfz2014ejvf  -0.12038
gfz2014ekcr   0.73700
gfz2014eqpl  -0.12891
gfz2014fnyg   0.38391
gfz2014ftka   0.27103
gfz2014gbcz  -3.72250
gfz2014gltx   2.24340
gfz2014gmge  -0.77967
gfz2014gmhr   0.20528
gfz2014gmic  -0.69415
gfz2014gmip  -0.36184
gfz2014gmjo   1.08110
gfz2014gmku   0.91380
gfz2014gmlz  -0.23173
gfz2014gmnb   0.10903
gfz2014gmnw   0.17730
gfz2014gmuw   0.71504
gfz2014gnxb   0.40702
gfz2014goba  -1.42610
gfz2014gogv   0.05655
gfz2014gpya  -1.10170
gfz2014gqbj  -0.19858
gfz2014gqer   0.47593
gfz2014gqjr   0.28482
gfz2014gqve   0.28891
gfz2014gsqs   0.16129
gfz2014gull   0.09371
gfz2014gumd   0.82528
gfz2014gvrd   0.39569
gfz2014gwab  -1.86460
gfz2014kmmt  -0.10828
gfz2014kndc  -0.03481
gfz2014knks   0.84351
gfz2015ansu  -0.35142
gfz2015arpd  -0.31008
gfz2015aruz   1.17440
gfz2015bavu   0.03544
gfz2015bdyd  -0.07021
gfz2015berb  -0.56055
gfz2015bfzt   0.21719
gfz2015bkbj   0.81123
gfz2015bphe   0.18269
gfz2015bsnl  -0.36403
gfz2015bucr   1.37210
gfz2015bvsj  -0.10055
gfz2015byfn  -0.87199
gfz2015byjd   0.86735
gfz2015cewd   0.82201
gfz2015cxxk  -0.51050
gfz2015cyjd  -0.29353
gfz2015dskr   1.64110
gfz2015dtqr   0.26053
gfz2015dvbn  -0.49419
gfz2015ecgq   0.09417
gfz2015eiky  -0.65937
gfz2015elgy   1.59050
gfz2015emin  -0.52932
gfz2015enth  -0.22526
gfz2015fbbk  -0.53190
gfz2015fbew   2.51700
gfz2015fdpr  -0.49455
gfz2015fkgt  -2.87740
gfz2015fkuu   0.99784
gfz2015flis  -1.84370
gfz2015fsjj  -0.40016
gfz2015gckd  -0.67189
gfz2015gkwa   4.33510
gfz2015guhd  -1.18310
gfz2015gzja   1.54950
gfz2015hepg  -0.70415
gfz2015hgbk   1.19560
gfz2015hlfq  -0.31093
gfz2015hvgs  -0.44492
gfz2015idho  -0.40851
gfz2015igsy  -0.79662
gfz2015ijmh   0.54359
gfz2015ixyy  -1.55390
gfz2015jpap   0.58206
gfz2015kcaa   0.10898
gfz2015kfsu   0.18106
gfz2015kkqb  -0.82830
gfz2015lcma   1.45520
gfz2015lfud  -0.46540
gfz2015lhjq   0.27016
gfz2015lhjy   0.77439
gfz2015lytv  -3.66530
gfz2015lzad  -1.92880
gfz2015mddr   0.16830
gfz2015mvzk  -0.96944
gfz2015nwug  -1.98520
gfz2015othd  -0.89403
gfz2015pjgr  -0.48421
gfz2015prlr   0.03623
gfz2015puah  -0.87102
gfz2015puqp  -0.73743
gfz2015qnho  -0.03153
gfz2015rddx   0.67384
gfz2015rgrg  -0.76578
gfz2015rkbq   0.10210
gfz2015rkrg  -1.00890
gfz2015rkzg  -1.67080
gfz2015rxmg  -0.60340
gfz2015sfdd  -1.64940
gfz2015sfdy  -0.47947
gfz2015sfln   0.40595
gfz2015sfqo   0.16982
gfz2015sjgk  -0.61947
gfz2015sjjb  -3.92390
gfz2015sjne  -0.47686
gfz2015smym  -2.78660
gfz2015snwh  -2.25190
gfz2015snyd   2.17590
gfz2015soat  -1.76640
gfz2015soxc  -3.35740
gfz2015sqmy   2.14390
gfz2015ssoe  -0.23205
gfz2015stfy   1.63040
gfz2015subz  -0.23289
gfz2015svwm  -0.58717
gfz2015taml   0.27780
gfz2015teyc  -0.34326
gfz2015thgp  -3.69520
gfz2015tiyc  -2.40420
gfz2015tjys   0.04086
gfz2015tkol  -0.42630
gfz2015tnjd  -2.49000
