# Nsamples: 28  MAD:  0.506  mean: -0.087  variance:  0.394
gfz2010iull  -0.71493
gfz2010nmpc  -0.49981
gfz2011aatr  -0.22423
gfz2011enva   0.53541
gfz2011gjlx   0.11106
gfz2011hlqw  -0.45474
gfz2011hlsa  -0.37541
gfz2011hlth   0.79194
gfz2011lcxq  -0.42138
gfz2011lzwj  -0.62655
gfz2011toub  -0.54038
gfz2011wxfs  -0.89909
gfz2012enno  -0.32208
gfz2012jlox  -0.53450
gfz2012kkup  -0.10320
gfz2012klhx   0.05611
gfz2012kudo  -0.47114
gfz2012ldxg  -0.87578
gfz2012wypz  -0.29783
gfz2013ccnr   1.34380
gfz2013drxz   0.11167
gfz2014fhla   1.50010
gfz2014ftka   0.99538
gfz2014qqhm   0.45228
gfz2014ssvz   0.02577
gfz2015chhn   0.09869
gfz2015lhjy  -0.81679
gfz2015tiyc  -0.27941
