# Nsamples: 69  MAD:  0.430  mean:  0.096  variance:  0.756
gfz2010bxxs   0.11825
gfz2010cdbt   0.25606
gfz2010cqwl  -0.67402
gfz2010ebhc  -0.02409
gfz2010grjd   0.10740
gfz2010iull  -0.25881
gfz2010nmpc  -0.04545
gfz2010usho   0.29186
gfz2011aatr   0.19406
gfz2011bgrp   4.70760
gfz2011cfae  -0.24700
gfz2011dpqx  -1.29500
gfz2011enva  -0.29473
gfz2011gkzt   0.99584
gfz2011hlqw  -0.01665
gfz2011hlsa  -0.01194
gfz2011hlth   0.43069
gfz2011jplh   0.32804
gfz2011lcxq   0.13536
gfz2011lzwj  -0.03184
gfz2011mdie  -0.16763
gfz2011rewa   0.57947
gfz2011toub  -0.02296
gfz2011xyxj   0.89097
gfz2012enno   0.39143
gfz2012jlox   0.02224
gfz2012kkup   0.58179
gfz2012klhx   0.66598
gfz2012kuct   0.09074
gfz2012kudo   0.01178
gfz2012ldxg   0.61411
gfz2012ldzj  -0.18966
gfz2012teic  -0.69684
gfz2012vrgb  -0.06171
gfz2012wypz  -0.07203
gfz2013ccnr   0.73016
gfz2013drxz   0.37023
gfz2013ifpq  -0.14334
gfz2013jkut   0.35287
gfz2013pfbx  -0.04064
gfz2014ande  -0.83246
gfz2014bwue  -0.35889
gfz2014fhla   0.47425
gfz2014fimn  -0.59411
gfz2014fkmr   0.11380
gfz2014frdz   2.98390
gfz2014ftka   0.25926
gfz2014gkhy   0.08863
gfz2014gkqf  -0.28490
gfz2014glcu  -1.19260
gfz2014gltx   0.10158
gfz2014gmge   0.67191
gfz2014gmnb   0.25739
gfz2014goba  -0.56671
gfz2014gull   0.56565
gfz2014hasj   0.13453
gfz2014hqxs  -0.17310
gfz2014huaj  -0.34833
gfz2014jjhc  -0.37891
gfz2014jpep  -0.34767
gfz2014lgqn   0.71834
gfz2014nqfm   0.38466
gfz2014qqhm   0.27811
gfz2014ssvz   0.09624
gfz2014ubwn  -0.06432
gfz2015berb  -0.77111
gfz2015mpte  -2.69410
gfz2015taml   0.37855
gfz2015tlkf  -0.85332
