# Nsamples: 898  MAD:  0.474  mean: -0.051  variance:  0.755
gfz2013lznu  -0.28287
gfz2013mded   0.37522
gfz2013mghe  -0.12944
gfz2013mmlw  -1.54820
gfz2013mvgr   0.26683
gfz2013neuc   0.41123
gfz2013nfwx   0.63035
gfz2013ngnt  -0.19213
gfz2013njnd  -1.53610
gfz2013nlxz   1.45540
gfz2013nojf  -3.97280
gfz2013nskg   0.63357
gfz2013nuor   2.35800
gfz2013nuvi  -1.59310
gfz2013nvdj  -0.21314
gfz2013nwdi  -0.13454
gfz2013onjy   4.44700
gfz2013oqsc  -0.29719
gfz2013orzn  -0.49745
gfz2013ozqm  -1.45370
gfz2013ozrf  -1.48120
gfz2013pfbx  -0.08243
gfz2013pfeb  -0.41109
gfz2013pffm   0.70233
gfz2013poxj  -0.12881
gfz2013puag   0.06596
gfz2013pxsj   0.08961
gfz2013pxya   1.02230
gfz2013qidm  -1.45880
gfz2013qmer  -0.01093
gfz2013rdoo   0.59801
gfz2013reav  -2.34100
gfz2013sdus   1.52980
gfz2013shzy   0.08186
gfz2013sllq  -0.15253
gfz2013snbr  -0.26525
gfz2013sqkb   0.38570
gfz2013stht  -0.07662
gfz2013suln   1.91770
gfz2013svci  -0.42969
gfz2013sxbw   0.03272
gfz2013toea   0.04373
gfz2013tqbb   1.15580
gfz2013tusd  -0.63856
gfz2013uhlm   0.12452
gfz2013upee  -0.44239
gfz2013uqsp   0.35489
gfz2013utsh   0.06176
gfz2013uxej  -2.73000
gfz2013uysr  -1.53830
gfz2013vfyw  -0.08460
gfz2013vfzp  -0.42730
gfz2013vgev   0.02269
gfz2013vhnk  -0.34755
gfz2013vhzu   0.12369
gfz2013vijl  -0.92830
gfz2013viul   0.00000
gfz2013vjjc  -0.69641
gfz2013vlth   0.11991
gfz2013vpnf   0.09282
gfz2013vqot   0.51772
gfz2013vrmy   1.10230
gfz2013vvrq   0.18719
gfz2013vzbo  -0.13279
gfz2013wjmm  -0.32110
gfz2013wmfd  -0.72588
gfz2013wnpr  -2.00320
gfz2013wpga  -1.91540
gfz2013wqhq   0.75956
gfz2013wtzl  -0.86873
gfz2013xklb  -2.04730
gfz2013xmqg  -0.53566
gfz2013xmul  -0.30602
gfz2013xqnn   1.39190
gfz2013xsdt   0.11727
gfz2013xvqd   0.27113
gfz2013xwda  -0.63450
gfz2013xxcc   0.75597
gfz2013xxwv  -0.41515
gfz2013xxxq  -1.30120
gfz2013yach  -0.85282
gfz2013yaig  -0.56788
gfz2013yctg  -1.05690
gfz2013yhbu  -1.57950
gfz2013yixl  -0.12988
gfz2013ylbx  -1.64780
gfz2013ymky  -0.77006
gfz2013ynmw  -0.57000
gfz2013ypdc   0.30850
gfz2013yqkv   0.37722
gfz2013yulx   9.91770
gfz2013yyhc  -0.00596
gfz2013yyti   0.00000
gfz2013yzte  -0.66769
gfz2013zfhu   2.65830
gfz2013zjel   0.23670
gfz2013zjtw  -0.28130
gfz2013zmoc  -0.50536
gfz2013zmtb  -0.04446
gfz2014aawc  -0.08393
gfz2014adoj  -0.84281
gfz2014afmx   0.04116
gfz2014agde  -0.22293
gfz2014ajlk  -0.04746
gfz2014ajtf  -0.16368
gfz2014algk  -0.18857
gfz2014alwz   0.06683
gfz2014amsb   0.14397
gfz2014ande  -0.17400
gfz2014ared  -0.83536
gfz2014arpf   0.32324
gfz2014arqr   0.34028
gfz2014atbl  -0.44878
gfz2014bagd  -0.20499
gfz2014bbro  -0.27601
gfz2014bdfd  -1.05040
gfz2014bekc   0.05100
gfz2014bezu  -0.03058
gfz2014bfng  -2.01890
gfz2014bfqo  -0.08697
gfz2014bhvd  -0.46693
gfz2014bjgt   1.01770
gfz2014bldx  -0.13191
gfz2014bmta   0.13203
gfz2014bwue  -0.73189
gfz2014bzxy  -0.53232
gfz2014caop  -0.45125
gfz2014cbtl  -0.24949
gfz2014cgog  -0.20580
gfz2014chdv  -0.05420
gfz2014citw  -0.19896
gfz2014claq  -0.97654
gfz2014clnj  -0.23376
gfz2014clnq  -0.01328
gfz2014cmwb   0.58076
gfz2014ctot  -0.43251
gfz2014cueu  -0.35960
gfz2014cvkm  -0.53471
gfz2014cvxx   0.09951
gfz2014cyvm  -0.06366
gfz2014czno  -0.08204
gfz2014czol   0.59345
gfz2014czqi   0.04104
gfz2014czua   0.18502
gfz2014dddc   0.08962
gfz2014dffd   0.27221
gfz2014dgiy   1.41080
gfz2014dhxt   0.08589
gfz2014disp   0.27575
gfz2014fedd   0.22072
gfz2014femz   0.32094
gfz2014fexu  -0.84171
gfz2014ffdc  -0.00000
gfz2014fgvi  -0.47739
gfz2014fgwt   4.14440
gfz2014fgxt  -0.08841
gfz2014fgxz   0.05652
gfz2014fgyo   0.07962
gfz2014fgza   0.05018
gfz2014fhbd   0.16901
gfz2014fhdw  -0.21586
gfz2014fhgb   0.32231
gfz2014fhhp   0.61997
gfz2014fhla  -0.50028
gfz2014fhrq   0.09605
gfz2014fhsg   0.22977
gfz2014fhwx  -0.59677
gfz2014fhxm  -2.15470
gfz2014fiwq  -0.15133
gfz2014fjpb  -0.00000
gfz2014fjyo  -0.29056
gfz2014fjzw   1.27320
gfz2014fkmr  -0.14118
gfz2014fkmx  -0.19629
gfz2014fles  -0.31961
gfz2014flfa  -0.09494
gfz2014fnbh  -0.83999
gfz2014fnyg   0.19374
gfz2014fqpz   0.29446
gfz2014frdz  -0.50777
gfz2014frel   0.09801
gfz2014frez  -0.42095
gfz2014frfl  -0.45663
gfz2014frjr   0.52823
gfz2014frnb   0.18588
gfz2014frwh  -0.47905
gfz2014fstx   0.63012
gfz2014fsuh  -0.93070
gfz2014fszc  -0.25956
gfz2014ftgx  -0.25857
gfz2014ftka  -0.40555
gfz2014ftpw   0.19357
gfz2014ftrk  -0.41639
gfz2014ftvc  -0.50304
gfz2014furx  -0.94012
gfz2014fusc   0.38811
gfz2014fusj   0.41261
gfz2014fuub   0.88845
gfz2014fuup  -0.00000
gfz2014fuzi   0.17108
gfz2014fvaa  -0.82159
gfz2014fval  -0.27516
gfz2014fvdx   1.58920
gfz2014fvgh   0.02860
gfz2014fvhp   0.34196
gfz2014fvjl   0.00000
gfz2014fvpy  -0.46226
gfz2014fvrg  -0.01011
gfz2014fvve  -0.38800
gfz2014fwdr   0.14343
gfz2014fwtt  -1.55770
gfz2014fxpu   0.55666
gfz2014fzgx   0.27848
gfz2014gbcz  -0.29863
gfz2014gbdq  -4.28540
gfz2014gbjf  -0.78684
gfz2014gcza   0.05358
gfz2014gdsq   0.64091
gfz2014geuy   0.03705
gfz2014gezs  -0.03965
gfz2014gfdj  -0.56414
gfz2014gkgf  -0.93283
gfz2014gkgl   0.12439
gfz2014gkjl   0.40903
gfz2014gkjw  -0.18640
gfz2014gklq  -0.13429
gfz2014gklv   0.11684
gfz2014gkmm  -0.47805
gfz2014gkmw   2.18850
gfz2014gkob  -0.04155
gfz2014gkok   0.97519
gfz2014gkpd   0.10687
gfz2014gkpj   0.57542
gfz2014gkqf  -0.82409
gfz2014gkqu  -2.52300
gfz2014gkrl   0.06969
gfz2014gkrz  -0.37612
gfz2014gksu   0.35366
gfz2014gktn  -2.91350
gfz2014gktq  -0.33385
gfz2014gkut   0.83451
gfz2014gkvk   1.15500
gfz2014gkxm   0.01695
gfz2014glcu  -0.00545
gfz2014glcy  -0.62231
gfz2014glfn  -0.34146
gfz2014glhs   0.45065
gfz2014glov   0.43886
gfz2014glsh   0.13548
gfz2014gltx  -0.15355
gfz2014glvn  -0.79802
gfz2014glvu   0.67231
gfz2014glxd   0.00000
gfz2014glxy   0.19747
gfz2014gmci  -0.28381
gfz2014gmge  -0.11162
gfz2014gmhp  -0.64172
gfz2014gmhr  -0.96454
gfz2014gmip  -1.73070
gfz2014gmjo  -0.03417
gfz2014gmjz   0.30908
gfz2014gmku   0.37584
gfz2014gmlz   0.30282
gfz2014gmmk  -0.08610
gfz2014gmmt   0.01728
gfz2014gmnb  -0.59224
gfz2014gmnw   0.44433
gfz2014gmor   0.43599
gfz2014gmpy  -0.04150
gfz2014gmqw  -0.01318
gfz2014gmrj   0.37531
gfz2014gmtb   0.18094
gfz2014gmtj  -0.39138
gfz2014gmuk   0.38626
gfz2014gmvr   0.15754
gfz2014gmzl  -0.02685
gfz2014gmzs   0.71377
gfz2014gnfd   0.39030
gfz2014gnhk   0.32598
gfz2014gnig  -0.22595
gfz2014gnmp   0.23315
gfz2014gnms   0.36452
gfz2014gnmx   0.30972
gfz2014gnno  -0.48545
gfz2014gnom  -0.06102
gfz2014gnoz  -0.22983
gfz2014gnqt  -0.31739
gfz2014gnre  -0.44211
gfz2014gnsi   0.62144
gfz2014gnvw  -0.58102
gfz2014gnwg  -0.19396
gfz2014goba  -0.40837
gfz2014goei   0.62269
gfz2014gogv  -0.13557
gfz2014gohm   0.42044
gfz2014golz  -0.31802
gfz2014gono   0.07513
gfz2014goqw  -0.25053
gfz2014gpam  -2.67740
gfz2014gpce  -0.00886
gfz2014gutm   0.68334
gfz2014gvhw   0.03457
gfz2014gvqj   0.22772
gfz2014gvra  -0.21709
gfz2014gvrd  -0.43743
gfz2014gwab   0.59215
gfz2014gwap   0.44346
gfz2014gwgf   0.14004
gfz2014gwqj  -0.45562
gfz2014gxkh   0.29775
gfz2014gxqu  -0.54742
gfz2014gxxh  -0.05125
gfz2014gxxo   0.16763
gfz2014gyxd   0.22145
gfz2014gzrm  -0.05001
gfz2014gzue  -0.06700
gfz2014haey   0.09742
gfz2014hafk  -0.12772
gfz2014hagb   0.16964
gfz2014haos   0.35316
gfz2014hasj   0.25826
gfz2014hauo   0.70372
gfz2014hbjm   0.89855
gfz2014hbjz   0.14937
gfz2014hbqb   0.21358
gfz2014hcns  -0.69149
gfz2014heum  -0.83961
gfz2014hfad   0.35494
gfz2014hfhl  -0.17717
gfz2014hfzf  -0.48575
gfz2014hgqo   0.07519
gfz2014hhfs  -0.40975
gfz2014hhwx  -1.58770
gfz2014hifp   0.78560
gfz2014hiih   0.21695
gfz2014hiiz  -1.95140
gfz2014hjgh  -0.03044
gfz2014hjgo   0.44735
gfz2014hjgr   0.13361
gfz2014hjij  -0.16061
gfz2014hjlx  -0.38105
gfz2014hkcf   0.14493
gfz2014hkck   0.00000
gfz2014hmgf   0.42086
gfz2014hmzg   0.54010
gfz2014hnfm   0.53907
gfz2014hoap  -0.51043
gfz2014hocg  -1.30230
gfz2014hphw  -0.14982
gfz2014hppw  -0.28197
gfz2014hpqz  -0.79994
gfz2014hqxs  -0.72996
gfz2014hqyx   0.36137
gfz2014hrft  -0.07891
gfz2014hriu   1.02560
gfz2014hrtn   0.30423
gfz2014hscz   0.09030
gfz2014huaj   0.42044
gfz2014hwwi   0.68113
gfz2014hyal  -1.17660
gfz2014hymr  -0.14321
gfz2014hyvq   0.20208
gfz2014hzdy  -0.29725
gfz2014hzfw   0.42291
gfz2014hzgn   0.10484
gfz2014hzhe   0.59785
gfz2014hzig   1.13980
gfz2014iani   0.04154
gfz2014iava  -0.68790
gfz2014icqt   0.68085
gfz2014ieam  -2.78300
gfz2014ieho  -0.21432
gfz2014ifue   0.31684
gfz2014ifzj   0.10885
gfz2014ijvh   0.45885
gfz2014ikbk   0.06916
gfz2014ikvd   0.14123
gfz2014immt  -0.21348
gfz2014imnn  -0.00000
gfz2014inbj  -1.73940
gfz2014iobd  -0.37678
gfz2014iqzj   0.65730
gfz2014irci   0.07157
gfz2014ircq   0.31153
gfz2014irrg   0.61966
gfz2014isdq  -0.02588
gfz2014isff   0.95349
gfz2014isub   0.30836
gfz2014isys   0.85720
gfz2014itab   0.07710
gfz2014itbe  -0.20095
gfz2014itbu   0.65839
gfz2014itfc   0.46638
gfz2014itgh  -0.07633
gfz2014itjx  -0.81402
gfz2014itkw  -0.00000
gfz2014itpj  -0.03601
gfz2014iuhq  -0.22225
gfz2014iwnf   0.19401
gfz2014ixga   0.33082
gfz2014jagg   0.24147
gfz2014jatq  -0.22976
gfz2014jbyg  -0.63062
gfz2014jcjt   0.24529
gfz2014jcmt  -1.46870
gfz2014jesb  -0.45434
gfz2014jfis  -0.56747
gfz2014jggm   0.16646
gfz2014jhra  -1.20440
gfz2014jjhc   0.42304
gfz2014jjln  -0.98382
gfz2014jjqk   0.09950
gfz2014jkxe   0.60546
gfz2014jnxm  -0.20565
gfz2014jnyv  -0.07717
gfz2014jomw   0.36026
gfz2014jpep   0.10626
gfz2014jpgu   0.21768
gfz2014jwmh   0.78635
gfz2014kara  -0.08301
gfz2014kbuk   0.04298
gfz2014kbwm  -2.29700
gfz2014khan  -0.01484
gfz2014khlk   0.88776
gfz2014kkhh  -0.11313
gfz2014kmmt  -0.79505
gfz2014kndc   0.48475
gfz2014knks   0.57149
gfz2014knxs   0.37249
gfz2014kscf   0.57508
gfz2014ksdv   1.04750
gfz2014ksmz  -0.27692
gfz2014kssw   2.03440
gfz2014kwrg   0.24335
gfz2014kwwg  -0.78930
gfz2014kxqf   0.16161
gfz2014kyan   0.30755
gfz2014kytf   0.42364
gfz2014lchy   0.33535
gfz2014ldhu   0.68743
gfz2014lefs   0.38958
gfz2014lgqn  -0.26629
gfz2014lhqn  -0.31474
gfz2014ljbr  -0.86625
gfz2014lkyf  -0.16342
gfz2014lnqy   0.93056
gfz2014lpim   0.19831
gfz2014lurd   0.91999
gfz2014lvgn   0.17669
gfz2014lwsw   0.45447
gfz2014lwvb  -0.18204
gfz2014lxnc   0.10725
gfz2014lxqr   0.22283
gfz2014lyhk  -0.14176
gfz2014lyhp   0.99690
gfz2014lynp   0.05904
gfz2014lzal   0.13757
gfz2014macx  -0.04688
gfz2014madw  -0.38377
gfz2014mawp   0.17137
gfz2014mcse  -0.31507
gfz2014mden   0.34809
gfz2014mhgg   0.00000
gfz2014mlqw   0.44234
gfz2014mlrr   0.10696
gfz2014mmtb   0.58228
gfz2014moaw   0.78483
gfz2014mogb   0.68172
gfz2014mtum   0.15064
gfz2014mvza  -0.18762
gfz2014mwor   0.06557
gfz2014nafd  -0.07204
gfz2014navw  -0.12439
gfz2014ndue  -1.68810
gfz2014ngnd   0.81954
gfz2014ngsk  -0.16092
gfz2014niqj  -1.92240
gfz2014nkdx   0.46077
gfz2014nnih  -1.17070
gfz2014nnxd  -0.06910
gfz2014nowp  -0.24145
gfz2014npeo  -0.16399
gfz2014nphm   0.86730
gfz2014nqbs  -0.82772
gfz2014nrie  -3.40050
gfz2014ntdh   0.67812
gfz2014nyeh  -0.56973
gfz2014nyfb   0.18203
gfz2014nyko   1.11830
gfz2014nylm  -1.11010
gfz2014odgv   0.20371
gfz2014oims   0.42333
gfz2014oinz   0.17371
gfz2014ojdg   0.00960
gfz2014okec  -0.40658
gfz2014okjw   0.65469
gfz2014omyn  -0.46324
gfz2014oqhw   0.38226
gfz2014orxs   0.52880
gfz2014oryw  -1.23900
gfz2014osvx   0.37331
gfz2014owxc  -1.80010
gfz2014oxcc  -0.69653
gfz2014oyly   0.22044
gfz2014pkll   0.46983
gfz2014ppyi   0.33589
gfz2014ppzf   0.19187
gfz2014pqrc  -0.35446
gfz2014pvch   0.55729
gfz2014pzni  -0.21511
gfz2014qbzi   0.13148
gfz2014qdog  -0.04219
gfz2014qfzq   0.06260
gfz2014qjfl   0.45495
gfz2014qjgp   0.08341
gfz2014raau  -2.35780
gfz2014rbsl  -0.55094
gfz2014rdsn   1.00590
gfz2014rghp   0.16944
gfz2014riel   0.47129
gfz2014rkwl   0.18522
gfz2014rnrn  -5.05330
gfz2014royq  -0.10050
gfz2014rtcu   1.18690
gfz2014rucz   0.03504
gfz2014sadu   0.53046
gfz2014shid  -0.53103
gfz2014sjqw   0.47310
gfz2014sryn  -0.40011
gfz2014ssds   0.15110
gfz2014ssmv   0.06119
gfz2014ssvz  -0.45435
gfz2014swgt   0.55188
gfz2014tabg   0.10978
gfz2014tovs   0.70598
gfz2014tqdo   0.10247
gfz2014tqly   0.28212
gfz2014tqsf  -0.21354
gfz2014tqth  -0.56697
gfz2014tzsd  -0.30034
gfz2014uapa  -0.17170
gfz2014ubwn   0.84821
gfz2014udgg   0.00000
gfz2014uohh  -0.12918
gfz2014utac   0.38701
gfz2014uuqa   0.10663
gfz2014uuuf  -0.63948
gfz2014uvji  -0.04955
gfz2014uvrk  -2.10050
gfz2014uxyg   0.10945
gfz2014uyrq   0.10090
gfz2014uzaw   0.20088
gfz2014vcev   0.11057
gfz2014veit   0.53604
gfz2014vhld  -1.51930
gfz2014vhms  -1.35520
gfz2014vhuy   0.35928
gfz2014vjoz  -1.62470
gfz2014vqqa  -0.99885
gfz2014waoo   0.18259
gfz2014watn  -0.12755
gfz2014wjko   0.81930
gfz2014wmsc   0.29841
gfz2014wqcp  -1.46600
gfz2014wrkh  -2.91840
gfz2014wwib  -0.78058
gfz2014xaxx  -0.10179
gfz2014xhkc   1.22630
gfz2014xjri  -0.70255
gfz2014xkdg  -0.01501
gfz2014xoji  -0.07396
gfz2014xqby  -0.37795
gfz2014xqqd  -0.15652
gfz2014yhhm   0.48498
gfz2014ynhc   0.39912
gfz2014ynzy   0.33211
gfz2014yppv   0.27808
gfz2014yrug   0.20157
gfz2014yula   0.25351
gfz2014zkys  -0.10704
gfz2014zlgp   0.40017
gfz2014zplq   0.40514
gfz2015abpw   0.59921
gfz2015apnk  -0.09457
gfz2015aqav   0.20530
gfz2015aqbq   0.46748
gfz2015arpd   0.00000
gfz2015aruz  -0.08612
gfz2015atxv  -0.54332
gfz2015bdyd   0.14929
gfz2015bfjm   0.06788
gfz2015bkbj   0.33727
gfz2015bnho  -1.34500
gfz2015bphe   0.09638
gfz2015bsnl   0.30454
gfz2015bucr  -0.11063
gfz2015bvsj  -0.04263
gfz2015bvxx   0.35611
gfz2015byfn  -2.29990
gfz2015byjd  -1.53480
gfz2015bzej   1.11520
gfz2015cpuo   0.11722
gfz2015cxhx  -0.24213
gfz2015cxrc  -0.04331
gfz2015czfv   0.19547
gfz2015dizn   0.17509
gfz2015drlk   0.31681
gfz2015dskr  -0.31781
gfz2015dvbn  -0.30609
gfz2015ecgq   0.15082
gfz2015ednc   3.22010
gfz2015eeyq  -1.24260
gfz2015eezy   0.48948
gfz2015egxq  -0.47387
gfz2015eiky  -0.12493
gfz2015elgy  -0.01314
gfz2015eljz  -0.09162
gfz2015emcg   0.51587
gfz2015enth  -3.69170
gfz2015esrj   0.33232
gfz2015etai   0.57840
gfz2015evpl   0.05999
gfz2015fbbk   0.40654
gfz2015fbew  -0.50000
gfz2015fcua   0.01379
gfz2015fjhk  -1.92000
gfz2015fkgt   0.00228
gfz2015fkic  -0.58099
gfz2015fkjs  -2.49220
gfz2015fkkd   1.88470
gfz2015fkuu   0.08558
gfz2015flis  -0.54736
gfz2015fpez  -0.05946
gfz2015fsjj   0.02899
gfz2015fvoi   0.16353
gfz2015fwkq   0.08959
gfz2015fwnf  -0.75265
gfz2015fxbv  -0.26555
gfz2015fxdi   0.10961
gfz2015fyvk   0.34424
gfz2015gckd   0.30291
gfz2015ggjw   0.18722
gfz2015gjbr   0.66233
gfz2015gkwa   0.02792
gfz2015gmgf   0.41392
gfz2015gwao  -0.18761
gfz2015gzja  -1.09020
gfz2015hdbn   0.38106
gfz2015hdcp  -0.67625
gfz2015hepg   0.74838
gfz2015hgbk   0.00062
gfz2015hlqo   0.67877
gfz2015hpmk  -0.10690
gfz2015hvgs  -0.07042
gfz2015hwkv   0.91316
gfz2015igsy  -1.38740
gfz2015ijmh   0.04806
gfz2015isim   1.39270
gfz2015iwqk  -0.45586
gfz2015ixyy  -0.41678
gfz2015jkdw   0.37061
gfz2015jpap   1.51620
gfz2015jwgl   0.11127
gfz2015jxbx   0.25003
gfz2015jxjd  -0.04116
gfz2015jzcv  -0.85806
gfz2015kakw  -0.03032
gfz2015kalm  -0.08069
gfz2015kcaa   0.51571
gfz2015kkqb   0.26246
gfz2015kkth   0.01157
gfz2015kphk   0.27114
gfz2015kquq  -0.96106
gfz2015ksni   0.50530
gfz2015kvwz   0.35236
gfz2015kxxs   0.20483
gfz2015lbcg   0.80330
gfz2015lcma   0.44396
gfz2015lcuo   0.42121
gfz2015lfma  -0.06559
gfz2015lfos   0.41719
gfz2015lhjq   0.16716
gfz2015lhjy   0.50836
gfz2015ltii   0.71696
gfz2015ltro  -0.25505
gfz2015lytv  -0.55599
gfz2015lzad   0.70250
gfz2015mbgr  -0.56192
gfz2015mddr  -0.05915
gfz2015mfpy   0.83803
gfz2015mhym  -1.27500
gfz2015mpte  -0.40952
gfz2015nbdc   0.47622
gfz2015nerz  -0.17062
gfz2015nqgf  -0.05845
gfz2015ntpk  -0.16191
gfz2015nuxz   0.32795
gfz2015nwug  -0.14021
gfz2015ocdz  -0.12482
gfz2015ocwr   0.45426
gfz2015okmq   0.87741
gfz2015okpu   0.41194
gfz2015omab   0.40585
gfz2015orkl   0.34050
gfz2015oumn  -0.26599
gfz2015oyfl  -0.00000
gfz2015pcvt  -0.01464
gfz2015pdri   0.80663
gfz2015plal  -0.25852
gfz2015prlr  -1.33670
gfz2015puah  -1.00920
gfz2015puqp   2.28970
gfz2015qafb   0.44102
gfz2015qbme   0.14227
gfz2015qnde   0.14604
gfz2015qnho  -0.24137
gfz2015qnlv   0.19765
gfz2015qnto  -0.50410
gfz2015qprd   0.34658
gfz2015qpvd  -0.46153
gfz2015quzo  -3.23610
gfz2015qvxu   0.13480
gfz2015rddx  -0.24038
gfz2015rgov  -2.09270
gfz2015rkbq   0.09758
gfz2015rkrg  -0.03727
gfz2015rkzg  -1.29180
gfz2015rlnh  -1.98780
gfz2015rpzn  -0.11899
gfz2015rtnv  -0.16676
gfz2015rwsb  -0.61524
gfz2015rxmg   0.26013
gfz2015saet   0.52738
gfz2015sdeo   0.67819
gfz2015sdfy  -0.07278
gfz2015seuf  -0.06359
gfz2015sevh  -0.01715
gfz2015sfdd   0.28837
gfz2015sfdy   0.50637
gfz2015sfeo   1.92780
gfz2015sffn   0.31478
gfz2015sfho   0.24324
gfz2015sfhz   0.23390
gfz2015sfiq  -0.73862
gfz2015sfjf  -0.21934
gfz2015sfkh   0.14590
gfz2015sfko  -0.29456
gfz2015sfkz   0.09005
gfz2015sflf   0.17860
gfz2015sfln   1.39780
gfz2015sfmd   0.02008
gfz2015sfnb  -0.23001
gfz2015sfno  -0.33675
gfz2015sfnv  -0.05275
gfz2015sfoc   0.15349
gfz2015sfoh  -0.11681
gfz2015sfom  -0.48153
gfz2015sfoq   1.07780
gfz2015sfpj  -0.54522
gfz2015sfps   0.21523
gfz2015sfqo   0.15656
gfz2015sfqr  -0.06029
gfz2015sfrc  -0.66220
gfz2015sfrf   0.22847
gfz2015sfrv  -1.07530
gfz2015sfsi  -0.80983
gfz2015sfte   0.34198
gfz2015sftu  -0.19035
gfz2015sfuc   0.58863
gfz2015sfuz   0.61405
gfz2015sfwf   0.34369
gfz2015sfxn   1.75640
gfz2015sfzm  -0.19567
gfz2015sgad  -0.48911
gfz2015sgdj   1.00680
gfz2015sgdn  -0.26801
gfz2015sggc  -0.21954
gfz2015sghq   0.30499
gfz2015sgie   0.23138
gfz2015sglg   0.21494
gfz2015sgmm  -0.28815
gfz2015sgmr   0.44028
gfz2015sgna   0.38005
gfz2015sgoa  -0.19420
gfz2015sgpu   0.05887
gfz2015sguf   0.20717
gfz2015sgyd   0.35589
gfz2015shaq   0.13893
gfz2015shel   0.45538
gfz2015shhg  -0.15138
gfz2015shhu  -0.76408
gfz2015shjn   0.21048
gfz2015shlp  -0.31981
gfz2015shqc   0.21314
gfz2015shqe  -0.78467
gfz2015shrg  -0.33507
gfz2015shsz  -0.22222
gfz2015sicf   0.33813
gfz2015sicu   0.14803
gfz2015siky   0.02130
gfz2015sing  -0.15174
gfz2015siof  -0.48294
gfz2015sist  -0.19979
gfz2015sitn   0.35749
gfz2015sixi  -0.01277
gfz2015siyy  -0.61751
gfz2015sjbx   0.13087
gfz2015sjeq  -0.75186
gfz2015sjfi  -0.14808
gfz2015sjgk  -0.52309
gfz2015sjjb   0.18904
gfz2015sjne   0.22314
gfz2015sjoj   0.35668
gfz2015sjpn   0.06380
gfz2015sjtz  -3.21100
gfz2015sjvu   0.62254
gfz2015sjwi  -0.24285
gfz2015skab   0.05770
gfz2015skgj   0.10249
gfz2015skia  -0.28774
gfz2015skpv   0.35030
gfz2015skuk   0.24881
gfz2015sldx  -0.01245
gfz2015sljs  -0.56468
gfz2015slun   0.78997
gfz2015smgj  -0.44332
gfz2015smym   0.23970
gfz2015snhn   0.04670
gfz2015snmr   0.11214
gfz2015snsf  -0.48160
gfz2015snwh  -0.44730
gfz2015snyd   0.11182
gfz2015soat   0.69824
gfz2015solh   0.29732
gfz2015sopc   0.16496
gfz2015soxc   0.06676
gfz2015sozw  -1.88970
gfz2015spal   0.32396
gfz2015sqbg   0.10004
gfz2015sqmy  -0.00105
gfz2015sqoz  -0.09505
gfz2015srat   0.29625
gfz2015sryk   0.50868
gfz2015ssaf  -0.21834
gfz2015ssoe   0.19195
gfz2015sspn   0.92138
gfz2015ssrl   0.25237
gfz2015stas   0.18625
gfz2015stfy   0.51409
gfz2015stso   0.31727
gfz2015subz   0.01726
gfz2015sudm   0.63338
gfz2015svjy   0.30872
gfz2015svwm   0.19712
gfz2015swgn   0.52068
gfz2015swjx  -0.91754
gfz2015swnc   0.50726
gfz2015sxgd  -0.21140
gfz2015sxmh   0.58493
gfz2015sxxu   0.02733
gfz2015sydc   0.10458
gfz2015szcb   0.11203
gfz2015szfe   0.07056
gfz2015szfq  -0.40150
gfz2015sztx   0.47279
gfz2015taml   0.79112
gfz2015tbdn  -1.79550
gfz2015tbje   0.21253
gfz2015tcem   0.08542
gfz2015tdbb  -0.37562
gfz2015tdcu  -0.32864
gfz2015tdhb   0.24103
gfz2015teje  -0.36715
gfz2015tesj  -0.50411
gfz2015teyn  -0.00930
gfz2015tezd   0.43306
gfz2015tfaz  -0.11893
gfz2015tfxb  -0.15388
gfz2015thfd  -0.36240
gfz2015thfm  -1.37220
gfz2015thgc   0.34988
gfz2015thgp  -1.84960
gfz2015thwg   0.17419
gfz2015thwp   0.66582
gfz2015tiyc  -0.18294
gfz2015tjhv  -0.19743
gfz2015tjys   2.97930
gfz2015tkol  -0.29202
gfz2015tlba  -0.09173
gfz2015tlkf  -0.36925
gfz2015tlok   0.39817
gfz2015tnjd  -0.23179
gfz2015tnla  -2.31710
gfz2015tojz  -0.47352
gfz2015totf  -0.18031
gfz2015tpra   0.10443
gfz2015tqff   0.40993
gfz2015tqie  -0.00670
