# Nsamples: 35  MAD:  0.919  mean:  0.305  variance:  0.883
gfz2013kdeo   1.35040
gfz2013nkgj   1.04650
gfz2013nwdi   0.93452
gfz2013ozrp   0.85796
gfz2013pfbx   0.20894
gfz2013qmer  -0.45146
gfz2013svci   0.25904
gfz2013vjjc   2.48630
gfz2013xsdt  -0.55765
gfz2014fgvi   0.54298
gfz2014ftka   1.31070
gfz2014gkgf   1.43940
gfz2014gmge   2.26930
gfz2014gmhr   1.70960
gfz2014gmnb   0.43466
gfz2014hgqo   0.27392
gfz2014nqfm   0.60539
gfz2014nrie   0.89958
gfz2014owxc  -0.35241
gfz2014qlxd  -0.00154
gfz2014qqhm  -0.95135
gfz2014ssvz  -0.02185
gfz2014tqdo   0.11387
gfz2015fsjj   0.71231
gfz2015gckd   0.36227
gfz2015lhjy  -0.05199
gfz2015lytv   0.49293
gfz2015mpte  -2.13140
gfz2015sfdd  -1.18330
gfz2015sfdy   0.26721
gfz2015sjgk  -0.15238
gfz2015smym  -0.40572
gfz2015snwh  -0.89645
gfz2015svwm  -0.47905
gfz2015taml  -0.25791
