# Nsamples: 180  MAD:  0.527  mean:  0.018  variance:  0.723
gfz2010eaoy   1.21610
gfz2010eaqy  -0.75092
gfz2010earu   0.57806
gfz2010eawu   0.05198
gfz2010ebhc   0.03939
gfz2010eisx   1.87510
gfz2010ekyc  -0.28909
gfz2010elyc   1.32860
gfz2010eruy  -0.30989
gfz2010excp   1.51670
gfz2010exdd   0.42006
gfz2010ezck  -0.62222
gfz2010fqdu  -1.19100
gfz2010ftlm  -0.46710
gfz2010fync  -1.39440
gfz2010iull  -0.33327
gfz2010lfju   0.10994
gfz2010nmpc  -0.21441
gfz2010nwef  -0.16704
gfz2010onma  -0.12727
gfz2011aatr  -0.40573
gfz2011eazf  -0.39191
gfz2011edmm   0.87365
gfz2011enva  -0.23459
gfz2011flgj  -0.12890
gfz2011fnsw  -1.60170
gfz2011gkzt   0.41986
gfz2011hlqw   0.06968
gfz2011hlsa  -0.36708
gfz2011lcxq   0.25289
gfz2011lvjr  -0.26156
gfz2011lzwj   0.23357
gfz2011mjom   1.35280
gfz2011vhfi  -0.19406
gfz2011vrhg   0.51736
gfz2011wxfs  -0.18603
gfz2012byad  -0.00000
gfz2012cgvr  -0.31613
gfz2012czlw   0.20883
gfz2012dyyh   0.12969
gfz2012ekda   0.50902
gfz2012emjg  -0.05797
gfz2012enno  -0.63125
gfz2012ewgo  -0.29962
gfz2012ewkj   3.23910
gfz2012gomm  -0.47391
gfz2012hnul   0.34674
gfz2012jlox  -0.19563
gfz2012jupx   1.16700
gfz2012kbjb   0.65460
gfz2012kkup   0.11749
gfz2012kudo  -0.36812
gfz2012ldxg   0.22071
gfz2012ldzj   3.16820
gfz2012minr   0.11920
gfz2012nqnk  -0.26802
gfz2012nsbz  -0.69468
gfz2012sphd   0.72696
gfz2013axoj  -0.26720
gfz2013ccnr   0.72289
gfz2013dofo   0.17247
gfz2013drxz  -0.60955
gfz2013dsog   0.26837
gfz2013dspt  -0.63032
gfz2013dsrk  -0.84515
gfz2013jgij   0.17945
gfz2013jgip   0.12256
gfz2013jkut  -0.27964
gfz2013jwvc   0.83351
gfz2013kdeo  -0.19523
gfz2013ldqb   0.41398
gfz2013nixj   1.19490
gfz2013nwdi   0.20646
gfz2013ornz   0.72557
gfz2013svci  -0.29446
gfz2013vjjc  -0.66717
gfz2013xsdt  -0.35220
gfz2013yqkv   1.12570
gfz2014afmx  -1.15670
gfz2014algk   0.37945
gfz2014bfng  -0.23748
gfz2014bldx  -0.67210
gfz2014bwue  -0.30249
gfz2014chdv  -2.96850
gfz2014ctot  -0.12251
gfz2014czqi   0.09261
gfz2014dffd  -0.44722
gfz2014duqn   0.38390
gfz2014fedd  -0.77775
gfz2014fgvi  -0.28283
gfz2014fhla   1.66190
gfz2014fhrq  -0.84701
gfz2014fkmr   0.47437
gfz2014frdz  -0.36785
gfz2014frez  -0.11783
gfz2014ftka  -0.53864
gfz2014ftoc  -0.75346
gfz2014furx  -0.13265
gfz2014fusj  -0.84208
gfz2014fval  -1.27970
gfz2014fvrg  -1.06520
gfz2014fwtt  -0.51698
gfz2014ghpe  -0.08203
gfz2014gkgf   0.78587
gfz2014gkhp   4.36050
gfz2014gkhy  -1.48070
gfz2014gkob   2.33010
gfz2014gkqf  -0.07211
gfz2014gksu   0.97359
gfz2014gktq   0.12742
gfz2014glcu  -1.47130
gfz2014gltx  -0.30375
gfz2014gmge  -0.59537
gfz2014gmhr   0.23153
gfz2014gmip   0.68961
gfz2014gmnb  -0.34950
gfz2014gmnw   0.17494
gfz2014gmor  -0.22445
gfz2014gmzl  -0.79527
gfz2014gnfd   0.17349
gfz2014goba  -0.53790
gfz2014goqw  -0.50610
gfz2014gqer   0.38864
gfz2014gqve   0.04723
gfz2014grho   0.03055
gfz2014gsqs   1.44390
gfz2014gull   0.68649
gfz2014gwab   1.34430
gfz2014gxxo  -0.69169
gfz2014hasj   0.18537
gfz2014hcmj  -0.46996
gfz2014hfhl   1.65600
gfz2014hgqo  -0.32529
gfz2014hjgr  -0.49081
gfz2014hkcf   0.19326
gfz2014hocg  -0.52572
gfz2014hphw  -0.12309
gfz2014hqxs  -0.77510
gfz2014huaj  -0.58419
gfz2014hyvq  -0.20023
gfz2014issk  -0.37434
gfz2014itkw  -0.04510
gfz2014itpj  -0.61962
gfz2014jcmt  -0.32368
gfz2014jjhc   0.19442
gfz2014jnyv   0.19168
gfz2014lbcq  -0.37817
gfz2014lgqn   0.16783
gfz2014lxnc   2.67530
gfz2014macx  -0.58797
gfz2014madw  -0.49274
gfz2014nqfm  -0.20124
gfz2014nrie   0.08567
gfz2014pvch   0.45039
gfz2014qlxd   0.36174
gfz2014rnrn  -0.12646
gfz2014ssvz  -0.07572
gfz2015aruz  -0.42904
gfz2015bkbj  -0.38902
gfz2015chhn  -1.32590
gfz2015cxxk   0.29299
gfz2015cyjd   0.18326
gfz2015dvbn  -0.50724
gfz2015ednc  -0.03824
gfz2015eiky  -0.56997
gfz2015fjhk   0.07781
gfz2015fsjj   0.39107
gfz2015gckd  -0.45595
gfz2015hgbk   0.19640
gfz2015kquq  -0.28191
gfz2015kxxs  -0.68582
gfz2015lhjy   0.46808
gfz2015lytv  -0.02704
gfz2015mpte  -0.57380
gfz2015okmq   0.37904
gfz2015sfdd   0.19683
gfz2015sjgk   0.22275
gfz2015snwh  -0.66571
gfz2015soxc   0.19411
gfz2015svwm   0.64011
