# Nsamples: 153  MAD:  0.520  mean: -0.062  variance:  0.691
gfz2013ccnr  -1.03290
gfz2013dofo  -0.64508
gfz2013drxz  -0.54604
gfz2013dsrk   4.37590
gfz2013dvyh   1.76860
gfz2013fiud  -1.14640
gfz2013fygc   0.87780
gfz2013gock  -0.46816
gfz2013hxcx  -4.06870
gfz2013iayx  -0.75705
gfz2013jesk  -0.41842
gfz2013jgij  -0.20454
gfz2013jgip   0.34459
gfz2013jkut  -0.46076
gfz2013kdeo   0.27390
gfz2013ldqb  -0.86267
gfz2013lyko   1.78720
gfz2013mqmv   0.46140
gfz2013mwbh   0.20395
gfz2013ncjp  -0.71408
gfz2013nixj   0.38697
gfz2013nkgj  -0.07549
gfz2013nwdi  -0.34543
gfz2013ojti   1.12450
gfz2013pfbx  -0.17996
gfz2013qali  -0.50464
gfz2013qmer  -0.19782
gfz2013yqkv   0.21555
gfz2014afmx   0.02373
gfz2014ajlk   0.28458
gfz2014algk  -0.38469
gfz2014ande  -0.19964
gfz2014azqs  -3.32570
gfz2014bezu  -0.55028
gfz2014bwue  -0.83076
gfz2014bzxy  -0.00000
gfz2014cvxx   0.34742
gfz2014dffd  -0.24138
gfz2014ekcr   0.40989
gfz2014fgvi   0.21093
gfz2014fgyo   0.68058
gfz2014fhdw   0.22164
gfz2014fhla  -0.31408
gfz2014fhrq   0.27394
gfz2014fhsg  -1.70100
gfz2014fhwx   0.00000
gfz2014fimn  -1.17560
gfz2014fjzd   0.23561
gfz2014fkmr  -0.49537
gfz2014frdz  -0.09242
gfz2014frez  -0.00564
gfz2014frwh   0.48709
gfz2014ftka  -0.03307
gfz2014ftpw   0.41918
gfz2014ftrk  -0.11913
gfz2014furx  -0.36692
gfz2014fusc   0.06463
gfz2014fusj   0.15960
gfz2014fuub   0.40023
gfz2014fval  -0.01573
gfz2014fvgh   0.47499
gfz2014fvrg   0.52952
gfz2014gbcz  -1.70520
gfz2014ghpe   0.14189
gfz2014gkgf   0.12684
gfz2014gkhp   0.22884
gfz2014gkhy   0.20229
gfz2014gkjl  -0.57919
gfz2014gkjt  -0.59477
gfz2014gkjw  -0.42899
gfz2014gklq   0.59438
gfz2014gklv   0.26211
gfz2014gkmm  -0.10250
gfz2014gkob  -0.30030
gfz2014gkok  -0.69450
gfz2014gkpd  -0.86132
gfz2014gkpj   0.03574
gfz2014gkqf   0.06252
gfz2014gkqu   0.04666
gfz2014gktq   0.10935
gfz2014gkxm   1.65790
gfz2014glcu  -0.04189
gfz2014glcy  -0.51798
gfz2014glgo  -0.25575
gfz2014gltx   0.24454
gfz2014gmci  -0.38005
gfz2014gmge  -0.30445
gfz2014gmhp   0.84777
gfz2014gmhr  -1.30940
gfz2014gmic  -0.66973
gfz2014gmip   0.73704
gfz2014gmjo   0.33129
gfz2014gmku   0.24608
gfz2014gmlz   0.34516
gfz2014gmmt  -0.70847
gfz2014gmnb   0.09659
gfz2014gmnw   0.22434
gfz2014gmor   0.06735
gfz2014gmpy  -0.18090
gfz2014gmuk  -0.11370
gfz2014gmzl   0.41269
gfz2014gnfd   0.10473
gfz2014goba   0.01727
gfz2014goqw   0.30489
gfz2014gpce   0.83319
gfz2014gphr  -0.38618
gfz2014gpuk   0.43546
gfz2014gqbj  -0.10771
gfz2014gqer   0.51146
gfz2014gqiy  -2.05210
gfz2014gqve   0.14862
gfz2014gsqs   0.80196
gfz2014gull  -0.09639
gfz2014gulp  -0.96462
gfz2014gvrd  -1.89470
gfz2014gwab  -0.19361
gfz2014gxkh   0.63600
gfz2014gxxo  -0.39825
gfz2014hagb   0.74920
gfz2014haos   1.33930
gfz2014hasj   0.29797
gfz2014hbqb  -0.03222
gfz2014hcmj  -0.78757
gfz2014hfhl  -0.43903
gfz2014hgqo   0.50641
gfz2014hjgh   0.27534
gfz2014hjgr  -0.14749
gfz2014hjlx   0.46513
gfz2014hkcf  -0.05289
gfz2014hocg  -1.39340
gfz2014hqxs   1.32190
gfz2014huaj   0.08394
gfz2014imnn  -0.44492
gfz2014itbe   0.05203
gfz2014itgh   0.43117
gfz2014itkw   0.28033
gfz2014itpj  -0.09782
gfz2014jjhc  -0.08128
gfz2014jjln   0.35337
gfz2014jnyv  -0.34966
gfz2014jpep   0.06550
gfz2014kndc  -0.06723
gfz2014knks  -0.44003
gfz2014lgqn  -0.04864
gfz2014lxnc  -0.04382
gfz2014lyhk   0.82408
gfz2014lyhp   0.23494
gfz2014macx   0.12378
gfz2014nnxd   0.08218
gfz2014npeo  -1.12830
gfz2014nphm  -0.90027
gfz2014nqfm  -0.02049
gfz2014nrie  -0.02194
