# Nsamples: 237  MAD:  0.490  mean:  0.004  variance:  0.408
gfz2013aqaw  -0.75044
gfz2013axoj  -0.22826
gfz2013bokp  -0.34918
gfz2013ccnr  -1.20250
gfz2013cwpn   0.57534
gfz2013dkly   0.63280
gfz2013dofo   0.07231
gfz2013esnt   0.13924
gfz2013ijsr   1.06990
gfz2013ippu   0.57340
gfz2013jgip  -0.99631
gfz2013jkut   0.10911
gfz2013kdeo  -0.81702
gfz2013ldpc   0.03829
gfz2013ldqb   0.24317
gfz2013lixa  -0.63994
gfz2013lyko  -0.31406
gfz2013mwbh   0.09903
gfz2013ncjp  -0.13724
gfz2013ndin   1.72640
gfz2013nkgj   0.52987
gfz2013nnzf   0.36646
gfz2013nwdi   0.26181
gfz2013pfbx  -0.14585
gfz2013pxsj  -0.58863
gfz2013qali   1.42940
gfz2013qmer  -0.26788
gfz2013svci  -0.08724
gfz2013tusd   0.40969
gfz2013ufxm   0.80603
gfz2013vfzp   0.84870
gfz2013vjjc  -0.28834
gfz2013wjmm  -0.73820
gfz2013xatc  -0.15872
gfz2013xsdt   0.11215
gfz2013yctg  -0.13679
gfz2013yqkv   1.22370
gfz2014afmx   0.66027
gfz2014algk   0.39599
gfz2014amsb   0.32034
gfz2014ande  -0.27239
gfz2014arqr  -1.06190
gfz2014bagd  -0.39145
gfz2014bezu   0.18090
gfz2014bhvd   0.11210
gfz2014bjgt  -2.87430
gfz2014bldx  -0.60700
gfz2014bmfv   0.00800
gfz2014bwue   0.28903
gfz2014bzxy   0.81586
gfz2014cbtl   0.66262
gfz2014chdv  -0.29987
gfz2014claq  -1.03320
gfz2014cmwb  -0.47990
gfz2014czno  -0.25177
gfz2014czol  -0.19802
gfz2014czqi   0.37341
gfz2014dhxt   0.07737
gfz2014disp   0.74560
gfz2014duqn   0.44288
gfz2014ehsf   0.35508
gfz2014ekcr  -1.26620
gfz2014enhi   0.00435
gfz2014fedd  -0.16202
gfz2014femz  -0.93534
gfz2014fexu  -1.26130
gfz2014fgvi   0.36970
gfz2014fgvz  -0.43963
gfz2014fhdw   0.32870
gfz2014fhla  -0.45972
gfz2014fhrq  -0.33749
gfz2014fimn   0.35384
gfz2014fkmr   0.88431
gfz2014fqpz  -0.37038
gfz2014frdz   0.09012
gfz2014frez  -0.32716
gfz2014frfl  -0.14198
gfz2014frwh   0.37939
gfz2014ftka  -0.34362
gfz2014ftpw   0.14210
gfz2014furx   0.40721
gfz2014fusj  -0.24980
gfz2014fval  -0.16043
gfz2014fvgh   0.17332
gfz2014fvrg   0.12539
gfz2014gbcz   0.04317
gfz2014ghpe   0.09218
gfz2014gkgf   0.08282
gfz2014gkhy  -0.55200
gfz2014gkjl   1.21790
gfz2014gkob   0.11121
gfz2014gkqf   0.21643
gfz2014gkqu  -0.69173
gfz2014gktq   0.12971
gfz2014glcu   0.47774
gfz2014gltx  -0.29192
gfz2014gmge  -0.87917
gfz2014gmhr  -0.42408
gfz2014gmku   0.67687
gfz2014gmnb  -0.23346
gfz2014gmnw   0.02917
gfz2014gmuk   0.19055
gfz2014gmzl  -0.86565
gfz2014gngg   0.35418
gfz2014goba   0.12456
gfz2014goqw  -0.13874
gfz2014gori   0.33825
gfz2014gpuk  -0.62083
gfz2014gpya   0.09498
gfz2014gqer  -0.38863
gfz2014gsqs   0.59660
gfz2014gull   0.47197
gfz2014gwab  -0.96643
gfz2014gxxo   0.10339
gfz2014hasj   0.09420
gfz2014hauo   0.03307
gfz2014hgqo  -0.18957
gfz2014hjgr   0.44311
gfz2014hocg   0.29086
gfz2014hqxs  -0.16655
gfz2014hrft   0.03178
gfz2014huaj   0.30782
gfz2014hzfw  -0.11132
gfz2014issk   0.43153
gfz2014itkw   0.51039
gfz2014itpj   0.01898
gfz2014iwnf  -0.07728
gfz2014jjhc  -0.00895
gfz2014jjln  -0.01792
gfz2014jnyv   0.39397
gfz2014jpep   0.04314
gfz2014jwmh   0.48167
gfz2014kbuk   0.29262
gfz2014kndc  -0.31186
gfz2014knks  -0.14865
gfz2014knxs   0.01286
gfz2014kyan   0.19449
gfz2014kytf   0.02589
gfz2014lefs   0.00000
gfz2014lgqn  -0.09635
gfz2014lhqn  -0.26361
gfz2014lkyf  -0.18929
gfz2014lxnc   0.01620
gfz2014lyhk  -0.53021
gfz2014lyhp   0.01935
gfz2014macx  -0.03958
gfz2014madw   0.01634
gfz2014nowp  -0.83469
gfz2014npeo   0.16232
gfz2014nphm   0.27311
gfz2014nqfm   0.30151
gfz2014nrie   0.18573
gfz2014nvdi  -1.11390
gfz2014oinz  -0.11437
gfz2014owxc  -0.09263
gfz2014ppzf  -3.29800
gfz2014pvch   0.41880
gfz2014qdog   0.38720
gfz2014qlxd   0.01339
gfz2014qngj  -0.94569
gfz2014qqhm  -0.35825
gfz2014rdsn  -0.38787
gfz2014ssvz   0.11182
gfz2014tovs   0.64314
gfz2014tqdo   0.15610
gfz2014ubwn  -0.09474
gfz2014watn   0.18075
gfz2015ixyy   0.15522
gfz2015jmlu  -0.17739
gfz2015jwgl  -0.39517
gfz2015jzcv  -0.29793
gfz2015kkth   0.35821
gfz2015kquq   0.66458
gfz2015ksni  -0.50045
gfz2015kxxs  -1.01950
gfz2015lhjy   0.44423
gfz2015ltii  -0.72402
gfz2015lytv  -0.92880
gfz2015mddr  -0.26412
gfz2015mpte  -0.44292
gfz2015nwug  -0.36137
gfz2015ocdz  -0.08270
gfz2015okmq   0.27826
gfz2015oumn   0.21950
gfz2015oyfl   0.54112
gfz2015pdri  -0.12372
gfz2015prlr  -0.73082
gfz2015qnho  -0.11820
gfz2015sfdd   0.41279
gfz2015sfdl  -0.54183
gfz2015sfdv   0.06324
gfz2015sfdy  -0.70502
gfz2015sfeo   0.74988
gfz2015sffn   0.99714
gfz2015sfga   1.44460
gfz2015sfiq  -0.61436
gfz2015sfnb  -0.23352
gfz2015sfnv  -0.42011
gfz2015sfoc  -0.56422
gfz2015sfqo   0.19694
gfz2015sfqr   1.29160
gfz2015sfrv   1.80000
gfz2015sfwf   0.11147
gfz2015sfzm   0.07750
gfz2015sgad  -0.99707
gfz2015sgdn  -0.38629
gfz2015sghq   1.09310
gfz2015sgie  -0.77021
gfz2015sglg   0.02056
gfz2015sguf   0.53574
gfz2015sgyd   1.10790
gfz2015shhu  -0.12893
gfz2015shjo   0.67814
gfz2015shsz   2.80210
gfz2015sjbx   0.18766
gfz2015sjgk   0.80496
gfz2015sjjb   0.21451
gfz2015sjne   0.87449
gfz2015sjoj   0.24960
gfz2015sjvu  -0.39421
gfz2015sjwi  -0.09823
gfz2015skxu  -0.52093
gfz2015slun  -0.10718
gfz2015smym   0.70317
gfz2015snsf  -0.53986
gfz2015snwh  -0.15661
gfz2015soat   0.49643
gfz2015soxc   0.28379
gfz2015srat  -0.76584
gfz2015svwm   0.02247
gfz2015szcb   0.06467
gfz2015taml   1.13310
gfz2015tbdn   0.28484
gfz2015tiyc   0.47821
gfz2015tlba  -1.05370
gfz2015tlkf   0.02745
gfz2015tnjd  -0.31003
