# Nsamples: 291  MAD:  0.835  mean: -0.019  variance:  1.909
gfz2010czps  -0.03765
gfz2010dejx   0.12899
gfz2010dlgc  -2.28450
gfz2010eaoy   0.39006
gfz2010eapk  -0.27123
gfz2010eaqe   1.02090
gfz2010eaqx  -0.45113
gfz2010eaqy  -0.24505
gfz2010earu  -0.64818
gfz2010easf  -0.77734
gfz2010eask  -3.74600
gfz2010easo  -0.01919
gfz2010easu  -0.80530
gfz2010eato  -0.55247
gfz2010eatt   0.59514
gfz2010eaty  -1.08900
gfz2010eaul  -0.11744
gfz2010eavs   0.16663
gfz2010eawb   0.65915
gfz2010eawu   0.50961
gfz2010eaxa  -1.93700
gfz2010eaya   0.67733
gfz2010eaze   2.67050
gfz2010eazu   0.85221
gfz2010ebhc  -1.03260
gfz2010ebjy   0.31206
gfz2010ebkj  -0.49416
gfz2010ebll  -0.10657
gfz2010ebnn   0.74019
gfz2010ebvm  -0.57100
gfz2010ebvv   0.35311
gfz2010ebwp   0.52576
gfz2010ebzr   0.33333
gfz2010ecua  -0.41606
gfz2010edvf  -0.69871
gfz2010edyi   5.69630
gfz2010eern   0.22591
gfz2010eevu  -0.16419
gfz2010egap   0.27727
gfz2010egld  -0.42528
gfz2010ehnm  -0.77549
gfz2010eisx  -0.20996
gfz2010eixj  -0.22603
gfz2010ejjg   0.21049
gfz2010ekoe   0.35403
gfz2010elhv   0.34550
gfz2010elin   2.95620
gfz2010eltf  -0.82022
gfz2010elyc  -1.41760
gfz2010erkn  -0.14319
gfz2010erom   0.05163
gfz2010eruy   1.93240
gfz2010excp  -0.22292
gfz2010exdd  -0.55199
gfz2010exdl  -0.24164
gfz2010exed  -0.93864
gfz2010exel   0.03894
gfz2010exgb  -0.44985
gfz2010exhw   1.13410
gfz2010exjw   0.84590
gfz2010exno  -0.90936
gfz2010ezax  -0.28743
gfz2010ezck  -0.41405
gfz2010fauz   3.62780
gfz2010fcax  -0.11737
gfz2010fdxr  -1.84600
gfz2010fedq   0.68528
gfz2010ffhq   0.33523
gfz2010ffjb   0.71167
gfz2010flxi  -1.29420
gfz2010fobc   0.18187
gfz2010fpqy  -1.19800
gfz2010fwzd   0.31027
gfz2010fync  -1.23410
gfz2010gcrl   1.36640
gfz2010gcrp  -0.42772
gfz2010gdld  -0.39944
gfz2010glxl   0.08301
gfz2010grjd  -0.67921
gfz2010hbka  -0.03889
gfz2010homc  -0.80422
gfz2010hxgv   0.06386
gfz2010iobp   0.79811
gfz2010iull  -1.02870
gfz2010jxbm  -0.94019
gfz2010lepw  -1.97860
gfz2010moyw   0.18009
gfz2010nmpc  -0.24093
gfz2010nnny  -1.46530
gfz2010nqwo   1.06260
gfz2010osjs   1.40530
gfz2010pcxi  -0.70706
gfz2010qkat  -0.09080
gfz2010rqwj   0.34155
gfz2010txjs  -0.47779
gfz2010urlq  -0.87840
gfz2010usho  -0.36332
gfz2010utcg  -0.12051
gfz2010wofs   8.97500
gfz2010xgzw  -0.29405
gfz2011aatr  -0.42447
gfz2011adjs   1.30130
gfz2011alip   0.92587
gfz2011cfae  -0.70974
gfz2011cykd   0.52342
gfz2011dcqb   1.04720
gfz2011enva  -0.64164
gfz2011etje  -0.04813
gfz2011flgj   3.52480
gfz2011gbmx  -0.02329
gfz2011gkzt  -1.74120
gfz2011hfkj   0.15421
gfz2011hlsa  -0.50934
gfz2011hpqp   0.14429
gfz2011ixai  -1.07220
gfz2011jplh  -0.70176
gfz2011kqwo   2.44750
gfz2011kxzp  -0.57964
gfz2011lcxq  -2.18010
gfz2011lzwj  -0.97031
gfz2011mdie  -0.86198
gfz2011nqpd  -0.17383
gfz2011nrwc  -1.18470
gfz2011nudm  -0.42081
gfz2011owvz  -0.89671
gfz2011rewa  -0.61354
gfz2011sagt   1.14290
gfz2011toub  -2.54000
gfz2011tpfr   0.96353
gfz2011ujze   0.55819
gfz2011uphh  -0.11229
gfz2011vqnr  -0.82676
gfz2011vxns  -0.92999
gfz2011wwjs  -0.45170
gfz2011wxfs   0.05718
gfz2011wxoj   3.98840
gfz2011wxtk   0.98839
gfz2012aqtq   3.05560
gfz2012bpkx  -0.52793
gfz2012byad  -1.03980
gfz2012covm  -0.89962
gfz2012czlw  -1.03700
gfz2012deri   1.66950
gfz2012dinb  -0.48291
gfz2012enno  -0.84693
gfz2012fzfa  -0.19388
gfz2012gnvh  -0.06670
gfz2012hnul  -0.64355
gfz2012jlox  -1.66290
gfz2012jupx  -2.96300
gfz2012kkup  -0.80792
gfz2012klhx  -1.08520
gfz2012kudo  -0.68383
gfz2012ldxg  -1.74960
gfz2012ldzj   0.28919
gfz2012minr  -0.62046
gfz2012pqmk   0.29971
gfz2012sphd   0.05613
gfz2012ttoa  -3.01330
gfz2012uafg  -0.01374
gfz2012uqzp  -0.74345
gfz2012vrgb  -1.85960
gfz2012vrua  -0.80068
gfz2012wxlg  -0.13274
gfz2012wxnu   1.00440
gfz2012wypz  -0.84633
gfz2013ccnr   0.47114
gfz2013cwpn   1.12190
gfz2013drxz  -0.55905
gfz2013jkut  -1.53070
gfz2013jusj   2.43740
gfz2013kdeo  -1.02210
gfz2013kgmj   0.83694
gfz2013lajn  -0.28498
gfz2013ldqb  -1.76300
gfz2013mqmv  -2.39060
gfz2013ncjp   2.54590
gfz2013nkgj  -0.91051
gfz2013nwdi   0.17193
gfz2013pfbx  -1.64530
gfz2013suvn   2.26980
gfz2013svci  -0.84977
gfz2013tusd  -2.01370
gfz2013tvmw  -0.75273
gfz2013vfzp  -0.74639
gfz2013vjjc   0.73485
gfz2013xmul   3.86640
gfz2013xsdt  -1.38950
gfz2013xwzd  -0.07152
gfz2014afmx   0.16325
gfz2014ande  -0.49630
gfz2014bwue   0.12634
gfz2014czqi   1.26130
gfz2014czua  -0.25802
gfz2014ekcr   0.95672
gfz2014femz  -0.51122
gfz2014fgvi  -1.25570
gfz2014fhla  -0.53676
gfz2014frdz   1.30800
gfz2014frez   5.66620
gfz2014ftka  -0.02007
gfz2014furx   0.53026
gfz2014fusj  -2.10910
gfz2014fvrg  -1.45610
gfz2014gbcz   4.21450
gfz2014gkgf  -2.15260
gfz2014gkgs  -0.99714
gfz2014gkhy  -0.39809
gfz2014gkqf  -0.69140
gfz2014gmge  -0.45864
gfz2014gmhr  -0.57541
gfz2014gmjo  -0.66866
gfz2014gmnw  -1.34500
gfz2014gmuw  -0.38137
gfz2014goba  -0.21401
gfz2014gori   0.21713
gfz2014gull   2.35660
gfz2014hasj  -0.64442
gfz2014hocg   0.33289
gfz2014icqt  -0.29630
gfz2014inbj  -0.69107
gfz2014isys   1.26300
gfz2014itkw  -0.55627
gfz2014jass   2.80100
gfz2014jjhc   0.14478
gfz2014jjqk   2.89730
gfz2014jnyv   3.77310
gfz2014jwmh  -0.42254
gfz2014lnmw   1.19570
gfz2014npeo   0.29802
gfz2014nqfm  -0.53607
gfz2014nrie  -1.61230
gfz2014qngj  -1.52380
gfz2014qqhm  -1.23590
gfz2014rdsn  -0.90810
gfz2014szzf  -1.40070
gfz2015cxxk  -0.61040
gfz2015cyjd  -0.60420
gfz2015dvbn   0.04188
gfz2015fcua   1.85190
gfz2015fjhk  -1.24240
gfz2015fkgt   0.10792
gfz2015fsjj  -0.97123
gfz2015gckd  -2.05770
gfz2015hpmk  -0.32741
gfz2015ijmh   2.17630
gfz2015ksni   0.03897
gfz2015lhjy   0.49504
gfz2015lytv  -0.35022
gfz2015rgst   0.88821
gfz2015sfdd  -0.28374
gfz2015sfdy   0.13909
gfz2015sfeo   0.98695
gfz2015sfiq  -0.77646
gfz2015sfnb  -0.15299
gfz2015sgdj   2.33910
gfz2015sgdn   0.25997
gfz2015sgmr  -0.68409
gfz2015sgyd   0.42321
gfz2015shjn   0.46586
gfz2015shsz  -0.03650
gfz2015sitn   0.52352
gfz2015sixi  -0.04148
gfz2015sjgk  -0.94300
gfz2015sjjb   1.68310
gfz2015sjne   0.48387
gfz2015sjoj  -0.08733
gfz2015sjvu  -0.05279
gfz2015skpv  -0.54977
gfz2015skxu  -1.35270
gfz2015slun   1.30440
gfz2015smym   0.00728
gfz2015snsf  -0.73659
gfz2015snwh  -0.71936
gfz2015snyd  -0.36155
gfz2015soat   0.54229
gfz2015soxc   0.04513
gfz2015stfy  -0.25120
gfz2015stso  -0.21191
gfz2015svjy   0.26262
gfz2015svwm  -0.26599
gfz2015swgn   0.56607
gfz2015swjx   0.19155
gfz2015sxxu   0.03092
gfz2015szcb   0.31880
gfz2015szfq   1.34700
gfz2015taml  -1.09200
gfz2015teyc   2.19210
gfz2015tiyc   0.19359
gfz2015tkol   0.52310
gfz2015tnjd  -0.63935
