# Nsamples: 131  MAD:  0.920  mean: -0.181  variance:  1.301
gfz2010eaoy   0.20539
gfz2010eapn   1.68870
gfz2010eaqe  -0.15000
gfz2010eaqy  -0.23685
gfz2010earu   1.33650
gfz2010easo   0.10159
gfz2010eati  -2.72280
gfz2010eato  -0.21481
gfz2010eawu   1.15550
gfz2010ebhc  -1.07120
gfz2010ecua  -0.71686
gfz2010edcp  -3.53130
gfz2010edyi   6.83900
gfz2010eisx   0.67066
gfz2010ekyc  -0.20563
gfz2010eltf  -0.66065
gfz2010excp   0.19927
gfz2010exdd  -0.34025
gfz2010exdl  -0.54859
gfz2010ezck  -0.00356
gfz2010fedq   0.40738
gfz2010ffhq  -0.00555
gfz2010fwpv  -1.10820
gfz2010fync   0.19683
gfz2010glxl   1.61570
gfz2010grjd  -0.31344
gfz2010hxgv   0.19688
gfz2010icqq  -0.67419
gfz2010iobp   0.94803
gfz2010iull  -0.52864
gfz2010lkcf  -0.25906
gfz2010ncrl  -0.70113
gfz2010nmpc  -1.11410
gfz2010nqwo   1.11800
gfz2010rqwj  -0.29451
gfz2010sfee  -1.20370
gfz2010usho   0.41987
gfz2011aatr  -0.16111
gfz2011adjs   1.31830
gfz2011cykd   0.94093
gfz2011dpqx  -1.70070
gfz2011enva  -1.47900
gfz2011etje   0.72989
gfz2011gbmx  -0.41702
gfz2011gkzt   1.31520
gfz2011hlsa   0.16191
gfz2011jplh  -0.82781
gfz2011kqwo   0.40674
gfz2011kxzp  -0.78182
gfz2011lcxq  -2.19150
gfz2011lzwj  -1.95580
gfz2011mdie  -1.16000
gfz2011nudm  -0.44396
gfz2011rewa  -0.18382
gfz2011toub  -2.82290
gfz2011ujze  -1.47080
gfz2011uphh  -1.38730
gfz2011wxfs   0.28301
gfz2011xyxj   1.33550
gfz2012bpkx  -0.15471
gfz2012enno  -0.12728
gfz2012fzfa   0.00000
gfz2012hnul  -0.91413
gfz2012jgvj  -0.97142
gfz2012jlox  -2.05360
gfz2012kkup   0.11620
gfz2012klhx   0.48266
gfz2012kudo  -0.32439
gfz2012ldxg  -1.56770
gfz2012wxlg   0.53011
gfz2012wypz   0.36756
gfz2013ccnr   0.92654
gfz2013drxz   0.04983
gfz2013jkut  -0.49723
gfz2013jusj   2.06920
gfz2013lgxc   0.42476
gfz2013nwdi  -0.86700
gfz2013xsdt  -1.31550
gfz2013yqkv   0.77624
gfz2014bwue   0.16153
gfz2014czua  -0.68579
gfz2014fgvi  -1.30480
gfz2014fhla  -0.92524
gfz2014frdz  -1.47380
gfz2014ftka   0.55419
gfz2014furx  -2.01990
gfz2014fusj  -0.78993
gfz2014fval  -1.49210
gfz2014fvrg  -0.20488
gfz2014gbcz   2.09910
gfz2014gkgf  -0.96750
gfz2014gmhr  -0.12458
gfz2014gmnb   0.33452
gfz2014gull   1.10660
gfz2014lgqn  -0.10898
gfz2014lyhk  -0.95269
gfz2014lyhp  -1.01580
gfz2014nqfm  -0.50014
gfz2014oinz   0.05730
gfz2014ssvz  -1.15090
gfz2015chhn  -0.17597
gfz2015cyjd  -1.07160
gfz2015fkgt   0.21867
gfz2015fsjj  -1.55170
gfz2015lhjy  -0.26062
gfz2015lytv  -0.85453
gfz2015qnho  -0.30402
gfz2015sfdd   0.08359
gfz2015sfdy  -1.03630
gfz2015sfnb   0.34851
gfz2015sfno  -1.01770
gfz2015sfnv  -1.11870
gfz2015sgyd  -0.49553
gfz2015sjgk   0.49581
gfz2015sjoj   0.47371
gfz2015sjvu   0.02933
gfz2015skpv  -0.36622
gfz2015sldx   0.23359
gfz2015smym   0.63260
gfz2015snsf  -0.12444
gfz2015snwh   0.09167
gfz2015snyd   0.41048
gfz2015soat   0.62097
gfz2015soxc   0.71476
gfz2015supa   0.42609
gfz2015svwm   0.46612
gfz2015szcb   0.84227
gfz2015taml   0.34855
gfz2015tiyc   0.42693
gfz2015tkol   0.28124
gfz2015tnjd   0.00000
