# Nsamples: 460  MAD:  0.863  mean:  0.024  variance:  2.342
gfz2010aerk   0.06341
gfz2010bowy   0.13610
gfz2010boxo   0.55975
gfz2010bxxs   0.23649
gfz2010bywj  -0.12262
gfz2010caft  -0.44248
gfz2010cbkg  -0.63553
gfz2010cdbt   0.35439
gfz2010chnv   0.29000
gfz2010cind  -0.53291
gfz2010civi  -1.97400
gfz2010cjmx   0.16595
gfz2010cjrf   1.09180
gfz2010ckeu  -0.09825
gfz2010ckzm   0.19940
gfz2010cnwc  -0.20246
gfz2010cptb  -0.35229
gfz2010cqwl  -0.06148
gfz2010cres   0.70564
gfz2010czps  -2.58480
gfz2010ddzo  -0.54517
gfz2010dejx   0.26756
gfz2010dfru   0.06310
gfz2010dlgc   0.01843
gfz2010dtmx   2.54550
gfz2010dumm   0.02318
gfz2010emyz   0.73999
gfz2010engw   1.41530
gfz2010enpa  -0.52647
gfz2010ensu   4.21210
gfz2010enzl   0.42789
gfz2010eoao  -1.68500
gfz2010eohh   1.16320
gfz2010eomb  -0.47433
gfz2010epbe  -1.08690
gfz2010epud  -0.06643
gfz2010epxj   0.56280
gfz2010eqcn  -0.81326
gfz2010eqjg  -1.12900
gfz2010eqmu  -4.36190
gfz2010eqse   2.27320
gfz2010eqwl  -3.00500
gfz2010erda   1.25830
gfz2010erdi  -4.15680
gfz2010erkn  -0.04229
gfz2010ermi   1.45850
gfz2010erna  -1.13160
gfz2010erom  -2.02390
gfz2010erum   5.58700
gfz2010eruy   0.09978
gfz2010erwn  -0.90976
gfz2010erxb  -3.02130
gfz2010erxk   0.22817
gfz2010esid   1.87140
gfz2010esmg   0.73004
gfz2010esou  -0.82103
gfz2010eted  -0.03499
gfz2010etfw   0.70885
gfz2010euan  -0.49565
gfz2010eujm   0.40285
gfz2010euvl  -2.08850
gfz2010euwb   0.13247
gfz2010euxe   0.97433
gfz2010evco   0.26300
gfz2010evgf  -0.47405
gfz2010evjv   1.36050
gfz2010evkd  -0.95108
gfz2010ewbc   0.80426
gfz2010ewvc   0.22763
gfz2010ewyu   2.96190
gfz2010excp   0.98575
gfz2010exdd  -0.64878
gfz2010exdl  -0.27888
gfz2010exel   0.17333
gfz2010exfb  -0.28474
gfz2010exgb   0.07280
gfz2010exhd   1.38490
gfz2010exhw   0.46248
gfz2010exmc   0.37178
gfz2010exno  -4.15910
gfz2010exqu  -0.84955
gfz2010exsg  -0.71118
gfz2010exts   0.51943
gfz2010eyaz  -1.53770
gfz2010eyiv  -0.82046
gfz2010eyqe  -0.97188
gfz2010eyvq   1.58380
gfz2010eyxe   0.70634
gfz2010ezax   1.25900
gfz2010ezck  -1.13040
gfz2010ezvt   0.53781
gfz2010ezwz  -1.15160
gfz2010ezxd  -3.05770
gfz2010faeu  -0.60479
gfz2010falm  -1.11560
gfz2010fauz  -0.05305
gfz2010fbeu   1.34910
gfz2010fbwe   0.79896
gfz2010fcax   1.23190
gfz2010fciw   3.03060
gfz2010fcnn  -1.24720
gfz2010fcnt   0.66887
gfz2010fcxy  -0.66702
gfz2010fcyj  -4.85560
gfz2010fczt   2.73640
gfz2010fdab   1.24240
gfz2010fedq  -1.16280
gfz2010fexw   0.08069
gfz2010ffhq  -0.97420
gfz2010ffjb  -0.26564
gfz2010ffui   1.98150
gfz2010fhbl   0.49981
gfz2010fihj   0.27347
gfz2010fika  -1.14990
gfz2010fixr   1.31180
gfz2010fjal   1.57820
gfz2010fjmu  -0.08593
gfz2010fkhd   0.13713
gfz2010fknh   0.00000
gfz2010flha  -0.98215
gfz2010flkj   0.15271
gfz2010floi   2.28220
gfz2010flrt   0.85961
gfz2010flxi  -0.77095
gfz2010fmhb   0.99999
gfz2010fmip   2.70700
gfz2010fmpy  -0.36308
gfz2010fneu   1.13090
gfz2010fnrk  -1.83730
gfz2010fobc   1.23670
gfz2010fpqy  -1.15670
gfz2010fqdu  -0.56211
gfz2010fqtj  -0.86895
gfz2010fser   4.78040
gfz2010fsth   1.37340
gfz2010ftlm  -0.54542
gfz2010fupn  -1.57510
gfz2010fuuy  -0.97147
gfz2010fuwa   4.40500
gfz2010fwkk   1.32250
gfz2010fwlb  -0.25374
gfz2010fyen  -1.40120
gfz2010gcdn   0.81297
gfz2010gceb  -0.83242
gfz2010gcrl  -0.29864
gfz2010gdch   2.51780
gfz2010gdld  -0.97830
gfz2010gdvf   0.61724
gfz2010geru   1.02790
gfz2010ghyk   0.40543
gfz2010ginm  -1.85690
gfz2010gjia  -0.67352
gfz2010gjvo  -0.31366
gfz2010glqr  -0.38039
gfz2010glxl  -0.21497
gfz2010grss   0.09002
gfz2010grxb  -0.45773
gfz2010gslu  -1.27940
gfz2010gwmp  -0.98456
gfz2010gymo  -0.38203
gfz2010gyqp  -1.34790
gfz2010hakh  -2.66160
gfz2010hbka  -0.73816
gfz2010hcio  -0.90553
gfz2010hevz  -0.79438
gfz2010hgld   1.43120
gfz2010hhls   0.08880
gfz2010hjoc   0.22617
gfz2010hllj   2.65590
gfz2010hlln  -1.22560
gfz2010hlmq  -1.14140
gfz2010hmhm   2.36630
gfz2010hncj   0.16268
gfz2010hnnf  -1.26060
gfz2010hnpi   1.34010
gfz2010hnzr  -1.25560
gfz2010homc  -1.11630
gfz2010hptz  -0.83200
gfz2010hrkr   0.04018
gfz2010htdq   0.12631
gfz2010hufk   0.11697
gfz2010hxgv  -0.60080
gfz2010hxhe   0.50946
gfz2010hykt   0.67995
gfz2010hzar   0.19132
gfz2010ibiy   1.49400
gfz2010ibxj   0.14280
gfz2010iciq  -0.71603
gfz2010icqq  -0.82137
gfz2010ihrq   1.12560
gfz2010okdm  -0.92573
gfz2010oluw  -1.09770
gfz2010omla   0.85927
gfz2010onma  -0.99871
gfz2010osjs  -0.16634
gfz2010osqo  -0.01627
gfz2010otbn   0.06173
gfz2010oyqy  -0.05849
gfz2010pbdz   0.03554
gfz2010pcxi  -0.35016
gfz2010pdtk  -1.09750
gfz2010pets   0.60544
gfz2010pewa  -1.04050
gfz2010pewx   1.59900
gfz2010pexf  -1.44230
gfz2010pfyu   0.02154
gfz2010phvg  -1.82610
gfz2010plbg  -1.54120
gfz2010pmqd  -0.04003
gfz2010pqck  -1.43500
gfz2010pxak   0.42403
gfz2010pxgh   0.75962
gfz2010pxls  -0.33793
gfz2010qbng   0.24302
gfz2010qitd  -1.40530
gfz2010qjst  -1.85420
gfz2010qkat  -0.03927
gfz2010qpcq   0.33647
gfz2010qwwx   0.64131
gfz2010rkfp   0.12947
gfz2010rlbv   1.58700
gfz2010rotv  -0.80857
gfz2010rqwj  -0.55648
gfz2010rywq  -0.43297
gfz2010rzrr   2.43380
gfz2010sfee   0.13707
gfz2010sfla   0.05791
gfz2010sgzk   6.69900
gfz2010sjwp  -0.22430
gfz2010skqo  -1.57650
gfz2010skve   0.17641
gfz2010sniy  -3.33280
gfz2010srdb  -0.88705
gfz2010svtn   1.39150
gfz2010svve   0.95109
gfz2010swcy   0.35262
gfz2010sxwt  -0.36568
gfz2010sysw  -0.59264
gfz2010szde   6.32570
gfz2010szim  -1.15470
gfz2010tcbr  -0.54833
gfz2010tcrl   1.39190
gfz2010titk   0.12833
gfz2010truw   0.12158
gfz2010txjs   1.71340
gfz2010wofs  -0.60184
gfz2010wrxx   0.92694
gfz2010wxqa   1.09030
gfz2010xbcr   0.27283
gfz2010xbdv   0.86775
gfz2010xbgs  -0.40473
gfz2010xcdh  -0.40184
gfz2010xche   0.01559
gfz2010xcij   0.06171
gfz2010xden  -0.02027
gfz2010xgfc   0.10538
gfz2010xgzw  -0.29316
gfz2010xjsj  -0.67133
gfz2010yfsv   0.04282
gfz2010ygwu  -0.75113
gfz2010yjev  -1.49370
gfz2010ymfy   0.14054
gfz2010ymur   0.69915
gfz2010yosr   0.02816
gfz2010yoyx   0.32005
gfz2010yqqb   0.40059
gfz2010yqqv  -2.94920
gfz2010ysaj   0.75602
gfz2010yvwz   0.74969
gfz2010yzgq   0.80545
gfz2010zdpo  -0.07354
gfz2011aatr  -0.24086
gfz2011adjs  -0.19046
gfz2011adlj   0.05873
gfz2011adne  -1.96720
gfz2011adqk  -0.58363
gfz2011ahfw  -1.74050
gfz2011alip   0.04505
gfz2011alsa   0.58160
gfz2011ammu   2.27450
gfz2011anur   1.01540
gfz2011aosc  -0.37431
gfz2011aqxf   0.14953
gfz2011asru   0.17909
gfz2011aupi   0.77706
gfz2011bhha  -0.61976
gfz2011bnsg   0.01479
gfz2011bnzn  -0.61924
gfz2011bpkd  -0.34115
gfz2011bswz  -0.17653
gfz2011cfae  -0.40787
gfz2011cndo   0.84254
gfz2011cnho   1.14110
gfz2011coxh  -0.19744
gfz2011crdy   0.49882
gfz2011csju  -1.55290
gfz2011ctbn  -0.08210
gfz2011cvcg  -0.42886
gfz2011cvfg  -1.70770
gfz2011cykd  -0.90443
gfz2011cylz  -0.03916
gfz2011cynl  -1.59290
gfz2011cyre  -1.28550
gfz2011cyuk  -0.82128
gfz2011czwj   0.35340
gfz2011dbev  -1.10660
gfz2011dbig  -0.43799
gfz2011dbon   0.14455
gfz2011dbwt  -1.60150
gfz2011dcqb  -1.82590
gfz2011ddao  -0.61074
gfz2011dddh   2.63160
gfz2011deja  -0.11872
gfz2011dkyi  -0.89386
gfz2011dldn  -0.39325
gfz2011dlyx   0.00000
gfz2011dmat  -0.03383
gfz2011dndz  -0.12843
gfz2011dpaa  -0.53431
gfz2011dpmx   0.77596
gfz2011dpqx  -0.39864
gfz2011dqio  -0.39212
gfz2011duyr  -0.09081
gfz2011dvxb   0.29685
gfz2011eayc  -0.04219
gfz2011ecsc   2.71700
gfz2011ecvr   1.17080
gfz2011efgv   0.14461
gfz2011ehzq   1.18930
gfz2011eiis   0.25526
gfz2011ejlp  -0.04983
gfz2011ekpr  -1.49530
gfz2011eocc   0.01530
gfz2011etje  -0.43501
gfz2011fdzv   0.10078
gfz2011fgvr   4.06070
gfz2011fhag  15.48400
gfz2011fhbm   0.40263
gfz2011fhur  -0.67703
gfz2011fkbn   0.18448
gfz2011flgj   0.05092
gfz2011fnsw  -0.84646
gfz2011gbmx  -0.47101
gfz2011gcwb  -0.00782
gfz2011ggvf  -0.45759
gfz2011gjlx   0.30822
gfz2011gzbr   3.70700
gfz2011haid   1.81300
gfz2011hbex  -0.10474
gfz2011hbqk   0.11100
gfz2011hebt  -0.03138
gfz2011hfkj   0.61300
gfz2011hlqw  -0.23365
gfz2011hlsa  -0.22717
gfz2011hlth  -0.43919
gfz2011hpgx   0.14923
gfz2011hpqp   0.14577
gfz2011hrhe  -0.01625
gfz2011hvbu   1.48050
gfz2011icxe  -0.51502
gfz2011ieie  -0.29564
gfz2011ixai  -0.59774
gfz2011lvjr   0.29895
gfz2011lzwj   0.36099
gfz2011mdie  -2.04810
gfz2011mivl  -0.36177
gfz2011mjom   0.01892
gfz2011mllx   0.05307
gfz2011mlvw  -0.11741
gfz2011mpme   2.57410
gfz2011mprq  -3.38940
gfz2011nauw  -0.10343
gfz2011necz   0.21335
gfz2011nkaz   1.09790
gfz2011nmqj   2.14420
gfz2011noud   2.96350
gfz2011nowp   0.10009
gfz2011npgs   0.06526
gfz2011nqpd   0.08134
gfz2011nrwc  -0.32637
gfz2011nsex  -0.30570
gfz2011ntkh  -0.06904
gfz2011ntrv   0.13538
gfz2011nudm  -1.29370
gfz2011ogqk   2.06190
gfz2011ohcy  -2.01730
gfz2011oiqe  -0.43505
gfz2011oiwk  -0.64239
gfz2011olkk   0.39017
gfz2011oolr   0.21257
gfz2011ornx  -1.58360
gfz2011owvz  -1.35280
gfz2011pccd  -0.13686
gfz2011pdpt  -0.28712
gfz2011pdst   0.19009
gfz2011phms  -1.19490
gfz2011psnq   0.53092
gfz2011ptus  -1.59120
gfz2011qigx   0.66536
gfz2011qoif   0.62582
gfz2011qvae   0.07051
gfz2011qyms   6.69760
gfz2011rewa  -0.25647
gfz2011rgwl   0.06708
gfz2011rgwp   1.49680
gfz2011rnut  -2.47850
gfz2011rqui   0.41376
gfz2011rsrh   0.68568
gfz2011runa  -1.39060
gfz2011rznl  -0.75811
gfz2011sagt  -2.43970
gfz2011sawg   0.43400
gfz2011shqm  -0.29234
gfz2011socv   0.06953
gfz2011sqoy   0.23680
gfz2011srka  -0.37730
gfz2011stal  -1.69430
gfz2011sthv   0.19276
gfz2011svix  -0.42760
gfz2011syjd   1.27230
gfz2011tbas   1.65450
gfz2011tcij  -1.24180
gfz2011tivu   0.11434
gfz2011tjrf   2.08470
gfz2011tkfp   0.61432
gfz2011tkog  -0.61741
gfz2011tnag  -0.15298
gfz2011toub   1.06130
gfz2011tpfr   0.02141
gfz2011tsfd  -0.67813
gfz2011tsnp  -0.59421
gfz2011twov  -0.44441
gfz2011udsq  -0.69739
gfz2011ueni   0.29180
gfz2011uepx   0.08374
gfz2011ugzz   0.17845
gfz2011uiul   0.34984
gfz2011ujze  -0.04908
gfz2011ukmp   0.25698
gfz2011unkx  -0.48542
gfz2011uphh  -0.09022
gfz2011urxy   0.41829
gfz2011urzu   0.09882
gfz2011uzqv  -0.57787
gfz2011wcic  -0.70924
gfz2011wfja   0.04840
gfz2011wijj   0.12586
gfz2011wjul   0.08870
gfz2011wtmq  -0.02335
gfz2011wvzb   0.17271
gfz2011wwjs   0.43238
gfz2011wxfs  -0.89379
gfz2011wxoj  -0.23481
gfz2011wxtk  -0.43117
gfz2011wype  -0.01869
gfz2011xaan  -2.14170
gfz2011xcpv  -4.11290
gfz2011xesx   0.51291
gfz2012pqlt  -0.09677
gfz2012pqmu  -0.41650
