# Nsamples: 1573  MAD:  0.450  mean:  0.030  variance:  4.315
gfz2010aerk   0.00000
gfz2010ahla  -0.08369
gfz2010ahqi   0.29354
gfz2010aphp   0.25588
gfz2010bedu  -1.09550
gfz2010bfzs  -0.44860
gfz2010bxxs  -0.69875
gfz2010bywj  -0.02422
gfz2010caft  -0.09738
gfz2010cbkg   0.11373
gfz2010chnv  -0.12250
gfz2010cind   0.29831
gfz2010civi  -0.90992
gfz2010cjmx  -0.01315
gfz2010cjrf   0.24471
gfz2010ckeu   0.55807
gfz2010ckzm   0.43550
gfz2010cnwc   1.52520
gfz2010cptb  -0.52528
gfz2010cqwl  -0.04546
gfz2010cres  -0.28782
gfz2010ctuw  -0.49911
gfz2010czps  -0.45494
gfz2010dfru  -0.03752
gfz2010dlgc  -0.48565
gfz2010dtmx  -0.35900
gfz2010dumm   0.09970
gfz2010eaoy  -1.82040
gfz2010ebfa   2.05620
gfz2010ebfx   3.36400
gfz2010ebgj  -2.29530
gfz2010ebhc  -1.15450
gfz2010ebll   0.61673
gfz2010eioi  -0.77007
gfz2010eisx   0.11586
gfz2010eixj  -0.98881
gfz2010ejjg  -1.98400
gfz2010ekyc  -2.09230
gfz2010eltf   0.45506
gfz2010elvp   0.09785
gfz2010elyc   0.78353
gfz2010elyo  -0.10691
gfz2010elzf   0.00000
gfz2010enzl   0.01521
gfz2010eoao   1.29300
gfz2010epxj   2.00360
gfz2010epzk  -1.32650
gfz2010eqjg   4.83100
gfz2010erdi  -0.01969
gfz2010erkn  -0.71704
gfz2010ermi   0.10325
gfz2010erna  -0.86956
gfz2010erom  -1.19290
gfz2010eruy  -0.77608
gfz2010erxb  -0.13375
gfz2010eryg  -0.57744
gfz2010esmg  -1.57070
gfz2010evgf   0.75089
gfz2010ewyu   0.52797
gfz2010excp  -0.88112
gfz2010exdd   1.55060
gfz2010exdl  -2.51950
gfz2010exjw   0.20025
gfz2010exno  -1.13460
gfz2010ezax  -0.83778
gfz2010ezck   0.54041
gfz2010falm   0.18725
gfz2010fczt   0.27063
gfz2010fedq   1.58520
gfz2010fexw  -0.31427
gfz2010ffhq  -0.67549
gfz2010ffjb   1.24360
gfz2010fihj   2.94330
gfz2010fika   0.24013
gfz2010fisf  -0.26432
gfz2010fjas   0.33633
gfz2010fjmu   2.20320
gfz2010fkhd  -0.59138
gfz2010flha   1.48560
gfz2010flxi  -1.54240
gfz2010fmhb   4.00690
gfz2010fpqy  -0.57657
gfz2010fqdu   0.21960
gfz2010fqtj  -2.00750
gfz2010ftlm   0.33142
gfz2010fwlb  -0.11330
gfz2010fyen   2.12620
gfz2010fzsg  -1.19890
gfz2010gcrl   0.84523
gfz2010gdld   3.92050
gfz2010gdvf   0.26877
gfz2010ghyk   0.07569
gfz2010glxl   0.93355
gfz2010grss  -0.32516
gfz2010gvya  -0.45386
gfz2010gwmp   1.38540
gfz2010gyqp   0.69081
gfz2010gzxr  -0.04905
gfz2010hakh   1.59970
gfz2010hbka   1.19630
gfz2010hcio   0.96540
gfz2010hevz   0.03395
gfz2010hhls   1.53680
gfz2010hjoc   0.23619
gfz2010hllj  -0.81737
gfz2010hlln  -1.21370
gfz2010hlmq   0.38399
gfz2010hncj   0.01131
gfz2010hnnf  -0.23583
gfz2010homc   0.55870
gfz2010hptz  -0.30671
gfz2010hrkr  -0.09458
gfz2010hufk   0.24371
gfz2010hxgv  -0.96365
gfz2010hxhe  -0.07481
gfz2010hykt   0.52099
gfz2010ibxj   0.14367
gfz2010ijtk  -0.04516
gfz2010imsh   0.70078
gfz2010iobp  -2.53130
gfz2010iull  -0.64248
gfz2010jucj  -0.04628
gfz2010jwpy   0.03354
gfz2010jxbm  -2.06000
gfz2010jygz   0.15754
gfz2010kihf   4.06450
gfz2010kmsv  -0.68216
gfz2010kqyh  -0.91184
gfz2010lczp  -0.57450
gfz2010lepw  -0.09844
gfz2010lfju  -0.58389
gfz2010lgwy   0.30897
gfz2010liqs   0.61623
gfz2010lkcf  -0.63625
gfz2010lluj   0.48177
gfz2010lrlk  -0.35913
gfz2010lsft   0.80811
gfz2010lwuq  -0.77410
gfz2010mdpq   0.23730
gfz2010mipi  -0.23753
gfz2010mncc   0.82689
gfz2010mnsz   0.48948
gfz2010moyw   1.10230
gfz2010msjj   1.51570
gfz2010mzjr   0.16332
gfz2010ncrl   3.07260
gfz2010ndxl  -0.31306
gfz2010nmpc  -1.58750
gfz2010nnny  -0.11094
gfz2010nqwf  -1.64040
gfz2010nqwo  -1.14550
gfz2010nrjo  -0.64833
gfz2010nsfx  -2.23430
gfz2010nubk  -0.07466
gfz2010nwef   0.08185
gfz2010nxsy   1.13840
gfz2010nxum  -0.84767
gfz2010ocxq   0.55414
gfz2010odpb   0.17326
gfz2010oedn  -0.12514
gfz2010oluw   0.53247
gfz2010omla  -0.34743
gfz2010onma  -0.13320
gfz2010osqo   1.46370
gfz2010otbn   0.21800
gfz2010oyqy  -1.47980
gfz2010pbdz   6.34810
gfz2010pcxi   0.21567
gfz2010pets   0.40603
gfz2010pewa   1.35660
gfz2010pewx   2.23430
gfz2010phvg   1.49790
gfz2010pmqd   0.38835
gfz2010pqck   1.48290
gfz2010pxak  -0.02591
gfz2010pxgh   0.97866
gfz2010pxls   0.34944
gfz2010qbng  -0.12838
gfz2010qitd   0.05856
gfz2010qkat   0.03012
gfz2010qpcq   0.38800
gfz2010qpum  -0.12268
gfz2010rkfp  -0.31101
gfz2010rqwj   0.15466
gfz2010sfee   0.06810
gfz2010skqo   0.06028
gfz2010svtn   0.96413
gfz2010svve  -0.26310
gfz2010swcy  -0.02387
gfz2010sxwt  -0.00000
gfz2010sysw  -0.65867
gfz2010uouo  -1.21140
gfz2010upfb   0.97593
gfz2010usho  -0.01571
gfz2010ustq  -0.09906
gfz2010utcg   0.18386
gfz2010uyhb   1.48320
gfz2010uzon  -0.20383
gfz2010vjcb   0.17568
gfz2010vppc   0.69436
gfz2010vxvs   0.11707
gfz2010vyxd  -0.07145
gfz2010vzzz   0.40098
gfz2010wioh   0.21021
gfz2010wnty   0.28290
gfz2010wntz   0.86174
gfz2010wrxx   5.23230
gfz2010wxqa  -0.25493
gfz2010xbcr   0.03780
gfz2010xbgs  -0.33082
gfz2010xcdh   0.20975
gfz2010xche   0.13695
gfz2010xcij  -0.08267
gfz2010xden  -0.02873
gfz2010xgfc  -0.36381
gfz2010xjsj  -0.01238
gfz2010xnxk  -1.20280
gfz2010xxzn   4.29470
gfz2010yfsv   2.55020
gfz2010ymfy  -0.69474
gfz2010ymur   0.01047
gfz2010yosr  -0.26478
gfz2010yoyx  -0.44311
gfz2010yqqb  -0.43842
gfz2010yqqv  -0.18509
gfz2010ysaj   0.10615
gfz2010yvwz  -0.80984
gfz2010zdpo  -0.35507
gfz2010zeeh  -0.80440
gfz2011aatr   0.06111
gfz2011adjs  -0.79598
gfz2011adlj   0.06619
gfz2011ahfw  -0.28384
gfz2011alip  -0.33874
gfz2011ammu   0.17756
gfz2011anur  -0.04991
gfz2011bapi   0.21743
gfz2011bnsg  -1.51400
gfz2011bnzn   0.07243
gfz2011bpkd   0.53102
gfz2011bswz  -0.44857
gfz2011ccpw   0.24134
gfz2011cfae   0.02849
gfz2011cndo  -0.20659
gfz2011cnho  -0.00912
gfz2011crdy   0.25922
gfz2011csju   0.71425
gfz2011ctbn   4.16410
gfz2011cvcg   0.65306
gfz2011cvfg  -0.01839
gfz2011cwgn   5.55880
gfz2011cykd   0.45752
gfz2011cyre  -0.77989
gfz2011cyuk  -0.86020
gfz2011dbev   1.07630
gfz2011dbig   1.11110
gfz2011dbon  -2.02500
gfz2011dcqb  -0.18308
gfz2011deja  -0.53858
gfz2011dkyi   0.09876
gfz2011dldn   0.46010
gfz2011dlyx   1.54450
gfz2011dmat  -0.23772
gfz2011dndz   0.11673
gfz2011dpaa   0.13589
gfz2011dpmx   0.06585
gfz2011dpqx   0.85850
gfz2011dqio   0.84477
gfz2011dvxb  -0.08899
gfz2011eayc   0.02256
gfz2011ecvr   0.13109
gfz2011efgv  -0.43534
gfz2011ehzq   0.09708
gfz2011ejlp  -0.06054
gfz2011eocc   0.17028
gfz2011etje   0.23196
gfz2011fdzv  -0.62986
gfz2011fhbm   0.11064
gfz2011fhur   0.86579
gfz2011fkbn  -0.13625
gfz2011flgj  -0.73592
gfz2011fnsw   0.75520
gfz2011gcwb   0.64908
gfz2011ggvf   0.22221
gfz2011gjlx   0.89139
gfz2011gzbr   5.97520
gfz2011hbex   0.15998
gfz2011hbqk  -0.22876
gfz2011hebt  -0.08210
gfz2011hlqw   0.24011
gfz2011hlsa   0.11321
gfz2011hlth   0.32847
gfz2011hrhe   0.00962
gfz2011hvbu   0.02550
gfz2011icxe  -0.15334
gfz2011ieie   0.77346
gfz2011izqa   0.07960
gfz2011jbbc   0.07844
gfz2011jdsj   0.41710
gfz2011jmbn  -0.38637
gfz2011jnmi   0.39001
gfz2011jplh  -0.25420
gfz2011knbi   0.17164
gfz2011knoo  -0.17784
gfz2011kqwo  -1.42840
gfz2011kqyg   0.88222
gfz2011kwjx  -1.24040
gfz2011kwqc   0.16144
gfz2011kwrf  -0.60155
gfz2011kwsz   0.25377
gfz2011kxzp   1.43330
gfz2011lczg   0.26449
gfz2011ldna   0.12927
gfz2011lgsg  -0.04976
gfz2011lhls  -0.67625
gfz2011lvjr   0.60432
gfz2011lzwj  -1.67940
gfz2011mdie   0.14032
gfz2011mivl  -1.01660
gfz2011mjom  -0.01108
gfz2011mllx  -0.16744
gfz2011mlvw   0.00000
gfz2011mpme   2.94330
gfz2011mprq   1.51800
gfz2011nauw  -0.23816
gfz2011necz  -0.19463
gfz2011nmnq  -0.55893
gfz2011nmqj   1.09530
gfz2011nowp   0.31600
gfz2011nqpd  -0.23288
gfz2011nrwc   0.23247
gfz2011nsex   0.89431
gfz2011ntkh  -0.03963
gfz2011ntrv   0.10960
gfz2011nudm   0.82947
gfz2011ohcy  -0.17291
gfz2011oiqe  -0.83652
gfz2011oiwk   0.70413
gfz2011olkk  -1.11830
gfz2011oolr  -0.10506
gfz2011ornx  -0.40583
gfz2011owvz  -0.09306
gfz2011pccd  -0.05345
gfz2011pdpt   0.16777
gfz2011pdst   0.23154
gfz2011psnq   0.05168
gfz2011qigx   0.37299
gfz2011qoif   0.14780
gfz2011qvae  -3.09010
gfz2011qyms   2.21770
gfz2011rabm  -0.36570
gfz2011rdby   2.99950
gfz2011rewa   0.24162
gfz2011rgwp  -1.74090
gfz2011rqui  -0.09091
gfz2011rsrh  -0.43941
gfz2011runa   0.17002
gfz2011sagt  -1.05970
gfz2011sawg   0.17006
gfz2011sqoy   0.05278
gfz2011srka   0.27418
gfz2011stal  -1.82380
gfz2011sthv   0.30334
gfz2011svix   0.18647
gfz2011syjd  -0.12387
gfz2011taps  -2.18980
gfz2011tivu   0.20708
gfz2011tkfp   2.10430
gfz2011tkog   1.02710
gfz2011tnag   0.04994
gfz2011toub  -0.16901
gfz2011tpfr   0.16905
gfz2011tsfd   6.13920
gfz2011tsnp   0.03758
gfz2011twov   0.59668
gfz2011ueni  -0.42403
gfz2011uepx  -0.66629
gfz2011uiul   0.52294
gfz2011ujze   0.09298
gfz2011ukmp  -0.01537
gfz2011unkx  -0.30310
gfz2011uphh  -0.16889
gfz2011urxy   0.16309
gfz2011urzu  -0.41648
gfz2011vclt   0.67295
gfz2011vhfi   0.10633
gfz2011vkun   0.01461
gfz2011vldk   0.07447
gfz2011vnza   0.13181
gfz2011vqnr  -0.10739
gfz2011vrhg  -0.16546
gfz2011vxod   0.17369
gfz2011vxxg   0.01289
gfz2011wcic  -1.76470
gfz2011wfja   0.03457
gfz2011wijj   0.41915
gfz2011wjul  -0.12979
gfz2011wtmq  -0.01566
gfz2011wwjs  -0.59616
gfz2011wxfs   0.19634
gfz2011wxtk  -0.28917
gfz2011wype  -2.06940
gfz2011xaan  -0.91244
gfz2011xesx   0.03945
gfz2011xqru  -0.61676
gfz2011yfys   0.39452
gfz2011ytnu   0.07944
gfz2011yybo   0.05134
gfz2011zjap  -0.27454
gfz2011zlfg  -0.14411
gfz2011zlrd   0.28198
gfz2011zqhh   0.28406
gfz2012aqtq  -0.33191
gfz2012attr   0.07845
gfz2012bfyn   0.20772
gfz2012bpkx  -0.84909
gfz2012cgvr  -0.31206
gfz2012cnod  -0.22220
gfz2012covm   1.00120
gfz2012cqtc   0.53955
gfz2012cuct  -72.41800
gfz2012cxdn  -0.05214
gfz2012cyof   0.43640
gfz2012czlw   0.03901
gfz2012ddma  -0.36516
gfz2012dinb  -0.03912
gfz2012divk  -0.72034
gfz2012dves  -1.84500
gfz2012ekda  -0.71561
gfz2012enno   0.32585
gfz2012eskt   0.25377
gfz2012ewkj   0.14796
gfz2012eykb  -0.12520
gfz2012ezvr   0.22141
gfz2012fgzz   0.14400
gfz2012foeo   0.28777
gfz2012fqcg   0.39642
gfz2012fwfo  -5.90470
gfz2012fwob   0.44096
gfz2012fwtr  -0.08184
gfz2012fzfa   2.69320
gfz2012gemm   0.55814
gfz2012gill   0.19257
gfz2012gnvh   0.74258
gfz2012gwqb   0.11302
gfz2012hdbm   0.10938
gfz2012hnul   0.56968
gfz2012hogg  -0.24605
gfz2012holl  -0.04813
gfz2012hsex  -0.21588
gfz2012hyaa   0.11648
gfz2012hzbe  -0.46396
gfz2012ibld  -0.59882
gfz2012icmv  -0.69532
gfz2012idje   1.24090
gfz2012iffo   0.10688
gfz2012iivw  -0.04077
gfz2012ilvn  -0.18412
gfz2012imay   0.72901
gfz2012imbd   0.30308
gfz2012intn   0.10858
gfz2012iyrb  -0.60289
gfz2012jgvj  -0.38809
gfz2012jhaz   0.00000
gfz2012jlox  -0.45580
gfz2012jmwd  -0.35504
gfz2012joqe  -0.17496
gfz2012jpgs  -0.44562
gfz2012jshk  -0.53967
gfz2012jted  -0.09269
gfz2012jupx  -0.17947
gfz2012jxiy  -0.19803
gfz2012kanu   0.05843
gfz2012kbjb   0.10304
gfz2012kbzj   0.03901
gfz2012kdmb  -0.76119
gfz2012keor  -1.30200
gfz2012kiik   0.00000
gfz2012kkcp  -0.19417
gfz2012kkup   0.58672
gfz2012klhx   0.44045
gfz2012kuct   0.09519
gfz2012kudo  -0.01645
gfz2012kvzv   0.27042
gfz2012kwgo  -0.10828
gfz2012lboz  -0.30741
gfz2012lczo   1.31360
gfz2012ldxg  -0.10756
gfz2012leam  -0.10578
gfz2012lezd  -0.31455
gfz2012lhnc  -0.17121
gfz2012llug   0.18690
gfz2012lpvn   0.30116
gfz2012lqbg   0.20451
gfz2012lrjq   2.81110
gfz2012lsni   0.82054
gfz2012lsvd   0.63013
gfz2012lszf  -0.00208
gfz2012lxkv   0.62452
gfz2012lzgv   0.13743
gfz2012lzmr   0.28633
gfz2012maxy  -0.13855
gfz2012mupa   0.02890
gfz2012noei  -0.55072
gfz2012nqnk  -0.58254
gfz2012oqmw   0.32462
gfz2012ostk  -0.11373
gfz2012ouyp   0.42590
gfz2012oycg   0.16855
gfz2012pazr   0.38558
gfz2012pcxi   0.56120
gfz2012peex  -0.69535
gfz2012peki  -0.14173
gfz2012pkel   0.71667
gfz2012pqlt  -0.08952
gfz2012pqmu   0.22809
gfz2012priv  -0.01975
gfz2012prlt   0.11332
gfz2012pspd   0.24217
gfz2012pygp   0.04062
gfz2012qjhs   0.68553
gfz2012qqqp   0.45235
gfz2012quso   0.03064
gfz2012rboy  -0.82334
gfz2012rcbq   1.12530
gfz2012rcds  -0.20716
gfz2012rejq  -0.17737
gfz2012repv   0.01494
gfz2012rjld   0.13322
gfz2012rkoa  -0.09228
gfz2012royy   0.06205
gfz2012rqlg  -0.08256
gfz2012rtqi   0.43849
gfz2012ruks  -0.83409
gfz2012rwko  -0.50359
gfz2012rwov  -1.34900
gfz2012sqmv  -0.21982
gfz2012sqvi  -0.33078
gfz2012syvl  -0.32545
gfz2012szla  -0.10316
gfz2012tazz  -0.18417
gfz2012tbbp   0.87618
gfz2012tbxt  -0.36205
gfz2012ttoa  -0.75990
gfz2012tyig  -0.03716
gfz2012uaqj  -0.73706
gfz2012uciv  -0.30584
gfz2012ulpd   0.28125
gfz2012uoef  -0.34425
gfz2012uqzp   0.43789
gfz2012uvqf   0.15439
gfz2012uxnz   0.06511
gfz2012uyie  -0.32608
gfz2012uzom   0.25739
gfz2012uzyj   2.37740
gfz2012vceo   1.28070
gfz2012vjgl   0.13183
gfz2012vmeh   0.13340
gfz2012vnbk  -0.15366
gfz2012vntz   0.01560
gfz2012vrua   0.11524
gfz2012vsev  -0.46325
gfz2012vtif   0.24360
gfz2012vtxe   1.01050
gfz2012vxvr  -0.32827
gfz2012vyzo   0.07875
gfz2012wgbb  -0.33676
gfz2012wizz  -0.36778
gfz2012wkfw  -0.49806
gfz2012wklq   0.32286
gfz2012wqnc   1.31490
gfz2012wtov   0.77988
gfz2012wubh   2.87020
gfz2012wybs   0.25388
gfz2012wypz  -0.21859
gfz2012xbjq   0.13281
gfz2012xcgk   0.22893
gfz2012xjyv  -0.14530
gfz2012xpmm   0.10485
gfz2012xslk   0.60912
gfz2012xvwn   0.31061
gfz2012xyqp   0.30357
gfz2012yhag  -0.42857
gfz2012yldu   0.62975
gfz2012yoie  -0.01134
gfz2012yqjj  -0.08527
gfz2012yxxu   0.54121
gfz2012yzod   0.21036
gfz2012zemz  -0.01767
gfz2012zfag   1.74200
gfz2012zhmb  -0.09158
gfz2012ziml  -0.16706
gfz2013aayj   0.56719
gfz2013aeee  -0.03935
gfz2013akgj   0.60128
gfz2013aknp  -0.07517
gfz2013apmm  -0.36661
gfz2013aqaw  -0.19044
gfz2013aspo  -0.14578
gfz2013avic   0.34661
gfz2013bdpu   1.41300
gfz2013bhgs   0.01138
gfz2013biji   0.07198
gfz2013bobq   0.00000
gfz2013bouj   1.58100
gfz2013btjm   0.32876
gfz2013casg   0.19276
gfz2013cbsm   0.45944
gfz2013ccnr  -0.18472
gfz2013ccon   4.23670
gfz2013cdfj  -1.34030
gfz2013cfyy  -0.07799
gfz2013cgou  -0.10344
gfz2013ciaf   0.08920
gfz2013cnms   0.24884
gfz2013cnve   1.14120
gfz2013comh  -0.15294
gfz2013cuoq  -0.01055
gfz2013ddbh   0.94215
gfz2013dddp   0.30201
gfz2013diuf  -0.02026
gfz2013dkmg  -0.07560
gfz2013dofo   0.07653
gfz2013dqls   0.80608
gfz2013drxz   0.43672
gfz2013dsrk  -2.24250
gfz2013dujm   1.57760
gfz2013dvyh   0.04763
gfz2013egni   0.12837
gfz2013egpu   0.28820
gfz2013ehwe  -0.07293
gfz2013erse   1.27490
gfz2013esnh   1.31430
gfz2013eswe  -0.14209
gfz2013evsq   0.16356
gfz2013fcto   4.30950
gfz2013fdoo   0.10371
gfz2013ffko   0.12136
gfz2013fiud  -0.61236
gfz2013fkcl  -0.12770
gfz2013flox   0.32035
gfz2013ftso   3.76360
gfz2013fwxa   0.03460
gfz2013gbcn   0.29543
gfz2013gcfx   4.67020
gfz2013gdnq   1.32550
gfz2013geno   0.20532
gfz2013gihf  -0.07179
gfz2013gjdc   0.01537
gfz2013glcr  -0.17985
gfz2013gmor   5.40140
gfz2013gngz   0.19576
gfz2013gock  -0.05343
gfz2013govy  -0.66475
gfz2013gras   0.05937
gfz2013gvet  -0.04007
gfz2013gxsu   5.34380
gfz2013hbkh   0.07059
gfz2013hbkq   0.26597
gfz2013hlbe  -0.29549
gfz2013hpfq  -0.89923
gfz2013hudi   2.02440
gfz2013hxcx   0.03535
gfz2013iapa   0.01545
gfz2013iayx   0.04785
gfz2013icfh   0.70861
gfz2013idbb  -0.83126
gfz2013iexo   0.81366
gfz2013ihcj   1.23870
gfz2013ijsr  -0.85982
gfz2013ijyg   1.59960
gfz2013inux  -0.00619
gfz2013iodt   0.30644
gfz2013iopd   0.26753
gfz2013ippu  -0.60397
gfz2013iynu   0.17846
gfz2013iyqz   0.37481
gfz2013jarl   1.32030
gfz2013jdrx  -0.57280
gfz2013jesk   0.99901
gfz2013jgij  -0.24911
gfz2013jgip   0.25192
gfz2013jjrt  -0.12914
gfz2013jjsi  -0.09390
gfz2013jkut   0.04312
gfz2013jlst   0.49107
gfz2013jmcc   0.50188
gfz2013jphq   0.17608
gfz2013jusj  -0.79423
gfz2013jwcn   0.04087
gfz2013kccc   1.01240
gfz2013kdeo  -0.31232
gfz2013kheb  -4.39750
gfz2013khli   0.07937
gfz2013kilx   0.04280
gfz2013kkzr   0.17939
gfz2013krei   1.56130
gfz2013kweg  -0.21780
gfz2013kwps   0.36809
gfz2013ldpc  -0.20360
gfz2013ldqb   0.03265
gfz2013lgbb   0.29749
gfz2013lgxc  -0.26409
gfz2013limo   0.16490
gfz2013lixa  -0.46437
gfz2013lmdy   0.32019
gfz2013lmrs   0.03115
gfz2013lsob  -0.73118
gfz2013lwbk   0.02945
gfz2013lznu  -0.53336
gfz2013mded   0.03031
gfz2013mghe   0.37319
gfz2013mhjf  -0.03765
gfz2013mmlw   0.24641
gfz2013mnac  -0.06402
gfz2013mnei   0.29466
gfz2013mnju  -0.62446
gfz2013mqmv   0.17213
gfz2013mtqd  -0.01464
gfz2013mvgr  -0.18968
gfz2013mxee   0.80026
gfz2013mzwe   0.20469
gfz2013nabl  -0.01928
gfz2013ncjp  -0.00974
gfz2013nedo  -0.02947
gfz2013neuc   0.17211
gfz2013nhjb   0.34486
gfz2013nlxz   0.07297
gfz2013nmac   0.17759
gfz2013nnzf  -0.34661
gfz2013nojf  -0.58981
gfz2013nppd   2.02420
gfz2013nqgw   0.25288
gfz2013nttq  -0.25186
gfz2013nuor   0.12982
gfz2013nvdj  -0.39619
gfz2013nvia   0.19366
gfz2013nwdi  -1.31920
gfz2013ofls  -0.56502
gfz2013ogde  -0.52699
gfz2013oksi   0.71442
gfz2013onjy   0.04763
gfz2013orjg   0.38037
gfz2013ornz  -0.05563
gfz2013ouvt  -0.31370
gfz2013ozku   0.15980
gfz2013oznn   0.01584
gfz2013ozqm   1.23000
gfz2013ozrf  -0.42305
gfz2013pakq  -1.52130
gfz2013pcos  -0.15442
gfz2013pfbx  -0.66047
gfz2013pigb  -1.95620
gfz2013piwd   0.07197
gfz2013pkbs  -0.07247
gfz2013plhp  -0.47623
gfz2013pupd  -0.65126
gfz2013pxya  -0.70703
gfz2013pzgt   5.63180
gfz2013qali  -0.18572
gfz2013qbca  -0.11547
gfz2013qbys   0.34969
gfz2013qcck  -0.17030
gfz2013qckf   0.18064
gfz2013qfmm   0.12194
gfz2013qfsq  -0.48391
gfz2013qhtx  -0.12965
gfz2013qhwz  -0.79367
gfz2013qidm  -0.90926
gfz2013qmer  -0.85392
gfz2013qqrr  -1.18370
gfz2013qrxy  -0.09217
gfz2013qvcr  -0.21647
gfz2013qwgb   0.38416
gfz2013rdmo  -0.84915
gfz2013rdoo  -0.29929
gfz2013reav  -0.42023
gfz2013rjsx   0.36177
gfz2013rluo   2.75120
gfz2013rqmp   0.19569
gfz2013rsts  -0.14913
gfz2013ryxm  -0.29567
gfz2013sart   2.36090
gfz2013scub  -0.17481
gfz2013sdus  -0.20340
gfz2013sebq   0.77554
gfz2013sfds   0.08329
gfz2013sfto  -0.21329
gfz2013shlq   0.01440
gfz2013shzy  -0.09117
gfz2013skkm   1.03650
gfz2013sllq   0.82596
gfz2013snbr   0.37068
gfz2013snyf  -0.14483
gfz2013stcu   0.09097
gfz2013suln   0.04515
gfz2013svci  -0.60617
gfz2013svqv   0.47029
gfz2013syqk   0.75886
gfz2013tbzy   2.10350
gfz2013tdkk  -0.13627
gfz2013thtc  -0.46018
gfz2013tjlx   0.03972
gfz2013toea   0.68243
gfz2013toxf  -0.34436
gfz2013tqbb  -0.45224
gfz2013ttoz   0.81206
gfz2013tusd  -0.43303
gfz2013tuzv  -0.05767
gfz2013tvmw  -0.29746
gfz2013uauo   0.73257
gfz2013ufku  -0.33624
gfz2013uhlm  -0.68011
gfz2013upcc   0.19061
gfz2013upee   0.32294
gfz2013upiv  -0.31745
gfz2013uthl  -0.15343
gfz2013utsh   1.36350
gfz2013uysr   0.02965
gfz2013vdic  -0.21870
gfz2013vefs  -0.06994
gfz2013vfyw  -0.27479
gfz2013vfzp   2.07580
gfz2013vgev   0.62982
gfz2013vhsb   0.09412
gfz2013vhzu   0.05371
gfz2013vijl   0.46929
gfz2013viul  -0.22582
gfz2013vjfe  -2.27360
gfz2013vjjc  -0.95332
gfz2013vjod  -0.19157
gfz2013vlth   0.07599
gfz2013vmro  -0.50088
gfz2013vnfj   0.29572
gfz2013vpnf   0.41898
gfz2013vqot  -0.08884
gfz2013vrmy   0.19300
gfz2013vsxi  -0.31133
gfz2013vxta   1.58410
gfz2013vzbo  -0.33980
gfz2013wgeu   0.19263
gfz2013whts   1.01080
gfz2013wjmm   0.51137
gfz2013wnql   0.28707
gfz2013woze   0.61883
gfz2013wpga   0.02117
gfz2013wrgw   0.24989
gfz2013wtzl  -0.02679
gfz2013wuml  -0.42649
gfz2013wuon  -0.27786
gfz2013xatc   0.12817
gfz2013xkbh  -0.32768
gfz2013xkwt   0.04607
gfz2013xmqg   0.37031
gfz2013xmul  -0.09468
gfz2013xpfa   0.14103
gfz2013xpsm  -0.00697
gfz2013xqnn  -0.23305
gfz2013xsdt  -0.17680
gfz2013xvyl   1.46250
gfz2013xwxn  -0.06353
gfz2013xxcc   0.03121
gfz2013yewz   0.13305
gfz2013yghj  -0.33642
gfz2013yhpk  -0.20453
gfz2013ylbx   0.40558
gfz2013ymxs  -0.18173
gfz2013ynmw   1.21280
gfz2013yqkv   0.12266
gfz2013yvqu  -0.30047
gfz2013yyhc   0.10052
gfz2013yyti  -2.94420
gfz2013zfhu   0.20151
gfz2013ziyr  -0.48149
gfz2013zjtw   1.19850
gfz2013zmtb  -0.70126
gfz2014abgd  -0.19550
gfz2014adjs   0.47953
gfz2014afmx   0.09980
gfz2014agde   0.17894
gfz2014agyz  -0.79820
gfz2014aidn   0.35489
gfz2014ajlk  -0.14348
gfz2014ajtf   0.19184
gfz2014alwz   0.41878
gfz2014arnc   0.60428
gfz2014arpf   0.00339
gfz2014atbl   0.09844
gfz2014atgw  -0.40960
gfz2014azqs  -0.12231
gfz2014bagd  -0.93419
gfz2014bazc   0.13140
gfz2014bbro  -0.39152
gfz2014bcae   0.84618
gfz2014bekc  -2.39270
gfz2014bezu   0.07668
gfz2014bfqo  -0.01630
gfz2014bhvd   0.68971
gfz2014bjgt   0.71223
gfz2014bjsy  -0.27774
gfz2014bmfa  -0.40908
gfz2014bolf  -1.74990
gfz2014bqes  -0.05908
gfz2014buej  -0.15928
gfz2014bwue  -0.87767
gfz2014bzna  -0.04717
gfz2014cbtl  -0.68451
gfz2014ccbz  -0.68861
gfz2014citw   0.31600
gfz2014clnj  -0.24197
gfz2014clnq   0.27675
gfz2014crpy  -0.17382
gfz2014cueu   0.10991
gfz2014cybg  -0.72347
gfz2014czno   0.35157
gfz2014czol  -1.06460
gfz2014czqi  -0.62503
gfz2014dbdf  -0.16255
gfz2014dffd  -0.53789
gfz2014disp   0.09072
gfz2014dlri  -0.11502
gfz2014dpzx  -0.08308
gfz2014duqn  -0.04343
gfz2014dwsy  -0.03383
gfz2014ebmc   0.99887
gfz2014edfx   1.46250
gfz2014efkk  -0.14823
gfz2014eght   1.01790
gfz2014ejmt   0.01988
gfz2014ejvf  -0.17902
gfz2014emrg  -0.00412
gfz2014eqpl  -0.31725
gfz2014erbj  -0.64097
gfz2014ettc  -0.52439
gfz2014ewcz  -0.21700
gfz2014exmv   0.18225
gfz2014exxa   0.52024
gfz2014fexu   0.54142
gfz2014ffdc  -0.12018
gfz2014ffqx  -0.06126
gfz2014fgkb  -0.14746
gfz2014fgvi  -1.11150
gfz2014fgwt  -0.26373
gfz2014fgxt  -0.25146
gfz2014fgyo   0.88788
gfz2014fhbd  -0.56655
gfz2014fhdw  -0.66603
gfz2014fhhp  -0.45093
gfz2014fhla  -0.46896
gfz2014fhmb   0.76019
gfz2014fhpf   1.59670
gfz2014fhqk  -0.79914
gfz2014fhrq  -0.68865
gfz2014fhsg  -0.34610
gfz2014fhwx  -0.22874
gfz2014fhxm   1.14770
gfz2014fhyb  -0.08301
gfz2014fimn  -0.53109
gfz2014fiuj  -0.30565
gfz2014fiwq  -0.65020
gfz2014fjdz  -0.55253
gfz2014fjpb  -0.49447
gfz2014fjxd   0.53055
gfz2014fjyo  -0.58302
gfz2014fjzd  -1.30290
gfz2014fjzw   0.29784
gfz2014fkmr  -0.84829
gfz2014fkmx  -1.42640
gfz2014fles  -0.48719
gfz2014flfa  -0.95815
gfz2014fnbh   0.61579
gfz2014fnyg   0.14521
gfz2014foty   0.88832
gfz2014fqpz   0.08896
gfz2014frdz  -0.24209
gfz2014frel  -0.63912
gfz2014frez   0.01215
gfz2014frfl  -0.25389
gfz2014frgm  -0.38296
gfz2014frnb   0.33491
gfz2014frwh   0.74658
gfz2014fstx  -0.59871
gfz2014fsuh  -0.00000
gfz2014fszc   0.03345
gfz2014ftgx   0.22406
gfz2014ftka  -0.00000
gfz2014ftno   0.31747
gfz2014ftoc   1.18280
gfz2014ftrk  -0.30541
gfz2014fudl   0.03436
gfz2014furx  -0.33404
gfz2014fusj  -0.41545
gfz2014fusu  -0.17595
gfz2014fuvk  -0.40633
gfz2014fuzi   1.18960
gfz2014fvaa   0.21456
gfz2014fval   0.06560
gfz2014fvgh  -0.22458
gfz2014fvhp  -0.20776
gfz2014fvpy   0.85187
gfz2014fvrg  -0.21315
gfz2014fwdr   2.27190
gfz2014fwtt  -0.07962
gfz2014fwyr   0.12700
gfz2014fxpu  -0.67116
gfz2014fyfr   0.29630
gfz2014fzgx  -0.56380
gfz2014gbcz  -0.25889
gfz2014gbdq   0.50289
gfz2014gdsq  -0.50951
gfz2014geuy   0.07389
gfz2014gezs   1.40320
gfz2014gfhf   3.06740
gfz2014ggnq   0.03982
gfz2014ggpd  -0.75546
gfz2014ggsr   0.06136
gfz2014ghoq  -0.08171
gfz2014gilf   5.18940
gfz2014gkgf  -0.19972
gfz2014gkjt   1.57620
gfz2014gkln   0.35486
gfz2014gklq   0.25000
gfz2014gkpd  -0.49047
gfz2014gkpj  -0.02712
gfz2014gkqf  -0.28805
gfz2014gkqu  -2.54150
gfz2014gktn   1.95800
gfz2014gkut  -1.47200
gfz2014gkvk  -0.35198
gfz2014gkxm  -0.93654
gfz2014glcu  -0.41572
gfz2014glfn  -1.04260
gfz2014glgo  -0.10163
gfz2014glhs  -1.41660
gfz2014gltx  -0.98120
gfz2014glvu   0.04448
gfz2014glxd  -1.78170
gfz2014gmci   0.60226
gfz2014gmes   0.03062
gfz2014gmge  -0.63551
gfz2014gmhp   0.36999
gfz2014gmhr  -0.96083
gfz2014gmic   2.97090
gfz2014gmip  -1.83470
gfz2014gmjz   0.20964
gfz2014gmku  -0.09291
gfz2014gmlz  -0.13095
gfz2014gmmt  -0.16273
gfz2014gmnb  -0.04206
gfz2014gmnw  -1.25200
gfz2014gmpy   0.34287
gfz2014gmtb   0.14256
gfz2014gmtj   0.02556
gfz2014gmto   3.07480
gfz2014gmuw  -0.25040
gfz2014gmvr   0.18493
gfz2014gmzl  -0.64916
gfz2014gmzs   4.17490
gfz2014gndq  -0.24506
gfz2014gnfd   0.24242
gfz2014gnfs   0.12556
gfz2014gngg  -0.11848
gfz2014gnhk   1.13800
gfz2014gnig  -0.06920
gfz2014gnmx  -0.44123
gfz2014gnno  -0.73464
gfz2014gnnt  -0.42978
gfz2014gnom  -0.20621
gfz2014gnqt   2.66960
gfz2014gnsi  -0.38730
gfz2014gntd   0.04770
gfz2014gnvw  -0.77534
gfz2014gnwg  -0.79292
gfz2014gnxb  -0.44251
gfz2014goba  -0.13009
gfz2014goei  -0.28741
gfz2014gogv   0.15040
gfz2014golz  -0.29439
gfz2014goqw  -0.17980
gfz2014gori  -1.09330
gfz2014gpac  -0.07773
gfz2014gpbx  -0.26557
gfz2014gpce  -0.02023
gfz2014gpdo  -0.36944
gfz2014gpgd  -0.52049
gfz2014gphr  -0.20068
gfz2014gpnf  -0.30221
gfz2014gpqq  -0.42395
gfz2014gpuk  -0.75657
gfz2014gpvk   0.34637
gfz2014gqbj  -0.50795
gfz2014gqed  -0.10803
gfz2014gqer  -1.54360
gfz2014gqgf  -0.03344
gfz2014gqhe   5.64910
gfz2014gqqz  -0.49158
gfz2014gqro  -0.10082
gfz2014gqve  -0.26631
gfz2014grcv   1.01060
gfz2014grfp  -0.04034
gfz2014grgn   0.05121
gfz2014grho  -0.47945
gfz2014gsgv   0.33996
gfz2014gsqs  -0.08793
gfz2014gtef   0.09956
gfz2014gtlu  -0.13281
gfz2014gtwz   0.44724
gfz2014gufl   0.08767
gfz2014gull  -0.28269
gfz2014gulp   2.14630
gfz2014gumd  -0.20702
gfz2014gutm  -0.65871
gfz2014gvhw  -0.22941
gfz2014gvqj   0.09150
gfz2014gvra  -0.35680
gfz2014gvrd  -0.41034
gfz2014gwab   0.41097
gfz2014gwqj  -0.09732
gfz2014gxag   0.03431
gfz2014gxkh   0.18378
gfz2014gxqf   4.01270
gfz2014gxqu   0.20604
gfz2014gxqx   1.49800
gfz2014gxvf   0.08093
gfz2014gxxh   0.29127
gfz2014gxxo  -0.09969
gfz2014gyxd  -0.34992
gfz2014gzrm  -0.46619
gfz2014gzue  -0.40299
gfz2014haey  -0.33305
gfz2014hafk  -0.85042
gfz2014hagb   0.02144
gfz2014haos  -0.11494
gfz2014hasj   0.08393
gfz2014hbjm  -0.35495
gfz2014hbjz   0.12387
gfz2014hcmj   0.05326
gfz2014hetr  -0.05468
gfz2014heyq  -0.53490
gfz2014hfad  -0.23591
gfz2014hfhl  -0.65576
gfz2014hgqo   0.19937
gfz2014hhfs  -0.48128
gfz2014hifp   2.31400
gfz2014hiih  -0.31145
gfz2014hiiz  -0.93464
gfz2014hjgh  -0.05813
gfz2014hjgr  -0.71168
gfz2014hjhu   0.26550
gfz2014hjij  -0.08271
gfz2014hjkp  -0.16512
gfz2014hjlx   0.35329
gfz2014hkcf  -0.56494
gfz2014hkck  -0.64316
gfz2014hlib  -0.89272
gfz2014hmgf   0.10490
gfz2014hmvx  -0.63456
gfz2014hmzg   0.06300
gfz2014hoap   2.91380
gfz2014hodc  -0.77012
gfz2014hokj  -0.52135
gfz2014hphw   0.34483
gfz2014hqxs  -0.46183
gfz2014hriu  -0.12686
gfz2014hrtn   2.18260
gfz2014hscz  -1.01270
gfz2014hsqo  -0.19604
gfz2014hssr  -0.54588
gfz2014htbf   0.06757
gfz2014huaj  -0.17112
gfz2014hugz   0.14405
gfz2014hvdm   0.26753
gfz2014hwan  -0.50773
gfz2014hwsy  -0.15283
gfz2014hwwi  -0.19656
gfz2014hxcl   0.07938
gfz2014hyal   0.23261
gfz2014hyvq  -0.32545
gfz2014hzdy  -0.37299
gfz2014hzfr  -0.19706
gfz2014hzgn  -0.20788
gfz2014hzht  -0.24495
gfz2014hzig  -0.63621
gfz2014hzze   0.01649
gfz2014ieam  -0.26218
gfz2014ieho  -0.09675
gfz2014ifzj  -0.77939
gfz2014igsj  -0.46962
gfz2014igur   0.01395
gfz2014ijvh  -0.18313
gfz2014ikbk  -0.23698
gfz2014ikun   1.02100
gfz2014ikvd  -0.03059
gfz2014ilwu  -0.06131
gfz2014imap   1.14040
gfz2014immt  -0.56857
gfz2014imnn  -0.01096
gfz2014inbj   0.40419
gfz2014iobd  -0.74157
gfz2014iqzj  -0.56918
gfz2014irci   0.28318
gfz2014ircq  -0.30387
gfz2014irrg   0.20407
gfz2014isdq  -0.05589
gfz2014isff  -0.20163
gfz2014issk  -0.41057
gfz2014isys  -0.04253
gfz2014itab  -0.16339
gfz2014itbe   0.50334
gfz2014itbu   0.16363
gfz2014itfc   0.15314
gfz2014itgh   0.57796
gfz2014itjx   0.27029
gfz2014itkw   0.36973
gfz2014itpj  -0.43096
gfz2014ivep  -0.21032
gfz2014iwnf  -0.54427
gfz2014iwwl  -0.03373
gfz2014ixga   3.40450
gfz2014ixky  -0.00603
gfz2014iywt   0.06639
gfz2014jagg   0.10202
gfz2014jass  -0.80036
gfz2014jcmt   0.55000
gfz2014jdxj  -0.30636
gfz2014jesb   0.49194
gfz2014jfis  -0.36152
gfz2014jggm   0.61599
gfz2014jhra  -0.45747
gfz2014jird   2.55310
gfz2014jjhc  -0.31901
gfz2014jjkh   1.25130
gfz2014jjln  -0.56677
gfz2014jjqk  -0.03785
gfz2014jmnk   0.44879
gfz2014jmsy  -0.71403
gfz2014jnea  -0.15044
gfz2014jnfy   0.00000
gfz2014jnyv  -0.21071
gfz2014jomw  -0.26448
gfz2014jozl  -0.30282
gfz2014jpep  -0.25571
gfz2014jpez  -0.12487
gfz2014jpfn   0.21687
gfz2014jpgu  -0.41630
gfz2014jpxs   0.14946
gfz2014jtcz  -1.77540
gfz2014jtfe   0.04017
gfz2014jvow   0.05157
gfz2014jwmh   0.11797
gfz2014kara  -1.25350
gfz2014kbuk   0.34389
gfz2014khan  -0.44658
gfz2014kizt   0.10203
gfz2014kjee  -0.28067
gfz2014kjzb   0.52421
gfz2014kkhh  -0.79993
gfz2014kmmt  -1.02850
gfz2014krlg   0.13828
gfz2014kscf  -0.43399
gfz2014kssw   0.08899
gfz2014kwie  -0.05249
gfz2014kwrg  -0.06042
gfz2014kwwg  -0.33770
gfz2014kxqf  -0.06192
gfz2014kyan   0.00000
gfz2014kyhe  -0.26130
gfz2014kytf   1.95260
gfz2014kzzm  -0.03053
gfz2014lchy   0.13226
gfz2014lddn   1.57630
gfz2014lefs  -0.71183
gfz2014lgqn  -0.25839
gfz2014lhqn   0.55630
gfz2014ljbr   0.79082
gfz2014lkyf   0.72757
gfz2014lnmw  -0.02477
gfz2014lpfc   0.06132
gfz2014lpim   0.02207
gfz2014lrzx   0.21242
gfz2014lvgn  -0.27613
gfz2014lwom   0.04337
gfz2014lwsw   5.29350
gfz2014lxnc  -0.33206
gfz2014lxqr  -0.04082
gfz2014lyhk  -0.32934
gfz2014lzal  -1.24690
gfz2014lzow   0.11601
gfz2014macx  -0.36460
gfz2014madw  -0.51047
gfz2014mawp  -0.36621
gfz2014mcno   0.14015
gfz2014mcse   1.38670
gfz2014mrbm   0.63899
gfz2014mwnj  -0.20405
gfz2014nafd   0.27032
gfz2014navw  -0.01813
gfz2014ndue  -0.16396
gfz2014ngsk   0.02884
gfz2014nhyb   0.12136
gfz2014niqj  -0.08331
gfz2014nkdx  -0.74657
gfz2014nowp   0.98086
gfz2014npeo  -0.39536
gfz2014nphm  -0.04685
gfz2014nqbs   0.46864
gfz2014nqfm  -1.02810
gfz2014nqpk  -0.01878
gfz2014nrie   0.12060
gfz2014nyeh   2.22680
gfz2014nyfb   3.88360
gfz2014nylm  -0.29829
gfz2014obbs   0.24949
gfz2014obxm   0.20072
gfz2014odgv  -0.46213
gfz2014ofhm   0.20586
gfz2014oghp   0.14275
gfz2014oims  -0.21448
gfz2014oinz  -0.41433
gfz2014okec   0.13785
gfz2014okxu  -0.24484
gfz2014oned   0.38979
gfz2014opqr   0.41587
gfz2014oqhw   0.04844
gfz2014orxs  -0.86418
gfz2014oryw   0.22424
gfz2014osvx  -0.48867
gfz2014owii  -0.04702
gfz2014owur   0.02599
gfz2014owxc  -0.63433
gfz2014oyly   0.04764
gfz2014oypt   0.17388
gfz2014ozmj   0.14480
gfz2014pghi  -0.44702
gfz2014pjer   0.23654
gfz2014pjum  -0.14895
gfz2014pmxt  -0.05412
gfz2014pngj  -0.11660
gfz2014poap   0.29918
gfz2014ppzf   0.00184
gfz2014prdm  -0.50961
gfz2014pzni   1.18150
gfz2014qbzi  -0.81553
gfz2014qcxs  -0.08413
gfz2014qfzq   0.15145
gfz2014qifa  -0.65294
gfz2014qjfl  -0.34303
gfz2014qjgp  -0.05595
gfz2014qlxd  -0.71283
gfz2014qngj  -0.45056
gfz2014qqfg   0.53766
gfz2014qqhm  -0.04003
gfz2014qsby   0.16030
gfz2014qtwv  -0.29409
gfz2014rcyx   0.47015
gfz2014rfeb  -0.09552
gfz2014rffv   0.00000
gfz2014rghp  -1.06640
gfz2014rhju  -0.51869
gfz2014rhnz   0.06296
gfz2014rhwq   0.02280
gfz2014riel  -1.19990
gfz2014rils  -0.39223
gfz2014romy   0.04706
gfz2014rucz  -0.08620
gfz2014ryfb  -0.13278
gfz2014sadu  -2.03970
gfz2014sryn   0.00000
gfz2014ssds   0.08570
gfz2014ssvz  -0.41259
gfz2014swgt   0.09565
gfz2014tabg  -0.90951
gfz2014tgcw  -0.09284
gfz2014tovs   0.41751
gfz2014tqly  -0.58376
gfz2014tqsf  -0.43237
gfz2014tqth  -0.36569
gfz2014tzsd  -0.22403
gfz2014uapa  -1.06650
gfz2014ubyq  -0.09079
gfz2014uvrk   0.28956
gfz2014uyrq   1.05030
gfz2014uzaw   0.07781
gfz2014vdnh  -0.17395
gfz2014vnxu  -0.30230
gfz2014vpus  -1.07240
gfz2014waoo   0.34429
gfz2014watn  -1.34210
gfz2014wjko  -0.02920
gfz2014wqcp   0.08682
gfz2014wrkh  -0.59013
gfz2014wsjh  -0.41703
gfz2014wwib  -0.28045
gfz2014xbyr  -0.03867
gfz2014xhkc   0.12759
gfz2014xhwk   0.02052
gfz2014xjri  -0.28467
gfz2014xkdg   1.42210
gfz2014xmnp   1.42740
gfz2014xoji  -0.30439
gfz2014xqby  -0.35024
gfz2014yazi   0.08275
gfz2014yhhm  -0.19605
gfz2014ynhc  -0.90490
gfz2014yppv  -0.10514
gfz2014yrug  -0.74730
gfz2014yyiy  -0.02345
gfz2014zcgo   0.07262
gfz2014zdtl  -0.00888
gfz2014zkys  -0.52607
gfz2014zlgp   0.03995
gfz2015abpw   0.56636
gfz2015aide   0.10709
gfz2015ansu   0.16550
gfz2015arpd   0.11898
gfz2015aruz  -1.14680
gfz2015bavu   0.11064
gfz2015bdyd   0.03213
gfz2015berb  -0.28855
gfz2015bfjm  -0.22217
gfz2015bfzt  -0.25913
gfz2015bkbj   0.00758
gfz2015bnho  -0.15372
gfz2015bphe   0.25334
gfz2015bpxl  -0.05083
gfz2015bucr   0.10882
gfz2015byjd   1.04040
gfz2015chhn  -0.68713
gfz2015clrp  -0.03331
gfz2015cpuo  -0.14823
gfz2015cxrc  -0.19938
gfz2015cyjd  -0.08317
gfz2015ddhl   0.05371
gfz2015dizn   0.63029
gfz2015drlk  -0.64444
gfz2015dskr   2.75330
gfz2015dtqr  -0.02473
gfz2015dvbn  -0.09087
gfz2015ednc  -0.12200
gfz2015eezy   0.00000
gfz2015egbk   0.24764
gfz2015egxq  -0.02235
gfz2015ehou  -0.08093
gfz2015ehpz   0.07824
gfz2015eljz  -1.25690
gfz2015emcg   1.21150
gfz2015emtg  -0.35620
gfz2015enth   0.23005
gfz2015etai  -2.43380
gfz2015fbbk  -0.31591
gfz2015fbew   0.56400
gfz2015fcua  -0.30747
gfz2015fdpr  -0.56619
gfz2015fjhk  -0.02733
gfz2015fkbc   0.15062
gfz2015fkgt  -2.36320
gfz2015fkjs  -0.58653
gfz2015fvoi  -0.18637
gfz2015fwkq  -0.12307
gfz2015fwnf  -1.17510
gfz2015gjbr  -0.81888
gfz2015gkwa  -0.42860
gfz2015gmgf  -0.08426
gfz2015hgbk   0.06524
gfz2015hhbd   0.30606
gfz2015hlfq  -0.23416
gfz2015hpmk  -1.82790
gfz2015hslo  -0.28232
gfz2015idho   0.47554
gfz2015iele  -0.20942
gfz2015igsy  -0.21986
gfz2015ijmh   0.18992
gfz2015imty   0.00000
gfz2015imyp  -0.15119
gfz2015isim   0.01782
gfz2015ixyy  -0.43652
gfz2015jkdw  -0.52730
gfz2015jmlf  -0.89684
gfz2015jmlu   0.17952
gfz2015jpap  -0.51129
gfz2015jxbx  -0.41868
gfz2015jzcv  -0.31580
gfz2015kalm   2.03490
gfz2015kfsu  -0.61423
gfz2015kkqb  -0.13533
gfz2015kkth  -0.14993
gfz2015lcma   0.26266
gfz2015lcuo  -0.06675
gfz2015lfma   4.62620
gfz2015lfud   0.04326
gfz2015lhjq  -0.36954
gfz2015lhjy  -0.36462
gfz2015ltii  -0.17810
gfz2015ltro   1.05950
gfz2015lytv   0.86149
gfz2015mddr  -0.95073
gfz2015micz   0.28044
gfz2015mpte  -0.18865
gfz2015npud  -0.58181
gfz2015nuxz  -0.48014
gfz2015nwug   0.71521
gfz2015ocwr  -0.06309
gfz2015ofpd   0.06736
gfz2015okpu  -0.56935
gfz2015oumn  -0.66113
gfz2015oyfl   3.81480
gfz2015pjgr  -0.14287
gfz2015plal   0.08001
gfz2015poni   2.86810
gfz2015prlr   0.92625
gfz2015puuu  -0.05584
gfz2015qafb   0.05254
gfz2015qnde  -0.48402
gfz2015qnho   0.07983
gfz2015qols  -1.41800
gfz2015qprd  -0.06347
gfz2015qpvd   0.24395
gfz2015quzo  -1.00120
gfz2015rgst  -0.32029
gfz2015rnis   0.33265
gfz2015rtnv  -0.22857
gfz2015saet   0.65492
gfz2015sdeo   1.00410
gfz2015sdfy   1.26110
gfz2015sfdd   0.02130
gfz2015sgad   0.14437
gfz2015sgdj  -2.50680
gfz2015sgdn  -0.42856
gfz2015sggc  -0.94825
gfz2015sghq   1.07940
gfz2015siof   1.03240
gfz2015sjgk   0.81336
gfz2015sjjb   0.79989
gfz2015sjne   0.56835
gfz2015skpv   0.48220
gfz2015sljs   1.80690
gfz2015slun  -0.74325
gfz2015smym  -1.20200
gfz2015snmg  -0.14604
gfz2015snwh   1.07370
gfz2015snyd   1.58620
gfz2015soat  -1.13530
gfz2015soxc  -1.32340
gfz2015sozw   2.23900
gfz2015spjc   0.01285
gfz2015sryk  -0.35156
gfz2015susq   0.95833
gfz2015svjy  -2.66380
gfz2015svwm   0.34116
gfz2015swgn  -1.65230
gfz2015swnc   0.12553
gfz2015taml   0.12836
gfz2015tbdn   0.30803
gfz2015tchx   0.17059
gfz2015tdhb  -0.35268
gfz2015teyc   0.24687
gfz2015teyn   0.52427
gfz2015tezd  -0.04881
gfz2015tflu   0.76896
gfz2015tghj  -0.23034
gfz2015thfm   1.42860
gfz2015thwg  -0.38347
gfz2015thwp   0.31806
gfz2015tiyc  -0.26164
gfz2015tjhv   0.61592
gfz2015tkol  -0.06758
gfz2015tlkf  -0.22009
gfz2015tlok  -1.53560
gfz2015tnjd  -0.44025
gfz2015tojz   0.38552
gfz2015totf   1.79960
gfz2015tqff   0.11794
gfz2015truf   0.61522
