# Nsamples: 1500  MAD:  0.359  mean:  0.075  variance:  0.991
gfz2011vxns  -4.17990
gfz2011vxod   0.57955
gfz2011vxxg  -0.44754
gfz2011wcic   0.42465
gfz2011wfja   0.04091
gfz2011wtmq   0.05901
gfz2011wvzb   0.47882
gfz2011wxfs   0.16823
gfz2011wxoj   0.98909
gfz2011wxtk  -0.12821
gfz2011wype   2.03520
gfz2011xaan   0.19198
gfz2011xcpv  -0.32783
gfz2011xesx   0.17418
gfz2011xqru   0.22505
gfz2011xyxj   0.17634
gfz2011yfdx  -0.31058
gfz2011yfys   0.09242
gfz2011ytnu  -0.06227
gfz2011yybo  -0.00000
gfz2011zjap  -0.17723
gfz2011zlfg   0.28015
gfz2011zlrd  -0.03277
gfz2011zqhh  -0.05426
gfz2012ablh  -0.17290
gfz2012ajtq   0.00000
gfz2012aqgp  -1.18800
gfz2012aqtq   0.01527
gfz2012attr   0.25035
gfz2012bfyn   0.49958
gfz2012bgnk   1.64290
gfz2012bpkx  -2.27790
gfz2012bpwl  -2.82080
gfz2012brhv  -0.30288
gfz2012bszs   0.27041
gfz2012byad   0.05829
gfz2012cbed   0.10086
gfz2012cgvr   0.07997
gfz2012cnod  -0.24585
gfz2012covm  -0.22970
gfz2012cqnl  -0.37462
gfz2012cqtc   0.19991
gfz2012cuct   3.84900
gfz2012cxdn  -0.32056
gfz2012cyof  -0.71321
gfz2012czlw   0.40719
gfz2012ddma  -0.21957
gfz2012deri  -0.05436
gfz2012dimn  -0.81032
gfz2012dinb  -0.23682
gfz2012divk   0.29600
gfz2012djwi   0.66422
gfz2012ekda  -0.34241
gfz2012ekzf  -1.01850
gfz2012elce  -0.45925
gfz2012enno   0.54567
gfz2012eskt   0.01767
gfz2012ewkj   0.37764
gfz2012eykb   0.37469
gfz2012ezvr  -0.27499
gfz2012fgzz  -0.02500
gfz2012fhnh  -0.47368
gfz2012fivh  -4.79090
gfz2012foeo  -0.41572
gfz2012fqcg  -0.42917
gfz2012fwfo  -1.07820
gfz2012fwob  -0.24341
gfz2012fzfa  -2.79740
gfz2012fzsq  -0.28197
gfz2012gemm   0.23603
gfz2012gill  -0.22274
gfz2012glss   0.85018
gfz2012gnvh  -0.06951
gfz2012gocc   6.12480
gfz2012gwqb  -0.02446
gfz2012hdbm  -0.17559
gfz2012hnul  -0.27029
gfz2012hogg  -0.15367
gfz2012holl   0.37305
gfz2012hsex  -0.07222
gfz2012htet  -0.05542
gfz2012hwmz   4.01420
gfz2012hwyo  -0.28948
gfz2012hzbe   0.25364
gfz2012icmv  -1.23230
gfz2012idje   0.05566
gfz2012iffo   0.14978
gfz2012ihdl   1.17900
gfz2012iivw  -0.12575
gfz2012ilvn  -0.64849
gfz2012ilxh  -0.24347
gfz2012imay   0.02559
gfz2012imbd  -0.63629
gfz2012intn   0.07144
gfz2012iyrb   0.85052
gfz2012jgvj  -0.67105
gfz2012jhaz   0.15448
gfz2012jlox  -0.40106
gfz2012jmwd  -0.02629
gfz2012joqe  -0.17211
gfz2012jpeh  -0.72218
gfz2012jpgs  -0.55637
gfz2012jshk   1.32210
gfz2012jted   0.18233
gfz2012jupx  -0.16994
gfz2012jxiy   0.46010
gfz2012kanu  -0.24546
gfz2012kbjb  -0.24210
gfz2012kbzj  -0.06375
gfz2012kdmb   0.14343
gfz2012keor  -0.01400
gfz2012kiik  -0.02610
gfz2012kkcp   0.11559
gfz2012kkup   0.46974
gfz2012klhx   0.63920
gfz2012kuct  -0.68751
gfz2012kudo  -0.41577
gfz2012kvzv   0.30579
gfz2012kwgo  -0.07762
gfz2012lboz   0.41198
gfz2012lczo  -0.91703
gfz2012ldxg  -0.93843
gfz2012ldzj  -0.31970
gfz2012leam   0.16084
gfz2012ledy   1.12380
gfz2012lezd  -0.28725
gfz2012lhnc   0.30272
gfz2012lltr  -0.35583
gfz2012llug  -0.01629
gfz2012lpvn  -0.50510
gfz2012lqbg   0.27978
gfz2012lrjq  -0.36416
gfz2012lrsv   1.55290
gfz2012lrtb   0.13636
gfz2012lsni  -0.29471
gfz2012lsvd   0.04829
gfz2012lszf  -0.00717
gfz2012lxkv   2.29770
gfz2012lzgv  -0.09370
gfz2012megc  -0.05054
gfz2012minr   0.18000
gfz2012mkpn  -0.48018
gfz2012mlyf   0.51225
gfz2012mofm   1.49140
gfz2012mpyl   0.00000
gfz2012mtiu   0.63004
gfz2012mupa  -0.01792
gfz2012mvwr  -0.21232
gfz2012mwij  -0.06905
gfz2012myeg   0.17201
gfz2012nben   0.93787
gfz2012nivl  -0.16307
gfz2012noei   0.69922
gfz2012nojx  -0.23157
gfz2012nolo  -0.92850
gfz2012nroo  -0.20084
gfz2012nutf   0.70753
gfz2012oazn  -0.12246
gfz2012obgw   0.71338
gfz2012oilt   0.30519
gfz2012okhx  -1.60000
gfz2012ostk   0.15364
gfz2012ouyp  -0.02367
gfz2012oycg   0.07154
gfz2012pciw   0.03035
gfz2012peex  -0.11059
gfz2012peki  -0.52368
gfz2012pgcl  -0.31812
gfz2012plea  -0.09173
gfz2012pqlt   1.07120
gfz2012pqmu   0.28373
gfz2012pspd  -0.06797
gfz2012pygp   0.04101
gfz2012qjhs   0.44574
gfz2012qqqp  -0.05844
gfz2012qvxn   0.10627
gfz2012rboy   0.52997
gfz2012repv  -0.10695
gfz2012rgkl  -0.04167
gfz2012rknn  -0.63984
gfz2012rkoa   0.35102
gfz2012rmtr   0.45500
gfz2012ronz   0.19456
gfz2012rpmb  -0.18063
gfz2012rqlg  -0.03395
gfz2012rtqi   0.03551
gfz2012rubi  -0.23182
gfz2012shtg  -0.04704
gfz2012syvl   0.29644
gfz2012tazz  -0.54637
gfz2012tphj  -0.35821
gfz2012tyxl  -0.82597
gfz2012uaqj  -0.14532
gfz2012uciv   0.07079
gfz2012ufew  -0.25892
gfz2012ulpd   0.02557
gfz2012uoef  -0.28495
gfz2012uqzp   0.32472
gfz2012usba   3.42200
gfz2012uvqf   0.35390
gfz2012uxnz  -0.20868
gfz2012uyie   0.37147
gfz2012uyxb  -0.89760
gfz2012uzom  -0.14872
gfz2012uzyj  -1.39340
gfz2012vceo  -0.29645
gfz2012vdbt   0.56877
gfz2012vjgl   0.15582
gfz2012vmeh   0.50031
gfz2012vnbk   0.67448
gfz2012vntz  -0.49042
gfz2012vpza   1.21170
gfz2012vrua  -0.06914
gfz2012vsev  -0.37625
gfz2012vtif  -0.30230
gfz2012vtxe   0.33755
gfz2012vwvd   0.46234
gfz2012vxvr  -0.17801
gfz2012vyzo   0.08472
gfz2012wajj   0.22655
gfz2012wgbb  -0.17332
gfz2012wizz   0.52837
gfz2012wkfw   0.29647
gfz2012wklq   0.49576
gfz2012wpah  -0.46162
gfz2012wqnc  -0.50198
gfz2012wtkh   0.60238
gfz2012wtov  -0.01623
gfz2012wubh  -0.82218
gfz2012wvfl  -3.52190
gfz2012wwdo   1.03010
gfz2012wxer   2.96690
gfz2012wxlg  -3.33400
gfz2012wxnu   2.54200
gfz2012wybs  -0.53609
gfz2012wypz  -0.41457
gfz2012xbjq   0.22885
gfz2012xcgk  -0.46472
gfz2012xeul   7.38010
gfz2012xgqm  -0.84118
gfz2012xhci  -0.08634
gfz2012xjyv  -0.24779
gfz2012xkkv  -1.21340
gfz2012xpmm  -0.00037
gfz2012xslk  -0.46340
gfz2012xvwn  -0.26295
gfz2012xwqa  -2.59680
gfz2012xyqp  -0.22477
gfz2012xyua  -0.03028
gfz2012yhag  -0.11324
gfz2012yldu   0.01406
gfz2012yoie   0.09505
gfz2012yqjj   0.20642
gfz2012yxxu   0.06968
gfz2012yzod   0.74288
gfz2012zemz   0.85219
gfz2012zfag  -0.57128
gfz2012zhmb  -0.00000
gfz2012zhyf   0.14477
gfz2012ziml  -0.10329
gfz2012zitl  -0.70687
gfz2012zjpv   0.02203
gfz2012zklq  -2.58300
gfz2012zmbp   0.18939
gfz2012zmln   2.01960
gfz2013aayj  -0.17607
gfz2013adey   0.65102
gfz2013aeee   0.36749
gfz2013akgj  -0.26721
gfz2013aknp  -0.20938
gfz2013apmm   0.59039
gfz2013aspo  -0.56279
gfz2013avic   0.10720
gfz2013azzr   0.53524
gfz2013bbrc   0.97747
gfz2013bdpu  -7.13590
gfz2013bhgs   0.14446
gfz2013bobq  -1.13570
gfz2013bokp   0.95716
gfz2013bouj   2.32740
gfz2013bzlb   0.41438
gfz2013cbsm  -0.98104
gfz2013cfyy   0.09977
gfz2013cgou   0.25509
gfz2013ciaf  -6.85590
gfz2013cnms   0.14299
gfz2013cnve  -0.63301
gfz2013cnyj  -0.27906
gfz2013cnyk   2.05920
gfz2013comh   0.48867
gfz2013cuoq  -0.02834
gfz2013cvad   0.65817
gfz2013cwpn  -1.68230
gfz2013czeq   2.71020
gfz2013ddbh  -0.92796
gfz2013dddp  -0.04766
gfz2013diuf   0.05322
gfz2013dkly  -1.67660
gfz2013dkym  -0.20098
gfz2013dnnx   0.22609
gfz2013dofo  -0.36112
gfz2013dqls  -0.33698
gfz2013drpk   0.03632
gfz2013drxz   0.70394
gfz2013dujm  -0.27370
gfz2013dvye  -0.28195
gfz2013dvyh   0.11480
gfz2013dyop  -0.57369
gfz2013egni   0.24868
gfz2013egpu   0.37426
gfz2013ehwe   0.18485
gfz2013enbx  -0.78183
gfz2013erse  -0.07617
gfz2013esnh  -0.16065
gfz2013esnt   0.10714
gfz2013eswe  -0.12718
gfz2013eulz   0.42781
gfz2013evsq   0.13227
gfz2013fcto  -0.15449
gfz2013fdoo   0.40196
gfz2013ffko  -0.07028
gfz2013fiud  -0.53172
gfz2013fkcl   0.19699
gfz2013fkii   0.04324
gfz2013flox  -0.46162
gfz2013fnzr   0.33413
gfz2013ftso   1.36530
gfz2013fwxa   0.19292
gfz2013fxge  -0.08840
gfz2013gaie  -0.53710
gfz2013gbcn   0.38464
gfz2013gcfx   0.97257
gfz2013gdgf  -0.10601
gfz2013gdnq   0.55462
gfz2013geno  -0.15251
gfz2013gihf   0.01919
gfz2013gjdc  -0.67129
gfz2013glcr  -0.27693
gfz2013gmor  -0.44012
gfz2013gngz  -0.16190
gfz2013gock   0.01883
gfz2013govy  -0.43911
gfz2013gras  -0.14456
gfz2013gvdb   0.12363
gfz2013gvet   0.39965
gfz2013gwrd   0.29360
gfz2013gxsu   0.25928
gfz2013hbkh  -0.17820
gfz2013hbkq   0.74010
gfz2013hfmp   0.08866
gfz2013hisv   0.29073
gfz2013hlbe   0.34627
gfz2013hmbc   1.40090
gfz2013hpfq  -0.00767
gfz2013hudi   0.26220
gfz2013hxcx   0.01968
gfz2013iapa  -0.66158
gfz2013iayx   0.36019
gfz2013icfh  -0.12696
gfz2013icqt  -0.28560
gfz2013idbb   0.04764
gfz2013iexo   0.23754
gfz2013ihcj  -0.28561
gfz2013ijsr   0.81330
gfz2013ijyg  -0.12211
gfz2013ilug  -0.18850
gfz2013iodt  -0.17186
gfz2013iopd  -0.15885
gfz2013ippu  -0.35169
gfz2013itsu   0.00466
gfz2013iunn  -0.09126
gfz2013iynu   0.46231
gfz2013iyqz   0.16078
gfz2013jarl  -0.42513
gfz2013jdrx  -0.05368
gfz2013jesk  -1.22980
gfz2013jfah   0.70867
gfz2013jgij   0.25815
gfz2013jgip  -0.34594
gfz2013jjrt   0.23083
gfz2013jjsi   0.88841
gfz2013jkut  -0.25978
gfz2013jlst   0.85064
gfz2013jmcc  -0.42430
gfz2013jokw   0.28233
gfz2013jphq   0.39380
gfz2013json   2.25430
gfz2013jusj   0.09620
gfz2013jvhy  -0.12874
gfz2013jwcn  -0.04868
gfz2013kdeo  -0.14801
gfz2013kgmj   0.26325
gfz2013kheb   0.74451
gfz2013khli   0.19152
gfz2013kilx  -0.19958
gfz2013kkzr  -0.74857
gfz2013krei  -1.30890
gfz2013kweg  -0.39596
gfz2013kwps  -0.06707
gfz2013lajn   0.18033
gfz2013lbiu  -1.55900
gfz2013lcos   0.22564
gfz2013ldos  -2.09780
gfz2013ldpc  -0.01314
gfz2013ldqb   0.02711
gfz2013lgbb  -0.36822
gfz2013lgxc  -0.01204
gfz2013limo  -0.01175
gfz2013lixa   0.06312
gfz2013lmdy  -0.43009
gfz2013lmqe   2.71880
gfz2013lmrs   0.08055
gfz2013lsob  -0.68487
gfz2013lupg   0.35441
gfz2013lwbk   0.00000
gfz2013lyko   1.23750
gfz2013lznu   0.18297
gfz2013malg   0.21697
gfz2013mded   0.16445
gfz2013mdiq   1.48640
gfz2013mghe   0.00000
gfz2013mhjf   0.10730
gfz2013mmlw  -0.44985
gfz2013mnac   0.01850
gfz2013mnei  -0.79374
gfz2013mnju   0.80532
gfz2013mqmv  -0.26297
gfz2013mtqd  -0.45345
gfz2013mvdm   0.21587
gfz2013mvgr   0.10051
gfz2013mxee   0.27049
gfz2013mxrz   0.07486
gfz2013mzwe  -0.04119
gfz2013nabl  -0.06541
gfz2013ncjp  -0.02499
gfz2013nedo   0.12969
gfz2013neuc   0.73315
gfz2013nhjb  -0.33462
gfz2013njnd  -0.21933
gfz2013nlxz  -0.00000
gfz2013nmac   0.01445
gfz2013nnzf   0.10581
gfz2013nojf  -0.12008
gfz2013nppd  -0.16431
gfz2013nqgw  -0.77403
gfz2013nttq   0.32315
gfz2013nuor  -0.14455
gfz2013nvdj   1.77660
gfz2013nvia  -0.25742
gfz2013nwdi  -0.72596
gfz2013ofls  -0.04886
gfz2013ogde  -0.13926
gfz2013oifr  -0.23945
gfz2013oilg  -0.59474
gfz2013oinc  -0.89101
gfz2013ojti  -0.26409
gfz2013oksi  -0.73721
gfz2013onjy   0.68086
gfz2013orjg   0.37318
gfz2013ornz  -0.80914
gfz2013ouvt  -0.44396
gfz2013ovyg  -0.11633
gfz2013ozku   0.18892
gfz2013oznn  -0.53782
gfz2013ozqm  -0.01043
gfz2013ozrf  -0.36673
gfz2013ozrp   0.30796
gfz2013pakq   0.02193
gfz2013pcos  -0.43174
gfz2013pfbx  -0.21435
gfz2013phef  -0.80890
gfz2013pigb   0.22878
gfz2013piwd  -0.41812
gfz2013pkbs   0.01536
gfz2013plhp   0.55107
gfz2013pndn  -0.21086
gfz2013ptit   0.27213
gfz2013pupd  -0.54277
gfz2013pweb   0.16669
gfz2013pwjd  -0.04531
gfz2013pwyt   3.71330
gfz2013pxsj  -0.75960
gfz2013pxtx  -1.78740
gfz2013pxya   0.21840
gfz2013pzgs   1.95540
gfz2013qali  -0.03369
gfz2013qbca  22.73300
gfz2013qbys  -0.14034
gfz2013qcck  -0.16080
gfz2013qckf  -0.29255
gfz2013qesa  -0.30580
gfz2013qfmm   0.07729
gfz2013qfsq   0.42355
gfz2013qhtx   0.21886
gfz2013qhwz   0.25725
gfz2013qidm   0.59758
gfz2013qjmk   0.73113
gfz2013qmer   0.00184
gfz2013qnxc  -1.18290
gfz2013qpgd  -0.53775
gfz2013qqrr  -0.04094
gfz2013qrxy   0.06250
gfz2013qvcr  -0.00982
gfz2013qwbv   0.23224
gfz2013qwgb   0.12157
gfz2013rait  -2.46500
gfz2013rdmo   0.41288
gfz2013rdoo   0.40629
gfz2013reav   0.71782
gfz2013rjgt   0.20988
gfz2013rjsx   0.10706
gfz2013rluo  -0.35653
gfz2013rqcy   0.25168
gfz2013rqmp   0.04647
gfz2013rsnr   3.73690
gfz2013rsts   0.04531
gfz2013rvsm   0.43270
gfz2013rwfe   1.13260
gfz2013ryxm  -0.00000
gfz2013sart  -0.20517
gfz2013scai   0.86368
gfz2013scub  -0.53011
gfz2013sdus  -0.32811
gfz2013sebq   0.45933
gfz2013sfds   0.05378
gfz2013sfto   0.19368
gfz2013shlq   0.62065
gfz2013shzy  -0.01671
gfz2013sjhg  -0.12743
gfz2013skkm  -0.10867
gfz2013sllq   0.27646
gfz2013snyf  -0.14347
gfz2013sqkb  -0.13062
gfz2013stcu   0.70638
gfz2013suln  -0.01429
gfz2013suvn  -0.39316
gfz2013svci  -0.50317
gfz2013svqv  -0.16844
gfz2013syqk  -0.03811
gfz2013tamc   0.53932
gfz2013tbzy  -0.37857
gfz2013tcxc  -0.54237
gfz2013tcxq   1.27040
gfz2013tdau   1.23310
gfz2013tdkk   0.12831
gfz2013thtc  -0.41646
gfz2013tjlx   0.02149
gfz2013toea   0.55069
gfz2013toxf  -0.28876
gfz2013tpeb  -0.34323
gfz2013ttoz  -0.33886
gfz2013tusd  -0.55239
gfz2013tuzv   1.30820
gfz2013tvmw  -0.30984
gfz2013twwf  -0.77108
gfz2013uauo   0.24819
gfz2013ufku  -0.37102
gfz2013ufxk   0.87125
gfz2013ufxm   2.17480
gfz2013uhlm  -0.01419
gfz2013umya  -0.31026
gfz2013upcc   0.00000
gfz2013upee   0.00000
gfz2013upiv  -0.14300
gfz2013uqsp  -0.38008
gfz2013uqvu   1.02220
gfz2013utsh   0.51145
gfz2013uuzn   0.09447
gfz2013uysr  -0.09605
gfz2013vcoa  -0.36379
gfz2013vdic  -0.07009
gfz2013vfyw  -0.60204
gfz2013vfzp   0.09081
gfz2013vgau   1.65930
gfz2013vgev   0.14225
gfz2013vhsb  -0.13981
gfz2013vhzu   0.11598
gfz2013vijl   0.07681
gfz2013viul  -0.65541
gfz2013vjjc  -0.19167
gfz2013vjod   1.68040
gfz2013vlth   0.64991
gfz2013vmro  -0.79063
gfz2013vnfj   0.01495
gfz2013vpnf  -0.09688
gfz2013vqot   0.07175
gfz2013vrmy  -0.14834
gfz2013vsxi  -0.33751
gfz2013vuja   0.25867
gfz2013vvrq   0.01373
gfz2013vxta   0.03622
gfz2013vzbo   0.05628
gfz2013wbyr   0.14565
gfz2013wgeu  -0.05319
gfz2013whts  -0.14996
gfz2013wjmm   2.31520
gfz2013wnql  -0.39178
gfz2013woze   0.04716
gfz2013wpga   0.03616
gfz2013wqhq  -0.02893
gfz2013wrgw  -0.36684
gfz2013wtzl  -0.07659
gfz2013wuml   0.58660
gfz2013wuon  -0.21927
gfz2013wwec   0.29906
gfz2013wwii   0.87853
gfz2013xatc  -0.55881
gfz2013xcmp  -0.06076
gfz2013xgek  -0.23043
gfz2013xizq   4.48960
gfz2013xkbh   0.06354
gfz2013xklb   0.28293
gfz2013xkwt   0.12787
gfz2013xmqg  -0.24145
gfz2013xmul  -0.11264
gfz2013xpfa  -0.11090
gfz2013xpsm  -0.63816
gfz2013xqnn  -0.42520
gfz2013xsdt  -0.74640
gfz2013xtwj   0.78663
gfz2013xvyl   0.09371
gfz2013xwda  -0.24641
gfz2013xwxn  -1.05760
gfz2013xwzd   1.71410
gfz2013xxcc   0.55562
gfz2013xyzb   0.56648
gfz2013yach   0.61847
gfz2013yctg  -0.26277
gfz2013ydtm   0.14547
gfz2013yewz   0.14376
gfz2013yghj  -1.13230
gfz2013yhbu   0.03880
gfz2013yhpk  -0.11957
gfz2013yixl  -0.13134
gfz2013ylbx   0.08748
gfz2013ymky  -1.37430
gfz2013ymxs  -0.41524
gfz2013ynmw   0.28951
gfz2013ypdc   0.06454
gfz2013yqkv  -0.41952
gfz2013yulx   0.67544
gfz2013yvqu  -0.01363
gfz2013yyhc   0.42110
gfz2013yyti  -0.69935
gfz2013yzte   0.38176
gfz2013zaxb   0.11496
gfz2013zfhu   0.59556
gfz2013ziyr   0.18868
gfz2013zjel  -0.95087
gfz2013zjtw   0.02356
gfz2013zmtb  -0.02481
gfz2014aawc  -0.70009
gfz2014abgd  -0.29418
gfz2014adjs  -1.49860
gfz2014adoj   4.07690
gfz2014afmx  -0.17624
gfz2014agde   0.31889
gfz2014agyz  -0.02488
gfz2014aidn   0.42285
gfz2014ajlk  -0.15915
gfz2014ajtf  -0.10705
gfz2014alwz   0.63475
gfz2014amsb   0.05670
gfz2014ande  -0.37971
gfz2014ared   0.90965
gfz2014arnc  -0.96471
gfz2014arpf  -0.17397
gfz2014arqr   0.58713
gfz2014atgw   0.60883
gfz2014azqs  -0.16757
gfz2014bagd   1.14580
gfz2014bazc  -0.96681
gfz2014bbro   0.06114
gfz2014bcae  -0.16225
gfz2014bdfd   0.06948
gfz2014bekc   0.48395
gfz2014bezu   0.19877
gfz2014bfqo  -0.03499
gfz2014bhvd  -0.78936
gfz2014bjgt   0.07732
gfz2014bjsy   1.19260
gfz2014bmfa  -0.20930
gfz2014bolf  -0.06583
gfz2014bqes   0.07825
gfz2014buej   0.25104
gfz2014bwue  -0.16544
gfz2014bzna  -0.07525
gfz2014bztt   0.01346
gfz2014caop  -0.09842
gfz2014ccbz   0.52876
gfz2014cdwi   0.47127
gfz2014cgog  -0.14452
gfz2014citw   0.26931
gfz2014clnj   0.25610
gfz2014clnq   0.45629
gfz2014cqyo  -0.46030
gfz2014crpy  -0.02959
gfz2014cueu   0.09308
gfz2014cvxx  -0.25757
gfz2014cxcj  -0.20450
gfz2014cybg   0.13445
gfz2014czno   0.04807
gfz2014czqi   0.42556
gfz2014dbdf  -0.01099
gfz2014dffd  -0.26482
gfz2014dgiy  -0.02269
gfz2014disp   1.33610
gfz2014dlri   0.17299
gfz2014dpzx   0.45697
gfz2014duqn   0.12777
gfz2014dwsy   0.15058
gfz2014eage   0.21613
gfz2014ebmc   1.94250
gfz2014edfx   1.93560
gfz2014efkk   0.16517
gfz2014efsd   0.13194
gfz2014eght   1.34600
gfz2014egwu  -0.50906
gfz2014ejvf  -0.05728
gfz2014emrg   0.32376
gfz2014eqpl   0.19997
gfz2014eqss  -0.02777
gfz2014erbj  -0.04099
gfz2014ettc   0.44669
gfz2014ewcz   1.29940
gfz2014ewrw  -0.02507
gfz2014exmv   0.20870
gfz2014exxa   0.33584
gfz2014ezgb   0.05547
gfz2014fcms  -1.29230
gfz2014fexu  -0.01786
gfz2014ffdc  -0.70657
gfz2014ffqx  -0.01072
gfz2014fgkb   0.04276
gfz2014fgvi  -0.04867
gfz2014fgwn   0.57237
gfz2014fgwt   0.48877
gfz2014fgxt   0.16825
gfz2014fgza   0.12697
gfz2014fhbd   0.26449
gfz2014fhdw   0.15958
gfz2014fhgb   0.32933
gfz2014fhhp   0.39325
gfz2014fhjd  -0.56205
gfz2014fhkp   0.02695
gfz2014fhla   0.67968
gfz2014fhmb  -0.01681
gfz2014fhoe  -0.25043
gfz2014fhqk   0.28655
gfz2014fhrq   0.20404
gfz2014fhsg   0.15252
gfz2014fhwx  -0.06916
gfz2014fhxm   0.02251
gfz2014fhyb   1.10680
gfz2014fimn   0.16112
gfz2014fiuj  -0.19279
gfz2014fiwq   0.74751
gfz2014fjdz   0.04102
gfz2014fjpb   0.16345
gfz2014fjxd   0.24929
gfz2014fjyo   0.28331
gfz2014fjzd  -0.70577
gfz2014fjzw   0.07219
gfz2014fkmr  -0.14178
gfz2014fles   0.43442
gfz2014flfa   0.80022
gfz2014fnbh   0.28633
gfz2014fnyg   0.07013
gfz2014foty   0.24320
gfz2014fqpz   0.01680
gfz2014frdz   0.51395
gfz2014frel  -0.12191
gfz2014frez  -0.08438
gfz2014frgm   0.25456
gfz2014frjr   0.32113
gfz2014frme   0.07764
gfz2014frnb   0.56329
gfz2014frwh  -0.11087
gfz2014fstx  -0.00000
gfz2014fsuh   0.14442
gfz2014fszc   0.14518
gfz2014ftgx   0.32726
gfz2014ftka   0.14899
gfz2014ftno   0.32525
gfz2014ftoc  -0.09620
gfz2014ftvc   0.37715
gfz2014fudl   0.05948
gfz2014furx   0.00000
gfz2014fusj  -0.37726
gfz2014fusu   0.41788
gfz2014fuup   0.39770
gfz2014fuvk   0.51418
gfz2014fuzi   0.86884
gfz2014fvaa  -0.18195
gfz2014fval   0.18478
gfz2014fvdx   0.39156
gfz2014fvgh   0.03623
gfz2014fvhp   0.15161
gfz2014fvjl   0.02688
gfz2014fvpy   0.21779
gfz2014fvrg   0.07392
gfz2014fwdr   0.10859
gfz2014fwtt  -0.66206
gfz2014fwyr  -0.14331
gfz2014fxhd   0.01856
gfz2014fxpu   0.47283
gfz2014fyfr   0.43072
gfz2014fzgx   0.38976
gfz2014gbcz   1.47460
gfz2014gbdq  -0.23747
gfz2014gbjf   0.09190
gfz2014gcza   0.03580
gfz2014gdsq   0.29031
gfz2014gesb   0.52393
gfz2014geuy   0.06801
gfz2014gezs  -0.05487
gfz2014gfdj  -0.35379
gfz2014gfhf  -0.78498
gfz2014ggnq  -0.02438
gfz2014ggsr  -0.44247
gfz2014ghoq  -0.04622
gfz2014gilf  -0.42758
gfz2014gkgf   0.36911
gfz2014gkjt  -1.63330
gfz2014gkln   0.08203
gfz2014gklq  -0.22783
gfz2014gkpd   0.22626
gfz2014gkpj   1.43510
gfz2014gkqf   0.15762
gfz2014gkqu  -3.41760
gfz2014gktn   0.11608
gfz2014gkvk   0.11493
gfz2014gkxi  -0.15184
gfz2014gkxm   0.09847
gfz2014glcu  -0.13468
gfz2014glfn  -0.17932
gfz2014glgo   0.23620
gfz2014glhs   0.10157
gfz2014glov   0.60915
gfz2014glsh  -0.04451
gfz2014gltj  -0.10009
gfz2014gltx   0.02191
gfz2014glvn   0.40409
gfz2014glvu   0.11032
gfz2014gmci  -0.23924
gfz2014gmes  -0.08481
gfz2014gmge  -0.18651
gfz2014gmhp   0.10407
gfz2014gmhr   0.09846
gfz2014gmic  -0.31851
gfz2014gmip  -0.13249
gfz2014gmjo  -0.14795
gfz2014gmjz   0.08625
gfz2014gmku   0.11391
gfz2014gmlz  -0.39808
gfz2014gmmk  -0.18126
gfz2014gmmt   0.45766
gfz2014gmnb   0.20587
gfz2014gmnw  -0.25215
gfz2014gmqw  -0.13612
gfz2014gmtb  -0.09604
gfz2014gmtj  -0.16449
gfz2014gmto  -0.04376
gfz2014gmuw   1.15040
gfz2014gmvr  -0.07576
gfz2014gmzl   0.03788
gfz2014gmzs  -0.43750
gfz2014gndq   0.09397
gfz2014gnfd   0.06115
gfz2014gnfs   0.01812
gfz2014gngg   0.04901
gfz2014gnhk   0.14840
gfz2014gnig  -0.00000
gfz2014gnmx   0.11874
gfz2014gnno  -0.11002
gfz2014gnnt   0.12943
gfz2014gnom   0.36416
gfz2014gnqt   2.57890
gfz2014gnre  -0.46802
gfz2014gnsi   0.13996
gfz2014gntd   0.33115
gfz2014gnvw   0.36937
gfz2014gnwg   0.83676
gfz2014gnxb   0.04211
gfz2014goba  -0.18947
gfz2014goei   0.06895
gfz2014gogv  -0.01797
gfz2014gohm   0.58694
gfz2014golz   0.35968
gfz2014gono  -0.28970
gfz2014goqw  -0.09220
gfz2014gori   1.35260
gfz2014gpac   0.24321
gfz2014gpbx   0.39669
gfz2014gpce   0.17662
gfz2014gpdo   0.83961
gfz2014gpgd   0.41484
gfz2014gphr   0.15426
gfz2014gpmm   0.52627
gfz2014gpnf   0.03364
gfz2014gpqq   0.64452
gfz2014gpuk  -0.09755
gfz2014gpvk  -0.18530
gfz2014gpxl  -0.15194
gfz2014gpxv   0.11524
gfz2014gqbj  -0.27443
gfz2014gqco  -0.07762
gfz2014gqed  -0.15710
gfz2014gqer   0.55231
gfz2014gqgf   0.10723
gfz2014gqhe  -0.11418
gfz2014gqiy   0.04714
gfz2014gqqz   0.27297
gfz2014gqro   0.38048
gfz2014gqup  -0.47127
gfz2014gqve   0.00504
gfz2014grcv  -0.11018
gfz2014grfp   0.44794
gfz2014grgn   0.43654
gfz2014grho   0.97367
gfz2014gsdw  -0.51777
gfz2014gsgv  -0.09168
gfz2014gsjg  -0.02435
gfz2014gsqs  -0.00000
gfz2014gtef   0.22935
gfz2014gtlu  -0.34210
gfz2014gtwz  -0.14298
gfz2014gufl  -0.30298
gfz2014gull   0.20111
gfz2014gulp  -0.08855
gfz2014gumd   0.10647
gfz2014gutm   0.31790
gfz2014gvhw   0.22328
gfz2014gvqj   0.16500
gfz2014gvra   0.48626
gfz2014gvrd   0.34290
gfz2014gwab  -0.04860
gfz2014gwap  -0.25156
gfz2014gwqj   0.12032
gfz2014gxag   0.04086
gfz2014gxkh   0.28485
gfz2014gxqf  -0.17588
gfz2014gxqu   0.20944
gfz2014gxqx   0.78736
gfz2014gxvf   0.15848
gfz2014gxxh  -0.02896
gfz2014gxxo   0.07483
gfz2014gyxd   0.12904
gfz2014gzrm  -0.31750
gfz2014gzue  -0.01193
gfz2014haey   0.10221
gfz2014hafk  -0.05331
gfz2014hagb   0.06043
gfz2014haos  -0.10645
gfz2014hasj  -0.07412
gfz2014hauo  -1.29070
gfz2014hbjm  -0.07683
gfz2014hbjz  -0.05490
gfz2014hcmj   0.06708
gfz2014hcns  -0.21533
gfz2014hetr   0.22805
gfz2014heyq   0.12539
gfz2014hfad   0.41345
gfz2014hfhl  -0.37783
gfz2014hfzf   0.33211
gfz2014hgqo   0.01062
gfz2014hhfs  -0.08317
gfz2014hhwx  -0.48280
gfz2014hifp  -0.63666
gfz2014hiih   0.63847
gfz2014hiiz   0.51849
gfz2014hjgh  -0.08177
gfz2014hjgr   0.08267
gfz2014hjhu   0.40301
gfz2014hjij  -0.10809
gfz2014hjkp   0.24354
gfz2014hjlx  -0.18582
gfz2014hkcf  -0.03102
gfz2014hkck   0.18154
gfz2014hlib   0.72799
gfz2014hmgf  -0.00378
gfz2014hmvx   0.20713
gfz2014hmzg   0.18546
gfz2014hnfm   0.37063
gfz2014hoap   0.10305
gfz2014hodc   0.70682
gfz2014hokj   0.11165
gfz2014hphw  -0.32612
gfz2014hppw   0.59171
gfz2014hpqz  -2.91560
gfz2014hqxs   0.05981
gfz2014hqyx  -0.08784
gfz2014hrft  -0.34611
gfz2014hriu   0.12791
gfz2014hrtn   0.04999
gfz2014hscz  -0.14603
gfz2014hsqo  -0.04556
gfz2014hssr  -0.02661
gfz2014hszs  -0.21234
gfz2014htbf  -0.14144
gfz2014huaj  -0.13255
gfz2014hugz   0.28710
gfz2014hvdm   0.87320
gfz2014hwan   0.06175
gfz2014hwsy   0.00000
gfz2014hwwi   0.28235
gfz2014hxcl   0.12413
gfz2014hyal  -0.15719
gfz2014hyvq  -0.04144
gfz2014hzdy   0.10692
gfz2014hzfr   0.00000
gfz2014hzfw   0.42855
gfz2014hzgn   0.72939
gfz2014hzht   0.53797
gfz2014hzig   0.35584
gfz2014hzze   0.03732
gfz2014iani  -0.10215
gfz2014iazy   0.12948
gfz2014ieam  -0.38450
gfz2014iege   0.09944
gfz2014ieho   0.00000
gfz2014ifue  -0.34612
gfz2014ifzj   1.87540
gfz2014igsj   0.13712
gfz2014igur  -0.01538
gfz2014ijvh   0.40626
gfz2014ikbk   0.45159
gfz2014ikun   1.77190
gfz2014ikvd   0.32821
gfz2014ilwu   0.13061
gfz2014imap  -0.60305
gfz2014immt  -0.18531
gfz2014imnn  -0.10247
gfz2014inbj   0.29617
gfz2014iobd   0.09061
gfz2014iqzj   0.08654
gfz2014irci  -0.27000
gfz2014ircq   0.24479
gfz2014irrg   0.71713
gfz2014isdq   0.21002
gfz2014isff   0.32433
gfz2014issk   0.49417
gfz2014isub  -0.08968
gfz2014isys   0.39128
gfz2014itab  -0.03362
gfz2014itbe  -0.04733
gfz2014itbu  -0.08953
gfz2014itfc   0.00000
gfz2014itgh  -0.19254
gfz2014itjx   0.51269
gfz2014itkw  -0.35331
gfz2014itpj  -0.22725
gfz2014iuhq   0.28587
gfz2014ivep  -0.05811
gfz2014iwnf   0.41035
gfz2014iwwl   0.10017
gfz2014ixga   0.15651
gfz2014ixky  -0.06364
gfz2014iywt   0.08547
gfz2014jagg  -0.01417
gfz2014jass   0.13487
gfz2014jatq  -2.35000
gfz2014jcmt   0.15443
gfz2014jdxj   0.13938
gfz2014jesb  -0.62653
gfz2014jfis  -0.23442
gfz2014jggm   0.04322
gfz2014jhra   0.14868
gfz2014jipr   0.15729
gfz2014jird   0.03915
gfz2014jjhc  -0.00255
gfz2014jjkh   0.14650
gfz2014jjln  -0.33179
gfz2014jjqk   0.10273
gfz2014jmnk   0.37077
gfz2014jmsy   0.22268
gfz2014jnea  -0.20505
gfz2014jnfy  -0.06139
gfz2014jnyv   0.21036
gfz2014joak   0.30283
gfz2014jomw   0.27947
gfz2014jozl   0.17522
gfz2014jpep  -0.07388
gfz2014jpez   0.07520
gfz2014jpfn   0.06858
gfz2014jpgu  -0.13076
gfz2014jpxs   0.17247
gfz2014jtcz   1.60090
gfz2014jtfe  -0.07757
gfz2014jvow   0.29388
gfz2014kara   1.36020
gfz2014kbuk  -0.86643
gfz2014kbwm  -0.86770
gfz2014khan  -0.11488
gfz2014kizt  -0.03171
gfz2014kjee   0.08708
gfz2014kjjq  -0.59689
gfz2014kjzb  -0.27698
gfz2014kkhh  -0.19509
gfz2014kmmt  -0.30009
gfz2014knxs  -2.17390
gfz2014krlg  -0.04142
gfz2014kscf  -0.28333
gfz2014ksmz  -0.34166
gfz2014kssw   0.02301
gfz2014kwie   0.23375
gfz2014kwrg  -0.29186
gfz2014kwwg  -0.02514
gfz2014kxqf   0.05216
gfz2014kyan   0.20518
gfz2014kyhe  -0.73657
gfz2014kytf   0.14401
gfz2014kzzm   0.59040
gfz2014lbcq  -0.63679
gfz2014lchy   0.23409
gfz2014lddn  -0.34288
gfz2014ldhu  -1.18020
gfz2014lefs  -0.19746
gfz2014lehw  -0.16107
gfz2014lgqn  -0.34402
gfz2014lhqn  -0.04690
gfz2014ljbr  -0.42336
gfz2014lkyf  -0.53905
gfz2014lmge   0.16856
gfz2014lnmw   0.04640
gfz2014lpfc   0.11446
gfz2014lpim   0.00000
gfz2014lrzx   0.39794
gfz2014lurd  -0.06174
gfz2014lvgn   0.37385
gfz2014lwom  -0.02166
gfz2014lwsw  -0.03983
gfz2014lwvb  -0.05597
gfz2014lxnc  -0.37476
gfz2014lxqr   0.22748
gfz2014lyhk  -0.43680
gfz2014lzal   0.48303
gfz2014lzow  -0.40187
gfz2014macx   0.16836
gfz2014madw  -0.00000
gfz2014mawp   0.15844
gfz2014mcno  -0.85915
gfz2014mcse  -0.24865
gfz2014mlrr  -0.23159
gfz2014mmbu  -0.13333
gfz2014mmtb   0.15056
gfz2014moaw   0.31828
gfz2014mogb   0.61034
gfz2014mrbm   0.69646
gfz2014mtum  -3.14710
gfz2014muzd  -1.53270
gfz2014mwnj  -0.12651
gfz2014mxkr  -0.50321
gfz2014myqz  -1.32830
gfz2014nafd  -0.20779
gfz2014navw  -0.18558
gfz2014ndue  -0.29758
gfz2014ngsk  -0.34759
gfz2014ngvt   1.41260
gfz2014nhyb   0.05177
gfz2014niqj   0.28563
gfz2014nkdx   0.61058
gfz2014nnxd  -0.45733
gfz2014nowp   0.38619
gfz2014npdk   2.63250
gfz2014npeo   0.29377
gfz2014nphm   0.28558
gfz2014npnn   0.12169
gfz2014nqbs  -0.31130
gfz2014nqfm  -0.01263
gfz2014nqpk  -0.01527
gfz2014nrie   0.42816
gfz2014nvxd  -0.47467
gfz2014nyeh  -0.24533
gfz2014nyfb   0.02086
gfz2014nyko  -0.15966
gfz2014nylm  -1.24900
gfz2014obbs   0.09778
gfz2014obxm   0.18715
gfz2014odgv   0.07859
gfz2014ofhm  -0.26121
gfz2014oghp  -0.12740
gfz2014oims   0.06813
gfz2014oinz  -0.31857
gfz2014ojdg  -0.07257
gfz2014okec  -1.02160
gfz2014okxu   0.25405
gfz2014omyn  -0.12936
gfz2014oned  -0.24939
gfz2014opqr   0.01521
gfz2014oqhw   0.08079
gfz2014orgz  -0.47936
gfz2014orxs   0.42666
gfz2014oryw  -0.48180
gfz2014osvx   0.26468
gfz2014owii   0.33872
gfz2014owur   0.30332
gfz2014owxc  -0.73235
gfz2014oxcc  -0.02479
gfz2014oyly   0.06528
gfz2014oypt  -0.21783
gfz2014ozmj  -0.02355
gfz2014pghi   1.17550
gfz2014pjer  -0.04964
gfz2014pjum  -0.07563
gfz2014pmxt  -0.14565
gfz2014pngj   0.42402
gfz2014poap   0.34063
gfz2014ppzf   0.17465
gfz2014pqqp  -0.02225
gfz2014prdm   0.50400
gfz2014pxbu   0.24786
gfz2014pzni  -0.14653
gfz2014qbzi   0.30322
gfz2014qcxs  -0.57786
gfz2014qdog   0.20353
gfz2014qfzq  -0.16591
gfz2014qifa   0.06605
gfz2014qjfl   0.52450
gfz2014qjgp  -0.32241
gfz2014qlxd  -0.12470
gfz2014qngj  -0.06488
gfz2014qqfg   1.37560
gfz2014qqhm  -0.36346
gfz2014qsby   0.11178
gfz2014qtwv   0.27855
gfz2014raau   1.07890
gfz2014rbpx   1.54800
gfz2014rcyx   0.02800
gfz2014rdoz   0.00000
gfz2014rfeb  -0.04090
gfz2014rffv  -0.41400
gfz2014rghp   0.42737
gfz2014rhju  -0.17352
gfz2014rhnz   0.20351
gfz2014rhwq   0.04919
gfz2014riel   0.26393
gfz2014rils   1.26300
gfz2014rkwl   0.18113
gfz2014rnrn  -0.33876
gfz2014roba  -1.00980
gfz2014romy   0.18119
gfz2014royq  -0.36101
gfz2014rtcu   0.43325
gfz2014rucz  -0.09729
gfz2014rwos  -0.25792
gfz2014ryfb  -0.04888
gfz2014sadu  -1.07250
gfz2014sryn   0.09438
gfz2014ssds   0.08151
gfz2014ssmv   2.01330
gfz2014ssvz  -0.25558
gfz2014swgt  -0.30116
gfz2014tabg   0.26163
gfz2014tgcw   0.03336
gfz2014tovs   1.11170
gfz2014tqly  -0.55034
gfz2014tqsf  -0.03705
gfz2014tqth   0.03741
gfz2014tzsd   0.22775
gfz2014uapa  -0.00357
gfz2014ubyq   0.05166
gfz2014uohh   0.65371
gfz2014utac   0.70110
gfz2014uvrk   1.24250
gfz2014uxyg   2.67200
gfz2014uyrq  -0.61478
gfz2014uzaw  -0.72454
gfz2014vcev  -0.82631
gfz2014vdnh   0.16142
gfz2014veit   0.57417
gfz2014vhld  -0.59046
gfz2014vhms  -0.40229
gfz2014vivo   0.31771
gfz2014vjoh   0.26393
gfz2014vjoz  -0.48855
gfz2014vljh  -0.32156
gfz2014vnxu   0.13385
gfz2014vpus  -0.61673
gfz2014vqqa  -0.27976
gfz2014waoo   0.27376
gfz2014watn   0.29553
gfz2014wjko  -0.12922
gfz2014wqcp   0.25588
gfz2014wrkh  -0.30754
gfz2014wsjh   0.04540
gfz2014wwib  -0.03154
gfz2014xbyr  -0.19373
gfz2014xhkc   4.55840
gfz2014xhwk   0.20967
gfz2014xjri  -0.24467
gfz2014xmnp   0.55729
gfz2014xoji   0.01752
gfz2014xqby  -0.05115
gfz2014yazi   0.02699
gfz2014yhhm   0.09326
gfz2014ynhc  -0.14464
gfz2014zcgo   0.12636
gfz2015ansu  -0.15570
gfz2015bucr  -0.06704
gfz2015byfn  -0.19068
gfz2015byjd   0.54855
gfz2015bzej  -0.32522
gfz2015chhn   1.52640
gfz2015clrp   0.06188
gfz2015cpuo  -0.42638
gfz2015cxrc  -0.08929
gfz2015cyjd  -0.03344
gfz2015ddhl   0.03093
gfz2015dizn  -1.38180
gfz2015drlk   0.14051
gfz2015dskr  -0.69877
gfz2015dtqr  -0.02176
gfz2015dvbn  -0.10551
gfz2015ecgq   1.16010
gfz2015ednc  -0.53256
gfz2015eezy  -0.13148
gfz2015egbk  -0.11304
gfz2015egxq  -0.05084
gfz2015ehou   0.19963
gfz2015ehpz   0.52015
gfz2015elgy   2.76040
gfz2015eljz   0.84243
gfz2015emcg   0.31624
gfz2015emin   0.34561
gfz2015emtg  -0.22641
gfz2015enth   0.16898
gfz2015etai  -1.24140
gfz2015fbbk  -0.21133
gfz2015fbew   0.35771
gfz2015fcua   0.27500
gfz2015fdpr   0.20071
gfz2015fjhk  -0.29073
gfz2015fkbc   0.05926
gfz2015fkgt  -0.23594
gfz2015fkic  -0.04294
gfz2015fkjs  -0.20758
gfz2015fkkd   1.24150
gfz2015fkuu   1.82360
gfz2015flis   0.58241
gfz2015fpez  -0.08369
gfz2015fvoi  -0.04947
gfz2015fwkq  -0.11361
gfz2015fwnf   0.05173
gfz2015fxdi  -0.52979
gfz2015fyvk   1.49470
gfz2015gckd   0.01573
gfz2015gjbr   0.09387
gfz2015gkwa   0.18472
gfz2015gmgf  -0.09711
gfz2015gzja   0.03019
gfz2015hdbn   0.13427
gfz2015hdcp   0.43926
gfz2015hepg   0.04020
gfz2015hgbk   0.07489
gfz2015hhbd  -0.05912
gfz2015hlfq  -0.03154
gfz2015hlqo  -0.22422
gfz2015hpmk   0.31103
gfz2015hslo  -0.13934
gfz2015hwkv  -0.19150
gfz2015hwzw   0.25750
gfz2015idho  -0.44908
gfz2015iele   0.01870
gfz2015igsy   0.29355
gfz2015ijmh   0.13138
gfz2015imty   0.00297
gfz2015imyp   0.00148
gfz2015isim   0.42532
gfz2015ixyy  -0.13638
gfz2015jkdw  -0.33481
gfz2015jmlf  -0.12569
gfz2015jmlu  -0.11289
gfz2015jpap   0.69787
gfz2015jxbx  -0.29173
gfz2015jzcv  -0.27131
gfz2015kalm  -0.05514
gfz2015kcaa   0.52667
gfz2015kkqb   0.29032
gfz2015kkth  -0.23959
gfz2015kphk  -0.24520
gfz2015kquq  -0.26347
gfz2015lbcg   0.72271
gfz2015lcma   0.90774
gfz2015lcuo   0.19582
gfz2015lfma  -0.03491
gfz2015lfos   0.00000
gfz2015lfud   0.11619
gfz2015lhjq   0.26660
gfz2015lhjy  -0.26482
gfz2015ltii  -0.29512
gfz2015ltro  -0.19101
gfz2015lytv   1.25060
gfz2015lzad   1.69150
gfz2015mbgr  -0.28152
gfz2015mddr  -0.03781
gfz2015mfpy  -0.33824
gfz2015mhym  -0.22823
gfz2015micz   0.04928
gfz2015mljd   0.40125
gfz2015mpte   0.08873
gfz2015nerz   2.87090
gfz2015npud   0.24490
gfz2015ntpk  -0.76378
gfz2015nwug   0.74018
gfz2015ocwr   0.12774
gfz2015ofpd  -0.10002
gfz2015ojut  -1.72440
gfz2015okpu   0.04398
gfz2015omab  -0.68527
gfz2015opjp  -0.60617
gfz2015oumn   0.21966
gfz2015oyfl   0.33510
gfz2015pjgr   0.06237
gfz2015plal   0.02201
gfz2015prlr  -1.17010
gfz2015puqp   0.31668
gfz2015puuu   0.12096
gfz2015qafb   0.09414
gfz2015qisx  -0.06096
gfz2015qnde   0.00000
gfz2015qnho  -0.03606
gfz2015qnto   1.31230
gfz2015qols   0.03093
gfz2015qprd   0.22881
gfz2015qpvd   0.09821
gfz2015quzo  -0.65774
gfz2015qvxu   0.03886
gfz2015rgov   1.09080
gfz2015rgst   0.31751
gfz2015rkrg   0.12706
gfz2015rkzg  -1.14660
gfz2015rlnh   2.57520
gfz2015rnis   0.17610
gfz2015roac   0.04827
gfz2015rpzn   0.41768
gfz2015rtnv   0.20803
gfz2015rwsb  -0.09397
gfz2015saet   0.14401
gfz2015sdeo  -0.12792
gfz2015sdfy  -0.13299
gfz2015seuf   0.27679
gfz2015sevh  -0.07422
gfz2015sfdd   0.33503
gfz2015sfte  -0.32702
gfz2015sgad  -0.56963
gfz2015sgdn  -0.40260
gfz2015sggc   1.29920
gfz2015sghq   0.91899
gfz2015sicu   2.36330
gfz2015sitn  -0.06325
gfz2015sjeq   1.28050
gfz2015sjgk   0.06204
gfz2015sjjb  -0.14898
gfz2015sjne  -0.18505
gfz2015skgj   0.47852
gfz2015skpv  -0.17501
gfz2015skuk   0.83836
gfz2015sljs  -0.22743
gfz2015slun  -2.71910
gfz2015smgj   1.29190
gfz2015smym  -0.27514
gfz2015snmg  -0.54079
gfz2015snsf  -0.72240
gfz2015snwh   1.61540
gfz2015snyd   0.32691
gfz2015soat   0.27762
gfz2015soxc   0.71341
gfz2015sozw   0.66495
gfz2015sryk   0.42344
gfz2015stas   4.42190
gfz2015susq  -0.37882
gfz2015svjy  -0.42006
gfz2015svwm   0.70441
gfz2015swgn   0.63348
gfz2015swjx  -0.94323
gfz2015swnc   0.44787
gfz2015szfe   0.47553
gfz2015taml   0.04158
gfz2015tbdn   0.14966
gfz2015tchx   0.29289
gfz2015tdhb  -0.40542
gfz2015teyc   0.16350
gfz2015teyn   1.25540
gfz2015tezd   0.03127
gfz2015tflu  -1.18600
gfz2015tghj   0.11645
gfz2015thtd  -1.18860
gfz2015thwg  -0.08412
gfz2015thwp  -0.11282
gfz2015tjhv  -0.73935
gfz2015tjys   0.21842
gfz2015tkol   0.81167
gfz2015tlba  -0.43926
gfz2015tlkf  -0.24334
gfz2015tlok  -3.32250
gfz2015tnjd   0.23014
gfz2015tnla  -0.66569
gfz2015tpra   0.18037
gfz2015tqff   0.06213
