# Nsamples: 1165  MAD:  0.506  mean:  0.045  variance:  0.680
gfz2011vxod  -0.63991
gfz2011vxxg   0.53193
gfz2011wcic   1.09980
gfz2011wfja  -0.23455
gfz2011wijj  -0.34551
gfz2011wjkf   1.34260
gfz2011wjul   0.06145
gfz2011wtmq   0.20638
gfz2011wvzb  -0.10004
gfz2011wwjs   0.41411
gfz2011wxfs   0.99599
gfz2011wxoj   0.01817
gfz2011wxtk  -1.01750
gfz2011wype  -0.06956
gfz2011xaan  -0.42933
gfz2011xesx   1.13010
gfz2011xqru  -0.72648
gfz2011xyxj   0.93668
gfz2011yfdx   0.35017
gfz2011yfys  -0.21891
gfz2011yhwz   0.47664
gfz2011ytnu   1.20050
gfz2011yybo   0.20598
gfz2011zjap   0.60304
gfz2011zlfg  -0.20086
gfz2011zlrd  -0.12932
gfz2011zqhh   1.35760
gfz2012ajtq  -1.57560
gfz2012aqtq   0.00000
gfz2012bfyn  -2.00550
gfz2012bgnk  -0.14608
gfz2012bpkx   1.07500
gfz2012bpnl   0.13257
gfz2012bpwl   1.16980
gfz2012bqeb   0.82565
gfz2012brhv   0.10179
gfz2012cgvr  -0.11041
gfz2012cmfy  -1.52700
gfz2012cqnl  -2.40330
gfz2012cqtc   0.06451
gfz2012cxdn   1.49230
gfz2012cyof  -0.04828
gfz2012czlw   0.27365
gfz2012gemm  -0.39556
gfz2012gnvh   0.69182
gfz2012gocc  -1.18790
gfz2012gwqb   0.49884
gfz2012hdbm  -0.00000
gfz2012hogg   0.34750
gfz2012holl  -0.29498
gfz2012hzbe   0.72975
gfz2012ibld   1.95710
gfz2012icmv   1.98830
gfz2012idje   0.19591
gfz2012ihdl   0.93420
gfz2012iivw   0.30892
gfz2012imay   0.17029
gfz2012imbd   1.15450
gfz2012intn   0.31860
gfz2012iyrb  -0.55421
gfz2012jgvj   0.41962
gfz2012jlox   0.51460
gfz2012jmwd   0.01645
gfz2012joqe   0.52151
gfz2012jpeh   1.25520
gfz2012jpgs  -0.35020
gfz2012jshk  -0.30878
gfz2012jted  -0.17298
gfz2012jupx  -0.24715
gfz2012jxiy  -0.10387
gfz2012kanu   0.04066
gfz2012kbjb   0.11079
gfz2012kbzj  -0.07251
gfz2012keor   1.49170
gfz2012kiik   2.02610
gfz2012kkcp  -0.17053
gfz2012kkup   0.15473
gfz2012klhx   0.07135
gfz2012kuct   0.92628
gfz2012kudo   0.76240
gfz2012kvzv  -0.46624
gfz2012kwgo   0.25538
gfz2012lboz   0.40878
gfz2012lczo  -0.21744
gfz2012ldxg   0.07767
gfz2012leam  -0.08055
gfz2012ledy  -0.22396
gfz2012lezd  -0.06637
gfz2012lhnc   0.63889
gfz2012lltr  -0.10988
gfz2012llug   0.18628
gfz2012lpvn   0.69802
gfz2012lqbg  -0.13002
gfz2012lrjq   4.80280
gfz2012lrsv   0.47421
gfz2012lrtb   0.06198
gfz2012lsni  -0.02129
gfz2012lsvd   1.32710
gfz2012lszf  -0.58135
gfz2012lxkv  -1.06040
gfz2012lzgv  -0.15076
gfz2012lzmr   0.09727
gfz2012maxy  -0.54543
gfz2012mcze   0.66448
gfz2012mpyl   3.28140
gfz2012mupa   0.34199
gfz2012myeg   0.04990
gfz2012nben  -2.73380
gfz2012nbtn   1.07910
gfz2012noei  -0.05106
gfz2012nojx   0.66819
gfz2012nqnk  -0.03561
gfz2012ntzv  -3.08210
gfz2012obgw  -0.85362
gfz2012okhx   1.27350
gfz2012oqmw   1.85770
gfz2012oycg  -0.62079
gfz2012pazr  -0.34509
gfz2012peex  -0.55117
gfz2012pofl  -0.74651
gfz2012priv  -0.00000
gfz2012prlt   0.41923
gfz2012pspd  -0.24028
gfz2012pygp  -0.48187
gfz2012qjhs  -0.11423
gfz2012qqqp  -0.17995
gfz2012qtgs  -0.12070
gfz2012qurq  -0.41999
gfz2012quso  -0.15291
gfz2012qvxn  -0.01897
gfz2012qxcy  -0.33444
gfz2012raen   0.12960
gfz2012raex   0.12353
gfz2012rats   0.72565
gfz2012rboy  -0.63110
gfz2012rcbq   0.63575
gfz2012rcds  -0.79264
gfz2012rcnj  -0.29854
gfz2012rejq   0.18995
gfz2012repv   0.08423
gfz2012rgkl  -0.08467
gfz2012rjld  -1.26810
gfz2012rknn   1.70210
gfz2012royy   0.16134
gfz2012rqlg   0.15575
gfz2012rtqi  -0.37427
gfz2012rubi   3.06970
gfz2012ruks   0.24387
gfz2012rwko   0.52131
gfz2012rwov  -1.44420
gfz2012sfer  -3.04180
gfz2012snhi   0.38494
gfz2012spbj   0.60865
gfz2012sqmv   0.16599
gfz2012sqvi  -0.08947
gfz2012szla   0.11385
gfz2012tazz  -0.60290
gfz2012tbbp  -0.45767
gfz2012tbxt  -0.58998
gfz2012teic   0.18330
gfz2012tphj   0.58771
gfz2012ttoa   0.10092
gfz2012tyxl  -0.48068
gfz2012tzcc  -0.03501
gfz2012tzgb   2.22030
gfz2012uaqj   0.06572
gfz2012uciv  -1.53330
gfz2012ueqo   1.84480
gfz2012uhup   1.33180
gfz2012ulpd   1.76590
gfz2012uoef   0.44120
gfz2012uqzp   0.11605
gfz2012usba  -1.63410
gfz2012uvqf   0.59560
gfz2012uxnz  -1.38200
gfz2012uyie   0.31571
gfz2012uyxb   0.74060
gfz2012uzom  -0.18751
gfz2012uzyj   2.71180
gfz2012vdbt  -1.13090
gfz2012vjgl   0.90888
gfz2012vmeh   1.53400
gfz2012vntz  -0.45776
gfz2012vpza   0.16827
gfz2012vrua  -0.26569
gfz2012vsev   0.18725
gfz2012vtif  -0.00000
gfz2012vtxe   0.33302
gfz2012vwvd  -0.22850
gfz2012vxvr  -0.14708
gfz2012vyzo  -0.09071
gfz2012wajj  -1.16650
gfz2012wdyx  -7.74010
gfz2012wecd   0.51039
gfz2012wgbb  -0.55334
gfz2012wkfw   2.09040
gfz2012wklq   0.50835
gfz2012wmkd   1.23740
gfz2012wpah   1.10970
gfz2012wqnc   0.02712
gfz2012wrir   0.48344
gfz2012wtkh   0.46910
gfz2012wtkr   0.01041
gfz2012wtov  -0.70060
gfz2012wubh  -0.69300
gfz2012wvfl  -0.48749
gfz2012wxer  -0.45789
gfz2012wxlg   0.56376
gfz2012wxnu  -0.90635
gfz2012wybs   0.29273
gfz2012wypz   1.08620
gfz2012xbjq   0.74596
gfz2012xcgk  -0.02303
gfz2012xgqm   0.60160
gfz2012xhci  -0.16937
gfz2012xjyv   0.40111
gfz2012xkkv  -0.74868
gfz2012xmxy  -0.21571
gfz2012xpmm   0.20538
gfz2012xslk   1.38690
gfz2012xssa   0.15962
gfz2012xvwn   0.84609
gfz2012xwqa  -0.81428
gfz2012xyqp   0.42672
gfz2012xyua  -0.35712
gfz2012yfrp   0.92516
gfz2012yldu  -0.01108
gfz2012yoie  -0.06872
gfz2012yqjj   2.17010
gfz2012zhmb   0.18437
gfz2012zsqk   0.09406
gfz2013aayj   0.17495
gfz2013acag  -0.71148
gfz2013adey   1.30180
gfz2013aeee  -0.03891
gfz2013akgj   0.12186
gfz2013aknp  -0.34672
gfz2013apmm   0.13609
gfz2013aqaw  -0.06348
gfz2013aspo   0.07871
gfz2013iapa   0.16556
gfz2013iayx  -0.28046
gfz2013icfh   0.50387
gfz2013icqt   0.01175
gfz2013idbb   0.08600
gfz2013ihcj  -0.11778
gfz2013ijyg   0.69411
gfz2013ikgo  -0.21856
gfz2013ilug   1.14960
gfz2013inux   0.71545
gfz2013iodt   0.00960
gfz2013iopd   0.62338
gfz2013ippu  -1.35980
gfz2013iynu  -0.20012
gfz2013iyqz  -0.09855
gfz2013jarl  -0.33997
gfz2013jdrx   0.06236
gfz2013jesk   0.03598
gfz2013jfah  -0.24799
gfz2013jgij  -0.35267
gfz2013jgip  -0.08749
gfz2013jjrt  -0.12016
gfz2013jjsi  -0.21086
gfz2013jkut   0.26255
gfz2013jlst  -0.03592
gfz2013jmcc   0.03965
gfz2013jokw   0.05384
gfz2013jphq   0.00969
gfz2013jusj  -0.68403
gfz2013jvhy   0.21652
gfz2013jwcn   0.05557
gfz2013jwvc   0.02822
gfz2013kccc   1.33990
gfz2013kdeo  -0.18414
gfz2013kgmj  -0.46945
gfz2013kheb   1.37070
gfz2013khli   0.36296
gfz2013kilx   0.60833
gfz2013kvtk   0.78450
gfz2013kwag  -0.13814
gfz2013kweg   0.03701
gfz2013kwps   0.20678
gfz2013lbiu  -0.10433
gfz2013lcos   0.31468
gfz2013ldpc   0.20729
gfz2013ldqb  -0.00299
gfz2013lfyb  -0.33801
gfz2013lgbb  -1.05820
gfz2013lgnl   0.16886
gfz2013lgxc  -0.46316
gfz2013limo   0.07298
gfz2013lixa  -0.65774
gfz2013lmdy   0.03327
gfz2013lmrs  -0.06943
gfz2013lsob  -0.16513
gfz2013lupg  -0.47452
gfz2013lwbk  -0.15649
gfz2013lyko   0.07003
gfz2013lznu   0.20457
gfz2013mded   0.28129
gfz2013mdiq  -0.96065
gfz2013mghe   0.38772
gfz2013mhjf  -0.36544
gfz2013mmlw  -0.05715
gfz2013mmwq  -0.12972
gfz2013mnac  -0.22280
gfz2013mnei   2.13140
gfz2013mqik   0.00000
gfz2013mqmv  -1.30410
gfz2013mtqd  -0.22036
gfz2013mvdm  -0.51434
gfz2013mvgr   0.61900
gfz2013mxee  -0.16270
gfz2013mxrz  -0.12533
gfz2013mzwe   0.18990
gfz2013nabl   0.84875
gfz2013ncjp   0.25673
gfz2013ngnt  -1.35830
gfz2013nhjb  -0.15200
gfz2013njnd  -0.19378
gfz2013nlxz  -1.14770
gfz2013nmac   0.53301
gfz2013nnzf   0.00000
gfz2013nojf   0.14095
gfz2013nttq  -0.84575
gfz2013nuor   0.00695
gfz2013nuvi  -0.22802
gfz2013nvdj  -1.54640
gfz2013nvia  -0.82402
gfz2013nwdi   1.42170
gfz2013ofls   0.35421
gfz2013oifr  -0.26166
gfz2013oilg   0.66625
gfz2013oinc   0.54064
gfz2013ojti  -0.56904
gfz2013oksi  -1.17130
gfz2013onjy   0.00912
gfz2013oqsc  -2.88370
gfz2013orjg   1.88920
gfz2013ovyg  -0.02398
gfz2013ozku   0.20758
gfz2013oznn   2.17830
gfz2013ozqm  -1.00480
gfz2013ozrf   0.07984
gfz2013ozrp   0.32445
gfz2013pakq  -0.16843
gfz2013pcos  -0.77726
gfz2013pfbx  -0.09363
gfz2013pfeb   0.15936
gfz2013pfnf   0.29013
gfz2013piwd  -0.05508
gfz2013pkbs   0.08910
gfz2013plhp  -0.47784
gfz2013pndn  -0.09037
gfz2013ppqq   0.10941
gfz2013ptit  -0.09685
gfz2013pupd  -0.13788
gfz2013pweb   0.19642
gfz2013pwjd  -0.47398
gfz2013pwyt   0.54833
gfz2013pxsj   0.67327
gfz2013pxtx  -0.69804
gfz2013pxya  -0.09811
gfz2013pzgs   0.14186
gfz2013pzgt  -0.25367
gfz2013qali   0.01532
gfz2013qbca   0.56372
gfz2013qbys   0.89330
gfz2013qcck   0.25735
gfz2013qckf  -0.09485
gfz2013qesa   0.70406
gfz2013qfmm   0.47674
gfz2013qfsq   0.07021
gfz2013qhtx   0.33085
gfz2013qhwz  -0.31764
gfz2013qidm   0.64023
gfz2013qjmk  -0.13574
gfz2013qmer  -0.42294
gfz2013qnxc   1.80670
gfz2013qpqb  -0.48632
gfz2013qqrr  -0.18830
gfz2013qrxy  -0.61937
gfz2013qvcr   0.13683
gfz2013qwbv  -0.36070
gfz2013qwgb   0.10811
gfz2013qzdq   0.55915
gfz2013rait  -0.58311
gfz2013rjsx  -0.41457
gfz2013rluo   0.18609
gfz2013rotn  -0.33548
gfz2013rqcy  -0.32940
gfz2013rqmp  -0.04364
gfz2013rsnr  -0.25606
gfz2013rsts   1.24360
gfz2013rwfe  -1.02510
gfz2013ryxm   0.20711
gfz2013scai   0.08803
gfz2013scub  -0.26333
gfz2013sdus   0.52718
gfz2013sebq  -0.66152
gfz2013sfto  -0.19857
gfz2013shlq   0.07981
gfz2013shzy  -0.29788
gfz2013skkm   0.13832
gfz2013sllq   0.27324
gfz2013snbr  -0.19455
gfz2013snyf  -1.09550
gfz2013sqkb  -0.40238
gfz2013suln   0.02540
gfz2013suvn  -0.63909
gfz2013svci  -0.19391
gfz2013svqv   0.72350
gfz2013syqk   0.15230
gfz2013tamc   0.06315
gfz2013tcbk   0.41957
gfz2013tcxc   0.93866
gfz2013tcxq   0.49333
gfz2013tdkk  -0.01790
gfz2013tect   0.47277
gfz2013thtc  -1.46550
gfz2013tjlx   0.16472
gfz2013tlaf  -0.81729
gfz2013toea  -0.30491
gfz2013toxf   0.55571
gfz2013tpeb  -0.53031
gfz2013tqbb  -0.31225
gfz2013ttoz  -0.40635
gfz2013tusd   0.21317
gfz2013tuzv  -1.15560
gfz2013tvmw  -0.14022
gfz2013uauo   0.39607
gfz2013ugax  -1.47030
gfz2013uhlm  -0.24723
gfz2013umya   0.93222
gfz2013upcc  -0.11668
gfz2013upee  -0.20687
gfz2013upiv  -0.30068
gfz2013uqvu   1.11520
gfz2013uthl   0.39631
gfz2013utsh   0.37004
gfz2013uxej  -0.59501
gfz2013vcoa  -0.58852
gfz2013vefs  -1.29750
gfz2013vfyw   0.35026
gfz2013vfzp   2.27810
gfz2013vgau   0.66365
gfz2013vgev   1.50260
gfz2013vhsb  -0.00000
gfz2013vhzu  -0.30731
gfz2013vijl  -0.47494
gfz2013viul   0.23799
gfz2013vjjc   0.45102
gfz2013vlth   0.27963
gfz2013vmro  -2.89170
gfz2013vnfj  -0.00977
gfz2013vpnf   0.53699
gfz2013vrmy  -0.14999
gfz2013vsxi  -0.48506
gfz2013vvjh  -3.66160
gfz2013vvrq   1.23290
gfz2013vxta   0.01080
gfz2013vzbo   0.66078
gfz2013waam   1.08330
gfz2013wbyr  -0.48752
gfz2013wgeu  -0.81931
gfz2013whts  -0.14436
gfz2013wjmm   1.02510
gfz2013wkyk  -0.74863
gfz2013wmfd   1.52670
gfz2013wnpr  -0.13450
gfz2013wnql  -0.43366
gfz2013woze  -0.35313
gfz2013wpga  -0.25083
gfz2013wqhq   0.19216
gfz2013wrgw   0.19725
gfz2013wtzl  -0.11912
gfz2013wuml   0.02247
gfz2013wuon   0.34440
gfz2013wwii   1.07140
gfz2013xatc  -1.25680
gfz2013xcmp   0.12269
gfz2013xgek  -0.17423
gfz2013xizq  -1.35770
gfz2013xklb   0.32336
gfz2013xkwt   0.50133
gfz2013xmqg   0.15927
gfz2013xmul   1.81140
gfz2013xpfa   0.50139
gfz2013xpsm  -0.84456
gfz2013xqnn   0.23461
gfz2013xsdt  -0.95590
gfz2013xtwj  -0.12422
gfz2013xvxf  -0.36961
gfz2013xvyl   0.99803
gfz2013xxcc  -0.09913
gfz2013xxxq  -0.34567
gfz2013xyzb   0.20349
gfz2013yctg   1.33510
gfz2013ydtm   0.31349
gfz2013yewz  -0.05698
gfz2013yghj   2.14290
gfz2013yhbu   0.16426
gfz2013yhpk  -0.21846
gfz2013yixl   0.25767
gfz2013ylbx   0.00312
gfz2013ymky  -0.92744
gfz2013ymxs   0.79813
gfz2013ynmw  -0.04537
gfz2013yrmc  -0.73754
gfz2013yulx  -0.78624
gfz2013yvqu  -0.43794
gfz2013yzte  -0.27299
gfz2013zaxb  -0.21156
gfz2013zfhu   0.98745
gfz2013ziyr  -0.62617
gfz2013zjtw  -1.11870
gfz2013zmoc  -0.67293
gfz2013zmtb  -0.14204
gfz2014aawc   0.27655
gfz2014abgd   0.35452
gfz2014adjs   0.95638
gfz2014adoj  -0.60926
gfz2014afmx  -0.26028
gfz2014afyp   0.54502
gfz2014agde  -0.14395
gfz2014agyz  -1.06890
gfz2014aidn  -0.00000
gfz2014ajlk  -0.82906
gfz2014ajtf  -0.74118
gfz2014alwz  -0.38442
gfz2014amsb  -0.28097
gfz2014ande  -0.71201
gfz2014arnc  -0.17280
gfz2014arpf  -1.18540
gfz2014atbl   0.58844
gfz2014azqs   0.60729
gfz2014bagd  -1.55500
gfz2014bazc  -0.06564
gfz2014bbro   0.72636
gfz2014bcae   0.10469
gfz2014bdfd  -0.00000
gfz2014bezu  -0.34255
gfz2014bfng   0.55936
gfz2014bhvd  -0.75645
gfz2014bjgt   0.06240
gfz2014bjsy   0.31117
gfz2014bmfa  -0.06431
gfz2014bzna  -0.37522
gfz2014bztt  -0.34757
gfz2014cbtl  -1.47520
gfz2014ccbz  -1.80500
gfz2014cgog   1.28290
gfz2014chdv   0.65734
gfz2014citw  -0.03625
gfz2014claq  -0.01874
gfz2014clnj  -0.17019
gfz2014clnq  -0.04348
gfz2014cqyo  -0.08703
gfz2014crpy  -0.17822
gfz2014cueu   0.37446
gfz2014cvkm   0.46362
gfz2014cvxx  -0.55770
gfz2014cxcj  -0.10052
gfz2014cybg  -0.23775
gfz2014czno   1.75840
gfz2014czqi  -0.53273
gfz2014czua   0.33004
gfz2014dbdf  -0.61327
gfz2014dffd   0.13110
gfz2014dgiy  -0.06291
gfz2014disp  -0.70309
gfz2014dlri   0.02626
gfz2014dpzx  -0.92314
gfz2014duqn   0.28771
gfz2014dwls  -0.11240
gfz2014eage   0.83577
gfz2014ebmc  -0.58806
gfz2014efkk  -0.56712
gfz2014efsd  -0.14006
gfz2014eght  -0.14161
gfz2014egwu   1.37920
gfz2014ejvf  -0.15261
gfz2014ekdn   0.31028
gfz2014ekdt   0.50388
gfz2014emrg  -0.33152
gfz2014eqpl  -0.79279
gfz2014eqss  -0.18558
gfz2014erbj  -0.52075
gfz2014ettc   1.22550
gfz2014ewcz   0.99428
gfz2014ewrw  -0.80805
gfz2014exmv  -0.26383
gfz2014exxa  -0.11055
gfz2014fexu  -0.02516
gfz2014ffdc   0.13587
gfz2014fgkb   0.13774
gfz2014fgvi   0.26792
gfz2014fgvr   1.40960
gfz2014fgvz   0.73935
gfz2014fgwt  -0.17201
gfz2014fgxt   0.27929
gfz2014fgxz   0.34815
gfz2014fgza   0.64513
gfz2014fhbd   0.31101
gfz2014fhdw   0.58152
gfz2014fhgb  -0.12256
gfz2014fhjd  -0.30246
gfz2014fhkp  -0.04259
gfz2014fhla  -0.32026
gfz2014fhmb  -0.55923
gfz2014fhoe   0.14673
gfz2014fhpf   0.03432
gfz2014fhqk   0.02302
gfz2014fhrq   0.66951
gfz2014fhsg   0.05418
gfz2014fhwx   0.06218
gfz2014fhxm  -0.20557
gfz2014fhyb   0.49338
gfz2014fimn   0.23942
gfz2014fiuj   1.40170
gfz2014fiwq   0.45754
gfz2014fjdz  -0.30857
gfz2014fjpb  -0.15767
gfz2014fjxd  -0.10149
gfz2014fjyo  -0.01458
gfz2014fjzd   0.32565
gfz2014fjzw  -0.20285
gfz2014fkmr  -0.07158
gfz2014fkmx   1.37800
gfz2014fles   0.09317
gfz2014flfa  -1.10150
gfz2014fmai  -0.05233
gfz2014fnbh  -0.47046
gfz2014fnyg  -1.02600
gfz2014foio  -1.21500
gfz2014foty  -0.63731
gfz2014fqpz  -0.25518
gfz2014frdz  -0.44166
gfz2014frel  -0.00000
gfz2014frfl   0.53507
gfz2014frfw   0.06927
gfz2014frgm   0.14614
gfz2014frjr  -0.10662
gfz2014frme   0.19717
gfz2014frnb   0.08862
gfz2014frwh  -0.01304
gfz2014fstx  -0.15433
gfz2014fsuh   0.11030
gfz2014ftgx  -0.11487
gfz2014ftka  -0.06935
gfz2014ftno   0.18406
gfz2014ftoc   0.00000
gfz2014ftpw   0.81859
gfz2014ftvc  -0.11615
gfz2014furx   0.02003
gfz2014fusc   0.69346
gfz2014fusu   0.16942
gfz2014fuub   1.97520
gfz2014fuup   0.06214
gfz2014fuvk   0.54465
gfz2014fuzi   0.45838
gfz2014fval  -2.17950
gfz2014fvdx   0.40920
gfz2014fvgh   0.72680
gfz2014fvhp   0.60517
gfz2014fvpy   0.35642
gfz2014fvrg   0.26673
gfz2014fvve   0.44463
gfz2014fwdr   0.62524
gfz2014fwtt   0.46658
gfz2014fwyr   0.64405
gfz2014fxpu   0.31054
gfz2014fyfr   0.26658
gfz2014fzgx   0.38921
gfz2014gbcz  -0.67831
gfz2014gbdq   2.94270
gfz2014gbjf   0.36081
gfz2014gcza   0.32408
gfz2014gdsq   0.39224
gfz2014gesb  -0.16579
gfz2014geuy   0.47081
gfz2014gezs  -0.42074
gfz2014gfdj  -0.55844
gfz2014gfhf   0.58596
gfz2014ggnq  -0.18078
gfz2014ggpd  -0.37178
gfz2014ggsr  -0.24168
gfz2014ghoq   0.27110
gfz2014gilf   0.36437
gfz2014gkgf  -0.03133
gfz2014gkgl   2.80940
gfz2014gkhp  -0.73274
gfz2014gkjl  -0.05189
gfz2014gkjw   0.10920
gfz2014gkjy  -0.28342
gfz2014gkln   0.37232
gfz2014gklq   0.26353
gfz2014gkmm  -2.83440
gfz2014gkob   0.97206
gfz2014gkok  -5.84040
gfz2014gkpd   0.25676
gfz2014gkpj  -0.04182
gfz2014gkqu   0.23760
gfz2014gkrl   0.79975
gfz2014gkrz   0.42468
gfz2014gksj   0.01763
gfz2014gksu   0.26469
gfz2014gkxi   0.13865
gfz2014glcu   0.00846
gfz2014glcy   0.65875
gfz2014glfn   0.52613
gfz2014glhs   0.13992
gfz2014glov  -0.21979
gfz2014gltj   0.12661
gfz2014gltx  -0.09595
gfz2014glvn   0.60974
gfz2014glvu  -0.13076
gfz2014glxd  -0.01785
gfz2014glxy   0.20302
gfz2014gmci  -0.03640
gfz2014gmes  -0.18309
gfz2014gmge   0.54837
gfz2014gmhp   0.05642
gfz2014gmhr   0.27616
gfz2014gmic   0.67028
gfz2014gmip  -0.67021
gfz2014gmjo   0.20192
gfz2014gmjz  -0.45950
gfz2014gmku  -0.21338
gfz2014gmmt   0.35433
gfz2014gmnb  -0.00271
gfz2014gmnw  -0.21879
gfz2014gmpy   0.04493
gfz2014gmqw   0.50780
gfz2014gmtb  -1.45220
gfz2014gmtj   1.35120
gfz2014gmto   1.12340
gfz2014gmuk   0.24796
gfz2014gmuw   0.56483
gfz2014gmvr  -0.11576
gfz2014gmzl  -0.21440
gfz2014gnfd  -0.51995
gfz2014gngg   0.95190
gfz2014gnhk  -0.29935
gfz2014gnig   0.36081
gfz2014gnmp   0.73952
gfz2014gnms   0.60259
gfz2014gnmx   0.07898
gfz2014gnno  -0.21064
gfz2014gnnt  -0.35520
gfz2014gnom   1.31480
gfz2014gnoz  -0.22889
gfz2014gnqt   0.89773
gfz2014gnre   0.16257
gfz2014gnsi   1.22890
gfz2014gntd   0.56073
gfz2014gnvw  -0.04374
gfz2014gnwg   0.45656
gfz2014gnxb   0.81369
gfz2014goba  -0.27975
gfz2014goei  -0.03782
gfz2014gogv  -0.58503
gfz2014gohm   0.05739
gfz2014golz  -0.06792
gfz2014gono   0.01218
gfz2014goqw  -0.41371
gfz2014gpac   0.30411
gfz2014gpbx   0.30461
gfz2014gpce  -0.29771
gfz2014gpdo  -0.64397
gfz2014gpgd  -0.05054
gfz2014gphr  -0.01581
gfz2014gpmm  -0.54666
gfz2014gpnf   0.20112
gfz2014gpqq   0.02774
gfz2014gpuk  -0.03927
gfz2014gpvk  -0.51356
gfz2014gpxl  -0.35445
gfz2014gpxv  -0.27291
gfz2014gqbj  -1.01750
gfz2014gqco   0.74294
gfz2014gqer  -3.94310
gfz2014gqgf  -0.16876
gfz2014gqhe  -0.41288
gfz2014gqiy   0.13937
gfz2014gqqz   0.73274
gfz2014gqro  -0.01176
gfz2014gqup   0.74453
gfz2014gqve  -0.16116
gfz2014grcv  -0.29999
gfz2014grfp  -0.20180
gfz2014grgn   0.01115
gfz2014grho  -0.15835
gfz2014gsdw   0.38396
gfz2014gsgv  -0.29191
gfz2014gsjg   0.07156
gfz2014gsqs  -0.62955
gfz2014gtef   0.12763
gfz2014gtlu   0.22633
gfz2014gtwz  -0.69788
gfz2014gufl  -0.65179
gfz2014gull   0.16950
gfz2014gulp   1.35450
gfz2014gumd   0.01774
gfz2014gutm   0.23418
gfz2014gvhw   0.65212
gfz2014gvqj   0.07148
gfz2014gvrd   1.06460
gfz2014gwab  -0.78713
gfz2014gwap   0.32689
gfz2014gwqj  -0.02907
gfz2014gxag  -0.09560
gfz2014gxkh  -0.26068
gfz2014gxqf  -0.03282
gfz2014gxqu   0.01872
gfz2014gxqx  -0.44474
gfz2014gxvf   0.27689
gfz2014gxxh  -0.25335
gfz2014gxxo  -0.29443
gfz2014gyxd  -0.17623
gfz2014gzrm  -0.07089
gfz2014gzue  -0.22881
gfz2014haey  -0.27388
gfz2014hagb  -0.33857
gfz2014haos  -0.33294
gfz2014hasj  -0.38184
gfz2014hauo   0.80411
gfz2014hbjm  -0.38193
gfz2014hbjz  -0.16095
gfz2014hcmj   0.10531
gfz2014hcns   1.40750
gfz2014heyq  -0.08369
gfz2014hfad  -0.10453
gfz2014hfhl  -0.72389
gfz2014hfzf   0.58773
gfz2014hgqo  -0.42544
gfz2014hhfs   0.96671
gfz2014hhwx   0.03104
gfz2014hifp  -0.15954
gfz2014hiih  -0.16523
gfz2014hiiz   0.54656
gfz2014hjgh  -0.41076
gfz2014hjgo   1.25160
gfz2014hjgr   0.27758
gfz2014hjhu   0.20475
gfz2014hjij  -0.43393
gfz2014hjkp  -0.23083
gfz2014hjlx  -0.59548
gfz2014hkcf   0.17794
gfz2014hkck   0.67153
gfz2014hlib  -0.85275
gfz2014hmvx  -0.64157
gfz2014hmzg  -0.28766
gfz2014hnfm  -0.17365
gfz2014hoap  -0.63894
gfz2014hocg  -0.02218
gfz2014hodc  -0.04691
gfz2014hokj  -0.18846
gfz2014hphw   0.43322
gfz2014hpqz   1.80310
gfz2014hqxs  -1.02980
gfz2014hqyx  -0.28666
gfz2014hrtn  -0.42988
gfz2014hsqo  -0.37943
gfz2014hssr  -0.17257
gfz2014hszs  -0.21623
gfz2014htbf  -0.46800
gfz2014huaj   0.62762
gfz2014hugz  -0.37953
gfz2014hvdm  -0.01160
gfz2014hwan  -2.63200
gfz2014hwsy  -0.12133
gfz2014hwwi  -0.19898
gfz2014hxcl  -1.62380
gfz2014hxev  -0.21904
gfz2014hyal   0.69936
gfz2014hyvq  -0.39874
gfz2014hzdy  -0.04599
gfz2014hzfr  -0.01907
gfz2014hzfw   0.63808
gfz2014hzgn  -0.40096
gfz2014hzhe  -0.26029
gfz2014hzht  -0.10067
gfz2014hzig  -0.23621
gfz2014hzze   0.57562
gfz2014iani  -0.54351
gfz2014iava   0.63406
gfz2014iazy   1.04800
gfz2014icqt  -0.49563
gfz2014ieam   0.17873
gfz2014iege   0.15123
gfz2014ifue  -0.03254
gfz2014ifzj   0.43976
gfz2014igsj  -0.01147
gfz2014igur  -0.24134
gfz2014ijvh  -0.24783
gfz2014ikbk  -0.31377
gfz2014ikvd  -0.18563
gfz2014ilwu   0.19246
gfz2014immt  -0.04700
gfz2014imnn  -0.16579
gfz2014inbj  -0.06533
gfz2014iobd  -0.52730
gfz2014iqzj  -0.18373
gfz2014irci  -0.20770
gfz2014ircq  -0.19405
gfz2014irrg   0.15666
gfz2014isdq  -0.08093
gfz2014isff  -0.01912
gfz2014issk   0.19901
gfz2014isub  -0.02960
gfz2014itab  -0.28749
gfz2014itbe  -0.39391
gfz2014itbu  -0.31108
gfz2014itfc  -0.15661
gfz2014itgh  -0.23552
gfz2014itjx   1.59640
gfz2014itkw  -0.72831
gfz2014itpj  -0.56936
gfz2014iuhq  -0.36640
gfz2014ivep   0.23431
gfz2014iwnf  -0.09098
gfz2014iwwl  -0.11500
gfz2014ixga  -0.30188
gfz2014ixky   0.30130
gfz2014iywt   0.05851
gfz2014jagg  -0.25568
gfz2014jass  -0.34920
gfz2014jatq   0.12433
gfz2014jcjt   1.76500
gfz2014jcmt  -0.07439
gfz2014jdoy   0.55493
gfz2014jdxj  -0.19177
gfz2014jesb  -0.21270
gfz2014jfis   1.12720
gfz2014jhra   0.59829
gfz2014jird   0.04719
gfz2014jjhc   0.07148
gfz2014jjkh   0.09830
gfz2014jjln  -0.52218
gfz2014jjqk  -0.44011
gfz2014jkxe   0.78581
gfz2014jmnk   0.10720
gfz2014jmsy  -0.22544
gfz2014jnea  -1.64130
gfz2014jnfy  -0.45427
gfz2014jnxm   0.86760
gfz2014jnyv  -1.09750
gfz2014joak  -0.20591
gfz2014jomw  -0.11196
gfz2014jozl  -0.08636
gfz2014jpep  -0.19555
gfz2014jpez  -0.11822
gfz2014jpgu  -0.29991
gfz2014jpxs  -0.42726
gfz2014jtcz  -2.25940
gfz2014jtfe  -0.59630
gfz2014jvow   0.38291
gfz2014jwmh  -1.16850
gfz2014kara  -2.49960
gfz2014kblw   0.86923
gfz2014kbuk  -0.49277
gfz2014kbwm   0.28363
gfz2014nvdi   0.42069
gfz2014nyeh  -0.40463
gfz2014nyfb  -0.50302
gfz2014nyko   0.79512
gfz2014nylm   0.09170
gfz2014odgv   0.03492
gfz2014ofhm   1.87280
gfz2014ojdg  -0.24160
gfz2014okec  -0.30861
gfz2014okjw  -2.14470
gfz2014okxu  -0.14162
gfz2014omyn   2.52000
gfz2014oned  -0.86248
gfz2014opqr   0.57835
gfz2014oqhw   0.76000
gfz2014orgz  -0.27474
gfz2014orxs   0.52340
gfz2014oryw   0.62752
gfz2014osvx   0.14827
gfz2014owii  -0.02883
gfz2014owxc   1.29530
gfz2014oyly   0.05658
gfz2014ozmj  -0.09307
gfz2014pghi  -0.04613
gfz2014pjer  -0.00301
gfz2014pjum   0.23086
gfz2014pkll   0.51419
gfz2014pmxt   1.67140
gfz2014pngj   0.06431
gfz2014ppyi  -0.56440
gfz2014ppzf   0.03134
gfz2014pqqp  -1.41000
gfz2014prdm   1.53130
gfz2014pxbu   0.71673
gfz2014qbzi  -0.18896
gfz2014qcxs   0.36681
gfz2014qdog   0.89972
gfz2014qfzq  -0.61047
gfz2014qifa  -0.39263
gfz2014qjfl   0.16878
gfz2014qjgp  -0.97448
gfz2014qlxd   0.78333
gfz2014qngj  -1.17070
gfz2014qqhm   0.08495
gfz2014qsby  -0.22393
gfz2014qtwv   0.27427
gfz2014raau  -0.05904
gfz2014rbpx   1.04490
gfz2014rbsl  -0.00000
gfz2014rcyx   0.22961
gfz2014rdoz   0.21439
gfz2014rdsn  -0.28790
gfz2014rfeb   0.41855
gfz2014rffv   0.39000
gfz2014rhju  -1.37180
gfz2014rhwq  -0.05223
gfz2014riel   0.12691
gfz2014rils  -1.38650
gfz2014rnrn   0.20514
gfz2014roba   0.29747
gfz2014romy   0.23836
gfz2014royq   0.37560
gfz2014rtcu   2.80230
gfz2014rucz  -0.02538
gfz2014ryfb   0.12294
gfz2014sptq   0.53760
gfz2014sryn  -0.32541
gfz2014ssmv   0.85681
gfz2014ssvz   0.18821
gfz2014swgt  -0.35293
gfz2014szzf   0.69587
gfz2014tabg  -0.54908
gfz2014tfgn  -0.55891
gfz2014tgcw  -0.10595
gfz2014tovs  -1.36250
gfz2014tqly  -0.34476
gfz2014tqsf  -0.57442
gfz2014tqth  -0.83762
gfz2014tzsd  -0.51553
gfz2014uapa  -0.52660
gfz2014ubwn  -2.35110
gfz2014ubyq  -0.34128
gfz2014uohh   0.95377
gfz2014uvrk   0.91099
gfz2014uxyg  -0.14994
gfz2014uyrq  -0.60686
gfz2014uzaw  -0.51267
gfz2014vcev   1.57860
gfz2014vdnh   1.80480
gfz2014veit  -1.88790
gfz2014vhld   0.83579
gfz2014vhms  -0.11168
gfz2014vivo   0.04469
gfz2014vjoz   1.10990
gfz2014vnxu   0.06168
gfz2014vpus   0.26030
gfz2014vqqa  -0.64013
gfz2014waoo  -0.38766
gfz2014watn  -0.40728
gfz2014wjko   0.87450
gfz2014wmsc  -0.19575
gfz2014wqcp   0.03387
gfz2014wrkh   0.70881
gfz2014wsjh   0.71555
gfz2014wwib  -0.87788
gfz2014xhwk  -0.11634
gfz2014xjri  -0.83926
gfz2014xkdg  -0.33871
gfz2014xmnp   0.50032
gfz2014xoji  -0.64588
gfz2014xqby  -0.58289
gfz2014yazi  -0.43148
gfz2014yhhm  -0.25612
gfz2014ynhc  -0.17955
gfz2014yppv  -0.33386
gfz2014yrug   0.31508
gfz2014yula  -0.68560
gfz2014yyiy   0.04908
gfz2014zcgo   0.24261
gfz2014zdtl  -0.19450
gfz2014zkys   0.17758
gfz2015abpw   2.37650
gfz2015aide  -0.40248
gfz2015ansu   0.56622
gfz2015aqav   0.57793
gfz2015aqbq   0.31806
gfz2015arpd  -0.22295
gfz2015aruz  -0.48539
gfz2015atxv   0.94334
gfz2015aush   0.12063
gfz2015azzp  -0.20851
gfz2015bavu   1.55840
gfz2015bdyd   0.20581
gfz2015berb   0.89698
gfz2015bfjm   2.01330
gfz2015bfzt   0.20205
gfz2015bnho   0.80987
gfz2015bphe   0.07350
gfz2015bpxl  -0.11102
gfz2015bucr   0.00000
gfz2015bvsj   0.36711
gfz2015bvxx   0.65026
gfz2015byjd  -0.77628
gfz2015bzej   1.51850
gfz2015chqn   0.03264
gfz2015cyjd   0.03835
gfz2015dizn  -0.40500
gfz2015drlk  -0.39910
gfz2015dskr   1.06650
gfz2015ednc   0.55719
gfz2015eezy   0.10350
gfz2015egbk   0.06889
gfz2015egxq   0.46735
gfz2015ehou   0.04485
gfz2015ehpz  -1.34410
gfz2015elgy  -0.05511
gfz2015eljz   1.32240
gfz2015emcg   0.44209
gfz2015emtg  -0.36413
gfz2015evpl   1.68510
gfz2015fbbk  -0.04422
gfz2015fbew   0.21667
gfz2015fcua  -0.35471
gfz2015fdpr  -0.57927
gfz2015fkbc   0.06139
gfz2015fkgt  -0.56191
gfz2015fkic   0.73426
gfz2015fkjs   3.41910
gfz2015fxbv  -0.04807
gfz2015fxdi   3.31620
gfz2015gckd  -0.13092
gfz2015gkwa   0.33158
gfz2015gmgf   0.15644
gfz2015gnmy   0.38975
gfz2015hgbk  -0.41116
gfz2015hlfq  -0.16369
gfz2015hpmk   0.29233
gfz2015hslo  -0.04938
gfz2015hvgs   0.36672
gfz2015hwkv   0.53736
gfz2015hwzw  -0.01954
gfz2015iele  -0.24291
gfz2015igsy   0.18755
gfz2015ijmh   1.75960
gfz2015imty   0.16658
gfz2015imyp   1.61870
gfz2015ixyy   0.91179
gfz2015jmlu   0.25400
gfz2015jxbx  -0.40549
gfz2015kkqb  -0.36295
gfz2015kphk  -0.17315
gfz2015lcma  -1.21510
gfz2015lcuo  -0.26823
gfz2015lfma  -0.40210
gfz2015lfos  -0.32624
gfz2015lfud   0.03845
gfz2015ltii   0.14309
gfz2015ltro  -0.43593
gfz2015lytv   0.79253
gfz2015mhym   0.80873
gfz2015micz   0.42872
gfz2015mpte   1.51370
