# Nsamples: 14  MAD:  0.432  mean: -0.324  variance:  0.532
gfz2010bxxs  -0.13563
gfz2010grjd  -1.65340
gfz2010nmpc  -0.68195
gfz2010usho   0.12923
gfz2011enva  -0.53864
gfz2011hlsa   1.32060
gfz2012enno   0.06842
gfz2012teic  -0.63907
gfz2012vrgb  -0.34601
gfz2014gkqf  -1.74180
gfz2014jjhc  -0.13869
gfz2014nqfm  -0.07127
gfz2014qqhm   0.10357
gfz2014ubwn  -0.21116
