# Nsamples: 60  MAD:  0.780  mean:  0.069  variance:  0.956
gfz2010bxxs  -0.51411
gfz2010cqwl  -1.25920
gfz2010eaoy  -0.93388
gfz2010eisx  -0.74879
gfz2010eltf  -0.60502
gfz2010elyc   0.10071
gfz2010excp   0.38356
gfz2010exdd   0.50891
gfz2010grjd   0.00523
gfz2010hrkr   3.27500
gfz2010iull  -0.27466
gfz2010nmpc  -0.26723
gfz2010rqwj   0.95789
gfz2010usho   0.50113
gfz2011enva   1.16670
gfz2011gkzt   1.02790
gfz2011jplh  -0.20287
gfz2011lcxq   0.50380
gfz2011lzwj  -0.60708
gfz2011owvz   3.34180
gfz2011rewa  -0.83363
gfz2011toub  -0.39342
gfz2011wxfs  -0.18617
gfz2012jlox  -0.06008
gfz2012kkup   0.33044
gfz2012kudo  -0.25139
gfz2012ldxg   1.96130
gfz2012ttoa   1.32770
gfz2012wypz  -0.09312
gfz2013drxz  -0.23580
gfz2013nkgj   0.28114
gfz2013nwdi  -0.93935
gfz2013qmer  -1.58640
gfz2013svci   0.31549
gfz2013vjjc   0.45951
gfz2014fgvi   0.01809
gfz2014fhla  -0.74587
gfz2014ftka  -0.91324
gfz2014gkgf   1.42970
gfz2014gmge   0.37767
gfz2014gmhr   2.52970
gfz2014hqxs  -0.55051
gfz2014madw  -0.67092
gfz2014nqfm  -0.02303
gfz2014nrie   0.50972
gfz2014qqhm   0.09173
gfz2014ssvz   0.23602
gfz2015cyjd   0.50355
gfz2015fsjj   0.13971
gfz2015kxxs  -0.41847
gfz2015lytv  -1.34400
gfz2015mpte   0.07544
gfz2015sfdd  -0.63919
gfz2015sldx  -0.24866
gfz2015smym  -0.94868
gfz2015snwh  -0.88004
gfz2015soxc   0.32309
gfz2015svwm  -1.06790
gfz2015taml   0.11949
gfz2015tiyc  -0.21134
