# Nsamples: 59  MAD:  0.435  mean:  0.081  variance:  0.546
gfz2010ebhc  -0.46987
gfz2010fync   1.85380
gfz2010iull  -0.36266
gfz2010mkuu  -1.37350
gfz2010nmpc  -1.04010
gfz2010nwef   0.29084
gfz2010usho  -0.23065
gfz2011aatr  -0.01417
gfz2011dpqx  -1.32230
gfz2011enva  -0.29825
gfz2011gkzt  -0.80745
gfz2011hlqw  -0.00487
gfz2011hlsa  -0.23921
gfz2011jplh  -0.03574
gfz2011lcxq  -0.07041
gfz2011lzwj   0.01455
gfz2011mdie   0.27352
gfz2011owvz   1.86470
gfz2011rewa   0.33649
gfz2011toub   0.21801
gfz2011vhfi   1.31840
gfz2011wxfs  -0.44221
gfz2011xyxj   0.28742
gfz2012enno   0.04840
gfz2012jlox  -0.00468
gfz2012kkup  -0.07025
gfz2012klhx  -0.31635
gfz2012kuct  -0.43289
gfz2012kudo   0.01006
gfz2012ldxg   0.36426
gfz2012ldzj  -0.16451
gfz2012vrgb  -0.18330
gfz2012wypz  -0.08795
gfz2013ccnr   0.32482
gfz2013drxz   0.17378
gfz2013jkut   0.13989
gfz2013mwbh   0.39063
gfz2013nkgj   1.06470
gfz2013nwdi  -1.05860
gfz2013pfbx  -0.71693
gfz2013xsdt  -0.09700
gfz2014ande  -0.35524
gfz2014bwue  -0.16394
gfz2014fhla   2.40620
gfz2014gkqf  -0.26352
gfz2014gull   2.33950
gfz2014hasj   0.60668
gfz2014lgqn  -0.17263
gfz2014lyhk  -0.02848
gfz2014nqfm   0.17645
gfz2014oinz  -0.79109
gfz2014qqhm   0.36744
gfz2014ssvz   0.25794
gfz2014vjoz  -0.45260
gfz2015kxxs   0.07922
gfz2015lhjy   0.19922
gfz2015mpte   0.22446
gfz2015smym   0.45093
gfz2015taml   0.75787
