# Nsamples: 58  MAD:  0.582  mean:  0.088  variance:  1.089
gfz2010bxxs  -0.57326
gfz2010cqwl   0.23830
gfz2010grjd  -1.65780
gfz2010iull  -0.19168
gfz2010jucj  -2.42610
gfz2010nmpc  -0.28216
gfz2011aatr  -0.10541
gfz2011enva  -0.39707
gfz2011hlqw   0.27531
gfz2011hlsa  -0.15735
gfz2011lcxq  -0.26655
gfz2011lzwj  -0.32937
gfz2011rewa   0.00000
gfz2011toub  -0.37012
gfz2011wxfs  -0.25234
gfz2012ilxh   2.72880
gfz2012kkup  -0.33650
gfz2012klhx  -0.53926
gfz2012kuct  -1.38120
gfz2012kudo  -0.33623
gfz2012teic  -0.11630
gfz2012vrgb  -0.30148
gfz2012wypz  -0.04000
gfz2013ccnr   1.09950
gfz2013drxz  -0.36850
gfz2013nwdi  -0.67717
gfz2013svci   0.17722
gfz2014fgvi   0.14565
gfz2014fhla  -0.95156
gfz2014ftka  -0.75256
gfz2014gkgf   1.59450
gfz2014gkqf   0.18267
gfz2014gmge   0.43148
gfz2014gmhr   2.04200
gfz2014gmnb   0.81408
gfz2014goba   1.38450
gfz2014hasj  -0.82525
gfz2014hqxs   1.71280
gfz2014jjhc   0.46570
gfz2014lkyf  -3.06660
gfz2014lxnc   0.16901
gfz2014ncub   0.46302
gfz2014nqfm  -0.01610
gfz2015cxrc   0.28774
gfz2015cyjd   1.32410
gfz2015fsjj  -0.22761
gfz2015fwkq  -0.46768
gfz2015lhjy  -0.23497
gfz2015sfdd   1.03730
gfz2015sfdy  -0.25339
gfz2015sfno   1.65990
gfz2015smym  -0.30214
gfz2015snwh  -0.57958
gfz2015soxc   0.76507
gfz2015sspn   2.97570
gfz2015svwm   0.13984
gfz2015taml   1.07820
gfz2015tiyc   0.66787
