# Nsamples: 105  MAD:  0.466  mean:  0.140  variance:  0.581
gfz2010bjeb   0.18722
gfz2010bxxs   0.08099
gfz2010cqwl   0.11858
gfz2010ebhc  -0.60256
gfz2010eruy   1.85040
gfz2010grjd  -1.12630
gfz2010gyqp   1.16800
gfz2010iull   0.13916
gfz2010lluj  -0.32273
gfz2010mkuu   0.15517
gfz2010nmpc  -0.08342
gfz2010pbdz   0.69432
gfz2010sysw   1.30530
gfz2010usho   1.15170
gfz2011aatr   0.46238
gfz2011bgrp   0.74343
gfz2011cfae   0.96673
gfz2011dpqx   0.12669
gfz2011enva   0.29492
gfz2011gkzt   0.78295
gfz2011hlqw  -0.13454
gfz2011hlsa  -0.03231
gfz2011hlth   0.10857
gfz2011jplh   0.17004
gfz2011lcxq   0.46296
gfz2011lzwj   0.14499
gfz2011rewa   0.19897
gfz2011toub   0.23798
gfz2012jlox   0.47836
gfz2012kkup   0.19002
gfz2012klhx  -0.00000
gfz2012kuct  -0.94916
gfz2012kudo   0.03281
gfz2012ldxg   0.79295
gfz2012ldzj   0.08853
gfz2012sphd   0.23746
gfz2012teic   0.75391
gfz2012ttoa   0.49908
gfz2012vrgb  -0.19770
gfz2012wypz   0.04547
gfz2013ccnr   1.00920
gfz2013drxz   0.36271
gfz2013ifpq  -0.17759
gfz2013jkut   0.63544
gfz2013kdeo   0.25062
gfz2013nkgj   1.02340
gfz2013pfbx  -0.43836
gfz2014afmx   0.45684
gfz2014ande  -0.16923
gfz2014bwue  -0.57298
gfz2014fhdw   0.27327
gfz2014fhla  -0.67446
gfz2014fhwx  -2.00280
gfz2014fimn  -0.14499
gfz2014fkmr   0.22558
gfz2014frez   0.20640
gfz2014ftka   1.45760
gfz2014ftoc   0.91519
gfz2014fusj   0.45530
gfz2014fval   0.60510
gfz2014gbcz   0.60394
gfz2014gkhy  -0.70201
gfz2014gkjt   0.50289
gfz2014gkqf   0.27283
gfz2014gkqu  -4.06890
gfz2014gktq  -0.72931
gfz2014gltx   0.12209
gfz2014gmge   0.43836
gfz2014gmnb  -0.28653
gfz2014gmnw  -2.65030
gfz2014goba  -0.17951
gfz2014goqw   0.30298
gfz2014gqer   1.07380
gfz2014gull   0.37208
gfz2014gxxo   0.98480
gfz2014hagb   0.48795
gfz2014hasj   0.11064
gfz2014hfhl  -0.40318
gfz2014hjgr   0.24929
gfz2014hocg  -0.00899
gfz2014hqxs   0.50467
gfz2014huaj  -0.41619
gfz2014jjhc   0.21561
gfz2014jpep  -0.07202
gfz2014lgqn   0.72929
gfz2014lxnc   0.43000
gfz2014lyhk  -0.38545
gfz2014macx   0.26707
gfz2014nqfm   0.04371
gfz2014oinz  -0.13952
gfz2014pvch   0.18828
gfz2014qlxd   0.18158
gfz2014qqhm   0.60125
gfz2014rdsn   0.85501
gfz2014ssvz  -0.19694
gfz2014ubwn  -0.74809
gfz2014vjoz   0.16559
gfz2015berb  -0.00946
gfz2015chhn   0.68844
gfz2015hgbk  -1.38130
gfz2015jzcv  -0.00000
gfz2015kvwz   1.03310
gfz2015lhjy   0.23627
gfz2015mpte   0.72705
gfz2015okmq  -0.17728
