# Nsamples: 392  MAD:  0.848  mean: -0.036  variance:  1.265
gfz2010aerk  -1.55130
gfz2010ahqi  -0.53956
gfz2010bfzs   0.68132
gfz2010bhhq   2.53460
gfz2010bifb  -1.27480
gfz2010bjeb   0.45018
gfz2010bxxs  -0.11401
gfz2010caft  -0.19952
gfz2010chnv   0.18101
gfz2010civi   0.05285
gfz2010ckeu   3.51200
gfz2010cqwl  -0.42732
gfz2010cres  -1.73710
gfz2010czps  -0.10370
gfz2010dejx   0.21153
gfz2010dlgc  -1.63290
gfz2010eaoy   0.72057
gfz2010eapk  -0.09347
gfz2010eapn   0.09722
gfz2010eaqe   1.12300
gfz2010eaqx  -1.15650
gfz2010eaqy   1.43290
gfz2010earq  -0.38203
gfz2010earu   1.02050
gfz2010easf  -1.33000
gfz2010eask  -1.32830
gfz2010easo  -0.10677
gfz2010easu  -0.32841
gfz2010eato  -1.01450
gfz2010eaty   1.85400
gfz2010eaul   0.05713
gfz2010eavs   0.88653
gfz2010eawb  -0.04409
gfz2010eawu  -0.35768
gfz2010eaxa   0.59149
gfz2010eaxn   1.99120
gfz2010eaya  -0.23955
gfz2010eayd  -0.42358
gfz2010eaze   0.26580
gfz2010eazu  -1.29920
gfz2010ebbd  -2.61760
gfz2010ebbx   0.28966
gfz2010ebdl  -0.33067
gfz2010ebfa   0.57204
gfz2010ebhc  -0.27491
gfz2010ebih   1.49270
gfz2010ebjy  -0.18532
gfz2010ebkj   0.00000
gfz2010ebla  -0.56052
gfz2010ebll   1.11540
gfz2010ebnn   0.26534
gfz2010ebvm  -0.57669
gfz2010ebvv  -0.51644
gfz2010ebwp  -0.06265
gfz2010ebxl   0.21311
gfz2010ebzk  -0.71226
gfz2010ebzr   2.06240
gfz2010ecay   1.33300
gfz2010ecua  -1.61490
gfz2010ecuv   0.60193
gfz2010edbz   0.03275
gfz2010edvf  -0.65183
gfz2010edyi   4.57220
gfz2010eegn   0.72440
gfz2010eeij   0.06794
gfz2010eerh  -1.06980
gfz2010eevu  -0.73254
gfz2010ehft  -0.59916
gfz2010ehnm  -0.24319
gfz2010eisx   0.22090
gfz2010ejjg  -0.50030
gfz2010ekyc  -2.50110
gfz2010elhv   1.15140
gfz2010eltf  -0.70122
gfz2010elyc  -1.37310
gfz2010erda  -2.14720
gfz2010erkn  -0.19598
gfz2010erom   0.73641
gfz2010eruy  -1.12850
gfz2010eujm   3.43260
gfz2010excp  -0.00617
gfz2010exdd  -1.09970
gfz2010exdl  -0.89233
gfz2010exno   1.89120
gfz2010ezax  -0.64771
gfz2010ezck  -0.00170
gfz2010ezwz   0.80754
gfz2010ezxd  -0.86861
gfz2010fedq  -0.02013
gfz2010ffhq  -1.28010
gfz2010ffjb   1.31710
gfz2010flha  -1.32580
gfz2010fpqy  -0.24424
gfz2010fync  -0.63334
gfz2010gcrl  -0.53504
gfz2010gcrp  -1.84780
gfz2010gdld  -0.11498
gfz2010glxl   0.18860
gfz2010grjd  -1.21790
gfz2010grss  -0.79242
gfz2010gyqp   0.78036
gfz2010hlmq   1.30160
gfz2010homc  -1.58740
gfz2010hxgv  -0.28326
gfz2010iobp   0.28611
gfz2010irvf   0.55532
gfz2010iull  -0.80355
gfz2010mkuu  -1.56700
gfz2010moyw   0.63564
gfz2010mpuy  -0.12735
gfz2010nmpc  -0.29623
gfz2010nnny  -1.58840
gfz2010nqwo  -0.19841
gfz2010ntuo  -0.40452
gfz2010nwef  -2.57180
gfz2010nxsy  -1.20770
gfz2010odpb  -1.35720
gfz2010onma  -0.84555
gfz2010pcxi  -0.48881
gfz2010pxgh  -3.92860
gfz2010qitd  -0.41886
gfz2010qkat  -0.57558
gfz2010qpvi  -2.53470
gfz2010rkfp  -1.07970
gfz2010rqwj   0.54079
gfz2010sfee   0.29367
gfz2010skqo  -0.28725
gfz2010srdb   0.48487
gfz2010upfb   1.07030
gfz2010usho  -0.28322
gfz2010vbmd  -1.05490
gfz2010vyxd  -0.07849
gfz2010yosr  -0.48231
gfz2010yvwz   1.36570
gfz2011aatr   0.25033
gfz2011adjs   0.69092
gfz2011cykd   0.47370
gfz2011dbig  -0.21285
gfz2011dcqb   2.21860
gfz2011dcqf  -0.34351
gfz2011dpaa   0.41774
gfz2011dpqx  -1.43550
gfz2011eayc  -0.33815
gfz2011efgv  -0.50875
gfz2011enva   0.38376
gfz2011etje   0.67870
gfz2011flgj   0.11976
gfz2011gbmx  -0.17679
gfz2011gkzt   0.45190
gfz2011hlqw   1.11470
gfz2011hlsa  -0.00899
gfz2011hrhe  -0.00713
gfz2011jplh  -0.59354
gfz2011kxzp  -0.58062
gfz2011lcxq  -0.33540
gfz2011lzwj  -0.93942
gfz2011mdie  -0.69152
gfz2011mjom  -0.63066
gfz2011nmnq   0.01742
gfz2011ntkh  -1.42090
gfz2011nudm  -1.07580
gfz2011orgn   0.82213
gfz2011ornx   0.48114
gfz2011owvz  -0.69718
gfz2011ptus   1.71230
gfz2011qyms   0.23180
gfz2011rewa  -0.12655
gfz2011rgwp   2.27890
gfz2011rqui   0.36674
gfz2011sagt   0.73396
gfz2011tkog   0.06447
gfz2011toub  -1.07630
gfz2011tpfr   0.17105
gfz2011ueni  -0.18443
gfz2011ujze   0.37621
gfz2011uphh   0.39922
gfz2011vhfi  -1.93940
gfz2011vkun   2.73410
gfz2011vrhg  -1.99720
gfz2011vxns  -3.98300
gfz2011wwjs  -1.11890
gfz2011wxfs   1.24280
gfz2011wxoj   2.88390
gfz2011wxtk  -0.10710
gfz2011xaan   0.10494
gfz2011xyxj  -0.33653
gfz2011yybo   0.02724
gfz2012aqtq   1.22610
gfz2012bpkx  -0.42994
gfz2012byad  -0.42908
gfz2012deri  -0.81645
gfz2012dinb  -0.21947
gfz2012enno  -0.17376
gfz2012fzfa  -0.74553
gfz2012gnvh  -0.00000
gfz2012gomm   1.12380
gfz2012gwqb  -0.53818
gfz2012hnul  -1.13170
gfz2012hwyo  -0.95757
gfz2012jgvj   0.79929
gfz2012jlox  -1.25850
gfz2012kkup  -0.31530
gfz2012klba  -0.67345
gfz2012klhx  -0.61439
gfz2012kudo   0.36722
gfz2012kwgo   2.33270
gfz2012ldzj   2.00990
gfz2012lxkv   0.72855
gfz2012lzmr  -1.30940
gfz2012minr  -0.53263
gfz2012mvwr  -0.63377
gfz2012nqnk  -0.33159
gfz2012oazn  -1.55820
gfz2012omvo   3.50680
gfz2012pofl   0.87358
gfz2012poju  -0.35605
gfz2012royy  -0.07120
gfz2012rqlg  -0.61849
gfz2012ruks  -0.49763
gfz2012rwov  -0.25185
gfz2012sphd  -0.19561
gfz2012syvl  -1.28470
gfz2012teic   1.52300
gfz2012thfx  -1.27870
gfz2012ttoa  -2.27710
gfz2012uafg   0.71962
gfz2012uaqj   0.18072
gfz2012uhup   0.44354
gfz2012uqzp  -0.51476
gfz2012vrgb  -2.00520
gfz2012vrua  -0.55309
gfz2012vsev  -0.90798
gfz2012wxlg   1.18930
gfz2012wybs  -0.33748
gfz2012wypz   0.07031
gfz2012zjpv   2.25700
gfz2013ccnr   1.69570
gfz2013drxz  -0.06014
gfz2013iunn  -1.53310
gfz2013jgij   3.55870
gfz2013jgip   1.45840
gfz2013jusj   0.35272
gfz2013kdeo  -0.18200
gfz2013ldqb  -0.45852
gfz2013mqmv  -1.02790
gfz2013mwbh   1.16330
gfz2013ncjp   0.93359
gfz2013neuc  -0.64695
gfz2013nkgj   0.26224
gfz2013nqgw  -1.32190
gfz2013nwdi  -0.54195
gfz2013pffm  -0.21512
gfz2013qcck   1.36860
gfz2013qmer   0.09803
gfz2013suvn   1.39630
gfz2013svci  -2.12790
gfz2013toea   1.81590
gfz2013toxf  -1.44590
gfz2013tusd  -1.32920
gfz2013tvmw  -0.36338
gfz2013vfyw  -0.45177
gfz2013vfzp   2.07870
gfz2013vgrk   1.01800
gfz2013vjjc   1.15720
gfz2013vpnf  -0.22898
gfz2013wjmm  -0.12485
gfz2013woze   1.28360
gfz2013xmul  -1.42280
gfz2013xsdt  -2.01160
gfz2013yqkv  -0.91763
gfz2014abgd  -0.35474
gfz2014afmx  -1.92290
gfz2014arpf  -0.66245
gfz2014bwue   1.02220
gfz2014cgog  -0.52519
gfz2014czqi  -0.21446
gfz2014czua  -0.43970
gfz2014femz  -0.89287
gfz2014fgvi  -1.34680
gfz2014fhla   0.37141
gfz2014fkmx   3.74060
gfz2014frdz  -0.03979
gfz2014frel   2.20270
gfz2014ftka  -1.36330
gfz2014furx  -0.23407
gfz2014fval   0.14280
gfz2014fvrg  -2.20560
gfz2014gbcz   1.46060
gfz2014ghpe  -0.26148
gfz2014gkgf  -1.35260
gfz2014gkgs   1.70700
gfz2014gkqf  -1.03010
gfz2014gmge  -0.56033
gfz2014gmhr   0.33608
gfz2014gmnb  -0.58384
gfz2014gmnw  -1.21710
gfz2014gmuw  -0.51055
gfz2014goba  -0.42602
gfz2014gori   0.69498
gfz2014gqbj   0.11327
gfz2014gull  -1.30340
gfz2014gxvf   1.82340
gfz2014hasj   0.07036
gfz2014hcmj  -0.18344
gfz2014hfhl  -1.20190
gfz2014hgqo  -0.03742
gfz2014hocg   0.75831
gfz2014ilwu   0.32883
gfz2014inbj  -0.42677
gfz2014jatq   1.70500
gfz2014jjhc   0.40911
gfz2014jnyv  -0.05809
gfz2014jpep  -0.97896
gfz2014jwmh   0.31745
gfz2014lnmw   0.65480
gfz2014lxnc   0.45182
gfz2014macx   0.27001
gfz2014npeo   0.43180
gfz2014nqfm   1.08890
gfz2014oinz  -0.42161
gfz2014pvch  -0.02110
gfz2014qlxd  -0.07347
gfz2014qngj  -1.29060
gfz2014raau   1.26820
gfz2014ryfb   0.23044
gfz2014ssvz  -0.21984
gfz2014szzf  -0.30397
gfz2014tovs   1.17100
gfz2014tqdo   0.07088
gfz2014tzsd   1.52230
gfz2014watn   0.00000
gfz2015apnk   0.20250
gfz2015aruz  -0.07875
gfz2015bucr  -1.26280
gfz2015chhn  -0.15493
gfz2015cxxk   0.65992
gfz2015cyjd   0.12542
gfz2015etai  -0.25110
gfz2015fjhk  -1.25520
gfz2015fkgt  -0.77904
gfz2015fkic   1.28430
gfz2015fsjj  -0.19136
gfz2015gckd   0.60712
gfz2015ggjw   0.03277
gfz2015hgbk  -0.40595
gfz2015hpmk   0.01274
gfz2015kfsu   1.11300
gfz2015lhjy   1.00140
gfz2015lytv  -0.71463
gfz2015nwug  -0.45398
gfz2015oyfl  -0.39504
gfz2015qnho  -0.86898
gfz2015qpvd  -0.03462
gfz2015rddx   0.55301
gfz2015sfdd   0.06184
gfz2015sfdy   0.14756
gfz2015sflf  -0.54657
gfz2015sfnb   1.28840
gfz2015sfnv   0.10219
gfz2015sfzm   0.30950
gfz2015sgad  -0.73488
gfz2015sgdn   1.16560
gfz2015sglg   0.37502
gfz2015sgmm  -0.87617
gfz2015sgmr   1.73990
gfz2015shsz   2.84220
gfz2015siyy   2.15600
gfz2015sjgk  -0.68789
gfz2015sjne   1.23850
gfz2015sjoj  -0.22724
gfz2015skpv  -0.00496
gfz2015slun   0.74864
gfz2015smym  -0.17766
gfz2015snsf  -0.65657
gfz2015snwh  -0.17767
gfz2015snyd  -0.26676
gfz2015soat   0.19750
gfz2015soxc   1.04160
gfz2015ssoe   1.01740
gfz2015stfy   0.30641
gfz2015stso   0.65170
gfz2015subz  -0.31254
gfz2015svjy   0.87355
gfz2015svwm  -0.12436
gfz2015szfq  -0.48929
gfz2015taml  -0.12412
gfz2015thgp  -1.97910
gfz2015tiyc  -0.18972
gfz2015tkol  -0.78773
gfz2015tlok   0.64162
gfz2015tnjd  -0.64959
gfz2015tsdm   0.55392
