# Nsamples: 950  MAD:  0.765  mean:  0.042  variance:  0.925
gfz2010wnty  -1.67740
gfz2010wofs   1.83060
gfz2010wrxx   1.53710
gfz2010wxqa  -1.55910
gfz2010xbcr   0.17913
gfz2010xbdv  -3.07350
gfz2010xcdh   1.88220
gfz2010xden  -0.01912
gfz2010xgzw  -0.16991
gfz2010yfsv   0.86317
gfz2010yjev  -0.45191
gfz2010ymfy  -1.16470
gfz2010ymur   0.87087
gfz2010yosr   0.31714
gfz2010yqqv   0.19323
gfz2010zdpo  -0.78305
gfz2011aatr   0.42694
gfz2011adjs   0.61853
gfz2011adlj   1.15190
gfz2011adpw  -0.14349
gfz2011adqk   0.40442
gfz2011ahfw  -0.90481
gfz2011aldv  -0.08738
gfz2011alip   0.56917
gfz2011alsa  -0.31868
gfz2011anur   0.87215
gfz2011aosc   0.33526
gfz2011aqxf  -0.48950
gfz2011asru   0.31195
gfz2011bgrp  -0.00578
gfz2011bhha   1.13320
gfz2011blsi   1.27880
gfz2011bnsg   0.24148
gfz2011bpkd   2.61000
gfz2011bswz   0.58943
gfz2011cndo   0.25271
gfz2011crdy  -0.71132
gfz2011csju   0.72584
gfz2011ctbn   2.22440
gfz2011cvfg   0.30759
gfz2011cwgn   0.93172
gfz2011cykd   0.71628
gfz2011cylz  -0.35507
gfz2011cynl  -0.23171
gfz2011cyre   0.73820
gfz2011cyuk   0.75993
gfz2011czwj   1.47380
gfz2011dbev  -0.00000
gfz2011dbig  -0.31689
gfz2011dbli   1.94420
gfz2011dbon  -0.49246
gfz2011dbwt   0.13482
gfz2011dcqb   1.84280
gfz2011dcqf   0.71562
gfz2011ddao   1.30890
gfz2011dddh  -0.51458
gfz2011deaf  -0.86672
gfz2011dkyi   0.42280
gfz2011dllz   0.00000
gfz2011dlyx  -0.48441
gfz2011dmat   1.32390
gfz2011dndz  -0.01536
gfz2011dpaa  -0.66908
gfz2011dpmx  -0.39196
gfz2011dpqx   2.53920
gfz2011duyr   0.08571
gfz2011eayc   0.07326
gfz2011eazf   0.45033
gfz2011ecaj  -0.59944
gfz2011edmm  -1.36200
gfz2011eiis  -0.60274
gfz2011ekpr   1.21200
gfz2011eltw   0.22320
gfz2011enva  -0.52848
gfz2011etje   0.00112
gfz2011fdzv   0.10216
gfz2011fgvr  -0.61400
gfz2011fhag   0.21055
gfz2011fhbm  -0.14793
gfz2011fhur   0.77468
gfz2011fkbn  -0.99905
gfz2011flgj  -0.29965
gfz2011flhp   0.50507
gfz2011fnsw   0.48673
gfz2011gbmx  -0.16984
gfz2011gcwb  -0.52418
gfz2011gdgh  -0.27801
gfz2011ggvf   0.93615
gfz2011gjlx   0.25247
gfz2011gkey   0.49597
gfz2011gkzt  -2.08360
gfz2011haid   0.27824
gfz2011hbex  -1.02860
gfz2011hbqk  -0.30854
gfz2011hebt  -0.42125
gfz2011hfkj  -0.28748
gfz2011hlqw  -1.19860
gfz2011hlsa  -0.24825
gfz2011hlth  -0.64445
gfz2011hpgx  -0.55699
gfz2011hpqp  -0.43816
gfz2011hrhe  -0.10183
gfz2011hryk   0.64481
gfz2011hvbu  -0.33849
gfz2011icxe  -0.58515
gfz2011ieie   0.57713
gfz2011iwte  -0.50568
gfz2011izqa   0.50268
gfz2011jdsj   0.40523
gfz2011jghb   0.99773
gfz2011jplh  -0.55446
gfz2011jtlg   1.38280
gfz2011knoo  -0.06804
gfz2011kqwo   0.69188
gfz2011kqyg  -0.17574
gfz2011kxzp   0.48405
gfz2011lcxq  -1.07900
gfz2011lczg   1.44390
gfz2011lgsg  -1.71180
gfz2011lhls   1.43860
gfz2011lzwj   0.30564
gfz2011mdie  -0.48354
gfz2011mjom   0.60488
gfz2011mllx  -0.19672
gfz2011mpme   0.32348
gfz2011mprq   1.53810
gfz2011nauw   0.52498
gfz2011necz  -0.24739
gfz2011nmnq  -0.63844
gfz2011nmqj   0.45622
gfz2011noud  -0.48664
gfz2011nowp  -0.52354
gfz2011nqpd  -0.15280
gfz2011nrwc  -0.12897
gfz2011nsex   1.09540
gfz2011ntkh  -0.13947
gfz2011nudm  -1.45680
gfz2011ohcy   0.61865
gfz2011oiqe   0.10052
gfz2011oiwk  -0.10490
gfz2011olkk  -0.92317
gfz2011orgn  -0.34144
gfz2011ornx  -0.65653
gfz2011owvz  -0.65730
gfz2011pccd   1.36020
gfz2011pdpt  -0.16792
gfz2011phms   0.97154
gfz2011ptus   1.56780
gfz2011qoif   2.38130
gfz2011qvae  -0.43377
gfz2011rewa   0.16379
gfz2011rgwp   0.94446
gfz2011rnut   1.08930
gfz2011rqui  -0.00970
gfz2011rsrh  -0.75679
gfz2011rznl   0.46571
gfz2011sagt  -0.38187
gfz2011sawg  -0.92162
gfz2011shqm   0.38100
gfz2011tbas   0.19697
gfz2011tcij   0.41712
gfz2011tivu  -1.93860
gfz2011tjrf  -0.59877
gfz2011tjue  -0.19292
gfz2011tkog   0.47247
gfz2011toub   0.09131
gfz2011tpbl   0.59754
gfz2011tpfr  -0.82339
gfz2011ueni   0.64435
gfz2011uepx   3.68370
gfz2011ugzz  -0.21487
gfz2011ujze   0.35925
gfz2011ukmp   0.39721
gfz2011uphh   0.57528
gfz2011vhfi   0.10002
gfz2011vnza  -0.99777
gfz2011vqrj   1.54010
gfz2011vrhg  -2.86200
gfz2011vxns  -1.09300
gfz2011vxod   0.32427
gfz2011wcic  -1.13860
gfz2011wfja  -1.08870
gfz2011wwjs  -0.84349
gfz2011wxfs  -0.17275
gfz2011wxtk  -0.11652
gfz2011xesx  -0.80454
gfz2012bfah  -0.87610
gfz2012bfyn   0.91139
gfz2012bpkx  -0.50418
gfz2012bpwl  -0.61646
gfz2012byad  -0.16469
gfz2012cbed  -0.43510
gfz2012cgvr  -1.18450
gfz2012cmfy  -1.07490
gfz2012cnod   0.05409
gfz2012covm   0.29733
gfz2012cxdn  -0.40698
gfz2012czlw  -2.22160
gfz2012dimn   0.91371
gfz2012dinb   0.23171
gfz2012divk  -0.24026
gfz2012dyyh  -0.15666
gfz2012ekda   0.75829
gfz2012ekzf  -0.55253
gfz2012elce  -1.43070
gfz2012emjg  -1.39150
gfz2012enno  -0.68914
gfz2012ewgo  -0.81221
gfz2012ezvr   0.18514
gfz2012fbfo  -0.28183
gfz2012fivh  -0.97461
gfz2012foeo  -0.96735
gfz2012fwfo   0.49668
gfz2012fwob   0.29111
gfz2012fwtr   0.62556
gfz2012fzfa   0.89178
gfz2012fzsq   0.60239
gfz2012gill   0.02439
gfz2012gkvr  -0.30572
gfz2012glss   0.29243
gfz2012gocc   0.39696
gfz2012gwqb   0.21964
gfz2012hdbm  -0.11844
gfz2012hnul  -0.81566
gfz2012hwmz   0.95488
gfz2012hwyo   0.07107
gfz2012ihdl   0.57015
gfz2012ilvn   0.34399
gfz2012jgvj  -0.55427
gfz2012jlox  -0.71205
gfz2012jpeh   0.45219
gfz2012jpgs   0.88691
gfz2012jshk   0.90217
gfz2012jted   0.56575
gfz2012jupx  -1.32520
gfz2012jxiy  -0.43022
gfz2012kdmb   0.83274
gfz2012keor  -0.61724
gfz2012kkcp   0.48494
gfz2012kkup  -0.36105
gfz2012klhx  -0.09271
gfz2012kuct   0.32224
gfz2012kudo  -0.86594
gfz2012kvzv   0.05369
gfz2012kwgo  -1.09090
gfz2012lboz  -0.58950
gfz2012lczo   0.98073
gfz2012ldxg  -0.23948
gfz2012lpvn   1.62410
gfz2012lrol  -1.06950
gfz2012lxkv   2.14040
gfz2012lzmr   0.40667
gfz2012minr  -0.65789
gfz2012mpvy  -1.41040
gfz2012mtiu   0.91947
gfz2012mupa  -0.08878
gfz2012mvwr  -1.18570
gfz2012mwij  -1.47250
gfz2012myqa   0.15530
gfz2012naqz   0.03270
gfz2012nbtn   0.97072
gfz2012ngic  -0.28326
gfz2012nkdf   1.70700
gfz2012nsbz   0.66748
gfz2012ntzv  -1.04520
gfz2012nxog  -0.24845
gfz2012oazn  -0.39994
gfz2012obgw   0.33175
gfz2012oedb  -0.10538
gfz2012omvo  -0.82867
gfz2012ostk  -0.67351
gfz2012peki   0.41364
gfz2012pkel   0.68801
gfz2012qqxg  -0.01766
gfz2012quso   0.13546
gfz2012rats  -0.79229
gfz2012rboy   0.63783
gfz2012rknn  -0.11044
gfz2012ronz   1.80510
gfz2012royy  -0.37490
gfz2012rqlg   0.40582
gfz2012rwov   1.05420
gfz2012snhi  -2.40750
gfz2012sphd   0.75493
gfz2012sqmv   0.32992
gfz2012syvl  -0.43833
gfz2012tazz  -0.14606
gfz2012tbbp  -2.72980
gfz2012teic  -0.59548
gfz2012tmop  -1.01660
gfz2012ttoa  -1.04380
gfz2012tzgb   0.65690
gfz2012uafg   0.71795
gfz2012uaqj  -0.15534
gfz2012uciv  -2.79490
gfz2012uhup  -0.01822
gfz2012ulpd  -0.05581
gfz2012uqzp   0.19526
gfz2012usba   0.71123
gfz2012uvqf   0.08827
gfz2012uxnz  -0.21687
gfz2012uyxb   0.02934
gfz2012uzom   0.43341
gfz2012uzyj   0.45073
gfz2012vceo  -0.75469
gfz2012vdbt   0.41123
gfz2012vjgl   1.58060
gfz2012vntz   2.17450
gfz2012vrua  -0.05104
gfz2012vsev   0.91819
gfz2012vxvr  -0.49294
gfz2012wdyx  -5.49080
gfz2012wecd   1.46600
gfz2012whku   0.91186
gfz2012wizz   3.63140
gfz2012wklq  -0.99959
gfz2012wmkd  -0.08008
gfz2012wmsg   0.33937
gfz2012wpeq  -0.34034
gfz2012wtkr   0.43641
gfz2012wubh   2.65820
gfz2012wvfl   0.84824
gfz2012wxer   0.80858
gfz2012wxlg  -0.61432
gfz2012wxnu   0.50232
gfz2012wybs  -0.00563
gfz2012wypz  -0.25058
gfz2012xbjq  -1.89910
gfz2012xhci   0.08409
gfz2012xjyv  -1.48760
gfz2012xkkv  -1.57160
gfz2012xmxy  -0.60356
gfz2012xyqp  -0.08475
gfz2012xyua   0.01384
gfz2012yqjj   0.71525
gfz2012yxxu   0.70189
gfz2012zemh   0.66981
gfz2012zfag   1.08230
gfz2012ziml  -0.32297
gfz2012zitl  -0.43356
gfz2012zjpv  -0.12098
gfz2013aknp   1.22080
gfz2013apmm   3.15710
gfz2013axoj  -0.33788
gfz2013azzr  -0.17416
gfz2013bdpu  -0.20558
gfz2013bokp  -2.07260
gfz2013bouj   4.21150
gfz2013ccnr  -1.30800
gfz2013cfyy  -0.18367
gfz2013cnhh  -0.51836
gfz2013cwpn  -0.52432
gfz2013czeq  -0.21895
gfz2013dddp  -0.33948
gfz2013dkly  -1.13480
gfz2013dkmz   0.15346
gfz2013dofo  -1.40050
gfz2013dojq  -0.29910
gfz2013egni   1.47030
gfz2013egpu  -0.26224
gfz2013esnh   0.57590
gfz2013ewbo   0.94163
gfz2013fkii   1.04040
gfz2013fwxa   0.38851
gfz2013fygc   0.37206
gfz2013gcfx   0.27327
gfz2013gdnq   0.54257
gfz2013gihf  -0.51461
gfz2013gjdc   1.49230
gfz2013gngz  -1.44740
gfz2013gock  -0.08528
gfz2013hkja  -0.13700
gfz2013hpfq  -1.43110
gfz2013hsfw   0.76066
gfz2013hxcx   0.01718
gfz2013iayx   0.42160
gfz2013ifpq   0.35992
gfz2013ikgo   0.49739
gfz2013ilug  -0.46736
gfz2013iodt   0.23019
gfz2013iopd   2.96690
gfz2013iqzq  -1.38360
gfz2013jdrx   1.38850
gfz2013jesk   1.40590
gfz2013jfah  -0.15737
gfz2013jgij   0.30806
gfz2013jgip  -2.95150
gfz2013jkut  -0.18486
gfz2013jusj   1.95390
gfz2013kdeo   0.89462
gfz2013kheb   0.86666
gfz2013khli  -0.28028
gfz2013kvtk  -1.45780
gfz2013lajn   1.33180
gfz2013ldpc  -0.24500
gfz2013ldqb  -0.55765
gfz2013lfyb  -3.97010
gfz2013lixa  -0.69368
gfz2013lljw   0.31291
gfz2013lmqe   0.00365
gfz2013lwao   0.34054
gfz2013lwbk   0.44620
gfz2013lyko  -0.33795
gfz2013mqmv   1.17110
gfz2013mtqd  -1.77190
gfz2013mwbh  -0.52911
gfz2013nabl   0.00274
gfz2013ncjp  -0.23400
gfz2013ndin  -0.03121
gfz2013nixj   0.44613
gfz2013nkgj  -0.57163
gfz2013nknw   0.12905
gfz2013nnzf  -0.09458
gfz2013nojf  -0.36524
gfz2013npcg   0.02946
gfz2013nqgw   1.50900
gfz2013nskg   0.18917
gfz2013nvdj   0.34697
gfz2013nwdi  -0.21463
gfz2013pqui  -0.53793
gfz2013pxsj   0.04693
gfz2013qmer  -0.45227
gfz2013rsnr   1.71960
gfz2013sdus   0.30404
gfz2013sebq  -0.21284
gfz2013sfds   1.74150
gfz2013shzy   0.58104
gfz2013skkm   1.06290
gfz2013snbr   0.03089
gfz2013snyf  -0.54400
gfz2013sred   0.00000
gfz2013stcu   0.21620
gfz2013suvn  -0.66638
gfz2013svci  -1.55490
gfz2013syqk   0.48460
gfz2013tcbk   0.04617
gfz2013tcxc  -0.63722
gfz2013tcxq  -0.20154
gfz2013tdau  -1.52380
gfz2013tect  -1.16550
gfz2013tjlx   1.60480
gfz2013toea   0.25036
gfz2013toxf   0.83875
gfz2013ttoz   0.22082
gfz2013tusd  -0.32381
gfz2013twwf   1.42570
gfz2013txij   0.79056
gfz2013uauo   0.17862
gfz2013ufxk   0.61815
gfz2013uqsp   0.40630
gfz2013utsh  -0.18807
gfz2013uxej   1.49900
gfz2013vexx   0.84270
gfz2013vfyw   0.23605
gfz2013vfzp  -2.08820
gfz2013vgrk   0.71358
gfz2013vhnk   1.01010
gfz2013vijl  -0.65959
gfz2013viul   0.61190
gfz2013vjjc   0.73933
gfz2013vqot   0.62209
gfz2013vrmy   0.98017
gfz2013vzbo  -0.35668
gfz2013waam   0.09794
gfz2013wgeu   1.52260
gfz2013wjmm   1.16490
gfz2013wkyk   0.36992
gfz2013wrgw  -0.13709
gfz2013wuon  -0.32967
gfz2013xizq  -0.48108
gfz2013xkwt   0.05828
gfz2013xmqg  -0.22451
gfz2013xmul   0.43925
gfz2013xsdt  -1.51020
gfz2013xtwj  -0.82364
gfz2013xwda  -0.31572
gfz2013xxwv   0.08053
gfz2013xxxq  -0.07706
gfz2013xyzb   0.46716
gfz2013yctg   0.25235
gfz2013yhpk  -0.15838
gfz2013ylbx  -0.27492
gfz2013ymky  -0.54729
gfz2013ymxs   0.14108
gfz2013ynmw   0.64039
gfz2013ypdc   0.01499
gfz2013yqkv  -1.06810
gfz2014algk  -0.11449
gfz2014ande  -0.58622
gfz2014aqbk   0.17898
gfz2014arpf  -0.43208
gfz2014azqs  -0.34865
gfz2014bagd   0.16892
gfz2014bbro  -0.01337
gfz2014bdfd   0.35733
gfz2014bezu  -0.16083
gfz2014bfng  -0.32554
gfz2014bldx   0.65703
gfz2014bmta   0.20946
gfz2014bwue  -0.15707
gfz2014bzna  -0.01798
gfz2014bzxy  -0.20167
gfz2014capn   0.55314
gfz2014cbtl   0.17140
gfz2014cgog  -0.45134
gfz2014chdv  -1.51150
gfz2014claq  -0.57347
gfz2014cmwb  -0.63678
gfz2014crpy  -0.14532
gfz2014cvkm  -1.70530
gfz2014cvxx  -0.33418
gfz2014cybg  -0.48119
gfz2014czno  -0.08030
gfz2014czqi  -0.36507
gfz2014czua  -0.10446
gfz2014dffd   0.01399
gfz2014dhxt   0.27620
gfz2014edfx  -0.70010
gfz2014egwu   1.12420
gfz2014ehfp  -0.06976
gfz2014ehsf   0.83117
gfz2014ekcr  -0.57165
gfz2014ekdn   0.19597
gfz2014ekdt  -0.20187
gfz2014emzb  -0.22670
gfz2014enhi  -0.28186
gfz2014eqpl   0.00825
gfz2014etqa   0.01860
gfz2014ewrw   0.66525
gfz2014fcms  -0.57392
gfz2014fcsy  -0.06437
gfz2014femz  -0.21660
gfz2014fexu   0.74498
gfz2014ffdc  -0.48433
gfz2014fgvi  -2.80670
gfz2014fgxt   1.86520
gfz2014fgyo   1.45700
gfz2014fhdw  -0.37309
gfz2014fhla   0.40116
gfz2014fhrq   2.25120
gfz2014fhwx  -0.77596
gfz2014fimn   1.94630
gfz2014fiuj   0.31867
gfz2014fjyo   0.89922
gfz2014fjzd   0.31912
gfz2014fkmr  -0.35068
gfz2014fkmx   1.34430
gfz2014fnbh   0.11952
gfz2014fnyg   0.52589
gfz2014foio  -0.51123
gfz2014fqpz  -0.31610
gfz2014frdz   0.40321
gfz2014frel   1.81360
gfz2014frez   0.43025
gfz2014frfl   1.28980
gfz2014frwh   3.05550
gfz2014ftka  -2.23840
gfz2014ftoc   0.10029
gfz2014ftrk   1.66550
gfz2014furx  -0.76523
gfz2014fusj  -0.61864
gfz2014fuub  -0.59452
gfz2014fval  -0.68964
gfz2014fvgh  -0.92214
gfz2014fvrg  -0.86977
gfz2014fwtt   0.33679
gfz2014fwyr   0.50570
gfz2014gbcz  -1.55800
gfz2014gbdq  -1.59270
gfz2014geuy   2.53930
gfz2014gkgf  -2.37840
gfz2014gkjl   0.99959
gfz2014gkjt  -0.57252
gfz2014gkln   0.33076
gfz2014gkmm   1.49890
gfz2014gkmw  -0.32795
gfz2014gkok   0.23246
gfz2014gkpd  -0.17445
gfz2014gkpj   0.68481
gfz2014gkqf  -1.23860
gfz2014gkqu  -2.86040
gfz2014gksu   1.40730
gfz2014gktn  -0.38197
gfz2014gktq  -0.87885
gfz2014gkxm  -1.05730
gfz2014glcu  -0.55928
gfz2014glcy  -1.08600
gfz2014glgo   2.44880
gfz2014gltx   0.94396
gfz2014gmci  -0.27875
gfz2014gmge  -2.79440
gfz2014gmhp  -0.49631
gfz2014gmhr  -1.07430
gfz2014gmjo   0.04457
gfz2014gmnb  -0.26792
gfz2014gmnw   0.21442
gfz2014gmor   0.07556
gfz2014gmuw  -0.98204
gfz2014gmzs   0.97621
gfz2014gnfd   0.70736
gfz2014gnwg   0.58706
gfz2014goba  -2.29090
gfz2014goqw  -0.53267
gfz2014gori   1.33490
gfz2014gpce   1.42360
gfz2014gpuk  -0.19646
gfz2014gpya  -0.00000
gfz2014gqer  -0.31068
gfz2014gqjr   3.51270
gfz2014gqve   2.81890
gfz2014gsqs   1.08480
gfz2014gtef   0.98594
gfz2014gtwz  -0.27383
gfz2014gufl   1.35380
gfz2014gull  -0.64169
gfz2014gutm   1.35690
gfz2014gvhw   0.49256
gfz2014gvqj  -2.26290
gfz2014gvrd   0.12583
gfz2014gwab  -2.33880
gfz2014gxag   0.35826
gfz2014gxkh   0.62898
gfz2014gxxo   0.42248
gfz2014gzrm  -1.28130
gfz2014gzue  -1.19360
gfz2014hagb  -1.21250
gfz2014hasj  -1.28960
gfz2014hauo  -0.09057
gfz2014hcmj   0.12999
gfz2014heyq   0.47976
gfz2014hfhl   1.00280
gfz2014hgqo   0.09392
gfz2014hjgh  -0.17336
gfz2014hjgr  -0.36406
gfz2014hmrs  -0.10081
gfz2014hqxs  -0.09076
gfz2014hrft  -1.03890
gfz2014hriu   0.56740
gfz2014hsqo  -0.04911
gfz2014huaj  -0.96375
gfz2014ieam   1.67990
gfz2014ikun   0.29709
gfz2014iobd   0.27991
gfz2014itkw   0.41823
gfz2014iwwl  -0.07818
gfz2014ixky  -0.33848
gfz2014iywt   0.52426
gfz2014jbyg   0.87250
gfz2014jggm   1.75480
gfz2014jjln   0.09524
gfz2014jmnk  -0.07013
gfz2014jnxm  -0.62501
gfz2014jnyv   0.66183
gfz2014jpep  -0.62247
gfz2014jpxs   0.15171
gfz2014jvow   0.93577
gfz2014jwmh  -1.07100
gfz2014khlk   0.52527
gfz2014kitm  -0.04074
gfz2014kizt  -0.24351
gfz2014kjjq  -0.50330
gfz2014kndc   0.65606
gfz2014knxs  -0.35806
gfz2014ksdv   0.81880
gfz2014ksmz  -0.61322
gfz2014kwrg   0.11924
gfz2014kyan  -0.13346
gfz2014mtum  -0.42218
gfz2014mwnj   1.01670
gfz2014mwor  -0.04381
gfz2014mxkr  -1.22130
gfz2014ndue   0.97303
gfz2014ngnd   0.50569
gfz2014niqj  -0.84151
gfz2014nowp   0.75094
gfz2014npeo  -0.25685
gfz2014nphm  -0.44433
gfz2014nqfm  -1.15900
gfz2014nrie   0.79283
gfz2014obbs   0.10527
gfz2014obxm   0.36318
gfz2014odgv   1.76970
gfz2014oinz   0.03065
gfz2014osvz   0.11819
gfz2014owxc   0.54997
gfz2014oxcc   0.17057
gfz2014oyly   0.89129
gfz2014pjum   0.00000
gfz2014pkll   0.28301
gfz2014ppyi   0.57682
gfz2014ppzf  -0.22071
gfz2014pvch  -1.27040
gfz2014pzni  -0.16025
gfz2014qdog   0.42800
gfz2014qfzq   1.46030
gfz2014qjgp  -0.76892
gfz2014qlvc  -0.12105
gfz2014qlxd   0.07070
gfz2014qngj  -1.83070
gfz2014qqhm   0.10343
gfz2014raau   0.71545
gfz2014rbsl  -0.29215
gfz2014rdoz  -0.16456
gfz2014riel   1.87040
gfz2014rils   0.93418
gfz2014rkwl   0.29624
gfz2014ryfb   0.11061
gfz2014sryn  -0.04387
gfz2014ssmv   1.06550
gfz2014ssvz  -0.07842
gfz2014szzf  -0.20229
gfz2014tfgn  -0.28839
gfz2014tovs   0.07779
gfz2014tqdo  -0.11277
gfz2014tqly   1.49820
gfz2014tqsf   2.26770
gfz2014tzsd   0.86061
gfz2014uapa  -0.06646
gfz2014ubwn  -1.54170
gfz2014udgg  -0.46827
gfz2014utac   0.53554
gfz2014uuqa   0.06993
gfz2014uuuf   0.59263
gfz2014uvji  -0.05433
gfz2014uxyg   0.45110
gfz2014vcev   0.49302
gfz2014vdnh  -0.30931
gfz2014vhms  -1.06400
gfz2014watn  -0.44513
gfz2014wjko  -0.53288
gfz2014wmsc   0.06020
gfz2014wqcp   0.28841
gfz2014wwib  -0.44983
gfz2014xbyr  -0.89682
gfz2014xjri  -0.54502
gfz2014xqqd  -0.55259
gfz2014yazi   0.65969
gfz2014yhhm  -0.79254
gfz2014yrug   0.27333
gfz2014yyiy  -0.14491
gfz2014zkys   0.07115
gfz2014zplq   0.25299
gfz2015aide  -0.13158
gfz2015aqav   0.28816
gfz2015aqbq   0.67574
gfz2015aruz   0.01409
gfz2015atxv   1.31540
gfz2015aush  -0.59996
gfz2015bavu  -1.73710
gfz2015bdyd  -0.57286
gfz2015bfjm   0.55874
gfz2015bkbj  -0.76980
gfz2015bohx  -0.45264
gfz2015bphe  -0.20391
gfz2015bsnl  -0.46626
gfz2015bvsj  -0.73385
gfz2015bvxx  -0.23709
gfz2015bzej   1.36590
gfz2015cewd   0.27631
gfz2015chhn   1.27670
gfz2015chqn  -1.62360
gfz2015clrp   0.13572
gfz2015cxhx  -1.12680
gfz2015cyjd   0.49203
gfz2015drlk  -0.99671
gfz2015dskr  -0.31417
gfz2015dtqr  -0.17072
gfz2015dvbn   0.10770
gfz2015ecgq   0.91954
gfz2015eezy   0.31583
gfz2015egxq  -0.20850
gfz2015eiky  -0.89914
gfz2015elgy   0.58810
gfz2015emcg   0.10129
gfz2015emin  -0.95401
gfz2015emtg  -0.16520
gfz2015fbbk   0.82044
gfz2015fcua   1.82570
gfz2015fjhk  -0.52834
gfz2015fkgt   1.22180
gfz2015fkic   0.07683
gfz2015fkkd   0.12688
gfz2015fkuu   0.93920
gfz2015flis   0.39320
gfz2015fpez  -0.55067
gfz2015fsjj  -0.91679
gfz2015fvoi   0.76372
gfz2015fwnf   0.70219
gfz2015fxbv   0.27022
gfz2015fxdi  -0.18852
gfz2015gckd  -0.33575
gfz2015ggjw   0.62769
gfz2015gjbr  -0.42148
gfz2015gkwa   0.92642
gfz2015gmgf  -0.31001
gfz2015gnmy  -0.67009
gfz2015hdcp  -1.40990
gfz2015hepg   0.05073
gfz2015hgbk  -0.35811
gfz2015hlfq  -0.67074
gfz2015hlqo   1.43030
gfz2015hpmk   0.33957
gfz2015hvgs   0.59071
gfz2015igsy   0.70461
gfz2015ijmh  -0.54296
gfz2015imty  -0.21525
gfz2015imyp  -0.51450
gfz2015ixyy   3.51160
gfz2015jkdw   1.42910
gfz2015jmlf   2.19500
gfz2015jxbx  -1.88450
gfz2015jxjd  -0.52871
gfz2015jzcv  -0.38155
gfz2015kakw   0.15600
gfz2015kcaa  -0.06058
gfz2015kfsu  -0.19838
gfz2015kkqb   0.31585
gfz2015kkth  -0.04270
gfz2015kphk  -0.22051
gfz2015ksni  -0.36412
gfz2015kvwz   1.03760
gfz2015kxxs   0.16062
gfz2015lcma   1.81440
gfz2015lfma   1.11560
gfz2015lfud  -0.03830
gfz2015lhjq  -0.05307
gfz2015lhjy   0.60177
gfz2015lytv   0.94325
gfz2015lzad  -1.09770
gfz2015mddr  -0.47013
gfz2015mpte  -1.76400
gfz2015nerz  -0.59658
gfz2015nqgf  -2.38740
gfz2015nuxz   0.99968
gfz2015nwug   0.31252
gfz2015ocdz   0.11248
gfz2015ocwr  -0.17250
gfz2015ofsr  -0.03083
gfz2015ojut  -0.51024
gfz2015okmq  -0.33791
gfz2015orkl   0.34643
gfz2015othd  -0.07709
gfz2015oumn  -0.55669
gfz2015oyfl  -1.00490
gfz2015pgxa   0.72137
gfz2015pjgr  -0.40467
gfz2015plal   0.28976
gfz2015prlr  -0.90600
gfz2015puqp   0.19209
gfz2015qiit   0.47271
gfz2015qnho  -0.68186
gfz2015qnlv   0.30345
gfz2015qnto   0.33047
gfz2015quzo  -1.44950
gfz2015qvxu   0.46305
gfz2015rddx   0.47308
gfz2015rgrg  -1.69170
gfz2015sdeo  -0.24841
gfz2015sdfy   0.82377
gfz2015sfdd  -0.21024
gfz2015sfdy  -0.16176
gfz2015sfln  -0.00000
gfz2015sfmd  -0.42889
gfz2015sfnb   0.07657
gfz2015sfte   0.29314
gfz2015sfuc   1.19090
gfz2015sfzm   0.05421
gfz2015sgdj   0.65171
gfz2015sgdn   0.72285
gfz2015sggc   0.87626
gfz2015sghq   0.42709
gfz2015sglg   0.48875
gfz2015sgmm  -0.50523
gfz2015sgmr   0.04171
gfz2015shlp  -0.32008
gfz2015shqc   0.61134
gfz2015shqe  -1.90450
gfz2015shrg   0.04428
gfz2015shsz   0.07165
gfz2015sicf   0.04823
gfz2015siem   0.46563
gfz2015siky   0.06341
gfz2015sing  -0.98414
gfz2015sitn   0.28549
gfz2015siyy   0.17895
gfz2015sjbx   0.34637
gfz2015sjgk  -0.53067
gfz2015sjjb   0.82078
gfz2015sjne  -1.37260
gfz2015sjoj  -0.03351
gfz2015sldx   0.53024
gfz2015smym   0.23609
gfz2015snhn   0.26366
gfz2015snmg   1.19440
gfz2015snmr  -1.04040
gfz2015snsf  -2.51870
gfz2015snwh  -0.68048
gfz2015snyd  -1.04970
gfz2015soat  -0.47917
gfz2015sowu  -1.58610
gfz2015soxc   0.60485
gfz2015sozw  -1.99880
gfz2015spal   0.97331
gfz2015sqbg  -0.33649
gfz2015sqmy   0.34311
gfz2015srat   0.76892
gfz2015srxe   1.42090
gfz2015ssaf   2.96560
gfz2015ssoe  -1.50420
gfz2015sspn   1.35990
gfz2015stas   0.42244
gfz2015stfy   0.52357
gfz2015stso  -0.40967
gfz2015subg  -0.04099
gfz2015sunp   0.32471
gfz2015supa   0.40427
gfz2015susq   0.35249
gfz2015svjy  -0.69803
gfz2015svwm  -0.17358
gfz2015swgn  -0.03794
gfz2015swjx   0.77918
gfz2015swnc  -0.23733
gfz2015sxmh   0.52251
gfz2015taml  -0.90046
gfz2015tbje   0.90245
gfz2015tbxe   0.27368
gfz2015tcem   0.36685
gfz2015tdbb  -0.37136
gfz2015tdcu   0.10401
gfz2015teje   0.68872
gfz2015temv   0.56359
gfz2015teyc  -0.29927
gfz2015tezd   0.35476
gfz2015tfaz   0.13677
gfz2015tfxb   0.17150
gfz2015thgp  -1.04270
gfz2015thwg   0.51006
gfz2015thwp  -0.52541
gfz2015tiyc  -0.90735
gfz2015tjhv   1.35580
gfz2015tkol   0.03917
gfz2015tlba   0.06748
gfz2015tlkf  -1.16280
gfz2015tlok   0.81842
gfz2015tnjd  -1.31890
gfz2015tohm   0.25714
gfz2015tojz   2.11350
gfz2015totf  -0.57013
gfz2015tpra   0.57738
gfz2015tqjf   0.99766
