# Nsamples: 987  MAD:  0.476  mean:  0.045  variance:  0.530
gfz2010aerk  -0.10994
gfz2010ahla  -0.42898
gfz2010ahqi   0.03290
gfz2010awfi  -0.64351
gfz2010bgth  -0.27804
gfz2010bifb  -1.12490
gfz2010bjeb  -0.76198
gfz2010bkob  -0.31132
gfz2010bkos   0.45860
gfz2010bowy   0.53706
gfz2010boxo   0.72544
gfz2010bxxs   0.36983
gfz2010caft  -0.06927
gfz2010cbkg  -0.14660
gfz2010cdbt   0.15542
gfz2010cjqh   0.35953
gfz2010ckeu   0.18025
gfz2010ckzm   0.55196
gfz2010cnwc  -1.57720
gfz2010cqwl   0.54084
gfz2010cres  -0.18022
gfz2010czps   0.56580
gfz2010dfru   0.10433
gfz2010dlgc   0.38222
gfz2010eaoy   0.66647
gfz2010eapk  -0.44554
gfz2010eaqe  -1.34460
gfz2010eaqx   0.09404
gfz2010eaqy   0.88457
gfz2010earu  -0.45245
gfz2010easf   0.62799
gfz2010easo   0.41974
gfz2010easu  -0.14808
gfz2010eati   0.02989
gfz2010eaty  -0.34140
gfz2010eaul  -0.02037
gfz2010eavs   1.76490
gfz2010eawb   0.60350
gfz2010eawu   0.34446
gfz2010eaze  -0.17499
gfz2010eazu   1.41590
gfz2010ebbd   0.88895
gfz2010ebeh  -0.56696
gfz2010ebfa   0.40451
gfz2010ebfx  -0.64036
gfz2010ebhc  -0.32810
gfz2010ebih  -0.37968
gfz2010ebin  -0.44306
gfz2010ebjy   0.18532
gfz2010ebkj   0.11014
gfz2010ebll  -0.30457
gfz2010ebmb   0.24268
gfz2010ebmi  -0.28541
gfz2010ebnn   0.05521
gfz2010ebrm   0.37020
gfz2010ebsv   1.20260
gfz2010ebvm  -0.81276
gfz2010ebvv   0.09655
gfz2010ebwp   0.49704
gfz2010ebxl  -0.24163
gfz2010ebzk  -0.48651
gfz2010ebzr   0.10363
gfz2010ecam  -0.15282
gfz2010ecbi   0.30539
gfz2010eccq   0.89341
gfz2010eced   0.56036
gfz2010echc   0.03844
gfz2010echt   6.69380
gfz2010echy  -1.04550
gfz2010ecls   2.26280
gfz2010ecps  -0.10281
gfz2010ecsp  -3.79680
gfz2010ecua  -0.16077
gfz2010ecvt  -0.34283
gfz2010edat   0.62704
gfz2010edbz  -0.05466
gfz2010edcp   0.71747
gfz2010edhr  -0.15194
gfz2010edim  -0.25528
gfz2010edji   0.26534
gfz2010edqh  -0.00352
gfz2010edsk   0.05931
gfz2010edsn   0.81731
gfz2010edvf   0.03835
gfz2010edyi  -0.54083
gfz2010edzb   0.02476
gfz2010eeij   0.76709
gfz2010eekq   1.08540
gfz2010eern   0.44292
gfz2010eevu   0.44859
gfz2010efbh   0.86679
gfz2010efbi   0.36709
gfz2010efls   0.05634
gfz2010efnf  -0.07454
gfz2010efsq   0.22217
gfz2010efwo  -2.22380
gfz2010efxf  -0.38031
gfz2010egap   0.56944
gfz2010egld   1.21880
gfz2010egmp  -0.34530
gfz2010egsy  -1.76070
gfz2010ehaj  -0.39346
gfz2010ehft  -0.09792
gfz2010eimf  -1.12580
gfz2010eioi   0.59124
gfz2010eisx  -1.40990
gfz2010eixj  -0.21701
gfz2010ejco  -0.69772
gfz2010ejjg  -0.30689
gfz2010ejju  -0.99365
gfz2010ejka  -0.22845
gfz2010ekoe   0.44908
gfz2010ekrv   1.61890
gfz2010ekyc  -0.00860
gfz2010elhv   0.07659
gfz2010elin   0.85135
gfz2010eltf   0.14937
gfz2010elvp  -0.07086
gfz2010elxi   0.99389
gfz2010elyc  -0.45484
gfz2010elyo  -0.30989
gfz2010elzf  -0.54654
gfz2010emoz  -1.27700
gfz2010emyz   1.07490
gfz2010enzl  -0.16828
gfz2010eoao  -0.65191
gfz2010eomb  -0.19873
gfz2010epbe   0.19710
gfz2010epud   0.14393
gfz2010epxj   0.02182
gfz2010epzk   0.59823
gfz2010eqcn   0.38406
gfz2010eqjg   0.40105
gfz2010eqmu  -2.68100
gfz2010eqwl   0.02136
gfz2010erdi   1.16930
gfz2010erkn   0.31891
gfz2010ermi   2.42590
gfz2010erom   0.62576
gfz2010erum   0.32753
gfz2010eruy  -2.23710
gfz2010erwn  -0.14845
gfz2010esid  -0.99902
gfz2010euae   0.79104
gfz2010euan  -0.14667
gfz2010eujm  -0.65139
gfz2010euvl  -0.22292
gfz2010euwb   3.16620
gfz2010evco   0.82636
gfz2010ewvc   0.32764
gfz2010excp   0.38977
gfz2010exdd   0.20981
gfz2010exdl  -0.40434
gfz2010exgb  -0.07704
gfz2010exhd  -0.18105
gfz2010exmc   0.40651
gfz2010exno   0.36708
gfz2010exqu   0.13747
gfz2010exyp  -0.29600
gfz2010eyaz   0.25812
gfz2010eyhh  -0.28329
gfz2010eyiv  -0.06145
gfz2010eyvq  -0.13444
gfz2010eyxe  -0.04004
gfz2010ezax   0.03680
gfz2010ezck  -0.18509
gfz2010ezvt  -0.22276
gfz2010ezwz   0.14348
gfz2010fauz  -0.16925
gfz2010fcxy   0.63455
gfz2010fcyj   0.33236
gfz2010fedq   0.23750
gfz2010fexw  -0.58171
gfz2010ffhq   0.32926
gfz2010ffjb  -0.13052
gfz2010fika   1.21720
gfz2010fkhd  -0.49782
gfz2010fknh   0.09933
gfz2010fkvg   0.04059
gfz2010flha   0.41991
gfz2010flrt  -0.22965
gfz2010fmpy   0.58638
gfz2010fnrk   6.38170
gfz2010fona  -0.20173
gfz2010fpqy  -0.01007
gfz2010fqdu  -1.65570
gfz2010fser  -0.50486
gfz2010ftlm  -0.07535
gfz2010fupn   0.18590
gfz2010fuuy  -0.09537
gfz2010fuwa   0.32635
gfz2010fvuc   0.10943
gfz2010fwlb   0.30169
gfz2010fwzd   0.35441
gfz2010fync  -0.24917
gfz2010fzoi  -0.23801
gfz2010gcrl   0.32254
gfz2010gcrp  -0.70337
gfz2010gdld  -0.16873
gfz2010gjia   1.67160
gfz2010gjvo   0.57655
gfz2010gmib   0.04221
gfz2010grjd  -0.95653
gfz2010grss   0.18430
gfz2010gyqp  -0.05487
gfz2010gzxr  -0.04933
gfz2010hcio   0.68518
gfz2010hevz  -0.04566
gfz2010hjoc   0.77636
gfz2010hlmq   0.21683
gfz2010hlvr  -0.09804
gfz2010hnnf   0.04194
gfz2010hnpi   0.25949
gfz2010hptz   0.76299
gfz2010hrkr   0.26237
gfz2010hxgv   0.09862
gfz2010hxhe  -0.25077
gfz2010ibiy  -0.32934
gfz2010iciq   0.10742
gfz2010icqq  -0.53379
gfz2010ijtk  -0.32992
gfz2010imfv   0.48741
gfz2010imsh   0.42896
gfz2010iobp   0.27566
gfz2010irvf  -0.38725
gfz2010ited  -0.03981
gfz2010iull   0.07143
gfz2010izzj   0.61177
gfz2010jpss  -2.18250
gfz2010jucj   0.13366
gfz2010jxbm   0.28080
gfz2010jygz   0.25814
gfz2010kdyc  -0.38302
gfz2010kihf  -0.06503
gfz2010kmgg   0.34824
gfz2010kqyh   0.12943
gfz2010kyen  -0.50504
gfz2010lcoq   1.64860
gfz2010lczp   0.38688
gfz2010lfju  -0.71512
gfz2010lluj  -1.22670
gfz2010lopz  -0.74509
gfz2010lyfk  -0.70204
gfz2010mipi   0.33302
gfz2010miqn  -0.49881
gfz2010mkuu   0.01914
gfz2010mncc  -0.51241
gfz2010msjj   0.49545
gfz2010muca   0.66467
gfz2010ncrl  -0.07558
gfz2010nmpc  -0.43822
gfz2010nnny   3.01590
gfz2010nqwf   0.14477
gfz2010nqwo   0.14146
gfz2010nrjo  -0.73475
gfz2010ntuo   0.35290
gfz2010nubk  -0.06970
gfz2010nwef  -0.33794
gfz2010nzla  -0.27621
gfz2010okdm  -0.85651
gfz2010onma  -0.10125
gfz2010oyqy  -0.36222
gfz2010pcxi  -0.14498
gfz2010pexf   0.02009
gfz2010pfyu  -0.08030
gfz2010phvg  -0.75311
gfz2010pxak   0.31149
gfz2010pxgh  -0.79273
gfz2010qpcq  -0.87195
gfz2010rkfp  -0.04865
gfz2010rqwj   0.39676
gfz2010rxjw  -1.58420
gfz2010rywq   1.67330
gfz2010rzsd   0.67495
gfz2010sfee  -0.01678
gfz2010sfla   0.06453
gfz2010skqo  -0.51856
gfz2010skve  -0.13508
gfz2010srdb  -0.23020
gfz2010swcy  -0.25762
gfz2010sxfq   0.09428
gfz2010sysw  -0.30748
gfz2010tcbr  -0.32276
gfz2010tcrl  -1.10890
gfz2010truw  -0.80918
gfz2010upfb   0.40262
gfz2010upiw  -0.68315
gfz2010urlq  -0.61276
gfz2010usho  -0.69127
gfz2010ustq   0.01439
gfz2010utcg   0.08030
gfz2010utmc   0.03713
gfz2010utvp   1.03630
gfz2010vhuj   0.25885
gfz2010vppc  -0.45673
gfz2010vtdg  -0.36754
gfz2010vyxd   0.53269
gfz2010vzpr  -0.41182
gfz2010wioh  -0.73456
gfz2010wnty   0.00894
gfz2010wntz   0.74083
gfz2010wofs  -0.40293
gfz2010wrxx   0.12730
gfz2010xbcr  -1.38020
gfz2010xden  -0.04088
gfz2010xgzw  -0.07397
gfz2010xjck   0.29677
gfz2010xjsj   0.09203
gfz2010xnxk   0.09939
gfz2010xxzn   1.25420
gfz2010yjev  -0.61501
gfz2010ymur  -0.21507
gfz2011aatr   0.40606
gfz2011adjs  -1.03630
gfz2011ahfw  -0.39523
gfz2011aldv  -0.59310
gfz2011alip  -0.12595
gfz2011alsa   0.69959
gfz2011alwf  -1.87560
gfz2011aqxf   0.12311
gfz2011asru   0.43943
gfz2011bgrp  -0.15595
gfz2011bhha  -0.21433
gfz2011blsi   0.30652
gfz2011bpkd  -0.57822
gfz2011ccpw   3.76000
gfz2011cndo   0.58341
gfz2011crdy   2.24300
gfz2011csju  -0.76858
gfz2011ctbn  -0.34714
gfz2011cvcg  -0.19848
gfz2011cvfg  -0.74566
gfz2011cykd   0.02596
gfz2011cynl   0.09170
gfz2011cyre   0.02921
gfz2011cyuk  -0.00000
gfz2011dbev  -0.33183
gfz2011dbig  -0.14452
gfz2011dbon  -0.05442
gfz2011dcqb   1.97980
gfz2011deaf  -0.95687
gfz2011deja   0.18762
gfz2011dkyi   0.37351
gfz2011dlyx   0.38083
gfz2011dpaa  -0.16005
gfz2011dpqx   0.65178
gfz2011duyr   0.10442
gfz2011eayc   0.34054
gfz2011ecaj   0.05187
gfz2011edmm  -0.05993
gfz2011efgv   0.23603
gfz2011ejlp   0.27629
gfz2011eltw   3.94760
gfz2011enva  -0.09074
gfz2011etje   2.10910
gfz2011fgvr  -0.05033
gfz2011fhag   0.53046
gfz2011fhur   0.34792
gfz2011fkbn  -0.33027
gfz2011flgj  -0.81448
gfz2011fnsw  -1.09940
gfz2011gbmx  -0.25258
gfz2011gcwb  -0.10704
gfz2011gdgh  -0.77182
gfz2011ggvf  -0.77724
gfz2011gkey  -0.06867
gfz2011gkzt  -0.49355
gfz2011haid   0.32225
gfz2011hbex  -0.37946
gfz2011hebt  -0.61236
gfz2011hfkj  -0.55839
gfz2011hlqw  -0.84944
gfz2011hlsa  -0.65676
gfz2011hlth  -0.53772
gfz2011hpgx   0.32282
gfz2011hpqp   0.24706
gfz2011hrhe   0.44567
gfz2011hvbu  -0.34808
gfz2011ieie   1.00340
gfz2011iwte   0.07358
gfz2011ixai   0.14211
gfz2011izqa  -0.36976
gfz2011jdsj   0.29565
gfz2011jmbn   0.44420
gfz2011jplh   0.24749
gfz2011jtlg   0.01232
gfz2011knbi   0.05763
gfz2011kqwo   0.44592
gfz2011kqyg  -0.12373
gfz2011kxzp   0.36074
gfz2011lcxq   0.73241
gfz2011lhls  -0.04811
gfz2011lvjr  -0.29780
gfz2011lzwj   0.47703
gfz2011mdie   0.39814
gfz2011mjom  -0.32061
gfz2011mpme   0.61668
gfz2011mprq  -0.50983
gfz2011nauw   0.09810
gfz2011nmnq  -0.73561
gfz2011nmqj   2.10610
gfz2011nrwv  -0.27376
gfz2011ntkh  -0.03677
gfz2011nudm  -0.83824
gfz2011ohcy   0.12854
gfz2011oiqe   0.24253
gfz2011oiwk   0.20929
gfz2011olkk   0.40912
gfz2011orgn  -0.12389
gfz2011ornx   0.21720
gfz2011owvz   0.23391
gfz2011pccd  -1.51680
gfz2011qvae  -0.39472
gfz2011qyms   0.77808
gfz2011rewa  -0.33931
gfz2011rgwp   0.32746
gfz2011rqui   0.57711
gfz2011rsrh  -0.73118
gfz2011rznl  -0.51060
gfz2011sagt   0.78751
gfz2011sawg  -0.11005
gfz2011shqm   0.27519
gfz2011svix   0.32270
gfz2011tbas  -0.52800
gfz2011tivu  -0.09277
gfz2011tjue  -0.05221
gfz2011tkog  -0.36613
gfz2011toub   0.67982
gfz2011tpbl  -0.20669
gfz2011tpfr  -1.41550
gfz2011tsfd   0.46418
gfz2011udsq  -0.64197
gfz2011uepx   0.37184
gfz2011ujze   0.11939
gfz2011ukmp   0.97620
gfz2011uphh   0.40282
gfz2011vhfi   0.17250
gfz2011vnza  -0.75559
gfz2011vqnr  -0.29185
gfz2011vrhg   0.31635
gfz2011vxns  -1.00620
gfz2011vxod  -0.33638
gfz2011wcic  -0.64663
gfz2011wfja   2.17280
gfz2011wjul   1.11320
gfz2011wvzb   0.39772
gfz2011wwjs  -0.20128
gfz2011wxfs   0.58038
gfz2011wxtk   0.70932
gfz2011xqru   1.80570
gfz2011xyxj   0.68502
gfz2011zqhh   0.89749
gfz2012bfah  -0.23566
gfz2012bfyn   2.91730
gfz2012bpkx   0.18991
gfz2012bpwl  -0.51074
gfz2012bszs   1.18230
gfz2012byad   0.09708
gfz2012cgvr   0.30140
gfz2012cnod  -1.17820
gfz2012cxdn  -0.19342
gfz2012czlw  -0.72912
gfz2012deri  -0.03261
gfz2012dyyh   0.41796
gfz2012ekda   0.03034
gfz2012ekzf   0.36417
gfz2012elce  -0.50890
gfz2012emjg  -0.45832
gfz2012enno   0.08227
gfz2012ewgo   0.46996
gfz2012ezvr   0.38209
gfz2012fbfo  -0.97181
gfz2012fwfo   0.72235
gfz2012fwob   0.11151
gfz2012fwtr  -0.12390
gfz2012fzfa  -0.04022
gfz2012gill  -1.07760
gfz2012gnvh   0.17691
gfz2012gocc   0.24251
gfz2012gomm  -0.35650
gfz2012gwqb   0.46575
gfz2012hnul  -0.33571
gfz2012hwmz  -0.16590
gfz2012hzbe   0.79934
gfz2012iivw  -0.07983
gfz2012ilvn   0.56487
gfz2012iyrb  -0.06946
gfz2012jgvj  -0.53835
gfz2012jlox   0.05534
gfz2012jted  -0.55581
gfz2012jupx   0.92084
gfz2012keor  -0.58638
gfz2012kkcp  -0.53145
gfz2012kkup  -0.32735
gfz2012klhx  -0.40768
gfz2012kuct   0.24929
gfz2012kudo   0.26146
gfz2012kwgo   0.49222
gfz2012lczo   0.11681
gfz2012ldxg  -0.65119
gfz2012ldzj  -0.00000
gfz2012llug  -0.16747
gfz2012lpvn  -0.60741
gfz2012minr  -0.02966
gfz2012mupa  -0.46972
gfz2012mwij   0.78831
gfz2012naqz  -0.25449
gfz2012nbtn   0.53190
gfz2012nojx   0.79211
gfz2012nolo  -0.40505
gfz2012nqnk  -0.26580
gfz2012nsbz   1.15510
gfz2012oazn  -0.19709
gfz2012omvo  -0.74633
gfz2012pkel   1.14160
gfz2012pspd   0.42467
gfz2012rats  -0.47499
gfz2012ronz  -0.66581
gfz2012royy  -0.24697
gfz2012rqlg  -0.49257
gfz2012rwko  -0.03784
gfz2012rwov   0.90058
gfz2012sphd   0.35040
gfz2012sqmv  -0.09085
gfz2012svpr  -0.07581
gfz2012syvl   0.08217
gfz2012szla  -0.33480
gfz2012teic  -0.94870
gfz2012tmop   3.03240
gfz2012ttoa  -0.14341
gfz2012tvmv  -0.12892
gfz2012tzcc  -0.04927
gfz2012uaqj  -0.03286
gfz2012uciv  -0.56141
gfz2012uhup   0.75769
gfz2012uqzp   0.07105
gfz2012uvqf   0.65021
gfz2012uyie   0.61902
gfz2012vceo  -0.21863
gfz2012vpza   0.05835
gfz2012vrgb  -0.47898
gfz2012vsev  -0.64371
gfz2012whku  -0.41357
gfz2012wklq  -0.24595
gfz2012wmsg  -0.75373
gfz2012wpeq   2.06600
gfz2012wtkh  -0.49046
gfz2012wtkr  -0.15482
gfz2012wvfl   0.04148
gfz2012wxer   0.16813
gfz2012wxlg  -0.30100
gfz2012wxnu   0.59934
gfz2012wypz  -0.06915
gfz2012xbjq   0.08030
gfz2012xjyv  -0.78071
gfz2012xyqp  -0.54962
gfz2012yxxu  -0.36530
gfz2012zfag   0.14169
gfz2012zitl   0.42901
gfz2012zjpv   0.68174
gfz2013aahq  -0.42975
gfz2013aayj  -0.44242
gfz2013aknp  -0.27038
gfz2013aqaw  -0.33072
gfz2013axoj  -0.28922
gfz2013bokp  -0.15102
gfz2013btjm   0.05915
gfz2013ccnr  -1.61270
gfz2013cwpn  -0.22423
gfz2013dofo   0.00000
gfz2013drpk  -0.25228
gfz2013drxz  -0.53893
gfz2013dspt   2.73020
gfz2013dsrk   2.10510
gfz2013dvyh  -1.01620
gfz2013egni   0.79506
gfz2013egpu  -0.52136
gfz2013fiud   0.36562
gfz2013fkii   1.00140
gfz2013fnzr  -0.71423
gfz2013gdgf   0.23963
gfz2013gdnq   0.02329
gfz2013gock   0.08622
gfz2013iayx   0.49535
gfz2013ifpq   0.00000
gfz2013ippu   0.60707
gfz2013iqzq   0.57729
gfz2013iunn   0.26321
gfz2013jesk   0.21163
gfz2013jgij   0.11315
gfz2013jgip   0.08559
gfz2013jkut   0.19984
gfz2013kdeo  -0.20880
gfz2013ldpc  -0.51179
gfz2013ldqb  -0.14654
gfz2013lixa   0.07920
gfz2013lyko  -0.21787
gfz2013mqmv   0.52120
gfz2013mwbh  -0.06982
gfz2013nabl  -0.65114
gfz2013ncjp  -0.49184
gfz2013ndin   0.22647
gfz2013nmac  -0.00573
gfz2013nqgw  -0.67484
gfz2013nwdi  -0.69156
gfz2013ogde  -0.22594
gfz2013oifr   0.08347
gfz2013oilg  -0.24273
gfz2013oinc  -0.32784
gfz2013ojti  -0.07666
gfz2013pfbx  -0.27174
gfz2013pxya  -0.55844
gfz2013qali   0.80409
gfz2013qcck  -0.36284
gfz2013qfmm  -0.17321
gfz2013qmer   0.28192
gfz2013qzdq   0.31322
gfz2013roki   0.09519
gfz2013rwfe   0.29800
gfz2013sdus  -0.29974
gfz2013sfds  -0.39260
gfz2013skkm   0.17968
gfz2013suvn   0.18886
gfz2013svci  -0.14626
gfz2013tcxc   0.00814
gfz2013tcxq  -0.35770
gfz2013tdau   0.17051
gfz2013toxf  -0.53693
gfz2013tusd   0.26866
gfz2013tvmw   0.35512
gfz2013txev   0.61014
gfz2013tyas  -0.78714
gfz2013uauo  -0.77279
gfz2013ufxk   0.43215
gfz2013ufxm   1.04020
gfz2013uqvu  -0.40034
gfz2013vexx  -0.57213
gfz2013vfyw  -0.99477
gfz2013vfzp  -1.10210
gfz2013viul   0.61051
gfz2013vjjc   0.75647
gfz2013vvrq  -0.01013
gfz2013vzbo   0.35343
gfz2013wjmm   0.66634
gfz2013wkyk   0.95042
gfz2013wnql  -0.10499
gfz2013wtzl   0.57011
gfz2013xizq  -0.90547
gfz2013xmul   0.99805
gfz2013xsdt  -0.63448
gfz2013xxxq   0.58471
gfz2013yach   1.98570
gfz2013yctg  -0.56665
gfz2013yhbu   0.32908
gfz2013ypdc  -0.09866
gfz2013yqkv   0.09676
gfz2014adoj   0.14643
gfz2014afmx  -0.55484
gfz2014ajlk   0.10055
gfz2014ajtf  -0.16593
gfz2014algk   0.28005
gfz2014ande  -0.39141
gfz2014arpf   0.00971
gfz2014azqs  -0.19143
gfz2014bbro   0.51179
gfz2014bezu  -0.10078
gfz2014bfng  -1.22650
gfz2014bwue   0.01648
gfz2014bzxy  -0.03832
gfz2014chdv   0.06464
gfz2014cmwb   0.28027
gfz2014cvxx   0.04476
gfz2014czqi   0.11595
gfz2014czua  -0.51890
gfz2014dhxt  -0.04987
gfz2014ehsf  -0.29357
gfz2014enhi  -1.91490
gfz2014eqpl   0.72589
gfz2014femz  -0.75874
gfz2014fexu  -0.15531
gfz2014ffdc  -0.46282
gfz2014fgvi  -0.07183
gfz2014fgvz  -0.60851
gfz2014fgxt  -0.21340
gfz2014fgxz  -0.03127
gfz2014fgyo  -0.01972
gfz2014fgza  -0.03234
gfz2014fhbd   0.27335
gfz2014fhdw  -0.00059
gfz2014fhhp   0.58762
gfz2014fhla  -0.66525
gfz2014fhlh  -0.17846
gfz2014fhrq   0.32295
gfz2014fhsg   0.76919
gfz2014fhwx  -0.02868
gfz2014fhxm   0.23034
gfz2014fimn  -0.18611
gfz2014fjpb  -0.29114
gfz2014fjzd  -0.00000
gfz2014fkmr  -0.63282
gfz2014fkmx   0.28478
gfz2014fnyg   0.20016
gfz2014frdz  -0.64142
gfz2014frez  -0.53310
gfz2014frjr   0.96490
gfz2014frwh  -0.14407
gfz2014ftka  -0.61447
gfz2014ftoc  -0.47347
gfz2014ftrk   0.16438
gfz2014furx   0.02531
gfz2014fusc   0.06560
gfz2014fusj  -0.18173
gfz2014fuub  -0.09856
gfz2014fuup   0.29148
gfz2014fval  -0.00929
gfz2014fvgh   0.10066
gfz2014fvpy   0.30199
gfz2014fvrg  -0.70933
gfz2014fwtt   0.27710
gfz2014fzgx   0.35881
gfz2014gbcz  -0.09536
gfz2014gbdq  -1.72690
gfz2014geuy  -0.24565
gfz2014gezs  -1.22970
gfz2014gfdj   0.26004
gfz2014ghpe  -0.55896
gfz2014gilf  -0.47778
gfz2014gkgf  -0.32695
gfz2014gkgs   1.23930
gfz2014gkhy  -0.23630
gfz2014gkjl   0.32365
gfz2014gkjt   0.22389
gfz2014gkjy  -0.03732
gfz2014gklq   0.10859
gfz2014gklv  -0.37055
gfz2014gkmm  -0.30803
gfz2014gkob  -0.03799
gfz2014gkok   0.26569
gfz2014gkpd  -0.56173
gfz2014gkpj  -0.19756
gfz2014gkqf   0.11079
gfz2014gkqu  -0.69920
gfz2014gkrz  -0.26233
gfz2014gksu   0.41539
gfz2014gktn  -0.16168
gfz2014gktq  -0.28704
gfz2014gkxm   0.54240
gfz2014glcu   0.16403
gfz2014glcy   0.12186
gfz2014glgo  -0.28355
gfz2014glhs   0.04584
gfz2014gltx  -0.05695
gfz2014glvu   0.21254
gfz2014glxd   0.18541
gfz2014glxy   0.08564
gfz2014gmci  -0.26064
gfz2014gmge  -0.38752
gfz2014gmhp   0.40759
gfz2014gmhr  -0.91931
gfz2014gmip   1.31670
gfz2014gmjo   0.03054
gfz2014gmku   0.21488
gfz2014gmlz   0.45372
gfz2014gmmk  -0.36735
gfz2014gmmt   0.41395
gfz2014gmnb  -0.11449
gfz2014gmnw   0.07100
gfz2014gmpy  -0.24034
gfz2014gmrj   1.22750
gfz2014gmtb   0.16604
gfz2014gmuk   0.05981
gfz2014gmvr   0.07036
gfz2014gmzl  -0.16891
gfz2014gnfd  -0.11916
gfz2014gnfs  -0.39763
gfz2014gngg   0.13592
gfz2014gnmx   0.67418
gfz2014gnnt   0.19135
gfz2014gnqt   0.07619
gfz2014gnre   0.61463
gfz2014gnwg  -0.42438
gfz2014gnxb  -0.48771
gfz2014goba  -0.02001
gfz2014gogv   0.14290
gfz2014gohm   0.07377
gfz2014goqw   0.09972
gfz2014goyx  -0.42819
gfz2014gpce   0.04165
gfz2014gphr   0.02905
gfz2014gpuk   0.52922
gfz2014gpvk  -0.26719
gfz2014gpxl   0.22442
gfz2014gpxv   0.21348
gfz2014gpya   0.10954
gfz2014gqbj   0.51008
gfz2014gqer   1.58620
gfz2014gqgf   0.54368
gfz2014gqiy  -0.13295
gfz2014gqqz   0.37375
gfz2014gqve   0.20493
gfz2014grfp   0.75480
gfz2014grho   1.29630
gfz2014gsqs   0.83213
gfz2014gtwz  -1.88950
gfz2014gufl  -1.00080
gfz2014gull   0.05185
gfz2014gulp  -0.75176
gfz2014gumd  -0.79202
gfz2014gutm   0.02774
gfz2014gvhw   0.58520
gfz2014gvqj  -1.15400
gfz2014gvra  -0.65734
gfz2014gvrd  -0.74705
gfz2014gwab   0.65178
gfz2014gxkh   0.40323
gfz2014gxxh  -0.21674
gfz2014gxxo   0.39819
gfz2014gyxd   0.35304
gfz2014gzue   0.15753
gfz2014haey   0.35016
gfz2014hagb   0.27210
gfz2014hauo   0.42811
gfz2014hbjz  -0.05736
gfz2014hbqb   0.24734
gfz2014hcmj   0.20674
gfz2014hhwx   0.35044
gfz2014hifp   0.63468
gfz2014hjgh   0.03736
gfz2014hjgo  -0.10991
gfz2014hjgr   0.02930
gfz2014hjhu   0.24911
gfz2014hjij  -0.01631
gfz2014hjlx  -0.49198
gfz2014hkcf   0.12091
gfz2014hkck  -0.02312
gfz2014hmrs  -0.09917
gfz2014hoap   0.26792
gfz2014hocg   0.12586
gfz2014hphw   0.35432
gfz2014hpqz  -0.07828
gfz2014hqxs  -0.98246
gfz2014hqyx   0.40769
gfz2014huaj  -0.02847
gfz2014hyvq   0.34278
gfz2014hzfw   0.58636
gfz2014hzgn   0.85228
gfz2014iani   0.05138
gfz2014ifue  -0.13699
gfz2014ifzj   0.56544
gfz2014imnn   0.17085
gfz2014ixga  -0.10149
gfz2014jggm  -0.10109
gfz2014jjhc   0.59717
gfz2014jjln   0.37529
gfz2014jjqk   0.45637
gfz2014jmnk   0.12840
gfz2014jnyv   0.22441
gfz2014jomw  -1.94240
gfz2014jpep  -0.04152
gfz2014jpez   0.11038
gfz2014jpgu   0.34489
gfz2014jwmh   0.21344
gfz2014khan  -0.18833
gfz2014kitm   0.16392
gfz2014kjzb   0.02756
gfz2014kkhh   0.18509
gfz2014kndc  -0.07313
gfz2014knxs  -0.07267
gfz2014kwrg   0.07079
gfz2014kxqf   0.22418
gfz2014kyan   0.25245
gfz2014kytf  -0.71617
gfz2014lehw   0.15038
gfz2014lgqn   0.19912
gfz2014lwom   0.08839
gfz2014lwsw  -0.04942
gfz2014lxnc  -0.00000
gfz2014lxqr   0.34094
gfz2014lyhk  -0.24006
gfz2014lyhp   0.42337
gfz2014macx   0.16209
gfz2014madw  -0.31050
gfz2014mlrr   0.28117
gfz2014mtum   0.29984
gfz2014mwnj   0.79897
gfz2014nafd   0.02741
gfz2014navw   0.01503
gfz2014ngsk  -0.39264
gfz2014nnxd   0.53798
gfz2014nowp  -0.19124
gfz2014npeo   0.30092
gfz2014nqfm  -0.22376
gfz2014nrie   1.08320
gfz2014nyeh   0.45625
gfz2014nyfb   0.22603
gfz2014odgv  -0.46406
gfz2014oinz   0.20862
gfz2014orgz   0.24444
gfz2014orxs  -0.31261
gfz2014oryw   0.09741
gfz2014owxc  -0.26531
gfz2014oxcc   0.08300
gfz2014oyly   0.13652
gfz2014pkll   0.40482
gfz2014ppzf   0.30096
gfz2014pvch  -0.10880
gfz2014pzml   0.16355
gfz2014pzni   0.16964
gfz2014qbzi   0.57825
gfz2014qfzq   0.22612
gfz2014qlvc  -0.63514
gfz2014qlxd   0.30595
gfz2014qqhm  -0.42150
gfz2014rbsl  -1.13050
gfz2014rdsn  -0.15025
gfz2014rhju  -0.50921
gfz2014rhnz   0.77828
gfz2014riel  -0.34824
gfz2014romy  -0.01762
gfz2014ryfb  -0.43651
gfz2014ssmv   0.64278
gfz2014ssvz  -0.14136
gfz2014swgt   0.92803
gfz2014szzf   0.70769
gfz2014tfgn   2.24360
gfz2014tovs   0.43298
gfz2014uyrq  -0.01605
gfz2014vdnh  -0.03914
gfz2014vhld   0.13231
gfz2014vhms   0.24043
gfz2014vhuy   0.64787
gfz2014vjoz   0.09563
gfz2014vqqa   0.07511
gfz2014watn   0.16087
gfz2014wjko  -0.00000
gfz2014wqcp  -0.06122
gfz2014wrkh   0.72782
gfz2014wwib   0.01769
gfz2014xbyr   0.68380
gfz2014xjri   0.06778
gfz2014xkdg   0.31845
gfz2014xoji   0.29044
gfz2014xqby  -0.11550
gfz2014yhhm  -0.18592
gfz2014yppv   0.07313
gfz2014yrug  -0.11510
gfz2014yyiy  -0.33876
gfz2014zkys   0.18970
gfz2015ansu  -0.07051
gfz2015apnk  -2.06020
gfz2015aqbq  -0.75556
gfz2015aruz   0.84990
gfz2015atxv  -0.03260
gfz2015berb   0.24547
gfz2015bfjm  -0.19402
gfz2015bkbj  -0.00000
gfz2015bnho   1.03450
gfz2015bphe   0.02994
gfz2015cewd  -1.37630
gfz2015chhn   0.20874
gfz2015chqn   0.66980
gfz2015cxxk   0.44051
gfz2015cyjd   0.55550
gfz2015drlk   0.19723
gfz2015dskr  -1.43940
gfz2015dtqr  -1.69030
gfz2015dvbn   0.25916
gfz2015egxq  -0.07330
gfz2015ehou   0.46382
gfz2015eiky  -0.47768
gfz2015elgy   0.77553
gfz2015esrj   0.27207
gfz2015fjhk   0.01494
gfz2015fkgt  -0.56665
gfz2015fkic  -0.35975
gfz2015fkjs   0.15101
gfz2015fsjj   0.39698
gfz2015fvoi   0.47796
gfz2015fwkq   0.49880
gfz2015fxdi   0.31723
gfz2015gckd   0.28005
gfz2015ggjw   0.51029
gfz2015gjbr   0.63962
gfz2015gmgf  -0.26784
gfz2015hgbk  -0.02549
gfz2015hpmk   0.14345
gfz2015hwzw   0.31407
