# Nsamples: 21  MAD:  0.427  mean: -1.040  variance:  0.475
gfz2010iull  -1.08810
gfz2010nmpc  -1.00090
gfz2011aatr  -1.08150
gfz2011enva   0.58235
gfz2011hlsa  -1.11410
gfz2011lzwj  -1.07070
gfz2011rewa  -1.46980
gfz2011toub  -1.37600
gfz2011wxfs  -1.14330
gfz2012jlox  -2.35360
gfz2013nwdi  -1.58780
gfz2013svci  -0.71027
gfz2014oinz  -1.29550
gfz2015chhn  -1.92340
gfz2015cyjd   0.83329
gfz2015fsjj  -0.57479
gfz2015lhjy  -1.44810
gfz2015sfdd  -1.05070
gfz2015sfdy  -0.70919
gfz2015svwm  -0.99228
gfz2015taml  -1.25730
