# Nsamples: 24  MAD:  0.459  mean: -0.929  variance:  0.360
gfz2010bxxs  -0.82141
gfz2010homc  -1.27760
gfz2010iull  -0.72930
gfz2010nmpc  -1.12510
gfz2011aatr  -1.62560
gfz2011enva  -0.04310
gfz2011lcxq   0.30198
gfz2011lzwj  -1.39840
gfz2011rewa  -1.01520
gfz2011wxfs  -1.37630
gfz2012jlox  -0.44432
gfz2012kudo  -1.21080
gfz2012vrgb  -0.89515
gfz2012wypz  -1.13750
gfz2013drxz  -1.24350
gfz2013jkut  -0.29619
gfz2013nwdi   0.17232
gfz2013pfbx  -1.16260
gfz2013svci  -0.94754
gfz2014fgvi  -1.49210
gfz2014gmhr   0.24430
gfz2014oinz  -1.52250
gfz2014ssvz  -1.44100
gfz2015cyjd  -1.81480
