# Nsamples: 18  MAD:  1.272  mean: -0.336  variance:  1.646
gfz2010gtzt   1.62850
gfz2010nmpc  -0.99392
gfz2011bnzn  -0.45248
gfz2011dqio   0.47452
gfz2012ldxg   0.57646
gfz2012xssa  -0.37616
gfz2012yzod  -2.13780
gfz2013dspt   0.59480
gfz2013idbb  -1.05630
gfz2013kdeo   0.10857
gfz2013nknw   2.27340
gfz2014fval   1.45040
gfz2014ghpe  -1.57490
gfz2014gmnb  -1.15580
gfz2014gmnw  -2.66510
gfz2014ubwn  -1.06890
gfz2015fvoi  -0.43317
gfz2015mpte  -1.24150
