# Nsamples: 18  MAD:  0.492  mean:  0.509  variance:  0.567
gfz2010grjd  -0.92268
gfz2010nmpc   0.75544
gfz2011hlsa   0.88260
gfz2012ldzj   1.57200
gfz2012vrgb   0.70470
gfz2013kdeo   0.83787
gfz2013nkgj   2.08940
gfz2014afmx   0.63206
gfz2014ande  -0.78215
gfz2014gkqf   0.59083
gfz2014gmnb   0.45334
gfz2014hasj   1.32450
gfz2014jpep  -0.42523
gfz2014nqfm  -0.19882
gfz2014pvch   0.01225
gfz2014qqhm   0.56314
gfz2014ubwn   0.21942
gfz2015mpte   0.84786
