# Nsamples: 27  MAD:  0.866  mean:  0.763  variance:  1.224
gfz2010ebhc   0.17341
gfz2010grjd  -0.81093
gfz2010mkuu   0.45420
gfz2010nmpc  -0.11039
gfz2010wioh   3.54220
gfz2011gkzt  -0.54352
gfz2011hlsa   0.54545
gfz2012enno   0.41375
gfz2012klhx   0.80186
gfz2012teic   0.65949
gfz2012vrgb   0.71204
gfz2013kdeo   0.11948
gfz2014ande  -0.24521
gfz2014frdz   4.00010
gfz2014fval   1.34250
gfz2014gkqf   1.59860
gfz2014gmnb   0.58404
gfz2014goqw   1.44020
gfz2014gull   1.02400
gfz2014jpep   1.44020
gfz2014nqfm  -0.03893
gfz2014oinz  -0.71642
gfz2014qqhm   0.45783
gfz2014rwos   0.16071
gfz2014vhld   1.96590
gfz2015emcg   1.54650
gfz2015gckd   0.09295
