# Nsamples: 64  MAD:  0.849  mean:  0.041  variance:  1.914
gfz2010bjeb   0.25332
gfz2010cqwl   0.06634
gfz2010eaoy  -1.51730
gfz2010eazu  -1.41820
gfz2010ecua  -0.34729
gfz2010edcp  -1.50960
gfz2010eeij  -1.19920
gfz2010eisx   0.44557
gfz2010ekyc   0.26665
gfz2010eltf  -0.32067
gfz2010elyc  -1.02860
gfz2010excp  -0.98120
gfz2010exdd   1.11690
gfz2010ffhq  -0.69740
gfz2010fync   1.76760
gfz2010gcdn  -0.80758
gfz2010iull   0.17251
gfz2010nmpc  -0.51402
gfz2010nwef   0.04776
gfz2010qpvi  -0.29877
gfz2010rqwj  -0.45305
gfz2010usho   0.78731
gfz2010yjev   0.73270
gfz2011aatr   0.03979
gfz2011adjs  -0.98407
gfz2011cykd   0.17075
gfz2011enva   2.48760
gfz2011gkzt   0.64830
gfz2011hlsa   0.03894
gfz2011lcxq   0.81685
gfz2011lzwj   0.01993
gfz2011mdie  -0.94970
gfz2011owvz   0.74054
gfz2011pdpt   1.58890
gfz2011rewa  -0.26921
gfz2011toub   0.04807
gfz2011vhfi  -1.36620
gfz2011vrhg   0.16970
gfz2011wxfs   0.57904
gfz2011xyxj   0.25457
gfz2012bpkx  -0.74641
gfz2012enno  -0.28098
gfz2012fzfa  -1.72320
gfz2012hnul  -2.26730
gfz2012jlox   0.53078
gfz2012kkup  -0.53100
gfz2012klhx  -0.62236
gfz2012kudo   0.21238
gfz2012ldxg   1.09680
gfz2012minr  -0.04646
gfz2012teic  -0.21491
gfz2012ttoa  -0.25516
gfz2012tvmv  -0.39621
gfz2012wxlg   0.94331
gfz2012wypz  -0.04040
gfz2012xssa   8.55430
gfz2013cajk  -1.38460
gfz2013ccnr  -0.46848
gfz2013drxz  -0.05735
gfz2013jkut   1.04140
gfz2013ldqb   0.31915
gfz2013nkgj   1.04720
gfz2013nwdi  -0.08195
gfz2013qmer  -0.61450
