# Nsamples: 45  MAD:  0.790  mean: -0.094  variance:  1.170
gfz2010bjeb  -0.52395
gfz2010cqwl  -0.06775
gfz2010czps  -0.79529
gfz2010eaoy  -2.04400
gfz2010ecua  -0.18208
gfz2010eisx  -0.77227
gfz2010ekyc   0.27781
gfz2010eltf   1.04150
gfz2010elyc  -0.20532
gfz2010excp  -1.07920
gfz2010exdd   1.30770
gfz2010ffhq  -2.80120
gfz2010fync   0.02732
gfz2010grjd  -0.54338
gfz2010iull   0.22969
gfz2010mkuu   0.23934
gfz2010nlkh   0.66539
gfz2010nmpc   0.25422
gfz2010nqwo  -0.28136
gfz2010nwef  -0.74991
gfz2010onma  -0.39463
gfz2010rqwj   0.42326
gfz2010usho  -0.15690
gfz2010ustq  -1.03090
gfz2011aatr  -0.50742
gfz2011adjs  -0.78430
gfz2011cykd   0.76298
gfz2011dpqx  -0.93135
gfz2011enva   0.21851
gfz2011gkzt  -0.85254
gfz2011hlqw   1.61350
gfz2011hlsa  -0.54092
gfz2011jplh  -0.09110
gfz2011lcxq   1.14640
gfz2011lzwj  -0.23163
gfz2011mdie   0.06833
gfz2011nrwv   4.21660
gfz2011owvz  -0.48343
gfz2011qvae   0.35072
gfz2011rewa  -0.70626
gfz2011toub  -0.27136
gfz2011vhfi  -2.15770
gfz2011vrhg   1.08270
gfz2011wxfs   0.47473
gfz2011xyxj   0.55588
