# Nsamples: 133  MAD:  0.951  mean:  0.136  variance:  1.543
gfz2010bjeb  -1.61440
gfz2010bxxs  -0.82296
gfz2010cqwl  -0.45925
gfz2010czps   1.03830
gfz2010ddzo  -0.67221
gfz2010eaoy   1.46550
gfz2010ebhc   0.62810
gfz2010ebnn   0.39671
gfz2010ecnm  -1.83370
gfz2010ecua   0.23282
gfz2010edsn  -1.64050
gfz2010edyi   0.93435
gfz2010eefo   1.12270
gfz2010eisx  -0.12428
gfz2010eixj   0.50202
gfz2010ekyc  -0.95157
gfz2010excp   0.25864
gfz2010exdd   1.83870
gfz2010exdl   0.07090
gfz2010exno  -0.09618
gfz2010ezck   0.53567
gfz2010ezxd  -0.40626
gfz2010fedq  -0.54691
gfz2010ffhq   1.23450
gfz2010ffjb   1.54790
gfz2010flha   1.66490
gfz2010fona  -5.88330
gfz2010gcrl  -4.06680
gfz2010iobp   1.19540
gfz2010iull  -0.28332
gfz2010lfju  -1.37320
gfz2010nqwo  -0.72697
gfz2010pexf  -2.50950
gfz2010pfyu   0.19440
gfz2010upfb  -1.82240
gfz2011aatr   0.46978
gfz2011adjs   1.72380
gfz2011bgrp  -0.17411
gfz2011csju   0.62463
gfz2011cykd   0.31474
gfz2011dbev   0.95220
gfz2011dbig   1.12430
gfz2011dcqb   1.08390
gfz2011dpqx   0.60169
gfz2011enva  -0.15315
gfz2011flgj   0.53765
gfz2011gkzt  -0.50959
gfz2011hlsa   0.77298
gfz2011lcxq   1.33210
gfz2011lzwj  -0.27711
gfz2011rewa   0.40387
gfz2011toub   1.62740
gfz2011vrhg  -0.30353
gfz2011wxfs   0.43053
gfz2012bpkx   0.19246
gfz2012enno   0.41360
gfz2012fzfa   0.26194
gfz2012hnul  -0.98744
gfz2012jlox   0.34009
gfz2012jupx   1.49620
gfz2012kkup   1.11570
gfz2012klhx   1.20630
gfz2012ldxg   0.11941
gfz2012vrgb   0.02860
gfz2012wklq   1.09220
gfz2013bzlb   4.13010
gfz2013casg   0.52197
gfz2013enbx   0.67490
gfz2013lixa  -0.43188
gfz2013mvgr  -3.52380
gfz2013nkgj   0.32708
gfz2013nwdi   1.35810
gfz2013pfbx  -1.13540
gfz2013svci  -0.15563
gfz2013vjjc   1.41160
gfz2014ande   0.11579
gfz2014bwue   1.14770
gfz2014bzxy   0.08152
gfz2014fgvi   0.21626
gfz2014fhla   0.72266
gfz2014fkmr   0.54632
gfz2014ftka   0.14907
gfz2014gkgf   0.00000
gfz2014gkgl  -0.11503
gfz2014gkqf  -0.33634
gfz2014gmge  -0.27563
gfz2014gmhr   0.98029
gfz2014gmnb   1.42730
gfz2014goba   0.89772
gfz2014gwab  -1.07560
gfz2014gxvf   0.52440
gfz2014hasj   0.44352
gfz2014hgqo   0.91961
gfz2014hhfs   0.89439
gfz2014hocg   0.25246
gfz2014ieho  -3.80540
gfz2014jjhc  -0.07798
gfz2014mxkr  -0.19112
gfz2014qlvc   2.77660
gfz2014ssvz  -1.31990
gfz2014tqdo  -0.13329
gfz2014watn  -1.61060
gfz2015chhn  -0.07835
gfz2015cyjd  -1.60560
gfz2015fkgt   2.07560
gfz2015fsjj   0.09984
gfz2015gckd   0.00000
gfz2015hepg  -0.39870
gfz2015jmlu   1.88380
gfz2015kfsu  -0.15669
gfz2015lytv   0.56396
gfz2015sfdd   0.41436
gfz2015sfdy  -0.21990
gfz2015sfnb  -0.46531
gfz2015sfno   1.46160
gfz2015sgdj  -0.04582
gfz2015sghq   0.91214
gfz2015sgpu  -0.66945
gfz2015sjgk   0.74683
gfz2015sjoj  -0.08174
gfz2015smym  -0.42033
gfz2015snwh  -0.03959
gfz2015snyd  -0.17556
gfz2015soxc   1.16050
gfz2015sqyh   0.08605
gfz2015svwm   1.11760
gfz2015sxmh   0.94338
gfz2015szfq  -1.17250
gfz2015taml  -0.40831
gfz2015tbje  -0.45755
gfz2015tiyc   0.93551
gfz2015tlkf   0.47242
gfz2015tnjd   0.36053
