# Nsamples: 22  MAD:  0.754  mean:  0.739  variance:  1.606
gfz2010iull   1.24150
gfz2010jkxj  -0.24267
gfz2010nmpc   0.50568
gfz2011aatr   0.40810
gfz2011lcxq   1.29450
gfz2011lzwj   0.23861
gfz2011wxfs   1.07970
gfz2012jlox   0.24252
gfz2012kudo   0.57808
gfz2012oazn   0.13610
gfz2013nwdi   0.24358
gfz2013svci   0.76333
gfz2014bwue   0.96926
gfz2014fgvi  -0.27082
gfz2014gkgf   2.15690
gfz2014gmge   3.55270
gfz2014gmhr   2.66490
gfz2014gmnb   1.39010
gfz2014goba   1.28670
gfz2014nqfm   1.15350
gfz2014pvch   0.18961
gfz2014qlxd  -3.32230
