# Nsamples: 217  MAD:  0.780  mean:  0.011  variance:  2.013
gfz2010iobp  -1.21000
gfz2010iqnm   0.05772
gfz2010iull  -0.39170
gfz2010lluj   2.12850
gfz2010moyw  -0.66561
gfz2010nmpc  -0.67971
gfz2010nqwo  -2.43780
gfz2010nrjo  -0.63670
gfz2010nwef   0.30621
gfz2010onma  -0.82044
gfz2010rkfp   1.98140
gfz2010rqwj   0.47131
gfz2010sfee   0.19931
gfz2010skve   0.82965
gfz2010svtn  -0.88976
gfz2010usho   0.47382
gfz2010utcg  -0.60785
gfz2010vbmd  -0.49720
gfz2010vhuj   1.48870
gfz2010xjsj  -0.59586
gfz2010yosr   0.76278
gfz2011aqxf   7.14980
gfz2011cvfg  -0.31587
gfz2011deaf   3.86130
gfz2011dkyi  -0.30559
gfz2011fgvr   1.68950
gfz2011fnsw  -0.26184
gfz2011gcwb  -0.20850
gfz2011gkzt  -2.11220
gfz2011hfkj   0.09661
gfz2011hlqw   0.00370
gfz2011hlsa  -0.51332
gfz2011hlth   0.20128
gfz2011jplh  -0.41032
gfz2011kwhq   9.93640
gfz2011kxzp  -2.45000
gfz2011lcxq   0.18743
gfz2011lzwj  -0.04418
gfz2011mdie  -0.62335
gfz2011nrwc   1.84050
gfz2011ntkh  -0.37531
gfz2011nudm  -0.48399
gfz2011ornx  -0.24336
gfz2011owvz  -0.84007
gfz2011rewa  -0.81381
gfz2011rgwp  -1.03770
gfz2011sagt  -0.66407
gfz2011tcij   0.01976
gfz2011tkog   0.57679
gfz2011toub  -0.06075
gfz2011tpbl   0.16957
gfz2011vhfi  -0.61271
gfz2011vnza  -0.26170
gfz2011vrhg  -0.74693
gfz2011vxod   0.05132
gfz2011wcic  -5.00180
gfz2011wxfs  -0.51791
gfz2011wxtk  -0.28103
gfz2011wype  -1.23500
gfz2011xyxj   0.56874
gfz2012bfah   0.28678
gfz2012bpkx  -1.68080
gfz2012brhv  -0.72508
gfz2012cmfy   1.09030
gfz2012cxdn  -1.82490
gfz2012czlw  -0.22175
gfz2012dinb  -4.52440
gfz2012enno  -0.90087
gfz2012fivh  -0.57800
gfz2012fzfa  -1.24340
gfz2012hnul   0.07360
gfz2012hnuw   1.14670
gfz2012ilvn  -0.45324
gfz2012jlox   0.70894
gfz2012jshk   1.07280
gfz2012kkup   0.86406
gfz2012kudo  -0.32161
gfz2012kwgo   0.07706
gfz2012ldxg   2.37880
gfz2012minr   1.38680
gfz2012mvwr  -0.45616
gfz2012nkdf  -0.43486
gfz2012sphd   0.09194
gfz2012uafg  -0.68195
gfz2012uhup   0.04657
gfz2012vrgb   0.14101
gfz2012wklq   1.34760
gfz2012wvfl   0.85037
gfz2012wxlg   0.26377
gfz2013ccnr   2.60670
gfz2013cwpn   1.06000
gfz2013drxz  -0.29043
gfz2013iunn  -0.52335
gfz2013jkut   1.54980
gfz2013jusj  -0.52746
gfz2013jwvc   0.99655
gfz2013ldqb   0.15107
gfz2013lixa  -0.75917
gfz2013mqmv   2.27060
gfz2013mwbh   1.04250
gfz2013ncjp   1.31380
gfz2013nkgj  -0.59873
gfz2013qfsq   0.17987
gfz2013qmer  -0.46863
gfz2013sdus   0.52882
gfz2013suvn  -0.77251
gfz2013svci   1.96840
gfz2013ttoz  -3.15090
gfz2013tusd  -0.56446
gfz2013uauo   0.30952
gfz2013vjjc   1.98830
gfz2013vzbo   0.01410
gfz2013xmul  -0.34198
gfz2013xsdt  -0.75283
gfz2013xwxn  -3.70650
gfz2013xxwv   0.20604
gfz2013xxxq  -0.71504
gfz2013yqkv   0.05774
gfz2013zmoc  -0.80138
gfz2014afmx   1.13950
gfz2014ande   0.17954
gfz2014bezu   2.81920
gfz2014bldx  -0.80282
gfz2014bwue  -0.30478
gfz2014bzxy   0.01950
gfz2014cvkm  -0.57627
gfz2014czqi  -0.31717
gfz2014duqn   0.34820
gfz2014ekcr  -0.56257
gfz2014fgvi   1.47920
gfz2014fhla   1.46720
gfz2014fkmr   1.30580
gfz2014fnyg   0.11591
gfz2014ftka   2.12300
gfz2014gbcz   0.51411
gfz2014ghpe   0.02930
gfz2014gkgf   0.86447
gfz2014gkgs   0.04404
gfz2014gkqf   0.72417
gfz2014gmge  -0.65672
gfz2014gmhr   0.24138
gfz2014gmnb   0.43391
gfz2014goba   0.12182
gfz2014gpya   1.43030
gfz2014gull  -1.35270
gfz2014gulp  -0.44857
gfz2014gwab   1.47890
gfz2014hasj  -0.61552
gfz2014hauo  -0.24517
gfz2014hocg  -0.15556
gfz2014jatq  -1.29390
gfz2014jjhc  -0.78534
gfz2014jnyv   0.52652
gfz2014jpep  -0.73855
gfz2014jtfe   1.19360
gfz2014jwmh   0.78668
gfz2014knks  -0.31178
gfz2014ksdv  -0.13940
gfz2014kssw  -2.18620
gfz2014kwie  -1.61430
gfz2014kytf  -0.59663
gfz2014lnmw  -0.46364
gfz2014npeo  -0.44620
gfz2014nqfm   0.07684
gfz2014nrie   2.63910
gfz2014oinz   0.46204
gfz2014pvch   0.12688
gfz2014qlxd   1.29410
gfz2014qngj  -0.59037
gfz2014riel   0.37608
gfz2014ssvz  -1.63270
gfz2014ubwn   1.00430
gfz2014watn   0.28066
gfz2015chhn  -0.91729
gfz2015cxxk  -0.31125
gfz2015cyjd  -0.59901
gfz2015elgy   0.24204
gfz2015fkgt  -0.09474
gfz2015fsjj  -0.53963
gfz2015gckd   0.13755
gfz2015gjbr   0.53135
gfz2015hepg  -0.79648
gfz2015hgbk   0.31903
gfz2015kfsu   0.38643
gfz2015ksni  -2.48670
gfz2015lhjy   0.15497
gfz2015lytv   0.49948
gfz2015qnho  -0.15414
gfz2015rddx  -1.66600
gfz2015sfdd   0.11780
gfz2015sfdy  -0.79655
gfz2015sfeo   1.57720
gfz2015sfhz   0.26812
gfz2015sfiq  -0.08122
gfz2015sfnb   2.05080
gfz2015sfno  -0.47904
gfz2015sfwf  -0.41029
gfz2015sgdn  -0.32518
gfz2015sghq   0.50149
gfz2015shhg  -0.40675
gfz2015sjgk   0.81356
gfz2015sjoj  -0.11027
gfz2015sjvu  -1.13930
gfz2015smym  -0.71015
gfz2015snwh  -0.16325
gfz2015snyd  -0.38245
gfz2015soat   0.07303
gfz2015soxc   0.00665
gfz2015sqmy  -1.30690
gfz2015svwm   0.38851
gfz2015szcb  -0.33690
gfz2015taml  -0.98109
gfz2015tbje   0.43931
gfz2015tiyc  -0.29786
gfz2015tkol  -1.19900
gfz2015tnjd  -3.41640
gfz2015truf  -0.13408
