# Nsamples: 46  MAD:  0.934  mean:  2.734  variance:  1.445
gfz2011jplh   2.31820
gfz2011lcxq   3.30520
gfz2011lzwj   2.92070
gfz2011rewa   1.20470
gfz2011vrhg   1.88290
gfz2011wxfs   3.17260
gfz2012bpkx  -0.60351
gfz2012enno   2.74260
gfz2012jlox   3.47100
gfz2012jupx   4.50470
gfz2012ldxg   1.37980
gfz2012wklq   2.56420
gfz2012wypz   2.76040
gfz2013drxz   3.14660
gfz2013jusj   1.45470
gfz2013ldqb   3.62560
gfz2013qmer   3.43890
gfz2013svci   1.78750
gfz2013vjjc   3.20590
gfz2013xsdt   2.31870
gfz2014bwue   1.72210
gfz2014claq   2.65450
gfz2014frdz   3.03220
gfz2014gkgf   5.67070
gfz2014gkgs   1.62060
gfz2014gmhr   2.68490
gfz2014goba   2.93800
gfz2014gull   4.39270
gfz2014jjhc   3.43760
gfz2014qlxd   2.22270
gfz2014ssvz   2.90470
gfz2015berb   3.48270
gfz2015byjd   0.33103
gfz2015chhn   2.19720
gfz2015cyjd   3.78120
gfz2015fsjj   3.97870
gfz2015lytv   0.28389
gfz2015sfdd   2.28170
gfz2015sfdy   2.71200
gfz2015sgdn   3.15260
gfz2015snwh   4.37880
gfz2015snyd   3.58390
gfz2015svjy   0.73331
gfz2015svwm   2.79630
gfz2015taml   4.44020
gfz2015tnjd   3.75390
