# Nsamples: 461  MAD:  0.649  mean:  0.094  variance:  1.455
gfz2010ahqi   0.15063
gfz2010bfzs  -0.39628
gfz2010bgth   0.45327
gfz2010bhhq  -1.37570
gfz2010bjeb   0.32447
gfz2010bjsl  -1.33880
gfz2010bowy   0.20520
gfz2010bxxs   0.19317
gfz2010cbkg   0.66240
gfz2010cqwl  -0.17750
gfz2010czps  -1.52060
gfz2010dlgc   0.04863
gfz2010eaoy   0.00000
gfz2010eapk   0.28044
gfz2010eapn   0.35092
gfz2010eaqe  -0.37566
gfz2010eaqx  -0.71205
gfz2010eaqy   0.65833
gfz2010earu  -1.58150
gfz2010easf   0.14085
gfz2010eask  -2.06700
gfz2010easo   0.66527
gfz2010easu   0.99928
gfz2010eati  -2.79750
gfz2010eato   0.89692
gfz2010eaul   0.07404
gfz2010eavs   0.43380
gfz2010eawb   1.00500
gfz2010eawu   0.40865
gfz2010eaxn  -0.49418
gfz2010eayx  -0.96786
gfz2010eaze   0.67641
gfz2010eazu  -0.61539
gfz2010ebbd  -0.68232
gfz2010ebby  -1.12970
gfz2010ebeh   0.50480
gfz2010ebfx  -1.22910
gfz2010ebhc  -1.42870
gfz2010ebih   0.56305
gfz2010ebin   0.30973
gfz2010ebiv   0.03123
gfz2010ebjg  -0.12455
gfz2010ebjy  -0.22116
gfz2010ebkj   0.22372
gfz2010ebla   0.49638
gfz2010ebll  -0.20647
gfz2010ebmb  -0.09095
gfz2010ebmi  -0.29652
gfz2010ebnn   0.78630
gfz2010ebrm  -0.24481
gfz2010ebsv   0.07701
gfz2010ebtk  -0.64739
gfz2010ebvm  -1.83460
gfz2010ebvv   1.28400
gfz2010ebwp   0.30305
gfz2010ebxl   0.81400
gfz2010ebzk   0.05632
gfz2010ebzr   0.33202
gfz2010ecay   2.28580
gfz2010ecbi  -0.06119
gfz2010eccq   0.00000
gfz2010echc   0.36568
gfz2010echy  -1.06190
gfz2010ecns  -0.52236
gfz2010ecua  -0.17125
gfz2010edbz   0.67915
gfz2010edcp   0.58378
gfz2010edde  -0.69630
gfz2010edkp  -0.37785
gfz2010edpb  -0.09508
gfz2010edvf   1.06100
gfz2010edyi   0.73547
gfz2010eeij   0.09703
gfz2010eern   0.09502
gfz2010eevu   0.41577
gfz2010efak   0.04283
gfz2010egmp  -0.33942
gfz2010ehaj   0.74563
gfz2010eioi   1.08000
gfz2010eisx  -2.65510
gfz2010eixj   0.79692
gfz2010ejjg   0.44901
gfz2010ekaw   0.42559
gfz2010ekoe   0.14536
gfz2010ekyc  -0.34919
gfz2010elhv  -0.71141
gfz2010eltf   0.47402
gfz2010elyc  -0.06951
gfz2010encm   0.46339
gfz2010eoao  -0.08888
gfz2010epbe   0.29209
gfz2010eqjg   0.39915
gfz2010eqmu  -0.08900
gfz2010erdi   0.06780
gfz2010erkn  -0.19980
gfz2010erna   1.98390
gfz2010erom  -0.29185
gfz2010erum   0.72112
gfz2010erxk   0.35201
gfz2010eryg   0.14138
gfz2010eujm   0.06921
gfz2010evco   0.03729
gfz2010ewvc   0.31226
gfz2010ewyu  -0.78803
gfz2010excp   0.36107
gfz2010exdd  -0.53616
gfz2010exdl   0.04474
gfz2010exed  -0.71504
gfz2010exgb   0.00000
gfz2010exhd  -0.22179
gfz2010exhw   0.32865
gfz2010exjw  -0.70062
gfz2010exmc  -0.93557
gfz2010exno   0.60190
gfz2010exsg  -0.44540
gfz2010eyaz   0.36874
gfz2010eyiv  -0.64126
gfz2010ezax  -0.09203
gfz2010ezck  -0.18782
gfz2010ezwz   0.00780
gfz2010ezxd  -0.45002
gfz2010falm   0.47635
gfz2010fcax   0.66710
gfz2010fcxy  -6.94230
gfz2010fedq   1.62690
gfz2010ffhq   0.37891
gfz2010ffjb   0.90177
gfz2010figq  -0.26472
gfz2010fika  -1.23160
gfz2010fjal   0.39806
gfz2010fjas   0.01584
gfz2010flha   0.77075
gfz2010fpqy   1.02830
gfz2010fqdu   1.83830
gfz2010fupn  -0.81549
gfz2010fync  -0.82056
gfz2010gcrl  -0.35636
gfz2010gcrp  -4.20470
gfz2010gdld  -0.63008
gfz2010glxl  -0.12365
gfz2010grjd   0.35234
gfz2010gtzt  -0.32365
gfz2010gyqp   0.33261
gfz2010gzxr  -0.15713
gfz2010hbka  -0.54875
gfz2010hllj   0.38420
gfz2010hlmq  -0.03813
gfz2010hptz   0.03857
gfz2010hxgv  -0.01236
gfz2010icqq  -1.05490
gfz2010iibf   0.58814
gfz2010imfv  -0.66043
gfz2010iobp   0.89166
gfz2010iqnm   0.49184
gfz2010iull  -0.36905
gfz2010jpyj  -0.91562
gfz2010jssh  -0.13380
gfz2010jxbm   0.86746
gfz2010kdyc   0.55349
gfz2010mant  -0.59100
gfz2010mgss   0.47461
gfz2010moyw   0.44259
gfz2010mpuy   0.96065
gfz2010mwdq   0.28588
gfz2010nmpc  -0.36850
gfz2010nqwo   0.40561
gfz2010nrjo   0.86113
gfz2010nsck  -0.21268
gfz2010nwef   0.33844
gfz2010nxsy  -0.18686
gfz2010onma  -0.19253
gfz2010pbdz   1.50690
gfz2010pewx   0.57697
gfz2010pfyu  -0.44700
gfz2010pxgh  -1.21240
gfz2010qpvi   0.11001
gfz2010rhas   0.85869
gfz2010rqwj  -0.23494
gfz2010rywq   0.10670
gfz2010sfee  -0.32803
gfz2010srdb   0.45756
gfz2010tcrl   1.04530
gfz2010upfb   0.41720
gfz2010usho   0.12847
gfz2010ustq   0.36020
gfz2010utcg   0.34486
gfz2010vyxd   0.09924
gfz2010yjev   0.98887
gfz2010yosr   0.14902
gfz2011aatr   0.47351
gfz2011adjs  -0.17896
gfz2011alip  -0.25509
gfz2011aqxf   7.78410
gfz2011bgrp  -0.62490
gfz2011bhha  -0.66937
gfz2011cndo   0.16137
gfz2011csju  -0.37860
gfz2011cvfg   0.13670
gfz2011cykd   0.16637
gfz2011cynl   0.39362
gfz2011cyre   0.69210
gfz2011cyuk  -0.14972
gfz2011dbev   0.39841
gfz2011dbig   0.11306
gfz2011dbon  -0.19584
gfz2011dbwt   0.07522
gfz2011dcqb   0.18008
gfz2011dkyi   0.41920
gfz2011dpqx   0.81917
gfz2011ecaj  -0.18479
gfz2011ehzq  -0.03094
gfz2011enva  -0.76263
gfz2011etje   0.66964
gfz2011gbmx   0.41761
gfz2011gcwb   0.68693
gfz2011gjlx  -0.62980
gfz2011gkzt  -0.11718
gfz2011hfkj  -0.45306
gfz2011hlqw   0.17682
gfz2011hlsa   0.11942
gfz2011hlth   0.47505
gfz2011hpqp   0.98248
gfz2011jplh   0.08062
gfz2011kxzp   0.53669
gfz2011lcxq   1.12740
gfz2011lzwj  -0.00706
gfz2011mdie   0.57935
gfz2011mpme  -0.08668
gfz2011nrwc   1.26020
gfz2011nrwv   0.61001
gfz2011ntkh  -0.78213
gfz2011nudm  -0.72845
gfz2011olkk  -0.23261
gfz2011orgn  -0.09161
gfz2011ornx  -0.28229
gfz2011owvz   0.09208
gfz2011rewa   0.20311
gfz2011rsrh  -0.53321
gfz2011sagt   0.01922
gfz2011toub   0.98710
gfz2011tpbl   1.27020
gfz2011vhfi   1.01260
gfz2011vnza  -0.75129
gfz2011vrhg  -0.03421
gfz2011vxns  -0.97881
gfz2011wxfs  -0.21990
gfz2011wxtk  -0.16909
gfz2011xaan   0.12520
gfz2011xyxj   0.59673
gfz2012aqgp   0.18407
gfz2012attr   0.11808
gfz2012bfah   0.66817
gfz2012bpkx   0.62615
gfz2012bpwl  -2.98450
gfz2012cxdn   0.40495
gfz2012ekda   0.31448
gfz2012fzfa   0.59633
gfz2012hnul  -0.31166
gfz2012jgvj   0.39739
gfz2012jlox   0.38876
gfz2012jupx  -0.22428
gfz2012keor   0.27004
gfz2012kkup   0.45578
gfz2012klhx   0.49700
gfz2012kuct   0.10050
gfz2012kudo   0.09001
gfz2012lczo   1.11630
gfz2012ldxg   1.83230
gfz2012ldzj   0.92339
gfz2012nkdf  -0.74428
gfz2012oazn  -0.32788
gfz2012qjhs  -0.68750
gfz2012rwov   0.42557
gfz2012sphd  -0.32191
gfz2012tvmv  -0.22588
gfz2012uafg  -0.00000
gfz2012vrgb   0.91099
gfz2012wklq   0.03090
gfz2012wxlg   0.29054
gfz2012wypz   0.14093
gfz2012zfag   0.43766
gfz2012zitl   0.23588
gfz2013axoj   2.33280
gfz2013bokp   1.07080
gfz2013ccnr  -1.40880
gfz2013cwpn   0.39585
gfz2013dkly  -0.34843
gfz2013drpk   0.42137
gfz2013drxz  -0.03235
gfz2013jgip  -0.24084
gfz2013jkut   1.36110
gfz2013jusj  -0.60239
gfz2013jwvc   0.22482
gfz2013kdeo   1.05000
gfz2013lajn  -0.04864
gfz2013mqmv   2.42070
gfz2013ngnt  -0.02725
gfz2013nkgj   0.43066
gfz2013nnzf  -0.12065
gfz2013nwdi   0.39238
gfz2013pfbx   0.04640
gfz2013pxsj  -0.54832
gfz2013qmer   0.31570
gfz2013svci  -1.02590
gfz2013tcxc  -0.20760
gfz2013twwf   4.21220
gfz2013uauo   0.21246
gfz2013vfyw  -1.28090
gfz2013vfzp   0.92784
gfz2013vjjc   0.90754
gfz2013vzbo   1.35390
gfz2013xsdt   0.19884
gfz2013xxxq  -1.16280
gfz2014afmx   0.73108
gfz2014bekc   0.61805
gfz2014bldx  -0.51324
gfz2014bwue   0.22575
gfz2014bzxy   0.13449
gfz2014cvxx  -1.48690
gfz2014czqi   0.29557
gfz2014czua  -0.56338
gfz2014dhxt   0.51743
gfz2014ekcr   0.14961
gfz2014enhi  -0.24322
gfz2014femz  -2.10320
gfz2014ffdc   0.98064
gfz2014fgvi   0.47126
gfz2014fhla  -0.97312
gfz2014fkmr   1.98410
gfz2014frdz   0.12018
gfz2014ftka   0.82938
gfz2014furx  -1.07000
gfz2014fusj   0.09777
gfz2014gbcz   0.22075
gfz2014gkgf  -0.29152
gfz2014gkqf   0.91730
gfz2014gmge  -1.57000
gfz2014gmhr  -0.59636
gfz2014gmnb   0.62686
gfz2014gmnw   1.17960
gfz2014gnfd  -0.08110
gfz2014gnwg  -0.48945
gfz2014goba  -0.01363
gfz2014gpya   0.71344
gfz2014gull   0.43677
gfz2014gulp  -0.61207
gfz2014gvrd  -3.21960
gfz2014gwab   1.17930
gfz2014gxxo  -0.14668
gfz2014hasj   0.75772
gfz2014hauo  -0.58538
gfz2014hbqb  -0.02015
gfz2014hcmj  -1.37570
gfz2014hfhl   0.81050
gfz2014hgqo   0.60549
gfz2014hmzg   0.52039
gfz2014hocg   0.66672
gfz2014ijvh  -0.49916
gfz2014inbj   0.34861
gfz2014jnyv  -0.96423
gfz2014jwmh   0.00000
gfz2014kjee  -2.67450
gfz2014lddn   0.45913
gfz2014ldhu   0.03740
gfz2014lyhk   0.46660
gfz2014mden   0.34306
gfz2014npeo  -1.44310
gfz2014nqfm   0.84577
gfz2014nrie   2.22140
gfz2014oinz   0.37646
gfz2014oxcc  -1.31370
gfz2014pvch   0.15053
gfz2014qlxd   0.74102
gfz2014qngj  -0.72342
gfz2014qqhm   1.32520
gfz2014rkwl  -0.11570
gfz2014ssmv  -0.96627
gfz2014ssvz  -0.81436
gfz2014tqdo   0.34234
gfz2014watn  -0.19135
gfz2015aruz   0.15760
gfz2015berb  -0.23251
gfz2015chhn   0.75699
gfz2015cyjd  -0.32059
gfz2015fjhk  -0.37741
gfz2015fkgt   0.61844
gfz2015fkic  -1.39170
gfz2015fsjj  -0.41080
gfz2015gckd   0.61095
gfz2015ggjw  -0.45714
gfz2015gjbr   0.39117
gfz2015guhd  -0.65276
gfz2015hdcp   0.96776
gfz2015hgbk   0.07497
gfz2015igsy   0.63787
gfz2015lhjy   0.21176
gfz2015lytv   0.28392
gfz2015nuxz   1.08670
gfz2015prlr  -1.97040
gfz2015qnho   0.07433
gfz2015sfdd   1.07190
gfz2015sfdh  -1.49370
gfz2015sfdl   0.24889
gfz2015sfdv   0.73456
gfz2015sfdy  -0.65434
gfz2015sfeo   1.89290
gfz2015sfhz   0.99098
gfz2015sfiq  -0.55832
gfz2015sfnb  -0.38752
gfz2015sfno   0.16450
gfz2015sfnv  -0.53087
gfz2015sfoc   1.22430
gfz2015sfoh  -0.45474
gfz2015sfoq   1.33050
gfz2015sfqr  -0.98885
gfz2015sfte   0.03951
gfz2015sfwf  -0.40450
gfz2015sfzm   0.34465
gfz2015sgdj   2.16390
gfz2015sgdn   1.39670
gfz2015sggc   0.66333
gfz2015sghq   0.95780
gfz2015sgie   0.29538
gfz2015sgoa  -0.31476
gfz2015shhg  -0.51364
gfz2015shsz  -3.05280
gfz2015sjbx   0.11018
gfz2015sjgk   0.45007
gfz2015sjjb   0.02237
gfz2015sjne   1.16320
gfz2015sjoj   0.31801
gfz2015sjvu   0.67322
gfz2015sjwi  -0.33218
gfz2015skpv  -0.85187
gfz2015slun   0.34899
gfz2015smym  -0.78486
gfz2015snhn   0.10174
gfz2015snsf  -0.25459
gfz2015snwh  -0.30865
gfz2015snyd   0.55348
gfz2015soat   0.79056
gfz2015soxc  15.65000
gfz2015srat   0.90269
gfz2015stfy  -0.61689
gfz2015stso  -0.18688
gfz2015susq  -1.15580
gfz2015svjy   0.62856
gfz2015svwm  -0.16719
gfz2015swgn   0.45301
gfz2015szcb   0.65503
gfz2015taml  -0.34071
gfz2015tbdn   0.10154
gfz2015tdcu  -0.26923
gfz2015tixi  -0.04951
gfz2015tiyc  -0.57425
gfz2015tlba  -0.13874
gfz2015tlkf   0.54079
gfz2015tlok  -1.05600
gfz2015tnjd  -0.36488
gfz2015totf  -1.55900
gfz2015tsdm   0.33994
