# Nsamples: 553  MAD:  0.636  mean: -0.020  variance:  1.468
gfz2010aerk  -0.09268
gfz2010ahqi  -0.62592
gfz2010bfzs  -0.54858
gfz2010bifb  -2.59990
gfz2010bjeb  -0.06104
gfz2010bkob   1.22000
gfz2010bowy  -0.45153
gfz2010bxxs   0.15305
gfz2010caft  -0.46561
gfz2010cbkg   0.60030
gfz2010czps   0.14905
gfz2010eaoy  -1.41480
gfz2010eapk   0.44324
gfz2010eapn  -0.12732
gfz2010eaqe  -0.09765
gfz2010eaqx  -1.83680
gfz2010eaqy  -1.56500
gfz2010earu  -2.03730
gfz2010easf  -0.64498
gfz2010easo  -0.22646
gfz2010eato  -2.92870
gfz2010eatt   0.53418
gfz2010eaty  -0.35874
gfz2010eavd   2.60700
gfz2010eavs  -0.32005
gfz2010eawb  -1.47000
gfz2010eawu  -0.99001
gfz2010eaxa  -0.80127
gfz2010eaxn  -0.55965
gfz2010eayp  -0.20634
gfz2010eaze  -1.05060
gfz2010eazu  -0.07192
gfz2010ebbx   0.83541
gfz2010ebby  -0.47714
gfz2010ebdl  -0.41420
gfz2010ebhc  -0.17804
gfz2010ebin   3.47830
gfz2010ebjy  -0.11468
gfz2010ebkj   0.08415
gfz2010ebla  -0.00678
gfz2010ebll  -1.82030
gfz2010ebmb  -0.21823
gfz2010ebnn   1.30440
gfz2010ebrm  -0.89803
gfz2010ebvm  -0.79493
gfz2010ebwp  -0.47729
gfz2010ebxl  -1.46860
gfz2010ebze   6.65530
gfz2010ebzk  -0.61724
gfz2010ebzr  -0.92151
gfz2010ecam   0.33888
gfz2010ecay  -0.24639
gfz2010ecbi   2.22520
gfz2010eccq  -0.56472
gfz2010ecft   1.74190
gfz2010ecfx  -0.61948
gfz2010ecfy  -0.89636
gfz2010echc   0.44545
gfz2010echt   0.25131
gfz2010ecls   1.01460
gfz2010ecns  -1.02860
gfz2010ecps  -1.03930
gfz2010ecro   0.76745
gfz2010ecsp  -1.71320
gfz2010ectq  -0.23088
gfz2010ecua  -0.82569
gfz2010ecuv  -2.91310
gfz2010ecvt   0.22869
gfz2010eday  -1.06550
gfz2010edcp  -1.27610
gfz2010edhr   0.45256
gfz2010edim  -1.58550
gfz2010edkp  -0.16795
gfz2010edyi   0.81793
gfz2010eedu   1.86960
gfz2010eern  -1.60540
gfz2010efsq  -0.40954
gfz2010egap   0.40226
gfz2010eisx  -0.87573
gfz2010eixj  -1.82340
gfz2010ejae  -0.10121
gfz2010ejjg  -0.62725
gfz2010ejju   2.12440
gfz2010ekoe  -0.27120
gfz2010ekrv   1.33100
gfz2010ekyc  -0.13994
gfz2010elhv   0.26446
gfz2010elin   0.89211
gfz2010eltf   0.76135
gfz2010elyc  -0.33386
gfz2010elyo  -0.58729
gfz2010emyz  -0.45367
gfz2010epxj  -0.79173
gfz2010eqmu   2.05730
gfz2010erkn  -0.73567
gfz2010erom  -1.41250
gfz2010eruy  -0.25071
gfz2010erwn  -0.20050
gfz2010erxb   0.29275
gfz2010eujm  -0.19223
gfz2010euxe  -1.00290
gfz2010evgf  -2.20220
gfz2010ewvc  -0.75425
gfz2010excp  -0.11126
gfz2010exdd  -0.65430
gfz2010exdl  -0.21114
gfz2010exel  -1.10040
gfz2010exfb  -0.90172
gfz2010exgb  -0.74601
gfz2010exhd  -0.84385
gfz2010exhw  -0.97264
gfz2010exmc  -0.30196
gfz2010exno   0.12864
gfz2010exqu   0.48781
gfz2010exsg   1.60950
gfz2010ezck   0.00579
gfz2010faeu   1.99760
gfz2010falm  -0.95740
gfz2010fauz   1.19600
gfz2010fcax  -0.66916
gfz2010fcnn   0.58836
gfz2010fczt   0.04979
gfz2010fdab  -1.08590
gfz2010fedq   0.52915
gfz2010ffhq  -0.91480
gfz2010ffjb   0.45294
gfz2010figq  -1.01050
gfz2010fihj  -0.04385
gfz2010fjal   0.36780
gfz2010fkvg   5.15000
gfz2010flha  -1.58890
gfz2010flrt  -0.86624
gfz2010flxi   0.02600
gfz2010fmhb   0.69673
gfz2010fneu   3.29490
gfz2010fpqy   0.69725
gfz2010fqdu   0.52892
gfz2010fqtj  -0.55824
gfz2010fser   1.50960
gfz2010ftlm   0.00083
gfz2010fync   0.08865
gfz2010gcrl  -0.87937
gfz2010gdld  -0.81595
gfz2010gjia   0.48077
gfz2010glxl   0.14228
gfz2010grjd  -1.02510
gfz2010gyqp  -0.12032
gfz2010gzxr  -0.56548
gfz2010hcio   0.64345
gfz2010homc  -0.22234
gfz2010hptz  -1.90530
gfz2010hxgv  -0.88879
gfz2010iibf   0.47621
gfz2010iobp   0.41159
gfz2010iqnm   1.32030
gfz2010irvf  -0.21743
gfz2010iull  -0.00490
gfz2010izzj   0.34082
gfz2010jxbm   0.67163
gfz2010lepw  -1.33600
gfz2010lkcf   0.49211
gfz2010mkuu  -0.02431
gfz2010mncc  -0.33802
gfz2010mnsz  -0.35444
gfz2010moyw  -1.16620
gfz2010nmpc  -1.28390
gfz2010nqwo  -1.67900
gfz2010nrjo   0.06132
gfz2010nsck  -0.61726
gfz2010nsdf  -2.94270
gfz2010nubk  -0.28931
gfz2010nwef  -0.25695
gfz2010nxsy  -0.25640
gfz2010nzla   0.52841
gfz2010okdm  -0.41782
gfz2010onma   0.10009
gfz2010qjst  -0.08855
gfz2010rhas   0.43603
gfz2010rkfp   0.08635
gfz2010rqwj   4.10010
gfz2010rxjw   1.65280
gfz2010sfee   0.00000
gfz2010svtn  -0.37036
gfz2010swcy  -0.03433
gfz2010sxwt  -0.25838
gfz2010szde   0.25310
gfz2010tcrl  -0.32335
gfz2010truw  -0.67123
gfz2010upfb   1.01140
gfz2010usho   1.39280
gfz2010ustq   0.82185
gfz2010utcg  -1.00850
gfz2010vbmd   0.43372
gfz2010vhuj   1.05650
gfz2010vtdg   0.05470
gfz2010wioh  -0.14277
gfz2010wrxx   4.04420
gfz2010xbdv   0.59884
gfz2010xjsj  -0.02947
gfz2010xmpr  -1.11790
gfz2010xnxk  -0.19378
gfz2010yjev   0.02185
gfz2011aatr  -0.09716
gfz2011adjs  -1.55620
gfz2011ahfw   0.72361
gfz2011alip  -0.08444
gfz2011bgrp   0.05987
gfz2011bhha   0.66797
gfz2011blsi   2.93880
gfz2011bpkd   0.15723
gfz2011ccpw   1.16620
gfz2011ecaj  -0.16772
gfz2011ehzq   0.82558
gfz2011enva  -0.15081
gfz2011fgvr  -0.12010
gfz2011fhbm   1.93660
gfz2011fhur   0.25201
gfz2011flgj   0.82854
gfz2011fnsw  -0.54832
gfz2011gbmx  -2.05530
gfz2011gcwb  -1.37780
gfz2011gkzt   0.09834
gfz2011hbex   0.59563
gfz2011hebt   0.01220
gfz2011hfkj  -0.48269
gfz2011hlqw  -0.27119
gfz2011hlsa  -0.23718
gfz2011hlth   0.05468
gfz2011hpqp   0.93335
gfz2011icxe  -0.39349
gfz2011ieie   1.15200
gfz2011iwte  -1.15800
gfz2011izqa  -0.14319
gfz2011jmbn   0.63949
gfz2011jnmi  -0.06523
gfz2011jplh   0.05791
gfz2011lcxq   0.58653
gfz2011ugzz   1.01560
gfz2011ujze  -0.00100
gfz2011uphh   0.07113
gfz2011urxy  -0.01809
gfz2011urzu  -0.11842
gfz2011vhfi   0.08067
gfz2011vnza  -0.30675
gfz2011vxns  -0.95959
gfz2011wcic  -1.29740
gfz2011wijj  -0.52278
gfz2011wjul  -0.32852
gfz2011wxfs   0.16805
gfz2011wxtk   0.28982
gfz2011xyxj   0.19972
gfz2011zklv   0.93863
gfz2011zqhh  -0.74243
gfz2012bfah  -0.39087
gfz2012ekda  -0.12489
gfz2012gomm   2.48800
gfz2012hnul  -0.81855
gfz2012ilvn   0.44316
gfz2012intn   0.27890
gfz2012jlox  -0.39967
gfz2012jshk   1.30520
gfz2012jupx  -0.01942
gfz2012kkup  -0.40939
gfz2012klhx   0.00808
gfz2012kudo  -0.23062
gfz2012kwgo  -0.07961
gfz2012lczo  -0.59820
gfz2012ldxg  -0.59423
gfz2012ldzj   0.04613
gfz2012lxkv  -1.09890
gfz2012minr   0.00848
gfz2012mwij  -0.59562
gfz2012nojx  -0.63692
gfz2012nolo  -0.98585
gfz2012oazn   0.11421
gfz2012pgcl  -0.17952
gfz2012pkel   1.29730
gfz2012pqmk  -0.03856
gfz2012quso   2.18810
gfz2012royy  -0.52105
gfz2012rwov  -0.08350
gfz2012sphd  -0.35500
gfz2012syvl   0.26681
gfz2012teic   0.69142
gfz2012tmop   0.35640
gfz2012ttoa  -0.03175
gfz2012uafg  -0.81709
gfz2012uciv  -0.31531
gfz2012uhup   0.46097
gfz2012uxnz  -0.25867
gfz2012vrgb  -0.89847
gfz2012wklq  -0.44760
gfz2012wmsg   0.04327
gfz2012wvfl   0.90231
gfz2012wxlg  -0.42380
gfz2012wxnu   0.34784
gfz2012wybs  -0.73026
gfz2012wypz  -0.52668
gfz2012xbjq   0.58169
gfz2013dkly   1.08670
gfz2013dofo  -0.20314
gfz2013drxz  -0.34073
gfz2013dvyh   0.47168
gfz2013egpu   1.71070
gfz2013ijsr  -3.03140
gfz2013jesk   0.52576
gfz2013jgij  -0.17307
gfz2013jgip   0.47840
gfz2013jkut  -0.37998
gfz2013jusj   1.81370
gfz2013kccc   0.75236
gfz2013kdeo   0.24613
gfz2013ldpc  -0.01556
gfz2013ldqb   0.13089
gfz2013lixa   0.59837
gfz2013lyko  -0.46440
gfz2013mqmv   0.38350
gfz2013mwbh  -0.06845
gfz2013ncjp  -0.18740
gfz2013ndin   0.28109
gfz2013nixj   0.07935
gfz2013nkgj  -0.21630
gfz2013nknw   0.54363
gfz2013nqgw  -0.13695
gfz2013nwdi  -0.35337
gfz2013ozrp  -0.25075
gfz2013pfbx  -0.12344
gfz2013qali   0.63798
gfz2013qmer   0.00367
gfz2013qzdq  -0.56361
gfz2013roki   0.02032
gfz2013suvn   1.34480
gfz2013svci  -0.20177
gfz2013tusd  -0.09326
gfz2013tvmw  -0.11209
gfz2013txij   0.91733
gfz2013ufxk  -0.30508
gfz2013ufxm   0.62917
gfz2013ugax   0.56500
gfz2013vfzp   0.76097
gfz2013vjjc  -0.47892
gfz2013wjmm  -1.42520
gfz2013wkyk  -0.11459
gfz2013xsdt   0.14525
gfz2013yctg  -0.09646
gfz2013yqkv   0.40687
gfz2013ziyr  -4.71210
gfz2013zjel  -0.18776
gfz2014afmx  -0.20007
gfz2014algk   0.16113
gfz2014ande   0.50844
gfz2014bagd  -0.11619
gfz2014bwue   0.41277
gfz2014bzxy  -0.12497
gfz2014chdv  -0.74585
gfz2014cvkm  -1.29310
gfz2014cvxx   0.24010
gfz2014czqi   0.02689
gfz2014disp  -0.35644
gfz2014ekcr  -0.55709
gfz2014enhi  -0.32065
gfz2014fgvi   0.08271
gfz2014fhdw   0.32390
gfz2014fhla  -0.77800
gfz2014fhrq  -0.12035
gfz2014fimn   0.35173
gfz2014fjzd  -0.75866
gfz2014fkmr  -0.67345
gfz2014frdz   0.82225
gfz2014frel   0.54838
gfz2014frez   0.87241
gfz2014frwh   0.45580
gfz2014ftka   1.04530
gfz2014ftrk   0.78729
gfz2014furx   0.16706
gfz2014fusc  -2.61110
gfz2014fusj  -0.07749
gfz2014fval   0.05308
gfz2014fvgh   0.23302
gfz2014fvrg   0.20499
gfz2014gbcz  -0.32373
gfz2014gbdq   0.59098
gfz2014ghpe   0.18598
gfz2014gkgf  -0.01250
gfz2014gkgs   0.19143
gfz2014gkhp   1.35690
gfz2014gkhy   0.43513
gfz2014gkjl  -0.43532
gfz2014gkjt  -0.14899
gfz2014gkmm   0.23493
gfz2014gkob   0.50940
gfz2014gkpj   3.09440
gfz2014gkqf   0.00029
gfz2014gkqu  -2.99970
gfz2014gksu   0.52563
gfz2014gktq   0.23786
gfz2014glcu  -3.45560
gfz2014glgo  -0.66539
gfz2014gltx  -3.30190
gfz2014gmge   0.32975
gfz2014gmhr   0.04212
gfz2014gmip   0.49328
gfz2014gmku  -0.51307
gfz2014gmnb   0.39131
gfz2014gmnw   0.83409
gfz2014gmor   0.22872
gfz2014goba   0.38385
gfz2014goqw  -0.16645
gfz2014gpya  -1.42760
gfz2014gqer  -0.81993
gfz2014gqve   0.46990
gfz2014gsqs  -0.11101
gfz2014gull   0.51853
gfz2014gvhw  -0.38718
gfz2014gvrd  -1.21930
gfz2014gwab  -0.42782
gfz2014gxkh   0.30455
gfz2014gxxo   0.31503
gfz2014hasj   0.26996
gfz2014hbqb  -0.25137
gfz2014hgqo   0.92845
gfz2014hjgr   0.40982
gfz2014hkcf  -0.20875
gfz2014hocg   0.08380
gfz2014hqxs  -0.00000
gfz2014hrft  -0.22680
gfz2014huaj  -0.25584
gfz2014imnn   0.06626
gfz2014issk   0.31430
gfz2014itgh   0.23363
gfz2014itkw   3.86490
gfz2014jjhc  -0.46102
gfz2014jnyv  -0.10751
gfz2014jpep  -0.02497
gfz2014jwmh  -0.45137
gfz2014kndc   0.67730
gfz2014knks  -0.00148
gfz2014kyan   0.08386
gfz2014kytf   0.02694
gfz2014lgqn   0.19609
gfz2014lxnc   0.02334
gfz2014lyhk   0.18581
gfz2014lyhp  -0.26368
gfz2014macx   0.68006
gfz2014madw  -0.18002
gfz2014nkdx  -1.91610
gfz2014nnxd   0.30525
gfz2014nowp  -0.79322
gfz2014npeo  -0.72470
gfz2014nphm   0.31487
gfz2014nqfm   0.01845
gfz2014nrie  -0.64715
gfz2014oinz  -0.21987
gfz2014oryw   0.16635
gfz2014ppzf   0.06137
gfz2014pvch   0.16911
gfz2014qlxd  -0.43297
gfz2014qngj  -0.50319
gfz2014qqhm   0.27845
gfz2014riel  -2.74100
gfz2014shid  -2.60960
gfz2014ssmv  -2.37410
gfz2014ssvz  -0.35239
gfz2014tovs  -0.04013
gfz2014tqdo  -0.17931
gfz2014tqsf   0.13588
gfz2014utac  -0.53302
gfz2014vhld   0.01494
gfz2014vjoz   0.07346
gfz2014watn  -0.31945
gfz2014wjko   0.18623
gfz2014xbyr  -0.24924
gfz2014xqqd  -0.14419
gfz2014yhhm   0.46362
gfz2015apnk  -0.08734
gfz2015aruz  -0.51672
gfz2015berb   0.09789
gfz2015bfjm  -0.30246
gfz2015bucr  -0.27188
gfz2015chhn  -0.52810
gfz2015cxxk  -0.13286
gfz2015cyjd   0.59173
gfz2015dskr   0.38154
gfz2015dvbn   0.09348
gfz2015egxq   0.21855
gfz2015eiky  -0.37368
gfz2015etai  -0.29812
gfz2015fcua  -1.00290
gfz2015fjhk   0.27006
gfz2015fkgt  -0.32186
gfz2015fkic   2.22300
gfz2015fsjj   0.14294
gfz2015gckd   0.21559
gfz2015gkwa   0.42983
gfz2015jzcv   0.26869
gfz2015kfsu   0.11768
gfz2015kkth   0.10464
gfz2015kphk  -0.35870
gfz2015kquq   0.22701
gfz2015ksni  -0.39546
gfz2015lhjy   0.39635
gfz2015okmq   0.18639
gfz2015oyfl  -0.50224
gfz2015rddx  -0.21292
gfz2015rkzg  -0.25306
gfz2015sfdd  -1.12230
gfz2015sfdl   0.20446
gfz2015sfdy  -2.40920
gfz2015sfeo   1.07920
gfz2015sffn   0.16407
gfz2015sfhz   0.31621
gfz2015sfiq   0.86987
gfz2015sflf  -0.06863
gfz2015sfnb  -0.86926
gfz2015sfno   1.73130
gfz2015sfnv   0.16489
gfz2015sfoc  -0.00750
gfz2015sfps   0.18471
gfz2015sfqo   0.65032
gfz2015sfqr   1.73830
gfz2015sfsi   0.71242
gfz2015sgad  -0.71901
gfz2015sghq   0.98308
gfz2015sgyd   0.76877
gfz2015shhu   0.05354
gfz2015shjn  -0.02186
gfz2015shrg   0.76127
gfz2015sjfi  -0.18660
gfz2015sjgk  -0.06723
gfz2015sjne   0.89717
gfz2015sjoj  -0.21594
gfz2015sjvu   0.38060
gfz2015skpv  -0.53180
gfz2015skxu  -0.56156
gfz2015sldx   0.09123
gfz2015sljs  -0.44950
gfz2015smym  -1.46270
gfz2015snsf   0.16630
gfz2015snwh  -1.51810
gfz2015snyd   0.32452
gfz2015soat  -0.19197
gfz2015soxc  15.24600
gfz2015stfy  -1.90650
gfz2015svwm  -0.58497
gfz2015szcb  -0.03170
gfz2015taml   0.81511
gfz2015tixi  -1.52460
gfz2015tiyc   0.35815
gfz2015tkol   0.74859
gfz2015tlkf  -0.33216
gfz2015tnjd   0.02228
gfz2015tpra   0.60195
gfz2015tqff   0.77772
