# Nsamples: 288  MAD:  0.653  mean: -0.006  variance:  1.738
gfz2010czps  -0.24959
gfz2010diqn  -0.35561
gfz2010eaoy  -0.56490
gfz2010eapk  -0.43309
gfz2010eaqe   1.04130
gfz2010eaqx  -0.68976
gfz2010eaqy  -0.12218
gfz2010earu  -1.71320
gfz2010easf   0.41464
gfz2010easo   0.30095
gfz2010easu  -1.00870
gfz2010eati  -0.40701
gfz2010eato   0.56006
gfz2010eavs  -0.24918
gfz2010eawb  -1.10270
gfz2010eawu  -6.61550
gfz2010eaxa  -0.05417
gfz2010eayx  -0.98094
gfz2010eazu  -1.55270
gfz2010ebgj   0.05041
gfz2010ebhc  -0.49390
gfz2010ebih   0.92072
gfz2010ebin  -0.90294
gfz2010ebjy   0.28850
gfz2010ebkj   0.58763
gfz2010ebla   0.91734
gfz2010ebll  -0.23000
gfz2010ebmb   1.37160
gfz2010ebnn   0.83352
gfz2010ebrm  -0.33147
gfz2010ebvm   1.21490
gfz2010ebvv   0.58518
gfz2010ebwp   0.23281
gfz2010ebzr  -1.05230
gfz2010ecam   0.38197
gfz2010ecay   0.31917
gfz2010eccq  -0.04075
gfz2010echy  -0.17079
gfz2010ecns  -1.56760
gfz2010ecps   0.53499
gfz2010ecsp   0.22624
gfz2010ecua  -0.08277
gfz2010ecvt  -0.38320
gfz2010edkp  -0.60665
gfz2010edyi   3.53880
gfz2010efsq   2.30060
gfz2010egap  -0.42864
gfz2010eisx  -2.46710
gfz2010eixj   1.36370
gfz2010ejjg   1.31030
gfz2010ekyc  -0.12433
gfz2010elhv   0.51147
gfz2010elin   0.87530
gfz2010eltf   0.41386
gfz2010elyc   0.38562
gfz2010epxj   5.21790
gfz2010eqjg  -0.30014
gfz2010erkn  -0.82998
gfz2010erom  -1.78110
gfz2010erwn   0.31247
gfz2010eryg  -0.07404
gfz2010excp  -1.00650
gfz2010exdd  -0.39281
gfz2010exdl  -0.66380
gfz2010exhw  -0.53990
gfz2010exno  -0.70476
gfz2010ezck  -0.17271
gfz2010fcax   2.47030
gfz2010fczt  -0.40483
gfz2010fedq  -1.17170
gfz2010ffhq   0.80591
gfz2010fika  -0.61704
gfz2010flha   1.72850
gfz2010fqdu   1.21730
gfz2010ftlm  -0.06369
gfz2010fync  -0.04727
gfz2010gcrl   2.55610
gfz2010grjd  -0.11110
gfz2010gyqp   0.98821
gfz2010gzxr   0.19843
gfz2010hjoc  -0.40082
gfz2010hnnf  -1.02820
gfz2010homc   0.57565
gfz2010hrkr   0.68647
gfz2010hxgv   0.42978
gfz2010iqnm  -0.65723
gfz2010irvf  -0.03741
gfz2010iull  -0.11102
gfz2010jxbm  -0.41462
gfz2010mkuu   0.50710
gfz2010mncc  -0.74292
gfz2010moyw  -0.32605
gfz2010msjj   0.31818
gfz2010nmpc  -0.96929
gfz2010nqwo  -0.07511
gfz2010nrjo  -0.66595
gfz2010nsck  -0.45833
gfz2010nubk  -0.02248
gfz2010nwef   0.14607
gfz2010nxsy   0.01946
gfz2010nxum   0.11633
gfz2010oedn   0.33368
gfz2010onma   0.27507
gfz2010osjs  -1.13900
gfz2010pcxi   0.49775
gfz2010pewa  -0.14859
gfz2010plbg  -1.30660
gfz2010pxgh  -1.06810
gfz2010rqwj  -0.43209
gfz2010sfee   0.49374
gfz2010swcy   0.27523
gfz2010upfb  -0.26358
gfz2010usho   0.63364
gfz2010ustq  -0.85275
gfz2010utcg   1.07110
gfz2010vtdg  -0.36368
gfz2010vzzz  -1.79540
gfz2010yjev  -0.74143
gfz2010ymfy  -0.05898
gfz2011aatr  -0.10894
gfz2011adjs  -1.29130
gfz2011alip   0.66463
gfz2011bgrp  -0.18359
gfz2011bhha  -0.74448
gfz2011blsi   0.32698
gfz2011ccpw   0.27622
gfz2011cvcg   0.61759
gfz2011cykd   0.84358
gfz2011dcqb  -1.27310
gfz2011deaf   1.51720
gfz2011dkyi  -0.02076
gfz2011dndz  -0.18583
gfz2011dpqx  -0.86485
gfz2011ecaj   0.03946
gfz2011edmm   1.06460
gfz2011enva  -0.30867
gfz2011fgvr   0.19025
gfz2011fnsw  -0.29759
gfz2011hfkj  -0.41655
gfz2011hlqw   0.28552
gfz2011hlsa  -0.20448
gfz2011ieie  -0.54241
gfz2011izqa   0.67311
gfz2011jplh  -0.15052
gfz2011kxzp  -0.52933
gfz2011lcxq   0.91505
gfz2011lzwj   0.12229
gfz2011mdie   0.67069
gfz2011mpme  -0.59205
gfz2011nrwc   2.05380
gfz2011ntkh  -0.48306
gfz2011nudm  -0.48894
gfz2011ohcy   1.18780
gfz2011ornx  -0.22218
gfz2011qvae  -0.38679
gfz2011rqui   0.00000
gfz2011ujze   0.26029
gfz2011uphh  -0.00921
gfz2011vnza  -0.08759
gfz2011wjul  -0.60125
gfz2011wxtk  -0.19309
gfz2011xyxj   0.97527
gfz2012byad   1.00060
gfz2012cxdn  -0.72710
gfz2012dyyh   0.34612
gfz2012enno  -0.40739
gfz2012ewgo   0.47620
gfz2012fzfa  -0.52862
gfz2012hnul  -0.69243
gfz2012jlox  -0.57795
gfz2012jshk   0.94697
gfz2012keor  -0.36628
gfz2012kkup  -0.99212
gfz2012klhx   0.07163
gfz2012kwgo   0.31871
gfz2012lczo  -0.08611
gfz2012ldxg  -0.25759
gfz2012ldzj   0.33729
gfz2012lxkv  -0.84565
gfz2012minr   0.15956
gfz2012nkdf  -1.43240
gfz2012pkel   0.47883
gfz2012rwko   0.10205
gfz2012rwov  -0.02015
gfz2012rypu  -0.81385
gfz2012sphd  -0.06715
gfz2012syvl   0.50613
gfz2012ttoa   0.41796
gfz2012uafg  -0.46952
gfz2012vrgb  -0.41530
gfz2012wklq  -1.13040
gfz2012wmsg   0.74439
gfz2012wxlg   0.52549
gfz2012wypz   0.03681
gfz2013ccnr   0.65967
gfz2014kndc  -0.14713
gfz2014knks  -0.28205
gfz2014lgqn  -0.53415
gfz2014lxnc  -0.18719
gfz2014nnih  -1.12170
gfz2014npeo  -0.86054
gfz2014nqfm  -0.24525
gfz2014nrie   0.08634
gfz2014oinz  -0.17887
gfz2014oyly   0.67500
gfz2014ppzf   0.17288
gfz2014pvch   0.27306
gfz2014qlxd   0.35707
gfz2014qngj  -0.18339
gfz2014qqhm   0.13336
gfz2014uxyg   1.60830
gfz2014vhld  -3.03420
gfz2014watn  -0.17751
gfz2014wrkh  -2.91610
gfz2014xqqd   0.10038
gfz2015apnk  -0.04224
gfz2015aruz  -0.19037
gfz2015berb   0.46745
gfz2015bkbj   0.26424
gfz2015chhn  -0.39150
gfz2015cxxk   0.24089
gfz2015cyjd   0.80146
gfz2015dizn  -0.68788
gfz2015dvbn  -0.02801
gfz2015egxq   0.64511
gfz2015eiky  -0.25688
gfz2015etai   0.07637
gfz2015fbew   0.76133
gfz2015fjhk   0.41472
gfz2015fkgt   0.28182
gfz2015fsjj   0.17951
gfz2015jwgl  -0.67244
gfz2015jzcv   0.42208
gfz2015kfsu   0.08989
gfz2015ksni   0.52626
gfz2015lhjy   0.56687
gfz2015lytv  -1.36430
gfz2015micz  -1.12150
gfz2015mpte  -0.48106
gfz2015oyfl   0.03127
gfz2015poni  -0.47634
gfz2015qnho  -0.19851
gfz2015rgov  -2.29550
gfz2015sfdd  -0.99108
gfz2015sfdl  -0.04546
gfz2015sfdy  -2.04720
gfz2015sfeo   0.95314
gfz2015sffn  -0.14159
gfz2015sfga   0.52141
gfz2015sfhz   0.22959
gfz2015sfiq  -0.19262
gfz2015sfkh   0.05611
gfz2015sfks  -0.03819
gfz2015sflf  -0.22343
gfz2015sfln  -1.37400
gfz2015sfnb  -0.20761
gfz2015sfno   0.74589
gfz2015sfnv  -0.60139
gfz2015sfoc   1.00790
gfz2015sfoq  -0.28089
gfz2015sfqo   0.76639
gfz2015sfqr   0.05722
gfz2015sfrf   0.11227
gfz2015sfzm   0.19731
gfz2015sgad  -0.32229
gfz2015sgna   0.15489
gfz2015sgyd   0.53409
gfz2015shhg  -0.51288
gfz2015shjn   0.39973
gfz2015shsz   0.40808
gfz2015sjgk   0.15542
gfz2015sjoj  -0.01525
gfz2015sjvu  -0.38255
gfz2015smym  -1.34930
gfz2015snwh  -1.35670
gfz2015snyd   0.07540
gfz2015soat  -1.66900
gfz2015soxc  15.42700
gfz2015stfy   0.60901
gfz2015svwm  -1.37810
gfz2015taml   1.64190
gfz2015thfm   0.74830
gfz2015thgc  -0.10288
gfz2015thwp   0.19601
gfz2015tixi  -0.33011
gfz2015tiyc   0.06018
gfz2015tlkf   0.18186
gfz2015tnjd   0.22052
