# Nsamples: 619  MAD:  0.511  mean:  0.011  variance:  0.760
gfz2010cqwl  -0.08682
gfz2010czps   0.86099
gfz2010dejx  -1.06590
gfz2010dfru  -0.33307
gfz2010dlgc   0.14166
gfz2010fobc   0.17886
gfz2010fpqy  -0.84605
gfz2010fqdu   1.03340
gfz2010fqtj   0.13244
gfz2010ftlm   3.56120
gfz2010fupn   0.19963
gfz2010fwpv  -0.36237
gfz2010fwzd  -0.06918
gfz2010fync  -0.62166
gfz2010gyqp  -0.81476
gfz2010gzxr   0.04165
gfz2010hbka  -0.25535
gfz2010iibf  -0.10587
gfz2010iobp   0.96009
gfz2010iqnm   0.15183
gfz2010irvf   3.27000
gfz2010iull  -0.44587
gfz2010jxbm  -0.00961
gfz2010jygz  -0.01469
gfz2010kcoo  -0.82283
gfz2010kdyc   0.62676
gfz2010lczp  -0.32373
gfz2010lepw  -2.89350
gfz2010lkcf   0.19554
gfz2010mhjt  -0.12593
gfz2010mkuu  -0.39929
gfz2010mlkz   3.82190
gfz2010mlta   1.54660
gfz2010mncc  -0.36543
gfz2010mnhm   0.61759
gfz2010mpuy   0.35072
gfz2010msjj  -0.60020
gfz2010muca   0.15628
gfz2010mwdq  -0.25328
gfz2010nmpc  -1.16890
gfz2010nnny  -0.21822
gfz2010nqwo  -0.12627
gfz2010nrjo   1.68780
gfz2010nsck  -0.13570
gfz2010nubk   0.60934
gfz2010nwef  -0.15052
gfz2010nxsy  -0.07488
gfz2010onma  -0.78372
gfz2010plbg   0.08346
gfz2010pxak  -0.94440
gfz2010pxgh  -1.77570
gfz2010qjst  -0.53890
gfz2010qkat   0.32189
gfz2010qpcq   0.09429
gfz2010qpvi  -0.39614
gfz2010rkfp  -0.70725
gfz2010rqwj  -0.21606
gfz2010rywq  -0.12530
gfz2010sfee  -0.89539
gfz2010skve  -0.26016
gfz2010srdb  -0.32400
gfz2010svtn  -0.62242
gfz2010svve  -0.19516
gfz2010swcy  -0.70545
gfz2010sxwt  -2.12460
gfz2010sysw  -0.26138
gfz2010tcbr  -0.11565
gfz2010txjs  -0.47069
gfz2010upfb   1.36390
gfz2010urlq  -0.44909
gfz2010usho  -0.87926
gfz2010ustq  -1.30620
gfz2010utcg  -0.37032
gfz2010utmc   0.25215
gfz2010xgfc   0.17572
gfz2011aatr  -0.28261
gfz2011adjs   1.09230
gfz2011ahfw   1.05720
gfz2011alip  -0.55220
gfz2011aqxf   0.22709
gfz2011bhha   1.33370
gfz2011blsi   1.60870
gfz2011bpkd  -0.51017
gfz2011cfae  -0.34741
gfz2011cndo   0.48195
gfz2011cvcg  -1.00000
gfz2011cykd  -0.27160
gfz2011cyuk   2.59980
gfz2011dbev  -0.77577
gfz2011dbig  -0.53320
gfz2011dbon  -0.02290
gfz2011dcqb   0.26946
gfz2011dcqf   0.39571
gfz2011dkyi   0.01188
gfz2011dpqx  -1.15190
gfz2011eazf   0.41089
gfz2011ecaj  -0.16741
gfz2011edmm   0.03266
gfz2011ehzq   0.52389
gfz2011eltw  -0.86232
gfz2011enva  -0.40624
gfz2011fhag   0.55307
gfz2011fhbm  -0.39873
gfz2011flgj  -1.18150
gfz2011fnsw  -0.54631
gfz2011gbmx  -0.10986
gfz2011gcwb   0.34974
gfz2011gkzt  -0.47140
gfz2011hbex   0.20112
gfz2011hfkj  -0.25926
gfz2011hlqw  -0.02338
gfz2011hlsa  -0.28569
gfz2011hpqp   0.00074
gfz2011hvbu  -0.06805
gfz2011ieie   0.67209
gfz2011iwte   0.61786
gfz2011ixai   1.50450
gfz2011jdsj  -0.35382
gfz2011jplh  -0.03524
gfz2011jtlg  -0.28082
gfz2011jxpl   0.05677
gfz2011knoo  -0.62030
gfz2011kqwo  -0.01006
gfz2011kqyg  -0.57065
gfz2011ksiu  -1.65730
gfz2011kxzp  -0.32164
gfz2011lcxq   0.24849
gfz2011lhls   0.12107
gfz2011lzwj  -0.30261
gfz2011mdie  -0.67684
gfz2011mjom   0.34211
gfz2011mpme   0.19627
gfz2011nrwc   0.04028
gfz2011nsex   0.21825
gfz2011ntkh   0.07080
gfz2011nudm  -0.57580
gfz2011ohcy  -0.48933
gfz2011oiqe  -0.62905
gfz2011oiwk   0.81723
gfz2011olkk  -0.15095
gfz2011orgn  -1.06820
gfz2011ornx   0.95840
gfz2011owvz  -0.71749
gfz2011pntf  -0.66931
gfz2011ptus   1.07900
gfz2011qvae  -0.66060
gfz2011rewa  -0.58373
gfz2011rgwp   1.26620
gfz2011rsrh  -0.52164
gfz2011sagt   1.02300
gfz2011tjue   0.26658
gfz2011tkog  -0.65979
gfz2011toub  -2.00250
gfz2011tpfr   3.12280
gfz2011ueni  -1.17850
gfz2011ujze  -1.34930
gfz2011uphh  -0.86749
gfz2011urzu  -0.80514
gfz2011uzqv  -0.04424
gfz2011vhfi   0.70179
gfz2011vnza  -0.34122
gfz2011vrhg   0.17913
gfz2011vxns  -0.74089
gfz2011wwjs  -0.66244
gfz2011wxfs   0.84476
gfz2011wxoj   4.48620
gfz2011wxtk  -1.36150
gfz2011wype   0.00202
gfz2011xyxj   0.48204
gfz2011zklv   0.20491
gfz2012aqgp   0.40527
gfz2012aqtq   2.14300
gfz2012bfah  -1.35960
gfz2012bpkx  -0.28917
gfz2012bpwl  -0.02879
gfz2012brhv  -0.26542
gfz2012byad   0.81390
gfz2012cxdn   0.15167
gfz2012czlw  -0.42376
gfz2012ekda   0.01557
gfz2012emjg  -0.13988
gfz2012enno  -0.72534
gfz2012ewgo   1.53910
gfz2012foeo  -0.39605
gfz2012fwfo  -0.35150
gfz2012fzfa  -0.31203
gfz2012glss  -0.01074
gfz2012gocc   2.07180
gfz2012gomm  -0.60787
gfz2012hnul  -0.74417
gfz2012hsex  -1.18510
gfz2012hwyo  -0.65915
gfz2012ilvn   0.80803
gfz2012imay  -0.03070
gfz2012intn  -0.40867
gfz2012jlox  -0.57786
gfz2012jshk   2.09130
gfz2012jupx  -0.67785
gfz2012keor   1.97840
gfz2012kkup  -0.73485
gfz2012klhx  -1.02400
gfz2012kuct  -0.16788
gfz2012kudo  -0.21511
gfz2012kwgo   0.00485
gfz2012lczo   4.20780
gfz2012ldxg   3.74670
gfz2012lxkv   0.07515
gfz2012minr   0.09427
gfz2012mupa  -0.20993
gfz2012mvwr   0.14992
gfz2012mwij  -0.56577
gfz2012oazn  -0.00000
gfz2012rats  -0.01180
gfz2012ronz   0.10486
gfz2012royy  -0.41525
gfz2012ruks   0.04693
gfz2012rwko  -0.01595
gfz2012rwov   0.10760
gfz2012sphd   0.16534
gfz2012syvl  -0.74914
gfz2012teic  -0.21828
gfz2012ttoa  -1.02980
gfz2012tvmv  -0.95018
gfz2012uafg   0.42546
gfz2012uaqj   0.98103
gfz2012uhup  -0.23348
gfz2012uqzp   0.53986
gfz2012uvqf   0.63748
gfz2012vpza   0.45216
gfz2012vrgb  -1.40110
gfz2012vsev  -0.54948
gfz2012whku  -0.15122
gfz2012wklq   0.88189
gfz2012wmsg  -0.27167
gfz2012wpeq  -0.28154
gfz2012wtkr  -0.40226
gfz2012wvfl  -0.47164
gfz2012wxer  -0.33939
gfz2012wxlg  -0.53940
gfz2012wxnu  -0.19294
gfz2012wybs  -0.66081
gfz2012wypz  -0.56433
gfz2012zitl  -0.38652
gfz2012zjpv   0.39797
gfz2013axoj  -0.59380
gfz2013bokp  -1.20620
gfz2013btjm  -0.49770
gfz2013ccnr  -1.00060
gfz2013cwpn  -0.29118
gfz2013dkly  -0.08950
gfz2013drpk   1.37140
gfz2013drxz  -0.54006
gfz2013dspt   1.03460
gfz2013figy   1.66590
gfz2013gdnq  -0.27863
gfz2013idbb  -0.30444
gfz2013ifpq  -0.02857
gfz2013ippu   0.39885
gfz2013iunn  -1.07580
gfz2013jesk   0.73384
gfz2013jgij  -0.30477
gfz2013jgip  -1.35740
gfz2013jkut  -0.40366
gfz2013jlst   2.51630
gfz2013jusj   2.89880
gfz2013kdeo   0.04576
gfz2013ldpc  -0.45119
gfz2013ldqb  -1.60930
gfz2013lgxc   2.29840
gfz2013lixa   3.79890
gfz2013lyko  -0.51527
gfz2013mqmv   0.18238
gfz2013mwbh   0.47828
gfz2013ncjp   0.28975
gfz2013nkgj   0.17363
gfz2013nwdi   0.13358
gfz2013oifr   1.12490
gfz2013ojti   0.39111
gfz2013pfbx  -0.33989
gfz2013qali   0.69215
gfz2013qmer  -0.27912
gfz2013qzdq  -0.00000
gfz2013roki  -0.50026
gfz2013sdus   0.85077
gfz2013shzy   0.24687
gfz2013snbr   1.52630
gfz2013suvn   0.50576
gfz2013svci   0.55995
gfz2013tcxc  -0.19370
gfz2013toxf   0.40938
gfz2013tusd  -1.41990
gfz2013tvmw  -0.14929
gfz2013uauo   0.17881
gfz2013uqvu   1.21500
gfz2013uysr  -1.02390
gfz2013vfyw  -0.13937
gfz2013vfzp   0.33811
gfz2013viul   0.38664
gfz2013vjjc  -0.80752
gfz2013vvrq  -0.67332
gfz2013wjmm  -0.13952
gfz2013xsdt   0.03014
gfz2013xxxq   0.45161
gfz2013yctg   0.92189
gfz2013ylbx  -0.80838
gfz2013yqkv   1.15430
gfz2013zjel   0.51212
gfz2013zmtb  -0.05570
gfz2014afmx  -0.18918
gfz2014ajlk  -0.04587
gfz2014algk   0.06107
gfz2014ande  -0.11336
gfz2014arpf   0.42899
gfz2014bwue   0.64588
gfz2014czqi  -0.52870
gfz2014czua  -0.08596
gfz2014dhxt   0.53153
gfz2014eght  -1.21900
gfz2014ekcr  -0.46610
gfz2014enhi   0.70882
gfz2014etqa   0.12895
gfz2014fedd  -0.03899
gfz2014femz  -0.05004
gfz2014fexu  -1.45850
gfz2014ffdc  -0.31515
gfz2014fgvi  -0.04333
gfz2014fgvr   0.13313
gfz2014fhbd   0.23799
gfz2014fhdw   0.20500
gfz2014fhla  -0.64954
gfz2014fhrq   0.14178
gfz2014fhwx   0.37325
gfz2014fimn   0.33648
gfz2014fjzd  -0.27381
gfz2014fkmr   0.01823
gfz2014fkmx   4.06860
gfz2014fnyg   0.07892
gfz2014frdz  -0.46322
gfz2014frel  -0.87860
gfz2014frez  -0.32002
gfz2014frwh  -0.08434
gfz2014ftka  -0.36957
gfz2014ftrk   0.96035
gfz2014furx   0.24862
gfz2014fusc  -0.06863
gfz2014fusj  -0.36653
gfz2014fuub   0.15229
gfz2014fval  -0.56036
gfz2014fvgh  -0.22086
gfz2014fvpy   0.35975
gfz2014fvrg  -0.68926
gfz2014gbcz   3.72210
gfz2014ghpe  -0.49649
gfz2014gkgf  -0.05576
gfz2014gkgs   0.12044
gfz2014gkhp   1.07590
gfz2014gkhy  -0.37977
gfz2014gkjl   0.15345
gfz2014gkjt  -0.40881
gfz2014gkob  -0.34867
gfz2014gkok  -0.30465
gfz2014gkpd   0.16299
gfz2014gkpj   2.25310
gfz2014gkqf  -0.05182
gfz2014gkqu   0.15726
gfz2014gksj  -0.33113
gfz2014gksu   1.40070
gfz2014gktq   0.37281
gfz2014gkut   0.00000
gfz2014gkxm  -0.21107
gfz2014glcu  -0.24589
gfz2014glcy  -0.68834
gfz2014gltx  -0.21897
gfz2014gmci  -0.18291
gfz2014gmge   0.73726
gfz2014gmhr  -1.22830
gfz2014gmip   0.02085
gfz2014gmjo  -0.21786
gfz2014gmku   0.47538
gfz2014gmlz   0.23815
gfz2014gmnw   0.18207
gfz2014gmpy  -0.30728
gfz2014gmuk   0.17314
gfz2014gmuw   0.48989
gfz2014gmzl  -0.27587
gfz2014gnnt  -0.20022
gfz2014goba  -0.21876
gfz2014goqw  -0.37133
gfz2014gori   0.57073
gfz2014gphr   0.11500
gfz2014gpuk  -0.81220
gfz2014gqbj   0.76064
gfz2014gqer   1.14800
gfz2014gsqs   0.35273
gfz2014gull  -0.25950
gfz2014gulp  -0.47258
gfz2014gumd  -0.58200
gfz2014gwab   0.94139
gfz2014gxxo   0.02664
gfz2014hagb   0.32815
gfz2014hasj   0.21050
gfz2014hauo  -0.80436
gfz2014hbqb   0.25133
gfz2014hfhl  -1.29680
gfz2014hgqo   0.04375
gfz2014hjgh  -0.75807
gfz2014hjgr  -0.05154
gfz2014hjij   0.01220
gfz2014hkcf   0.38127
gfz2014hocg   0.13354
gfz2014hqxs  -0.37622
gfz2014huaj   0.39477
gfz2014hyvq   0.33409
gfz2014hzfw   0.29626
gfz2014hzgn   0.33465
gfz2014imnn  -3.18630
gfz2014inbj  -0.39119
gfz2014itkw  -0.32245
gfz2014itpj   0.47812
gfz2014jjhc  -0.02926
gfz2014jjln  -0.14020
gfz2014jnyv  -0.18205
gfz2014jpep  -0.17658
gfz2014jwmh   0.12986
gfz2014khlk   2.51900
gfz2014kndc  -0.07958
gfz2014knks   0.27584
gfz2014ksdv   0.05804
gfz2014kwrg   0.02535
gfz2014kytf  -0.17033
gfz2014lgqn   0.69567
gfz2014lkyf  -0.31401
gfz2014lnmw  -0.97608
gfz2014lxnc  -0.25069
gfz2014lyhk  -0.20085
gfz2014lyhp  -0.22847
gfz2014macx  -0.08068
gfz2014madw  -0.05837
gfz2014npdk  -0.65339
gfz2014npeo   0.13845
gfz2014nphm   0.34945
gfz2014nqfm   0.06675
gfz2014nrie   0.26964
gfz2014odgv  -0.40518
gfz2014oinz  -0.04351
gfz2014owxc   0.18837
gfz2014oxcc   0.65116
gfz2014tzsd  -0.71398
gfz2014ubwn  -0.36087
gfz2014uuqa  -0.30051
gfz2014uvji  -1.25740
gfz2014vcev   0.20930
gfz2014vhld  -0.13332
gfz2014vhms   0.21348
gfz2014watn   0.08733
gfz2014wjko  -0.44238
gfz2014xbyr   0.22197
gfz2014xjri  -0.12466
gfz2014xoji   0.17215
gfz2014xqqd   0.06610
gfz2014yhhm  -0.25685
gfz2014ynzy   0.13562
gfz2014yrug  -0.11505
gfz2014zkys  -0.06770
gfz2015apnk   1.27060
gfz2015aruz  -0.89473
gfz2015berb   0.30482
gfz2015bfjm  -0.54205
gfz2015bkbj   0.21349
gfz2015bphe  -1.25400
gfz2015bucr   0.39468
gfz2015chhn   0.06496
gfz2015chqn  -0.06546
gfz2015cxxk   1.13850
gfz2015cyjd  -0.71419
gfz2015dizn   0.60903
gfz2015dvbn  -0.86760
gfz2015egxq  -0.80255
gfz2015eiky   0.45999
gfz2015elgy   0.29793
gfz2015fbbk  -0.83667
gfz2015fjhk  -0.50790
gfz2015fkgt  -0.39774
gfz2015fsjj  -0.00459
gfz2015fvoi  -0.38209
gfz2015fyvk   0.83369
gfz2015gckd  -0.59379
gfz2015gjbr   0.56790
gfz2015hgbk   0.10716
gfz2015hpmk  -0.77745
gfz2015jwgl  -0.35461
gfz2015jzcv   0.15880
gfz2015kakw   0.38967
gfz2015kfsu  -1.15840
gfz2015kkqb   0.12872
gfz2015kkth  -0.39535
gfz2015kphk   0.12767
gfz2015kquq  -1.15420
gfz2015ksni   0.18575
gfz2015lcuo  -0.83482
gfz2015lfma   0.04048
gfz2015lhjy   0.70969
gfz2015lytv  -0.83326
gfz2015mddr  -0.54383
gfz2015mpte   0.28900
gfz2015nwug  -0.86508
gfz2015ocdz   0.79256
gfz2015okmq  -0.16095
gfz2015oyfl  -0.52120
gfz2015qnho  -0.72222
gfz2015qnlv  -0.32302
gfz2015rddx  -0.06530
gfz2015rkzg  -1.45430
gfz2015sfdd   0.10989
gfz2015sfdv  -1.05790
gfz2015sfdy  -0.74704
gfz2015sfeo   1.42850
gfz2015sffn  -0.43760
gfz2015sfga   1.40000
gfz2015sfhz   0.36148
gfz2015sfiq  -0.95300
gfz2015sfkh  -0.30256
gfz2015sfko  -0.34394
gfz2015sfks   0.33373
gfz2015sflf  -0.34237
gfz2015sfln   1.83590
gfz2015sfmd  -0.38540
gfz2015sfnb  -0.84369
gfz2015sfno   0.07096
gfz2015sfnv   0.67547
gfz2015sfoc   0.63344
gfz2015sfom  -0.44634
gfz2015sfps   2.44020
gfz2015sfqo  -0.13740
gfz2015sfqr   0.10134
gfz2015sfrc  -0.79301
gfz2015sfte   0.14002
gfz2015sftu   0.72969
gfz2015sfuc   0.78086
gfz2015sfwf  -0.19285
gfz2015sfzm   0.02771
gfz2015sgad  -0.83474
gfz2015sgdj   0.92693
gfz2015sgdn  -0.25782
gfz2015sggc   1.46700
gfz2015sghq  -0.29338
gfz2015sgmr  -0.26472
gfz2015sgna  -0.22846
gfz2015sgyd   0.24318
gfz2015shaq  -0.37975
gfz2015shel  -0.16220
gfz2015shhg   0.50302
gfz2015shhu  -0.26308
gfz2015shjn   0.05238
gfz2015shjo   0.45519
gfz2015shrg   0.12128
gfz2015shsz  -0.40828
gfz2015siem   0.19837
gfz2015siky   0.18474
gfz2015sist  -0.23159
gfz2015sitn   0.22764
gfz2015sixi   0.19186
gfz2015sjbx  -0.13031
gfz2015sjeq   0.42115
gfz2015sjfi  -0.30663
gfz2015sjgk  -0.25918
gfz2015sjjb  -0.20303
gfz2015sjne   0.02378
gfz2015sjoj   0.19770
gfz2015sjpn   0.47117
gfz2015sjtz  -0.35610
gfz2015sjvu   0.00236
gfz2015sjwi  -0.30184
gfz2015skgj  -0.12001
gfz2015skia  -0.21015
gfz2015skpv   0.31366
gfz2015skxu  -0.28912
gfz2015sldx  -0.28280
gfz2015slfn  -0.98942
gfz2015sljs  -0.61801
gfz2015slun   0.70970
gfz2015smgj  -0.48670
gfz2015smym   0.58056
gfz2015snhn   0.79650
gfz2015snsf  -0.39517
gfz2015snwh  -0.52538
gfz2015snyd   0.09177
gfz2015soat   0.54228
gfz2015solh   0.70590
gfz2015sowu  -2.74190
gfz2015soxc  -0.08341
gfz2015sqbg  -0.28007
gfz2015sqmy   0.04103
gfz2015srat   0.33038
gfz2015stfy   0.02343
gfz2015stso  -0.10193
gfz2015subz  -0.04930
gfz2015svjy  -0.15248
gfz2015svwm   0.30960
gfz2015swgn   0.13061
gfz2015swjx   0.16150
gfz2015sxxu  -0.11694
gfz2015szcb  -0.45516
gfz2015szfe   0.04079
gfz2015taml  -0.52222
gfz2015tdcu  -0.47921
gfz2015teje  -0.54561
gfz2015tesj   0.13632
gfz2015teyc   4.47330
gfz2015teyn  -0.02482
gfz2015tezd   0.24067
gfz2015tfaz   0.65168
gfz2015thwg  -0.08173
gfz2015tiyc   0.49301
gfz2015tkol  -0.05655
gfz2015tlba  -0.09822
gfz2015tlok  -1.49890
gfz2015tnjd  -0.58443
gfz2015tpra  -0.11980
