# Nsamples: 1049  MAD:  0.747  mean: -0.029  variance:  1.489
gfz2010cbkg   0.23576
gfz2010ckeu  -0.83829
gfz2010ckzm  -1.94720
gfz2010cnwc  -1.64650
gfz2010cqwl  -0.42465
gfz2010cres  -1.12870
gfz2010czps   0.26225
gfz2010ddzo  -0.38950
gfz2010dejx  -0.97086
gfz2010diqn  -0.66724
gfz2010dlgc  -1.00660
gfz2010eaoy   1.76680
gfz2010egld  -0.09682
gfz2010egmp  -0.28084
gfz2010egqh   0.52122
gfz2010egsw   0.46048
gfz2010egsy   0.14715
gfz2010egyy  -0.35252
gfz2010ehaj  -0.63907
gfz2010ehft   0.10103
gfz2010ehnl  -7.01090
gfz2010ehnm  -0.52752
gfz2010ehrq  -0.70098
gfz2010ehsy  -0.30027
gfz2010ehvj  -0.89955
gfz2010ehwg   3.77510
gfz2010ehxz   0.32973
gfz2010eimf  -0.17295
gfz2010eioi  -0.60128
gfz2010eiqi  -0.14722
gfz2010eisx   0.48919
gfz2010ejae  -0.68407
gfz2010ejjg   0.50067
gfz2010ejka  -0.18093
gfz2010ejma   0.26135
gfz2010ekaw   0.29463
gfz2010ekoe   0.01798
gfz2010ekrv   0.38994
gfz2010elhv   0.03141
gfz2010elin  -1.02180
gfz2010eljf  -1.66480
gfz2010elpu   0.59052
gfz2010elsw  -0.03824
gfz2010eltf   0.10045
gfz2010elvp   0.51838
gfz2010elxi  -0.44107
gfz2010elyc  -0.41547
gfz2010elyo   0.35339
gfz2010elzf  -0.14127
gfz2010elzl  -1.07070
gfz2010emyz  -1.04680
gfz2010encm   2.35610
gfz2010engw   9.25980
gfz2010enpa   2.68140
gfz2010ensu  -0.48861
gfz2010enzl  -0.36564
gfz2010eoao  -3.14460
gfz2010eohh   0.04402
gfz2010eomb   0.02214
gfz2010epbe  -0.87831
gfz2010epud  -0.59087
gfz2010epxj  -0.21580
gfz2010epzk   0.92623
gfz2010eqmu  -4.27510
gfz2010eqse  -0.75496
gfz2010erda  -0.78039
gfz2010erdi   1.33910
gfz2010erkn  -0.17179
gfz2010erna   0.26116
gfz2010erom   0.55549
gfz2010erum  -1.44390
gfz2010eruy  -1.53780
gfz2010erwn  -1.43430
gfz2010erxb   1.00940
gfz2010erxk  -2.25230
gfz2010eryg   0.02850
gfz2010esid  -1.86350
gfz2010eted  -0.51098
gfz2010euae   0.12137
gfz2010euan   1.07830
gfz2010eujm  -0.20744
gfz2010euvl   0.40619
gfz2010euwb   0.30175
gfz2010euxe   0.20636
gfz2010evco   0.83751
gfz2010evgf   0.11505
gfz2010evjv   3.62600
gfz2010evkd  -2.01760
gfz2010ewbc  -0.66714
gfz2010ewvc   0.69890
gfz2010ewyu   0.08947
gfz2010excp   0.50681
gfz2010exdd  -0.12176
gfz2010exdl  -0.44103
gfz2010exed   0.56783
gfz2010exel   0.93515
gfz2010exfb  -1.45190
gfz2010exgb   0.17824
gfz2010exhd   0.48658
gfz2010exhw   0.31305
gfz2010exjw   1.28180
gfz2010exmc   0.03767
gfz2010exno   0.30589
gfz2010exou  -0.72239
gfz2010exqu  -0.75338
gfz2010exsg   0.77288
gfz2010exts  -0.31251
gfz2010exyp   0.42717
gfz2010eyaz   0.46349
gfz2010eybj   2.41590
gfz2010eyhh  -0.20967
gfz2010eyiv  -0.00000
gfz2010eymx   0.73537
gfz2010eyvq   0.91243
gfz2010eyxe  -0.32576
gfz2010ezck  -0.38920
gfz2010ezvt   0.57481
gfz2010ezwz  -0.31663
gfz2010fcnn   0.87776
gfz2010fcnt  -0.62211
gfz2010fcxy  -0.09120
gfz2010fcyj   0.47212
gfz2010fczt   0.60163
gfz2010fedq   0.43030
gfz2010fefr   6.61850
gfz2010ffhq   0.68590
gfz2010ffjb  -0.53563
gfz2010ffui  -0.35916
gfz2010fhbl  -0.96619
gfz2010fihj  -1.34530
gfz2010fika   0.55496
gfz2010fisf   0.50791
gfz2010fixr  -0.35643
gfz2010fjmu  -0.52637
gfz2010fjni  -1.00670
gfz2010fkia  -0.40369
gfz2010fknh  -0.09420
gfz2010fkvg  -0.70582
gfz2010flha   0.07259
gfz2010flxi  -0.26950
gfz2010fmhb  -0.84680
gfz2010fmip   1.93690
gfz2010fmpy   0.33012
gfz2010fmwb   2.91830
gfz2010fneu  -0.05261
gfz2010fnrk  -1.05800
gfz2010fobc  -0.39043
gfz2010fona   0.59264
gfz2010fpmv   3.03880
gfz2010fpqy  -0.13469
gfz2010fqdu  -0.33616
gfz2010fqtj  -0.86200
gfz2010fser  -0.55471
gfz2010fsth   0.12965
gfz2010ftlm  -0.88341
gfz2010ftsx   4.51030
gfz2010fupn  -0.95774
gfz2010fuuy  -0.15689
gfz2010fuwa  -0.54337
gfz2010fvuc   0.25062
gfz2010fwkk   1.06130
gfz2010fwlb  -0.57390
gfz2010fwzd  -4.02290
gfz2010fyed   2.57880
gfz2010fyen   0.42473
gfz2010fync   0.43586
gfz2010fzoi  -0.44327
gfz2010fzsg   1.72170
gfz2010gcdn   0.36806
gfz2010gcrl   0.46766
gfz2010gcrp  -0.04353
gfz2010gdch  -0.39754
gfz2010gdld   0.42963
gfz2010ghyk   0.83093
gfz2010gjia   0.73331
gfz2010gjvo   0.16041
gfz2010glqr  -0.55295
gfz2010glxl  -0.32629
gfz2010gmib   0.92088
gfz2010grjd  -0.91833
gfz2010gslu  -0.37752
gfz2010gtzt   1.35320
gfz2010gwmp  -1.02410
gfz2010gymo  -1.51240
gfz2010gyqp   0.46479
gfz2010gzxr   0.47522
gfz2010hakh  -1.76590
gfz2010hbka   0.87056
gfz2010hcio  -0.40794
gfz2010hevz  -1.66980
gfz2010hjoc  -0.97086
gfz2010hllj  -0.54935
gfz2010hlln  -1.34410
gfz2010hmhm  -1.08360
gfz2010hnnf   0.16382
gfz2010hnpi  -0.34723
gfz2010hnzr  -0.34835
gfz2010homc   0.27718
gfz2010hptz   0.67342
gfz2010hxbs  -0.20648
gfz2010hxgv   0.79779
gfz2010hxhe   1.29540
gfz2010hzar  -0.23365
gfz2010ibiy  -0.62769
gfz2010ibxj  -2.70040
gfz2010icqq   0.84772
gfz2010iibf  -0.21082
gfz2010iimu   0.15329
gfz2010imfv   0.12572
gfz2010iobp   1.07050
gfz2010iphd  -0.49690
gfz2010ipsg   1.38850
gfz2010iqep   1.62620
gfz2010iqfm   1.99390
gfz2010iqus  -1.17020
gfz2010irqr  -0.15878
gfz2010irvf  -0.19020
gfz2010iull  -1.17660
gfz2010izzj   0.10949
gfz2010jagd  -0.66342
gfz2010jatq   0.22750
gfz2010jhie  -0.00000
gfz2010jipf  -5.73630
gfz2010jitt  -0.57788
gfz2010jpss  -0.69387
gfz2010jpyj  -0.77957
gfz2010jssh   1.07030
gfz2010jsuh  -0.78467
gfz2010jtal  -0.60833
gfz2010jwpy  -1.44860
gfz2010jxbm   0.39064
gfz2010jygz  -0.24329
gfz2010kcoo  -0.05872
gfz2010kgws  -1.43410
gfz2010kihf  -0.51086
gfz2010kjmp   0.18407
gfz2010kmgg  -2.95420
gfz2010kmsv  -0.93693
gfz2010kown   0.14601
gfz2010kyvj  -0.47293
gfz2010lczp  -0.78642
gfz2010lgwy  -1.07100
gfz2010liqs   0.92784
gfz2010lkcf   0.45760
gfz2010lluj  -0.78505
gfz2010lopz   0.01950
gfz2010lrlk   0.58171
gfz2010lyfk   2.63300
gfz2010mant   0.59879
gfz2010mbje  -1.37120
gfz2010mcrx   0.24705
gfz2010mdpq  -1.09640
gfz2010mgss  -0.52061
gfz2010mhjt  -0.17301
gfz2010miil  -1.84830
gfz2010miqn   0.18866
gfz2010mkuu  -0.58102
gfz2010mlkz   1.77710
gfz2010mlta  -1.42640
gfz2010mncc  -0.50970
gfz2010mnhm  -0.26552
gfz2010mnsz  -1.25240
gfz2010mpuy   0.45249
gfz2010msjj  -0.39953
gfz2010muca   0.10128
gfz2010mwdq  -0.51032
gfz2010mzjr   0.78162
gfz2010nfsj   0.00000
gfz2010nlkh  -0.73952
gfz2010nmpc  -0.26878
gfz2010nnny   1.31880
gfz2010nqwf   0.44502
gfz2010nqwo   0.08884
gfz2010nrew   0.03847
gfz2010nrjo  -0.28956
gfz2010nsck   0.95688
gfz2010nsdf  -0.56658
gfz2010ntuo   0.37550
gfz2010nubk   1.53780
gfz2010nwef  -0.34395
gfz2010nxum  -0.22998
gfz2010nzla   7.49640
gfz2010ocxq  -0.92073
gfz2010odpb  -0.58388
gfz2010onma  -0.74748
gfz2010pcxi  -0.80182
gfz2010pdtk  -0.10703
gfz2010pfyu  -0.30427
gfz2010phvg  -0.77907
gfz2010pmqd   0.54699
gfz2010pqck   0.81747
gfz2010pxgh  -0.11708
gfz2010qitd   0.90087
gfz2010qjst  -0.14772
gfz2010qkat  -0.63410
gfz2010qpcq  -0.04682
gfz2010qpvi   0.35306
gfz2010qwwx  -1.22360
gfz2010rkfp  -0.06723
gfz2010rlbv   3.81270
gfz2010rqwj   0.46412
gfz2010rzrr  -0.64009
gfz2010sfee  -0.42386
gfz2010svtn  -0.25426
gfz2010sysw  -0.39974
gfz2010tcbr   0.54094
gfz2010tcrl  -3.59100
gfz2010upfb   1.26190
gfz2010usho  -0.79133
gfz2010ustq  -0.37468
gfz2010utcg   0.42673
gfz2010utmc   0.02772
gfz2010utvp   2.08820
gfz2010uyhb  -2.00180
gfz2010vbmd  -0.27883
gfz2010vhuj   0.19374
gfz2010vxvs   1.13390
gfz2010wnty   2.17550
gfz2010wntz   1.71470
gfz2010wrxx   1.44160
gfz2010xbdv  -0.26898
gfz2010xden  -0.68304
gfz2010xgzw  -0.14458
gfz2010xjck   0.35423
gfz2010xjsj  -0.15824
gfz2010yjev   1.38820
gfz2010ymur   3.26080
gfz2010yoyx  -0.22934
gfz2011aatr  -0.68144
gfz2011adjs  -0.19379
gfz2011adpw   0.30244
gfz2011aeay   0.83166
gfz2011ahfw   0.64719
gfz2011alip  -0.15336
gfz2011alsa   0.11089
gfz2011alwf  -2.79720
gfz2011aosc  -0.60335
gfz2011aqxf   0.49770
gfz2011asru   0.51455
gfz2011aupi   0.88657
gfz2011bgrp   0.51579
gfz2011bhha   1.04020
gfz2011blsi   0.72607
gfz2011bpkd   0.20006
gfz2011ccpw  -2.34180
gfz2011cndo   0.16063
gfz2011coxh  -0.65672
gfz2011csju   0.27332
gfz2011ctbn   0.91071
gfz2011cvfg  -0.15519
gfz2011cwgn  -2.92860
gfz2011cykd  -0.27876
gfz2011cylz  -0.20039
gfz2011cynl  -0.29121
gfz2011cyre  -0.54199
gfz2011cyuk  -0.98601
gfz2011czwj  -0.45040
gfz2011dbev  -0.26808
gfz2011dbig  -0.38201
gfz2011dbli  -0.11401
gfz2011dbon  -0.38191
gfz2011dbwt  -0.51287
gfz2011dcqb   0.01660
gfz2011dcqf   0.57757
gfz2011ddao   0.40895
gfz2011dddh  -2.41320
gfz2011deaf   1.17050
gfz2011dkyi   0.21035
gfz2011dldn   0.10884
gfz2011dllz   1.67950
gfz2011dlyx  -0.33297
gfz2011dpaa   0.13357
gfz2011dpqx  -0.33813
gfz2011dtpy  -1.78090
gfz2011duyr  -1.27710
gfz2011eayc  -0.05974
gfz2011ecaj   0.17197
gfz2011ecsc   0.45875
gfz2011edmm   0.09883
gfz2011eebc  -0.57625
gfz2011ehzq  -0.18124
gfz2011eltw  -0.80545
gfz2011enva  -0.44329
gfz2011etje   0.33953
gfz2011fgvr  -1.69660
gfz2011fhag  -1.24430
gfz2011fhbm  -0.40668
gfz2011fhur   0.31436
gfz2011fkbn   4.96950
gfz2011fnsw  -0.99820
gfz2011gbmx  -0.12213
gfz2011gcwb  -0.17069
gfz2011gdgh  -0.60057
gfz2011gkey   0.09528
gfz2011gkzt  -0.67499
gfz2011hbex  -0.48112
gfz2011hebt  -0.67030
gfz2011hfkj  -0.37385
gfz2011hlqw   0.22524
gfz2011hlsa  -0.88991
gfz2011hvbu   3.48140
gfz2011ieie   1.07550
gfz2011ixai  -0.08971
gfz2011izqa  -0.20566
gfz2011jghb  -0.77155
gfz2011jplh  -0.50943
gfz2011kqwo  -0.63684
gfz2011kqyg  -0.12830
gfz2011kxzp   1.01700
gfz2011lcxq  -0.42682
gfz2011lvjr   2.15670
gfz2011mdie   0.24917
gfz2011noud   1.64280
gfz2011npgs   0.06875
gfz2011nrwc   0.29024
gfz2011nrwv   0.31529
gfz2011ntkh  -0.00382
gfz2011nudm  -0.18575
gfz2011ogqk   1.31720
gfz2011ohcy   0.76951
gfz2011oiqe  -0.10762
gfz2011olkk  -0.52025
gfz2011orgn  -2.01030
gfz2011ornx   0.57024
gfz2011owvz  -0.04127
gfz2011ozsl   0.21320
gfz2011phms   0.15419
gfz2011ptus   1.10070
gfz2011qvae   0.01974
gfz2011qyms  -0.17579
gfz2011rabm   0.64463
gfz2011rdby  -2.02500
gfz2011rewa  -1.15060
gfz2011sagt   0.18753
gfz2011svix   1.43250
gfz2011tbas  -0.54741
gfz2011tcij  -0.75370
gfz2011tjue   6.35910
gfz2011tkfp   0.25097
gfz2011tkog  -1.79920
gfz2011toub  -1.34120
gfz2011tpbl   0.17819
gfz2011tpfr  -0.19765
gfz2011tsnp  -0.35749
gfz2011tuea   0.52582
gfz2011udsq  -0.22762
gfz2011uepx   3.25990
gfz2011ugzz   3.71070
gfz2011ujze  -0.59810
gfz2011uphh  -1.02680
gfz2011urzu  -0.45875
gfz2011vhfi   0.49604
gfz2011vkun  -0.12314
gfz2011wjkf   2.93020
gfz2011wjul  -2.15490
gfz2011wvzb   0.01682
gfz2011wwjs  -0.31072
gfz2011wxfs   1.60020
gfz2011wxoj  -0.88391
gfz2011wxtk  -0.90499
gfz2011wype  -0.86252
gfz2011xaan   0.71208
gfz2011xcpv  -0.77961
gfz2011xesx   0.44714
gfz2011xyxj   0.37936
gfz2011yfdx  -0.07072
gfz2011zklv   0.21983
gfz2011zqhh   0.03854
gfz2012aqgp  -1.34090
gfz2012cgvr  -0.48828
gfz2012cnod   0.76486
gfz2012covm  -0.61283
gfz2012cqnl  -0.24211
gfz2012cxdn  -0.11184
gfz2012czlw  -0.32843
gfz2012deri  -1.04470
gfz2012dimn   0.03345
gfz2012dinb   1.27240
gfz2012djwi  -0.81187
gfz2012dves  -1.54100
gfz2012dyyh   0.42548
gfz2012ekda  -0.17475
gfz2012ekzf  -0.53051
gfz2012elce  -1.06430
gfz2012emjg  -0.59192
gfz2012enno  -1.24500
gfz2012ewgo   0.85799
gfz2012fhnh  -0.90045
gfz2012fivh   0.91689
gfz2012fqcg   0.33043
gfz2012fwfo  -0.33856
gfz2012fwtr  -0.05333
gfz2012fzfa   0.80348
gfz2012gcgn  -0.19309
gfz2012glss  -0.13491
gfz2012gomm  -0.58957
gfz2012gukw   0.99295
gfz2012gwqb   0.10677
gfz2012hdbm  -0.72246
gfz2012hnul  -1.28140
gfz2012hnuw   2.82130
gfz2012holl   0.02967
gfz2012iamr  -1.46370
gfz2012icmv   2.32240
gfz2012idje   0.18418
gfz2012ihdl   0.12126
gfz2012iivw   0.23238
gfz2012ilvn  -0.69063
gfz2012ilxh  -0.22682
gfz2012jgvj  -0.68076
gfz2012jjzc   3.29420
gfz2012jlox  -1.02460
gfz2012jqvn   0.20144
gfz2012jshk   0.11978
gfz2012jupx  -0.27842
gfz2012kbjb  -0.39736
gfz2012keor  -0.76160
gfz2012kkup  -1.68080
gfz2012klhx  -1.76220
gfz2012kuct  -0.80591
gfz2012kudo  -0.77277
gfz2012kvzv  -1.65380
gfz2012kwgo  -0.03619
gfz2012lboz   0.26081
gfz2012lczo  -0.34851
gfz2012ldxg  -0.17244
gfz2012ldzj  -0.16067
gfz2012ledy  -0.15387
gfz2012minr   3.94420
gfz2012mupa  -0.21856
gfz2012mvwr   0.28327
gfz2012mwij  -0.07536
gfz2012nedn  -0.40457
gfz2012nojx  -1.22410
gfz2012nsbz   0.58024
gfz2012oazn  -0.06569
gfz2012omvo   0.36492
gfz2012pgcl  -0.68499
gfz2012pqlt   0.20217
gfz2012rats  -0.27737
gfz2012ronz   0.55576
gfz2012rqlg   3.49530
gfz2012rwov  -0.93515
gfz2012snhi   1.28420
gfz2012sphd   0.18398
gfz2012syvl  -0.11223
gfz2012teic  -0.46786
gfz2012tmop  -0.71510
gfz2012ttoa  -0.41583
gfz2012tvmv  -0.56936
gfz2012uafg  -0.40703
gfz2012uciv  -0.24850
gfz2012uhup  -0.68319
gfz2012vceo  -0.25803
gfz2012vpza  -0.62152
gfz2012vrgb  -0.26962
gfz2012vsev  -0.42470
gfz2012whku  -0.33494
gfz2012wklq  -0.07284
gfz2012wmkd   2.52810
gfz2012wpeq  -0.12737
gfz2012wtkr  -0.30741
gfz2012wvfl  -0.09588
gfz2012wxer  -0.36828
gfz2012wxlg  -0.19808
gfz2012wxnu  -0.56067
gfz2012wybs  -0.27643
gfz2012wypz  -0.53919
gfz2012xjyv  -0.18840
gfz2012xslk  -0.52229
gfz2012xyqp  -0.55343
gfz2012xyua   2.16070
gfz2012zemh   0.02017
gfz2012zitl  -0.60920
gfz2012zjpv   0.23031
gfz2013aayj  -1.99630
gfz2013acag   0.30897
gfz2013akgj   9.57460
gfz2013aqaw  -1.11870
gfz2013axoj  -0.89246
gfz2013bdke   0.73280
gfz2013bdpu  -0.83825
gfz2013bokp  -1.72680
gfz2013bouj   0.24767
gfz2013btjm  -0.68925
gfz2013ccnr  -1.25740
gfz2013cwpn  -0.86736
gfz2013czeq   0.37915
gfz2013dkly   0.28922
gfz2013dkym  -1.33770
gfz2013dofo   0.02224
gfz2013dojq   1.10680
gfz2013drpk   0.48567
gfz2013drxz  -1.42400
gfz2013dsog   1.25210
gfz2013dspt  -1.01730
gfz2013dsrk  -2.30510
gfz2013dvyh  -0.29042
gfz2013egpu   1.41840
gfz2013ekpm  -0.32068
gfz2013hmbc  -0.82400
gfz2013huwr   1.42990
gfz2013hxcx  -0.56232
gfz2013idbb  -0.67753
gfz2013ifpq  -0.11874
gfz2013ijsr   0.77361
gfz2013ikgo  -0.93181
gfz2013inux   1.11570
gfz2013iunn  -1.01030
gfz2013jdrx  -0.56097
gfz2013jesk   0.04704
gfz2013jfah   0.55114
gfz2013jgij   0.96146
gfz2013jgip  -0.75862
gfz2013jkut  -0.13900
gfz2013jokw  -0.69339
gfz2013jusj  -0.12517
gfz2013jwvc  -0.93750
gfz2013kdeo  -0.57372
gfz2013kheb   0.35450
gfz2013kvtk  -0.27872
gfz2013kwag  -0.28075
gfz2013ldpc  -0.58008
gfz2013ldqb  -0.66013
gfz2013lyko  -0.49599
gfz2013mqmv  -0.21935
gfz2013mwbh   0.70777
gfz2013ncjp  -0.52286
gfz2013ndin   1.26870
gfz2013neuc  -0.25304
gfz2013nixj   0.73703
gfz2013nkgj  -0.26520
gfz2013nqgw  -0.49997
gfz2013nuvi   0.01387
gfz2013nwdi   0.44893
gfz2013onjy   0.79722
gfz2013orzn  -1.18700
gfz2013pfbx  -1.09140
gfz2013reav   1.23580
gfz2013roki   0.22542
gfz2013rsnr   0.47736
gfz2013sart  -0.23659
gfz2013suvn   0.07523
gfz2013svci   0.16135
gfz2013tcxc   0.50994
gfz2013tcxq   0.56971
gfz2013tusd  -0.75295
gfz2013tvmw   3.48890
gfz2013uauo   0.99618
gfz2013ufxk   0.36927
gfz2013uqvu   0.62245
gfz2013vexx   0.96463
gfz2013vfyw   0.35552
gfz2013vfzp  -0.60855
gfz2013viul   0.40343
gfz2013vjjc  -0.87761
gfz2013vqot   0.59412
gfz2013vvrq   0.59785
gfz2013waam   0.60942
gfz2013wjmm  -0.91136
gfz2013wkyk   0.13810
gfz2013xizq  -1.40640
gfz2013xklb   0.03801
gfz2013xmul   0.05337
gfz2013xsdt   0.15537
gfz2013xvqd   0.00000
gfz2013yhbu   0.01569
gfz2013ylbx  -1.62040
gfz2013ypdc  -0.79960
gfz2013yqkv   0.70622
gfz2013yyhc  -0.00266
gfz2013yyti  -0.19997
gfz2013zjel  -0.25218
gfz2014afmx   0.86500
gfz2014ajlk   0.10545
gfz2014algk  -0.13998
gfz2014alwz   0.29815
gfz2014ande  -0.39735
gfz2014arpf  -0.12231
gfz2014arqr  -0.33403
gfz2014bagd  -0.06443
gfz2014bbro  -0.68647
gfz2014bekc  -1.30650
gfz2014bezu  -0.01126
gfz2014bfng  -0.31480
gfz2014bmta   0.73842
gfz2014bwue   0.33814
gfz2014bzxy  -0.70639
gfz2014caop  -0.71943
gfz2014cbtl   0.47765
gfz2014cgog  -0.01331
gfz2014chdv   0.03458
gfz2014cmwb  -0.62245
gfz2014cvkm  -1.07570
gfz2014czqi  -0.02421
gfz2014czua  -0.02078
gfz2014dddc  -0.38207
gfz2014dhxt   0.01258
gfz2014ebmc  -0.35087
gfz2014efkk   0.57213
gfz2014eght   0.18090
gfz2014ehsf  -0.78505
gfz2014ekcr  -0.87346
gfz2014ekdt  -0.08531
gfz2014enhi  -0.13447
gfz2014eqpl   0.58382
gfz2014etqa  -0.36247
gfz2014ettc  -0.08007
gfz2014fcms  -1.75750
gfz2014fedd  -0.34648
gfz2014femz   0.28924
gfz2014fexu   1.36420
gfz2014fgvi  -0.61891
gfz2014fgxt   2.53040
gfz2014fgyo  -1.03410
gfz2014fgza   2.62490
gfz2014fhbd  -0.72550
gfz2014fhdw  -1.01120
gfz2014fhla  -1.79010
gfz2014fhrq  -0.60374
gfz2014fhsg   4.15870
gfz2014fhwx  -0.63486
gfz2014fimn  -0.46726
gfz2014fjpb  -0.66181
gfz2014fjyo   1.16350
gfz2014fkmr  -0.04758
gfz2014fnbh  -0.10418
gfz2014fnyg   0.25206
gfz2014foio   1.24390
gfz2014frdz  -1.70770
gfz2014frel   1.71040
gfz2014frez  -0.59608
gfz2014frgm  -0.94692
gfz2014frwh  -0.70092
gfz2014ftka  -1.46530
gfz2014ftpw  -0.13406
gfz2014ftrk   3.86210
gfz2014furx  -1.03090
gfz2014fusj  -0.64405
gfz2014fuub  -1.76280
gfz2014fval  -0.21164
gfz2014fvgh   0.00000
gfz2014fvpy  -0.15504
gfz2014fvrg  -1.84860
gfz2014fzgx   0.89509
gfz2014gbcz  -0.43858
gfz2014gbdq   0.76268
gfz2014geuy   1.03370
gfz2014gezs  -0.67590
gfz2014ghpe  -0.39446
gfz2014gkgf  -0.23932
gfz2014gkhy  -0.12565
gfz2014gkjl  -2.60310
gfz2014gkjt   2.93760
gfz2014gkmm  -0.49970
gfz2014gkob  -1.24730
gfz2014gkpd   0.14616
gfz2014gkqf  -0.89488
gfz2014gkqu  -2.42530
gfz2014gksj  -1.55180
gfz2014gksu   0.10369
gfz2014gktn  -0.03647
gfz2014gktq  -2.47280
gfz2014gkut  -0.04125
gfz2014gkxm  -2.33780
gfz2014glcu  -0.66894
gfz2014glgo  -1.12360
gfz2014gltx  -0.22160
gfz2014glvn  -0.51737
gfz2014gmci  -1.27180
gfz2014gmge   0.25550
gfz2014gmhp  -0.90668
gfz2014gmhr  -0.76105
gfz2014gmjo   0.14421
gfz2014gmku  -1.18900
gfz2014gmlz  -0.02633
gfz2014gmnb   0.00000
gfz2014gmnw  -0.78643
gfz2014gmor   0.34623
gfz2014gmpy  -0.19820
gfz2014gmuk  -0.40166
gfz2014gmuw   0.00000
gfz2014gmzl  -0.70956
gfz2014gnfd   0.72466
gfz2014gngg  -0.12293
gfz2014gnnt  -0.26817
gfz2014gnre  -0.20106
gfz2014gnxb  -0.52464
gfz2014goba  -0.01178
gfz2014gono   0.07341
gfz2014goqw  -0.86103
gfz2014gori   0.29030
gfz2014gpam   1.40530
gfz2014gpce  -0.80208
gfz2014gphr  -0.91766
gfz2014gpuk  -0.14355
gfz2014gpvk   2.96150
gfz2014gpya  -0.79408
gfz2014gqbj   0.45385
gfz2014gqer  -1.52480
gfz2014gsqs   0.49878
gfz2014gtwz  -0.65801
gfz2014gufl   0.54857
gfz2014gull  -0.82284
gfz2014gvqj  -1.89950
gfz2014gvrd  -0.00598
gfz2014gwab   3.26850
gfz2014gwqj  -0.95277
gfz2014gxkh  -0.26858
gfz2014gxqu  -0.72703
gfz2014gxxo  -0.79833
gfz2014hfhl  -0.64382
gfz2014hgqo   0.31709
gfz2014hjgh  -1.02560
gfz2014hjgr  -0.73985
gfz2014hjij  -0.77244
gfz2014hjlx  -0.30282
gfz2014hkcf  -0.98823
gfz2014hmgf   0.34734
gfz2014hmzg  -0.04475
gfz2014hoap   2.65210
gfz2014hocg  -0.49399
gfz2014hpqz   1.30860
gfz2014hscz  -0.74333
gfz2014hzfw   0.70966
gfz2014hzgn   1.03560
gfz2014ieam   1.18740
gfz2014ifue   0.61603
gfz2014imnn   3.78340
gfz2014inbj  -1.25260
gfz2014irci   2.05990
gfz2014itkw  -0.74499
gfz2014iuhq  -1.52750
gfz2014jcjt   0.53551
gfz2014jjhc  -0.20556
gfz2014jjln  -1.01800
gfz2014jnxm   0.52613
gfz2014jnyv   0.39503
gfz2014jomw  -0.61345
gfz2014jpep  -1.40610
gfz2014jwmh   0.68093
gfz2014kbuk  -0.03170
gfz2014kbwm   0.30118
gfz2014khan  -0.17333
gfz2014khlk   0.46645
gfz2014kmmt  -0.22793
gfz2014kndc  -0.06559
gfz2014knks  -0.20736
gfz2014knxs   0.05959
gfz2014ksdv  -0.08231
gfz2014kwrg   0.13986
gfz2014kwwg   0.05867
gfz2014kxqf   3.50320
gfz2014kyan  -0.19562
gfz2014kytf   0.12627
gfz2014ldhu  -0.01222
gfz2014lgqn   0.56609
gfz2014lxnc   0.08297
gfz2014lyhk   3.44100
gfz2014oinz   0.15551
gfz2014owxc   1.93370
gfz2014qlxd   0.14458
gfz2014qngj  -1.38820
gfz2014qqhm   0.24369
gfz2014rdsn  -0.16911
gfz2014riel  -0.44308
gfz2014rkwl  -0.20060
gfz2014sjqw  -0.98401
gfz2014ssmv   0.24229
gfz2014ssvz  -0.10150
gfz2014szzf   0.44092
gfz2014tovs   0.25187
gfz2014tqdo  -0.08513
gfz2014tqsf  -0.75069
gfz2014tqth   3.27810
gfz2014ubwn   0.65267
gfz2014udgg  -0.64790
gfz2014uohh  -0.09910
gfz2014utac   0.63969
gfz2014uuuf  -0.37817
gfz2014uvji   0.07830
gfz2014uvrk  -1.20070
gfz2014uxyg   0.26895
gfz2014uyrq  -0.35983
gfz2014vhld  -0.54655
gfz2014vhms   0.05982
gfz2014vhuy   0.57656
gfz2014vjoz  -0.42935
gfz2014vqqa   2.71940
gfz2014waoo   0.31270
gfz2014watn   0.01604
gfz2014wjko  -1.14800
gfz2014wmsc   0.00000
gfz2014wqcp  -1.13840
gfz2014wrkh  -0.04176
gfz2014wwib   3.06510
gfz2014xbyr  -0.30675
gfz2014xjri  -0.90399
gfz2014xqby  -1.29890
gfz2014yhhm  -0.61661
gfz2014ynzy   0.18328
gfz2014yppv  -0.09532
gfz2014yrug  -0.27012
gfz2014yula  -0.06495
gfz2014yyiy   3.43290
gfz2014zkys  -0.56982
gfz2014zplq  -2.58120
gfz2015apnk  -0.24904
gfz2015aqbq  -5.44570
gfz2015aruz  -0.09206
gfz2015atxv  -0.68481
gfz2015berb  -0.38420
gfz2015bfjm  -0.24599
gfz2015bkbj   0.45523
gfz2015bphe  -0.29588
gfz2015bpxl  -0.41642
gfz2015bucr   0.71341
gfz2015bvsj  -1.01670
gfz2015bvxx   0.40315
gfz2015byjd  -1.12740
gfz2015bzej   1.04470
gfz2015chhn  -0.55520
gfz2015chqn  -0.22247
gfz2015cxhx   0.04038
gfz2015cxrc   0.72175
gfz2015cxxk   2.06860
gfz2015cyjd  -0.32441
gfz2015dizn  -0.44721
gfz2015dskr  -0.36268
gfz2015dvbn  -0.44822
gfz2015ednc   0.87672
gfz2015eeyq  -0.28946
gfz2015egxq   0.38581
gfz2015eiky  -0.38291
gfz2015elgy   0.91632
gfz2015emtg   0.92706
gfz2015enth  -2.23570
gfz2015etai   0.07051
gfz2015evpl   0.04477
gfz2015fbbk  -0.31316
gfz2015fbew  -1.16760
gfz2015fcua   0.62382
gfz2015fjhk  -1.18420
gfz2015fkgt   0.28439
gfz2015fkic  -1.84910
gfz2015fkjs  -0.13229
gfz2015fkkd  -0.12874
gfz2015fkuu  -0.09400
gfz2015flis  -0.68812
gfz2015fpez  -1.12180
gfz2015fsjj   0.01328
gfz2015fvoi  -0.14844
gfz2015fxbv  -0.83646
gfz2015fxdi  -0.12740
gfz2015gckd   0.16479
gfz2015gjbr   0.80332
gfz2015gkwa   0.37213
gfz2015hdbn   0.11494
gfz2015igsy  -0.69446
gfz2015ixyy  -0.67666
gfz2015jkdw   0.58696
gfz2015jpap   2.95500
gfz2015jwgl  -0.17949
gfz2015jxbx   0.31193
gfz2015jxjd   0.05704
gfz2015jzcv  -0.52278
gfz2015kakw  -1.13170
gfz2015kfsu  -0.93014
gfz2015kkth  -0.01043
gfz2015kphk  -0.52823
gfz2015kquq  -1.03510
gfz2015lhjy   1.19350
gfz2015lytv   0.76876
gfz2015mpte   1.07680
gfz2015ocdz   0.44445
gfz2015oyfl  -1.32390
gfz2015qnho   0.07653
gfz2015quzo   0.75680
gfz2015rddx  -0.19085
gfz2015rkzg  -0.59496
gfz2015sevh   3.27550
gfz2015sfdd  -0.10297
gfz2015sfdy   0.39868
gfz2015sffn   0.53522
gfz2015sfho  -0.02093
gfz2015sfhz  -0.03061
gfz2015sfiq  -0.63864
gfz2015sfkh  -0.02117
gfz2015sfko   0.43464
gfz2015sfks   0.87237
gfz2015sfkz  -0.04013
gfz2015sflf  -0.21954
gfz2015sfln   0.99403
gfz2015sfmd   0.60845
gfz2015sfnb  -0.06109
gfz2015sfno  -0.35544
gfz2015sfnv   0.37918
gfz2015sfoc  -0.30727
gfz2015sfom  -0.15047
gfz2015sfqo  -0.24277
gfz2015sfqr   1.40230
gfz2015sfsi   0.30026
gfz2015sfzm   0.03998
gfz2015sgad  -0.56837
gfz2015sggc  -0.65387
gfz2015sgyd   0.05923
gfz2015shhg   0.41262
gfz2015shjn   0.00000
gfz2015shsz  -1.07570
gfz2015sitn   0.71961
gfz2015sjgk   0.39213
gfz2015sjne   0.86897
gfz2015sjoj   0.15671
gfz2015sjvu  -0.14696
gfz2015sjwi  -0.19436
gfz2015skgj  -0.13440
gfz2015skxu  -0.21611
gfz2015sldx  -0.18971
gfz2015slun   1.22130
gfz2015smym   0.18440
gfz2015snsf  -0.87097
gfz2015snwh  -0.83531
gfz2015snyd  -0.28192
gfz2015soat   0.28260
gfz2015soxc  -0.30437
gfz2015sqmy   1.44030
gfz2015srat  -0.33985
gfz2015stfy   0.56458
gfz2015subz   0.11601
gfz2015svjy  -0.10366
gfz2015svwm   0.06808
gfz2015szcb   0.44790
gfz2015sztx   0.36338
gfz2015taml   0.33937
gfz2015tbje   0.01782
gfz2015tcem  -0.80603
gfz2015tdcu  -0.77953
gfz2015teje  -0.38721
gfz2015tezd   0.61153
gfz2015tghj  -0.61382
gfz2015thwg  -0.66613
gfz2015tiyc   0.24011
gfz2015tkol  -0.82745
gfz2015tlba   0.02423
gfz2015tlkf   0.08740
gfz2015tnjd   0.07344
gfz2015tpra  -0.28212
gfz2015tqff  -0.36565
gfz2015tsdm  -0.30418
