# Nsamples: 33  MAD:  1.451  mean:  2.689  variance:  1.630
gfz2010czps   2.52550
gfz2010eaoy   3.74540
gfz2010earu   3.01390
gfz2010edad   1.00750
gfz2010ekyc   4.50920
gfz2010elyc   2.18650
gfz2010exdd   3.19560
gfz2010exdl   0.83415
gfz2010exel   1.81950
gfz2010grjd   3.15220
gfz2013ldos   1.40720
gfz2013nkgj   3.35090
gfz2013qmer   3.92120
gfz2013svci   1.35050
gfz2013vjjc   3.75870
gfz2014cvkm   2.35330
gfz2014fhla   5.84680
gfz2014gbcz   2.15000
gfz2014oinz   4.40040
gfz2014watn   4.11310
gfz2015chhn   2.18450
gfz2015cyjd   3.38560
gfz2015fkgt   2.87320
gfz2015gckd   4.51570
gfz2015lhjy   4.23620
gfz2015lytv   1.68680
gfz2015sfdd   2.06470
gfz2015sfiq   1.35830
gfz2015sfno   2.05140
gfz2015snwh   2.29550
gfz2015snyd   0.62995
gfz2015svwm   2.37240
gfz2015tsdm   0.44307
