# Nsamples: 16  MAD:  0.779  mean:  0.427  variance:  2.101
gfz2010iull  -0.34672
gfz2010nmpc   0.35601
gfz2010nubk  -4.30360
gfz2011lcxq   0.36062
gfz2011rewa   0.96545
gfz2011toub   0.22548
gfz2012kudo   0.48037
gfz2012ldxg   1.37070
gfz2012ldzj   1.28330
gfz2012wypz   0.73253
gfz2013ccnr   3.14690
gfz2013jkut   0.20999
gfz2013pfbx   0.36189
gfz2014fkmr   0.92815
gfz2014hasj   1.18250
gfz2014oinz  -0.12761
