# Nsamples: 14  MAD:  0.708  mean:  0.087  variance:  1.966
gfz2010iull  -0.96335
gfz2010nmpc  -0.47754
gfz2010usho   0.46316
gfz2011aatr  -0.90645
gfz2011enva   0.48411
gfz2011gkzt   4.68770
gfz2011rewa   0.56210
gfz2011toub  -0.49185
gfz2012kudo  -0.03345
gfz2012ldxg  -0.09258
gfz2012ldzj  -0.10522
gfz2014bwue  -0.49067
gfz2014fkmr  -1.54710
gfz2014gmnb   0.13548
