# Nsamples: 35  MAD:  0.909  mean:  0.544  variance:  0.836
gfz2010bxxs  -0.38179
gfz2010cqwl  -0.20707
gfz2010eisx   1.24660
gfz2010ekyc   1.28800
gfz2010eltf  -0.76539
gfz2010elyc   2.65380
gfz2010excp  -0.61028
gfz2010fedq   1.80950
gfz2010ffhq   0.12393
gfz2010grjd  -0.17309
gfz2011aatr  -0.29093
gfz2011cykd   2.38320
gfz2011enva   1.43270
gfz2011gkzt   1.30280
gfz2011lcxq   1.31660
gfz2011lzwj   0.04459
gfz2011rewa   0.24933
gfz2011toub   0.15572
gfz2011wxfs   0.86216
gfz2012enno  -0.08060
gfz2012kkup   0.44715
gfz2012kudo   0.59571
gfz2013drxz   0.18756
gfz2013nwdi  -0.89309
gfz2013qmer   0.30434
gfz2013svci   1.15380
gfz2013vjjc   2.13110
gfz2014fgvi   0.49382
gfz2014fhla   1.80960
gfz2014ftka  -0.98060
gfz2014gkgf   0.03643
gfz2014gmhr   0.15282
gfz2015chhn   0.13357
gfz2015cyjd   0.17179
gfz2015fsjj   0.95017
