# Nsamples: 21  MAD:  0.993  mean: -0.427  variance:  1.031
gfz2013drxz  -0.56692
gfz2013jusj   0.39323
gfz2013lyko  -0.75838
gfz2013nwdi  -0.23244
gfz2013qmer  -1.01730
gfz2013qzdq  -1.08620
gfz2013svci   0.09035
gfz2013vjjc  -1.97150
gfz2013wjmm  -1.96700
gfz2013xsdt  -1.23010
gfz2014fhla   2.32300
gfz2014ftka   0.32596
gfz2014gkgf   0.23782
gfz2014gkgs   0.81582
gfz2014gmhr   1.03450
gfz2014qngj  -0.58588
gfz2014ssvz  -1.03340
gfz2015chhn  -1.39600
gfz2015cyjd  -0.73080
gfz2015fkgt  -1.25580
gfz2015fsjj  -0.36593
