# Nsamples: 109  MAD:  0.996  mean: -0.210  variance:  1.510
gfz2010czps   0.10669
gfz2010eaoy   0.27895
gfz2010eapk   0.06680
gfz2010eaqe  -0.62969
gfz2010eaqy  -0.56204
gfz2010earq  -1.24110
gfz2010earu  -0.34573
gfz2010easf  -0.76898
gfz2010easo  -0.20142
gfz2010easu  -0.49796
gfz2010eaty   0.49050
gfz2010eavs   2.29220
gfz2010eawb  -1.73800
gfz2010eawu   0.85790
gfz2010eaya   0.31826
gfz2010eayx   0.32904
gfz2010ebhc  -1.82340
gfz2010ebnn  -0.01113
gfz2010ebvm  -3.00990
gfz2010ebvv  -1.24650
gfz2010ebwp  -0.01139
gfz2010ecua  -0.09932
gfz2010edyi   5.57600
gfz2010eisx   1.36380
gfz2010ejjg   0.58036
gfz2010eltf  -0.54985
gfz2010elyc   0.31905
gfz2010evco   0.62155
gfz2010excp   0.42823
gfz2010exdd   0.13125
gfz2010exdl  -0.95964
gfz2010exno   0.49632
gfz2010ezck   0.70649
gfz2010gcrl   0.90545
gfz2010gcrp   0.18187
gfz2010gdld  -0.85642
gfz2010grjd  -2.59160
gfz2010rqwj  -0.33639
gfz2011aatr  -1.36820
gfz2011adjs  -0.23560
gfz2011cykd   0.45726
gfz2011dbig  -0.05904
gfz2011hfkj  -0.83751
gfz2011hlsa  -0.66603
gfz2011kxzp  -0.57484
gfz2011lcxq  -2.31240
gfz2011nudm  -0.80035
gfz2011rewa  -1.02130
gfz2011vxns  -0.19798
gfz2011wxfs  -0.65981
gfz2012enno  -0.72193
gfz2012fzfa   0.82455
gfz2012hnul   0.43801
gfz2012jlox  -2.91220
gfz2012kudo  -0.45248
gfz2012wxlg   0.21431
gfz2012wypz  -1.10110
gfz2013ccnr   1.00120
gfz2013cwpn   1.27960
gfz2013drxz  -0.77088
gfz2013jusj   2.48330
gfz2013nwdi   0.57355
gfz2013pfbx  -3.24450
gfz2013svci  -0.63458
gfz2013vjjc   1.12130
gfz2013xxxq   1.24540
gfz2014bwue   0.14654
gfz2014fgvi  -2.54730
gfz2014fhla   2.52340
gfz2014ftka  -1.24080
gfz2014gkgf  -0.66582
gfz2014gkgs  -0.63856
gfz2014gkqf  -1.25700
gfz2014gmge   0.66547
gfz2014gmhr  -1.70390
gfz2014gmnb  -1.59870
gfz2014gmnw  -1.12040
gfz2014goba  -1.83160
gfz2014hasj  -1.24440
gfz2014qngj  -1.57670
gfz2014ssvz   0.58866
gfz2015cyjd   1.17440
gfz2015fjhk  -1.25070
gfz2015fsjj  -1.86780
gfz2015lytv  -0.29869
gfz2015sfdd  -0.30802
gfz2015sfdy   0.16063
gfz2015sfiq   0.95878
gfz2015sfnb  -0.12814
gfz2015sfno   0.69089
gfz2015sggc   1.53190
gfz2015shov  -0.78690
gfz2015shsz  -0.62118
gfz2015sjgk  -0.06706
gfz2015sjoj  -0.72618
gfz2015sjvu   1.03540
gfz2015smym   0.01564
gfz2015snsf  -1.18030
gfz2015snwh  -0.94662
gfz2015snyd  -0.36883
gfz2015soat   0.14148
gfz2015soxc  -0.59346
gfz2015srgf  -0.06769
gfz2015svjy   0.34866
gfz2015svwm  -0.23412
gfz2015teje   1.32740
gfz2015tiyc   0.22073
gfz2015tkol   1.51810
gfz2015tnjd  -0.72290
