# Nsamples: 120  MAD:  0.775  mean: -0.050  variance:  0.950
gfz2010onma  -0.55536
gfz2010rqwj   1.37860
gfz2010sfee   1.76080
gfz2010tcrl   1.87900
gfz2010upfb  -0.30455
gfz2011aatr  -0.41256
gfz2011adjs  -0.29859
gfz2011alip  -0.03549
gfz2011cyre   1.04820
gfz2011dcqb   0.32251
gfz2011dpqx  -1.18560
gfz2011enva   1.32230
gfz2011etje   1.67320
gfz2011gkzt  -0.24889
gfz2011hlqw  -0.24055
gfz2011hlsa  -0.35723
gfz2011jplh  -0.00000
gfz2011kqwo   2.35780
gfz2011kxzp  -0.35611
gfz2011lcxq   1.05530
gfz2011lvjr   2.11300
gfz2011lzwj  -0.22146
gfz2011mdie  -0.51687
gfz2011mpme  -0.83018
gfz2011olkk  -1.25030
gfz2011orgn   1.15220
gfz2011ornx  -1.22260
gfz2011owvz  -0.07291
gfz2011rewa  -1.13010
gfz2011rgwp   1.60440
gfz2011tbas  -0.31530
gfz2011wxfs   0.75868
gfz2011wxtk  -0.57287
gfz2011xyxj   0.19349
gfz2012bpkx  -0.40934
gfz2012cxdn  -1.03330
gfz2012ekda  -0.70412
gfz2012enno  -0.77187
gfz2012fzfa  -0.02754
gfz2012syvl  -0.44927
gfz2012ttoa  -0.01372
gfz2012uafg  -0.65954
gfz2012vrgb   1.86950
gfz2012wklq  -0.11573
gfz2012wxlg   1.44600
gfz2012wypz  -0.00000
gfz2013ccnr  -0.40167
gfz2013dofo   0.66619
gfz2013drxz  -0.67731
gfz2013ldqb  -0.88726
gfz2013lyko  -0.18332
gfz2013mqmv   0.01974
gfz2013mwbh   1.04770
gfz2013ncjp   0.97920
gfz2013nkgj   0.24695
gfz2013nwdi   0.87126
gfz2013qfsq   0.46041
gfz2013qmer  -0.26515
gfz2013qzdq  -0.77661
gfz2013svci   0.60326
gfz2013vfyw  -1.92980
gfz2013vfzp  -0.41613
gfz2013vjjc  -1.11440
gfz2013wjmm  -1.83090
gfz2013xsdt  -0.37607
gfz2013yaig  -2.52330
gfz2013yqkv  -0.25330
gfz2014adjs  -0.60972
gfz2014afmx  -0.58842
gfz2014algk   0.35107
gfz2014bwue   0.46133
gfz2014bzxy  -0.74266
gfz2014enhi  -0.71599
gfz2014femz   0.38369
gfz2014fgvi   0.00000
gfz2014fhla   0.34339
gfz2014ftka   0.45370
gfz2014gbcz  -0.62627
gfz2014ghpe  -0.06845
gfz2014gkgf   0.48361
gfz2014gmge   0.31842
gfz2014gmhr  -0.99943
gfz2014gmnb   0.62864
gfz2014gmnw  -0.99485
gfz2014goba  -0.46767
gfz2014gori   0.59470
gfz2014gull  -0.08952
gfz2014gwab   1.38030
gfz2014hasj   2.32510
gfz2014hauo  -3.34780
gfz2014hjgr   0.60844
gfz2014hocg  -0.30360
gfz2014jwmh   0.46899
gfz2014kndc  -0.59730
gfz2014nqfm   0.02979
gfz2014pjum  -3.19030
gfz2014qlxd   0.14184
gfz2014qngj  -0.54682
gfz2014qqhm   0.01471
gfz2014raau  -2.15270
gfz2014rcyx   0.41966
gfz2014ssvz   0.10043
gfz2014szzf  -0.56828
gfz2014tqdo   0.15407
gfz2014vhld   0.36435
gfz2014vjoz   0.38058
gfz2014watn  -0.64970
gfz2014wrkh  -0.81544
gfz2015berb   0.23789
gfz2015chhn  -0.96267
gfz2015cyjd   0.62986
gfz2015etai  -0.57574
gfz2015fcua   0.56765
gfz2015fkgt  -0.28361
gfz2015fsjj   0.00631
gfz2015gckd  -0.15618
gfz2015kfsu  -0.18685
gfz2015lhjy  -0.10899
gfz2015lytv   0.63981
gfz2015mpte   1.00570
