# Nsamples: 159  MAD:  0.739  mean:  0.124  variance:  0.962
gfz2010bfzs   0.18364
gfz2010bhhq   2.98450
gfz2010bifb   0.23107
gfz2010bjeb  -0.21396
gfz2010bjsl  -1.84510
gfz2010bxxs  -0.05956
gfz2010caft   0.15243
gfz2010cbkg   2.22040
gfz2010cqwl   0.37774
gfz2010czps   0.11040
gfz2010eaoy   0.24768
gfz2010eapk   0.38214
gfz2010eapn   1.34010
gfz2010eaqx   0.16655
gfz2010eaqy   0.58697
gfz2010earq   0.53898
gfz2010earu   0.03564
gfz2010eask  -1.12240
gfz2010easo  -0.12174
gfz2010easu   1.35510
gfz2010eati  -0.34176
gfz2010eato   0.40427
gfz2010eaul  -0.45362
gfz2010eavp  -1.40770
gfz2010eavs  -0.56030
gfz2010eawb  -3.21620
gfz2010eawu  -0.25242
gfz2010eaxa  -0.83057
gfz2010ebhc  -0.15687
gfz2010ebih   2.54080
gfz2010ebin   3.19770
gfz2010ebkj   0.40282
gfz2010ebmb   0.84582
gfz2010ebnn   1.02810
gfz2010ebvm   0.89709
gfz2010ebvv   0.11887
gfz2010eced  -0.69552
gfz2010echy  -0.34680
gfz2010ecua  -0.28707
gfz2010ecvt  -0.41399
gfz2010egld   0.35973
gfz2010eisx   0.68822
gfz2010eltf  -0.11479
gfz2010elyc  -1.13610
gfz2010erkn  -0.97156
gfz2010evco   0.03846
gfz2010ewvc   0.49814
gfz2010excp  -0.46911
gfz2010exdd   0.18241
gfz2010exdl   0.14229
gfz2010exno   0.08136
gfz2010exsg   0.64610
gfz2010ezck   0.15257
gfz2010fcnn   0.09037
gfz2010fczt  -0.45773
gfz2010fedq  -0.49194
gfz2010ffhq  -0.40656
gfz2010fqdu   2.22490
gfz2010fqtj  -0.38403
gfz2010fync  -0.22790
gfz2010gcrl  -0.27711
gfz2010gdld   0.06366
gfz2010gyqp  -0.22244
gfz2010homc   0.78396
gfz2010hxhe   0.96843
gfz2010iciq   0.46959
gfz2010iqnm  -0.41577
gfz2010irvf   1.32370
gfz2010iull   0.60535
gfz2010jkxj   0.10508
gfz2010jxbm   1.04870
gfz2010pxgh  -1.35500
gfz2010rqwj   1.70110
gfz2011cykd  -0.47504
gfz2011cynl  -0.78561
gfz2011dcqb   1.58330
gfz2011dpqx  -0.63974
gfz2011eayc   0.66673
gfz2011ecaj  -0.02253
gfz2011enva   0.55787
gfz2011gbmx   0.36948
gfz2011gkzt   0.05719
gfz2011hbex   0.75029
gfz2011hlqw  -0.42600
gfz2011hlsa  -0.25495
gfz2011izqa   0.99785
gfz2011jplh  -0.38126
gfz2011kqwo   1.28730
gfz2011kxzp   0.04361
gfz2011lcxq   1.04910
gfz2011lvjr   2.58760
gfz2011lzwj  -0.43485
gfz2011mdie  -0.00000
gfz2011olkk  -0.04920
gfz2011owvz  -0.39634
gfz2011rewa  -0.33419
gfz2011rgwp  -0.39867
gfz2011sagt   1.76310
gfz2011shqm   1.50750
gfz2011tkfp  -0.21267
gfz2011tkog   0.70810
gfz2011toub  -1.60820
gfz2011ujze  -0.34099
gfz2011uphh   0.18014
gfz2011vhfi   1.87520
gfz2011wxfs   0.41557
gfz2011wxtk  -0.92523
gfz2011zqhh  -2.26740
gfz2012bpkx  -0.25851
gfz2012byad   0.44140
gfz2012cxdn  -0.60461
gfz2012ekda   0.86962
gfz2012enno  -0.82407
gfz2012ewgo   0.92945
gfz2012fzfa  -0.10119
gfz2012hnul  -0.43929
gfz2012jlox   0.41864
gfz2012ldxg   0.20985
gfz2012lxkv  -2.59870
gfz2012rqlg  -1.11860
gfz2012rwov  -0.59543
gfz2012ttoa  -0.21958
gfz2012vrgb  -0.47026
gfz2012wklq   0.05945
gfz2012wpah  -0.74368
gfz2012wybs   1.17860
gfz2012wypz  -0.03867
gfz2013axoj   1.56630
gfz2013ccnr   1.57160
gfz2013dofo   0.60712
gfz2013drxz  -0.29899
gfz2013dvyh   2.06010
gfz2013jgij   1.27140
gfz2013jusj  -1.40250
gfz2013ldqb  -0.59462
gfz2013lyko  -0.02849
gfz2013mwbh   1.46510
gfz2013ncjp   0.17667
gfz2013nkgj   0.60910
gfz2013nwdi   0.27214
gfz2013qmer  -0.14352
gfz2013qzdq  -0.19147
gfz2013svci   0.41162
gfz2013vfyw  -2.67820
gfz2013vfzp   0.08701
gfz2013vjjc  -0.27222
gfz2013wjmm  -1.47900
gfz2013xsdt  -0.27923
gfz2014afmx  -0.44714
gfz2014algk   0.13645
gfz2014bagd  -0.45489
gfz2014bwue   0.81250
gfz2014bzxy   0.41886
gfz2014dddc   0.72770
gfz2014enhi  -0.49734
gfz2014oryw  -0.73075
gfz2014ppzf   0.47866
gfz2014qlxd   0.09783
gfz2014qngj   0.70302
