# Nsamples: 188  MAD:  0.668  mean:  0.006  variance:  1.480
gfz2010bfzs   0.41042
gfz2010bxxs  -0.75088
gfz2010caft  -0.15346
gfz2010cbkg   0.81334
gfz2010eaoy   0.56117
gfz2010eapk  -0.05646
gfz2010eaqx  -0.49036
gfz2010eaqy   1.77030
gfz2010earq   0.33839
gfz2010earu  -0.11789
gfz2010easo   0.53118
gfz2010eato  -0.00000
gfz2010eatt   0.83446
gfz2010eaul  -0.27780
gfz2010eavs   0.00000
gfz2010eawu   0.86041
gfz2010eaxa   0.19125
gfz2010eayx   0.59017
gfz2010ebfx   0.36350
gfz2010ebhc  -0.21613
gfz2010ebih   2.58650
gfz2010ebin  -0.25958
gfz2010ebla  -0.06057
gfz2010ebll   0.17719
gfz2010ebnn  -0.74930
gfz2010ebvm   0.43352
gfz2010ebvv   0.15042
gfz2010ecfx  -0.38151
gfz2010ecfy  -0.05996
gfz2010echy  -0.16290
gfz2010ecro   2.28420
gfz2010ecsp  -1.75950
gfz2010ecua   0.51049
gfz2010egsy  -0.95393
gfz2010ehxz  -2.03410
gfz2010eisx  -1.10460
gfz2010ejjg  -0.64091
gfz2010ekyc  -0.37845
gfz2010eltf  -0.16440
gfz2010elyc  -2.26410
gfz2010erkn  -0.41998
gfz2010erom   0.55637
gfz2010ewvc   0.75877
gfz2010excp   0.46370
gfz2010exdd   0.21273
gfz2010exdl  -0.28539
gfz2010exed   0.09149
gfz2010exel  -0.14737
gfz2010exhw   0.04541
gfz2010exno   0.23746
gfz2010exsg   1.87600
gfz2010ezax   0.11065
gfz2010ezck   0.49366
gfz2010falm  -1.27720
gfz2010fczt   0.32543
gfz2010fedq   0.59004
gfz2010ffhq  -0.18128
gfz2010ffjb   0.27161
gfz2010fika  -0.11995
gfz2010fjmu  -0.15060
gfz2010fync   0.19985
gfz2010gdld  -2.43490
gfz2010hjoc  -0.29931
gfz2010homc  -0.17330
gfz2010hxgv  -0.01814
gfz2010iobp   0.66345
gfz2010iqnm  -0.51323
gfz2010iull   0.85449
gfz2010lepw  -0.22405
gfz2010lkcf   1.24570
gfz2010mkuu   0.34850
gfz2010moyw   0.16708
gfz2010ncrl   0.60174
gfz2010nmpc  -0.24064
gfz2010nqwo   0.51397
gfz2010ntuo   0.03207
gfz2010nwef  -0.21079
gfz2010onma  -0.53138
gfz2010pcxi   0.01632
gfz2010pxgh  -0.58716
gfz2010rqwj   0.52174
gfz2010sfee  -0.14553
gfz2010sniy  -0.76365
gfz2010usho  -0.66281
gfz2010utcg  -0.38179
gfz2011aatr  -0.20317
gfz2011alip  -0.66777
gfz2011cykd  -0.08354
gfz2011dcqb   0.21391
gfz2011dcqf  -0.78157
gfz2011dpqx  -0.83983
gfz2011enva   0.51228
gfz2011gbmx   0.57217
gfz2011gkzt   0.80191
gfz2011hbex   1.33820
gfz2011hlqw  -0.27747
gfz2011hlsa  -0.38003
gfz2011izqa   0.89888
gfz2011jplh  -0.57033
gfz2011kxzp   0.45717
gfz2011lzwj  -0.00962
gfz2011mdie  -0.88869
gfz2011olkk  -0.53916
gfz2011owvz  -0.03152
gfz2011qvae  -0.58030
gfz2011uphh  -0.27358
gfz2011vkun  -0.42429
gfz2011vrhg  -0.28049
gfz2011wwjs   0.25038
gfz2011wxfs   0.30141
gfz2011xyxj   0.90879
gfz2012byad   2.32490
gfz2012dinb  -0.03603
gfz2012enno  -0.74107
gfz2012ewgo  -3.19880
gfz2012fwfo  -0.85024
gfz2012fzfa   0.09254
gfz2012hnul  -1.06190
gfz2012jgvj  -0.81407
gfz2012jlox   0.04818
gfz2012ldzj   0.24472
gfz2012lxkv   0.18018
gfz2012poju  -1.04810
gfz2012ttoa   0.11520
gfz2012uaqj   1.57560
gfz2012wklq   0.43160
gfz2012wvfl  -4.80490
gfz2012wypz  -0.07294
gfz2013axoj   1.56910
gfz2013ccnr   1.92230
gfz2013drxz  -0.67435
gfz2013hlbe   3.60380
gfz2013jarl   5.20800
gfz2013ldqb  -1.25930
gfz2013lyko   0.83404
gfz2013mqmv   0.56882
gfz2013mwbh  -0.18145
gfz2013ncjp   0.47504
gfz2013nkgj   1.33410
gfz2013nwdi   0.24127
gfz2013ofls  -0.06248
gfz2013qmer  -0.27555
gfz2013qzdq   0.12027
gfz2013tvmw   2.75060
gfz2013vfyw   0.40280
gfz2013vfzp   2.81830
gfz2013vjjc   0.05683
gfz2013wjmm  -1.24930
gfz2013xsdt  -0.12074
gfz2013yqkv  -1.11320
gfz2013zmtb  -0.43656
gfz2014afmx  -0.12824
gfz2014algk   0.88449
gfz2014ekcr   0.15377
gfz2014enhi   0.24250
gfz2014fcsy  -1.35080
gfz2014femz  -0.59449
gfz2014fgvi   0.73094
gfz2014fgwt   0.38762
gfz2014fhla   0.23517
gfz2014fhwx  -0.30056
gfz2014ftka   1.96070
gfz2014gull   0.33886
gfz2014gutm  -1.59220
gfz2014gwab   1.94760
gfz2014hocg  -0.00000
gfz2014jcmt  -0.10983
gfz2014jjhc  -0.76733
gfz2014jwmh   0.48102
gfz2014knks   0.64173
gfz2014kwwg   0.44442
gfz2014mawp  -2.46850
gfz2014myqz   1.53800
gfz2014pjum  -1.70070
gfz2014ppzf   0.29842
gfz2014ssvz  -0.31268
gfz2015berb  -0.07025
gfz2015bucr   0.50949
gfz2015chhn  -0.48851
gfz2015cyjd   0.16769
gfz2015etai  -0.12683
gfz2015fkgt  -0.01879
gfz2015fsjj   0.66348
gfz2015gckd   0.00809
gfz2015hwzw  -5.79150
gfz2015kalm  -5.93620
gfz2015kfsu   0.21138
gfz2015lytv   0.85127
