# Nsamples: 78  MAD:  1.332  mean:  0.447  variance:  2.531
gfz2010bfzs   0.26702
gfz2010czps  -1.00530
gfz2010eaoy   0.10119
gfz2010eapk   1.40940
gfz2010eapn  -0.59066
gfz2010eaqe   0.47052
gfz2010earu   1.05670
gfz2010easo   0.21637
gfz2010easu   0.27019
gfz2010eati   0.60240
gfz2010eato  -0.33412
gfz2010eatt   1.84600
gfz2010eavs   0.84510
gfz2010eaxa  -0.83210
gfz2010eazu   1.24410
gfz2010ebnn  -0.40346
gfz2010ebvv   0.31484
gfz2010ecua  -0.90367
gfz2010edyi   1.36910
gfz2010eevu  -0.05283
gfz2010egap  -0.64787
gfz2010ehrq   1.79300
gfz2010eisx   1.70690
gfz2010ekyc   3.04750
gfz2010elhv  -1.06840
gfz2010elyc  -4.41350
gfz2010eujm  -1.07750
gfz2010ewpq   0.81103
gfz2010excp  -1.14170
gfz2010exdd   0.27386
gfz2010exhw  -0.56183
gfz2010ezck  -0.09858
gfz2010ezig  -0.65146
gfz2010fmpy   1.03460
gfz2010fync   0.23484
gfz2010gyqp   1.21170
gfz2010iobp  -0.21760
gfz2010iull   1.26870
gfz2010nmpc   3.51910
gfz2010nqwo   2.25300
gfz2010rqwj  -0.00000
gfz2010upfb  -0.58395
gfz2011aatr   0.09720
gfz2011adjs   0.98847
gfz2011hfkj  -0.34660
gfz2011owvz   3.24770
gfz2011rewa   2.23460
gfz2011vhfi  -1.27800
gfz2011vrhg   1.17800
gfz2012fzfa  -0.05310
gfz2012hnul  -0.71544
gfz2012uafg   0.45883
gfz2012wklq   2.40000
gfz2013ccnr   5.09990
gfz2013vjjc   1.30710
gfz2014algk   3.09050
gfz2014enhi   0.15141
gfz2014fvaa  -4.33100
gfz2014gkgf   5.57300
gfz2014hzhe  -1.93780
gfz2014ilwu   0.57061
gfz2014qngj  -2.11490
gfz2014utac   0.43230
gfz2015chhn   0.83656
gfz2015cyjd   1.25700
gfz2015lytv   0.41399
gfz2015qnho   0.95406
gfz2015sfdd  -0.46253
gfz2015sfdl   0.55330
gfz2015sfdy  -1.65110
gfz2015sfeo   1.28520
gfz2015sfhz   1.28010
gfz2015sfnb   0.68658
gfz2015sfno  -0.78755
gfz2015soxc   0.30175
gfz2015svwm  -0.36517
gfz2015tkol   1.59580
gfz2015tnjd   0.33581
