# Nsamples: 90  MAD:  1.035  mean:  0.106  variance:  1.894
gfz2010bfzs   1.48470
gfz2010czps   0.73330
gfz2010eaoy  -3.58660
gfz2010eapk  -0.38781
gfz2010eapn  -0.17999
gfz2010eaqe  -0.82193
gfz2010eaqx   0.56799
gfz2010eaqy  -0.76852
gfz2010earu  -0.41527
gfz2010easo   0.11594
gfz2010easu  -0.30238
gfz2010eati  -0.29707
gfz2010eatt   1.78460
gfz2010eavs  -1.08890
gfz2010eawb   0.62928
gfz2010eawu   0.88811
gfz2010eaxa  -0.32165
gfz2010eazu   0.38864
gfz2010ebbd  -0.04284
gfz2010ebkj   1.18990
gfz2010ecsp   0.11207
gfz2010ecua  -0.58423
gfz2010edyi   0.68159
gfz2010eeij  -1.67730
gfz2010eevu   0.12005
gfz2010egap   0.33716
gfz2010eisx  -2.63680
gfz2010eltf   0.12142
gfz2010elyc  -0.55932
gfz2010erom   1.44460
gfz2010eujm  -1.00220
gfz2010excp  -1.19390
gfz2010exdd   0.13429
gfz2010exdl  -0.08293
gfz2010ezck  -1.34850
gfz2010ffhq   0.28255
gfz2010fuuy  -0.87369
gfz2010fync  -0.18174
gfz2010gjia   0.32487
gfz2010glxl   0.54322
gfz2010gyqp   1.59840
gfz2010gzxr   0.92186
gfz2010iull   0.97690
gfz2010jxbm  -1.33350
gfz2010nmpc   2.46820
gfz2010nqwf  -0.13935
gfz2010nqwo  -0.43519
gfz2010rqwj  -1.19030
gfz2010upfb  -1.39490
gfz2011aatr  -0.07987
gfz2011adjs   0.79307
gfz2011cykd   1.16720
gfz2011dbev  -0.27028
gfz2011dbig  -1.61040
gfz2011dbon  -0.50371
gfz2011dcqb   1.09290
gfz2011dpqx   0.23773
gfz2011hfkj  -0.82962
gfz2011rewa   0.50589
gfz2011vhfi   4.14260
gfz2012bpkx  -0.49114
gfz2012fzfa   1.19450
gfz2012hnul  -0.56572
gfz2012nkdf  -0.38681
gfz2012uafg   0.37293
gfz2012wklq   1.56070
gfz2013ccnr   3.68360
gfz2013jusj   3.83400
gfz2013vjjc   2.24430
gfz2013wjmm  -0.20776
gfz2014claq  -0.27360
gfz2014enhi   1.26600
gfz2014qngj  -4.39510
gfz2014qqhm  -1.41240
gfz2015chhn   0.70105
gfz2015elgy   0.62615
gfz2015fkgt   3.03930
gfz2015lytv   0.54977
gfz2015qnho   1.02240
gfz2015sfdd  -0.47495
gfz2015sfdy  -1.62100
gfz2015sfkh   0.84543
gfz2015sfno   2.37600
gfz2015sfzm  -1.13140
gfz2015sjgk   0.22563
gfz2015smym   0.75972
gfz2015snwh  -1.32180
gfz2015soxc  -1.08990
gfz2015svwm   0.04417
gfz2015tnjd  -1.07170
