# Nsamples: 93  MAD:  1.308  mean:  0.251  variance:  2.773
gfz2010bxxs   1.41090
gfz2010czps   1.13940
gfz2010eaoy  -1.36290
gfz2010eaqe   0.06933
gfz2010eaqx  -8.01510
gfz2010eaqy   1.97050
gfz2010earu  -0.82035
gfz2010easo   0.16846
gfz2010easu  -0.05709
gfz2010eati   0.48790
gfz2010eato  -0.87049
gfz2010eatt  -0.57848
gfz2010eaty   0.50356
gfz2010eavs  -0.38116
gfz2010eaxa  -1.29530
gfz2010eazu  -0.53430
gfz2010ebvm  -1.58440
gfz2010ebvv  -0.64717
gfz2010ebzr  -0.05621
gfz2010ecam  -0.45558
gfz2010ecay   0.19629
gfz2010ecsp   0.42549
gfz2010ecua   0.47378
gfz2010edde   0.17163
gfz2010edyi   0.29786
gfz2010eeij  -0.06283
gfz2010eevu   0.05352
gfz2010egap  -0.04970
gfz2010egld   0.59312
gfz2010eisx   3.54500
gfz2010ekyc   2.79490
gfz2010eltf  -2.49740
gfz2010elyc  -0.00000
gfz2010eujm  -2.47340
gfz2010eutw  -0.12751
gfz2010excp  -0.69092
gfz2010exdd  -0.99720
gfz2010exdl  -1.56380
gfz2010ezck  -0.95706
gfz2010fedq  -0.11103
gfz2010ffhq  -1.01540
gfz2010fpqy  -1.48460
gfz2010fync   0.13648
gfz2010gyqp   1.33540
gfz2010iobp  -0.67787
gfz2010iqnm   0.75704
gfz2010iull   1.54570
gfz2010jxbm   1.00630
gfz2010moyw  -0.47732
gfz2010nmpc   2.86370
gfz2010nqwo  -1.79510
gfz2010rqwj  -2.13190
gfz2010upfb  -0.35909
gfz2011aatr   0.52062
gfz2011adjs   0.84460
gfz2011cvfg   0.62579
gfz2011cykd   1.67820
gfz2011cyuk   1.35380
gfz2011dbig   1.27320
gfz2011dcqb   0.63572
gfz2011ecaj   0.60948
gfz2011kqwo   1.85560
gfz2011rewa   0.72105
gfz2011vhfi  -1.67530
gfz2011vrhg   3.09510
gfz2012bfah   1.01340
gfz2012bpkx  -2.10900
gfz2012fzfa   0.35598
gfz2012hnul   0.45989
gfz2012wklq   1.11100
gfz2013ccnr   3.17190
gfz2013drxz   4.60840
gfz2013jusj  -0.83375
gfz2013vjjc   2.00450
gfz2014enhi  -0.08288
gfz2014gbcz   1.73700
gfz2014gkgf   4.38900
gfz2014gmhr   3.71020
gfz2014qngj  -1.67910
gfz2015chhn   0.88943
gfz2015jwgl  -0.24988
gfz2015lytv  -0.81068
gfz2015qnho   1.20650
gfz2015sfdd   0.51558
gfz2015sfdy   0.84357
gfz2015sfhz   0.64762
gfz2015sfno  -0.17463
gfz2015sghq   1.31790
gfz2015sjgk   0.50888
gfz2015snwh   1.40240
gfz2015soxc   0.23474
gfz2015svwm   1.22130
gfz2015tnjd  -1.41250
