# Nsamples: 37  MAD:  0.584  mean: -0.286  variance:  1.099
gfz2010ahqi   0.41333
gfz2010bxxs  -0.40219
gfz2010ebhc  -0.82465
gfz2010ecua   0.53913
gfz2010grjd  -1.00900
gfz2010iull  -0.94566
gfz2010nmpc  -1.11550
gfz2010usho  -1.26870
gfz2011aatr  -0.56847
gfz2011enva   0.10062
gfz2011hlqw   3.01880
gfz2011hlsa   2.07950
gfz2011toub  -0.85954
gfz2012enno  -0.45838
gfz2012kkup  -0.39683
gfz2012klhx  -0.18938
gfz2012kudo  -0.71349
gfz2012ldxg  -0.06586
gfz2012teic   2.46910
gfz2012vrgb  -0.82864
gfz2013jphq   0.66958
gfz2013ldqb   1.61800
gfz2014ande  -0.83505
gfz2014bwue  -0.86258
gfz2014gkqf  -0.33802
gfz2014gmnb  -0.06253
gfz2014goba  -1.17120
gfz2014hasj  -1.22550
gfz2014ifzj  -1.22810
gfz2014jjhc  -0.39469
gfz2014nqfm  -1.85620
gfz2014oinz  -0.96631
gfz2014qqhm  -0.41098
gfz2014ssvz  -0.44737
gfz2014ubwn  -0.55199
gfz2015gckd  -0.92115
gfz2015mpte  -0.57585
