# Nsamples: 26  MAD:  0.623  mean:  0.209  variance:  0.699
gfz2010bxxs  -0.12256
gfz2010ebhc   0.30352
gfz2010grjd  -0.65687
gfz2010lluj  -0.80597
gfz2010nmpc  -0.67324
gfz2010usho   0.20318
gfz2011gkzt   0.49265
gfz2011toub  -0.08996
gfz2012enno  -0.34784
gfz2012ldzj  -0.38649
gfz2012mvwr   1.76180
gfz2012teic   0.41213
gfz2012ttoa   2.19800
gfz2013uauo  -0.47047
gfz2014afmx   0.46141
gfz2014ande  -0.38440
gfz2014fkmr   1.56200
gfz2014gkqf   0.33173
gfz2014gmnb   0.34509
gfz2014hasj  -0.63045
gfz2014jpep   2.20300
gfz2014nqfm   0.17905
gfz2014oinz  -0.26152
gfz2014qqhm   0.33175
gfz2015gckd  -0.53347
gfz2015hgbk   0.02111
