# Nsamples: 83  MAD:  0.421  mean:  0.046  variance:  0.412
gfz2010bowy   1.10050
gfz2010bxxs   0.17689
gfz2010ebhc  -0.17254
gfz2010grjd   0.12254
gfz2010iull  -0.28481
gfz2010lluj  -0.87491
gfz2010mkuu   0.61449
gfz2010nlkh  -0.09179
gfz2010nmpc  -0.50820
gfz2010nwef   0.09736
gfz2010sfee  -0.38795
gfz2010sysw   1.10480
gfz2010usho  -0.03882
gfz2010wioh   0.11343
gfz2011enva   0.05536
gfz2011gkzt  -0.56158
gfz2011hlsa   0.50201
gfz2011lcxq  -0.20332
gfz2011rewa   0.88865
gfz2011toub  -0.10536
gfz2012enno   0.21229
gfz2012kkup   0.36353
gfz2012klhx   2.67150
gfz2012kudo  -0.05954
gfz2012ldxg   0.46234
gfz2012ldzj  -0.52737
gfz2012teic  -0.18574
gfz2012ttoa   1.47270
gfz2012vrgb   0.48676
gfz2013jkut   0.10302
gfz2013kdeo  -0.39862
gfz2013ldpc   0.01164
gfz2013ldqb  -0.21766
gfz2013mwbh   0.24511
gfz2013nkgj   0.57080
gfz2013pfbx  -0.54158
gfz2013tusd  -0.32405
gfz2013uauo  -1.21450
gfz2014afmx  -0.60329
gfz2014bwue  -0.35772
gfz2014bzxy   0.14861
gfz2014czqi   0.03112
gfz2014fhdw  -0.34317
gfz2014fkmr   0.24227
gfz2014frdz   2.43700
gfz2014frez   0.02102
gfz2014fval  -0.06560
gfz2014gkjl  -0.12060
gfz2014gkjt  -0.05394
gfz2014gkqf  -0.45550
gfz2014glcu  -0.23014
gfz2014gltx  -0.12075
gfz2014gmnb  -0.02716
gfz2014gmnw  -0.23087
gfz2014goba   0.23722
gfz2014gull   1.54870
gfz2014hasj   0.61987
gfz2014hqxs   0.32192
gfz2014huaj  -1.12750
gfz2014jjhc  -0.18582
gfz2014jnyv   0.08677
gfz2014jpep  -0.21909
gfz2014lgqn   0.76300
gfz2014lxnc  -0.06225
gfz2014lyhk  -1.01300
gfz2014macx  -0.19881
gfz2014nqfm  -0.37156
gfz2014oinz  -0.51618
gfz2014pvch  -0.20633
gfz2014qlxd  -0.53637
gfz2014qqhm   0.31553
gfz2014ubwn   0.17743
gfz2014vhms   0.31182
gfz2015berb   0.05772
gfz2015fjhk   0.04031
gfz2015gckd  -0.07816
gfz2015ggjw  -0.22578
gfz2015hpmk  -0.58200
gfz2015mpte   0.55562
gfz2015okmq  -0.27767
gfz2015qvxu  -1.04960
gfz2015taml   0.55122
gfz2015tlkf  -0.06515
