# Nsamples: 71  MAD:  0.768  mean: -0.069  variance:  0.964
gfz2010bpda  -0.65124
gfz2010eaoy  -0.63667
gfz2010eaqe  -2.38900
gfz2010earu  -1.19030
gfz2010ecfx  -0.17466
gfz2010ecua  -1.49300
gfz2010elyc   0.23920
gfz2010excp   1.23330
gfz2010exdd  -0.60282
gfz2010exdl  -0.26737
gfz2010exno   0.46806
gfz2010grjd  -1.50000
gfz2010iull  -0.17414
gfz2010ncrl  -0.33809
gfz2010nwef  -0.33696
gfz2010rqwj   0.56577
gfz2011aatr   0.22026
gfz2011enva   1.24730
gfz2011hlsa   0.57002
gfz2011lzwj   0.07969
gfz2011mdie   0.42008
gfz2011owvz   0.80646
gfz2011rewa  -0.53213
gfz2011toub  -1.04270
gfz2012fzfa  -2.95840
gfz2012hnul  -0.67071
gfz2012kkup   0.15426
gfz2012klhx   0.23951
gfz2012kudo  -0.17320
gfz2012ldxg   0.57945
gfz2012uafg   1.22780
gfz2012uaqj  -0.85575
gfz2012wypz  -0.05604
gfz2013ccnr   1.77540
gfz2013drxz   0.23321
gfz2013jdrx   0.61200
gfz2013kdeo  -0.27410
gfz2013lyko   0.03064
gfz2013nkgj   0.56581
gfz2013nwdi  -0.87407
gfz2013pxsj  -0.58013
gfz2013vjjc   3.02930
gfz2013ziyr  -2.34830
gfz2014bwue  -0.06337
gfz2014fgvi  -0.21632
gfz2014fhla   2.20100
gfz2014frfl  -0.80036
gfz2014ftka  -0.45712
gfz2014gkgf   1.00610
gfz2014gmhr  -0.09932
gfz2014jjhc  -0.25872
gfz2014nqfm  -0.03663
gfz2014pvch   0.03433
gfz2014ssvz  -0.10539
gfz2015chhn  -0.38208
gfz2015cyjd   0.17570
gfz2015fkgt  -1.99320
gfz2015fsjj   0.48129
gfz2015lytv   0.04310
gfz2015sfdd   0.46871
gfz2015sfdl   0.85365
gfz2015sfdy  -0.62878
gfz2015sfnb  -0.00000
gfz2015sfno   1.16580
gfz2015slun  -1.38640
gfz2015smym   0.47198
gfz2015snwh   0.28039
gfz2015soxc   0.34152
gfz2015svwm   0.71888
gfz2015sxmh  -0.94151
gfz2015tnjd   0.06522
