# Nsamples: 48  MAD:  0.458  mean: -0.171  variance:  0.674
gfz2013svci  -0.42540
gfz2014bwue  -0.30715
gfz2014fgvi  -0.00173
gfz2014fhla  -1.02810
gfz2014fimn  -0.07143
gfz2014ftka   0.35367
gfz2014gkgf   0.95441
gfz2014gkhy  -0.20420
gfz2014gkqf   0.35746
gfz2014gmge  -0.35002
gfz2014gmhr   1.29430
gfz2014gmnb   0.11467
gfz2014gmnw   0.08445
gfz2014goba   1.51130
gfz2014hasj  -1.74740
gfz2014hfhl  -0.74546
gfz2014hocg  -0.15101
gfz2014hqxs   1.75840
gfz2014huaj  -0.65695
gfz2014itkw  -0.21499
gfz2014jjhc  -0.71149
gfz2014jpep   0.12240
gfz2014lgqn  -0.09820
gfz2014lxnc   1.54720
gfz2014lyhk  -0.14344
gfz2014macx  -0.22672
gfz2014nqfm   0.04724
gfz2014nrie  -0.36215
gfz2014oinz  -0.04579
gfz2014qlxd  -0.37085
gfz2014qqhm  -0.38704
gfz2014ssvz  -0.75817
gfz2015chhn  -0.44842
gfz2015cyjd   0.51523
gfz2015fsjj  -0.20195
gfz2015hgbk  -0.24261
gfz2015jzcv  -1.42150
gfz2015lhjy  -0.58376
gfz2015mpte  -0.79483
gfz2015sfdd  -0.15587
gfz2015sfdy  -0.70583
gfz2015sfno   1.84520
gfz2015sjgk  -2.48350
gfz2015skxu  -1.22980
gfz2015smym  -0.74921
gfz2015snwh  -0.35833
gfz2015soxc  -0.15709
gfz2015svwm  -0.16492
