# Nsamples: 38  MAD:  0.764  mean:  0.223  variance:  0.667
gfz2010bxxs  -0.03195
gfz2010ebhc  -0.19228
gfz2010mkuu   0.39913
gfz2010usho   0.72245
gfz2011gkzt   0.56589
gfz2011hlsa   0.56892
gfz2012ldzj   0.45719
gfz2012teic   0.83884
gfz2012vrgb   0.47479
gfz2013kdeo   0.46344
gfz2013pfbx  -0.76453
gfz2014afmx   0.34858
gfz2014ande  -0.58080
gfz2014fkmr   0.60699
gfz2014frdz   2.00840
gfz2014frez   1.12000
gfz2014fusj   0.31705
gfz2014fval  -0.35035
gfz2014gkqf  -0.64109
gfz2014gltx  -0.35349
gfz2014gmnb  -0.74378
gfz2014goba  -0.27747
gfz2014gull   0.81222
gfz2014gwab  -0.06910
gfz2014hasj   0.57594
gfz2014itkw  -1.32200
gfz2014jjhc   1.67650
gfz2014jpep  -0.12141
gfz2014lgqn   0.95065
gfz2014lxnc   2.31930
gfz2014nqfm  -1.03180
gfz2014oinz  -0.30971
gfz2014qqhm   0.54690
gfz2014ubwn   0.07434
gfz2014vhld  -1.40820
gfz2015jzcv  -0.40054
gfz2015mpte   0.94686
gfz2015tlkf   0.27069
