# Nsamples: 1886  MAD:  0.459  mean: -0.024  variance:  0.454
gfz2010aerk   0.01426
gfz2010ahqi   0.01578
gfz2010aykj  -1.32070
gfz2010bfzs   0.47364
gfz2010bgth  -0.41574
gfz2010bhhq  -0.04151
gfz2010bifb  -1.56340
gfz2010bjeb  -0.19961
gfz2010bjjx   0.00306
gfz2010bjsl  -2.38090
gfz2010bkob  -0.13876
gfz2010bkos   0.20603
gfz2010bowy  -0.33451
gfz2010boxo  -1.91480
gfz2010bxxs  -0.00557
gfz2010caft   0.00956
gfz2010cbkg  -0.18667
gfz2010cdbt  -0.35755
gfz2010civi   0.34904
gfz2010ckeu   0.08855
gfz2010ckzm   0.14277
gfz2010cnwc   0.48614
gfz2010cqwl  -0.36540
gfz2010ctuw   0.41510
gfz2010czps  -0.44953
gfz2010ddzo  -0.01744
gfz2010dejx   0.30568
gfz2010dfru   0.03266
gfz2010diqn   0.21905
gfz2010dumm  -0.03005
gfz2010eaoy   0.95905
gfz2010eapk  -0.13806
gfz2010eapn  -0.72196
gfz2010eaqe  -0.28523
gfz2010eaqx   0.53004
gfz2010eaqy   1.75470
gfz2010earq   0.94681
gfz2010earu  -0.70060
gfz2010easf  -0.33350
gfz2010eask   0.12261
gfz2010easo   0.25931
gfz2010easu  -0.08750
gfz2010eati   0.48487
gfz2010eato   0.23080
gfz2010eatt  -2.29540
gfz2010eaty   0.96454
gfz2010eaul   0.62798
gfz2010eavd   0.82537
gfz2010eavp  -0.68288
gfz2010eavs   0.56215
gfz2010eawb   0.66114
gfz2010eawu  -4.22960
gfz2010eaxa   0.15532
gfz2010eayd   0.78306
gfz2010eayp   0.24905
gfz2010eayx  -0.32820
gfz2010eaze  -0.11794
gfz2010eazu  -1.60070
gfz2010ebbd   0.02035
gfz2010ebbx   0.91185
gfz2010ebdl   0.22854
gfz2010ebeh   0.90834
gfz2010ebek   0.41713
gfz2010ebfa   0.43740
gfz2010ebfx  -0.06723
gfz2010ebgj   0.53859
gfz2010ebhc   0.16374
gfz2010ebin  -1.21690
gfz2010ebiv   0.37478
gfz2010ebjg   0.71699
gfz2010ebjy   0.39780
gfz2010ebkj  -0.27523
gfz2010ebkx   0.07219
gfz2010ebla   0.27745
gfz2010ebll   0.24621
gfz2010ebmb  -0.16085
gfz2010ebmi   0.15300
gfz2010ebnn  -0.07507
gfz2010ebpa   0.32903
gfz2010ebqt   0.76224
gfz2010ebqz  -0.94324
gfz2010ebrm   0.24946
gfz2010ebsv   1.81250
gfz2010ebtk   0.27709
gfz2010ebvm   1.35090
gfz2010ebvv   0.19238
gfz2010ebwp   0.53237
gfz2010ebxl   0.50250
gfz2010ebze   0.02179
gfz2010ebzk  -0.07494
gfz2010ebzr   0.02503
gfz2010ecam   0.37767
gfz2010ecay  -0.57090
gfz2010ecbi   0.42341
gfz2010eccq   0.10408
gfz2010ecdu  -0.06484
gfz2010eced   0.01111
gfz2010ecft  -0.00000
gfz2010ecfx   0.25035
gfz2010ecfy   0.25314
gfz2010ecgh   0.43527
gfz2010echc   0.23516
gfz2010echt   0.01892
gfz2010echy   0.25513
gfz2010ecka  -0.83469
gfz2010ecls   0.23733
gfz2010ecml  -0.19866
gfz2010ecnm  -0.41981
gfz2010ecns   0.50640
gfz2010ecpg  -0.26570
gfz2010ecps   0.12709
gfz2010ecro  -0.87041
gfz2010ecsp   1.44740
gfz2010ectq   0.94004
gfz2010ecua  -0.13982
gfz2010ecuv   0.23736
gfz2010ecvt   0.22227
gfz2010ecyr  -0.43462
gfz2010edad  -0.45024
gfz2010edat  -0.22857
gfz2010eday  -0.14309
gfz2010edbz   0.61305
gfz2010edcp  -0.09630
gfz2010edde   0.82433
gfz2010edhr  -0.15314
gfz2010edhv   0.37417
gfz2010edim   0.46243
gfz2010edji   0.14176
gfz2010edkp  -0.08050
gfz2010edoq   0.42561
gfz2010edpb   0.38268
gfz2010edqd  -0.51706
gfz2010edqh  -0.07349
gfz2010edsk  -0.31896
gfz2010edsn   1.09460
gfz2010edsy  -0.82672
gfz2010edvf  -0.02965
gfz2010edyi  -0.52744
gfz2010edzb  -0.16511
gfz2010eedu  -0.20555
gfz2010eedz   0.86978
gfz2010eefh   0.18402
gfz2010eefo  -0.45937
gfz2010eegn  -0.52705
gfz2010eeia   0.29653
gfz2010eeij  -0.36642
gfz2010eekg   0.74828
gfz2010eekq  -0.42380
gfz2010eell   0.72784
gfz2010eeng   0.52987
gfz2010eeqy  -2.60070
gfz2010eerh   0.34835
gfz2010eern   0.30266
gfz2010eesf   0.59881
gfz2010eevu   0.24795
gfz2010eexz   0.42470
gfz2010eeyh  -0.03596
gfz2010efak   0.84332
gfz2010efbh  -0.83125
gfz2010efbi  -0.53042
gfz2010efkc  -0.17919
gfz2010efls  -0.44996
gfz2010efnf  -0.41648
gfz2010efsq  -0.75953
gfz2010efwo   0.25214
gfz2010efxf  -1.03450
gfz2010egap   0.21070
gfz2010eghq   0.10902
gfz2010egld   0.28787
gfz2010egln   0.06204
gfz2010egmp   0.16345
gfz2010egqh   0.05612
gfz2010egsw   0.35384
gfz2010egsy   0.29390
gfz2010egyy  -0.03304
gfz2010ehaj  -1.20610
gfz2010eher   0.16624
gfz2010ehft  -0.03380
gfz2010ehrq  -0.01963
gfz2010ehsy  -0.53481
gfz2010ehvj  -0.13839
gfz2010ehxz   1.15040
gfz2010eimf   0.73927
gfz2010eioi   0.19226
gfz2010eisx  -0.88402
gfz2010eixj  -0.37666
gfz2010ejae  -0.32525
gfz2010ejco  -0.03872
gfz2010ejjg  -0.02223
gfz2010ejju   0.29908
gfz2010ejka   0.01988
gfz2010ejma   0.49433
gfz2010ejxf  -0.32573
gfz2010ekaw   0.01957
gfz2010ekoe   0.18988
gfz2010ekrv  -0.08056
gfz2010ekyc  -0.34891
gfz2010elhv   0.03146
gfz2010elin  -0.78061
gfz2010eljf  -1.27980
gfz2010elsw   0.25411
gfz2010eltf   0.48359
gfz2010elvp  -0.07542
gfz2010elxi  -0.44980
gfz2010elyc  -1.42340
gfz2010elyo  -0.08274
gfz2010elzf  -0.31307
gfz2010elzl   0.63216
gfz2010emoz  -1.19390
gfz2010emyz   0.03035
gfz2010encm  -0.75963
gfz2010engw   2.57460
gfz2010enpa  -2.80180
gfz2010ensu   0.25122
gfz2010enzl  -0.25199
gfz2010eoao  -3.56400
gfz2010eohh  -0.89967
gfz2010eomb   0.13361
gfz2010epbe  -0.26078
gfz2010epud  -1.25770
gfz2010epxj  -0.16545
gfz2010epzk   0.66396
gfz2010eqcn  -0.20561
gfz2010eqjg   0.05245
gfz2010eqmu  -4.52120
gfz2010eqse  -0.51214
gfz2010eqwl  -1.90450
gfz2010erda  -0.05974
gfz2010erdi   0.89798
gfz2010erfy  -0.52557
gfz2010erig  -0.45338
gfz2010erkn   0.13696
gfz2010erna  -0.13633
gfz2010erom   0.03991
gfz2010erum  -0.46958
gfz2010eruy  -1.12080
gfz2010erwn  -0.86351
gfz2010erxk   0.15420
gfz2010eryg   0.35462
gfz2010esid   0.10570
gfz2010esmg   0.25805
gfz2010esou  -0.63413
gfz2010eted  -0.53871
gfz2010etfw  -0.59589
gfz2010euae   0.39622
gfz2010euan   0.79413
gfz2010euii   0.24253
gfz2010eujm   0.84317
gfz2010eutw   0.44541
gfz2010euvl  -0.24397
gfz2010euwb   0.27209
gfz2010euxe   0.04059
gfz2010evco   0.59696
gfz2010evgf  -0.16687
gfz2010evjv   0.81781
gfz2010evkd   0.76351
gfz2010ewbc   0.09694
gfz2010ewpq   0.64460
gfz2010ewvc   0.20768
gfz2010ewyu  -0.16746
gfz2010excp  -0.04633
gfz2010exdd  -0.01399
gfz2010exdl   0.25317
gfz2010exed   0.52788
gfz2010exel   0.41748
gfz2010exfb   0.52621
gfz2010exgb   0.16744
gfz2010exhd   0.03229
gfz2010exhw   0.14110
gfz2010exjw   0.52655
gfz2010exlm   0.35224
gfz2010exmc  -0.08585
gfz2010exno   0.30297
gfz2010exou   0.02686
gfz2010exqu  -0.28764
gfz2010exts   0.09755
gfz2010exyp  -0.10560
gfz2010eyaz  -0.14637
gfz2010eybj  -1.26330
gfz2010eyhh   0.03338
gfz2010eyiv   0.31802
gfz2010eymr   0.52511
gfz2010eymx  -0.14535
gfz2010eyvq   0.67089
gfz2010eyxe   0.44965
gfz2010ezax   0.00000
gfz2010ezck   0.17344
gfz2010ezig   1.13470
gfz2010ezjk   1.02000
gfz2010ezuj  -0.55455
gfz2010ezvg  -0.24664
gfz2010ezvt  -1.07110
gfz2010ezwz   0.22944
gfz2010ezxd   0.47270
gfz2010faeu  -0.65072
gfz2010falm   0.07963
gfz2010fauz  -0.88356
gfz2010faxg  -1.37330
gfz2010fbeu  -0.89503
gfz2010fbpi  -0.90890
gfz2010fcax  -0.26781
gfz2010fcdw  -0.35550
gfz2010fciw   0.30429
gfz2010fcnt  -0.63759
gfz2010fcxy  -0.02498
gfz2010fcyj   0.40874
gfz2010fczt   0.16249
gfz2010fdab   0.80494
gfz2010fedq   0.44636
gfz2010fefr  -3.03410
gfz2010fexw  -0.26435
gfz2010ffhq   0.56349
gfz2010ffjb  -0.46920
gfz2010ffui  -0.37168
gfz2010fhbl   0.69777
gfz2010figq   0.39699
gfz2010fihj  -0.98010
gfz2010fika   0.67090
gfz2010fisf   0.07840
gfz2010fixr  -0.06561
gfz2010fjas   0.41071
gfz2010fjmu  -0.34151
gfz2010fjni  -1.01540
gfz2010fkia  -0.93087
gfz2010fknh  -0.09709
gfz2010fkvg  -0.32870
gfz2010flha  -0.15952
gfz2010flkj   1.25380
gfz2010floi  -0.34735
gfz2010flxi  -0.01977
gfz2010fmhb  -0.52715
gfz2010fmip   0.00000
gfz2010fmpy  -1.85890
gfz2010fmwb  -1.12190
gfz2010fneu  -0.31241
gfz2010fnrk  -4.15900
gfz2010fona   0.52037
gfz2010fpmv  -0.43247
gfz2010fpqy   0.41462
gfz2010fqdu  -0.71831
gfz2010fser  -0.45959
gfz2010fsmy  -0.02001
gfz2010fsth   0.11604
gfz2010ftlm   0.04988
gfz2010fupn  -0.13908
gfz2010fuuy   0.72296
gfz2010fuwa  -0.07887
gfz2010fvuc  -0.25725
gfz2010fwny  -0.09799
gfz2010fwpv   0.78370
gfz2010fyed  -0.47196
gfz2010fyen  -0.13707
gfz2010fync  -0.11437
gfz2010fzoi   0.39390
gfz2010fzsg  -0.16434
gfz2010fzyt   1.90200
gfz2010gcdn  -0.00000
gfz2010gceb   1.26600
gfz2010gcrl   0.35458
gfz2010gcrp   0.00142
gfz2010gdch  -2.69370
gfz2010gdld   0.14917
gfz2010geru   1.93990
gfz2010ginm  -0.71585
gfz2010gjia  -0.19934
gfz2010gjvo   0.79311
gfz2010glqr  -0.00000
gfz2010glxl   0.16731
gfz2010gmib  -0.97077
gfz2010govu  -0.93383
gfz2010grjd  -0.35709
gfz2010grxb  -0.55606
gfz2010gslu  -0.21278
gfz2010gtqs   0.08008
gfz2010gtzt   0.38138
gfz2010gvya   0.46564
gfz2010gymo  -0.98260
gfz2010gyqp  -0.35369
gfz2010gzxr  -0.46376
gfz2010hakh   2.78730
gfz2010hbka   0.50491
gfz2010hcio  -0.38620
gfz2010hjoc   0.03907
gfz2010hlco  -0.28882
gfz2010hllj   0.82754
gfz2010hlln  -0.57538
gfz2010hlmq   0.08962
gfz2010hlvr   0.22073
gfz2010hmhm   0.17964
gfz2010hnnf  -0.42219
gfz2010hnpi   0.27851
gfz2010hnzr   0.64445
gfz2010homc  -0.98532
gfz2010hptz   0.20264
gfz2010hrkr   0.04063
gfz2010hrpr   0.46630
gfz2010htdq  -0.77540
gfz2010hxbs   0.68654
gfz2010hxgv   1.12300
gfz2010hxhe   0.38112
gfz2010hykt   0.79279
gfz2010hzar   0.47983
gfz2010iauj   0.35829
gfz2010ibiy   0.28754
gfz2010iciq   0.77743
gfz2010iefy   0.80739
gfz2010ihrq  -0.44166
gfz2010iibf   0.46900
gfz2010iimu  -0.13667
gfz2010ijtk   0.15129
gfz2010imfv   0.38326
gfz2010imsh  -0.14930
gfz2010iobp   0.61299
gfz2010iphd  -0.26450
gfz2010ipsg  -0.37388
gfz2010iqep   0.93930
gfz2010iqfm  -0.37188
gfz2010iqus   0.01996
gfz2010irqr  -0.72357
gfz2010irvf  -0.08387
gfz2010isrp  -0.27417
gfz2010itpb   0.41854
gfz2010iull  -0.14954
gfz2010ixyc   1.39430
gfz2010izzj   0.47790
gfz2010jagd   0.56894
gfz2010jant  -1.18320
gfz2010jatq   0.10024
gfz2010jhie  -0.32374
gfz2010jipf   0.47198
gfz2010jkxj  -0.41843
gfz2010jlhj   0.45118
gfz2010jpss   0.78634
gfz2010jpyj   0.67557
gfz2010jqxx   0.20023
gfz2010jssh   0.65591
gfz2010jsuh  -0.57001
gfz2010jsuo  -0.60389
gfz2010jtal  -0.49888
gfz2010jwpy   0.04145
gfz2010jxbm   0.11759
gfz2010jygz  -0.20257
gfz2010jzku  -0.94718
gfz2010kcoo   0.33152
gfz2010kdyc   0.31187
gfz2010kgws   0.02037
gfz2010kihf  -1.51240
gfz2010kjmp  -0.31118
gfz2010kmgg   0.68252
gfz2010kmsv  -0.29073
gfz2010kown  -1.56820
gfz2010kyvj   1.42280
gfz2010lcoq   0.21615
gfz2010lczp  -1.51130
gfz2010lepw   0.39144
gfz2010lgwy  -0.13001
gfz2010liqs   0.41847
gfz2010lkcf  -0.06728
gfz2010lopz   0.43568
gfz2010lrlk  -0.36039
gfz2010lwuq  -0.10658
gfz2010lyfk   0.72874
gfz2010mant   0.88251
gfz2010mbje   0.69097
gfz2010mcrx   0.78189
gfz2010mdpq  -0.65906
gfz2010mfpt   0.90471
gfz2010mgss  -0.57240
gfz2010mhjt  -0.12816
gfz2010miqn   0.29706
gfz2010mkuu  -0.26432
gfz2010mlkz   0.23620
gfz2010mlta  -1.78590
gfz2010mncc  -0.29147
gfz2010mnhm   1.12000
gfz2010mnsz  -0.37257
gfz2010moyw   0.16376
gfz2010mpuy   0.13180
gfz2010msjj   0.77295
gfz2010mtab  -0.74117
gfz2010muca  -0.11705
gfz2010mwdq  -0.51309
gfz2010mzjr  -0.46072
gfz2010ncrl   0.29874
gfz2010nfsj   0.48511
gfz2010nlkh  -0.29420
gfz2010nmpc  -1.30310
gfz2010nnny  -0.17194
gfz2010nqwf   0.52649
gfz2010nqwo   0.54931
gfz2010nrew   0.60300
gfz2010nrjo   0.37476
gfz2010nsck   0.40514
gfz2010nsdf   0.23310
gfz2010nsjs   0.45401
gfz2010ntuo   0.19212
gfz2010nubk  -0.24639
gfz2010nwef  -0.42863
gfz2010nxsy   0.04230
gfz2010nxum   0.09849
gfz2010nzha  -2.36250
gfz2010nzla  -0.26552
gfz2010ocxq   0.97618
gfz2010odpb   0.53765
gfz2010oedn  -0.36163
gfz2010okdm   0.31503
gfz2010oluw   0.62400
gfz2010onma   0.05954
gfz2010osjs  -0.27714
gfz2010otbn   0.02681
gfz2010oyqy   1.61460
gfz2010pbdz  -0.59300
gfz2010pcxi  -0.23883
gfz2010pdtk  -0.41499
gfz2010pets   0.30621
gfz2010pewa   0.42593
gfz2010pewx  -0.10378
gfz2010pexf   0.51349
gfz2010pfyu   0.19592
gfz2010phvg   0.02062
gfz2010plbg  -0.08676
gfz2010pmqd   0.46400
gfz2010pqck   0.56873
gfz2010pxak  -0.15643
gfz2010pxgh   0.80503
gfz2010pxls  -0.03158
gfz2010qjst   0.36565
gfz2010qpcq   0.50621
gfz2010qpum   0.49460
gfz2010qpvi   0.24332
gfz2010qwwx   1.39310
gfz2010rhas  -3.82650
gfz2010rkfp  -0.76925
gfz2010rlbv  -0.86419
gfz2010rqwj  -0.92916
gfz2010rywq  -0.42814
gfz2010rzrr  -1.91960
gfz2010rzsd  -1.66780
gfz2010sfee  -0.11560
gfz2010sfla  -0.96124
gfz2010sgzk   0.76828
gfz2010skqo  -0.33540
gfz2010skve  -0.37886
gfz2010srdb  -0.28824
gfz2010suww  -0.26848
gfz2010svtn  -0.23539
gfz2010svve   0.52042
gfz2010swcy   0.13834
gfz2010sxwt  -0.34665
gfz2010sysw   0.16498
gfz2010szde  -0.04968
gfz2010szim   0.44064
gfz2010tcbr  -0.33631
gfz2010tcrl  -0.28315
gfz2010titk  -0.21694
gfz2010tlfm   0.46893
gfz2010truw  -0.03648
gfz2010txjs   0.13693
gfz2010uept  -0.04850
gfz2010upfb   0.56863
gfz2010upiw   0.95704
gfz2010urlq  -0.21821
gfz2010usho   0.44596
gfz2010ustq  -0.26880
gfz2010utcg   0.41783
gfz2010utmc  -0.12644
gfz2010utvp  -0.31176
gfz2010uyhb  -0.16046
gfz2010uzon   0.13954
gfz2010veri   0.23079
gfz2010vhuj   0.39556
gfz2010vtdg   0.05672
gfz2010vyxd  -0.26520
gfz2010vzpr  -0.25592
gfz2010wioh   0.01939
gfz2010wnty   0.09652
gfz2010wntz   0.65865
gfz2010wofs  -0.89395
gfz2010wrxx  -1.35720
gfz2010wxqa  -0.30898
gfz2010xbdv  -0.32865
gfz2010xbgs   0.17003
gfz2010xche  -0.11386
gfz2010xden   0.30302
gfz2010xgfc   0.37638
gfz2010xgzw  -0.14691
gfz2010xjck   0.20929
gfz2010xjsj   0.21610
gfz2010xmpr   0.98506
gfz2010xnxk  -0.15580
gfz2010xxdb  -0.16443
gfz2010xxzn  -6.25270
gfz2010yfsv   0.30213
gfz2010yjev  -1.10530
gfz2010ymfy   0.12623
gfz2010ymur  -0.51081
gfz2010yosr  -0.04270
gfz2010yqqv  -0.17998
gfz2010yqwx  -3.91930
gfz2011aatr   0.35138
gfz2011adjs  -0.81370
gfz2011adlj   0.71933
gfz2011adpw   0.36906
gfz2011adqk   0.73365
gfz2011aeay   0.49564
gfz2011aldv  -0.53248
gfz2011alip  -0.16627
gfz2011alsa  -0.90936
gfz2011alwf  -2.30810
gfz2011aosc   0.33582
gfz2011aqxf  -0.25266
gfz2011blsi  -1.64360
gfz2011bnzn   0.69272
gfz2011bpkd  -0.35708
gfz2011ccpw   0.87715
gfz2011cfae  -0.91559
gfz2011cndo  -0.24516
gfz2011coxh  -0.31217
gfz2011csju  -0.56753
gfz2011cvfg   0.23667
gfz2011cwgn   0.27417
gfz2011cykd  -0.47468
gfz2011cylz   0.88912
gfz2011cynl  -0.21370
gfz2011cyre   0.62905
gfz2011cyuk  -0.43965
gfz2011czwj   0.38217
gfz2011dbev   0.50904
gfz2011dbig   0.25572
gfz2011dbli   0.50575
gfz2011dbon   0.37147
gfz2011dbwt   0.13654
gfz2011dcqb  -1.66840
gfz2011dcqf  -0.12504
gfz2011deaf  -0.15408
gfz2011dkyi   0.27391
gfz2011dlyx  -0.02344
gfz2011dndz  -0.58457
gfz2011dpqx  -0.14870
gfz2011dtpy   0.19313
gfz2011duyr  -0.48236
gfz2011eayc  -0.05343
gfz2011eazf  -0.21506
gfz2011ecaj   0.77844
gfz2011ecsc  -0.52792
gfz2011edmm   0.75777
gfz2011eebc  -0.07591
gfz2011ehzq   0.06873
gfz2011eiis   0.91162
gfz2011eltw  -0.09610
gfz2011enva  -0.53726
gfz2011eocc  -0.01872
gfz2011etje   0.63785
gfz2011fdzv  -0.27735
gfz2011fgvr  -0.82737
gfz2011fhag  -0.21201
gfz2011fhbm  -0.27072
gfz2011fhur  -0.25056
gfz2011fkbn  -0.13381
gfz2011flgj   0.21904
gfz2011fnsw  -0.72318
gfz2011gbmx   0.23216
gfz2011gcwb   0.12823
gfz2011gdgh  -0.78533
gfz2011ggvf  -0.35335
gfz2011ghky  -0.44504
gfz2011gkey  -0.64262
gfz2011gkzt  -0.57915
gfz2011gzbr  -0.04600
gfz2011haid  -0.84952
gfz2011hbex  -0.21471
gfz2011hebt  -0.12804
gfz2011hfkj   0.14059
gfz2011hlqw  -0.15213
gfz2011hlsa  -0.41613
gfz2011hlth  -0.28308
gfz2011hpgx   0.41547
gfz2011hpqp   0.05138
gfz2011hrhu   0.68779
gfz2011hryk   0.09446
gfz2011hsfj  -0.71931
gfz2011hvbu  -0.79786
gfz2011ieie   0.32105
gfz2011knoo  -0.43326
gfz2011kqwo   1.23380
gfz2011kqyg   0.79186
gfz2011ksiu   1.96600
gfz2011kweu   0.44409
gfz2011kwhq   0.15680
gfz2011kwid  -0.28108
gfz2011kwiy  -1.87050
gfz2011kwjx   0.38184
gfz2011kwkw   0.20974
gfz2011kwld  -0.29666
gfz2011kwlq  -0.06165
gfz2011kwni   0.84695
gfz2011kwqc  -0.64300
gfz2011kwrf   1.96590
gfz2011kwsz   0.07994
gfz2011kxzp   0.02022
gfz2011lcxq   0.34197
gfz2011lggq  -0.23694
gfz2011lgsg  -0.36545
gfz2011lhls   0.04079
gfz2011lvjr  -0.95653
gfz2011lzwj   0.07505
gfz2011mdie   0.46902
gfz2011mepc   0.42022
gfz2011mjom   0.75696
gfz2011mpme  -0.59800
gfz2011mprq  -0.32365
gfz2011myia  -0.02160
gfz2011necz   0.27174
gfz2011nmnq  -0.14484
gfz2011noud  -2.04410
gfz2011npgs   1.06890
gfz2011nrwc  -0.49990
gfz2011nsex  -0.23608
gfz2011ntkh   0.23055
gfz2011ntrv   0.38095
gfz2011nudm  -0.32312
gfz2011ogqk  -0.87942
gfz2011ohcy   0.41202
gfz2011oiqe   0.34026
gfz2011oiwk  -0.24762
gfz2011olkk   0.34930
gfz2011orgn   0.31268
gfz2011ornx   0.25983
gfz2011owvz   0.26322
gfz2011pccd   0.51888
gfz2011pdpt  -0.61496
gfz2011pdst  -0.37315
gfz2011phms  -0.51242
gfz2011pntf  -0.48454
gfz2011ptus  -0.49391
gfz2011qigx  -0.38822
gfz2011qvae  -0.39554
gfz2011qyms  -0.22087
gfz2011rabm  -0.98887
gfz2011rewa  -0.47793
gfz2011rgwp  -0.57848
gfz2011rqui  -0.03576
gfz2011rsrh   0.39327
gfz2011rznl  -0.40516
gfz2011sagt   0.85663
gfz2011shqm   0.21681
gfz2011svix  -0.52907
gfz2011tbas  -0.35294
gfz2011tcij   0.91533
gfz2011tjrf  -0.37860
gfz2011tjue   0.46919
gfz2011tkfp  -1.14690
gfz2011tkog  -0.37637
gfz2011tnag  -0.06967
gfz2011toub  -0.73264
gfz2011tpfr   0.06327
gfz2011tsfd   6.16370
gfz2011tsnp  -2.17160
gfz2011twov   0.20758
gfz2011udsq  -0.82105
gfz2011uepx  -0.05940
gfz2011ugzz  -0.27227
gfz2011ujze  -0.00133
gfz2011ukmp  -0.92650
gfz2011uphh  -0.03393
gfz2011urxy  -0.64218
gfz2011urzu   0.10656
gfz2011uzqv   0.17918
gfz2011vhfi   0.09674
gfz2011vnza  -0.24090
gfz2011vxns  -0.45439
gfz2011wcic   0.78669
gfz2011wfja   0.01767
gfz2011wijj   0.51343
gfz2011wjkf  -0.30011
gfz2011wjul   0.12698
gfz2011wvzb   0.19564
gfz2011wwjs   0.16194
gfz2011wxfs  -0.39791
gfz2011wxoj  -0.96571
gfz2011wxtk  -0.04933
gfz2011wype  -0.61281
gfz2011xaan  -0.01603
gfz2011xcpv   0.07941
gfz2011xesx   0.00000
gfz2011xqru  -1.03570
gfz2011xyxj   0.05546
gfz2011yfdx   0.64542
gfz2011yhwz  -0.01988
gfz2011ytnu   0.30275
gfz2011zjap  -0.08465
gfz2011zklv  -0.06600
gfz2011zlrd  -0.23749
gfz2011zqhh  -0.96689
gfz2012ajtq   0.52090
gfz2012aqgp  -0.27753
gfz2012attr   0.30358
gfz2012bfah  -0.32727
gfz2012bfyn   0.60214
gfz2012bngd   1.08790
gfz2012bpkx   0.66736
gfz2012bpnl   0.29015
gfz2012bpwl  -0.00000
gfz2012bqeb  -0.19471
gfz2012brhv   0.54981
gfz2012bszs  -0.27645
gfz2012byad  -0.31275
gfz2012cevz  -0.61226
gfz2012cgvr   0.19847
gfz2012ckxi  -0.03365
gfz2012cmfy  -0.14128
gfz2012cnod  -0.45723
gfz2012covm   0.09626
gfz2012cqnl   0.03832
gfz2012cqtc  -0.26428
gfz2012cxdn   0.46622
gfz2012czlw   0.27746
gfz2012dfhq  -0.03948
gfz2012dimn   0.89256
gfz2012dinb  -0.15099
gfz2012djwi  -0.10136
gfz2012dyyh  -0.12970
gfz2012ekda  -0.23242
gfz2012ekzf  -0.49831
gfz2012elce  -0.41591
gfz2012emjg   0.53841
gfz2012enno   0.12972
gfz2012eskt  -0.01260
gfz2012ewgo  -0.10354
gfz2012fbfo  -0.36844
gfz2012fhnh  -0.53053
gfz2012fivh   0.50385
gfz2012foeo   0.39897
gfz2012fqcg  -0.31039
gfz2012fwfo  -0.21153
gfz2012fwtr  -0.76919
gfz2012fzfa   0.11262
gfz2012fzsq  -0.10881
gfz2012gkvr   0.28060
gfz2012glss   1.17790
gfz2012gocc  -0.56579
gfz2012gomm   0.25967
gfz2012gukw  -0.84859
gfz2012hdbm   0.44630
gfz2012hnul  -0.41077
gfz2012hnuw   0.54280
gfz2012holl  -0.46658
gfz2012hwmz  -0.62076
gfz2012hyaa  -0.70184
gfz2012hzbe  -1.55830
gfz2012iamr   2.09240
gfz2012icmv  -1.52440
gfz2012ihdl   0.06222
gfz2012iivw  -0.07518
gfz2012ilvn  -0.43685
gfz2012imay  -0.50399
gfz2012jgvj   0.54579
gfz2012jjzc  -0.29592
gfz2012jlox  -0.20122
gfz2012jqvn   0.36951
gfz2012jshk  -0.92384
gfz2012jupx  -0.26495
gfz2012kbjb   0.91035
gfz2012kbzj  -0.24771
gfz2012kdmb   0.45297
gfz2012keor  -0.10562
gfz2012kkup  -0.37384
gfz2012klba  -0.66278
gfz2012klhx  -0.26370
gfz2012kuct  -0.34856
gfz2012kudo  -0.64387
gfz2012kvzv   0.03484
gfz2012kwgo  -0.23108
gfz2012lczo  -0.22424
gfz2012ldgs   0.30719
gfz2012ldxg  -0.55182
gfz2012ldzj  -0.13022
gfz2012ledy   0.67369
gfz2012lltr   0.85377
gfz2012llug  -1.09800
gfz2012lrsv  -1.13740
gfz2012lxkv   0.44401
gfz2012minr  -0.41352
gfz2012mkpn  -0.22034
gfz2012mlyf   0.24154
gfz2012mofm  -0.40395
gfz2012mpvy  -0.39518
gfz2012mpyl  -0.39213
gfz2012mvwr  -0.31009
gfz2012mwij  -0.42756
gfz2012myqa   0.73712
gfz2012naqz  -0.09817
gfz2012nbtn  -0.61686
gfz2012nedn  -0.29873
gfz2012ngic  -0.01887
gfz2012njha  -0.01710
gfz2012nkdf  -0.39222
gfz2012nojx   0.03928
gfz2012nqnk   0.55742
gfz2012nsbz  -0.36569
gfz2012ntzv  -1.43790
gfz2012nutf  -0.54216
gfz2012nxog   0.27051
gfz2012nxyt  -0.12472
gfz2012oazn   0.12762
gfz2012obgw  -0.01534
gfz2012oedb  -0.11604
gfz2012omvo  -0.10433
gfz2012oqmw   0.17075
gfz2012ostk   0.10096
gfz2012pciw  -0.74165
gfz2012peex   0.07978
gfz2012pgcl   0.49935
gfz2012pkel   0.69973
gfz2012plea  -0.08826
gfz2012pqmu  -0.93911
gfz2012prlt   0.51732
gfz2012qxcy  -0.23127
gfz2012rats   0.26527
gfz2012rcnj  -0.07777
gfz2012repv  -0.68877
gfz2012rjsd   0.02002
gfz2012ronz  -0.52694
gfz2012royy   1.36640
gfz2012rwko  -0.23659
gfz2012rwov   0.21351
gfz2012rwql  -0.43573
gfz2012rypu   0.31016
gfz2012snhi  -1.55820
gfz2012spbj   0.00000
gfz2012sphd   0.37277
gfz2012sqvi  -0.16755
gfz2012syvl  -0.16725
gfz2012tazz   0.09756
gfz2012teic  -0.51667
gfz2012thfx  -1.04120
gfz2012tmop  -0.14837
gfz2012tpzx  -0.66934
gfz2012ttoa  -0.24351
gfz2012tvmv   0.04956
gfz2012tzcc   0.39075
gfz2012uafg   0.04949
gfz2012uaqj  -0.53787
gfz2012uciv  -0.01331
gfz2012ueqo  -0.18823
gfz2012ufew   1.03500
gfz2012uhup  -0.02341
gfz2012usba  -0.65769
gfz2012uvqf   0.00483
gfz2012uyxb   0.72043
gfz2012uzom  -0.04931
gfz2012uzyj  -1.05380
gfz2012vpza  -0.37690
gfz2012vrgb  -0.10375
gfz2012wklq  -1.04270
gfz2012wmsg   0.54318
gfz2012wrir  -0.57927
gfz2012wtkr  -0.38603
gfz2012wvfl  -0.78249
gfz2012wxer  -0.18326
gfz2012wxlg  -0.26866
gfz2012wxnu  -0.19392
gfz2012wybs  -0.46771
gfz2012wypz  -0.30548
gfz2012xbjq   0.34293
gfz2012xjyv  -0.42231
gfz2012xkkv  -0.94941
gfz2012xmxy  -0.33721
gfz2012xslk  -1.13050
gfz2012xyqp   1.59020
gfz2012yfrp  -0.88513
gfz2012yxxu   0.39852
gfz2012zemh  -0.16029
gfz2012zfag  -1.08080
gfz2012zitl  -0.01571
gfz2012zjpv  -0.41855
gfz2012zjre  -0.69640
gfz2012zklq  -0.75182
gfz2012zmln  -0.58687
gfz2013aayj  -0.59480
gfz2013acag  -0.21686
gfz2013adey  -0.33052
gfz2013aqaw  -0.04172
gfz2013axoj  -0.51948
gfz2013bdpu  -0.51949
gfz2013bokp  -1.04990
gfz2013cbsm  -0.06105
gfz2013ccnr  -1.57750
gfz2013cdan   0.56118
gfz2013ciaf   0.58686
gfz2013cptb   0.87502
gfz2013cwpn  -0.33772
gfz2013dkly  -0.19087
gfz2013dofo  -0.50011
gfz2013dojq  -0.16253
gfz2013drxz  -0.42050
gfz2013dsog  -0.77904
gfz2013dspt  -2.83620
gfz2013dsrk  -0.38289
gfz2013dvye  -0.69819
gfz2013dvyh  -0.38609
gfz2013egni   0.30987
gfz2013egpu  -0.10545
gfz2013ekpm   0.03642
gfz2013enbx   0.97037
gfz2013ewbo   0.46451
gfz2013feep  -0.28513
gfz2013fiud  -0.20111
gfz2013fkii  -0.23692
gfz2013fygc   0.50741
gfz2013gcfx   0.01661
gfz2013gdgf  -0.32782
gfz2013gdnq  -1.43280
gfz2013gngz   0.28916
gfz2013gock  -0.29961
gfz2013gwrd  -0.29668
gfz2013hbkq  -0.23891
gfz2013hdnc  -0.46395
gfz2013hkja  -0.14880
gfz2013hmbc   0.62407
gfz2013hsfw   0.43014
gfz2013huwr  -0.21621
gfz2013hxcx  -0.06166
gfz2013iayx   0.29809
gfz2013ifpq  -0.28037
gfz2013ijsr   0.32694
gfz2013ikgo   0.22191
gfz2013ilug   0.26176
gfz2013inux  -0.03266
gfz2013ippu  -0.13539
gfz2013iqzq  -0.12350
gfz2013iunn  -0.41019
gfz2013jesk  -0.02168
gfz2013jgij  -0.19120
gfz2013jgip   0.02782
gfz2013jkut   0.19281
gfz2013jokw   0.19190
gfz2013json   0.02502
gfz2013jusj  -1.39750
gfz2013jwvc   0.53050
gfz2013kccc  -0.96850
gfz2013kdeo  -0.32997
gfz2013kheb   0.07122
gfz2013khli  -0.27885
gfz2013kilx   0.16493
gfz2013kqln  -0.48792
gfz2013krei   0.28618
gfz2013kvtk   0.29097
gfz2013lajn   0.05276
gfz2013lbiu   0.57191
gfz2013ldos  -0.23648
gfz2013ldpc   0.04338
gfz2013ldqb  -0.46182
gfz2013lgnl   0.50336
gfz2013lixa  -0.54437
gfz2013lmqe  -0.31747
gfz2013lsob   0.63094
gfz2013lwbk  -0.39763
gfz2013lxyn   0.32275
gfz2013lyko  -0.08322
gfz2013malg   0.14845
gfz2013mmwq  -0.40199
gfz2013mnei  -1.24170
gfz2013mnju   0.03157
gfz2013mqik  -0.89852
gfz2013mqmv  -0.39524
gfz2013mwbh  -0.63407
gfz2013mxee   0.62292
gfz2013ncjp  -0.32258
gfz2013ndin   0.20184
gfz2013neuc   0.25450
gfz2013ngnt   0.64647
gfz2013nixj  -0.05795
gfz2013nkgj  -0.48015
gfz2013nmac   0.12821
gfz2013nojf   0.37676
gfz2013nqgw  -0.42863
gfz2013nuvi  -0.65211
gfz2013nvdj  -0.02705
gfz2013nwdi   0.18827
gfz2013ogde   0.18124
gfz2013onjy   0.18076
gfz2013oqsc  -0.11573
gfz2013orzn   0.37325
gfz2013ozku   0.44126
gfz2013ozqm   0.04870
gfz2013ozrf  -0.25966
gfz2013pcos   0.63476
gfz2013pfbx  -0.07782
gfz2013pfeb  -0.31696
gfz2013pfnf   0.60967
gfz2013phef  -0.25677
gfz2013pkbs  -0.16737
gfz2013plhp  -0.10573
gfz2013poxj   0.74276
gfz2013puag   0.18001
gfz2013pxsj   0.11261
gfz2013qali   0.35081
gfz2013qesa   0.20258
gfz2013qfmm   0.88546
gfz2013qmer   0.20032
gfz2013qnxc  -1.67060
gfz2013qzdq   0.54274
gfz2013rait  -0.58882
gfz2013rdoo   0.21471
gfz2013roki   1.01260
gfz2013rsnr  -0.38553
gfz2013rwfe  -0.94163
gfz2013sart  -0.04847
gfz2013sdus   0.49400
gfz2013sfto  -0.28490
gfz2013shzy   0.04044
gfz2013sjhg  -0.10476
gfz2013skkm  -0.53413
gfz2013snbr  -0.43243
gfz2013snyf   0.04593
gfz2013stht   0.28646
gfz2013suvn   0.47961
gfz2013svci   0.30662
gfz2013tcbk  -0.59879
gfz2013tcxc  -0.11100
gfz2013tcxq   0.13904
gfz2013tdau  -0.23031
gfz2013thtc   0.92911
gfz2013tlaf  -0.31474
gfz2013toxf   0.23444
gfz2013tqbb  -0.05776
gfz2013tusd  -0.02435
gfz2013tvmw  -0.20612
gfz2013txev  -0.15704
gfz2013txij   0.09502
gfz2013txtb  -0.32475
gfz2013tyas  -0.21051
gfz2013uauo   3.03320
gfz2013ufxk  -1.00240
gfz2013uqsp  -0.06211
gfz2013utsh  -0.08522
gfz2013vexx   0.28665
gfz2013vfyw   0.26524
gfz2013vfzp  -0.43833
gfz2013vgau  -1.57230
gfz2013vhzu   0.31835
gfz2013viul  -0.34598
gfz2013vjjc  -0.96522
gfz2013vrmy  -0.28695
gfz2013vsbl   0.32485
gfz2013vvrq   0.08320
gfz2013vzbo   0.52313
gfz2013waam   0.12860
gfz2013wjmm  -0.28861
gfz2013wkyk  -1.87600
gfz2013wmfd  -0.22551
gfz2013wnpr  -0.03540
gfz2013wpga   0.17362
gfz2013xgmp  -0.18643
gfz2013xizq   0.08671
gfz2013xmul  -0.93522
gfz2013xpfa   0.37077
gfz2013xsdt   0.11485
gfz2013xvqd   0.33523
gfz2013xvxf   0.04962
gfz2013xwda   0.21147
gfz2013xxwv   0.08533
gfz2013xxxq  -0.75255
gfz2013xyzb   0.00587
gfz2013yaig  -0.03474
gfz2013yctg   0.00358
gfz2013yhbu   0.91753
gfz2013yhpk   0.57765
gfz2013ylbx   1.67120
gfz2013ymky  -1.78890
gfz2013ypdc  -0.39531
gfz2013yqkv   0.26716
gfz2013yyhc  -0.37401
gfz2013zjel   0.67207
gfz2014abgd  -0.10483
gfz2014adoj   0.32870
gfz2014afmx   0.23123
gfz2014ajlk  -0.25359
gfz2014algk   0.03371
gfz2014ande  -0.60945
gfz2014arpf  -0.16933
gfz2014arqr  -0.35276
gfz2014atgw   0.31327
gfz2014azqs  -0.39495
gfz2014bagd   0.10664
gfz2014bdfd   1.34980
gfz2014bezu  -0.00000
gfz2014bfng   0.42129
gfz2014bhvd  -0.17418
gfz2014bldx  -0.83056
gfz2014bmta  -0.45713
gfz2014bwue  -0.28411
gfz2014bzxy  -0.33336
gfz2014caop   0.16253
gfz2014cgog   0.74032
gfz2014chdv  -0.13440
gfz2014claq  -0.57150
gfz2014cmwb   0.50547
gfz2014cqyo  -0.09564
gfz2014cvkm  -0.28224
gfz2014cvxx   0.27090
gfz2014czol   0.13602
gfz2014czqi  -0.60734
gfz2014czua   0.33830
gfz2014dddc   0.50150
gfz2014dffd   0.21356
gfz2014dhxt   0.27749
gfz2014disp  -0.35195
gfz2014duqn  -0.07675
gfz2014ebmc   0.40811
gfz2014edfx  -0.01892
gfz2014efkk   1.28440
gfz2014eght  -0.20597
gfz2014ehsf   0.28330
gfz2014ejmt   0.36368
gfz2014ekcr  -0.43268
gfz2014ekdn   0.58554
gfz2014ekdt   0.21489
gfz2014enhi   0.45602
gfz2014etqa  -0.36289
gfz2014ettc   0.13857
gfz2014exxa   0.05915
gfz2014fcms   0.53996
gfz2014femz   0.20525
gfz2014fexu   0.11283
gfz2014ffdc  -0.56912
gfz2014fgvi  -0.22239
gfz2014fgvr   0.45946
gfz2014fgvz  -0.06718
gfz2014fgxt  -0.73597
gfz2014fgxz   0.03834
gfz2014fgyo  -0.16471
gfz2014fgza  -0.56682
gfz2014fhbd   0.25976
gfz2014fhdw  -0.02255
gfz2014fhjd   0.52653
gfz2014fhla  -0.37160
gfz2014fhlh  -0.51633
gfz2014fhrq   0.35239
gfz2014fhsg   0.18247
gfz2014fhwx   0.40308
gfz2014fimn  -0.09828
gfz2014fiuj   0.35504
gfz2014fjpb   0.33654
gfz2014fjzd  -0.17854
gfz2014fkmr  -0.25628
gfz2014fkmx   0.38284
gfz2014foio  -0.14459
gfz2014frdz  -0.17485
gfz2014frel  -0.46003
gfz2014frez  -0.38526
gfz2014frgm  -0.06585
gfz2014frwh  -0.00508
gfz2014ftka  -0.25841
gfz2014ftno  -2.37850
gfz2014ftoc   0.12268
gfz2014ftpw   0.44537
gfz2014ftrk  -0.16513
gfz2014furx   0.52970
gfz2014fusc   0.05803
gfz2014fusj  -0.17523
gfz2014fuub  -0.02141
gfz2014fuup  -0.70679
gfz2014fvaa   0.52541
gfz2014fval   0.11011
gfz2014fvgh   0.20954
gfz2014fvjl   0.46699
gfz2014fvpy   0.24960
gfz2014fvrg   0.10688
gfz2014fwdr  -1.63910
gfz2014fwyr   0.88924
gfz2014fxhd  -0.18195
gfz2014gbcz  -0.29244
gfz2014gbdq   1.18460
gfz2014geuy  -0.28317
gfz2014gezs  -0.05119
gfz2014ghpe   0.02609
gfz2014gkgf   0.04052
gfz2014gkhy  -0.99864
gfz2014gkjl  -0.17109
gfz2014gkjt  -0.24995
gfz2014gkjw   0.82970
gfz2014gklq   0.66042
gfz2014gklv   0.39145
gfz2014gkmm   0.36420
gfz2014gkob  -0.55332
gfz2014gkok   0.41941
gfz2014gkpd   0.82851
gfz2014gkpj   1.06540
gfz2014gkqf   0.02915
gfz2014gkqu  -1.34080
gfz2014gksj   0.10379
gfz2014gksu   0.62205
gfz2014gktq   0.21185
gfz2014gkxm   0.78735
gfz2014glcu  -0.01133
gfz2014glcy  -0.37122
gfz2014glgo  -0.72032
gfz2014gltx  -0.07483
gfz2014glvn   1.94090
gfz2014glvu   0.79702
gfz2014glxy  -0.39965
gfz2014gmci  -0.32167
gfz2014gmge  -0.50413
gfz2014gmhp   1.06080
gfz2014gmhr   1.77090
gfz2014gmip   0.16394
gfz2014gmjo  -0.02370
gfz2014gmku  -0.37357
gfz2014gmlz   0.37953
gfz2014gmmk   0.26009
gfz2014gmmt   1.01350
gfz2014gmnb  -0.11856
gfz2014gmnw  -0.03692
gfz2014gmor  -0.05115
gfz2014gmpy  -0.07834
gfz2014gmrj   0.86137
gfz2014gmtb   0.12094
gfz2014gmuk  -0.20325
gfz2014gmvr   0.38882
gfz2014gmzl  -0.90112
gfz2014gnfd   0.26255
gfz2014gnfs  -0.25136
gfz2014gngg  -0.36209
gfz2014gnno   0.38630
gfz2014gnnt   0.09859
gfz2014gnre  -0.60671
gfz2014gnsi   1.07660
gfz2014goba  -0.70345
gfz2014goei  -0.01330
gfz2014gohm   0.44472
gfz2014goqw   0.24621
gfz2014gpce   0.36630
gfz2014gphr  -0.19571
gfz2014gpuk   0.02195
gfz2014gpvk  -0.04174
gfz2014gpya   0.46785
gfz2014gqbj   0.52444
gfz2014gqer   0.80532
gfz2014gqiy  -0.01538
gfz2014gqve  -0.05941
gfz2014grho  -0.89550
gfz2014gsqs   0.13060
gfz2014gufl  -2.25120
gfz2014gull   0.45118
gfz2014gulp  -0.18794
gfz2014gumd   1.34740
gfz2014gvhw   0.27325
gfz2014gvqj  -0.52857
gfz2014gvra   0.02484
gfz2014gvrd  -0.16650
gfz2014gwab  -0.15016
gfz2014gwgf  -0.06530
gfz2014gxkh   1.31340
gfz2014gxxo   0.10640
gfz2014gyxd   0.13446
gfz2014gzrm  -0.32088
gfz2014hagb   0.45765
gfz2014hasj   0.24258
gfz2014hauo   0.74745
gfz2014hbjm   1.03200
gfz2014hbjz   0.09670
gfz2014hbqb  -0.21869
gfz2014hcmj  -0.07793
gfz2014hfhl   0.11048
gfz2014hfzf  -0.13632
gfz2014hgqo  -1.51380
gfz2014hhwx  -0.22220
gfz2014hifp  -1.70940
gfz2014hjgh   0.00000
gfz2014hjgo   0.49515
gfz2014hjgr  -0.09254
gfz2014hjij   0.22009
gfz2014hjlx  -0.50547
gfz2014hkcf   0.14952
gfz2014hkck   0.04439
gfz2014hmgf   0.87043
gfz2014hmrs   0.18217
gfz2014hoap  -0.01514
gfz2014hocg   0.20517
gfz2014hphw  -0.13007
gfz2014hqxs  -1.13780
gfz2014hqyx   0.42980
gfz2014hrft  -0.02846
gfz2014hrtn   0.43005
gfz2014hscz  -0.15497
gfz2014huaj   0.34101
gfz2014hyvq   0.08254
gfz2014hzdy  -0.16157
gfz2014hzfw   0.10455
gfz2014hzgn   0.42423
gfz2014hzhe   0.11991
gfz2014iani   0.18098
gfz2014iava  -0.71970
gfz2014icqt   0.60258
gfz2014ifue   0.17439
gfz2014ijvh   0.07101
gfz2014imnn  -0.09258
gfz2014inbj   0.28661
gfz2014irci   0.44601
gfz2014ircq   0.62653
gfz2014isub   0.28295
gfz2014isys   0.09197
gfz2014itab   0.09833
gfz2014itbe   0.20000
gfz2014itgh   0.07565
gfz2014itjx   0.22448
gfz2014itkw  -0.21356
gfz2014itpj   0.20993
gfz2014iuhq   0.55245
gfz2014iwwl   0.19683
gfz2014ixga  -0.00411
gfz2014iywt   0.20200
gfz2014jatq   0.07723
gfz2014jcjt  -0.92962
gfz2014jird   0.35307
gfz2014jjhc   0.58173
gfz2014jjln   0.16916
gfz2014jjqk  -0.24543
gfz2014jkxe   0.67049
gfz2014jnxm  -0.08227
gfz2014jnyv  -0.30984
gfz2014jomw   0.13467
gfz2014jpep   0.06031
gfz2014jpgu   0.25065
gfz2014jtfe  -0.46492
gfz2014jwmh   0.60946
gfz2014kara  -0.32029
gfz2014kbuk   0.26097
gfz2014khan   0.14189
gfz2014khlk  -0.21812
gfz2014kitm   0.01547
gfz2014kjjq   1.99010
gfz2014kjzb  -0.22197
gfz2014kkhh   0.30685
gfz2014kmmt  -0.16642
gfz2014kndc  -0.02431
gfz2014knks  -0.16795
gfz2014knxs   0.01825
gfz2014kscf   0.51919
gfz2014ksdv   0.11706
gfz2014kwrg   0.35926
gfz2014kyan   0.17428
gfz2014kytf  -0.73327
gfz2014kzzm   1.30880
gfz2014lddn  -1.22290
gfz2014lefs   0.66857
gfz2014lgqn   0.13554
gfz2014lhqn   0.02414
gfz2014lkyf   0.13486
gfz2014lmge  -0.24106
gfz2014lpim  -0.02110
gfz2014lrzx  -0.14254
gfz2014lxnc  -0.05221
gfz2014lxqr   0.24484
gfz2014lyhk   0.05952
gfz2014lyhp   0.02534
gfz2014lynp   0.52972
gfz2014lzal  -0.49397
gfz2014lzow   0.11526
gfz2014macx  -0.01846
gfz2014madw  -0.14140
gfz2014mcno   0.23045
gfz2014mhgg  -0.64534
gfz2014mioi   0.58133
gfz2014mlrr  -0.03748
gfz2014moaw  -1.03960
gfz2014mtum  -0.03978
gfz2014mwor   0.08501
gfz2014mxkr  -0.23416
gfz2014myqz  -0.72252
gfz2014ngsk   0.06355
gfz2014niqj   1.04450
gfz2014nkdx   0.65076
gfz2014nnxd  -0.42339
gfz2014nowp   0.24191
gfz2014npdk  -0.29967
gfz2014npeo   0.22676
gfz2014nphm   0.05896
gfz2014nqfm  -0.25212
gfz2014nrie  -0.06640
gfz2014ntdh  -0.00000
gfz2014nyeh   0.05044
gfz2014nyfb  -0.59080
gfz2014nyko  -0.94883
gfz2014nylm  -0.49030
gfz2014odgv   0.10072
gfz2014oinz   0.11121
gfz2014oqhw   0.29700
gfz2014orxs   0.19354
gfz2014oryw  -0.22184
gfz2014osvz   0.31807
gfz2014owxc   0.21149
gfz2014oyly  -0.05766
gfz2014pjer   0.21160
gfz2014pkll   0.37657
gfz2014ppyi   0.01174
gfz2014ppzf   0.16305
gfz2014pqqp   3.42460
gfz2014pqrc   0.34789
gfz2014pvch  -0.02294
gfz2014pzml  -2.02340
gfz2014pzni  -0.05469
gfz2014qdog  -0.22085
gfz2014qlxd   0.01873
gfz2014qngj   0.09903
gfz2014qqhm  -0.52246
gfz2014raau  -1.16830
gfz2014rbsl   0.14330
gfz2014rdsn   0.03207
gfz2014rghp  -0.18388
gfz2014rhwq  -0.05137
gfz2014riel  -0.14162
gfz2014rkwl   0.23395
gfz2014romy   0.14993
gfz2014rtcu  -0.44295
gfz2014sadu   0.90039
gfz2014sjqw   0.26562
gfz2014sryn  -0.64114
gfz2014ssmv   0.13191
gfz2014ssvz  -0.14938
gfz2014szzf   0.32772
gfz2014tfgn  -0.73334
gfz2014tovs   0.73998
gfz2014tqdo  -0.13785
gfz2014tqsf  -0.12708
gfz2014tqth  -0.28692
gfz2014tzsd  -0.21509
gfz2014ubwn   0.47537
gfz2014udgg   0.01882
gfz2014uohh  -1.17360
gfz2014utac   0.28329
gfz2014uuuf  -0.74613
gfz2014uvji  -0.87673
gfz2014uvrk  -0.13562
gfz2014uxyg   0.14175
gfz2014vcev   0.37142
gfz2014veit   0.21029
gfz2014vhld  -0.03959
gfz2014vhms   0.07516
gfz2014vjoz   0.03936
gfz2014vpus  -0.04348
gfz2014vqqa  -0.43517
gfz2014waoo   0.12504
gfz2014watn  -0.06254
gfz2014wjko  -0.17182
gfz2014wmsc   0.30425
gfz2014wqcp   0.56933
gfz2014wrkh   0.06043
gfz2014wwib  -0.73048
gfz2014xbyr   0.21851
gfz2014xhkc  -0.24348
gfz2014xhwk  -0.08211
gfz2014xjri  -0.16527
gfz2014xoji  -0.01945
gfz2014xqby   0.00000
gfz2014xqqd  -0.12226
gfz2014yhhm   0.07008
gfz2014yula  -0.02111
gfz2014zcgo  -0.52694
gfz2014zkys   0.53386
gfz2014zlgp   0.25101
gfz2015abpw   0.72243
gfz2015alzx   0.31995
gfz2015apnk   0.30511
gfz2015aqav  -0.37520
gfz2015aqbq  -0.31912
gfz2015arpd  -0.10412
gfz2015aruz  -0.11794
gfz2015atxv  -0.21393
gfz2015aush  -1.69760
gfz2015azzp   0.10717
gfz2015berb  -0.00000
gfz2015bfjm   0.39841
gfz2015bkbj   0.03686
gfz2015bsnl  -0.44235
gfz2015bucr  -0.49223
gfz2015bvsj   0.49635
gfz2015bvxx  -2.62530
gfz2015byfn   0.13265
gfz2015byjd  -0.43150
gfz2015chhn   0.53482
gfz2015chqn   0.32791
gfz2015cxhx  -0.26793
gfz2015cxrc  -0.31951
gfz2015cxxk   0.22617
gfz2015cyjd   0.60442
gfz2015dadj   2.02350
gfz2015ddhl  -0.26894
gfz2015dizn  -0.09468
gfz2015djts   0.16017
gfz2015dskr   0.16791
gfz2015dvbn  -0.16462
gfz2015ecgq   0.28429
gfz2015ednc   0.37274
gfz2015eeyq   0.18347
gfz2015eezy   0.44746
gfz2015egxq  -0.06740
gfz2015ehou   0.31047
gfz2015eiky  -0.23425
gfz2015elgy   0.34174
gfz2015eljz  -0.01786
gfz2015emin   1.16360
gfz2015emtg   0.44576
gfz2015enth  -1.51310
gfz2015etai   0.15941
gfz2015evpl   0.00000
gfz2015eyqs  -0.41370
gfz2015fbbk  -0.48813
gfz2015fbew  -0.97573
gfz2015fcua   0.22674
gfz2015fjhk   0.48287
gfz2015fkgt   0.27443
gfz2015fkic   0.51919
gfz2015fkjs  -0.32489
gfz2015fkkd   0.21137
gfz2015fkuu   0.21855
gfz2015flis  -0.09329
gfz2015fpez   0.00000
gfz2015fsjj   0.32191
gfz2015fvoi   0.35952
gfz2015fxbv  -0.09499
gfz2015fxdi   0.13601
gfz2015fyvk   0.65459
gfz2015gckd   0.26494
gfz2015ggjw   0.11287
gfz2015gjbr  -0.06059
gfz2015gkwa   0.05334
gfz2015gnmy   0.00000
gfz2015guhd   0.28971
gfz2015gzja   0.60611
gfz2015hdbn  -0.56739
gfz2015hdcp   0.27135
gfz2015hepg  -0.38472
gfz2015hgbk   0.24935
gfz2015hlqo  -0.04963
gfz2015hpmk   0.39301
gfz2015hvgs   0.49856
gfz2015iele   0.15318
gfz2015igsy   0.42805
gfz2015imty   0.25370
gfz2015imyp  -0.18271
gfz2015iwqk   0.08331
gfz2015ixyy   0.68644
gfz2015jkdw   0.30324
gfz2015jmlf   1.01110
gfz2015jmlu   0.28628
gfz2015jpap  -1.11880
gfz2015jwgl   0.22148
gfz2015jxbx  -0.17217
gfz2015jxjd   0.19179
gfz2015jzcv   0.30621
gfz2015kakw   0.10908
gfz2015kalm   0.15682
gfz2015kcaa   0.02012
gfz2015kfsu  -0.23265
gfz2015kkqb   0.10356
gfz2015kkth  -0.11026
gfz2015kphk   0.19978
gfz2015kquq   0.36877
gfz2015ksni   0.31132
gfz2015kvwz   0.36113
gfz2015kxxs  -0.19379
gfz2015lcma   0.18937
gfz2015lcuo  -0.00000
gfz2015lfma   0.25643
gfz2015lfos   0.51362
gfz2015lfud   0.28212
gfz2015lhjq   0.13093
gfz2015lhjy   0.45914
gfz2015ltii  -0.54879
gfz2015ltro  -0.93206
gfz2015lytv  -0.36927
gfz2015lzad  -0.65021
gfz2015mbgr   0.25386
gfz2015mfpy   0.52614
gfz2015mhym  -1.07450
gfz2015micz   0.16752
gfz2015mpte  -0.31229
gfz2015nerz  -0.04555
gfz2015nqgf   0.37682
gfz2015ntpk   0.15981
gfz2015nuxz   0.05384
gfz2015nwug   0.09893
gfz2015ocdz   0.35472
gfz2015ocwr   0.08263
gfz2015ofpd  -0.71028
gfz2015ofsr   0.09679
gfz2015okmq  -0.03107
gfz2015okpu   0.51544
gfz2015omab   0.33905
gfz2015orkl   0.36688
gfz2015othd   0.19615
gfz2015oyfl   0.58095
gfz2015pcvt  -0.22924
gfz2015pgxa  -0.41926
gfz2015poni   0.15848
gfz2015puah   0.79408
gfz2015puqp  -0.50808
gfz2015qisx  -1.41700
gfz2015qnho  -0.20581
gfz2015qnto   0.30490
gfz2015qprd   0.50283
gfz2015quzo   0.15669
gfz2015rgov  -0.38249
gfz2015rgrg   0.93686
gfz2015rkbq   0.29725
gfz2015rkrg   0.15734
gfz2015rkzg   0.50951
gfz2015rpzn  -0.10759
gfz2015rtnv   0.45386
gfz2015rxmg   0.03315
gfz2015saet   0.79055
gfz2015sdeo   0.06547
gfz2015sevh   0.06095
gfz2015sfdd  -0.13226
gfz2015sfdl  -0.02969
gfz2015sfdv  -0.58111
gfz2015sfdy  -0.70172
gfz2015sfeo   0.66327
gfz2015sffn  -0.03031
gfz2015sfga   0.18023
gfz2015sfho   0.24700
gfz2015sfhz  -0.09194
gfz2015sfiq  -1.29370
gfz2015sfjf  -0.31301
gfz2015sfkh  -0.07165
gfz2015sfko  -0.64368
gfz2015sfks   0.06281
gfz2015sfkz   0.05374
gfz2015sflf   0.15496
gfz2015sfln  -0.05358
gfz2015sfmd   0.62328
gfz2015sfnb  -0.01666
gfz2015sfno  -0.71120
gfz2015sfnv   0.75270
gfz2015sfoc  -0.09133
gfz2015sfoh   0.06260
gfz2015sfoq  -0.06557
gfz2015sfpj   0.30073
gfz2015sfps   0.75583
gfz2015sfqo  -0.00906
gfz2015sfqr  -0.29197
gfz2015sfrc  -0.69322
gfz2015sfrf  -0.31028
gfz2015sfrv   1.20730
gfz2015sfsi   0.00000
gfz2015sfte  -0.05203
gfz2015sftu   0.29137
gfz2015sfuc   0.79361
gfz2015sfuz  -0.34286
gfz2015sfwf   0.28452
gfz2015sfxn  -0.38008
gfz2015sfzm   0.08180
gfz2015sgad  -0.34736
gfz2015sgdj   0.62712
gfz2015sgdn  -0.53886
gfz2015sggc  -1.03490
gfz2015sghq   0.20367
gfz2015sgmm   0.11363
gfz2015sgmr   0.19991
gfz2015sgna  -0.33807
gfz2015sgxc   0.95463
gfz2015sgyd   0.49310
gfz2015shaq   0.27296
gfz2015shel  -0.11920
gfz2015shhg   0.46109
gfz2015shhu  -0.11231
gfz2015shjn  -0.17841
gfz2015shjo   0.02704
gfz2015shlp   0.03744
gfz2015shqc   0.46952
gfz2015shqe  -0.74632
gfz2015shrg   2.38670
gfz2015shsz   1.36450
gfz2015shwt  -0.21539
gfz2015sicf  -0.05161
gfz2015sicu   0.21407
gfz2015siem   0.01165
gfz2015siky  -0.20817
gfz2015sing   0.10912
gfz2015siof  -0.42378
gfz2015sist   0.26399
gfz2015sitn  -0.16394
gfz2015sixi  -0.49737
gfz2015sixs  -0.25952
gfz2015siyy   0.53457
gfz2015sjbx   0.09478
gfz2015sjfi  -0.00190
gfz2015sjgk   0.14553
gfz2015sjjb   0.74856
gfz2015sjne  -1.02570
gfz2015sjoj   0.09637
gfz2015sjpn   0.49695
gfz2015sjtz   0.52779
gfz2015sjvu   0.09395
gfz2015sjwi  -0.59188
gfz2015skab   0.49648
gfz2015skgj  -0.30445
gfz2015skhf   0.30386
gfz2015sklu   0.01552
gfz2015skpv   0.14125
gfz2015skuk   0.02908
gfz2015skxu   0.03265
gfz2015sldx   0.05018
gfz2015slfn  -0.98511
gfz2015sljs  -0.58981
gfz2015slun   0.49585
gfz2015smgj   0.07202
gfz2015smym  -0.01564
gfz2015snhn   0.18210
gfz2015snmg   0.04027
gfz2015snmr  -0.06790
gfz2015snsf  -0.64385
gfz2015snwh  -0.64457
gfz2015snyd  -0.08243
gfz2015soat   0.57980
gfz2015sopc   0.07746
gfz2015sowu   0.65328
gfz2015soxc   0.10229
gfz2015sozw  -0.11843
gfz2015sqbg  -0.20402
gfz2015sqmy  -0.54834
gfz2015sqvx   0.44462
gfz2015sqwv   0.00000
gfz2015srat   0.21185
gfz2015srgf   0.28981
gfz2015sspn  -0.01987
gfz2015ssrl   0.61880
gfz2015stas  -0.29312
gfz2015stfy   0.50731
gfz2015stso   0.19167
gfz2015subg  -0.26789
gfz2015sudm  -0.19479
gfz2015sunp  -0.01742
gfz2015supa   0.47136
gfz2015susq   0.60470
gfz2015svjy  -0.27699
gfz2015svwm   0.11636
gfz2015swgn   0.22082
gfz2015swjx  -0.39982
gfz2015swnc   0.37458
gfz2015sxgd   0.06921
gfz2015sxmh   0.44826
gfz2015sxxu   0.53597
gfz2015sydc  -0.14981
gfz2015szcb  -0.00765
gfz2015szfe  -0.05415
gfz2015szfq  -0.30111
gfz2015sztx  -0.19480
gfz2015taml   0.33704
gfz2015tbdn   0.24533
gfz2015tbje   0.37380
gfz2015tcem   0.37833
gfz2015tdbb   0.23380
gfz2015tdcu  -0.14835
gfz2015tdhb   0.01791
gfz2015teje  -0.23063
gfz2015tesj  -0.10984
gfz2015teyn   0.36820
gfz2015tezd   0.42732
gfz2015tfaz  -0.24141
gfz2015tfxb  -0.21993
gfz2015tgbp  -0.31556
gfz2015tghj  -0.06205
gfz2015thfd   0.53767
gfz2015thfm   0.31083
gfz2015thgc   0.46332
gfz2015thgp  -0.12718
gfz2015thwg   0.49950
gfz2015thwp   0.08539
gfz2015tixi   0.51687
gfz2015tiyc  -0.39575
gfz2015tjhv  -0.48069
gfz2015tjys   3.66170
gfz2015tkol  -0.49924
gfz2015tlba  -0.12002
gfz2015tlkf   0.19552
gfz2015tlok  -0.13939
gfz2015tnjd  -0.35289
gfz2015tnla   0.95306
gfz2015tpra   0.12652
gfz2015tqff   0.04012
gfz2015tqie   0.35249
gfz2015tsdm  -0.17576
