# Nsamples: 155  MAD:  0.786  mean:  0.012  variance:  2.703
gfz2010bfzs   0.19150
gfz2010bjeb  -0.64184
gfz2010bxxs  -1.29070
gfz2010cqwl   0.86691
gfz2010czps   0.11191
gfz2010eaoy  -0.07118
gfz2010eapk   0.07592
gfz2010eapn  -0.23044
gfz2010eaqe  -2.36250
gfz2010eaqy  -1.14800
gfz2010earu   0.38812
gfz2010easo   0.27841
gfz2010eavs   0.69115
gfz2010eawb  -0.98597
gfz2010eawu  -2.88050
gfz2010eaxa   0.53549
gfz2010ebhc  -1.00210
gfz2010ebnn  -0.83121
gfz2010ebvv   1.37130
gfz2010ebzr  -0.06768
gfz2010ecps   0.05018
gfz2010ecua   1.38580
gfz2010eegn  -1.88710
gfz2010eisx  -1.89060
gfz2010ejjg  -0.34208
gfz2010ekyc   0.13372
gfz2010elhv   1.31380
gfz2010eltf  -4.56250
gfz2010elyc  -0.08551
gfz2010eqjg   1.09840
gfz2010excp   0.11016
gfz2010exdd   0.62007
gfz2010fczt  -0.33845
gfz2010fpqy  -1.80620
gfz2010hxgv   1.08190
gfz2010iobp   0.77277
gfz2010iqnm   2.02460
gfz2010iull   0.13339
gfz2010jxbm   0.66488
gfz2010pcxi   0.07962
gfz2010pxls  -1.09010
gfz2010rqwj   2.36190
gfz2010upfb   1.07980
gfz2011aatr   0.00000
gfz2011adjs   0.64426
gfz2011aeay   2.81630
gfz2011alip   0.62449
gfz2011cykd   0.61355
gfz2011dbig   0.83412
gfz2011dcqb   0.51771
gfz2011dpqx  -1.19960
gfz2011enva   0.61469
gfz2011gkzt  -0.06846
gfz2011hlqw   0.38836
gfz2011hlsa   0.40728
gfz2011mdie  -0.82472
gfz2011nudm   0.35833
gfz2011olkk   0.67450
gfz2011rewa  -0.17833
gfz2011ujze  -0.44993
gfz2011vhfi  -0.02701
gfz2011wxfs   0.09339
gfz2012bpkx  -0.70321
gfz2012dyyh   0.41509
gfz2012enno  -0.70706
gfz2012ewgo  -0.37695
gfz2012fzfa   0.12757
gfz2012hnul  -1.93310
gfz2012jlox   0.40922
gfz2012kbzj  -0.71922
gfz2012kkup   0.17187
gfz2012kudo   0.05766
gfz2012lczo   1.09280
gfz2012ldxg  -0.18773
gfz2012lxkv  -0.69356
gfz2012minr  -0.22718
gfz2012pgcl  -1.22570
gfz2012rwov  -0.20937
gfz2012ttoa   0.57190
gfz2012vrgb  -0.46264
gfz2012wklq  -0.33189
gfz2012wypz  -0.25641
gfz2013axoj   1.39410
gfz2013ccnr   2.05000
gfz2013drxz   0.20402
gfz2013ldqb   0.16236
gfz2013lyko   0.94838
gfz2013ncjp   0.45029
gfz2013nkgj  -0.14306
gfz2013nwdi  -0.27270
gfz2013ojti  -3.22790
gfz2013qmer  -0.11144
gfz2013qzdq   0.49280
gfz2013rdoo  -3.12580
gfz2013svci   0.09855
gfz2013vjjc  -0.90973
gfz2013wjmm  -0.48468
gfz2013yqkv   0.41038
gfz2014algk   0.50003
gfz2014bzxy   0.75278
gfz2014ehfp  -0.74911
gfz2014enhi  -0.83093
gfz2014fgvi   0.41629
gfz2014ftka   1.43400
gfz2014gbcz   0.57143
gfz2014gkgf   0.75785
gfz2014gkgs   0.62599
gfz2014gmge   0.69492
gfz2014gmhr  -0.10581
gfz2014goba  -0.24473
gfz2014hasj   0.05952
gfz2014hocg  -0.18489
gfz2014jjhc   0.57584
gfz2014kytf  -2.15890
gfz2014lgqn   0.41087
gfz2014npeo  -1.10280
gfz2014nqfm   0.48192
gfz2014nrie   0.16220
gfz2014qlxd   0.29640
gfz2014qngj  -1.20690
gfz2014rdsn   0.36739
gfz2014ssvz  -0.18125
gfz2014tqdo   0.31459
gfz2014watn  -0.43521
gfz2015berb   0.11353
gfz2015chhn  -0.04331
gfz2015cyjd   0.14725
gfz2015dvbn   0.20772
gfz2015fsjj   0.30120
gfz2015gckd   0.18374
gfz2015kfsu  -0.49699
gfz2015lhjy   0.35950
gfz2015lytv   0.35576
gfz2015mpte   0.08001
gfz2015oyfl  -1.49840
gfz2015qnho  -1.18300
gfz2015sfdd  -0.63082
gfz2015sfdy   0.15385
gfz2015sfiq   1.38970
gfz2015sfnb  -1.95060
gfz2015sfno   1.05110
gfz2015sghq  -0.65405
gfz2015sjgk  -0.67551
gfz2015sjoj  -0.09728
gfz2015smym  -1.65610
gfz2015snsf  -0.79031
gfz2015snwh  -0.15535
gfz2015snyd  -0.67662
gfz2015soat   0.18570
gfz2015soxc  15.93700
gfz2015svwm  -0.76504
gfz2015taml   1.29480
gfz2015tiyc  -1.46500
gfz2015tlkf   0.42696
gfz2015tnjd  -1.35790
