# Nsamples: 58  MAD:  0.764  mean:  0.010  variance:  1.128
gfz2010bxxs  -0.55852
gfz2010eaoy  -1.77590
gfz2010earu   0.58956
gfz2010ebhc  -0.19544
gfz2010ebnn  -1.80020
gfz2010eisx   0.01997
gfz2010eltf  -0.62627
gfz2010elyc   1.46690
gfz2010excp  -0.24378
gfz2010exdd  -2.35980
gfz2010ezck  -1.77040
gfz2010ffhq  -0.79175
gfz2010iull  -0.57350
gfz2011aatr   0.53327
gfz2011enva   1.45640
gfz2011gkzt   2.25570
gfz2011lcxq   0.09858
gfz2011lzwj  -0.82473
gfz2011mdie  -0.58356
gfz2011owvz   2.37090
gfz2011rewa   0.18053
gfz2011toub  -0.25620
gfz2011wxfs  -0.26101
gfz2012enno  -0.29366
gfz2012fzfa  -0.09789
gfz2012jlox  -0.52598
gfz2012kkup   0.06531
gfz2012klhx   0.30620
gfz2012kudo   0.03297
gfz2012ldxg   3.02500
gfz2012ttoa  -1.44770
gfz2012wypz  -0.47916
gfz2013ccnr   0.58646
gfz2013drxz   0.71611
gfz2013svci  -0.76334
gfz2013vjjc   2.72690
gfz2014fgvi  -1.15930
gfz2014frdz   1.12180
gfz2014ftka   1.70830
gfz2014gkgf   0.55265
gfz2014gmhr   0.10481
gfz2014hocg  -0.07763
gfz2014opqr  -0.09116
gfz2015berb   0.52155
gfz2015chhn  -0.21506
gfz2015cyjd   0.71826
gfz2015fsjj  -0.27635
gfz2015gckd   0.05548
gfz2015lhjy  -0.76468
gfz2015lytv   0.15859
gfz2015sfdd  -0.74924
gfz2015sfdy  -0.36509
gfz2015sjgk   0.19735
gfz2015smym  -0.46223
gfz2015snwh  -1.12040
gfz2015soxc   0.13951
gfz2015svwm  -0.59300
gfz2015tiyc   0.99662
