# Nsamples: 33  MAD:  0.839  mean:  0.528  variance:  0.663
gfz2010bjeb   1.42430
gfz2010eaoy   0.83977
gfz2010eltf   0.45102
gfz2010ftlm   0.51263
gfz2010grjd  -0.76045
gfz2010iull  -0.19398
gfz2010rqwj   3.36210
gfz2011csju  -0.29186
gfz2011hlqw   1.01660
gfz2011hlsa   0.59895
gfz2011lcxq   0.30204
gfz2011lzwj   0.17611
gfz2011mdie   1.12630
gfz2011owvz   0.58103
gfz2011rewa   0.61208
gfz2011toub   0.36132
gfz2011wxfs  -0.20848
gfz2012ttoa   1.35170
gfz2012wypz   0.44242
gfz2013ccnr   1.41120
gfz2013drxz   1.06270
gfz2013nkgj  -0.11845
gfz2013nwdi  -0.95277
gfz2013qmer  -0.53021
gfz2013svci   0.20396
gfz2014fgvi   0.38637
gfz2014fhla   1.66580
gfz2014ftka   0.86515
gfz2014lxnc  -0.43076
gfz2015cyjd   1.25390
gfz2015lhjy   0.07785
gfz2015lytv   0.28492
gfz2015mpte   0.53744
