# Nsamples: 57  MAD:  0.894  mean:  0.078  variance:  0.940
gfz2012enno  -0.20095
gfz2012fzfa   0.38805
gfz2012intn   0.78658
gfz2012jlox  -0.09413
gfz2012kkup  -0.44828
gfz2012klhx  -0.72523
gfz2012lczo   2.07290
gfz2012minr  -0.53733
gfz2012ttoa  -1.10800
gfz2012wxlg   0.06581
gfz2012wypz  -0.60225
gfz2013mwbh   1.74040
gfz2013nkgj   0.87987
gfz2013nqgw   1.14430
gfz2013nwdi  -0.65476
gfz2013qmer   0.07944
gfz2013svci   0.92462
gfz2013vjjc  -1.23140
gfz2013wjmm   0.37680
gfz2014ande  -0.15962
gfz2014atgw  -2.13080
gfz2014fgvi   0.18770
gfz2014fhla  -0.47351
gfz2014fkmr   0.73490
gfz2014fnyg   0.15180
gfz2014ftka   1.40890
gfz2014gkgf   0.61424
gfz2014gmhr   0.44589
gfz2014gull   0.50823
gfz2014gwab   1.30290
gfz2014gxxo  -0.39058
gfz2014hasj  -0.50385
gfz2014hocg  -0.40120
gfz2014jjhc  -0.88818
gfz2014nqfm   0.43495
gfz2014nrie   1.04090
gfz2014oinz   0.06540
gfz2014qqhm   0.72891
gfz2014rdsn   2.13660
gfz2014ssvz   0.47087
gfz2015cyjd  -0.56748
gfz2015fsjj   0.23689
gfz2015gckd   1.40860
gfz2015gjbr  -0.13104
gfz2015lhjy   0.03989
gfz2015lytv  -1.46050
gfz2015mpte   0.40774
gfz2015sfdd  -0.02609
gfz2015sfdy   0.49952
gfz2015sfnb  -0.58910
gfz2015sfno  -1.16450
gfz2015sglg  -3.32480
gfz2015subg   0.75806
gfz2015svjy   1.14800
gfz2015svwm  -0.18737
gfz2015tiyc   0.04140
gfz2015tlkf  -0.80021
