%!PS-Adobe-3.0
%%BoundingBox: 0 0 595 842
%%HiResBoundingBox: 0 0 595 842
%%Title: GMT v5.1.1 (r12968) [64-bit] Document from psbasemap
%%Creator: GMT5
%%For: nooshiri
%%DocumentNeededResources: font Helvetica
%%CreationDate: Mon Nov  2 10:41:59 2015
%%LanguageLevel: 2
%%DocumentData: Clean7Bit
%%Orientation: Portrait
%%Pages: 1
%%EndComments

%%BeginProlog
250 dict begin
/! {bind def} bind def
/# {load def}!
/A /setgray #
/B /setdash #
/C /setrgbcolor #
/D /rlineto #
/E {dup stringwidth pop}!
/F /fill #
/G /rmoveto #
/H /sethsbcolor #
/I /setpattern #
/K /setcmykcolor #
/L /lineto #
/M /moveto #
/N /newpath #
/P /closepath #
/R /rotate #
/S /stroke #
/T /translate #
/U /grestore #
/V /gsave #
/W /setlinewidth #
/Y {findfont exch scalefont setfont}!
/Z /show #
/FP {true charpath flattenpath}!
/MU {matrix setmatrix}!
/MS {/SMat matrix currentmatrix def}!
/MR {SMat setmatrix}!
/edef {exch def}!
/FS {/fc edef /fs {V fc F U} def}!
/FQ {/fs {} def}!
/O0 {/os {N} def}!
/O1 {/os {P S} def}!
/FO {fs os}!
/Sa {M MS dup 0 exch G 0.726542528 mul -72 R dup 0 D 4 {72 R dup 0 D -144 R dup 0 D} repeat pop MR FO}!
/Sb {M dup 0 D exch 0 exch D neg 0 D FO}!
/SB {MS T /BoxR edef /BoxW edef /BoxH edef BoxR 0 M
  BoxW 0 BoxW BoxH BoxR arct BoxW BoxH 0 BoxH BoxR arct 0 BoxH 0 0 BoxR arct 0 0 BoxW 0 BoxR arct MR FO}!
/Sc {N 3 -1 roll 0 360 arc FO}!
/Sd {M 4 {dup} repeat 0 G neg dup dup D exch D D FO}!
/Se {N MS T R scale 0 0 1 0 360 arc MR FO}!
/Sg {M MS 22.5 R dup 0 exch G -22.5 R 0.765366865 mul dup 0 D 6 {-45 R dup 0 D} repeat pop MR FO}!
/Sh {M MS dup 0 G -120 R dup 0 D 4 {-60 R dup 0 D} repeat pop MR FO}!
/Si {M MS dup neg 0 exch G 60 R 1.732050808 mul dup 0 D 120 R 0 D MR FO}!
/Sj {M MS R dup -2 div 2 index -2 div G dup 0 D exch 0 exch D neg 0 D MR FO}!
/Sn {M MS dup 0 exch G -36 R 1.175570505 mul dup 0 D 3 {-72 R dup 0 D} repeat pop MR FO}!
/Sp {N 3 -1 roll 0 360 arc fs N}!
/SP {M {D} repeat FO}!
/Sr {M dup -2 div 2 index -2 div G dup 0 D exch 0 exch D neg 0 D FO}!
/SR {MS T /BoxR edef /BoxW edef /BoxH edef BoxR BoxW -2 div BoxH -2 div T BoxR 0 M
  BoxW 0 BoxW BoxH BoxR arct BoxW BoxH 0 BoxH BoxR arct 0 BoxH 0 0 BoxR arct 0 0 BoxW 0 BoxR arct MR FO}!
/Ss {M 1.414213562 mul dup dup dup -2 div dup G 0 D 0 exch D neg 0 D FO}!
/St {M MS dup 0 exch G -60 R 1.732050808 mul dup 0 D -120 R 0 D MR FO}!
/SV {0 exch M 0 D D D D D 0 D FO}!
/Sv {0 0 M D D 0 D D D D D 0 D D FO}!
/Sw {2 copy M 5 2 roll arc FO}!
/Sx {M 1.414213562 mul 5 {dup} repeat -2 div dup G D neg 0 G neg D S}!
/Sy {M dup 0 exch G dup -2 mul dup 0 exch D S}!
/S+ {M dup 0 G dup -2 mul dup 0 D exch dup G 0 exch D S}!
/S- {M dup 0 G dup -2 mul dup 0 D S}!
/sw {stringwidth pop}!
/sh {V MU 0 0 M FP pathbbox N 4 1 roll pop pop pop U}!
/sd {V MU 0 0 M FP pathbbox N pop pop exch pop U}!
/sH {V MU 0 0 M FP pathbbox N exch pop exch sub exch pop U}!
/sb {E exch sh}!
/bl {}!
/bc {E -2 div 0 G}!
/br {E neg 0 G}!
/ml {dup 0 exch sh -2 div G}!
/mc {dup E -2 div exch sh -2 div G}!
/mr {dup E neg exch sh -2 div G}!
/tl {dup 0 exch sh neg G}!
/tc {dup E -2 div exch sh neg G}!
/tr {dup E neg exch sh neg G}!
/mx {2 copy lt {exch} if pop}!
/PSL_xorig 0 def /PSL_yorig 0 def
/TM {2 copy T PSL_yorig add /PSL_yorig edef PSL_xorig add /PSL_xorig edef}!
/PSL_reencode {findfont dup length dict begin
  {1 index /FID ne {def}{pop pop} ifelse} forall
  exch /Encoding edef currentdict end definefont pop
}!
/PSL_eps_begin {
  /PSL_eps_state save def
  /PSL_dict_count countdictstack def
  /PSL_op_count count 1 sub def
  userdict begin
  /showpage {} def
  0 setgray 0 setlinecap 1 setlinewidth
  0 setlinejoin 10 setmiterlimit [] 0 setdash newpath
  /languagelevel where
  {pop languagelevel 1 ne {false setstrokeadjust false setoverprint} if} if
}!
/PSL_eps_end {
  count PSL_op_count sub {pop} repeat
  countdictstack PSL_dict_count sub {end} repeat
  PSL_eps_state restore
}!
/PSL_transp {
  /.setopacityalpha where {pop .setblendmode .setopacityalpha}{
  /pdfmark where {pop [ /BM exch /CA exch dup /ca exch /SetTransparency pdfmark}
  {pop pop} ifelse} ifelse
}!
/ISOLatin1+_Encoding [
/.notdef	/.notdef	/.notdef	/.notdef	/.notdef	/.notdef	/.notdef	/.notdef
/.notdef	/.notdef	/.notdef	/.notdef	/.notdef	/.notdef	/.notdef	/.notdef
/.notdef	/.notdef	/.notdef	/.notdef	/.notdef	/.notdef	/.notdef	/.notdef
/.notdef	/bullet		/ellipsis	/trademark	/emdash		/endash		/fi		/zcaron
/space		/exclam		/quotedbl	/numbersign	/dollar		/percent	/ampersand	/quoteright
/parenleft	/parenright	/asterisk	/plus		/comma		/minus		/period		/slash
/zero		/one		/two		/three		/four		/five		/six		/seven
/eight		/nine		/colon		/semicolon	/less		/equal		/greater	/question
/at		/A		/B		/C		/D		/E		/F		/G
/H		/I		/J		/K		/L		/M		/N		/O
/P		/Q		/R		/S		/T		/U		/V		/W
/X		/Y		/Z		/bracketleft	/backslash	/bracketright	/asciicircum	/underscore
/quoteleft	/a		/b		/c 		/d		/e		/f		/g
/h		/i		/j		/k		/l		/m		/n		/o
/p		/q		/r		/s		/t		/u		/v		/w
/x		/y		/z		/braceleft	/bar		/braceright	/asciitilde	/scaron
/OE		/dagger		/daggerdbl	/Lslash		/fraction	/guilsinglleft	/Scaron		/guilsinglright
/oe		/Ydieresis	/Zcaron		/lslash		/perthousand	/quotedblbase	/quotedblleft	/quotedblright
/dotlessi	/grave		/acute		/circumflex	/tilde		/macron		/breve		/dotaccent
/dieresis	/quotesinglbase	/ring		/cedilla	/quotesingle	/hungarumlaut	/ogonek		/caron
/space		/exclamdown	/cent		/sterling	/currency	/yen		/brokenbar	/section
/dieresis	/copyright	/ordfeminine	/guillemotleft	/logicalnot	/hyphen		/registered	/macron
/degree		/plusminus	/twosuperior	/threesuperior	/acute		/mu		/paragraph	/periodcentered
/cedilla	/onesuperior	/ordmasculine	/guillemotright	/onequarter	/onehalf	/threequarters	/questiondown
/Agrave		/Aacute		/Acircumflex	/Atilde		/Adieresis	/Aring		/AE		/Ccedilla
/Egrave		/Eacute		/Ecircumflex	/Edieresis	/Igrave		/Iacute		/Icircumflex	/Idieresis
/Eth		/Ntilde		/Ograve		/Oacute		/Ocircumflex	/Otilde		/Odieresis	/multiply
/Oslash		/Ugrave		/Uacute		/Ucircumflex	/Udieresis	/Yacute		/Thorn		/germandbls
/agrave		/aacute		/acircumflex	/atilde		/adieresis	/aring		/ae		/ccedilla
/egrave		/eacute		/ecircumflex	/edieresis	/igrave		/iacute		/icircumflex	/idieresis
/eth		/ntilde		/ograve		/oacute		/ocircumflex	/otilde		/odieresis	/divide
/oslash		/ugrave		/uacute		/ucircumflex	/udieresis	/yacute		/thorn		/ydieresis
] def
/PSL_font_encode 0 0 0 0 0 0 0 0 0 0 0 0 0 0 0 0 0 0 0 0 0 0 0 0 0 0 0 0 0 0 0 0 0 0 0 0 0 0 0 39 array astore def
/F0 {/Helvetica Y}!
/F1 {/Helvetica-Bold Y}!
/F2 {/Helvetica-Oblique Y}!
/F3 {/Helvetica-BoldOblique Y}!
/F4 {/Times-Roman Y}!
/F5 {/Times-Bold Y}!
/F6 {/Times-Italic Y}!
/F7 {/Times-BoldItalic Y}!
/F8 {/Courier Y}!
/F9 {/Courier-Bold Y}!
/F10 {/Courier-Oblique Y}!
/F11 {/Courier-BoldOblique Y}!
/F12 {/Symbol Y}!
/F13 {/AvantGarde-Book Y}!
/F14 {/AvantGarde-BookOblique Y}!
/F15 {/AvantGarde-Demi Y}!
/F16 {/AvantGarde-DemiOblique Y}!
/F17 {/Bookman-Demi Y}!
/F18 {/Bookman-DemiItalic Y}!
/F19 {/Bookman-Light Y}!
/F20 {/Bookman-LightItalic Y}!
/F21 {/Helvetica-Narrow Y}!
/F22 {/Helvetica-Narrow-Bold Y}!
/F23 {/Helvetica-Narrow-Oblique Y}!
/F24 {/Helvetica-Narrow-BoldOblique Y}!
/F25 {/NewCenturySchlbk-Roman Y}!
/F26 {/NewCenturySchlbk-Italic Y}!
/F27 {/NewCenturySchlbk-Bold Y}!
/F28 {/NewCenturySchlbk-BoldItalic Y}!
/F29 {/Palatino-Roman Y}!
/F30 {/Palatino-Italic Y}!
/F31 {/Palatino-Bold Y}!
/F32 {/Palatino-BoldItalic Y}!
/F33 {/ZapfChancery-MediumItalic Y}!
/F34 {/ZapfDingbats Y}!
/F35 {/Ryumin-Light-EUC-H Y}!
/F36 {/Ryumin-Light-EUC-V Y}!
/F37 {/GothicBBB-Medium-EUC-H Y}!
/F38 {/GothicBBB-Medium-EUC-V Y}!
/PSL_pathtextdict 26 dict def
/PSL_pathtext
  {PSL_pathtextdict begin
    /textheight exch def
    /just exch def
    /offset exch def
    /str exch def
    /pathdist 0 def
    /setdist offset def
    /charcount 0 def
    /justy just 4 idiv textheight mul 2 div neg def
    V flattenpath
	{movetoproc} {linetoproc}
	{curvetoproc} {closepathproc}
	pathforall
    U N
    end
  } def
PSL_pathtextdict begin
/movetoproc
  { /newy exch def /newx exch def
    /firstx newx def /firsty newy def
    /ovr 0 def
    newx newy transform
    /cpy exch def /cpx exch def
  } def
/linetoproc
  { /oldx newx def /oldy newy def
    /newy exch def /newx exch def
    /dx newx oldx sub def
    /dy newy oldy sub def
    /dist dx dup mul dy dup mul add sqrt def
    dist 0 ne
    { /dsx dx dist div ovr mul def
      /dsy dy dist div ovr mul def
      oldx dsx add oldy dsy add transform
      /cpy exch def /cpx exch def
      /pathdist pathdist dist add def
      {setdist pathdist le
	  {charcount str length lt
	      {setchar} {exit} ifelse}
	  { /ovr setdist pathdist sub def
	    exit}
	  ifelse
      } loop
    } if
  } def
/curvetoproc
  { (ERROR: No curveto's after flattenpath!)
    print
  } def
/closepathproc
  {firstx firsty linetoproc
    firstx firsty movetoproc
  } def
/setchar
  { /char str charcount 1 getinterval def
    /charcount charcount 1 add def
    /charwidth char stringwidth pop def
    V cpx cpy itransform T
      dy dx atan R
      0 justy M
      char show
      0 justy neg G
      currentpoint transform
      /cpy exch def /cpx exch def
    U /setdist setdist charwidth add def
  } def
end
/PSL_curved_text_labels
{ /bits exch def
  /PSL_clippath bits 1 and 1 eq def
  /PSL_placetext bits 2 and 0 eq def
  /PSL_strokeline bits 4 and 4 eq def
  /PSL_firstcall bits 32 and 32 eq def
  /PSL_lastcall bits 64 and 64 eq def
  /PSL_fillbox bits 128 and 128 eq def
  /PSL_drawbox bits 256 and 256 eq def
  /PSL_n1 PSL_n 1 sub def
  /PSL_m1 PSL_m 1 sub def
  /PSL_usebox PSL_fillbox PSL_drawbox or def
  PSL_CT_calcstringwidth
  PSL_CT_calclinedist
  PSL_CT_addcutpoints
  PSL_clippath PSL_firstcall and
  {clipsave N clippath} if
  PSL_setlinepen
  /PSL_nn1 PSL_nn 1 sub def
  /n 0 def
  /k 0 def
  /j 0 def
  /PSL_seg 0 def
  /PSL_xp PSL_nn array def
  /PSL_yp PSL_nn array def
  PSL_xp 0 PSL_xx 0 get put
  PSL_yp 0 PSL_yy 0 get put
  1 1 PSL_nn1
  { /i exch def
    /node_type PSL_kind i get def
    /j j 1 add def
    PSL_xp j PSL_xx i get put
    PSL_yp j PSL_yy i get put
    node_type 1 eq
    {n 0 eq
      {PSL_CT_drawline}
      {	PSL_CT_reversepath
	PSL_CT_textline} ifelse
      /j 0 def
      PSL_xp j PSL_xx i get put
      PSL_yp j PSL_yy i get put
    } if
  } for
  n 0 eq {PSL_CT_drawline} if
  PSL_lastcall
  {PSL_clippath
    {PSL_clip} if N
  } if
} def
/PSL_CT_textline
{PSL_placetext
  {PSL_clippath
    {PSL_CT_clippath} {PSL_CT_placelabel} ifelse
  } if
  /n 0 def /k k 1 add def PSL_setlinepen
} def
/PSL_CT_calcstringwidth
{ /PSL_width PSL_m array def
  0 1 PSL_m1
  { /i exch def
    PSL_width i PSL_str i get stringwidth pop put
  } for
} def
/PSL_CT_calclinedist
{ /PSL_newx PSL_x 0 get def
  /PSL_newy PSL_y 0 get def
  /dist 0.0 def
  /PSL_dist PSL_n array def
  PSL_dist 0 0.0 put
  1 1 PSL_n1
  { /i exch def
    /PSL_oldx PSL_newx def
    /PSL_oldy PSL_newy def
    /PSL_newx PSL_x i get def
    /PSL_newy PSL_y i get def
    /dx PSL_newx PSL_oldx sub def
    /dy PSL_newy PSL_oldy sub def
    /dist dist dx dx mul dy dy mul add sqrt add def
    PSL_dist i dist put
  } for
} def
/PSL_CT_addcutpoints
{ /k 0 def
  /PSL_nc PSL_m 2 mul 1 add def
  /PSL_cuts PSL_nc array def
  /PSL_nc1 PSL_nc 1 sub def
  0 1 PSL_m1
  { /i exch def
    /dist PSL_dist PSL_node i get get def
    /halfwidth PSL_width i get 2 div PSL_gap_x add def
    PSL_cuts k dist halfwidth sub put
    /k k 1 add def
    PSL_cuts k dist halfwidth add put
    /k k 1 add def
  } for
  PSL_cuts k 100000.0 put
  /PSL_nn PSL_n PSL_m 2 mul add def
  /PSL_xx PSL_nn array def
  /PSL_yy PSL_nn array def
  /PSL_kind PSL_nn array def
  /j 0 def
  /k 0 def
  /dist 0.0 def
  0 1 PSL_n1
  { /i exch def
    /last_dist dist def
    /dist PSL_dist i get def
    k 1 PSL_nc1
    { /kk exch def
      /this_cut PSL_cuts kk get def
      dist this_cut gt
      { /ds dist last_dist sub def
	/f ds 0.0 eq {0.0} {dist this_cut sub ds div} ifelse def
	/i1 i 0 eq {0} {i 1 sub} ifelse def
	PSL_xx j PSL_x i get dup PSL_x i1 get sub f mul sub put
	PSL_yy j PSL_y i get dup PSL_y i1 get sub f mul sub put
	PSL_kind j 1 put
	/j j 1 add def
	/k k 1 add def
      } if
    } for
    dist PSL_cuts k get le
    {PSL_xx j PSL_x i get put PSL_yy j PSL_y i get put
      PSL_kind j 0 put
      /j j 1 add def
    } if
  } for
} def
/PSL_CT_reversepath
{PSL_xp j get PSL_xp 0 get lt
  {0 1 j 2 idiv
    { /left exch def
      /right j left sub def
      /tmp PSL_xp left get def
      PSL_xp left PSL_xp right get put
      PSL_xp right tmp put
      /tmp PSL_yp left get def
      PSL_yp left PSL_yp right get put
      PSL_yp right tmp put
    } for
  } if
} def
/PSL_CT_placelabel
{
  PSL_usebox
  {PSL_CT_clippath
    PSL_fillbox
    {V PSL_setboxrgb fill U} if
    PSL_drawbox
    {PSL_setboxpen S} if N
  } if
  PSL_settxtrgb PSL_CT_placeline PSL_str k get PSL_gap_x PSL_just PSL_height PSL_pathtext
} def
/PSL_CT_clippath
{
  /H PSL_height 2 div PSL_gap_y add def
  /xoff j 1 add array def
  /yoff j 1 add array def
  /angle 0 def
  0 1 j {
    /ii exch def
    /x PSL_xp ii get def
    /y PSL_yp ii get def
    ii 0 eq {
      /x1 PSL_xp 1 get def
      /y1 PSL_yp 1 get def
      /dx x1 x sub def
      /dy y1 y sub def
    }
    { /i1 ii 1 sub def
      /x1 PSL_xp i1 get def
      /y1 PSL_yp i1 get def
      /dx x x1 sub def
      /dy y y1 sub def
    } ifelse
    dx 0.0 ne dy 0.0 ne and
    { /angle dy dx atan 90 add def} if
    /sina angle sin def
    /cosa angle cos def
    xoff ii H cosa mul put
    yoff ii H sina mul put
  } for
  PSL_xp 0 get xoff 0 get add PSL_yp 0 get yoff 0 get add M
  1 1 j {
    /ii exch def
    PSL_xp ii get xoff ii get add PSL_yp ii get yoff ii get add L
  } for
  j -1 0 {
    /ii exch def
    PSL_xp ii get xoff ii get sub PSL_yp ii get yoff ii get sub L
  } for P
} def
/PSL_CT_drawline
{
  /str 20 string def
  PSL_strokeline
  {PSL_CT_placeline PSL_setlinepen S} if
  /PSL_seg PSL_seg 1 add def
  /n 1 def
} def
/PSL_CT_placeline
{PSL_xp 0 get PSL_yp 0 get M
  1 1 j { /ii exch def PSL_xp ii get PSL_yp ii get L} for
} def
/PSL_straight_text_labels
{
  /bits exch def
  /PSL_clippath bits 1 and 0 eq def
  /PSL_rounded bits 16 and 16 eq def
  /PSL_fillbox bits 128 and 128 eq def
  /PSL_drawbox bits 256 and 256 eq def
  /PSL_m1 PSL_m 1 sub def
  /PSL_justx PSL_just 4 mod 1 sub 2 div neg def
  /PSL_justy PSL_just 4 idiv PSL_height mul 2 div neg def
  /PSL_usebox PSL_fillbox PSL_drawbox or def
  PSL_clippath
  {PSL_ST_clippath}
  {PSL_usebox {PSL_ST_clippath} if
    PSL_ST_placelabel
  } ifelse
} def
/PSL_ST_placelabel
{PSL_settxtrgb
  0 1 PSL_m1
  { /k exch def
    /xp PSL_txt_x k get def
    /yp PSL_txt_y k get def
    V PSL_txt_x k get PSL_txt_y k get T
    PSL_angle k get R
    /BoxW PSL_str k get stringwidth pop def
    BoxW PSL_justx mul PSL_justy M
    PSL_str k get show
    U
  } for
} def
/PSL_ST_clippath
{N
  PSL_usebox not {clipsave clippath} if
  PSL_rounded {PSL_ST_clippath_round} {PSL_ST_clippath_rect} ifelse
  PSL_usebox
  {PSL_fillbox
    {V PSL_setboxrgb fill U} if
    PSL_drawbox
    {PSL_setboxpen S} if N
  }
  {PSL_clip
  } ifelse
  N
} def
/PSL_ST_clippath_rect
{
  /BoxH PSL_height PSL_gap_y 2 mul add def
  /DelY BoxH BoxH 0 3 array astore def
  0 1 PSL_m1
  { /k exch def
    /xp PSL_txt_x k get def
    /yp PSL_txt_y k get def
    /MAT PSL_angle k get matrix R def
    /BoxW PSL_str k get stringwidth pop PSL_gap_x 2 mul add def
    /x0 0 BoxW PSL_justx mul add def
    /y0 0 PSL_justy add PSL_gap_y sub def
    /DelX 0 BoxW BoxW 3 array astore def
    x0 y0 MAT transform
    /dy exch def /dx exch def
    xp dx add yp dy add M
    0 1 2
    {
      /ii exch def
      x0 DelX ii get add y0 DelY ii get add MAT transform
      /dy exch def /dx exch def
      xp dx add yp dy add L
    } for P
  } for
} def
/PSL_ST_clippath_round
{
  /PSL_justy2 PSL_just 4 idiv 2 div neg def
  /BoxR PSL_gap_x PSL_gap_y lt {PSL_gap_x} {PSL_gap_y} ifelse def
  /BoxH PSL_height PSL_gap_y 2 mul add def
  /y0 PSL_height PSL_gap_y 2 mul add PSL_justy2 mul def
  0 1 PSL_m1
  { /k exch def
    /xp PSL_txt_x k get def
    /yp PSL_txt_y k get def
    /BoxW PSL_str k get stringwidth pop PSL_gap_x 2 mul add def
    /x0 BoxW PSL_justx mul def
    xp yp T PSL_angle k get R x0 y0 T
    BoxR 0 M
    BoxW 0 BoxW BoxH BoxR arct BoxW BoxH 0 BoxH BoxR arct 0 BoxH 0 0 BoxR arct 0 0 BoxW 0 BoxR arct P
    x0 neg y0 neg T PSL_angle k get neg R xp neg yp neg T
  } for
} def
/PSL_nclip 0 def
/PSL_clip {clip /PSL_nclip PSL_nclip 1 add def} def
/PSL_eoclip {eoclip /PSL_nclip PSL_nclip 1 add def} def
/PSL_cliprestore {cliprestore /PSL_nclip PSL_nclip 1 sub def} def
%%EndProlog

%%BeginSetup
/PSLevel /languagelevel where {pop languagelevel} {1} ifelse def
PSLevel 1 gt { << /PageSize [595 842] /ImagingBBox null >> setpagedevice } if
%%EndSetup

%%Page: 1 1

%%BeginPageSetup
V 0.06 0.06 scale
%%EndPageSetup

/PSL_page_xsize 9917 def
/PSL_page_ysize 14033 def
0 A
FQ
O0
3000 11400 TM

% PostScript produced by:
%%GMT: psbasemap -R-90.5/-62/0/650 -JX4i/-1.25i -Bxa5 -Bya100f50+lDepth [km] -BWeSn -X2.5i -Y9.5i -P -K
%%PROJ: xy -90.50000000 -62.00000000 0.00000000 650.00000000 -90.500 -62.000 650.000 -0.000 +xy +a=6378137.000 +b=6356752.314245
%%BeginObject PSL_Layer_1
0 setlinecap
0 setlinejoin
3.32551 setmiterlimit
2 setlinecap
/MM {neg exch M} def
/PSL_A0_y 83 def
/PSL_A1_y 0 def
25 W
0 1500 M 0 -1500 D S
8 W
0 1500 M -83 0 D S
0 1269 M -83 0 D S
0 1038 M -83 0 D S
0 808 M -83 0 D S
0 577 M -83 0 D S
0 346 M -83 0 D S
0 115 M -83 0 D S
/PSL_AH0 0
PSL_font_encode 0 get 0 eq {ISOLatin1+_Encoding /Helvetica /Helvetica PSL_reencode PSL_font_encode 0 1 put} if
200 F0
(0) sw mx
(100) sw mx
(200) sw mx
(300) sw mx
(400) sw mx
(500) sw mx
(600) sw mx
def
/PSL_A0_y PSL_A0_y 83 add def
1500 PSL_A0_y MM
(0) mr Z
1269 PSL_A0_y MM
(100) mr Z
1038 PSL_A0_y MM
(200) mr Z
808 PSL_A0_y MM
(300) mr Z
577 PSL_A0_y MM
(400) mr Z
346 PSL_A0_y MM
(500) mr Z
115 PSL_A0_y MM
(600) mr Z
/PSL_A0_y PSL_A0_y PSL_AH0 add def
0 1385 M -42 0 D S
0 1154 M -42 0 D S
0 923 M -42 0 D S
0 692 M -42 0 D S
0 462 M -42 0 D S
0 231 M -42 0 D S
0 0 M -42 0 D S
/PSL_LH 267 F0
(M) sh def
/PSL_L_y PSL_A0_y PSL_A1_y mx 133 add def
750 PSL_L_y MM
V 90 R (Depth \[km\]) bc Z U
4800 0 T
/MM {exch M} def
/PSL_A0_y 83 def
/PSL_A1_y 0 def
25 W
0 1500 M 0 -1500 D S
8 W
0 1500 M 83 0 D S
0 1269 M 83 0 D S
0 1038 M 83 0 D S
0 808 M 83 0 D S
0 577 M 83 0 D S
0 346 M 83 0 D S
0 115 M 83 0 D S
0 1385 M 42 0 D S
0 1154 M 42 0 D S
0 923 M 42 0 D S
0 692 M 42 0 D S
0 462 M 42 0 D S
0 231 M 42 0 D S
0 0 M 42 0 D S
/PSL_LH 0 def /PSL_L_y PSL_A0_y PSL_A1_y mx def
-4800 0 T
/MM {neg M} def
/PSL_A0_y 83 def
/PSL_A1_y 0 def
25 W
0 0 M 4800 0 D S
8 W
84 0 M 0 -83 D S
926 0 M 0 -83 D S
1768 0 M 0 -83 D S
2611 0 M 0 -83 D S
3453 0 M 0 -83 D S
4295 0 M 0 -83 D S
/PSL_AH0 0
200 F0
(-90) sh mx
(-85) sh mx
(-80) sh mx
(-75) sh mx
(-70) sh mx
(-65) sh mx
def
/PSL_A0_y PSL_A0_y 83 add PSL_AH0 add def
84 PSL_A0_y MM
(-90) bc Z
926 PSL_A0_y MM
(-85) bc Z
1768 PSL_A0_y MM
(-80) bc Z
2611 PSL_A0_y MM
(-75) bc Z
3453 PSL_A0_y MM
(-70) bc Z
4295 PSL_A0_y MM
(-65) bc Z
/PSL_LH 0 def /PSL_L_y PSL_A0_y PSL_A1_y mx def
0 1500 T
/MM {M} def
/PSL_A0_y 83 def
/PSL_A1_y 0 def
25 W
0 0 M 4800 0 D S
8 W
84 0 M 0 83 D S
926 0 M 0 83 D S
1768 0 M 0 83 D S
2611 0 M 0 83 D S
3453 0 M 0 83 D S
4295 0 M 0 83 D S
/PSL_LH 0 def /PSL_L_y PSL_A0_y PSL_A1_y mx def
0 -1500 T
0 setlinecap
%%EndObject
0 A
FQ
O0
0 0 TM

% PostScript produced by:
%%GMT: psxy -R-90.5/-62/0/650 -JX4i/-1.25i -Sc0.07 -GSEAGREEN -Wthinnest -N -O -K
%%PROJ: xy -90.50000000 -62.00000000 0.00000000 650.00000000 -90.500 -62.000 650.000 -0.000 +xy +a=6378137.000 +b=6356752.314245
%%BeginObject PSL_Layer_2
0 setlinecap
0 setlinejoin
3.32551 setmiterlimit
4 W
V
{0.18 0.545 0.341 C} FS
O1
17 3570 1230 Sc
17 3448 1302 Sc
17 4469 1470 Sc
17 4482 1477 Sc
17 4256 502 Sc
17 3517 1227 Sc
17 3451 1239 Sc
17 3337 1425 Sc
17 3942 877 Sc
17 3626 1220 Sc
17 3534 1268 Sc
17 3822 1068 Sc
17 3828 1091 Sc
17 3591 1180 Sc
17 3543 1238 Sc
17 3212 1448 Sc
17 3501 1306 Sc
17 3536 1264 Sc
17 3267 1498 Sc
17 3585 1196 Sc
17 3279 1252 Sc
17 3542 1245 Sc
17 3519 1243 Sc
17 3474 1274 Sc
17 3541 1264 Sc
17 3536 1232 Sc
17 3514 1233 Sc
17 3859 1126 Sc
17 3541 1201 Sc
17 3528 1269 Sc
17 3584 1157 Sc
17 3402 1492 Sc
17 3486 1267 Sc
17 3502 1231 Sc
17 3507 1268 Sc
17 3552 1236 Sc
17 3554 1218 Sc
17 3606 1231 Sc
17 3701 1401 Sc
17 3349 1376 Sc
17 3850 1055 Sc
17 3506 1221 Sc
17 3557 1250 Sc
17 3443 1279 Sc
17 3463 1247 Sc
17 3105 1379 Sc
17 3543 1188 Sc
17 3615 1234 Sc
17 3530 1258 Sc
17 3561 1258 Sc
17 3219 1434 Sc
17 3490 1181 Sc
17 3539 1212 Sc
17 4109 839 Sc
17 3327 1500 Sc
17 3559 1269 Sc
17 3594 1241 Sc
17 3554 1250 Sc
17 3583 1227 Sc
17 3576 1245 Sc
17 3515 1194 Sc
17 3612 1155 Sc
17 3264 1463 Sc
17 3438 1388 Sc
17 3642 1200 Sc
17 4587 1420 Sc
17 4572 1494 Sc
17 4627 1485 Sc
17 3363 1405 Sc
17 4563 1379 Sc
17 3607 1153 Sc
17 3383 1412 Sc
17 3490 1319 Sc
17 3557 1200 Sc
17 3571 1178 Sc
17 3431 1371 Sc
17 3510 1271 Sc
17 3526 1227 Sc
17 3527 1221 Sc
17 3294 1418 Sc
17 3303 1381 Sc
17 3283 1444 Sc
17 3539 1212 Sc
17 3283 1447 Sc
17 3991 962 Sc
17 3569 1240 Sc
17 2983 1438 Sc
17 3555 1286 Sc
17 3275 1491 Sc
17 3283 1492 Sc
17 3362 1279 Sc
17 3283 1444 Sc
17 3542 1221 Sc
17 3324 1488 Sc
17 3337 1476 Sc
17 3342 1327 Sc
17 3334 1488 Sc
17 3285 1500 Sc
17 3320 1463 Sc
17 3320 1482 Sc
17 3561 1258 Sc
17 3326 1437 Sc
17 3496 1416 Sc
17 3314 1486 Sc
17 3101 1223 Sc
17 3309 1468 Sc
17 3158 1455 Sc
17 3298 1418 Sc
17 4569 1347 Sc
17 4536 1318 Sc
17 3527 1184 Sc
17 3564 1212 Sc
17 3447 1201 Sc
17 3296 1419 Sc
17 3314 1371 Sc
17 3285 1436 Sc
17 3293 1449 Sc
17 3184 1491 Sc
17 3949 910 Sc
17 3575 1182 Sc
17 3563 1212 Sc
17 3283 1402 Sc
17 3981 915 Sc
17 4523 1486 Sc
17 4494 1401 Sc
17 3525 1210 Sc
17 2859 1500 Sc
17 4514 1360 Sc
17 3205 1420 Sc
17 3551 1174 Sc
17 3595 1165 Sc
17 3472 1239 Sc
17 3594 1242 Sc
17 3615 1234 Sc
17 3547 1234 Sc
17 3589 1262 Sc
17 3523 1180 Sc
17 3234 1428 Sc
17 3579 1200 Sc
17 3581 1256 Sc
17 3551 1107 Sc
17 3547 1129 Sc
17 3584 1224 Sc
17 3249 1425 Sc
17 3536 1266 Sc
17 3632 1198 Sc
17 3625 1499 Sc
U
%%EndObject
0 A
FQ
O0
0 0 TM

% PostScript produced by:
%%GMT: pstext -R-90.5/-62/0/650 -JX4i/-1.25i -F+f14,31,+j -N -O -K
%%PROJ: xy -90.50000000 -62.00000000 0.00000000 650.00000000 -90.500 -62.000 650.000 -0.000 +xy +a=6378137.000 +b=6356752.314245
%%BeginObject PSL_Layer_3
0 setlinecap
0 setlinejoin
3.32551 setmiterlimit
0 1615 M PSL_font_encode 31 get 0 eq {ISOLatin1+_Encoding /Palatino-Bold /Palatino-Bold PSL_reencode PSL_font_encode 31 1 put} if
233 F31
(1) Z
4800 1615 M V MU 0 0 M (1) FP 0 82 G 163 F31 (') FP 0 -82 G pathbbox N pop exch pop add U neg 0 G
(1) Z
0 82 G 163 F31 (') Z
0 -82 G %%EndObject
0 A
FQ
O0
0 -2400 TM

% PostScript produced by:
%%GMT: psbasemap -R-90.5/-62/0/650 -JX4i/-1.25i -Bxa5 -Bya100f50+lDepth [km] -BWeSn -Y-2i -O -K
%%PROJ: xy -90.50000000 -62.00000000 0.00000000 650.00000000 -90.500 -62.000 650.000 -0.000 +xy +a=6378137.000 +b=6356752.314245
%%BeginObject PSL_Layer_4
0 setlinecap
0 setlinejoin
3.32551 setmiterlimit
2 setlinecap
/MM {neg exch M} def
/PSL_A0_y 83 def
/PSL_A1_y 0 def
25 W
0 1500 M 0 -1500 D S
8 W
0 1500 M -83 0 D S
0 1269 M -83 0 D S
0 1038 M -83 0 D S
0 808 M -83 0 D S
0 577 M -83 0 D S
0 346 M -83 0 D S
0 115 M -83 0 D S
/PSL_AH0 0
PSL_font_encode 0 get 0 eq {ISOLatin1+_Encoding /Helvetica /Helvetica PSL_reencode PSL_font_encode 0 1 put} if
200 F0
(0) sw mx
(100) sw mx
(200) sw mx
(300) sw mx
(400) sw mx
(500) sw mx
(600) sw mx
def
/PSL_A0_y PSL_A0_y 83 add def
1500 PSL_A0_y MM
(0) mr Z
1269 PSL_A0_y MM
(100) mr Z
1038 PSL_A0_y MM
(200) mr Z
808 PSL_A0_y MM
(300) mr Z
577 PSL_A0_y MM
(400) mr Z
346 PSL_A0_y MM
(500) mr Z
115 PSL_A0_y MM
(600) mr Z
/PSL_A0_y PSL_A0_y PSL_AH0 add def
0 1385 M -42 0 D S
0 1154 M -42 0 D S
0 923 M -42 0 D S
0 692 M -42 0 D S
0 462 M -42 0 D S
0 231 M -42 0 D S
0 0 M -42 0 D S
/PSL_LH 267 F0
(M) sh def
/PSL_L_y PSL_A0_y PSL_A1_y mx 133 add def
750 PSL_L_y MM
V 90 R (Depth \[km\]) bc Z U
4800 0 T
/MM {exch M} def
/PSL_A0_y 83 def
/PSL_A1_y 0 def
25 W
0 1500 M 0 -1500 D S
8 W
0 1500 M 83 0 D S
0 1269 M 83 0 D S
0 1038 M 83 0 D S
0 808 M 83 0 D S
0 577 M 83 0 D S
0 346 M 83 0 D S
0 115 M 83 0 D S
0 1385 M 42 0 D S
0 1154 M 42 0 D S
0 923 M 42 0 D S
0 692 M 42 0 D S
0 462 M 42 0 D S
0 231 M 42 0 D S
0 0 M 42 0 D S
/PSL_LH 0 def /PSL_L_y PSL_A0_y PSL_A1_y mx def
-4800 0 T
/MM {neg M} def
/PSL_A0_y 83 def
/PSL_A1_y 0 def
25 W
0 0 M 4800 0 D S
8 W
84 0 M 0 -83 D S
926 0 M 0 -83 D S
1768 0 M 0 -83 D S
2611 0 M 0 -83 D S
3453 0 M 0 -83 D S
4295 0 M 0 -83 D S
/PSL_AH0 0
200 F0
(-90) sh mx
(-85) sh mx
(-80) sh mx
(-75) sh mx
(-70) sh mx
(-65) sh mx
def
/PSL_A0_y PSL_A0_y 83 add PSL_AH0 add def
84 PSL_A0_y MM
(-90) bc Z
926 PSL_A0_y MM
(-85) bc Z
1768 PSL_A0_y MM
(-80) bc Z
2611 PSL_A0_y MM
(-75) bc Z
3453 PSL_A0_y MM
(-70) bc Z
4295 PSL_A0_y MM
(-65) bc Z
/PSL_LH 0 def /PSL_L_y PSL_A0_y PSL_A1_y mx def
0 1500 T
/MM {M} def
/PSL_A0_y 83 def
/PSL_A1_y 0 def
25 W
0 0 M 4800 0 D S
8 W
84 0 M 0 83 D S
926 0 M 0 83 D S
1768 0 M 0 83 D S
2611 0 M 0 83 D S
3453 0 M 0 83 D S
4295 0 M 0 83 D S
/PSL_LH 0 def /PSL_L_y PSL_A0_y PSL_A1_y mx def
0 -1500 T
0 setlinecap
%%EndObject
0 A
FQ
O0
0 0 TM

% PostScript produced by:
%%GMT: psxy -R-90.5/-62/0/650 -JX4i/-1.25i -Sc0.07 -GSEAGREEN -Wthinnest -N -O -K
%%PROJ: xy -90.50000000 -62.00000000 0.00000000 650.00000000 -90.500 -62.000 650.000 -0.000 +xy +a=6378137.000 +b=6356752.314245
%%BeginObject PSL_Layer_5
0 setlinecap
0 setlinejoin
3.32551 setmiterlimit
4 W
V
{0.18 0.545 0.341 C} FS
O1
17 3665 1259 Sc
17 4519 250 Sc
17 4085 1022 Sc
17 3976 1016 Sc
17 3998 1096 Sc
17 3973 1063 Sc
17 4090 922 Sc
17 3946 1074 Sc
17 4083 1364 Sc
17 3887 1038 Sc
17 4523 389 Sc
17 4040 1014 Sc
17 3969 1031 Sc
17 4112 961 Sc
17 3724 1239 Sc
17 3944 1073 Sc
17 3539 1314 Sc
17 3988 1036 Sc
17 4514 286 Sc
17 3680 1268 Sc
17 3634 1263 Sc
17 3955 1082 Sc
17 3925 1109 Sc
17 3644 1278 Sc
17 3924 1102 Sc
17 3906 925 Sc
17 4018 914 Sc
17 3965 1037 Sc
17 3552 1310 Sc
17 3917 1070 Sc
17 4143 869 Sc
17 3935 1079 Sc
17 3981 1040 Sc
17 3975 1046 Sc
17 3961 1064 Sc
17 4014 948 Sc
17 3604 1336 Sc
17 3327 1440 Sc
17 3960 1073 Sc
17 3948 1274 Sc
17 3975 1012 Sc
17 3975 1031 Sc
17 3891 1078 Sc
17 4008 1034 Sc
17 3973 1050 Sc
17 4067 999 Sc
17 3557 1296 Sc
17 3876 1107 Sc
17 3948 1123 Sc
17 3629 1264 Sc
17 3670 1269 Sc
17 3999 1039 Sc
17 4118 950 Sc
17 4013 1003 Sc
17 3909 1044 Sc
17 3932 1095 Sc
17 3974 1055 Sc
17 3973 1051 Sc
17 3996 1051 Sc
17 4030 979 Sc
17 4043 1023 Sc
17 4063 1001 Sc
17 3970 1030 Sc
17 4519 254 Sc
17 3902 1093 Sc
17 3534 1290 Sc
17 3898 928 Sc
17 4035 1001 Sc
17 4107 932 Sc
17 3978 1054 Sc
17 3976 1038 Sc
17 3951 1017 Sc
17 3988 1050 Sc
17 3908 946 Sc
17 4416 1468 Sc
17 4045 1008 Sc
17 3386 1387 Sc
17 3998 1029 Sc
17 3963 1088 Sc
17 4054 961 Sc
17 3552 1333 Sc
17 3951 1110 Sc
17 3586 1292 Sc
17 4112 963 Sc
17 3382 1410 Sc
17 3919 1101 Sc
17 3986 1019 Sc
17 4435 1463 Sc
17 3986 1042 Sc
17 3768 1191 Sc
17 3678 1243 Sc
17 3985 1024 Sc
17 4076 1054 Sc
17 3922 1101 Sc
17 4398 1463 Sc
17 3945 1062 Sc
17 4093 985 Sc
17 3970 1096 Sc
17 4102 901 Sc
17 3902 1072 Sc
17 3964 1041 Sc
17 3990 1035 Sc
17 3575 1300 Sc
17 4078 882 Sc
17 3995 1031 Sc
17 4033 1003 Sc
17 3956 1127 Sc
17 4028 1115 Sc
17 3990 1051 Sc
17 3354 1453 Sc
17 3338 1452 Sc
17 4529 252 Sc
17 3906 1131 Sc
17 4011 1023 Sc
17 4492 271 Sc
17 3945 1057 Sc
17 3964 1045 Sc
17 3618 1287 Sc
17 3940 1081 Sc
17 3938 1108 Sc
17 3555 1263 Sc
17 4037 1018 Sc
17 4000 1021 Sc
17 3639 1306 Sc
17 3562 1307 Sc
17 3908 1079 Sc
17 4050 1011 Sc
17 3949 1102 Sc
17 3985 1039 Sc
17 3653 1261 Sc
17 3935 1078 Sc
17 3796 1211 Sc
17 3935 1100 Sc
17 3700 1219 Sc
17 4527 304 Sc
17 3472 1373 Sc
17 4314 1393 Sc
17 4099 933 Sc
17 4512 264 Sc
17 3763 1224 Sc
17 3967 1029 Sc
17 3988 1027 Sc
17 4504 274 Sc
17 4134 901 Sc
17 3859 971 Sc
17 4053 904 Sc
17 3555 1299 Sc
17 3622 1256 Sc
17 3744 1227 Sc
17 4264 1412 Sc
17 3950 1062 Sc
17 3605 1299 Sc
17 3708 1221 Sc
17 3921 992 Sc
17 3705 1236 Sc
17 3991 1022 Sc
17 3914 1071 Sc
17 3380 1401 Sc
17 3988 1060 Sc
17 3930 1089 Sc
17 3908 1007 Sc
17 3607 1288 Sc
17 3842 1059 Sc
17 3950 1080 Sc
17 3680 1257 Sc
17 3984 1050 Sc
17 3685 1264 Sc
17 4399 1473 Sc
17 3948 1083 Sc
17 4310 1328 Sc
17 3917 1085 Sc
17 3793 1239 Sc
17 3988 1026 Sc
17 3798 1201 Sc
17 3969 1089 Sc
17 3922 1085 Sc
17 3760 881 Sc
17 3415 1390 Sc
17 3997 1047 Sc
17 3927 1095 Sc
17 3985 1050 Sc
17 3744 1208 Sc
17 3981 1181 Sc
17 3969 1024 Sc
17 3976 1018 Sc
17 4014 1002 Sc
17 3720 1255 Sc
17 4028 1015 Sc
17 3490 1303 Sc
17 3985 1046 Sc
17 3739 1220 Sc
17 3687 1261 Sc
17 3707 1300 Sc
17 3950 1143 Sc
17 4004 1057 Sc
17 3620 1264 Sc
17 4085 960 Sc
17 3959 1042 Sc
17 4086 910 Sc
17 3368 1299 Sc
17 4043 906 Sc
17 4094 917 Sc
17 3986 1044 Sc
17 3495 1313 Sc
17 3974 1063 Sc
17 3743 1189 Sc
17 3916 1185 Sc
17 3648 1290 Sc
17 4000 1057 Sc
17 3639 1272 Sc
17 3938 1101 Sc
17 4298 1417 Sc
17 4133 1064 Sc
17 3367 1373 Sc
17 3631 1278 Sc
17 3946 1080 Sc
17 3823 1239 Sc
17 3961 1036 Sc
17 4061 926 Sc
17 4023 1101 Sc
17 3734 1017 Sc
17 3786 1352 Sc
17 3906 1019 Sc
17 3984 1034 Sc
17 4053 902 Sc
17 3919 1105 Sc
17 4020 1045 Sc
17 3654 1306 Sc
17 3991 1016 Sc
17 3930 1089 Sc
17 3998 1044 Sc
17 4107 909 Sc
17 3421 1383 Sc
17 4006 986 Sc
17 3954 1074 Sc
17 3654 1282 Sc
17 3807 1185 Sc
17 3955 840 Sc
17 3752 1303 Sc
17 3990 1014 Sc
17 3676 706 Sc
17 3975 1037 Sc
17 3949 1062 Sc
17 3796 1216 Sc
17 3853 1084 Sc
17 3888 798 Sc
17 3673 1255 Sc
17 3822 1015 Sc
17 4076 1126 Sc
17 3674 1273 Sc
17 3982 1417 Sc
17 3982 1164 Sc
17 3937 1105 Sc
17 3807 957 Sc
17 3406 1377 Sc
17 3578 1283 Sc
17 3775 1103 Sc
17 3705 1332 Sc
17 4028 1000 Sc
17 3753 1163 Sc
17 3682 1244 Sc
17 3906 1086 Sc
17 4083 1124 Sc
17 3970 1167 Sc
17 3902 1050 Sc
17 3763 1214 Sc
17 3996 1026 Sc
17 4006 1027 Sc
17 4048 998 Sc
17 3668 1265 Sc
17 3975 1084 Sc
17 3993 1026 Sc
17 3303 1419 Sc
17 3932 1089 Sc
17 3305 1447 Sc
17 3958 1072 Sc
17 3729 1188 Sc
17 3980 1041 Sc
17 3510 1305 Sc
17 4077 970 Sc
17 3979 1056 Sc
17 3364 1408 Sc
17 3593 1272 Sc
17 3322 1459 Sc
17 4346 1382 Sc
17 3798 1228 Sc
17 3665 1228 Sc
17 3654 1279 Sc
17 4185 1155 Sc
17 3458 1376 Sc
17 3955 1055 Sc
17 4530 252 Sc
17 4008 1025 Sc
17 3988 1013 Sc
17 3988 1029 Sc
17 3732 1201 Sc
17 4049 1163 Sc
17 3570 1308 Sc
17 3551 1241 Sc
17 3969 1033 Sc
17 3971 996 Sc
17 3959 1048 Sc
17 3653 1266 Sc
17 3976 1047 Sc
17 3960 1064 Sc
17 4021 1008 Sc
17 3879 1108 Sc
17 3717 1312 Sc
17 3767 1205 Sc
17 3655 1205 Sc
17 3937 1092 Sc
17 4506 270 Sc
17 4506 300 Sc
17 4045 1073 Sc
17 3987 1058 Sc
17 3396 1358 Sc
17 3723 1174 Sc
17 3937 1101 Sc
17 3990 1050 Sc
17 3970 1075 Sc
17 3629 952 Sc
17 3996 1059 Sc
17 3983 1020 Sc
17 3976 1082 Sc
17 3942 1089 Sc
17 4601 208 Sc
17 3972 1175 Sc
17 3325 1416 Sc
17 3940 1057 Sc
17 3991 1008 Sc
17 3998 1012 Sc
17 3960 1017 Sc
17 3922 1143 Sc
17 3971 1061 Sc
17 3986 1033 Sc
17 3496 1317 Sc
17 4092 932 Sc
17 3409 1313 Sc
17 3983 1076 Sc
17 3790 1115 Sc
17 3766 1175 Sc
17 4000 1026 Sc
17 4006 1032 Sc
17 3937 1084 Sc
17 3939 1083 Sc
17 4000 1024 Sc
17 3969 1029 Sc
17 3979 1053 Sc
17 4103 1003 Sc
17 3934 1088 Sc
17 4050 985 Sc
17 3797 1237 Sc
17 3993 996 Sc
U
%%EndObject
0 A
FQ
O0
0 0 TM

% PostScript produced by:
%%GMT: pstext -R-90.5/-62/0/650 -JX4i/-1.25i -F+f14,31,+j -N -O -K
%%PROJ: xy -90.50000000 -62.00000000 0.00000000 650.00000000 -90.500 -62.000 650.000 -0.000 +xy +a=6378137.000 +b=6356752.314245
%%BeginObject PSL_Layer_6
0 setlinecap
0 setlinejoin
3.32551 setmiterlimit
0 1615 M PSL_font_encode 31 get 0 eq {ISOLatin1+_Encoding /Palatino-Bold /Palatino-Bold PSL_reencode PSL_font_encode 31 1 put} if
233 F31
(2) Z
4716 1615 M V MU 0 0 M (2) FP 0 82 G 163 F31 (') FP 0 -82 G pathbbox N pop exch pop add U neg 0 G
(2) Z
0 82 G 163 F31 (') Z
0 -82 G %%EndObject
0 A
FQ
O0
0 -2400 TM

% PostScript produced by:
%%GMT: psbasemap -R-90.5/-62/0/650 -JX4i/-1.25i -Bxa5 -Bya100f50+lDepth [km] -BWeSn -Y-2i -O -K
%%PROJ: xy -90.50000000 -62.00000000 0.00000000 650.00000000 -90.500 -62.000 650.000 -0.000 +xy +a=6378137.000 +b=6356752.314245
%%BeginObject PSL_Layer_7
0 setlinecap
0 setlinejoin
3.32551 setmiterlimit
2 setlinecap
/MM {neg exch M} def
/PSL_A0_y 83 def
/PSL_A1_y 0 def
25 W
0 1500 M 0 -1500 D S
8 W
0 1500 M -83 0 D S
0 1269 M -83 0 D S
0 1038 M -83 0 D S
0 808 M -83 0 D S
0 577 M -83 0 D S
0 346 M -83 0 D S
0 115 M -83 0 D S
/PSL_AH0 0
PSL_font_encode 0 get 0 eq {ISOLatin1+_Encoding /Helvetica /Helvetica PSL_reencode PSL_font_encode 0 1 put} if
200 F0
(0) sw mx
(100) sw mx
(200) sw mx
(300) sw mx
(400) sw mx
(500) sw mx
(600) sw mx
def
/PSL_A0_y PSL_A0_y 83 add def
1500 PSL_A0_y MM
(0) mr Z
1269 PSL_A0_y MM
(100) mr Z
1038 PSL_A0_y MM
(200) mr Z
808 PSL_A0_y MM
(300) mr Z
577 PSL_A0_y MM
(400) mr Z
346 PSL_A0_y MM
(500) mr Z
115 PSL_A0_y MM
(600) mr Z
/PSL_A0_y PSL_A0_y PSL_AH0 add def
0 1385 M -42 0 D S
0 1154 M -42 0 D S
0 923 M -42 0 D S
0 692 M -42 0 D S
0 462 M -42 0 D S
0 231 M -42 0 D S
0 0 M -42 0 D S
/PSL_LH 267 F0
(M) sh def
/PSL_L_y PSL_A0_y PSL_A1_y mx 133 add def
750 PSL_L_y MM
V 90 R (Depth \[km\]) bc Z U
4800 0 T
/MM {exch M} def
/PSL_A0_y 83 def
/PSL_A1_y 0 def
25 W
0 1500 M 0 -1500 D S
8 W
0 1500 M 83 0 D S
0 1269 M 83 0 D S
0 1038 M 83 0 D S
0 808 M 83 0 D S
0 577 M 83 0 D S
0 346 M 83 0 D S
0 115 M 83 0 D S
0 1385 M 42 0 D S
0 1154 M 42 0 D S
0 923 M 42 0 D S
0 692 M 42 0 D S
0 462 M 42 0 D S
0 231 M 42 0 D S
0 0 M 42 0 D S
/PSL_LH 0 def /PSL_L_y PSL_A0_y PSL_A1_y mx def
-4800 0 T
/MM {neg M} def
/PSL_A0_y 83 def
/PSL_A1_y 0 def
25 W
0 0 M 4800 0 D S
8 W
84 0 M 0 -83 D S
926 0 M 0 -83 D S
1768 0 M 0 -83 D S
2611 0 M 0 -83 D S
3453 0 M 0 -83 D S
4295 0 M 0 -83 D S
/PSL_AH0 0
200 F0
(-90) sh mx
(-85) sh mx
(-80) sh mx
(-75) sh mx
(-70) sh mx
(-65) sh mx
def
/PSL_A0_y PSL_A0_y 83 add PSL_AH0 add def
84 PSL_A0_y MM
(-90) bc Z
926 PSL_A0_y MM
(-85) bc Z
1768 PSL_A0_y MM
(-80) bc Z
2611 PSL_A0_y MM
(-75) bc Z
3453 PSL_A0_y MM
(-70) bc Z
4295 PSL_A0_y MM
(-65) bc Z
/PSL_LH 0 def /PSL_L_y PSL_A0_y PSL_A1_y mx def
0 1500 T
/MM {M} def
/PSL_A0_y 83 def
/PSL_A1_y 0 def
25 W
0 0 M 4800 0 D S
8 W
84 0 M 0 83 D S
926 0 M 0 83 D S
1768 0 M 0 83 D S
2611 0 M 0 83 D S
3453 0 M 0 83 D S
4295 0 M 0 83 D S
/PSL_LH 0 def /PSL_L_y PSL_A0_y PSL_A1_y mx def
0 -1500 T
0 setlinecap
%%EndObject
0 A
FQ
O0
0 0 TM

% PostScript produced by:
%%GMT: psxy -R-90.5/-62/0/650 -JX4i/-1.25i -Sc0.07 -GSEAGREEN -Wthinnest -N -O -K
%%PROJ: xy -90.50000000 -62.00000000 0.00000000 650.00000000 -90.500 -62.000 650.000 -0.000 +xy +a=6378137.000 +b=6356752.314245
%%BeginObject PSL_Layer_8
0 setlinecap
0 setlinejoin
3.32551 setmiterlimit
4 W
V
{0.18 0.545 0.341 C} FS
O1
17 4169 1456 Sc
17 3297 1403 Sc
17 3897 1184 Sc
17 3295 1399 Sc
17 3259 1414 Sc
17 3748 1241 Sc
17 4600 204 Sc
17 3722 1344 Sc
17 3238 1412 Sc
17 4207 1438 Sc
17 3866 1174 Sc
17 3898 1198 Sc
17 4046 1148 Sc
17 3198 1390 Sc
17 3541 1259 Sc
17 3238 1387 Sc
17 3164 1418 Sc
17 3515 1239 Sc
17 4011 1119 Sc
17 4565 221 Sc
17 4581 219 Sc
17 4571 218 Sc
17 3297 1390 Sc
17 4003 1126 Sc
17 3233 1400 Sc
17 3436 1219 Sc
17 3993 1119 Sc
17 3835 1206 Sc
17 3848 1169 Sc
17 4602 156 Sc
17 3237 1408 Sc
17 4585 143 Sc
17 3877 1222 Sc
17 3244 1461 Sc
17 3349 1345 Sc
17 3229 1430 Sc
17 3398 1237 Sc
17 4568 231 Sc
17 3995 1093 Sc
17 3547 1256 Sc
17 3062 1499 Sc
17 3266 1393 Sc
17 4592 146 Sc
17 3238 1428 Sc
17 4602 157 Sc
17 4577 136 Sc
17 3373 1326 Sc
17 3256 1422 Sc
17 3343 1349 Sc
17 3365 982 Sc
17 3269 1358 Sc
17 4012 1145 Sc
17 3344 1358 Sc
17 3182 1500 Sc
17 3948 1379 Sc
17 3427 1300 Sc
17 3552 1218 Sc
17 3238 1339 Sc
17 3996 1138 Sc
17 3204 1368 Sc
17 4018 1101 Sc
17 3406 1311 Sc
17 3394 1296 Sc
17 3177 1435 Sc
17 3233 1406 Sc
17 3532 1259 Sc
17 3308 1383 Sc
17 3266 1415 Sc
17 3871 1181 Sc
17 3247 1498 Sc
17 4025 1110 Sc
17 4603 166 Sc
17 3542 1387 Sc
17 3932 1101 Sc
17 3527 1259 Sc
17 3816 1258 Sc
17 3518 1245 Sc
17 3619 1248 Sc
17 4539 80 Sc
17 4395 1450 Sc
17 3385 1279 Sc
17 3045 1500 Sc
17 3960 1142 Sc
17 4018 1112 Sc
17 3995 1107 Sc
17 3983 1117 Sc
17 3850 1195 Sc
17 3481 1248 Sc
17 3122 1477 Sc
17 3679 1257 Sc
17 3618 1249 Sc
17 3235 1410 Sc
17 3398 1281 Sc
17 3876 1174 Sc
17 3858 1168 Sc
17 4205 1460 Sc
17 4310 1457 Sc
17 3275 1360 Sc
17 3882 1191 Sc
17 3882 1182 Sc
17 3220 1384 Sc
17 3848 1201 Sc
17 1568 1380 Sc
17 3993 1136 Sc
17 3937 1167 Sc
17 3954 1199 Sc
17 4006 1115 Sc
17 3847 1235 Sc
17 3972 1117 Sc
17 3976 1140 Sc
17 3964 1361 Sc
17 4017 1097 Sc
17 3898 1213 Sc
17 3483 1270 Sc
17 3801 1245 Sc
17 3976 1085 Sc
17 3253 1408 Sc
17 4045 1092 Sc
17 3224 1382 Sc
17 3949 1191 Sc
17 3256 1411 Sc
17 3644 1396 Sc
17 3681 1498 Sc
17 4658 74 Sc
17 3616 1257 Sc
17 3869 1219 Sc
17 4037 1087 Sc
17 3179 1409 Sc
17 3214 1423 Sc
17 3633 1261 Sc
17 4067 1299 Sc
17 3481 1263 Sc
17 3307 1370 Sc
17 3266 1421 Sc
17 4040 1203 Sc
17 3569 1243 Sc
17 3579 1257 Sc
17 3615 1266 Sc
17 4566 174 Sc
17 4011 1129 Sc
17 3985 1080 Sc
17 3235 1409 Sc
17 4027 1101 Sc
17 3273 1411 Sc
17 3214 1419 Sc
17 3279 1410 Sc
17 3538 1245 Sc
17 3153 1452 Sc
17 3266 1398 Sc
17 3865 1193 Sc
17 3002 1500 Sc
17 4618 71 Sc
17 3214 1414 Sc
17 4053 1084 Sc
17 3796 1413 Sc
17 3316 1371 Sc
17 3182 1459 Sc
17 3195 1499 Sc
17 3877 1343 Sc
17 3674 1243 Sc
17 3620 1263 Sc
17 3156 1464 Sc
17 3448 1353 Sc
17 3224 1415 Sc
17 3886 1198 Sc
17 3227 1426 Sc
17 3224 1397 Sc
17 3235 1362 Sc
17 3254 1499 Sc
17 3109 1500 Sc
17 3187 1407 Sc
U
%%EndObject
0 A
FQ
O0
0 0 TM

% PostScript produced by:
%%GMT: pstext -R-90.5/-62/0/650 -JX4i/-1.25i -F+f14,31,+j -N -O -K
%%PROJ: xy -90.50000000 -62.00000000 0.00000000 650.00000000 -90.500 -62.000 650.000 -0.000 +xy +a=6378137.000 +b=6356752.314245
%%BeginObject PSL_Layer_9
0 setlinecap
0 setlinejoin
3.32551 setmiterlimit
0 1615 M PSL_font_encode 31 get 0 eq {ISOLatin1+_Encoding /Palatino-Bold /Palatino-Bold PSL_reencode PSL_font_encode 31 1 put} if
233 F31
(3) Z
4716 1615 M V MU 0 0 M (3) FP 0 82 G 163 F31 (') FP 0 -82 G pathbbox N pop exch pop add U neg 0 G
(3) Z
0 82 G 163 F31 (') Z
0 -82 G %%EndObject
0 A
FQ
O0
0 -2400 TM

% PostScript produced by:
%%GMT: psbasemap -R-90.5/-62/0/650 -JX4i/-1.25i -Bxa5 -Bya100f50+lDepth [km] -BWeSn -Y-2i -O -K
%%PROJ: xy -90.50000000 -62.00000000 0.00000000 650.00000000 -90.500 -62.000 650.000 -0.000 +xy +a=6378137.000 +b=6356752.314245
%%BeginObject PSL_Layer_10
0 setlinecap
0 setlinejoin
3.32551 setmiterlimit
2 setlinecap
/MM {neg exch M} def
/PSL_A0_y 83 def
/PSL_A1_y 0 def
25 W
0 1500 M 0 -1500 D S
8 W
0 1500 M -83 0 D S
0 1269 M -83 0 D S
0 1038 M -83 0 D S
0 808 M -83 0 D S
0 577 M -83 0 D S
0 346 M -83 0 D S
0 115 M -83 0 D S
/PSL_AH0 0
PSL_font_encode 0 get 0 eq {ISOLatin1+_Encoding /Helvetica /Helvetica PSL_reencode PSL_font_encode 0 1 put} if
200 F0
(0) sw mx
(100) sw mx
(200) sw mx
(300) sw mx
(400) sw mx
(500) sw mx
(600) sw mx
def
/PSL_A0_y PSL_A0_y 83 add def
1500 PSL_A0_y MM
(0) mr Z
1269 PSL_A0_y MM
(100) mr Z
1038 PSL_A0_y MM
(200) mr Z
808 PSL_A0_y MM
(300) mr Z
577 PSL_A0_y MM
(400) mr Z
346 PSL_A0_y MM
(500) mr Z
115 PSL_A0_y MM
(600) mr Z
/PSL_A0_y PSL_A0_y PSL_AH0 add def
0 1385 M -42 0 D S
0 1154 M -42 0 D S
0 923 M -42 0 D S
0 692 M -42 0 D S
0 462 M -42 0 D S
0 231 M -42 0 D S
0 0 M -42 0 D S
/PSL_LH 267 F0
(M) sh def
/PSL_L_y PSL_A0_y PSL_A1_y mx 133 add def
750 PSL_L_y MM
V 90 R (Depth \[km\]) bc Z U
4800 0 T
/MM {exch M} def
/PSL_A0_y 83 def
/PSL_A1_y 0 def
25 W
0 1500 M 0 -1500 D S
8 W
0 1500 M 83 0 D S
0 1269 M 83 0 D S
0 1038 M 83 0 D S
0 808 M 83 0 D S
0 577 M 83 0 D S
0 346 M 83 0 D S
0 115 M 83 0 D S
0 1385 M 42 0 D S
0 1154 M 42 0 D S
0 923 M 42 0 D S
0 692 M 42 0 D S
0 462 M 42 0 D S
0 231 M 42 0 D S
0 0 M 42 0 D S
/PSL_LH 0 def /PSL_L_y PSL_A0_y PSL_A1_y mx def
-4800 0 T
/MM {neg M} def
/PSL_A0_y 83 def
/PSL_A1_y 0 def
25 W
0 0 M 4800 0 D S
8 W
84 0 M 0 -83 D S
926 0 M 0 -83 D S
1768 0 M 0 -83 D S
2611 0 M 0 -83 D S
3453 0 M 0 -83 D S
4295 0 M 0 -83 D S
/PSL_AH0 0
200 F0
(-90) sh mx
(-85) sh mx
(-80) sh mx
(-75) sh mx
(-70) sh mx
(-65) sh mx
def
/PSL_A0_y PSL_A0_y 83 add PSL_AH0 add def
84 PSL_A0_y MM
(-90) bc Z
926 PSL_A0_y MM
(-85) bc Z
1768 PSL_A0_y MM
(-80) bc Z
2611 PSL_A0_y MM
(-75) bc Z
3453 PSL_A0_y MM
(-70) bc Z
4295 PSL_A0_y MM
(-65) bc Z
/PSL_LH 0 def /PSL_L_y PSL_A0_y PSL_A1_y mx def
0 1500 T
/MM {M} def
/PSL_A0_y 83 def
/PSL_A1_y 0 def
25 W
0 0 M 4800 0 D S
8 W
84 0 M 0 83 D S
926 0 M 0 83 D S
1768 0 M 0 83 D S
2611 0 M 0 83 D S
3453 0 M 0 83 D S
4295 0 M 0 83 D S
/PSL_LH 0 def /PSL_L_y PSL_A0_y PSL_A1_y mx def
0 -1500 T
0 setlinecap
%%EndObject
0 A
FQ
O0
0 0 TM

% PostScript produced by:
%%GMT: psxy -R-90.5/-62/0/650 -JX4i/-1.25i -Sc0.07 -GSEAGREEN -Wthinnest -N -O -K
%%PROJ: xy -90.50000000 -62.00000000 0.00000000 650.00000000 -90.500 -62.000 650.000 -0.000 +xy +a=6378137.000 +b=6356752.314245
%%BeginObject PSL_Layer_11
0 setlinecap
0 setlinejoin
3.32551 setmiterlimit
4 W
V
{0.18 0.545 0.341 C} FS
O1
17 3640 1145 Sc
17 2989 1436 Sc
17 3069 1432 Sc
17 3129 1433 Sc
17 3098 1442 Sc
17 3009 1448 Sc
17 2998 1450 Sc
17 2830 1479 Sc
17 3156 1449 Sc
17 3016 1451 Sc
17 3050 1422 Sc
17 3072 1428 Sc
17 3044 1439 Sc
17 2759 1485 Sc
17 3105 1441 Sc
17 2938 1448 Sc
17 3209 1379 Sc
17 3037 1416 Sc
17 3085 1444 Sc
17 3065 1451 Sc
17 3159 1398 Sc
17 3110 1466 Sc
17 2910 1425 Sc
17 3099 1433 Sc
17 3050 1442 Sc
17 3078 1449 Sc
17 2761 1396 Sc
17 2982 1446 Sc
17 2937 1466 Sc
17 3066 1479 Sc
17 3092 1480 Sc
17 3076 1465 Sc
17 3702 1463 Sc
17 3114 1456 Sc
17 3042 1412 Sc
17 2858 1405 Sc
17 2873 1461 Sc
17 3029 1480 Sc
17 3034 1461 Sc
17 3053 1456 Sc
17 2945 1472 Sc
17 2802 1416 Sc
17 2858 1456 Sc
17 2871 1467 Sc
17 2780 1487 Sc
17 3086 1443 Sc
17 2810 1462 Sc
17 2719 1388 Sc
17 3176 1407 Sc
17 2736 1463 Sc
17 3002 1449 Sc
17 2836 1447 Sc
17 2774 1457 Sc
17 3100 1446 Sc
17 3085 1439 Sc
17 3082 1468 Sc
17 3140 1432 Sc
17 2894 1448 Sc
17 3178 1437 Sc
17 3001 1429 Sc
17 3116 1428 Sc
17 3085 1450 Sc
17 3068 1459 Sc
17 2992 1426 Sc
17 3058 1433 Sc
17 3079 1451 Sc
17 2928 1469 Sc
17 3135 1408 Sc
17 3062 1349 Sc
17 3101 1499 Sc
17 2963 1454 Sc
17 3057 1472 Sc
17 2973 1308 Sc
17 3116 1389 Sc
17 3126 1306 Sc
17 3101 1246 Sc
17 3188 1397 Sc
17 3093 1460 Sc
17 3047 1391 Sc
17 3057 1465 Sc
17 3089 1379 Sc
17 2782 1463 Sc
17 3155 1493 Sc
17 2741 1439 Sc
17 3018 1442 Sc
17 3031 1427 Sc
17 3011 1447 Sc
17 3128 1439 Sc
17 3124 1463 Sc
17 3114 1468 Sc
17 3085 1439 Sc
17 3092 1450 Sc
17 3126 1403 Sc
17 3046 1438 Sc
17 3113 1453 Sc
17 3108 1458 Sc
17 3109 1474 Sc
17 3114 1441 Sc
17 3105 1440 Sc
17 3114 1449 Sc
17 3107 1437 Sc
17 3113 1463 Sc
17 3103 1446 Sc
17 3084 1475 Sc
17 3068 1500 Sc
17 3103 1480 Sc
17 3077 1456 Sc
17 3125 1460 Sc
17 3103 1480 Sc
17 3081 1451 Sc
17 3098 1455 Sc
17 3118 1451 Sc
17 3122 1455 Sc
17 3273 1455 Sc
17 3127 1451 Sc
17 3131 1454 Sc
17 3131 1447 Sc
17 3521 1414 Sc
17 3119 1448 Sc
17 3125 1419 Sc
17 3127 1492 Sc
17 3113 1438 Sc
17 3116 1499 Sc
17 3103 1466 Sc
17 3060 1473 Sc
17 3047 1463 Sc
17 3098 1442 Sc
17 3120 1450 Sc
17 3115 1500 Sc
17 3078 1435 Sc
17 3092 1441 Sc
17 2750 1483 Sc
17 3077 1486 Sc
17 3115 1433 Sc
17 3126 1378 Sc
17 3089 1432 Sc
17 3108 1365 Sc
17 3113 1408 Sc
17 3214 1407 Sc
17 3087 1499 Sc
17 3080 1444 Sc
17 3106 1456 Sc
17 3100 1463 Sc
17 2858 1500 Sc
17 3050 1442 Sc
17 3083 1459 Sc
17 3076 1455 Sc
17 2870 1436 Sc
17 3122 1426 Sc
17 2953 1467 Sc
17 3048 1416 Sc
17 3128 1428 Sc
17 3013 1407 Sc
17 3137 1403 Sc
17 3225 1107 Sc
17 3147 1406 Sc
17 3083 1443 Sc
17 2854 1434 Sc
17 3021 1451 Sc
17 3115 1423 Sc
17 2799 1443 Sc
17 3151 1391 Sc
17 3098 1445 Sc
17 3068 1421 Sc
17 3027 1457 Sc
17 3073 1473 Sc
17 3105 1427 Sc
17 3137 1378 Sc
17 3086 1454 Sc
17 3103 1441 Sc
17 2794 1478 Sc
17 2765 1454 Sc
17 3085 1428 Sc
17 3076 1484 Sc
17 3109 1404 Sc
17 2893 1445 Sc
17 3241 1500 Sc
17 3076 1445 Sc
17 3125 1447 Sc
17 3085 1421 Sc
17 3055 1451 Sc
17 3085 1469 Sc
17 3142 1383 Sc
17 3081 1415 Sc
17 3093 1443 Sc
17 3061 1435 Sc
17 3046 1440 Sc
17 2893 1465 Sc
17 3068 1377 Sc
17 3031 1440 Sc
17 3166 1371 Sc
17 3058 1424 Sc
17 3082 1433 Sc
17 3653 1203 Sc
17 3072 1474 Sc
17 3058 1458 Sc
17 3063 1443 Sc
17 3058 1445 Sc
17 3119 1409 Sc
17 3100 1414 Sc
17 3111 1403 Sc
17 3116 1407 Sc
17 3083 1460 Sc
17 3276 1345 Sc
17 3058 1420 Sc
17 3687 1444 Sc
17 3720 1140 Sc
17 3880 1058 Sc
17 3067 1485 Sc
17 3401 1242 Sc
17 3037 1454 Sc
17 3473 1249 Sc
17 3038 1458 Sc
17 3051 1480 Sc
17 3370 1286 Sc
17 3019 1481 Sc
17 3439 1265 Sc
17 3100 1434 Sc
17 3861 1012 Sc
17 3082 1447 Sc
17 3071 1469 Sc
17 3052 1450 Sc
17 3052 1453 Sc
17 3055 1447 Sc
17 3076 1446 Sc
17 3085 1419 Sc
17 3038 1440 Sc
17 3633 1472 Sc
17 3095 1426 Sc
17 3123 1392 Sc
17 3465 1258 Sc
17 3100 1446 Sc
17 3102 1440 Sc
17 3048 1451 Sc
17 3033 1436 Sc
17 3103 1413 Sc
17 3112 1403 Sc
17 3320 1299 Sc
17 3106 1410 Sc
17 3062 1441 Sc
17 3343 1251 Sc
17 2972 1419 Sc
17 3521 1266 Sc
17 3115 1419 Sc
17 3394 1243 Sc
17 3109 1443 Sc
17 3059 1433 Sc
17 3034 1462 Sc
17 3032 1459 Sc
17 3048 1457 Sc
17 3335 1287 Sc
17 3394 1234 Sc
17 3199 1383 Sc
17 3066 1447 Sc
17 3110 1404 Sc
17 3060 1447 Sc
17 3121 1401 Sc
17 3110 1434 Sc
17 3119 1453 Sc
17 3103 1438 Sc
17 3083 1455 Sc
17 3232 1363 Sc
17 3137 1401 Sc
17 2994 1443 Sc
17 3081 1443 Sc
17 2985 1454 Sc
17 2987 1444 Sc
17 3069 1422 Sc
17 3817 1010 Sc
17 3155 1387 Sc
17 3444 1253 Sc
17 3081 1451 Sc
17 3092 1416 Sc
17 3044 1435 Sc
17 3125 1393 Sc
17 3044 1444 Sc
17 3203 1402 Sc
17 3078 1419 Sc
17 3105 1418 Sc
17 2851 1451 Sc
17 3110 1419 Sc
17 3064 1478 Sc
17 3060 1459 Sc
17 3066 1428 Sc
17 3357 1284 Sc
17 2923 1418 Sc
17 3051 1454 Sc
17 3053 1432 Sc
17 3220 1340 Sc
17 3106 1403 Sc
17 3922 1094 Sc
17 3116 1407 Sc
17 3003 1440 Sc
17 3774 1065 Sc
17 2852 1480 Sc
17 2858 1455 Sc
17 3858 1086 Sc
17 3033 1447 Sc
17 3379 1251 Sc
17 3404 1244 Sc
17 3074 1417 Sc
17 2467 1458 Sc
17 3095 1449 Sc
17 3092 1485 Sc
U
%%EndObject
0 A
FQ
O0
0 0 TM

% PostScript produced by:
%%GMT: pstext -R-90.5/-62/0/650 -JX4i/-1.25i -F+f14,31,+j -N -O -K
%%PROJ: xy -90.50000000 -62.00000000 0.00000000 650.00000000 -90.500 -62.000 650.000 -0.000 +xy +a=6378137.000 +b=6356752.314245
%%BeginObject PSL_Layer_12
0 setlinecap
0 setlinejoin
3.32551 setmiterlimit
0 1615 M PSL_font_encode 31 get 0 eq {ISOLatin1+_Encoding /Palatino-Bold /Palatino-Bold PSL_reencode PSL_font_encode 31 1 put} if
233 F31
(4) Z
4716 1615 M V MU 0 0 M (4) FP 0 82 G 163 F31 (') FP 0 -82 G pathbbox N pop exch pop add U neg 0 G
(4) Z
0 82 G 163 F31 (') Z
0 -82 G %%EndObject
0 A
FQ
O0
0 -2400 TM

% PostScript produced by:
%%GMT: psbasemap -R-90.5/-62/0/650 -JX4i/-1.25i -Bxa5+lLongitude [deg] -Bya100f50+lDepth [km] -BWeSn -Y-2i -O -K
%%PROJ: xy -90.50000000 -62.00000000 0.00000000 650.00000000 -90.500 -62.000 650.000 -0.000 +xy +a=6378137.000 +b=6356752.314245
%%BeginObject PSL_Layer_13
0 setlinecap
0 setlinejoin
3.32551 setmiterlimit
2 setlinecap
/MM {neg exch M} def
/PSL_A0_y 83 def
/PSL_A1_y 0 def
25 W
0 1500 M 0 -1500 D S
8 W
0 1500 M -83 0 D S
0 1269 M -83 0 D S
0 1038 M -83 0 D S
0 808 M -83 0 D S
0 577 M -83 0 D S
0 346 M -83 0 D S
0 115 M -83 0 D S
/PSL_AH0 0
PSL_font_encode 0 get 0 eq {ISOLatin1+_Encoding /Helvetica /Helvetica PSL_reencode PSL_font_encode 0 1 put} if
200 F0
(0) sw mx
(100) sw mx
(200) sw mx
(300) sw mx
(400) sw mx
(500) sw mx
(600) sw mx
def
/PSL_A0_y PSL_A0_y 83 add def
1500 PSL_A0_y MM
(0) mr Z
1269 PSL_A0_y MM
(100) mr Z
1038 PSL_A0_y MM
(200) mr Z
808 PSL_A0_y MM
(300) mr Z
577 PSL_A0_y MM
(400) mr Z
346 PSL_A0_y MM
(500) mr Z
115 PSL_A0_y MM
(600) mr Z
/PSL_A0_y PSL_A0_y PSL_AH0 add def
0 1385 M -42 0 D S
0 1154 M -42 0 D S
0 923 M -42 0 D S
0 692 M -42 0 D S
0 462 M -42 0 D S
0 231 M -42 0 D S
0 0 M -42 0 D S
/PSL_LH 267 F0
(M) sh def
/PSL_L_y PSL_A0_y PSL_A1_y mx 133 add def
750 PSL_L_y MM
V 90 R (Depth \[km\]) bc Z U
4800 0 T
/MM {exch M} def
/PSL_A0_y 83 def
/PSL_A1_y 0 def
25 W
0 1500 M 0 -1500 D S
8 W
0 1500 M 83 0 D S
0 1269 M 83 0 D S
0 1038 M 83 0 D S
0 808 M 83 0 D S
0 577 M 83 0 D S
0 346 M 83 0 D S
0 115 M 83 0 D S
0 1385 M 42 0 D S
0 1154 M 42 0 D S
0 923 M 42 0 D S
0 692 M 42 0 D S
0 462 M 42 0 D S
0 231 M 42 0 D S
0 0 M 42 0 D S
/PSL_LH 0 def /PSL_L_y PSL_A0_y PSL_A1_y mx def
-4800 0 T
/MM {neg M} def
/PSL_A0_y 83 def
/PSL_A1_y 0 def
25 W
0 0 M 4800 0 D S
8 W
84 0 M 0 -83 D S
926 0 M 0 -83 D S
1768 0 M 0 -83 D S
2611 0 M 0 -83 D S
3453 0 M 0 -83 D S
4295 0 M 0 -83 D S
/PSL_AH0 0
200 F0
(-90) sh mx
(-85) sh mx
(-80) sh mx
(-75) sh mx
(-70) sh mx
(-65) sh mx
def
/PSL_A0_y PSL_A0_y 83 add PSL_AH0 add def
84 PSL_A0_y MM
(-90) bc Z
926 PSL_A0_y MM
(-85) bc Z
1768 PSL_A0_y MM
(-80) bc Z
2611 PSL_A0_y MM
(-75) bc Z
3453 PSL_A0_y MM
(-70) bc Z
4295 PSL_A0_y MM
(-65) bc Z
/PSL_LH 267 F0
(M) sh def
/PSL_L_y PSL_A0_y PSL_A1_y mx 133 add PSL_LH add def
2400 PSL_L_y MM
(Longitude \[deg\]) bc Z
0 1500 T
/MM {M} def
/PSL_A0_y 83 def
/PSL_A1_y 0 def
25 W
0 0 M 4800 0 D S
8 W
84 0 M 0 83 D S
926 0 M 0 83 D S
1768 0 M 0 83 D S
2611 0 M 0 83 D S
3453 0 M 0 83 D S
4295 0 M 0 83 D S
/PSL_LH 0 def /PSL_L_y PSL_A0_y PSL_A1_y mx def
0 -1500 T
0 setlinecap
%%EndObject
0 A
FQ
O0
0 0 TM

% PostScript produced by:
%%GMT: psxy -R-90.5/-62/0/650 -JX4i/-1.25i -Sc0.07 -GSEAGREEN -Wthinnest -N -O -K
%%PROJ: xy -90.50000000 -62.00000000 0.00000000 650.00000000 -90.500 -62.000 650.000 -0.000 +xy +a=6378137.000 +b=6356752.314245
%%BeginObject PSL_Layer_14
0 setlinecap
0 setlinejoin
3.32551 setmiterlimit
4 W
V
{0.18 0.545 0.341 C} FS
O1
17 2831 1366 Sc
17 2533 1438 Sc
17 2807 1454 Sc
17 2799 1400 Sc
17 2777 1431 Sc
17 2772 1444 Sc
17 2806 1459 Sc
17 2735 1438 Sc
17 2804 1463 Sc
17 2852 1325 Sc
17 2762 1460 Sc
17 2809 1456 Sc
17 2787 1469 Sc
17 2821 1441 Sc
17 2839 1456 Sc
17 2525 1471 Sc
17 2858 1458 Sc
17 2794 1444 Sc
17 2781 1385 Sc
17 2736 1391 Sc
17 2787 1468 Sc
17 3214 1500 Sc
17 2753 1447 Sc
17 3346 1383 Sc
17 2780 1494 Sc
17 2919 1356 Sc
17 2876 1407 Sc
17 2825 1499 Sc
17 2914 1288 Sc
17 2784 1487 Sc
17 2565 1480 Sc
17 2767 1462 Sc
17 2803 1426 Sc
17 2789 1462 Sc
17 2747 1437 Sc
17 2810 1409 Sc
17 3068 1296 Sc
17 2791 1447 Sc
17 2797 1459 Sc
17 2902 1390 Sc
17 2565 1500 Sc
17 2953 1367 Sc
17 2820 1497 Sc
17 2549 1499 Sc
17 2777 1500 Sc
17 2871 1445 Sc
17 2791 1427 Sc
17 2775 1455 Sc
17 2894 1349 Sc
17 2817 1450 Sc
17 2835 1454 Sc
17 3098 1175 Sc
17 2893 1443 Sc
17 2771 1411 Sc
17 2811 1441 Sc
17 2862 1441 Sc
17 2814 1443 Sc
17 2839 1430 Sc
17 2760 1452 Sc
17 2889 1457 Sc
17 2828 1461 Sc
17 2895 1420 Sc
17 2625 1321 Sc
17 2767 1460 Sc
17 2810 1430 Sc
17 2883 1442 Sc
17 2787 1459 Sc
17 2777 1453 Sc
17 2781 1456 Sc
17 2858 1446 Sc
17 2802 1459 Sc
17 2859 1433 Sc
17 2775 1444 Sc
17 3068 1297 Sc
17 2783 1498 Sc
17 2741 1454 Sc
17 2807 1493 Sc
17 2913 1428 Sc
17 2535 1500 Sc
17 2538 1500 Sc
17 2893 1500 Sc
17 2555 1500 Sc
17 2752 1500 Sc
17 2566 1495 Sc
17 2590 1500 Sc
17 2955 1385 Sc
17 2797 1481 Sc
17 2794 1456 Sc
17 2939 1409 Sc
17 2575 1429 Sc
17 2794 1460 Sc
17 36953 -31 Sc
17 2623 1436 Sc
17 2538 1500 Sc
17 2537 1488 Sc
17 2821 1418 Sc
17 2550 1500 Sc
17 2899 1431 Sc
17 2836 1453 Sc
17 2799 1500 Sc
17 2597 1435 Sc
17 2788 1435 Sc
17 2543 1500 Sc
U
%%EndObject
0 A
FQ
O0
0 0 TM

% PostScript produced by:
%%GMT: pstext -R-90.5/-62/0/650 -JX4i/-1.25i -F+f14,31,+j -N -O -K
%%PROJ: xy -90.50000000 -62.00000000 0.00000000 650.00000000 -90.500 -62.000 650.000 -0.000 +xy +a=6378137.000 +b=6356752.314245
%%BeginObject PSL_Layer_15
0 setlinecap
0 setlinejoin
3.32551 setmiterlimit
0 1615 M PSL_font_encode 31 get 0 eq {ISOLatin1+_Encoding /Palatino-Bold /Palatino-Bold PSL_reencode PSL_font_encode 31 1 put} if
233 F31
(5) Z
4716 1615 M V MU 0 0 M (5) FP 0 82 G 163 F31 (') FP 0 -82 G pathbbox N pop exch pop add U neg 0 G
(5) Z
0 82 G 163 F31 (') Z
0 -82 G %%EndObject
