# Nsamples: 214  MAD:  0.547  mean:  0.189  variance:  0.481
gfz2010eazu  -1.26110
gfz2010eccq   0.87870
gfz2010edde  -2.41200
gfz2010eutw   0.51030
gfz2010exdl  -2.86820
gfz2010fupn   0.78340
gfz2010kjmp  -0.45460
gfz2010mwdq   0.11090
gfz2010ncrl  -0.50800
gfz2010nmpc   0.35570
gfz2010nqwf   0.78630
gfz2010nqwo  -0.10050
gfz2010nrjo   0.37870
gfz2010nsck  -0.61130
gfz2010nxsy  -0.05100
gfz2010ocxq  -0.14890
gfz2010pxgh   1.70520
gfz2010qpvi   0.10740
gfz2010qwwx  -0.40180
gfz2010rhas   0.31140
gfz2010rkfp   0.91870
gfz2010rqwj  -0.38400
gfz2010rywq  -0.26490
gfz2010sfee   0.25750
gfz2010srdb  -0.35200
gfz2010svtn   0.48410
gfz2010szim  -0.03960
gfz2010tcrl   0.76320
gfz2010upfb   0.04060
gfz2010usho   1.16480
gfz2010ustq   0.79370
gfz2010utcg   0.09980
gfz2010vtdg   2.41050
gfz2010vzzz   0.60650
gfz2010wrxx   1.03030
gfz2010xgzw   0.84130
gfz2010xjck  -1.15090
gfz2010yjev   0.48970
gfz2010yosr   0.02180
gfz2011cndo   0.13490
gfz2011csju  -0.02000
gfz2011cvcg  -0.47780
gfz2011cvfg  -0.12250
gfz2011cykd  -0.66090
gfz2011cynl  -0.12770
gfz2011cyre   0.46120
gfz2011cyuk   0.92830
gfz2011dbev   0.00000
gfz2011dbig  -0.10130
gfz2011dbon  -0.05890
gfz2011dbwt  -0.81700
gfz2011dcqb   1.61610
gfz2011dcqf   0.04590
gfz2011deaf   0.99410
gfz2011dkyi  -0.25430
gfz2011dpqx   0.38660
gfz2011ehzq   0.42780
gfz2011eiis  -0.09310
gfz2011enva  -0.22320
gfz2011etje   0.13840
gfz2011fgvr   0.11130
gfz2011fnsw  -0.20800
gfz2011gbmx  -0.35620
gfz2011gjlx   0.17550
gfz2011gkzt  -0.66150
gfz2011haid   0.16120
gfz2011hfkj  -0.07820
gfz2011hlqw   0.11770
gfz2011hlsa   0.20580
gfz2011hlth   0.56260
gfz2011hpqp   0.05820
gfz2011hvbu   0.81470
gfz2011jplh  -0.23950
gfz2011jtlg   0.20390
gfz2011kqwo   0.10540
gfz2011kqyg   1.32660
gfz2011kwld   0.48750
gfz2011kxzp  -0.72900
gfz2011lcxq   1.79700
gfz2011lzwj   0.71810
gfz2011mdie   0.54250
gfz2011mpme   0.00000
gfz2011nmnq   1.72020
gfz2011nrwc   0.69010
gfz2011nrwv   0.25510
gfz2011ntkh   0.83410
gfz2011nudm  -0.29480
gfz2011olkk  -0.23100
gfz2011orgn  -0.23350
gfz2011ornx  -0.15670
gfz2011owvz   0.18060
gfz2011rewa   0.04740
gfz2011rgwp  -1.19120
gfz2011rqui   0.26230
gfz2011sagt  -0.42580
gfz2011tbas  -0.18150
gfz2011tcij  -0.35790
gfz2011toub   0.61710
gfz2011tpbl   0.66000
gfz2011ueni  -0.55290
gfz2011vhfi   0.23480
gfz2011vnza   0.35170
gfz2011vxns  -0.04470
gfz2011vxod   0.37680
gfz2011wxfs  -0.01080
gfz2011wxtk   0.48700
gfz2011xyxj   0.14760
gfz2011zklv  -0.73010
gfz2012aqgp   0.50790
gfz2012attr  -0.32200
gfz2012bfah  -0.01500
gfz2012bpkx  -0.13550
gfz2012cxdn   0.44130
gfz2012ekda  -0.06160
gfz2012fivh  -0.27590
gfz2012hnul  -0.44530
gfz2012hnuw   1.33630
gfz2012ihdl  -0.79350
gfz2012ilvn  -0.38140
gfz2012jgvj  -0.27750
gfz2012jlox   1.00210
gfz2012jpgs   0.27060
gfz2012jupx   0.63210
gfz2012keor  -0.11120
gfz2012kkcp   0.90670
gfz2012kkup  -0.08390
gfz2012klhx   0.33760
gfz2012kuct  -0.48800
gfz2012kudo  -0.04970
gfz2012kwgo   3.36490
gfz2012lczo  -0.18450
gfz2012ldxg   1.00680
gfz2012lxkv   0.58700
gfz2012nkdf  -0.53370
gfz2012oazn   0.64540
gfz2012obgw  -0.16990
gfz2012pciw   0.27440
gfz2012rwov   0.49630
gfz2012sphd   0.46290
gfz2012teic   0.05080
gfz2012thfx  -0.42280
gfz2012tvmv   0.04530
gfz2012tzcc  -0.31030
gfz2012uafg   0.65500
gfz2012uaqj  -0.08470
gfz2012vrgb   1.40050
gfz2012wklq  -0.36560
gfz2012wmkd   0.22460
gfz2012wvfl   0.42390
gfz2012wxlg   0.24080
gfz2012wypz   0.03830
gfz2012zemz  -1.10460
gfz2012zfag   0.80380
gfz2012zitl   0.33510
gfz2012zjpv   1.00590
gfz2013ccnr   0.70040
gfz2013cvqg  -0.00360
gfz2013cwpn   0.09480
gfz2013dkly   0.01130
gfz2013dnnx   0.45270
gfz2013dofo  -0.45260
gfz2013drxz  -0.00000
gfz2013fiud  -0.35000
gfz2013fkii   0.07040
gfz2013gbcn  -0.14460
gfz2013gdnq   0.42990
gfz2013goux  -0.50310
gfz2013hfmp   0.19150
gfz2013hisv  -0.37100
gfz2013idbb  -0.36630
gfz2013ikgo  -0.21630
gfz2013iunn  -0.01380
gfz2013jdrx   0.23420
gfz2013jesk   0.09620
gfz2013jgij   0.37580
gfz2013jgip  -0.22890
gfz2013jkut   0.91290
gfz2013jwvc   0.17050
gfz2013kdeo   0.43420
gfz2013lixa   0.45970
gfz2013lxyn   0.86160
gfz2013lyko   0.17640
gfz2013mqmv   1.04250
gfz2013ngnt   0.25420
gfz2013nkgj   0.70910
gfz2013nnzf   0.40420
gfz2013nvdj  -0.15770
gfz2013nwdi   1.17940
gfz2013ogde  -0.36910
gfz2013pfbx   0.84800
gfz2013pxsj  -0.66160
gfz2013qmer   0.83760
gfz2013sdus   0.62380
gfz2013suvn   0.32320
gfz2013svci  -0.49890
gfz2013tcxc   0.95090
gfz2013tlaf  -0.02170
gfz2013toea  -0.28400
gfz2013twwf   3.21840
gfz2013uauo   0.05130
gfz2014ande   0.71150
gfz2014arpf  -0.53820
gfz2014bfng   0.48550
gfz2014bldx  -0.00000
gfz2014bwue   0.19020
gfz2014bzxy   0.30210
gfz2014cbtl  -0.50480
gfz2014hjgr   0.94790
gfz2014hzfw   0.62630
gfz2014hzhe  -0.01890
gfz2014ubwn   0.47520
gfz2014watn   0.73520
gfz2014xjri  -0.15620
gfz2014yhhm   0.27130
