# Nsamples: 8  MAD:  0.275  mean:  0.032  variance:  0.076
gfz2013btjm  -0.42000
gfz2013cdan   0.02170
gfz2013cvqg   0.12120
gfz2013jkut   0.14800
gfz2013jmcc   0.39580
gfz2013jusj  -0.34610
gfz2013lgxc   0.35320
gfz2014igur  -0.01760
