# Nsamples: 56  MAD:  0.464  mean: -0.102  variance:  0.894
gfz2010nmpc  -0.21710
gfz2010usho   1.82440
gfz2010wioh   0.92190
gfz2011aatr   0.26830
gfz2011enva  -0.31630
gfz2011gkzt   0.23610
gfz2011hlsa   0.19050
gfz2011lcxq   0.26360
gfz2011lzwj   0.20210
gfz2011rewa   0.50860
gfz2011toub   0.13440
gfz2011wxfs  -0.36440
gfz2012czlw  -0.03960
gfz2012enno   0.26740
gfz2012jlox  -0.05510
gfz2012ldxg  -0.00000
gfz2012ldzj   0.13210
gfz2012teic  -0.45870
gfz2012ttoa   0.72170
gfz2012vrgb   0.13270
gfz2012wypz   0.24850
gfz2013drxz  -0.02330
gfz2013jkut   0.26270
gfz2013kdeo  -0.68260
gfz2013nwdi  -1.23030
gfz2013ogde  -5.01760
gfz2013pfbx   0.41390
gfz2013svci   0.30900
gfz2014ande  -0.85470
gfz2014bwue  -0.50830
gfz2014fgvi  -0.30290
gfz2014fhla  -0.15250
gfz2014fkmr  -0.59260
gfz2014ftka  -0.13790
gfz2014gkgf  -1.13880
gfz2014gkqf  -0.28200
gfz2014gltx  -0.06510
gfz2014gmnb  -0.72270
gfz2014gmvr   2.40810
gfz2014goba  -0.44920
gfz2014gsqs  -0.84810
gfz2014gull   0.33660
gfz2014hasj   0.36130
gfz2014jpep  -0.15400
gfz2014lgqn   0.53750
gfz2014lxnc  -0.31410
gfz2014lyhk  -0.50140
gfz2014nqfm  -0.53630
gfz2014qqhm   0.34660
gfz2014rdsn  -2.14080
gfz2014ssvz  -0.01510
gfz2014ubwn  -0.00650
gfz2015cyjd   0.93690
gfz2015lhjy  -0.15200
gfz2015mpte  -0.00000
gfz2015taml   0.57730
