# Nsamples: 92  MAD:  0.601  mean: -0.517  variance:  0.758
gfz2013ccnr   0.02060
gfz2013dofo   0.39600
gfz2013drxz   0.03180
gfz2013ilug  -0.64780
gfz2013ippu   0.20040
gfz2013jkut  -0.13010
gfz2013ldqb  -0.06070
gfz2013lyko  -0.27430
gfz2013mtqd  -2.22230
gfz2013mwbh  -0.86270
gfz2013mzwe  -1.27530
gfz2013ncjp  -0.09560
gfz2013neuc  -0.44250
gfz2013nkgj  -0.64270
gfz2013nwdi  -1.02230
gfz2013qali   0.11560
gfz2013svci   0.11030
gfz2013vfzp   1.93380
gfz2013vjjc   1.06540
gfz2013xsdt  -0.57860
gfz2013yctg  -0.42090
gfz2013yqkv   0.47320
gfz2014afmx  -0.50600
gfz2014claq  -0.68940
gfz2014cmwb  -1.25110
gfz2014czua  -1.73200
gfz2014dddc  -1.40530
gfz2014dhxt  -0.14270
gfz2014disp  -0.74260
gfz2014ekcr  -0.94540
gfz2014ekdt  -1.01690
gfz2014enhi  -0.14150
gfz2014etqa  -0.61940
gfz2014ettc  -0.41610
gfz2014fedd  -1.49130
gfz2014femz  -2.68810
gfz2014hasj   0.16870
gfz2014hocg   0.69390
gfz2014hqxs  -0.16970
gfz2014huaj  -0.02120
gfz2014imnn  -0.54950
gfz2014inbj   0.08670
gfz2014issk  -0.61740
gfz2014itkw  -4.15450
gfz2014itpj  -1.67560
gfz2014jatq  -1.83590
gfz2014jjhc  -0.63010
gfz2014jjln  -0.75990
gfz2014jwmh  -0.28920
gfz2014lgqn  -0.12020
gfz2014lxnc  -0.94160
gfz2014nqfm  -0.35480
gfz2014pvch  -0.34340
gfz2014qlxd  -0.50420
gfz2014qngj  -1.40190
gfz2014qqhm  -0.18690
gfz2014yula  -0.63100
gfz2015chhn   0.02810
gfz2015cxhx  -1.38790
gfz2015cxxk   0.00890
gfz2015cyjd  -0.06830
gfz2015eezy   0.32530
gfz2015egxq  -0.20220
gfz2015elgy  -0.42410
gfz2015etai  -0.38240
gfz2015fcua  -0.16960
gfz2015fjhk  -0.72900
gfz2015fkgt  -0.52910
gfz2015fsjj  -0.01290
gfz2015gckd  -0.54500
gfz2015iwqk  -1.90630
gfz2015kfsu  -0.77810
gfz2015kkth  -0.47150
gfz2015ksni  -0.07060
gfz2015sfdd   0.55860
gfz2015sfdl  -0.67020
gfz2015sfdv  -0.84270
gfz2015sfdy  -0.46890
gfz2015sfeo   0.35530
gfz2015sfhz  -1.10670
gfz2015sfiq  -0.19880
gfz2015sfnb   1.28420
gfz2015sfno  -0.17810
gfz2015sfpj  -2.30540
gfz2015sghq   0.50760
gfz2015sjoj  -1.50110
gfz2015sjvu   0.15190
gfz2015smym   0.39110
gfz2015snwh  -0.64670
gfz2015soxc  -0.00000
gfz2015svwm  -0.29450
gfz2015taml  -2.89430
