# Nsamples: 419  MAD:  0.524  mean:  0.187  variance:  0.488
gfz2012zfag   0.01270
gfz2012zitl   1.10210
gfz2012zmln  -0.28970
gfz2013apmm   0.93290
gfz2013ccnr   0.65170
gfz2013cvqg   0.47660
gfz2013cwpn   0.04730
gfz2013dofo   0.83040
gfz2013dojq   0.80950
gfz2013drxz   1.38740
gfz2013dsog   1.60510
gfz2013dspt   0.12840
gfz2013fiud   0.51190
gfz2013fkcl  -0.44420
gfz2013fkii   0.37850
gfz2013gbst  -0.03610
gfz2013gdnq   1.31390
gfz2013idbb  -0.26060
gfz2013ifpq  -0.52060
gfz2013ijsr   0.20780
gfz2013ikgo  -0.06730
gfz2013ilug   0.22870
gfz2013ippu   0.33490
gfz2013jdrx   0.35920
gfz2013jgip   1.93090
gfz2013jkut   1.09310
gfz2013kheb   0.81970
gfz2013lbiu  -0.81930
gfz2013ldqb   0.96540
gfz2013lgnl   0.56660
gfz2013lsob  -1.86100
gfz2013lwbk   0.78210
gfz2013lyko   0.24400
gfz2013mwbh   1.92660
gfz2013mxee   1.74860
gfz2013ncjp   0.71180
gfz2013ndin   0.71830
gfz2013nixj  -0.01630
gfz2013nkgj   0.80250
gfz2013nuvi   0.41660
gfz2013nwdi   1.18010
gfz2013pfbx   0.36020
gfz2013pxsj  -0.19610
gfz2013qali   0.24910
gfz2013qmer  -0.92270
gfz2013sdus   0.11830
gfz2013shzy   1.11770
gfz2013svci   0.61990
gfz2013tusd   0.87210
gfz2013txtb   1.13580
gfz2013vexx   0.74180
gfz2013vfyw   1.15330
gfz2013vfzp   1.50980
gfz2013viul   0.41370
gfz2013vjjc  -1.18890
gfz2013wjmm   0.85570
gfz2013wmfd   0.19730
gfz2013xsdt   1.33430
gfz2013yqkv   1.79670
gfz2013ziyr   1.86020
gfz2013zmtb  -0.82800
gfz2014adoj  -0.52990
gfz2014afmx  -0.04260
gfz2014algk  -0.23860
gfz2014ande   0.12420
gfz2014arpf   0.56770
gfz2014atbl  -0.15220
gfz2014bldx   0.01840
gfz2014bmfv   0.48970
gfz2014bwue   1.76720
gfz2014cgog   0.86510
gfz2014chdv   0.42070
gfz2014czno   0.48650
gfz2014czol  -0.23280
gfz2014czua  -0.48800
gfz2014dcdy  -0.87430
gfz2014dddc   0.00000
gfz2014dhxt   0.45890
gfz2014disp  -0.54780
gfz2014ehsf   0.54620
gfz2014ekcr   0.13440
gfz2014ekdn   0.59330
gfz2014ekdt  -0.22530
gfz2014enhi   0.63390
gfz2014etqa  -0.37810
gfz2014exxa   1.00060
gfz2014femz  -0.39590
gfz2014fgvi  -0.26880
gfz2014fgvr  -0.14070
gfz2014fgvz   0.13460
gfz2014fgxt   0.28750
gfz2014fgxz   0.05710
gfz2014fgyo   0.47900
gfz2014fgza  -0.05410
gfz2014fhbd   0.02130
gfz2014fhdw   0.55420
gfz2014fhla  -0.62970
gfz2014fhlh   0.25680
gfz2014fhrq   0.05480
gfz2014fhsg  -0.77060
gfz2014fhwx   0.55020
gfz2014fimn  -0.08630
gfz2014fjpb   0.33250
gfz2014fjxd  -0.21040
gfz2014fjzd   0.55270
gfz2014fkmr  -0.24700
gfz2014fkmx  -0.11700
gfz2014fknp  -0.30260
gfz2014flfa  -0.14380
gfz2014frdz  -0.30460
gfz2014frel   0.98420
gfz2014frez   0.03340
gfz2014frfl   0.09440
gfz2014frwh   0.42520
gfz2014fsuh   0.07750
gfz2014fszc   0.04700
gfz2014ftka  -0.63520
gfz2014ftoc   0.26230
gfz2014ftpw  -0.10570
gfz2014ftrk  -0.06630
gfz2014furx   0.08320
gfz2014fusc  -0.12080
gfz2014fusu   0.08100
gfz2014fuub  -0.06040
gfz2014fvaa   0.62160
gfz2014fval  -0.29500
gfz2014fvgh   0.11050
gfz2014fvjl   0.30390
gfz2014fvrg   0.24110
gfz2014fxhd   1.20270
gfz2014gbcz  -0.91040
gfz2014gbdq   1.45150
gfz2014geuy   0.16890
gfz2014ghpe   0.06780
gfz2014gkgf  -0.94150
gfz2014gkgs  -0.24710
gfz2014gkhp  -0.26760
gfz2014gkhy  -0.73560
gfz2014gkjl  -0.37470
gfz2014gkjt  -0.23150
gfz2014gkob  -0.38060
gfz2014gkok  -0.53220
gfz2014gkqf  -0.33430
gfz2014gkqu  -0.36640
gfz2014gksj  -0.05950
gfz2014gksu   0.81630
gfz2014gktq   0.87600
gfz2014gkut  -1.39740
gfz2014glcu   0.29220
gfz2014glcy  -0.09460
gfz2014glgo   0.18090
gfz2014glhs   0.20040
gfz2014gltx   0.30460
gfz2014glvn   0.89970
gfz2014gmci  -0.21420
gfz2014gmes   0.16530
gfz2014gmge  -0.59600
gfz2014gmhp   0.22350
gfz2014gmhr   0.73540
gfz2014gmip   0.00000
gfz2014gmjo  -0.35070
gfz2014gmku  -1.02660
gfz2014gmmt   0.84640
gfz2014gmnb  -0.13940
gfz2014gmnw  -0.04990
gfz2014gmor  -0.10900
gfz2014gmpy  -0.15850
gfz2014gmrj   0.10170
gfz2014gmtb  -0.04090
gfz2014gmuk  -0.15290
gfz2014gmvr  -0.40960
gfz2014gmzl  -0.11880
gfz2014gnfd  -0.37150
gfz2014gnfs   1.57350
gfz2014gngg  -0.31030
gfz2014gnmp  -0.06420
gfz2014gnnt   0.05520
gfz2014gnre   0.23220
gfz2014goba  -0.25620
gfz2014goqw   0.38300
gfz2014gpce   0.47330
gfz2014gphr   0.45070
gfz2014gpya  -0.08120
gfz2014gqer   1.10060
gfz2014gqve   0.18250
gfz2014gsqs  -0.13910
gfz2014gtef   0.06650
gfz2014gtwz   0.68540
gfz2014gufl  -0.41580
gfz2014gull   0.13280
gfz2014gulp  -0.56500
gfz2014gvqj  -0.11000
gfz2014gvrd   0.27800
gfz2014gwab   0.38050
gfz2014gxkh  -0.11850
gfz2014gxxo   0.25440
gfz2014haos   0.09020
gfz2014hasj   0.02170
gfz2014hbjz   0.15260
gfz2014hbqb   0.39100
gfz2014hcmj   1.17590
gfz2014hfhl   0.06910
gfz2014hgqo   0.21330
gfz2014hjgr   0.13950
gfz2014hjij   0.09220
gfz2014hnfm  -0.09300
gfz2014hocg   1.86950
gfz2014hphw  -0.22480
gfz2014hqxs  -0.71190
gfz2014hqyx   0.08800
gfz2014hrtn   0.78850
gfz2014hscz   0.87990
gfz2014huaj   0.68940
gfz2014hyal   1.17020
gfz2014hyvq  -0.28930
gfz2014hzfw  -0.06620
gfz2014hzgn  -2.22390
gfz2014hzig   1.12510
gfz2014ifue  -1.17730
gfz2014ifzj   0.11410
gfz2014inbj   1.65350
gfz2014issk   0.32130
gfz2014itab   0.05030
gfz2014itgh  -0.03040
gfz2014itkw  -0.51260
gfz2014iuhq  -0.22650
gfz2014iwnf   0.09470
gfz2014jcjt   0.59970
gfz2014jcmt   0.23050
gfz2014jggm   0.71370
gfz2014jjhc   1.79520
gfz2014jjln   0.09150
gfz2014jjqk   1.12240
gfz2014jnyv   0.06170
gfz2014jpep   0.03980
gfz2014jwmh   0.46420
gfz2014kbuk   0.47220
gfz2014kizt  -1.17020
gfz2014kkhh  -0.07290
gfz2014kndc  -0.29860
gfz2014knxs   0.11010
gfz2014kwrg  -0.02160
gfz2014kytf   0.07310
gfz2014lchy   0.13160
gfz2014lddn   0.11220
gfz2014ldhu   0.13040
gfz2014lefs  -0.37030
gfz2014lgqn   0.94750
gfz2014lpim   0.77010
gfz2014lxnc   0.26460
gfz2014lxqr  -0.04190
gfz2014lyhk  -0.17590
gfz2014lyhp   0.01920
gfz2014lzow   0.42180
gfz2014macx  -0.00870
gfz2014madw  -0.20520
gfz2014moaw   1.61420
gfz2014mxkr  -1.46910
gfz2014niqj   0.42660
gfz2014nowp  -0.40160
gfz2014npeo   0.00640
gfz2014nphm   1.28000
gfz2014nqfm   0.21050
gfz2014nrie  -0.00080
gfz2014nyeh   0.83300
gfz2014nyfb  -0.10200
gfz2014nyko   0.96710
gfz2014odgv  -0.71640
gfz2014oinz   0.62410
gfz2014owxc   0.12680
gfz2014oxcc  -0.25530
gfz2014pqqp   0.62710
gfz2014pvch   0.46970
gfz2014qlxd   0.13540
gfz2014qngj  -0.58980
gfz2014qqhm   0.50500
gfz2014rbpx   0.85970
gfz2014riel   0.02630
gfz2014rkwl   0.08960
gfz2014ssmv  -0.39570
gfz2014ssvz   0.82920
gfz2014szzf   1.25850
gfz2014tqdo   0.34210
gfz2014tqsf   0.39220
gfz2014ubwn   0.91260
gfz2014uvji   0.20400
gfz2014vhld   0.24860
gfz2014watn   0.31350
gfz2014xjri  -0.16140
gfz2014xqqd  -0.03000
gfz2014yhhm  -0.53960
gfz2015berb   1.16430
gfz2015bkbj  -0.22840
gfz2015byjd   0.10470
gfz2015chhn   1.53500
gfz2015chqn  -1.07970
gfz2015cxhx  -0.66510
gfz2015dvbn   1.04140
gfz2015ednc   0.96490
gfz2015eeyq  -0.08610
gfz2015eezy  -2.19030
gfz2015egxq   0.57310
gfz2015eiky   0.15490
gfz2015elgy   0.46880
gfz2015emtg   0.27650
gfz2015etai   0.22000
gfz2015fcua   0.20750
gfz2015fjhk   0.44200
gfz2015fkgt   1.47250
gfz2015fkic   3.98560
gfz2015fsjj   0.51940
gfz2015fvoi  -0.34710
gfz2015fwkq  -0.49650
gfz2015fxdi  -0.03810
gfz2015fyvk   0.36740
gfz2015gckd   0.19550
gfz2015gjbr  -0.07300
gfz2015gkwa   0.33120
gfz2015gzja   0.74690
gfz2015hlqo  -2.67970
gfz2015iwqk  -0.79530
gfz2015jkdw   0.86150
gfz2015jmlf  -1.12010
gfz2015jmlu   1.03280
gfz2015jpap  -0.51850
gfz2015jwgl  -0.17610
gfz2015jxbx  -2.66870
gfz2015jzcv   0.44980
gfz2015kfsu   0.29120
gfz2015kkth   0.33850
gfz2015kquq   0.34180
gfz2015ksni   0.13710
gfz2015kvwz   0.21940
gfz2015lfma   0.22260
gfz2015lhjy   0.42270
gfz2015lytv   0.71100
gfz2015lzad   1.56790
gfz2015mddr   0.15530
gfz2015mpte   0.89830
gfz2015ntpk  -0.19190
gfz2015nuxz   0.10720
gfz2015nwug   0.54430
gfz2015okmq   0.20960
gfz2015orkl  -1.88620
gfz2015prlr  -0.06620
gfz2015qnho  -0.19520
gfz2015quzo   0.41510
gfz2015rddx   0.01690
gfz2015rkrg   1.02390
gfz2015sevh  -0.37270
gfz2015sfdd   0.53600
gfz2015sfdl   0.16940
gfz2015sfdv  -1.26670
gfz2015sfdy  -1.27000
gfz2015sfeo   0.36830
gfz2015sffn   0.32560
gfz2015sfga   0.78870
gfz2015sfhz  -1.08570
gfz2015sfiq  -0.71320
gfz2015sfkh  -0.51210
gfz2015sfko  -1.22130
gfz2015sfnb   0.13420
gfz2015sfno  -0.16980
gfz2015sfnv   0.21570
gfz2015sfoc   0.16210
gfz2015sfom  -0.47390
gfz2015sfoq   0.78520
gfz2015sfpj  -0.40100
gfz2015sfqo   0.30110
gfz2015sfqr  -0.37920
gfz2015sfrf   0.52760
gfz2015sfrv   0.88780
gfz2015sfte   0.06550
gfz2015sfwf   0.39150
gfz2015sfxn  -0.22880
gfz2015sfzm  -0.06370
gfz2015sgad  -0.56340
gfz2015sgdn   0.28860
gfz2015sggc   0.67830
gfz2015sghq   0.64030
gfz2015sglg  -0.04570
gfz2015sgmm  -0.04490
gfz2015sgmr  -0.16250
gfz2015sgna   0.20920
gfz2015sgpu  -0.11450
gfz2015sguf   0.22930
gfz2015sgyd   0.88020
gfz2015shel   0.09260
gfz2015shhg   0.46790
gfz2015shhu  -0.08320
gfz2015shrg   0.00000
gfz2015shsz   1.09050
gfz2015siem   0.18770
gfz2015sitn   0.21150
gfz2015sixs  -0.37360
gfz2015sjbx   0.49460
gfz2015sjgk   0.69050
gfz2015sjne   0.36150
gfz2015sjoj   0.48310
gfz2015sjvu   0.61300
gfz2015skxu  -0.27370
gfz2015sljs   1.19680
gfz2015smym  -0.40680
gfz2015snmr   0.60330
gfz2015snsf  -1.49700
gfz2015snwh  -0.50020
gfz2015snyd   0.55630
gfz2015soat   0.08680
gfz2015sopc   0.58530
gfz2015soxc   0.18330
gfz2015sqvx   0.71720
gfz2015srat   0.52990
gfz2015stfy   0.40590
gfz2015susq   0.30110
gfz2015svwm   0.35350
gfz2015sxmh  -0.01960
gfz2015szcb  -0.30050
gfz2015taml   0.73150
gfz2015tbdn   1.54730
