# Nsamples: 240  MAD:  0.515  mean: -0.061  variance:  0.449
gfz2012yzod  -0.98910
gfz2013aqaw  -0.45020
gfz2013bokp   0.19090
gfz2013btjm  -0.35180
gfz2013ccnr   0.38840
gfz2013cwpn   0.20550
gfz2013cwps  -0.35210
gfz2013dkly   0.90150
gfz2013dofo   0.02770
gfz2013fkii   0.16670
gfz2013fwxa   0.19050
gfz2013fygc  -0.19450
gfz2013gbst   0.86000
gfz2013gdnq   0.03080
gfz2013ijsr   0.65760
gfz2013ilug   0.19030
gfz2013ippu   0.26360
gfz2013jgip  -1.02010
gfz2013jkut   0.04240
gfz2013kdeo  -0.68340
gfz2013ldpc   0.02240
gfz2013ldqb  -0.28630
gfz2013lixa  -0.70300
gfz2013lyko   0.03710
gfz2013mwbh  -0.50130
gfz2013ncjp  -0.70790
gfz2013ndin   1.70770
gfz2013nkgj   0.65570
gfz2013nnzf   0.12060
gfz2013nwdi   0.33340
gfz2013pfbx   0.36220
gfz2013pxsj  -0.19340
gfz2013qali   0.99700
gfz2013qmer  -0.39940
gfz2013svci  -0.03010
gfz2013tusd   0.43950
gfz2013ufxm  -0.06310
gfz2013vfzp   0.56080
gfz2013vjjc  -0.21800
gfz2013wjmm  -0.59240
gfz2013xatc  -0.18980
gfz2013xsdt   0.08930
gfz2013yctg  -0.10700
gfz2013yqkv   0.66570
gfz2014afmx   0.86000
gfz2014algk   0.21820
gfz2014amsb   0.02670
gfz2014ande   0.00520
gfz2014arqr  -1.67560
gfz2014bagd  -0.37250
gfz2014bezu  -0.61230
gfz2014bhvd  -0.46230
gfz2014bjgt  -3.82030
gfz2014bldx  -0.45540
gfz2014bmfv   0.25450
gfz2014bwue   0.13980
gfz2014bzxy   0.77410
gfz2014cbtl   0.30860
gfz2014chdv  -0.68810
gfz2014claq  -0.32460
gfz2014cmwb  -0.68280
gfz2014czno   0.25650
gfz2014czol  -0.29620
gfz2014czqi   0.37670
gfz2014dhxt   0.26500
gfz2014disp   0.05190
gfz2014duqn  -0.20890
gfz2014ehsf   0.64250
gfz2014ekcr  -0.86170
gfz2014enhi   0.05810
gfz2014fedd  -0.41020
gfz2014femz  -0.92180
gfz2014fexu  -1.41550
gfz2014fgvi   0.39150
gfz2014fgvz  -0.49200
gfz2014fhdw   0.35900
gfz2014fhla  -0.85190
gfz2014fhrq  -0.36950
gfz2014fimn   0.23330
gfz2014fkmr   0.77900
gfz2014fqpz  -0.74100
gfz2014frdz   0.02890
gfz2014frez  -0.39530
gfz2014frfl  -0.01910
gfz2014frwh   0.37940
gfz2014ftka  -0.65370
gfz2014ftpw   0.14060
gfz2014furx   0.49240
gfz2014fusj  -0.21860
gfz2014fval  -0.13070
gfz2014fvgh   0.17560
gfz2014fvrg   0.13110
gfz2014gbcz  -0.09170
gfz2014ghpe  -0.09650
gfz2014gkgf  -0.57640
gfz2014gkhy  -0.44820
gfz2014gkjl   0.78750
gfz2014gkob  -0.03470
gfz2014gkqf  -0.03750
gfz2014gkqu  -0.37280
gfz2014gktq   0.46980
gfz2014glcu   0.66000
gfz2014gltx  -0.03490
gfz2014gmge  -1.00520
gfz2014gmhr  -0.73530
gfz2014gmku   0.59180
gfz2014gmnb  -0.16820
gfz2014gmnw   0.10370
gfz2014gmuk   0.16120
gfz2014gmzl  -0.90100
gfz2014gngg   0.47390
gfz2014goba   0.14210
gfz2014goqw  -0.15290
gfz2014gori  -0.49590
gfz2014gpuk  -0.69510
gfz2014gpya  -0.07220
gfz2014gqer   0.75020
gfz2014gsqs  -0.12160
gfz2014gull   0.50540
gfz2014gwab  -1.37460
gfz2014gxxo  -0.20900
gfz2014hasj  -0.24530
gfz2014hauo   0.68620
gfz2014hgqo  -0.21470
gfz2014hjgr   0.57950
gfz2014hocg   0.12060
gfz2014hqxs  -0.27400
gfz2014hrft  -0.92140
gfz2014huaj   0.49580
gfz2014hzfw   0.07580
gfz2014issk   0.34910
gfz2014itkw   0.50340
gfz2014itpj  -0.15790
gfz2014iwnf  -0.19920
gfz2014jjhc  -0.58990
gfz2014jjln  -0.05940
gfz2014jnyv   0.20290
gfz2014jpep  -0.09920
gfz2014jwmh   0.38830
gfz2014kbuk  -0.27320
gfz2014kndc  -0.50870
gfz2014knks   0.00810
gfz2014knxs   0.40130
gfz2014kyan  -0.72730
gfz2014kytf   0.07760
gfz2014lefs  -0.47860
gfz2014lgqn  -0.14670
gfz2014lhqn  -0.76720
gfz2014lkyf   0.00000
gfz2014lxnc   0.03860
gfz2014lyhk  -0.53020
gfz2014lyhp  -0.00320
gfz2014macx   0.03690
gfz2014madw  -0.06390
gfz2014nowp  -0.72830
gfz2014npeo   0.06610
gfz2014nphm  -0.31760
gfz2014nqfm   0.43340
gfz2014nrie   0.05700
gfz2014nvdi  -0.47310
gfz2014oinz   0.04090
gfz2014owxc  -0.14030
gfz2014ppzf  -4.09950
gfz2014pvch   0.45040
gfz2014qdog   0.80530
gfz2014qlxd  -0.03580
gfz2014qngj  -0.95590
gfz2014qqhm  -0.41780
gfz2014rdsn  -0.72070
gfz2014ssvz  -0.56510
gfz2014tovs  -0.02580
gfz2014tqdo   0.14320
gfz2014ubwn  -0.16670
gfz2014watn   0.21640
gfz2015ixyy  -0.04280
gfz2015jmlu  -0.32090
gfz2015jwgl  -0.54040
gfz2015jzcv  -0.22020
gfz2015kkth   0.31440
gfz2015kquq   0.51780
gfz2015ksni  -0.06480
gfz2015kxxs  -0.35300
gfz2015lhjy   0.60000
gfz2015ltii  -1.12590
gfz2015lytv  -1.39830
gfz2015mddr  -0.17780
gfz2015mpte  -0.55910
gfz2015nwug  -0.71160
gfz2015ocdz  -0.35350
gfz2015okmq   0.31360
gfz2015oumn   0.93250
gfz2015oyfl   0.27220
gfz2015pdri  -0.18280
gfz2015prlr  -0.29130
gfz2015qnho   0.03950
gfz2015sfdd   0.47210
gfz2015sfdl  -0.23230
gfz2015sfdv   0.23290
gfz2015sfdy  -0.36800
gfz2015sfeo   0.31020
gfz2015sffn   0.62970
gfz2015sfga   1.17340
gfz2015sfiq  -0.65830
gfz2015sfnb   0.77450
gfz2015sfnv  -0.56270
gfz2015sfoc  -0.50140
gfz2015sfqo  -0.01370
gfz2015sfqr   1.11510
gfz2015sfrv   1.65000
gfz2015sfwf  -0.15850
gfz2015sfzm   0.58170
gfz2015sgad  -0.58920
gfz2015sgdn  -0.41090
gfz2015sghq   0.30810
gfz2015sgie  -1.13820
gfz2015sglg  -0.13200
gfz2015sguf   0.47590
gfz2015sgyd   0.96180
gfz2015shhu  -0.22090
gfz2015shjo   0.47200
gfz2015shsz   2.82060
gfz2015sjbx   0.02500
gfz2015sjgk   0.90780
gfz2015sjne   1.50340
gfz2015sjoj   0.26350
gfz2015sjvu  -0.04900
gfz2015sjwi   0.12550
gfz2015skxu  -0.40710
gfz2015slun  -0.77940
gfz2015smym   0.11890
gfz2015snsf  -0.23610
gfz2015snwh  -0.34020
gfz2015snyd   0.52840
gfz2015soat   0.04580
gfz2015soxc   0.24380
gfz2015srat  -0.67160
gfz2015svwm   0.72770
gfz2015szcb  -0.52570
gfz2015taml  -0.19580
gfz2015tbdn  -0.13460
