# Nsamples: 179  MAD:  0.793  mean: -0.242  variance:  1.382
gfz2010eaoy   0.11960
gfz2010eapn  -1.33470
gfz2010eaqe   0.96370
gfz2010eaqx  -1.22070
gfz2010eaqy  -0.82440
gfz2010earu   0.35590
gfz2010easo  -0.00880
gfz2010eato   0.10300
gfz2010eavs  -0.57020
gfz2010eawu   0.92600
gfz2010eazu   1.77580
gfz2010ebhc  -1.67580
gfz2010ebin   3.17300
gfz2010ebvm  -0.79680
gfz2010ebvv   0.04670
gfz2010ebzr   1.54760
gfz2010echt   0.02220
gfz2010ecps   1.21470
gfz2010ecro  -2.24230
gfz2010ecua   0.28470
gfz2010edyi   8.17530
gfz2010eeij  -0.54800
gfz2010eisx   0.04390
gfz2010ekyc  -0.95420
gfz2010eltf  -0.56940
gfz2010elyc   1.01120
gfz2010erom  -5.64670
gfz2010evco  -2.57620
gfz2010excp   0.19860
gfz2010exdd   0.13550
gfz2010exdl   0.36060
gfz2010exel  -1.74900
gfz2010exno  -0.47940
gfz2010ezck  -0.11320
gfz2010fedq   1.20720
gfz2010ffhq   0.35440
gfz2010ftlm   0.06570
gfz2010fync   0.22000
gfz2010grjd  -0.06400
gfz2010hlmq  -0.21550
gfz2010homc  -1.53850
gfz2010hxgv  -0.73280
gfz2010iobp   0.09470
gfz2010iull  -0.35230
gfz2010jpyj  -1.44380
gfz2010nmpc   1.93990
gfz2010nqwo   0.25870
gfz2010nwef   0.42860
gfz2010osqo   0.15080
gfz2010pfyu  -0.07130
gfz2010qpvi  -0.27620
gfz2010rqwj  -0.85620
gfz2010skqo  -0.18090
gfz2011aatr  -0.44340
gfz2011adjs  -0.92440
gfz2011csju  -0.71920
gfz2011cykd  -1.59390
gfz2011dcqb  -1.71870
gfz2011dpqx  -0.91800
gfz2011enva  -0.08950
gfz2011fnsw  -0.56930
gfz2011gkzt  -0.75500
gfz2011hfkj  -0.17050
gfz2011hlqw  -0.37360
gfz2011hlsa  -0.48610
gfz2011jplh  -1.52220
gfz2011lzwj  -0.80310
gfz2011mdie  -0.25790
gfz2011nudm  -0.09590
gfz2011olkk  -1.11860
gfz2011owvz  -0.47530
gfz2011rewa  -0.57780
gfz2011tnag  -0.63110
gfz2011toub  -1.99690
gfz2011vhfi  -0.67110
gfz2011vrhg  -0.23260
gfz2011vxns  -0.56530
gfz2011wxfs  -0.41860
gfz2011xyxj   0.57440
gfz2012bpkx  -0.45800
gfz2012czlw   0.65510
gfz2012enno  -0.47190
gfz2012fzfa  -0.99180
gfz2012gomm  -0.59450
gfz2012hnul   0.64020
gfz2012jlox  -2.37390
gfz2012jupx  -0.46350
gfz2012kkup  -0.37730
gfz2012kudo  -1.21930
gfz2012ldxg  -0.29520
gfz2012sphd  -0.59370
gfz2012ttoa  -0.78600
gfz2012tvmv  -0.36260
gfz2012uafg   0.22840
gfz2012vrgb   0.00000
gfz2012wklq  -0.66280
gfz2012wxlg  -0.13400
gfz2012wypz  -1.41990
gfz2013axoj  -0.69500
gfz2013ccnr  -0.23580
gfz2013jesk   0.81450
gfz2013jgip   0.54890
gfz2013jkut   0.39880
gfz2013nwdi  -1.01260
gfz2013pfbx   0.13400
gfz2013roki  -0.77390
gfz2013vjjc  -1.39800
gfz2013wjmm  -1.07510
gfz2013xmul  -1.31530
gfz2013xsdt  -0.08950
gfz2014algk  -0.84700
gfz2014ande   0.42480
gfz2014arpf  -0.85780
gfz2014bwue  -0.97360
gfz2014ettc  -0.37060
gfz2014fgvi   0.45420
gfz2014fhla   1.35210
gfz2014frdz   1.98270
gfz2014frez  -0.74690
gfz2014ftka   0.22940
gfz2014fval  -0.41780
gfz2014fvrg   0.13840
gfz2014gbcz   1.19760
gfz2014gkgf  -0.43550
gfz2014gkgs  -1.36230
gfz2014gkjl   0.16580
gfz2014gkqf  -0.90360
gfz2014gmge   0.43280
gfz2014gmhr  -0.98200
gfz2014gmnb   0.80390
gfz2014gmnw   0.27110
gfz2014gmuw  -0.11270
gfz2014goba  -0.32970
gfz2014gull  -0.24120
gfz2014hjgr   1.43320
gfz2014hocg  -0.59470
gfz2014hscz  -1.19810
gfz2014inbj  -1.06370
gfz2014itkw  -0.47850
gfz2014jwmh  -0.23190
gfz2014lbcq  -2.93860
gfz2014lgqn   0.42360
gfz2014madw  -2.15570
gfz2014npeo  -0.14490
gfz2014nqfm  -0.46190
gfz2014nrie   0.42720
gfz2014pvch   0.59500
gfz2014qlxd   0.67340
gfz2014qngj  -0.35690
gfz2014qqhm   0.21970
gfz2014watn  -0.10670
gfz2015chhn  -1.10340
gfz2015cyjd  -0.58930
gfz2015fjhk  -0.33640
gfz2015fkgt   0.86290
gfz2015fsjj  -0.88220
gfz2015gckd  -0.76820
gfz2015lhjy   2.56430
gfz2015lytv   0.20700
gfz2015mpte   0.77080
gfz2015qnho  -0.91130
gfz2015sfdd   0.37940
gfz2015sfdy   0.29880
gfz2015sfnb   2.27080
gfz2015sfno  -0.33640
gfz2015sgad  -0.49060
gfz2015sjbx  -1.10400
gfz2015sjoj  -0.55700
gfz2015sjvu   0.59200
gfz2015skxu  -0.30310
gfz2015smym   0.54180
gfz2015snwh  -0.11570
gfz2015snyd  -0.26730
gfz2015soxc   0.29890
gfz2015stso  -1.97610
gfz2015svwm  -0.46860
gfz2015sxmh  -0.87120
gfz2015taml   0.24210
gfz2015tcem  -0.35600
