# Nsamples: 325  MAD:  0.619  mean: -0.164  variance:  0.668
gfz2010aerk   0.57550
gfz2010ahqi  -1.72540
gfz2010bfzs   0.28490
gfz2010bifb  -3.22060
gfz2010bjeb  -0.45850
gfz2010bowy  -1.12600
gfz2010lepw  -0.26390
gfz2010lkcf   0.33560
gfz2010lrlk  -2.92940
gfz2010mkuu   0.16740
gfz2010mncc   1.18710
gfz2010moyw   0.34170
gfz2010muca   0.73110
gfz2010mwdq   0.12540
gfz2010ncrl  -0.59550
gfz2010nmpc  -0.62190
gfz2010nqwf  -1.01010
gfz2010nqwo  -0.23950
gfz2010nrjo  -0.28330
gfz2010nsck   0.22010
gfz2010nwef   0.40610
gfz2010nxum  -1.20080
gfz2010pcxi  -0.29880
gfz2010pewx  -2.12810
gfz2010pxgh   0.47060
gfz2010rhas   1.83660
gfz2010rkfp   2.65730
gfz2010rqwj  -0.14640
gfz2010sfee   0.18700
gfz2010skqo  -1.19840
gfz2010srdb   0.32770
gfz2010sxwt  -1.07840
gfz2010tcrl   2.07290
gfz2010txjs  -0.68810
gfz2010upfb  -0.62480
gfz2010usho   1.46320
gfz2010utcg   0.56330
gfz2010uyhb   0.96440
gfz2010wioh  -0.09980
gfz2010xbdv   0.16140
gfz2010xden  -0.00000
gfz2010xjsj  -0.15130
gfz2010yjev   1.24180
gfz2011aatr  -1.33430
gfz2011adjs  -0.52710
gfz2011alip  -0.41620
gfz2011aqxf   0.24810
gfz2011csju  -0.87610
gfz2011cvfg  -2.32770
gfz2011cykd  -0.78850
gfz2011cyre   0.77930
gfz2011cyuk  -0.98030
gfz2011dcqb  -0.35730
gfz2011dcqf   0.09040
gfz2011dllz  -2.16740
gfz2011ecaj  -0.05570
gfz2011ehzq   0.22980
gfz2011enva  -0.04470
gfz2011fhbm  -0.15410
gfz2011fkbn   0.08340
gfz2011fnsw  -0.31880
gfz2011gbmx   0.66450
gfz2011gkzt  -1.10770
gfz2011hbex  -0.12860
gfz2011hebt  -0.19920
gfz2011hlqw  -0.94220
gfz2011hlsa  -1.22080
gfz2011hvbu   0.40490
gfz2011ieie   0.21130
gfz2011izqa  -0.27920
gfz2011jplh  -0.85850
gfz2011jtlg   0.23270
gfz2011kqwo   1.35410
gfz2011kxzp   0.64870
gfz2011lcxq  -0.12380
gfz2011lgsg  -1.69640
gfz2011lzwj  -0.04730
gfz2011mdie  -0.66120
gfz2011mpme   1.72170
gfz2011mprq   1.08870
gfz2011myia  -0.05080
gfz2011ornx   0.17280
gfz2011owvz  -0.56800
gfz2011pntf  -0.26380
gfz2011qvae  -0.22600
gfz2011qyms  -0.97840
gfz2011rewa  -1.48460
gfz2011rgwp  -0.14010
gfz2011rqui  -0.90170
gfz2011rsrh   0.25490
gfz2011sagt   0.93930
gfz2011tjue   0.39530
gfz2011tkfp  -0.79770
gfz2011toub  -0.78780
gfz2011tpfr   0.46340
gfz2011ujze  -0.30920
gfz2011uphh  -0.15780
gfz2011urxy  -0.55400
gfz2011uzqv  -0.49470
gfz2011vhfi   0.36290
gfz2011vrhg   0.11450
gfz2011vxns  -0.32810
gfz2011wcic  -0.20820
gfz2011wwjs  -0.36170
gfz2011wxfs  -0.90430
gfz2011wxtk  -0.70030
gfz2011xyxj   1.03450
gfz2011zqhh  -0.40390
gfz2012bfah  -0.58770
gfz2012bpkx  -0.39560
gfz2012cxdn   0.47580
gfz2012emjg  -2.93650
gfz2012ewgo   0.06780
gfz2012fzfa  -0.45350
gfz2012joqe  -1.31540
gfz2012keor  -0.66250
gfz2012klhx  -0.22690
gfz2012ldxg   0.05710
gfz2012ldzj  -0.59510
gfz2012minr  -0.33060
gfz2012pgcl  -1.16960
gfz2012rwov  -0.10150
gfz2012spbj  -1.43280
gfz2012uciv  -1.27350
gfz2012uhup   0.03390
gfz2012uzyj  -0.37310
gfz2012wizz  -1.63970
gfz2012wklq  -0.25300
gfz2012wmsg  -0.68990
gfz2012wxlg  -0.40090
gfz2012zjpv   1.25610
gfz2013ccnr   0.14900
gfz2013dkmz   0.80510
gfz2013dvyh   0.12070
gfz2013fygc   0.14940
gfz2013gdnq  -2.02240
gfz2013gock  -0.10990
gfz2013hxcx   2.16200
gfz2013ifpq   2.41600
gfz2013ikgo  -0.83350
gfz2013jesk   0.41980
gfz2013jgij   0.03070
gfz2013jgip  -1.17480
gfz2013jkut  -0.48040
gfz2013jusj  -1.46940
gfz2013kdeo   0.66400
gfz2013kheb  -0.09240
gfz2013ldqb  -0.04640
gfz2013lyko   0.51250
gfz2013mqmv  -0.93990
gfz2013mwbh   0.65780
gfz2013ncjp  -0.55810
gfz2013ndin   0.28920
gfz2013nixj   0.93510
gfz2013nkgj  -0.31870
gfz2013nqgw  -0.83300
gfz2013nuvi  -1.17450
gfz2013nwdi  -0.62910
gfz2013ozrp   0.47900
gfz2013pfbx   0.05980
gfz2013pxsj   0.18300
gfz2013qali   0.64690
gfz2013qmer  -0.39490
gfz2013qzdq  -0.88320
gfz2013sfto  -0.15380
gfz2013suvn   0.54330
gfz2013svci   0.53740
gfz2013tcxc   0.20160
gfz2013tusd   0.08810
gfz2013tvmw   0.22490
gfz2013txij   1.54130
gfz2013vfyw   0.30450
gfz2013vfzp  -0.11890
gfz2013vjjc  -1.11110
gfz2013wjmm  -0.87890
gfz2013wuon   1.23080
gfz2013xsdt   0.08710
gfz2013yctg   0.05170
gfz2013yqkv   0.23800
gfz2014afmx   1.57590
gfz2014algk   0.30890
gfz2014bwue  -1.91720
gfz2014bzxy  -0.30070
gfz2014chdv  -0.04000
gfz2014cvxx   0.28990
gfz2014czqi  -0.16890
gfz2014czua   0.44600
gfz2014dffd   0.18540
gfz2014dhxt  -0.23380
gfz2014ehsf  -0.26480
gfz2014ekcr  -0.38320
gfz2014enhi   0.51000
gfz2014ettc  -0.77200
gfz2014femz   0.16730
gfz2014fgvi  -0.42640
gfz2014fhbd   0.08610
gfz2014fhla  -0.58670
gfz2014fhrq   0.00720
gfz2014fkmr   0.03950
gfz2014ftka   0.66390
gfz2014fval  -0.10830
gfz2014gbcz  -0.36670
gfz2014gbdq   0.06330
gfz2014gxxo  -1.34170
gfz2014hbqb   0.17780
gfz2014hjgr   0.03530
gfz2014hocg  -1.04620
gfz2014hphw  -0.41350
gfz2014hqxs   1.29020
gfz2014hzfw   0.12550
gfz2014itjx  -1.35590
gfz2014jatq  -1.08790
gfz2014jcmt  -0.61000
gfz2014jjhc  -0.49600
gfz2014lddn  -2.12290
gfz2014lgqn   0.47380
gfz2014lxnc  -1.02330
gfz2014lyhk  -0.06780
gfz2014madw   0.58780
gfz2014npeo   0.05520
gfz2014nphm   0.58810
gfz2014nqfm  -0.20930
gfz2014nrie  -0.07130
gfz2014oinz   0.07830
gfz2014ppzf  -0.41920
gfz2014pvch   0.14240
gfz2014qlxd   0.05440
gfz2014qngj  -0.68400
gfz2014ssmv  -0.27950
gfz2014ssvz  -0.52550
gfz2014szzf   0.52930
gfz2014tovs  -0.00000
gfz2014tqdo  -0.30470
gfz2014tzsd  -0.30350
gfz2014uvrk  -0.25590
gfz2014vjoz  -1.24720
gfz2014waoo  -0.78640
gfz2014watn   0.13580
gfz2014wmsc   0.37640
gfz2014xbyr  -0.08490
gfz2014xqqd   0.05190
gfz2015apnk   0.20100
gfz2015aruz  -0.54800
gfz2015berb  -1.28240
gfz2015chhn  -1.02490
gfz2015cxxk  -0.51290
gfz2015cyjd   0.39880
gfz2015dskr   0.36470
gfz2015dvbn  -0.21870
gfz2015eiky   0.28750
gfz2015elgy  -0.28480
gfz2015etai   0.11410
gfz2015fcua  -0.32380
gfz2015fjhk  -0.01580
gfz2015fkgt  -0.39220
gfz2015fsjj  -0.00300
gfz2015gckd   0.21670
gfz2015hdcp  -1.34740
gfz2015ixyy  -0.10900
gfz2015jzcv  -0.24320
gfz2015kakw   0.31830
gfz2015kfsu   0.41920
gfz2015kkth   0.08040
gfz2015kxxs  -2.70850
gfz2015lcma  -1.51910
gfz2015lhjy  -0.24110
gfz2015lytv   0.80560
gfz2015mpte   0.18470
gfz2015nqgf   0.41840
gfz2015ocdz   0.12420
gfz2015okmq  -0.55110
gfz2015oyfl  -0.29070
gfz2015qnho  -0.14230
gfz2015rddx  -0.58360
gfz2015rpzn  -2.07590
gfz2015rwsb  -1.64400
gfz2015sfdd   0.08240
gfz2015sfdv  -0.19310
gfz2015sfdy   0.13340
gfz2015sfeo   0.61190
gfz2015sfga   0.63670
gfz2015sfho   0.49040
gfz2015sfhz  -0.86470
gfz2015sfiq  -0.64600
gfz2015sfkh  -0.48700
gfz2015sflf   0.47480
gfz2015sfnb   0.80840
gfz2015sfno  -0.36150
gfz2015sfnv  -0.02640
gfz2015sfoc   0.33260
gfz2015sfoq   0.48960
gfz2015sfqo   0.13530
gfz2015sfuz  -0.33520
gfz2015sfwf  -0.16180
gfz2015sgdj  -0.85320
gfz2015shhu  -0.24530
gfz2015shjn   0.15400
gfz2015shrg   2.38020
gfz2015shsz  -0.83720
gfz2015siyy  -0.62170
gfz2015sjbx   0.62610
gfz2015sjfi  -0.06250
gfz2015sjgk   0.43070
gfz2015sjne   0.02030
gfz2015sjoj   0.01280
gfz2015sjvu  -0.33080
gfz2015sjwi   1.38190
gfz2015skxu  -0.09550
gfz2015sldx   0.12770
gfz2015sljs  -1.00060
gfz2015slun   0.27130
gfz2015smym   0.14200
gfz2015snsf   0.67360
gfz2015snwh  -0.86150
gfz2015snyd   0.51560
gfz2015soat  -0.01740
gfz2015soxc  -0.28090
gfz2015sqmy  -0.43990
gfz2015stfy   0.46720
gfz2015svwm  -0.08740
gfz2015szcb  -0.53840
gfz2015sztx  -0.32890
gfz2015taml   0.20200
gfz2015tchx   0.07920
gfz2015tdbb  -0.02640
