# Nsamples: 34  MAD:  0.303  mean: -0.254  variance:  2.009
gfz2010bxxs   0.05130
gfz2010ebhc   0.49680
gfz2010grjd  -1.84170
gfz2010nmpc   0.21390
gfz2010usho   0.15390
gfz2011gkzt  -0.05530
gfz2011hlsa   0.22870
gfz2011lcxq   0.47450
gfz2011lzwj   0.00000
gfz2011toub   0.26200
gfz2011wxfs   0.01340
gfz2012jlox   0.20500
gfz2012vrgb   0.56930
gfz2012wypz   0.42740
gfz2013kdeo   0.00460
gfz2013svci   0.92310
gfz2013uauo   1.21770
gfz2014afmx   0.56250
gfz2014ande  -0.06820
gfz2014bwue  -0.21170
gfz2014fgvi  -0.06050
gfz2014fkmr   0.29790
gfz2014frwh  -5.99420
gfz2014ftka  -3.01760
gfz2014fval  -0.27100
gfz2014gkgf  -0.22250
gfz2014gkjt  -0.02040
gfz2014goba   0.13350
gfz2014hasj   0.64740
gfz2014macx   0.19720
gfz2014nqfm   0.14690
gfz2014oinz  -0.14810
gfz2014ubwn   0.22970
gfz2015dvbn  -4.16720
