# Nsamples: 14  MAD:  0.566  mean: -0.145  variance:  0.419
gfz2010grjd  -1.33810
gfz2010nmpc  -0.04660
gfz2011aatr  -0.07010
gfz2011enva  -0.34060
gfz2012vrgb  -0.18870
gfz2012wypz  -0.06550
gfz2013jkut   0.66840
gfz2013nwdi   0.11660
gfz2013svci   0.44690
gfz2014bwue  -0.65370
gfz2014fgvi  -0.37260
gfz2014ftka   0.86670
gfz2014gkgf  -1.43900
gfz2015cyjd   0.39140
