# Nsamples: 46  MAD:  0.388  mean: -0.184  variance:  0.494
gfz2010eaoy   0.35540
gfz2010grjd  -1.22530
gfz2010iull   0.02130
gfz2010nmpc  -0.28390
gfz2011aatr   0.15910
gfz2011enva  -0.30830
gfz2011hlqw  -0.21660
gfz2011hlsa  -0.08980
gfz2011jplh  -0.31300
gfz2011lcxq   0.40120
gfz2011lzwj   0.06400
gfz2011mjom  -0.96180
gfz2011rewa  -0.11840
gfz2011toub   0.23980
gfz2011wxfs  -0.04160
gfz2012enno   0.11010
gfz2012jlox  -0.34940
gfz2012kkup  -0.38320
gfz2012klhx  -0.14570
gfz2012kudo   0.03480
gfz2012ldxg  -0.29030
gfz2012wypz   0.01170
gfz2013ccnr  -0.08350
gfz2013drxz   0.13010
gfz2013jkut   0.39950
gfz2013nwdi  -0.50440
gfz2013pfbx  -0.67560
gfz2013svci   0.24770
gfz2014bwue  -0.64060
gfz2014fgvi  -0.83110
gfz2014fhla   1.91690
gfz2014gkgf  -0.62850
gfz2014gmhr   1.73320
gfz2014qqhm   0.47510
gfz2014vhms  -2.03600
gfz2015chhn  -0.41590
gfz2015cyjd   0.83760
gfz2015fsjj  -2.05660
gfz2015lhjy  -0.05530
gfz2015sfdd  -0.12670
gfz2015sfdy  -0.38850
gfz2015smym  -0.84410
gfz2015snwh  -1.04510
gfz2015soxc  -0.39330
gfz2015svwm  -0.13960
gfz2015taml   0.01190
