# Nsamples: 57  MAD:  0.574  mean: -0.242  variance:  1.042
gfz2010bxxs  -0.89400
gfz2010cqwl   0.09650
gfz2010grjd  -1.60150
gfz2010iull  -0.05600
gfz2010jucj  -2.94780
gfz2010nmpc  -0.19830
gfz2011aatr  -0.18180
gfz2011enva  -0.58530
gfz2011hlqw   0.15420
gfz2011hlsa  -0.24090
gfz2011lcxq  -0.19240
gfz2011lzwj  -0.16450
gfz2011rewa  -0.06890
gfz2011toub  -0.08590
gfz2011wxfs  -0.12240
gfz2012ilxh   2.23270
gfz2012kkup  -0.51520
gfz2012klhx  -0.60660
gfz2012kuct  -1.51870
gfz2012kudo  -0.44330
gfz2012teic  -0.18180
gfz2012vrgb  -0.25860
gfz2012wypz  -0.37020
gfz2013ccnr   0.31030
gfz2013drxz  -0.48140
gfz2013nwdi  -0.48230
gfz2013svci   0.20800
gfz2014fgvi  -0.35640
gfz2014fhla  -1.86970
gfz2014ftka  -1.53520
gfz2014gkgf   0.50920
gfz2014gkqf  -0.58960
gfz2014gmge  -0.33010
gfz2014gmhr   0.84370
gfz2014gmnb   0.50550
gfz2014goba   1.03290
gfz2014hasj  -1.39070
gfz2014hqxs   1.16070
gfz2014jjhc   0.47190
gfz2014lkyf  -3.75530
gfz2014lxnc  -0.46820
gfz2014ncub   0.34330
gfz2014nqfm  -0.37980
gfz2015cxrc  -0.20250
gfz2015cyjd   1.28020
gfz2015fsjj  -0.35460
gfz2015fwkq  -1.32230
gfz2015lhjy  -0.07650
gfz2015sfdd   0.76660
gfz2015sfdy  -0.34860
gfz2015sfno   1.31980
gfz2015smym  -1.26190
gfz2015snwh  -1.25860
gfz2015soxc   0.27560
gfz2015sspn   2.17340
gfz2015svwm  -0.27660
gfz2015taml   0.50150
