# Nsamples: 29  MAD:  0.595  mean: -0.205  variance:  0.667
gfz2010bxxs  -0.26760
gfz2010iull  -0.45650
gfz2010nmpc  -0.01520
gfz2010usho   0.81380
gfz2011cvcg   2.28400
gfz2011gkzt  -0.69610
gfz2011toub   0.20800
gfz2012enno  -0.37640
gfz2012jlox  -0.99970
gfz2012kudo  -0.10730
gfz2012ldxg  -1.02780
gfz2012wypz   0.00510
gfz2013drxz   0.00090
gfz2013nwdi  -0.94680
gfz2013pfbx  -0.29760
gfz2013svci  -0.30410
gfz2013ypdc   0.44940
gfz2014fgvi  -0.59430
gfz2014gkgf  -2.76650
gfz2014gkqf  -0.82850
gfz2014gmhr   0.29000
gfz2014ssvz   0.38500
gfz2015fsjj   0.13090
gfz2015lhjy   0.23970
gfz2015mpte  -0.11150
gfz2015sfdd   0.46530
gfz2015snmg  -0.58580
gfz2015snwh  -0.90660
gfz2015svwm   0.06740
