# Nsamples: 7  MAD:  0.882  mean:  1.888  variance:  1.472
gfz2010eaoy   1.15130
gfz2010eisx   0.58720
gfz2010elyc   1.18180
gfz2010excp   1.09710
gfz2010rqwj   1.83650
gfz2013jusj   4.18830
gfz2013vjjc   3.17420
