# Nsamples: 8  MAD:  1.001  mean:  1.970  variance:  0.697
gfz2010eaoy   0.69430
gfz2010earu   2.90850
gfz2010eisx   2.10850
gfz2010elyc   1.15180
gfz2010exdd   3.33020
gfz2011aatr   2.38060
gfz2011adjs   1.79120
gfz2014arpf   1.39790
