# Nsamples: 29  MAD:  0.645  mean:  0.451  variance:  1.717
gfz2010nmpc   0.45520
gfz2010nqwo  -1.99150
gfz2010rqwj   0.07510
gfz2010sfee   2.29960
gfz2010usho   0.10080
gfz2010ustq  -0.07830
gfz2010utcg   1.04900
gfz2011aatr   0.13190
gfz2011adjs  -0.03970
gfz2011bgrp   1.18300
gfz2011csju   0.35700
gfz2011cykd   0.35870
gfz2011cyuk   0.33990
gfz2011dpqx   1.94590
gfz2011enva   0.12290
gfz2011gkzt  -1.01830
gfz2011hlqw   1.13040
gfz2011hlsa   0.41810
gfz2011hlth   0.87080
gfz2011lcxq   1.98610
gfz2011mdie  -3.29010
gfz2011nudm   0.68040
gfz2011rewa   0.32080
gfz2011vhfi   1.03880
gfz2011vrhg  -0.07430
gfz2011wxfs  -0.03910
gfz2011xyxj   0.97170
gfz2013nkgj  -0.53200
gfz2013vjjc   4.31690
