# Nsamples: 22  MAD:  0.435  mean: -0.200  variance:  0.471
gfz2010iull  -0.09780
gfz2010nmpc   0.00000
gfz2011aatr  -0.18350
gfz2011enva   1.39260
gfz2011hlsa  -0.22580
gfz2011lzwj   0.00680
gfz2011rewa  -0.66390
gfz2011toub  -0.09710
gfz2011wxfs  -0.02240
gfz2012jlox  -1.39090
gfz2013nwdi  -0.47750
gfz2013svci   0.22730
gfz2014oinz  -0.52860
gfz2015chhn  -1.10390
gfz2015cyjd   1.71620
gfz2015fsjj   0.22820
gfz2015lhjy  -0.37850
gfz2015sfdd  -0.43540
gfz2015sfdy  -0.17540
gfz2015snwh  -0.70530
gfz2015svwm  -0.51920
gfz2015taml  -0.95870
