# Nsamples: 30  MAD:  0.643  mean: -0.220  variance:  1.396
gfz2010iull  -0.27310
gfz2010nmpc  -0.16890
gfz2011aatr  -1.11450
gfz2011enva   0.03270
gfz2011hlsa  -0.81510
gfz2011lcxq   1.25160
gfz2011lzwj  -0.17050
gfz2011rewa   0.33890
gfz2011wxfs  -0.34770
gfz2012jlox  -0.55110
gfz2012klhx  -0.43320
gfz2012wypz   0.02290
gfz2013drxz  -0.87750
gfz2013jkut   0.28590
gfz2013nwdi  -2.66430
gfz2013pfbx  -0.59180
gfz2013svci  -0.08140
gfz2014fgvi  -0.23560
gfz2014fhla   4.41090
gfz2014gkgf   0.27550
gfz2014gmhr   0.72670
gfz2014goba  -2.65770
gfz2014hasj  -0.48880
gfz2015chhn  -0.08080
gfz2015fsjj   0.13180
gfz2015kxxs   0.55610
gfz2015lhjy  -0.13890
gfz2015sfdd  -1.10080
gfz2015snwh  -0.83220
gfz2015svwm  -1.01450
