# Nsamples: 26  MAD:  0.416  mean: -0.227  variance:  0.331
gfz2010bxxs  -0.38980
gfz2010homc  -0.40630
gfz2010iull   0.12450
gfz2010nmpc  -0.29990
gfz2011aatr  -0.88540
gfz2011enva   0.55630
gfz2011lcxq   1.07500
gfz2011lzwj  -0.45800
gfz2011rewa  -0.32030
gfz2011wxfs  -0.41140
gfz2012jlox   0.43090
gfz2012kudo  -0.52550
gfz2012vrgb  -0.05060
gfz2012wypz  -0.53410
gfz2013drxz  -0.61170
gfz2013jkut   0.42720
gfz2013nwdi   1.14130
gfz2013pfbx  -0.47430
gfz2013svci  -0.12760
gfz2014fgvi  -1.20190
gfz2014gmhr  -0.12150
gfz2014oinz  -0.90150
gfz2014ssvz  -0.80690
gfz2015cyjd  -0.98490
gfz2015fsjj   0.07580
gfz2015sfdd  -0.20940
