# Nsamples: 19  MAD:  0.675  mean: -0.972  variance:  0.448
gfz2010iull  -1.28290
gfz2011aatr  -1.83930
gfz2011lcxq   0.61970
gfz2011lzwj  -1.71210
gfz2011rewa  -1.05070
gfz2011wxfs  -1.34180
gfz2012jlox  -1.49880
gfz2012kudo  -0.67980
gfz2013drxz  -1.62920
gfz2013jkut  -0.65250
gfz2013nwdi  -1.65870
gfz2013svci  -1.02060
gfz2014fgvi  -1.13480
gfz2014gkgf  -1.30380
gfz2014gmhr  -0.33640
gfz2015fsjj  -0.38930
gfz2015iwqk   0.44510
gfz2015sfdd  -0.71090
gfz2015svwm  -1.29270
