# Nsamples: 55  MAD:  0.538  mean: -0.232  variance:  0.504
gfz2010bowy  -1.04210
gfz2010bxxs  -0.38690
gfz2010grjd  -1.00120
gfz2010iull  -0.14200
gfz2010nmpc  -0.54450
gfz2010usho   0.18940
gfz2011aatr   0.16460
gfz2011enva  -0.50730
gfz2011gkzt  -1.40810
gfz2011hlqw  -0.72820
gfz2011hlsa  -0.63210
gfz2011hlth  -0.67230
gfz2011lcxq   0.27320
gfz2011lzwj  -0.03230
gfz2011rewa  -0.08150
gfz2011toub  -0.08370
gfz2011wxfs  -0.25230
gfz2012enno  -0.16130
gfz2012jlox   0.04820
gfz2012kkup  -0.44680
gfz2012klhx  -0.54100
gfz2012ldxg   0.54180
gfz2012ldzj  -0.46880
gfz2012ttoa   0.61090
gfz2012vrgb   0.07840
gfz2012wypz   0.12890
gfz2013drxz  -0.23370
gfz2013jkut   0.14570
gfz2013kdeo  -0.21670
gfz2013nwdi  -0.86030
gfz2013pfbx  -0.05300
gfz2013svci   0.18080
gfz2014bwue  -0.39680
gfz2014fgvi  -0.36520
gfz2014fhla  -1.54240
gfz2014ftka   0.17080
gfz2014gkgf  -0.41040
gfz2014gkhy  -0.20960
gfz2014gkqf  -0.86940
gfz2014gltx  -0.39490
gfz2014gmhr   1.54780
gfz2014gmnb   0.14340
gfz2014goba   0.75880
gfz2014gull   1.88510
gfz2014hasj   0.25980
gfz2014huaj  -1.29790
gfz2014jjhc  -0.41410
gfz2014jpep  -2.76500
gfz2014nqfm  -0.52610
gfz2014qqhm   0.12930
gfz2014ssvz  -0.31570
gfz2015cyjd   0.76930
gfz2015fsjj  -0.91360
gfz2015lhjy  -0.28130
gfz2015mpte   0.39270
