# Nsamples: 36  MAD:  0.733  mean: -0.175  variance:  0.581
gfz2010grjd  -0.81590
gfz2010iull  -0.35320
gfz2010nmpc  -0.37080
gfz2010xbcr   0.32480
gfz2011aatr  -1.60260
gfz2011lcxq  -0.57940
gfz2011lzwj  -0.08360
gfz2011rewa  -0.03130
gfz2011toub  -0.31700
gfz2011wxfs  -0.51790
gfz2012jlox  -0.35290
gfz2012kudo   0.42480
gfz2012ldxg  -0.79720
gfz2012ldzj   0.84170
gfz2012teic   0.22080
gfz2012ttoa   1.22820
gfz2012vrgb   0.75000
gfz2012wypz  -0.35400
gfz2013nwdi  -1.34510
gfz2013svci   0.23780
gfz2014bwue  -0.79800
gfz2014fgvi  -0.42630
gfz2014fhla   1.97550
gfz2014ftka  -0.88090
gfz2014gkgf  -0.38540
gfz2014gkqf  -2.18850
gfz2014gmnb  -0.19730
gfz2014goba  -0.53640
gfz2014hasj   0.27720
gfz2014jjhc  -0.15300
gfz2014nqfm  -0.82300
gfz2014qqhm   0.43960
gfz2014ssvz   0.23420
gfz2015cyjd   0.23610
gfz2015lhjy   0.09550
gfz2015taml   0.32600
