# Nsamples: 11  MAD:  0.761  mean: -0.571  variance:  4.040
gfz2010iull  -0.39230
gfz2011rewa  -0.43770
gfz2011wxfs  -0.48870
gfz2012jlox  -0.90580
gfz2012kkup   1.06570
gfz2012kudo   0.59340
gfz2013dspt   2.53470
gfz2013nwdi  -0.28820
gfz2013svci  -0.32930
gfz2014gkgf  -1.64950
gfz2015hwzw  -5.98290
