# Nsamples: 46  MAD:  0.657  mean: -0.228  variance:  0.656
gfz2010bxxs  -0.60300
gfz2010cqwl  -0.10570
gfz2010ebhc   0.78000
gfz2010grjd   0.18460
gfz2010iull  -0.39640
gfz2010lluj  -0.90750
gfz2010nmpc   0.22290
gfz2011aatr   0.12010
gfz2011enva  -0.72640
gfz2011gkzt  -0.90560
gfz2011hlqw  -0.16950
gfz2011hlsa  -0.36120
gfz2011hlth   0.50710
gfz2011lzwj  -0.65280
gfz2011rewa   0.85110
gfz2011toub  -0.04850
gfz2011wxfs  -0.37280
gfz2012enno   0.61210
gfz2012jlox  -0.66760
gfz2012kkup   0.02000
gfz2012klhx   0.44080
gfz2012kudo  -0.31230
gfz2012ldxg  -1.02350
gfz2012ldzj  -0.27620
gfz2012vrgb   0.03370
gfz2012wypz  -0.15820
gfz2013drxz   0.62220
gfz2013jkut  -0.09460
gfz2013nwdi  -0.18920
gfz2013pfbx   0.05080
gfz2013svci  -0.12540
gfz2014afmx  -0.02170
gfz2014bwue  -1.11350
gfz2014fgvi  -0.69270
gfz2014frdz   1.53000
gfz2014ftka  -0.83070
gfz2014gkgf   0.07630
gfz2014gkqf  -0.67130
gfz2014gmge   0.02840
gfz2014gmhr   1.05330
gfz2014hjgh  -2.00210
gfz2014hqxs  -0.95980
gfz2014nqfm  -0.41740
gfz2014tfgn  -3.39680
gfz2015cyjd   1.19180
gfz2015fsjj  -0.61090
