# Nsamples: 16  MAD:  1.461  mean:  1.825  variance:  4.050
gfz2010eaoy   0.97850
gfz2010earu   0.76700
gfz2010ecua   1.66940
gfz2010eisx   2.42440
gfz2010elyc   0.92670
gfz2010rqwj   1.87520
gfz2011aatr   2.94900
gfz2011rewa   2.57440
gfz2012enno   3.18970
gfz2013drxz   1.87450
gfz2013vjjc   3.97370
gfz2014ekdt  -1.65290
gfz2015chhn   2.92780
gfz2015cyjd   5.66670
gfz2015lytv   2.25420
gfz2015sfdd  -3.19660
