# Nsamples: 60  MAD:  0.532  mean: -0.139  variance:  0.616
gfz2010bowy   0.27450
gfz2010bxxs  -0.50730
gfz2010cqwl  -0.63470
gfz2010usho   0.24680
gfz2011aatr  -0.33960
gfz2011enva  -0.45750
gfz2011gkzt  -3.22020
gfz2011hlqw  -0.41630
gfz2011hlsa  -0.21810
gfz2011lzwj  -0.44870
gfz2011mjom   2.03920
gfz2011rewa   0.05820
gfz2011toub  -0.36710
gfz2011wxfs  -0.26630
gfz2012enno   0.36870
gfz2012jlox   0.27960
gfz2012kkup  -0.21760
gfz2012klhx  -0.30930
gfz2012kudo  -0.14470
gfz2012ldxg   0.28700
gfz2012sphd  -1.44860
gfz2012ttoa   0.38760
gfz2012vrgb   0.54810
gfz2012wypz  -0.37890
gfz2013drxz   0.09390
gfz2013jkut   0.15570
gfz2013kdeo   0.20120
gfz2013nwdi  -0.66980
gfz2013pfbx   0.23780
gfz2013svci   0.21430
gfz2014afmx   0.14680
gfz2014ande  -0.40510
gfz2014bwue  -0.18480
gfz2014fgvi  -0.28020
gfz2014fhla   1.23550
gfz2014fkmr   0.30280
gfz2014ftka  -0.00000
gfz2014fval  -0.44260
gfz2014gkgf  -1.08320
gfz2014gkqf  -0.74780
gfz2014gltx  -1.35310
gfz2014gmge  -0.06080
gfz2014gmhr   1.21720
gfz2014gmnb  -0.19700
gfz2014goba  -0.58380
gfz2014gsqs   1.22000
gfz2014hasj  -1.48750
gfz2014huaj  -0.47180
gfz2014jpep  -0.19310
gfz2014lxnc  -0.27360
gfz2014nqfm   1.53390
gfz2014pvch  -1.52590
gfz2014qqhm   0.35130
gfz2014ssvz  -0.32450
gfz2015cyjd   0.93980
gfz2015fsjj  -0.44060
gfz2015gckd  -0.08720
gfz2015lhjy  -0.39390
gfz2015mpte   0.34930
gfz2015taml  -0.42880
