# Nsamples: 52  MAD:  0.442  mean: -0.187  variance:  0.811
gfz2010bjeb   0.22710
gfz2010bxxs  -0.33490
gfz2010ebhc   0.56870
gfz2010grjd  -1.08200
gfz2010iull  -0.38290
gfz2010nmpc  -0.22450
gfz2011aatr   0.10720
gfz2011dpqx  -0.62720
gfz2011enva  -0.59590
gfz2011hlqw  -0.37980
gfz2011hlsa  -0.37120
gfz2011jplh  -0.33810
gfz2011lcxq  -0.10210
gfz2011lzwj  -0.10390
gfz2011rewa   0.14480
gfz2011toub  -0.04080
gfz2011wxfs  -0.37500
gfz2012enno   0.40450
gfz2012jlox  -0.23840
gfz2012kkcp  -4.18370
gfz2012kkup  -0.18780
gfz2012klhx  -0.16670
gfz2012kuct  -0.58530
gfz2012kudo  -0.41180
gfz2012wypz   0.03630
gfz2013drxz   0.01410
gfz2013nwdi  -1.49880
gfz2013pfbx  -0.24130
gfz2013svci  -0.21890
gfz2013xsdt  -0.62460
gfz2014bwue  -0.29400
gfz2014fgvi  -0.48670
gfz2014fhla   0.30970
gfz2014frdz   3.23220
gfz2014ftka  -1.02890
gfz2014gkgf  -0.22280
gfz2014gkqf  -1.26360
gfz2014gmge  -0.56000
gfz2014gmhr   0.96720
gfz2014gmnb  -0.30980
gfz2014goba   0.56430
gfz2014jjhc   0.29400
gfz2014jpep  -0.71000
gfz2014nqfm  -0.80380
gfz2014ssvz  -0.39830
gfz2014vhld   1.12600
gfz2015chhn   0.35010
gfz2015cyjd   1.06200
gfz2015fsjj  -0.07440
gfz2015lhjy  -0.36940
gfz2015mpte   0.00610
gfz2015taml   0.68480
