# Nsamples: 12  MAD:  0.563  mean: -1.296  variance:  1.741
gfz2012wypz  -0.62100
gfz2013suvn  -3.07540
gfz2013svci  -0.10400
gfz2014fgvi  -0.91950
gfz2014fhla   0.18100
gfz2014ftka  -1.17860
gfz2014gkgf  -1.08400
gfz2014gkqf  -1.37990
gfz2014gmnb  -0.98070
gfz2014jjhc  -0.40990
gfz2014jpep  -4.83890
gfz2014lxnc  -1.14060
