# Nsamples: 40  MAD:  0.366  mean: -0.129  variance:  0.481
gfz2012vrgb  -0.25450
gfz2012wypz  -0.01540
gfz2013pfbx   0.51580
gfz2013svci   0.21860
gfz2013uauo   0.10710
gfz2014afmx  -0.79620
gfz2014ande  -2.42670
gfz2014bwue  -0.01870
gfz2014fgvi   0.00260
gfz2014fhla  -0.06390
gfz2014frdz   0.48460
gfz2014ftka  -0.77860
gfz2014ftoc  -0.42090
gfz2014gkgf  -1.37650
gfz2014gkqf  -0.34780
gfz2014gltx  -0.00150
gfz2014gmhr   1.87950
gfz2014gmnb  -0.18070
gfz2014goba  -0.62400
gfz2014hasj   0.08890
gfz2014hocg   0.38150
gfz2014huaj  -1.17060
gfz2014jjhc   0.17020
gfz2014jpep  -0.23390
gfz2014lgqn   0.58340
gfz2014lxnc   0.01330
gfz2014nqfm  -0.99370
gfz2014nrie  -0.21610
gfz2014qlxd  -0.48020
gfz2014qqhm   0.23990
gfz2014ssvz   0.04450
gfz2014ubwn   0.19310
gfz2015berb  -0.20020
gfz2015chhn   0.50860
gfz2015cyjd   0.84660
gfz2015fsjj  -1.24500
gfz2015jzcv   0.23400
gfz2015lhjy  -0.11590
gfz2015mpte   0.26200
gfz2015taml   0.03630
