# Nsamples: 10  MAD:  0.244  mean: -0.261  variance:  2.524
gfz2010grjd  -1.99650
gfz2010iull  -0.15200
gfz2010nmpc   1.14890
gfz2011enva   0.14210
gfz2011lcxq  -0.11600
gfz2011lzwj   0.04970
gfz2011wxfs  -0.05190
gfz2012jlox  -0.08540
gfz2014ftka  -3.88560
gfz2015cyjd   2.33390
