# Nsamples: 39  MAD:  0.373  mean: -0.319  variance:  0.559
gfz2010iull  -0.32980
gfz2010nmpc   0.04200
gfz2011aatr  -0.65010
gfz2011enva   0.47490
gfz2011hlsa  -0.63350
gfz2011lcxq   0.48250
gfz2011lzwj  -0.37210
gfz2011rewa  -0.24450
gfz2011toub  -0.23480
gfz2011wxfs  -0.54150
gfz2012enno  -0.51910
gfz2012jlox   0.38790
gfz2012kkup  -1.10290
gfz2012klhx  -0.72410
gfz2012kudo  -0.67170
gfz2012wypz  -0.52600
gfz2013drxz  -0.67670
gfz2013jkut   0.02270
gfz2013nwdi   1.76020
gfz2013pfbx  -0.42170
gfz2013svci  -0.23320
gfz2013xsdt   0.07420
gfz2014fgvi  -0.46580
gfz2014ftka  -0.11000
gfz2014gkgf  -2.05750
gfz2014gkhy  -0.40090
gfz2014gkqf  -0.63510
gfz2014gmge  -2.50800
gfz2014gmhr  -0.80100
gfz2014gmnb  -0.58020
gfz2014goba   1.61640
gfz2014moaw   0.18260
gfz2014nqfm  -0.64410
gfz2014ssvz   0.73240
gfz2015fsjj  -0.52340
gfz2015lhjy  -0.42040
gfz2015sfdd  -0.14520
gfz2015snwh  -0.17450
gfz2015svwm  -0.86120
