# Nsamples: 560  MAD:  0.534  mean:  0.013  variance:  0.882
gfz2010aerk  -0.00000
gfz2010ahqi   0.16800
gfz2010bfzs  -0.23300
gfz2010bgth  -0.52020
gfz2010bifb  -1.61860
gfz2010bjeb  -0.10520
gfz2010bowy  -0.02130
gfz2010boxo  -0.89900
gfz2010bxxs  -0.28880
gfz2010caft  -0.57430
gfz2010cbkg   0.14100
gfz2010cdbt   0.97140
gfz2010cjqh  -0.32400
gfz2010ckzm  -1.00230
gfz2010cnwc  -0.59950
gfz2010cqwl   0.11950
gfz2010czps  -0.21320
gfz2010dejx   0.13140
gfz2010dfru  -0.30560
gfz2010dlgc   0.54910
gfz2010dumm   0.19930
gfz2010eaoy  -0.65370
gfz2010eapn   0.91380
gfz2010eaqy  -0.02090
gfz2010earu  -2.39580
gfz2010easo  -0.43450
gfz2010easu   1.40780
gfz2010eatt   2.59400
gfz2010eavs  -0.25480
gfz2010eawb  -1.03920
gfz2010eawu  -1.17230
gfz2010eaxa  -0.30420
gfz2010eazu   0.24660
gfz2010ebfa  -1.75930
gfz2010ebhc   0.90530
gfz2010ebih  -0.33820
gfz2010ebin   2.30100
gfz2010ebjy  -0.13050
gfz2010ebkj   0.33300
gfz2010ebll  -0.16690
gfz2010ebmb  -1.39480
gfz2010ebmi  -2.82390
gfz2010ebnn  -1.15420
gfz2010ebrm  -0.82130
gfz2010ebvm  -1.41130
gfz2010ebvv   0.52630
gfz2010ebxl   0.99560
gfz2010ebzr   0.66420
gfz2010ecam  -0.38670
gfz2010ecay   0.48800
gfz2010ecbi  -1.18130
gfz2010echc   0.46740
gfz2010echt   0.74800
gfz2010ecua  -0.00000
gfz2010edat   0.27340
gfz2010eday   0.19590
gfz2010edhv   1.10860
gfz2010edvf   0.38150
gfz2010edyi  -0.21800
gfz2010eefo  -0.56030
gfz2010eevu  -0.37960
gfz2010egld   0.32280
gfz2010egmp   0.31290
gfz2010ehft  -0.53130
gfz2010eisx  -3.73030
gfz2010eixj   1.32660
gfz2010ejjg  -0.76550
gfz2010ekyc  -0.53810
gfz2010elhv   0.03030
gfz2010eltf   2.46270
gfz2010elyc   1.66190
gfz2010enzl   0.60960
gfz2010epxj   6.17220
gfz2010eqjg   0.60340
gfz2010eqmu   3.01950
gfz2010erkn   0.37770
gfz2010erna   2.71530
gfz2010erum   0.45570
gfz2010eruy   0.15290
gfz2010erwn  -0.23710
gfz2010eryg   0.11710
gfz2010esid  -0.58420
gfz2010eujm  -0.49570
gfz2010euvl  -1.94170
gfz2010evco   1.01410
gfz2010ewvc   0.52660
gfz2010excp   0.37900
gfz2010exdd  -0.06720
gfz2010exdl   0.08540
gfz2010exhd   0.02100
gfz2010exhw  -0.44230
gfz2010exno  -1.10120
gfz2010ezax   0.19860
gfz2010ezck   0.61540
gfz2010fcax   0.35920
gfz2010fedq   0.28250
gfz2010ffhq  -0.82110
gfz2010flha  -0.98680
gfz2010flxi   0.27110
gfz2010fpqy   0.06690
gfz2010fqdu  -0.30020
gfz2010fser  -0.46100
gfz2010ftlm  -0.37890
gfz2010fupn  -1.20840
gfz2010fync   0.13760
gfz2010gcrl  -0.45640
gfz2010gcrp   1.08740
gfz2010glxl  -0.68160
gfz2010grjd  -0.27940
gfz2010gtzt  -0.47040
gfz2010gyqp  -0.61470
gfz2010gzxr  -0.93370
gfz2010hcio  -0.56830
gfz2010hjoc  -0.64400
gfz2010homc   0.21800
gfz2010hptz  -1.05150
gfz2010hrkr   0.26140
gfz2010hxbs  -1.01440
gfz2010iciq  -0.18720
gfz2010iobp  -1.57420
gfz2010iull   0.16470
gfz2010jxbm   0.82010
gfz2010jygz  -0.48200
gfz2010lepw   0.38300
gfz2010lgwy  -0.49340
gfz2010lkcf   0.80010
gfz2010lluj  -0.04350
gfz2010mkuu   0.12450
gfz2010mncc  -0.81680
gfz2010moyw  -0.59110
gfz2010nqwo  -1.69050
gfz2010nsck  -1.18020
gfz2010nubk   0.57870
gfz2010nwef   0.10000
gfz2010nxsy   0.24930
gfz2010odpb  -0.05760
gfz2010onma  -0.38950
gfz2010pbdz   0.53080
gfz2010pcxi  -0.11790
gfz2010rqwj   0.19390
gfz2010sfee   0.15010
gfz2010swcy   0.35220
gfz2010upfb  -0.48750
gfz2010usho   0.49170
gfz2010ustq   0.76530
gfz2010utcg   0.11640
gfz2010xcij   2.00880
gfz2010xjsj   0.03160
gfz2010yjev   1.48570
gfz2010yosr   0.29730
gfz2011aatr   0.49450
gfz2011adjs  -1.56010
gfz2011ahfw   0.46270
gfz2011alip   0.51900
gfz2011aqxf   8.46920
gfz2011bgrp  -0.11830
gfz2011ccpw  -0.06060
gfz2011cfae  -0.50460
gfz2011cndo  -0.78520
gfz2011cynl  -1.93700
gfz2011cyre   2.72630
gfz2011cyuk   0.62750
gfz2011dbev   0.45780
gfz2011dbig  -0.18350
gfz2011dbon  -0.73320
gfz2011dcqb  -0.24420
gfz2011deaf  -1.23500
gfz2011dpqx  -0.21590
gfz2011eayc  -0.12310
gfz2011eazf  -1.00380
gfz2011ecaj   0.78320
gfz2011edmm   1.06690
gfz2011eltw   5.18830
gfz2011enva  -0.30190
gfz2011eocc   1.48020
gfz2011etje   1.20320
gfz2011fgvr  -0.43530
gfz2011fkbn   0.89650
gfz2011flgj   0.03760
gfz2011fnsw   0.18380
gfz2011gbmx   0.04470
gfz2011gkzt  -1.13590
gfz2011gzbr   1.20020
gfz2011hbex  -0.06320
gfz2011hebt   0.24370
gfz2011hlqw  -0.04630
gfz2011hlsa  -0.18680
gfz2011hlth  -0.07920
gfz2011jxpl   0.74330
gfz2011knoo   0.09070
gfz2011kxzp   0.10050
gfz2011lcxq   1.28920
gfz2011lhls   0.83840
gfz2011mpme   2.18980
gfz2011nrwc  -0.87710
gfz2011ntkh   0.21290
gfz2011ohcy   0.86300
gfz2011olkk  -0.90870
gfz2011ornx   0.15690
gfz2011rewa   0.27050
gfz2011uphh   0.18580
gfz2011vnza   0.14880
gfz2011wxfs   0.20400
gfz2011wxtk  -0.63630
gfz2011xyxj   0.17810
gfz2011zklv   0.42960
gfz2011zqhh  -0.09860
gfz2012aqgp  -0.82350
gfz2012bfah   0.36130
gfz2012bfyn   0.45730
gfz2012bpkx  -0.82530
gfz2012bszs  -0.19020
gfz2012byad  -0.05050
gfz2012cgvr  -1.10380
gfz2012cnod  -0.23280
gfz2012cxdn  -1.67680
gfz2012czlw  -0.43400
gfz2012dyyh   0.20700
gfz2012ekda  -0.17450
gfz2012emjg   0.71090
gfz2012enno   0.38240
gfz2012ewgo  -0.62680
gfz2012foeo   0.67880
gfz2012fzfa  -0.40610
gfz2012gkvr   0.32800
gfz2012gomm   0.51770
gfz2012hnul   0.05640
gfz2012hyaa   0.38450
gfz2012imay   0.17080
gfz2012jlox   0.03000
gfz2012jupx  -1.41230
gfz2012kkup   0.05770
gfz2012kuct   0.27310
gfz2012kudo  -0.02170
gfz2012kwgo   0.52570
gfz2012lczo   0.57600
gfz2012ldxg  -0.46060
gfz2012ldzj   0.36990
gfz2012minr  -0.38950
gfz2012mvwr  -0.33060
gfz2012mwij   2.10930
gfz2012nojx   0.02530
gfz2012nqnk  -0.95440
gfz2012oazn  -0.19840
gfz2012quso  -0.99770
gfz2012rwov  -0.11100
gfz2012sphd   1.19140
gfz2012teic   0.14260
gfz2012uafg   0.41170
gfz2012vrgb  -0.12790
gfz2012vwvd  -2.03820
gfz2012wklq   0.30850
gfz2012wypz   0.46450
gfz2012zitl   4.99090
gfz2013aqaw   2.44480
gfz2013btjm  -0.36840
gfz2013bzzm   0.22440
gfz2013ccnr  -0.41780
gfz2013cdan  -0.81090
gfz2013cvqg   0.11570
gfz2013dofo  -1.24840
gfz2013dojq  -0.83250
gfz2013drxz  -0.27020
gfz2013dspt   0.09400
gfz2013dsrk  -0.55860
gfz2013dvyh  -0.34420
gfz2013egni   0.02390
gfz2013egpu  -0.14700
gfz2013fiud  -0.28490
gfz2013fygc  -0.15910
gfz2013gbst   0.23280
gfz2013gngz  -0.03990
gfz2013gock   0.13940
gfz2013iayx   0.05250
gfz2013ifpq  -0.10570
gfz2013ikgo  -0.05050
gfz2013inux  -0.03020
gfz2013ippu   0.19330
gfz2013jesk   0.26280
gfz2013jgij  -0.79580
gfz2013jgip  -0.15480
gfz2013jkut  -0.30740
gfz2013jwvc   0.20490
gfz2013kdeo  -0.21560
gfz2013khli  -0.10350
gfz2013ldpc  -0.33450
gfz2013ldqb  -0.16200
gfz2013lyko   0.38480
gfz2013mqmv  -0.79520
gfz2013mwbh  -0.19880
gfz2013ncjp   0.07030
gfz2013nixj   0.18950
gfz2013nkgj  -0.43470
gfz2013nwdi   1.39790
gfz2013ozrp   1.05420
gfz2013qali   0.80900
gfz2013qmer  -0.63990
gfz2013suvn   1.29380
gfz2013svci  -0.62800
gfz2013tusd   0.65020
gfz2013tvmw  -0.01380
gfz2013vfzp  -1.11100
gfz2013vjjc   0.61050
gfz2013vzbo   0.92010
gfz2013wjmm  -0.08880
gfz2013xsdt   0.21760
gfz2013yctg  -0.28520
gfz2013yqkv  -0.03500
gfz2013yyhc  -0.75120
gfz2013zmoc  -1.22220
gfz2014afmx  -0.36800
gfz2014algk  -0.40480
gfz2014ande   0.21230
gfz2014arpf  -0.68010
gfz2014bagd   0.27430
gfz2014bezu  -0.10310
gfz2014bmta  -0.33440
gfz2014bwue   0.08840
gfz2014bzxy  -0.21850
gfz2014chdv  -1.61120
gfz2014cmwb  -0.56060
gfz2014ctot   0.12940
gfz2014cvxx   0.07540
gfz2014czno   0.11000
gfz2014czqi  -0.34040
gfz2014czua  -0.07920
gfz2014dffd   0.20860
gfz2014dhxt   0.85970
gfz2014disp  -1.34130
gfz2014duqn  -0.00000
gfz2014ekcr   0.44090
gfz2014enhi   0.54370
gfz2014etqa   0.21950
gfz2014ettc  -0.45140
gfz2014femz  -0.23400
gfz2014fgvi   0.21050
gfz2014fgyo  -0.73610
gfz2014fhdw   0.37040
gfz2014fhla  -1.07540
gfz2014fhrq  -0.31420
gfz2014fhsg  -0.02090
gfz2014fhwx  -0.63520
gfz2014fimn   0.50600
gfz2014fjzd  -2.41140
gfz2014fkmr   1.27760
gfz2014fkmx  -0.08620
gfz2014fnyg   0.10800
gfz2014frdz   0.15060
gfz2014frez   0.08750
gfz2014frwh  -0.14150
gfz2014ftka  -0.68570
gfz2014ftoc   0.37660
gfz2014ftpw  -0.27100
gfz2014ftrk  -0.70790
gfz2014furx   0.47320
gfz2014fusj  -0.30800
gfz2014fuub  -1.00860
gfz2014fval   0.17810
gfz2014fvgh  -0.21530
gfz2014fvrg  -0.03570
gfz2014gbcz  -0.34720
gfz2014gbdq   0.55540
gfz2014ghpe  -0.13740
gfz2014gkgf   0.50150
gfz2014gkhp   3.56220
gfz2014gkhy   0.85620
gfz2014gkjl  -0.57340
gfz2014gkjt  -0.30630
gfz2014gkmm  -0.47090
gfz2014gkob  -0.28170
gfz2014gkpj   1.01950
gfz2014gkqf  -0.24940
gfz2014gkqu   0.20580
gfz2014gktq   0.97390
gfz2014glcu   0.03870
gfz2014gltx   0.33550
gfz2014gmci   0.00530
gfz2014gmge  -0.38990
gfz2014gmhr  -0.45820
gfz2014gmip   0.77280
gfz2014gmjo   0.46560
gfz2014gmku   0.55580
gfz2014gmlz   0.05620
gfz2014gmnb  -0.01860
gfz2014gmnw   0.22500
gfz2014gmor  -0.46180
gfz2014gmpy  -0.15920
gfz2014gmuk   0.16640
gfz2014gmzl   0.03800
gfz2014gnfd  -0.26980
gfz2014gngg  -0.09250
gfz2014gnnt   0.27580
gfz2014gnre   0.75730
gfz2014goba  -0.22100
gfz2014goqw   0.28930
gfz2014gori  -0.08310
gfz2014gpce  -0.62570
gfz2014gphr  -0.15510
gfz2014gpuk  -0.91960
gfz2014gpya  -0.25600
gfz2014gqbj   0.19970
gfz2014gqer   1.23560
gfz2014gqve  -0.14210
gfz2014gsqs  -0.00000
gfz2014gull   0.42730
gfz2014gvqj  -0.43750
gfz2014gvra  -0.59420
gfz2014gvrd  -2.28570
gfz2014gwab   2.60400
gfz2014gxkh  -0.87760
gfz2014gxxo  -0.28400
gfz2014hagb   0.53840
gfz2014hasj   0.25960
gfz2014hbqb   0.26110
gfz2014hfad  -0.31800
gfz2014hgqo   0.39570
gfz2014hjgh  -0.15920
gfz2014hjgr   0.11430
gfz2014hjij  -0.08740
gfz2014hjlx   0.44810
gfz2014hkcf   0.40700
gfz2014hocg   0.29770
gfz2014hphw  -0.48050
gfz2014hqxs  -0.09200
gfz2014hrft  -0.38480
gfz2014huaj   0.67730
gfz2014hzfw   1.09700
gfz2014hzgn   0.28840
gfz2014ifue   0.24840
gfz2014imnn  -0.02160
gfz2014iobd  -0.42210
gfz2014irci  -2.04450
gfz2014isys  -0.82920
gfz2014itkw  -0.21610
gfz2014itpj  -0.23450
gfz2014iuhq   0.40830
gfz2014jcmt   0.83430
gfz2014jfis   0.01940
gfz2014jjhc   0.86240
gfz2014jjln   0.18490
gfz2014jnyv  -0.06530
gfz2014jomw  -0.03130
gfz2014jpep  -0.17580
gfz2014jwmh  -0.15430
gfz2014kbuk  -0.68900
gfz2014khan   0.19620
gfz2014kkhh   0.84860
gfz2014kndc   0.29090
gfz2014kwrg  -0.57000
gfz2014kyan   0.29140
gfz2014lkyf  -0.04980
gfz2014lrzx  -0.53220
gfz2014lxnc   0.50370
gfz2014lyhk   0.03570
gfz2014macx   0.19360
gfz2014madw  -0.18170
gfz2014npdk   0.23120
gfz2014nqfm   0.59170
gfz2014nrie  -0.21900
gfz2014oinz  -0.35900
gfz2014ppzf  -0.02280
gfz2014pvch  -0.14650
gfz2014qlvc   0.25460
gfz2014qlxd   0.42830
gfz2014qqhm  -0.79300
gfz2014riel   0.56030
gfz2014ssvz  -0.35410
gfz2014tqdo  -0.32280
gfz2014ubwn  -0.17140
gfz2014watn  -0.31040
gfz2014xbyr  -0.35380
gfz2014xjri   0.21970
gfz2014yhhm  -0.33500
gfz2014zlgp  -0.46510
gfz2015apnk  -0.16580
gfz2015aruz  -0.48980
gfz2015atxv  -1.06770
gfz2015berb   0.13660
gfz2015bucr   0.08450
gfz2015chhn  -0.28110
gfz2015chqn   0.07040
gfz2015cxhx  -0.16450
gfz2015cxxk   0.09600
gfz2015cyjd   0.46060
gfz2015czfv  -0.36550
gfz2015dvbn  -0.09570
gfz2015egxq  -0.54610
gfz2015ehpz  -0.50500
gfz2015eiky  -0.38010
gfz2015emtg   0.10600
gfz2015etai   0.12980
gfz2015fbbk  -0.76260
gfz2015fcua   0.07020
gfz2015fjhk   0.86500
gfz2015fkgt   0.47030
gfz2015fsjj   0.20150
gfz2015fvoi   0.21180
gfz2015fwkq  -0.74100
gfz2015fyvk   0.42540
gfz2015gckd   0.21870
gfz2015ggjw   0.55280
gfz2015gjbr   0.06860
gfz2015gmgf  -3.97580
gfz2015hpmk  -0.04190
gfz2015imty   0.10580
gfz2015iwqk  -0.97180
gfz2015jmlf  -0.33150
gfz2015jmlu  -0.01360
gfz2015jzcv   0.18860
gfz2015kakw   0.31290
gfz2015kcaa  -0.53440
gfz2015kphk  -0.53920
gfz2015kxxs   1.02160
gfz2015lhjy   0.14560
gfz2015ltii  -1.00510
gfz2015lytv  -0.90220
gfz2015mpte  -0.64090
gfz2015ntpk   0.08660
gfz2015nuxz  -0.52410
gfz2015nwug  -0.49290
gfz2015okmq  -0.12690
gfz2015oyfl  -0.15570
gfz2015pdri   0.92080
gfz2015poni  -0.81650
gfz2015prlr  -1.40780
gfz2015qpvd  -0.23360
gfz2015sfdd   0.32700
gfz2015sfdy  -0.33010
gfz2015sfeo   0.30440
gfz2015sfhz  -0.94300
gfz2015sfiq   0.43560
gfz2015sfnb   0.08830
gfz2015sfno  -0.45450
gfz2015sfnv  -0.48020
gfz2015sfqr   1.83730
gfz2015sfrf  -0.34410
gfz2015sfwf  -0.02590
gfz2015sfzm  -0.22690
gfz2015sgad  -0.35140
gfz2015sghq   0.59840
gfz2015sglg   0.26490
gfz2015sgmm  -0.30370
gfz2015sguf   0.43600
gfz2015sgyd   0.51590
gfz2015sitn   0.32070
gfz2015sjbx   0.17910
gfz2015sjgk   0.78270
gfz2015sjoj   0.06540
gfz2015sjvu   0.30840
gfz2015skxu  -0.30820
gfz2015slun   0.12810
gfz2015smym   0.13550
gfz2015snwh  -0.31330
gfz2015snyd   0.36760
gfz2015soat   0.42850
gfz2015soxc   0.18980
gfz2015stfy   0.29750
gfz2015svwm   0.34040
gfz2015szcb  -0.16500
gfz2015taml   0.12270
