# Nsamples: 10  MAD:  2.166  mean:  1.252  variance:  7.277
gfz2012gwmu  -1.82030
gfz2012tvmv   1.35670
gfz2014vjoz   4.24700
gfz2015aruz  -5.11230
gfz2015chhn   2.64020
gfz2015cyjd   3.43600
gfz2015sfdd   3.43480
gfz2015soxc   0.39040
gfz2015svwm   2.51960
gfz2015taml   1.42970
