# Nsamples: 457  MAD:  0.591  mean:  0.067  variance:  0.808
gfz2010ahqi   0.15760
gfz2010bfzs   0.53800
gfz2010bgth   0.46680
gfz2010bhhq  -1.11610
gfz2010bjeb   0.31980
gfz2010bjsl  -1.61880
gfz2010bowy   0.20900
gfz2010bxxs   0.39430
gfz2010cbkg   0.47440
gfz2010cqwl   0.26750
gfz2010czps  -0.88090
gfz2010dlgc   0.07540
gfz2010eaoy   0.35540
gfz2010eapk   0.24840
gfz2010eapn   0.44660
gfz2010eaqe  -0.66340
gfz2010eaqx  -0.74620
gfz2010eaqy   0.63670
gfz2010earu  -1.09900
gfz2010easf   0.14910
gfz2010eask  -2.22570
gfz2010easo   0.89060
gfz2010easu   1.10920
gfz2010eati  -2.54360
gfz2010eato   0.59680
gfz2010eaul   0.08940
gfz2010eavs   0.30080
gfz2010eawb   0.88530
gfz2010eawu   0.53930
gfz2010eaxn  -0.64770
gfz2010eayx  -0.71960
gfz2010eaze   0.32860
gfz2010eazu  -0.84090
gfz2010ebbd  -0.81860
gfz2010ebby  -1.05710
gfz2010ebeh   0.33210
gfz2010ebfx  -1.30030
gfz2010ebhc  -1.14680
gfz2010ebih   0.51610
gfz2010ebin   0.40040
gfz2010ebiv  -0.12940
gfz2010ebjg  -0.23470
gfz2010ebjy  -0.31730
gfz2010ebkj   0.12420
gfz2010ebla   0.28430
gfz2010ebll   0.14150
gfz2010ebmb  -0.12840
gfz2010ebmi  -0.42420
gfz2010ebnn   0.84200
gfz2010ebrm  -0.16370
gfz2010ebsv   0.02020
gfz2010ebtk  -0.59210
gfz2010ebvm  -1.81740
gfz2010ebvv   1.10870
gfz2010ebwp   0.04330
gfz2010ebxl   0.62020
gfz2010ebzk   0.18190
gfz2010ebzr   0.27030
gfz2010ecay   1.43130
gfz2010ecbi  -0.08780
gfz2010eccq  -0.12960
gfz2010echc   0.36710
gfz2010echy  -1.07870
gfz2010ecns  -0.34090
gfz2010ecua   0.11060
gfz2010edbz   1.66680
gfz2010edcp   0.53200
gfz2010edde  -0.70900
gfz2010edkp  -0.39770
gfz2010edpb  -0.05250
gfz2010edvf   0.74900
gfz2010edyi   0.90070
gfz2010eeij   0.22660
gfz2010eern   0.18380
gfz2010eevu   0.60470
gfz2010efak   0.04100
gfz2010egmp  -0.22760
gfz2010ehaj   0.64440
gfz2010eioi   1.49190
gfz2010eisx  -2.10710
gfz2010eixj   0.87810
gfz2010ejjg   0.51850
gfz2010ekaw   0.27220
gfz2010ekoe   0.23510
gfz2010ekyc  -0.09340
gfz2010elhv  -0.34500
gfz2010eltf   0.59150
gfz2010elyc   0.10600
gfz2010encm   0.33950
gfz2010eoao  -0.56180
gfz2010epbe   0.22660
gfz2010eqjg   0.03910
gfz2010eqmu  -0.21660
gfz2010erdi   0.10480
gfz2010erkn   0.26780
gfz2010erna   1.78450
gfz2010erom  -0.07210
gfz2010erum   0.49290
gfz2010erxk   0.27450
gfz2010eryg   0.01450
gfz2010eujm   0.16240
gfz2010evco   0.36490
gfz2010ewvc   0.28130
gfz2010ewyu  -0.67750
gfz2010excp   0.58690
gfz2010exdd  -0.21360
gfz2010exdl   0.18860
gfz2010exed  -0.70100
gfz2010exgb  -0.17800
gfz2010exhd   0.03550
gfz2010exhw   0.01900
gfz2010exjw  -0.75460
gfz2010exmc  -0.89810
gfz2010exno   0.72800
gfz2010exsg  -0.54860
gfz2010eyaz   0.39660
gfz2010eyiv  -0.86750
gfz2010ezax  -0.08370
gfz2010ezck   0.17170
gfz2010ezwz  -0.14060
gfz2010ezxd  -0.45730
gfz2010falm   0.71820
gfz2010fcax   0.36790
gfz2010fcxy  -6.49370
gfz2010fedq   0.66660
gfz2010ffhq   0.88020
gfz2010ffjb   0.65860
gfz2010figq  -0.12370
gfz2010fika  -1.33960
gfz2010fjal   0.16780
gfz2010fjas  -0.29870
gfz2010flha   0.29440
gfz2010fpqy   0.66870
gfz2010fqdu   1.51840
gfz2010fupn  -0.72720
gfz2010fync  -0.49540
gfz2010gcrl  -0.95530
gfz2010gcrp  -4.61440
gfz2010gdld  -0.59890
gfz2010glxl   0.36410
gfz2010grjd   0.77250
gfz2010gtzt  -0.37830
gfz2010gyqp   0.51870
gfz2010gzxr  -0.32240
gfz2010hbka  -0.66480
gfz2010hllj   0.48560
gfz2010hlmq  -0.02800
gfz2010hptz   0.18860
gfz2010hxgv   0.16360
gfz2010icqq  -1.04190
gfz2010iibf   0.36260
gfz2010imfv  -0.67030
gfz2010iobp   0.73880
gfz2010iqnm   0.38690
gfz2010iull   0.10930
gfz2010jpyj  -0.90360
gfz2010jssh   0.00000
gfz2010jxbm   0.83810
gfz2010kdyc   0.46900
gfz2010mant  -1.43660
gfz2010mgss   0.38470
gfz2010moyw   0.40370
gfz2010mpuy   0.84700
gfz2010mwdq   0.69950
gfz2010nmpc  -0.11240
gfz2010nqwo   0.42350
gfz2010nrjo   0.74830
gfz2010nsck  -0.11020
gfz2010nwef   0.56560
gfz2010nxsy   0.20960
gfz2010onma   0.30520
gfz2010pbdz   1.17130
gfz2010pewx   0.43240
gfz2010pfyu  -0.62770
gfz2010pxgh  -1.14670
gfz2010qpvi   0.26610
gfz2010rhas   1.48260
gfz2010rqwj   0.08320
gfz2010rywq   0.04310
gfz2010sfee  -0.17750
gfz2010srdb   0.17860
gfz2010tcrl   1.02740
gfz2010upfb  -0.28120
gfz2010usho   0.46770
gfz2010ustq   0.63470
gfz2010utcg   0.60370
gfz2010vyxd   0.43030
gfz2010yjev   0.68460
gfz2010yosr  -0.01020
gfz2011aatr   0.70260
gfz2011adjs  -0.04880
gfz2011alip  -0.02880
gfz2011aqxf   6.94100
gfz2011bgrp  -0.44510
gfz2011bhha  -0.20610
gfz2011cndo   0.28950
gfz2011csju  -0.10540
gfz2011cvfg  -0.82220
gfz2011cykd   0.24430
gfz2011cynl   0.33340
gfz2011cyre   0.83690
gfz2011cyuk   0.06180
gfz2011dbev   0.54540
gfz2011dbig   0.18690
gfz2011dbon  -0.31760
gfz2011dbwt   0.06160
gfz2011dcqb  -0.39120
gfz2011dkyi   0.58820
gfz2011dpqx   0.35430
gfz2011ecaj  -0.26910
gfz2011ehzq  -0.01700
gfz2011enva  -0.76070
gfz2011etje   0.60720
gfz2011gbmx   0.21600
gfz2011gcwb   0.25150
gfz2011gjlx  -0.41090
gfz2011gkzt  -0.77310
gfz2011hfkj  -0.50220
gfz2011hlqw   0.24010
gfz2011hlsa   0.31620
gfz2011hlth   0.58950
gfz2011hpqp   0.63070
gfz2011jplh   0.02700
gfz2011kxzp   0.21570
gfz2011lcxq   1.14260
gfz2011lzwj   0.06540
gfz2011mdie   0.69050
gfz2011mpme  -0.08520
gfz2011nrwc   1.14030
gfz2011nrwv   0.62550
gfz2011ntkh  -0.58050
gfz2011nudm  -0.36090
gfz2011olkk  -0.01520
gfz2011orgn  -0.19600
gfz2011ornx  -0.35850
gfz2011owvz   0.41810
gfz2011rewa   0.22650
gfz2011rsrh  -0.52890
gfz2011sagt  -0.39070
gfz2011toub   0.87360
gfz2011tpbl   0.83490
gfz2011vhfi   0.78360
gfz2011vnza  -0.05840
gfz2011vrhg  -0.06800
gfz2011vxns  -0.55780
gfz2011wxfs  -0.10110
gfz2011wxtk  -0.08360
gfz2011xaan   0.05090
gfz2011xyxj   0.68590
gfz2012aqgp   0.18360
gfz2012attr  -0.15260
gfz2012bfah   0.40710
gfz2012bpkx   0.56120
gfz2012bpwl  -3.16230
gfz2012cxdn   0.44360
gfz2012ekda   0.29570
gfz2012fzfa   0.36940
gfz2012hnul  -0.09380
gfz2012jgvj   0.19120
gfz2012jlox   0.57730
gfz2012jupx  -0.41080
gfz2012keor   0.30460
gfz2012kkup   0.07510
gfz2012klhx   0.39080
gfz2012kuct   0.15580
gfz2012kudo   0.10060
gfz2012lczo   0.81170
gfz2012ldxg   1.01680
gfz2012ldzj   1.26610
gfz2012nkdf  -0.31350
gfz2012oazn  -0.76690
gfz2012qjhs  -1.21030
gfz2012rwov   0.54760
gfz2012sphd  -0.50790
gfz2012tvmv   0.13790
gfz2012uafg   0.48830
gfz2012vrgb   0.85820
gfz2012wklq  -0.29290
gfz2012wtkr  -0.13400
gfz2012wvfl  -0.10640
gfz2012wxlg   0.44590
gfz2012wypz   0.34350
gfz2012zfag   0.73590
gfz2012zitl  -0.27250
gfz2013bokp   0.56010
gfz2013ccnr   0.17140
gfz2013cwpn   0.06310
gfz2013dkly  -0.26350
gfz2013dofo  -0.13720
gfz2013drpk   0.77040
gfz2013drxz   0.13700
gfz2013fkii   0.64250
gfz2013gcfx  -1.11700
gfz2013gdnq   2.21170
gfz2013hfmp   0.08140
gfz2013hisv  -0.03500
gfz2013idbb  -0.10050
gfz2013ikgo   0.14850
gfz2013jgip   0.03330
gfz2013jkut   0.85290
gfz2013jusj  -0.66550
gfz2013jwvc   0.14790
gfz2013kdeo   0.63790
gfz2013lajn   0.22130
gfz2013mqmv   1.49580
gfz2013ngnt  -0.05070
gfz2013nkgj   0.50510
gfz2013nnzf   0.16030
gfz2013nwdi   0.28580
gfz2013pfbx   0.35910
gfz2013pxsj  -0.39120
gfz2013qmer   0.50060
gfz2013svci  -1.22590
gfz2013tcxc  -0.29240
gfz2013twwf   3.84140
gfz2013uauo   0.76550
gfz2013vfyw  -1.72190
gfz2013vfzp   0.53880
gfz2013vjjc   0.50440
gfz2013vzbo   1.63430
gfz2013xsdt   0.82080
gfz2013xxxq  -1.23680
gfz2014afmx   0.76940
gfz2014bekc   0.48360
gfz2014bldx  -0.47040
gfz2014bwue   0.25170
gfz2014bzxy   0.31920
gfz2014cvxx  -1.48000
gfz2014czqi   0.38450
gfz2014czua  -0.31990
gfz2014dhxt   0.50050
gfz2014ekcr   0.28160
gfz2014enhi  -0.09650
gfz2014femz  -1.98620
gfz2014ffdc   0.74030
gfz2014fgvi   0.32990
gfz2014fhla  -1.08020
gfz2014fkmr   1.80930
gfz2014frdz   0.41520
gfz2014ftka   0.32990
gfz2014furx  -0.87710
gfz2014fusj  -0.02050
gfz2014gbcz   0.40400
gfz2014gkgf  -1.12080
gfz2014gkqf   0.84660
gfz2014gmge  -1.32500
gfz2014gmhr  -1.17910
gfz2014gmnb   0.46870
gfz2014gmnw   1.08700
gfz2014gnfd  -0.00610
gfz2014gnwg  -1.31980
gfz2014goba   0.31000
gfz2014gpya   0.69560
gfz2014gull   0.28370
gfz2014gulp  -0.32010
gfz2014gvrd  -1.81430
gfz2014gwab   0.59780
gfz2014gxxo  -0.10400
gfz2014hasj   0.08650
gfz2014hauo   0.03820
gfz2014hbqb   0.16760
gfz2014hcmj  -0.79660
gfz2014hfhl   0.73240
gfz2014hgqo   0.35010
gfz2014hmzg   0.10350
gfz2014hocg   0.79960
gfz2014ijvh  -0.43510
gfz2014inbj   0.50760
gfz2014jnyv  -0.89430
gfz2014jwmh  -0.31650
gfz2014kjee  -2.61490
gfz2014lddn   0.35590
gfz2014ldhu   0.39830
gfz2014lyhk   0.38070
gfz2014mden   0.46570
gfz2014npeo  -0.87020
gfz2014nqfm   1.04870
gfz2014nrie   1.19880
gfz2014oinz   0.66260
gfz2014oxcc  -0.30860
gfz2014pvch   0.23420
gfz2014qlxd   0.89840
gfz2014qngj  -0.52320
gfz2014qqhm   0.93770
gfz2014rkwl   0.13900
gfz2014ssmv  -1.27490
gfz2014ssvz  -0.49670
gfz2014tqdo  -0.00230
gfz2014watn   0.03850
gfz2015aruz   0.26430
gfz2015berb  -0.21500
gfz2015chhn   0.90460
gfz2015cyjd   0.16530
gfz2015fjhk  -0.11180
gfz2015fkgt   1.11010
gfz2015fkic  -1.45150
gfz2015fsjj  -0.27690
gfz2015gckd   0.88960
gfz2015ggjw  -0.02870
gfz2015gjbr  -0.30650
gfz2015guhd  -0.86110
gfz2015hdcp   0.87030
gfz2015hgbk   0.29600
gfz2015igsy   0.66860
gfz2015lhjy   0.47270
gfz2015lytv  -0.02220
gfz2015nuxz   0.74760
gfz2015prlr  -2.16150
gfz2015qnho   0.02150
gfz2015sfdd   0.81510
gfz2015sfdh  -1.60120
gfz2015sfdl   0.21250
gfz2015sfdv   0.88930
gfz2015sfdy   0.12070
gfz2015sfeo   1.48580
gfz2015sfhz  -0.04380
gfz2015sfiq  -0.16940
gfz2015sfnb  -0.42060
gfz2015sfno   0.44400
gfz2015sfnv  -0.30030
gfz2015sfoc   0.88190
gfz2015sfoh  -0.32190
gfz2015sfoq   1.79280
gfz2015sfqr  -0.80590
gfz2015sfte   0.14100
gfz2015sfwf  -0.67510
gfz2015sfzm   0.10110
gfz2015sgdj   1.09160
gfz2015sgdn   0.68860
gfz2015sggc   1.82190
gfz2015sghq   0.67330
gfz2015sgie   0.19300
gfz2015sgoa  -0.33280
gfz2015shhg  -0.43130
gfz2015shsz  -3.19890
gfz2015sjbx   0.05180
gfz2015sjgk   1.31760
gfz2015sjoj   0.60640
gfz2015sjvu   0.33720
gfz2015sjwi  -0.14850
gfz2015slun   0.42850
gfz2015smym   0.18730
gfz2015snsf   0.39620
gfz2015snwh  -0.42010
gfz2015snyd  -1.67450
gfz2015soat   0.28070
gfz2015soxc   0.15970
gfz2015srat   0.57020
gfz2015stfy  -0.35730
gfz2015stso  -0.26380
gfz2015susq  -1.26020
gfz2015svjy   0.57850
gfz2015svwm   0.76520
gfz2015szcb  -0.07430
gfz2015taml  -0.10720
gfz2015tbdn   0.06020
gfz2015tdcu  -0.34390
