# Nsamples: 23  MAD:  0.359  mean: -0.152  variance:  0.508
gfz2010grjd  -0.24980
gfz2010iull  -0.57330
gfz2010nmpc  -0.41840
gfz2010odpb   2.46480
gfz2011aatr  -0.13590
gfz2011enva  -0.54780
gfz2011hlqw  -0.42990
gfz2011hlsa  -0.12200
gfz2011lzwj  -0.29460
gfz2011rewa   0.58430
gfz2011wxfs  -0.76600
gfz2012enno   0.14730
gfz2012jlox  -0.68310
gfz2012kkup  -0.14450
gfz2012klhx   1.07580
gfz2012kudo  -0.27700
gfz2012ldxg   0.19800
gfz2012vrgb  -1.07100
gfz2012wypz  -0.30540
gfz2013drxz  -0.34180
gfz2013jkut  -0.34050
gfz2013kdeo  -0.60550
gfz2015lhjy  -0.65340
