# Nsamples: 532  MAD:  0.705  mean:  0.140  variance:  0.991
gfz2010aerk  -0.35970
gfz2010ahla   0.16920
gfz2010ahqi   1.00260
gfz2010aphp   0.27540
gfz2010awfi  -0.06180
gfz2010bfzs  -1.29840
gfz2010bgth  -0.08500
gfz2010bifb   1.88670
gfz2010bjeb   1.22820
gfz2010bjjx   0.72060
gfz2010boxo   1.95730
gfz2010bpda   0.07820
gfz2010bxxs   0.47330
gfz2010caft   0.07780
gfz2010cdbt  -0.43270
gfz2010chnv  -0.91000
gfz2010ckzm  -0.32190
gfz2010cqwl  -0.28130
gfz2010czps   0.31390
gfz2010dejx  -0.92240
gfz2010dfru  -0.28000
gfz2010diqn   0.89870
gfz2010dlgc   1.10910
gfz2010eaoy   1.58850
gfz2010ebhc   2.19550
gfz2010ebin  -0.05270
gfz2010ebiv  -0.31170
gfz2010ebjg  -0.63480
gfz2010ebkj  -0.75130
gfz2010ebll   1.89570
gfz2010ebmb  -0.02030
gfz2010ebmi  -0.63510
gfz2010ebnn   1.67590
gfz2010ebtk  -0.53770
gfz2010ebvm  -0.01670
gfz2010ebwp   0.20950
gfz2010ebxl   1.31460
gfz2010ebzk  -0.14550
gfz2010ebzr   0.72010
gfz2010eccq  -1.52000
gfz2010eced  -0.17250
gfz2010echc  -0.35990
gfz2010ecns  -0.04120
gfz2010ecps   0.09300
gfz2010ecsp   2.82480
gfz2010ecua   0.10900
gfz2010ecvt  -2.44190
gfz2010edbz   0.02430
gfz2010edcp  -0.39710
gfz2010edde  -2.69070
gfz2010edhv  -0.94170
gfz2010edkp  -1.09770
gfz2010edsy  -0.02170
gfz2010edvf   0.70830
gfz2010edyi   0.07050
gfz2010eedz  -1.68510
gfz2010eeij   0.08760
gfz2010eevu  -0.07740
gfz2010efxf   2.18690
gfz2010egap  -2.50740
gfz2010egld   1.54130
gfz2010egmp   0.43430
gfz2010egqh  -1.69580
gfz2010egsy   0.52950
gfz2010ehaj   1.07990
gfz2010ehnm   0.12260
gfz2010eisx   0.52750
gfz2010eixj   1.23060
gfz2010ejjg  -1.04690
gfz2010ekoe   0.48440
gfz2010ekrv  -0.02030
gfz2010ekyc   0.03330
gfz2010elhv   0.07890
gfz2010eltf   0.13080
gfz2010elvp   0.72620
gfz2010eoao   2.08660
gfz2010epxj   0.26080
gfz2010eqjg   0.04100
gfz2010eqmu  -1.79430
gfz2010erkn   0.45450
gfz2010erom   0.33590
gfz2010eruy   4.48570
gfz2010eted   0.80670
gfz2010eujm  -1.57610
gfz2010excp   0.93570
gfz2010exdl  -0.10290
gfz2010exel  -0.08460
gfz2010exhd  -0.12700
gfz2010exno  -0.20280
gfz2010exsg   0.75440
gfz2010eyxe   0.52030
gfz2010ezck   0.25360
gfz2010ezwz  -1.15020
gfz2010fczt   0.49570
gfz2010fedq  -0.44500
gfz2010ffhq   1.03260
gfz2010fjal   1.83980
gfz2010fkhd   0.64950
gfz2010fknh   0.57200
gfz2010flha   1.13500
gfz2010flxi  -0.56410
gfz2010fnrk   1.09460
gfz2010fpqy  -0.73280
gfz2010fqdu  -0.71190
gfz2010ftlm  -0.63570
gfz2010fuuy  -1.45830
gfz2010fwzd   0.37320
gfz2010fync   1.03560
gfz2010gcrl   0.58480
gfz2010gcrp   0.59890
gfz2010gdld  -0.24900
gfz2010ghyk   0.81210
gfz2010glxl   0.56600
gfz2010gtzt  -0.27470
gfz2010gyqp  -0.67550
gfz2010gzxr   0.33390
gfz2010hbka  -0.21960
gfz2010hcio   2.33110
gfz2010hhls  -0.30820
gfz2010hjoc  -0.21240
gfz2010hlvr  -0.26520
gfz2010hmhm  -0.29330
gfz2010homc   1.27730
gfz2010hptz  -1.01060
gfz2010hrkr  -0.06840
gfz2010hufk  -0.58490
gfz2010hxgv  -0.03600
gfz2010hxhe   0.03860
gfz2010imsh  -0.52970
gfz2010iobp  -0.38970
gfz2010iqnm   1.02690
gfz2010irvf  -0.15700
gfz2010iull   0.43440
gfz2010izzj  -2.94910
gfz2010jant   1.54120
gfz2010jucj   0.19520
gfz2010jxbm  -0.72190
gfz2010kdyc  -0.13830
gfz2010kyen   1.12280
gfz2010lczp   1.32610
gfz2010lfju  -0.17310
gfz2010lkcf  -1.44310
gfz2010lluj  -0.18290
gfz2010mdpq  -0.63070
gfz2010mkuu  -0.02650
gfz2010mncc  -0.60650
gfz2010moyw   0.41230
gfz2010ncrl   0.21790
gfz2010nmpc   1.26530
gfz2010nnny  -1.34840
gfz2010nqwo  -0.20630
gfz2010nrjo   0.81000
gfz2010nsck   0.61000
gfz2010nwef   1.11070
gfz2010onma   0.32960
gfz2010osqo   0.14950
gfz2010pcxi   0.10110
gfz2010pewa   0.69430
gfz2010pewx   0.51810
gfz2010pfyu  -0.03130
gfz2010qpcq   0.46890
gfz2010qpvi   0.71880
gfz2010rqwj   1.01210
gfz2010sfee   0.94850
gfz2010tcrl   1.62200
gfz2010upfb   1.89150
gfz2010urlq  -1.14130
gfz2010usho  -0.42680
gfz2010ustq  -0.20220
gfz2010utcg   0.16100
gfz2010vbmd   1.47050
gfz2010xden   0.05060
gfz2010xjsj   0.25820
gfz2010xnxk  -0.18780
gfz2010ymfy   0.31030
gfz2011aatr   1.39430
gfz2011adjs   0.84500
gfz2011aqxf   2.14510
gfz2011bgrp   0.04920
gfz2011bhha   0.76200
gfz2011blsi  -0.93240
gfz2011bpkd  -0.49550
gfz2011cndo   0.18720
gfz2011crdy  -1.12660
gfz2011csju   0.99650
gfz2011ctbn  -0.00000
gfz2011cvcg   0.62690
gfz2011cvfg   0.31840
gfz2011cykd   0.95130
gfz2011cynl  -1.19850
gfz2011cyre   0.19630
gfz2011cyuk   1.54580
gfz2011dbev   0.40410
gfz2011dbig   0.89160
gfz2011dbon  -0.23750
gfz2011dcqb   0.33990
gfz2011deaf  -0.89530
gfz2011dkyi  -0.60190
gfz2011dlyx  -0.08450
gfz2011dpqx   1.93040
gfz2011eayc   0.20330
gfz2011ecaj   0.56640
gfz2011edmm   0.76240
gfz2011efgv   0.52780
gfz2011ehzq  -0.08080
gfz2011eltw   0.32530
gfz2011enva  -0.70910
gfz2011fgvr   0.61440
gfz2011fhbm   0.09660
gfz2011fkbn  -0.37990
gfz2011flgj  -0.52280
gfz2011flhp  -0.91910
gfz2011fnsw  -0.57600
gfz2011gbmx   0.08190
gfz2011gjlx  -0.72620
gfz2011gkzt  -1.91780
gfz2011hbex  -0.05640
gfz2011hfkj  -0.10360
gfz2011hlqw   0.80730
gfz2011hlsa   0.88100
gfz2011hvbu   0.48100
gfz2011ieie   1.01200
gfz2011izqa   0.42330
gfz2011jplh   1.26730
gfz2011jxpl   0.91450
gfz2011knoo   0.25880
gfz2011kqwo  -0.87830
gfz2011kxzp  -0.16790
gfz2011lcxq   0.38000
gfz2011lgsg  -1.03630
gfz2011lhls   0.60760
gfz2011mdie  -1.53390
gfz2011mjom   0.00000
gfz2011mpme   1.70820
gfz2011nqpd   1.07420
gfz2011nudm   0.64240
gfz2011olkk  -1.02750
gfz2011ornx   0.38890
gfz2011owvz  -0.68710
gfz2011pdpt  -0.33930
gfz2011rewa   0.99400
gfz2011rgwp   0.04000
gfz2011rqui   0.01970
gfz2011tjue  -0.14840
gfz2011tkog   0.49300
gfz2011toub   2.16900
gfz2011ujze   0.04430
gfz2011ukmp   0.02690
gfz2011uphh   0.42420
gfz2011urxy   0.30140
gfz2011urzu   0.71850
gfz2011vhfi   0.62090
gfz2011vnza   0.28180
gfz2011vqnr   0.73640
gfz2011vrhg   0.44260
gfz2011vxns  -0.95890
gfz2011vxod  -0.00000
gfz2011wxfs   1.88660
gfz2011wxtk  -0.86610
gfz2011xqru   0.90060
gfz2011xyxj   0.52090
gfz2011zqhh   1.40280
gfz2012bfah  -0.89770
gfz2012bfyn   0.82120
gfz2012bpkx  -0.15460
gfz2012brhv  -0.94620
gfz2012byad   0.82310
gfz2012cnod   0.93300
gfz2012cxdn   0.18790
gfz2012czlw   0.05100
gfz2012dinb  -0.27370
gfz2012kkup   1.17490
gfz2012ldzj   1.45650
gfz2012ntzv   3.12920
gfz2013kvtk  -0.90030
gfz2013ldqb  -1.25480
gfz2013lixa  -0.36000
gfz2013lljw   0.14440
gfz2013lwao  -0.14440
gfz2013mqmv   0.37160
gfz2013mtqd  -0.60590
gfz2013mwbh  -0.28750
gfz2013nabl   0.31040
gfz2013ncjp   0.16430
gfz2013nixj   0.74470
gfz2013nkgj   0.00930
gfz2013nknw  -0.02390
gfz2013nwdi   0.34800
gfz2013ozrf  -0.31880
gfz2013pcos  -0.09520
gfz2013pfbx   0.27540
gfz2013pffm   1.01050
gfz2013qfsq  -0.29480
gfz2013qmer   0.03270
gfz2013sdus   1.06070
gfz2013shzy   0.06850
gfz2013skkm   1.34150
gfz2013suvn   0.06310
gfz2013svci   0.63840
gfz2013tcxc   0.25880
gfz2013toxf   0.63020
gfz2013tusd  -0.68410
gfz2013uauo   0.40780
gfz2013vfzp   1.77970
gfz2013viul   1.30810
gfz2013vjjc   2.83640
gfz2013vzbo   0.30930
gfz2013wjmm   0.21540
gfz2013wkyk   0.42970
gfz2013wqhq   7.33870
gfz2013xmul  -1.66900
gfz2013xsdt   0.58050
gfz2013xxcc  -0.51460
gfz2013yaig   0.63700
gfz2013yctg   0.53140
gfz2013yghj  -0.08590
gfz2013yqkv   1.22160
gfz2014abgd  -0.14470
gfz2014afmx   1.02260
gfz2014ajlk   0.72810
gfz2014algk  -0.52440
gfz2014bagd  -0.47650
gfz2014bjsy   0.93740
gfz2014bwue   1.55440
gfz2014caop  -2.19690
gfz2014cmwb   0.14890
gfz2014cvxx   0.50780
gfz2014czno   0.07330
gfz2014czqi   0.18710
gfz2014czua  -0.78290
gfz2014dffd   0.25680
gfz2014egwu  -2.59970
gfz2014ehfp   0.09540
gfz2014ehsf  -0.97780
gfz2014ekcr  -0.54620
gfz2014emrg   2.68400
gfz2014enhi   0.23940
gfz2014eqpl  -2.28200
gfz2014fedd   0.94870
gfz2014femz  -0.18020
gfz2014ffdc  -0.56880
gfz2014fgvi   0.30620
gfz2014fgvz  -0.41250
gfz2014fhdw   0.37920
gfz2014fhla  -0.95380
gfz2014fhlh  -0.92460
gfz2014fhwx  -0.35610
gfz2014fhxm   1.39470
gfz2014fimn   0.25870
gfz2014fjzd   0.05640
gfz2014fkmr   0.55600
gfz2014fkmx  -0.49170
gfz2014fknp  -1.12440
gfz2014fnyg   0.15930
gfz2014frdz   0.05020
gfz2014frez   0.47680
gfz2014frwh  -0.13260
gfz2014ftka  -0.74810
gfz2014ftpw   0.06330
gfz2014ftrk   0.23240
gfz2014furx   0.49400
gfz2014fusc  -1.03640
gfz2014fusj  -0.16630
gfz2014fuub  -5.18010
gfz2014fval   0.49320
gfz2014fvrg   0.17170
gfz2014fvve  -0.18460
gfz2014gbcz  -0.80890
gfz2014gezs   0.58360
gfz2014ghpe  -0.52960
gfz2014gkgf   0.45230
gfz2014gkhp   2.39030
gfz2014gkhy   0.62470
gfz2014gkjt  -0.14360
gfz2014gkob  -0.11710
gfz2014gkpj  -0.33000
gfz2014gkqf   0.00000
gfz2014gkqu   0.98430
gfz2014gksu   0.10730
gfz2014gktq  -0.78730
gfz2014glcu   0.69960
gfz2014glcy   0.47200
gfz2014glhs   0.29050
gfz2014gltx   0.34090
gfz2014glvn   1.62600
gfz2014gmci   0.41870
gfz2014gmes  -0.21760
gfz2014gmge   0.52010
gfz2014gmhp   0.16890
gfz2014gmhr  -1.21920
gfz2014gmip   0.90490
gfz2014gmjo  -0.10160
gfz2014gmku   0.45320
gfz2014gmnb   0.56010
gfz2014gmnw   0.48040
gfz2014gmuw   0.67300
gfz2014gmzl   0.63640
gfz2014gnfd   0.11060
gfz2014gnfs   0.09970
gfz2014gngg   0.26770
gfz2014gnom  -0.20430
gfz2014goba   0.54450
gfz2014gogv  -0.13140
gfz2014goqw   0.13300
gfz2014gori  -0.97020
gfz2014gpce  -0.08990
gfz2014gpuk  -2.39380
gfz2014gqer   1.45940
gfz2014gqve  -2.13140
gfz2014gsgv  -1.79720
gfz2014gsqs  -0.96750
gfz2014gtwz  -2.01270
gfz2014gufl   0.20790
gfz2014gull  -0.33490
gfz2014gutm   1.08960
gfz2014gvqj  -1.02350
gfz2014gwab   0.42450
gfz2014gxkh  -0.38630
gfz2014gxvf  -0.74410
gfz2014gxxh  -0.67550
gfz2014gxxo   1.41280
gfz2014hcmj  -0.42950
gfz2014heum  -0.17760
gfz2014hfhl  -1.22390
gfz2014hgqo   0.29680
gfz2014hifp  -0.26940
gfz2014hjgh   0.88300
gfz2014hjgr   0.66520
gfz2014hjij  -0.28540
gfz2014hocg   0.56700
gfz2014hphw   0.79800
gfz2014hqxs   0.36290
gfz2014hriu  -0.38910
gfz2014huaj   0.38000
gfz2014icqt  -1.11120
gfz2014ieho   0.05300
gfz2014jwmh   0.60910
gfz2014kkhh   0.45090
gfz2014knks   0.51690
gfz2014kwrg   0.47180
gfz2014kyan  -0.02320
gfz2014kytf  -1.01810
gfz2014lbcq  -1.58840
gfz2014lpim  -1.64410
gfz2014lxnc   0.24620
gfz2014lyhk   0.83710
gfz2014lyhp   0.19940
gfz2014macx   0.53140
gfz2014madw   0.30910
gfz2014mxkr  -0.06440
gfz2014oinz   0.61120
gfz2014owxc   0.02250
gfz2014qlxd   0.63040
gfz2014qngj  -0.96270
gfz2014qqhm   0.35190
gfz2014rdsn  -0.49320
gfz2014riel  -0.23480
gfz2014ssvz  -0.27300
gfz2014szzf   1.58620
gfz2014tqdo   0.10580
gfz2014tqsf  -1.42600
gfz2014tzsd   1.13530
gfz2014ubwn  -1.26580
gfz2014vhld   1.04940
gfz2014wjko  -0.05880
gfz2014wwib   0.63650
gfz2014xjri   1.06380
gfz2014xqby  -0.32500
gfz2014xqqd   0.50770
gfz2014yhhm   0.27070
gfz2014yrug  -0.12430
gfz2015apnk  -0.60590
gfz2015aruz   0.17590
gfz2015berb   1.19710
gfz2015bkbj   0.12150
gfz2015bphe   0.49620
gfz2015bucr   0.26900
gfz2015chhn  -0.10940
gfz2015chqn   0.93120
gfz2015cxxk  -0.43640
gfz2015cyjd  -0.06140
gfz2015dskr  -0.11200
gfz2015dvbn   0.34140
gfz2015egxq   0.23230
gfz2015eiky  -0.53580
gfz2015emtg  -0.34670
gfz2015esrj  -0.18680
gfz2015etai   0.28000
gfz2015fbbk  -2.26600
gfz2015fjhk   0.23520
gfz2015fkgt   0.34520
gfz2015fsjj  -0.93540
gfz2015gckd   0.32930
gfz2015ggjw   0.34700
gfz2015gjbr  -0.21710
gfz2015hgbk   0.48660
gfz2015jzcv   0.74610
gfz2015kfsu  -0.19050
gfz2015kkqb   0.62790
gfz2015kkth   1.45700
gfz2015lytv   0.16720
gfz2015mddr  -0.06640
gfz2015mpte   0.22350
gfz2015nwug  -3.09310
gfz2015okmq   0.71350
gfz2015qiit  -0.47190
gfz2015qnho  -1.87170
gfz2015qnto   0.26470
gfz2015qpvd   0.02200
gfz2015rddx   0.77730
gfz2015sfdd   0.77320
gfz2015sfhz  -0.70700
gfz2015sfiq   0.87760
gfz2015sfnb   1.92800
gfz2015sfps   0.70150
gfz2015sfqr   0.01190
gfz2015sfrc   0.83200
gfz2015sgyd   3.09940
gfz2015shsz   0.00490
gfz2015sjgk   0.98160
gfz2015sjoj  -0.07540
gfz2015sjvu   0.09840
gfz2015skxu  -1.62910
gfz2015snsf  -0.41190
gfz2015snwh  -0.84270
gfz2015snyd   0.35300
gfz2015soat  -0.42710
gfz2015soxc   0.50290
gfz2015ssoe  -0.30910
gfz2015subz  -0.03540
gfz2015svwm   0.95600
gfz2015taml  -0.31970
