# Nsamples: 892  MAD:  0.489  mean:  0.032  variance:  0.618
gfz2010aerk   0.12830
gfz2010ahqi  -0.07330
gfz2010awfi   1.19170
gfz2010bfzs   0.35020
gfz2010bgth   0.14450
gfz2010bhhq  -0.52710
gfz2010bjeb  -0.23130
gfz2010bjsl  -1.72000
gfz2010bowy  -0.38690
gfz2010boxo   0.79030
gfz2010bpda   0.20570
gfz2010bxxs   0.24750
gfz2010cdbt   1.66010
gfz2010chnv  -0.01870
gfz2010cjqh   0.65260
gfz2010cjrf   0.10470
gfz2010ckeu  -0.24880
gfz2010ckzm   1.30050
gfz2010cnwc  -0.18400
gfz2010cqwl  -0.01240
gfz2010ctuw   0.00000
gfz2010czps   0.36670
gfz2010dfru   0.01960
gfz2010dlgc   0.13420
gfz2010eaoy  -0.02720
gfz2010ebeh   0.27760
gfz2010ebfx  -0.16460
gfz2010ebgj   0.09240
gfz2010ebhc   1.16370
gfz2010ebqt  -0.46650
gfz2010ebwp  -0.07830
gfz2010edqh   0.41010
gfz2010edyi  -0.42500
gfz2010eedz   0.05260
gfz2010eell  -0.01940
gfz2010eexz  -0.59450
gfz2010efak  -1.17800
gfz2010efbh   1.24840
gfz2010efbi   0.39990
gfz2010efkc  -0.87660
gfz2010efls  -0.15210
gfz2010efnf   0.24720
gfz2010efsq   0.21030
gfz2010efwo  -0.60740
gfz2010efxf  -0.39970
gfz2010eghq   0.43030
gfz2010egld   2.60210
gfz2010ehrq  -0.62180
gfz2010ehsy   0.18570
gfz2010ehxz  -1.53390
gfz2010epzk  -2.99760
gfz2010erxk   0.30790
gfz2010eryg   0.33150
gfz2010fdxr  -0.72920
gfz2010fedq  -0.02520
gfz2010fefr   1.07060
gfz2010ffhq  -0.32790
gfz2010ffjb   0.14940
gfz2010ffui   5.41500
gfz2010figq  -0.96910
gfz2010fika  -1.00940
gfz2010fixr   0.10650
gfz2010fjal   0.25690
gfz2010fjas  -1.72540
gfz2010fkhd  -0.08960
gfz2010fkia   0.34510
gfz2010fknh   0.47870
gfz2010fkvg  -0.14800
gfz2010flha   0.36900
gfz2010flrt  -0.21890
gfz2010flxi   0.41570
gfz2010fmhb   1.55850
gfz2010fneu   0.55720
gfz2010fnrk   0.04370
gfz2010fona  -0.92440
gfz2010fpqy   0.38500
gfz2010fqdu  -0.38170
gfz2010fser   0.53610
gfz2010fupn  -0.02950
gfz2010fuuy  -0.49250
gfz2010fuwa  -0.35310
gfz2010fwzd  -0.37380
gfz2010fyed  -1.43830
gfz2010fyen  -0.89860
gfz2010fync   0.40580
gfz2010fzoi  -0.51550
gfz2010gcrp  -1.32570
gfz2010gdld   0.18060
gfz2010glxl  -1.05290
gfz2010grjd   0.68760
gfz2010gzxr  -0.23530
gfz2010hakh   5.47480
gfz2010hevz   0.33650
gfz2010hgld   0.02170
gfz2010hhls  -0.40220
gfz2010hlmq  -0.03230
gfz2010hmhm   0.32420
gfz2010homc   0.32700
gfz2010hptz   0.70620
gfz2010hrkr  -0.05850
gfz2010hrpr  -1.44920
gfz2010hufk  -0.03930
gfz2010icqq  -1.56770
gfz2010iibf  -0.20780
gfz2010imfv   0.34770
gfz2010iobp   0.92990
gfz2010iphd  -1.28670
gfz2010ipsg   0.46680
gfz2010iqnm   0.41620
gfz2010iqus   0.76830
gfz2010irqr   0.39850
gfz2010irvf  -0.30920
gfz2010ited  -0.29530
gfz2010izzj   0.37820
gfz2010jucj   0.20750
gfz2010jygz  -0.11200
gfz2010kihf   1.01160
gfz2010liqs   0.82570
gfz2010lkcf   0.09000
gfz2010lyfk  -1.16750
gfz2010mcrx   0.01920
gfz2010mdpq  -0.16530
gfz2010mipi   0.27750
gfz2010mpuy  -0.64280
gfz2010ncrl  -0.47870
gfz2010nfsj  -2.08590
gfz2010nqwf  -0.68490
gfz2010nqwo   0.21340
gfz2010nrjo   0.88710
gfz2010nsck  -0.13590
gfz2010odpb   0.02030
gfz2010oedn   0.06730
gfz2010onma  -0.19430
gfz2010osqo   0.07660
gfz2010oyqy  -0.50860
gfz2010pexf   0.29410
gfz2010pfyu  -0.28240
gfz2010pxgh  -1.17730
gfz2010qpum  -0.33070
gfz2010qpvi  -0.11430
gfz2010qwwx  -0.14730
gfz2010rhas  -0.11630
gfz2010rkfp  -0.36760
gfz2010rlbv   2.35830
gfz2010rqwj  -1.34650
gfz2010rxjw   1.09300
gfz2010rywq  -0.64920
gfz2010rzrr   0.35380
gfz2010sfee  -0.16460
gfz2010skqo   0.20900
gfz2010skve  -0.07210
gfz2010srdb  -0.00000
gfz2010svtn  -0.33600
gfz2010swcy  -0.09060
gfz2010szim   0.98280
gfz2010tcrl   0.58100
gfz2010upfb   0.55000
gfz2010upiw  -0.09290
gfz2010urlq   0.49570
gfz2010usho  -0.45800
gfz2010ustq   0.04390
gfz2010utcg   0.24100
gfz2010utmc  -1.37950
gfz2010wxqa   0.70500
gfz2010xbdv   0.60580
gfz2010xbgs   1.18480
gfz2010xden   0.23960
gfz2010xgzw   0.02460
gfz2010xjsj   0.48890
gfz2010xnxk  -0.69830
gfz2010xxzn   2.32930
gfz2010yjev  -0.04140
gfz2010ymfy  -0.59140
gfz2010ymur  -0.24240
gfz2010yosr  -0.66440
gfz2011alip  -0.08290
gfz2011alsa   0.35530
gfz2011anur  -0.81070
gfz2011aosc  -0.09240
gfz2011aqxf  -0.24510
gfz2011asru   3.04380
gfz2011bgrp   0.11090
gfz2011bhha  -0.51290
gfz2011blsi   0.42520
gfz2011bpkd   0.00000
gfz2011ccpw  -0.40940
gfz2011cfae  -0.44110
gfz2011cndo  -0.74870
gfz2011crdy   0.28300
gfz2011csju  -0.36780
gfz2011ctbn   0.19410
gfz2011cvcg  -0.15970
gfz2011cvfg  -0.13680
gfz2011cwgn  -0.04680
gfz2011cykd  -0.11890
gfz2011cynl  -1.51380
gfz2011cyre  -0.18500
gfz2011cyuk   1.04440
gfz2011dbev   0.58900
gfz2011dbig   0.47910
gfz2011dbon   0.08560
gfz2011dcqb   2.31910
gfz2011dcqf   1.78440
gfz2011dddh   6.57900
gfz2011deaf  -0.61570
gfz2011dkyi   0.64950
gfz2011dlyx  -0.33300
gfz2011dmat  -1.25050
gfz2011dpqx   0.65490
gfz2011eayc  -0.05540
gfz2011eazf  -0.24120
gfz2011ecaj  -0.40570
gfz2011edmm  -1.33740
gfz2011ehzq  -0.41070
gfz2011eltw  -0.34250
gfz2011etje   1.10200
gfz2011fgvr  -0.23470
gfz2011fhag  -0.15260
gfz2011fhbm  -0.71480
gfz2011fhur  -0.41420
gfz2011fkbn  -0.14500
gfz2011flgj  -0.17480
gfz2011flhp   1.66170
gfz2011fnsw  -0.15310
gfz2011gbmx  -0.07310
gfz2011gcwb  -0.34580
gfz2011gdgh   0.53680
gfz2011ggvf   1.54000
gfz2011ghky  -0.54430
gfz2011gkzt  -0.81600
gfz2011gzbr   0.73080
gfz2011haid  -0.27020
gfz2011hbex  -0.06500
gfz2011hbqk  -0.12090
gfz2011hebt   0.36890
gfz2011hlqw  -0.49880
gfz2011hlsa  -0.24450
gfz2011hlth  -0.15380
gfz2011hpgx   0.71600
gfz2011hpqp  -0.15800
gfz2011hvbu   0.90700
gfz2011ieie   1.69450
gfz2011iwte   1.28030
gfz2011izqa  -0.12190
gfz2011jdsj   0.26540
gfz2011jplh  -0.13730
gfz2011jtlg   0.47510
gfz2011jxpl  -0.06490
gfz2011knbi  -0.14210
gfz2011knoo  -0.44040
gfz2011kqwo  -0.51910
gfz2011kqyg  -0.02050
gfz2011kwjx  -2.33410
gfz2011kxzp   0.58920
gfz2011lcxq   0.96230
gfz2011lczg  -0.77680
gfz2011lgsg  -0.39070
gfz2011lhls  -0.31120
gfz2011mdie  -0.25570
gfz2011mjom   0.27500
gfz2011mllx   0.04180
gfz2011mpme   0.39940
gfz2011mprq  -0.14760
gfz2011nkaz   0.61440
gfz2011nmnq  -0.55640
gfz2011nqpd  -0.43590
gfz2011nrwc  -0.59810
gfz2011nrwv  -0.78380
gfz2011nsex   0.76230
gfz2011ntkh  -0.43510
gfz2011nudm  -0.68680
gfz2011ohcy   0.06630
gfz2011oiqe   0.21080
gfz2011oiwk   0.19950
gfz2011olkk   0.05130
gfz2011orgn   0.04070
gfz2011ornx  -0.85730
gfz2011owvz   0.21930
gfz2011pccd  -0.67780
gfz2011qigx   0.57190
gfz2011qvae  -0.40330
gfz2011qyms  -0.16310
gfz2011rewa  -0.17850
gfz2011rgwp  -0.26820
gfz2012attr  -0.36110
gfz2012bfah  -0.35040
gfz2012cxdn  -0.12530
gfz2012deri   0.55980
gfz2012dyyh   0.07910
gfz2012ekda  -0.53200
gfz2012ekzf   0.78490
gfz2012emjg  -0.71450
gfz2012enno   0.46870
gfz2012ewgo  -0.67510
gfz2012fbfo  -0.68940
gfz2012foeo  -0.23000
gfz2012fwfo  -0.24760
gfz2012fzfa   0.01180
gfz2012gkvr  -0.05450
gfz2012glss  -0.68470
gfz2012gocc   0.56180
gfz2012gomm  -0.26240
gfz2012hnul  -0.05890
gfz2012hnuw   0.13470
gfz2012ihdl  -0.44390
gfz2012ilvn  -0.44900
gfz2012imay   0.36430
gfz2012imbd  -0.24540
gfz2012intn   0.16350
gfz2012jgvj  -0.81530
gfz2012jjzc   0.78950
gfz2012jlox   0.74630
gfz2012jpgs   0.70260
gfz2012jshk  -0.73930
gfz2012jupx  -0.29950
gfz2012kbzj  -0.02230
gfz2012kdmb   0.05620
gfz2012keor  -0.51120
gfz2012kkcp  -0.36020
gfz2012kkup  -0.30120
gfz2012klba   0.07210
gfz2012klhx   0.09500
gfz2012kuct   0.02970
gfz2012kudo  -0.02940
gfz2012kwgo   2.58100
gfz2012lczo  -0.04070
gfz2012ldxg  -0.44740
gfz2012ldzj  -0.24810
gfz2012llug   1.12870
gfz2012lpvn  -1.08060
gfz2012lrol   2.71560
gfz2012lsni  -0.18450
gfz2012lxkv   3.80030
gfz2012minr  -0.24810
gfz2012mupa  -0.09370
gfz2012mvwr   0.03010
gfz2012mwij   0.10320
gfz2012naqz   0.40190
gfz2012nedn  -2.07150
gfz2012nkdf  -0.75170
gfz2012nojx   0.84890
gfz2012nxog   0.16880
gfz2012oazn   0.01210
gfz2012obgw   0.00000
gfz2012omvo  -0.54600
gfz2012pkel   0.08780
gfz2012pqmu   2.42590
gfz2012qjhs   0.29910
gfz2012qqxg   1.03570
gfz2012quso  -0.18570
gfz2012rats  -0.75340
gfz2012repv  -0.36010
gfz2012ronz   1.13750
gfz2012royy   0.74660
gfz2012rqlg   0.67500
gfz2012rwov   0.32070
gfz2012sphd   0.59540
gfz2012sqmv  -0.51350
gfz2012sqvi  -1.63210
gfz2012syvl  -0.05310
gfz2012tazz   0.19760
gfz2012tbbp   0.02040
gfz2012teic  -0.31500
gfz2012ttoa   0.03480
gfz2012uqzp   0.26290
gfz2012uvqf   1.29040
gfz2012uyie  -0.52860
gfz2012uzom  -0.79110
gfz2012vpza   2.49240
gfz2012vrgb  -0.03760
gfz2012vrua   0.24840
gfz2012vsev  -0.54390
gfz2012vxvr  -0.23140
gfz2012wdyx  -0.61910
gfz2012wklq  -0.98090
gfz2012wmkd   0.33580
gfz2012wubh  -0.59050
gfz2012wxlg   0.00720
gfz2012wybs   1.43060
gfz2012wypz   0.21260
gfz2012xbjq  -0.71870
gfz2012xyua  -0.96470
gfz2012yoie  -0.33850
gfz2012yqjj  -0.27080
gfz2012yxxu  -0.66360
gfz2012yzod  -0.31060
gfz2012zemz  -0.81480
gfz2012zfag   0.15660
gfz2012zitl  -0.63230
gfz2012zjpv   0.08970
gfz2012zjre  -0.56700
gfz2012zmln   0.03110
gfz2013aahq  -0.59990
gfz2013akgj   0.19770
gfz2013aqaw   0.14790
gfz2013bdpu   0.18790
gfz2013bobq   0.53710
gfz2013bokp   0.13750
gfz2013bouj  -1.66280
gfz2013btjm   1.77740
gfz2013cvqg  -0.27700
gfz2013cwpn  -0.32060
gfz2013cwps  -0.41210
gfz2013dddp  -0.61940
gfz2013dkly  -0.70140
gfz2013dnnx   0.09720
gfz2013dofo  -0.82460
gfz2013dojq   0.21930
gfz2013drpk  -0.05130
gfz2013drxz  -0.14070
gfz2013dspt  -0.38160
gfz2013dsrk   0.13150
gfz2013dvyh   1.30870
gfz2013egni  -0.18670
gfz2013egpu  -0.75790
gfz2013esnh  -0.44700
gfz2013fdwq   0.23420
gfz2013fiud   0.04850
gfz2013fkcl   0.14700
gfz2013fkii  -0.11530
gfz2013flox   0.01780
gfz2013fwxa   0.16810
gfz2013fygc  -0.20870
gfz2013gbcn  -0.27960
gfz2013gcfx  -0.81470
gfz2013gdgf   0.06340
gfz2013gdnq  -0.07380
gfz2013goux  -1.06190
gfz2013gvet  -0.06920
gfz2013hfmp  -0.23010
gfz2013hisv  -0.08060
gfz2013hkja  -0.24190
gfz2013huwr   0.10780
gfz2013ifpq  -0.16810
gfz2013ikgo  -0.19740
gfz2013ippu   0.57580
gfz2013iunn   0.32040
gfz2013iyqz   0.25180
gfz2013jesk  -1.15190
gfz2013jgij  -0.72290
gfz2013jgip   0.29740
gfz2013jkut   0.68060
gfz2013jusj   1.46810
gfz2013jwvc  -1.51180
gfz2013kccc   0.80150
gfz2013kdeo  -0.30730
gfz2013khli  -0.65800
gfz2013kvtk  -0.85260
gfz2013kweg  -0.29440
gfz2013ldpc  -0.13630
gfz2013ldqb  -0.18930
gfz2013lixa  -0.02240
gfz2013lmqe   0.01980
gfz2013lxyn   0.29030
gfz2013lyko   0.38360
gfz2013mmlw   0.21360
gfz2013mqmv  -0.11710
gfz2013mwbh   1.09900
gfz2013nabl  -0.38150
gfz2013ncjp  -0.63330
gfz2013ndin   0.20680
gfz2013nkgj   0.28570
gfz2013nknw   0.45750
gfz2013nqgw  -0.02390
gfz2013nuvi   2.42310
gfz2013nwdi   0.10590
gfz2013ogde   0.12500
gfz2013oifr   0.25540
gfz2013ozku  -0.19050
gfz2013ozrf   0.14690
gfz2013ozrp  -0.25570
gfz2013pfbx   0.24600
gfz2013pfeb  -1.23230
gfz2013ppqq  -0.13180
gfz2013puag   0.08120
gfz2013pxsj  -0.11210
gfz2013qali   0.34150
gfz2013qmer   0.29140
gfz2013qqrr  -0.16730
gfz2013qwbv  -0.24560
gfz2013qzdq  -0.89640
gfz2013rwfe   0.77760
gfz2013sdus   0.03260
gfz2013sebq   0.32370
gfz2013sfto  -0.47500
gfz2013shzy  -0.02050
gfz2013skkm  -0.05940
gfz2013suln   0.05470
gfz2013suvn   0.81230
gfz2013svci   0.16050
gfz2013tcxc  -0.62390
gfz2013tcxq   0.52320
gfz2013toea  -0.48700
gfz2013tusd  -0.05870
gfz2013tvmw   0.12940
gfz2013tyas   0.47250
gfz2013uauo  -0.04150
gfz2013vjjc   0.14460
gfz2013vsxi   0.62940
gfz2013yaig  -1.25310
gfz2013yctg  -0.34060
gfz2014bdfd  -0.13810
gfz2014bfng  -0.41090
gfz2014bhvd   0.44390
gfz2014bldx  -0.32740
gfz2014bwue   0.28190
gfz2014bzxy   0.22960
gfz2014caop   0.63720
gfz2014chdv  -0.13780
gfz2014claq  -0.45720
gfz2014clnq   0.50260
gfz2014cmwb  -0.32040
gfz2014crpy  -0.11530
gfz2014ctot  -0.17500
gfz2014cvkm  -0.69370
gfz2014cvxx  -0.06880
gfz2014cybg   0.30670
gfz2014czno   1.06700
gfz2014czqi  -0.13210
gfz2014czua  -0.12420
gfz2014dffd   0.12100
gfz2014dhxt   0.26210
gfz2014disp  -0.89650
gfz2014duqn   0.25800
gfz2014ebmc  -0.13930
gfz2014edfx   0.61350
gfz2014eght   0.43170
gfz2014ehsf   0.07100
gfz2014ekcr  -0.28420
gfz2014emzb  -1.42610
gfz2014enhi   0.04830
gfz2014etqa   0.14570
gfz2014exxa  -0.57710
gfz2014fgvi   0.32250
gfz2014fimn   0.24030
gfz2014fjpb  -0.64720
gfz2014fjzd  -0.41100
gfz2014fjzw  -0.40450
gfz2014fkmr  -0.20580
gfz2014fnyg   0.01920
gfz2014fqpz  -0.14690
gfz2014frdz   0.42720
gfz2014frez  -0.32190
gfz2014frwh  -0.14520
gfz2014fsuh   0.03770
gfz2014fszc  -0.05650
gfz2014ftka  -0.53840
gfz2014ftrk  -2.84390
gfz2014furx  -0.22650
gfz2014fusc   0.21930
gfz2014fusj  -0.11480
gfz2014fuub   0.03520
gfz2014fvaa  -0.04110
gfz2014fval   0.37250
gfz2014fvgh  -0.07940
gfz2014fvjl  -0.11480
gfz2014fvrg   0.13400
gfz2014gbcz  -0.09170
gfz2014gbdq   2.75530
gfz2014ghpe   0.00000
gfz2014gkgf   0.12200
gfz2014gkgl  -0.39380
gfz2014gkgs   0.40950
gfz2014gkhp   0.85850
gfz2014gkhy   0.06430
gfz2014gkjl  -0.09310
gfz2014gkjt   0.17120
gfz2014gkjy  -0.18260
gfz2014gkob  -0.15750
gfz2014gkpj   0.80420
gfz2014gkqf  -0.02010
gfz2014gkqu   0.40410
gfz2014gksu  -0.51540
gfz2014gktq   0.64560
gfz2014gkxm   0.79060
gfz2014glcu   0.23550
gfz2014glcy   0.01990
gfz2014glgo  -1.57710
gfz2014gltx  -0.11200
gfz2014gmge  -0.23580
gfz2014gmhr  -2.38060
gfz2014gmic   0.02090
gfz2014gmip   1.02440
gfz2014gmjo   0.26020
gfz2014gmku   0.60800
gfz2014gmnb   0.29310
gfz2014gmnw   0.53630
gfz2014gmuk   0.03540
gfz2014gmzl  -0.41870
gfz2014gndq   0.21300
gfz2014gnfd  -0.05090
gfz2014gnmx   0.11160
gfz2014gnom  -0.35440
gfz2014gnqt  -0.03290
gfz2014goba   0.31370
gfz2014gogv   0.10280
gfz2014goqw  -0.23160
gfz2014gori   0.06430
gfz2014gpce   0.52890
gfz2014gpuk   0.30340
gfz2014gpya   0.05810
gfz2014gqbj   0.22510
gfz2014gqer   2.42780
gfz2014gqve   0.19330
gfz2014grfp  -0.10580
gfz2014grho  -0.80170
gfz2014gsqs   0.42200
gfz2014gtwz  -0.71810
gfz2014gufl   0.71240
gfz2014gull  -0.50800
gfz2014gulp  -0.12800
gfz2014gumd   0.16930
gfz2014gutm  -0.28040
gfz2014gvhw   1.07330
gfz2014gvqj  -1.07380
gfz2014gvrd  -1.26370
gfz2014gwab   0.17730
gfz2014gwqj   0.48760
gfz2014gxag  -0.64360
gfz2014gxkh  -0.21420
gfz2014gxxh  -0.47400
gfz2014gxxo   0.28550
gfz2014gyxd  -0.24320
gfz2014gzrm   0.20710
gfz2014gzue   0.79070
gfz2014haey   0.46330
gfz2014hcmj  -0.12390
gfz2014hetr   0.13660
gfz2014heum   2.61630
gfz2014heyq  -0.48530
gfz2014hfhl  -0.24530
gfz2014hgqo   0.51210
gfz2014hhwx  -0.33640
gfz2014hjgh   0.42700
gfz2014hjgr   0.09310
gfz2014hjij   0.14200
gfz2014hmrs  -0.56610
gfz2014hmzg  -0.72510
gfz2014hocg   0.39220
gfz2014hphw   0.83260
gfz2014hqxs  -0.37160
gfz2014hrft   0.29830
gfz2014hriu  -0.08800
gfz2014hscz   0.25650
gfz2014huaj   0.25200
gfz2014hyvq  -0.31230
gfz2014hzfw   0.45590
gfz2014ieam  -0.44110
gfz2014ifue  -0.56930
gfz2014ikun  -0.06530
gfz2014imnn   0.18250
gfz2014inbj  -0.05180
gfz2014iobd  -0.08420
gfz2014isff   0.19020
gfz2014issk   0.00610
gfz2014isys  -0.09990
gfz2014itbe  -0.84740
gfz2014itkw  -0.27090
gfz2014jggm  -0.16050
gfz2014jjhc   0.50730
gfz2014jjln   0.56270
gfz2014jmnk   0.39940
gfz2014jnyv   0.18620
gfz2014jpep   0.12370
gfz2014jpxs   0.17640
gfz2014jwmh  -0.32260
gfz2014kbuk   0.04170
gfz2014khan  -0.34980
gfz2014khlk   0.20600
gfz2014kitm   0.18150
gfz2014kjzb  -0.12810
gfz2014kndc  -0.66020
gfz2014knks  -0.30200
gfz2014knxs  -0.31360
gfz2014kwrg  -0.10470
gfz2014kytf  -0.61280
gfz2014lddn   0.49460
gfz2014ldhu  -0.04240
gfz2014lefs  -0.04660
gfz2014lkyf  -0.11060
gfz2014lnqy  -0.02170
gfz2014lpim   1.25550
gfz2014lrzx   0.21860
gfz2014lwom  -0.94560
gfz2014lxnc   0.04010
gfz2014lyhk   0.72770
gfz2014lyhp   0.40540
gfz2014macx   0.39140
gfz2014mden   0.39910
gfz2014mhgg  -0.44300
gfz2014mtum   0.14860
gfz2014mwnj  -3.04460
gfz2014ndue  -0.22890
gfz2014ngnd  -0.46350
gfz2014ngsk  -0.36200
gfz2014niqj  -1.11090
gfz2014npeo   0.19700
gfz2014nphm   0.70960
gfz2014nqfm   0.36260
gfz2014nrie   0.79780
gfz2014nvdi   1.25040
gfz2014odgv  -0.30420
gfz2014oinz   0.07290
gfz2014oryw  -0.35280
gfz2014oxcc   0.36130
gfz2014oyly  -0.06560
gfz2014pkll   0.63020
gfz2014ppzf   0.47410
gfz2014pvch   0.16170
gfz2014pzni   0.37660
gfz2014qbzi   0.12360
gfz2014qfzq  -0.16320
gfz2014qlxd   0.00290
gfz2014qngj  -0.62180
gfz2014qqhm   0.23300
gfz2014rbsl   0.32650
gfz2014rdsn  -0.58530
gfz2014rfeb  -0.37200
gfz2014riel  -0.05320
gfz2014rkwl   0.16620
gfz2014rnrn   0.12500
gfz2014royq   0.18290
gfz2014ryfb   0.34660
gfz2014ssmv   0.31060
gfz2014ssvz  -0.65360
gfz2014szzf  -1.11590
gfz2014tabg   0.16910
gfz2014tovs   0.04170
gfz2014tqdo   0.05770
gfz2014tqly   0.13900
gfz2014tzsd  -4.20780
gfz2014ubwn   0.02070
gfz2014udgg   0.36750
gfz2014uuuf   0.31780
gfz2014uyrq   0.54220
gfz2014vcev  -1.30130
gfz2014veit  -1.04820
gfz2014vhld  -0.36170
gfz2014vhms   0.51920
gfz2014vjoz  -0.17260
gfz2014watn   0.17850
gfz2014wqcp   0.42500
gfz2014wwib   0.11330
gfz2014xhkc   0.04010
gfz2014xjri   0.56750
gfz2014xqqd  -0.08130
gfz2014yhhm  -0.10770
gfz2014yrug   0.28000
gfz2014yula   0.19570
gfz2014zkys   0.62180
gfz2014zlgp   0.08070
gfz2015aqav  -0.21350
gfz2015aqbq  -0.14960
gfz2015aruz   0.29010
gfz2015berb  -0.04060
gfz2015bfjm  -0.17910
gfz2015bkbj   0.16590
gfz2015bphe  -0.08680
gfz2015bsnl  -0.36520
gfz2015chhn   0.48350
gfz2015chqn   0.62370
gfz2015cxxk   0.17930
gfz2015cyjd   0.12960
gfz2015czfv   0.17590
gfz2015dizn   0.93970
gfz2015djts  -0.18240
gfz2015dvbn  -0.07510
gfz2015eeyq  -0.34240
gfz2015egxq   0.02830
gfz2015ehpz  -0.29240
gfz2015eiky  -0.45210
gfz2015emtg  -0.64820
gfz2015etai  -0.04310
gfz2015fjhk   0.96510
gfz2015fkgt  -0.36190
gfz2015fkic  -0.06270
gfz2015fkjs  -0.18970
gfz2015flis   0.13410
gfz2015fsjj   0.13060
gfz2015fxdi  -0.08240
gfz2015gckd   0.53020
gfz2015igsy   0.02170
gfz2015ijmh   1.05170
gfz2015ixyy  -0.41470
gfz2015kxxs   0.54980
gfz2015lfma  -0.40410
gfz2015lhjy   0.62020
gfz2015lytv   0.34060
gfz2015lzad   1.53200
gfz2015mddr   0.17630
gfz2015mfpy  -0.02070
gfz2015mpte   0.13630
gfz2015nuxz   0.41490
gfz2015nwug  -3.44120
gfz2015ocdz  -0.21680
gfz2015okmq  -0.27240
gfz2015opjp   0.16640
gfz2015orkl  -0.12320
gfz2015oumn   0.28760
gfz2015oyfl   1.05220
gfz2015pdri  -0.40050
gfz2015plal   0.22370
gfz2015poni  -0.35500
gfz2015qiit  -0.48760
gfz2015qnho  -0.21220
gfz2015qnto  -0.35640
gfz2015quzo   1.06050
gfz2015qvxu   0.40970
gfz2015rddx   0.77700
gfz2015rkzg   0.72840
gfz2015rpzn   2.63660
gfz2015sfdd   0.79860
gfz2015sfdl  -0.10150
gfz2015sfdv   0.31270
gfz2015sfdy  -0.55460
gfz2015sfeo   0.57610
gfz2015sffn   0.26640
gfz2015sfga   0.66880
gfz2015sfhz  -0.88410
gfz2015sfiq  -0.66410
gfz2015sfjf  -0.17540
gfz2015sfkz  -0.55520
gfz2015sflf  -1.12920
gfz2015sfln   1.81760
gfz2015sfmd   0.93300
gfz2015sfnb  -0.34910
gfz2015sfno   0.23330
gfz2015sfnv  -0.14620
gfz2015sfoc  -0.40450
gfz2015sfom  -0.33820
gfz2015sfoq   0.80670
gfz2015sfpj  -0.95700
gfz2015sfqo   0.48900
gfz2015sfqr  -0.37790
gfz2015sfrc  -0.26780
gfz2015sfte   0.36040
gfz2015sfwf  -0.24150
gfz2015sfzm   0.12830
gfz2015sgad  -0.36260
gfz2015sgmm  -0.56090
gfz2015sgmr   0.43060
gfz2015sgyd   1.15750
gfz2015shel   0.11980
gfz2015shhg   0.31300
gfz2015shhu  -0.42320
gfz2015shjn  -0.24490
gfz2015shov  -1.14900
gfz2015shrg   0.54250
gfz2015shsz  -0.62830
gfz2015sitn   0.83050
gfz2015siyy   0.44210
gfz2015sjbx   0.16420
gfz2015sjgk   0.70710
gfz2015sjjb   0.07040
gfz2015sjne   0.49380
gfz2015sjoj   0.37120
gfz2015sjvu   0.44870
gfz2015sjwi   0.15350
gfz2015skab   0.70490
gfz2015skgj  -0.00000
gfz2015skia   0.11160
gfz2015skpv  -0.46360
gfz2015skuk   1.18850
gfz2015skxu  -0.25890
gfz2015sldx   0.85040
gfz2015sljs   0.48290
gfz2015slun   0.06450
gfz2015smym  -0.30980
gfz2015snmg   2.00560
gfz2015snmr   1.15050
gfz2015snsf   0.11910
gfz2015snwh  -0.31120
gfz2015snyd   0.41040
gfz2015soat  -0.13850
gfz2015soxc   0.38130
gfz2015sqmy   0.61690
gfz2015srat   0.27100
gfz2015stcv   0.12700
gfz2015stfy  -0.50210
gfz2015subz  -0.11490
gfz2015svwm   1.19760
gfz2015sxgd  -0.82420
gfz2015sxmh   0.84940
gfz2015sxxu   0.46270
gfz2015sydc  -0.21810
gfz2015szcb  -0.83360
gfz2015szfe  -0.03790
gfz2015sztx  -0.26230
gfz2015taml  -0.17910
gfz2015tbdn  -0.19470
gfz2015tcem  -0.34960
gfz2015tdcu   0.20250
