# Nsamples: 28  MAD:  0.547  mean: -0.250  variance:  0.641
gfz2014bwue  -0.65630
gfz2014fgvi  -0.22120
gfz2014fhla   0.65740
gfz2014fkmr   1.16560
gfz2014frdz  -0.60000
gfz2014frez   0.01350
gfz2014ftka  -2.88380
gfz2014fval  -0.65100
gfz2014ghpe  -0.53100
gfz2014gkgf  -1.59430
gfz2014gkhy   0.58060
gfz2014gkqf  -0.28800
gfz2014gltx   0.05930
gfz2014gmge   0.44270
gfz2014gmnb   0.11740
gfz2014gmnw  -0.14350
gfz2014goba   0.02100
gfz2014gsqs   0.11600
gfz2014gull   0.56010
gfz2014gxxo   0.45540
gfz2014hasj  -0.43580
gfz2014hgqo  -0.59930
gfz2014itkw  -1.85530
gfz2015cyjd  -0.17170
gfz2015fjhk  -0.10280
gfz2015fsjj  -0.14280
gfz2015mpte  -0.49350
gfz2015sfdd   0.16940
