# Nsamples: 18  MAD:  0.640  mean:  0.690  variance:  0.947
gfz2010iull  -0.50590
gfz2010nmpc   0.52700
gfz2011aatr   0.08050
gfz2011enva   3.51680
gfz2011lcxq   1.82080
gfz2011lzwj   0.91430
gfz2011rewa   2.18950
gfz2011wxfs   0.34210
gfz2012jlox   0.05990
gfz2012kudo   0.76040
gfz2012ldxg  -0.36400
gfz2012wypz   0.47680
gfz2013nwdi   0.59860
gfz2013svci  -0.19760
gfz2014gkgf   0.45490
gfz2014gmhr   1.30140
gfz2015sfdd   0.61830
gfz2015svwm  -0.16920
