# Nsamples: 19  MAD:  0.552  mean:  0.547  variance:  0.500
gfz2010nmpc   1.14890
gfz2011aatr  -0.04490
gfz2011enva   2.08350
gfz2011lzwj   0.81500
gfz2011rewa   0.18590
gfz2011toub   0.18260
gfz2011wxfs   0.21580
gfz2012kudo   1.83790
gfz2012ldxg   0.76140
gfz2012wypz   0.61340
gfz2013nwdi   1.43180
gfz2013svci   0.07890
gfz2013yaig  -0.82290
gfz2014bwue   0.13650
gfz2014fgvi   0.38890
gfz2014gkgf  -0.46240
gfz2014gkqf   0.29640
gfz2014gmnb   0.81410
gfz2015lhjy   0.72940
