# Nsamples: 90  MAD:  0.825  mean: -0.327  variance:  0.773
gfz2013dofo  -0.50540
gfz2013drxz  -1.43250
gfz2013dvyh  -0.30570
gfz2013gngz  -0.40210
gfz2013ikgo  -0.72310
gfz2013ilug  -1.10080
gfz2013jgij   0.45630
gfz2013ldqb  -1.02960
gfz2013lyko   0.37060
gfz2013mwbh   0.43720
gfz2013ncjp   0.46360
gfz2013nkgj   1.03100
gfz2013nwdi  -0.23500
gfz2013qali  -1.14480
gfz2013qcck  -0.14840
gfz2013qmer  -0.65920
gfz2013sdus   0.13200
gfz2013svci   0.49930
gfz2013tusd  -1.58760
gfz2013vfzp   0.18360
gfz2013vjjc  -1.24900
gfz2013xsdt  -0.45210
gfz2013yctg  -0.43400
gfz2014algk  -2.93510
gfz2014arpf  -0.99970
gfz2014bfqo  -1.50700
gfz2014bwue  -0.43550
gfz2014chdv   0.09960
gfz2014czqi  -0.11880
gfz2014dhxt  -0.00270
gfz2014enhi  -0.26080
gfz2014ezgb  -1.68910
gfz2014femz  -1.70000
gfz2014fgvi  -0.24230
gfz2014fhdw  -0.16210
gfz2014fhla   0.48480
gfz2014fhrq   0.22780
gfz2014fkmr   1.60290
gfz2014ftka   0.15950
gfz2014ftoc   0.02270
gfz2014gbcz  -1.01860
gfz2014gkgf  -0.62570
gfz2014gkqf  -3.66840
gfz2014gmge   0.24110
gfz2014gmhr  -0.66650
gfz2014gmip  -0.08990
gfz2014gmku   0.62030
gfz2014gmnb   1.18510
gfz2014gmnw   0.71090
gfz2014gmuw   0.79790
gfz2014goba   0.21530
gfz2014gqjr  -1.31820
gfz2014gsqs  -0.46360
gfz2014gull  -0.01140
gfz2014gutm   0.28620
gfz2014gvrd  -1.23710
gfz2014gwab  -1.22360
gfz2014hbqb   0.67430
gfz2014hfhl   0.38460
gfz2014hocg  -1.02340
gfz2014hscz  -0.97250
gfz2014ifzj  -0.19520
gfz2014itpj  -0.07100
gfz2014jcmt  -2.37520
gfz2014jfis   0.39560
gfz2014jjhc  -0.68250
gfz2014jlwb   0.67690
gfz2014knks   0.82280
gfz2014lgqn   0.63580
gfz2014lyhk  -0.33030
gfz2014macx   0.26420
gfz2014npeo  -0.88280
gfz2014oinz   0.91950
gfz2014ppzf  -0.19010
gfz2014qlxd  -1.36640
gfz2014qngj  -1.52940
gfz2014ssvz  -0.75080
gfz2014tqdo   0.87200
gfz2014watn   0.28890
gfz2015aruz  -0.38130
gfz2015berb  -0.92490
gfz2015chhn  -0.77770
gfz2015cxxk  -0.53180
gfz2015cyjd   0.33520
gfz2015dskr  -0.47700
gfz2015dvbn   0.03580
gfz2015fsjj   0.20630
gfz2015gckd   0.25540
gfz2015jwgl  -0.92500
gfz2015kfsu  -0.25160
