# Nsamples: 54  MAD:  0.451  mean: -0.230  variance:  0.418
gfz2010bxxs  -0.66880
gfz2010cqwl  -0.09050
gfz2010grjd   0.50130
gfz2010nmpc  -0.43980
gfz2010usho   0.33930
gfz2011aatr  -0.37240
gfz2011enva  -0.66010
gfz2011hlqw  -0.04530
gfz2011hlsa  -0.24670
gfz2011lcxq  -0.01270
gfz2011lzwj  -0.54120
gfz2011rewa  -0.06480
gfz2011toub  -0.86690
gfz2011wxfs  -0.56800
gfz2012enno   0.04370
gfz2012jlox  -0.12640
gfz2012kkup  -0.34280
gfz2012kudo  -0.35300
gfz2012ldxg   0.48280
gfz2012ttoa   0.29330
gfz2012wypz  -0.40000
gfz2013drxz  -0.03160
gfz2013jkut   0.32760
gfz2013kdeo   0.69040
gfz2013nwdi  -1.34110
gfz2013pfbx   0.11180
gfz2013svci   0.03730
gfz2013vjjc   1.46900
gfz2014ande  -1.65100
gfz2014bwue  -0.86750
gfz2014fgvi  -0.87370
gfz2014fhla   1.53530
gfz2014frdz   0.09420
gfz2014ftka   0.34500
gfz2014gkgf  -1.43070
gfz2014gkqf  -0.37670
gfz2014gmge   1.01820
gfz2014gmhr  -2.13510
gfz2014gmnb  -0.44010
gfz2014gmnw  -0.51000
gfz2014goba  -0.33060
gfz2014gull   0.06610
gfz2014hasj  -0.13350
gfz2014jpep  -0.58570
gfz2014lgqn  -0.17010
gfz2014lxnc  -0.57300
gfz2014nqfm  -0.49970
gfz2014qqhm   0.02330
gfz2014ssvz   0.10850
gfz2015fsjj  -0.43420
gfz2015lhjy  -0.68670
gfz2015mpte  -0.31330
gfz2015svwm  -0.19970
gfz2015taml  -0.50690
