# Nsamples: 7  MAD:  0.669  mean:  0.403  variance:  0.486
gfz2010grjd   0.18510
gfz2011aatr  -0.26640
gfz2011enva   1.87730
gfz2011wxfs  -0.14240
gfz2012jlox  -0.14840
gfz2012kkup   0.67750
gfz2012kudo   0.64180
