# Nsamples: 122  MAD:  0.877  mean: -0.435  variance:  1.010
gfz2010onma  -1.23480
gfz2010rqwj   1.11760
gfz2010sfee   1.62990
gfz2010tcrl   1.23090
gfz2010upfb  -1.54810
gfz2011aatr  -0.59690
gfz2011adjs  -0.58810
gfz2011alip  -0.47330
gfz2011cyre   0.80930
gfz2011dcqb  -0.91260
gfz2011dpqx  -0.67280
gfz2011enva   1.36680
gfz2011etje   0.76820
gfz2011gkzt  -0.68800
gfz2011hlqw  -0.44140
gfz2011hlsa  -0.61120
gfz2011jplh  -0.16520
gfz2011kqwo   1.58350
gfz2011kxzp  -1.15920
gfz2011lcxq   0.77840
gfz2011lvjr   2.08270
gfz2011lzwj   0.04930
gfz2011mdie  -1.07160
gfz2011mpme  -0.81470
gfz2011olkk  -1.52950
gfz2011orgn   0.54060
gfz2011ornx  -1.97170
gfz2011owvz  -0.85690
gfz2011rewa  -1.02610
gfz2011rgwp   1.22840
gfz2011tbas  -0.28430
gfz2011wxfs   0.48310
gfz2011wxtk  -1.25710
gfz2011xyxj  -0.40720
gfz2012bpkx  -1.40710
gfz2012cxdn  -1.39420
gfz2012ekda  -1.36400
gfz2012enno  -0.71950
gfz2012fzfa  -1.64000
gfz2012syvl  -0.25640
gfz2012ttoa   0.25540
gfz2012uafg  -1.15360
gfz2012vrgb   1.65970
gfz2012wklq  -0.64090
gfz2012wxlg  -2.07850
gfz2012wypz   0.22100
gfz2013axoj  -0.35720
gfz2013ccnr  -0.63820
gfz2013dofo  -1.07780
gfz2013drxz  -1.06570
gfz2013gaie   0.06340
gfz2013ldqb  -1.20440
gfz2013lyko  -0.50560
gfz2013mqmv  -0.58420
gfz2013mwbh   0.67020
gfz2013ncjp   0.56060
gfz2013nkgj   0.23370
gfz2013nwdi   0.49370
gfz2013qfsq   0.45410
gfz2013qmer  -0.64340
gfz2013qzdq  -2.50110
gfz2013svci   0.59270
gfz2013vfyw  -2.83630
gfz2013vfzp  -1.28700
gfz2013vjjc  -1.81140
gfz2013wjmm  -1.77290
gfz2013xsdt  -0.48660
gfz2013yaig  -2.80690
gfz2013yqkv  -0.71440
gfz2014adjs  -0.20460
gfz2014afmx  -0.42730
gfz2014algk   0.31780
gfz2014bwue   0.01920
gfz2014bzxy  -0.81440
gfz2014enhi  -1.07140
gfz2014femz  -0.80850
gfz2014fgvi  -0.37110
gfz2014fhla  -0.29370
gfz2014ftka  -0.15420
gfz2014gbcz  -1.38460
gfz2014ghpe   0.11360
gfz2014gkgf  -0.59110
gfz2014gmge  -0.04990
gfz2014gmhr  -0.93500
gfz2014gmnb   0.93430
gfz2014gmnw  -1.01140
gfz2014goba  -0.33950
gfz2014gori  -1.01190
gfz2014gull  -0.32060
gfz2014gwab   1.03910
gfz2014hasj   2.44710
gfz2014hauo  -3.23820
gfz2014hjgr   0.05870
gfz2014hocg  -0.70690
gfz2014jwmh  -0.48940
gfz2014kndc  -0.59810
gfz2014nqfm  -0.08630
gfz2014pjum  -2.93790
gfz2014qlxd   0.32060
gfz2014qngj  -1.15310
gfz2014qqhm  -0.28510
gfz2014raau  -2.30220
gfz2014rcyx   0.25190
gfz2014ssvz  -0.43170
gfz2014szzf  -1.25560
gfz2014tqdo   0.26560
gfz2014vhld  -0.12770
gfz2014vjoz   0.07680
gfz2014watn  -0.70290
gfz2014wrkh  -0.61130
gfz2015berb  -0.24760
gfz2015chhn  -1.29430
gfz2015cyjd   0.47670
gfz2015etai  -0.95700
gfz2015fcua  -0.28010
gfz2015fkgt  -1.27290
gfz2015fsjj   0.14910
gfz2015gckd  -0.29610
gfz2015kfsu  -0.27670
gfz2015lhjy  -0.25910
gfz2015lytv  -0.51910
gfz2015mpte   0.91490
