# Nsamples: 19  MAD:  0.664  mean: -0.068  variance:  0.864
gfz2010eltf   0.63880
gfz2010elyc   1.01110
gfz2010fync   0.42530
gfz2010nqwo   0.11860
gfz2011aatr   0.13570
gfz2011lzwj  -0.19160
gfz2011rewa  -0.81780
gfz2011wxfs  -0.02250
gfz2013svci  -0.29210
gfz2013vfyw  -0.06630
gfz2013vjjc   0.44420
gfz2014fgvi  -0.39650
gfz2014fnbh   1.69110
gfz2014gtef  -0.67900
gfz2014gutm   0.58300
gfz2014jmnk  -0.43890
gfz2014qbzi  -2.99620
gfz2015byfn   0.40230
gfz2015chhn  -0.84170
