# Nsamples: 91  MAD:  0.999  mean:  0.298  variance:  1.783
gfz2010bfzs   1.51820
gfz2010czps   1.31650
gfz2010eaoy  -3.20050
gfz2010eapk  -0.46850
gfz2010eapn   0.09540
gfz2010eaqe  -0.87160
gfz2010eaqx   1.19260
gfz2010eaqy  -0.75300
gfz2010earu   0.73330
gfz2010easo  -0.27490
gfz2010easu  -0.53680
gfz2010eati  -0.06020
gfz2010eatt   1.99380
gfz2010eavs  -0.40540
gfz2010eawb   0.71590
gfz2010eawu   0.91220
gfz2010eaxa   0.41710
gfz2010eazu   0.20230
gfz2010ebbd   0.35720
gfz2010ebkj   0.86000
gfz2010ecsp   0.37330
gfz2010ecua  -0.62460
gfz2010edyi   0.29430
gfz2010eeij  -1.78100
gfz2010eevu  -0.01500
gfz2010egap   0.01820
gfz2010eisx  -2.51730
gfz2010eltf   0.44060
gfz2010elyc  -0.47220
gfz2010erom   2.10220
gfz2010eujm  -0.56170
gfz2010excp  -0.58110
gfz2010exdd   0.73370
gfz2010exdl   0.04830
gfz2010ezck  -0.64540
gfz2010ffhq   0.06290
gfz2010fuuy  -1.05300
gfz2010fync   0.11450
gfz2010gjia   0.60080
gfz2010glxl   0.42170
gfz2010gyqp   1.47550
gfz2010gzxr   0.53300
gfz2010iull  -0.07930
gfz2010jxbm  -1.23810
gfz2010nmpc   1.37350
gfz2010nqwf   1.27710
gfz2010nqwo   0.23820
gfz2010rqwj  -0.54750
gfz2010upfb  -1.04960
gfz2011aatr  -0.23380
gfz2011adjs   1.67020
gfz2011cykd   0.64200
gfz2011dbev  -0.02340
gfz2011dbig  -1.32280
gfz2011dbon  -0.42070
gfz2011dcqb   1.51390
gfz2011dpqx   0.13820
gfz2011hfkj  -0.65040
gfz2011rewa   0.36690
gfz2011vhfi   3.84990
gfz2012bpkx  -1.07670
gfz2012fzfa   0.69270
gfz2012hnul  -0.15530
gfz2012nkdf  -0.53270
gfz2012uafg   0.64020
gfz2012wklq   0.53150
gfz2013ccnr   0.97920
gfz2013dofo   0.32150
gfz2013jusj   3.97510
gfz2013svci   0.59560
gfz2013vjjc   1.94490
gfz2013wjmm  -0.55760
gfz2014claq   0.21880
gfz2014enhi   1.19090
gfz2014gmhr   4.53760
gfz2014qngj  -3.32440
gfz2014qqhm  -2.32460
gfz2015chhn   0.87020
gfz2015cyjd   1.70120
gfz2015elgy   0.13040
gfz2015fkgt   3.53970
gfz2015lytv   0.36630
gfz2015qnho   0.29280
gfz2015sfdd   0.14890
gfz2015sfdy   0.04180
gfz2015sfkh   0.73520
gfz2015sfno   2.75830
gfz2015smym   2.37350
gfz2015snwh  -1.32460
gfz2015soxc  -0.90220
gfz2015svwm   0.48870
