# Nsamples: 50  MAD:  1.049  mean:  0.711  variance:  2.101
gfz2010czps   0.42050
gfz2010eaoy   0.70380
gfz2010eapn  -0.42030
gfz2010eaqx  -2.99330
gfz2010eaqy   0.08380
gfz2010earq   0.45380
gfz2010earu  -0.00000
gfz2010easo   1.96590
gfz2010eavs   0.67000
gfz2010eaxa   0.08160
gfz2010ecua  -0.66120
gfz2010eevu  -0.19490
gfz2010efsq   3.03000
gfz2010eisx   4.46390
gfz2010eltf   0.00000
gfz2010elyc   1.62570
gfz2010excp  -0.54810
gfz2010exdd  -0.04560
gfz2010ffhq   2.89240
gfz2010fync   1.59470
gfz2010hxgv   2.78590
gfz2010moyw   1.20660
gfz2010nqwo   1.33170
gfz2010pewa   1.70430
gfz2010rqwj  -0.39600
gfz2010upfb   0.04360
gfz2011adjs   1.81880
gfz2011cykd   0.36960
gfz2011dbev   2.73830
gfz2011ecaj  -1.26030
gfz2012cqnl   1.02340
gfz2012cxdn   1.17020
gfz2012hnul   1.20370
gfz2012keor   1.89350
gfz2012wklq   1.15140
gfz2013jusj  -3.08290
gfz2013vjjc   0.92300
gfz2013ylbx   1.25750
gfz2014jcjt   4.10700
gfz2014qngj  -1.79320
gfz2015byjd   1.80610
gfz2015chhn   0.06400
gfz2015fkgt   0.08740
gfz2015lytv   0.18730
gfz2015sfdd   0.50180
gfz2015sfdy   0.00400
gfz2015sfhz  -0.21140
gfz2015sfno   1.13210
gfz2015snwh   0.19280
gfz2015svwm   0.45870
