# Nsamples: 80  MAD:  0.676  mean:  0.050  variance:  1.398
gfz2010bfzs   0.17020
gfz2010bxxs   0.47660
gfz2010czps   0.18130
gfz2010eaoy  -2.28580
gfz2010eapk   0.49910
gfz2010eapn   0.27330
gfz2010eaqe  -0.31450
gfz2010eaqx  -0.31790
gfz2010eaqy  -1.09740
gfz2010earu   0.45720
gfz2010easo   0.59410
gfz2010easu   0.04120
gfz2010eati   0.10610
gfz2010eato   0.33340
gfz2010eatt  -1.11380
gfz2010eaty   0.25970
gfz2010eavs   1.10260
gfz2010eawb   1.23380
gfz2010eaxa   0.22680
gfz2010eaxn  -0.30500
gfz2010eayd  -0.35180
gfz2010eaze  -4.45020
gfz2010eazu  -0.00000
gfz2010ebjy   0.51820
gfz2010ebkj  -0.72430
gfz2010ebla  -1.41150
gfz2010ebmb  -0.34040
gfz2010ebmi   1.49600
gfz2010ebnn  -0.12720
gfz2010ebvm   0.79880
gfz2010ebvv   0.07340
gfz2010ebzr  -0.05480
gfz2010ecay   0.85410
gfz2010ecbi  -0.06170
gfz2010ecdu   0.56330
gfz2010ecsp  -1.26090
gfz2010ecua   0.19470
gfz2010ecvt   0.16110
gfz2010edde   0.11890
gfz2010edyi   0.64080
gfz2010eeij  -0.14910
gfz2010eerh  -2.15410
gfz2010eevu   0.42580
gfz2010egap  -0.39110
gfz2010ejjg  -0.11800
gfz2010elhv  -0.85890
gfz2010eltf  -1.03550
gfz2010elyc   1.90480
gfz2010eqjg   1.46760
gfz2010erna   0.21220
gfz2010euae  -4.37720
gfz2010eujm   0.22990
gfz2010euvl   0.81640
gfz2010euxe   0.60400
gfz2010evco  -0.27510
gfz2010excp  -0.27080
gfz2010exdd  -0.51470
gfz2010exdl  -0.09610
gfz2010exed  -0.24150
gfz2010exno   0.27510
gfz2010ezck  -0.40070
gfz2010fcax   0.25390
gfz2010fedq  -0.51490
gfz2010ffhq  -0.99160
gfz2010flha  -1.15820
gfz2010fpqy  -0.33010
gfz2010fync   0.53410
gfz2010glxl  -0.56300
gfz2010gslu   0.19490
gfz2010gyqp   1.09920
gfz2010gzxr   1.68560
gfz2010hxgv   3.18960
gfz2010iobp   0.07980
gfz2010iull   0.46420
gfz2010jxbm  -0.64620
gfz2010moyw   1.33930
gfz2010nmpc   1.14770
gfz2010pewa   2.72240
gfz2010tcrl   2.92530
gfz2010upfb   0.33800
