# Nsamples: 97  MAD:  0.464  mean: -0.014  variance:  0.395
gfz2010bowy   0.77150
gfz2010bxxs  -0.17870
gfz2010ebhc  -0.02110
gfz2010grjd   0.39950
gfz2010iull   0.12250
gfz2010lluj  -0.98070
gfz2010mkuu   0.77060
gfz2010nlkh  -0.44540
gfz2010nmpc  -0.46460
gfz2010nwef   0.00530
gfz2010sfee  -0.43780
gfz2010sysw   1.23640
gfz2010usho   0.01550
gfz2010wioh  -0.09150
gfz2011enva   0.05820
gfz2011gkzt  -1.14120
gfz2011hlsa   0.39470
gfz2011lcxq  -0.18650
gfz2011lzwj   0.13240
gfz2011rewa   0.81010
gfz2011toub   0.09440
gfz2011wxfs  -0.35790
gfz2012enno   0.23520
gfz2012jlox   0.26900
gfz2012kkup   0.13690
gfz2012klhx   2.56680
gfz2012kudo  -0.21520
gfz2012ldxg   0.31460
gfz2012ldzj  -0.40860
gfz2012teic  -0.06750
gfz2012ttoa   1.43110
gfz2012vrgb   0.52250
gfz2012wypz   0.10960
gfz2013drxz  -0.26860
gfz2013jkut  -0.13800
gfz2013kdeo  -0.86160
gfz2013ldpc  -0.31500
gfz2013ldqb  -0.31070
gfz2013mwbh   0.10980
gfz2013nkgj   0.52600
gfz2013nwdi  -0.52570
gfz2013pfbx   0.09260
gfz2013svci   0.21800
gfz2013tusd  -0.49620
gfz2013uauo  -1.20860
gfz2014afmx  -0.65830
gfz2014bwue  -0.39190
gfz2014bzxy  -0.20110
gfz2014czqi  -0.33990
gfz2014fgvi  -0.70350
gfz2014fhdw  -0.16430
gfz2014fhla  -0.51410
gfz2014fkmr   0.36260
gfz2014frdz   2.47510
gfz2014frez   0.10160
gfz2014ftka  -0.42680
gfz2014fval   0.15580
gfz2014gkgf  -0.79610
gfz2014gkjl  -0.43690
gfz2014gkjt  -0.30320
gfz2014gkqf  -0.50780
gfz2014glcu   0.08160
gfz2014gltx  -0.45760
gfz2014gmhr   1.55980
gfz2014gmnb  -0.12250
gfz2014gmnw  -0.16770
gfz2014goba   0.13900
gfz2014gull   1.21130
gfz2014hasj   0.25810
gfz2014hqxs   0.43190
gfz2014huaj  -0.62850
gfz2014jjhc  -0.21590
gfz2014jnyv  -0.32700
gfz2014jpep  -0.18820
gfz2014lgqn   0.56660
gfz2014lxnc  -0.02550
gfz2014lyhk  -0.83940
gfz2014macx   0.00000
gfz2014nqfm  -0.35340
gfz2014oinz  -0.58070
gfz2014pvch  -0.21830
gfz2014qlxd  -0.55740
gfz2014qqhm   0.19980
gfz2014ubwn   0.00380
gfz2014vhms  -0.21000
gfz2015berb  -0.07770
gfz2015cyjd   0.67540
gfz2015fjhk   0.18860
gfz2015fsjj   0.18640
gfz2015gckd   0.00240
gfz2015ggjw  -0.29440
gfz2015hpmk  -0.64580
gfz2015lhjy   0.42870
gfz2015mpte   0.27620
gfz2015okmq  -0.56780
gfz2015qvxu  -1.00040
gfz2015taml   0.00000
