# Nsamples: 34  MAD:  0.567  mean: -0.327  variance:  0.386
gfz2013nkgj   0.82170
gfz2013nwdi  -0.58510
gfz2013svci  -0.14350
gfz2013vjjc   0.09460
gfz2013xsdt  -0.35300
gfz2014bwue  -0.43110
gfz2014fgvi  -0.47900
gfz2014fhla   0.59990
gfz2014ftka  -0.91020
gfz2014gkgf  -1.38130
gfz2014gkqf  -1.18110
gfz2014gmge  -0.97730
gfz2014gmhr  -1.36470
gfz2014gmnb  -1.06310
gfz2014goba  -0.47530
gfz2014hocg   0.19550
gfz2014lgqn  -1.74730
gfz2014nqfm  -0.50790
gfz2014oinz  -0.98090
gfz2014qqhm  -0.14800
gfz2014ssvz  -0.32230
gfz2015chhn   0.33320
gfz2015cyjd   0.38580
gfz2015fsjj  -0.43670
gfz2015kxxs   0.50440
gfz2015lhjy   0.39700
gfz2015mpte  -0.00460
gfz2015sfdd  -0.38770
gfz2015sfdy  -0.17920
gfz2015sfno   0.75590
gfz2015smym  -0.31190
gfz2015snwh  -0.06750
gfz2015svwm  -0.19800
gfz2015taml  -0.55860
