# Nsamples: 678  MAD:  0.504  mean:  0.153  variance:  0.772
gfz2010ahqi   0.39100
gfz2010bfzs   1.09760
gfz2010bhhq  -1.28670
gfz2010bifb  -0.81290
gfz2010bjeb   0.80760
gfz2010bkob  -0.21780
gfz2010bowy   0.96180
gfz2010boxo  -0.00000
gfz2010bxxs  -0.37670
gfz2010caft  -0.31530
gfz2010cbkg   0.39960
gfz2010cind  -0.13300
gfz2010civi   0.84690
gfz2010cptb   2.21600
gfz2010cqwl   0.16150
gfz2010czps   0.66230
gfz2010dejx  -0.04880
gfz2010diqn  -0.05790
gfz2010eaoy   0.35240
gfz2010eapk   0.44820
gfz2010eapn  -6.10540
gfz2010eaqe   1.03930
gfz2010eaqx   0.20030
gfz2010eaqy   0.65310
gfz2010earq   0.17650
gfz2010earu  -0.68360
gfz2010easf  -0.41440
gfz2010easo  -0.00910
gfz2010easu  -0.14080
gfz2010eati   0.09920
gfz2010eato  -0.09000
gfz2010eaty   0.12440
gfz2010eaul  -0.31540
gfz2010eavd  -0.32300
gfz2010eavp  -0.88660
gfz2010eavs   0.09620
gfz2010eawb  -0.62330
gfz2010eawu   1.01300
gfz2010eaxa  -0.83020
gfz2010eaxn  -0.56680
gfz2010eaya   1.64600
gfz2010eayx  -0.54100
gfz2010eaze   0.24420
gfz2010eazu   0.12480
gfz2010ebbd   0.36030
gfz2010ebby  -0.46600
gfz2010ebdl  -0.30020
gfz2010ebek  -0.30080
gfz2010ebfa  -0.27340
gfz2010ebfx  -0.42180
gfz2010ebhc   0.27570
gfz2010ebih   0.17100
gfz2010ebin  -0.19660
gfz2010ebiv  -0.64940
gfz2010ebjy   0.09020
gfz2010ebkj  -0.21830
gfz2010ebla   0.00000
gfz2010ebll  -0.30970
gfz2010ebmb   0.31920
gfz2010ebmi  -0.71090
gfz2010ebnn   0.38720
gfz2010ebqz   2.19600
gfz2010ebtk  -0.26860
gfz2010ebvm   0.84540
gfz2010ebvv   0.39970
gfz2010ebwp   0.33690
gfz2010ebxl   0.64150
gfz2010ebzk   0.35980
gfz2010ebzr   0.02350
gfz2010ecam  -0.32430
gfz2010ecay  -0.91720
gfz2010ecbi  -0.94330
gfz2010eccq  -0.51030
gfz2010echc   0.06930
gfz2010echt   0.52800
gfz2010echy   0.42880
gfz2010ecps   0.86460
gfz2010ecua   0.20910
gfz2010ecuv  -0.46550
gfz2010ecvt   0.33330
gfz2010edat  -0.50070
gfz2010eday   1.01660
gfz2010edcp   3.86160
gfz2010edhr  -0.30730
gfz2010edim   0.81330
gfz2010edkp  -0.85520
gfz2010edsn   1.71510
gfz2010edvf   0.08330
gfz2010edyi  -0.69440
gfz2010eegn   0.17560
gfz2010eeij  -0.54410
gfz2010eekq  -0.15340
gfz2010eerh  -0.70280
gfz2010eern   0.23700
gfz2010eevu   0.02430
gfz2010eexz   0.10390
gfz2010efnf  -0.11130
gfz2010efsq  -0.14640
gfz2010egld  -0.27500
gfz2010egmp   1.26540
gfz2010ehnm   0.27070
gfz2010ehvj  -0.44270
gfz2010ehxz   0.81670
gfz2010eisx  -1.24650
gfz2010ejjg   0.60540
gfz2010ekoe  -0.09330
gfz2010ekyc  -0.04760
gfz2010elhv   0.27680
gfz2010elsw   0.14400
gfz2010eltf   1.00210
gfz2010elvp  -0.23490
gfz2010elyc  -0.74650
gfz2010elyo   1.86780
gfz2010emyz  -0.20110
gfz2010epbe  -0.11290
gfz2010epxj   0.14490
gfz2010eqcn   0.14970
gfz2010eqmu   1.97960
gfz2010erdi   0.20180
gfz2010erfy  -0.49960
gfz2010erna   1.28760
gfz2010erom  -0.41470
gfz2010erum   0.03710
gfz2010eruy  -0.48160
gfz2010erwn  -0.19700
gfz2010erxb  -0.50770
gfz2010eryg   0.30990
gfz2010esid  -0.50840
gfz2010eted   0.30530
gfz2010euae  -0.59270
gfz2010euan   0.21050
gfz2010eugj   2.67450
gfz2010eujm  -0.80960
gfz2010euvl  -0.91830
gfz2010euwb   0.40150
gfz2010euxe   0.07090
gfz2010evco   1.46000
gfz2010evgf  -0.83510
gfz2010ewvc   0.40570
gfz2010excp   0.09840
gfz2010exdd  -0.15350
gfz2010exdl  -0.24550
gfz2010exed   0.01960
gfz2010exel  -0.20570
gfz2010exgb  -0.00000
gfz2010exhw  -0.37730
gfz2010exjw  -0.09200
gfz2010exmc  -0.02280
gfz2010exno  -0.49450
gfz2010exqu   0.21450
gfz2010exsg  -0.62860
gfz2010ezax  -0.21960
gfz2010ezck   0.66180
gfz2010ezwz   0.05920
gfz2010falm  -0.31360
gfz2010fcax   0.04300
gfz2010fciw   1.45750
gfz2010fcnn   0.75210
gfz2010fczt  -0.35120
gfz2010fdab   0.01140
gfz2010fedq  -0.39570
gfz2010ffhq   0.18000
gfz2010ffjb   0.90240
gfz2010fihj   0.80310
gfz2010fika  -0.04060
gfz2010fjal   0.11610
gfz2010fjmu   1.71070
gfz2010flha   0.05050
gfz2010flxi   0.51930
gfz2010fneu   0.27910
gfz2010fnrk   1.10860
gfz2010fobc  -0.94860
gfz2010fpqy   0.66870
gfz2010fqtj   1.41860
gfz2010fser  -0.24520
gfz2010ftlm  -0.11430
gfz2010fupn   0.52510
gfz2010fwpv   0.72090
gfz2010fync   0.63530
gfz2010gcrl  -1.44610
gfz2010gdld   0.11630
gfz2010ginm  -0.92850
gfz2010gjia   0.27770
gfz2010glqr  -0.48810
gfz2010glxl  -0.43970
gfz2010grjd   0.00000
gfz2010gslu   0.02540
gfz2010gtzt  -0.14610
gfz2010gyqp   0.64000
gfz2010gzxr   0.30840
gfz2010hbka  -0.08180
gfz2010hcio  -0.26910
gfz2010hjoc  -0.20370
gfz2010hlln   0.63520
gfz2010hlmq   0.25410
gfz2010homc   0.05890
gfz2010hptz   0.21420
gfz2010hrpr  -0.47640
gfz2010hxbs   0.32210
gfz2010hxgv  -0.04090
gfz2010icqq  -0.53040
gfz2010iibf  -0.18180
gfz2010iimu  -0.75410
gfz2010imfv  -0.37100
gfz2010iobp  -0.18700
gfz2010iqep  -2.60130
gfz2010iqnm   0.77520
gfz2010irvf  -0.27690
gfz2010iull   0.66890
gfz2010izzj   1.01170
gfz2010jkxj   0.50690
gfz2010jpyj  -0.65320
gfz2010jssh   0.69500
gfz2010jsuh   0.28880
gfz2010jxbm   0.07080
gfz2010kcoo  -0.35560
gfz2010kdyc   0.67900
gfz2010kihf   2.35610
gfz2010mgss   1.01930
gfz2010miqn   0.84910
gfz2010mkuu   0.06390
gfz2010mlta   1.45880
gfz2010mncc   0.06000
gfz2010moyw  -0.05490
gfz2010mpuy  -1.36550
gfz2010msjj   0.39520
gfz2010muca   0.02190
gfz2010mwdq  -0.23300
gfz2010ncrl  -0.15560
gfz2010nfsj   0.31260
gfz2010nmpc  -0.38470
gfz2010nnny  -0.54760
gfz2010nqwf  -0.05120
gfz2010nqwo   0.02240
gfz2010nrjo  -0.21310
gfz2010nsck   0.60370
gfz2010nsdf  -0.72520
gfz2010nsfx   2.14130
gfz2010ntuo  -0.49530
gfz2010nubk  -0.34330
gfz2010nwef  -0.18300
gfz2010nxum   1.50990
gfz2010ocxq   0.08530
gfz2010odpb   0.25450
gfz2010okdm  -0.13500
gfz2010onma   0.12460
gfz2010osjs  -0.55890
gfz2010srdb  -0.15010
gfz2010svtn   0.02220
gfz2010swcy  -0.43090
gfz2010sxwt   0.52700
gfz2010szim  -0.04510
gfz2010tcbr   0.28790
gfz2010tcrl   2.33810
gfz2010txjs  -0.66010
gfz2010upfb   0.44280
gfz2010usho   0.62830
gfz2010ustq  -0.30150
gfz2010utcg   0.35530
gfz2010utmc  -0.06420
gfz2010uyhb   3.97590
gfz2010vhuj   0.35090
gfz2010wofs   0.73250
gfz2010xden  -0.06840
gfz2010xgzw  -0.38180
gfz2010xjck   0.03860
gfz2010xjsj  -0.06740
gfz2010yjev   2.06440
gfz2011aatr   1.25210
gfz2011adjs  -0.49060
gfz2011adlj   1.50120
gfz2011alip   0.09470
gfz2011aqxf   7.59450
gfz2011ccpw  -0.84010
gfz2011cfae   0.14710
gfz2011cndo   0.53090
gfz2011coxh  -0.21040
gfz2011csju   2.08430
gfz2011cvfg   0.41400
gfz2011cykd  -0.74600
gfz2011cynl  -0.70460
gfz2011cyre   0.20020
gfz2011cyuk  -0.91760
gfz2011dbev   0.10060
gfz2011dbig   0.36250
gfz2011dbon   0.42580
gfz2011dbwt   1.18540
gfz2011dcqb   1.27350
gfz2011dkyi   0.52780
gfz2011dlyx   0.94920
gfz2011dpqx   0.66280
gfz2011kqwo   0.09350
gfz2011ksiu   4.04470
gfz2011kwjx  -0.47530
gfz2011kwkw  -0.07160
gfz2011kwrf  -0.30520
gfz2011kxzp   0.49180
gfz2011lcxq  -0.17390
gfz2011lczg  -0.30570
gfz2011lzwj   0.14070
gfz2011mdie   0.55000
gfz2011mepc  -0.31180
gfz2011mpme   0.11370
gfz2011mprq  -0.18750
gfz2011myia  -0.10700
gfz2011ntkh   0.49130
gfz2011nudm   0.09920
gfz2011ogqk   0.76480
gfz2011ohcy   0.67580
gfz2011olkk   0.69280
gfz2011orgn  -0.58370
gfz2011ornx  -0.21440
gfz2011owvz   0.20230
gfz2011pdpt  -0.35880
gfz2011phms   0.13860
gfz2011pntf   0.27610
gfz2011rabm   0.75040
gfz2011rewa   0.77480
gfz2011rgwp   0.76780
gfz2011rqui  -0.40780
gfz2011rsrh  -0.51870
gfz2011sagt   0.14130
gfz2011tbas  -0.76860
gfz2011tkfp   1.32890
gfz2011toub   0.66760
gfz2011uepx   0.19200
gfz2011ujze  -0.09940
gfz2011uphh  -0.32490
gfz2011urxy   0.14350
gfz2011urzu   1.69190
gfz2011uzqv   1.58810
gfz2011vhfi   0.80560
gfz2011vxns  -0.05340
gfz2011wfja  -0.09210
gfz2011wjul  -0.54360
gfz2011wwjs  -0.18000
gfz2011wxfs   1.22950
gfz2011wxoj   0.34880
gfz2011wxtk  -0.92780
gfz2011xyxj   0.35950
gfz2011yfdx   2.31500
gfz2012ajtq   0.51210
gfz2012aqgp   0.02130
gfz2012bfah  -0.14480
gfz2012bpkx   0.03060
gfz2012bpwl  -0.24850
gfz2012bszs  -0.16260
gfz2012cgvr   0.93120
gfz2012cqnl   0.18480
gfz2012cxdn  -0.03510
gfz2012czlw   1.52060
gfz2012dyyh   0.29330
gfz2012ekda  -0.37170
gfz2012enno   1.08700
gfz2012ewgo   0.28150
gfz2012fbfo  -1.07800
gfz2012fivh  -0.60030
gfz2012fwfo  -0.09130
gfz2012fzfa   0.16210
gfz2012gnvh  -0.23260
gfz2012gwqb  -0.04040
gfz2012hnul   0.05670
gfz2012ilvn   0.11360
gfz2012jlox  -0.35760
gfz2012jshk   0.16950
gfz2012jupx   0.26240
gfz2012kbjb   0.23180
gfz2012keor  -0.76000
gfz2012kkup   1.06590
gfz2012klhx   1.83570
gfz2012kuct  -0.07520
gfz2012kudo   0.56810
gfz2012kwgo   0.40070
gfz2012lczo  -0.15830
gfz2012ldxg   0.55910
gfz2012lltr   1.24890
gfz2012llug  -1.07280
gfz2012lxkv  -0.12570
gfz2012minr   0.14000
gfz2012mwij  -0.08780
gfz2012naqz  -0.26970
gfz2012nedn   1.90530
gfz2012nojx  -0.93340
gfz2012nolo  -1.06850
gfz2012nsbz   0.27110
gfz2012oedb   0.26770
gfz2012pciw   0.54200
gfz2012peex  -0.78840
gfz2012pgcl   0.08810
gfz2012pqmu   1.70540
gfz2012repv   0.22780
gfz2012ronz   0.00000
gfz2012rwov  -0.03370
gfz2012spbj  -0.37290
gfz2012sphd   0.31240
gfz2012syvl  -0.28960
gfz2012teic   1.23090
gfz2012tmop   0.24110
gfz2012ttoa  -0.16440
gfz2012tvmv  -0.02300
gfz2012tyig   0.05560
gfz2012uafg   0.25480
gfz2012uaqj   0.71610
gfz2012uciv   0.01460
gfz2012uhup  -0.14990
gfz2012ulpd   0.18730
gfz2012uvqf   1.34600
gfz2012vrgb   0.81390
gfz2012wklq  -0.27630
gfz2012wtkr   0.06250
gfz2012wxer   0.00000
gfz2012wxlg   0.07300
gfz2012wxnu  -0.30010
gfz2012wypz   1.12930
gfz2012xeul   6.01590
gfz2012zemz  -0.97210
gfz2012zitl   0.05010
gfz2013apmm   0.35650
gfz2013bokp   0.31080
gfz2013btjm   0.01900
gfz2013ccnr   0.05810
gfz2013cwpn  -0.45660
gfz2013dkly  -0.55120
gfz2013dofo  -0.07500
gfz2013dojq   0.58920
gfz2013drxz   0.64680
gfz2013dspt  -0.06620
gfz2013dvyh   0.36050
gfz2013fiud  -0.45540
gfz2013fkcl  -0.38420
gfz2013gdnq   0.05650
gfz2013gmor  -0.34730
gfz2013gngz  -0.10200
gfz2013gvex  -0.13410
gfz2013gwrd  -0.23220
gfz2013hlbe  -0.87870
gfz2013ifpq   0.02170
gfz2013ikgo   0.05930
gfz2013ilug   0.35960
gfz2013jesk   0.15910
gfz2013jgip  -0.35080
gfz2013jkut   0.76550
gfz2013jusj  -0.54900
gfz2013jwvc   1.36810
gfz2013kdeo   0.21190
gfz2013kheb  -0.04200
gfz2013kvtk  -0.60560
gfz2013ldqb   0.26680
gfz2013lixa   1.46930
gfz2013lyko   0.49310
gfz2013mqmv  -0.15280
gfz2013mwbh  -0.28630
gfz2013ncjp  -0.21550
gfz2013ndin   0.73730
gfz2013neuc   0.11510
gfz2013nixj  -0.14220
gfz2013nkgj  -0.20600
gfz2013nwdi   1.64780
gfz2013pfbx   0.74450
gfz2013pxsj  -0.14250
gfz2013qali   0.38840
gfz2013qmer  -0.18710
gfz2013qzdq  -0.89780
gfz2013scai   2.97520
gfz2013shzy   0.15060
gfz2013svci   0.83690
gfz2013tcxc  -0.67160
gfz2013tcxq  -0.64310
gfz2013tpeb   1.24860
gfz2013tusd  -0.26370
gfz2013txtb  -0.64450
gfz2013ufxm   0.96720
gfz2013umya  -0.62910
gfz2013vexx   0.45450
gfz2013vfyw  -0.39180
gfz2013vfzp   0.41780
gfz2013vgev   0.27440
gfz2013vhzu  -0.03710
gfz2013vjjc  -0.15130
gfz2013wjmm   0.10140
gfz2013xsdt   0.45690
gfz2013xxwv  -0.57560
gfz2013xxxq  -0.59260
gfz2013xyzb  -0.38430
gfz2013yctg   0.36060
gfz2013yqkv   0.71550
gfz2013zmoc   0.00000
gfz2014afmx   1.12200
gfz2014algk   0.00870
gfz2014ande  -0.16500
gfz2014bagd  -0.94440
gfz2014bwue   1.24930
gfz2014bzxy  -0.37320
gfz2014chdv  -0.06180
gfz2014cvkm  -0.58790
gfz2014czol   0.63890
gfz2014czua  -0.18270
gfz2014dhxt  -0.04340
gfz2014disp  -1.27920
gfz2014eght   2.61050
gfz2014ehsf  -0.07710
gfz2014ekcr   0.91020
gfz2014enhi   0.38450
gfz2014femz  -0.00070
gfz2014fgvi   0.39610
gfz2014fgvr   0.57240
gfz2014fhla   1.34530
gfz2014fkmr  -2.07100
gfz2014frdz   0.10700
gfz2014frel   0.37650
gfz2014frez   0.33330
gfz2014ftka  -0.12060
gfz2014fval   0.26030
gfz2014gbcz  -0.35300
gfz2014ghpe   0.08910
gfz2014gkgf  -0.41250
gfz2014gkjl   0.50270
gfz2014gkjt  -0.14270
gfz2014gkob   0.36640
gfz2014gkqf  -0.37610
gfz2014gkqu  -1.66200
gfz2014gktq  -0.61860
gfz2014glcu   0.35730
gfz2014gltx   0.04580
gfz2014gmge   0.18600
gfz2014gmhr  -0.36130
gfz2014gmip  -0.65580
gfz2014gmnb  -0.41030
gfz2014gmnw  -0.45270
gfz2014gmuw  -0.80430
gfz2014goba  -0.60210
gfz2014gpya   0.43520
gfz2014gqer  -0.31420
gfz2014gull  -0.02780
gfz2014hasj  -0.32880
gfz2014hbqb   0.24120
gfz2014hcmj  -0.65980
gfz2014hfhl   1.69580
gfz2014hgqo   0.14090
gfz2014hocg   1.45170
gfz2014hqxs   0.12000
gfz2014huaj   0.29400
gfz2014hzfw  -0.96330
gfz2014icqt  -0.60850
gfz2014itpj  -1.40810
gfz2014jcjt   0.28630
gfz2014jjhc   0.34480
gfz2014jjln  -0.79780
gfz2014jpep   0.10390
gfz2014jvow   2.65110
gfz2014jwmh   0.30050
gfz2014kbuk   0.09380
gfz2014khlk   1.76950
gfz2014kmmt  -0.81550
gfz2014kndc  -1.02500
gfz2014knks  -0.23720
gfz2014kyan   0.17260
gfz2014lefs  -0.02060
gfz2014lgqn   0.68070
gfz2014lkyf   0.16990
gfz2014lwom   4.28070
gfz2014lxnc   0.35770
gfz2014lyhk  -0.06770
gfz2014macx   0.11680
gfz2014madw  -0.15350
gfz2014mtum   0.00480
gfz2014nnxd  -0.68090
gfz2014nowp  -0.15660
gfz2014npeo   0.57320
gfz2014nphm  -0.79160
gfz2014nqfm   0.14420
gfz2014nrie   0.06500
gfz2014nyko  -0.29360
gfz2014nylm  -0.23230
gfz2014oinz   0.13700
gfz2014oxcc   0.35560
gfz2014oyly  -0.00940
gfz2014pkll  -1.43280
gfz2014ppyi   0.09450
gfz2014ppzf   0.18960
gfz2014pqqp   3.96270
gfz2014pvch   0.21570
gfz2014qlxd   0.57970
gfz2014qngj  -0.15240
gfz2014qqhm   0.22560
gfz2014raau   0.43120
gfz2014rdsn   0.19870
gfz2014riel  -0.26840
gfz2014sptq  -0.44900
gfz2014ssvz   0.08070
gfz2014szzf  -0.16880
gfz2014tovs   0.14370
gfz2014tqdo   0.05330
gfz2014tqsf   0.16140
gfz2014ubwn   0.78180
gfz2014uohh  -0.30320
gfz2014uvji  -1.10830
gfz2014uvrk  -1.15070
gfz2014vcev  -2.06590
gfz2014vhld   0.59440
gfz2014watn  -0.00410
gfz2014yhhm  -0.56220
gfz2014yula  -0.12460
gfz2015aruz  -0.27420
gfz2015berb   0.59160
gfz2015bkbj  -0.16290
gfz2015byjd  -0.41400
gfz2015chhn   0.38850
gfz2015cxhx  -0.64470
gfz2015cyjd   0.87350
gfz2015dskr   0.27760
gfz2015dvbn   0.41300
gfz2015egxq   0.24330
gfz2015eiky   0.12410
gfz2015etai   0.01130
gfz2015fjhk   0.07840
gfz2015fkgt   0.22680
gfz2015fsjj   0.71410
gfz2015gckd  -0.12180
gfz2015gzja   0.67890
gfz2015jwgl   0.11410
gfz2015kakw   0.36080
gfz2015kfsu  -0.13830
gfz2015kkth  -0.14870
gfz2015kquq  -0.04860
gfz2015ksni   0.20890
gfz2015lcuo   0.23780
gfz2015lhjy   0.68050
gfz2015lytv  -1.44290
gfz2015mbgr   0.71910
gfz2015mddr  -0.61870
gfz2015micz   0.09490
gfz2015mpte   0.27120
gfz2015nerz  -0.02370
gfz2015nqgf   0.67590
gfz2015nwug  -0.59960
gfz2015ocdz  -0.77270
gfz2015okmq   0.09350
gfz2015orkl   0.24230
gfz2015oyfl  -0.09620
gfz2015poni  -0.08840
gfz2015qisx   2.29690
gfz2015qnho  -0.32420
gfz2015qpvd  -0.20480
gfz2015rkrg   0.14890
gfz2015rkzg  -0.12350
gfz2015sfdd   0.43790
gfz2015sfdy   0.01810
gfz2015sfeo   0.21000
gfz2015sfhz  -0.86200
gfz2015sfiq  -0.95920
gfz2015sfnb  -0.21590
gfz2015sfno  -0.31920
gfz2015sfnv  -0.08440
gfz2015sfoc  -0.15540
gfz2015sfqr   1.39720
gfz2015sfwf   0.23800
gfz2015sgad  -0.40780
gfz2015sgyd   0.83410
gfz2015shhg   0.37040
gfz2015shjn   0.49080
gfz2015shsz   2.06600
gfz2015sjbx   0.19910
gfz2015sjgk   0.60300
gfz2015sjoj   0.09470
gfz2015sjvu  -0.27340
gfz2015skxu  -0.04490
gfz2015smym  -0.69960
gfz2015snsf   0.33380
gfz2015snwh  -0.49800
gfz2015snyd   0.28380
gfz2015soat   0.23910
gfz2015soxc   0.26330
gfz2015stfy   0.16660
gfz2015svwm   0.22150
gfz2015szcb  -0.46860
gfz2015taml   0.39350
gfz2015tdcu   0.88730
