# Nsamples: 1598  MAD:  0.433  mean: -0.006  variance:  0.443
gfz2010czps  -0.29240
gfz2010ddzo  -0.18530
gfz2010dejx   0.06560
gfz2010dfru  -0.02970
gfz2010diqn   0.63850
gfz2010dlgc   0.20080
gfz2010dumm  -0.30640
gfz2010eaoy  -0.17960
gfz2010eapk  -0.63430
gfz2010eapn   1.04700
gfz2010eaqe   1.10940
gfz2010eaqx   0.23310
gfz2010eaqy   1.31160
gfz2010earq  -0.18530
gfz2010earu  -1.00450
gfz2010easf  -0.66170
gfz2010eask  -0.19760
gfz2010easo   0.17070
gfz2010easu  -0.00000
gfz2010eati   0.30970
gfz2010eato   0.44460
gfz2010eatt  -1.03270
gfz2010eaty  -0.13910
gfz2010eaul  -0.35090
gfz2010eavd   1.55060
gfz2010eavp   0.20610
gfz2010eavs  -0.11400
gfz2010eawb   0.89250
gfz2010eawu  -4.62280
gfz2010eaxa   0.44920
gfz2010eaxn  -1.37810
gfz2010eayd   0.72360
gfz2010eayp   0.52010
gfz2010eayx  -0.61460
gfz2010eaze   0.46200
gfz2010eazu  -1.05020
gfz2010ebbd   0.36340
gfz2010ebby  -0.58290
gfz2010ebdl   0.44420
gfz2010ebeh  -0.62320
gfz2010ebek   0.54900
gfz2010ebfa   1.60850
gfz2010ebfx   0.16140
gfz2010ebgj   0.09160
gfz2010ebhc  -0.40240
gfz2010ebih   0.10210
gfz2010ebin  -1.46030
gfz2010ebiv   0.61400
gfz2010ebjy  -0.52170
gfz2010ebkj   0.18350
gfz2010ebla   0.06270
gfz2010ebll   0.27140
gfz2010ebmb   0.28510
gfz2010ebnn  -0.05720
gfz2010ebpa  -0.79210
gfz2010ebqt  -0.62700
gfz2010ebqz  -0.88290
gfz2010ebrm   0.22130
gfz2010ebsv  -0.69390
gfz2010ebtk   0.30980
gfz2010ebvm   1.04840
gfz2010ebvv  -0.25590
gfz2010ebwp   0.26760
gfz2010ebxl   0.49330
gfz2010ebze  -0.80000
gfz2010ebzk  -0.23380
gfz2010ebzr  -0.24250
gfz2010ecam  -0.19240
gfz2010ecay  -0.46830
gfz2010ecbi   0.19590
gfz2010eccq  -0.53090
gfz2010ecdu   3.18660
gfz2010eced   0.04690
gfz2010ecft   0.56760
gfz2010ecfx   0.03660
gfz2010ecfy   0.11590
gfz2010ecgh   0.59260
gfz2010echc   0.04000
gfz2010echt  -0.05490
gfz2010echy   0.35530
gfz2010ecka  -0.00000
gfz2010ecls   0.12560
gfz2010ecml   0.62880
gfz2010ecnm  -0.78320
gfz2010ecns  -0.18980
gfz2010ecps   0.18810
gfz2010ecro  -0.88820
gfz2010ecsp  -3.38130
gfz2010ectq   1.01360
gfz2010ecua  -0.25290
gfz2010ecuv  -0.15490
gfz2010ecvt   0.36720
gfz2010ecyr   0.21850
gfz2010edad  -0.58600
gfz2010edat  -0.27340
gfz2010eday  -0.64460
gfz2010edbz   0.00000
gfz2010edcp  -0.04120
gfz2010edde   0.52610
gfz2010edhr  -0.00750
gfz2010edim   0.40990
gfz2010edji   1.44700
gfz2010edkp   0.27000
gfz2010edpb   0.16470
gfz2010edqh   0.53150
gfz2010edsk  -0.44640
gfz2010edsn   0.85250
gfz2010edun  -0.50090
gfz2010edvf  -0.11190
gfz2010edyi  -2.11570
gfz2010edzb  -0.11980
gfz2010eedu  -0.53980
gfz2010eedz   0.38820
gfz2010eefh   0.00500
gfz2010eefo  -0.36720
gfz2010eegn  -0.46980
gfz2010eeia  -0.18220
gfz2010eeij  -0.04900
gfz2010eekg  -0.75370
gfz2010eekq  -0.50840
gfz2010eell  -0.25640
gfz2010eeng  -0.58730
gfz2010eeqy   2.61770
gfz2010eerh   0.37500
gfz2010eern   0.07960
gfz2010eesf  -0.14710
gfz2010eevu  -0.00000
gfz2010eexz   0.06380
gfz2010eeyh  -0.18560
gfz2010efak   0.62040
gfz2010efbh  -0.52980
gfz2010efkc   0.07390
gfz2010efls  -0.13090
gfz2010efnf  -0.54510
gfz2010efsq  -0.50490
gfz2010efwo  -0.98520
gfz2010efxf  -0.95540
gfz2010egap  -0.00970
gfz2010eghq   0.19160
gfz2010egld   0.26410
gfz2010egln  -0.18610
gfz2010egmp   0.34010
gfz2010egqh   0.51030
gfz2010egsw   0.43080
gfz2010egsy  -0.30170
gfz2010egyy   0.83780
gfz2010ehaj   0.02190
gfz2010eher   0.94080
gfz2010ehft  -0.13360
gfz2010ehnm  -0.07060
gfz2010ehrq  -1.39610
gfz2010ehsy  -0.16550
gfz2010ehvj   0.28320
gfz2010ehxz   1.09390
gfz2010eimf   0.25800
gfz2010eioi  -0.14860
gfz2010eiqi  -1.37480
gfz2010eisx  -0.75380
gfz2010eixj  -0.65780
gfz2010ejae   0.75190
gfz2010ejco  -0.50480
gfz2010ejjg   0.23530
gfz2010ejju  -0.22100
gfz2010ejka   1.36180
gfz2010ejma  -1.34570
gfz2010ekaw  -0.36620
gfz2010ekrv  -0.14070
gfz2010ekyc  -0.36600
gfz2010elhv  -0.24840
gfz2010elin  -0.68470
gfz2010eljf  -1.01610
gfz2010elpu  -0.56980
gfz2010eltf  -0.10230
gfz2010elvp   1.79670
gfz2010elxi  -0.97800
gfz2010elyc  -1.40810
gfz2010elyo   0.16710
gfz2010elzf  -0.30790
gfz2010elzl  -0.48640
gfz2010emoz  -0.14930
gfz2010emyz  -0.26440
gfz2010encm  -0.65800
gfz2010engw  -0.08730
gfz2010enpa   0.94170
gfz2010ensu   0.84490
gfz2010enzl  -0.17080
gfz2010eoao  -6.57330
gfz2010eohh  -1.39160
gfz2010eomb  -0.26790
gfz2010epbe  -0.10600
gfz2010epxj  -0.14650
gfz2010epzk   0.03950
gfz2010eqcn  -0.40900
gfz2010eqjg  -0.22170
gfz2010eqmu  -3.74270
gfz2010eqse   0.20320
gfz2010eqwl  -1.86250
gfz2010erda  -0.08080
gfz2010erdi  -0.12010
gfz2010erfy  -0.97580
gfz2010erig  -0.21870
gfz2010erkn   0.01280
gfz2010erna  -0.23050
gfz2010erom   0.18050
gfz2010erum  -0.33730
gfz2010eruy  -0.35350
gfz2010erwn  -0.05490
gfz2010erxb   0.44890
gfz2010eryg   0.64550
gfz2010eted  -0.25120
gfz2010euae   0.56550
gfz2010euan   1.10320
gfz2010eugj  -0.26740
gfz2010euii   0.34560
gfz2010eutw   0.43150
gfz2010euvl   0.04860
gfz2010euwb  -0.77510
gfz2010euxe   0.03040
gfz2010evco   0.03640
gfz2010evgf   0.22520
gfz2010ewbc   0.42180
gfz2010ewpq   0.86370
gfz2010ewvc   0.13550
gfz2010ewyu   0.25720
gfz2010excp   0.18630
gfz2010exdd  -0.19510
gfz2010exdl   0.35300
gfz2010exed   0.67250
gfz2010exel   0.41180
gfz2010exfb   0.75610
gfz2010exgb   0.16540
gfz2010rywq  -0.93540
gfz2010rzrr  -0.13720
gfz2010rzsd  -2.20040
gfz2010sfee  -0.10700
gfz2010sgzk  -0.33220
gfz2010skqo  -0.40200
gfz2010skve  -0.61970
gfz2010srdb  -0.32520
gfz2010suww   2.35550
gfz2010svtn  -0.19880
gfz2010svve   0.39940
gfz2010swcy  -0.37340
gfz2010sxfq  -0.66730
gfz2010sxwt  -0.76720
gfz2010sysw   0.90820
gfz2010szde  -0.09410
gfz2010szim   0.09400
gfz2010tcbr  -0.09050
gfz2010tcrl  -0.62910
gfz2010tlfm   0.76070
gfz2010truw   0.47860
gfz2010txjs   0.18540
gfz2010tzzk   0.05910
gfz2010uept   0.53000
gfz2010upfb   0.44520
gfz2010upiw   0.16630
gfz2010urlq   0.90090
gfz2010usho  -0.02350
gfz2010ustq   0.02990
gfz2010utcg   0.29460
gfz2010utmc  -0.32940
gfz2010utvp   0.15660
gfz2010uyhb  -0.22690
gfz2010uzon   0.29690
gfz2010veri  -0.59040
gfz2010vhuj  -0.41350
gfz2010vppc   0.44740
gfz2010vtdg  -0.44210
gfz2010vyxd   0.07930
gfz2010vzpr   1.06800
gfz2010wioh  -0.31600
gfz2010wnty  -0.72980
gfz2010wntz   0.96520
gfz2010wofs   0.03890
gfz2010wrxx  -0.86660
gfz2010wxqa  -0.45120
gfz2010xbcr   0.10790
gfz2010xbdv  -0.66440
gfz2010xbgs  -0.22010
gfz2010xcdh   0.16560
gfz2010xche  -0.33390
gfz2010xden  -0.01550
gfz2010xgfc   0.29280
gfz2010xgzw  -0.02490
gfz2010xjck   0.04000
gfz2010xjsj   0.45140
gfz2010xmpr   1.52220
gfz2010xnxk   0.01910
gfz2010xxzn   0.12110
gfz2010yfsv   0.98160
gfz2010yjev  -0.99350
gfz2010ymfy  -0.40630
gfz2010ymur   1.27240
gfz2010yosr  -0.10730
gfz2010yqqb  -0.59540
gfz2010yqqv  -0.30160
gfz2010yqwx   0.45690
gfz2011aatr   0.03720
gfz2011adjs  -1.09030
gfz2011aeay   0.29220
gfz2011aldv  -1.09670
gfz2011alip  -0.09690
gfz2011alsa   0.14120
gfz2011alwf   5.27070
gfz2011anur   0.51760
gfz2011aosc   0.34430
gfz2011aqxf  -0.02190
gfz2011blsi   0.36910
gfz2011bnzn   0.37760
gfz2011bpkd   0.55630
gfz2011ccpw  -0.08260
gfz2011cfae   0.63430
gfz2011cndo   0.38790
gfz2011coxh  -0.10310
gfz2011csju  -0.27990
gfz2011cvcg   0.69700
gfz2011cvfg  -0.47500
gfz2011cwgn   0.61470
gfz2011cykd  -1.20180
gfz2011cylz  -0.25370
gfz2011cynl  -0.00000
gfz2011cyre  -0.32230
gfz2011cyuk  -1.19170
gfz2011czwj  -0.42310
gfz2011dbev  -0.06070
gfz2011dbig  -0.19680
gfz2011dbon  -0.35360
gfz2011dbwt   0.82010
gfz2011dcqb   0.65940
gfz2011dddh   0.25990
gfz2011deaf  -0.68450
gfz2011dkyi   0.21000
gfz2011dllz  -2.58000
gfz2011dlyx   0.37530
gfz2011dmat  -0.12440
gfz2011dndz   0.52400
gfz2011dpqx   0.06170
gfz2011dtpy   0.63200
gfz2011duyr   0.25950
gfz2011eayc   0.40340
gfz2011eazf  -0.51240
gfz2011ecaj   1.44650
gfz2011ecsc  -0.22630
gfz2011edmm   0.94610
gfz2011eebc  -0.21900
gfz2011ehzq   0.30340
gfz2011ejlp   0.12390
gfz2011eltw  -0.04350
gfz2011enva  -0.32810
gfz2011eocc   0.58720
gfz2011etje   0.49930
gfz2011fdzv   0.69100
gfz2011fgvr  -0.56710
gfz2011fhag  -0.46720
gfz2011fhbm   0.31070
gfz2011fhur  -0.23230
gfz2011fkbn  -0.39030
gfz2011flgj  -0.47220
gfz2011fnsw  -0.07290
gfz2011gbmx   0.15020
gfz2011gcwb   0.00000
gfz2011gdgh  -0.35670
gfz2011ggvf  -0.24970
gfz2011ghky  -0.51560
gfz2011gkey   0.65430
gfz2011gkzt  -0.37350
gfz2011gzbr  -0.35170
gfz2011haid  -0.89240
gfz2011hbex  -0.27070
gfz2011hebt  -0.63080
gfz2011hfkj   0.06460
gfz2011hlqw  -0.43510
gfz2011hlsa  -0.52340
gfz2011hlth  -0.65830
gfz2011hpgx  -0.08950
gfz2011hpqp  -0.26300
gfz2011hrhe   0.20270
gfz2011hryk   0.04170
gfz2011hsfj   3.71690
gfz2011hvbu  -0.50920
gfz2011icxe   0.14980
gfz2011ieie   0.42680
gfz2011knoo   0.33650
gfz2011kqwo  -1.50770
gfz2011kqyg   0.29520
gfz2011kwid  -0.47930
gfz2011kwjx  -0.46310
gfz2011kwkw  -0.79910
gfz2011kwld   2.44290
gfz2011kwnu  -0.38550
gfz2011kwqc   1.85210
gfz2011kxzp   0.36480
gfz2011lcxq   0.12450
gfz2011lczg   0.37660
gfz2011lgsg  -0.33640
gfz2011lhls   0.09470
gfz2011lvjr  -0.78710
gfz2011lzwj   0.22070
gfz2011mdie   0.33760
gfz2011mjom   0.07850
gfz2011mllx   0.40190
gfz2011mpme  -0.64530
gfz2011mprq  -0.44070
gfz2011myia  -0.15870
gfz2011nauw  -0.19520
gfz2011necz  -0.03800
gfz2011nkaz   0.02700
gfz2011nmnq   0.50310
gfz2011noud  -0.10710
gfz2011npgs  -0.02250
gfz2011nqpd   0.70480
gfz2011nrwc  -0.16760
gfz2011nsex  -0.65710
gfz2011ntkh   0.51750
gfz2011ntrv  -0.64130
gfz2011nudm   0.02330
gfz2011ogqk  -1.09970
gfz2011ohcy   0.64060
gfz2011oiqe   0.09000
gfz2011oiwk   0.43920
gfz2011olkk   0.92720
gfz2011oolr  -0.30650
gfz2011orgn   0.24740
gfz2011ornx   0.52710
gfz2011owvz   0.97340
gfz2011pccd  -0.01370
gfz2011pdpt   0.52300
gfz2011pdst  -0.19700
gfz2011phms  -0.39990
gfz2011pntf  -0.33820
gfz2011ptus  -0.49800
gfz2011qigx   6.49870
gfz2011qvae   0.27610
gfz2011qyms  -0.03160
gfz2011rabm  -0.09950
gfz2011rewa  -0.51230
gfz2011rgwp  -0.20860
gfz2011rqui  -0.24220
gfz2011rsrh  -0.35040
gfz2011rznl   1.17390
gfz2011sagt  -0.28970
gfz2011shqm  -0.05810
gfz2011taps  -0.61550
gfz2011tbas   0.33270
gfz2011tcij   0.56140
gfz2011tivu   1.01420
gfz2011tjrf  -0.28540
gfz2011tjue  -0.26930
gfz2011tkfp   0.41190
gfz2011tkog  -0.80690
gfz2011tnag  -0.15370
gfz2011toub   0.64990
gfz2011tpbl  -0.11410
gfz2011tpfr  -0.43190
gfz2011tsfd  -0.36800
gfz2011tsnp   0.00000
gfz2011tuea   0.70950
gfz2011twov  -0.24780
gfz2011udsq   1.75300
gfz2011uepx   0.15190
gfz2011ugzz  -0.50450
gfz2011ujze   0.01300
gfz2011uphh   0.20640
gfz2011urxy  -0.20060
gfz2011urzu  -0.18950
gfz2011uzqv   0.82600
gfz2011vclt   0.39420
gfz2011vhfi   0.16790
gfz2011vnza  -0.00630
gfz2011vxns  -0.13090
gfz2011wcic   0.10060
gfz2011wfja   0.05450
gfz2011wijj   0.10630
gfz2011wjkf  -0.26560
gfz2011wjul  -0.31940
gfz2011wtmq  -0.03930
gfz2011wwjs   0.16130
gfz2011wxfs   0.12670
gfz2011wxtk  -0.22930
gfz2011wype   0.43440
gfz2011xaan  -0.78630
gfz2011xcpv   0.28300
gfz2011xesx   0.10200
gfz2011xqru  -1.87570
gfz2011xyxj  -0.00000
gfz2011yfdx   0.22020
gfz2011yfys  -0.14720
gfz2011yhwz   0.15190
gfz2011ytnu  -0.27390
gfz2011yybo  -0.13840
gfz2011yzwq  -1.14800
gfz2011zjap  -0.52810
gfz2011zklv  -0.60550
gfz2011zlrd  -0.40990
gfz2011zqhh  -0.07570
gfz2012ajtq  -0.17560
gfz2012aqtq  -0.46630
gfz2012attr  -0.62380
gfz2012bfah  -0.17320
gfz2012bfyn   0.90840
gfz2012bngd  -0.14790
gfz2012bpkx   0.07770
gfz2012bpnl   0.22910
gfz2012bpwl   0.16430
gfz2012bqeb  -0.45900
gfz2012bszs  -0.23680
gfz2012byad   0.25880
gfz2012cevz  -0.83530
gfz2012cgvr   1.04410
gfz2012cmfy  -0.39400
gfz2012cnod   0.65150
gfz2012covm   0.07460
gfz2012cqnl  -0.70410
gfz2012cxdn   0.40230
gfz2012czlw   1.20180
gfz2012deri  -0.11160
gfz2012dfhq  -0.41860
gfz2012dimn   1.24450
gfz2012dinb  -0.05990
gfz2012djwi  -0.76630
gfz2012dyyh   0.03840
gfz2012ekda  -0.11070
gfz2012ekzf  -0.27750
gfz2012elce   0.36210
gfz2012emjg   0.47900
gfz2012enno   0.07790
gfz2012eskt   1.21060
gfz2012ewgo   0.08050
gfz2012fbfo  -0.50170
gfz2012fhnh  -0.49920
gfz2012fivh   0.30980
gfz2012foeo   0.44800
gfz2012fwfo   0.23110
gfz2012fwob  -0.98870
gfz2012fwtr  -0.80530
gfz2012fzfa  -0.14080
gfz2012fzsq   0.02030
gfz2012gill   0.15640
gfz2012gkvr  -0.41560
gfz2012glss   1.52700
gfz2012gocc  -1.37280
gfz2012gomm   1.81640
gfz2012gukw  -1.32750
gfz2012gwqb  -0.32780
gfz2012hdbm   0.18590
gfz2012hnul  -0.29140
gfz2012hnuw  -0.13050
gfz2012hogg  -0.37220
gfz2012hyaa  -0.39640
gfz2012icmv   4.07470
gfz2012ihdl   0.14390
gfz2012iivw  -0.27190
gfz2012ilvn  -0.27290
gfz2012imay   0.12300
gfz2012jgvj  -0.02040
gfz2012jlox  -0.43940
gfz2012jqvn   0.05730
gfz2012jshk   0.87910
gfz2012jupx  -0.20570
gfz2012kbjb   1.07780
gfz2012kbzj   0.09340
gfz2012keor  -0.46800
gfz2012kkup  -0.26780
gfz2012klba  -0.14370
gfz2012klhx  -0.66250
gfz2012kuct   0.43230
gfz2012kudo  -0.05100
gfz2012kvzv  -0.23410
gfz2012kwgo  -0.24280
gfz2012lczo  -0.63430
gfz2012ldgs   0.07400
gfz2012ldxg  -0.02410
gfz2012ldzj  -0.69990
gfz2012ledy   1.07520
gfz2012llug   0.29530
gfz2012lpvn   0.00000
gfz2012lrol  -0.47340
gfz2012lrsv   1.54210
gfz2012lxkv   0.18630
gfz2012maxy   0.30530
gfz2012minr  -0.17340
gfz2012mkpn   0.07760
gfz2012mlyf  -0.65580
gfz2012mofm   0.59160
gfz2012mpvy  -0.26890
gfz2012mpyl  -0.29160
gfz2012mupa  -0.09930
gfz2012mvwr  -0.23100
gfz2012mwij   0.63560
gfz2012myqa   0.07690
gfz2012naqz  -0.03670
gfz2012nedn  -0.18370
gfz2012ngic  -0.14950
gfz2012njha   0.27080
gfz2012nkdf  -0.77020
gfz2012nojx   0.64830
gfz2012nolo  -1.08010
gfz2012nsbz  -0.09130
gfz2012ntzv  -0.37670
gfz2012nutf  -0.89510
gfz2012nxog   0.02240
gfz2012nxyt   0.51190
gfz2012oazn   0.06750
gfz2012obgw  -0.46170
gfz2012oedb  -0.04600
gfz2012omvo  -0.67380
gfz2012oqmw  -0.49620
gfz2012ovqs   0.43730
gfz2012peex  -0.14970
gfz2012pgcl   0.58310
gfz2012pkel  -0.21030
gfz2012plea  -0.34960
gfz2012pqmu  -0.36920
gfz2012priv  -0.38110
gfz2012qjhs  -0.27860
gfz2012qurq  -0.38030
gfz2012qxcy  -0.76650
gfz2012rats  -0.11120
gfz2012rcnj  -0.31130
gfz2012repv  -0.61500
gfz2012rjsd  -0.23650
gfz2012ronz  -0.68720
gfz2012royy  -0.59600
gfz2012rwko   0.13460
gfz2012rwov   0.04840
gfz2012rypu   0.18870
gfz2012sfer  -0.26390
gfz2012snhi   1.26840
gfz2012spbj  -0.27850
gfz2012sphd  -0.17530
gfz2012sqmv  -0.29630
gfz2012sqvi   0.53290
gfz2012ssyn  -0.26190
gfz2012syvl   0.31560
gfz2012tazz   0.35430
gfz2012teic  -0.34850
gfz2012thfx   0.07300
gfz2012tmop  -0.38790
gfz2012ttoa   0.09430
gfz2012tvmv   0.42020
gfz2012tzcc  -0.00000
gfz2012tzgb   0.30060
gfz2012uafg   0.08030
gfz2012uciv  -0.35680
gfz2012ueqo   0.09470
gfz2012ufew   0.69730
gfz2012uhup   0.47990
gfz2012ulpd   0.57860
gfz2012uvqf   0.40720
gfz2012uyxb   0.52180
gfz2012uzyj   0.26210
gfz2012vdbt  -0.31710
gfz2012vntz   0.29230
gfz2012vpza  -0.71310
gfz2012vrgb   0.04150
gfz2012vxvr   0.63730
gfz2012whku  -0.24240
gfz2012wklq   0.48140
gfz2012wmkd   0.00000
gfz2012wmsg  -0.54060
gfz2012wrir  -0.48690
gfz2012wtkr   0.09390
gfz2012wubh  -0.28360
gfz2012wvfl   0.52420
gfz2012wxer   0.58920
gfz2012wxlg  -0.05030
gfz2012wxnu   0.65300
gfz2012wybs  -0.19590
gfz2012wypz   0.41690
gfz2012xbjq  -0.44680
gfz2012xcgk  -0.09380
gfz2012xjyv   0.03550
gfz2012xkkv  -1.79880
gfz2012xslk   0.21880
gfz2012xvwn   0.00000
gfz2012yxxu   0.02070
gfz2012zemh   0.17750
gfz2012zemz  -0.95510
gfz2012zfag   0.38700
gfz2012zitl  -0.06000
gfz2012zjpv   0.01300
gfz2012zklq   0.06940
gfz2012zmln  -0.28230
gfz2013aahq   0.25010
gfz2013aayj  -0.57930
gfz2013apmm   0.00000
gfz2013bdke  -1.26580
gfz2013bdpu  -0.70560
gfz2013bokp   0.08360
gfz2013btjm  -0.56500
gfz2013cbsm   0.31920
gfz2013ccnr   0.02910
gfz2013cdan   0.74580
gfz2013cdfj  -0.40770
gfz2013ciaf   0.23770
gfz2013cvqg  -0.14590
gfz2013cwpn   0.66590
gfz2013cwps  -0.14620
gfz2013ddbh  -0.73200
gfz2013dkly   0.11580
gfz2013dkmz   0.39330
gfz2013dofo  -0.13490
gfz2013dojq   0.06850
gfz2013drxz  -0.79690
gfz2013dsog  -0.58220
gfz2013dspt  -1.54790
gfz2013dsrk  -1.07960
gfz2013dvyh  -0.21780
gfz2013egni   0.56360
gfz2013egpu  -0.36550
gfz2013ekpm   0.23520
gfz2013enbx  -1.69400
gfz2013ewbo  -0.44590
gfz2013fiud  -0.20610
gfz2013fkcl   0.09590
gfz2013fkii   0.07820
gfz2013flox  -0.09120
gfz2013ftso  -0.56650
gfz2013fwxa   0.12240
gfz2013fygc   0.00000
gfz2013gbcn  -0.05240
gfz2013gbst   0.28760
gfz2013gcfx  -1.57340
gfz2013gdgf   0.04710
gfz2013gdnq  -0.48070
gfz2013gelv  -0.28780
gfz2013gihf  -0.25910
gfz2013gjdc  -0.38930
gfz2013glcr   0.02230
gfz2013gmor  -0.00000
gfz2013gngz   0.13880
gfz2013gock  -0.11640
gfz2013goux   0.54840
gfz2013gvex  -0.04480
gfz2013gxsu  -0.66210
gfz2013hbkq   0.94680
gfz2013hdnc  -0.43160
gfz2013hfmp   0.06230
gfz2013hlbe   0.48510
gfz2013hmbc   1.57130
gfz2013hsfw  -0.28210
gfz2013huwr  -0.24850
gfz2013hxcx  -0.35780
gfz2013iayx   0.05690
gfz2013idbb   1.34250
gfz2013ifpq   0.08770
gfz2013igmx   0.16240
gfz2013ijsr   0.10160
gfz2013ikgo  -0.02020
gfz2013ilug   0.42240
gfz2013inux  -0.07400
gfz2013ippu   0.10480
gfz2013jesk  -0.09260
gfz2013jfah   0.18140
gfz2013jgij  -0.53680
gfz2013jgip  -0.19590
gfz2013jkut   0.55550
gfz2013jusj  -0.30030
gfz2013jwvc  -0.11710
gfz2013kccc   0.10750
gfz2013kdeo  -0.68290
gfz2013kheb  -0.22130
gfz2013khli  -0.31070
gfz2013kilx  -0.22790
gfz2013krei  -0.65520
gfz2013kvtk   0.09510
gfz2013kweg   1.47370
gfz2013kwps  -0.62540
gfz2013lbiu   0.98710
gfz2013ldos  -0.83570
gfz2013ldpc  -0.35250
gfz2013ldqb  -0.22230
gfz2013lgnl   0.09970
gfz2013lixa  -0.17020
gfz2013lmqe   0.26080
gfz2013lmrs  -0.21480
gfz2013lwbk   0.09980
gfz2013lxyn   0.38900
gfz2013lyko   0.41450
gfz2013mmwq   0.01290
gfz2013mnei  -0.91370
gfz2013mqmv  -0.00000
gfz2013mvgr   0.39340
gfz2013mwbh  -0.36660
gfz2013mxee  -0.39070
gfz2013ncjp  -0.15550
gfz2013ndin  -0.12290
gfz2013neuc   0.47030
gfz2013ngnt  -0.00370
gfz2013nixj  -0.28590
gfz2013nkgj  -0.44680
gfz2013nknw   0.25700
gfz2013nmac   0.22510
gfz2013nqgw   0.74820
gfz2013nuvi   0.42120
gfz2013nvdj  -1.52160
gfz2013nwdi   0.38960
gfz2013oejn   0.39040
gfz2013ogde  -0.23980
gfz2013oifr  -0.60870
gfz2013oinc  -0.59700
gfz2013ojti  -0.70840
gfz2013pkbs  -0.40220
gfz2013plhp   0.00000
gfz2013pndn   1.67080
gfz2013poxj   0.25080
gfz2013puag  -0.29070
gfz2013pxsj   0.07490
gfz2013qali   0.27920
gfz2013qcck   0.51690
gfz2013qfmm   0.39440
gfz2013qmer  -0.29400
gfz2013qzdq  -0.60400
gfz2013rait  -0.19520
gfz2013rdoo  -1.60560
gfz2013roki   0.95360
gfz2013rsnr  -0.19330
gfz2013rwfe  -1.59320
gfz2013ryxm  -0.54640
gfz2013sart   0.33540
gfz2013sdus   0.42160
gfz2013sebq   0.46900
gfz2013sfto  -0.27480
gfz2013shzy   0.22260
gfz2013skkm   0.12810
gfz2013snbr   0.09480
gfz2013snyf  -0.35010
gfz2013stht   0.26670
gfz2013svci   0.63080
gfz2013tcbk  -0.49070
gfz2013tcxc   0.60190
gfz2013tcxq   0.31800
gfz2013tdau  -0.91890
gfz2013tlaf  -0.29770
gfz2013toea  -0.16760
gfz2013toxf   0.24680
gfz2013tpeb  -1.44280
gfz2013tqbb  -0.06450
gfz2013tusd  -0.06580
gfz2013tvmw  -0.27790
gfz2013txev  -0.34430
gfz2013txij  -0.43400
gfz2013txtb   0.47900
gfz2013tyas  -0.47980
gfz2013uauo  -0.13150
gfz2013ufxk   2.17600
gfz2013ufxm   0.03870
gfz2013uqsp   0.21070
gfz2013uthl  -0.20580
gfz2013vexx  -0.20670
gfz2013vfyw   0.17830
gfz2013vfzp  -0.77520
gfz2013vgrk  -0.51080
gfz2013vhzu  -0.09880
gfz2013viul   0.18630
gfz2013vjfe   0.15420
gfz2013vjjc  -0.84730
gfz2013vnfj   0.80240
gfz2013vrmy  -0.46070
gfz2013vsbl  -0.12610
gfz2013vvrq  -0.94680
gfz2013vzbo  -0.12260
gfz2013waam   0.19010
gfz2013wjmm   0.17620
gfz2013wkyk   0.72840
gfz2013wmfd  -0.56050
gfz2013wnpr  -0.04220
gfz2013wpga   0.22310
gfz2013xgmp   0.49720
gfz2013xizq  -0.97700
gfz2013xklb  -1.17360
gfz2013xkwt   0.45710
gfz2013xmul   0.23920
gfz2013xpfa  -0.02610
gfz2013xsdt   0.24930
gfz2013xvqd   0.77800
gfz2013xvxf   0.43400
gfz2013xwda  -0.08530
gfz2013xxwv  -0.17070
gfz2013xxxq   0.13290
gfz2013xyzb   1.04320
gfz2013xzcg  -0.09870
gfz2013yaig   0.08820
gfz2013yctg  -0.02760
gfz2013yghj   0.73110
gfz2013yhpk   0.02580
gfz2013ylbx   0.45270
gfz2013ymky   0.19370
gfz2013ypdc   1.69180
gfz2013yqkv   0.58870
gfz2013yyhc   0.43920
gfz2013ziyr   0.65720
gfz2013zjel   0.43000
gfz2013zmoc   0.32460
gfz2014abgd   1.52110
gfz2014adoj   0.19280
gfz2014afmx  -0.24400
gfz2014afyp   0.11180
gfz2014ajlk  -0.44330
gfz2014algk   0.02340
gfz2014amsb   0.38980
gfz2014ande   0.04840
gfz2014arqr  -0.74110
gfz2014atbl   0.11180
gfz2014atgw   0.09440
gfz2014azqs   0.20690
gfz2014bagd  -0.09500
gfz2014bezu   0.00000
gfz2014bfng   0.55370
gfz2014bfqo  -0.09110
gfz2014bhhv  -0.45080
gfz2014bldx  -0.65150
gfz2014bmdh  -0.05900
gfz2014bmta  -0.24370
gfz2014bwue   0.26730
gfz2014bzna  -0.51720
gfz2014bzxy  -0.16220
gfz2014capn   0.17910
gfz2014cbtl   0.37930
gfz2014cgog   0.20290
gfz2014chdv  -0.31530
gfz2014claq   0.27140
gfz2014cmwb   0.14330
gfz2014cqyo   0.25270
gfz2014ctot  -0.04390
gfz2014cvkm   0.20140
gfz2014cvxx   0.14230
gfz2014czno   0.25430
gfz2014czol   0.75990
gfz2014czqi  -0.14780
gfz2014czua   0.34780
gfz2014dhxt   0.17600
gfz2014disp  -0.75860
gfz2014dlri  -0.91600
gfz2014duqn   0.03420
gfz2014ebmc   0.47560
gfz2014edfx   1.27060
gfz2014egwu  -0.75650
gfz2014ehsf   0.42950
gfz2014fcms   0.18300
gfz2014fcsy  -0.16700
gfz2014femz   0.15620
gfz2014fexu   0.51910
gfz2014ffdc  -0.44760
gfz2014fgvi  -0.17100
gfz2014fgvr   0.05820
gfz2014fgvz  -0.40430
gfz2014fgxt   0.16610
gfz2014fgxz  -0.44710
gfz2014fgyo  -0.24450
gfz2014fhbd  -0.03600
gfz2014fhdw  -0.09270
gfz2014fhhp   0.04580
gfz2014fhjd  -0.60670
gfz2014fhla  -0.61970
gfz2014fhlh   0.02490
gfz2014fhrq  -0.14820
gfz2014fhsg  -0.51310
gfz2014fhwx  -0.18500
gfz2014fhyb   0.55860
gfz2014fimn  -0.12780
gfz2014fiwq   0.45830
gfz2014fjpb   0.24930
gfz2014fjzd   0.03140
gfz2014fjzw  -0.49770
gfz2014fkmr  -0.46900
gfz2014fkmx  -0.40370
gfz2014fknp  -0.28320
gfz2014flfa   0.18420
gfz2014fnyg  -0.23950
gfz2014foio  -0.52940
gfz2014frdz   0.13190
gfz2014frel   0.59530
gfz2014frez   0.67960
gfz2014frfl   1.00840
gfz2014frgm   0.29180
gfz2014frwh   0.29310
gfz2014fsuh  -0.29000
gfz2014ftka  -0.80430
gfz2014ftoc  -0.00000
gfz2014ftpw   0.46060
gfz2014ftrk  -0.36000
gfz2014furx   0.42600
gfz2014fusc  -0.66590
gfz2014fusj  -0.24420
gfz2014fusu  -0.14800
gfz2014fuub  -0.45490
gfz2014fuup   0.42360
gfz2014fuvk   0.39470
gfz2014fval  -0.68950
gfz2014fvgh  -0.30660
gfz2014fvjl  -0.19730
gfz2014fvpy  -0.10460
gfz2014fvrg  -0.11170
gfz2014fwdr   0.19200
gfz2014fwyr  -1.54370
gfz2014gbcz  -0.23490
gfz2014gbdq   0.66080
gfz2014gcza   0.27830
gfz2014geuy   0.12140
gfz2014gezs   1.48570
gfz2014ghpe   0.01910
gfz2014gkgf  -1.12890
gfz2014gkgs  -1.21400
gfz2014gkhp  -1.02640
gfz2014gkhy  -0.04060
gfz2014gkjl  -0.60100
gfz2014gkjt  -0.71830
gfz2014gkjw   0.49800
gfz2014gklq   0.29680
gfz2014gklv  -0.68400
gfz2014gkmm   0.09250
gfz2014gkmw  -1.24540
gfz2014gkob  -0.72380
gfz2014gkok  -0.91860
gfz2014gkpd   0.51160
gfz2014gkpj   0.43180
gfz2014gkqf  -0.42920
gfz2014gkqu  -0.43310
gfz2014gksj  -0.15100
gfz2014gksu  -0.55920
gfz2014gktq   0.86450
gfz2014gkut   1.00290
gfz2014gkxm   0.61790
gfz2014glcu   0.11390
gfz2014glcy  -0.90590
gfz2014glfn   0.32540
gfz2014glgo  -0.36290
gfz2014gltx   0.30840
gfz2014glvu  -1.71110
gfz2014gmci   1.48650
gfz2014gmge  -0.44590
gfz2014gmhp  -0.00000
gfz2014gmhr  -1.63510
gfz2014gmip  -0.27670
gfz2014gmjo   0.19910
gfz2014gmku   0.17270
gfz2014gmlz   0.78490
gfz2014gmmk   0.57880
gfz2014gmmt   0.72070
gfz2014gmnb  -0.53470
gfz2014gmnw   0.12170
gfz2014gmor  -0.10340
gfz2014gmpy   0.11470
gfz2014gmrj   0.24790
gfz2014gmtb  -0.17540
gfz2014gmuk   0.24850
gfz2014gmvr   0.16320
gfz2014gmzl   0.09360
gfz2014gndq   0.32350
gfz2014gnfd  -0.15160
gfz2014gnfs  -0.22740
gfz2014gngg  -0.88340
gfz2014gnnt   0.46300
gfz2014gnre   0.54720
gfz2014gnxb   0.17300
gfz2014goba  -0.86600
gfz2014goei   0.47070
gfz2014gogv  -0.04830
gfz2014gohm   0.45290
gfz2014golz   0.61640
gfz2014goqw   0.09900
gfz2014gori  -0.30460
gfz2014gpce   0.52050
gfz2014gphr   0.00000
gfz2014gpuk   0.04380
gfz2014gpya   0.61020
gfz2014gqbj   0.35310
gfz2014gqed  -0.08160
gfz2014gqer   1.14200
gfz2014gqiy   0.09170
gfz2014gqqz  -0.06150
gfz2014gqve  -0.25910
gfz2014grcv   0.83950
gfz2014gsqs  -0.65720
gfz2014gtwz   0.56970
gfz2014gufl   0.16360
gfz2014gull   0.17340
gfz2014gulp  -0.22600
gfz2014gumd   0.85450
gfz2014gutm   1.71070
gfz2014gvhw   0.89120
gfz2014gvqj  -0.71710
gfz2014gvra   0.79440
gfz2014gvrd   0.13510
gfz2014gwab  -0.07250
gfz2014gwgf  -0.14270
gfz2014gxkh   0.79890
gfz2014gxxh   0.78280
gfz2014gxxo   0.12990
gfz2014gyxd   0.20410
gfz2014gzrm   0.40650
gfz2014gzue  -1.71360
gfz2014hafk   0.72850
gfz2014hagb   0.20040
gfz2014haos  -0.22000
gfz2014hasj  -0.21620
gfz2014hauo   0.45400
gfz2014hbjz  -0.12220
gfz2014hbqb  -0.20460
gfz2014hcmj   0.04150
gfz2014hetr   0.35750
gfz2014heum   0.32780
gfz2014hfhl  -0.05570
gfz2014hfzf  -0.45520
gfz2014hgqo   0.08530
gfz2014hhfs  -0.29290
gfz2014hhwx   0.78130
gfz2014hjgh   0.08740
gfz2014hjgo  -0.45130
gfz2014hjgr  -0.24720
gfz2014hjij  -0.09140
gfz2014hjlx  -0.44540
gfz2014hkcf   0.11230
gfz2014hkck  -0.50550
gfz2014hmzg   0.07830
gfz2014hoap  -0.27970
gfz2014hocg  -0.07020
gfz2014hphw  -0.10700
gfz2014hppw  -0.04040
gfz2014hpqz  -0.24940
gfz2014hqxs  -1.47310
gfz2014hrft  -0.21920
gfz2014hriu  -0.20640
gfz2014hrtn   0.55760
gfz2014hscz  -0.89510
gfz2014huaj   0.65350
gfz2014hwwi  -0.01840
gfz2014hyal   0.25450
gfz2014hyvq   0.47830
gfz2014hzdy   0.86610
gfz2014hzfw   0.29810
gfz2014hzgn   0.58920
gfz2014hzhe  -0.12140
gfz2014hzig   0.02600
gfz2014iani   0.00000
gfz2014icqt  -0.40720
gfz2014ifzj   0.27920
gfz2014imnn  -0.36450
gfz2014inbj   0.02580
gfz2014iobd   0.06450
gfz2014iqzj  -0.24210
gfz2014irci  -0.25110
gfz2014isff   0.01860
gfz2014issk  -0.35370
gfz2014isub   0.15200
gfz2014isys  -0.65980
gfz2014itab  -0.09360
gfz2014itbe  -0.20750
gfz2014itfc  -0.12880
gfz2014itgh  -0.47810
gfz2014itjx   0.05050
gfz2014itkw   0.04780
gfz2014itpj  -0.36200
gfz2014iuhq   0.11010
gfz2014iwwl  -0.12740
gfz2014ixga  -0.24970
gfz2014iywt   0.34550
gfz2014jagg   0.14190
gfz2014jatq   0.10330
gfz2014jcjt  -0.41200
gfz2014jcmt  -0.34890
gfz2014jggm  -0.10020
gfz2014jipr   2.28190
gfz2014jjhc  -0.19890
gfz2014jjln   0.43260
gfz2014jkxe   0.54460
gfz2014jnxm  -0.33300
gfz2014jnyv  -0.08560
gfz2014jomw  -0.39890
gfz2014jpep  -0.08930
gfz2014jpez  -0.30330
gfz2014jpxs  -0.05060
gfz2014jwmh   0.15960
gfz2014kara  -0.10030
gfz2014kbuk  -0.07460
gfz2014khan   0.01270
gfz2014khlk  -0.34270
gfz2014kizt  -0.70560
gfz2014kjzb   0.78760
gfz2014kkhh   0.72380
gfz2014kmmt  -0.53450
gfz2014kndc   0.40580
gfz2014knks  -0.15970
gfz2014knxs   0.57880
gfz2014ksdv   0.31130
gfz2014ksmz   0.39520
gfz2014kwrg   0.22900
gfz2014kyan   0.08830
gfz2014kytf   0.19080
gfz2014kzzm  -3.15710
gfz2014lchy   0.54880
gfz2014lddn  -1.55830
gfz2014lefs  -0.32640
gfz2014lgqn   0.28230
gfz2014lhqn   0.27510
gfz2014lkyf  -0.20650
gfz2014lmge   0.26730
gfz2014lnmw   0.43410
gfz2014lnqy   0.59260
gfz2014lpfc   0.18520
gfz2014lpim  -0.53140
gfz2014lrzx  -0.00000
gfz2014lvgn  -0.40720
gfz2014lwom  -0.58990
gfz2014lxnc  -0.19620
gfz2014lxqr  -2.42550
gfz2014lyhk  -0.68970
gfz2014lynp   0.45370
gfz2014lzal  -0.55760
gfz2014lzow  -0.11370
gfz2014macx  -0.34940
gfz2014madw  -0.63600
gfz2014mhgg   0.18290
gfz2014mlrr   0.87870
gfz2014moaw  -0.71240
gfz2014mtum   0.11880
gfz2014mwor   0.10640
gfz2014mxkr  -0.36180
gfz2014ncub   0.28230
gfz2014ngnd  -0.19510
gfz2014ngsk  -0.32090
gfz2014nhyb  -0.15240
gfz2014niqj   0.61660
gfz2014nkdx   0.31210
gfz2014nnxd  -0.38150
gfz2014nowp   0.06790
gfz2014npdk  -0.63270
gfz2014npeo  -0.08410
gfz2014nphm   0.31870
gfz2014nqfm  -0.15520
gfz2014nrie  -0.49390
gfz2014ntdh  -0.07090
gfz2014nvdi  -0.57220
gfz2014nyeh   0.15090
gfz2014nyfb  -0.48380
gfz2014nyko  -0.19810
gfz2014odgv   0.52310
gfz2014oinz  -0.03500
gfz2014omyn   0.69810
gfz2014oqhw   0.18940
gfz2014orxs  -0.03510
gfz2014oryw   0.08740
gfz2014osvx   0.22200
gfz2014osvz   0.12170
gfz2014owxc  -0.08440
gfz2014oxcc   0.05860
gfz2014oyly  -0.15190
gfz2014pjer   0.57460
gfz2014pkll   0.41160
gfz2014ppzf   0.15890
gfz2014pvch  -0.10420
gfz2014pzml   0.44450
gfz2014pzni  -0.57860
gfz2014qbzi  -0.80760
gfz2014qfzq  -0.22590
gfz2014qlvc   0.31910
gfz2014qlxd  -0.16120
gfz2014qngj   0.07620
gfz2014qqhm  -0.10560
gfz2014raau   0.09240
gfz2014rbpx   0.38140
gfz2014rbsl   0.28030
gfz2014rdsn   0.08060
gfz2014rfeb   0.01310
gfz2014riel   0.20860
gfz2014rils  -0.70820
gfz2014rkwl   0.38160
gfz2014rnrn   0.01820
gfz2014roba  -0.14230
gfz2014romy   0.48380
gfz2014rwos  -0.01960
gfz2014sadu   0.35720
gfz2014shid   0.21030
gfz2014sjqw   0.16870
gfz2014sptq   0.25590
gfz2014sryn   0.04370
gfz2014ssds  -0.31860
gfz2014ssmv  -0.02710
gfz2014ssvz  -0.04550
gfz2014szzf   0.41820
gfz2014tabg   0.16070
gfz2014tovs   0.23940
gfz2014tqdo   0.19120
gfz2014tqly  -0.30770
gfz2014tqsf  -0.03490
gfz2014tqth   0.63680
gfz2014tzsd   0.24140
gfz2014ubwn   0.62720
gfz2014udgg   0.01830
gfz2014uohh   0.11650
gfz2014utac  -0.09550
gfz2014uuuf  -1.13640
gfz2014uvji  -1.13830
gfz2014uyrq  -0.86540
gfz2014vcev  -2.08230
gfz2014veit  -0.27060
gfz2014vhld   0.07740
gfz2014vhms  -0.09490
gfz2014vjoz   0.15320
gfz2014vqqa   1.60470
gfz2014waoo   0.05600
gfz2014watn  -0.18770
gfz2014wjko  -0.31100
gfz2014wmsc   0.42230
gfz2014wrkh  -0.17900
gfz2014wwib   0.03260
gfz2014xaxx  -0.21410
gfz2014xbyr   0.11950
gfz2014xhkc   1.19870
gfz2014xhwk   0.17010
gfz2014xjri  -0.37830
gfz2014xoji  -0.33220
gfz2014xqby   1.55970
gfz2014xqqd   0.03990
gfz2014yhhm  -0.12190
gfz2014ynhc  -0.86580
gfz2014ynzy   0.13000
gfz2014yppv   0.04520
gfz2014yrug  -0.30280
gfz2014yula   0.07850
gfz2014yyiy  -0.08720
gfz2014zcgo   0.40180
gfz2014zkys  -0.26860
gfz2014zlgp   0.39330
gfz2014zplq   0.23110
gfz2015abpw  -0.10860
gfz2015apnk  -0.14340
gfz2015aqbq   0.43340
gfz2015arpd  -0.20050
gfz2015aruz  -0.16220
gfz2015atxv  -0.47380
gfz2015azzp   0.66120
gfz2015bdyd   0.13200
gfz2015berb   0.15290
gfz2015bfjm   0.14710
gfz2015bkbj   0.17410
gfz2015bphe  -1.13160
gfz2015bpxl  -0.17720
gfz2015bsnl   0.27030
gfz2015bucr   0.64790
gfz2015bvsj  -0.27110
gfz2015byfn   0.43120
gfz2015byjd  -0.09250
gfz2015cewd   0.49570
gfz2015chhn   0.84230
gfz2015chqn  -0.05280
gfz2015cxhx  -0.17910
gfz2015cxrc  -0.27080
gfz2015cxxk   0.44200
gfz2015cyjd   0.77280
gfz2015czfv   0.38910
gfz2015ddhl  -0.48070
gfz2015dizn  -0.13630
gfz2015djts   0.45100
gfz2015drlk  -0.04880
gfz2015dskr   0.17180
gfz2015dvbn   0.06750
gfz2015ecgq  -0.56940
gfz2015ednc   0.80420
gfz2015eeyq   0.22200
gfz2015egxq  -0.12440
gfz2015ehpz  -0.04390
gfz2015eiky   0.10030
gfz2015elgy  -0.11220
gfz2015eljz   0.34130
gfz2015emtg   0.12970
gfz2015etai   0.18850
gfz2015evpl   0.29300
gfz2015eyqs  -0.65910
gfz2015fbbk   0.10880
gfz2015fbew   0.12190
gfz2015fcua  -0.02860
gfz2015fdpr   0.35790
gfz2015fjhk   0.23630
gfz2015fkbc  -0.05930
gfz2015fkgt   0.13890
gfz2015fkjs  -1.68580
gfz2015fkkd   0.02270
gfz2015fkuu   0.49510
gfz2015flis   0.61130
gfz2015fpez   0.12660
gfz2015fsjj   0.36240
gfz2015fvoi   0.24660
gfz2015fwkq   0.25120
gfz2015fxdi   0.25860
gfz2015fyvk  -0.17390
gfz2015gckd  -0.06200
gfz2015ggjw   0.12280
gfz2015gjbr   0.38510
gfz2015gkwa   0.45690
gfz2015gmgf   0.05220
gfz2015gnmy   0.04070
gfz2015guhd   0.82800
gfz2015gzja  -0.02820
gfz2015hdcp   0.48860
gfz2015hgbk  -0.07140
gfz2015hhbd   0.20560
gfz2015hlqo   0.48950
gfz2015hpmk   0.31600
gfz2015hslo  -0.71770
gfz2015hwkv   0.51200
gfz2015iele  -1.90830
gfz2015imty   0.09700
gfz2015imyp  -0.27000
gfz2015isim  -0.85060
gfz2015iwqk   0.18300
gfz2015ixyy   0.56810
gfz2015jkdw  -0.03600
gfz2015jpap   3.58520
gfz2015kkqb  -0.04000
gfz2015kkth   0.10500
gfz2015kphk   0.21930
gfz2015kquq   0.29840
gfz2015ksni   0.21770
gfz2015kvwz   0.03460
gfz2015lbcg  -0.11810
gfz2015lcma   0.62120
gfz2015lcuo   0.00690
gfz2015lfma   0.23810
gfz2015lfos   0.13350
gfz2015lfud   0.11700
gfz2015lhjq   0.07480
gfz2015lhjy   0.64440
gfz2015ltii  -0.24670
gfz2015ltro   0.47850
gfz2015lytv  -1.15010
gfz2015lzad  -0.36060
gfz2015mbgr   0.41420
gfz2015mddr   0.03120
gfz2015mfpy   0.33720
gfz2015micz   0.66350
gfz2015mpte  -0.07490
gfz2015nbdc  -0.12110
gfz2015nerz   0.29830
gfz2015nqgf   0.46640
gfz2015ntpk   0.57810
gfz2015nuxz   0.06940
gfz2015nwug  -0.17960
gfz2015ocdz   0.24160
gfz2015ocwr  -0.09770
gfz2015ofpd  -1.30590
gfz2015ofsr   0.26440
gfz2015okmq   0.19050
gfz2015okpu   0.03540
gfz2015omab   0.04840
gfz2015orkl   0.00000
gfz2015oyfl   0.23660
gfz2015pcvt   0.01050
gfz2015pdri   0.33570
gfz2015pjgr  -0.17060
gfz2015plal   0.15850
gfz2015poni   0.42290
gfz2015puah  -0.01280
gfz2015qnde  -0.05380
gfz2015qnho   0.19670
gfz2015qnto   0.06770
gfz2015qprd   0.12280
gfz2015qpvd   0.06590
gfz2015quzo  -0.06770
gfz2015rddx   0.44650
gfz2015rgov   0.24740
gfz2015rgrg  -0.27820
gfz2015rkbq  -0.73960
gfz2015rkrg  -0.03570
gfz2015rkzg  -0.04660
gfz2015roac   0.15250
gfz2015rpzn  -1.15650
gfz2015rtnv  -0.55970
gfz2015rwsb  -0.01650
gfz2015rxmg  -0.03670
gfz2015saet   0.57170
gfz2015sdeo   0.63710
gfz2015sdfy  -0.80790
gfz2015seuf  -0.25840
gfz2015sevh  -0.35770
gfz2015sfdd  -0.12760
gfz2015sfdy  -0.14360
gfz2015sfeo   0.20230
gfz2015sfga  -0.08470
gfz2015sfho   0.19550
gfz2015sfhz  -1.32680
gfz2015sfiq  -0.87810
gfz2015sfjf   0.07090
gfz2015sfkh  -0.61920
gfz2015sfko  -0.17490
gfz2015sfks  -0.11010
gfz2015sflf   0.06970
gfz2015sfmd   0.99680
gfz2015sfnb   0.57370
gfz2015sfno  -0.99550
gfz2015sfnv  -0.11210
gfz2015sfoc  -0.12560
gfz2015sfoh   0.30840
gfz2015sfom   0.27010
gfz2015sfoq   0.44920
gfz2015sfpj   0.26780
gfz2015sfps  -0.14310
gfz2015sfqo  -0.10030
gfz2015sfqr  -0.39860
gfz2015sfrc  -0.15600
gfz2015sfrf   0.29680
gfz2015sfrv   0.69240
gfz2015sfsi   0.91260
gfz2015sfte   0.50170
gfz2015sftu   0.10140
gfz2015sfuc   0.18140
gfz2015sfuz   0.22290
gfz2015sfwf   0.34740
gfz2015sfxn  -0.20540
gfz2015sfzm   0.24900
gfz2015sgad  -0.03580
gfz2015sgmr   0.26390
gfz2015sgna   0.05420
gfz2015sgxc   0.18480
gfz2015sgyd   0.45190
gfz2015shaq   0.08520
gfz2015shel   0.13830
gfz2015shhg   0.63690
gfz2015shhu  -0.54210
gfz2015shjn  -0.44080
gfz2015shjo  -0.40200
gfz2015shqc   0.24010
gfz2015shqe   0.46860
gfz2015shrg  -0.53100
gfz2015shsb  -0.45150
gfz2015shwt  -0.19680
gfz2015sicf  -0.00320
gfz2015sicu   0.28070
gfz2015siem   0.01710
gfz2015siky   0.17310
gfz2015sing  -0.27260
gfz2015siof   0.05310
gfz2015sist  -0.43450
gfz2015sitn  -0.03120
gfz2015sixi  -0.34510
gfz2015sixs   0.05600
gfz2015siyy   0.37700
gfz2015sjbx   0.28020
gfz2015sjfi   0.13490
gfz2015sjgk  -0.44280
gfz2015sjjb   0.78630
gfz2015sjne   0.08670
gfz2015sjoj   0.09530
gfz2015sjpn   0.28990
gfz2015sjtz  -0.12550
gfz2015sjvu   0.03040
gfz2015sjwi   0.58670
gfz2015skab  -0.05830
gfz2015skgj   0.15120
gfz2015skhf   0.83750
gfz2015sklu  -0.25380
gfz2015skpv  -0.05090
gfz2015skuk   0.30480
gfz2015skxu  -0.18720
gfz2015sldx   0.11190
gfz2015sljs  -1.24170
gfz2015slun   0.09710
gfz2015smym  -0.45310
gfz2015snhn   0.29180
gfz2015snmg   0.17150
gfz2015snmr  -0.16380
gfz2015snsf  -0.05930
gfz2015snwh  -0.90850
gfz2015snyd  -0.17140
gfz2015soat  -0.05720
gfz2015sopc   0.07910
gfz2015sowu   0.90310
gfz2015soxc  -0.04830
gfz2015sozw  -0.38500
gfz2015sqbg   0.22280
gfz2015sqmy   0.22830
gfz2015sqvx   0.41760
gfz2015srat  -0.10050
gfz2015srgf   0.26970
gfz2015ssaf  -0.41610
gfz2015sspn   0.68910
gfz2015ssrl   0.03850
gfz2015stfy   0.45880
gfz2015subz  -0.07870
gfz2015sudm   0.19160
gfz2015susq   0.41630
gfz2015svjy   0.19080
gfz2015svwm  -0.19640
gfz2015sxgd  -0.39600
gfz2015sxmh  -0.62070
gfz2015sxxu   0.24040
gfz2015sydc   0.13220
gfz2015szcb  -0.80030
gfz2015szfe  -0.68050
gfz2015sztx   0.42140
gfz2015taml  -0.38750
gfz2015tbje   0.64730
gfz2015tbxe  -0.00000
gfz2015tcem  -0.08730
gfz2015tdbb  -0.21340
gfz2015tdcu   0.63050
