# Nsamples: 659  MAD:  0.595  mean:  0.075  variance:  1.013
gfz2010aerk  -0.00980
gfz2010bfzs  -0.16030
gfz2010bifb  -0.39070
gfz2010bjeb   0.60750
gfz2010bkob  -0.05410
gfz2010bowy   2.16160
gfz2010boxo   0.34260
gfz2010bxxs  -0.47120
gfz2010caft  -0.68180
gfz2010cbkg   0.22690
gfz2010civi   0.99240
gfz2010ckzm  -1.04150
gfz2010cqwl   0.44500
gfz2010czps  -0.47720
gfz2010dlgc   0.51510
gfz2010eaoy  -0.45770
gfz2010eapn   1.15630
gfz2010eaqe  -0.45150
gfz2010eaqx  -0.37030
gfz2010eaqy   0.51990
gfz2010earu  -0.11840
gfz2010easf   0.48640
gfz2010easo   0.32360
gfz2010easu   0.31380
gfz2010eati  -0.51700
gfz2010eato   0.14030
gfz2010eatt   1.13070
gfz2010eaty   0.64730
gfz2010eaul   0.25580
gfz2010eavd  -1.08550
gfz2010eavs   0.41470
gfz2010eawb   0.42830
gfz2010eawu  -8.47520
gfz2010eaxa  -0.32180
gfz2010eayd   0.09310
gfz2010eayp  -0.15050
gfz2010eaze  -0.38410
gfz2010eazu   1.72490
gfz2010ebbd  -0.03480
gfz2010ebbx  -5.52680
gfz2010ebby  -0.78540
gfz2010ebdl   0.01810
gfz2010ebeh  -0.46910
gfz2010ebek  -0.14430
gfz2010ebfa   0.30740
gfz2010ebfx   0.17390
gfz2010ebhc   0.92260
gfz2010ebih   0.33790
gfz2010ebiv   0.20600
gfz2010ebjy  -0.03040
gfz2010ebkj  -0.61080
gfz2010ebkx  -0.23060
gfz2010ebla   0.18240
gfz2010ebll  -0.86800
gfz2010ebmb   0.59990
gfz2010ebmi  -0.62940
gfz2010ebnn   0.33570
gfz2010ebqt  -0.28630
gfz2010ebrm  -0.48080
gfz2010ebsv  -0.45690
gfz2010ebvm  -0.09260
gfz2010ebvv  -0.19080
gfz2010ebwp  -0.28230
gfz2010ebxl   0.87450
gfz2010ebze   0.02180
gfz2010ebzk  -1.03830
gfz2010ebzr  -0.13260
gfz2010ecam  -0.43240
gfz2010ecay  -0.68660
gfz2010ecbi   1.04810
gfz2010eccq  -0.07050
gfz2010eced   0.80340
gfz2010ecft   0.46990
gfz2010ecfx   0.00000
gfz2010echc   0.05360
gfz2010echt   0.54360
gfz2010echy  -0.06570
gfz2010ecns  -0.98260
gfz2010ecps  -0.02150
gfz2010ecsp  -0.60860
gfz2010ectq  -0.08920
gfz2010ecua  -0.30520
gfz2010ecvt   0.14640
gfz2010edad   1.43150
gfz2010edat  -0.11770
gfz2010eday  -0.72310
gfz2010edbz  -1.08220
gfz2010edcp   0.47650
gfz2010edhv  -0.11780
gfz2010edim   0.35960
gfz2010edkp   0.81620
gfz2010edsn   1.13360
gfz2010edvf  -0.03200
gfz2010edyi  -0.47700
gfz2010edzb   0.04600
gfz2010eedu  -0.31650
gfz2010eefh  -0.19610
gfz2010eeij   0.29660
gfz2010eerh   0.25960
gfz2010eern   0.10520
gfz2010eevu   0.49280
gfz2010efbh   0.17310
gfz2010efsq  -0.03410
gfz2010efxf   0.62300
gfz2010egap  -0.42170
gfz2010eghq   0.40070
gfz2010egld  -0.18100
gfz2010egln   0.41610
gfz2010egmp  -0.07660
gfz2010egsy   0.25960
gfz2010egyy  -0.46140
gfz2010ehxz   0.33600
gfz2010eioi  -0.50620
gfz2010eisx  -1.94460
gfz2010eixj   0.15610
gfz2010ejjg   0.44470
gfz2010ejju   2.12200
gfz2010ejma  -0.23250
gfz2010ejxf   0.15900
gfz2010ekrv  -0.34560
gfz2010ekyc  -0.43970
gfz2010eltf   0.43990
gfz2010elvp   0.07360
gfz2010elxi   0.00000
gfz2010elyc  -1.31310
gfz2010elyo   0.06400
gfz2010emyz   2.17350
gfz2010eoao   0.94810
gfz2010epbe   3.84770
gfz2010epxj  -0.34860
gfz2010eqjg  -0.06420
gfz2010eqmu   2.61110
gfz2010erdi   0.63930
gfz2010erkn  -0.12240
gfz2010erna  -0.65220
gfz2010erom  -0.58120
gfz2010eruy   2.28710
gfz2010erwn   0.46010
gfz2010eryg  -0.51230
gfz2010esid   0.95470
gfz2010eujm  -0.29940
gfz2010euvl  -0.14700
gfz2010euxe  -1.19680
gfz2010evco  -0.50790
gfz2010ewvc  -0.49210
gfz2010ewyu   0.80140
gfz2010excp   0.02170
gfz2010exdd  -0.47120
gfz2010exdl  -0.42120
gfz2010exed   0.10020
gfz2010exel  -0.14320
gfz2010exgb  -0.21530
gfz2010exhd  -0.56490
gfz2010exhw  -0.53660
gfz2010exmc  -0.29740
gfz2010exno   0.05760
gfz2010exsg  -0.00000
gfz2010exts  -2.30810
gfz2010eyhh   0.02090
gfz2010ezax  -0.33290
gfz2010ezck   0.11180
gfz2010ezxd  -0.38210
gfz2010fcax  -0.62690
gfz2010fcdw  -0.79490
gfz2010fcnn  -0.54840
gfz2010fcyj  -0.73880
gfz2010fczt  -0.27300
gfz2010fdab  -0.64960
gfz2010fedq  -0.43490
gfz2010fefr  -0.15140
gfz2010ffhq  -0.44300
gfz2010ffjb  -0.47700
gfz2010ffui  -0.60950
gfz2010figq  -0.06910
gfz2010fika  -0.29930
gfz2010fjal   4.78280
gfz2010fkvg   0.04320
gfz2010flha   0.33790
gfz2010flrt   0.52900
gfz2010flxi  -0.41040
gfz2010fmwb   1.95050
gfz2010fneu  -0.49700
gfz2010fnrk   1.06940
gfz2010fpqy   0.02140
gfz2010fser  -0.25710
gfz2010ftlm   0.63000
gfz2010fupn  -0.26730
gfz2010fync   0.20460
gfz2010fzoi   0.42960
gfz2010gcdn  -1.50280
gfz2010gcrl  -2.33920
gfz2010gdld  -0.06030
gfz2010gjia   0.64950
gfz2010glqr   0.41700
gfz2010glxl   0.07090
gfz2010gyqp  -0.21040
gfz2010gzxr   0.60040
gfz2010hcio  -0.40610
gfz2010hgld   0.81810
gfz2010hllj  -4.42640
gfz2010hlln  -1.00160
gfz2010hlmq   1.26090
gfz2010hnnf   1.50450
gfz2010homc   0.90000
gfz2010hptz  -0.44920
gfz2010hxgv  -0.48240
gfz2010iobp  -1.04470
gfz2010irvf  -0.20270
gfz2010iull  -0.07550
gfz2010jagd   0.03130
gfz2010jatq  -0.04420
gfz2010jxbm   0.19010
gfz2010kcoo   0.11350
gfz2010kdyc  -0.20560
gfz2010lkcf  -0.44290
gfz2010lluj   1.08450
gfz2010mdpq  -0.36190
gfz2010mkuu   0.54660
gfz2010mlta   0.63590
gfz2010mncc  -0.39990
gfz2010moyw  -0.50550
gfz2010mpuy  -2.01930
gfz2010msjj   0.43940
gfz2010ncrl  -0.45870
gfz2010nmpc  -1.24110
gfz2010nqwf  -0.40480
gfz2010nqwo  -0.48800
gfz2010nrjo  -1.77180
gfz2010nsck   0.20870
gfz2010ntuo  -0.34130
gfz2010nubk   0.27260
gfz2010nwef   0.61600
gfz2010okdm  -0.77990
gfz2010onma  -0.39010
gfz2010pcxi   0.05340
gfz2010pewa  -0.04450
gfz2010pewx   0.38010
gfz2010pfyu   0.04100
gfz2010phvg   0.43280
gfz2010plbg  -0.09660
gfz2010pxgh  -0.52440
gfz2010qpvi  -0.12240
gfz2010rhas   1.22230
gfz2010rqwj  -0.60320
gfz2010rzrr   4.92090
gfz2010sfee  -0.33200
gfz2010sfla   3.06540
gfz2010skve  -0.25610
gfz2010svtn   0.24030
gfz2010swcy   0.39540
gfz2010szde   0.50590
gfz2010tlfm  -0.20750
gfz2010truw   1.14010
gfz2010upfb  -0.02070
gfz2010upiw  -0.41280
gfz2010usho   0.42680
gfz2010ustq  -0.39970
gfz2010utcg  -0.05090
gfz2010uyhb   3.30840
gfz2010veri   1.07430
gfz2010vzpr   0.60990
gfz2010wrxx   6.01150
gfz2010xbdv  -0.36390
gfz2010yjev  -0.67520
gfz2011aatr   0.53290
gfz2011adjs  -1.27710
gfz2011aldv   0.01880
gfz2011alip   0.67250
gfz2011alsa  -0.09150
gfz2011ccpw  -0.19030
gfz2011cndo   0.53280
gfz2011cvfg  -0.31100
gfz2011cykd  -0.16870
gfz2011cynl   1.20730
gfz2011cyre  -0.01980
gfz2011cyuk   0.05050
gfz2011dbev   0.31290
gfz2011dbig   0.71400
gfz2011dbon  -0.38930
gfz2011dcqb   0.71560
gfz2011dcqf   0.43880
gfz2011dkyi  -0.31290
gfz2011dpqx   0.35910
gfz2011duyr   1.83950
gfz2011ecaj   1.73380
gfz2011ehzq  -0.13970
gfz2011enva  -0.12440
gfz2011etje   1.20040
gfz2011fhur  -0.86680
gfz2011flgj   1.37630
gfz2011fnsw   0.02890
gfz2011gcwb  -0.18500
gfz2011gkzt  -1.03140
gfz2011haid   5.27880
gfz2011hbex   0.91150
gfz2011hlqw   0.37070
gfz2011hlsa   0.30670
gfz2011hlth   1.04920
gfz2011hpqp   0.41460
gfz2011hvbu  -0.58310
gfz2011ieie   0.41860
gfz2011kqwo  -0.48600
gfz2011kxzp   0.25830
gfz2011lcxq  -0.29150
gfz2011lgsg   0.09200
gfz2011lzwj   0.16130
gfz2011mdie   0.09280
gfz2011mpme   0.42820
gfz2011mprq  -0.09560
gfz2011ntkh  -0.02450
gfz2011nudm  -0.14990
gfz2011ogqk   0.32110
gfz2011ohcy   0.54570
gfz2011oiqe   0.15590
gfz2011olkk   0.47090
gfz2011orgn   0.36530
gfz2011ornx  -0.06150
gfz2011phms  -0.43900
gfz2011pntf   0.12920
gfz2011ptus   1.14350
gfz2011qvae   1.83600
gfz2011rabm   0.67030
gfz2011rdby   2.08100
gfz2011rewa   0.21560
gfz2011rgwp  -0.57470
gfz2011rqui  -0.67910
gfz2011rsrh  -0.07580
gfz2011sagt  -0.03320
gfz2011tbas  -0.93090
gfz2011tcij  -0.37090
gfz2011tjue   4.73120
gfz2011tkfp   1.87700
gfz2011toub   0.78430
gfz2011ujze   0.16040
gfz2011uphh  -0.19540
gfz2011vhfi   0.90600
gfz2011vnza  -0.45730
gfz2011vxns  -0.43340
gfz2011wcic  -0.70700
gfz2011wwjs  -0.21320
gfz2011wxfs   1.11240
gfz2011wxtk  -0.90400
gfz2011wype   1.41580
gfz2011xyxj  -0.15290
gfz2011yfdx   0.29710
gfz2012aqgp  -0.66670
gfz2012bfah   0.31800
gfz2012bpkx   0.12930
gfz2012bpnl  -0.39170
gfz2012bpwl  -0.72420
gfz2012byad   0.57870
gfz2012cqnl  -0.93220
gfz2012cxdn  -0.19900
gfz2012czlw   0.85450
gfz2012dimn  -2.19470
gfz2012dyyh  -0.28760
gfz2012ekda  -0.15610
gfz2012ekzf  -0.11220
gfz2012elce   0.70270
gfz2012emjg   0.47650
gfz2012enno   0.67400
gfz2012ewgo  -0.21850
gfz2012fzfa  -0.63450
gfz2012hnul  -0.41960
gfz2012ilvn   0.37580
gfz2012jlox   0.13140
gfz2012jshk   2.26760
gfz2012jupx   0.64070
gfz2012keor   0.48050
gfz2012kkup   0.66560
gfz2012klhx   1.69150
gfz2012kudo   0.54300
gfz2012kwgo   0.11720
gfz2012lczo  -0.12590
gfz2012ldxg   0.54810
gfz2012ldzj   3.88490
gfz2012lxkv  -0.42970
gfz2012minr  -0.08530
gfz2012mvwr   0.16600
gfz2012mwij  -0.24340
gfz2012naqz   1.10620
gfz2012nojx   0.47870
gfz2012nolo   1.32510
gfz2012nsbz   0.39660
gfz2012pgcl   0.09720
gfz2012pkel   0.69600
gfz2012pqmu   1.85360
gfz2012rats  -0.81080
gfz2012repv   0.58380
gfz2012rjsd  -0.02390
gfz2012royy   2.96480
gfz2012ruks  -0.93360
gfz2012rwov  -0.26420
gfz2012rypu  -0.19050
gfz2012snhi   1.10630
gfz2012sphd   0.00390
gfz2012syvl   0.06850
gfz2012teic  -3.70260
gfz2012ttoa   0.00110
gfz2012ufew  -0.28330
gfz2012uvqf   1.49430
gfz2012uyxb  -0.03510
gfz2012vrgb   0.48520
gfz2012wklq  -0.70720
gfz2012wmsg  -1.06290
gfz2012wvfl   0.00290
gfz2012wypz   0.79890
gfz2012zitl  -0.25380
gfz2012zjpv  -0.54770
gfz2013bokp   0.05140
gfz2013ccnr  -0.14330
gfz2013cwpn   0.54660
gfz2013dkly   0.09130
gfz2013dofo   0.34970
gfz2013drxz   0.18620
gfz2013dspt   1.91030
gfz2013egpu   0.12340
gfz2013fygc   0.09670
gfz2013gdnq  -0.36590
gfz2013gngz   0.22690
gfz2013gock   0.59970
gfz2013hdnc  -1.06640
gfz2013hzdp  -0.17830
gfz2013iayx   0.59570
gfz2013ikgo   0.14760
gfz2013ilug  -0.08420
gfz2013ippu  -0.21390
gfz2013jesk   0.56480
gfz2013jgij  -0.10690
gfz2013jgip   0.51480
gfz2013jkut  -0.12930
gfz2013jusj   1.10490
gfz2013jwvc   0.43270
gfz2013kccc   0.94600
gfz2013kdeo   0.29380
gfz2013ldpc   0.46170
gfz2013ldqb   0.06230
gfz2013lixa   0.28640
gfz2013lyko   0.77530
gfz2013mqmv   1.35980
gfz2013mwbh   0.18660
gfz2013ncjp   0.38350
gfz2013nixj   0.51110
gfz2013nkgj   0.56660
gfz2013nmac  -2.85160
gfz2013nwdi   0.26230
gfz2013ogde  -0.09640
gfz2013orzn   1.45760
gfz2013pfbx   0.49390
gfz2013pxsj  -0.15940
gfz2013qali   0.46430
gfz2013qmer  -0.58870
gfz2013qzdq  -1.23220
gfz2013rait   0.54270
gfz2013suvn   0.99030
gfz2013svci   0.56700
gfz2013xizq  -0.08180
gfz2013xsdt   0.09520
gfz2013yctg  -0.36710
gfz2013yhbu   0.14490
gfz2013yqkv   1.31730
gfz2014adoj  -0.10360
gfz2014afmx   0.24780
gfz2014algk  -0.31550
gfz2014ande   0.00000
gfz2014bagd   0.20740
gfz2014bwue   1.06440
gfz2014bzxy  -0.09330
gfz2014claq   0.60590
gfz2014cvxx  -0.38300
gfz2014czqi  -0.23700
gfz2014czua  -0.06240
gfz2014dhxt   0.47510
gfz2014ekcr   0.15420
gfz2014enhi   0.19920
gfz2014femz  -0.13010
gfz2014fgvi  -0.15980
gfz2014fhla   0.74010
gfz2014fhlh   0.34090
gfz2014fkmr  -0.03580
gfz2014frdz  -0.79540
gfz2014frez   0.48740
gfz2014ftka   0.83020
gfz2014furx   0.61310
gfz2014fusj   1.29170
gfz2014fval  -0.69370
gfz2014ghpe   0.13900
gfz2014gkgf  -1.50750
gfz2014gkmm  -0.00780
gfz2014gkob  -0.44380
gfz2014gkqf  -0.25880
gfz2014gktq   1.09410
gfz2014glcu  -0.92470
gfz2014glvu  -2.52830
gfz2014gmge  -1.11550
gfz2014gmhr   0.18030
gfz2014gmnb  -0.11610
gfz2014gmnw   0.62450
gfz2014gmzl   1.51190
gfz2014goba   0.28190
gfz2014goqw   0.27180
gfz2014gori  -0.13110
gfz2014gpya   0.55300
gfz2014gqve   0.33030
gfz2014grcv  -1.51010
gfz2014gsqs  -0.91460
gfz2014gull  -0.28730
gfz2014gumd  -0.69870
gfz2014gvrd  -1.45670
gfz2014gwab   0.06140
gfz2014hasj   0.15010
gfz2014hauo   0.70330
gfz2014hbqb  -0.02320
gfz2014hgqo   0.91660
gfz2014hjgr   0.17560
gfz2014hocg   0.60900
gfz2014huaj  -0.18920
gfz2014hzfw   0.00950
gfz2014igur  -0.56600
gfz2014imnn   0.16120
gfz2014itkw   0.17270
gfz2014jjhc   0.36550
gfz2014jjln   0.47570
gfz2014jnyv  -0.27980
gfz2014jwmh  -0.11760
gfz2014khlk  -0.00620
gfz2014kjjq  -0.92010
gfz2014knxs   0.49830
gfz2014ksdv  -2.16440
gfz2014kyan   0.19570
gfz2014lefs  -0.92140
gfz2014lgqn   1.00200
gfz2014lxnc  -0.18230
gfz2014lyhk   0.36600
gfz2014macx   0.37700
gfz2014madw  -0.14990
gfz2014nowp  -0.40610
gfz2014npeo  -0.34330
gfz2014nphm   0.55310
gfz2014nqfm   0.14300
gfz2014nrie  -0.32900
gfz2014pkll   1.52470
gfz2014ppzf   0.04310
gfz2014pvch  -0.19910
gfz2014qdog  -0.03760
gfz2014qlxd   0.28120
gfz2014qngj   0.02870
gfz2014qqhm  -0.74020
gfz2014rdsn   0.61010
gfz2014xbyr  -2.18050
gfz2014xqqd   0.02240
gfz2014yhhm  -0.54520
gfz2015aruz  -0.32770
gfz2015berb   0.80270
gfz2015bkbj  -0.09140
gfz2015byfn  -0.38690
gfz2015byjd   1.27530
gfz2015chhn   0.58210
gfz2015cxhx  -0.56100
gfz2015cxxk   0.14170
gfz2015cyjd   0.68200
gfz2015dskr  -0.00000
gfz2015dvbn  -0.21260
gfz2015egxq  -0.15730
gfz2015elgy  -0.14930
gfz2015etai   0.05330
gfz2015fcua  -0.00000
gfz2015fjhk  -0.90600
gfz2015fkgt   0.00000
gfz2015fkic  -0.39860
gfz2015fkkd  -0.37270
gfz2015flis   0.08210
gfz2015fsjj   0.48160
gfz2015gckd  -0.22230
gfz2015gjbr  -0.03670
gfz2015gzja   0.96990
gfz2015ixyy   0.37110
gfz2015jkdw  -0.28650
gfz2015jwgl  -0.37340
gfz2015jxbx  -0.29140
gfz2015kakw   0.13620
gfz2015kkth  -1.14170
gfz2015ksni  -0.02590
gfz2015lhjy  -0.33790
gfz2015lytv  -1.48210
gfz2015lzad  -0.33360
gfz2015mddr   0.05780
gfz2015mpte  -0.35650
gfz2015nqgf   0.38000
gfz2015nuxz  -0.14540
gfz2015okmq   0.55970
gfz2015oyfl  -0.44810
gfz2015poni  -0.22780
gfz2015qnho  -0.47050
gfz2015quzo   3.02560
gfz2015rgov  -1.89770
gfz2015rgrg  -0.86090
gfz2015rkrg  -0.28300
gfz2015rkzg  -3.05060
gfz2015rpzn  -0.53410
gfz2015sfdd   0.14720
gfz2015sfdy  -0.58930
gfz2015sfga   0.75140
gfz2015sfho   0.85670
gfz2015sfhz  -1.10950
gfz2015sfiq   0.80730
gfz2015sflf  -0.31920
gfz2015sfnb  -0.56450
gfz2015sfno  -0.29520
gfz2015sfnv   0.36280
gfz2015sfoc   0.12180
gfz2015sfoq   0.77760
gfz2015sfps  -1.57030
gfz2015sfqo   0.23570
gfz2015sfqr   0.35520
gfz2015sfrf  -1.59510
gfz2015sfwf   0.23890
gfz2015sfzm   0.10060
gfz2015sgad   0.13130
gfz2015sgyd   0.94840
gfz2015shhg   0.57170
gfz2015shhu   0.43690
gfz2015shjn   0.10500
gfz2015shjo   0.00000
gfz2015shqe  -0.60050
gfz2015shrg   0.17200
gfz2015shsz   1.06070
gfz2015siky   0.32800
gfz2015sing  -0.34740
gfz2015sist   0.34410
gfz2015sitn   0.05740
gfz2015sjbx   0.12280
gfz2015sjfi   0.25530
gfz2015sjgk  -0.19520
gfz2015sjjb   0.16790
gfz2015sjne  -0.06370
gfz2015sjoj  -0.03840
gfz2015sjpn   0.10170
gfz2015sjvu   0.30870
gfz2015sjwi   0.42170
gfz2015sklu  -0.13630
gfz2015skuk  -0.92860
gfz2015skxu  -0.26980
gfz2015sldx   0.18090
gfz2015sljs   2.36020
gfz2015slun  -0.29030
gfz2015smym  -0.07440
gfz2015snmr   0.06320
gfz2015snsf  -0.21830
gfz2015snwh  -0.54250
gfz2015snyd  -0.30730
gfz2015soat  -0.12640
gfz2015soxc   0.29630
gfz2015srat  -0.22520
gfz2015svwm   0.06880
gfz2015sxmh  -1.62490
gfz2015szcb  -0.91240
gfz2015sztx   0.64060
gfz2015taml   1.01660
