# Nsamples: 56  MAD:  0.706  mean: -0.188  variance:  1.126
gfz2010bxxs  -0.93220
gfz2010eaoy  -1.88840
gfz2010earu   0.39330
gfz2010ebhc   0.04180
gfz2010ebnn  -2.08460
gfz2010eisx   0.00000
gfz2010eltf  -0.74680
gfz2010elyc   1.40110
gfz2010excp  -0.48470
gfz2010exdd  -2.44660
gfz2010ezck  -1.84360
gfz2010ffhq  -1.06780
gfz2010iull  -0.40370
gfz2011aatr   0.53240
gfz2011enva   1.30790
gfz2011gkzt   1.37940
gfz2011lcxq   0.11190
gfz2011lzwj  -0.66770
gfz2011mdie  -0.70580
gfz2011owvz   2.34490
gfz2011rewa   0.04790
gfz2011toub  -0.10920
gfz2011wxfs  -0.16240
gfz2012enno  -0.24900
gfz2012fzfa  -0.36350
gfz2012jlox  -0.48150
gfz2012kkup  -0.14600
gfz2012klhx   0.30370
gfz2012kudo  -0.07670
gfz2012ldxg   2.79640
gfz2012ttoa  -1.42190
gfz2012wxkg   2.06950
gfz2012wypz  -0.26940
gfz2013ccnr  -0.77190
gfz2013drxz   0.57290
gfz2013svci  -0.82350
gfz2013vjjc   1.85000
gfz2014fgvi  -1.61270
gfz2014frdz   0.53390
gfz2014ftka   0.91580
gfz2014gkgf  -0.53730
gfz2014gmhr  -1.19080
gfz2014hocg  -0.12080
gfz2014opqr  -0.43860
gfz2015berb   0.40620
gfz2015chhn  -0.28470
gfz2015cyjd   0.69410
gfz2015fsjj  -0.43250
gfz2015gckd   0.03520
gfz2015lhjy  -0.59940
gfz2015lytv  -0.35870
gfz2015sfdd  -1.06680
gfz2015smym  -0.38720
gfz2015snwh  -1.75100
gfz2015soxc  -0.35890
gfz2015svwm  -0.97690
