# Nsamples: 35  MAD:  0.615  mean: -0.142  variance:  0.856
gfz2010bjeb   0.82220
gfz2010eaoy   0.15760
gfz2010eltf  -0.19250
gfz2010ftlm  -0.81900
gfz2010grjd  -1.32990
gfz2010iull  -0.59670
gfz2010rqwj   2.68450
gfz2011csju  -0.96230
gfz2011hlqw   0.26520
gfz2011hlsa   0.00220
gfz2011lcxq  -0.22690
gfz2011lzwj  -0.22510
gfz2011mdie   0.45090
gfz2011owvz  -0.00560
gfz2011rewa  -0.00710
gfz2011toub   0.00440
gfz2011wxfs  -0.64170
gfz2012ttoa   0.73750
gfz2012wypz  -0.14990
gfz2013ccnr  -0.36470
gfz2013drxz   0.38270
gfz2013nkgj  -0.97560
gfz2013nwdi  -1.28600
gfz2013qmer  -1.44800
gfz2013svci  -0.40670
gfz2013vjjc   2.78660
gfz2014fgvi  -0.65410
gfz2014fhla   0.18010
gfz2014ftka  -0.52790
gfz2014lxnc  -1.64460
gfz2015cyjd   0.67910
gfz2015fsjj  -0.32510
gfz2015lhjy  -0.35760
gfz2015lytv  -0.71900
gfz2015mpte  -0.27440
