# Nsamples: 544  MAD:  0.568  mean:  0.221  variance:  0.589
gfz2010aerk  -0.55340
gfz2010ahqi   0.66570
gfz2010bxxs   0.44660
gfz2010caft  -0.20350
gfz2010cbkg   0.55350
gfz2010cqwl   0.19440
gfz2010czps   0.33920
gfz2010dlgc  -0.13870
gfz2010eaoy   0.01690
gfz2010eapn   0.13920
gfz2010eaqe   0.48040
gfz2010eaqx  -0.38170
gfz2010eaqy   0.67750
gfz2010earu  -1.10930
gfz2010easf   0.62440
gfz2010easo   0.06800
gfz2010easu   0.20520
gfz2010eati   0.48580
gfz2010eatt   0.06030
gfz2010eaty  -0.44550
gfz2010eavd  -0.84590
gfz2010eavp  -0.89040
gfz2010eavs   0.34460
gfz2010eawb   0.23590
gfz2010eawu  -0.58460
gfz2010eaxa  -0.70240
gfz2010eayp   0.70800
gfz2010eaze   0.19820
gfz2010eazu   0.08720
gfz2010ebbd   0.17420
gfz2010ebbx   0.13690
gfz2010ebby   1.09730
gfz2010ebdl   0.10390
gfz2010ebeh  -0.28670
gfz2010ebek   0.42230
gfz2010ebfa  -1.26010
gfz2010ebfx   0.01520
gfz2010ebgj   0.43300
gfz2010ebhc   0.46030
gfz2010ebih   0.36040
gfz2010ebin  -0.21960
gfz2010ebiv  -0.50910
gfz2010ebjy   0.26320
gfz2010ebkj  -0.09860
gfz2010ebll  -0.21450
gfz2010ebmb   0.29960
gfz2010ebmi   0.15400
gfz2010ebnn   0.13590
gfz2010ebsv   0.34720
gfz2010ebvv   0.69370
gfz2010ebwp   0.11210
gfz2010ebxl   0.43380
gfz2010ebzr  -0.08740
gfz2010ecam   0.67590
gfz2010ecay   2.09300
gfz2010ecbi   0.33690
gfz2010eced   1.29200
gfz2010echt   4.09190
gfz2010echy  -0.65250
gfz2010ecls  -0.83800
gfz2010ecns   0.20340
gfz2010ecpg   0.31760
gfz2010ecps  -1.06290
gfz2010ecsp   0.56770
gfz2010ecua  -0.13050
gfz2010ecvt   0.61990
gfz2010edad  -0.92260
gfz2010edat  -0.05030
gfz2010eday   0.71970
gfz2010edbz  -0.39120
gfz2010edcp   0.82590
gfz2010edde  -0.62000
gfz2010edhr   0.36650
gfz2010edim  -0.52470
gfz2010edkp   0.12330
gfz2010edpb  -0.70980
gfz2010edqh   0.78780
gfz2010edsy   0.85250
gfz2010edvf   0.10120
gfz2010edyi   0.36470
gfz2010eeij   0.81750
gfz2010eekq  -0.20590
gfz2010eell   0.63940
gfz2010eeng   0.65250
gfz2010eeqy  -0.68570
gfz2010eerh  -0.38170
gfz2010eern  -0.00970
gfz2010eesf  -0.33750
gfz2010eevu  -0.15250
gfz2010efnf   0.02170
gfz2010efsq   0.59420
gfz2010egap   1.00120
gfz2010egld  -0.72800
gfz2010egmp   0.03000
gfz2010egqh  -0.35230
gfz2010egsw  -0.17290
gfz2010ehaj  -0.48710
gfz2010ehft   0.18970
gfz2010ehsy  -0.11560
gfz2010eimf  -1.18790
gfz2010eiqi   0.70650
gfz2010eisx  -0.52280
gfz2010eixj  -0.07360
gfz2010ejae   0.08150
gfz2010ejjg   0.55260
gfz2010ejju  -0.65010
gfz2010ejka   0.30090
gfz2010ekoe   0.59770
gfz2010ekrv   0.09780
gfz2010ekyc  -0.16470
gfz2010elhv   0.14190
gfz2010elin  -1.32500
gfz2010eljf   0.61760
gfz2010eltf  -0.04290
gfz2010elvp   0.00380
gfz2010elyc  -0.42210
gfz2010elyo  -0.20390
gfz2010elzf  -0.08070
gfz2010encm  -0.09680
gfz2010eoao  -0.92670
gfz2010epbe   0.57910
gfz2010epud   0.56750
gfz2010epxj  -0.00000
gfz2010eqcn   0.16360
gfz2010eqjg   0.27800
gfz2010eqmu  -0.14700
gfz2010eqwl   0.60060
gfz2010erdi   0.53720
gfz2010erom   0.10740
gfz2010erum   0.23810
gfz2010eruy  -0.18910
gfz2010erwn   0.44770
gfz2010eryg   0.70520
gfz2010esid  -0.15850
gfz2010euan  -0.23110
gfz2010eujm  -0.10890
gfz2010euwb   1.34900
gfz2010evco   1.28650
gfz2010evkd   0.07740
gfz2010ewvc   0.33370
gfz2010ewyu   0.18440
gfz2010excp   0.09190
gfz2010exdd  -0.87610
gfz2010exdl   0.20180
gfz2010exed  -0.92530
gfz2010exel  -0.08760
gfz2010exgb   0.37820
gfz2010exhd  -0.55150
gfz2010exhw  -1.32590
gfz2010exjw  -0.36340
gfz2010exlm   0.78970
gfz2010exmc   0.28610
gfz2010exno   0.00000
gfz2010exou  -0.23110
gfz2010exqu  -0.21150
gfz2010exsg  -0.30530
gfz2010exyp  -0.45520
gfz2010eyaz   0.66160
gfz2010eyhh  -0.10050
gfz2010eyiv   0.30740
gfz2010eymr   1.19580
gfz2010eyxe   0.27340
gfz2010ezax  -0.25270
gfz2010ezck   0.26360
gfz2010ezjk   0.09270
gfz2010ezvg  -0.19040
gfz2010ezvt   0.58690
gfz2010ezwz  -0.12440
gfz2010ezxd   0.00990
gfz2010falm  -0.17200
gfz2010fauz  -0.49010
gfz2010faxg   0.21900
gfz2010fbpi  -0.11870
gfz2010fcax   0.28260
gfz2010fciw  -0.98380
gfz2010fcnn  -0.33640
gfz2010fcnt  -0.77650
gfz2010fcxy  -1.50140
gfz2010fcyj   0.26130
gfz2010fczt  -0.83280
gfz2010fedq  -0.05740
gfz2010ffhq   0.51020
gfz2010ffjb   0.09570
gfz2010figq  -0.44280
gfz2010fihj   2.56520
gfz2010fika  -0.48280
gfz2010fixr   0.75500
gfz2010fjal   0.07090
gfz2010fkhd   0.13570
gfz2010fkvg   0.92830
gfz2010flha   0.21360
gfz2010flrt   0.28620
gfz2010flxi  -0.17550
gfz2010fmhb   0.93060
gfz2010fmpy   0.03500
gfz2010fneu  -0.15330
gfz2010fnrk  -0.95420
gfz2010fpqy   0.52930
gfz2010fqdu   1.99130
gfz2010fser   1.90190
gfz2010fupn   0.22530
gfz2010fuwa   0.18780
gfz2010fwpv  -0.57870
gfz2010fwzd  -0.53840
gfz2010fyen   0.43290
gfz2010fync   0.88720
gfz2010fzoi  -1.40620
gfz2010gcrl  -0.30220
gfz2010gcrp  -0.44310
gfz2010gdld  -0.23350
gfz2010ghyk   0.38610
gfz2010gjia   0.66330
gfz2010gjvo   0.62780
gfz2010grjd   1.14970
gfz2010gzxr   0.52920
gfz2010hbka  -0.33710
gfz2010hcio   0.48990
gfz2010hlco  -0.19500
gfz2010hllj   0.53170
gfz2010hlln  -0.54950
gfz2010hlmq  -0.76720
gfz2010hmhm   0.40800
gfz2010hnnf  -0.37380
gfz2010hnpi   0.07070
gfz2010hptz   0.44670
gfz2010hrpr  -0.84180
gfz2010hxgv  -0.24680
gfz2010izzj   0.72470
gfz2010jucj   0.01690
gfz2010jxbm   0.12520
gfz2010kdyc   0.03790
gfz2010kihf   0.48400
gfz2010kmgg   0.31820
gfz2010lluj   0.86190
gfz2010lyfk  -0.26280
gfz2010mgss   0.15880
gfz2010miqn  -0.64740
gfz2010mkuu   0.33620
gfz2010mncc   0.06430
gfz2010mpuy   0.71450
gfz2010ncrl  -0.19630
gfz2010nfsj   2.66310
gfz2010nmpc  -0.51020
gfz2010nqwf   0.28610
gfz2010nqwo  -0.08720
gfz2010nrjo  -0.06200
gfz2010nsck   0.67660
gfz2010nwef  -0.13620
gfz2010nxsy  -0.29900
gfz2010nxum  -0.22890
gfz2010ocxq  -0.54030
gfz2010odpb  -0.36480
gfz2010onma  -0.42870
gfz2010phvg   0.62210
gfz2010pmqd  -0.74700
gfz2010pxgh   0.67110
gfz2010qwwx  -0.28380
gfz2010rhas   3.00450
gfz2010rqwj  -1.22770
gfz2010rxjw   0.46860
gfz2010rywq   0.59350
gfz2010sfee   0.04930
gfz2010skqo   0.73080
gfz2010skve   0.44390
gfz2010srdb   0.12810
gfz2010svtn  -0.22060
gfz2010sxwt   1.26350
gfz2010szim   0.32030
gfz2010tcbr   0.21560
gfz2010tcrl   1.16960
gfz2010upfb   0.63140
gfz2010usho  -0.11120
gfz2010ustq   0.14510
gfz2010utcg  -0.30610
gfz2010utmc   0.07880
gfz2010uyhb   1.28050
gfz2010vhuj   0.11110
gfz2010vxvs   0.23470
gfz2010wrxx   0.18120
gfz2010xden   0.67220
gfz2010xgzw   0.09460
gfz2010xjsj  -0.35800
gfz2010xxzn   1.75410
gfz2010yjev   0.50560
gfz2010ymur   2.38240
gfz2010yosr   0.04400
gfz2011bhha  -1.04390
gfz2011blsi  -0.03870
gfz2011ccpw   0.29090
gfz2011cfae   0.30400
gfz2011cndo  -0.13440
gfz2011csju   0.25140
gfz2011cvcg   0.66960
gfz2011cykd  -2.46960
gfz2011cyre   0.62300
gfz2011cyuk  -0.06660
gfz2011dbev  -0.21650
gfz2011dbig  -0.03300
gfz2011dbon   0.37020
gfz2011dcqb  -0.44370
gfz2011deaf   2.91970
gfz2011dkyi   0.20910
gfz2011dpqx   1.55790
gfz2011eayc   0.00480
gfz2011ecaj  -0.09780
gfz2011ehzq  -0.13930
gfz2011ekpr  -0.67190
gfz2011enva  -0.11160
gfz2011hbex   2.22380
gfz2011hebt  -0.69220
gfz2011hfkj   0.27100
gfz2011hlqw   0.34340
gfz2011hlsa   0.46940
gfz2011hlth   0.73140
gfz2011hpgx  -0.05990
gfz2011hpqp   0.18890
gfz2011hvbu   0.77850
gfz2011ieie   0.39710
gfz2011iwte  -0.62700
gfz2011izqa   0.21100
gfz2011jplh   0.73170
gfz2011jtlg   0.46040
gfz2011kqwo  -0.24960
gfz2011kqyg   0.80330
gfz2011kwid  -0.12460
gfz2011kwjx   0.40480
gfz2011kxzp   0.14800
gfz2011lcxq   3.15350
gfz2011lzwj   0.50500
gfz2011mdie   1.00660
gfz2011mpme   0.55960
gfz2011nmnq  -0.27420
gfz2011nrwc   1.57950
gfz2011nrwv  -0.39730
gfz2011nudm  -0.34140
gfz2011ogqk   0.35980
gfz2011ohcy   0.31580
gfz2011oiqe  -0.58640
gfz2011oiwk   0.76780
gfz2011olkk   0.47470
gfz2011orgn  -0.20820
gfz2011ornx  -0.07350
gfz2011owvz   1.03770
gfz2011pccd  -0.55680
gfz2011toub   1.45460
gfz2011tpbl  -0.07700
gfz2011tsfd   0.27370
gfz2011ueni   0.17340
gfz2011ujze   0.56730
gfz2011ukmp  -0.71870
gfz2011uphh   0.31560
gfz2011urxy   0.90640
gfz2011vhfi   0.68650
gfz2011vnza  -0.07250
gfz2011vrhg   0.22830
gfz2011vxns  -0.99090
gfz2011vxxg   0.13860
gfz2011wcic  -0.45810
gfz2011wwjs   0.48150
gfz2011wxfs   1.14980
gfz2011wxtk  -2.89330
gfz2011wype  -0.25670
gfz2011xcpv   0.92970
gfz2011xyxj   0.63850
gfz2011yhwz  -0.90470
gfz2011zqhh   1.62220
gfz2012ajtq   0.19330
gfz2012aqgp  -0.25680
gfz2012bfah  -0.26460
gfz2012bfyn  -0.96440
gfz2012bpkx   0.39100
gfz2012cqnl   1.43340
gfz2012cxdn   0.12670
gfz2012deri  -0.16780
gfz2012djwi  -0.74880
gfz2012ekda  -0.62430
gfz2012enno   1.36560
gfz2012ezvr  -0.08830
gfz2012fbfo  -0.93730
gfz2012foeo  -0.39260
gfz2012gwqb   0.01440
gfz2012hnul  -0.20850
gfz2012ihdl   0.44130
gfz2012ilvn  -0.07080
gfz2012imay  -0.06560
gfz2012jgvj   1.00260
gfz2012jjzc   0.11140
gfz2012jlox   0.63170
gfz2012jshk   1.06720
gfz2012jupx   1.30000
gfz2012keor  -0.16930
gfz2012kkup   0.62250
gfz2012klhx   0.94320
gfz2012kuct   1.02540
gfz2012kudo   0.72120
gfz2012lczo   0.42550
gfz2012ldxg   2.00140
gfz2012ldzj  -0.35830
gfz2012lxkv  -0.75800
gfz2012minr   2.39460
gfz2012mvwr   1.87310
gfz2012mwij   1.10240
gfz2012naqz  -0.39140
gfz2012nedn  -0.70860
gfz2012nkdf   0.56050
gfz2012omvo   1.18120
gfz2012rats  -0.32720
gfz2012repv   0.24040
gfz2012syvl   0.32900
gfz2012teic   1.39860
gfz2012ttoa   0.61860
gfz2012tvmv   0.77420
gfz2012uafg   1.30130
gfz2012uaqj   0.94030
gfz2012uhup   0.52560
gfz2012vrgb   1.98290
gfz2012wrir  -0.18250
gfz2012wxer  -0.32100
gfz2012wxlg  -0.17050
gfz2012wxnu  -0.83880
gfz2012wypz   1.20310
gfz2012zfag   0.90890
gfz2012zitl  -0.32260
gfz2012zjpv   2.98900
gfz2013apmm  -0.27330
gfz2013ccnr   0.99850
gfz2013cwpn   0.08270
gfz2013cwps  -0.10180
gfz2013dkly   0.09830
gfz2013dofo   0.65750
gfz2013drxz   0.52960
gfz2013dsrk   1.30690
gfz2013dvyh  -1.12000
gfz2013fiud   0.98590
gfz2013fkii   0.08560
gfz2013gcfx   0.26090
gfz2013gdnq   0.94620
gfz2013goux  -0.22100
gfz2013hisv   1.01540
gfz2013ifpq   0.71650
gfz2013jkut   2.13900
gfz2013jokw   0.03730
gfz2013jusj   2.49320
gfz2013kdeo   1.99090
gfz2013ldpc   0.15400
gfz2013ldqb   0.35910
gfz2013lyko   0.15000
gfz2013mqmv   2.17660
gfz2013mwbh  -0.41980
gfz2013ncjp   0.07620
gfz2013ndin  -0.04490
gfz2013nkgj   0.45300
gfz2013nmac  -0.76960
gfz2013nqgw   0.94360
gfz2013nwdi   1.84270
gfz2013pfeb  -0.34300
gfz2013pxsj  -0.50010
gfz2013qali   0.14430
gfz2013qmer   0.12110
gfz2013qzdq   0.49400
gfz2013sdus   1.53780
gfz2013shzy   0.51140
gfz2013suvn   0.16150
gfz2013svci   1.17310
gfz2013tcxc  -0.82840
gfz2013tvmw  -0.16460
gfz2013txtb  -0.84570
gfz2013tyas   0.25840
gfz2013uauo   0.84510
gfz2013uqsp   0.39040
gfz2013vexx   2.01010
gfz2013vfyw   0.62440
gfz2013vfzp   0.73860
gfz2013viul   1.04370
gfz2013vjjc  -0.07580
gfz2013wjmm   0.84050
gfz2013xsdt   0.56790
gfz2013xvqd   0.68930
gfz2013yctg  -0.08740
gfz2013zmoc  -0.09220
gfz2014afmx   0.51630
gfz2014ajlk   0.30770
gfz2014algk   0.53160
gfz2014ande   0.06080
gfz2014arpf   0.74320
gfz2014bagd   0.87420
gfz2014bwue   1.20620
gfz2014bzxy   0.12580
gfz2014cbtl  -0.02790
gfz2014cgog  -0.56860
gfz2014chdv   1.25370
gfz2014claq  -0.81720
gfz2014cvkm  -0.24690
gfz2014cvxx  -0.03390
gfz2014czqi   0.21620
gfz2014czua  -0.00000
gfz2014dhxt  -0.11610
gfz2014duqn   0.20200
gfz2014edfx  -0.54490
gfz2014eght   0.13540
gfz2014ehsf   0.42930
gfz2014ekcr   0.59540
gfz2014ekdt   0.00000
gfz2014enhi   0.23090
gfz2014eqpl   1.13360
gfz2014etqa  -0.03110
gfz2014femz  -0.48590
gfz2014fgvi   0.24780
gfz2014fhdw   0.24850
gfz2014fhla   0.08300
gfz2014jnyv   0.10910
gfz2014jpep   0.52830
gfz2014jwmh  -0.01370
gfz2014khlk   0.36680
gfz2014knks   0.06590
gfz2014knxs  -0.08680
gfz2014kwrg   0.45270
gfz2014kyan  -0.22630
gfz2014lddn   1.13710
gfz2014lefs  -0.05720
gfz2014lpim   0.51460
gfz2014nowp  -0.70690
gfz2014npdk  -0.60430
gfz2014npeo  -0.17060
gfz2014nqfm   0.48320
gfz2014nrie   2.00540
gfz2014oinz   0.35930
gfz2014oyly  -2.54890
gfz2014pkll  -0.31070
gfz2014pvch  -0.06270
gfz2014qlxd   0.24250
gfz2014qngj  -0.15030
gfz2014qqhm   1.97510
gfz2014riel  -0.16900
gfz2014ubwn   0.06330
gfz2014vhms   1.64590
gfz2014vjoz   0.61380
gfz2014watn   0.23530
gfz2014wjko   1.55260
gfz2014wqcp  -1.73260
gfz2014wwib  -0.14840
gfz2014yhhm   0.17170
gfz2015bsnl  -0.04870
gfz2015byfn   0.07830
