# Nsamples: 25  MAD:  1.194  mean:  0.865  variance:  3.399
gfz2010eaoy   0.98830
gfz2010earq  -3.54980
gfz2010earu   0.58170
gfz2010eavs   0.77320
gfz2010eaxa   0.58020
gfz2010eisx   3.94870
gfz2010eltf   3.66540
gfz2010elyc  -1.66460
gfz2010excp  -1.43190
gfz2010exdd   0.17760
gfz2010ezck  -0.21730
gfz2010ffhq   0.74960
gfz2010glxl   0.77680
gfz2010rqwj   3.13730
gfz2010upfb  -0.44620
gfz2011adjs  -0.22370
gfz2011cykd   3.20290
gfz2011dcqb   3.30330
gfz2011kqwo   1.26070
gfz2011kxzp  -0.57930
gfz2013jusj   4.07390
gfz2013vjjc   1.89340
gfz2015sfdd   0.45310
gfz2015snwh  -0.19290
gfz2015soxc   0.36250
