# Nsamples: 20  MAD:  1.213  mean:  0.648  variance:  1.496
gfz2010eaoy  -0.80980
gfz2010earu   0.41150
gfz2010eavs   1.50800
gfz2010eisx   2.51420
gfz2010eltf   0.40320
gfz2010elyc  -1.83340
gfz2010excp   0.02010
gfz2010exdd   0.92710
gfz2010fedq   2.96730
gfz2010fihj   1.35030
gfz2010rqwj  -0.28560
gfz2011adjs   0.67000
gfz2013jusj   0.73380
gfz2013vjjc   1.67530
gfz2014jcjt   0.38350
gfz2014tute   0.32510
gfz2015enth   2.14930
gfz2015gzja   1.45040
gfz2015sfdy  -1.73650
gfz2015svwm   0.12760
