# Nsamples: 334  MAD:  0.427  mean:  0.058  variance:  0.319
gfz2012sphd   0.62280
gfz2012thfx  -0.34350
gfz2012tvmv  -0.26270
gfz2012tzcc   0.22800
gfz2012uafg   0.25180
gfz2012uaqj   0.12570
gfz2012uciv   0.07460
gfz2012uhup   0.04030
gfz2012uxnz   0.44610
gfz2012uzom  -0.80860
gfz2012uzyj   0.71440
gfz2012vdbt   1.04090
gfz2012vrgb  -0.12310
gfz2012wklq   0.27460
gfz2012wmkd   0.16440
gfz2012wmsg   0.52680
gfz2012wtkh   0.63460
gfz2012wtkr   0.52430
gfz2012wubh  -0.16330
gfz2012wvfl  -0.55770
gfz2012wxlg   0.05560
gfz2012wypz   0.63690
gfz2012xwqa   0.51470
gfz2012yfrp   0.59260
gfz2012yzod   0.70550
gfz2012zemz   0.60620
gfz2012zmbp  -0.09030
gfz2012zmln  -0.31530
gfz2013aahq  -0.07690
gfz2013adey  -0.30310
gfz2013aeee   0.41450
gfz2013apmm   0.01780
gfz2013bnxc   0.51630
gfz2013bobq   0.06540
gfz2013btjm   0.00000
gfz2013ccnr   0.06370
gfz2013cdan  -0.39650
gfz2013cwps  -0.09650
gfz2013enbx   0.21290
gfz2013fiud  -0.14230
gfz2013fkii   0.13850
gfz2013flox  -0.72310
gfz2013fygc   0.46090
gfz2013gbst   0.26840
gfz2013gcfx   0.44530
gfz2013gdnq  -0.03220
gfz2013gelv   1.19800
gfz2013gngz   0.38470
gfz2013hfmp  -0.07050
gfz2013hmbc   0.22230
gfz2013hzdp   1.51450
gfz2013idbb   0.22280
gfz2013ihcj   0.56690
gfz2013ikgo   0.43620
gfz2013ilug  -0.02310
gfz2013iodt   0.61280
gfz2013iunn  -0.02580
gfz2013iyqz  -0.05890
gfz2013jdrx   0.32660
gfz2013jgip  -0.19730
gfz2013jjsi  -0.49170
gfz2013jkut   0.67600
gfz2013jlst  -0.25920
gfz2013jokw  -0.40100
gfz2013jusj  -1.22320
gfz2013kvtk  -0.79830
gfz2013kweg   0.34980
gfz2013lajn  -0.20700
gfz2013ldos  -0.69320
gfz2013lgnl  -0.29960
gfz2013lgxc  -0.30530
gfz2013lsob   1.45910
gfz2013lwao  -0.26330
gfz2013lwbk   0.80690
gfz2013lxyn   0.01610
gfz2013mvgr   0.38170
gfz2013nknw  -0.14470
gfz2013nlxz  -0.48120
gfz2013nnzf   0.53650
gfz2013nojf  -0.10440
gfz2013nwdi   0.42900
gfz2013oqsc  -0.13640
gfz2013orzn   0.03970
gfz2013ozqm  -0.59140
gfz2013pcos  -0.18020
gfz2013pfbx   0.70380
gfz2013pffm   0.86880
gfz2013puag  -0.01780
gfz2013pupd   0.15370
gfz2013pxsj   0.01370
gfz2013qmer  -0.11320
gfz2013rrza   0.27650
gfz2013saez   0.01510
gfz2013scai  -0.49160
gfz2013sdus   0.24920
gfz2013shlq  -1.33200
gfz2013shzy  -0.97490
gfz2013sjhg  -1.35660
gfz2013skkm  -0.32760
gfz2013snbr   0.08900
gfz2013sred   0.14340
gfz2013svci  -0.07400
gfz2013svqv   0.22930
gfz2013tdkk   0.32370
gfz2013toea   0.01920
gfz2013tqbb   0.45130
gfz2013tusd   0.14780
gfz2013tuzv   0.02690
gfz2013twwf   0.06970
gfz2013txtb  -0.36670
gfz2013tyas  -0.20840
gfz2013ufku  -0.19390
gfz2013ufxm   1.21120
gfz2013uqsp   0.23540
gfz2013vdic  -0.58320
gfz2013vfyw   0.10160
gfz2013vfzp   0.97740
gfz2013vgev  -0.42550
gfz2013vgpf   0.76330
gfz2013vgrk   0.00950
gfz2013vhnk   0.48850
gfz2013vhzu  -0.14780
gfz2013viul  -0.82190
gfz2013vjfe  -1.52690
gfz2013vjjc  -1.98330
gfz2013vsbl   0.19820
gfz2013vvjh  -0.29430
gfz2013walq  -0.49060
gfz2013wbyr  -1.82200
gfz2013wjmm  -0.30410
gfz2013wqhq  -2.26360
gfz2013wtzl   0.31260
gfz2013wuon   0.49280
gfz2013xmul   0.12290
gfz2013xsdt   0.23530
gfz2013xtwj   0.72500
gfz2013xvqd   0.69020
gfz2013xwxn   0.59790
gfz2013xwzd  -0.46670
gfz2013xxcc   1.22810
gfz2013xxwv  -0.08480
gfz2013xxxq  -0.09450
gfz2013xyzb   0.09800
gfz2013xzcg  -0.19360
gfz2013yaig   0.41820
gfz2013yhpk  -0.14300
gfz2013ylbx  -0.64630
gfz2013ypdc   0.31940
gfz2013yyti  -0.41640
gfz2014aawc  -0.21090
gfz2014adoj   0.33390
gfz2014agyz  -0.50430
gfz2014alwz   0.05980
gfz2014aqbk   0.31120
gfz2014arpf  -0.58350
gfz2014atbl   1.10590
gfz2014atgw  -0.15500
gfz2014bekc   0.34220
gfz2014bfqo  -0.00000
gfz2014bhhv   1.22290
gfz2014bjgt   0.03320
gfz2014bldx   0.62790
gfz2014bmfv   0.24860
gfz2014cbtl  -0.68570
gfz2014cgog  -0.11400
gfz2014cqyo   0.15730
gfz2014cvkm  -0.41210
gfz2014czua  -0.43050
gfz2014dcdy  -0.06260
gfz2014dddc  -0.71410
gfz2014dhxt  -0.14710
gfz2014disp   0.77930
gfz2014ebmc  -0.03340
gfz2014ejmt  -0.23650
gfz2014ekdn   0.39220
gfz2014ekdt  -0.09240
gfz2014enhi  -0.18050
gfz2014etqa  -0.06080
gfz2014ffdc  -0.55860
gfz2014fgvi   1.03490
gfz2014fgvz   1.76140
gfz2014fhla   0.64530
gfz2014fjzd   1.22180
gfz2014foio  -0.11740
gfz2014frdz  -0.64430
gfz2014frel   0.54660
gfz2014ftoc   1.32800
gfz2014ftpw   0.50730
gfz2014fvaa  -1.27040
gfz2014fxhd  -0.13050
gfz2014hyal  -1.35590
gfz2014hyvq   0.88810
gfz2014hzdy   0.25950
gfz2014hzfw   0.27850
gfz2014hzgn  -0.44640
gfz2014hzhe   0.46640
gfz2014icqt  -0.03810
gfz2014ieam   0.53460
gfz2014igur  -0.08400
gfz2014ilwu   0.18620
gfz2014immt  -0.02630
gfz2014inbj  -0.01660
gfz2014iobd   0.11910
gfz2014issk   0.81820
gfz2014isys  -0.20150
gfz2014itpj   1.29920
gfz2014iwnf  -0.24450
gfz2014nylm  -0.19590
gfz2014qbzi   0.30640
gfz2014qcxs  -0.12330
gfz2014qdog   0.54030
gfz2014raau  -0.03900
gfz2014rbpx  -0.55460
gfz2014rbsl   0.57990
gfz2014rfeb   0.03920
gfz2014rghp  -0.19970
gfz2014rils  -0.36770
gfz2014roba  -0.07950
gfz2014ryfb  -0.08150
gfz2014szzf  -0.11140
gfz2014tute  -0.47950
gfz2014uvji  -0.78990
gfz2014uvrk   0.20680
gfz2014wrkh   1.22580
gfz2014yula   1.01630
gfz2015azzp  -0.22100
gfz2015bohx   0.27120
gfz2015byfn   0.36360
gfz2015byjd  -0.84770
gfz2015chhn  -0.09240
gfz2015elgy   0.41350
gfz2015eljz   0.03720
gfz2015emin  -0.05680
gfz2015enth  -0.04920
gfz2015etai   0.09850
gfz2015fcua   0.47750
gfz2015fjhk   0.62010
gfz2015fkgt   0.38160
gfz2015fsjj   1.40810
gfz2015fwkq   1.13610
gfz2015gkwa  -0.08530
gfz2015guhd  -0.43270
gfz2015gwao   0.64800
gfz2015gzja  -1.27160
gfz2015hepg  -0.16010
gfz2015hgbk   0.57500
gfz2015jmlu  -0.31600
gfz2015kfsu   0.47740
gfz2015kxxs   1.10840
gfz2015lhjy   0.62790
gfz2015lytv  -1.04640
gfz2015mhym  -0.72940
gfz2015ocdz   0.05030
gfz2015ofsr   0.06290
gfz2015ojut   0.04940
gfz2015opjp  -0.08320
gfz2015pdri  -0.06800
gfz2015pgxa  -0.09240
gfz2015pjgr   0.02430
gfz2015poni  -0.11830
gfz2015qisx   0.40250
gfz2015qnho   0.27160
gfz2015qpvd   0.67020
gfz2015sfdd   0.31510
gfz2015sfdl   0.43560
gfz2015sfdv  -0.14400
gfz2015sfeo  -0.17520
gfz2015sfkh  -0.45810
gfz2015sfko  -0.42640
gfz2015sfno  -0.57140
gfz2015sfnv  -0.04980
gfz2015sfoh  -0.10250
gfz2015sfoq  -0.02060
gfz2015sfpj  -0.93850
gfz2015sfps   0.32400
gfz2015sfrc  -0.03310
gfz2015sfrf  -0.05390
gfz2015sfrv  -1.05040
gfz2015sfte   0.18090
gfz2015sftu   0.07990
gfz2015sfuz  -0.33390
gfz2015sfwf  -0.12070
gfz2015sfzm  -0.38880
gfz2015sgdj  -0.19280
gfz2015sgdn   0.05480
gfz2015sgey  -0.07310
gfz2015sggc   0.04580
gfz2015sghq  -0.30030
gfz2015sgie   0.06190
gfz2015sglg  -0.13020
gfz2015sgmm   0.18480
gfz2015sgmr  -0.02920
gfz2015sgoa  -0.29800
gfz2015sgpu   0.00000
gfz2015sgyd   0.26200
gfz2015shel  -0.02290
gfz2015shhg  -0.02280
gfz2015shov   1.40510
gfz2015shqc  -0.60820
gfz2015shsz   0.49540
gfz2015sicu   0.21450
gfz2015siem   0.05220
gfz2015sixs  -0.01580
gfz2015siyy   0.17580
gfz2015sjbx  -0.35750
gfz2015sjoj  -0.19340
gfz2015sjtz  -0.11560
gfz2015sjwi  -0.89440
gfz2015skab   0.58930
gfz2015skhf   0.95850
gfz2015skia   0.27160
gfz2015sklu   0.50830
gfz2015snwh  -0.07650
gfz2015sopc   0.02460
gfz2015soxc   0.20340
gfz2015spal   0.36720
gfz2015sqmy   0.22700
gfz2015sqvx   0.15970
gfz2015sqwv   0.10200
gfz2015sqyh  -0.28160
gfz2015srat  -0.06590
gfz2015srgf  -0.05730
gfz2015srxe   1.44940
gfz2015srxm  -0.25950
gfz2015ssoe   0.11380
gfz2015ssrl   0.08800
gfz2015stcv   0.46850
gfz2015stso   0.46360
gfz2015subg  -1.54500
gfz2015supa   0.64140
gfz2015svwm   0.35760
gfz2015sxgd  -0.14370
gfz2015sxmh   0.27720
gfz2015szcb   0.08720
