# Nsamples: 1145  MAD:  1.137  mean:  0.815  variance:  1.290
gfz2012mkpn   1.26440
gfz2012mlyf   1.64640
gfz2012mofm   1.53850
gfz2012mpyl  -0.37200
gfz2012mtiu  -0.23700
gfz2012nben  -0.57080
gfz2012nedn   1.98490
gfz2012nzpz   0.26830
gfz2012obgw   3.33060
gfz2012obnq  -5.30810
gfz2012oedb   0.17390
gfz2012ofpe   0.31090
gfz2012okhx   0.78540
gfz2012omvo  -0.39490
gfz2012oqmw  -0.36530
gfz2012wmkd   2.73640
gfz2012wmsg   1.27310
gfz2012wpeq   1.37630
gfz2012wqnc   1.12940
gfz2012wrir   1.58310
gfz2012wtkh   1.54300
gfz2012wubh   0.65600
gfz2012wvfl   0.20210
gfz2012wxer  -0.31850
gfz2012wxkg   0.11540
gfz2012wxnu  -0.59720
gfz2012wybs   0.30280
gfz2012wypz   0.50570
gfz2012xbjq   0.04550
gfz2012xcgk  -0.94640
gfz2012xpmm  -0.40240
gfz2012xslk   0.87510
gfz2012xssa   1.20740
gfz2012xvwn  -0.43840
gfz2012xwqa   1.72280
gfz2012xyqp   0.51540
gfz2012xyua  -0.08460
gfz2012yfrp   2.84560
gfz2012yldu   0.59740
gfz2012yoie  -0.06730
gfz2012yqjj  -0.90240
gfz2012yxxu   1.22110
gfz2012zemh   3.20250
gfz2012zfag   0.18450
gfz2012zhmb  -0.87080
gfz2012ziml   0.07310
gfz2012zjpv   1.23810
gfz2012zklq  -0.63040
gfz2012zmln   1.11860
gfz2013akgj   1.35370
gfz2013aknp  -0.35260
gfz2013apmm   1.01110
gfz2013axoj  -0.11150
gfz2013biji   0.06670
gfz2013bobq   0.04970
gfz2013bouj   2.60300
gfz2013btjm  -0.09750
gfz2013ccnr   2.20870
gfz2013cdan   0.37350
gfz2013cfyy  -0.21200
gfz2013ciaf   0.72510
gfz2013cnhh  -0.64180
gfz2013cnve  -0.03220
gfz2013comh  -0.53170
gfz2013cwpn   1.55380
gfz2013cwps   1.37770
gfz2013czeq   0.55760
gfz2013ddbh   0.47980
gfz2013dddp   0.09670
gfz2013dfhb   0.69300
gfz2013dnnx  -0.03610
gfz2013dofo  -0.08870
gfz2013dojq   0.41340
gfz2013dqls  -0.06010
gfz2013drpk  -0.37670
gfz2013drxz   2.12800
gfz2013dsog   1.79630
gfz2013dspt  -0.99210
gfz2013dujm   2.11440
gfz2013dvye   2.07700
gfz2013dvyh   0.01890
gfz2013dyop   0.46430
gfz2013enbx   1.78510
gfz2013esnh  -0.59510
gfz2013eswe  -0.35510
gfz2013eulz   0.78640
gfz2013fcto   2.17940
gfz2013fdoo  -0.21940
gfz2013fdwq  -0.30870
gfz2013feep   1.60350
gfz2013ffko  -0.28940
gfz2013figy   0.32280
gfz2013fiud   0.34480
gfz2013fkcl   1.78760
gfz2013fkii  -0.26470
gfz2013flox   0.99560
gfz2013fnzr  -0.89180
gfz2013ftso   2.07020
gfz2013fwxa   0.21070
gfz2013fxge   0.92820
gfz2013fygc   0.40200
gfz2013gaie   2.42420
gfz2013gbcn   0.10760
gfz2013gbst   0.76080
gfz2013gcfx   1.97610
gfz2013gdgf   0.52750
gfz2013geno  -0.52420
gfz2013ggtf   1.20450
gfz2013gjdc  -0.19000
gfz2013glcr  -0.68950
gfz2013gmor   0.34010
gfz2013gngz   0.62590
gfz2013gnse   0.54150
gfz2013gock  -0.28860
gfz2013govy   0.01970
gfz2013gras   1.21600
gfz2013gvdb   2.02060
gfz2013gvet   0.36030
gfz2013gvex   0.55270
gfz2013gvxh   0.06590
gfz2013gwrd   2.26290
gfz2013gxsu  -0.80660
gfz2013hbkh  -0.38500
gfz2013hfmp   0.73810
gfz2013hisv   1.46890
gfz2013hkja  -0.76450
gfz2013hklr   2.32620
gfz2013hlbe  -0.60740
gfz2013hmbc  -0.87150
gfz2013hpfq  -0.18740
gfz2013hudi   0.72640
gfz2013hxcx  -0.18180
gfz2013iapa   0.21340
gfz2013iayx   0.08030
gfz2013icfh  -0.48660
gfz2013idbb   0.52750
gfz2013iexo  -0.26800
gfz2013ifpq   0.66680
gfz2013igmx   0.33310
gfz2013ihcj   0.19730
gfz2013ijsr  -0.87510
gfz2013ikgo  -0.48570
gfz2013inux   0.80890
gfz2013iodt   0.27720
gfz2013iqzq  -0.13950
gfz2013itsu  -0.01210
gfz2013iunn   0.24590
gfz2013iynu   1.14820
gfz2013iyqz  -0.24920
gfz2013jarl  -0.41110
gfz2013jdrx   2.11720
gfz2013jesk  -3.05240
gfz2013jfah   2.17080
gfz2013jgij   0.39900
gfz2013jgip  -2.90760
gfz2013jjsi  -0.17830
gfz2013jkut   1.56570
gfz2013jlst  -2.21610
gfz2013jmcc   0.72800
gfz2013jokw   1.33440
gfz2013json   4.16060
gfz2013jusj   0.65360
gfz2013jwcn  -0.05460
gfz2013jxoi   0.17040
gfz2013kdeo   0.36800
gfz2013kgmj  -0.46090
gfz2013kheb  -2.87920
gfz2013khli  -0.34370
gfz2013kilx  -0.06510
gfz2013kkzr  -0.56430
gfz2013kqln   2.05570
gfz2013krei  -1.36730
gfz2013kvtk  -1.22420
gfz2013kweg   0.26170
gfz2013kwps  -0.40730
gfz2013lajg   1.81110
gfz2013lajn   0.36970
gfz2013lbiu   0.39020
gfz2013ldpc   0.20930
gfz2013ldqb  -0.06390
gfz2013lgbb  -0.23330
gfz2013lgxc   0.32290
gfz2013lixa  -0.10060
gfz2013lljw   1.01230
gfz2013lmdy   0.54500
gfz2013lmqe   1.97410
gfz2013lmrs  -0.16840
gfz2013lsob   2.37640
gfz2013lupg   2.06600
gfz2013lwao   0.78050
gfz2013lwbk   0.40190
gfz2013lxyn   1.58960
gfz2013lyko  -0.32640
gfz2013lznu   0.64150
gfz2013malg   1.33040
gfz2013mded  -0.42420
gfz2013mghe   1.26850
gfz2013mmlw   0.30570
gfz2013mnei  -1.74680
gfz2013mnju   1.55690
gfz2013mqmv   1.94250
gfz2013mtqd   0.53670
gfz2013mvgr  -0.14050
gfz2013mxee   1.57870
gfz2013mzwe  -0.06370
gfz2013nabl   0.34700
gfz2013ncjp  -0.32700
gfz2013nedo   0.37680
gfz2013neuc  -0.30180
gfz2013nfwx   0.72040
gfz2013ngnt  -0.68780
gfz2013nhjb  -0.84380
gfz2013njnd   1.18110
gfz2013nkgj   0.52790
gfz2013nlxz  -0.28790
gfz2013nmac  -0.15570
gfz2013nnzf   0.08840
gfz2013npcg   0.65610
gfz2013nppd  -0.45290
gfz2013nqgw   0.19560
gfz2013nskg   0.38960
gfz2013nttq   3.34220
gfz2013nuor   0.51750
gfz2013nvdj   3.52570
gfz2013nwdi   0.20340
gfz2013oejn   1.23280
gfz2013ofls   1.98190
gfz2013ogde  -0.97630
gfz2013oifr   4.21110
gfz2013oinc   6.33140
gfz2013ojti   4.79390
gfz2013oksi   2.23740
gfz2013onjy   1.71680
gfz2013orjg   0.07710
gfz2013ornz   0.07750
gfz2013ozku   0.64260
gfz2013oznn   0.76620
gfz2013ozqm   0.52980
gfz2013ozrf  -0.03070
gfz2013ozrp  -0.35140
gfz2013pakq   0.50920
gfz2013pcos   0.52790
gfz2013pfbx   0.18650
gfz2013pffm   0.70470
gfz2013phef  -0.30790
gfz2013phmp  -0.12880
gfz2013pigb  -0.80930
gfz2013piwd  -0.05680
gfz2013piye   0.87200
gfz2013pkbs   0.00000
gfz2013plhp   0.08430
gfz2013pndn  -0.12230
gfz2013poxj   0.85280
gfz2013pqui   0.46980
gfz2013puag   0.36240
gfz2013pupd   1.23510
gfz2013pxsj  -0.33490
gfz2013pxtx  -0.45230
gfz2013pxya   1.29600
gfz2013qali   1.29960
gfz2013qbca  -2.43210
gfz2013qcck  -0.38570
gfz2013qfmm  -0.56950
gfz2013qfsq   0.47690
gfz2013qidm  -2.18650
gfz2013qjmk   2.47980
gfz2013qmer  -0.11280
gfz2013sart  -0.47680
gfz2013scai   1.11090
gfz2013scub   1.68630
gfz2013sdus   1.43230
gfz2013sebq   0.06990
gfz2013sfds  -0.17260
gfz2013sfto  -0.19320
gfz2013shlq  -0.63680
gfz2013shzy  -0.21690
gfz2013skkm  -0.30730
gfz2013sllq   0.40570
gfz2013snbr   0.45350
gfz2013snyf  -0.23140
gfz2013sqkb   2.67540
gfz2013sred   0.72810
gfz2013stcu   0.79220
gfz2013stht  -0.35550
gfz2013suln  -0.09500
gfz2013suvn  -0.29860
gfz2013svci   0.60690
gfz2013svqv   0.41930
gfz2013sxbw   0.34610
gfz2013syqk   0.47330
gfz2013tbzy   0.46040
gfz2013tdau   1.40190
gfz2013tdkk   2.24920
gfz2013thtc   0.15460
gfz2013tjlx  -0.22120
gfz2013toea  -0.04670
gfz2013toxf   0.78730
gfz2013tqbb   0.42390
gfz2013ttoz  -0.44640
gfz2013tusd  -0.58920
gfz2013tuzv   3.69690
gfz2013tvmw  -0.08190
gfz2013txev   0.43380
gfz2013uauo   0.06370
gfz2013ufku   0.94470
gfz2013ufxk   0.86650
gfz2013ugax   1.88870
gfz2013uhlm   0.42730
gfz2013upcc   0.08140
gfz2013upee   0.74210
gfz2013upiv  -0.21060
gfz2013uqsp   1.84290
gfz2013uthl   1.99380
gfz2013utsh   0.02250
gfz2013uysr   1.44080
gfz2013vcoa   0.34140
gfz2013vdic  -0.46690
gfz2013vefs  -3.86930
gfz2013vfyw  -0.11440
gfz2013vfzp   1.48430
gfz2013vgau  -1.03710
gfz2013vgev   0.68120
gfz2013vgpf  -1.77870
gfz2013vgrk   0.00000
gfz2013vhnk   2.03950
gfz2013vhsb   2.38690
gfz2013vhzu  -0.55010
gfz2013viul  -0.53590
gfz2013vjjc   0.60670
gfz2013vjod   0.00640
gfz2013vlth   0.96650
gfz2013vmro  -0.01080
gfz2013vnfj  -0.25380
gfz2013vpnf  -0.18700
gfz2013vqot   0.94940
gfz2013vrmy   1.21690
gfz2013vsxi   0.11880
gfz2013vthd   0.46580
gfz2013vuja   0.33690
gfz2013vvrq   2.94620
gfz2013vxta  -0.41450
gfz2013vzbo  -0.16440
gfz2013wbyr   1.00590
gfz2013wgeu   0.24340
gfz2013wjmm   3.76330
gfz2013wmfd  -0.00000
gfz2013wnpr  -0.75720
gfz2013wnql   1.08880
gfz2013woze  -0.35190
gfz2013wpga  -0.23590
gfz2013wqhq   1.42740
gfz2013wrgw  -0.17070
gfz2013wtzl  -0.52380
gfz2013wuml   2.82910
gfz2013wuon  -0.06570
gfz2013wwii  -0.18350
gfz2013xatc   0.26260
gfz2013xcmp  -0.58750
gfz2013xgek   0.71140
gfz2013xgmp   0.31680
gfz2013xizq   0.53970
gfz2013xkbh   2.06710
gfz2013xklb   0.84360
gfz2013xkwt  -0.10450
gfz2013xmqg  -0.31640
gfz2013xmul  -0.14600
gfz2013xpfa  -0.29800
gfz2013xpsm  -1.39430
gfz2013xqnn   0.41700
gfz2013xsdt  -0.07680
gfz2013xtwj   0.89550
gfz2013xvqd   1.12860
gfz2013xvxf   2.27810
gfz2013xvyl   0.34730
gfz2013xwda  -0.20740
gfz2013xwzd  -0.67260
gfz2013xyzb   0.36270
gfz2013xzcg  -0.23900
gfz2013yach  -0.75780
gfz2013yaig   0.80040
gfz2013yewz   0.01380
gfz2013yghj   0.49110
gfz2013yhbu   1.21640
gfz2013yhpk   0.18610
gfz2013yixl   0.37350
gfz2013ylbx   1.66590
gfz2013ymky   0.46970
gfz2013ymxs  -0.28560
gfz2013ynmw   1.12070
gfz2013ypdc   0.47900
gfz2013yqkv   1.87750
gfz2013yrmc   0.35390
gfz2013yulx   2.87150
gfz2013yyti   0.05970
gfz2013yzte  -0.24260
gfz2013zaxb   2.82840
gfz2014adjs  -0.95890
gfz2014algk   0.24610
gfz2014alwz   1.66510
gfz2014amsb   0.31180
gfz2014aqbk  -0.55520
gfz2014ared   2.75050
gfz2014arnc   2.63510
gfz2014arpf   0.04410
gfz2014arqr   0.68900
gfz2014arsr   0.47080
gfz2014atgw  -0.42930
gfz2014azqs  -0.04280
gfz2014bagd   2.09770
gfz2014bbro  -0.18100
gfz2014bcae  -1.38600
gfz2014bdfd   1.71260
gfz2014bekc   0.43520
gfz2014bezu  -0.01930
gfz2014bfqo  -0.05100
gfz2014bhhv   1.37160
gfz2014bhvd  -0.63880
gfz2014bjgt   0.00000
gfz2014bjsy  -1.20140
gfz2014bldx   0.75650
gfz2014bmdh   0.57440
gfz2014bmfv   0.61870
gfz2014bmta   0.34120
gfz2014bolf  -0.31750
gfz2014bwue   0.92090
gfz2014bzna   0.04380
gfz2014bztt  -0.02160
gfz2014bzxy   1.11260
gfz2014caop  -0.08810
gfz2014capn   0.78590
gfz2014ccbz   0.74650
gfz2014cgog   0.86870
gfz2014citw   2.24100
gfz2014claq   0.55530
gfz2014clnj   1.69740
gfz2014clnq   1.36770
gfz2014cmwb   2.70470
gfz2014crpy   0.10580
gfz2014ctot   0.46170
gfz2014cueu   0.65560
gfz2014cvxx  -0.15400
gfz2014cybg   0.54550
gfz2014cyvm   2.58910
gfz2014czno   0.27850
gfz2014czqi  -0.08720
gfz2014dbdf  -0.72830
gfz2014dbyx   0.42670
gfz2014dcdy   0.81700
gfz2014dddc   0.70460
gfz2014dffd  -0.21470
gfz2014dgiy   1.32130
gfz2014dlri   0.61710
gfz2014dofa  -0.05850
gfz2014dpzx   1.78080
gfz2014duqn   0.45790
gfz2014eage   0.19700
gfz2014ebmc   3.31040
gfz2014efkk   0.13910
gfz2014eght   2.24060
gfz2014egwu   0.31010
gfz2014ehfp   0.88330
gfz2014ejmt   0.93730
gfz2014ejvf   0.19680
gfz2014ekcr  -0.38990
gfz2014eqpl  -0.03310
gfz2014erbj  -1.06640
gfz2014etqa  -0.49740
gfz2014ettc  -0.36780
gfz2014ewcz   1.68780
gfz2014ewrw   0.02720
gfz2014exxa  -0.09250
gfz2014ezgb   0.58390
gfz2014fcms  -0.24570
gfz2014fcsy   0.94700
gfz2014fedd   1.34950
gfz2014fexu   1.61410
gfz2014fgvi   0.07820
gfz2014fgxt   1.40960
gfz2014fgza   1.66090
gfz2014fhbd   1.56300
gfz2014fhgb   1.51790
gfz2014fhhp   2.33710
gfz2014fhjd   1.03220
gfz2014fhla   1.31640
gfz2014fhqk   1.75450
gfz2014fhrq   0.92860
gfz2014fhsg   1.60510
gfz2014fhwx   1.31790
gfz2014fhxm   1.20430
gfz2014fhyb   1.85420
gfz2014fimn   1.42560
gfz2014fiuj   0.34810
gfz2014fjpb   1.61800
gfz2014fjxd   1.08830
gfz2014fjyo   2.07510
gfz2014fjzd   1.50480
gfz2014fjzw   1.40080
gfz2014fkmr   0.79040
gfz2014fkmx   0.28230
gfz2014fles   2.16460
gfz2014flfa   2.38280
gfz2014fnyg   0.37000
gfz2014fqpz   0.46250
gfz2014frdz   0.77250
gfz2014frel   1.20570
gfz2014frez   2.46720
gfz2014frgm   1.66400
gfz2014frjr   2.46480
gfz2014frnb   1.91790
gfz2014frwh   1.74150
gfz2014fstx   0.70090
gfz2014fsuh   1.79430
gfz2014fszc   1.29440
gfz2014ftgx   2.47130
gfz2014ftka   1.13180
gfz2014ftno   1.13190
gfz2014ftoc   1.59540
gfz2014ftvc   4.48690
gfz2014furx   1.47250
gfz2014fusj   1.74460
gfz2014fuup   2.13060
gfz2014fuvk   1.31840
gfz2014fuzi   1.58190
gfz2014fvaa   0.28600
gfz2014fval   0.96980
gfz2014fvdx   0.52010
gfz2014fvgh   3.48920
gfz2014fvhp   3.64910
gfz2014fvjl   0.13760
gfz2014fvpy   1.91410
gfz2014fvrg   1.11980
gfz2014fwdr   2.64030
gfz2014fwtt   0.33870
gfz2014fwyr   0.33050
gfz2014fxpu   0.90710
gfz2014fyfr   2.19370
gfz2014fzgx   1.95820
gfz2014gbcz   1.61040
gfz2014gbdq  -0.07490
gfz2014gbjf   2.13920
gfz2014gcza   1.38560
gfz2014gdsq   2.21920
gfz2014geuy   1.09540
gfz2014gezs   1.62910
gfz2014gfdj   0.39220
gfz2014ggsr  -0.74390
gfz2014ghpe   0.29490
gfz2014gilf   3.69800
gfz2014gkgf   0.09480
gfz2014gkok   0.43680
gfz2014gkpd   0.59020
gfz2014gkpj   1.65370
gfz2014gkqf   1.32790
gfz2014gkqu  -0.41920
gfz2014gktn   0.80650
gfz2014gkvk   2.49450
gfz2014gkxm   2.36530
gfz2014glcu   1.26570
gfz2014glfn   1.30470
gfz2014glgo   1.00090
gfz2014glov   2.15790
gfz2014glsh   1.92940
gfz2014glvn   0.97050
gfz2014glvu   2.16110
gfz2014glxy   3.43850
gfz2014gmci   1.54110
gfz2014gmes   1.85420
gfz2014gmge   0.90990
gfz2014gmhp   2.75370
gfz2014gmhr   2.84000
gfz2014gmku   2.22280
gfz2014gmlz   2.12460
gfz2014gmmk  -0.14130
gfz2014gmmt   1.22050
gfz2014gmnb   1.29890
gfz2014gmnw   1.86900
gfz2014gmtb  -0.43250
gfz2014gmtj   3.47580
gfz2014gmvr   2.02390
gfz2014gmzl   1.31280
gfz2014gndq   2.12160
gfz2014gnfd   1.91310
gfz2014gnfs   1.91540
gfz2014gngg   2.53400
gfz2014gnhk   0.74790
gfz2014gnig   2.53970
gfz2014gnmx   2.93990
gfz2014gnno   1.62410
gfz2014gnnt   1.85120
gfz2014gnom   0.99840
gfz2014gnre   2.29120
gfz2014gnsi   2.43910
gfz2014gntd   0.94930
gfz2014gnvw   1.17670
gfz2014gnwg   1.04540
gfz2014gnxb   1.33520
gfz2014goba   0.76770
gfz2014goei   2.30880
gfz2014gogv   0.68220
gfz2014gohm   2.16670
gfz2014golz   2.40500
gfz2014gono   2.38480
gfz2014goqw   0.84030
gfz2014gori  -0.45930
gfz2014goyx   1.00610
gfz2014gpac   0.87680
gfz2014gpam   0.08420
gfz2014gpbx   2.57390
gfz2014gpce   1.64020
gfz2014gpgd   0.96260
gfz2014gphr   1.73330
gfz2014gpmm   1.19390
gfz2014gpnf   1.39310
gfz2014gpqq   1.73730
gfz2014gpuk   1.85390
gfz2014gpvk   2.02840
gfz2014gpxl   2.60270
gfz2014gpya   1.52470
gfz2014gqco   1.47810
gfz2014gqed   2.11850
gfz2014gqer   1.24680
gfz2014gqgf   2.37300
gfz2014gqiy   1.78790
gfz2014gqjr  -0.04200
gfz2014gqqz   2.54060
gfz2014gqro   1.20880
gfz2014gqve   1.40840
gfz2014grcv  -0.28850
gfz2014grfp   1.83680
gfz2014grgn   0.89390
gfz2014grho   2.10670
gfz2014gsgv   2.35430
gfz2014gsjg   1.77810
gfz2014gsqs   1.65590
gfz2014gtef   1.39420
gfz2014gtlu   1.63850
gfz2014gtrb   0.36720
gfz2014gtwz   2.68760
gfz2014gufl   2.48750
gfz2014gull   1.93640
gfz2014gumd   2.52360
gfz2014gutm   1.73820
gfz2014gvhw   1.18550
gfz2014gvqj   1.93210
gfz2014gvrd   2.14150
gfz2014gwab   2.09960
gfz2014gwqj   1.70800
gfz2014gxag  -0.23060
gfz2014gxkh   2.10310
gfz2014gxqu   2.09220
gfz2014gxqx   0.57150
gfz2014gxvf  -0.07810
gfz2014gxxh   2.60830
gfz2014gxxo   1.31620
gfz2014gyxd   1.95060
gfz2014gzrm   0.49420
gfz2014gzue   2.81630
gfz2014haey   2.11830
gfz2014hafk  -0.10160
gfz2014hagb   2.65670
gfz2014haos   2.47720
gfz2014hasj   1.08360
gfz2014hauo  -1.42230
gfz2014hbjm   2.07880
gfz2014hbjz   1.94650
gfz2014hetr  -0.23780
gfz2014heum   0.08930
gfz2014heyq   0.28330
gfz2014hfad   2.27470
gfz2014hfhl   1.09620
gfz2014hgqo   1.31880
gfz2014hhfs   1.61110
gfz2014hhwx   1.41900
gfz2014hifp   1.33500
gfz2014hiih   0.84020
gfz2014hiiz   1.56880
gfz2014hjgh   1.51880
gfz2014hjgr   3.86590
gfz2014hjhu   2.12990
gfz2014hjij   1.78130
gfz2014hjlx   1.82530
gfz2014hkcf   1.50000
gfz2014hlib   1.40560
gfz2014hmgf   3.54750
gfz2014hmrs  -0.08120
gfz2014hmvx   1.24140
gfz2014hmzg   2.00200
gfz2014hnfm   1.32850
gfz2014hoap   1.28320
gfz2014hocg   1.70230
gfz2014hphw   1.72860
gfz2014hppw   0.01690
gfz2014hpqz   2.26880
gfz2014hqxs   1.61550
gfz2014hqyx   2.66170
gfz2014hrft   0.03580
gfz2014hriu   0.28090
gfz2014hrtn   2.06100
gfz2014hscz   0.22470
gfz2014hsqo  -0.22280
gfz2014hssr   2.36990
gfz2014huaj   0.93700
gfz2014hugz   2.11270
gfz2014hvdm   1.16920
gfz2014hwan  -0.07930
gfz2014hwwi   1.62420
gfz2014hyal   0.06940
gfz2014hymr   0.64610
gfz2014hyvq   1.31640
gfz2014hzdy  -0.15470
gfz2014hzfr   0.36800
gfz2014hzgn   2.23840
gfz2014hzhe  -0.87290
gfz2014hzht   2.69600
gfz2014hzig   2.85710
gfz2014hzze   0.20240
gfz2014iani   1.75500
gfz2014ieam   1.33970
gfz2014ieho  -0.54400
gfz2014ifue   2.50670
gfz2014ifzj   1.73950
gfz2014igsj   1.02340
gfz2014igur  -0.79020
gfz2014ijvh   1.71600
gfz2014ikbk   2.42330
gfz2014ikvd   2.59650
gfz2014ilwu   0.31500
gfz2014imap  -0.45100
gfz2014immt  -0.02710
gfz2014imnn   1.72130
gfz2014inbj   1.68470
gfz2014iobd  -0.27450
gfz2014iqzj   2.55740
gfz2014irci   2.11380
gfz2014ircq   2.01890
gfz2014irrg   2.50250
gfz2014isdq   2.96980
gfz2014isff   2.88840
gfz2014issk   1.80360
gfz2014isub   3.49060
gfz2014isys   1.92120
gfz2014itab   2.12280
gfz2014itbe   1.55860
gfz2014itbu   2.35170
gfz2014itfc   1.88370
gfz2014itgh   1.53460
gfz2014itjx   0.71910
gfz2014itkw   1.27360
gfz2014itpj   0.79730
gfz2014iuhq   1.75850
gfz2014ivep  -3.40090
gfz2014iwnf  -0.08400
gfz2014iwwl  -0.06960
gfz2014ixga   1.86520
gfz2014ixky  -0.27880
gfz2014iywt  -0.07310
gfz2014jagg   1.86970
gfz2014jass   1.40990
gfz2014jbyg   0.70270
gfz2014jcjt   3.19440
gfz2014jcmt   1.46900
gfz2014jesb   3.28290
gfz2014jfis   0.31110
gfz2014jggm   1.89490
gfz2014jhra   0.99230
gfz2014jipr   0.27330
gfz2014jird   1.75410
gfz2014jjhc  -0.02040
gfz2014jjkh   0.41600
gfz2014jjln   0.54150
gfz2014jjqk   1.42740
gfz2014jkxe  -0.05590
gfz2014jlwb   1.64920
gfz2014jmnk  -0.23040
gfz2014jnyv   0.17100
gfz2014jomw  -0.10570
gfz2014jpep   1.06050
gfz2014jpez   1.98760
gfz2014jpfn  -1.67360
gfz2014jpgu   2.49570
gfz2014jpvx  -0.21180
gfz2014jpxs   0.29900
gfz2014jtcz   2.46660
gfz2014jtfe   1.40390
gfz2014jvow   1.12220
gfz2014jwmh   1.27090
gfz2014jysj   0.02170
gfz2014kara   3.26400
gfz2014kbuk   1.91080
gfz2014khan   1.68880
gfz2014khlk   1.01070
gfz2014kitm   0.86380
gfz2014kizt   0.85630
gfz2014kjee   0.96430
gfz2014kjjq   1.20650
gfz2014kjzb   1.21870
gfz2014kkhh   1.86350
gfz2014kmmt   1.00320
gfz2014kndc   0.53840
gfz2014knxs  -0.56630
gfz2014krlg  -0.17450
gfz2014kscf   0.79380
gfz2014ksdv  -1.92310
gfz2014ksmz   0.57840
gfz2014kssw   1.63160
gfz2014kwie   2.49030
gfz2014kwrg   1.40920
gfz2014kwwg   1.40810
gfz2014kxqf   1.98380
gfz2014kyan  -0.08110
gfz2014kytf   1.09890
gfz2014kzzm   1.63970
gfz2014lbxn   0.05710
gfz2014lchy   1.64560
gfz2014lddn   1.36490
gfz2014lefs   1.62200
gfz2014lgqn   1.33140
gfz2014lhqn   0.18210
gfz2014ljbr   1.12510
gfz2014lkyf   2.46480
gfz2014lmge  -0.06470
gfz2014lnmw  -0.25950
gfz2014lpfc  -0.07780
gfz2014lpim   0.86720
gfz2014lrzx  -0.43610
gfz2014lvgn   2.09310
gfz2014lwom   0.27280
gfz2014lwvb   5.69250
gfz2014lxnc   0.25180
gfz2014lxqr   2.14520
gfz2014lyhk   0.93690
gfz2014lynp  -0.34790
gfz2014lzal   2.06050
gfz2014lzow  -0.20410
gfz2014macx   0.96210
gfz2014madw   0.72300
gfz2014mawp   0.14760
gfz2014mcno  -0.08680
gfz2014mcse   1.92900
gfz2014mden  -0.78490
gfz2014mioi  -0.97690
gfz2014mmtb   1.17650
gfz2014mogb  -0.47650
gfz2014mrbm   1.83180
gfz2014mtum  -0.17450
gfz2014mwnj  -0.01480
gfz2014mxkr   0.62650
gfz2014myqz   1.45710
gfz2014nafd   2.15070
gfz2014navw   2.77550
gfz2014ncub   0.77050
gfz2014ndue   0.46530
gfz2014ngsk   3.40450
gfz2014nhyb   0.79370
gfz2014niqj   1.27940
gfz2014nkdx   2.78020
gfz2014nnih   0.91000
gfz2014nnxd   0.32250
gfz2014nowp  -0.89450
gfz2014npeo   1.69860
gfz2014nphm  -0.72490
gfz2014nqbs  -0.48150
gfz2014nqfm   0.77000
gfz2014nrie   1.45170
gfz2014ntdh   1.63660
gfz2014nvdi  -0.72230
gfz2014obbs   0.37810
gfz2014obxm   0.77390
gfz2014odgv   1.33910
gfz2014ofhm   1.12150
gfz2014oims   0.33590
gfz2014oinz   0.10850
gfz2014ojdg   0.72580
gfz2014okec   2.06560
gfz2014okxu  -0.33450
gfz2014omyn   0.14460
gfz2014ooaa   1.20820
gfz2014opqr   0.21110
gfz2014oqhw  -0.29980
gfz2014orxs   1.21470
gfz2014oryw   0.81370
gfz2014osvx   1.08860
gfz2014owii   1.43020
gfz2014owur   1.90760
gfz2014owxc   0.74680
gfz2014oxcc   0.75100
gfz2014oyly   0.18670
gfz2014pghi   0.60440
gfz2014pjer  -0.36900
gfz2014pjum   0.33920
gfz2014pngj   2.91570
gfz2014poap   0.77020
gfz2014ppzf  -0.33440
gfz2014pqqp   4.02440
gfz2014pvch   0.70960
gfz2014pxbu   1.81910
gfz2014pzml   2.43370
gfz2014pzni   3.10910
gfz2014qbzi   1.38730
gfz2014qcxs   0.31250
gfz2014qdog   1.56880
gfz2014qfzq   1.82570
gfz2014qjfl   1.64160
gfz2014qlvc   1.07040
gfz2014qlxd   0.03120
gfz2014qngj   1.11590
gfz2014qqfg   1.07370
gfz2014qqhm   1.27760
gfz2014qsby  -0.30810
gfz2014qtwv   1.67960
gfz2014raau   1.94110
gfz2014rbpx   1.33430
gfz2014rcyx  -0.63710
gfz2014rdoz   1.02930
gfz2014rfeb   0.66130
gfz2014rffv  -0.26570
gfz2014rghp   0.93100
gfz2014rhju  -0.32630
gfz2014rhwq  -0.38780
gfz2014riel   1.55620
gfz2014rils   2.46820
gfz2014rnrn   2.21600
gfz2014roba   0.42760
gfz2014romy  -0.15450
gfz2014royq   0.11930
gfz2014rucz   0.09790
gfz2014rwos   0.40050
gfz2014ryfb   0.07840
gfz2014sadu  -1.24960
gfz2014shid   0.91980
gfz2014sptq   1.60830
gfz2014sryn   0.01800
gfz2014ssds   0.00930
gfz2014swgt   4.01880
gfz2014szzf   0.06780
gfz2014tabg  -0.19270
gfz2014tgcw  -0.06120
gfz2014thrw   0.36950
gfz2014tovs   2.40330
gfz2014tqdo   0.43920
gfz2014tqly  -0.72190
gfz2014tqsf   1.07860
gfz2014tqth   1.81020
gfz2014tute  -0.47360
gfz2014tzsd   0.09830
gfz2014uapa  -0.13290
gfz2014ubyq   0.60530
gfz2014udgg   0.33300
gfz2014uohh   2.15520
gfz2014utac   1.78060
gfz2014uuqa   0.69220
gfz2014uvrk   2.27560
gfz2014uxyg  -1.37420
gfz2014uyrq   2.92800
gfz2014uzaw   0.20010
gfz2014vcev  -0.33300
gfz2014vdnh  -0.02230
gfz2014veit   0.26990
gfz2014vhld   0.80570
gfz2014vhms   1.41330
gfz2014vhuy   1.22270
gfz2014vljh   0.30380
gfz2014vnxu   0.52500
gfz2014vpus   0.00000
gfz2014vqqa   2.12320
gfz2014waoo   1.19480
gfz2014watn  -0.23000
gfz2014wjko   0.25050
gfz2014wmsc  -0.83770
gfz2014wqcp   1.69300
gfz2014wrkh  -1.47640
gfz2014wsjh   0.47190
gfz2014wwib   1.40270
gfz2014xaxx   0.17050
gfz2014xbyr   0.35420
gfz2014xhwk  -0.16420
gfz2014xjri   2.43240
gfz2014xkdg   0.55920
gfz2014xmnp  -1.76940
gfz2014xoji   2.25100
gfz2014xqby   1.74530
gfz2014xqqd   0.36860
gfz2014yazi   0.23670
gfz2014yhhm   1.70380
gfz2014ynhc  -0.09990
gfz2014ynzy   0.55630
gfz2014yppv  -0.15860
gfz2014yrug   0.43740
gfz2014yula   1.16760
gfz2014yyiy   0.15450
gfz2014zcgo  -0.29060
gfz2014zdtl  -0.40930
gfz2014zkys   0.69360
gfz2014zlgp   1.97120
gfz2014zplq   1.47010
gfz2015abpw   0.19360
gfz2015aide   0.44200
gfz2015alzx   0.29350
gfz2015ansu  -0.08990
gfz2015apnk   0.44250
gfz2015aqav  -0.97760
gfz2015aqbq  -0.96140
gfz2015arpd   0.17330
gfz2015aruz   0.23540
gfz2015atxv   0.52980
gfz2015aush   0.73980
gfz2015bavu  -0.01930
gfz2015bdyd   0.25130
gfz2015berb   0.35730
gfz2015bfjm   0.03200
gfz2015bfzt   0.29040
gfz2015bkbj   1.03350
gfz2015bnho   2.09850
gfz2015bohx   0.43360
gfz2015bphe   0.31310
gfz2015bpxl   2.13810
gfz2015bucr   1.68660
gfz2015bvsj   1.88430
gfz2015bvxx   1.22240
gfz2015byjd   1.73800
gfz2015bzej   0.79410
gfz2015cewd   0.42640
gfz2015chhn   2.20970
gfz2015clrp   0.07450
gfz2015cpuo  -0.28030
gfz2015cxhx  -0.45390
gfz2015cxrc   1.13260
gfz2015cyjd  -0.33680
gfz2015ddhl  -0.13180
gfz2015dizn  -0.41120
gfz2015djts   3.30070
gfz2015drlk   2.79540
gfz2015dskr  -0.05570
gfz2015dtqr  -0.11440
gfz2015dvbn   0.12770
gfz2015ecgq   1.83490
gfz2015ednc   1.52150
gfz2015eezy   1.25010
gfz2015egbk  -0.15860
gfz2015egxq   1.49190
gfz2015ehou   1.47740
gfz2015ehpz  -0.26610
gfz2015eiky   0.32790
gfz2015elgy   0.53360
gfz2015eljz   1.18630
gfz2015emcg   1.19610
gfz2015emtg   1.62670
gfz2015enth   2.27020
gfz2015esrj   1.31060
gfz2015etai  -1.68300
gfz2015fbbk   1.28450
gfz2015fbew   1.82200
gfz2015fcua   1.82240
gfz2015fdpr  -0.36970
gfz2015fjhk   0.60320
gfz2015fkbc   0.68240
gfz2015fkgt  -1.46440
gfz2015fkic   1.99160
gfz2015fkjs   1.37380
gfz2015fkkd   0.67420
gfz2015fkuu  -0.84540
gfz2015fsjj   0.07450
gfz2015fvoi   1.83170
gfz2015fwkq   1.97650
gfz2015fwnf   0.02710
gfz2015fxdi   0.13590
gfz2015fyvk   3.47010
gfz2015gckd  -0.03640
gfz2015ggjw  -0.21920
gfz2015gjbr   1.41200
gfz2015gkwa   1.68570
gfz2015gmgf   0.54220
gfz2015guhd  -1.07430
gfz2015gwao   0.13880
gfz2015gzja   0.63430
gfz2015hdbn   0.05480
gfz2015hdcp   0.38640
gfz2015hepg   1.51700
gfz2015hgbk  -0.06520
gfz2015hhbd   0.52570
gfz2015hlfq  -0.04930
gfz2015hlqo   0.38030
gfz2015hpmk   0.40070
gfz2015hslo   0.73750
gfz2015hwkv   1.23500
gfz2015hwzw   1.78270
gfz2015idho   0.23050
gfz2015iele  -0.03750
gfz2015igsy   1.68200
gfz2015ijmh   0.30170
gfz2015imty  -0.31410
gfz2015imyp   0.09520
gfz2015isim   1.49260
gfz2015iwqk   1.11430
gfz2015ixyy   0.53490
gfz2015jkdw   1.38900
gfz2015jmlf   1.03210
gfz2015jmlu   0.07160
gfz2015jpap   0.58350
gfz2015jxbx   0.76790
gfz2015jzcv   0.94790
gfz2015kakw   0.57880
gfz2015kalm   1.37980
gfz2015kfsu   0.18810
gfz2015kkqb  -0.07740
gfz2015kkth   1.30580
gfz2015kphk   2.28160
gfz2015kquq   0.68560
gfz2015lbcg   0.26230
gfz2015lcma   0.64340
gfz2015lcuo  -0.01500
gfz2015lfma   1.76830
gfz2015lfos   2.01800
gfz2015lfud  -0.09300
gfz2015lhjq   0.26210
gfz2015lhjy  -0.31060
gfz2015ltii   0.51760
gfz2015ltro   1.83670
gfz2015lytv   1.57160
gfz2015lzad  -0.52200
gfz2015mddr  -0.03410
gfz2015mfpy   0.25860
gfz2015mhym   1.11620
gfz2015micz  -0.10500
gfz2015mljd   0.57780
gfz2015mpte   2.00870
gfz2015nbdc   0.77380
gfz2015nerz  -0.43260
gfz2015nqgf   0.14490
gfz2015nuxz   1.29120
gfz2015nwug  -1.27000
gfz2015ocwr  -0.07400
gfz2015ofpd   0.14320
gfz2015ojut   1.00450
gfz2015okmq   1.06440
gfz2015okpu   0.14380
gfz2015omab  -0.41490
gfz2015opjp   0.46520
gfz2015oumn   0.26770
gfz2015oyfl   0.61280
gfz2015pdri  -0.17660
gfz2015pjgr   0.14120
gfz2015plal   0.51730
gfz2015poni   1.07800
gfz2015prlr   0.82490
