# Nsamples: 508  MAD:  0.829  mean:  0.230  variance:  2.544
gfz2012mkpn   0.00550
gfz2012mlyf   1.13350
gfz2012mofm   0.96290
gfz2012mpvy   0.38210
gfz2012naqz   0.28350
gfz2012nbtn  -0.05950
gfz2012nedn   1.56410
gfz2012nzpz   0.10530
gfz2012obgw  -2.08430
gfz2012obnq   1.77050
gfz2012oedb   0.56540
gfz2012omvo  -2.62830
gfz2012pkel  -1.07910
gfz2012pygp  -7.10480
gfz2012qxcy   0.04100
gfz2012rats   0.89470
gfz2012rboy   0.60700
gfz2012rcnj   0.05230
gfz2012repv   0.37180
gfz2012rjsd  -0.24140
gfz2012rknn   0.62270
gfz2012rqlg   3.29020
gfz2012rwov  -0.43560
gfz2012rwql  -0.39290
gfz2012rypu  -0.23200
gfz2012sjea   0.42290
gfz2012snhi  -1.73980
gfz2012spbj  -0.10840
gfz2012sphd  -0.45370
gfz2012tpzx  -0.26850
gfz2012ttoa  -0.52290
gfz2012vnbk  -0.39700
gfz2012wecd   0.30800
gfz2012wizz  -0.13340
gfz2012wmkd  -0.16280
gfz2012wmsg  -0.19090
gfz2012wrir   0.30080
gfz2012wtkr   0.37510
gfz2012wvfl  -0.22750
gfz2012wxer  -0.13630
gfz2012wxlg   0.07290
gfz2012wxnt  -4.61990
gfz2012wypz  -1.31970
gfz2012xdna  -0.01700
gfz2012xjyv  -0.41030
gfz2012xkkv   2.03820
gfz2012xwqa  -1.20540
gfz2012yfrp   0.92830
gfz2012zemh  -0.21270
gfz2012zemz   1.59350
gfz2012zfag  -0.22940
gfz2012zitl   1.48340
gfz2012zjpv  -1.01930
gfz2012zjre   0.04900
gfz2013bokp   0.00000
gfz2013bouj  -1.16340
gfz2013ccnr  -1.00870
gfz2013enbx   1.15710
gfz2013eswe   0.63770
gfz2013feep  -1.06040
gfz2013fepm   0.01550
gfz2013figy  -0.39990
gfz2013fiud  -4.28780
gfz2013fkii  -0.11800
gfz2013flox   1.00560
gfz2013fnzr   0.96620
gfz2013hsfw  -0.51700
gfz2013hzdp   1.49930
gfz2013ifpq   0.67750
gfz2013ikgo   0.76660
gfz2013ilug  -0.91770
gfz2013jgip  -2.72460
gfz2013jkut   1.57520
gfz2013jlst   4.01920
gfz2013jusj  -1.87620
gfz2013jwvc   1.19570
gfz2013kdeo   3.48130
gfz2013kheb   2.68870
gfz2013kqln  -0.63680
gfz2013kvtk   0.27280
gfz2013lajn  -0.09980
gfz2013lbiu   0.08910
gfz2013ldqb  -0.08950
gfz2013lgnl   2.15760
gfz2013lixa   0.09270
gfz2013lmqe   0.19520
gfz2013lxyn  -0.33210
gfz2013lyko   0.08770
gfz2013mnju   0.12690
gfz2013mqmv   4.68110
gfz2013mvgr  -4.36270
gfz2013ngnt  -0.32570
gfz2013nkgj   0.05940
gfz2013nknw  -0.37900
gfz2013nppd   3.57320
gfz2013nqgw   0.90120
gfz2013nvdj  -2.14510
gfz2013nwdi   0.52990
gfz2013oqsc   0.07680
gfz2013ozku   1.86380
gfz2013ozqm  -0.45100
gfz2013ozrp   2.75670
gfz2013pfbx   0.57170
gfz2013pfeb   0.21830
gfz2013phef   3.16270
gfz2013pxsj  -0.29310
gfz2013pxtx   0.49770
gfz2013qali  -0.74100
gfz2013qcck   3.55180
gfz2013qesa   0.27140
gfz2013qfsq   0.20820
gfz2013qmer  -1.08490
gfz2013qnxc  -0.11150
gfz2013qzdq   1.39070
gfz2013rdoo  -2.39450
gfz2013roki  -0.53420
gfz2013saez   0.32070
gfz2013scai  -1.66890
gfz2013sfto  -0.58410
gfz2013sjhg   0.21310
gfz2013snbr   3.35610
gfz2013sred   0.14430
gfz2013stcu   0.00000
gfz2013stht   0.52080
gfz2013svci   0.89860
gfz2013tcbk   0.30350
gfz2013tcxc   0.36100
gfz2013tcxq   0.09090
gfz2013tdau   0.45680
gfz2013tlaf  -0.14420
gfz2013toxf   1.10400
gfz2013tvmw   3.56630
gfz2013twwf   2.37430
gfz2013txtb   0.45400
gfz2013tyas  -0.26950
gfz2013uauo   2.84960
gfz2013uqsp  -0.08110
gfz2013uxej   1.07920
gfz2013vefs   0.05820
gfz2013vexx   2.11320
gfz2013vfyw   0.06040
gfz2013vfzp  -0.16760
gfz2013vgau  -0.00000
gfz2013vgev   0.34530
gfz2013vgpf   0.02580
gfz2013vhnk  -0.05840
gfz2013vjfe   0.03330
gfz2013vjjc  -2.86720
gfz2013vlth   2.37720
gfz2013vsbl   0.01810
gfz2013vvjh  -0.27130
gfz2013vzbo   3.14550
gfz2013waam  -0.30540
gfz2013wjmm   0.83890
gfz2013wkyk   0.06890
gfz2013wmfd  -2.14110
gfz2013wnpr   0.67990
gfz2013wwii  -0.10050
gfz2013xklb  -1.26980
gfz2013xmul  -2.40290
gfz2013xsdt  -6.94640
gfz2013xvqd  -0.32470
gfz2013xvxf   0.04970
gfz2013xvyl   0.22350
gfz2013xwda  -0.35990
gfz2013xwzd  -0.26190
gfz2013xxwv   0.80640
gfz2013xxxq   0.56400
gfz2013xyzb  -0.37020
gfz2013xzcg   0.26850
gfz2013yaig   0.69200
gfz2013ymky  -0.60040
gfz2013ypdc   1.55940
gfz2013yrmc  -0.03620
gfz2013yyti   0.78450
gfz2013zjel  -0.32760
gfz2014alwz  -1.70250
gfz2014aqbk  -0.04860
gfz2014ared  -0.27130
gfz2014arpf  -4.31710
gfz2014arqr  -2.49720
gfz2014bagd  -0.71210
gfz2014bbro  -6.30700
gfz2014bekc  -2.05670
gfz2014bjsy  -2.07720
gfz2014bmfv   1.93380
gfz2014bolf  -1.13990
gfz2014bwue  -0.35040
gfz2014bztt  -2.21930
gfz2014bzxy  -2.43190
gfz2014cbtl  -0.00890
gfz2014cgog   1.34140
gfz2014claq   0.06130
gfz2014cqyo  -0.12980
gfz2014cvkm   0.68590
gfz2014cyvm   0.03800
gfz2014czol  -0.86410
gfz2014czqi  -0.22290
gfz2014czua   1.62120
gfz2014dhxt  -0.22490
gfz2014duqn   0.58300
gfz2014ebmc  -1.33170
gfz2014edfx   0.33090
gfz2014efkk  -3.12090
gfz2014eght  -2.75550
gfz2014ehsf  -0.39580
gfz2014ekcr  -0.25160
gfz2014ekdn   4.17370
gfz2014ekdt   0.30610
gfz2014etqa  -0.61000
gfz2014ewcz   0.06200
gfz2014ezgb  -0.31140
gfz2014fcms  -0.30330
gfz2014femz   1.19100
gfz2014fexu  -2.35290
gfz2014fgvi  -2.60760
gfz2014fgxt   2.08360
gfz2014fgyo   1.13930
gfz2014fhla   2.12940
gfz2014fhrq   1.84350
gfz2014fiuj   0.84980
gfz2014fjyo   2.71950
gfz2014fkmr   0.97780
gfz2014foio   0.54360
gfz2014frdz   2.01180
gfz2014fszc   0.76740
gfz2014ftka   2.54850
gfz2014fval   1.49890
gfz2014fvrg   2.11710
gfz2014gbcz  -0.19300
gfz2014gbdq  -0.22280
gfz2014ghpe   0.14340
gfz2014gkjl   0.77460
gfz2014gkok  -1.95810
gfz2014gkpj   0.51820
gfz2014gkqf   0.68530
gfz2014gkqu   2.29620
gfz2014gktn  -4.08140
gfz2014gktq   0.85660
gfz2014glcu   3.29500
gfz2014glgo   2.02680
gfz2014gltx   0.95870
gfz2014glvu  -0.58220
gfz2014gmge   1.64250
gfz2014gmhp   2.02770
gfz2014gmhr   2.50060
gfz2014gmmt   2.19450
gfz2014gmnb   3.49240
gfz2014gmnw   1.86490
gfz2014gmpy   1.99470
gfz2014gmuw   2.01970
gfz2014gmzl   0.65220
gfz2014gnxb   1.48150
gfz2014goba   0.87870
gfz2014goqw   2.73490
gfz2014gpdo   1.60520
gfz2014gpya   0.30320
gfz2014gsqs   1.57550
gfz2014gull   1.40590
gfz2014gutm   1.20340
gfz2014gvhw   1.26210
gfz2014gvqj   1.31720
gfz2014gvrd   2.05000
gfz2014gwab   3.05740
gfz2014gwgf   0.13650
gfz2014gxqu   1.28580
gfz2014gxqx   3.46510
gfz2014gxxo   3.53420
gfz2014gzrm   0.65320
gfz2014hasj  -0.33020
gfz2014hauo  -0.15390
gfz2014hcmj  -1.03640
gfz2014hfhl  -0.19690
gfz2014hkcf   3.10820
gfz2014hqxs   0.67700
gfz2014hscz  -3.32340
gfz2014huaj   2.69010
gfz2014hyvq   2.76520
gfz2014hzfw   0.00000
gfz2014hzgn   0.11470
gfz2014hzhe   0.30230
gfz2014iava  -0.21490
gfz2014icqt  -0.20140
gfz2014ieam   1.96580
gfz2014ikun   0.08350
gfz2014imnn   2.87710
gfz2014iobd   0.04360
gfz2014isys   0.52740
gfz2014itjx  -0.19330
gfz2014ivep  -2.18750
gfz2014jatq   0.91820
gfz2014jbyg   0.79980
gfz2014jcjt  -1.39670
gfz2014jdoy  -0.20120
gfz2014jfis   1.26120
gfz2014jjhc  -1.50550
gfz2014jjkh   1.10530
gfz2014jjln   1.63340
gfz2014jkxe  -0.21130
gfz2014jlwb   0.36260
gfz2014jnxm  -0.32240
gfz2014jnyv   1.42990
gfz2014jpep   2.88950
gfz2014jpfn   0.05930
gfz2014jpvx   0.01080
gfz2014jtcz  -0.94730
gfz2014kara  -1.34180
gfz2014khlk  -0.33950
gfz2014kjjq   0.46070
gfz2014kmmt   1.99260
gfz2014kndc   4.45240
gfz2014knxs  -1.09430
gfz2014ksdv  -0.06870
gfz2014kzzm   0.03220
gfz2014lbxn   1.32540
gfz2014lddn  -0.00000
gfz2014ldhu  -0.10250
gfz2014lefs   5.21340
gfz2014lgqn   0.86360
gfz2014lkyf  -0.06880
gfz2014lmge  -0.12540
gfz2014lnmw   1.25600
gfz2014lxnc   1.96700
gfz2014mhgg   0.63040
gfz2014mtum   0.50980
gfz2014mwor  -0.33740
gfz2014nafd   1.93390
gfz2014ngnd   0.39730
gfz2014nkdx  -0.62520
gfz2014nnih  -0.33510
gfz2014nowp   0.76400
gfz2014npdk   2.10480
gfz2014nqfm   1.46870
gfz2014nvdi   4.77790
gfz2014obxm   0.84150
gfz2014oinz  -0.18030
gfz2014okjw  -0.01960
gfz2014omyn  -0.42910
gfz2014osvz   1.07300
gfz2014oxcc  -0.87900
gfz2014pkll   0.02580
gfz2014poap  -1.02290
gfz2014ppyi   0.59520
gfz2014ppzf  -0.21600
gfz2014pqrc  -0.14290
gfz2014pvch   2.48970
gfz2014pzni   2.91230
gfz2014qdog  -0.05370
gfz2014qlxd   0.08540
gfz2014qngj  -0.25550
gfz2014qqhm   2.12180
gfz2014raau  -0.76800
gfz2014rbsl  -0.08330
gfz2014rils  -3.72580
gfz2014rkwl  -0.50020
gfz2014rtcu  -0.40080
gfz2014sjqw  -0.28830
gfz2014ssmv  -0.14080
gfz2014ssvz  -1.97260
gfz2014szzf   0.32710
gfz2014tfgn  -3.14350
gfz2014tovs  -0.14770
gfz2014tqdo   1.08020
gfz2014tqsf   2.23750
gfz2014tute   1.79110
gfz2014ubwn   0.65080
gfz2014udgg   0.33000
gfz2014uohh   3.94580
gfz2014utac  -0.57880
gfz2014uuuf   0.20380
gfz2014uvji   0.50050
gfz2014uvrk  -0.62020
gfz2014uxyg  -0.88300
gfz2014vcev  -0.76180
gfz2014vhms   1.62310
gfz2014vljh   0.51380
gfz2015jwgl   0.57520
gfz2015jxjd   0.74640
gfz2015jzcv   1.73700
gfz2015kfsu  -3.65750
gfz2015kkth  -0.08900
gfz2015kphk   6.99690
gfz2015kquq   2.27280
gfz2015ksni  -0.14280
gfz2015lcma   0.42960
gfz2015ltii   0.05100
gfz2015lytv   0.31410
gfz2015lzad  -0.69510
gfz2015mfpy   3.10310
gfz2015mhym   1.28400
gfz2015mljd   0.33050
gfz2015mpte   1.84470
gfz2015mvzk  -0.37540
gfz2015mxcu   0.11040
gfz2015nerz  -1.01720
gfz2015nqgf  -0.85030
gfz2015ntpk   0.07810
gfz2015nuxz  -0.72150
gfz2015nwug   0.53700
gfz2015ocdz  -0.20050
gfz2015ofsr   0.05030
gfz2015ojut  -0.04090
gfz2015okpu  -1.35790
gfz2015omab  -0.03060
gfz2015opjp   0.18100
gfz2015othd   0.55600
gfz2015oyfl  -0.71390
gfz2015pcvt   0.15860
gfz2015poni   0.86760
gfz2015prlr   0.72520
gfz2015puah   0.14400
gfz2015puqp   0.41660
gfz2015qafb   1.75960
gfz2015qnho   0.87640
gfz2015qnlv   5.23490
gfz2015qnto  -0.39650
gfz2015qprd  -0.21550
gfz2015qvxu  -1.12080
gfz2015rddx   0.40030
gfz2015rgrg  -0.25510
gfz2015rkbq  -0.06930
gfz2015rkrg  -2.01910
gfz2015rkzg  -0.21400
gfz2015rlnh  -0.83220
gfz2015roac   0.05920
gfz2015rwsb  -0.32040
gfz2015rxmg  -0.32850
gfz2015saet   2.04490
gfz2015sfdd  -0.28810
gfz2015sfho  -0.21770
gfz2015sfko   0.01580
gfz2015sfnv  -0.51820
gfz2015sfoq   0.37630
gfz2015sfpj  -0.02000
gfz2015sftu   9.54370
gfz2015sgdn  -0.02370
gfz2015sgey  -0.15410
gfz2015sggc  -0.08200
gfz2015sgie   0.01800
gfz2015sgoa   2.63370
gfz2015shel  -0.17640
gfz2015shlp  -0.04910
gfz2015shov  -0.38310
gfz2015shrg  -0.51660
gfz2015shsz  -0.13340
gfz2015shwt   0.17810
gfz2015sicf  -0.13190
gfz2015sicu   0.36650
gfz2015siem  -0.35160
gfz2015siky  -0.94380
gfz2015sing  -1.22610
gfz2015sitn  -0.82160
gfz2015sjbx  -0.47610
gfz2015sjeq   0.33960
gfz2015sjgk  -2.97060
gfz2015sjjb  -0.75690
gfz2015sjne  -1.05370
gfz2015sjtz  -0.30390
gfz2015skab  -0.82510
gfz2015skgj  -0.08480
gfz2015skpv  -0.04820
gfz2015skuk  -0.26530
gfz2015skxu   0.35870
gfz2015sldx  -1.12020
gfz2015slfn  -0.20130
gfz2015sljs  -0.75550
gfz2015smgj  -0.31640
gfz2015snhn   0.27910
gfz2015snmg  -0.41420
gfz2015snsf  -0.60090
gfz2015snwh  -0.37260
gfz2015snyd  -0.65950
gfz2015soat  -0.07260
gfz2015solh   0.18210
gfz2015sowu  -0.67740
gfz2015soxc  -0.71870
gfz2015sozw   0.03400
gfz2015spal  -0.07280
gfz2015sqbg   0.47060
gfz2015sqmy  -0.56420
gfz2015sqwv   0.19860
gfz2015sqyh   0.20440
gfz2015srxe  -0.33960
gfz2015srxm  -0.13070
gfz2015ssaf  -0.11360
gfz2015sspn  -0.44190
gfz2015ssrl  -2.19480
gfz2015stas   0.74760
gfz2015stcv   0.11130
gfz2015stso  -0.79520
gfz2015subg   0.22360
gfz2015subx   0.01480
gfz2015sudm  -0.36700
gfz2015sunp  -0.15090
gfz2015supa  -0.57850
gfz2015svjy  -0.24430
gfz2015svwm  -0.78240
gfz2015swgn   0.62780
gfz2015sxgd   0.12540
gfz2015sxmh  -0.24780
gfz2015sydc   0.12710
gfz2015szcb  -0.30200
gfz2015szfe  -0.00000
gfz2015sztx  -0.70660
gfz2015taml  -0.95060
gfz2015tbdn  -1.34120
gfz2015tbje  -0.01780
gfz2015tcem  -0.03960
