# Nsamples: 83  MAD:  0.592  mean: -0.224  variance:  0.868
gfz2010ahqi   0.49270
gfz2010bxxs   0.23510
gfz2010ebhc  -0.70850
gfz2010grjd   0.77420
gfz2010iull  -0.50540
gfz2010nmpc  -1.21070
gfz2010nwef   0.19820
gfz2010pcxi   4.35710
gfz2010usho  -0.22000
gfz2011aatr  -0.19320
gfz2011cfae  -0.47580
gfz2011dpqx  -0.08640
gfz2011enva  -0.81790
gfz2011gkzt   0.83520
gfz2011hlqw  -0.13310
gfz2011hlsa  -0.23460
gfz2011jplh  -0.21180
gfz2011lcxq  -0.07660
gfz2011lzwj  -0.31770
gfz2011mdie   0.03340
gfz2011rewa  -0.02440
gfz2011toub  -0.22190
gfz2011vhfi  -0.70470
gfz2011wxfs  -0.39470
gfz2011xyxj   0.64540
gfz2012enno  -0.16950
gfz2012jlox  -0.24320
gfz2012kkup  -0.19630
gfz2012klhx   0.20790
gfz2012kuct   0.17680
gfz2012kudo  -0.31410
gfz2012ldxg  -0.93450
gfz2012ldzj  -0.61270
gfz2012teic  -0.61930
gfz2012ttoa   0.28170
gfz2012vrgb  -0.21630
gfz2012wypz   0.01290
gfz2013drxz  -0.04090
gfz2013jkut  -0.08530
gfz2013kdeo  -0.52190
gfz2013ldqb   2.24450
gfz2013mqmv  -0.93690
gfz2013nwdi  -0.88910
gfz2013pfbx  -0.74590
gfz2013svci  -0.10360
gfz2013tusd  -1.07480
gfz2013uauo  -0.49140
gfz2014afmx  -0.50590
gfz2014ande  -1.08550
gfz2014bwue  -0.44760
gfz2014fgvi  -0.78940
gfz2014fhla   0.69260
gfz2014fkmr  -0.84830
gfz2014frdz   0.98300
gfz2014gkgf  -0.19300
gfz2014gkqf  -0.17720
gfz2014gltx  -1.88490
gfz2014gmge   0.70550
gfz2014gmhr  -0.84750
gfz2014gmnb  -0.21090
gfz2014goba  -0.93490
gfz2014jjhc  -0.42340
gfz2014jpep  -1.84040
gfz2014lgqn  -0.46460
gfz2014nqfm  -0.91820
gfz2014nrie  -3.78850
gfz2014oinz  -1.11850
gfz2014qlxd  -0.74800
gfz2014qqhm   0.18140
gfz2014ssvz  -0.23360
gfz2014ubwn   0.01570
gfz2014vjoz  -0.84490
gfz2015berb  -0.97820
gfz2015chhn   2.28490
gfz2015cyjd   0.48030
gfz2015fsjj  -0.63710
gfz2015gckd  -0.67710
gfz2015lhjy  -0.15470
gfz2015mpte   0.16040
gfz2015qnho   0.03940
gfz2015sfdd   0.93480
gfz2015svwm  -0.09790
gfz2015taml   0.03970
