# Nsamples: 240  MAD:  0.567  mean: -0.092  variance:  0.454
gfz2012yzod  -0.84320
gfz2013aqaw  -1.15440
gfz2013bokp   0.11890
gfz2013btjm  -0.41670
gfz2013ccnr   0.56620
gfz2013cwpn   0.21570
gfz2013cwps  -0.35210
gfz2013dkly   0.87550
gfz2013dofo   0.03760
gfz2013fkii   0.20340
gfz2013fwxa   0.45490
gfz2013fygc  -0.26450
gfz2013gbst   0.53890
gfz2013gdnq   0.06790
gfz2013ijsr   0.59180
gfz2013ilug   0.23590
gfz2013ippu   0.64080
gfz2013jgip  -1.29190
gfz2013jkut  -0.23770
gfz2013kdeo  -0.74020
gfz2013ldpc  -0.07390
gfz2013ldqb  -0.30870
gfz2013lixa  -0.75250
gfz2013lyko  -0.07630
gfz2013mwbh  -0.49820
gfz2013ncjp  -0.72400
gfz2013ndin   1.21470
gfz2013nkgj   0.50420
gfz2013nnzf  -0.00970
gfz2013nwdi   0.16710
gfz2013pfbx  -0.05130
gfz2013pxsj  -0.23300
gfz2013qali   1.42600
gfz2013qmer  -0.34140
gfz2013svci  -0.16430
gfz2013tusd   0.43820
gfz2013ufxm   0.22500
gfz2013vfzp   0.84770
gfz2013vjjc  -0.38730
gfz2013wjmm  -0.76980
gfz2013xatc  -0.45840
gfz2013xsdt   0.14440
gfz2013yctg  -0.12000
gfz2013yqkv   0.86110
gfz2014afmx   0.56770
gfz2014algk   0.09520
gfz2014amsb  -0.09680
gfz2014ande  -0.42210
gfz2014arqr  -1.55120
gfz2014bagd  -0.23920
gfz2014bezu  -0.52470
gfz2014bhvd  -0.63550
gfz2014bjgt  -3.30580
gfz2014bldx  -0.84000
gfz2014bmfv  -0.26890
gfz2014bwue   0.18580
gfz2014bzxy   0.66930
gfz2014cbtl   0.39110
gfz2014chdv  -0.75140
gfz2014claq  -0.68080
gfz2014cmwb  -0.70620
gfz2014czno  -0.57320
gfz2014czol  -0.12030
gfz2014czqi   0.32100
gfz2014dhxt   0.22980
gfz2014disp   0.82290
gfz2014duqn  -0.27000
gfz2014ehsf   0.61280
gfz2014ekcr  -0.86170
gfz2014enhi   0.03790
gfz2014fedd  -0.40880
gfz2014femz  -0.81570
gfz2014fexu  -1.33720
gfz2014fgvi   0.09670
gfz2014fgvz   0.24040
gfz2014fhdw   0.09920
gfz2014fhla  -0.85970
gfz2014fhrq  -0.49590
gfz2014fimn   0.21310
gfz2014fkmr   0.63430
gfz2014fqpz  -0.65510
gfz2014frdz  -0.08530
gfz2014frez  -0.51050
gfz2014frfl  -0.35310
gfz2014frwh   0.30900
gfz2014ftka  -0.26310
gfz2014ftpw   0.29190
gfz2014furx   0.32580
gfz2014fusj  -0.37900
gfz2014fval   0.36030
gfz2014fvgh   0.03750
gfz2014fvrg   0.00390
gfz2014gbcz  -0.01670
gfz2014ghpe  -0.20200
gfz2014gkgf  -0.34260
gfz2014gkhy  -0.44820
gfz2014gkjl   0.95190
gfz2014gkob  -0.00300
gfz2014gkqf   0.57060
gfz2014gkqu  -0.67930
gfz2014gktq  -0.01860
gfz2014glcu   0.17700
gfz2014gltx  -0.14760
gfz2014gmge  -1.17670
gfz2014gmhr  -0.48410
gfz2014gmku   0.58360
gfz2014gmnb  -0.23890
gfz2014gmnw  -0.17670
gfz2014gmuk   0.03440
gfz2014gmzl  -1.07310
gfz2014gngg   0.32690
gfz2014goba  -0.06300
gfz2014goqw  -0.41490
gfz2014gori   0.20480
gfz2014gpuk  -0.85680
gfz2014gpya  -0.05960
gfz2014gqer  -0.17210
gfz2014gsqs   0.42600
gfz2014gull   0.52740
gfz2014gwab  -0.51400
gfz2014gxxo  -0.49040
gfz2014hasj  -0.29170
gfz2014hauo   0.37140
gfz2014hgqo  -0.33090
gfz2014hjgr   0.29030
gfz2014hocg   0.12040
gfz2014hqxs  -0.28780
gfz2014hrft  -0.88000
gfz2014huaj   0.36100
gfz2014hzfw   0.23950
gfz2014issk   0.47680
gfz2014itkw   0.39600
gfz2014itpj   0.07390
gfz2014iwnf  -0.85380
gfz2014jjhc  -0.54230
gfz2014jjln  -0.34300
gfz2014jnyv   0.27790
gfz2014jpep  -0.15030
gfz2014jwmh   0.43910
gfz2014kbuk  -0.38940
gfz2014kndc  -0.55590
gfz2014knks  -0.23320
gfz2014knxs   0.34760
gfz2014kyan  -0.68000
gfz2014kytf  -0.12180
gfz2014lefs  -0.28860
gfz2014lgqn  -0.28530
gfz2014lhqn  -0.88880
gfz2014lkyf   0.19920
gfz2014lxnc  -0.16860
gfz2014lyhk  -0.76750
gfz2014lyhp  -0.10840
gfz2014macx  -0.15890
gfz2014madw  -0.26280
gfz2014nowp  -0.79170
gfz2014npeo   0.20120
gfz2014nphm  -0.49190
gfz2014nqfm   0.36070
gfz2014nrie   0.14380
gfz2014nvdi  -1.17090
gfz2014oinz  -0.07360
gfz2014owxc  -0.26080
gfz2014ppzf  -4.09200
gfz2014pvch   0.13720
gfz2014qdog   0.69210
gfz2014qlxd  -0.10300
gfz2014qngj  -0.78680
gfz2014qqhm  -0.48760
gfz2014rdsn  -0.79870
gfz2014ssvz  -0.55800
gfz2014tovs   0.50760
gfz2014tqdo  -0.14570
gfz2014ubwn  -0.24760
gfz2014watn   0.04140
gfz2015ixyy  -0.12740
gfz2015jmlu  -0.36780
gfz2015jwgl  -0.56510
gfz2015jzcv  -0.57910
gfz2015kkth   0.24660
gfz2015kquq   0.29630
gfz2015ksni  -0.05440
gfz2015kxxs  -0.63160
gfz2015lhjy   0.62020
gfz2015ltii  -1.47340
gfz2015lytv  -1.33510
gfz2015mddr  -0.33700
gfz2015mpte  -0.63540
gfz2015nwug  -0.51270
gfz2015ocdz  -0.24900
gfz2015okmq   0.02040
gfz2015oumn   0.08820
gfz2015oyfl   0.27730
gfz2015pdri  -0.84340
gfz2015prlr  -0.15550
gfz2015qnho   0.10270
gfz2015sfdd   0.47270
gfz2015sfdl  -0.23230
gfz2015sfdv   0.23290
gfz2015sfdy  -0.36570
gfz2015sfeo   0.31020
gfz2015sffn   0.62970
gfz2015sfga   1.17340
gfz2015sfiq  -0.64440
gfz2015sfnb   0.77450
gfz2015sfnv  -0.58620
gfz2015sfoc  -0.51410
gfz2015sfqo  -0.01340
gfz2015sfqr   1.11510
gfz2015sfrv   1.59860
gfz2015sfwf  -0.13610
gfz2015sfzm   0.57850
gfz2015sgad  -0.55350
gfz2015sgdn  -0.41090
gfz2015sghq   0.59180
gfz2015sgie  -0.45050
gfz2015sglg  -0.05620
gfz2015sguf   0.50220
gfz2015sgyd   0.96180
gfz2015shhu  -0.17300
gfz2015shjo   0.47200
gfz2015shsz   2.81570
gfz2015sjbx   0.02490
gfz2015sjgk   1.23480
gfz2015sjne   2.06130
gfz2015sjoj   0.27440
gfz2015sjvu  -0.10920
gfz2015sjwi   0.11520
gfz2015skxu  -0.35770
gfz2015slun  -0.91650
gfz2015smym   0.11890
gfz2015snsf  -0.18820
gfz2015snwh   0.27530
gfz2015snyd   0.54810
gfz2015soat   0.06040
gfz2015soxc   0.61900
gfz2015srat  -0.69290
gfz2015svwm   0.75360
gfz2015szcb   0.04130
gfz2015taml   0.30330
gfz2015tbdn  -0.15770
