# Nsamples: 268  MAD:  0.911  mean: -0.243  variance:  1.106
gfz2010aerk   1.66910
gfz2010ahqi  -1.29880
gfz2010bfzs  -0.79490
gfz2010bhhq   0.65340
gfz2010bifb  -0.98850
gfz2010bjeb  -1.08790
gfz2010bxxs  -0.68320
gfz2010caft  -1.99780
gfz2010chnv  -2.05230
gfz2010cqwl  -0.47560
gfz2010cres  -2.38710
gfz2010czps  -0.06130
gfz2010dlgc  -0.95890
gfz2010eaoy  -0.12300
gfz2010eapk  -0.34730
gfz2010eapn  -1.58180
gfz2010eaqe   0.61700
gfz2010eaqx  -0.03710
gfz2010eaqy   0.80630
gfz2010earq   0.55100
gfz2010earu  -0.28630
gfz2010easf  -1.10810
gfz2010eask   1.78890
gfz2010easo   0.31590
gfz2010easu   0.82930
gfz2010eato  -0.40120
gfz2010eaul  -0.28860
gfz2010eavs   0.48380
gfz2010eawb   0.71260
gfz2010eawu   0.29140
gfz2010eaxa  -1.14210
gfz2010eaxn   0.65620
gfz2010eaya  -1.14970
gfz2010eaze   1.66850
gfz2010eazu  -1.09260
gfz2010ebbd   0.89370
gfz2010ebby  -0.72200
gfz2010ebfa  -1.71840
gfz2010ebfx   2.61840
gfz2010ebhc  -1.34480
gfz2010ebih   0.38960
gfz2010ebin   1.88450
gfz2010ebiv   0.10530
gfz2010ebkj   0.12470
gfz2010ebla   0.15310
gfz2010ebll   0.65480
gfz2010ebmb   0.20370
gfz2010ebmi   1.49170
gfz2010ebnn   0.61020
gfz2010ebvm  -0.67750
gfz2010ebvv   1.04510
gfz2010ebwp  -1.50970
gfz2010ebxl   0.28910
gfz2010ebzk   1.66740
gfz2010ebzr   0.28860
gfz2010echy  -0.95720
gfz2010ecua  -0.60870
gfz2010ecvt   1.41440
gfz2010edvf  -0.34250
gfz2010edyi   4.68020
gfz2010eefo   2.11940
gfz2010eeij  -0.09150
gfz2010egsy  -0.32350
gfz2010eisx  -0.66250
gfz2010ekaw  -1.35910
gfz2010ekyc  -0.12020
gfz2010eltf  -1.02130
gfz2010elyc  -0.82270
gfz2010eqmu   4.75940
gfz2010erkn  -0.98060
gfz2010erom   0.88060
gfz2010excp   0.64780
gfz2010exdd   0.04490
gfz2010exdl  -0.15440
gfz2010exgb  -0.37600
gfz2010exno   0.28440
gfz2010exsg  -0.08820
gfz2010ezax  -0.10340
gfz2010ezck  -0.13420
gfz2010ezwz   1.46030
gfz2010ezxd  -0.31710
gfz2010fedq  -0.60230
gfz2010ffhq  -0.19370
gfz2010ffjb  -1.78140
gfz2010figq   1.84380
gfz2010fika   1.33150
gfz2010fpqy  -0.75720
gfz2010fync  -2.02850
gfz2010gcrl   1.25310
gfz2010gcrp  -1.48620
gfz2010gdld  -0.98270
gfz2010glxl   0.46540
gfz2010grjd  -0.19770
gfz2010gyqp  -0.96980
gfz2010hbka  -0.49250
gfz2010hllj  -0.71400
gfz2010hlln  -1.30110
gfz2010hlmq  -0.34630
gfz2010hndk   1.21250
gfz2010hnnf  -0.43700
gfz2010homc  -0.21310
gfz2010hptz   1.76240
gfz2010hxgv   0.23550
gfz2010icqq   0.81520
gfz2010iobp   0.65810
gfz2010iqnm  -1.28520
gfz2010iull  -1.01920
gfz2010kdyc  -1.58260
gfz2010mncc   0.23840
gfz2010moyw   0.29060
gfz2010mpuy  -1.17670
gfz2010nmpc  -0.74860
gfz2010nnny  -2.04650
gfz2010nqwo  -0.08570
gfz2010ntuo  -0.87790
gfz2010ocxq   1.56850
gfz2010pewa  -0.83230
gfz2010pewx  -1.64210
gfz2010sfee  -1.28140
gfz2010sfla   0.15000
gfz2010skqo   1.16630
gfz2010tcrl  -0.94520
gfz2010usho   0.22270
gfz2010xgzw  -0.06950
gfz2011adjs  -0.03680
gfz2011cndo   0.49820
gfz2011cvfg   0.77890
gfz2011cykd  -0.07190
gfz2011ecaj  -1.15710
gfz2011gkzt  -1.43700
gfz2011hlqw  -0.41080
gfz2011hlsa  -1.23360
gfz2011hpqp   0.73860
gfz2011jplh  -0.42860
gfz2011ntkh  -0.09440
gfz2011nudm   0.03040
gfz2011olkk  -0.88990
gfz2011ornx  -0.27390
gfz2011owvz  -0.92750
gfz2011rewa  -0.97370
gfz2011rgwp   2.14160
gfz2011sagt   0.81500
gfz2011tkog  -0.89760
gfz2011toub  -1.43670
gfz2011wxfs   1.34180
gfz2011xyxj  -0.23990
gfz2011zklv  -1.16870
gfz2012aqtq  -0.56040
gfz2012bpkx  -0.37740
gfz2012bpwl   0.09850
gfz2012byad  -0.29340
gfz2012cxdn  -0.43600
gfz2012dinb  -0.94250
gfz2012enno  -0.62050
gfz2012fzfa  -0.50140
gfz2012hnul  -0.87430
gfz2012jgvj  -0.57670
gfz2012kkup  -1.71470
gfz2012klhx  -1.13300
gfz2012kudo  -0.18020
gfz2012kvzv  -1.55950
gfz2012ldxg  -0.91760
gfz2012lxkv   0.29060
gfz2012lzmr  -1.26790
gfz2012minr  -0.63300
gfz2012mvwr  -1.07400
gfz2012oazn  -1.19200
gfz2012pqmu  -1.56090
gfz2012rats  -0.17010
gfz2012rqlg  -1.11730
gfz2012rwov  -0.97340
gfz2012sjea   0.19780
gfz2012syvl   0.11990
gfz2012wxlg  -0.09420
gfz2012zjpv   2.27810
gfz2013ccnr  -0.89510
gfz2013jkut  -1.10270
gfz2013kdeo  -1.68470
gfz2013lyko   0.34830
gfz2013pfbx   0.88180
gfz2013qzdq  -0.57420
gfz2013suvn   1.06260
gfz2013svci  -0.82010
gfz2013tcxc  -1.24940
gfz2013tusd  -1.66930
gfz2013vfzp   0.24360
gfz2013vjjc  -0.54500
gfz2013wjmm  -0.89410
gfz2013xmul  -1.28200
gfz2013xsdt  -1.49580
gfz2013xxwv  -0.04670
gfz2014afmx  -1.22000
gfz2014ande  -1.83070
gfz2014bwue   0.83860
gfz2014czua  -0.69310
gfz2014enhi   0.71450
gfz2014fgvi  -0.48390
gfz2014fhla   1.68750
gfz2014frel  -2.31880
gfz2014ftka   0.00070
gfz2014furx   0.93300
gfz2014fusj  -2.05760
gfz2014fval   0.52080
gfz2014fvrg   0.78640
gfz2014gbcz  -0.63010
gfz2014gkgf  -0.65260
gfz2014gkgs  -1.49810
gfz2014gkqf  -0.37590
gfz2014gmge  -1.85590
gfz2014gmhr  -0.15660
gfz2014gmnb   0.04420
gfz2014gmnw   1.12450
gfz2014goba  -0.38000
gfz2014gori  -0.49690
gfz2014gpuk   0.49890
gfz2014gull  -1.48460
gfz2014hcmj  -0.60430
gfz2014hfhl  -0.08300
gfz2014hocg  -1.20020
gfz2014inbj  -1.11960
gfz2014jjhc  -0.37630
gfz2014jwmh  -0.34880
gfz2014lnmw   0.80320
gfz2014lxnc  -1.26620
gfz2014lyhk  -1.43680
gfz2014nqfm   0.82610
gfz2014oinz  -0.15380
gfz2014pvch  -2.26180
gfz2014qlxd  -0.88370
gfz2014qngj  -0.88310
gfz2014qqhm  -1.41590
gfz2014ryfb  -0.71530
gfz2014ssvz  -0.58290
gfz2015bucr  -0.64680
gfz2015chhn  -0.74130
gfz2015cxxk  -0.68190
gfz2015cyjd  -0.52160
gfz2015dvbn  -0.80420
gfz2015fjhk  -1.12170
gfz2015fkgt  -0.49750
gfz2015fkic   0.34050
gfz2015fsjj  -1.82360
gfz2015gckd  -0.45990
gfz2015jwgl  -0.65430
gfz2015lytv  -0.35790
gfz2015ocdz  -0.70900
gfz2015rddx  -0.92410
gfz2015sfdd  -0.06620
gfz2015sfdv  -0.30570
gfz2015sfdy   0.15260
gfz2015sfeo  -0.83390
gfz2015sfiq   1.85700
gfz2015sfko   0.34070
gfz2015sfnb   0.83540
gfz2015sfno   1.82330
gfz2015sfnv  -0.67770
gfz2015sftu   0.53140
gfz2015sfwf  -0.61120
gfz2015shsz   1.12030
gfz2015sjoj  -0.15460
gfz2015sjvu   0.22130
gfz2015snwh   0.22070
gfz2015snyd  -0.16750
gfz2015soat  -0.03780
gfz2015soxc   0.26020
gfz2015svwm   0.13090
gfz2015szcb  -0.05970
gfz2015taml  -0.55690
