# Nsamples: 466  MAD:  0.953  mean:  0.298  variance:  2.900
gfz2010aban  -0.03770
gfz2010aerk  -0.79110
gfz2010bowy   0.24520
gfz2010boxo   0.55150
gfz2010bpda  -0.21970
gfz2010bxxs  -0.71030
gfz2010caft  -1.33710
gfz2010cbkg  -0.32110
gfz2010cdbt  -0.46320
gfz2010chnv  -0.28780
gfz2010cind  -1.28890
gfz2010civi  -1.28830
gfz2010cjmx  -0.06970
gfz2010cjqh  -0.86760
gfz2010cjrf   0.36970
gfz2010ckeu  -0.41160
gfz2010ckzm   0.15040
gfz2010cnwc  -0.47090
gfz2010cptb  -0.13880
gfz2010cqwl  -0.82970
gfz2010cres  -0.09730
gfz2010czps  -1.58210
gfz2010ddzo  -0.31640
gfz2010dejx  -0.31780
gfz2010dfru   0.15330
gfz2010diqn  -0.91480
gfz2010dlgc  -0.68880
gfz2010dtmx   1.90510
gfz2010dumm  -0.70110
gfz2010emyz  -0.70050
gfz2010engw   1.84190
gfz2010enpa   0.04420
gfz2010ensu   5.33710
gfz2010enzl  -0.56840
gfz2010eoao  -1.50420
gfz2010eohh   1.18260
gfz2010eomb  -0.21180
gfz2010epbe   0.24280
gfz2010epud   0.15430
gfz2010epxj   1.04490
gfz2010eqcn  -1.36820
gfz2010eqjg  -0.49260
gfz2010eqmu  -3.92910
gfz2010eqse   2.71010
gfz2010eqwl  -1.95870
gfz2010erda   3.67460
gfz2010erdi  -3.56310
gfz2010erkn  -0.40740
gfz2010ermi   1.07990
gfz2010erna  -0.29590
gfz2010erom  -0.95460
gfz2010erum   7.24450
gfz2010eruy  -0.48470
gfz2010erwn   0.43700
gfz2010erxb  -1.42550
gfz2010erxk   1.09700
gfz2010esid   3.98650
gfz2010esmg   0.42360
gfz2010esou  -0.27340
gfz2010eted   0.43760
gfz2010etfw   1.39680
gfz2010euan   1.23460
gfz2010eujm   0.60700
gfz2010euvl   0.24430
gfz2010euwb   1.38080
gfz2010euxe   1.34520
gfz2010evco   1.17360
gfz2010evgf   0.59750
gfz2010evjv   2.31690
gfz2010evkd   0.36440
gfz2010ewbc   3.20730
gfz2010ewvc   0.98420
gfz2010ewyu   4.25350
gfz2010excp   2.11510
gfz2010exdd   0.47840
gfz2010exdl   0.68620
gfz2010exel   0.73210
gfz2010exfb  -0.12910
gfz2010exgb   0.69570
gfz2010exhd   2.24240
gfz2010exhw   1.05470
gfz2010exmc   1.22700
gfz2010exno  -3.15720
gfz2010exqu   0.00000
gfz2010exsg   0.09780
gfz2010exts   0.64680
gfz2010eyaz  -0.03330
gfz2010eyiv  -0.09300
gfz2010eyqe   0.03810
gfz2010eyvq   2.57390
gfz2010eyxe   1.64420
gfz2010ezax   2.04330
gfz2010ezck  -0.07310
gfz2010ezvt   1.19000
gfz2010ezwz  -0.29150
gfz2010ezxd  -2.28070
gfz2010faeu  -0.44150
gfz2010falm   0.07050
gfz2010fauz   0.67050
gfz2010fbeu   2.46360
gfz2010fbwe   0.66800
gfz2010fcax   1.91060
gfz2010fciw   3.73440
gfz2010fcnn  -0.36210
gfz2010fcnt   1.27900
gfz2010fcxy  -0.22950
gfz2010fcyj  -3.58850
gfz2010fczt   3.54760
gfz2010fdab   2.76990
gfz2010fdxr  -0.31000
gfz2010fedq   1.38730
gfz2010fexw  -0.14870
gfz2010ffhq   0.39440
gfz2010ffjb   0.54990
gfz2010ffui   4.48960
gfz2010fhbl   2.07110
gfz2010fihj   0.24060
gfz2010fika  -0.79970
gfz2010fixr   1.67970
gfz2010fjal   2.12290
gfz2010fjmu  -0.13130
gfz2010fkhd  -0.35940
gfz2010fknh   0.96360
gfz2010flha   0.72260
gfz2010flkj   0.60740
gfz2010floi   3.28960
gfz2010flrt   2.14440
gfz2010flxi   0.07490
gfz2010fmhb   1.87490
gfz2010fmip   4.03520
gfz2010fmpy   0.06120
gfz2010fneu   1.66580
gfz2010fnrk  -1.37620
gfz2010fobc   1.59830
gfz2010fpqy  -0.11180
gfz2010fqdu  -1.00130
gfz2010fqtj  -0.77150
gfz2010fser   6.76290
gfz2010fsth   2.89070
gfz2010ftlm  -0.51850
gfz2010fupn  -0.85050
gfz2010fuuy   1.11340
gfz2010fuwa   4.62130
gfz2010fwkk   4.13320
gfz2010fwlb  -0.17920
gfz2010fwzd  -0.18010
gfz2010fyen  -1.30930
gfz2010gcdn   2.56450
gfz2010gceb   0.25100
gfz2010gcrl   1.83780
gfz2010gdch   2.81100
gfz2010gdld  -0.77720
gfz2010geru   0.95780
gfz2010ghyk  -0.39370
gfz2010ginm  -1.42900
gfz2010gjia  -0.88060
gfz2010gjvo   0.72910
gfz2010glqr   0.64090
gfz2010glxl   0.71140
gfz2010govu   0.51780
gfz2010grjd  -0.06940
gfz2010grss  -0.31930
gfz2010grxb   0.48600
gfz2010gslu  -0.32010
gfz2010gtzt  -0.12890
gfz2010gwmp  -0.59250
gfz2010gymo   0.10810
gfz2010gyqp  -1.16120
gfz2010hakh  -2.62690
gfz2010hbka  -0.40040
gfz2010hcio  -0.68260
gfz2010hevz  -0.64520
gfz2010hgld   3.31090
gfz2010hhls  -0.69770
gfz2010hjoc  -0.23160
gfz2010hllj   3.68320
gfz2010hlln  -0.36170
gfz2010hlmq  -0.07500
gfz2010hlvr  -0.30220
gfz2010hmhm   3.50090
gfz2010hndk  -0.55360
gfz2010hnnf  -0.08390
gfz2010hnpi   2.80570
gfz2010hnzr  -0.10060
gfz2010homc  -0.85440
gfz2010hptz   0.14530
gfz2010hrkr  -0.69070
gfz2010htdq   1.15490
gfz2010hufk  -0.36140
gfz2010hxgv   0.42570
gfz2010hxhe  -0.91720
gfz2010hykt  -0.10560
gfz2010hzar   1.17870
gfz2010ibiy   2.07420
gfz2010ibxj  -0.27430
gfz2010iciq  -0.46910
gfz2010icqq   0.03950
gfz2010ihrq   2.37680
gfz2010okdm   0.18390
gfz2010oluw  -1.93240
gfz2010omla   0.19670
gfz2010onma  -1.67280
gfz2010osjs   0.56980
gfz2010osqo  -0.76120
gfz2010otbn  -1.02700
gfz2010oyqy   0.54120
gfz2010pbdz   0.22300
gfz2010pcxi  -1.05890
gfz2010pdtk  -0.36190
gfz2010pets   0.40340
gfz2010pewa  -0.32670
gfz2010pewx   2.76320
gfz2010pexf  -0.42000
gfz2010pfyu  -0.08010
gfz2010phvg  -0.97910
gfz2010plbg   0.21220
gfz2010pmqd   0.78290
gfz2010pqck  -1.31640
gfz2010pxak  -0.44390
gfz2010pxgh   1.37670
gfz2010pxls  -1.23960
gfz2010qbng  -0.33410
gfz2010qitd  -1.10970
gfz2010qjst  -1.17550
gfz2010qkat  -0.41970
gfz2010qpcq  -0.10790
gfz2010qpvi   0.70320
gfz2010qttw  -0.47070
gfz2010qwwx   1.87450
gfz2010rkfp  -0.38150
gfz2010rlbv   2.11470
gfz2010rqwj   0.01470
gfz2010rywq   1.18470
gfz2010rzrr   3.97720
gfz2010sfee  -0.24120
gfz2010sfla   1.24250
gfz2010sgzk   6.66980
gfz2010skqo  -1.54130
gfz2010skve   0.52330
gfz2010srdb  -0.92870
gfz2010svtn   1.87310
gfz2010svve   0.91830
gfz2010swcy  -0.04370
gfz2010sxfq  -0.25930
gfz2010sxwt  -0.18810
gfz2010sysw  -0.34170
gfz2010szde   7.19750
gfz2010szim  -0.10830
gfz2010tcbr  -0.72360
gfz2010tcrl   2.47610
gfz2010titk   0.38320
gfz2010truw   0.98800
gfz2010txjs   2.68010
gfz2010uept  -0.41970
gfz2010wofs  -0.34130
gfz2010wrxx   1.55140
gfz2010wxqa   1.38900
gfz2010xbcr  -0.52740
gfz2010xbdv   1.79890
gfz2010xbgs  -1.04890
gfz2010xcdh  -1.27120
gfz2010xche  -0.04540
gfz2010xcij  -0.64010
gfz2010xden  -0.88840
gfz2010xgfc  -0.17560
gfz2010xgzw   0.17150
gfz2010xjsj  -1.63260
gfz2010yfsv   0.43710
gfz2010yjev  -1.49290
gfz2010ymfy  -0.29090
gfz2010ymur   0.02530
gfz2010yosr  -0.33860
gfz2010yoyx  -0.00000
gfz2010yqqb   0.01190
gfz2010yqqv  -1.12990
gfz2010yzgq   0.20890
gfz2010zdpo  -0.68350
gfz2011aatr   0.02440
gfz2011adjs   0.71570
gfz2011adlj   1.04290
gfz2011adne  -1.75940
gfz2011adqk   0.13480
gfz2011ahfw  -1.44810
gfz2011alip  -0.62990
gfz2011alsa   1.81040
gfz2011anur  -0.22640
gfz2011aosc   0.52760
gfz2011aqxf   1.86550
gfz2011asru   0.64820
gfz2011aupi   1.34610
gfz2011bgrp  -0.26660
gfz2011bhha   0.44250
gfz2011bnzn  -0.66290
gfz2011bpkd  -0.28980
gfz2011bswz  -0.93780
gfz2011cfae  -0.19930
gfz2011cndo   1.43610
gfz2011coxh   0.77910
gfz2011crdy   0.15240
gfz2011csju  -1.47340
gfz2011ctbn  -0.52740
gfz2011cvcg  -0.27780
gfz2011cvfg  -1.48180
gfz2011cykd   0.10060
gfz2011cylz   1.13370
gfz2011cynl  -1.13710
gfz2011cyre  -0.37190
gfz2011cyuk  -0.20270
gfz2011czwj   1.85970
gfz2011dbev  -0.49850
gfz2011dbig   0.21930
gfz2011dbon   0.86480
gfz2011dbwt  -0.50360
gfz2011dcqb  -0.20510
gfz2011ddao  -1.07580
gfz2011dddh   3.00140
gfz2011deaf   0.13390
gfz2011deja  -0.48890
gfz2011dkyi   0.25160
gfz2011dlyx   0.94760
gfz2011dmat  -0.38080
gfz2011dndz  -0.99020
gfz2011dpaa  -0.54850
gfz2011dpmx   0.11440
gfz2011dpqx  -0.24310
gfz2011duyr   1.30740
gfz2011eayc  -1.21910
gfz2011eazf  -0.09270
gfz2011ecsc   3.18830
gfz2011edmm   0.07650
gfz2011efgv  -0.63190
gfz2011ehzq   2.19810
gfz2011eiis   1.02370
gfz2011ejlp  -0.77940
gfz2011ekpr  -0.50320
gfz2011eltw   0.04450
gfz2011enva  -0.18740
gfz2011eocc  -0.63410
gfz2011etje  -0.62120
gfz2011fdzv  -0.37290
gfz2011fgvr   4.77220
gfz2011fhag  16.76040
gfz2011fhbm  -0.55420
gfz2011fhur   0.71570
gfz2011fkbn  -0.43120
gfz2011flgj  -0.24860
gfz2011flhp   0.01710
gfz2011fnsw  -1.56920
gfz2011gbmx  -0.30940
gfz2011gcwb   0.41500
gfz2011ggvf  -1.13540
gfz2011gjlx  -0.26180
gfz2011gkzt  -0.03150
gfz2011gzbr   4.38940
gfz2011haid   3.86780
gfz2011hbex  -0.94500
gfz2011hbqk  -0.59680
gfz2011hebt  -1.02880
gfz2011hfkj   1.64150
gfz2011hlqw  -0.02510
gfz2011hlsa  -0.07580
gfz2011hlth  -0.30480
gfz2011hpgx   0.97130
gfz2011hpqp   0.91760
gfz2011hrhe  -0.49190
gfz2011hvbu   2.11850
gfz2011icxe  -1.83030
gfz2011ieie  -0.03780
gfz2011ixai  -0.35940
gfz2011lvjr  -0.55760
gfz2011lzwj   0.14230
gfz2011mdie  -1.84590
gfz2011mjom  -0.79640
gfz2011mllx  -0.46190
gfz2011mlvw  -0.45080
gfz2011mpme   3.27290
gfz2011mprq  -1.81390
gfz2011nauw  -0.50100
gfz2011necz  -0.55770
gfz2011nkaz   0.09470
gfz2011nmqj   1.35030
gfz2011noud   4.29110
gfz2011nowp  -0.52230
gfz2011npgs  -0.55870
gfz2011nqpd  -0.49630
gfz2011nrwc  -0.91640
gfz2011nrwv  -0.70790
gfz2011nsex  -0.84160
gfz2011ntkh  -0.17700
gfz2011ntrv  -0.68180
gfz2011nudm  -0.12990
gfz2011ogqk   2.11080
gfz2011ohcy  -2.12570
gfz2011oiqe  -0.10220
gfz2011oiwk  -0.75000
gfz2011olkk   1.74210
gfz2011oolr  -0.26600
gfz2011ornx   1.45970
gfz2011owvz  -1.32970
gfz2011pccd  -1.08370
gfz2011pdpt  -1.23650
gfz2011pdst  -0.79040
gfz2011phms   0.61370
gfz2011ptus  -1.34190
gfz2011qigx   0.98310
gfz2011qoif   0.49330
gfz2011qvae   1.11720
gfz2011qyms   6.46590
gfz2011rewa   0.02220
gfz2011rgwp   2.49450
gfz2011rnut  -0.98300
gfz2011rqui  -0.21830
gfz2011rsrh   1.76020
gfz2011runa  -0.64100
gfz2011rznl  -0.04810
gfz2011sagt  -0.64050
gfz2011sawg  -0.75120
gfz2011shqm  -1.17030
gfz2011stal  -1.54460
gfz2011sthv  -0.97790
gfz2011svix  -0.24950
gfz2011syjd   0.48660
gfz2011tbas   2.81270
gfz2011tcij  -0.36100
gfz2011tivu  -0.79310
gfz2011tjrf   2.18440
gfz2011tjue  -0.01940
gfz2011tkfp   0.82660
gfz2011tkog  -0.40910
gfz2011tnag  -0.42160
gfz2011toub   0.76230
gfz2011tpbl  -0.53070
gfz2011tpfr  -0.67650
gfz2011tsfd  -1.41060
gfz2011tsnp  -0.93210
gfz2011tuea  -0.69850
gfz2011twov  -0.40730
gfz2011udsq   0.00000
gfz2011ueni   0.05010
gfz2011uepx  -0.17920
gfz2011ugzz   0.68170
gfz2011uiul   0.09960
gfz2011ujze  -0.90410
gfz2011ukmp  -0.64960
gfz2011unkx  -0.99850
gfz2011uphh  -0.52960
gfz2011urxy  -0.17050
gfz2011urzu  -0.32620
gfz2011uzqv  -0.43560
gfz2011wcic   0.38470
gfz2011wfja  -0.80880
gfz2011wijj  -0.64460
gfz2011wjul  -0.45370
gfz2011wtmq  -0.92450
gfz2011wvzb  -0.34790
gfz2011wwjs   1.30010
gfz2011wxfs  -0.75050
gfz2011wxoj  -0.14600
gfz2011wxtk  -1.12590
gfz2011wype   0.04810
gfz2011xaan  -2.22710
gfz2011xcpv  -2.62930
gfz2011xesx  -0.15630
gfz2012pqlt   0.12400
gfz2012pqmk  -0.44620
gfz2012pqmu  -0.26080
