# Nsamples: 1861  MAD:  0.742  mean: -0.254  variance:  1.521
gfz2010aban   0.21770
gfz2010aerk  -1.90380
gfz2010ahla  -0.23750
gfz2010ahqi   0.02900
gfz2010aphp  -1.16140
gfz2010awfi  -0.43410
gfz2010bedu   0.14140
gfz2010bfzs  -3.84590
gfz2010bgth  -0.51530
gfz2010bhhq  -3.32930
gfz2010bifb   0.70380
gfz2010bjeb  -0.28130
gfz2010bjjx  -1.24540
gfz2010bjsl  -0.54500
gfz2010bkob   1.61990
gfz2010bowy   1.09470
gfz2010boxo  -1.32930
gfz2010bpda   0.12630
gfz2010bxxs  -1.31770
gfz2010caft  -2.13430
gfz2010cbkg  -0.90480
gfz2010cdbt  -0.23490
gfz2010chnv  -0.13100
gfz2010cind  -0.19160
gfz2010civi  -1.93830
gfz2010cjmx   3.93830
gfz2010cjqh   0.10990
gfz2010cjrf   0.21150
gfz2010ckeu  -0.16210
gfz2010ckzm  -0.34970
gfz2010cnwc   0.12500
gfz2010cptb  -0.98670
gfz2010cqwl  -1.60100
gfz2010cres  -1.22060
gfz2010ctuw  -2.26160
gfz2010czps  -0.88660
gfz2010ddzo  -2.01600
gfz2010dejx  -0.17180
gfz2010dfru  -0.85770
gfz2010diqn  -0.07580
gfz2010dlgc  -1.09640
gfz2010dtmx  -0.34130
gfz2010dumm  -0.66020
gfz2010ejae   0.86680
gfz2010ejjg  -0.51140
gfz2010ejxf   2.26730
gfz2010ekoe  -0.52470
gfz2010ekrv  -0.26080
gfz2010ekyc  -0.62640
gfz2010elhv   0.40480
gfz2010elin  -0.58920
gfz2010eljf   2.25620
gfz2010elsw  -1.45390
gfz2010eltf   1.17860
gfz2010elvp  -0.11310
gfz2010elxi   1.53910
gfz2010elyc   0.53370
gfz2010elyo  -0.91410
gfz2010elzf   3.75730
gfz2010elzl   5.84040
gfz2010emyz  -1.06860
gfz2010enpa  -0.81260
gfz2010ensu   4.89220
gfz2010enzl  -0.47340
gfz2010eoao  -1.25640
gfz2010eohh  -0.92560
gfz2010eomb  -1.02560
gfz2010epud   0.30520
gfz2010epxj   1.33880
gfz2010epzk  -0.15030
gfz2010eqcn  -0.02220
gfz2010eqjg  -1.18190
gfz2010eqmu  -4.31530
gfz2010eqse   1.00210
gfz2010erdi  -1.68600
gfz2010erkn  -0.52820
gfz2010erna  -0.25060
gfz2010erom  -3.46920
gfz2010eruy   0.69340
gfz2010erwn   2.74290
gfz2010erxb  -4.44520
gfz2010eryg  -2.52720
gfz2010esmg   0.51430
gfz2010esou   5.01650
gfz2010eted  -0.02190
gfz2010etfw   1.27320
gfz2010euae   0.82240
gfz2010eujm  -0.81750
gfz2010euvl  -0.76570
gfz2010euwb   1.52500
gfz2010euxe   0.27040
gfz2010evco   1.53060
gfz2010evgf   1.75460
gfz2010ewbc   2.01910
gfz2010ewpq   1.90480
gfz2010ewyu   0.30040
gfz2010excp   1.45970
gfz2010exdd   2.53720
gfz2010exdl   1.10790
gfz2010exel   0.05840
gfz2010exfb  -0.40510
gfz2010exgb  -0.18760
gfz2010exhd   2.10860
gfz2010exhw  -0.49040
gfz2010exjw   0.04400
gfz2010exmc   1.48800
gfz2010exno   1.41150
gfz2010exou  -2.23270
gfz2010exsg  -0.43460
gfz2010exts  -1.92750
gfz2010exyp  -1.05410
gfz2010eyaz   0.61740
gfz2010eyhh  -0.41090
gfz2010eyiv  -2.46460
gfz2010eymr   0.27750
gfz2010eyqe   1.44160
gfz2010eyvq   1.75970
gfz2010eyxe   1.33620
gfz2010ezax   0.80700
gfz2010ezck   0.27580
gfz2010ezjk   0.07950
gfz2010ezvt   0.48540
gfz2010ezwz  -0.83890
gfz2010ezxd   0.17820
gfz2010faeu   1.41670
gfz2010falm   2.39700
gfz2010fauz   0.77240
gfz2010fbwe   0.52000
gfz2010fciw   0.88210
gfz2010fcnn   2.18220
gfz2010fcnt   1.18960
gfz2010fcxy   0.55520
gfz2010fcyj  -0.25660
gfz2010fczt   2.28790
gfz2010fdab   3.19890
gfz2010fdxr  -0.78850
gfz2010fedq  -1.12400
gfz2010fexw  -0.07450
gfz2010ffhq   0.48130
gfz2010ffjb   0.60360
gfz2010ffui   0.15930
gfz2010fhbl   1.28030
gfz2010figq   0.01600
gfz2010fihj   0.15330
gfz2010fika   0.50820
gfz2010fixr   0.52400
gfz2010fjal  -0.02170
gfz2010fjas   1.26020
gfz2010fjmu  -0.28600
gfz2010fkhd  -1.09990
gfz2010fknh   0.90300
gfz2010fkvg   8.23570
gfz2010flha   0.38230
gfz2010flkj   1.09570
gfz2010flxi   0.66210
gfz2010fmhb   1.82990
gfz2010fmpy   0.21350
gfz2010fmwb   2.57180
gfz2010fneu   0.73150
gfz2010fnrk  -1.30660
gfz2010fobc   0.87100
gfz2010fona   0.67550
gfz2010fpqy   0.12870
gfz2010fqdu   0.27310
gfz2010fqtj   0.19770
gfz2010fser  -0.05570
gfz2010ftlm  -0.61630
gfz2010fuuy   0.08420
gfz2010fuwa   3.30810
gfz2010fwkk   2.67780
gfz2010fwlb  -0.19800
gfz2010fwzd   0.09790
gfz2010fyen   1.26690
gfz2010gcdn  -0.70880
gfz2010gcrl   1.64480
gfz2010gdch  -1.31440
gfz2010gdld   0.10810
gfz2010ghyk  -1.32120
gfz2010ginm  -0.48700
gfz2010gjia  -1.40650
gfz2010glqr   3.76810
gfz2010glxl   0.34200
gfz2010govu   2.30000
gfz2010grjd   0.12770
gfz2010grss   0.11950
gfz2010gslu   1.55220
gfz2010gtzt   0.27410
gfz2010gymo   0.39650
gfz2010gyqp  -1.27240
gfz2010gzxr  -1.16610
gfz2010hbka   1.57550
gfz2010hevz  -0.26990
gfz2010hgld   2.13640
gfz2010hhls  -1.69320
gfz2010hjoc  -0.75130
gfz2010hllj  -1.75290
gfz2010hlln   0.67960
gfz2010hlmq   1.46720
gfz2010hlvr  -0.46680
gfz2010hmhm   1.17370
gfz2010hndk  -1.34890
gfz2010hnnf   0.50530
gfz2010hnpi   2.32330
gfz2010homc  -0.81010
gfz2010hptz   0.71410
gfz2010hrkr   0.44750
gfz2010hufk  -0.93200
gfz2010hxgv   0.61230
gfz2010hxhe  -0.14490
gfz2010hykt   0.39240
gfz2010hzar   1.53900
gfz2010ibiy   2.05790
gfz2010ibxj  -0.17650
gfz2010iciq   0.23630
gfz2010icqq   2.61250
gfz2010iefy   1.48260
gfz2010ijtk  -0.47640
gfz2010imsh  -0.58950
gfz2010iobp  -2.84760
gfz2010iphd   2.56130
gfz2010iqep   2.66350
gfz2010iqfm   2.32400
gfz2010iqnm   1.24430
gfz2010iqus  -1.37780
gfz2010irqr   1.58250
gfz2010irvf  -1.26650
gfz2010isrp   2.07470
gfz2010ited  -0.20520
gfz2010itpb   2.29430
gfz2010iull   0.01010
gfz2010jant  -0.06520
gfz2010jhie  -0.41440
gfz2010jitt   2.50260
gfz2010jkxj  -0.21450
gfz2010jucj  -1.24600
gfz2010jwpy   0.55070
gfz2010jxbm  -0.98130
gfz2010jygz   0.07200
gfz2010kdyc   1.04330
gfz2010kihf   0.39810
gfz2010kmsv  -0.41070
gfz2010kown   1.59750
gfz2010kqyh  -0.68620
gfz2010kraw   0.32890
gfz2010kyen  -0.18730
gfz2010kzml  -2.76490
gfz2010lczp  -0.34910
gfz2010lepw   0.14340
gfz2010lfju  -0.49410
gfz2010liqs   0.83530
gfz2010lkcf  -2.79240
gfz2010lrlk   1.61470
gfz2010lsft  -0.35930
gfz2010lwuq  -0.87500
gfz2010lyfk  -0.45430
gfz2010mdpq  -0.56250
gfz2010oluw   0.85600
gfz2010omla  -0.50310
gfz2010onma  -3.02670
gfz2010osjs  -0.05130
gfz2010osqo  -1.49810
gfz2010otbn  -1.42400
gfz2010oyqy   0.29100
gfz2010pbdz   0.38130
gfz2010pcxi  -1.75660
gfz2010pdtk  -0.09440
gfz2010pets   0.89680
gfz2010pewa  -0.83660
gfz2010pewx   1.56270
gfz2010pexf  -0.49570
gfz2010pfyu   0.33670
gfz2010phvg   0.23830
gfz2010plbg  -0.14410
gfz2010pmqd   1.14000
gfz2010pqck  -2.94640
gfz2010pxak  -0.49900
gfz2010pxgh  -0.53740
gfz2010pxls  -1.58740
gfz2010qbng  -0.95500
gfz2010qitd  -2.39080
gfz2010qjst  -0.13450
gfz2010qkat  -0.48540
gfz2010qpcq  -0.46700
gfz2010qpum  -1.46970
gfz2010qpvi  -0.38560
gfz2010qttw   0.09110
gfz2010qwwx   0.92980
gfz2010rkfp  -0.13530
gfz2010rlbv  -0.51810
gfz2010rqwj  -0.97130
gfz2010rywq   1.24830
gfz2010sfee  -0.68560
gfz2010sfla   1.67140
gfz2010skqo  -0.92810
gfz2010skve   2.95700
gfz2010srdb  -0.40780
gfz2010svtn   2.40820
gfz2010svve  -0.39730
gfz2010swcy  -0.60510
gfz2010sxfq  -0.57170
gfz2010sxwt   2.30560
gfz2010sysw  -0.32910
gfz2010szim  -0.29750
gfz2010tcbr   4.23570
gfz2010tcrl   7.40870
gfz2010titk  -0.71690
gfz2010truw   3.13680
gfz2010uept   0.14180
gfz2010uouo  -2.27800
gfz2010upfb  -0.75350
gfz2010upiw  -0.95790
gfz2010urlq   0.05450
gfz2010usho  -0.82050
gfz2010ustq  -0.53540
gfz2010utcg   0.50330
gfz2010utmc  -0.68320
gfz2010uvhf  -0.66620
gfz2010uyhb  -0.53130
gfz2010vppc  -0.99500
gfz2010vtdg  -0.32270
gfz2010vxvs  -0.19480
gfz2010vyxd  -0.69070
gfz2010vzzz  -0.17770
gfz2010wioh  -0.80510
gfz2010wntz  -0.83210
gfz2010wofs   0.40810
gfz2010wrxx   0.02190
gfz2010xbcr   0.20630
gfz2010xbgs  -0.40740
gfz2010xcdh   0.39610
gfz2010xche   1.06300
gfz2010xcij  -0.36480
gfz2010xden  -1.31020
gfz2010xgfc  -0.08740
gfz2010xgzw   6.29770
gfz2010xjck   0.00000
gfz2010xjsj  -2.28360
gfz2010xnxk  -1.77860
gfz2010xxdb   0.34510
gfz2010xxzn  -1.23750
gfz2010yjev   4.33090
gfz2010yosr  -0.12370
gfz2010yoyx   0.29070
gfz2010yqqb  -0.07400
gfz2010yzgq  -0.10300
gfz2010zdpo  -0.91670
gfz2011aatr   0.07740
gfz2011adjs   1.88650
gfz2011adlj   2.57060
gfz2011adqk   0.92230
gfz2011aeay   0.37010
gfz2011ahfw  -1.79460
gfz2011alip  -0.96400
gfz2011alsa   1.34910
gfz2011anur   5.03160
gfz2011aqxf   0.50600
gfz2011asru  -1.43500
gfz2011aupi   0.50440
gfz2011bgrp  -0.25720
gfz2011bhha   0.75930
gfz2011blsi   0.68980
gfz2011bnzn  -0.17410
gfz2011bpkd  -0.04290
gfz2011bswz  -1.45240
gfz2011ccpw  -2.50720
gfz2011cfae  -0.12190
gfz2011cndo   1.65380
gfz2011crdy   0.49670
gfz2011ctbn  -0.14970
gfz2011cvcg  -0.28330
gfz2011cvfg  -2.36310
gfz2011cwgn   1.22680
gfz2011cykd   0.18820
gfz2011cylz  -0.61380
gfz2011cynl  -1.10090
gfz2011cyre  -0.02880
gfz2011cyuk  -0.27530
gfz2011czwj   0.26640
gfz2011dbev   0.26640
gfz2011dbig  -0.49850
gfz2011dbon   0.03710
gfz2011dbwt  -0.74650
gfz2011dcqb  -0.55400
gfz2011ddao   0.20360
gfz2011dddh   1.88240
gfz2011deaf   0.02360
gfz2011dkyi   0.17120
gfz2011dllz   0.18100
gfz2011dlyx  -0.27700
gfz2011dmat  -0.77690
gfz2011dndz  -1.35790
gfz2011dpmx   1.60320
gfz2011dpqx   0.51420
gfz2011dtpy   2.83090
gfz2011duyr   2.79240
gfz2011eayc  -1.50100
gfz2011eazf   0.13150
gfz2011edmm   0.24300
gfz2011efgv  -0.27100
gfz2011ehzq   0.57300
gfz2011eiis  -0.19230
gfz2011ejlp  -1.71480
gfz2011eltw  -0.18940
gfz2011enva   0.01450
gfz2011eocc   0.01530
gfz2011etje  -2.61920
gfz2011fdzv  -0.37530
gfz2011fhbm  -0.64640
gfz2011fhur  -3.73770
gfz2011fkbn  -0.08300
gfz2011flgj  -1.15680
gfz2011flhp  -0.19920
gfz2011fnsw  -1.30900
gfz2011gbmx   0.57450
gfz2011gcwb   0.02090
gfz2011ggvf   0.02070
gfz2011gjlx  -0.82090
gfz2011gkzt   0.14370
gfz2011haid  -0.32830
gfz2011hbex  -1.35580
gfz2011hbqk  -0.78580
gfz2011hebt  -0.24960
gfz2011hfkj  -0.04850
gfz2011hlqw  -0.05030
gfz2011hlsa  -0.00000
gfz2011hlth  -0.06670
gfz2011hpgx   2.44820
gfz2011hpqp   0.89210
gfz2011hrhe  -1.09820
gfz2011hrhu   0.58920
gfz2011hvbu   0.52190
gfz2011icxe  -0.85700
gfz2011ieie  -0.42230
gfz2011iwte   1.09160
gfz2011ixai  -0.75950
gfz2011izqa  -1.23480
gfz2011jbbc  -0.13400
gfz2011jdsj  -0.12050
gfz2011jghb  -2.25350
gfz2011jmbn  -2.67320
gfz2011jnmi  -1.07810
gfz2011jplh  -0.07430
gfz2011jtlg   5.42230
gfz2011juid   1.15150
gfz2011jxpl  -0.11850
gfz2011knbi  -1.44760
gfz2011knoo  -0.27860
gfz2011kqwo  -0.49850
gfz2011kqyg   0.17320
gfz2011kwjx   0.86380
gfz2011kwkw   0.41720
gfz2011kwld  -1.01040
gfz2011kwni   0.40720
gfz2011kwqc   0.65370
gfz2011kwrf   0.79930
gfz2011kwsz  -1.70590
gfz2011kxzp   0.28560
gfz2011lczg  -1.00530
gfz2011lgsg  -1.26910
gfz2011lhls   5.34270
gfz2011lvjr  -0.35640
gfz2011lzwj  -0.65280
gfz2011mdie  -2.18980
gfz2011mjom  -0.43780
gfz2011mllx  -0.70010
gfz2011mlvw  -0.20000
gfz2011mpme   1.13210
gfz2011nauw  -0.64710
gfz2011necz  -0.20430
gfz2011nmnq  -3.18310
gfz2011nowp  -0.01390
gfz2011npgs  -0.54350
gfz2011nqpd  -0.68110
gfz2011nrwc  -0.55060
gfz2011nrwv  -0.38340
gfz2011nsex  -0.59200
gfz2011ntkh  -0.58420
gfz2011ntrv   0.09880
gfz2011nudm   0.88860
gfz2011ogqk   0.52100
gfz2011ohcy  -3.32860
gfz2011oiqe  -0.19220
gfz2011oiwk  -0.84810
gfz2011olkk   0.32830
gfz2011oolr  -0.83310
gfz2011orgn   0.86970
gfz2011ornx  -0.02390
gfz2011owvz  -1.97900
gfz2011pccd  -0.06790
gfz2011pdpt  -0.32720
gfz2011pdst  -1.40150
gfz2011phms   2.91560
gfz2011pntf   5.99550
gfz2011qoif  -0.36080
gfz2011qvae  -3.13710
gfz2011rabm   0.21410
gfz2011rewa   0.00840
gfz2011rgwp   0.57910
gfz2011rqui  -1.17630
gfz2011rsrh   1.99600
gfz2011runa  -0.82680
gfz2011rznl   0.46110
gfz2011sagt  -2.00080
gfz2011sawg   0.10030
gfz2011shqm  -0.29030
gfz2011stal  -0.43800
gfz2011sthv  -1.70330
gfz2011svix  -0.17740
gfz2011syjd  -3.44040
gfz2011tbas   0.97350
gfz2011tcij   0.19580
gfz2011tivu  -0.00000
gfz2011tjrf   0.19620
gfz2011tjue  -0.06700
gfz2011tkog  -0.26920
gfz2011tnag   0.21000
gfz2011toub  -0.00260
gfz2011tpbl  -0.19680
gfz2011tpfr  -1.08550
gfz2011tsfd  -1.30330
gfz2011tsnp  -0.56440
gfz2011tuea  -0.72980
gfz2011twov  -1.27000
gfz2011ueni   0.09630
gfz2011uepx  -0.13240
gfz2011uiul   0.34760
gfz2011ujze  -1.55630
gfz2011ukmp  -0.79820
gfz2011unkx  -0.44910
gfz2011uphh  -1.17400
gfz2011urxy  -0.15460
gfz2011urzu   0.01000
gfz2011vclt  -0.32030
gfz2011vhfi  -1.15700
gfz2011vkun  -1.73940
gfz2011vldk  -2.11230
gfz2011vnza  -1.73840
gfz2011vqnr  -0.25530
gfz2011vrhg  -1.11980
gfz2011vusi   3.31730
gfz2011vxod  -1.59190
gfz2011wcic   1.43240
gfz2011wfja  -1.12400
gfz2011wijj  -0.51570
gfz2011wjul  -2.06240
gfz2011wtmq   0.81600
gfz2011wvzb  -0.04950
gfz2011wwjs  -0.05600
gfz2011wxfs  -0.62940
gfz2011wxoj   0.46230
gfz2011wxtk  -1.81180
gfz2011wype  -1.51760
gfz2011xaan  -3.76020
gfz2011xesx  -0.85800
gfz2011xqru  -0.68390
gfz2011xyxj  -1.90350
gfz2011yfys  -0.80030
gfz2011yhwz   1.44900
gfz2011yybo  -1.04640
gfz2011yzwq  -0.35620
gfz2011zjap  -1.18620
gfz2011zlfg  -1.63060
gfz2011zlrd  -0.32960
gfz2011zqhh  -0.35400
gfz2012ablh  -0.44810
gfz2012ajtq   0.84210
gfz2012aqgp   4.12000
gfz2012aqtq  -1.01170
gfz2012attr  -2.71340
gfz2012bfyn  -0.33150
gfz2012bpkx  -0.35060
gfz2012bpwl   2.63800
gfz2012brhv  -0.58940
gfz2012byad  -0.74480
gfz2012cbed  -1.37020
gfz2012cnod   0.10180
gfz2012covm  -0.06820
gfz2012cqnl  -0.45350
gfz2012cqtc  -0.50750
gfz2012cxdn  -0.15140
gfz2012czlw  -0.61190
gfz2012ddma   0.09970
gfz2012dinb  -0.29110
gfz2012dves  -0.34090
gfz2012dyyh  -0.06180
gfz2012ekzf   2.17760
gfz2012elce   1.92450
gfz2012emjg   0.35360
gfz2012enno  -0.15720
gfz2012ewgo   0.26720
gfz2012ewkj  -0.35470
gfz2012ezvr  -1.17810
gfz2012foeo  -2.14370
gfz2012fwfo   1.29310
gfz2012fwob  -0.11880
gfz2012fwtr  -0.09720
gfz2012fzfa   0.16260
gfz2012gcgn   0.14520
gfz2012gill  -0.32370
gfz2012gkvr  -2.04400
gfz2012glss   0.58940
gfz2012gnvh  -0.82520
gfz2012gocc   2.55630
gfz2012gomm  -0.12480
gfz2012gwmu  -0.84100
gfz2012gwqb  -1.91700
gfz2012hdbm  -1.05050
gfz2012hnul   1.49760
gfz2012hogg  -2.67640
gfz2012holl  -0.15850
gfz2012hsex  -0.74630
gfz2012hwyo   0.29200
gfz2012hyaa  -0.20740
gfz2012hzbe   0.39510
gfz2012iamr   0.13050
gfz2012idje   0.25920
gfz2012iffo   0.99430
gfz2012ihdl   1.02920
gfz2012iivw   0.49430
gfz2012ilxh   0.29690
gfz2012imay   2.01950
gfz2012intn  -1.09520
gfz2012iyrb  -0.32640
gfz2012jlox  -0.43160
gfz2012joqe   0.00000
gfz2012jpgs  -0.19210
gfz2012jshk   0.12120
gfz2012jted   0.79140
gfz2012jupx  -1.39850
gfz2012jwhu  -0.19240
gfz2012jxiy  -1.64010
gfz2012kbjb   0.23300
gfz2012kbzj  -1.71100
gfz2012kdmb  -1.38150
gfz2012keor   1.68240
gfz2012kkcp  -0.75640
gfz2012kkup   0.19860
gfz2012klba  -1.76710
gfz2012klhx  -0.12300
gfz2012kuct  -0.28940
gfz2012kudo  -0.43590
gfz2012kvzv  -0.53630
gfz2012kwgo  -0.29660
gfz2012lboz  -0.18440
gfz2012lczo   1.01270
gfz2012ldxg  -0.55080
gfz2012ljql   0.11500
gfz2012llug   0.00000
gfz2012lpvn  -0.12790
gfz2012lrol   0.86940
gfz2012lsni  -0.66600
gfz2012lxkv  -1.31130
gfz2012lzmr  -0.13400
gfz2012maxy  -2.41240
gfz2012mdmy  -0.01240
gfz2012mlyf  -0.00450
gfz2012mtiu  -1.93870
gfz2012mupa  -0.93770
gfz2012mvwr   0.01140
gfz2012mwij  -0.39810
gfz2012nkdf  -1.18750
gfz2012nojx  -0.17830
gfz2012nolo   0.95340
gfz2012nqnk  -0.37120
gfz2012nsbz  -0.17490
gfz2012nxog   1.64730
gfz2012nxyt   0.05490
gfz2012oazn   0.11490
gfz2012obgw  -2.20050
gfz2012obnq  -0.54120
gfz2012oedb  -2.53080
gfz2012ofpe   0.98830
gfz2012okhx   0.65440
gfz2012omvo  -1.36970
gfz2012ostk   0.16560
gfz2012oycg   0.78070
gfz2012pazr  -2.77000
gfz2012peex   0.14560
gfz2012pkel  -0.85200
gfz2012plbw   1.53740
gfz2012plea  -3.80750
gfz2012pofl  -2.23310
gfz2012poju   0.07410
gfz2012pqmk  -0.85790
gfz2012pqmu  -0.13360
gfz2012priv  -0.70740
gfz2012prlt   0.94890
gfz2012pspd  -0.12600
gfz2012pygp  -2.71090
gfz2012qjhs  -1.72250
gfz2012qqqp  -1.20350
gfz2012qurq   0.35430
gfz2012quso  -1.92770
gfz2012rats   2.13650
gfz2012rboy  -0.62290
gfz2012rcbq  -0.50670
gfz2012repv  -1.35480
gfz2012ronz  -0.28260
gfz2012royy  -1.21220
gfz2012rqlg  -0.14770
gfz2012rtqi   0.15420
gfz2012ruks   0.47220
gfz2012rwko   0.50570
gfz2012rwov  -1.39940
gfz2012shtg   0.08010
gfz2012sphd  -0.25000
gfz2012sqmv  -1.11360
gfz2012sqvi   1.06030
gfz2012ssyn  -0.17950
gfz2012svpr  -0.47190
gfz2012syvl  -0.94690
gfz2012szla   0.18070
gfz2012taou   0.06540
gfz2012tazz  -1.29540
gfz2012tbbp  -2.24380
gfz2012teic  -0.88570
gfz2012thfx  -2.29770
gfz2012ttoa  -0.66430
gfz2012tyxl  -0.33680
gfz2012uaqj  -0.08060
gfz2012uciv  -1.30710
gfz2012ulpd  -1.84430
gfz2012uqzp  -0.65060
gfz2012usba  -0.17220
gfz2012uvqf  -0.97140
gfz2012uxnz  -2.15140
gfz2012uyie  -0.07400
gfz2012uzom  -0.98510
gfz2012viab  -1.21080
gfz2012vmeh  -1.47680
gfz2012vntz  -0.13530
gfz2012vpza  -0.56340
gfz2012vrua  -0.15640
gfz2012vsev  -0.00000
gfz2012vtxe  -2.59610
gfz2012vwvd   0.44860
gfz2012vxvr  -1.38610
gfz2012whku   0.58050
gfz2012wizz  -2.49790
gfz2012wmsg  -0.18560
gfz2012wpeq  -0.52670
gfz2012wqnc  -0.33010
gfz2012wrir   0.68350
gfz2012wtkh   0.23530
gfz2012wtkr   0.93880
gfz2012wubh  -0.02580
gfz2012wvfl  -2.71900
gfz2012wxer   2.69380
gfz2012wxkg  -0.90990
gfz2012wxnu   2.32150
gfz2012wybs  -0.03740
gfz2012wypz   0.00120
gfz2012xbjq   2.74990
gfz2012xcgk  -1.13430
gfz2012xevt  -0.02110
gfz2012xgqm   0.33860
gfz2012xhci  -0.06880
gfz2012xjyv  -1.27790
gfz2012xmxy  -0.32660
gfz2012xpmm  -0.22580
gfz2012xssa   0.16670
gfz2012xvwn  -1.23710
gfz2012xyqp  -0.09400
gfz2012xyua  -1.19960
gfz2012yldu  -0.38010
gfz2012yoie  -2.53410
gfz2012yqjj  -0.86370
gfz2012yxxu  -0.24790
gfz2012zemz   0.65910
gfz2012zhmb  -1.27870
gfz2012ziml  -0.31910
gfz2012zjpv   0.66340
gfz2012zsqk   0.55420
gfz2013aahq   0.43470
gfz2013aayj   0.57310
gfz2013acag   1.43090
gfz2013adey  -0.49010
gfz2013aeee  -0.32390
gfz2013akgj  -0.12810
gfz2013aknp  -0.45350
gfz2013apmm  -2.48040
gfz2013aqaw  -1.60820
gfz2013axoj   0.05820
gfz2013bdke  -1.88100
gfz2013bobq   2.04930
gfz2013bouj   1.28230
gfz2013btjm  -1.16510
gfz2013bzlb   0.47810
gfz2013bzzm  -0.34470
gfz2013cbsm  -1.23100
gfz2013ccnr  -2.84430
gfz2013ccon  -0.44480
gfz2013cfyy   0.11330
gfz2013cnhh  -1.90850
gfz2013comh  -1.23250
gfz2013cvad   0.43250
gfz2013czeq  -0.12910
gfz2013ddbh  -3.09240
gfz2013dddp  -1.44350
gfz2013diuf  -2.07450
gfz2013dkly   1.73480
gfz2013dkym   0.29640
gfz2013dnnx  -0.56750
gfz2013dofo  -1.00880
gfz2013dojq   0.40610
gfz2013dqls  -1.75070
gfz2013drpk  -1.06260
gfz2013drxz  -0.08830
gfz2013dsog   0.22020
gfz2013dspt  -0.37110
gfz2013dsrk  -0.69980
gfz2013dujm   0.19460
gfz2013dvyh  -1.47430
gfz2013dyop  -1.12370
gfz2013egni  -0.88880
gfz2013egpu  -0.53680
gfz2013ehwe  -0.96150
gfz2013ekpm   0.83650
gfz2013erse  -1.54190
gfz2013esnh  -0.77480
gfz2013eswe  -0.16980
gfz2013eulz  -1.25880
gfz2013ewbo  -0.51660
gfz2013fcto   0.45480
gfz2013fdoo  -1.14760
gfz2013fdwq  -0.56710
gfz2013fiud  -1.51660
gfz2013fkcl  -0.18780
gfz2013flox  -2.10500
gfz2013ftso   0.00000
gfz2013fwxa  -1.43650
gfz2013fxge   0.07920
gfz2013fygc  -2.35400
gfz2013gaie   0.99570
gfz2013gbst  -0.02080
gfz2013gdnq   0.36020
gfz2013geia  -0.44320
gfz2013ggtf   0.18940
gfz2013gihf   0.82030
gfz2013gjdc  -0.10830
gfz2013glcr  -1.00200
gfz2013gmor  -0.07950
gfz2013gngz  -2.93470
gfz2013gnse  -0.10140
gfz2013gock  -0.33450
gfz2013govy  -1.21230
gfz2013gvdb  -0.15070
gfz2013gvet  -0.74210
gfz2013gxsu  -0.54720
gfz2013hbkh  -2.57320
gfz2013hbkq  -1.79670
gfz2013hisv  -0.17190
gfz2013hlbe  -1.05750
gfz2013hpfq  -0.81770
gfz2013huwr  -1.07250
gfz2013hxcx   0.01390
gfz2013hydf   0.32960
gfz2013iapa   0.20570
gfz2013iayx  -0.90900
gfz2013icfh  -0.40110
gfz2013idbb   0.16350
gfz2013iexo  -0.66680
gfz2013ifpq  -0.61630
gfz2013igmx   0.15570
gfz2013ihcj  -0.37600
gfz2013inux  -0.37350
gfz2013iodt  -0.03110
gfz2013iopd   0.41650
gfz2013ippu  -0.90410
gfz2013iynu   0.32700
gfz2013iyqz  -0.58940
gfz2013jarl  -0.30520
gfz2013jdrx  -0.03380
gfz2013jesk  -0.26910
gfz2013jfah  -0.36270
gfz2013jgij  -0.71030
gfz2013jgip  -1.25010
gfz2013jkut  -0.65350
gfz2013jlst  -1.48920
gfz2013jmcc  -0.01320
gfz2013jphq   0.50550
gfz2013json  -0.75280
gfz2013jusj  -0.82800
gfz2013jwcn  -0.73500
gfz2013jwvc  -1.38320
gfz2013jxoi  -0.24110
gfz2013kdeo  -1.47840
gfz2013kgmj  -0.52390
gfz2013khli  -1.53400
gfz2013kilx  -0.11910
gfz2013kwag  -0.69470
gfz2013kweg   0.15420
gfz2013kwps  -0.51350
gfz2013lajg   0.20810
gfz2013lajn  -0.24350
gfz2013ldpc  -0.70270
gfz2013ldqb  -0.92440
gfz2013lfyb  -0.33680
gfz2013lixa  -1.24070
gfz2013lljw  -0.25100
gfz2013lmdy  -0.17350
gfz2013lmrs   0.20730
gfz2013lsob  -0.69230
gfz2013lupg  -1.12420
gfz2013lwao  -0.64630
gfz2013lwbk   0.22240
gfz2013lyko   2.63130
gfz2013lznu   0.76320
gfz2013mded  -0.33460
gfz2013mghe  -0.04170
gfz2013mmlw  -0.11620
gfz2013mmwq  -0.69050
gfz2013mqmv  -1.28990
gfz2013mtqd  -0.16700
gfz2013mvgr  -2.02470
gfz2013mxee   0.55610
gfz2013mzwe  -1.30820
gfz2013nabl   0.96000
gfz2013ncjp  -0.95230
gfz2013nfwx   0.04300
gfz2013nhjb  -1.42610
gfz2013njnd   0.31480
gfz2013nkgj  -0.43110
gfz2013nlxz  -2.00850
gfz2013nmac  -1.15030
gfz2013nnzf  -0.00290
gfz2013nojf   0.60410
gfz2013npcg   0.09850
gfz2013nskg  -0.29510
gfz2013nttq  -0.29780
gfz2013nuor  -0.29580
gfz2013nvdj  -2.42800
gfz2013nwdi   0.28110
gfz2013oejn  -0.11940
gfz2013ofls   0.19900
gfz2013oifr  -0.32600
gfz2013oilg  -0.51100
gfz2013oinc  -0.67440
gfz2013ojti  -0.29320
gfz2013oksi   0.75320
gfz2013onjy  -0.03740
gfz2013ornz  -0.16190
gfz2013ouvt  -0.16420
gfz2013ozku  -0.58690
gfz2013oznn  -0.80850
gfz2013ozqm  -2.18780
gfz2013ozrf  -0.73130
gfz2013ozrp  -0.50520
gfz2013pakq  -1.24870
gfz2013pcos  -0.65190
gfz2013pfbx  -0.08490
gfz2013pfeb   0.35980
gfz2013pffm   0.03010
gfz2013pfnf   0.43420
gfz2013phmp  -0.09850
gfz2013piwd  -1.61210
gfz2013piye  -0.13780
gfz2013pkbs  -0.44600
gfz2013plhp  -0.82450
gfz2013pndn  -0.33760
gfz2013poxj  -0.42000
gfz2013ppqq  -0.32850
gfz2013pqui  -1.98770
gfz2013pupd  -0.50760
gfz2013pxtx   1.39260
gfz2013pxya  -0.26080
gfz2013qali  -2.08200
gfz2013qbca  -1.80180
gfz2013qcck  -1.06570
gfz2013qesa   0.53710
gfz2013qfmm   0.26520
gfz2013qfsq  -0.40320
gfz2013qidm  -1.64500
gfz2013qjmk  -0.03110
gfz2013qmer  -1.76110
gfz2013qqrr  -1.60280
gfz2013qvcr  -0.53490
gfz2013qzdq  -0.01440
gfz2013rait   1.42400
gfz2013rdoo  -2.09990
gfz2013reav   0.61630
gfz2013rjsx  -1.02150
gfz2013rklb  -0.20950
gfz2013roki  -0.21500
gfz2013rqcy  -0.09140
gfz2013rqmp   0.14830
gfz2013rsnr  -0.65640
gfz2013ryxm  -1.79220
gfz2013scai  -2.81580
gfz2013scub  -0.17890
gfz2013sdus  -0.37910
gfz2013sebq  -2.05350
gfz2013sfds   1.78990
gfz2013sfto  -0.63420
gfz2013shlq  -1.91980
gfz2013shzy  -1.64590
gfz2013skkm  -1.50140
gfz2013sllq   0.56930
gfz2013snbr  -0.60060
gfz2013snyf  -1.47730
gfz2013sqkb  -0.09240
gfz2013suln  -0.05080
gfz2013svci  -0.32600
gfz2013sxbw   0.00700
gfz2013syqk  -0.21060
gfz2013tcxc   1.15800
gfz2013tcxq   1.93620
gfz2013tdkk  -0.41590
gfz2013tect  -0.55610
gfz2013thtc  -2.62510
gfz2013tjlx   0.80950
gfz2013toea  -2.01320
gfz2013toxf  -0.33950
gfz2013tqbb  -1.32290
gfz2013ttoz  -2.31640
gfz2013tusd  -1.18720
gfz2013tuzv   0.25570
gfz2013tvmw  -0.13240
gfz2013txij  -0.28640
gfz2013uauo  -0.50530
gfz2013ufku  -1.78200
gfz2013ufxk   0.57140
gfz2013ugax   0.57640
gfz2013uhlm  -0.28990
gfz2013umya   0.30180
gfz2013upee   1.04830
gfz2013upiv   0.19470
gfz2013uqvu   0.82880
gfz2013uthl  -0.74070
gfz2013utsh   0.02240
gfz2013uxej  -0.97760
gfz2013uysr  -0.90940
gfz2013vcoa  -0.39930
gfz2013vefs  -1.59220
gfz2013vfzp   3.27520
gfz2013vgau   3.76610
gfz2013vgev  -1.81170
gfz2013vgrk  -2.09160
gfz2013vhsb  -0.66700
gfz2013vhzu  -0.94180
gfz2013vijl  -0.29600
gfz2013viul  -1.03500
gfz2013vjjc  -0.16370
gfz2013vlth  -0.33340
gfz2013vmro  -0.41420
gfz2013vnfj   1.76590
gfz2013vpnf  -0.95220
gfz2013vqot  -3.31050
gfz2013vrmy  -0.45630
gfz2013vthd   1.31060
gfz2013vuja  -0.66230
gfz2013vvrq   0.06080
gfz2013vxta  -1.62130
gfz2013vzbo  -1.23710
gfz2013walq  -0.20280
gfz2013wbyr  -0.64920
gfz2013wgeu  -2.79840
gfz2013wjmm   0.47770
gfz2013wnql  -0.50010
gfz2013woze  -0.87490
gfz2013wpga  -1.67850
gfz2013wqhq  -0.13770
gfz2013wrgw   0.01460
gfz2013wtzl  -1.88160
gfz2013wuml  -0.49340
gfz2013xatc   1.49000
gfz2013xcmp   0.14990
gfz2013xgek  -0.43020
gfz2013xkwt  -1.68590
gfz2013xmqg  -1.06690
gfz2013xmul  -3.11430
gfz2013xpfa  -1.59000
gfz2013xpsm  -0.74560
gfz2013xqnn  -0.47430
gfz2013xsdt  -2.34010
gfz2013xtwj  -1.06260
gfz2013xvyl  -1.62030
gfz2013xwxn  -2.97890
gfz2013xxcc  -0.33210
gfz2013xxwv   0.87400
gfz2013xxxq   1.25990
gfz2013xyzb  -0.55970
gfz2013yaig   1.23190
gfz2013yewz  -0.47350
gfz2013yghj   3.33560
gfz2013yhbu  -2.26100
gfz2013yhpk  -0.73970
gfz2013yixl   0.07070
gfz2013ylbx  -0.15340
gfz2013ymxs  -1.70150
gfz2013ynmw  -0.81810
gfz2013ypdc  -0.26350
gfz2013yrmc   0.38400
gfz2013yulx  -1.16480
gfz2013yzte  -0.66400
gfz2013zaxb  -0.00000
gfz2013zfhu  -2.52070
gfz2013ziyr  -3.01400
gfz2013zjtw  -0.89110
gfz2013zmtb  -0.41570
gfz2014abgd  -0.96440
gfz2014adjs  -0.35980
gfz2014adoj   0.37030
gfz2014afmx   0.18440
gfz2014agde  -0.37160
gfz2014agrl  -0.73810
gfz2014agyz   0.29310
gfz2014ajlk  -0.38370
gfz2014ajtf  -0.32890
gfz2014algk  -0.05670
gfz2014alwz  -1.10280
gfz2014amsb  -0.23240
gfz2014ande  -0.15040
gfz2014arnc  -0.22740
gfz2014arpf  -3.20520
gfz2014arsr  -0.18110
gfz2014atbl  -0.12660
gfz2014azqs   0.84020
gfz2014bcae  -1.57610
gfz2014bdfd  -0.18110
gfz2014bekc  -2.27620
gfz2014bezu  -0.20300
gfz2014bfng  -0.68510
gfz2014bfqo  -1.58460
gfz2014bhhv  -0.82480
gfz2014bhvd  -0.92550
gfz2014bjgt  -2.57250
gfz2014bjsy  -0.36660
gfz2014bldx   0.00140
gfz2014bmdh   0.16000
gfz2014bmfv   0.24250
gfz2014bmta  -0.02770
gfz2014bwue  -0.38590
gfz2014bzna  -0.96260
gfz2014bzxy   0.26060
gfz2014caop  -1.33010
gfz2014capn  -0.25610
gfz2014cbtl  -2.40890
gfz2014ccbz  -0.62140
gfz2014cgog   0.42290
gfz2014chdv  -0.69870
gfz2014citw   0.26040
gfz2014clnj  -0.68010
gfz2014clnq  -0.53770
gfz2014cmwb   1.43020
gfz2014cqyo   1.93720
gfz2014crpy  -1.48700
gfz2014ctot  -0.79860
gfz2014cueu   0.58890
gfz2014cvkm  -0.22880
gfz2014cybg  -0.77460
gfz2014czno   0.25500
gfz2014czqi  -1.48700
gfz2014dbdf  -1.79370
gfz2014dbyx  -0.44370
gfz2014dcdy   0.12380
gfz2014dddc   0.24930
gfz2014dffd  -1.68670
gfz2014dgiy  -0.40520
gfz2014disp  -2.79160
gfz2014dlri   0.32140
gfz2014dofa  -1.63990
gfz2014dpzx  -2.97420
gfz2014duqn  -1.67160
gfz2014eage   0.12340
gfz2014ebmc  -3.55400
gfz2014efkk  -2.62570
gfz2014eght  -0.06780
gfz2014egwu  -0.88770
gfz2014ehfp  -0.29660
gfz2014emrg  -0.68440
gfz2014emzb  -0.38910
gfz2014eqpl  -2.12580
gfz2014erbj  -1.72300
gfz2014ettc  -2.25160
gfz2014ewcz   1.88340
gfz2014ewrw   0.00000
gfz2014exxa  -1.70530
gfz2014ezgb  -2.46950
gfz2014fcsy  -0.51970
gfz2014fedd   0.56070
gfz2014fexu  -0.27880
gfz2014ffdc  -1.22430
gfz2014fgvi   0.00000
gfz2014fgvr  -0.47940
gfz2014fgvz   1.44310
gfz2014fgwt  -0.02950
gfz2014fgxt   0.31940
gfz2014fgxz   0.36340
gfz2014fgyo   0.62040
gfz2014fgza   0.17690
gfz2014fhbd   0.42390
gfz2014fhdw   0.30250
gfz2014fhgb  -0.26170
gfz2014fhhp   0.39830
gfz2014fhjd   0.31600
gfz2014fhla   0.35200
gfz2014fhlh   0.02940
gfz2014fhqk  -0.23070
gfz2014fhrq   0.82170
gfz2014fhsg   0.42290
gfz2014fhwx  -0.20240
gfz2014fhxm  -0.35830
gfz2014fhyb  -0.07940
gfz2014fimn   0.33770
gfz2014fiwq  -0.15380
gfz2014fjdz  -0.59030
gfz2014fjpb  -0.21490
gfz2014fjxd   0.10020
gfz2014fjyo  -0.55920
gfz2014fjzd  -1.53890
gfz2014fjzw  -0.21580
gfz2014fkmr   0.75280
gfz2014fkmx  -0.28810
gfz2014fknp  -0.02360
gfz2014fles   0.45270
gfz2014flfa  -0.91070
gfz2014fnbh  -0.12180
gfz2014fnyg  -2.30130
gfz2014fqpz  -0.34810
gfz2014frdz  -0.46280
gfz2014frel  -0.31700
gfz2014frez   0.13990
gfz2014frfl  -0.24180
gfz2014frgm  -0.35430
gfz2014frjr  -0.57680
gfz2014frnb  -0.21210
gfz2014frwh  -0.24890
gfz2014fstx  -0.01950
gfz2014fsuh  -0.29050
gfz2014fszc  -0.40930
gfz2014ftgx  -0.16730
gfz2014ftka   0.37020
gfz2014ftno  -0.51150
gfz2014ftoc  -0.33620
gfz2014ftpw   0.37980
gfz2014ftrk  -0.29920
gfz2014ftvc  -0.01170
gfz2014furx  -0.15050
gfz2014fusc  -0.10900
gfz2014fusj   0.39900
gfz2014fusu  -0.00000
gfz2014fuub   0.80120
gfz2014fuup   0.11730
gfz2014fuvk  -0.29200
gfz2014fuzi  -0.11470
gfz2014fval   1.43440
gfz2014fvdx  -0.52270
gfz2014fvgh  -0.20720
gfz2014fvhp  -0.58840
gfz2014fvpy   0.00000
gfz2014fvrg  -0.11310
gfz2014fvve   0.15490
gfz2014fwdr  -0.01500
gfz2014fwtt   0.47250
gfz2014fwyr  -1.51940
gfz2014fxpu  -0.67430
gfz2014fyfr  -0.15400
gfz2014fzgx   0.08710
gfz2014gbcz   2.23770
gfz2014gbjf  -0.05960
gfz2014gcza  -0.27350
gfz2014gdsq   0.23930
gfz2014geuy  -0.07660
gfz2014gezs  -0.24000
gfz2014gfdj  -0.47860
gfz2014ggsr  -1.60430
gfz2014ghpe   0.11960
gfz2014gilf   0.20700
gfz2014gkgf   0.32760
gfz2014gkgl   0.05040
gfz2014gkhp   0.31040
gfz2014gkjl  -0.08860
gfz2014gkjt  -0.88230
gfz2014gkjw  -0.09370
gfz2014gkjy  -3.82740
gfz2014gkln   0.50130
gfz2014gklq   0.03250
gfz2014gklv   0.01890
gfz2014gkmm  -1.94710
gfz2014gkmw  -0.00000
gfz2014gkob  -0.81880
gfz2014gkok  -0.00740
gfz2014gkpd  -6.62330
gfz2014gkpj  -0.09580
gfz2014gkqf  -0.05550
gfz2014gkqu  -2.21290
gfz2014gksj  -0.02230
gfz2014gksu  -10.56360
gfz2014gktn   0.00000
gfz2014gktq  -0.02390
gfz2014gkut  -0.00000
gfz2014gkxm  -0.01700
gfz2014glcu   0.21170
gfz2014glcy  -0.43290
gfz2014glfn   0.18720
gfz2014glgo  -0.03320
gfz2014glhs  -0.47140
gfz2014glov   0.05340
gfz2014glsh   0.30250
gfz2014gltx  -0.42260
gfz2014glvn  -0.69520
gfz2014glvu   0.08640
gfz2014glxd  -2.24050
gfz2014glxy  -0.04860
gfz2014gmci   0.23420
gfz2014gmes   0.26860
gfz2014gmge  -0.01080
gfz2014gmhp   0.05100
gfz2014gmhr  -0.00000
gfz2014gmic  -0.45310
gfz2014gmip  -1.75190
gfz2014gmjo  -0.04670
gfz2014gmku  -0.02890
gfz2014gmlz   0.73550
gfz2014gmmk  -0.14560
gfz2014gmmt  -0.94300
gfz2014gmnb  -0.16850
gfz2014gmnw   0.08670
gfz2014gmor  -0.77060
gfz2014gmpy   0.41990
gfz2014gmtb   0.40760
gfz2014gmtj  -0.57400
gfz2014gmto  -0.88320
gfz2014gmuk  -0.77110
gfz2014gmuw  -0.68060
gfz2014gmvr   0.01100
gfz2014gmzl   0.24770
gfz2014gmzs   0.41480
gfz2014gndq  -0.13020
gfz2014gnfd  -0.03410
gfz2014gnfs  -0.19230
gfz2014gngg  -0.05570
gfz2014gnhk  -0.37010
gfz2014gnig  -0.26120
gfz2014gnmp  -2.04540
gfz2014gnmx   0.06420
gfz2014gnno   0.50260
gfz2014gnnt   0.29380
gfz2014gnom   0.14450
gfz2014gnoz  -0.04070
gfz2014gnqt  -0.93090
gfz2014gnre  -0.04710
gfz2014gnsi  -0.36220
gfz2014gntd   2.08120
gfz2014gnvw  -0.07680
gfz2014gnwg   0.41880
gfz2014gnxb  -0.73300
gfz2014goba   0.13110
gfz2014goei  -0.00000
gfz2014gogv  -0.46050
gfz2014gohm   0.25470
gfz2014golz   0.03840
gfz2014gono   0.29850
gfz2014goqw   0.00040
gfz2014goyx  -2.44510
gfz2014gpac  -0.05500
gfz2014gpam  -0.69630
gfz2014gpbx  -0.44280
gfz2014gpce  -0.90180
gfz2014gpdo  -0.84070
gfz2014gpgd  -0.01200
gfz2014gphr   0.10590
gfz2014gpnf  -1.56010
gfz2014gpqq  -0.12780
gfz2014gpuk  -0.90030
gfz2014gpvk  -0.17130
gfz2014gpxl  -0.38370
gfz2014gqbj  -0.62460
gfz2014gqco  -1.00960
gfz2014gqed   0.00000
gfz2014gqer  -3.02170
gfz2014gqgf  -0.19150
gfz2014gqiy  -0.25120
gfz2014gqjr   0.32950
gfz2014gqqz   0.00000
gfz2014gqro  -1.56010
gfz2014gqve  -0.40390
gfz2014grcv  -0.76320
gfz2014grfp  -0.85810
gfz2014grgn  -0.01830
gfz2014grho   0.81420
gfz2014gsgv   0.06800
gfz2014gsjg  -0.35260
gfz2014gsqs  -0.87490
gfz2014gtef   0.21220
gfz2014gtrb  -0.10700
gfz2014gtwz  -0.33650
gfz2014gufl  -0.48400
gfz2014gull   0.02430
gfz2014gulp  -0.62340
gfz2014gumd  -0.09860
gfz2014gutm  -0.02340
gfz2014gvhw  -0.09450
gfz2014gvqj  -1.01840
gfz2014gvra  -0.20830
gfz2014gvrd  -0.18060
gfz2014gwab  -0.13330
gfz2014gwqj  -0.04560
gfz2014gxag  -1.10680
gfz2014gxkh  -0.12320
gfz2014gxqu  -0.40970
gfz2014gxqx   0.28800
gfz2014gxvf  -1.71470
gfz2014gxxh  -0.32880
gfz2014gxxo  -0.37410
gfz2014gyxd  -0.27540
gfz2014gzrm  -1.31570
gfz2014gzue  -0.46620
gfz2014haey  -0.21940
gfz2014hagb  -0.12310
gfz2014haos  -0.77550
gfz2014hasj  -0.58230
gfz2014hauo   1.49530
gfz2014hbjm  -0.93330
gfz2014hbjz  -0.27010
gfz2014hbqb   0.14830
gfz2014hcmj  -1.42360
gfz2014hcns  -0.80800
gfz2014hetr   1.01440
gfz2014heum  -0.28860
gfz2014heyq  -0.57000
gfz2014hfad   0.20550
gfz2014hfhl  -0.07580
gfz2014hfzf  -0.45970
gfz2014hgqo   0.32170
gfz2014hhfs  -0.73840
gfz2014hhwx  -0.22440
gfz2014hifp  -0.41090
gfz2014hiih  -0.99310
gfz2014hiiz  -0.14780
gfz2014hjgh  -0.07110
gfz2014hjgo  -2.51260
gfz2014hjgr   0.19440
gfz2014hjhu  -0.16780
gfz2014hjij   0.10190
gfz2014hjlx   0.15400
gfz2014hkcf   0.58130
gfz2014hkck   0.09600
gfz2014hlib   0.22800
gfz2014hmgf   0.45130
gfz2014hmrs  -1.87580
gfz2014hmvx   0.15090
gfz2014hmzg  -0.64820
gfz2014hnfm   0.02780
gfz2014hoap   0.22480
gfz2014hocg  -0.30690
gfz2014hphw  -0.13770
gfz2014hpqz  -1.34730
gfz2014hqxs   0.35040
gfz2014hqyx   0.22090
gfz2014hriu  -1.87250
gfz2014hrtn   0.04750
gfz2014hssr   0.14640
gfz2014huaj   0.46360
gfz2014hugz  -0.11030
gfz2014hvdm  -0.32790
gfz2014hwwi  -0.53460
gfz2014hyal  -1.42630
gfz2014hymr   0.15730
gfz2014hyvq  -0.61720
gfz2014hzdy  -0.38970
gfz2014hzfr   0.33110
gfz2014hzfw   0.35630
gfz2014hzgn   0.10650
gfz2014hzht  -0.13770
gfz2014hzig  -0.12940
gfz2014hzze  -0.19540
gfz2014iani  -0.03850
gfz2014ieam  -0.25280
gfz2014ieho  -2.49510
gfz2014ifue   0.03030
gfz2014ifzj   0.22960
gfz2014igsj  -0.09280
gfz2014igur  -0.03660
gfz2014ijvh   0.61590
gfz2014ikbk   0.15260
gfz2014ikun  -2.16410
gfz2014ikvd   0.78900
gfz2014ilwu   2.20840
gfz2014immt  -0.34170
gfz2014imnn   0.66180
gfz2014inbj  -0.01060
gfz2014iobd  -1.12540
gfz2014iqzj   0.38250
gfz2014irci   0.46520
gfz2014ircq   0.22830
gfz2014irrg   0.09120
gfz2014isdq   0.11920
gfz2014isff   0.09740
gfz2014issk  -0.19490
gfz2014isub   0.46710
gfz2014itab   0.53520
gfz2014itbe  -0.11050
gfz2014itbu   0.03910
gfz2014itfc  -0.11130
gfz2014itgh  -0.06840
gfz2014itkw   0.14880
gfz2014itpj  -0.60880
gfz2014iuhq   0.61010
gfz2014ivep  -0.52880
gfz2014iwnf  -0.31450
gfz2014iwwl  -0.20630
gfz2014ixga   0.15140
gfz2014ixky  -1.52320
gfz2014iywt  -0.89180
gfz2014jagg   0.25420
gfz2014jass  -0.77650
gfz2014jbyg   0.13030
gfz2014jcjt  -0.98210
gfz2014jcmt  -0.18470
gfz2014jdoy  -0.34820
gfz2014jesb   0.08010
gfz2014jfis  -0.25980
gfz2014jggm  -0.12800
gfz2014jhra  -0.41840
gfz2014jipr  -1.84900
gfz2014jird  -0.42110
gfz2014jjhc  -0.98750
gfz2014jjkh   2.01730
gfz2014jjln  -0.60870
gfz2014jjqk  -0.80690
gfz2014jmnk  -0.48740
gfz2014jnyv  -1.50320
gfz2014jomw  -1.93080
gfz2014jpep   0.12510
gfz2014jpez   0.17330
gfz2014jpgu   0.00000
gfz2014jpxs  -2.12210
gfz2014jtcz  -3.96250
gfz2014jtfe   0.81760
gfz2014jvow  -0.05800
gfz2014jysj  -0.02880
gfz2014kara  -3.20560
gfz2014kbuk  -0.43930
gfz2014kbwm   0.17510
gfz2014khan   0.13120
gfz2014kitm  -0.12550
gfz2014kizt  -0.38870
gfz2014kjee  -0.52840
gfz2014kjzb  -1.04020
gfz2014kkhh  -0.75820
gfz2014kndc   0.54200
gfz2014knks   0.11720
gfz2014krlg  -1.38760
gfz2014kscf  -0.64200
gfz2014ksmz  -0.59860
gfz2014kssw  -0.33020
gfz2014kwie   0.37340
gfz2014kwrg  -0.19320
gfz2014kwwg  -0.86950
gfz2014kxqf   0.50020
gfz2014kyan  -2.52410
gfz2014kytf   1.24930
gfz2014kzzm  -1.44160
gfz2014lbcq  -0.37220
gfz2014lchy   0.35610
gfz2014lddn   0.10710
gfz2014lehw   0.07520
gfz2014lgqn  -0.12650
gfz2014lhqn   0.18180
gfz2014ljbr   0.14160
gfz2014lnmw  -1.59550
gfz2014lnqy  -0.22370
gfz2014lrzx  -2.29730
gfz2014lurd  -0.67710
gfz2014lvgn   0.67270
gfz2014lwom  -1.35490
gfz2014lwvb   0.34610
gfz2014lxnc  -0.24730
gfz2014lxqr   0.41580
gfz2014lyhk   0.26500
gfz2014lyhp  -0.80680
gfz2014lzal  -0.61040
gfz2014lzow  -1.12250
gfz2014macx   0.04490
gfz2014madw  -0.17520
gfz2014mawp  -0.13420
gfz2014mcse   0.12060
gfz2014mioi   2.09800
gfz2014mlqw  -0.13430
gfz2014mlrr   0.22610
gfz2014mmtb  -0.73300
gfz2014mrbm   0.33300
gfz2014mvza   0.20290
gfz2014mxkr  -0.07880
gfz2014myqz   1.20090
gfz2014nafd   0.18970
gfz2014navw  -0.22590
gfz2014ncub   0.04370
gfz2014ndue   0.09230
gfz2014ngsk   0.15440
gfz2014ngvt  -0.44640
gfz2014nhyb  -0.45750
gfz2014niqj   0.04320
gfz2014nkdx  -2.88790
gfz2014nnih   0.12710
gfz2014nnxd   0.02020
gfz2014nowp   0.91880
gfz2014nphm  -1.03100
gfz2014nqbs  -1.13860
gfz2014nqfm  -0.50250
gfz2014nrie  -0.42060
gfz2014ntdh   0.09260
gfz2014nvdi  -0.80330
gfz2014nyeh   0.05160
gfz2014nyfb  -0.04930
gfz2014nyko  -0.74830
gfz2014nylm  -0.85550
gfz2014obbs   0.01480
gfz2014odgv   0.23590
gfz2014ofhm   1.13390
gfz2014oims  -0.35050
gfz2014oinz   0.04420
gfz2014ojdg  -0.02520
gfz2014okec   0.87140
gfz2014okjw  -0.48680
gfz2014okxu  -1.15290
gfz2014opqr  -1.36710
gfz2014oqhw  -0.83510
gfz2014orgz  -0.41300
gfz2014orxs  -0.35080
gfz2014oryw  -0.09440
gfz2014osvx  -0.40560
gfz2014osvz   0.79330
gfz2014owii  -0.46960
gfz2014owur   0.71370
gfz2014owxc   0.17260
gfz2014oyly  -1.50580
gfz2014pghi   0.09080
gfz2014pjer  -0.75280
gfz2014pjum   0.38000
gfz2014pngj  -0.34160
gfz2014ppzf  -2.11150
gfz2014pvch   0.09690
gfz2014pxbu   0.34590
gfz2014pzml  -0.49040
gfz2014pzni   0.38850
gfz2014qbzi   0.18120
gfz2014qcxs  -0.86150
gfz2014qfzq   0.20750
gfz2014qjfl   0.49740
gfz2014qlvc   0.33000
gfz2014qlxd  -0.32670
gfz2014qngj  -0.89450
gfz2014qqfg  -0.15150
gfz2014qqhm  -0.34270
gfz2014qsby  -1.69930
gfz2014qtwv  -0.55670
gfz2014rcyx  -1.11370
gfz2014rdoz  -0.26690
gfz2014rdsn  -0.55090
gfz2014rfeb  -1.91150
gfz2014rffv  -2.10230
gfz2014rhnz  -0.38970
gfz2014rhwq  -0.61760
gfz2014riel   0.38600
gfz2014rils  -3.79020
gfz2014rnrn   0.63740
gfz2014romy   0.63670
gfz2014royq  -0.26230
gfz2014rucz  -0.33320
gfz2014ryfb  -1.11110
gfz2014shid   0.30490
gfz2014snfs  -0.13540
gfz2014ssmv   3.76910
gfz2014swgt   0.13540
gfz2014tabg  -0.98480
gfz2014tfgn  -0.35960
gfz2014tgcw  -1.09860
gfz2014thrw   1.58800
gfz2014tqdo   0.19550
gfz2014tqly  -0.74030
gfz2014tqsf  -0.23820
gfz2014tqth   0.28020
gfz2014tzsd  -2.26700
gfz2014uapa  -1.05250
gfz2014ubyq   2.65750
gfz2014uuqa  -0.04170
gfz2014uvrk  -0.51500
gfz2014uxyg   2.51290
gfz2014uyrq   0.06420
gfz2014veit  -0.22990
gfz2014vhld  -0.12860
gfz2014vhms  -0.24620
gfz2014vhuy  -0.13650
gfz2014vjoz   0.17150
gfz2014vnxu  -0.80410
gfz2014vpus   1.68340
gfz2014vqqa   0.01670
gfz2014waoo   0.22560
gfz2014watn  -0.67200
gfz2014wjko   0.30020
gfz2014wqcp   0.47020
gfz2014wrkh  -0.77180
gfz2014wsjh  -0.95900
gfz2014wwib   0.00000
gfz2014xaxx  -0.04010
gfz2014xbyr  -0.28260
gfz2014xhkc  -0.40470
gfz2014xhwk  -0.51520
gfz2014xjri   0.36730
gfz2014xkdg   0.01520
gfz2014xmnp  -1.23700
gfz2014xoji  -0.26900
gfz2014xqby   0.27750
gfz2014xqqd  -0.76270
gfz2014yazi   1.53340
gfz2014yhhm   0.30800
gfz2014ynhc  -1.30930
gfz2014ynzy   0.35380
gfz2014yppv  -2.34420
gfz2014yrug   0.30420
gfz2014yula   0.52450
gfz2014yyiy  -1.22170
gfz2014zcgo  -0.07170
gfz2014zdtl  -2.21030
gfz2014zkys  -0.18210
gfz2014zplq  -0.28310
gfz2015aide  -0.03530
gfz2015ansu  -1.97940
gfz2015apnk  -0.07660
gfz2015arpd  -1.14920
gfz2015aruz  -0.81290
gfz2015atxv  -1.14880
gfz2015aush  -0.15450
gfz2015bavu  -2.12820
gfz2015bdyd  -0.50420
gfz2015berb  -0.28650
gfz2015bkbj  -0.73940
gfz2015bnho  -0.06020
gfz2015bphe   0.25900
gfz2015bpxl  -0.62620
gfz2015bsnl  -0.10760
gfz2015bucr  -0.50390
gfz2015byfn   1.96310
gfz2015byjd  -0.24940
gfz2015cewd  -0.00640
gfz2015chhn  -2.07370
gfz2015cyjd  -1.41940
gfz2015ddhl  -0.57000
gfz2015dizn   1.43710
gfz2015djts   3.24830
gfz2015drlk   0.11040
gfz2015dskr  -0.50280
gfz2015dtqr   0.69140
gfz2015dvbn  -1.33200
gfz2015ednc   0.37100
gfz2015eeyq   0.12650
gfz2015eezy  -1.18730
gfz2015egbk  -2.15420
gfz2015egxq  -2.05000
gfz2015ehou   0.08490
gfz2015eiky   0.17010
gfz2015elgy  -0.36610
gfz2015eljz  -2.42490
gfz2015emcg  -0.07410
gfz2015enth  -0.43320
gfz2015esrj   0.10950
gfz2015etai   1.12220
gfz2015fbbk  -0.60790
gfz2015fbew  -0.25570
gfz2015fcua  -2.26190
gfz2015fdpr  -1.18800
gfz2015fjhk   0.15560
gfz2015fkbc  -0.72990
gfz2015fkgt  -0.58080
gfz2015fkjs   0.12700
gfz2015flis   0.09620
gfz2015fsjj  -0.87560
gfz2015fvoi   0.31840
gfz2015fwkq  -0.36980
gfz2015fwnf  -1.05210
gfz2015fxbv   3.20390
gfz2015gckd  -1.07140
gfz2015gkwa  -1.92430
gfz2015gmgf  -0.72640
gfz2015gwao   0.29560
gfz2015gzja  -0.11120
gfz2015hgbk  -0.70610
gfz2015hhbd  -0.70190
gfz2015hlfq  -0.33890
gfz2015hpmk  -0.63840
gfz2015hslo  -0.84160
gfz2015hvgs  -1.65560
gfz2015hwkv  -0.16580
gfz2015hwzw   0.72890
gfz2015ijmh   3.11430
gfz2015imty  -1.33610
gfz2015iwqk   0.03160
gfz2015jkdw  -0.60260
gfz2015jmlf   0.51910
gfz2015jmlu  -1.58440
gfz2015jxbx  -1.59870
gfz2015jzcv   0.09480
gfz2015kakw  -0.37030
gfz2015kalm   0.60130
gfz2015kcaa   0.14730
gfz2015kfsu  -1.16790
gfz2015kphk  -0.00000
gfz2015kquq   0.04210
gfz2015lcuo  -1.16370
gfz2015lfma  -0.00540
gfz2015lfos   0.00000
gfz2015lfud  -1.74980
gfz2015lhjq  -2.79650
gfz2015lhjy  -1.28300
gfz2015ltii  -0.48280
gfz2015ltro   0.53490
gfz2015lytv  -1.33990
gfz2015lzad   3.94950
gfz2015mbgr  -0.28050
gfz2015mddr  -1.03660
gfz2015micz  -2.16660
gfz2015mpte  -0.28960
gfz2015nbdc   0.46060
gfz2015nwug  -0.29110
gfz2015ocdz   1.15340
gfz2015okmq   1.51990
gfz2015okpu   0.25040
gfz2015orkl   0.03410
gfz2015oumn  -0.39040
gfz2015pdri   0.10560
gfz2015pjgr  -0.70180
gfz2015plal  -1.34910
gfz2015prlr  -0.97500
gfz2015qbme  -0.04950
gfz2015qiit   0.12650
gfz2015qnde   0.28040
gfz2015qnho   0.49200
gfz2015qnlv   0.22290
gfz2015qols  -1.10600
gfz2015qpvd  -1.24700
gfz2015quzo   0.80080
gfz2015qvxu   0.11120
gfz2015rddx   0.35930
gfz2015rgrg   2.17970
gfz2015rkzg  -3.74460
gfz2015rnis   0.56740
gfz2015rtnv   0.01550
gfz2015saet  -1.27150
gfz2015sdeo   0.58110
gfz2015sdfy   0.21150
gfz2015seuf   0.37310
gfz2015sevh   0.69420
gfz2015sfdd  -1.34250
gfz2015sfsi   0.09140
gfz2015sjgk  -1.42980
gfz2015snsf   2.84320
gfz2015snwh  -0.82390
gfz2015snyd   3.90770
gfz2015soat   2.60710
gfz2015soxc  -2.69260
gfz2015spxh  -0.51530
gfz2015sryk   0.28620
gfz2015ssoe   0.66530
gfz2015sxmh  -0.43330
gfz2015taml  -1.92420
gfz2015tbdn  -0.43650
gfz2015tchx  -0.13530
gfz2015tdhb   0.95810
