# Nsamples: 2091  MAD:  0.535  mean: -0.125  variance:  1.181
gfz2010aban   0.00000
gfz2010aerk   0.49590
gfz2010ahla   0.05280
gfz2010ahqi  -0.05250
gfz2010aphp   0.32810
gfz2010awfi   0.08270
gfz2010bedu  -0.13520
gfz2010bfzs  -0.95870
gfz2010bgth   0.18090
gfz2010bhhq  -2.95670
gfz2010bifb   0.92310
gfz2010bjeb  -0.22960
gfz2010bjjx   0.33570
gfz2010bjsl  -2.25570
gfz2010bkob  -0.57430
gfz2010bkos  -0.43930
gfz2010bowy   0.91630
gfz2010boxo   1.28300
gfz2010bpda  -0.56630
gfz2010bxxs   0.58720
gfz2010caft  -0.10100
gfz2010cbkg  -0.40800
gfz2010cdbt  -0.34390
gfz2010chnv  -0.15620
gfz2010cind  -0.13130
gfz2010civi  -0.22490
gfz2010cjmx  -0.00000
gfz2010cjqh  -0.12620
gfz2010cjrf  -0.11130
gfz2010ckeu  -0.29010
gfz2010ckzm   0.25540
gfz2010cnwc  -0.32940
gfz2010cptb   0.44220
gfz2010cqwl   0.30300
gfz2010cres   0.70300
gfz2010ctuw  -1.55700
gfz2010czps  -0.23530
gfz2010ddzo   0.65820
gfz2010dejx   0.23080
gfz2010dfru  -0.35860
gfz2010diqn  -0.86110
gfz2010dlgc   0.45320
gfz2010dtmx   0.14800
gfz2010dumm   0.09430
gfz2010engw   6.28800
gfz2010enpa   1.54130
gfz2010ensu  -0.22140
gfz2010enzl  -0.00720
gfz2010eoao  -2.16550
gfz2010eohh  -1.38790
gfz2010eomb  -1.79370
gfz2010epbe  -0.39130
gfz2010epud  -3.57190
gfz2010epxj  -1.79890
gfz2010epzk   1.15420
gfz2010eqcn   0.16830
gfz2010eqjg  -0.93010
gfz2010eqse  -0.48210
gfz2010eqwl   0.88350
gfz2010erda   4.65100
gfz2010erdi  -1.54950
gfz2010erfy  -0.45550
gfz2010erig   0.52390
gfz2010erkn   0.03570
gfz2010erna  -3.03550
gfz2010erom  -3.67480
gfz2010erum   1.12860
gfz2010eruy  -0.24250
gfz2010erwn  -2.01520
gfz2010erxb  -5.05480
gfz2010eryg  -3.81610
gfz2010esid   1.15390
gfz2010esmg  -0.04670
gfz2010esou   0.34190
gfz2010eted  -1.73500
gfz2010etfw  -0.39480
gfz2010euan   0.90310
gfz2010eugj   1.14890
gfz2010eujm  -0.70890
gfz2010euvl   1.40920
gfz2010euxe  -0.04340
gfz2010evco   0.89350
gfz2010evgf  -1.25390
gfz2010evjv  -0.26980
gfz2010evkd   1.38940
gfz2010ewbc   4.28850
gfz2010ewpq  -0.62880
gfz2010ewvc  -2.12410
gfz2010ewyu  -0.19880
gfz2010excp  -2.20460
gfz2010exdd  -1.76710
gfz2010exdl   2.06840
gfz2010exel   0.71340
gfz2010exfb   0.25670
gfz2010exgb  -0.53370
gfz2010exhd   3.38270
gfz2010exhw  -4.08280
gfz2010exjw  -3.42250
gfz2010exmc  -0.92470
gfz2010exno   1.57750
gfz2010exou   1.50930
gfz2010exqu   1.40780
gfz2010exsg   0.06740
gfz2010exts   2.30990
gfz2010exyp   1.33250
gfz2010eyaz  -0.77970
gfz2010eyhh   0.09790
gfz2010eyiv  -0.35690
gfz2010eymr  -1.91640
gfz2010eymx  -5.11460
gfz2010eyqe  -1.08440
gfz2010eyvq  -4.81870
gfz2010eyxe  -0.09420
gfz2010ezax   1.28740
gfz2010ezck  -3.49920
gfz2010ezig   4.55870
gfz2010ezjk   0.16020
gfz2010ezvt   1.05310
gfz2010ezwz  -3.54970
gfz2010ezxd  -5.75080
gfz2010faeu  -0.52260
gfz2010falm  -0.32100
gfz2010fauz   0.17070
gfz2010fbeu  -2.22260
gfz2010fbwe   0.72000
gfz2010fcax   2.78450
gfz2010fciw   0.20750
gfz2010fcnn  -0.29240
gfz2010fcnt   1.83340
gfz2010fcxy   0.14980
gfz2010fczt  -0.53650
gfz2010fdxr  -0.39610
gfz2010fedq  -0.39920
gfz2010fefr  -0.63350
gfz2010fexw  -1.30610
gfz2010ffhq   0.33730
gfz2010ffjb  -1.11360
gfz2010ffui  -0.32150
gfz2010fhbl   0.32590
gfz2010figq   0.16510
gfz2010fihj  -1.42120
gfz2010fika   0.11550
gfz2010fisf  -0.78630
gfz2010fjal   1.16410
gfz2010fjas  -0.14150
gfz2010fjmu  -0.45930
gfz2010fjni   8.77100
gfz2010fkhd   0.24350
gfz2010fknh  -0.21660
gfz2010fkvg   1.84670
gfz2010flha  -0.31310
gfz2010flkj  -3.53850
gfz2010floi  -2.43110
gfz2010flxi   1.08940
gfz2010fmhb   1.05290
gfz2010fmip  -0.78600
gfz2010fmpy  -0.32000
gfz2010fmwb   1.13070
gfz2010fnrk  -1.49050
gfz2010fobc   1.59470
gfz2010fpqy  -0.34970
gfz2010fqdu  -1.04600
gfz2010fqtj  -0.55450
gfz2010fser   0.58140
gfz2010fsmy   0.59460
gfz2010fsth  -0.51700
gfz2010ftlm  -0.51630
gfz2010fupn  -0.24100
gfz2010fuuy   0.14710
gfz2010fuwa   2.94790
gfz2010fvuc   6.91050
gfz2010fwkk  -0.81960
gfz2010fwlb   0.05270
gfz2010fwny   2.44700
gfz2010fwpv   0.30390
gfz2010fwzd  -0.19000
gfz2010fyed   4.51300
gfz2010fyen   1.82890
gfz2010fzoi   2.08870
gfz2010fzsg  -2.67870
gfz2010fzyt   2.02050
gfz2010gcdn   1.14760
gfz2010gceb   0.15470
gfz2010gcrl  -0.87280
gfz2010gdch  -2.01790
gfz2010gdld   0.44770
gfz2010geru   1.67230
gfz2010ghyk   0.20060
gfz2010ginm  -0.83310
gfz2010gjia   0.35730
gfz2010gjvo  -3.66240
gfz2010glqr  -1.32020
gfz2010glxl  -1.05870
gfz2010govu  -0.02940
gfz2010grjd  -0.18920
gfz2010grss  -0.19230
gfz2010grxb   0.77840
gfz2010gslu  -0.91620
gfz2010gtzt  -0.04070
gfz2010gvya  -3.64450
gfz2010gwmp  -1.09940
gfz2010gymo  -3.97630
gfz2010gyqp  -0.44700
gfz2010gzxr   0.10540
gfz2010hakh  -0.09160
gfz2010hbka   0.53990
gfz2010hcio  -1.89820
gfz2010hevz  -0.37470
gfz2010hgld  -2.13730
gfz2010hhls  -0.24380
gfz2010hjoc  -0.36240
gfz2010hllj  -1.26140
gfz2010hlln  -0.37990
gfz2010hlmq  -0.49840
gfz2010hlvr  -0.10580
gfz2010hmhm  -1.23330
gfz2010hndk   0.28180
gfz2010hnnf   0.15400
gfz2010hnzr  -0.25410
gfz2010homc  -0.59710
gfz2010hptz  -0.50870
gfz2010hrkr  -0.52510
gfz2010htdq  -0.93700
gfz2010hufk  -0.22410
gfz2010hxgv   0.45750
gfz2010hxhe  -1.41880
gfz2010hykt  -0.57990
gfz2010hzar  -1.48590
gfz2010ibiy  -1.77450
gfz2010ibxj  -0.25470
gfz2010iciq   0.39200
gfz2010icqq  -0.30850
gfz2010iefy  -3.90840
gfz2010ihrq  -2.41120
gfz2010iibf  -2.40540
gfz2010iimu  -0.60710
gfz2010ijtk  -0.07770
gfz2010imfv  -3.64390
gfz2010imsh  -0.21190
gfz2010iobp  -3.94310
gfz2010iphd  -2.11150
gfz2010iqep  -0.10010
gfz2010iqfm  -5.80020
gfz2010iqnm  -1.08450
gfz2010iqus   0.69720
gfz2010irqr   0.06140
gfz2010irvf   0.16270
gfz2010isrp   1.19830
gfz2010ited   0.00000
gfz2010itpb  -0.71560
gfz2010iull   0.00000
gfz2010ixyc  -1.11360
gfz2010izzj  -3.90220
gfz2010jant  -0.91110
gfz2010jatq   0.08260
gfz2010jhie   0.19470
gfz2010jipf  -2.29260
gfz2010jitt  -0.77790
gfz2010jkxj   0.78990
gfz2010jlhj  -0.53910
gfz2010jpss  -0.23580
gfz2010jpyj  -0.50470
gfz2010jsuh   0.34330
gfz2010jtal  -1.91660
gfz2010jucj   0.23170
gfz2010jwpy  -0.11210
gfz2010jxbm   1.06560
gfz2010jygz  -0.24480
gfz2010kcoo  -0.18440
gfz2010kdyc  -0.40070
gfz2010kgws   1.29160
gfz2010kihf  -2.07750
gfz2010kmgg   0.35160
gfz2010kmsv  -0.30390
gfz2010kown  -0.03290
gfz2010kqyh  -0.31890
gfz2010kraw  -0.75840
gfz2010kyen  -1.03540
gfz2010kzml  -2.23020
gfz2010lcoq  -2.09870
gfz2010lczp   0.36960
gfz2010lepw  -0.44880
gfz2010lfju  -0.76520
gfz2010lgwy  -2.71030
gfz2010liqs  -0.74840
gfz2010lkcf  -1.01120
gfz2010lluj   0.19220
gfz2010lrlk   1.09060
gfz2010lruw   0.51760
gfz2010lsft   0.15600
gfz2010lwuq  -0.06330
gfz2010lyfk  -0.22670
gfz2010mant   2.51070
gfz2010mdpq   0.30620
gfz2010mfpt   0.48070
gfz2010mgss  -1.63740
gfz2010mhjt  -0.25300
gfz2010miil   3.05920
gfz2010mipi  -0.03830
gfz2010miqn  -4.68700
gfz2010mkuu  -0.38960
gfz2010mlta  -2.06340
gfz2010mncc  -0.29630
gfz2010mnhm   1.32840
gfz2010mnsz  -0.19100
gfz2010moyw  -0.12060
gfz2010mpuy   0.91180
gfz2010msjj  -0.31840
gfz2010muca  -0.57990
gfz2010mwdq   1.25890
gfz2010mzjr  -0.85480
gfz2010ncrl   0.27910
gfz2010ndxl   0.17450
gfz2010nfsj   1.95940
gfz2010nlkh  -0.89700
gfz2010nmpc   0.40270
gfz2010nnny  -0.24490
gfz2010nqwf  -0.15090
gfz2010nqwo   0.63210
gfz2010nrew  -0.14640
gfz2010nrjo  -0.90620
gfz2010nsck  -4.65800
gfz2010nsdf  -1.34400
gfz2010nsfx  -0.04500
gfz2010ntuo   1.00250
gfz2010nubk   0.00000
gfz2010nwef   0.10030
gfz2010nxsy  -1.45550
gfz2010nxum   1.71930
gfz2010nzha  -5.82560
gfz2010nzla  -1.04600
gfz2010ocxq  -0.48970
gfz2010odpb  -0.02320
gfz2010oedn  -0.62260
gfz2010okdm   1.19440
gfz2010oluw   0.18160
gfz2010omla   0.24150
gfz2010onma  -0.07770
gfz2010osjs  -1.34940
gfz2010osqo  -0.05610
gfz2010otbn  -0.01530
gfz2010oyqy   0.18520
gfz2010pbdz  -0.31610
gfz2010pcxi   0.13860
gfz2010pdtk  -0.81570
gfz2010pets  -0.11130
gfz2010pewa  -2.45840
gfz2010pewx  -0.08610
gfz2010pexf   0.50000
gfz2010pfyu   0.01870
gfz2010phvg  -0.47270
gfz2010plbg  -0.59460
gfz2010pmqd  -0.36570
gfz2010pqck   0.25470
gfz2010pxak  -0.15040
gfz2010pxgh   0.34570
gfz2010pxls   0.16970
gfz2010qbng  -0.03120
gfz2010qitd   0.20990
gfz2010qjst  -0.11050
gfz2010qkat  -0.33640
gfz2010qpcq  -0.04860
gfz2010qpum   0.73960
gfz2010qpvi   0.76430
gfz2010qttw  -1.17140
gfz2010qwwx   1.98790
gfz2010rkfp  -0.19040
gfz2010rlbv  -2.10020
gfz2010rqwj  -1.03600
gfz2010rxjw   0.39840
gfz2010rywq  -4.06900
gfz2010rzrr  -0.44660
gfz2010rzsd  -0.89280
gfz2010sfee   0.29000
gfz2010sfla  -2.47270
gfz2010sgzk  -0.47570
gfz2010skqo  -0.58870
gfz2010skve  -0.16100
gfz2010srdb  -0.74340
gfz2010svtn   0.07800
gfz2010svve   0.00000
gfz2010swcy  -0.03440
gfz2010sxfq   0.27390
gfz2010sxwt   0.40130
gfz2010sysw  -0.13460
gfz2010szde   1.96590
gfz2010szim   0.81790
gfz2010tcbr   0.03420
gfz2010tcrl  -2.67850
gfz2010titk   0.43690
gfz2010tlfm  -0.62680
gfz2010truw   1.88600
gfz2010uept  -0.16400
gfz2010uouo  -0.99840
gfz2010upfb  -1.14580
gfz2010urlq   0.41020
gfz2010usho  -0.13400
gfz2010ustq  -2.34810
gfz2010utcg  -0.54000
gfz2010utmc  -0.68300
gfz2010uvhf   0.08540
gfz2010uyhb  -0.55860
gfz2010uzon  -0.04960
gfz2010vbmd  -0.58280
gfz2010veri  -1.50820
gfz2010vhuj   0.65490
gfz2010vppc   0.10300
gfz2010vtdg  -0.40090
gfz2010vxvs  -0.75000
gfz2010vyxd  -0.03830
gfz2010vzpr  -0.50420
gfz2010vzzz  -0.27930
gfz2010wioh   0.05690
gfz2010wnty  -0.20160
gfz2010wntz  -0.13490
gfz2010wofs  -0.17350
gfz2010wrxx  -1.49560
gfz2010wxqa  -9.18550
gfz2010xbcr   0.21160
gfz2010xbdv  -1.93020
gfz2010xbgs   0.04370
gfz2010xcdh  -0.14980
gfz2010xche  -1.11270
gfz2010xcij   0.04730
gfz2010xden   0.14430
gfz2010xgfc   0.56410
gfz2010xgzw   0.67190
gfz2010xjck   0.71600
gfz2010xjsj  -0.16110
gfz2010xmpr   0.94530
gfz2010xnxk  -0.05730
gfz2010xxdb  -0.60520
gfz2010xxzn  -4.70810
gfz2010yfsv   0.34290
gfz2010yjev  -0.76820
gfz2010ymfy   0.19730
gfz2010ymur  -0.06370
gfz2010yosr   0.09000
gfz2010yoyx  -0.09560
gfz2010yqqb   0.11860
gfz2010yqqv  -0.60700
gfz2010yqwx  -5.66000
gfz2010yzgq   0.43000
gfz2010zdpo   0.35760
gfz2010zeeh  -0.08720
gfz2011aatr   0.04800
gfz2011adjs   0.49210
gfz2011adlj  -2.05190
gfz2011adpw  -0.71850
gfz2011adqk  -0.78200
gfz2011ahfw  -0.54410
gfz2011alip   0.16270
gfz2011alsa  -1.34150
gfz2011alwf  -1.72660
gfz2011anur  -0.31380
gfz2011aosc  -1.54980
gfz2011aqxf  -0.27740
gfz2011asru   0.78850
gfz2011aupi   1.70590
gfz2011bgrp   0.17870
gfz2011bhha  -3.20720
gfz2011blsi   1.21160
gfz2011bnzn  -0.62430
gfz2011bpkd  -0.11350
gfz2011bswz   0.20940
gfz2011ccpw  -2.08880
gfz2011cfae   0.02170
gfz2011cndo  -0.91810
gfz2011coxh  -0.63620
gfz2011crdy  -0.00000
gfz2011csju  -0.31770
gfz2011ctbn  -0.28000
gfz2011cvcg   0.09200
gfz2011cvfg  -0.31240
gfz2011cwgn   1.84450
gfz2011cykd   0.25450
gfz2011cylz  -0.01960
gfz2011cynl  -0.46560
gfz2011cyre  -0.16310
gfz2011cyuk  -0.36930
gfz2011czwj  -0.13050
gfz2011dbev  -0.07890
gfz2011dbig   0.00000
gfz2011dbli  -0.22250
gfz2011dbon  -0.02500
gfz2011dbwt  -0.11800
gfz2011dcqb   0.57460
gfz2011ddao  -1.27210
gfz2011dddh   3.82280
gfz2011deaf   0.37720
gfz2011deja   1.34160
gfz2011dllz  -0.63560
gfz2011dlyx   1.10670
gfz2011dmat   0.21750
gfz2011dndz  -0.09900
gfz2011dpaa  -0.86850
gfz2011dpmx  -0.01650
gfz2011dpqx   1.67350
gfz2011dtpy  -0.40550
gfz2011duyr  -1.70260
gfz2011eayc   0.15910
gfz2011eazf  -0.00000
gfz2011ecsc  -0.02530
gfz2011edmm  -0.31630
gfz2011efgv   0.10020
gfz2011ehzq  -0.92970
gfz2011eiis  -0.54430
gfz2011ejlp   0.22200
gfz2011ekpr   2.57890
gfz2011eltw   0.46150
gfz2011enva  -0.18820
gfz2011eocc  -0.62150
gfz2011etje  -0.91270
gfz2011fdzv   0.34350
gfz2011fgvr   0.33550
gfz2011fhag   2.38950
gfz2011fhbm  -0.13060
gfz2011fhur   5.34310
gfz2011fkbn   0.26270
gfz2011flgj   0.33030
gfz2011flhp   0.12890
gfz2011fnsw  -0.69990
gfz2011gbmx   0.27210
gfz2011gcwb   1.78280
gfz2011gdgh  -0.06760
gfz2011ggvf   0.03860
gfz2011gjlx  -0.13760
gfz2011gkey   3.24210
gfz2011gkzt   0.18230
gfz2011gzbr  -0.86190
gfz2011haid  -1.21130
gfz2011hbex   0.16870
gfz2011hbqk  -0.12960
gfz2011hebt  -0.00820
gfz2011hlqw   0.02150
gfz2011hlsa  -0.01840
gfz2011hlth  -0.20560
gfz2011hpgx   0.91840
gfz2011hpqp   0.28590
gfz2011hrhe   0.28890
gfz2011hrhu   2.38820
gfz2011hvbu  -1.97290
gfz2011icxe   0.10830
gfz2011ieie  -0.54080
gfz2011ixai   0.31600
gfz2011izqa   0.34340
gfz2011jbbc  -0.24910
gfz2011jdsj  -0.13560
gfz2011jghb   3.25630
gfz2011jmbn  -0.57030
gfz2011jnmi   0.89450
gfz2011jplh   0.06160
gfz2011jxpl  -0.01750
gfz2011knbi  -0.06360
gfz2011knoo  -0.09910
gfz2011kqwo  -0.06700
gfz2011kqyg  -0.58070
gfz2011kwhq  -0.49360
gfz2011kwid   0.68770
gfz2011kwiy   0.65400
gfz2011kwjx   0.60160
gfz2011kwkw   0.72600
gfz2011kwld   0.41880
gfz2011kwlq   0.21570
gfz2011kwni  -0.28270
gfz2011kwnu   0.05920
gfz2011kwqc   0.40600
gfz2011kwrf   0.75470
gfz2011kwsz   0.60780
gfz2011kxzp   0.63680
gfz2011lczg  -0.10850
gfz2011lgsg  -0.29210
gfz2011lhls  -0.47940
gfz2011lvjr  -0.29270
gfz2011lzwj   0.45450
gfz2011mdie  -0.35610
gfz2011mepc   0.15540
gfz2011mjom  -0.94260
gfz2011mllx   0.45780
gfz2011mlvw   0.20380
gfz2011mpme   0.66860
gfz2011mprq  -1.09640
gfz2011myia   4.39580
gfz2011nauw   0.36670
gfz2011necz   0.06430
gfz2011nmnq  -2.03010
gfz2011nmqj  -0.21080
gfz2011noud   3.53680
gfz2011nowp   0.30910
gfz2011npgs  -0.69680
gfz2011nqpd   0.04960
gfz2011nrwc  -0.94740
gfz2011nrwv  -0.43430
gfz2011nsex  -0.66840
gfz2011ntkh   0.02490
gfz2011ntrv  -0.28660
gfz2011nudm  -5.17730
gfz2011ogqk   1.85460
gfz2011ohcy  -1.49250
gfz2011oiqe   0.12980
gfz2011oiwk  -0.15680
gfz2011olkk  -0.38240
gfz2011oolr   0.36310
gfz2011ornx   1.40970
gfz2011owvz  -0.74520
gfz2011ozsl  -1.53410
gfz2011pccd   0.14070
gfz2011pdpt  -0.14800
gfz2011pdst  -0.14150
gfz2011phms   2.92120
gfz2011pntf   1.08680
gfz2011ptus  -0.79170
gfz2011qigx  -0.53340
gfz2011qoif   0.45700
gfz2011qvae   1.90220
gfz2011qyms  -0.50950
gfz2011rabm  -0.73740
gfz2011rdby  -0.76450
gfz2011rewa   0.17250
gfz2011rgwp  -0.55980
gfz2011rnut  -2.02130
gfz2011rqui   0.92550
gfz2011rsrh  -2.31690
gfz2011runa  -0.31610
gfz2011rznl   0.29410
gfz2011sagt  -2.10120
gfz2011sawg  -0.64550
gfz2011shqm   0.07730
gfz2011stal  -0.36520
gfz2011sthv   0.11600
gfz2011svix  -0.36780
gfz2011syjd  -0.80130
gfz2011taps  -0.74680
gfz2011tbas   2.44210
gfz2011tcij  -0.06680
gfz2011tivu   0.24520
gfz2011tjrf  -1.65710
gfz2011tjue   0.02670
gfz2011tkfp   1.45500
gfz2011tkog  -0.21850
gfz2011tnag  -0.40660
gfz2011toub   1.43400
gfz2011tpbl  -0.18300
gfz2011tpfr   0.39200
gfz2011tsfd  -0.00270
gfz2011tsnp  -0.62830
gfz2011tuea  -0.28750
gfz2011twov   0.50630
gfz2011udsq   1.08160
gfz2011ueni   0.12820
gfz2011uepx  -0.25340
gfz2011ugzz   0.85390
gfz2011uiul  -0.07520
gfz2011ujze   0.27650
gfz2011ukmp   0.55350
gfz2011unkx  -1.06920
gfz2011uphh   0.47580
gfz2011urxy  -0.13260
gfz2011urzu  -0.08080
gfz2011uzqv   0.63780
gfz2011vclt  -0.05280
gfz2011vhfi  -0.07580
gfz2011vkun   0.45890
gfz2011vldk   0.18280
gfz2011vnza   0.15170
gfz2011vqnr   0.70440
gfz2011vqrj   1.93830
gfz2011vrhg   0.30990
gfz2011vusi  -0.58630
gfz2011vxod  -0.63720
gfz2011vxxg  -0.14720
gfz2011wcic  -0.46700
gfz2011wfja   0.23320
gfz2011wijj  -0.38630
gfz2011wjul   0.86550
gfz2011wtmq  -0.21960
gfz2011wvzb   0.32930
gfz2011wwjs  -1.00990
gfz2011wxfs  -0.57790
gfz2011wxoj  -0.86990
gfz2011wxtk   0.10540
gfz2011wype   0.72450
gfz2011xaan  -1.52090
gfz2011xcpv   0.14970
gfz2011xesx   0.66400
gfz2011xqru   0.50170
gfz2011xyxj  -0.48270
gfz2011yfdx   0.27590
gfz2011yfys  -0.06660
gfz2011yhwz  -0.08940
gfz2011ytnu  -0.18070
gfz2011yybo  -0.11970
gfz2011yzwq  -0.26720
gfz2011zjap   0.20810
gfz2011zlfg  -0.13580
gfz2011zlrd  -0.62150
gfz2011zqhh   0.53560
gfz2012ablh   0.07450
gfz2012ajtq  -0.32220
gfz2012aqgp   4.18700
gfz2012aqtq   0.29710
gfz2012attr  -0.32350
gfz2012bfah   3.54850
gfz2012bfyn  -0.22260
gfz2012bngd  -0.02960
gfz2012bpkx  -0.63790
gfz2012bpnl  -1.05540
gfz2012bpwl  -0.28170
gfz2012brhv  -0.12340
gfz2012byad  -0.08120
gfz2012cbed   0.19310
gfz2012cnod  -0.13210
gfz2012covm   0.02320
gfz2012cqnl   0.80080
gfz2012cqtc   0.51770
gfz2012cxdn  -0.63840
gfz2012czlw   0.60470
gfz2012ddma   0.07550
gfz2012deri  -0.06210
gfz2012dimn  -0.58890
gfz2012dinb   0.19200
gfz2012dves  -3.89100
gfz2012dyyh  -0.34810
gfz2012ekda  -0.03210
gfz2012ekzf   3.68980
gfz2012elce  -2.98700
gfz2012emjg  -0.23250
gfz2012enno   0.07500
gfz2012eskt  -0.65740
gfz2012ewgo  -0.10440
gfz2012ewkj   0.49640
gfz2012ezvr  -0.47610
gfz2012fbfo   0.21600
gfz2012fhnh  -1.80900
gfz2012fivh  -3.05930
gfz2012foeo  -0.38280
gfz2012fqcg   0.08550
gfz2012fwfo  -0.18810
gfz2012fwob   0.13860
gfz2012fwtr  -0.71530
gfz2012fzfa  -0.85450
gfz2012gcgn   0.32760
gfz2012gill  -0.05930
gfz2012gkvr   0.29620
gfz2012gnvh  -0.12910
gfz2012gocc   1.08810
gfz2012gomm   0.06560
gfz2012gwmu   0.51260
gfz2012gwqb  -0.04840
gfz2012hdbm   0.31960
gfz2012hnul   0.39310
gfz2012hogg  -0.32180
gfz2012holl  -1.73610
gfz2012hsex   0.16490
gfz2012hwyo  -0.31210
gfz2012hyaa  -0.39820
gfz2012hzbe   0.39810
gfz2012iamr   0.40430
gfz2012icmv  -0.90890
gfz2012idje  -0.75850
gfz2012iffo  -0.03800
gfz2012iivw  -0.12410
gfz2012ilxh   0.18090
gfz2012imay   0.05330
gfz2012imbd   0.81730
gfz2012intn   0.03480
gfz2012iyrb   0.44940
gfz2012jgvj   0.26870
gfz2012jlox  -0.22940
gfz2012joqe   0.56500
gfz2012jpeh  -0.60780
gfz2012jpgs   0.44140
gfz2012jshk  -0.48480
gfz2012jted  -0.17820
gfz2012jupx  -0.26420
gfz2012jwhu  -0.04320
gfz2012jxiy   0.27200
gfz2012kbjb  -0.52970
gfz2012kbzj  -0.09150
gfz2012kdmb  -0.23390
gfz2012keor  -0.19800
gfz2012kkcp   0.01660
gfz2012kkup   0.53840
gfz2012klba   0.54110
gfz2012klhx  -0.00740
gfz2012kuct   0.28230
gfz2012kudo   0.13840
gfz2012kvzv  -0.35380
gfz2012kwgo  -0.06070
gfz2012lboz  -0.15760
gfz2012lczo  -0.55820
gfz2012ldgs  -1.44770
gfz2012ldxg  -1.12170
gfz2012ldzj   0.14960
gfz2012ledy  -1.48740
gfz2012ljql  -0.04020
gfz2012lltr  -0.54370
gfz2012llug   0.00870
gfz2012lpvn  -0.00680
gfz2012lrol  -0.90020
gfz2012lsni   0.26440
gfz2012lxkv  -0.72810
gfz2012lzmr   0.17970
gfz2012maxy  -0.35810
gfz2012mcze   1.75020
gfz2012mdmy  -0.15970
gfz2012minr   0.36530
gfz2012mkpn  -0.53710
gfz2012mpvy   1.08310
gfz2012mpyl   3.75780
gfz2012mtiu   0.15110
gfz2012mupa   0.37860
gfz2012mvwr   0.08200
gfz2012mwij  -0.01840
gfz2012myqa  -2.07130
gfz2012nben  -0.83500
gfz2012nbtn   3.19020
gfz2012nedn  -0.71450
gfz2012ngic  -1.91240
gfz2012nkdf  -0.53860
gfz2012nojx   0.12720
gfz2012nolo   0.20100
gfz2012nqnk  -0.17430
gfz2012nsbz   0.72010
gfz2012ntzv   0.97830
gfz2012nutf   0.30120
gfz2012nxog   0.04170
gfz2012nxyt  -0.48220
gfz2012nzpz   0.19560
gfz2012oazn  -0.57910
gfz2012obgw  -0.58340
gfz2012obnq   0.01730
gfz2012oedb  -0.29120
gfz2012ofpe  -0.04550
gfz2012okhx  -0.03640
gfz2012omvo  -0.37070
gfz2012oqmw  -0.64980
gfz2012ostk   0.20360
gfz2012ovqs  -0.31670
gfz2012oycg  -0.38500
gfz2012pazr   0.17280
gfz2012pciw   0.52920
gfz2012peex   0.04790
gfz2012peki  -0.94830
gfz2012pkel  -0.89580
gfz2012plbw  -0.29360
gfz2012plea  -1.11970
gfz2012pofl   0.27160
gfz2012poju   1.32240
gfz2012pqlt  -0.08570
gfz2012pqmk  -0.40870
gfz2012pqmu   0.08840
gfz2012priv   0.17350
gfz2012prlt   0.03540
gfz2012pspd  -0.20010
gfz2012pygp  -0.65320
gfz2012qjhs  -0.03410
gfz2012qouy   0.03750
gfz2012qqqp   0.06940
gfz2012qtgs   2.49430
gfz2012qurq   0.40170
gfz2012quso   0.08040
gfz2012rats  -0.79360
gfz2012rboy  -0.27280
gfz2012rcbq  -0.15480
gfz2012rcds   0.45570
gfz2012rcnj  -0.22800
gfz2012ronz   0.61310
gfz2012royy   0.40230
gfz2012rqlg   0.31110
gfz2012rubi  -0.88420
gfz2012ruks  -0.63290
gfz2012rwko  -0.40310
gfz2012rwov  -1.60660
gfz2012sfer  -0.77050
gfz2012shtg  -0.07280
gfz2012sjea  -3.19170
gfz2012sphd   0.06200
gfz2012sqmv   0.11220
gfz2012sqvi   1.16360
gfz2012ssyn  -0.13390
gfz2012syvl  -0.09610
gfz2012szla   0.60100
gfz2012taou  -0.63530
gfz2012tazz   0.68140
gfz2012tbbp   0.04840
gfz2012tmop  -0.04550
gfz2012ttoa   0.38460
gfz2012tyxl   0.87210
gfz2012uaqj  -0.39520
gfz2012uciv   0.55310
gfz2012ulpd   0.82280
gfz2012uqzp  -0.00000
gfz2012usba  -0.82660
gfz2012uvqf   0.07580
gfz2012uxnz   0.39180
gfz2012uyie   0.64440
gfz2012uyxb  -4.85440
gfz2012uzom   0.18020
gfz2012uzyj   0.04860
gfz2012vceo  -0.96440
gfz2012viab   0.64560
gfz2012vjgl  -0.33400
gfz2012vmeh   0.85040
gfz2012vnbk  -0.30600
gfz2012vntz  -0.62740
gfz2012vpza  -0.33150
gfz2012vrua  -0.02800
gfz2012vsev   0.01710
gfz2012vtxe  -0.39700
gfz2012vwvd   0.04340
gfz2012vxvr   0.21250
gfz2012wdyx   1.25420
gfz2012whku  -0.48240
gfz2012wizz  -0.12250
gfz2012wmsg  -0.32120
gfz2012wpeq  -0.82170
gfz2012wqnc   0.18980
gfz2012wrir  -0.85400
gfz2012wtkh   0.19730
gfz2012wtkr  -0.15000
gfz2012wubh   0.01570
gfz2012wxer   2.52070
gfz2012wxkg   0.01750
gfz2012wxnu   1.19380
gfz2012wybs  -0.25020
gfz2012wypz   0.07730
gfz2012xbjq  -0.08520
gfz2012xcgk   0.23060
gfz2012xevt   0.22280
gfz2012xgqm  -0.20890
gfz2012xhci   0.13970
gfz2012xjyv  -0.75910
gfz2012xmxy  -0.66130
gfz2012xpmm  -0.06290
gfz2012xssa  -0.89120
gfz2012xvwn   0.09030
gfz2012xwqa  -1.56440
gfz2012xyqp  -0.12360
gfz2012xyua  -0.07740
gfz2012yldu  -0.34190
gfz2012yoie  -0.03260
gfz2012yqjj  -0.27960
gfz2012yxxu  -0.11480
gfz2012yzod   0.16700
gfz2012zemz   0.19990
gfz2012zfag   1.73150
gfz2012zhmb   0.01430
gfz2012ziml   0.20320
gfz2012zjpv   1.10570
gfz2012zsqk  -0.74890
gfz2013aahq  -0.41410
gfz2013aayj  -0.28360
gfz2013acag   1.17520
gfz2013aeee  -0.16990
gfz2013akgj   0.49610
gfz2013aknp   0.71030
gfz2013apmm  -0.08270
gfz2013axoj   0.22680
gfz2013azzr  -1.42030
gfz2013bdke   2.39340
gfz2013biji  -0.24360
gfz2013bobq  -0.35660
gfz2013bouj   0.78960
gfz2013btjm   0.34050
gfz2013bzlb  -0.31430
gfz2013bzzm  -0.83210
gfz2013cbsm   0.14030
gfz2013ccnr  -1.02410
gfz2013ccon  -0.07680
gfz2013cdfj  -1.10870
gfz2013cfyy  -0.26400
gfz2013cnhh   0.17710
gfz2013cnve  -0.45230
gfz2013comh   0.13090
gfz2013czeq   0.88660
gfz2013ddbh   0.47660
gfz2013dddp   0.25610
gfz2013diuf   0.17080
gfz2013dkym  -0.20670
gfz2013dnnx  -0.06710
gfz2013dofo  -0.75190
gfz2013dojq  -0.47000
gfz2013dqls  -0.16440
gfz2013drpk   0.35640
gfz2013drxz   0.07420
gfz2013dsog  -0.17940
gfz2013dspt  -0.73860
gfz2013dsrk  -1.09380
gfz2013dujm  -0.12420
gfz2013dvyh  -0.00900
gfz2013dyop  -0.10330
gfz2013egni   0.34500
gfz2013egpu  -0.14650
gfz2013ehwe   0.24770
gfz2013ekpm  -0.14070
gfz2013erse  -0.24200
gfz2013esnh   0.27520
gfz2013eswe  -0.00000
gfz2013eulz  -0.11590
gfz2013ewbo  -0.44830
gfz2013fcto  -0.45740
gfz2013fdoo   0.13640
gfz2013fdwq   0.31450
gfz2013ffko   0.01300
gfz2013fiud   0.08690
gfz2013fkcl  -0.05610
gfz2013flox  -1.44490
gfz2013ftso   0.70210
gfz2013fwxa   0.21600
gfz2013fxge  -0.43600
gfz2013fygc   0.45830
gfz2013gaie  -0.21510
gfz2013gbcn  -1.39010
gfz2013gbst   0.08960
gfz2013gdnq   0.49570
gfz2013geia  -0.42670
gfz2013geno  -0.36360
gfz2013ggtf  -0.06120
gfz2013gjdc   0.21610
gfz2013glcr  -0.18600
gfz2013gmor   0.14140
gfz2013gngz  -0.03170
gfz2013gnse  -0.07500
gfz2013gock  -0.02570
gfz2013govy   0.22980
gfz2013gras   0.44090
gfz2013gvdb  -0.10760
gfz2013gvet   0.13280
gfz2013gvex  -1.85600
gfz2013gvxh  -2.12910
gfz2013gwrd  -0.65520
gfz2013gxsu   1.03960
gfz2013hbkh  -1.48900
gfz2013hbkq   0.95380
gfz2013hisv  -0.58100
gfz2013hlbe  -0.20490
gfz2013hmbc   0.18380
gfz2013hpfq   0.38330
gfz2013hudi   0.02110
gfz2013hxcx   0.07090
gfz2013hydf  -0.50830
gfz2013hzdp  -0.35890
gfz2013iapa   0.39410
gfz2013iayx   0.00000
gfz2013icfh   0.16110
gfz2013idbb  -0.17990
gfz2013iexo   0.03450
gfz2013ifpq  -0.14850
gfz2013igmx  -0.32190
gfz2013ihcj  -0.24470
gfz2013inux  -1.05650
gfz2013iodt   0.11260
gfz2013iopd  -0.12250
gfz2013ippu   0.48010
gfz2013itsu   0.13030
gfz2013iunn  -0.47250
gfz2013iynu  -0.96400
gfz2013iyqz  -0.16560
gfz2013jarl   0.27760
gfz2013jdrx  -0.77130
gfz2013jesk  -0.14620
gfz2013jfah  -0.57940
gfz2013jgij   0.19100
gfz2013jgip   0.12960
gfz2013jjsi  -0.55830
gfz2013jkut  -0.88400
gfz2013jlst  -0.01340
gfz2013jmcc   0.31590
gfz2013jokw   0.57900
gfz2013jphq  -0.10530
gfz2013jusj  -3.30020
gfz2013jwcn   0.59870
gfz2013jxoi  -0.39180
gfz2013kccc  -0.37080
gfz2013kdeo  -1.20400
gfz2013kgmj   1.07200
gfz2013kheb  -0.17260
gfz2013khli   0.01210
gfz2013kilx  -0.27210
gfz2013kkzr  -0.03860
gfz2013krei  -0.44080
gfz2013kweg   0.65760
gfz2013kwps  -0.07890
gfz2013lajg  -0.23270
gfz2013lajn  -1.96360
gfz2013ldos  -0.19220
gfz2013ldpc   0.06000
gfz2013ldqb   0.59280
gfz2013lfyb   0.28890
gfz2013lgbb   0.22150
gfz2013lgxc   0.28300
gfz2013lixa   0.31230
gfz2013lljw   0.02930
gfz2013lmdy   0.31270
gfz2013lmrs   0.09960
gfz2013lsob   0.25960
gfz2013lupg   0.46820
gfz2013lwao  -0.58160
gfz2013lwbk   0.19690
gfz2013lyko   2.11950
gfz2013mded   0.58660
gfz2013mghe   0.08070
gfz2013mmlw  -0.03620
gfz2013mmwq  -0.48910
gfz2013mnei  -0.23280
gfz2013mnju  -2.67910
gfz2013mqmv  -1.12100
gfz2013mtqd  -0.01520
gfz2013mvgr  -0.27170
gfz2013mxee   0.27350
gfz2013mzwe  -0.10160
gfz2013nabl  -0.05270
gfz2013ncjp   0.24120
gfz2013nedo   1.05370
gfz2013neuc  -0.69860
gfz2013nfwx  -0.38550
gfz2013nhjb   0.10380
gfz2013njnd  -0.41000
gfz2013nkgj  -0.17910
gfz2013nknw  -0.13790
gfz2013nlxz   0.35630
gfz2013nmac   0.05890
gfz2013nnzf  -0.36820
gfz2013nojf  -0.45290
gfz2013npcg  -0.23380
gfz2013nppd  -1.21680
gfz2013nqgw   0.58900
gfz2013nskg  -0.62100
gfz2013nttq  -0.19900
gfz2013nuor   0.03500
gfz2013nvdj  -0.37680
gfz2013nwdi  -0.61550
gfz2013oejn  -0.26890
gfz2013ofls   0.03020
gfz2013ogde  -0.58100
gfz2013oifr   0.05200
gfz2013oilg   0.18270
gfz2013oinc   0.31530
gfz2013ojti   0.45710
gfz2013oksi   0.97910
gfz2013onjy   0.08710
gfz2013orjg  -0.08900
gfz2013ornz   0.41480
gfz2013ouvt  -0.54330
gfz2013ozku  -0.21300
gfz2013oznn   0.05620
gfz2013ozqm  -1.56030
gfz2013ozrf  -0.31840
gfz2013ozrp  -0.23600
gfz2013pakq  -0.04440
gfz2013pcos   0.04540
gfz2013pfbx  -0.09290
gfz2013pfeb  -1.12950
gfz2013pffm   0.10430
gfz2013pfnf  -0.39900
gfz2013phmp  -0.65610
gfz2013pigb  -0.22650
gfz2013piwd   0.01080
gfz2013piye  -0.11880
gfz2013pkbs  -0.07030
gfz2013plhp   0.46790
gfz2013pndn  -0.11430
gfz2013poxj   0.46070
gfz2013pqui   0.21850
gfz2013pupd  -0.86120
gfz2013pxsj  -3.64560
gfz2013pxtx   1.34890
gfz2013pxya   0.59020
gfz2013qali  -0.94120
gfz2013qbca  -0.07140
gfz2013qcck   0.44810
gfz2013qfmm   0.00000
gfz2013qfsq  -0.08530
gfz2013qidm  -0.55240
gfz2013qjmk  -1.17530
gfz2013qmer   0.27080
gfz2013qqrr  -0.12880
gfz2013qvcr   0.06170
gfz2013qzdq  -0.81310
gfz2013rait   1.58240
gfz2013rdoo  -0.96890
gfz2013reav  -0.08870
gfz2013reym  -0.70640
gfz2013rjsx   0.08040
gfz2013rklb   0.00000
gfz2013roki  -0.57580
gfz2013rqcy  -0.15250
gfz2013rqmp   0.09830
gfz2013rsnr  -0.07960
gfz2013ryxm   0.24800
gfz2013sart  -0.21410
gfz2013scub  -0.02970
gfz2013sdus  -0.62200
gfz2013sebq   0.26120
gfz2013sfds  -0.04940
gfz2013sfto   0.10190
gfz2013shlq   0.02690
gfz2013shzy   0.19960
gfz2013skkm   0.30410
gfz2013sllq   0.03770
gfz2013snbr  -0.58290
gfz2013snyf  -0.16290
gfz2013sqkb  -0.75300
gfz2013stcu   0.19490
gfz2013suln  -0.05690
gfz2013svci  -0.11780
gfz2013svqv  -0.15850
gfz2013sxbw  -0.27350
gfz2013syqk   0.16180
gfz2013tbzy  -0.65510
gfz2013tcbk   4.13230
gfz2013tcxc  -0.51320
gfz2013tcxq  -0.21560
gfz2013tdkk   0.26060
gfz2013thtc   0.62990
gfz2013tjlx  -0.10380
gfz2013toea   0.36700
gfz2013toxf  -0.87840
gfz2013tpeb   1.02410
gfz2013tqbb  -0.06890
gfz2013ttoz   0.16990
gfz2013tusd  -0.06190
gfz2013tuzv  -0.29340
gfz2013tvmw   0.04980
gfz2013uauo  -0.11110
gfz2013ufku  -1.16630
gfz2013ufxk  -0.15400
gfz2013ugax  -0.74640
gfz2013uhlm  -0.03540
gfz2013umya   0.27110
gfz2013upcc  -0.04320
gfz2013upee   0.05330
gfz2013upiv   0.16610
gfz2013uqvu   0.45950
gfz2013utsh  -0.76040
gfz2013uysr   0.10010
gfz2013vcoa  -0.31240
gfz2013vefs  -0.82650
gfz2013vexx  -0.84430
gfz2013vfyw   1.48580
gfz2013vfzp   0.30490
gfz2013vgau  -0.92050
gfz2013vgev  -0.85790
gfz2013vgrk   0.03270
gfz2013vhnk  -2.34990
gfz2013vhsb  -0.46080
gfz2013vhzu   0.19860
gfz2013vijl  -0.82830
gfz2013viul   0.01840
gfz2013vjjc  -2.31370
gfz2013vjod   0.89820
gfz2013vlth  -0.11890
gfz2013vmro   0.18280
gfz2013vnfj  -0.36320
gfz2013vpnf   0.25200
gfz2013vqot  -0.81080
gfz2013vrmy  -0.43620
gfz2013vsbl   0.72150
gfz2013vsxi   0.36290
gfz2013vthd   0.33770
gfz2013vuja   0.09870
gfz2013vxta   0.06070
gfz2013vzbo   0.14750
gfz2013walq  -0.99980
gfz2013wbyr   0.42850
gfz2013wgeu   0.20030
gfz2013wjmm  -0.67970
gfz2013wnql  -0.31700
gfz2013woze  -0.22160
gfz2013wpga  -0.04160
gfz2013wqhq  -0.53760
gfz2013wrgw   0.04710
gfz2013wtzl   1.33830
gfz2013wuml  -0.41090
gfz2013wuon  -0.34300
gfz2013wwii   0.35760
gfz2013xatc  -0.21150
gfz2013xcmp   0.11500
gfz2013xgek  -0.58280
gfz2013xgmp  -0.32200
gfz2013xkbh  -0.32090
gfz2013xkwt   0.37610
gfz2013xmqg  -0.16730
gfz2013xmul  -0.63950
gfz2013xpfa   0.08960
gfz2013xpsm   0.89990
gfz2013xqnn  -0.07740
gfz2013xsdt   0.40440
gfz2013xtwj  -0.74660
gfz2014bzna   0.24720
gfz2014bztt  -0.23760
gfz2014bzxy   0.11000
gfz2014caop   0.31760
gfz2014capn   0.08560
gfz2014ccbz   0.29650
gfz2014cgog  -1.06780
gfz2014chdv  -0.30740
gfz2014citw   0.55110
gfz2014claq   0.80750
gfz2014clnj   0.68620
gfz2014clnq   0.23860
gfz2014cmwb  -0.05130
gfz2014crpy   0.22710
gfz2014ctot   0.41020
gfz2014cueu  -0.44900
gfz2014cvkm  -1.23350
gfz2014cvxx   0.38790
gfz2014cybg  -0.13840
gfz2014cyvm  -0.92600
gfz2014czno   0.30930
gfz2014czqi   0.49880
gfz2014czua   1.22910
gfz2014dbdf  -0.01480
gfz2014dbyx  -0.15930
gfz2014dcdy   0.23630
gfz2014dddc  -0.12090
gfz2014dffd   0.42450
gfz2014dgiy   0.77220
gfz2014disp  -0.37160
gfz2014dlri  -0.46640
gfz2014dofa   0.45240
gfz2014dpzx  -0.57940
gfz2014duqn   0.25490
gfz2014eage  -0.61200
gfz2014ebmc  -0.53220
gfz2014edfx   1.56930
gfz2014efkk  -0.20150
gfz2014eght  -0.01770
gfz2014egwu  -0.50090
gfz2014ehfp  -0.33070
gfz2014ejvf  -0.85180
gfz2014emrg  -0.01430
gfz2014emzb   0.16780
gfz2014eqpl  -0.06570
gfz2014erbj   0.08670
gfz2014ettc  -0.59480
gfz2014ewcz  -1.64070
gfz2014ewrw   0.69060
gfz2014exxa   0.06480
gfz2014ezgb  -0.63490
gfz2014fcms   0.82970
gfz2014fcsy   0.30560
gfz2014fedd  -0.84800
gfz2014fexu   0.14720
gfz2014ffdc   0.18410
gfz2014fgvi   0.08490
gfz2014fgvr   1.41780
gfz2014fgwt   0.57830
gfz2014fgxt   0.27310
gfz2014fgxz   0.16480
gfz2014fgyo  -0.09540
gfz2014fgza   0.69100
gfz2014fhbd  -0.33770
gfz2014fhdw   0.35770
gfz2014fhgb   0.04100
gfz2014fhhp  -0.26690
gfz2014fhjd  -0.40340
gfz2014fhla   0.25170
gfz2014fhqk  -0.40230
gfz2014fhrq  -0.34060
gfz2014fhsg  -0.06850
gfz2014fhwx   0.40290
gfz2014fhxm   0.00580
gfz2014fhyb   0.10370
gfz2014fimn  -0.29940
gfz2014fiuj  -0.84010
gfz2014fiwq   0.70970
gfz2014fjdz   0.37340
gfz2014fjpb   0.22630
gfz2014fjxd  -0.16110
gfz2014fjyo   0.06910
gfz2014fjzd   0.18440
gfz2014fjzw   0.33480
gfz2014fkmr  -0.27310
gfz2014fkmx   0.16800
gfz2014fles   0.06370
gfz2014flfa  -0.44750
gfz2014fnbh  -0.06070
gfz2014fnyg  -0.04030
gfz2014fqpz  -0.17030
gfz2014frdz   0.61150
gfz2014frel   0.33880
gfz2014frfl   0.19300
gfz2014frgm   0.25520
gfz2014frjr   0.24510
gfz2014frnb   0.65020
gfz2014frwh   0.40660
gfz2014fstx   0.05480
gfz2014fsuh   0.49070
gfz2014fszc  -0.03010
gfz2014ftgx   0.51250
gfz2014ftka   0.48430
gfz2014ftno   0.28150
gfz2014ftoc   0.36580
gfz2014ftvc  -0.15660
gfz2014furx   0.33040
gfz2014fusc  -0.10530
gfz2014fusj  -0.09280
gfz2014fusu   0.16370
gfz2014fuub  -0.08860
gfz2014fuup   0.57030
gfz2014fuvk  -0.07680
gfz2014fuzi  -0.04860
gfz2014fvaa  -0.33180
gfz2014fvdx   0.43560
gfz2014fvgh   0.34040
gfz2014fvhp   0.11630
gfz2014fvpy  -0.00790
gfz2014fvrg   0.42450
gfz2014fvve  -0.18120
gfz2014fwdr   0.25750
gfz2014fwtt  -0.62490
gfz2014fxpu   0.38180
gfz2014fyfr   0.35990
gfz2014fzgx  -0.17480
gfz2014gbcz  -1.03370
gfz2014gbdq  -1.93170
gfz2014gbjf   0.55970
gfz2014gcza   0.41160
gfz2014gdsq  -0.02720
gfz2014geuy   0.43180
gfz2014gezs   0.46200
gfz2014gfdj   0.09050
gfz2014ggsr   0.22140
gfz2014ghpe  -0.29540
gfz2014gilf  -0.05140
gfz2014gkgf  -0.28940
gfz2014gkgl  -1.30900
gfz2014gkhp   1.82490
gfz2014gkjy   0.09260
gfz2014gkln   0.89810
gfz2014gklv  -0.31430
gfz2014gkmm  -1.03590
gfz2014gkmw   0.02500
gfz2014gkpd   0.16620
gfz2014gkpj   0.40380
gfz2014gkqf   0.84250
gfz2014gkqu  -1.62320
gfz2014gksj   0.28970
gfz2014gksu  -1.61910
gfz2014gktn  -2.17560
gfz2014gktq  -0.46780
gfz2014gkut  -1.38090
gfz2014gkvk  -1.08870
gfz2014gkxm   0.33750
gfz2014glcu   0.26150
gfz2014glcy   0.02070
gfz2014glfn   0.11170
gfz2014glgo   0.23220
gfz2014glhs  -0.45810
gfz2014glov  -0.55090
gfz2014glsh   0.47000
gfz2014gltx  -0.56000
gfz2014glvn  -0.39350
gfz2014glvu   0.16210
gfz2014glxd  -1.38510
gfz2014gmci   0.39990
gfz2014gmes   0.28720
gfz2014gmge  -0.15370
gfz2014gmhp   1.00320
gfz2014gmhr  -1.17720
gfz2014gmic  -0.57840
gfz2014gmip  -0.00000
gfz2014gmjo  -0.51930
gfz2014gmku  -0.11260
gfz2014gmlz  -0.57840
gfz2014gmmt   0.01730
gfz2014gmnb  -0.55500
gfz2014gmnw  -0.45980
gfz2014gmpy  -0.76370
gfz2014gmrj   0.94490
gfz2014gmtb   0.54570
gfz2014gmtj  -0.65200
gfz2014gmto  -0.27840
gfz2014gmuk  -0.80540
gfz2014gmuw  -0.28600
gfz2014gmvr  -0.01470
gfz2014gmzl   0.30620
gfz2014gmzs  -1.44210
gfz2014gndq  -0.18430
gfz2014gnfd  -0.27040
gfz2014gnfs  -0.10780
gfz2014gngg  -0.12400
gfz2014gnhk  -0.61690
gfz2014gnig   0.15000
gfz2014gnmp  -1.05180
gfz2014gnmx   0.21670
gfz2014gnno   0.52910
gfz2014gnnt  -0.30040
gfz2014gnom  -0.42600
gfz2014gnoz  -0.53100
gfz2014gnqt  -0.07070
gfz2014gnre  -0.26480
gfz2014gnsi  -0.35240
gfz2014gntd  -0.11350
gfz2014gnvw  -0.20800
gfz2014gnwg  -0.14100
gfz2014gnxb   0.24850
gfz2014goba  -0.31230
gfz2014goei  -0.41680
gfz2014gogv   0.27610
gfz2014gohm   0.25870
gfz2014golz  -0.11130
gfz2014gono   0.61150
gfz2014goqw   0.33460
gfz2014goyx   0.18280
gfz2014gpac  -0.09790
gfz2014gpam  -0.53850
gfz2014gpbx   0.11800
gfz2014gpce   0.47450
gfz2014gpdo  -0.01090
gfz2014gpgd   0.04640
gfz2014gphr   0.04820
gfz2014gpmm   0.29830
gfz2014gpnf  -0.44090
gfz2014gpqq  -0.83460
gfz2014gpuk  -0.03260
gfz2014gpvk   0.45000
gfz2014gpxl   0.26640
gfz2014gqbj   0.06980
gfz2014gqco  -0.03640
gfz2014gqed  -0.45500
gfz2014gqer  -1.85830
gfz2014gqgf   0.14570
gfz2014gqiy   0.54700
gfz2014gqjr  -1.11310
gfz2014gqqz  -0.72060
gfz2014gqro  -0.81670
gfz2014gqve  -0.31600
gfz2014grcv   0.20530
gfz2014grfp  -0.72220
gfz2014grgn   0.35030
gfz2014grho  -0.57120
gfz2014gsgv  -0.53200
gfz2014gsjg   0.57700
gfz2014gsqs   0.27760
gfz2014gtef  -0.15510
gfz2014gtlu  -0.07300
gfz2014gtrb   0.09850
gfz2014gtwz   0.02490
gfz2014gufl   0.18730
gfz2014gull  -0.26020
gfz2014gulp   0.34220
gfz2014gumd   0.43280
gfz2014gutm   0.00000
gfz2014gvhw   0.18960
gfz2014gvqj   0.48560
gfz2014gvra  -1.71820
gfz2014gvrd  -0.30620
gfz2014gwab   0.84860
gfz2014gwqj   0.19580
gfz2014gxag   0.24980
gfz2014gxkh   0.49020
gfz2014gxqu   0.32640
gfz2014gxqx  -0.20710
gfz2014gxvf  -0.12640
gfz2014gxxh  -0.55320
gfz2014gxxo   0.13550
gfz2014gyxd  -0.41950
gfz2014gzrm  -0.65010
gfz2014gzue   0.10890
gfz2014haey   0.22750
gfz2014hafk  -1.06730
gfz2014hagb   0.47990
gfz2014haos   0.11430
gfz2014hasj  -0.61400
gfz2014hauo   3.06640
gfz2014hbjm   0.36260
gfz2014hbjz   0.45390
gfz2014hcmj   0.31170
gfz2014hcns  -0.42300
gfz2014hetr  -0.19950
gfz2014heum  -0.11220
gfz2014heyq  -0.01490
gfz2014hfad   0.26050
gfz2014hfhl  -0.08480
gfz2014hfzf  -0.23530
gfz2014hgqo  -0.31050
gfz2014hhfs  -0.95700
gfz2014hhwx  -0.25430
gfz2014hifp   0.12210
gfz2014hiih   0.38860
gfz2014hiiz  -0.25930
gfz2014hjgh   0.57260
gfz2014hjgo   0.08360
gfz2014hjgr  -0.14330
gfz2014hjhu   0.27080
gfz2014hjij   0.44730
gfz2014hjlx   0.45620
gfz2014hkcf  -0.34250
gfz2014hkck   0.33900
gfz2014hlib   0.20830
gfz2014hmgf   0.20220
gfz2014hmrs   0.62350
gfz2014hmvx   0.14650
gfz2014hmzg  -0.14750
gfz2014hnfm   0.20350
gfz2014hoap   0.29030
gfz2014hphw  -0.10420
gfz2014hppw  -0.22120
gfz2014hpqz   0.24510
gfz2014hqxs   0.58890
gfz2014hqyx   0.38860
gfz2014hriu   0.13050
gfz2014hrtn   0.72700
gfz2014hscz  -1.27100
gfz2014hsqo  -0.06850
gfz2014hssr   0.48500
gfz2014huaj   0.42600
gfz2014hugz  -1.35850
gfz2014hvdm   0.31030
gfz2014hwan  -0.00660
gfz2014hwwi  -0.59560
gfz2014hyal  -0.20720
gfz2014hymr   0.12860
gfz2014hyvq   0.51640
gfz2014hzdy  -0.62270
gfz2014hzfr  -0.35050
gfz2014hzfw   1.11260
gfz2014hzgn   0.79010
gfz2014hzhe   1.56390
gfz2014hzht   0.26240
gfz2014hzig   0.41150
gfz2014hzze  -2.36230
gfz2014iani   0.35480
gfz2014icqt  -0.10990
gfz2014ieam  -0.30830
gfz2014ieho  -0.56030
gfz2014ifue   0.18910
gfz2014ifzj  -0.86170
gfz2014igsj   0.13110
gfz2014igur  -0.14870
gfz2014ijvh   0.46430
gfz2014ikbk   0.65840
gfz2014ikun  -0.12830
gfz2014ikvd   0.85520
gfz2014ilwu  -0.14710
gfz2014immt  -0.20830
gfz2014imnn   0.38470
gfz2014inbj  -0.24730
gfz2014iobd   0.31180
gfz2014iqzj   0.70720
gfz2014irci   0.23420
gfz2014ircq   0.49230
gfz2014irrg   0.04990
gfz2014isdq   0.64520
gfz2014isff   0.66750
gfz2014issk   0.10790
gfz2014isub   0.06840
gfz2014isys  -0.26790
gfz2014itab   0.28480
gfz2014itbe   0.20510
gfz2014itbu   0.47460
gfz2014itfc   0.14000
gfz2014itgh   0.03360
gfz2014itjx  -1.07290
gfz2014itkw   0.28140
gfz2014itpj  -0.16150
gfz2014iuhq   0.13620
gfz2014ivep  -0.46790
gfz2014iwnf  -0.21730
gfz2014iwwl   0.11350
gfz2014ixga   0.40380
gfz2014ixky   0.37000
gfz2014iywt   0.03180
gfz2014jagg  -0.28710
gfz2014jass   0.81180
gfz2014jatq  -0.54060
gfz2014jbyg  -0.16550
gfz2014jcjt   2.83870
gfz2014jcmt  -0.16720
gfz2014jdoy   1.54380
gfz2014jesb   0.16810
gfz2014jfis  -0.50500
gfz2014jggm  -0.03170
gfz2014jhra  -0.50250
gfz2014jipr  -0.20390
gfz2014jird   0.05750
gfz2014jjhc   0.41380
gfz2014jjkh   0.07290
gfz2014jjln   0.02730
gfz2014jjqk   0.31760
gfz2014jmnk   0.02750
gfz2014jnxm  -0.76470
gfz2014jomw   0.06350
gfz2014jpep   0.41810
gfz2014jpez   0.50610
gfz2014jpgu   0.32000
gfz2014jpxs  -0.18130
gfz2014jtcz  -1.11330
gfz2014jtfe  -0.60950
gfz2014jvow   0.01420
gfz2014jysj  -0.72680
gfz2014kara  -1.14170
gfz2014kbuk  -0.37160
gfz2014kbwm  -0.79120
gfz2014khan  -0.73880
gfz2014kitm  -0.29120
gfz2014kizt   0.10880
gfz2014kjee   0.48380
gfz2014kjjq  -3.58640
gfz2014kjzb  -0.03920
gfz2014kkhh   0.20640
gfz2014kmmt   0.86670
gfz2014kndc  -0.79610
gfz2014knks  -0.49320
gfz2014knxs   3.45690
gfz2014krlg  -0.30680
gfz2014kscf   0.27810
gfz2014ksmz  -0.23820
gfz2014kssw  -0.07740
gfz2014kwie   0.56830
gfz2014kwrg  -0.23460
gfz2014kwwg   0.01370
gfz2014kxqf   0.39520
gfz2014kyan   0.00720
gfz2014kytf  -0.65880
gfz2014kzzm  -1.13950
gfz2014lbcq  -0.78780
gfz2014lchy   0.37970
gfz2014lddn  -0.01320
gfz2014lehw   0.30140
gfz2014lgqn  -0.05550
gfz2014lhqn  -0.51130
gfz2014ljbr  -0.36290
gfz2014lkyf  -2.17380
gfz2014lnmw   0.07530
gfz2014lpfc  -0.48530
gfz2014lpim  -0.40670
gfz2014lrzx   0.13510
gfz2014lvgn   0.10670
gfz2014lwom   0.23470
gfz2014lwvb   0.48570
gfz2014lxnc  -0.05400
gfz2014lxqr   0.23360
gfz2014lyhk  -0.01920
gfz2014lyhp  -0.32810
gfz2014lzal  -0.51590
gfz2014lzow  -0.85720
gfz2014macx   0.25420
gfz2014madw   0.27040
gfz2014mawp   0.32010
gfz2014mcno  -0.21080
gfz2014mcse  -0.16040
gfz2014mden   1.22950
gfz2014mlqw   0.48810
gfz2014mlrr   0.28570
gfz2014mmtb  -0.53740
gfz2014moaw   0.68330
gfz2014mogb   0.84330
gfz2014mrbm  -0.10110
gfz2014mtum   0.96410
gfz2014mvza   0.47110
gfz2014mwnj  -0.14730
gfz2014mxkr  -1.14180
gfz2014myqz   1.75590
gfz2014nafd   0.47400
gfz2014navw  -0.07320
gfz2014ncub  -0.12260
gfz2014ndue  -1.50700
gfz2014ngsk  -0.53280
gfz2014ngvt   0.12820
gfz2014nhyb   0.65900
gfz2014niqj  -0.58510
gfz2014nkdx  -0.61670
gfz2014nnih  -0.02940
gfz2014nnxd   0.35610
gfz2014nowp   1.21810
gfz2014npdk  -0.08320
gfz2014npeo  -2.34170
gfz2014nphm   0.15440
gfz2014nqbs   0.03170
gfz2014nqfm   0.11400
gfz2014nrie  -0.07490
gfz2014ntdh  -0.68000
gfz2014nvdi  -0.71960
gfz2014nyeh   0.49170
gfz2014nyfb   0.22860
gfz2014nyko  -0.09530
gfz2014nylm   0.40050
gfz2014obbs   0.03790
gfz2014odgv  -0.16870
gfz2014ofhm  -0.42330
gfz2014oims   0.28230
gfz2014oinz  -0.23440
gfz2014ojdg   0.27630
gfz2014okec   0.36860
gfz2014okxu  -0.16390
gfz2014ooaa   0.82840
gfz2014opqr  -0.06580
gfz2014oqhw  -0.25070
gfz2014orgz   0.10390
gfz2014orxs  -0.16740
gfz2014oryw  -0.09340
gfz2014osvx  -0.15100
gfz2014owii  -0.40000
gfz2014owur  -0.99600
gfz2014owxc  -0.65100
gfz2014oyly   0.30310
gfz2014pghi   0.02200
gfz2014pjer  -0.06300
gfz2014pjum  -0.26100
gfz2014pkll   1.67100
gfz2014pngj  -0.02360
gfz2014ppzf   0.12510
gfz2014pqqp  -0.21700
gfz2014pvch  -0.71620
gfz2014pxbu  -0.01230
gfz2014pzml  -0.14810
gfz2014pzni   0.43860
gfz2014qbzi  -0.23580
gfz2014qcxs   0.07710
gfz2014qfzq  -0.26350
gfz2014qjfl  -0.55420
gfz2014qjgp  -0.33870
gfz2014qlvc   0.35550
gfz2014qlxd  -0.06260
gfz2014qngj  -4.04120
gfz2014qqfg  -0.10070
gfz2014qqhm  -0.19730
gfz2014qsby   0.41040
gfz2014qtwv   0.12100
gfz2014raau  -0.01470
gfz2014rbpx  -0.27330
gfz2014rcyx  -0.30750
gfz2014rdoz  -0.57430
gfz2014rdsn  -0.09720
gfz2014rfeb   2.15720
gfz2014rffv   0.03570
gfz2014rhju  -0.61740
gfz2014rhnz   0.18500
gfz2014rhwq   0.05690
gfz2014riel  -1.12550
gfz2014rils  -0.60660
gfz2014rnrn  -0.66620
gfz2014roba  -0.52010
gfz2014romy  -0.24470
gfz2014royq  -0.00000
gfz2014rucz  -0.15880
gfz2014rwos  -0.22560
gfz2014ryfb   0.36890
gfz2014sadu   3.55370
gfz2014shid  -0.09890
gfz2014snfs   0.05840
gfz2014sryn  -0.23000
gfz2014ssds  -0.46990
gfz2014ssmv   0.87290
gfz2014swgt   0.24810
gfz2014tabg   0.10600
gfz2014tfgn  -0.35670
gfz2014tgcw   0.24320
gfz2014thrw   0.22200
gfz2014tovs  -1.91840
gfz2014tqdo   0.24400
gfz2014tqly  -0.06480
gfz2014tqsf   0.37750
gfz2014tqth   0.53380
gfz2014tzsd   0.10390
gfz2014uapa   0.09650
gfz2014ubyq   0.02230
gfz2014uohh  -0.96600
gfz2014utac  -1.76780
gfz2014uuqa  -0.13990
gfz2014uuuf   1.70260
gfz2014uvrk  -0.07810
gfz2014uyrq  -0.39830
gfz2014uzaw  -0.68600
gfz2014vcev   1.16970
gfz2014vdnh  -0.16880
gfz2014veit   0.47150
gfz2014vhld  -0.04050
gfz2014vhms  -0.39500
gfz2014vhuy  -0.27080
gfz2014vjoz   0.15790
gfz2014vljh  -0.52730
gfz2014vnxu  -0.06930
gfz2014vpus   0.25440
gfz2014vqqa   0.16130
gfz2014waoo  -1.18260
gfz2014watn   0.24750
gfz2014wjko  -0.27760
gfz2014wmsc   0.62390
gfz2014wqcp  -0.39970
gfz2014wrkh  -0.11540
gfz2014wsjh  -0.05740
gfz2014wwib   0.70920
gfz2014xaxx  -0.03680
gfz2014xbyr  -0.31180
gfz2014xhkc  -0.53970
gfz2014xhwk  -0.01510
gfz2014xjri   0.52920
gfz2014xkdg  -0.02220
gfz2014xmnp  -0.14080
gfz2014xoji   0.50660
gfz2014xqby   0.51130
gfz2014xqqd   0.50940
gfz2014yazi   0.05770
gfz2014yhhm   0.39420
gfz2014ynhc   0.16440
gfz2014ynzy  -0.45220
gfz2014yppv   0.06570
gfz2014yrug  -0.25650
gfz2014yula   1.38110
gfz2014yyiy   0.29920
gfz2014zcgo  -0.18360
gfz2014zdtl   0.07320
gfz2014zkys   0.19730
gfz2014zlgp  -1.25060
gfz2015abpw  -1.84490
gfz2015aide  -0.34110
gfz2015ansu   0.00000
gfz2015bvsj  -1.79810
gfz2015bvxx  -1.00020
gfz2015byjd  -0.56430
gfz2015bzej  -4.01180
gfz2015cewd  -0.00000
gfz2015chhn  -0.71540
gfz2015chqn   1.12840
gfz2015clrp  -0.48990
gfz2015cpuo  -0.93460
gfz2015cxrc  -0.90110
gfz2015cyjd   0.36190
gfz2015dadj  -0.08850
gfz2015ddhl  -0.25790
gfz2015djts  -1.12470
gfz2015drlk   0.45610
gfz2015dskr   1.82260
gfz2015dtqr  -0.31660
gfz2015dvbn   0.27150
gfz2015ecgq  -1.02440
gfz2015ednc  -0.30220
gfz2015eeyq  -0.93450
gfz2015eezy  -0.30040
gfz2015egbk  -1.09500
gfz2015egxq  -1.00700
gfz2015ehou  -0.07720
gfz2015ehpz  -0.17380
gfz2015eiky  -0.08170
gfz2015elgy   1.37130
gfz2015eljz  -0.89150
gfz2015emcg  -0.61370
gfz2015emin   0.50720
gfz2015emtg   0.25980
gfz2015enth   0.60750
gfz2015esrj   0.10590
gfz2015etai   1.67390
gfz2015eyqs  -0.83680
gfz2015fbbk  -0.60830
gfz2015fbew  -0.81900
gfz2015fcua  -0.72750
gfz2015fdpr   0.23170
gfz2015fjhk   0.26890
gfz2015fkbc   0.05290
gfz2015fkgt  -0.63970
gfz2015fkic  -1.23570
gfz2015fkjs  -0.07960
gfz2015fkkd   0.11080
gfz2015fkuu   0.51810
gfz2015flis  -1.59040
gfz2015fsjj  -0.59640
gfz2015fvoi   0.08460
gfz2015fwkq  -0.06020
gfz2015fwnf   0.25040
gfz2015gckd   0.44820
gfz2015gjbr  -1.46800
gfz2015gkwa  -0.91720
gfz2015gmgf  -0.10720
gfz2015gnmy   5.23230
gfz2015gwao   0.08350
gfz2015gzja  -0.59030
gfz2015hdcp  -0.77280
gfz2015hepg   0.67650
gfz2015hgbk  -0.07560
gfz2015hhbd   0.31370
gfz2015hlfq  -0.22660
gfz2015hlqo  -4.51350
gfz2015hpmk  -0.16150
gfz2015hslo  -0.13610
gfz2015hvgs   2.66310
gfz2015hwkv  -0.54560
gfz2015hwzw  -0.50910
gfz2015ijmh  -0.68110
gfz2015imty   0.03910
gfz2015imyp  -0.34110
gfz2015isim  -1.23110
gfz2015iwqk  -0.09520
gfz2015ixyy  -3.35100
gfz2015jkdw  -0.30970
gfz2015jmlf   0.07750
gfz2015jmlu  -0.60340
gfz2015jpap  -1.04140
gfz2015jxbx   0.07890
gfz2015jxjd  -0.73780
gfz2015jzcv   0.41140
gfz2015kakw  -0.33350
gfz2015kalm   0.00000
gfz2015kcaa  -0.06700
gfz2015kfsu   0.39950
gfz2015kkqb  -0.07040
gfz2015kkth  -1.24480
gfz2015kphk   0.27070
gfz2015kquq  -0.14310
gfz2015lcma  -0.62990
gfz2015lcuo  -0.12910
gfz2015lfma   0.15390
gfz2015lfos   0.18410
gfz2015lfud   0.06920
gfz2015lhjq  -0.40160
gfz2015lhjy   0.52610
gfz2015ltii  -0.23560
gfz2015ltro  -0.22680
gfz2015lytv  -1.36080
gfz2015lzad  -0.52430
gfz2015mbgr   0.32500
gfz2015mddr   0.25520
gfz2015mfpy  -2.39720
gfz2015mhym  -1.44910
gfz2015micz  -0.23690
gfz2015mljd  -1.91040
gfz2015mpte  -0.34730
gfz2015mvzk   2.26220
gfz2015nbdc   0.10450
gfz2015nerz  -2.13650
gfz2015nuxz  -0.92240
gfz2015nwug  -0.61970
gfz2015ocdz   1.62870
gfz2015ocwr  -0.24640
gfz2015ofpd  -0.82070
gfz2015okmq  -0.39160
gfz2015orkl   0.72500
gfz2015othd  -0.56130
gfz2015oumn  -0.22620
gfz2015oyfl  -2.42590
gfz2015pcvt  -1.33320
gfz2015pdri  -0.33070
gfz2015pjgr  -0.23550
gfz2015plal   0.21860
gfz2015poni  -1.78000
gfz2015prlr  -1.02300
gfz2015puqp  -0.50200
gfz2015qafb  -0.72490
gfz2015qbme  -0.30160
gfz2015qiit   0.00000
gfz2015qisx  -0.67360
gfz2015qnde  -0.18110
gfz2015qnho   0.73280
gfz2015qnlv   0.08400
gfz2015qols  -0.03830
gfz2015qprd  -1.29470
gfz2015qpvd   0.67190
gfz2015quzo   0.20800
gfz2015qvxu   0.09070
gfz2015rddx   0.32110
gfz2015rgov  -0.54480
gfz2015rgrg  -2.00040
gfz2015rgst  -0.37890
gfz2015rkbq   2.51120
gfz2015rkrg   3.29180
gfz2015rkzg  -0.38600
gfz2015rlnh  -0.45770
gfz2015rnis   0.13800
gfz2015roac  -0.75700
gfz2015rpzn  -2.23860
gfz2015rtnv   0.34040
gfz2015rwsb   4.43620
gfz2015saet   0.23880
gfz2015sdeo   0.02890
gfz2015sdfy   0.18180
gfz2015seuf   0.16420
gfz2015sevh   0.06790
gfz2015sfdd  -1.85920
gfz2015siof  -0.96340
gfz2015sitn  -2.78420
gfz2015sjgk  -2.44600
gfz2015sjne  -1.86780
gfz2015snsf   3.33270
gfz2015snwh  -2.29870
gfz2015snyd  -0.62380
gfz2015soat   2.58500
gfz2015soxc  -1.91590
gfz2015sozw  -0.30250
gfz2015spxh   0.37000
gfz2015sryk   0.12960
gfz2015ssoe   0.21370
gfz2015stso   0.83630
gfz2015svwm  -1.65280
gfz2015taml  -0.40370
gfz2015tbdn  -0.03890
gfz2015tchx  -0.41640
gfz2015tdhb   0.21510
