# Nsamples: 23  MAD:  1.109  mean:  0.066  variance:  5.012
gfz2010bxxs  -0.48310
gfz2010grjd  -1.68330
gfz2010iull  -0.64140
gfz2011aatr  -0.30290
gfz2011enva  -0.99510
gfz2012rcbq   9.23720
gfz2012vrgb   0.41400
gfz2012wypz  -0.46870
gfz2013jkut  -0.06320
gfz2013kdeo   0.72230
gfz2014bwue  -1.08850
gfz2014fgvi  -1.36890
gfz2014fhla   2.12600
gfz2014ftka   0.27960
gfz2014gkqf  -0.66130
gfz2014goba  -0.75130
gfz2014nqfm  -2.14990
gfz2014qlxd  -2.82960
gfz2014ssvz   1.03800
gfz2015cyjd  -0.02750
gfz2015lhjy  -0.52440
gfz2015sfdd   0.41510
gfz2015taml   1.32590
