# Nsamples: 33  MAD:  0.368  mean: -0.277  variance:  1.953
gfz2010bxxs   0.39810
gfz2010ebhc   0.37930
gfz2010grjd  -1.57270
gfz2010nmpc  -0.04690
gfz2010usho   0.05860
gfz2011gkzt   0.62590
gfz2011hlsa   0.24050
gfz2011lcxq   0.43730
gfz2011lzwj  -0.12200
gfz2011toub   0.11130
gfz2011wxfs   0.10660
gfz2012jlox   0.16880
gfz2012vrgb   0.56570
gfz2012wypz   0.45520
gfz2013kdeo   0.10750
gfz2013uauo   1.13370
gfz2014afmx   0.21800
gfz2014ande  -0.46870
gfz2014bwue  -0.17930
gfz2014fgvi  -0.32380
gfz2014fkmr   0.22680
gfz2014frwh  -6.01860
gfz2014ftka  -2.56760
gfz2014fval   0.29710
gfz2014gkgf   0.10010
gfz2014gkjt  -0.14150
gfz2014goba  -0.02110
gfz2014hasj   0.69470
gfz2014macx   0.06280
gfz2014nqfm   0.08070
gfz2014oinz  -0.23510
gfz2014ubwn   0.29300
gfz2015dvbn  -4.20200
