# Nsamples: 62  MAD:  0.488  mean: -0.345  variance:  0.559
gfz2010bxxs  -0.98450
gfz2010ebhc  -0.23980
gfz2010grjd  -0.30030
gfz2010iull  -0.20340
gfz2010nmpc  -0.64950
gfz2010usho  -1.11150
gfz2011aatr  -0.27660
gfz2011enva   0.29570
gfz2011hlsa   1.19780
gfz2011lcxq  -0.40320
gfz2011lzwj  -0.63440
gfz2011rewa  -0.32480
gfz2011toub  -0.59450
gfz2011vhfi  -0.02560
gfz2011wxfs   0.09200
gfz2012czlw  -0.41440
gfz2012enno  -0.28410
gfz2012jlox  -0.02500
gfz2012kudo  -0.16230
gfz2012ldxg   0.07030
gfz2013ccnr   1.07920
gfz2013drxz  -0.95280
gfz2013jkut  -0.72050
gfz2013nwdi  -0.80250
gfz2013qmer  -0.88350
gfz2013svci  -0.86270
gfz2014bwue  -0.33560
gfz2014fgvi  -0.58020
gfz2014fhla   2.49300
gfz2014frdz  -0.77390
gfz2014ftka   0.40350
gfz2014ghpe  -0.57890
gfz2014gkgf  -0.21000
gfz2014gkgs  -0.71530
gfz2014gkqf   0.66730
gfz2014gltx  -1.50920
gfz2014gmge  -0.00730
gfz2014gmhr  -1.56390
gfz2014gmnb  -0.35840
gfz2014gmnw  -0.08910
gfz2014goba  -0.09420
gfz2014gull   0.35260
gfz2014gxxo   0.59220
gfz2014hasj  -0.21470
gfz2014hgqo  -0.05670
gfz2014jjhc  -2.33230
gfz2014lgqn  -0.10120
gfz2014ncub  -1.15240
gfz2014nqfm   0.12070
gfz2014nrie  -0.98800
gfz2014qqhm  -0.81640
gfz2014ssvz  -0.34340
gfz2014ubwn  -0.57910
gfz2015cyjd  -0.28200
gfz2015fsjj   0.25150
gfz2015gckd  -0.33020
gfz2015lhjy  -0.01160
gfz2015mpte  -0.97500
gfz2015sfdd  -0.29730
gfz2015sfdy  -2.63810
gfz2015sfno   0.24120
gfz2015snwh  -0.44920
