# Nsamples: 36  MAD:  0.677  mean: -0.385  variance:  1.237
gfz2010ftlm  -0.30690
gfz2010iull  -0.31510
gfz2010xden   1.74780
gfz2011aatr  -1.11380
gfz2011enva   0.05490
gfz2011lcxq   0.03050
gfz2011wxfs  -0.16280
gfz2012enno  -0.28070
gfz2012jlox   0.02040
gfz2012kudo  -0.42140
gfz2012ldxg  -1.02180
gfz2013jkut  -0.79850
gfz2013mqmv  -1.40640
gfz2013nwdi   0.32160
gfz2013svci  -0.53020
gfz2013ypdc   0.05440
gfz2013yqkv  -0.89900
gfz2014afmx  -0.42330
gfz2014fgvi  -0.88330
gfz2014fhla  -0.16940
gfz2014fqpz  -3.08880
gfz2014ftka   0.92600
gfz2014fvrg  -1.51090
gfz2014ghpe  -0.85160
gfz2014gkgf  -2.31360
gfz2014gkqf   0.04830
gfz2014glgo   3.90970
gfz2014gmhr  -0.69220
gfz2014gmnw  -0.41440
gfz2014goba  -0.98660
gfz2014gull  -0.19710
gfz2014hgqo  -0.61520
gfz2014nrie  -1.08170
gfz2015fsjj   0.94550
gfz2015gckd  -0.87520
gfz2015lhjy  -0.56980
