# Nsamples: 17  MAD:  0.422  mean:  0.211  variance:  0.169
gfz2010nmpc   0.39600
gfz2011aatr  -0.26280
gfz2011lcxq   0.13140
gfz2011rewa   0.48990
gfz2011toub  -0.21440
gfz2011wxfs  -0.02690
gfz2012kkup   0.54450
gfz2012kudo   0.23490
gfz2012ldxg   0.61270
gfz2012vrgb  -0.28140
gfz2012wypz   0.04600
gfz2013drxz   1.16870
gfz2013jkut   0.57580
gfz2013kdeo   0.39490
gfz2013pfbx  -0.60180
gfz2013svci   0.17700
gfz2014ssvz   0.20540
