# Nsamples: 36  MAD:  0.772  mean: -0.259  variance:  0.907
gfz2011enva  -0.92000
gfz2011jplh  -0.31060
gfz2011lcxq  -0.06310
gfz2011lzwj   0.57540
gfz2011rewa  -0.98720
gfz2011toub  -1.18700
gfz2012kkup  -0.56220
gfz2012kudo   0.05380
gfz2012ldxg   1.21660
gfz2012wypz  -0.83930
gfz2013drxz  -0.78840
gfz2013jkut   0.03230
gfz2013kdeo  -0.85260
gfz2013nkgj  -0.99890
gfz2013nwdi  -0.56970
gfz2013svci  -0.47020
gfz2014fgvi  -0.91500
gfz2014fhla   2.52540
gfz2014ftka   0.16200
gfz2014gkgf   0.19150
gfz2014gmge   1.36000
gfz2014gmhr  -0.02490
gfz2014gmnb  -0.51310
gfz2014goba   0.73840
gfz2014hqxs   0.77760
gfz2014ssvz   1.32940
gfz2014ubwn  -0.46280
gfz2015chhn  -1.03780
gfz2015fjhk  -1.96860
gfz2015fsjj  -0.75150
gfz2015kxxs   0.42500
gfz2015lhjy  -0.72590
gfz2015mpte  -1.22540
gfz2015sfdd  -0.45060
gfz2015snwh  -2.34490
gfz2015taml   0.24560
