# Nsamples: 57  MAD:  0.567  mean: -0.206  variance:  0.961
gfz2010bxxs  -0.55250
gfz2010cqwl   0.24900
gfz2010grjd  -1.36460
gfz2010iull  -0.11760
gfz2010jucj  -2.82160
gfz2010nmpc  -0.46720
gfz2011aatr  -0.13010
gfz2011enva  -0.62990
gfz2011hlqw   0.17080
gfz2011hlsa  -0.23650
gfz2011lcxq  -0.22850
gfz2011lzwj  -0.30730
gfz2011rewa  -0.18620
gfz2011toub  -0.26150
gfz2011wxfs  -0.03590
gfz2012ilxh   2.13270
gfz2012kkup  -0.55160
gfz2012klhx  -0.65410
gfz2012kuct  -1.45240
gfz2012kudo  -0.43680
gfz2012teic  -0.16380
gfz2012vrgb  -0.26420
gfz2012wypz  -0.34270
gfz2013ccnr   0.42110
gfz2013drxz  -0.52860
gfz2013nwdi  -0.65560
gfz2013svci   0.10710
gfz2014fgvi  -0.64390
gfz2014fhla  -1.85090
gfz2014ftka  -1.10700
gfz2014gkgf   0.80420
gfz2014gkqf   0.00040
gfz2014gmge  -0.47930
gfz2014gmhr   1.23800
gfz2014gmnb   0.49980
gfz2014goba   0.86140
gfz2014hasj  -1.35870
gfz2014hqxs   1.09740
gfz2014jjhc   0.48040
gfz2014lkyf  -3.52250
gfz2014lxnc  -0.62600
gfz2014ncub   0.45010
gfz2014nqfm  -0.46270
gfz2015cxrc  -0.41200
gfz2015cyjd   0.91940
gfz2015fsjj  -0.51490
gfz2015fwkq  -0.87240
gfz2015lhjy  -0.14140
gfz2015sfdd   0.73830
gfz2015sfdy  -0.34630
gfz2015sfno   1.33300
gfz2015smym  -1.26190
gfz2015snwh  -0.63490
gfz2015soxc   0.67120
gfz2015sspn   2.17340
gfz2015svwm  -0.24910
gfz2015taml   0.80460
