# Nsamples: 45  MAD:  0.405  mean: -0.217  variance:  0.459
gfz2010eaoy   0.07200
gfz2010ekyc  -0.07510
gfz2010ffhq  -0.84900
gfz2010grjd  -0.20970
gfz2010iull  -0.40480
gfz2010nmpc  -1.02210
gfz2010usho   0.33160
gfz2011aatr  -0.07050
gfz2011enva  -0.69080
gfz2011hlqw  -0.67870
gfz2011hlsa  -0.36680
gfz2011jplh   0.10230
gfz2011lcxq   0.31040
gfz2011lzwj  -0.23450
gfz2011mjom  -0.86410
gfz2011rewa  -0.51590
gfz2011toub  -0.26160
gfz2011wxfs  -0.21290
gfz2012fzfa  -0.18930
gfz2012jlox  -0.14460
gfz2012kudo  -0.03050
gfz2012wypz  -0.13910
gfz2013ccnr  -0.45610
gfz2013drxz   0.00620
gfz2013jkut  -0.05130
gfz2013nwdi  -0.72360
gfz2013svci  -0.08640
gfz2013vjjc   2.52560
gfz2014bwue  -0.47460
gfz2014fgvi  -0.97150
gfz2014ftka  -0.36770
gfz2014gkgf  -0.48300
gfz2014gmhr   0.99460
gfz2014moaw   1.38240
gfz2014ssvz  -0.82080
gfz2015chhn  -0.04710
gfz2015cyjd  -0.69750
gfz2015fsjj  -0.16200
gfz2015lhjy  -0.09580
gfz2015mpte   0.14420
gfz2015sfdd  -0.43520
gfz2015sfdy  -1.96160
gfz2015snwh   0.10410
gfz2015soxc  -1.17570
gfz2015taml   0.21570
