# Nsamples: 88  MAD:  0.628  mean: -0.122  variance:  0.592
gfz2010bjeb   1.58410
gfz2010bxxs  -0.43430
gfz2010cdbt  -0.61480
gfz2010cqwl   0.17330
gfz2010fqdu  -0.44720
gfz2010grjd   1.06300
gfz2010iull  -0.15270
gfz2010lluj   0.37270
gfz2010mkuu  -1.31690
gfz2010nmpc  -0.37560
gfz2010nwef   0.27430
gfz2010usho  -0.27750
gfz2011aatr  -0.33820
gfz2011dpqx   0.59440
gfz2011enva  -0.48720
gfz2011gjlx   1.03330
gfz2011gkzt   0.82670
gfz2011hlqw  -0.84870
gfz2011hlsa  -0.55810
gfz2011hlth  -0.26950
gfz2011lcxq   0.11930
gfz2011lzwj  -0.65670
gfz2011rewa  -0.48760
gfz2011toub   0.28900
gfz2011vhfi   0.65890
gfz2011vrhg   1.80370
gfz2011wxfs  -0.12290
gfz2011xyxj   0.32630
gfz2012enno  -0.05470
gfz2012jlox  -0.09660
gfz2012kkup  -0.58570
gfz2012klhx  -0.58550
gfz2012kuct   0.29490
gfz2012kudo  -0.29120
gfz2012ldxg   0.32530
gfz2012ldzj   0.14650
gfz2012teic  -0.29040
gfz2012ttoa   0.26800
gfz2012vrgb   0.16310
gfz2012wypz  -0.13220
gfz2013drxz  -0.18690
gfz2013kdeo  -0.37550
gfz2013nwdi  -1.05840
gfz2013pfbx  -0.05850
gfz2013svci   0.09660
gfz2013toxf  -1.20790
gfz2013uauo  -0.08240
gfz2013vjjc  -2.25320
gfz2014bwue  -0.24650
gfz2014fgvi   0.28690
gfz2014fhla  -0.58820
gfz2014fkmr  -0.64620
gfz2014ftka   0.39520
gfz2014gkgf  -0.50390
gfz2014gkqf   0.68320
gfz2014gltx   0.17330
gfz2014gmge  -0.88740
gfz2014gmhr  -1.46650
gfz2014gmnb  -0.28890
gfz2014goba   1.15260
gfz2014gull   1.34920
gfz2014hasj  -1.05990
gfz2014itkw   0.11620
gfz2014jjhc   0.15000
gfz2014jpep   0.53710
gfz2014lgqn   0.60710
gfz2014lyhk  -0.86200
gfz2014macx  -0.89200
gfz2014nqfm  -0.22390
gfz2014nrie   0.55340
gfz2014oinz  -0.47940
gfz2014owxc  -0.69950
gfz2014qlxd  -0.93950
gfz2014qqhm  -3.51540
gfz2014ssvz  -0.40450
gfz2015chhn  -0.05360
gfz2015cyjd   0.40140
gfz2015fsjj  -0.42980
gfz2015gckd  -0.37390
gfz2015hgbk  -0.63370
gfz2015jzcv  -0.55300
gfz2015kxxs   0.41110
gfz2015lhjy   0.46040
gfz2015mpte  -0.03040
gfz2015sjgk   1.33300
gfz2015snwh   0.54010
gfz2015svwm  -0.13620
gfz2015taml   0.26850
