# Nsamples: 480  MAD:  0.931  mean:  0.350  variance:  1.460
gfz2011mjom   0.94490
gfz2011mpme   0.49130
gfz2011myia   2.36210
gfz2011nauw  -0.24190
gfz2011necz   0.04850
gfz2011nmnq  -0.22780
gfz2011noud   0.00000
gfz2011nrwc  -0.52480
gfz2011ntkh   1.29200
gfz2011nudm  -0.11140
gfz2011ogqk  -0.80710
gfz2011ohcy  -0.73800
gfz2011oiqe   1.37500
gfz2011oiwk   0.49010
gfz2011olkk  -0.64260
gfz2011orgn  -0.55340
gfz2011ornx   0.89750
gfz2011owvz  -0.41800
gfz2011ozsl   0.04680
gfz2011pccd   0.17480
gfz2011pdpt   0.08360
gfz2011phms   0.49400
gfz2011pntf   5.21370
gfz2011ptus   5.39010
gfz2011qigx  -0.08310
gfz2011qvae   0.52310
gfz2011qyms   2.77060
gfz2011rabm   0.74010
gfz2011rdby  -0.45260
gfz2011rewa  -1.55200
gfz2011rgwp   0.00000
gfz2011rnut  -1.37900
gfz2011rqui  -0.01440
gfz2011rsrh   0.65330
gfz2011rznl  -0.54540
gfz2011sagt   0.07830
gfz2011shqm  -0.22180
gfz2011stal  -2.09340
gfz2011tbas  -0.17680
gfz2011tcij   0.13460
gfz2011tivu   4.80750
gfz2011tjrf  -0.63230
gfz2011tjue   0.70570
gfz2011tkfp  -0.53130
gfz2011tkog  -0.66550
gfz2011toub  -1.41400
gfz2011tpbl   0.10150
gfz2011tpfr  -0.00000
gfz2011tsfd   1.12760
gfz2011tsnp   0.78690
gfz2011ujze  -0.45660
gfz2011ukmp   1.15890
gfz2011uphh   0.14740
gfz2011vhfi  -0.52870
gfz2011vkun   1.16770
gfz2011vldk   0.02150
gfz2011vnza  -0.11840
gfz2011vqrj   0.55480
gfz2011vrhg  -0.16640
gfz2011vxns  -0.95210
gfz2011vxod  -0.45920
gfz2011wcic   0.29600
gfz2011wjul   0.47380
gfz2011wvzb   0.06950
gfz2011wxfs  -0.07560
gfz2011wxoj   0.40910
gfz2011wxtk  -0.94130
gfz2011wype   1.06110
gfz2011xaan  -1.92260
gfz2011xcpv   0.00000
gfz2012ajtq   0.63790
gfz2012aqgp   3.27590
gfz2012bfah  -0.06450
gfz2012bfyn  -0.09680
gfz2012bpkx  -1.03880
gfz2012bpnl  -0.76700
gfz2012bpwl  -0.69790
gfz2012brhv   0.35070
gfz2012bszs  -0.53150
gfz2012cbed   1.70040
gfz2012cgvr   0.09630
gfz2012ckxi  -2.92200
gfz2012covm  -0.71480
gfz2012cqnl  -1.74910
gfz2012cxdn  -0.15130
gfz2012deri   0.22920
gfz2012dfhq  -1.01090
gfz2012dimn  -0.88520
gfz2012dyyh   0.87010
gfz2012gill   1.57470
gfz2012gkvr   0.28730
gfz2012gocc   1.84110
gfz2012gomm   0.79700
gfz2012gukw  -0.35510
gfz2012gwqb  -0.45220
gfz2012hnul  -2.27040
gfz2012jlox   0.79670
gfz2012joqe   0.65600
gfz2012jted   0.07170
gfz2012jupx   1.12180
gfz2012jxiy   0.46050
gfz2012keor  -1.47660
gfz2012kkup  -1.29640
gfz2012klhx  -0.07670
gfz2012kuct  -0.20080
gfz2012kudo  -0.85390
gfz2012kwgo   0.47000
gfz2012lczo  -0.35090
gfz2012ldxg   1.20600
gfz2012ldzj   0.66990
gfz2012lltr   1.62810
gfz2012llug   0.80740
gfz2012lrsv  -0.61260
gfz2012lxkv  -1.45210
gfz2012lzmr   1.16480
gfz2012minr  -0.09730
gfz2012mupa  -0.06100
gfz2012mwij   0.69020
gfz2012naqz  -1.08540
gfz2012nedn   0.02040
gfz2012nkdf  -0.15440
gfz2012nsbz   0.02100
gfz2012nxyt   0.60220
gfz2012obgw   0.20460
gfz2012oedb  -0.73690
gfz2012omvo   0.48950
gfz2012oycg  -0.18830
gfz2012peex   0.04300
gfz2012peki   1.05560
gfz2012rats  -0.03880
gfz2012rboy  -0.10250
gfz2012repv  -0.45530
gfz2012rknn  -1.12670
gfz2012royy  -0.05880
gfz2012rubi   0.35720
gfz2012ruks   0.64690
gfz2012rwko   0.28920
gfz2012rwov  -1.65140
gfz2012rwql   0.59860
gfz2012shtg  -0.03800
gfz2012sphd   0.55240
gfz2012syvl   0.36730
gfz2012tazz   0.69420
gfz2012tbbp  -0.84600
gfz2012teic   0.20050
gfz2012ttoa  -0.17470
gfz2012uaqj   1.04050
gfz2012uciv  -0.62360
gfz2012uhup  -1.11960
gfz2012uqzp   0.58400
gfz2012usba  -0.35840
gfz2012uvqf   0.66360
gfz2012vceo   0.05710
gfz2012vmeh   0.31540
gfz2012vrgb  -0.10350
gfz2012vsev   2.32990
gfz2012wizz   1.00500
gfz2012wklq  -1.54860
gfz2012wmsg   0.28300
gfz2012wpeq   0.67160
gfz2012wrir   0.68230
gfz2012wtkr  -0.15200
gfz2012wvfl  -0.93170
gfz2012wxlg   0.21320
gfz2012wxnu  -0.48810
gfz2012wypz  -0.33730
gfz2012xbjq   0.28650
gfz2012xeul   7.32950
gfz2012xjyv   0.27820
gfz2012xmxy   0.45730
gfz2012yfrp   0.45320
gfz2013feep   3.50110
gfz2013ffko   0.43280
gfz2013fiud  -0.20440
gfz2013fkcl  -0.35810
gfz2013flox  -1.78020
gfz2013fnzr   2.97850
gfz2013fwxa   0.51980
gfz2013gdnq  -0.03380
gfz2013gihf  -0.04040
gfz2013gngz  -0.22690
gfz2013gock  -0.07260
gfz2013gvex  -2.31710
gfz2013gvxh  -1.69390
gfz2013gwrd   0.58780
gfz2013hlbe  -1.28830
gfz2013hsfw   0.37600
gfz2013huwr  -0.11870
gfz2013iayx  -0.11300
gfz2013idbb   0.02480
gfz2013ifpq   0.66540
gfz2013inux   1.41710
gfz2013ippu  -0.57300
gfz2013iqzq   0.79990
gfz2013iunn  -0.43000
gfz2013jdrx  -0.21400
gfz2013jesk   1.77570
gfz2013jgij   1.08120
gfz2013jgip   0.25810
gfz2013jkut  -0.49020
gfz2013jusj   6.14770
gfz2013kccc   1.48250
gfz2013kdeo   1.75710
gfz2013kwps   1.93550
gfz2013ldqb  -0.83510
gfz2013lgbb  -1.80030
gfz2013lixa   0.13450
gfz2013lwao  -0.41890
gfz2013mghe   0.86670
gfz2013mqik   0.99450
gfz2013mqmv   1.44820
gfz2013mwbh   0.50230
gfz2013nabl   0.91110
gfz2013ncjp  -0.34460
gfz2013nixj  -0.23300
gfz2013nkgj   0.64910
gfz2013nknw   0.24660
gfz2013nnzf   0.81660
gfz2013nqgw   0.23900
gfz2013nwdi   0.26450
gfz2013oejn   0.64740
gfz2013ofls   1.32470
gfz2013oqsc   0.20210
gfz2013pfbx   1.03300
gfz2013pfeb   0.28110
gfz2013phef   0.36320
gfz2013pqui  -0.39110
gfz2013puag  -0.23430
gfz2013pxtx  -0.57740
gfz2013qali  -0.08420
gfz2013qcck   2.35190
gfz2013qesa  -0.76320
gfz2013qfmm   0.92230
gfz2013qfsq   0.31860
gfz2013qidm  -1.90760
gfz2013qmer  -0.06640
gfz2013qnxc   0.54930
gfz2013tcxc  -0.00680
gfz2013tcxq  -0.46840
gfz2013tdau   0.18600
gfz2013toxf   0.08560
gfz2013uxej  -0.80040
gfz2013vefs   0.01570
gfz2013vexx   1.26800
gfz2013vfyw   0.23740
gfz2013vfzp   0.61670
gfz2013viul  -0.90720
gfz2013vjfe  -0.70930
gfz2013vjjc  -2.20490
gfz2013vvjh  -0.91720
gfz2013vzbo  -0.25480
gfz2013wjmm  -1.19500
gfz2013wkyk   0.80890
gfz2013wtzl   0.45830
gfz2013wuon   0.35640
gfz2013wwii  -1.19470
gfz2013xizq   2.11160
gfz2013xmul   0.16850
gfz2013xsdt   0.57080
gfz2013xtwj   0.19770
gfz2013xwda  -1.03200
gfz2013xyzb  -0.56740
gfz2013yach   0.97540
gfz2013yaig   0.26770
gfz2013ylbx   1.94500
gfz2013ymxs  -0.57270
gfz2013ypdc  -0.40210
gfz2013yqkv   0.05020
gfz2013zmtb   0.62920
gfz2014abgd   2.15890
gfz2014afmx   2.49240
gfz2014algk   0.39600
gfz2014alwz   1.82440
gfz2014ande   0.88880
gfz2014ared  -2.24900
gfz2014arpf  -0.56500
gfz2014femz  -1.42690
gfz2014fgvi   0.78010
gfz2014fgvr   0.66270
gfz2014fgwt   0.56200
gfz2014fhdw   1.15330
gfz2014fhla   1.32360
gfz2014fhlh   1.28960
gfz2014fhrq   1.12900
gfz2014fhsg   2.02130
gfz2014fnyg  -0.06040
gfz2014fqpz   1.01510
gfz2014frdz   2.02490
gfz2014frel   0.77180
gfz2014frez   1.03090
gfz2014ftka   1.27090
gfz2014ftrk   1.46910
gfz2014furx   2.38270
gfz2014fusj   1.61670
gfz2014fval   1.26980
gfz2014fvrg   1.10330
gfz2014gbcz  -4.90150
gfz2014gbdq   1.96280
gfz2014ghpe   1.06900
gfz2014gkgf   0.39600
gfz2014gkhp  -0.32850
gfz2014gkjl  -0.40710
gfz2014gkjt  -0.12240
gfz2014gkjy   1.37490
gfz2014gklq   1.78450
gfz2014gkob   1.96340
gfz2014gkok  -2.79700
gfz2014gkpd   0.31910
gfz2014gkpj   1.80890
gfz2014gkqf   0.39280
gfz2014gkqu  -2.00440
gfz2014gksj   1.71210
gfz2014gksu  -1.04690
gfz2014gktq  -0.35190
gfz2014gkut  -0.12430
gfz2014gkxm   1.76270
gfz2014glcu   0.84650
gfz2014glgo   0.54900
gfz2014gltx   0.95670
gfz2014glvn  -1.20860
gfz2014gmci   2.17980
gfz2014gmge   0.44720
gfz2014gmhp   0.54740
gfz2014gmhr  -0.32090
gfz2014gmip   1.98850
gfz2014gmjo   1.39820
gfz2014gmku   1.50540
gfz2014gmlz   1.13800
gfz2014gmmt  -0.17140
gfz2014gmnb   0.72840
gfz2014gmnw   0.72300
gfz2014gmor  -0.15010
gfz2014gmpy  -0.14190
gfz2014gmrj   1.46260
gfz2014gmuw   1.49370
gfz2014gmvr   1.84070
gfz2014gmzl   0.87140
gfz2014gmzs   0.56690
gfz2014gnfd   0.85570
gfz2014gnfs   1.45850
gfz2014gnnt   2.37230
gfz2014gnxb   1.01100
gfz2014goba   0.15820
gfz2014goei  -0.46140
gfz2014gogv   0.32390
gfz2014goqw   1.02840
gfz2014gori  -0.42410
gfz2014gphr   0.87140
gfz2014gpya  -1.42710
gfz2014gqbj   0.82700
gfz2014gqed   1.64640
gfz2014gqer  -1.10390
gfz2014gqjr   1.14830
gfz2014gqve   1.06570
gfz2014gsgv   1.99350
gfz2014gsqs   0.51590
gfz2014gtef   0.20690
gfz2014gtwz   2.25280
gfz2014gufl   1.81600
gfz2014gull   1.16540
gfz2014gumd   1.16490
gfz2014gutm   1.77360
gfz2014gvhw  -0.23810
gfz2014gvqj   1.99010
gfz2014gvrd   1.41260
gfz2014gwab   1.79860
gfz2014gxqu  -0.56300
gfz2014gxvf  -0.32020
gfz2014gxxo   0.81760
gfz2014gzue   0.44380
gfz2014hasj   0.66650
gfz2014hbqb   0.82790
gfz2014hcmj  -0.07800
gfz2014hfhl   1.32480
gfz2014hgqo   0.43030
gfz2014hhfs   0.66250
gfz2014hiiz   0.53960
gfz2014hjgh   1.83950
gfz2014hjgr   1.56960
gfz2014hkcf   1.67920
gfz2014hmrs  -0.89750
gfz2014hocg  -0.72130
gfz2014hqxs   1.26750
gfz2014hrft   0.07870
gfz2014hsqo   0.69070
gfz2014huaj   0.62950
gfz2014hzdy   0.49750
gfz2014hzfw   0.89430
gfz2014hzgn   2.18580
gfz2014hzht  -0.50740
gfz2014iani   2.09420
gfz2014iava  -0.30360
gfz2014ieam   0.22870
gfz2014ijvh   3.75180
gfz2014imap   0.53410
gfz2014imnn   1.52060
gfz2014inbj  -1.17360
gfz2014itkw   1.83940
gfz2014iwwl  -1.21170
gfz2014iywt  -1.19990
gfz2014jbyg   0.71670
gfz2014jcjt   1.57830
gfz2014jdoy  -0.10250
gfz2014jjhc   0.42760
gfz2014jjln   2.17470
gfz2014jnyv   0.56410
gfz2014jomw   0.09000
gfz2014jpep   1.18070
gfz2014jwmh  -0.62400
gfz2014kara   1.16270
gfz2014kbwm  -1.80550
gfz2014khlk   0.14440
gfz2014kmmt   0.58850
gfz2014kndc   0.68380
gfz2014knks   0.59140
gfz2014knxs  -0.05220
gfz2014krlg  -0.44590
gfz2014kwrg   3.72900
gfz2014kyan  -0.51570
gfz2014kytf   0.47470
gfz2014lbcq  -0.23450
gfz2014lefs   2.56010
gfz2014lgqn  -0.04040
gfz2014lmge  -0.21210
gfz2014lnmw  -0.02960
gfz2014lnqy  -0.41900
gfz2014lpim   0.09990
gfz2014lrzx  -0.54980
gfz2014lxnc   2.28060
gfz2014lyhk   0.20100
gfz2014lyhp   0.39790
gfz2014macx   1.91820
gfz2014madw   1.99340
gfz2014mtum  -1.02630
gfz2014mxkr   1.64850
gfz2014ndue   0.63000
gfz2014niqj   0.76970
gfz2014nkdx   0.11480
gfz2014nowp  -0.96050
gfz2014npeo   0.73240
gfz2014nphm  -0.81500
gfz2014nqfm   1.70640
gfz2014nrie   0.98190
gfz2014obbs  -0.31650
gfz2015lytv  -1.72940
gfz2015lzad   0.53310
gfz2015mddr   0.74750
gfz2015mfpy  -2.30270
gfz2015mhym   0.36390
gfz2015mvzk   2.29850
gfz2015nuxz  -0.65890
gfz2015ocdz   1.63350
gfz2015okmq   0.87830
gfz2015opjp  -0.13760
gfz2015othd   0.15870
gfz2015oyfl   1.89290
gfz2015pjgr   0.14500
gfz2015poni  -0.23650
gfz2015prlr  -0.30620
gfz2015puah   0.41740
gfz2015puqp   0.01840
gfz2015qisx   0.32950
gfz2015qnho  -0.36370
gfz2015qnlv   0.70820
gfz2015qnto  -0.40250
gfz2015sicf  -0.00900
gfz2015siof  -0.27930
gfz2015snwh   0.14090
gfz2015soxc  -2.75420
gfz2015sqmy  -0.03840
gfz2015srat  -0.23390
gfz2015ssoe   1.03480
gfz2015sspn   0.83090
gfz2015ssrl  -0.62800
gfz2015stfy   1.82810
gfz2015subg  -0.75200
gfz2015subz  -0.16430
gfz2015sudm   0.62520
gfz2015svwm  -1.85630
gfz2015taml   0.93140
