# Nsamples: 111  MAD:  0.479  mean:  0.033  variance:  0.542
gfz2010bjeb   0.10260
gfz2010bxxs  -0.01760
gfz2010cqwl   0.09190
gfz2010ebhc  -0.61320
gfz2010eruy   1.56280
gfz2010grjd  -0.65000
gfz2010gyqp   0.84780
gfz2010iull   0.32590
gfz2010lluj  -0.53360
gfz2010mkuu   0.03290
gfz2010nmpc  -0.23560
gfz2010pbdz   0.33000
gfz2010sysw   0.95660
gfz2010usho   1.09000
gfz2011aatr   0.40220
gfz2011bgrp   0.60890
gfz2011cfae   0.80940
gfz2011dpqx   0.05430
gfz2011enva   0.04940
gfz2011gkzt   0.80960
gfz2011hlqw  -0.32320
gfz2011hlsa  -0.13200
gfz2011hlth  -0.23300
gfz2011jplh   0.08400
gfz2011lcxq   0.72700
gfz2011lzwj   0.27400
gfz2011rewa  -0.05030
gfz2011toub   0.25890
gfz2012jlox   0.44160
gfz2012kkup   0.01710
gfz2012klhx  -0.07950
gfz2012kuct  -1.04150
gfz2012kudo  -0.12830
gfz2012ldxg   0.41530
gfz2012ldzj   0.16710
gfz2012sphd  -0.12210
gfz2012teic   0.79470
gfz2012ttoa   0.50640
gfz2012vrgb  -0.23650
gfz2012wypz   0.21610
gfz2013drxz   0.19420
gfz2013ifpq   0.16930
gfz2013jkut   0.29070
gfz2013kdeo  -0.11790
gfz2013nkgj   0.75520
gfz2013nwdi  -0.69900
gfz2013pfbx  -0.29590
gfz2013svci   0.33510
gfz2014afmx   0.26940
gfz2014ande   0.03470
gfz2014bwue  -0.61760
gfz2014fgvi   0.27770
gfz2014fhdw   0.00350
gfz2014fhla  -0.92170
gfz2014fhwx  -2.16930
gfz2014fimn  -0.29260
gfz2014fkmr   0.11590
gfz2014frez   0.11350
gfz2014ftka   1.53020
gfz2014ftoc   0.58170
gfz2014fusj   0.40520
gfz2014fval   1.19390
gfz2014gbcz   0.21470
gfz2014gkgf   1.04830
gfz2014gkhy  -0.53860
gfz2014gkjt   0.13170
gfz2014gkqf   0.78900
gfz2014gkqu  -4.12440
gfz2014gktq  -0.89530
gfz2014gltx   0.22330
gfz2014gmge   0.15390
gfz2014gmhr  -0.31210
gfz2014gmnb   0.00000
gfz2014gmnw  -2.52280
gfz2014goba  -0.11790
gfz2014goqw   0.06410
gfz2014gqer   1.10530
gfz2014gull   0.36840
gfz2014gxxo   0.65610
gfz2014hagb   0.46850
gfz2014hasj   0.07920
gfz2014hfhl  -0.40200
gfz2014hjgr   0.16670
gfz2014hocg  -0.12410
gfz2014hqxs   0.54260
gfz2014huaj  -0.54400
gfz2014jjhc   0.08380
gfz2014jpep  -0.04800
gfz2014lgqn   0.54010
gfz2014lxnc   0.31550
gfz2014lyhk  -0.60310
gfz2014macx  -0.03750
gfz2014nqfm  -0.07390
gfz2014oinz  -0.32070
gfz2014pvch   0.02490
gfz2014qlxd   0.19840
gfz2014qqhm   0.47890
gfz2014rdsn   0.39560
gfz2014ssvz  -0.44190
gfz2014ubwn  -0.90230
gfz2014vjoz   0.07300
gfz2015berb  -0.18430
gfz2015chhn   0.51490
gfz2015cyjd   0.57800
gfz2015fsjj   0.15430
gfz2015hgbk  -1.74190
gfz2015jzcv  -0.28250
gfz2015kvwz  -0.25000
gfz2015lhjy   0.38360
gfz2015mpte   0.52620
gfz2015okmq  -0.87450
