# Nsamples: 378  MAD:  0.886  mean: -0.214  variance:  1.191
gfz2010aerk  -1.87600
gfz2010ahqi  -0.75930
gfz2010bfzs   0.74950
gfz2010bhhq   2.03880
gfz2010bifb  -1.30850
gfz2010bjeb   0.17650
gfz2010bxxs   0.03520
gfz2010caft  -0.28580
gfz2010chnv  -0.14690
gfz2010civi   0.01850
gfz2010ckeu   2.82020
gfz2010cqwl  -0.42980
gfz2010cres  -1.50900
gfz2010czps   0.08050
gfz2010dejx   0.31840
gfz2010dlgc  -1.66380
gfz2010eaoy   0.64780
gfz2010eapk  -0.19090
gfz2010eapn  -0.38620
gfz2010eaqe   1.35810
gfz2010eaqx  -0.89340
gfz2010eaqy   1.50590
gfz2010earq  -0.45960
gfz2010earu   1.07270
gfz2010easf  -1.10240
gfz2010eask  -1.10040
gfz2010easo  -0.08260
gfz2010easu  -0.33360
gfz2010eato  -0.56350
gfz2010eaty   1.81110
gfz2010eaul   0.20280
gfz2010eavs   1.12840
gfz2010eawb   0.13350
gfz2010eawu  -0.14610
gfz2010eaxa   0.54830
gfz2010eaxn   1.61840
gfz2010eaya   0.17070
gfz2010eayd  -0.38030
gfz2010eaze   0.55550
gfz2010eazu  -1.04120
gfz2010ebbd  -2.42480
gfz2010ebbx   0.00000
gfz2010ebdl  -0.24690
gfz2010ebfa   0.45420
gfz2010ebhc  -0.31850
gfz2010ebih   1.38570
gfz2010ebjy   0.12230
gfz2010ebkj  -0.11560
gfz2010ebla  -0.37910
gfz2010ebll   0.76320
gfz2010ebnn   0.59320
gfz2010ebvm  -0.50650
gfz2010ebvv  -0.36770
gfz2010ebwp   0.32010
gfz2010ebxl   0.12610
gfz2010ebzk  -0.87090
gfz2010ebzr   2.47280
gfz2010ecay   1.75770
gfz2010ecua  -1.26010
gfz2010ecuv   0.52280
gfz2010edbz   0.05890
gfz2010edvf  -0.53450
gfz2010edyi   4.35740
gfz2010eegn   0.98330
gfz2010eeij   0.34790
gfz2010eerh  -0.98290
gfz2010eevu  -0.32190
gfz2010ehft  -0.98320
gfz2010ehnm  -0.19640
gfz2010eisx   0.21930
gfz2010ejjg  -0.26330
gfz2010ekyc  -2.58350
gfz2010elhv   0.65810
gfz2010eltf  -0.55260
gfz2010elyc  -1.13330
gfz2010erda  -2.10850
gfz2010erkn  -0.23350
gfz2010erom   0.56410
gfz2010eruy  -1.43730
gfz2010eujm   2.68050
gfz2010excp   0.08350
gfz2010exdd  -0.91150
gfz2010exdl  -0.75900
gfz2010exno   1.78340
gfz2010ezax  -0.77190
gfz2010ezck   0.07380
gfz2010ezwz   0.43800
gfz2010ezxd  -0.94070
gfz2010fedq  -0.36510
gfz2010ffhq  -1.15920
gfz2010ffjb   1.13770
gfz2010flha  -1.21950
gfz2010fpqy  -0.34600
gfz2010fync  -1.18690
gfz2010gcrl  -0.88740
gfz2010gcrp  -1.33930
gfz2010gdld  -0.26910
gfz2010glxl   0.09750
gfz2010grjd  -1.30710
gfz2010grss  -1.25980
gfz2010gyqp   0.05560
gfz2010hlmq   0.93070
gfz2010homc  -2.00660
gfz2010hxgv  -0.54770
gfz2010iobp   0.35540
gfz2010irvf   0.34040
gfz2010iull  -0.31100
gfz2010mkuu  -1.74290
gfz2010moyw   0.58670
gfz2010mpuy  -0.16390
gfz2010nmpc  -0.24450
gfz2010nnny  -1.45820
gfz2010nqwo  -0.08170
gfz2010ntuo  -0.30820
gfz2010nwef  -2.45000
gfz2010nxsy  -0.78250
gfz2010odpb  -1.26140
gfz2010onma  -0.90030
gfz2010pcxi  -0.36960
gfz2010pxgh  -4.19360
gfz2010qitd  -0.71150
gfz2010qkat  -0.58710
gfz2010qpvi  -2.33090
gfz2010rkfp  -1.52020
gfz2010rqwj   0.53730
gfz2010sfee   0.06570
gfz2010skqo  -0.74460
gfz2010srdb   0.83590
gfz2010upfb   0.85870
gfz2010usho  -0.13320
gfz2010vbmd  -1.56190
gfz2010vyxd  -0.61770
gfz2010yosr  -0.60270
gfz2011aatr  -0.06750
gfz2011adjs   0.55450
gfz2011cykd   0.28950
gfz2011dbig  -0.11430
gfz2011dcqb   2.16850
gfz2011dcqf  -0.28290
gfz2011dpaa  -0.03640
gfz2011dpqx  -1.74130
gfz2011eayc  -0.29030
gfz2011efgv  -0.54660
gfz2011enva  -0.05200
gfz2011etje  -0.53200
gfz2011flgj   0.30080
gfz2011gbmx  -0.16820
gfz2011gkzt   0.04900
gfz2011hlqw   0.60880
gfz2011hlsa  -0.42510
gfz2011hrhe   0.04150
gfz2011jplh  -0.89390
gfz2011kxzp  -0.09830
gfz2011lcxq   0.07280
gfz2011lzwj  -0.90980
gfz2011mdie  -1.04710
gfz2011mjom  -2.01620
gfz2011nmnq  -0.29230
gfz2011ntkh  -1.76150
gfz2011nudm  -0.68830
gfz2011orgn   0.64290
gfz2011ornx  -0.04660
gfz2011owvz  -1.15690
gfz2011ptus   1.18090
gfz2011qyms  -0.45870
gfz2011rewa  -0.64470
gfz2011rgwp   1.98200
gfz2011rqui  -0.03360
gfz2011sagt   0.62750
gfz2011tkog  -0.33340
gfz2011toub  -1.44490
gfz2011tpfr   0.06100
gfz2011ueni  -0.82200
gfz2011ujze   0.15540
gfz2011uphh   0.38750
gfz2011vhfi  -2.53650
gfz2011vkun   3.22870
gfz2011vrhg  -2.00570
gfz2011vxns  -2.86600
gfz2011wwjs  -0.83400
gfz2011wxfs   1.08980
gfz2011wxoj   2.31770
gfz2011wxtk  -0.27140
gfz2011xaan  -0.67840
gfz2011xyxj  -1.33910
gfz2011yybo  -0.50980
gfz2012aqtq   0.72130
gfz2012bpkx  -0.50160
gfz2012byad  -0.39010
gfz2012deri  -0.74770
gfz2012dinb  -0.37360
gfz2012enno  -0.50310
gfz2012fzfa  -0.52670
gfz2012gnvh  -0.40060
gfz2012gomm   0.51420
gfz2012gwqb  -0.65380
gfz2012hnul  -0.94660
gfz2012hwyo  -1.14610
gfz2012jgvj   0.47260
gfz2012jlox  -0.80690
gfz2012kkup  -0.63940
gfz2012klba  -0.94120
gfz2012klhx  -0.94110
gfz2012kudo  -0.02500
gfz2012kwgo   2.00740
gfz2012ldzj   1.91740
gfz2012lxkv   0.80520
gfz2012lzmr  -1.03850
gfz2012minr  -0.13190
gfz2012mvwr  -0.87440
gfz2012nqnk  -1.08010
gfz2012oazn  -1.56920
gfz2012omvo   3.02870
gfz2012pofl   0.62780
gfz2012poju  -0.30110
gfz2012royy  -0.30980
gfz2012rqlg  -0.79520
gfz2012ruks  -0.95160
gfz2012rwov  -0.91780
gfz2012sphd  -0.55760
gfz2012syvl  -1.21080
gfz2012teic   1.27590
gfz2012thfx  -1.12810
gfz2012ttoa  -2.29320
gfz2012uafg   0.95660
gfz2012uaqj  -0.16670
gfz2012uhup   0.06300
gfz2012uqzp  -0.68020
gfz2012vrgb  -1.99100
gfz2012vrua  -0.78410
gfz2012vsev  -1.34140
gfz2012wxlg  -0.25320
gfz2012wybs  -0.80780
gfz2012wypz  -0.17430
gfz2012zjpv   1.73420
gfz2013aahq  -0.90390
gfz2013ccnr  -1.23550
gfz2013dofo  -1.38840
gfz2013drxz  -0.56210
gfz2013flox   0.24150
gfz2013fygc  -0.91600
gfz2013idbb  -0.20480
gfz2013ikgo   0.28610
gfz2013iunn  -2.09620
gfz2013jgij   3.07000
gfz2013jgip   0.48130
gfz2013jusj  -0.32400
gfz2013kdeo  -1.74670
gfz2013ldqb  -0.61100
gfz2013mqmv  -1.25980
gfz2013mwbh   1.36310
gfz2013ncjp   0.59000
gfz2013neuc  -0.97490
gfz2013nkgj   0.09050
gfz2013nqgw  -2.13240
gfz2013nwdi  -0.37120
gfz2013pffm  -0.89980
gfz2013qcck   0.95740
gfz2013qmer  -0.01350
gfz2013suvn   0.94160
gfz2013svci  -2.44500
gfz2013toea   1.51370
gfz2013toxf  -1.47720
gfz2013tusd  -1.08860
gfz2013tvmw  -0.49650
gfz2013vfyw  -0.26380
gfz2013vfzp   2.20120
gfz2013vgrk   0.68780
gfz2013vjjc   1.04870
gfz2013vpnf  -0.33280
gfz2013wjmm  -0.39020
gfz2013woze   1.33370
gfz2013xmul  -1.92130
gfz2013xsdt  -1.73010
gfz2013yqkv  -1.61550
gfz2014abgd  -0.52070
gfz2014afmx  -2.05420
gfz2014arpf  -1.24130
gfz2014bwue   0.83060
gfz2014cgog  -0.80860
gfz2014czqi  -0.13240
gfz2014czua  -0.32120
gfz2014femz  -0.65220
gfz2014fgvi  -1.86300
gfz2014fhla  -0.37280
gfz2014fkmx   3.09500
gfz2014frdz  -0.80160
gfz2014frel   1.46980
gfz2014ftka  -0.95150
gfz2014furx  -0.81410
gfz2014fval   0.54310
gfz2014fvrg  -2.57830
gfz2014gbcz   1.44590
gfz2014ghpe  -0.72860
gfz2014gkgf  -1.57070
gfz2014gkgs   0.77270
gfz2014gkqf  -0.73990
gfz2014gmge  -0.81760
gfz2014gmhr   0.23220
gfz2014gmnb  -0.19890
gfz2014gmnw  -1.09290
gfz2014gmuw  -0.76970
gfz2014goba   0.13680
gfz2014gori   0.57790
gfz2014gqbj  -0.06330
gfz2014gull  -2.17270
gfz2014gxvf   1.72900
gfz2014hasj   0.28460
gfz2014hcmj  -0.42960
gfz2014hfhl  -0.15090
gfz2014hgqo   0.53950
gfz2014hocg   0.38700
gfz2014ilwu  -0.08370
gfz2014inbj  -0.97210
gfz2014jatq   1.68590
gfz2014jjhc   0.25010
gfz2014jnyv   0.35610
gfz2014jpep  -1.53210
gfz2014jwmh   0.11630
gfz2014lnmw   0.20420
gfz2014lxnc  -0.21540
gfz2014macx  -0.56290
gfz2014npeo   0.33550
gfz2014nqfm   0.69940
gfz2014oinz  -0.59570
gfz2014pvch  -0.77440
gfz2014qlxd  -0.44590
gfz2014qngj  -1.22000
gfz2014raau   0.74570
gfz2014ryfb   0.15270
gfz2014ssvz  -0.20010
gfz2014szzf  -0.05240
gfz2014tovs   0.14270
gfz2014tqdo  -0.82510
gfz2014tzsd   1.31450
gfz2014watn  -0.01250
gfz2015apnk  -0.24030
gfz2015aruz  -0.14890
gfz2015bucr  -1.42630
gfz2015chhn  -0.55730
gfz2015cxxk   0.72970
gfz2015cyjd  -0.10220
gfz2015etai  -0.35980
gfz2015fjhk  -1.39990
gfz2015fkgt  -1.04480
gfz2015fkic   1.34820
gfz2015fsjj  -0.80970
gfz2015gckd   0.65370
gfz2015ggjw  -0.39330
gfz2015hgbk  -0.84650
gfz2015hpmk  -0.45110
gfz2015kfsu   0.52390
gfz2015lhjy   1.41040
gfz2015lytv  -0.76110
gfz2015nwug  -0.38650
gfz2015oyfl  -0.78590
gfz2015qnho  -1.66030
gfz2015qpvd  -0.13840
gfz2015rddx   0.04530
gfz2015sglg  -0.49160
gfz2015sgmm  -1.20570
gfz2015sgmr   0.56650
gfz2015shsz   2.47460
gfz2015siyy   1.88180
gfz2015sjgk  -0.73260
gfz2015sjoj  -0.46830
gfz2015snsf  -0.09150
gfz2015snwh  -0.13430
gfz2015snyd   0.26920
gfz2015soat   1.21320
gfz2015soxc   0.99320
gfz2015ssoe   0.88530
gfz2015stfy  -0.01910
gfz2015stso   0.48690
gfz2015subz  -0.58680
gfz2015svwm   0.02970
gfz2015szfq  -0.86840
gfz2015taml   0.02160
