# Nsamples: 733  MAD:  0.772  mean:  0.072  variance:  1.663
gfz2011mdie  -0.58060
gfz2011mjom   0.53440
gfz2011mpme  -1.63330
gfz2011mprq   0.17480
gfz2011nauw  -0.15550
gfz2011necz   3.87590
gfz2011nmnq   0.06710
gfz2011noud  -2.03560
gfz2011nowp   0.28090
gfz2011nqpd  -0.15540
gfz2011nrwc   1.01340
gfz2011ntkh   0.14090
gfz2011nudm  -0.08680
gfz2011ohcy  -1.75740
gfz2011olkk   0.08010
gfz2011orgn  -0.31390
gfz2011ornx  -0.80390
gfz2011owvz  -0.72160
gfz2011ozsl  -0.18420
gfz2011pccd  -1.11320
gfz2011phms  -3.12490
gfz2011pntf   0.21770
gfz2011ptus  -0.15400
gfz2011qigx   0.91610
gfz2011qoif  -0.58690
gfz2011qvae  -0.19420
gfz2011rabm  -0.98430
gfz2011rdby  -2.25260
gfz2011rewa  -0.65490
gfz2011rgwp  -0.22340
gfz2011rsrh  -0.11300
gfz2011runa  -0.07770
gfz2011rznl  -2.28710
gfz2011sagt   0.87090
gfz2011sawg   0.62680
gfz2011shqm  -0.08150
gfz2011stal   0.83630
gfz2011taps  -0.31600
gfz2011tbas  -2.26130
gfz2011tcij   0.39910
gfz2011tjrf   0.69170
gfz2011tjue   3.07730
gfz2011tkfp  -3.19100
gfz2011tkog  -0.16250
gfz2011udsq   0.47240
gfz2011ugzz  -0.23260
gfz2011ujze   0.08120
gfz2011ukmp   1.01930
gfz2011uphh  -0.62010
gfz2011uzqv  -2.28530
gfz2011vclt  -0.49620
gfz2011vhfi  -0.27250
gfz2011vkun  -1.84100
gfz2011vnza  -0.36000
gfz2011vqrj  -0.65560
gfz2011vrhg  -2.46480
gfz2011vxns   0.06880
gfz2011vxod  -1.03190
gfz2011wcic   0.74000
gfz2011wjkf  -0.16210
gfz2011wjul  -2.87370
gfz2011wwjs  -0.05590
gfz2011wxfs  -0.05450
gfz2011wxoj   2.07970
gfz2011wxtk   0.28840
gfz2011wype  -2.51200
gfz2011xaan  -0.52780
gfz2011xcpv  -0.79830
gfz2011xqru   3.03280
gfz2011xyxj  -0.63930
gfz2011yfdx   0.54860
gfz2011yhwz  -0.12260
gfz2011zqhh  -4.95390
gfz2012ablh   0.71260
gfz2012ajtq  -0.71490
gfz2012aqgp   0.11380
gfz2012aqtq  -0.06250
gfz2012attr   0.91220
gfz2012bfah   0.12110
gfz2012bfyn   0.08440
gfz2012bngd  -1.67280
gfz2012bpkx   0.42020
gfz2012bpnl   0.01990
gfz2012bpwl   0.64540
gfz2012bqeb  -0.21700
gfz2012byad  -0.25700
gfz2012cbed  -0.54400
gfz2012cevz   0.00000
gfz2012cgvr   1.46790
gfz2012ckxi  -1.11420
gfz2012cmfy   0.28390
gfz2012covm   0.28360
gfz2012cqnl   0.35010
gfz2012cxdn   0.49240
gfz2012glss   0.66250
gfz2012gocc  -0.92240
gfz2012gomm   0.39750
gfz2012gukw  -0.06140
gfz2012hdbm  -0.08800
gfz2012hnul   0.05860
gfz2012hnuw  -0.03740
gfz2012hsex  -1.25090
gfz2012hwmz  -2.49120
gfz2012hwyo   0.11130
gfz2012hyaa   3.50380
gfz2012hzbe  -0.50760
gfz2012ihdl  -0.16900
gfz2012ilvn  -0.15950
gfz2012jjzc  -0.39080
gfz2012jlox  -0.56670
gfz2012jpeh  -0.40170
gfz2012jqvn  -0.10580
gfz2012jshk  -2.99900
gfz2012jupx  -1.23380
gfz2012jxiy   0.26880
gfz2012kbjb   1.47150
gfz2012kdmb   0.07670
gfz2012keor   0.33480
gfz2012kkup  -1.20770
gfz2012klhx  -1.01600
gfz2012mcze   0.26600
gfz2012mkpn  -0.48300
gfz2012mlyf   0.03640
gfz2012mofm   0.16310
gfz2012mpvy   0.37410
gfz2012mpyl   0.04560
gfz2012mvwr  -0.09100
gfz2012mwij   0.97560
gfz2012myqa   0.58670
gfz2012naqz  -0.45380
gfz2012nben   0.46030
gfz2012nbtn  -1.03550
gfz2012nedn  -2.00760
gfz2012ngic  -0.21870
gfz2012njha   0.15880
gfz2012nkdf   1.61740
gfz2012nojx   2.01820
gfz2012nsbz   1.13440
gfz2012nutf  -0.18900
gfz2012nzpz   0.00000
gfz2012obgw  -1.36390
gfz2012omvo   0.59130
gfz2012pkel  -0.85980
gfz2012poju  -0.80760
gfz2012pqlt   1.94090
gfz2012pqmu  -1.69480
gfz2012priv   0.15100
gfz2012qouy   0.09810
gfz2012qqxg  -0.50230
gfz2012qtgs  -0.01510
gfz2012quso  -2.48070
gfz2012qxcy  -0.01400
gfz2012rats   0.79780
gfz2012rboy  -1.25830
gfz2012rcnj   0.02260
gfz2012repv  -0.29710
gfz2012rjsd   0.30690
gfz2012rknn  -0.47860
gfz2012ronz   0.53550
gfz2012rqlg   0.43270
gfz2012rubi   0.93760
gfz2012rwov   0.79260
gfz2012rwql   0.97380
gfz2012rypu   0.89740
gfz2012sjea  -1.02210
gfz2012snhi   0.00680
gfz2012spbj   0.11620
gfz2012sphd   0.11410
gfz2012syvl  -0.62870
gfz2012tazz   1.09540
gfz2012tbbp   0.21660
gfz2012thfx  -0.16020
gfz2012tpzx   1.29500
gfz2012ttoa  -0.25390
gfz2012tzcc  -0.22250
gfz2012tzgb  -0.05850
gfz2012uafg  -1.11420
gfz2012uciv   0.87330
gfz2012ueqo  -0.44000
gfz2012ufew   0.31400
gfz2012uhup  -0.39520
gfz2012uqzp  -0.40770
gfz2012usba  -5.45530
gfz2012uvqf  -0.07690
gfz2012uyie   0.25450
gfz2012uyxb  -0.07280
gfz2012uzom  -0.40340
gfz2012uzyj  -0.32330
gfz2012vceo   0.27080
gfz2012vdbt   0.18020
gfz2012vmeh  -0.23530
gfz2012vnbk   0.13830
gfz2012vpza   1.89220
gfz2012vrua  -0.67430
gfz2012vsev   0.44520
gfz2012vtxe  -2.75770
gfz2012wajj   0.04410
gfz2012wecd   0.53470
gfz2012wizz   0.22180
gfz2012wklq  -1.02100
gfz2012wmkd   0.20450
gfz2012wpeq   4.91970
gfz2012wrir  -0.07430
gfz2012wtkr  -0.25450
gfz2012wvfl   0.20190
gfz2012wxer  -0.80320
gfz2012wxlg   0.14270
gfz2012wxnt  -0.41990
gfz2012wxnu  -0.30140
gfz2012wybs   1.13970
gfz2012wypz  -0.70770
gfz2012xdna   0.02480
gfz2012xhci  -1.14010
gfz2012xjyv   0.01280
gfz2012xkkv  -2.11040
gfz2012xwqa  -0.41690
gfz2012xyqp   3.79800
gfz2012xyua  -0.25290
gfz2012yfrp   0.51560
gfz2012yxxu  -0.64350
gfz2012zemh  -0.34780
gfz2012zemz  -0.46750
gfz2012zfag  -0.35480
gfz2012zmln   0.81870
gfz2012zsqk   3.62550
gfz2013aayj  -0.79700
gfz2013acag   0.00000
gfz2013adey   0.19630
gfz2013axoj  -1.78350
gfz2013azzr   0.56520
gfz2013bdpu   0.08350
gfz2013bokp  -0.02950
gfz2013bouj  -2.86000
gfz2013bzlb   0.10470
gfz2013cbsm  -0.48930
gfz2013ccnr   0.29850
gfz2013ccon   0.34050
gfz2013cdfj   0.25400
gfz2013cfyy   0.77740
gfz2013comh   0.33600
gfz2013cvad   0.37580
gfz2013cwpn  -0.03750
gfz2013cwps  -0.47370
gfz2013ddbh  -1.87450
gfz2013dfhb   0.37190
gfz2013dkly   0.08580
gfz2013dkmz  -0.16330
gfz2013dkym   0.98630
gfz2013dofo   0.09280
gfz2013dojq   0.61480
gfz2013drpk   2.28110
gfz2013drxz  -0.72580
gfz2013dsog   3.36020
gfz2013dvye   0.05300
gfz2013dyop  -0.12270
gfz2013egpu  -0.01720
gfz2013enbx   0.13300
gfz2013eulz  -0.69590
gfz2013feep   0.61360
gfz2013fepm  -0.03900
gfz2013figy   0.56240
gfz2013fiud  -1.97980
gfz2013fkii   0.22060
gfz2013flox   0.61640
gfz2013fnzr   0.90090
gfz2013fwxa  -2.97130
gfz2013gcfx   1.22210
gfz2013gdgf   1.04620
gfz2013gdnq   0.05840
gfz2013gelv  -0.19080
gfz2013glcr  -0.89040
gfz2013gngz  -2.99760
gfz2013goux   0.79440
gfz2013gvex   0.65740
gfz2013gvxh   0.06110
gfz2013gwrd   0.96340
gfz2013hdnc  -0.69310
gfz2013hfmp  -0.97600
gfz2013hisv  -0.64210
gfz2013hkja  -0.36220
gfz2013hmbc  -1.20130
gfz2013hsfw  -0.17000
gfz2013hzdp  -0.77290
gfz2013iayx  -0.91710
gfz2013ifpq  -0.03090
gfz2013ijsr  -1.29240
gfz2013ikgo   0.06200
gfz2013ilug   0.04540
gfz2013iodt   1.59190
gfz2013ippu  -0.98050
gfz2013iqzq   0.77110
gfz2013iunn   0.24680
gfz2013jdrx  -0.77070
gfz2013jesk   2.14530
gfz2013jgip  -0.17300
gfz2013jjsi   0.23690
gfz2013jkut   0.89950
gfz2013jlst   5.22460
gfz2013jusj  -2.52860
gfz2013kccc   2.84900
gfz2013kdeo   1.63540
gfz2013kgmj  -0.01220
gfz2013kheb   1.07300
gfz2013kqln  -1.82010
gfz2013kvtk  -0.28700
gfz2013lajn   0.19610
gfz2013lbiu   0.01780
gfz2013ldqb   0.37190
gfz2013lgnl  -0.24040
gfz2013lixa   0.21820
gfz2013lmqe   0.02520
gfz2013lxyn   1.65250
gfz2013lyko  -0.53950
gfz2013mnei   1.38120
gfz2013mnju  -0.11390
gfz2013mqik   0.21440
gfz2013mqmv   2.13440
gfz2013mvgr   0.07560
gfz2013mwbh   0.04260
gfz2013ncjp   1.49570
gfz2013ngnt   0.08020
gfz2013nhjb  -1.23570
gfz2013nixj  -0.20010
gfz2013nkgj   0.61150
gfz2013nmac   0.49010
gfz2013nppd  -0.18480
gfz2013nqgw  -0.13740
gfz2013nvdj   0.04320
gfz2013nwdi  -1.09890
gfz2013ogde   0.18280
gfz2013oqsc   0.34890
gfz2013pfbx   2.21790
gfz2013pfeb  -0.42710
gfz2013phef  -1.23680
gfz2013pxsj   0.05420
gfz2013pxtx  -0.75380
gfz2013qali  -0.25290
gfz2013qcck  -0.07060
gfz2013qesa   0.39450
gfz2013qfmm   1.79780
gfz2013qfsq   1.84500
gfz2013qidm   1.83310
gfz2013qmer  -1.36500
gfz2013qnxc  -0.38210
gfz2013qzdq   1.29140
gfz2013rait  -0.07740
gfz2013rdoo  -1.62840
gfz2013roki   0.04130
gfz2013rrza  -0.47950
gfz2013rsnr  -2.75330
gfz2013rwfe  -0.81770
gfz2013saez   0.11850
gfz2013sart   0.33000
gfz2013scai   0.14930
gfz2013sdus   0.57500
gfz2013sebq   0.42730
gfz2013sfto  -0.12560
gfz2013shzy  -0.31720
gfz2013sjhg   0.19420
gfz2013snbr   0.59500
gfz2013sred  -0.05680
gfz2013stcu  -0.16000
gfz2013stht   0.24290
gfz2013suvn   2.07970
gfz2013svci  -0.49680
gfz2013syqk   0.05080
gfz2013tcbk  -2.05070
gfz2013tcxc  -0.78030
gfz2013tcxq  -0.71620
gfz2013tdau  -0.62640
gfz2013tlaf   0.09630
gfz2013toxf   1.77500
gfz2013tusd  -0.06540
gfz2013tvmw   0.39010
gfz2013twwf   0.07060
gfz2013txev  -0.16710
gfz2013txtb  -0.99390
gfz2013uauo   1.12400
gfz2013ufku  -3.38500
gfz2013uqsp   0.38710
gfz2013uuzn   0.07500
gfz2013vefs   1.74260
gfz2013vexx   2.28850
gfz2013vfyw  -0.70490
gfz2013vfzp  -0.13020
gfz2013vgau  -0.33700
gfz2013vgev  -0.32510
gfz2013vgpf  -0.11800
gfz2013vhnk   0.48890
gfz2013viul   0.62460
gfz2013vjfe  -0.06790
gfz2013vjjc  -2.54300
gfz2013vqot   0.19750
gfz2013vsbl  -0.18170
gfz2013vvjh  -1.07750
gfz2013vvrq  -0.25120
gfz2013vzbo   0.96950
gfz2013waam  -0.10860
gfz2013wjmm   1.10310
gfz2013wmfd  -0.11910
gfz2013wnpr  -1.29670
gfz2013wwii  -0.01270
gfz2013xizq  -0.33070
gfz2013xklb  -0.47950
gfz2013xmul   0.42810
gfz2013xsdt  -3.13210
gfz2013xvqd  -0.01770
gfz2013xvxf  -0.04130
gfz2013xvyl  -0.72360
gfz2013xwda   0.08920
gfz2013xwzd  -1.34530
gfz2013xxwv   0.00470
gfz2013xxxq  -0.08270
gfz2013xzcg  -0.10540
gfz2013yach  -0.19020
gfz2013yaig   1.68930
gfz2013yctg   0.21330
gfz2013ylbx   0.48090
gfz2013ymky   0.41220
gfz2013ypdc  -0.40600
gfz2013yqkv  -1.78500
gfz2013yrmc  -0.96990
gfz2013yyhc  -0.27710
gfz2013yyti   1.31200
gfz2013zjel   0.14340
gfz2013zmoc   0.06080
gfz2014abgd   0.99920
gfz2014adoj  -0.48620
gfz2014afyp   0.01740
gfz2014algk  -1.17940
gfz2014alwz  -2.99650
gfz2014aqbk  -0.00000
gfz2014ared  -2.30850
gfz2014arpf  -0.42580
gfz2014arqr   0.43620
gfz2014atgw   0.07430
gfz2014bagd   0.77320
gfz2014bbro  -1.02020
gfz2014bekc   1.22650
gfz2014bjgt  -0.89880
gfz2014bmta   0.48030
gfz2014bwue  -0.58530
gfz2014bzxy  -0.88990
gfz2014cbtl  -0.70930
gfz2014cgog   0.02030
gfz2014claq   0.04350
gfz2014cqyo   0.32330
gfz2014crpy  -1.70710
gfz2014cvkm   0.22510
gfz2014cyvm  -0.20460
gfz2014czol   0.86750
gfz2014czqi   0.15660
gfz2014czua  -0.14480
gfz2014dhxt   0.73620
gfz2014disp  -0.59740
gfz2014dpzx  -0.64780
gfz2014duqn   3.03490
gfz2014ebmc   0.03000
gfz2014edfx  -0.75390
gfz2014efkk  -0.00000
gfz2014eght  -1.69970
gfz2014egwu   0.77540
gfz2014ehsf   0.42870
gfz2014ekcr   0.74570
gfz2014ekdn  -0.12600
gfz2014ekdt   0.49720
gfz2014enhi   1.50000
gfz2014etqa  -0.39470
gfz2014ewcz  -0.07860
gfz2014ezgb   0.76410
gfz2014fcms   0.57830
gfz2014femz   1.19590
gfz2014fgvi  -4.70930
gfz2014fgxt   3.36730
gfz2014fhla   1.17030
gfz2014fhrq   1.48930
gfz2014fiuj  -0.37060
gfz2014fkmr   2.51700
gfz2014fnyg  -3.41830
gfz2014foio  -0.38720
gfz2014frdz   2.46480
gfz2014ftka   1.70270
gfz2014fval   2.49210
gfz2014fvjl   0.70060
gfz2014fvrg   2.05170
gfz2014fwtt   0.82700
gfz2014fwyr   4.54600
gfz2014fxhd   6.05790
gfz2014gbcz   2.38030
gfz2014gbdq   1.69570
gfz2014geuy   4.76100
gfz2014ghpe  -0.64490
gfz2014gkgf  -0.79650
gfz2014gkjl  -0.84360
gfz2014gkqf   2.06800
gfz2014gkqu   0.15000
gfz2014glfn  -0.53020
gfz2014glgo   0.48530
gfz2014gmge   1.68960
gfz2014gmhr   3.06470
gfz2014gmlz   3.02510
gfz2014gmnb  -0.25630
gfz2014gmpy   1.53750
gfz2014gmuw   0.43880
gfz2014gogv   1.41890
gfz2014goqw   1.09800
gfz2014gori  -0.02080
gfz2014gpgd  -0.11080
gfz2014gpmm   0.09500
gfz2014gpya  -0.09610
gfz2014gqbj   1.63300
gfz2014gqer   0.74910
gfz2014grcv   0.28810
gfz2014grgn   1.13200
gfz2014gsqs   1.93390
gfz2014gtrb   5.76120
gfz2014gtwz   1.44400
gfz2014gull   2.43060
gfz2014gumd   0.52040
gfz2014gutm   0.17730
gfz2014gvhw   1.11390
gfz2014gvrd   2.18270
gfz2014gwab   1.99130
gfz2014gwgf  -0.24210
gfz2014gxvf  -1.02270
gfz2014gxxo   1.27660
gfz2014gzrm  -0.14570
gfz2014hasj   2.44100
gfz2014hauo   0.57520
gfz2014hfhl   2.86410
gfz2014hgqo   1.41950
gfz2014hkcf   4.64140
gfz2014hocg  -0.81500
gfz2014hqxs   1.27070
gfz2014hrft  -0.90930
gfz2014hscz  -0.30760
gfz2014huaj   3.33420
gfz2014hyvq  -0.89040
gfz2014hzfw  -0.22920
gfz2014hzhe  -0.41040
gfz2014iava   0.17800
gfz2014icqt  -0.16120
gfz2014ieam   1.25000
gfz2014ieho  -0.72900
gfz2014ikun  -0.01750
gfz2014imap   0.23150
gfz2014inbj  -0.90480
gfz2014isys  -1.30360
gfz2014itgh   2.97160
gfz2014itjx   0.62420
gfz2014itpj   0.78520
gfz2014jatq   0.19110
gfz2014jcjt  -1.08400
gfz2014jdoy  -0.85390
gfz2014jkxe   0.63710
gfz2014jlwb   0.42490
gfz2014jnxm  -0.11420
gfz2014jnyv  -2.22910
gfz2014jpep   2.31430
gfz2014jpfn  -2.41680
gfz2014jpvx  -0.02100
gfz2014jtcz   0.11550
gfz2014jwmh  -0.14990
gfz2014kara   0.19390
gfz2014khlk  -0.62350
gfz2014kitm   1.04050
gfz2014kjjq  -0.49830
gfz2014kmmt  -0.71590
gfz2014kndc   1.44460
gfz2014knxs   0.69900
gfz2014ksdv  -0.09840
gfz2014kzzm  -0.16080
gfz2014lbcq   0.87300
gfz2014lbxn  -0.05260
gfz2014lddn   0.36730
gfz2014ldhu   0.51690
gfz2014lefs  -0.97750
gfz2014lgqn   0.13550
gfz2014lhqn   0.24420
gfz2014lkyf   0.00660
gfz2014lmge  -0.42560
gfz2014lpim  -3.00920
gfz2014lxnc   2.56380
gfz2014lyhk   2.61840
gfz2014lynp  -0.30500
gfz2014lzal  -0.67810
gfz2014lzow  -0.66130
gfz2014madw   2.02690
gfz2014mden   0.24710
gfz2014mhgg  -0.03170
gfz2014mtum  -0.31080
gfz2014mwor  -0.19820
gfz2014ngnd  -0.05760
gfz2014nkdx   0.35620
gfz2014nnxd   1.05720
gfz2014nowp  -0.17700
gfz2014npdk   1.25090
gfz2014npeo  -2.08560
gfz2014nphm   4.02430
gfz2014oinz  -0.81560
gfz2014okjw  -0.04050
gfz2014omyn   0.08760
gfz2014osvz  -0.15220
gfz2014owxc   1.83300
gfz2014oxcc  -0.14300
gfz2014pkll  -0.74960
gfz2014poap   0.44190
gfz2014ppyi   0.27380
gfz2014ppzf   0.53110
gfz2014pqrc  -0.05730
gfz2014pvch   3.85520
gfz2014qcxs   0.43280
gfz2014qdog   0.69720
gfz2014qfzq   1.32830
gfz2014qlxd  -0.20220
gfz2014qngj   0.16510
gfz2014qqfg  -0.50910
gfz2014qqhm   0.55380
gfz2014raau  -1.67020
gfz2014rbpx  -1.92680
gfz2014rbsl  -0.52660
gfz2014rghp   0.12640
gfz2014rhju  -0.47470
gfz2014rils  -0.94750
gfz2014rkwl  -0.07630
gfz2014royq   4.15530
gfz2014rtcu  -0.30270
gfz2014ryfb   0.10450
gfz2014sadu   2.62340
gfz2014shid   0.99700
gfz2014sjqw   1.00980
gfz2014ssmv  -1.10390
gfz2014ssvz  -1.33920
gfz2014szzf  -0.61040
gfz2014tfgn  -3.80220
gfz2014tovs  -0.15540
gfz2014tqdo   1.19030
gfz2014tqsf   3.67850
gfz2014tute  -0.79820
gfz2014ubwn  -0.96640
gfz2014uohh   1.19800
gfz2014utac  -0.34910
gfz2014uuuf   0.26200
gfz2014uvji   0.38430
gfz2014uvrk  -0.92630
gfz2014uxyg   0.00000
gfz2014vcev   0.49600
gfz2014veit   1.74120
gfz2014vhld  -0.58020
gfz2014vhms   0.64690
gfz2014vjoz  -0.71160
gfz2014vljh  -0.37870
gfz2014vnxu  -0.70950
gfz2014vpus  -2.30680
gfz2014waoo  -0.67730
gfz2014watn   0.64220
gfz2014wjko   0.09340
gfz2014wmsc  -0.09820
gfz2014wqcp  -0.60010
gfz2014xhkc   0.35440
gfz2014ynzy   1.00120
gfz2014yrug   1.61520
gfz2014yula   0.10430
gfz2014zlgp  -0.38730
gfz2015alzx   0.02730
gfz2015aqav   0.04570
gfz2015aqbq  -0.02100
gfz2015arpd  -0.62660
gfz2015aruz   0.04290
gfz2015azzp   0.38680
gfz2015bavu   0.00000
gfz2015berb  -1.06800
gfz2015bfjm  -0.00810
gfz2015bohx  -0.41650
gfz2015bphe   0.68800
gfz2015bsnl  -0.66130
gfz2015bucr   0.40760
gfz2015bvsj  -0.59980
gfz2015bvxx  -0.12450
gfz2015byfn  -0.00000
gfz2015byjd  -1.66940
gfz2015bzej   0.53930
gfz2015cewd   1.05270
gfz2015chhn  -0.02570
gfz2015chqn   2.29350
gfz2015cpuo  -0.26920
gfz2015cxhx   0.19820
gfz2015cxrc   1.06510
gfz2015cxxk  -1.19400
gfz2015cyjd  -1.23260
gfz2015dizn   0.13500
gfz2015djts   0.00000
gfz2015ecgq   0.08140
gfz2015eezy   3.05110
gfz2015egbk   0.15400
gfz2015egxq  -0.64100
gfz2015eiky   1.62950
gfz2015elgy  -0.88470
gfz2015eljz   0.96040
gfz2015emin   0.88190
gfz2015emtg  -0.27280
gfz2015enth  -2.33500
gfz2015etai  -0.04380
gfz2015evpl  -0.23400
gfz2015eyqs   0.25940
gfz2015fbbk  -0.66160
gfz2015fbew   0.23430
gfz2015fcua  -1.15660
gfz2015fkbc   0.27830
gfz2015fkgt   0.39510
gfz2015fkic  -0.07190
gfz2015fkkd   0.34270
gfz2015fkuu  -0.85710
gfz2015flis   0.19850
gfz2015fpez  -0.17570
gfz2015fsjj  -0.11760
gfz2015fxbv  -0.94630
gfz2015fxdi  -0.73840
gfz2015fyvk  -0.04150
gfz2015gckd  -0.17580
gfz2015gjbr  -0.52400
gfz2015gkwa   0.11220
gfz2015gnmy  -0.53480
gfz2015guhd   0.56150
gfz2015gwao   0.81830
gfz2015gzja  -1.27650
gfz2015hdcp   0.02550
gfz2015hepg  -0.23270
gfz2015hgbk  -3.13060
gfz2015hlqo  -0.92800
gfz2015hpmk   0.03870
gfz2015hvgs  -0.45210
gfz2015igsy  -0.18860
