# Nsamples: 39  MAD:  0.599  mean: -0.287  variance:  0.747
gfz2010grjd  -2.14670
gfz2010iull  -0.49040
gfz2010lluj  -0.16950
gfz2010ndxl   1.91270
gfz2010nmpc  -0.81830
gfz2011aatr  -0.66360
gfz2011enva   0.22770
gfz2011hlqw  -0.62570
gfz2011hlsa  -0.85300
gfz2011lcxq  -0.07980
gfz2011lzwj  -0.67180
gfz2011rewa  -0.81470
gfz2011toub  -0.59000
gfz2011wxfs  -0.43230
gfz2012jlox  -1.03940
gfz2012kkup  -0.74410
gfz2012klhx   0.15600
gfz2012kuct  -0.05740
gfz2012kudo  -0.83600
gfz2012vrgb  -0.11220
gfz2012wypz  -0.02190
gfz2013drxz  -0.60820
gfz2013nwdi  -0.43720
gfz2013svci  -0.41480
gfz2014bwue  -1.97540
gfz2014fgvi  -0.84800
gfz2014fhla   0.07130
gfz2014gkgf   0.38360
gfz2014gmhr  -0.01680
gfz2014goba  -0.26990
gfz2014oinz  -0.49460
gfz2014ssvz   1.56640
gfz2014veit  -1.59100
gfz2014vnxu   1.36310
gfz2015cyjd   0.18260
gfz2015fsjj  -0.38520
gfz2015lhjy   0.01630
gfz2015sfdd   1.98340
gfz2015sfdy  -0.83710
