# Nsamples: 46  MAD:  0.505  mean: -0.226  variance:  0.614
gfz2010bxxs  -0.25600
gfz2010cqwl   0.04980
gfz2010ebhc   0.66250
gfz2010grjd   0.44570
gfz2010iull  -0.45730
gfz2010lluj  -1.02080
gfz2010nmpc  -0.03830
gfz2011aatr   0.17640
gfz2011enva  -0.75270
gfz2011gkzt  -0.23030
gfz2011hlqw  -0.14180
gfz2011hlsa  -0.35000
gfz2011hlth   0.54970
gfz2011lzwj  -0.78020
gfz2011rewa   0.74330
gfz2011toub  -0.20660
gfz2011wxfs  -0.28160
gfz2012enno   0.53720
gfz2012jlox  -0.71010
gfz2012kkup   0.00710
gfz2012klhx   0.41060
gfz2012kudo  -0.30340
gfz2012ldxg  -1.20560
gfz2012ldzj  -0.30370
gfz2012vrgb   0.03000
gfz2012wypz  -0.13050
gfz2013drxz   0.58220
gfz2013jkut  -0.21870
gfz2013nwdi  -0.35770
gfz2013pfbx  -0.34390
gfz2013svci  -0.22440
gfz2014afmx  -0.37010
gfz2014bwue  -1.07990
gfz2014fgvi  -0.96180
gfz2014frdz   1.45760
gfz2014ftka  -0.38590
gfz2014gkgf   0.39220
gfz2014gkqf  -0.07210
gfz2014gmge  -0.10610
gfz2014gmhr   1.46760
gfz2014hjgh  -2.51690
gfz2014hqxs  -1.01430
gfz2014nqfm  -0.48760
gfz2014tfgn  -2.69560
gfz2015cyjd   0.83200
gfz2015fsjj  -0.75770
