# Nsamples: 42  MAD:  0.481  mean: -0.209  variance:  0.460
gfz2010grjd  -1.58020
gfz2010iull  -0.48880
gfz2010mkuu  -0.02000
gfz2010nmpc  -0.55440
gfz2011aatr  -1.04890
gfz2011enva  -0.19370
gfz2011hlsa   0.44280
gfz2011lcxq  -0.48660
gfz2011lzwj  -0.93390
gfz2011rewa   0.02080
gfz2011toub  -0.83840
gfz2011wxfs  -0.53680
gfz2012enno  -0.14540
gfz2012jlox  -0.28150
gfz2012kkup  -0.28060
gfz2012klhx   0.12230
gfz2012kudo   0.54720
gfz2012ldxg  -0.12110
gfz2012vrgb  -0.28110
gfz2012wypz  -0.52910
gfz2013jkut  -0.38050
gfz2013kdeo   0.92910
gfz2013nwdi  -1.30810
gfz2013pfbx  -0.90210
gfz2013svci  -0.33200
gfz2014bwue  -0.90780
gfz2014fgvi  -0.80090
gfz2014fhla   1.91690
gfz2014ftka   0.62730
gfz2014fval  -0.00570
gfz2014gkgf  -0.69230
gfz2014gkqf  -0.02590
gfz2014gltx  -0.36120
gfz2014gmhr   1.42420
gfz2014gmnb  -0.27400
gfz2014goba   0.96710
gfz2014gull  -0.47590
gfz2014gumd   0.11180
gfz2014qqhm   0.06120
gfz2014ssvz   0.07240
gfz2015cyjd  -0.62600
gfz2015lhjy  -0.58820
