# Nsamples: 45  MAD:  0.648  mean: -0.237  variance:  0.468
gfz2010grjd  -0.99320
gfz2010iull  -0.54280
gfz2010nmpc   0.23430
gfz2011aatr  -0.24820
gfz2011enva  -0.73750
gfz2011hlsa   0.51270
gfz2011lcxq  -0.66170
gfz2011lzwj  -0.59320
gfz2011rewa  -0.71020
gfz2011toub  -0.90650
gfz2011wxfs  -0.57630
gfz2012enno   0.08900
gfz2012jlox  -0.38320
gfz2012kkup   0.05830
gfz2012kudo  -0.56130
gfz2012ldxg   0.03770
gfz2012ldzj   1.33150
gfz2012vrgb   0.41480
gfz2012wypz  -0.37990
gfz2013drxz  -0.76390
gfz2013jkut  -0.00080
gfz2013kdeo   0.12990
gfz2013nkgj   1.36560
gfz2013nwdi   0.55940
gfz2013svci  -0.26550
gfz2014afmx  -0.40380
gfz2014ande  -1.60030
gfz2014bwue  -0.76010
gfz2014fgvi  -0.98270
gfz2014fhla  -0.97560
gfz2014ftka   0.50960
gfz2014gkgf  -0.91600
gfz2014gkqf   0.00670
gfz2014gmnb  -0.26540
gfz2014goba  -0.34790
gfz2014hasj   0.46110
gfz2014jpep  -1.50450
gfz2014nqfm  -0.94520
gfz2014pvch  -0.97850
gfz2014qqhm   0.09040
gfz2014ubwn  -0.25320
gfz2015cyjd   1.20980
gfz2015lhjy  -0.60020
gfz2015mpte   0.37450
gfz2015sfdd   0.80320
