# Nsamples: 60  MAD:  0.523  mean: -0.141  variance:  0.599
gfz2010bowy   0.40620
gfz2010bxxs  -0.15870
gfz2010cqwl  -0.47910
gfz2010usho   0.15680
gfz2011aatr  -0.28430
gfz2011enva  -0.49030
gfz2011gkzt  -2.55580
gfz2011hlqw  -0.39060
gfz2011hlsa  -0.20780
gfz2011lzwj  -0.57940
gfz2011mjom   1.89350
gfz2011rewa  -0.05260
gfz2011toub  -0.54810
gfz2011wxfs  -0.17640
gfz2012enno   0.28950
gfz2012jlox   0.23250
gfz2012kkup  -0.24710
gfz2012klhx  -0.34420
gfz2012kudo  -0.13700
gfz2012ldxg   0.08830
gfz2012sphd  -1.56970
gfz2012ttoa   0.25570
gfz2012vrgb   0.54080
gfz2012wypz  -0.34970
gfz2013drxz   0.05070
gfz2013jkut   0.02070
gfz2013kdeo   0.28120
gfz2013nwdi  -0.83760
gfz2013pfbx  -0.15800
gfz2013svci   0.11200
gfz2014afmx  -0.20140
gfz2014ande  -0.81100
gfz2014bwue  -0.15130
gfz2014fgvi  -0.54980
gfz2014fhla   1.26210
gfz2014fkmr   0.22200
gfz2014ftka   0.44280
gfz2014fval   0.11790
gfz2014gkgf  -0.76900
gfz2014gkqf  -0.14980
gfz2014gltx  -1.38600
gfz2014gmge  -0.19650
gfz2014gmhr   1.62110
gfz2014gmnb  -0.19500
gfz2014goba  -0.74620
gfz2014gsqs   1.76750
gfz2014hasj  -1.44980
gfz2014huaj  -0.60140
gfz2014jpep  -0.27340
gfz2014lxnc  -0.41860
gfz2014nqfm   1.46390
gfz2014pvch  -1.80770
gfz2014qqhm   0.34430
gfz2014ssvz  -0.33330
gfz2015cyjd   0.58200
gfz2015fsjj  -0.59170
gfz2015gckd  -0.26330
gfz2015lhjy  -0.44980
gfz2015mpte   0.41220
gfz2015taml  -0.12340
