# Nsamples: 52  MAD:  0.490  mean: -0.179  variance:  0.759
gfz2010bjeb   0.26080
gfz2010bxxs   0.01050
gfz2010ebhc   0.44970
gfz2010grjd  -0.82230
gfz2010iull  -0.44420
gfz2010nmpc  -0.48750
gfz2011aatr   0.16360
gfz2011dpqx  -0.60980
gfz2011enva  -0.62510
gfz2011hlqw  -0.35210
gfz2011hlsa  -0.36000
gfz2011jplh  -0.24170
gfz2011lcxq  -0.13900
gfz2011lzwj  -0.23110
gfz2011rewa   0.03700
gfz2011toub  -0.19560
gfz2011wxfs  -0.28380
gfz2012enno   0.32960
gfz2012jlox  -0.28240
gfz2012kkcp  -3.92900
gfz2012kkup  -0.20020
gfz2012klhx  -0.19680
gfz2012kuct  -0.51600
gfz2012kudo  -0.40320
gfz2012wypz   0.06400
gfz2013drxz  -0.02570
gfz2013nwdi  -1.66740
gfz2013pfbx  -0.63590
gfz2013svci  -0.31750
gfz2013xsdt  -0.47830
gfz2014bwue  -0.26050
gfz2014fgvi  -0.75570
gfz2014fhla   0.33910
gfz2014frdz   3.16000
gfz2014ftka  -0.58400
gfz2014gkgf   0.09340
gfz2014gkqf  -0.66430
gfz2014gmge  -0.69440
gfz2014gmhr   1.38230
gfz2014gmnb  -0.30250
gfz2014goba   0.40580
gfz2014jjhc   0.30450
gfz2014jpep  -0.79190
gfz2014nqfm  -0.87400
gfz2014ssvz  -0.40850
gfz2014vhld   1.07920
gfz2015chhn   0.30490
gfz2015cyjd   0.70140
gfz2015fsjj  -0.22310
gfz2015lhjy  -0.43210
gfz2015mpte   0.07680
gfz2015taml   0.97690
