# Nsamples: 19  MAD:  0.731  mean: -0.188  variance:  0.911
gfz2012wypz  -0.11150
gfz2013pfbx  -0.58730
gfz2013svci   0.21780
gfz2014ande  -1.68900
gfz2014bwue  -0.39970
gfz2014fgvi  -1.01260
gfz2014fhla   1.88850
gfz2014ftka   0.45880
gfz2014gkgf  -1.97070
gfz2014gkqf   0.08530
gfz2014gmnb  -0.14340
gfz2014lxnc  -0.19940
gfz2014nqfm  -0.83680
gfz2014ubwn  -1.01320
gfz2015berb  -0.06100
gfz2015cyjd   1.84630
gfz2015lhjy  -0.67990
gfz2015mpte   0.29210
gfz2015taml   0.34950
