# Nsamples: 12  MAD:  0.581  mean: -1.253  variance:  1.958
gfz2012wypz  -0.59320
gfz2013suvn  -3.44810
gfz2013svci  -0.20230
gfz2014fgvi  -1.18270
gfz2014fhla   0.21370
gfz2014ftka  -0.72840
gfz2014gkgf  -0.76130
gfz2014gkqf  -0.77760
gfz2014gmnb  -0.96930
gfz2014jjhc  -0.39860
gfz2014jpep  -4.91670
gfz2014lxnc  -1.27570
