# Nsamples: 59  MAD:  0.593  mean: -0.220  variance:  0.990
gfz2010bxxs  -0.26610
gfz2010ebhc  -0.25580
gfz2010grjd   0.10180
gfz2010iull  -0.61800
gfz2010mkuu  -0.25920
gfz2010nmpc  -1.14160
gfz2010usho   0.30220
gfz2011aatr  -0.65850
gfz2011enva  -0.91500
gfz2011hlqw   4.85090
gfz2011hlsa   0.54520
gfz2011lcxq  -0.29850
gfz2011rewa   0.48160
gfz2011toub  -0.64850
gfz2011wxfs  -0.58880
gfz2012enno  -0.33930
gfz2012jlox  -0.39790
gfz2012kkup  -0.06790
gfz2012klhx   1.53580
gfz2012ldxg  -0.45910
gfz2012ldzj  -0.75680
gfz2012teic  -1.15420
gfz2012ttoa   0.80760
gfz2012vrgb  -0.13640
gfz2012wypz  -0.17890
gfz2013drxz  -0.10000
gfz2013jkut   0.12640
gfz2013kdeo  -0.72110
gfz2013ldqb   2.31060
gfz2013nwdi  -0.36260
gfz2013pfbx  -0.78720
gfz2013svci   0.04990
gfz2013uauo   1.14220
gfz2014ande  -1.57620
gfz2014bwue  -0.98180
gfz2014fgvi  -1.01640
gfz2014fhla  -0.91760
gfz2014frdz  -0.30370
gfz2014ftka  -1.35310
gfz2014gkgf   0.21580
gfz2014gkqf  -0.11510
gfz2014gltx  -2.27130
gfz2014gmnb  -0.32620
gfz2014goba  -0.12750
gfz2014gull   0.01410
gfz2014jjhc  -0.20880
gfz2014jpep  -1.34760
gfz2014lgqn  -0.16670
gfz2014lxnc  -0.80620
gfz2014nqfm  -1.02530
gfz2014qlxd  -0.86040
gfz2014qqhm   0.05550
gfz2014ssvz  -0.36500
gfz2014ubwn  -0.28650
gfz2015berb  -1.12660
gfz2015cyjd   0.60740
gfz2015lhjy  -0.27610
gfz2015mpte  -0.36590
gfz2015taml   0.82690
