# Nsamples: 7  MAD:  1.123  mean:  0.995  variance:  0.490
gfz2010grjd   2.04510
gfz2010iull   0.21160
gfz2011aatr   0.01660
gfz2011enva   1.28770
gfz2012kudo   1.59020
gfz2013nwdi   1.29770
gfz2014goba   0.51810
