# Nsamples: 45  MAD:  0.676  mean: -0.218  variance:  1.139
gfz2010bjeb  -0.52160
gfz2010cqwl  -0.00000
gfz2010czps  -0.81100
gfz2010eaoy  -2.08960
gfz2010ecua  -0.46010
gfz2010eisx  -0.80880
gfz2010ekyc   0.12090
gfz2010eltf   0.92060
gfz2010elyc  -0.29430
gfz2010excp  -1.27210
gfz2010exdd   1.17590
gfz2010ffhq  -3.04180
gfz2010fync   0.20700
gfz2010grjd  -0.15640
gfz2010iull   0.28920
gfz2010mkuu  -0.09460
gfz2010nlkh   0.21800
gfz2010nmpc   0.06700
gfz2010nqwo  -0.53180
gfz2010nwef  -1.04250
gfz2010onma  -0.63260
gfz2010rqwj   0.29930
gfz2010usho  -0.28070
gfz2010ustq  -1.53680
gfz2011aatr  -0.50200
gfz2011adjs  -0.93480
gfz2011cykd   0.42380
gfz2011dpqx  -1.01790
gfz2011enva   0.05600
gfz2011gkzt  -1.05760
gfz2011hlqw   1.49420
gfz2011hlsa  -0.56910
gfz2011jplh  -0.05520
gfz2011lcxq   1.21680
gfz2011lzwj  -0.13000
gfz2011mdie   0.00000
gfz2011nrwv   3.67850
gfz2011owvz  -0.52830
gfz2011qvae   0.36610
gfz2011rewa  -0.90710
gfz2011toub  -0.19640
gfz2011vhfi  -2.47400
gfz2011vrhg   0.69280
gfz2011wxfs   0.73220
gfz2011xyxj   0.18890
