# Nsamples: 560  MAD:  0.558  mean:  0.032  variance:  0.882
gfz2010aerk  -0.10870
gfz2010ahqi   0.25840
gfz2010bfzs   0.07570
gfz2010bgth  -1.18570
gfz2010bifb  -2.16870
gfz2010bjeb  -0.07420
gfz2010bowy  -0.12660
gfz2010boxo  -1.09210
gfz2010bxxs   0.11870
gfz2010caft  -0.42480
gfz2010cbkg   0.15440
gfz2010cdbt   0.88190
gfz2010cjqh   1.20960
gfz2010ckzm  -0.78130
gfz2010cnwc  -0.45700
gfz2010cqwl   0.29030
gfz2010czps  -0.00000
gfz2010dejx   0.34390
gfz2010dfru  -0.24980
gfz2010dlgc   0.56320
gfz2010dumm   0.28030
gfz2010eaoy  -0.65480
gfz2010eapn   0.91380
gfz2010eaqy  -0.02090
gfz2010earu  -2.39580
gfz2010easo  -0.43450
gfz2010easu   1.40780
gfz2010eatt   2.59400
gfz2010eavs  -0.25480
gfz2010eawb  -1.03920
gfz2010eawu  -1.17230
gfz2010eaxa  -0.30420
gfz2010eazu   0.24660
gfz2010ebfa  -1.81370
gfz2010ebhc   0.83550
gfz2010ebih  -0.33820
gfz2010ebin   2.30100
gfz2010ebjy  -0.13050
gfz2010ebkj   0.33300
gfz2010ebll  -0.17940
gfz2010ebmb  -1.39480
gfz2010ebmi  -2.82390
gfz2010ebnn  -1.15420
gfz2010ebrm  -0.82130
gfz2010ebvm  -1.41130
gfz2010ebvv   0.52630
gfz2010ebxl   0.99560
gfz2010ebzr   0.66420
gfz2010ecam  -0.38670
gfz2010ecay   0.48800
gfz2010ecbi  -1.18130
gfz2010echc   0.46740
gfz2010echt   0.74800
gfz2010ecua  -0.00000
gfz2010edat   0.27340
gfz2010eday   0.19590
gfz2010edhv   1.10860
gfz2010edvf   0.38150
gfz2010edyi  -0.21800
gfz2010eefo  -0.56030
gfz2010eevu  -0.37960
gfz2010egld   0.32280
gfz2010egmp   0.31290
gfz2010ehft  -0.53130
gfz2010eisx  -3.61900
gfz2010eixj   1.40160
gfz2010ejjg  -0.79340
gfz2010ekyc  -0.53160
gfz2010elhv   0.03980
gfz2010eltf   2.38770
gfz2010elyc   1.57960
gfz2010enzl   0.68080
gfz2010epxj   6.07220
gfz2010eqjg   0.28930
gfz2010eqmu   2.62060
gfz2010erkn   0.30040
gfz2010erna   2.74940
gfz2010erum   0.36700
gfz2010eruy   0.25920
gfz2010erwn  -0.35590
gfz2010eryg   0.07390
gfz2010esid  -0.67040
gfz2010eujm  -0.46930
gfz2010euvl  -1.93980
gfz2010evco   0.73350
gfz2010ewvc   0.61030
gfz2010excp   0.33160
gfz2010exdd  -0.09290
gfz2010exdl   0.04810
gfz2010exhd  -0.04950
gfz2010exhw  -0.28340
gfz2010exno  -1.14030
gfz2010ezax   0.15620
gfz2010ezck   0.58950
gfz2010fcax   0.41080
gfz2010fedq   0.21410
gfz2010ffhq  -0.83550
gfz2010flha  -1.26160
gfz2010flxi   0.20650
gfz2010fpqy  -0.00000
gfz2010fqdu  -0.35940
gfz2010fser  -0.39870
gfz2010ftlm  -0.50790
gfz2010fupn  -1.22150
gfz2010fync   0.22640
gfz2010gcrl  -0.64820
gfz2010gcrp   1.08740
gfz2010glxl  -0.62200
gfz2010grjd  -0.25830
gfz2010gtzt  -0.70140
gfz2010gyqp  -0.38470
gfz2010gzxr  -0.78700
gfz2010hcio  -0.33680
gfz2010hjoc  -0.54390
gfz2010homc   0.13590
gfz2010hptz  -1.19870
gfz2010hrkr   0.09870
gfz2010hxbs  -0.99350
gfz2010iciq  -0.16210
gfz2010iobp  -1.25270
gfz2010iull   0.28020
gfz2010jxbm   0.57510
gfz2010jygz  -0.45710
gfz2010lepw   0.65620
gfz2010lgwy  -0.71780
gfz2010lkcf   0.93610
gfz2010lluj  -0.06750
gfz2010mkuu   0.05540
gfz2010mncc  -0.85170
gfz2010moyw  -0.70110
gfz2010nqwo  -1.71660
gfz2010nsck  -1.27720
gfz2010nubk   0.66680
gfz2010nwef  -0.15640
gfz2010nxsy   0.07800
gfz2010odpb  -0.15100
gfz2010onma  -0.37160
gfz2010pbdz   0.63280
gfz2010pcxi  -0.06770
gfz2010rqwj   0.14470
gfz2010sfee   0.12240
gfz2010swcy   0.36810
gfz2010upfb  -0.38600
gfz2010usho   0.58360
gfz2010ustq   0.75410
gfz2010utcg   0.07360
gfz2010xcij   2.77720
gfz2010xjsj  -0.04250
gfz2010yjev   1.33200
gfz2010yosr   0.26590
gfz2011aatr   0.53970
gfz2011adjs  -1.62080
gfz2011ahfw   0.43710
gfz2011alip   0.50010
gfz2011aqxf   8.56060
gfz2011bgrp  -0.02030
gfz2011ccpw   0.53360
gfz2011cfae  -0.48930
gfz2011cndo  -0.78160
gfz2011cynl  -1.93320
gfz2011cyre   2.63680
gfz2011cyuk   0.47420
gfz2011dbev   0.32110
gfz2011dbig  -0.21200
gfz2011dbon  -0.81100
gfz2011dcqb  -0.28600
gfz2011deaf  -1.20930
gfz2011dpqx  -0.66120
gfz2011eayc  -0.13040
gfz2011eazf  -0.98360
gfz2011ecaj   0.76790
gfz2011edmm   0.67040
gfz2011eltw   5.09620
gfz2011enva  -0.24400
gfz2011eocc   1.11030
gfz2011etje   1.42840
gfz2011fgvr  -0.57590
gfz2011fkbn   0.83450
gfz2011flgj   0.05750
gfz2011fnsw  -0.20870
gfz2011gbmx   0.05490
gfz2011gkzt  -0.62480
gfz2011gzbr   1.36640
gfz2011hbex  -0.07590
gfz2011hebt   0.34280
gfz2011hlqw  -0.01990
gfz2011hlsa  -0.16620
gfz2011hlth  -0.04390
gfz2011jxpl   0.78780
gfz2011knoo   0.24330
gfz2011kxzp   0.09480
gfz2011lcxq   1.25910
gfz2011lhls   0.74070
gfz2011mpme   1.79560
gfz2011nrwc  -0.87730
gfz2011ntkh   0.09460
gfz2011ohcy   0.92570
gfz2011olkk  -0.96220
gfz2011ornx   0.06380
gfz2011rewa   0.15760
gfz2011uphh   0.37540
gfz2011vnza   0.15330
gfz2011wxfs   0.32180
gfz2011wxtk  -0.47020
gfz2011xyxj  -0.09110
gfz2011zklv   0.44490
gfz2011zqhh  -0.64580
gfz2012aqgp  -0.81450
gfz2012bfah   0.35970
gfz2012bfyn   0.12250
gfz2012bpkx  -0.82190
gfz2012bszs  -0.17500
gfz2012byad  -0.04290
gfz2012cgvr  -1.42580
gfz2012cnod  -0.18760
gfz2012cxdn  -1.76460
gfz2012czlw  -0.49890
gfz2012dyyh   0.13430
gfz2012ekda  -0.12280
gfz2012emjg   0.30270
gfz2012enno   0.25360
gfz2012ewgo  -0.48610
gfz2012foeo   0.36610
gfz2012fzfa  -0.14030
gfz2012gkvr   0.41670
gfz2012gomm   0.44660
gfz2012hnul  -0.09510
gfz2012hyaa  -0.07920
gfz2012imay  -0.20000
gfz2012jlox  -0.00000
gfz2012jupx  -1.31380
gfz2012kkup  -0.23990
gfz2012kuct   0.39650
gfz2012kudo  -0.02970
gfz2012kwgo   0.27730
gfz2012lczo   0.72160
gfz2012ldxg  -0.87900
gfz2012ldzj   0.38290
gfz2012minr  -0.38290
gfz2012mvwr  -0.43920
gfz2012mwij   2.03530
gfz2012nojx   0.03960
gfz2012nqnk  -0.96610
gfz2012oazn  -0.27920
gfz2012quso  -0.63100
gfz2012rwov   0.43600
gfz2012sphd   1.17890
gfz2012teic   0.26250
gfz2012uafg   0.35140
gfz2012vrgb  -0.21080
gfz2012vwvd  -1.16880
gfz2012wklq   0.60600
gfz2012wypz   0.54690
gfz2012zitl   5.03910
gfz2013aqaw   1.87070
gfz2013btjm  -0.39290
gfz2013bzzm   0.05730
gfz2013ccnr  -0.29600
gfz2013cdan  -0.75500
gfz2013cvqg   0.00890
gfz2013dofo  -1.22960
gfz2013dojq  -1.04920
gfz2013drxz  -0.35640
gfz2013dspt   0.18780
gfz2013dsrk  -0.47240
gfz2013dvyh  -0.38710
gfz2013egni  -0.42810
gfz2013egpu  -0.09270
gfz2013fiud   0.33450
gfz2013fygc  -0.27940
gfz2013gbst  -0.02530
gfz2013gngz  -0.13880
gfz2013gock   0.16560
gfz2013iayx   0.09540
gfz2013ifpq  -0.14550
gfz2013ikgo  -0.00000
gfz2013inux  -0.15730
gfz2013ippu   0.40620
gfz2013jesk   0.19120
gfz2013jgij  -0.74290
gfz2013jgip  -0.38980
gfz2013jkut  -0.60640
gfz2013jwvc   0.18710
gfz2013kdeo  -0.12620
gfz2013khli  -0.04040
gfz2013ldpc  -0.29910
gfz2013ldqb  -0.12410
gfz2013lyko   0.30520
gfz2013mqmv  -0.62940
gfz2013mwbh  -0.19530
gfz2013ncjp   0.07230
gfz2013nixj  -0.15740
gfz2013nkgj  -0.48290
gfz2013nwdi   1.30640
gfz2013ozrp   1.03940
gfz2013qali   1.14320
gfz2013qmer  -0.54240
gfz2013suvn   1.05920
gfz2013svci  -0.76490
gfz2013tusd   0.72220
gfz2013tvmw  -0.02610
gfz2013vfzp  -0.76080
gfz2013vjjc   0.41930
gfz2013vzbo   0.91260
gfz2013wjmm  -0.26630
gfz2013xsdt   0.25380
gfz2013yctg  -0.31280
gfz2013yqkv   0.14730
gfz2013yyhc  -0.70500
gfz2013zmoc  -1.44510
gfz2014afmx  -0.37800
gfz2014algk  -0.43520
gfz2014ande  -0.06450
gfz2014arpf  -0.67410
gfz2014bagd   0.29540
gfz2014bezu  -0.04250
gfz2014bmta  -0.19530
gfz2014bwue   0.12830
gfz2014bzxy  -0.23250
gfz2014chdv  -1.49450
gfz2014cmwb  -0.48900
gfz2014ctot   0.12860
gfz2014cvxx   0.03590
gfz2014czno  -0.64480
gfz2014czqi  -0.36170
gfz2014czua  -0.09350
gfz2014dffd   0.13970
gfz2014dhxt   0.82440
gfz2014disp  -0.66010
gfz2014duqn  -0.06020
gfz2014ekcr   0.44090
gfz2014enhi   0.52340
gfz2014etqa   0.12070
gfz2014ettc  -0.38450
gfz2014femz  -0.13750
gfz2014fgvi   0.12270
gfz2014fgyo  -0.86410
gfz2014fhdw   0.33910
gfz2014fhla  -0.99090
gfz2014fhrq  -0.31150
gfz2014fhsg   0.22340
gfz2014fhwx  -0.60700
gfz2014fimn   0.65050
gfz2014fjzd  -2.82220
gfz2014fkmr   1.27390
gfz2014fkmx  -0.24160
gfz2014fnyg   0.08390
gfz2014frdz   0.12310
gfz2014frez   0.18880
gfz2014frwh   0.01930
gfz2014ftka  -0.13480
gfz2014ftoc   0.36890
gfz2014ftpw  -0.05720
gfz2014ftrk  -0.67680
gfz2014furx   0.55870
gfz2014fusj  -0.33910
gfz2014fuub  -0.88120
gfz2014fval   0.82100
gfz2014fvgh  -0.05740
gfz2014fvrg   0.04680
gfz2014gbcz  -0.33110
gfz2014gbdq   0.63800
gfz2014ghpe  -0.12230
gfz2014gkgf   0.92570
gfz2014gkhp   3.54140
gfz2014gkhy   0.85620
gfz2014gkjl  -0.27220
gfz2014gkjt  -0.33940
gfz2014gkmm  -0.56830
gfz2014gkob  -0.10320
gfz2014gkpj   0.81030
gfz2014gkqf   0.47820
gfz2014gkqu   0.03820
gfz2014gktq   0.60760
gfz2014glcu  -0.13500
gfz2014gltx   0.38190
gfz2014gmci   0.19060
gfz2014gmge  -0.42160
gfz2014gmhr  -0.11310
gfz2014gmip   0.78080
gfz2014gmjo   0.56310
gfz2014gmku   0.70720
gfz2014gmlz  -0.21380
gfz2014gmnb  -0.00360
gfz2014gmnw   0.13970
gfz2014gmor  -0.48300
gfz2014gmpy  -0.42700
gfz2014gmuk   0.09280
gfz2014gmzl  -0.00000
gfz2014gnfd  -0.12420
gfz2014gngg   0.01620
gfz2014gnnt   0.33770
gfz2014gnre   0.66450
gfz2014goba  -0.30930
gfz2014goqw   0.17240
gfz2014gori   0.54000
gfz2014gpce  -0.89930
gfz2014gphr  -0.15060
gfz2014gpuk  -0.86810
gfz2014gpya  -0.24680
gfz2014gqbj   0.18080
gfz2014gqer   0.16930
gfz2014gqve  -0.10650
gfz2014gsqs   0.65920
gfz2014gull   0.54330
gfz2014gvqj  -0.19040
gfz2014gvra  -0.41940
gfz2014gvrd  -1.99350
gfz2014gwab   3.53430
gfz2014gxkh  -0.17620
gfz2014gxxo  -0.43880
gfz2014hagb   1.39120
gfz2014hasj   0.27120
gfz2014hbqb   0.10760
gfz2014hfad   0.29360
gfz2014hgqo   0.32670
gfz2014hjgh  -0.10750
gfz2014hjgr   0.07890
gfz2014hjij   0.13860
gfz2014hjlx   0.76200
gfz2014hkcf   0.43680
gfz2014hocg   0.29750
gfz2014hphw  -0.34450
gfz2014hqxs   0.04140
gfz2014hrft  -0.31390
gfz2014huaj   0.82780
gfz2014hzfw   1.29090
gfz2014hzgn   0.99850
gfz2014ifue   0.23400
gfz2014imnn   0.04620
gfz2014iobd  -0.37210
gfz2014irci  -1.81500
gfz2014isys  -0.23170
gfz2014itkw  -0.12160
gfz2014itpj   0.09470
gfz2014iuhq   0.43830
gfz2014jcmt   0.73520
gfz2014jfis  -0.14600
gfz2014jjhc   0.97180
gfz2014jjln   0.09560
gfz2014jnyv  -0.04010
gfz2014jomw   0.21550
gfz2014jpep  -0.04130
gfz2014jwmh  -0.11490
gfz2014kbuk  -0.66670
gfz2014khan  -0.03530
gfz2014kkhh   0.86630
gfz2014kndc   0.26690
gfz2014kwrg  -0.41720
gfz2014kyan   0.29490
gfz2014lkyf   0.09060
gfz2014lrzx  -0.55200
gfz2014lxnc   0.44560
gfz2014lyhk  -0.02380
gfz2014macx   0.20850
gfz2014madw  -0.16560
gfz2014npdk   0.49170
gfz2014nqfm   0.66820
gfz2014nrie  -0.17700
gfz2014oinz  -0.39500
gfz2014ppzf  -0.03240
gfz2014pvch  -0.30990
gfz2014qlvc   0.44860
gfz2014qlxd   0.45940
gfz2014qqhm  -0.79550
gfz2014riel   0.26980
gfz2014ssvz  -0.32140
gfz2014tqdo  -0.40740
gfz2014ubwn  -0.31620
gfz2014watn  -0.40770
gfz2014xbyr  -0.35410
gfz2014xjri   0.26070
gfz2014yhhm  -0.22000
gfz2014zlgp  -0.44900
gfz2015apnk  -0.02180
gfz2015aruz  -0.43290
gfz2015atxv  -0.81400
gfz2015berb   0.13340
gfz2015bucr   0.03770
gfz2015chhn  -0.34890
gfz2015chqn   0.34310
gfz2015cxhx  -0.10220
gfz2015cxxk   0.09830
gfz2015cyjd   0.17980
gfz2015czfv  -0.68630
gfz2015dvbn  -0.03580
gfz2015egxq  -0.33720
gfz2015ehpz  -0.70160
gfz2015eiky  -0.90090
gfz2015emtg   0.62300
gfz2015etai   0.10930
gfz2015fbbk  -0.67490
gfz2015fcua   0.51250
gfz2015fjhk   0.70760
gfz2015fkgt   0.44090
gfz2015fsjj   0.12290
gfz2015fvoi   0.24340
gfz2015fwkq  -0.41280
gfz2015fyvk   0.35930
gfz2015gckd   0.18650
gfz2015ggjw   0.52420
gfz2015gjbr   0.40580
gfz2015gmgf  -3.76620
gfz2015hpmk   0.04010
gfz2015imty   0.07870
gfz2015iwqk  -1.25880
gfz2015jmlf  -0.42780
gfz2015jmlu  -0.13460
gfz2015jzcv   0.10570
gfz2015kakw   0.20540
gfz2015kcaa  -0.59010
gfz2015kphk  -0.78430
gfz2015kxxs   0.87800
gfz2015lhjy   0.27380
gfz2015ltii  -0.87250
gfz2015lytv  -0.83510
gfz2015mpte  -0.65740
gfz2015ntpk  -0.01620
gfz2015nuxz  -0.11690
gfz2015nwug  -0.38350
gfz2015okmq  -0.19640
gfz2015oyfl  -0.18780
gfz2015pdri   0.33920
gfz2015poni  -0.79850
gfz2015prlr  -1.29540
gfz2015qpvd   0.04920
gfz2015sfdd   0.31630
gfz2015sfdy  -0.32780
gfz2015sfeo   0.30440
gfz2015sfhz   0.17490
gfz2015sfiq   0.44950
gfz2015sfnb   0.08830
gfz2015sfno  -0.44130
gfz2015sfnv  -0.50380
gfz2015sfqr   1.83730
gfz2015sfrf  -0.34410
gfz2015sfwf  -0.02700
gfz2015sfzm  -0.23010
gfz2015sgad  -0.31570
gfz2015sghq   0.85100
gfz2015sglg   0.34470
gfz2015sgmm  -0.30420
gfz2015sguf   0.42930
gfz2015sgyd   0.51590
gfz2015sitn   0.48980
gfz2015sjbx   0.17880
gfz2015sjgk   0.95820
gfz2015sjoj   0.06950
gfz2015sjvu   0.28390
gfz2015skxu  -0.27930
gfz2015slun   0.01540
gfz2015smym   0.13550
gfz2015snwh   0.29720
gfz2015snyd   0.40090
gfz2015soat   0.43640
gfz2015soxc   0.49470
gfz2015stfy   0.29750
gfz2015svwm   0.33940
gfz2015szcb   0.39050
gfz2015taml   0.70640
