# Nsamples: 19  MAD:  2.068  mean:  1.389  variance:  3.054
gfz2010eaoy  -1.13190
gfz2010eapn  -1.48040
gfz2010eaqx  -2.18610
gfz2010earu   1.66920
gfz2010eavs   1.17400
gfz2010ecvt  -0.93860
gfz2010eisx   3.03360
gfz2010eltf   3.05330
gfz2010elyc   0.32510
gfz2010excp   1.92950
gfz2010exdd   1.63850
gfz2010exdl   0.61070
gfz2010fedq   3.09660
gfz2010rqwj   3.52580
gfz2011adjs   1.58230
gfz2011alwf   1.14780
gfz2011dcqb   3.67660
gfz2013vjjc   2.29390
gfz2015sfdd   3.36830
