# Nsamples: 590  MAD:  0.546  mean:  0.130  variance:  0.833
gfz2010bifb   0.58530
gfz2010bjeb   0.25900
gfz2010bjjx   0.54860
gfz2010bxxs  -0.23860
gfz2010caft   0.09240
gfz2010cqwl   1.40960
gfz2010ctuw  -0.46780
gfz2010czps   0.52920
gfz2010dlgc  -0.23240
gfz2010eaoy  -1.82590
gfz2010eapk   0.37170
gfz2010eapn  -0.71050
gfz2010eaqe  -1.70840
gfz2010eaqx   0.87840
gfz2010eaqy  -0.34250
gfz2010earq   0.65290
gfz2010earu  -1.49430
gfz2010easf   0.28600
gfz2010eask   0.87180
gfz2010easo  -1.12040
gfz2010easu   0.15450
gfz2010eati  -0.28550
gfz2010eato  -0.82150
gfz2010eatt  -2.67010
gfz2010eaty  -0.58910
gfz2010eaul  -1.62660
gfz2010eavd  -0.52810
gfz2010eavs  -0.13850
gfz2010eawb  -1.63640
gfz2010eaxa  -0.06680
gfz2010eaxn   0.06630
gfz2010eayp   0.67480
gfz2010eazu   0.46370
gfz2010ebbd   0.42290
gfz2010ebbx   2.03900
gfz2010ebby   0.47800
gfz2010ebdl  -1.21260
gfz2010ebek  -0.81600
gfz2010ebfa  -1.22820
gfz2010ebfx   0.92460
gfz2010ebgj   1.81550
gfz2010ebhc  -0.47820
gfz2010ebih   0.63730
gfz2010ebin  -0.02020
gfz2010ebiv  -0.23350
gfz2010ebjy  -0.07160
gfz2010ebkj  -0.40930
gfz2010ebkx   0.33580
gfz2010ebla  -0.52620
gfz2010ebmb   0.19420
gfz2010ebnn   0.06180
gfz2010ebrm   0.55360
gfz2010ebsv  -2.15260
gfz2010ebtk  -0.32190
gfz2010ebvm   1.31770
gfz2010ebvv  -0.18030
gfz2010ebwp   0.23280
gfz2010ebxl   1.11700
gfz2010ebzk   0.57630
gfz2010ebzr   0.89100
gfz2010ecam  -0.30360
gfz2010ecay  -0.23670
gfz2010ecbi   0.73910
gfz2010ecfx   0.56150
gfz2010ecgh  -0.53530
gfz2010echc   0.16870
gfz2010ecsp  -0.33160
gfz2010ecua  -0.58060
gfz2010ecvt  -0.12160
gfz2010edat   1.23260
gfz2010eujm   0.77120
gfz2010evjv  -1.88200
gfz2010evkd   0.16520
gfz2010exdd  -0.61320
gfz2010exdl   0.41840
gfz2010exed  -0.29420
gfz2010exel   2.07510
gfz2010exgb  -0.74200
gfz2010exhd  -0.60880
gfz2010exhw  -0.49440
gfz2010exno   0.12580
gfz2010ezck  -0.41980
gfz2010ezwz  -0.11600
gfz2010ezxd  -0.23910
gfz2010faeu   0.13030
gfz2010falm   0.52150
gfz2010fauz   0.35870
gfz2010fcax   0.71010
gfz2010fedq   1.49340
gfz2010ffhq   1.16660
gfz2010fupn   0.37150
gfz2010fuuy  -0.15300
gfz2010fwkk  -0.03760
gfz2010fwpv   1.04570
gfz2010fync  -0.30260
gfz2010fzoi  -0.10160
gfz2010gcrl   0.57760
gfz2010gcrp   0.18320
gfz2010gdld   0.24920
gfz2010gjia  -0.47410
gfz2010glxl  -0.02200
gfz2010grjd   0.67700
gfz2010gymo  -0.09880
gfz2010gyqp  -1.24090
gfz2010gzxr   0.33360
gfz2010hakh  -0.72230
gfz2010hcio  -0.26070
gfz2010hlco  -0.61050
gfz2010hllj  -0.38730
gfz2010hlln   0.43320
gfz2010hlmq  -0.42760
gfz2010hnnf  -0.82010
gfz2010hxgv   0.02060
gfz2010iibf   0.34150
gfz2010imfv   0.93440
gfz2010iobp  -0.17430
gfz2010iphd   0.39830
gfz2010iqfm   0.04340
gfz2010iqnm   0.58960
gfz2010irvf   0.04320
gfz2010isrp   0.08540
gfz2010itpb   0.19960
gfz2010jant  -0.69460
gfz2010jatq   1.02730
gfz2010jhie   1.42570
gfz2010jipf   0.42200
gfz2010jpyj  -0.33070
gfz2010jqxx   0.55800
gfz2010jssh  -0.57780
gfz2010jtal   0.07980
gfz2010jucj   0.49330
gfz2010jxbm  -0.16170
gfz2010kdyc   0.31760
gfz2010liqs   0.06310
gfz2010lkcf  -0.37430
gfz2010lruw   0.14370
gfz2010mdpq   0.96660
gfz2010mgss   0.47410
gfz2010miqn   0.08690
gfz2010mkuu   1.08600
gfz2010moyw  -0.05080
gfz2010mpuy  -0.31210
gfz2010mwdq   0.64880
gfz2010ncrl   0.25610
gfz2010nfsj   0.05590
gfz2010nqwo   0.26530
gfz2010nsck  -1.09910
gfz2010nubk   0.66810
gfz2010nwef   0.13730
gfz2010nxsy  -0.31050
gfz2010nxum   0.02080
gfz2010ocxq  -0.02980
gfz2010okdm   1.05520
gfz2010onma  -0.16510
gfz2010osjs  -0.34340
gfz2010oyqy   0.28150
gfz2010pcxi   0.36470
gfz2010pewa  -0.16820
gfz2010pewx  -0.05900
gfz2010pexf   0.52370
gfz2010phvg  -0.68300
gfz2010plbg   1.13930
gfz2010pmqd   0.25180
gfz2010qitd   0.36920
gfz2010qjst   0.57430
gfz2010qpcq   0.69170
gfz2010qpum  -0.05560
gfz2010rkfp   0.96360
gfz2010rlbv   3.44990
gfz2010rqwj  -1.84800
gfz2010rxjw  -1.90710
gfz2010sfee  -0.05280
gfz2010sfla   0.08830
gfz2010skqo   0.16010
gfz2010srdb   0.02610
gfz2010svtn   0.60750
gfz2010swcy   0.43550
gfz2010sxwt   6.97390
gfz2010szde   1.11960
gfz2010tcbr   0.26510
gfz2010tcrl  -1.52350
gfz2010tlfm   0.93870
gfz2010truw   0.04440
gfz2010upfb  -0.71020
gfz2010upiw  -1.23430
gfz2010usho   0.67790
gfz2010ustq   0.09210
gfz2010utcg   0.04880
gfz2010utmc   0.31090
gfz2010uyhb  -0.95470
gfz2010veri  -0.60930
gfz2011csju   0.00000
gfz2011cvfg  -0.96270
gfz2011cykd   0.60810
gfz2011cynl   0.11700
gfz2011cyuk   0.42410
gfz2011dbev   0.95850
gfz2011dbig  -0.08890
gfz2011dbon   0.39530
gfz2011dcqb  -1.59770
gfz2011dcqf  -0.18900
gfz2011dpqx   0.73160
gfz2011ecaj  -0.15840
gfz2011fgvr   1.69140
gfz2011flgj  -4.82040
gfz2011fnsw   0.09360
gfz2011gbmx   0.17130
gfz2011gcwb   2.28000
gfz2011gkzt  -0.29500
gfz2011hbex  -0.15010
gfz2011hfkj   0.81880
gfz2011hlqw   0.67820
gfz2011hlsa   0.39280
gfz2011hlth   1.35130
gfz2011hpgx   0.43760
gfz2011hpqp   0.67760
gfz2011iwte   0.04490
gfz2011jghb   2.03660
gfz2011jplh   0.65840
gfz2011jtlg  -0.33800
gfz2011jxpl  -4.19340
gfz2011knoo  -0.03330
gfz2011kqwo  -0.29540
gfz2011kqyg   0.88910
gfz2011kwjx   1.80980
gfz2011kwkw   0.06470
gfz2011kwqc   0.61020
gfz2011kxzp   0.16020
gfz2011lcxq   0.14740
gfz2011lzwj   1.38640
gfz2011mdie   0.13900
gfz2011mllx  -0.16060
gfz2011mpme   0.37260
gfz2011mprq  -0.17240
gfz2011nmnq  -0.36230
gfz2011noud   0.24610
gfz2011ntkh   0.70870
gfz2011orgn   0.42000
gfz2011ornx   0.16260
gfz2011owvz  -0.12760
gfz2011ozsl  -0.12280
gfz2011pccd   0.31760
gfz2011wcic  -0.03250
gfz2011wxfs   0.83780
gfz2011wxtk  -0.39810
gfz2011xcpv   0.46300
gfz2011xyxj  -0.28220
gfz2012cqnl   0.61550
gfz2012cxdn   0.45540
gfz2012fbfo  -0.88220
gfz2012fzfa  -0.12180
gfz2012hnul  -0.87820
gfz2012hnuw   1.67560
gfz2012ilvn  -0.03910
gfz2012intn  -0.91740
gfz2012jlox   0.32110
gfz2012jshk   1.64340
gfz2012jupx  -0.18770
gfz2012keor   2.93950
gfz2012kkup   0.41550
gfz2012klba  -0.43690
gfz2012kuct   0.51000
gfz2012kudo   0.71930
gfz2012kwgo  -0.08300
gfz2012lczo   0.17210
gfz2012ldzj   0.76400
gfz2012lxkv  -0.07600
gfz2012minr  -0.06900
gfz2012mpvy   0.24430
gfz2012mupa  -0.10110
gfz2012mwij   0.32230
gfz2012naqz  -0.62490
gfz2012nedn   1.01460
gfz2012ngic   0.03290
gfz2012ntzv   2.19570
gfz2012nxog   0.20380
gfz2012oazn  -0.10520
gfz2012obgw  -0.09650
gfz2012omvo  -0.41170
gfz2012pciw  -0.13040
gfz2012pgcl  -0.36020
gfz2012pkel   0.92060
gfz2012quso  -1.63620
gfz2012royy  -0.43320
gfz2012rwko   0.77800
gfz2012rwov   0.03200
gfz2012syvl   0.47790
gfz2012thfx  -0.58480
gfz2012ttoa   0.45060
gfz2012tvmv   0.21810
gfz2012tzcc   0.29080
gfz2012uafg  -0.10730
gfz2012uciv   0.09650
gfz2012uqzp   0.06250
gfz2012uvqf  -0.23910
gfz2012uyxb   0.13380
gfz2012uzom   0.91900
gfz2012vceo  -0.21200
gfz2012vsev   1.17050
gfz2012whku   0.40390
gfz2012wklq  -1.01360
gfz2012wvfl   0.42330
gfz2012wxlg  -0.67950
gfz2012wypz   1.17310
gfz2012xbjq   0.10140
gfz2012xslk  -0.75060
gfz2012zitl  -0.10000
gfz2013apmm  -0.55630
gfz2013bnxc   0.40080
gfz2013bokp   0.54350
gfz2013ccnr  -0.15630
gfz2013cdan  -0.20750
gfz2013cvqg   0.33920
gfz2013dofo  -0.04020
gfz2013drxz   0.13300
gfz2013egni   0.04460
gfz2013egpu   4.16220
gfz2013figy  -1.20070
gfz2013fiud   0.28410
gfz2013fkii   0.09240
gfz2013fwxa   0.83940
gfz2013fygc   0.18390
gfz2013gdgf   0.77850
gfz2013gdnq   0.34520
gfz2013hbkh  -2.83480
gfz2013hfmp  -0.15090
gfz2013ijsr   0.20260
gfz2013ippu  -0.06100
gfz2013iunn   0.84460
gfz2013jesk  -0.21110
gfz2013jgij   0.78890
gfz2013jgip  -0.35290
gfz2013jusj   1.68860
gfz2013kccc   2.46260
gfz2013kdeo   1.83170
gfz2013kheb  -0.37020
gfz2013ldpc   0.14400
gfz2013ldqb   0.06210
gfz2013lixa   0.35610
gfz2013lyko   0.36630
gfz2013mwbh  -0.21380
gfz2013ncjp  -0.11740
gfz2013nixj   0.08860
gfz2013nkgj   1.15770
gfz2013nmac  -0.18680
gfz2013nqgw  -0.96430
gfz2013pcos   0.25070
gfz2013pfbx   0.17000
gfz2013pfeb   0.74180
gfz2013puag   0.06300
gfz2013pxsj   0.07910
gfz2013qmer   0.38970
gfz2013qnxc  -0.02130
gfz2013sfds   0.06760
gfz2013sfto   0.02610
gfz2013suvn   0.78230
gfz2013svci   0.81280
gfz2013tcxc   0.22460
gfz2013tcxq   0.53220
gfz2013tdau   0.48130
gfz2013tlaf   0.23930
gfz2013tusd   0.90610
gfz2013tvmw   0.05470
gfz2013twwf   0.76630
gfz2013txtb   0.20680
gfz2013tyas   1.60760
gfz2013uqsp   0.32040
gfz2013uuzn   0.08980
gfz2013vfyw   0.34920
gfz2013vfzp   1.92020
gfz2013vgev  -0.23620
gfz2013viul   0.49700
gfz2013vjjc  -1.92120
gfz2013vvrq   0.45510
gfz2013vzbo   0.77680
gfz2013wjmm   0.16330
gfz2013wtzl   0.29280
gfz2013xsdt   0.65240
gfz2013xxxq   0.24980
gfz2013yctg  -0.11560
gfz2013yqkv   0.21560
gfz2014adoj   1.25830
gfz2014afmx   0.69630
gfz2014bagd  -0.68920
gfz2014czqi   0.78050
gfz2014disp  -0.72500
gfz2014ekcr  -1.50210
gfz2014enhi  -1.90610
gfz2014fgvi   0.75450
gfz2014fgza   1.91590
gfz2014fhla  -0.12480
gfz2014fnyg  -5.14540
gfz2014ftka   0.34740
gfz2014gbcz   0.41770
gfz2014gbdq  -2.48690
gfz2014ghpe   1.29660
gfz2014gkgf  -0.18770
gfz2014gkqf   1.11090
gfz2014gmge   0.64090
gfz2014gmhr  -0.10390
gfz2014gmnb   1.38390
gfz2014goba   1.85700
gfz2014gpya   0.47900
gfz2014gqve   0.50420
gfz2014gsqs   1.19590
gfz2014gull   1.13440
gfz2014gwab   1.89770
gfz2014gxxo   0.36690
gfz2014hasj   0.35050
gfz2014hauo   0.56790
gfz2014hcmj   0.46610
gfz2014hgqo   0.32310
gfz2014hjgr   1.08690
gfz2014hmrs   0.14210
gfz2014hnfm  -0.96490
gfz2014hocg   0.52640
gfz2014hyal  -0.06280
gfz2014hzfw   0.81650
gfz2014iava   0.07840
gfz2014ikun   0.19750
gfz2014ilwu   0.61170
gfz2014isys   0.31790
gfz2014jjhc   0.40660
gfz2014jlwb  -0.01700
gfz2014jnyv   0.08740
gfz2014jpep   1.04160
gfz2014jwmh  -0.51550
gfz2014khlk   0.62350
gfz2014kjjq  -4.19770
gfz2014knxs   0.01300
gfz2014krlg   1.05390
gfz2014kyan   0.33670
gfz2014kzzm   0.00000
gfz2014ldhu  -0.55130
gfz2014lefs  -1.06300
gfz2014lkyf  -0.09820
gfz2014lnmw   0.40240
gfz2014lpim   0.15790
gfz2014lyhk   1.03720
gfz2014lynp  -1.02170
gfz2014lzow  -0.25310
gfz2014nkdx   0.09750
gfz2014nowp  -0.73790
gfz2014npeo  -0.41210
gfz2014nphm   0.14440
gfz2014nqbs   0.99880
gfz2014nqfm   1.08770
gfz2014nylm   0.15090
gfz2014oinz   0.60180
gfz2014oxcc   0.24730
gfz2014pjer   0.13090
gfz2014pkll   0.68840
gfz2014ppzf  -0.04330
gfz2014pqqp   1.36870
gfz2014pqrc  -0.42180
gfz2014pvch   0.06390
gfz2014qlxd   1.33320
gfz2014qngj  -0.77640
gfz2014raau   0.31310
gfz2014riel   0.48890
gfz2014rkwl  -0.02100
gfz2014sptq  -0.20770
gfz2014sryn  -0.03900
gfz2014ssmv   0.25680
gfz2014ssvz  -0.55500
gfz2014tqdo   0.62180
gfz2014uvrk   0.17890
gfz2014watn   0.44460
gfz2015abpw  -0.13150
gfz2015aruz   0.23290
gfz2015berb   0.80710
gfz2015chhn  -0.07790
gfz2015cxxk  -0.02680
gfz2015cyjd   0.00660
gfz2015dvbn   0.49460
gfz2015egxq  -0.13760
gfz2015fcua  -0.78470
gfz2015fkgt  -0.64650
gfz2015fsjj   1.21270
gfz2015fxdi   0.45190
gfz2015gckd   1.69800
gfz2015gjbr  -0.32090
gfz2015guhd   0.34680
gfz2015hepg   0.58060
gfz2015hgbk   0.99630
gfz2015idho  -2.26800
gfz2015ixyy  -0.13860
gfz2015jkdw  -0.38650
gfz2015jpap  -3.31970
gfz2015jwgl   0.26080
gfz2015jxbx   0.19880
gfz2015jzcv   0.73600
gfz2015kkth  -0.21340
gfz2015ksni   0.50500
gfz2015lcma  -0.41940
gfz2015lfud   0.01650
gfz2015lhjq   0.76360
gfz2015lhjy   0.73610
gfz2015lytv  -0.98500
gfz2015nerz   1.51550
gfz2015ntpk  -0.28870
gfz2015nuxz  -0.04140
gfz2015nwug   0.54970
gfz2015ocdz   0.82160
gfz2015okmq  -0.32490
gfz2015orkl   0.26330
gfz2015oyfl   0.44910
gfz2015poni   0.14420
gfz2015puqp  -1.15850
gfz2015qnho   0.19490
gfz2015qnto   0.64140
gfz2015rkrg   0.76600
gfz2015rpzn  -0.00000
gfz2015rxmg   0.64720
gfz2015sfdd   0.16610
gfz2015sfdl  -0.40220
gfz2015sfdv   0.34190
gfz2015sfdy  -0.57590
gfz2015sfeo   0.09170
gfz2015sffn  -0.12170
gfz2015sfga   0.00000
gfz2015sfhz  -1.02910
gfz2015sfiq  -0.96780
gfz2015sfjf   2.34100
gfz2015sfkh  -0.14340
gfz2015sfko   0.31290
gfz2015sfkz   0.03000
gfz2015sflf  -0.20330
gfz2015sfln   0.60450
gfz2015sfmd   2.03400
gfz2015sfno  -0.40890
gfz2015sfnv   0.14360
gfz2015sfoc   0.03360
gfz2015sfoh   0.02090
gfz2015sfpj  -0.23510
gfz2015sfps   0.54310
gfz2015sfqo   0.20120
gfz2015sfqr   0.11640
gfz2015sfte   0.17280
gfz2015sftu  -0.53360
gfz2015sfwf   0.45850
gfz2015sfxn  -0.13390
gfz2015sfzm   0.30520
gfz2015sgad  -0.52110
gfz2015sgmr   0.19300
gfz2015sgyd   0.40200
gfz2015shaq  -0.13960
gfz2015shel   0.48120
gfz2015shhg  -0.17560
gfz2015shhu  -0.06240
gfz2015shjn  -0.09120
gfz2015shrg  -0.15520
gfz2015shsz   1.33610
gfz2015sicf  -0.01420
gfz2015siky   0.07420
gfz2015sist  -0.71090
gfz2015sitn  -0.19290
gfz2015siyy   0.20460
gfz2015sjbx   0.00880
gfz2015sjgk  -0.85250
gfz2015sjjb   0.60470
gfz2015sjne   0.27730
gfz2015sjoj  -0.09550
gfz2015sjpn  -0.20310
gfz2015sjvu  -0.00000
gfz2015sjwi  -0.43550
gfz2015skxu  -0.16250
gfz2015sldx   0.28350
gfz2015sljs  -0.22520
gfz2015slun  -0.07320
gfz2015smym  -0.65590
gfz2015snmr  -0.76360
gfz2015snsf   0.17510
gfz2015snwh  -0.33660
gfz2015snyd   0.14110
gfz2015soat   0.31930
gfz2015soxc  -0.07270
gfz2015susq   0.22730
gfz2015svjy   0.10750
gfz2015svwm   0.01970
gfz2015sxmh  -0.91560
gfz2015sxxu  -0.18630
gfz2015szcb  -0.28010
gfz2015szfe  -0.37760
gfz2015szfq   0.01970
gfz2015sztx   1.04960
gfz2015taml   0.74710
gfz2015tbdn   0.32560
gfz2015tdcu  -0.55690
gfz2015teje   0.13710
