# Nsamples: 1021  MAD:  0.883  mean: -0.005  variance:  2.679
gfz2010aban  -2.51940
gfz2010aerk  -0.74490
gfz2010ahla   4.77900
gfz2010ahqi   0.12350
gfz2010aphp  -0.57650
gfz2010aykj  -0.18860
gfz2010bedu   0.04550
gfz2010bfzs   1.57730
gfz2010bgth   1.63780
gfz2010bhhq   5.96400
gfz2010bifb  -0.09080
gfz2010bjeb   0.59330
gfz2010bjjx  -0.11800
gfz2010bjsl   0.32370
gfz2010bkob  -0.90100
gfz2010bkos  -0.49410
gfz2010boxo  -4.46360
gfz2010bxxs  -1.53750
gfz2010caft  -1.00490
gfz2010cbkg  -0.66770
gfz2010cdbt  -0.17510
gfz2010chnv  -3.35010
gfz2010cind  -0.69510
gfz2010civi   1.49040
gfz2010cjqh   6.06590
gfz2010cjrf  -1.98240
gfz2010ckeu   1.77500
gfz2010ckzm   1.25840
gfz2010cptb  -0.40630
gfz2010cqwl  -0.52410
gfz2010cres  -0.74870
gfz2010ctuw   2.49660
gfz2010czps   2.34520
gfz2010dfru   0.19200
gfz2010diqn   1.26420
gfz2010dlgc  -0.85190
gfz2010esmg   0.59440
gfz2010etfw  -2.01350
gfz2010euae  -1.55710
gfz2010euan  -0.63300
gfz2010euii   0.06760
gfz2010eujm   0.33500
gfz2010euvl   1.57170
gfz2010euxe  -0.02860
gfz2010evco  -1.52480
gfz2010evgf  -0.07840
gfz2010evjv   0.29180
gfz2010evkd   0.82080
gfz2010ewpq  -1.43010
gfz2010ewvc   0.66480
gfz2010ewyu  -2.60900
gfz2010excp   0.68160
gfz2010exdl  -0.40500
gfz2010exed   0.18010
gfz2010exel  -0.73980
gfz2010exgb  -0.80100
gfz2010exhd   1.59650
gfz2010exhw   1.21030
gfz2010exlm   0.27410
gfz2010exmc  -0.25390
gfz2010exno   0.03580
gfz2010exsg   0.74030
gfz2010exyp   0.16420
gfz2010eyaz  -0.56830
gfz2010eybj  -1.67760
gfz2010eyhh  -1.54890
gfz2010eyiv  -1.08860
gfz2010eymx   1.29400
gfz2010eyqe   0.05290
gfz2010eyxe   0.11010
gfz2010ezck   1.78190
gfz2010ezig  -0.12200
gfz2010ezjk  -3.58510
gfz2010ezuj   1.05360
gfz2010ezvg   0.41400
gfz2010ezwz   0.51180
gfz2010ezxd   0.69900
gfz2010faeu  -2.66620
gfz2010falm  -0.59610
gfz2010fauz  -1.17420
gfz2010faxg   0.14120
gfz2010fbeu   1.09330
gfz2010fbpi  -1.60090
gfz2010fcax  -1.18980
gfz2010fciw  -0.29660
gfz2010fcnn   0.93730
gfz2010fcnt  -1.82420
gfz2010fcxy  -0.42820
gfz2010fcyj   0.38480
gfz2010fczt  -1.32930
gfz2010fdab  -0.03880
gfz2010fdxr  -1.19220
gfz2010fedq   0.69010
gfz2010fefr   1.58480
gfz2010ffhq   0.19010
gfz2010ffjb   0.04250
gfz2010ffui  -1.28050
gfz2010fhbl  -1.17150
gfz2010figq  -0.32540
gfz2010fihj   3.11950
gfz2010fika   0.28490
gfz2010fisf   0.06400
gfz2010fjal  -2.64170
gfz2010fjas   0.43780
gfz2010fjni  -2.16890
gfz2010fkhd   3.66790
gfz2010fkia  -1.51770
gfz2010fknh  -0.91090
gfz2010fkvg  -1.55640
gfz2010floi   0.51320
gfz2010flrt  -1.24820
gfz2010flxi  -0.44330
gfz2010fmhb  -2.44000
gfz2010fmip  -1.13130
gfz2010fmwb  -1.09360
gfz2010fneu  -1.09310
gfz2010fobc  -0.18590
gfz2010fona  -0.17390
gfz2010fpmv  -1.26020
gfz2010fpqy  -0.52800
gfz2010fqdu   1.74670
gfz2010fqtj   1.15350
gfz2010fser  -0.53270
gfz2010fsth  -1.44390
gfz2010ftlm   0.89410
gfz2010ftsx  -0.53870
gfz2010fupn   0.43180
gfz2010fuuy   0.14020
gfz2010fvuc  -0.49380
gfz2010fwkk  -0.62120
gfz2010fwlb   0.54350
gfz2010fwny  -0.54750
gfz2010fwpv   0.98520
gfz2010fwzd  -0.77140
gfz2010fyed  -0.53950
gfz2010fyen  -0.26870
gfz2010fync  -0.08570
gfz2010fzsg   3.44020
gfz2010fzyt  -1.68020
gfz2010gcdn  -2.36360
gfz2010gcrl  -0.88830
gfz2010gcrp   0.89950
gfz2010gdch  -0.06510
gfz2010gdld  -0.23070
gfz2010ghyk  -0.65450
gfz2010ginm   0.15690
gfz2010gjvo   0.83300
gfz2010glqr  -1.41600
gfz2010glxl  -0.92890
gfz2010gmib  -1.29230
gfz2010govu   1.15130
gfz2010grjd  -2.97690
gfz2010grss  -1.52300
gfz2010gslu  -0.72810
gfz2010gtzt  -1.40390
gfz2010gvya   0.03140
gfz2010gymo  -4.34630
gfz2010gyqp  -0.53510
gfz2010gzxr  -1.58810
gfz2010hakh  -1.21120
gfz2010hbka  -0.00000
gfz2010hcio   1.74930
gfz2010hevz   0.91620
gfz2010hhls  -1.09910
gfz2010hjoc  -1.11760
gfz2010hlco  -0.47830
gfz2010hllj  -2.19110
gfz2010hlmq  -0.90040
gfz2010hlvr   0.42300
gfz2010hndk   1.64970
gfz2010hnnf  -0.55300
gfz2010hnpi  -1.43300
gfz2010hnzr  -1.75470
gfz2010homc   3.11980
gfz2010hptz  -0.29720
gfz2010hrkr   2.24220
gfz2010hrpr   1.43740
gfz2010htdq   0.18880
gfz2010hufk   1.53870
gfz2010hxgv   1.05740
gfz2010hzar  -0.83470
gfz2010iauj  -0.34750
gfz2010ibiy  -2.05340
gfz2010icqq  -0.05940
gfz2010iefy   1.15550
gfz2010ihrq  -1.33250
gfz2010iibf  -1.11780
gfz2010iimu  -0.57670
gfz2010imfv  -0.06610
gfz2010iobp   1.83120
gfz2010iphd   0.40190
gfz2010ipsg  -0.20950
gfz2010iqep   0.14040
gfz2010iqnm  -0.63950
gfz2010iqus  -6.75090
gfz2010irqr  -2.50370
gfz2010irvf  -0.21480
gfz2010isrp  -0.25540
gfz2010itpb  -0.48600
gfz2010iull  -2.12320
gfz2010ixyc   3.32220
gfz2010jagd   0.22400
gfz2010jant  -0.85290
gfz2010jatq  -1.87980
gfz2010jhie  -0.10560
gfz2010jipf   3.30910
gfz2010jitt  -2.44770
gfz2010jlhj  -0.64490
gfz2010jpyj   0.53920
gfz2010jssh   0.29170
gfz2010jsuh   2.74420
gfz2010jsuo   0.75940
gfz2010jtal   0.40730
gfz2010jucj   0.04010
gfz2010jwpy   0.07640
gfz2010jxbm  -0.97120
gfz2010jygz   1.93920
gfz2010jzku  -1.78970
gfz2010kcoo  -1.27500
gfz2010kdyc  -0.48820
gfz2010kgws   0.12030
gfz2010kihf   1.41970
gfz2010kown  -0.78670
gfz2010kqyh  -0.10080
gfz2010kyvj  -0.30670
gfz2010lcoq   0.20290
gfz2010lgwy  -0.26340
gfz2010liqs  -0.47630
gfz2010lkcf  -0.09840
gfz2010lluj   2.13480
gfz2010lopz  -0.53610
gfz2010lrlk   0.25880
gfz2010lruw  -0.03450
gfz2010lwuq   4.96050
gfz2010lyfk  -0.38810
gfz2010mant  -0.20480
gfz2010mbje  -0.42080
gfz2010mcrx  -0.19980
gfz2010mdpq   0.32440
gfz2010mfpt  -2.48850
gfz2010mgss   0.32270
gfz2010mipi   0.43670
gfz2010miqn  -0.49760
gfz2010mkuu  -2.74370
gfz2010mlta   0.67930
gfz2010mncc  -0.80860
gfz2010mnhm  -0.17390
gfz2010moyw  -0.54530
gfz2010mpuy  -0.07980
gfz2010msjj  -0.95240
gfz2010mtab  -0.30170
gfz2010muca  -2.20120
gfz2010mwdq  -0.78890
gfz2010ncrl   0.07540
gfz2010nfsj  -0.56650
gfz2010nmpc  -1.26880
gfz2010nnny  -0.64960
gfz2010nqwf   0.70300
gfz2010nqwo   1.34110
gfz2010nrew   0.37120
gfz2010nrjo  -0.02150
gfz2010nsck   0.23070
gfz2010nsdf  -0.75080
gfz2010nsfx  -1.57670
gfz2010nsjs   0.00000
gfz2010ntuo  -0.07750
gfz2010nubk  -1.43940
gfz2010nwef   0.08050
gfz2010nxum  -0.71410
gfz2010ocxq  -0.41650
gfz2010odpb   0.53890
gfz2010oedn   0.43840
gfz2010okdm  -0.19300
gfz2010oluw  -0.18710
gfz2010omla   0.83060
gfz2010onma  -1.15330
gfz2010osjs   0.85300
gfz2010osqo  -0.40210
gfz2010oyqy   2.83060
gfz2010pcxi  -0.16920
gfz2010pdtk  -0.49180
gfz2010pewa  -1.80520
gfz2010pewx  -0.61400
gfz2010pexf  -0.72730
gfz2010pfyu   2.66250
gfz2010phvg   0.09800
gfz2010plbg  -0.49610
gfz2010pmqd   2.04810
gfz2010pqck   0.90730
gfz2010pxak   4.02240
gfz2010pxgh   0.66150
gfz2010pxls  -0.57440
gfz2010qbng   6.43790
gfz2010qitd  -0.24660
gfz2010qjst  -0.21070
gfz2010qkat  -0.00000
gfz2010qpcq   5.65460
gfz2010qpum  -0.44300
gfz2010qpvi  -0.15320
gfz2010qttw   0.46910
gfz2010qwwx  -1.65410
gfz2010rhas  -0.87900
gfz2010rkfp  -0.58530
gfz2010rlbv  -2.13370
gfz2010rqwj  -0.94660
gfz2010rxjw  -3.74610
gfz2010rywq  -0.11870
gfz2010rzrr   0.16840
gfz2010sfee   0.91790
gfz2010sfla  -0.70460
gfz2010sgzk   0.28340
gfz2010skqo  -0.16690
gfz2010skve  -2.34200
gfz2010srdb  -1.25380
gfz2010svtn  -0.96030
gfz2010svve  -0.04920
gfz2010swcy  -1.30850
gfz2010sxwt  -0.59750
gfz2010sysw   2.83260
gfz2010szde  -16.22260
gfz2010szim  -0.48600
gfz2010tcbr  -2.57540
gfz2010tcrl  -1.89620
gfz2010tlfm  -0.68870
gfz2010truw  -0.65010
gfz2010txjs   0.43140
gfz2010tzzk  -0.26320
gfz2010uouo  -0.00000
gfz2010upfb   1.46240
gfz2010upiw   0.01940
gfz2010usho  -1.00180
gfz2010ustq  -0.24390
gfz2010utcg   0.45630
gfz2010utmc  -0.41680
gfz2010utvp  -0.18850
gfz2010uvhf   0.74580
gfz2010uyhb  -0.19030
gfz2010uzon  -0.12840
gfz2010vbmd   4.52890
gfz2010veri   3.03620
gfz2010vhuj  -2.35990
gfz2010vppc   0.15880
gfz2010vxvs   1.69360
gfz2010vzpr  -0.99770
gfz2010wioh  -0.31910
gfz2010wnty   2.89390
gfz2010wofs   4.20860
gfz2010wrxx  -1.36670
gfz2010xbcr   0.72400
gfz2010xbdv  -16.43050
gfz2010xbgs  -0.54910
gfz2010xcdh  -0.21420
gfz2010xden  -0.08450
gfz2010xgfc  -0.94650
gfz2010xgzw  -1.42760
gfz2010xjck   0.45280
gfz2010xjsj  -0.22390
gfz2010xmpr  -1.00220
gfz2010xnxk  -0.94550
gfz2010xxdb   4.14960
gfz2010xxzn  -0.00000
gfz2010yjev  -6.15450
gfz2010ymfy  -1.38350
gfz2010yosr  -0.44910
gfz2010yqwx   0.82440
gfz2010yzgq   2.56640
gfz2010zdpo   0.88720
gfz2011aatr  -0.25970
gfz2011adjs   0.50610
gfz2011adne  -1.60700
gfz2011adpw  -1.97280
gfz2011adqk   0.59770
gfz2011aeay   0.98990
gfz2011ahfw  -0.20830
gfz2011aldv  -0.53570
gfz2011alip   0.98090
gfz2011alsa  -4.22610
gfz2011alwf  -2.75360
gfz2011anur  -0.94720
gfz2011aosc  -0.37460
gfz2011aqxf  -2.10450
gfz2011asru  -6.62200
gfz2011aupi  -2.40750
gfz2011blsi  -0.45750
gfz2011bswz   0.41120
gfz2011ccpw   2.59430
gfz2011cfae   0.78010
gfz2011cndo  -1.08890
gfz2011coxh  -0.45730
gfz2011crdy  -0.04870
gfz2011csju   2.43790
gfz2011ctbn   2.15030
gfz2011cvcg   1.05920
gfz2011cvfg  -0.00000
gfz2011cwgn  -2.42520
gfz2011cykd   0.21590
gfz2011cylz  -0.36100
gfz2011cynl   0.00000
gfz2011cyre   0.60640
gfz2011cyuk  -0.40800
gfz2011czwj  -2.17940
gfz2011dbev  -0.36610
gfz2011dbig  -0.44830
gfz2011dbli   0.09370
gfz2011dbon   0.06740
gfz2011dbwt  -0.36580
gfz2011dcqb   0.88690
gfz2011dcqf  -3.26380
gfz2011dddh  -1.76120
gfz2011deaf  -1.03360
gfz2011deja   0.76240
gfz2011dkyi  -0.30980
gfz2011dllz  -0.37980
gfz2011dlyx  -1.78820
gfz2011dndz  -0.03310
gfz2011dpaa  -0.46090
gfz2011dpmx  -0.53370
gfz2011dpqx   0.18770
gfz2011dtpy  -0.77470
gfz2011duyr  -2.23860
gfz2011eayc  -0.37430
gfz2011ecaj   0.23650
gfz2011ecsc  -2.03330
gfz2011edmm   2.24790
gfz2011eebc  -1.58270
gfz2011ehzq  -1.09120
gfz2011ejlp  -0.53550
gfz2011ekpr  -2.12040
gfz2011eltw  -0.16850
gfz2011enva  -2.58190
gfz2011eocc  -0.13890
gfz2011etje  -0.92720
gfz2011fgvr  -5.01050
gfz2011fhag  -3.06930
gfz2011fhbm   0.15120
gfz2011fhur   0.82260
gfz2011fkbn  -0.39910
gfz2011flgj  -0.40720
gfz2011fnsw  -0.16390
gfz2011gjlx   0.25940
gfz2011gkey  -1.73380
gfz2011gkzt  -0.05430
gfz2011gzbr   0.88390
gfz2011haid  -1.63770
gfz2011hbex  -0.27960
gfz2011hebt  -0.60360
gfz2011hfkj   0.10690
gfz2011hlsa   0.86110
gfz2011hpgx  -1.39720
gfz2011hpqp  -1.62900
gfz2011hrhu  -1.56070
gfz2011hryk  -0.07720
gfz2011hsfj  -1.05910
gfz2011hvbu  -1.30710
gfz2011icxe  -0.28150
gfz2011iwte  -0.38070
gfz2011izqa   0.16880
gfz2011jbbc   0.03210
gfz2011jmbn  -0.33430
gfz2011jnmi  -0.21280
gfz2011jplh  -0.18790
gfz2011jtlg  -0.39370
gfz2011juid   0.69540
gfz2011knbi   0.06580
gfz2011knoo   1.02260
gfz2011kqwo  -0.42630
gfz2011kqyg  -1.41620
gfz2011ksiu   2.61630
gfz2011lgsg   0.15620
gfz2011lhls   1.44360
gfz2011lzwj  -0.67860
gfz2011mdie   0.11630
gfz2011mpme  -2.78430
gfz2011mprq   0.17220
gfz2011nauw   3.85040
gfz2011nmnq   0.83420
gfz2011nmqj   0.12390
gfz2011noud   1.46490
gfz2011nowp  -0.41070
gfz2011nqpd   0.35980
gfz2011nrwc   2.98230
gfz2011nsex   5.78280
gfz2011ntkh  -0.32480
gfz2011nudm  -0.24790
gfz2011ohcy   1.00250
gfz2011oiwk   0.88450
gfz2011olkk   0.01900
gfz2011oolr  -1.64110
gfz2011orgn  -0.46240
gfz2011ornx  -0.41970
gfz2011ozsl   0.53490
gfz2011pccd   0.53260
gfz2011phms  -2.65010
gfz2011pntf  -1.75010
gfz2011ptus   1.36190
gfz2011qigx  -0.93940
gfz2011qoif   1.63930
gfz2011qvae  -0.48890
gfz2011qyms  -0.22610
gfz2011rabm   0.31870
gfz2011rdby   1.22760
gfz2011rewa   1.10100
gfz2011rgwp  -0.18500
gfz2011rsrh  -0.05390
gfz2011runa  -0.17440
gfz2011rznl   0.75670
gfz2011sagt   1.81570
gfz2011shqm   1.02100
gfz2011stal   1.14010
gfz2011syjd   0.12890
gfz2011taps   2.75510
gfz2011tbas   0.02050
gfz2011tcij   0.95150
gfz2011tivu   1.61500
gfz2011tjrf   1.26380
gfz2011tkog   1.90740
gfz2011toub   0.36190
gfz2011tpfr  -0.12890
gfz2011tsfd  10.04350
gfz2011twov   1.48910
gfz2011udsq  -4.06510
gfz2011ueni  -0.56980
gfz2011ugzz  -3.06380
gfz2011ujze  -0.40680
gfz2011ukmp   0.04120
gfz2011unkx   1.48090
gfz2011uphh  -0.05790
gfz2011urzu   0.99510
gfz2011uzqv   0.39740
gfz2011vclt   0.82960
gfz2011vhfi  -0.34680
gfz2011vkun   0.76770
gfz2011vldk   0.24300
gfz2011vnza  -0.85320
gfz2011vqnr   0.48350
gfz2011vqrj  -0.15820
gfz2011vrhg  -0.43690
gfz2011vxns   0.08970
gfz2011vxod  -0.37940
gfz2011vxxg  -0.27370
gfz2011wcic  -0.63230
gfz2011wfja   0.65110
gfz2011wijj   0.61080
gfz2011wjkf  -0.15260
gfz2011wjul  -0.71230
gfz2011wtmq   0.45370
gfz2011wwjs   0.61240
gfz2011wxfs   0.99780
gfz2011wxoj   1.50930
gfz2011wxtk  -0.81820
gfz2011wype  -0.51540
gfz2011xaan   0.52280
gfz2011xcpv  -0.95570
gfz2011xesx  -0.24950
gfz2011xqru  -0.49410
gfz2011xyxj   0.05430
gfz2011yfdx  -0.46060
gfz2011yfys  -2.36220
gfz2011yhwz   0.96450
gfz2011yybo   0.76290
gfz2011zklv   0.02720
gfz2011zlfg  -0.65820
gfz2011zqhh  -0.93570
gfz2012ablh   1.01780
gfz2012ajtq  -0.94010
gfz2012aqgp  -0.10360
gfz2012aqtq  -0.52720
gfz2012attr  -1.01450
gfz2012bfah  -0.09050
gfz2012bfyn  -0.57290
gfz2012bpkx  -0.46320
gfz2012bpnl  -1.05070
gfz2012bpwl  -0.21050
gfz2012bqeb   0.11430
gfz2012byad   0.31910
gfz2012cbed   0.26000
gfz2012cevz   0.08860
gfz2012cgvr   0.50610
gfz2012cmfy  -0.83620
gfz2012covm  -0.82770
gfz2012cqnl  -0.21760
gfz2012cqtc   1.62100
gfz2012cxdn  -1.29480
gfz2012czlw   1.77370
gfz2012dfhq  -0.09270
gfz2012dimn  -2.05360
gfz2012dinb  -0.12570
gfz2012djwi   0.72300
gfz2012dyyh  -0.84750
gfz2012ekda   0.88360
gfz2012ekzf  -3.59390
gfz2012elce  -3.51520
gfz2012emjg   1.71130
gfz2012enno   0.82300
gfz2012eskt  -0.19300
gfz2012ewgo   2.33520
gfz2012ezvr  -0.01790
gfz2012fbfo  -0.71110
gfz2012fhnh   1.19740
gfz2012fivh  -1.78240
gfz2012foeo  -0.31950
gfz2012fqcg  -0.58300
gfz2012fwfo   0.63060
gfz2012fwtr   2.66150
gfz2012fzfa   0.96590
gfz2012fzsq   0.34030
gfz2012gcgn   1.10900
gfz2012gill   0.39640
gfz2012gkvr  -0.15430
gfz2012glss  -0.06460
gfz2012gocc  -1.94300
gfz2012gomm   6.79330
gfz2012gwqb   1.50550
gfz2012hdbm   0.51710
gfz2012hnul  -0.82170
gfz2012hnuw   1.37010
gfz2012hogg   0.95180
gfz2012holl   1.85020
gfz2012hsex  -0.22030
gfz2012hwmz  -2.45810
gfz2012ihdl  -0.09430
gfz2012ilvn   0.54000
gfz2012ilxh   0.63620
gfz2012imbd   0.61390
gfz2012intn  -0.20980
gfz2012iyrb   0.31610
gfz2012jgvj   0.29050
gfz2012jlox  -2.92620
gfz2012jpgs  -0.14190
gfz2012jqvn  -0.09760
gfz2012jshk   0.45310
gfz2012jted  -0.10800
gfz2012jupx  -1.08100
gfz2012jxiy  -0.38860
gfz2012kbjb   1.21690
gfz2012kbzj  -0.27080
gfz2012kdmb   0.51810
gfz2012keor   2.72050
gfz2012kkcp  -1.41150
gfz2012kkup   0.02570
gfz2012klba   0.03860
gfz2012klhx   0.33670
gfz2012kuct   0.85980
gfz2012kudo   0.25210
gfz2012kvzv   0.61200
gfz2012kwgo   3.90400
gfz2012lboz   1.29590
gfz2012lczo  -0.65200
gfz2012ldxg   0.89600
gfz2012ledy   2.96120
gfz2012lltr   2.01780
gfz2012lpvn   0.55040
gfz2012lxkv   3.06290
gfz2012lzmr   0.18650
gfz2012mcze  -0.44730
gfz2012mkpn  -0.27160
gfz2012mlyf   0.45570
gfz2012mofm   0.64030
gfz2012mpvy  -1.30830
gfz2012mpyl   0.26070
gfz2012mtiu  -0.59810
gfz2012mupa   0.53750
gfz2012mvwr   2.09900
gfz2012mwij  -0.03890
gfz2012myqa  -0.40550
gfz2012nben  -0.07610
gfz2012ngic   0.21920
gfz2012njha  -0.56310
gfz2012nkdf   1.23550
gfz2012nqnk  -2.03040
gfz2012ntzv   1.99610
gfz2012nutf  -0.79860
gfz2012nxog  -0.35250
gfz2012nzpz  -0.03690
gfz2012obgw   0.33770
gfz2012obnq   0.06760
gfz2012oedb  -0.25100
gfz2012ofpe   2.17250
gfz2012omvo  -0.06540
gfz2012oycg   0.44770
gfz2012peki   0.40320
gfz2012pgcl   1.13840
gfz2012pkel  -0.28970
gfz2012plbw   4.61720
gfz2012pofl   0.28110
gfz2012poju   1.25200
gfz2012pqlt   0.07130
gfz2012pqmk  -1.17850
gfz2012pqmu  -0.02760
gfz2012priv   1.26240
gfz2012pygp   0.14270
gfz2012qjhs  -1.64140
gfz2012qouy   0.86140
gfz2012qqqp   1.47600
gfz2012qqxg   0.51580
gfz2012qtgs   0.87140
gfz2012quso   0.23850
gfz2012qxcy  -0.03840
gfz2012rats  -0.55860
gfz2012rboy  -2.39400
gfz2012rcbq  -1.73850
gfz2012rcds   1.43790
gfz2012rcnj  -1.71540
gfz2012repv   0.75760
gfz2012rjsd   0.10400
gfz2012royy   1.31530
gfz2012rtqi   1.46390
gfz2012rubi  -0.15550
gfz2012ruks   1.24050
gfz2012rwko   2.25140
gfz2012rwov   1.78940
gfz2012rwql  -1.19800
gfz2012rypu  -0.07760
gfz2012shtg   0.02270
gfz2012sjea   0.38360
gfz2012snhi   0.12710
gfz2012spbj  -0.58510
gfz2012thfx   0.43390
gfz2012tvmv  -0.00000
gfz2012tzcc  -0.12100
gfz2012tzgb  -0.42070
gfz2012uafg  -0.44080
gfz2012uaqj   0.89790
gfz2012uciv  -0.82730
gfz2012ueqo   0.46280
gfz2012ufew   0.31690
gfz2012uhup  -1.24320
gfz2012ulpd  -1.07830
gfz2012uqzp  -0.27100
gfz2012uvqf  -0.39260
gfz2012uxnz  -0.75740
gfz2012uyie   1.09990
gfz2012uyxb   0.13090
gfz2012uzom   1.09400
gfz2012uzyj   1.87840
gfz2012vceo  -0.66800
gfz2012vdbt  -0.24210
gfz2012vjgl  -1.63630
gfz2012vmeh   0.86860
gfz2012vnbk   1.20640
gfz2012vsev  -0.48410
gfz2012vtxe   0.20810
gfz2012vwvd  -0.22310
gfz2012vxvr  -0.49620
gfz2012wajj  -0.27590
gfz2012wecd  -0.46190
gfz2012wizz   0.62160
gfz2012wklq   1.46010
gfz2012wmkd  -0.23310
gfz2012wmsg  -1.09630
gfz2012wrir  -0.18620
gfz2012wtkr  -0.18850
gfz2012wubh   0.60120
gfz2012wvfl   0.37170
gfz2012wxer  -0.13090
gfz2012wxlg   0.19790
gfz2012wxnt   0.19950
gfz2012wybs   0.84220
gfz2012wypz   0.70950
gfz2012xbjq  -0.59580
gfz2012xdna   0.54940
gfz2012xhci   0.49540
gfz2012xjyv  -0.04480
gfz2012xkkv   2.07940
gfz2012xslk   0.10790
gfz2012xwqa   0.78500
gfz2012xyqp   4.91670
gfz2012xyua  -1.14870
gfz2012yfrp  -1.45720
gfz2012yldu  -1.34540
gfz2012yoie  -0.37070
gfz2012yqjj   1.04210
gfz2012yxxu   0.81350
gfz2012yzod  -0.43820
gfz2012zfag  -0.37820
gfz2012zhmb   0.06600
gfz2012zitl  -0.36090
gfz2012zjpv  -1.29380
gfz2012zjre  -0.48040
gfz2012zklq  -0.64170
gfz2012zmln   0.46440
gfz2013aahq   1.02030
gfz2013aayj   0.63060
gfz2013acag   0.60500
gfz2013adey   0.15750
gfz2013aeee  -0.42920
gfz2013akgj   0.69940
gfz2013aknp  -0.19730
gfz2013apmm  -0.96080
gfz2013azzr   0.67910
gfz2013bdpu   1.06150
gfz2013biji   6.02410
gfz2013bobq  -0.38300
gfz2013bokp   0.03440
gfz2013bouj   1.39630
gfz2013btjm  -0.07060
gfz2013bzlb   2.03400
gfz2013bzzm   2.01720
gfz2013cbsm  -0.14190
gfz2013ccnr   0.03990
gfz2013ccon  -0.49090
gfz2013cdan  -0.20910
gfz2013cdfj  -0.10330
gfz2013cfyy  -0.19040
gfz2013cnhh  -0.41540
gfz2013cnve  -0.34660
gfz2013comh  -0.21630
gfz2013cvad  -0.35460
gfz2013cvqg  -0.07830
gfz2013cwpn   0.60170
gfz2013cwps   0.31340
gfz2013ddbh   0.45470
gfz2013dfhb  -0.13400
gfz2013diuf   0.25540
gfz2013dkly   0.20470
gfz2013dkmz   0.16220
gfz2013dofo  -0.44020
gfz2013dojq   1.56940
gfz2013dqls  -1.53980
gfz2013drpk  -0.99750
gfz2013drxz   0.83570
gfz2013dvye   0.29750
gfz2013dyop   0.45460
gfz2013egni   3.09150
gfz2013egpu   0.16810
gfz2013ehwe   3.50750
gfz2013ekpm  -0.16230
gfz2013enbx   0.09230
gfz2013erse  -0.37640
gfz2013esnh   6.36260
gfz2013eswe   0.01810
gfz2013eulz   1.15590
gfz2013fdoo  -0.66820
gfz2013feep   0.95410
gfz2013figy   0.10610
gfz2013fiud  -0.14270
gfz2013fkcl   1.51130
gfz2013fkii  -0.11910
gfz2013flox  -2.74710
gfz2013fnzr  -0.19090
gfz2013fwxa  -0.21730
gfz2013fxge  -1.10800
gfz2013fygc  -0.30910
gfz2013gaie   1.02070
gfz2013gbcn  -0.53960
gfz2013gcfx   1.37760
gfz2013gdgf   0.19670
gfz2013gdnq  -0.23240
gfz2013gelv   0.37910
gfz2013geno   0.67750
gfz2013glcr  -0.06330
gfz2013gngz  -0.76510
gfz2013gock  -0.01160
gfz2013goux  -0.65130
gfz2013gras   0.15280
gfz2013gvdb   2.22940
gfz2013gvet  -1.42460
gfz2013gvex  -0.27210
gfz2013gvxh   0.18170
gfz2013gwrd  -0.30430
gfz2013gxsu  -0.46220
gfz2013hdnc   0.97470
gfz2013hfmp  -0.16660
gfz2013hisv   1.29490
gfz2013hkja   0.59020
gfz2013hklr   0.46110
gfz2013hlbe  -0.69990
gfz2013hmbc  -2.15450
gfz2013hudi   0.25220
gfz2013hzdp   0.24660
gfz2013iapa  -0.28830
gfz2013iayx   0.18060
gfz2013iexo  -0.23050
gfz2013ifpq   5.84950
gfz2013ijsr   0.34600
gfz2013ikgo   0.62030
gfz2013ilug  -0.07910
gfz2013ippu   0.54380
gfz2013iqzq  -0.34210
gfz2013itsu   0.42210
gfz2013iunn   0.08200
gfz2013iyqz   0.06210
gfz2013jdrx   0.67890
gfz2013jesk  -0.87790
gfz2013jgij  -0.76030
gfz2013jgip  -0.05930
gfz2013jjsi   0.04400
gfz2013jkut   1.23080
gfz2013jlst  -0.03550
gfz2013jokw   1.63480
gfz2013jusj   1.69570
gfz2013jwcn   1.37910
gfz2013kdeo   3.10850
gfz2013kheb  -4.01600
gfz2013khli   0.54010
gfz2013kilx  -0.07260
gfz2013kkzr   0.42180
gfz2013krei   1.16340
gfz2013kvtk   0.34380
gfz2013lajn   0.61830
gfz2013lbiu  -0.57960
gfz2013ldqb  -0.93490
gfz2013lgbb  -0.45370
gfz2013lgnl   0.01910
gfz2013lgxc   0.07410
gfz2013lixa  -0.28360
gfz2013lljw  -1.05660
gfz2013lmqe  -1.00950
gfz2013lmrs  -1.03700
gfz2013lupg   0.25480
gfz2013lwbk  -1.45910
gfz2013lxyn   0.08560
gfz2013lyko  -1.05850
gfz2013malg   0.50030
gfz2013mded  -0.39280
gfz2013mghe   0.87940
gfz2013mqmv   2.72990
gfz2013mtqd   1.72000
gfz2013mvgr  -0.24160
gfz2013mzwe   0.84360
gfz2013nabl   0.95090
gfz2013nhjb   0.62200
gfz2013nlxz  -1.92580
gfz2013nmac   0.33870
gfz2013nppd   0.06180
gfz2013nqgw   0.23000
gfz2013nuor   0.11080
gfz2013nuvi  -1.41860
gfz2013nvdj   6.39030
gfz2013nwdi  -1.81770
gfz2013ogde   0.04940
gfz2013orjg  -0.05530
gfz2013ornz   2.25970
gfz2013ozqm   0.10460
gfz2013ozrf  -0.21530
gfz2013ozrp   1.16250
gfz2013pcos   0.63340
gfz2013pfbx   1.22630
gfz2013pfeb  -0.21190
gfz2013phef   0.01300
gfz2013piye  -1.87680
gfz2013pkbs   0.08430
gfz2013pqui   0.17460
gfz2013puag   0.01370
gfz2013pxsj  -0.03730
gfz2013pxtx  -0.59460
gfz2013pxya   3.32510
gfz2013qfmm   0.90930
gfz2013qidm   0.42190
gfz2013qmer  -0.61320
gfz2013qvcr   0.22200
gfz2013qzdq  -0.67260
gfz2013rait   0.09410
gfz2013rdoo   0.00000
gfz2013reav   2.07740
gfz2013rjsx   0.93200
gfz2013rqmp   0.01920
gfz2013rrza   0.45450
gfz2013rsnr  -2.96700
gfz2013rvsm  -0.05020
gfz2013rwfe   0.64460
gfz2013saez  -0.80330
gfz2013sart  -0.25100
gfz2013scai  -0.44580
gfz2013sdus   0.67900
gfz2013sebq  -0.59110
gfz2013sfds   0.36850
gfz2013sfto   0.16470
gfz2013shlq   1.35730
gfz2013shzy   0.30180
gfz2013sjhg  -0.78430
gfz2013skkm   0.57870
gfz2013snyf   0.07270
gfz2013sred   0.39370
gfz2013stht   0.89580
gfz2013svci   0.95620
gfz2013sxbw   1.63400
gfz2013syqk   0.52230
gfz2013tbzy  -0.21820
gfz2013tcxc  -1.37240
gfz2013tcxq  -0.55170
gfz2013tdau  -0.41990
gfz2013toea  -0.15780
gfz2013toxf   2.54020
gfz2013tqbb  -0.19800
gfz2013ttoz  -0.40240
gfz2013tusd  -1.20480
gfz2013tvmw  -0.30540
gfz2013twwf  -0.47430
gfz2013txev  -0.32130
gfz2013txtb   0.38660
gfz2013uqsp  -0.62510
gfz2013uuzn  -0.18190
gfz2013uxej  -0.85910
gfz2013vdic  -0.01900
gfz2013vefs  -5.21110
gfz2013vfyw  -0.29660
gfz2013vfzp   0.01950
gfz2013vgau   0.16030
gfz2013vgev   0.27160
gfz2013vgpf   0.01540
gfz2013vgrk   0.21590
gfz2013vhnk   0.43600
gfz2013vhzu   0.31230
gfz2013viul  -1.39540
gfz2013vjfe  -0.63800
gfz2013vjjc   1.40230
gfz2013vjod   0.21390
gfz2013vlth  -1.42660
gfz2013vmro   0.34910
gfz2014gxqu   2.19630
gfz2014hrft   0.35350
gfz2014hscz   0.00600
gfz2014hyal  -0.32450
gfz2014hzfw  -0.13280
gfz2014hzze  -0.67080
gfz2014lefs   1.47540
gfz2014lkyf   1.18980
gfz2014lynp   0.03770
gfz2014lzal   0.12830
gfz2014mden   1.52110
