# Nsamples: 281  MAD:  0.539  mean: -0.063  variance:  0.825
gfz2010czps   0.16160
gfz2010diqn  -0.72410
gfz2010eaoy  -0.42670
gfz2010eapk  -0.29700
gfz2010eaqe   1.14140
gfz2010eaqx  -0.87770
gfz2010eaqy  -0.12190
gfz2010earu  -1.45520
gfz2010easf   0.39280
gfz2010easo   0.34250
gfz2010easu  -0.88480
gfz2010eati  -0.40030
gfz2010eato   0.51000
gfz2010eavs   0.07510
gfz2010eawb  -1.08700
gfz2010eawu  -6.61080
gfz2010eaxa   0.15480
gfz2010eayx  -0.76970
gfz2010eazu  -1.60400
gfz2010ebgj   0.16310
gfz2010ebhc  -0.76750
gfz2010ebih   1.21220
gfz2010ebin  -1.14310
gfz2010ebjy   0.50820
gfz2010ebkj   0.34110
gfz2010ebla   0.97260
gfz2010ebll  -0.23140
gfz2010ebmb   1.21340
gfz2010ebnn   0.28620
gfz2010ebrm  -0.25360
gfz2010ebvm   1.14600
gfz2010ebvv   0.44950
gfz2010ebwp   0.11970
gfz2010ebzr  -0.93380
gfz2010ecam   0.19190
gfz2010ecay   0.34650
gfz2010eccq   0.04100
gfz2010echy  -0.43380
gfz2010ecns  -1.04590
gfz2010ecps   0.06680
gfz2010ecsp   0.29380
gfz2010ecua   0.02090
gfz2010ecvt  -0.52010
gfz2010edkp  -0.14690
gfz2010edyi   3.13680
gfz2010efsq   2.18370
gfz2010egap  -0.16660
gfz2010eisx  -1.97210
gfz2010eixj   1.60480
gfz2010ejjg   1.31910
gfz2010ekyc  -0.30050
gfz2010elhv   0.45080
gfz2010elin   0.55530
gfz2010eltf   0.59090
gfz2010elyc   0.13690
gfz2010epxj   4.89220
gfz2010eqjg  -0.11670
gfz2010erkn  -0.73410
gfz2010erom  -1.67450
gfz2010erwn   0.11990
gfz2010eryg  -0.18470
gfz2010excp  -0.67130
gfz2010exdd   0.03450
gfz2010exdl  -0.08060
gfz2010exhw  -0.38260
gfz2010exno  -0.50650
gfz2010ezck  -0.03040
gfz2010fcax   2.38120
gfz2010fczt  -0.47210
gfz2010fedq  -1.36020
gfz2010ffhq   0.58910
gfz2010fika  -0.25920
gfz2010flha   1.36330
gfz2010fqdu   0.70520
gfz2010ftlm  -0.46720
gfz2010fync   0.29510
gfz2010gcrl   2.32670
gfz2010grjd   0.20710
gfz2010gyqp   0.69600
gfz2010gzxr  -0.09580
gfz2010hjoc  -0.27910
gfz2010hnnf  -1.11540
gfz2010homc   0.19960
gfz2010hrkr   0.01920
gfz2010hxgv   0.38960
gfz2010iqnm   0.02110
gfz2010irvf  -0.11040
gfz2010iull  -0.04150
gfz2010jxbm  -0.58510
gfz2010mkuu   0.77780
gfz2010mncc  -0.81710
gfz2010moyw  -0.49810
gfz2010msjj   0.51140
gfz2010nmpc  -1.03010
gfz2010nqwo   0.02010
gfz2010nrjo  -0.06120
gfz2010nsck  -0.23240
gfz2010nubk  -0.05670
gfz2010nwef  -0.11810
gfz2010nxsy  -0.07810
gfz2010nxum  -0.20370
gfz2010oedn   0.34040
gfz2010onma   0.02430
gfz2010osjs  -1.05440
gfz2010pcxi   0.34940
gfz2010pewa  -0.48790
gfz2010plbg  -1.30000
gfz2010pxgh  -1.09540
gfz2010rqwj  -0.21580
gfz2010sfee   0.35410
gfz2010swcy   0.18930
gfz2010upfb  -0.22790
gfz2010usho   0.69510
gfz2010ustq  -0.67380
gfz2010utcg   0.90410
gfz2010vtdg  -0.07410
gfz2010vzzz  -1.23670
gfz2010yjev  -0.79280
gfz2010ymfy   0.07180
gfz2011aatr  -0.24020
gfz2011adjs  -1.41240
gfz2011alip   0.51150
gfz2011bgrp   0.28340
gfz2011bhha  -0.64290
gfz2011blsi   0.03560
gfz2011ccpw   0.25710
gfz2011cvcg   0.14660
gfz2011cykd   0.25800
gfz2011dcqb  -1.59840
gfz2011deaf   1.46610
gfz2011dkyi  -0.06930
gfz2011dndz   0.06280
gfz2011dpqx  -1.12100
gfz2011ecaj   0.02510
gfz2011edmm   1.08750
gfz2011enva   0.23210
gfz2011fgvr   0.25490
gfz2011fnsw  -0.27340
gfz2011hfkj  -0.18330
gfz2011hlqw  -0.01750
gfz2011hlsa  -0.46590
gfz2011ieie  -1.08430
gfz2011izqa   0.62310
gfz2011jplh  -0.22940
gfz2011kxzp  -0.40380
gfz2011lcxq   0.32860
gfz2011lzwj   0.13540
gfz2011mdie   0.26060
gfz2011mpme  -0.78420
gfz2011nrwc   1.48020
gfz2011ntkh  -0.25780
gfz2011nudm  -0.13170
gfz2011ohcy   1.61710
gfz2011ornx  -0.19300
gfz2011qvae  -0.30610
gfz2011rqui   0.09400
gfz2011ujze   0.14010
gfz2011uphh  -0.01430
gfz2011vnza   0.37680
gfz2011wjul  -1.13440
gfz2011wxtk  -0.13680
gfz2011xyxj   0.41520
gfz2012byad   1.03610
gfz2012cxdn  -0.63310
gfz2012dyyh   0.67670
gfz2012enno  -0.64650
gfz2012ewgo   0.57450
gfz2012fzfa  -0.77120
gfz2012hnul  -0.52010
gfz2012jlox  -0.57160
gfz2012jshk   0.56230
gfz2012keor  -0.11840
gfz2012kkup  -1.33090
gfz2012klhx  -0.33460
gfz2012kwgo   0.24340
gfz2012lczo  -0.04670
gfz2012ldxg  -0.65190
gfz2012ldzj   0.04470
gfz2012lxkv  -0.38710
gfz2012minr   0.11360
gfz2012nkdf  -0.59340
gfz2012pkel   0.45720
gfz2012rwko   0.38530
gfz2012rwov   0.75860
gfz2012rypu  -0.68710
gfz2012sphd   0.10180
gfz2012syvl   0.54700
gfz2012ttoa   0.30240
gfz2012uafg  -0.16020
gfz2012vrgb  -0.91810
gfz2012wklq  -0.13120
gfz2012wmsg   0.01770
gfz2012wtkr  -0.99570
gfz2012wxlg  -0.46750
gfz2012wypz   0.15090
gfz2013ccnr   0.18260
gfz2013ikgo  -0.03920
gfz2013ilug   0.25530
gfz2014kndc   0.03550
gfz2014knks  -0.00030
gfz2014lgqn  -0.94600
gfz2014lxnc  -0.63100
gfz2014nnih  -1.26010
gfz2014npeo  -0.43800
gfz2014nqfm  -0.24520
gfz2014nrie  -0.46920
gfz2014oinz  -0.26160
gfz2014oyly   0.48580
gfz2014ppzf   0.00100
gfz2014pvch   0.29570
gfz2014qlxd   0.44410
gfz2014qngj   0.00000
gfz2014qqhm  -0.12190
gfz2014uxyg   1.72820
gfz2014vhld  -3.59070
gfz2014watn  -0.27830
gfz2014wrkh  -2.84460
gfz2014xqqd   0.27110
gfz2015apnk   0.14920
gfz2015aruz  -0.10610
gfz2015berb   0.02530
gfz2015bkbj   0.49080
gfz2015chhn  -0.55110
gfz2015cxxk   0.18470
gfz2015cyjd   0.63290
gfz2015dizn  -0.17770
gfz2015dvbn   0.11210
gfz2015egxq   0.54100
gfz2015eiky  -0.15920
gfz2015etai   0.08830
gfz2015fbew   0.02920
gfz2015fjhk  -0.15670
gfz2015fkgt   0.11430
gfz2015fsjj   0.47460
gfz2015jwgl  -0.49470
gfz2015jzcv   0.05950
gfz2015kfsu   0.05610
gfz2015ksni   0.39500
gfz2015lhjy   0.67140
gfz2015lytv  -1.84550
gfz2015micz  -1.37290
gfz2015mpte  -0.85780
gfz2015oyfl   0.08900
gfz2015poni  -0.01630
gfz2015qnho   0.09780
gfz2015rgov  -2.84810
gfz2015sfdd  -0.19830
gfz2015sfdl  -0.04040
gfz2015sfdy  -0.57760
gfz2015sfeo   0.68440
gfz2015sffn  -0.54010
gfz2015sfga   0.24970
gfz2015sfhz   0.18160
gfz2015sfiq   0.05780
gfz2015sfkh  -0.78150
gfz2015sfks  -0.28440
gfz2015sfnb   0.05220
gfz2015sfno   1.64370
gfz2015sfnv  -0.01230
gfz2015sfoc   0.62650
gfz2015sfoq  -0.25820
gfz2015sfqo   0.39960
gfz2015sfqr  -0.00000
gfz2015sfrf  -0.02070
gfz2015sgad   0.28860
gfz2015sgna  -0.13560
gfz2015sgyd   0.34280
gfz2015shhg  -0.13980
gfz2015shjn   0.10420
gfz2015shsz   0.48930
gfz2015sjgk   0.73100
gfz2015sjoj  -0.08980
gfz2015sjvu  -0.43830
gfz2015smym  -0.81770
gfz2015snwh   0.01680
gfz2015snyd  -0.05290
gfz2015soat  -0.45830
gfz2015soxc  -0.05090
gfz2015stfy   0.59560
gfz2015svwm  -0.22220
gfz2015taml   1.40260
