# Nsamples: 611  MAD:  0.563  mean: -0.160  variance:  0.756
gfz2010cqwl   0.44830
gfz2010czps   1.05010
gfz2010dejx  -0.26390
gfz2010dfru  -1.81020
gfz2010dlgc   0.20830
gfz2010fobc   0.41820
gfz2010fpqy  -0.52410
gfz2010fqdu   0.95710
gfz2010fqtj  -0.37600
gfz2010ftlm   2.95240
gfz2010fupn   0.38250
gfz2010fwpv  -0.32070
gfz2010fwzd  -0.15460
gfz2010fync   0.34220
gfz2010gyqp  -1.18240
gfz2010gzxr  -1.40550
gfz2010hbka  -0.29920
gfz2010iibf  -0.15880
gfz2010iobp   0.97480
gfz2010iqnm  -0.24690
gfz2010irvf   2.52200
gfz2010iull  -0.13670
gfz2010jxbm   0.06430
gfz2010jygz  -0.08570
gfz2010kcoo  -0.99560
gfz2010kdyc   0.46790
gfz2010lczp  -0.36680
gfz2010lepw  -3.10360
gfz2010lkcf   0.70590
gfz2010mhjt  -0.92230
gfz2010mkuu  -0.50670
gfz2010mlkz   3.35090
gfz2010mlta   1.33530
gfz2010mncc  -0.50470
gfz2010mnhm   0.56730
gfz2010mpuy   0.46550
gfz2010msjj  -0.90950
gfz2010muca   0.19150
gfz2010mwdq  -0.10970
gfz2010nmpc  -1.26930
gfz2010nnny  -0.63320
gfz2010nqwo  -0.45640
gfz2010nrjo   0.97530
gfz2010nsck  -0.18090
gfz2010nubk   0.36900
gfz2010nwef  -0.63430
gfz2010nxsy   0.20570
gfz2010onma  -0.85250
gfz2010plbg  -0.03750
gfz2010pxak  -1.13000
gfz2010pxgh  -1.85790
gfz2010qjst  -0.16070
gfz2010qkat   0.55440
gfz2010qpcq  -0.07620
gfz2010qpvi  -0.72430
gfz2010rkfp  -0.90530
gfz2010rqwj  -0.48190
gfz2010rywq  -0.51740
gfz2010sfee  -0.51110
gfz2010skve  -0.62170
gfz2010srdb  -0.00000
gfz2010svtn  -1.23870
gfz2010svve  -0.75510
gfz2010swcy  -0.43240
gfz2010sxwt  -2.47150
gfz2010sysw  -0.82890
gfz2010tcbr   0.02180
gfz2010txjs  -0.63640
gfz2010upfb   0.88670
gfz2010urlq  -0.52350
gfz2010usho  -0.55200
gfz2010ustq  -0.61520
gfz2010utcg  -0.44330
gfz2010utmc   0.24970
gfz2010xgfc  -0.64000
gfz2011aatr  -0.56700
gfz2011adjs   0.66720
gfz2011ahfw   1.40900
gfz2011alip  -0.11370
gfz2011aqxf  -0.10720
gfz2011bhha   1.10480
gfz2011blsi   1.31070
gfz2011bpkd  -0.75120
gfz2011cfae  -0.67750
gfz2011cndo   0.38980
gfz2011cvcg  -1.34310
gfz2011cykd   0.02280
gfz2011cyuk   2.25940
gfz2011dbev  -0.48830
gfz2011dbig  -0.28340
gfz2011dbon   0.53130
gfz2011dcqb  -0.09360
gfz2011dcqf   0.37590
gfz2011dkyi  -0.15830
gfz2011dpqx  -1.40130
gfz2011eazf  -0.37660
gfz2011ecaj  -0.30640
gfz2011edmm  -0.84490
gfz2011ehzq  -0.04700
gfz2011eltw  -1.17760
gfz2011enva  -0.74400
gfz2011fhag   0.05700
gfz2011fhbm  -0.51820
gfz2011flgj  -1.56190
gfz2011fnsw  -0.96820
gfz2011gbmx  -0.16380
gfz2011gcwb   0.02400
gfz2011gkzt  -0.60650
gfz2011hbex   0.30170
gfz2011hfkj  -0.47120
gfz2011hlqw  -0.50120
gfz2011hlsa  -0.63000
gfz2011hpqp  -0.26030
gfz2011hvbu   0.10320
gfz2011ieie  -0.14780
gfz2011iwte   0.14030
gfz2011ixai   0.67940
gfz2011jdsj  -0.70670
gfz2011jplh  -0.23850
gfz2011jtlg  -0.27100
gfz2011jxpl  -0.51370
gfz2011knoo  -0.24520
gfz2011kqwo   0.34550
gfz2011kqyg  -0.49260
gfz2011ksiu  -1.92830
gfz2011kxzp  -0.29650
gfz2011lcxq   0.13880
gfz2011lhls  -0.16380
gfz2011lzwj  -0.94700
gfz2011mdie  -1.02040
gfz2011mjom  -0.28310
gfz2011mpme  -0.31930
gfz2011nrwc  -0.51410
gfz2011nsex  -0.67740
gfz2011ntkh  -0.04500
gfz2011nudm  -0.49460
gfz2011ohcy  -0.30300
gfz2011oiqe  -1.06640
gfz2011oiwk   0.19140
gfz2011olkk  -0.08810
gfz2011orgn  -1.31010
gfz2011ornx   0.48000
gfz2011owvz  -1.07610
gfz2011pntf  -0.53620
gfz2011ptus   0.57420
gfz2011qvae  -0.75020
gfz2011rewa  -0.98250
gfz2011rgwp   1.08400
gfz2011rsrh  -0.37880
gfz2011sagt   0.79390
gfz2011tjue  -0.45430
gfz2011tkog  -1.03930
gfz2011toub  -2.00860
gfz2011tpfr   3.52260
gfz2011ueni  -1.46920
gfz2011ujze  -0.98790
gfz2011uphh  -0.23960
gfz2011urzu  -0.99680
gfz2011uzqv  -0.48160
gfz2011vhfi   0.27270
gfz2011vnza  -0.00000
gfz2011vrhg  -0.10750
gfz2011vxns  -0.31430
gfz2011wwjs  -0.59900
gfz2011wxfs   0.78370
gfz2011wxoj   4.02360
gfz2011wxtk  -1.04640
gfz2011wype  -0.51700
gfz2011xyxj   0.71410
gfz2011zklv   0.25680
gfz2012aqgp   0.38000
gfz2012aqtq   2.00930
gfz2012bfah  -1.19710
gfz2012bpkx   0.06870
gfz2012bpwl   0.14010
gfz2012brhv  -0.65580
gfz2012byad   0.94120
gfz2012cxdn  -0.06900
gfz2012czlw  -0.87470
gfz2012ekda   0.39170
gfz2012emjg  -0.68030
gfz2012enno  -1.00720
gfz2012ewgo   1.40820
gfz2012foeo  -0.83280
gfz2012fwfo  -0.53470
gfz2012fzfa  -0.26690
gfz2012glss  -0.41770
gfz2012gocc   1.63400
gfz2012gomm  -1.03240
gfz2012hnul  -0.69300
gfz2012hsex  -0.64160
gfz2012hwyo  -0.57480
gfz2012ilvn   1.11900
gfz2012imay  -0.21670
gfz2012intn  -0.22950
gfz2012jlox  -0.38270
gfz2012jshk   1.66310
gfz2012jupx  -1.09460
gfz2012keor   1.89960
gfz2012kkup  -1.04700
gfz2012klhx  -1.30970
gfz2012kuct  -0.50500
gfz2012kudo  -0.53640
gfz2012kwgo  -0.30740
gfz2012lczo   4.23710
gfz2012ldxg   3.27820
gfz2012lxkv   0.26920
gfz2012minr   0.60590
gfz2012mupa  -0.21670
gfz2012mvwr  -0.21450
gfz2012mwij   0.34490
gfz2012oazn  -0.39380
gfz2012rats  -0.07800
gfz2012ronz  -0.40010
gfz2012royy  -0.36440
gfz2012ruks  -0.33990
gfz2012rwko  -0.49380
gfz2012rwov   0.41590
gfz2012sphd   0.01480
gfz2012syvl  -0.47400
gfz2012teic  -0.08760
gfz2012ttoa  -1.69170
gfz2012tvmv  -0.47050
gfz2012uafg   0.66190
gfz2012uaqj   0.66480
gfz2012uhup  -0.48770
gfz2012uqzp   0.45990
gfz2012uvqf  -0.96140
gfz2012vpza   0.25710
gfz2012vrgb  -1.57710
gfz2012vsev  -1.01100
gfz2012whku  -0.39590
gfz2012wklq   0.08360
gfz2012wmsg  -0.40420
gfz2012wpeq  -0.82610
gfz2012wtkr  -0.27120
gfz2012wvfl   1.15030
gfz2012wxer   0.13120
gfz2012wxlg  -1.09370
gfz2012wxnu  -1.32730
gfz2012wybs  -0.98520
gfz2012wypz  -0.35580
gfz2012zfag   0.40900
gfz2012zitl  -0.29400
gfz2012zjpv   0.13920
gfz2013aahq  -2.06530
gfz2013apmm  -0.19780
gfz2013axoj  -0.13510
gfz2013bokp   0.86060
gfz2013btjm  -1.00160
gfz2013ccnr   0.22750
gfz2013cwpn   0.14210
gfz2013dddp   0.15100
gfz2013dkly   0.00000
gfz2013dofo  -0.59240
gfz2013drpk   0.51690
gfz2013drxz  -1.05230
gfz2013dspt   1.00010
gfz2013egni  -0.67950
gfz2013figy  -3.46050
gfz2013fiud   1.43150
gfz2013fkii   0.75710
gfz2013flox  -0.91450
gfz2013gdnq   0.63800
gfz2013idbb  -0.94810
gfz2013ifpq  -0.36200
gfz2013ikgo  -0.36720
gfz2013ilug   0.03330
gfz2013ippu   0.91710
gfz2013iunn  -1.59030
gfz2013jesk   0.40020
gfz2013jgij  -0.55450
gfz2013jgip  -1.71360
gfz2013jkut  -0.78830
gfz2013jlst   2.22080
gfz2013jusj   2.33640
gfz2013kdeo  -0.73370
gfz2013ldpc  -0.41160
gfz2013ldqb  -1.06780
gfz2013lgxc   2.05600
gfz2013lixa   3.07610
gfz2013lyko  -0.44730
gfz2013mqmv  -0.57510
gfz2013mwbh   1.04830
gfz2013ncjp   0.56680
gfz2013nkgj  -0.07060
gfz2013nwdi   0.03050
gfz2013oifr   0.64670
gfz2013ojti   0.01710
gfz2013pfbx  -0.45510
gfz2013qali   0.92940
gfz2013qmer  -0.35590
gfz2013qzdq   0.06190
gfz2013roki  -0.74040
gfz2013sdus  -0.15080
gfz2013shzy  -1.34660
gfz2013snbr   1.02160
gfz2013suvn   0.68890
gfz2013svci   0.30960
gfz2013tcxc  -0.15620
gfz2013toxf  -0.36440
gfz2013tusd  -1.10340
gfz2013tvmw   0.02740
gfz2013uauo   0.06400
gfz2013uqvu   0.89430
gfz2013uysr  -1.73020
gfz2013vfyw  -0.00820
gfz2013vfzp   0.58810
gfz2013viul  -0.15870
gfz2013vjjc  -0.60650
gfz2013vvrq  -0.43580
gfz2013wjmm  -0.42120
gfz2013xsdt   0.63840
gfz2013xxxq   0.48490
gfz2013yctg   0.98150
gfz2013ylbx  -1.18050
gfz2013yqkv   0.74490
gfz2013zjel   0.83300
gfz2013zmtb  -0.27480
gfz2014afmx  -0.46130
gfz2014ajlk  -0.47800
gfz2014algk  -0.32540
gfz2014ande  -0.39460
gfz2014arpf  -0.04680
gfz2014bwue   0.45170
gfz2014czqi  -0.53460
gfz2014czua   0.20230
gfz2014dhxt   0.46790
gfz2014eght  -1.69770
gfz2014ekcr  -0.25940
gfz2014enhi   0.81880
gfz2014etqa   0.24280
gfz2014fedd  -0.43510
gfz2014femz   0.11230
gfz2014fexu  -1.48860
gfz2014ffdc  -0.37120
gfz2014fgvi  -0.50770
gfz2014fgvr  -0.39780
gfz2014fhbd  -0.23360
gfz2014fhdw  -0.27020
gfz2014fhla  -1.17570
gfz2014fhrq  -0.21830
gfz2014fhwx  -0.00000
gfz2014fimn   0.00000
gfz2014fjzd  -0.37180
gfz2014fkmr  -0.41550
gfz2014fkmx   3.48710
gfz2014fnyg  -0.05580
gfz2014frdz  -0.78420
gfz2014frel  -1.28680
gfz2014frez  -0.66950
gfz2014frwh  -0.32780
gfz2014ftka  -0.33820
gfz2014ftrk   0.53770
gfz2014furx  -0.17930
gfz2014fusc  -0.36070
gfz2014fusj  -0.58340
gfz2014fuub  -0.71870
gfz2014fval  -0.24870
gfz2014fvgh  -0.63240
gfz2014fvpy   0.03000
gfz2014fvrg  -1.09450
gfz2014gbcz   3.92210
gfz2014ghpe  -0.58170
gfz2014gkgf  -0.50960
gfz2014gkgs  -0.17010
gfz2014gkhp   0.56380
gfz2014gkhy  -0.45290
gfz2014gkjl   0.02130
gfz2014gkjt  -0.87160
gfz2014gkob  -0.59350
gfz2014gkok  -0.24400
gfz2014gkpd  -0.43940
gfz2014gkpj   1.56870
gfz2014gkqf   0.06740
gfz2014gkqu   0.11950
gfz2014gksj  -0.55250
gfz2014gksu   0.88190
gfz2014gktq   0.03530
gfz2014gkut  -1.31060
gfz2014gkxm  -0.54890
gfz2014glcu  -0.76400
gfz2014glcy  -0.97240
gfz2014gltx  -0.40490
gfz2014gmci  -0.63580
gfz2014gmge   0.23330
gfz2014gmhr  -1.38350
gfz2014gmip  -0.48420
gfz2014gmjo  -0.44290
gfz2014gmku   0.41450
gfz2014gmlz  -0.07760
gfz2014gmnw  -0.23520
gfz2014gmpy  -0.63000
gfz2014gmuk  -0.13510
gfz2014gmuw  -0.44270
gfz2014gmzl  -0.57980
gfz2014gnnt  -0.46520
gfz2014goba  -0.25220
gfz2014goqw  -0.88350
gfz2014gori   0.34170
gfz2014gphr  -0.34560
gfz2014gpuk  -1.15840
gfz2014gqbj   0.18560
gfz2014gqer   1.36370
gfz2014gsqs  -0.04640
gfz2014gull  -0.38030
gfz2014gulp  -0.79380
gfz2014gumd  -0.67220
gfz2014gwab   1.36870
gfz2014gxxo  -0.37010
gfz2014hagb   0.06900
gfz2014hasj  -0.07120
gfz2014hauo  -0.81160
gfz2014hbqb  -0.11260
gfz2014hfhl  -1.24370
gfz2014hgqo  -0.15830
gfz2014hjgh  -1.12890
gfz2014hjgr  -0.45280
gfz2014hjij  -0.34020
gfz2014hkcf  -0.08000
gfz2014hocg  -0.30190
gfz2014hqxs  -0.71780
gfz2014huaj   0.29060
gfz2014hyvq   0.01100
gfz2014hzfw   0.43830
gfz2014hzgn  -0.24250
gfz2014imnn  -3.61450
gfz2014inbj  -0.83380
gfz2014itkw  -0.83210
gfz2014itpj   0.18650
gfz2014jjhc   0.51070
gfz2014jjln  -0.69020
gfz2014jnyv  -0.39840
gfz2014jpep  -0.53810
gfz2014jwmh   0.04120
gfz2014khlk   2.52920
gfz2014kndc  -0.39220
gfz2014knks  -0.14010
gfz2014ksdv  -0.04220
gfz2014kwrg  -0.23530
gfz2014kytf  -0.50020
gfz2014lgqn   0.48200
gfz2014lkyf  -0.40130
gfz2014lnmw  -0.71300
gfz2014lxnc  -0.53840
gfz2014lyhk  -0.54890
gfz2014lyhp  -0.37710
gfz2014macx  -0.49970
gfz2014madw  -0.53770
gfz2014npdk  -0.51010
gfz2014npeo   0.45600
gfz2014nphm   0.20780
gfz2014nqfm  -0.23000
gfz2014nrie   0.47240
gfz2014odgv  -0.78970
gfz2014oinz  -0.14610
gfz2014owxc   0.17500
gfz2014oxcc   0.34320
gfz2014tzsd  -0.56050
gfz2014ubwn  -0.49950
gfz2014uuqa  -1.00300
gfz2014uvji  -1.03430
gfz2014vcev  -0.02840
gfz2014vhld  -0.61040
gfz2014vhms  -0.40540
gfz2014watn  -0.32180
gfz2014wjko  -0.99170
gfz2014xbyr  -0.37270
gfz2014xjri  -0.58390
gfz2014xoji  -0.05380
gfz2014xqqd  -0.20620
gfz2014yhhm  -0.72360
gfz2014ynzy  -0.54090
gfz2014yrug  -0.72270
gfz2014zkys  -0.63110
gfz2015apnk   0.74000
gfz2015aruz  -1.04100
gfz2015berb  -0.09260
gfz2015bfjm  -0.52530
gfz2015bkbj   0.19910
gfz2015bphe  -1.82200
gfz2015bucr  -0.20850
gfz2015chhn  -0.28430
gfz2015chqn  -0.09130
gfz2015cxxk   1.48630
gfz2015cyjd  -0.49710
gfz2015dizn   0.26110
gfz2015dvbn  -0.23660
gfz2015egxq  -0.16830
gfz2015eiky  -0.34040
gfz2015elgy   0.23440
gfz2015fbbk  -1.66170
gfz2015fjhk  -0.56880
gfz2015fkgt  -0.77660
gfz2015fsjj  -0.50410
gfz2015fvoi  -0.74410
gfz2015fyvk   0.68500
gfz2015gckd  -0.52280
gfz2015gjbr   1.06730
gfz2015hgbk  -0.06650
gfz2015hpmk  -0.77040
gfz2015jwgl  -0.36210
gfz2015jzcv  -0.33580
gfz2015kakw  -0.29560
gfz2015kfsu  -1.45910
gfz2015kkqb  -0.11670
gfz2015kkth  -0.32550
gfz2015kphk  -0.43610
gfz2015kquq  -1.24570
gfz2015ksni   0.04130
gfz2015lcuo  -0.96490
gfz2015lfma  -0.42120
gfz2015lhjy   0.67120
gfz2015lytv  -0.77510
gfz2015mddr  -1.19300
gfz2015mpte   0.10510
gfz2015nwug  -0.77380
gfz2015ocdz   0.58100
gfz2015okmq  -0.79800
gfz2015oyfl  -0.65610
gfz2015qnho  -0.28450
gfz2015qnlv  -1.16930
gfz2015rddx  -0.37410
gfz2015rkzg  -2.12190
gfz2015sfdd   0.21260
gfz2015sfdv  -0.96430
gfz2015sfdy   0.35370
gfz2015sfeo   1.25030
gfz2015sffn  -0.47320
gfz2015sfga   1.18470
gfz2015sfhz   0.26860
gfz2015sfiq  -0.92710
gfz2015sfkh  -0.24000
gfz2015sfko   0.10090
gfz2015sfks   0.31810
gfz2015sflf  -0.35560
gfz2015sfln   0.56260
gfz2015sfnb   0.89140
gfz2015sfno   0.00000
gfz2015sfnv   0.17630
gfz2015sfoc   0.60650
gfz2015sfom  -0.55120
gfz2015sfps   2.26200
gfz2015sfqo  -0.34130
gfz2015sfqr   0.27610
gfz2015sfrc  -0.40110
gfz2015sfte   0.09720
gfz2015sftu   0.54160
gfz2015sfwf  -0.45920
gfz2015sfzm   0.05150
gfz2015sgad  -0.36210
gfz2015sgdj  -0.52790
gfz2015sgmr  -0.14070
gfz2015sgna   0.38540
gfz2015sgyd   0.39990
gfz2015shaq  -0.55860
gfz2015shel  -0.40620
gfz2015shhg   0.29450
gfz2015shhu  -0.35630
gfz2015shjn   0.01300
gfz2015shjo   0.52370
gfz2015shrg   0.33860
gfz2015shsz  -0.39220
gfz2015siem   0.34520
gfz2015siky   0.18090
gfz2015sist  -0.12600
gfz2015sitn   0.94510
gfz2015sixi   0.27980
gfz2015sjbx  -0.36070
gfz2015sjeq   0.35300
gfz2015sjfi  -0.01160
gfz2015sjgk   0.50200
gfz2015sjjb  -1.02300
gfz2015sjne   0.42410
gfz2015sjoj   0.56050
gfz2015sjpn   0.68570
gfz2015sjtz   0.14630
gfz2015sjvu   0.03670
gfz2015sjwi  -0.29230
gfz2015skgj  -0.25070
gfz2015skia   0.21470
gfz2015skpv  -0.07570
gfz2015skxu  -0.48930
gfz2015sldx  -0.05210
gfz2015slfn  -0.29940
gfz2015sljs  -0.22210
gfz2015slun  -0.40670
gfz2015smgj  -0.17400
gfz2015snhn   0.48350
gfz2015snsf  -0.01530
gfz2015snwh  -0.13730
gfz2015snyd   0.25730
gfz2015soat  -0.26250
gfz2015solh   0.60560
gfz2015sowu  -2.63220
gfz2015soxc   0.24010
gfz2015sqbg  -0.26740
gfz2015sqmy   0.06250
gfz2015srat   0.12980
gfz2015stfy   0.04410
gfz2015stso  -0.13180
gfz2015subz  -0.22610
gfz2015svjy   0.30820
gfz2015svwm   0.31900
gfz2015swgn   0.61570
gfz2015sxxu  -0.07580
gfz2015szcb  -0.37810
gfz2015szfe  -0.07160
gfz2015taml  -0.41820
gfz2015tdcu  -0.21530
gfz2015teje  -0.37610
