# Nsamples: 552  MAD:  0.574  mean: -0.112  variance:  0.771
gfz2010cbkg   0.98710
gfz2010civi  -0.13740
gfz2010ckzm  -1.39580
gfz2010czps  -0.12040
gfz2010dfru  -1.97390
gfz2010eaoy   0.24180
gfz2010eapn   1.45480
gfz2010eaqe   0.14200
gfz2010eaqx   0.46620
gfz2010eaqy   0.95900
gfz2010earq  -0.54910
gfz2010earu   0.35600
gfz2010easf  -0.84780
gfz2010easo   0.27800
gfz2010easu  -0.25320
gfz2010eato   0.16900
gfz2010eatt  -1.31820
gfz2010eaty  -0.31320
gfz2010eaul  -0.31430
gfz2010eavs   0.70170
gfz2010eawb  -0.34140
gfz2010eawu   0.52490
gfz2010eaxa   0.73510
gfz2010eazu   1.01280
gfz2010ebfa   0.25870
gfz2010ebgj   0.16860
gfz2010ebhc  -0.33610
gfz2010ebih  -0.12450
gfz2010ebin   3.89710
gfz2010ebjy  -0.81370
gfz2010ebkj  -0.86680
gfz2010ebll   0.36550
gfz2010ebmb  -0.54130
gfz2010ebnn   0.30270
gfz2010ebvm  -0.26780
gfz2010ebvv  -0.18030
gfz2010ebwp  -0.33530
gfz2010ebzr   0.07860
gfz2010ecay   0.54320
gfz2010ecbi   0.09350
gfz2010eccq  -0.16710
gfz2010eced   2.59330
gfz2010echc   0.05580
gfz2010echy  -0.86990
gfz2010ecps   0.35370
gfz2010ecua   0.16520
gfz2010ecuv  -0.39670
gfz2010edat  -0.37810
gfz2010eday  -0.95670
gfz2010edcp   3.76580
gfz2010edhv  -0.72850
gfz2010edkp  -1.69870
gfz2010edvf   0.35970
gfz2010edyi  -0.12000
gfz2010eeij  -0.12420
gfz2010eevu   0.32100
gfz2010egld   0.40450
gfz2010egmp  -0.73950
gfz2010ehxz   0.25910
gfz2010eisx  -0.28480
gfz2010ejjg  -1.48160
gfz2010ekyc   0.00000
gfz2010elhv   0.68810
gfz2010elyc  -1.15070
gfz2010epbe   0.95890
gfz2010epxj   0.23930
gfz2010eqmu   1.87900
gfz2010erdi   0.59410
gfz2010erna  -0.71680
gfz2010erom   0.03720
gfz2010erum   0.30730
gfz2010eruy  -0.93980
gfz2010erwn  -0.44180
gfz2010erxb  -1.18690
gfz2010erxk   0.00140
gfz2010eryg   0.41350
gfz2010esid  -1.19740
gfz2010euan  -0.34820
gfz2010euii  -0.50180
gfz2010eujm  -0.68930
gfz2010euvl  -0.84270
gfz2010evco  -0.39190
gfz2010ewbc  -0.47310
gfz2010ewpq  -0.38430
gfz2010ewvc  -0.53720
gfz2010exdl  -0.28830
gfz2010exed  -0.26060
gfz2010exgb   0.03140
gfz2010exhd  -0.57240
gfz2010exhw   0.12080
gfz2010exjw   0.02600
gfz2010exno   0.24490
gfz2010exqu   0.17450
gfz2010exsg  -2.33230
gfz2010eymr  -0.47190
gfz2010ezck   0.00000
gfz2010ezwz  -0.08910
gfz2010fcax   0.88680
gfz2010fczt  -0.40050
gfz2010fedq  -1.22670
gfz2010ffhq  -0.48400
gfz2010figq  -0.44950
gfz2010fihj   0.24460
gfz2010fika  -0.92000
gfz2010fjmu  -4.81140
gfz2010flha  -0.02130
gfz2010flrt  -0.85920
gfz2010flxi  -0.40130
gfz2010fneu   0.28410
gfz2010fpqy   0.17000
gfz2010ftlm  -1.41980
gfz2010fwpv  -0.35740
gfz2010fync   1.20250
gfz2010gcrl  -1.55410
gfz2010gcrp   0.58060
gfz2010gjia  -0.29900
gfz2010glxl  -0.30390
gfz2010grjd  -0.26030
gfz2010gyqp   0.03780
gfz2010hbka   0.06250
gfz2010hevz  -0.64320
gfz2010hjoc  -0.50020
gfz2010hlmq  -1.85320
gfz2010hrpr  -0.45850
gfz2010hxbs  -0.88360
gfz2010hxgv  -0.24730
gfz2010iibf  -0.49540
gfz2010iobp   0.20790
gfz2010irvf  -0.37770
gfz2010iull   0.60540
gfz2010jxbm   0.29830
gfz2010lepw  -2.15400
gfz2010lrlk  -0.67790
gfz2010mkuu   0.19490
gfz2010mlta   0.26760
gfz2010mncc   0.27770
gfz2010moyw  -0.19690
gfz2010mpuy  -0.74960
gfz2010msjj  -0.50710
gfz2010muca   0.54610
gfz2010mwdq   0.14640
gfz2010ncrl  -0.04840
gfz2010nfsj   0.71110
gfz2010nmpc  -1.09070
gfz2010nqwf  -0.05720
gfz2010nrjo   0.02780
gfz2010nsck   0.99030
gfz2010nubk  -0.04860
gfz2010nwef  -0.95260
gfz2010nxsy  -0.05710
gfz2010onma  -0.39340
gfz2010oyqy  -0.56240
gfz2010pcxi   0.19360
gfz2010pfyu   0.68780
gfz2010pmqd  -0.66880
gfz2010pxgh  -0.50380
gfz2010rqwj   0.37460
gfz2010sfee  -0.09610
gfz2010skve   1.23320
gfz2010srdb   0.26340
gfz2010txjs  -0.59170
gfz2010upfb   0.85480
gfz2010usho  -0.32090
gfz2010ustq  -0.34300
gfz2010utcg   0.28790
gfz2010xgzw   0.64610
gfz2010xjck  -0.07930
gfz2010yjev   1.22490
gfz2011aatr   0.63160
gfz2011adjs   0.07140
gfz2011ahfw  -0.68100
gfz2011ccpw  -1.75810
gfz2011cfae  -0.95680
gfz2011cvcg  -0.64190
gfz2011cvfg  -1.36690
gfz2011cykd  -0.52110
gfz2011cyuk   2.04380
gfz2011dbev   0.69780
gfz2011dbig   0.58780
gfz2011dbon  -0.14880
gfz2011dcqb  -1.00680
gfz2011dpqx  -0.47880
gfz2011ecaj   0.04910
gfz2011enva  -0.05240
gfz2011fgvr   0.67640
gfz2011flgj   0.33690
gfz2011fnsw  -1.30960
gfz2011gbmx   0.39510
gfz2011gkzt   0.29460
gfz2011haid   4.78770
gfz2011hlqw  -0.09690
gfz2011hlsa   0.18710
gfz2011hpqp  -0.28270
gfz2011ieie   0.22980
gfz2011ixai   0.94330
gfz2011izqa  -0.73760
gfz2011jmbn   0.44360
gfz2011jplh  -0.07760
gfz2011kqwo   0.30760
gfz2011kxzp   0.44160
gfz2011lcxq  -0.60430
gfz2011lzwj   0.65810
gfz2011mdie  -0.23960
gfz2011mpme  -0.19440
gfz2011ntkh   0.23980
gfz2011nudm  -0.42090
gfz2011ohcy   0.44280
gfz2011oiqe   0.01830
gfz2011oiwk  -0.25980
gfz2011olkk  -0.66740
gfz2011ornx   0.52570
gfz2011owvz  -0.16000
gfz2011phms   0.53530
gfz2011qyms  -0.28100
gfz2011rewa  -0.18680
gfz2011rgwp   0.13390
gfz2011rqui   0.14740
gfz2011sagt   0.44420
gfz2011tkfp  -2.76720
gfz2011toub  -1.05070
gfz2011uepx  -0.87070
gfz2011ujze  -0.42470
gfz2011uphh  -0.77810
gfz2011vhfi   0.18010
gfz2011vxns  -0.48910
gfz2011wjul  -1.15280
gfz2011wvzb  -0.08810
gfz2011wwjs   0.23150
gfz2011wxfs   0.17830
gfz2011wxtk  -0.33520
gfz2011xyxj   0.47540
gfz2012ajtq  -0.06700
gfz2012aqgp  -0.07250
gfz2012bfah   0.60750
gfz2012cqnl  -0.12980
gfz2012czlw  -0.45400
gfz2012ekda   0.44880
gfz2012enno   0.08620
gfz2012fzfa   0.22930
gfz2012hnul  -0.15050
gfz2012ilvn   0.31220
gfz2012intn   0.05590
gfz2012jgvj  -0.68720
gfz2012jjzc   0.08850
gfz2012jlox  -0.65760
gfz2012jupx  -0.27660
gfz2012kkup  -0.25470
gfz2012klhx  -0.37920
gfz2012kuct  -0.25980
gfz2012kudo  -0.51790
gfz2012lczo   0.52350
gfz2012ldxg  -0.78320
gfz2012lxkv   0.15850
gfz2012minr   1.45520
gfz2012mvwr  -0.38540
gfz2012mwij   1.36650
gfz2012nedn  -1.24090
gfz2012ngic  -0.39920
gfz2012nojx   0.23930
gfz2012nolo   0.24860
gfz2012oazn   0.43760
gfz2012pciw  -2.29460
gfz2012pgcl  -0.07650
gfz2012plea  -1.19880
gfz2012ronz   0.53250
gfz2012rwov  -0.43130
gfz2012rypu  -0.08860
gfz2012sphd   0.21570
gfz2012syvl  -0.23320
gfz2012ttoa  -0.35250
gfz2012tvmv  -0.50030
gfz2012uafg   0.28170
gfz2012uaqj  -0.49980
gfz2012uhup  -0.25280
gfz2012uvqf  -0.27710
gfz2012vrgb   0.35570
gfz2012wklq   0.96160
gfz2012wmsg  -0.03570
gfz2012wxlg  -0.11890
gfz2012wypz   0.39400
gfz2012xslk  -0.43350
gfz2012zitl  -0.63110
gfz2013aahq  -1.30530
gfz2013ccnr   0.81910
gfz2013cwps  -0.97400
gfz2013dofo  -1.10040
gfz2013dojq  -0.21250
gfz2013drxz  -0.22060
gfz2013dspt   0.53730
gfz2013dsrk   0.30440
gfz2013fkcl  -0.52930
gfz2013fkii   0.33150
gfz2013gbst  -0.72010
gfz2013gdnq   0.41760
gfz2013gvdb  -0.22520
gfz2013ifpq  -0.52970
gfz2013ijsr   0.95100
gfz2013ikgo  -0.02320
gfz2013ilug  -0.19070
gfz2013ippu   0.69890
gfz2013iunn  -0.65840
gfz2013jesk   0.33330
gfz2013jgip   1.09440
gfz2013jkut  -0.27510
gfz2013jusj  -1.06030
gfz2013kheb  -0.03510
gfz2013kvtk  -0.62260
gfz2013ldqb   1.68000
gfz2013lsob  -1.72680
gfz2013lyko   0.12850
gfz2013mqmv  -1.57560
gfz2013mwbh  -0.84920
gfz2013nabl   0.72550
gfz2013ncjp  -0.76200
gfz2013neuc  -0.37810
gfz2013ngnt  -0.35670
gfz2013nixj  -0.02160
gfz2013nkgj   0.87230
gfz2013nuvi  -0.30450
gfz2013nwdi  -0.33440
gfz2013oqsc  -1.65570
gfz2013pfbx   0.13210
gfz2013pxsj   0.00840
gfz2013qmer  -0.05400
gfz2013qzdq   0.24720
gfz2013rait   0.79820
gfz2013sebq   0.58520
gfz2013skkm  -1.50190
gfz2013suvn   0.12080
gfz2013svci  -0.07760
gfz2013ufxm   0.60220
gfz2013vexx  -0.39180
gfz2013vfyw   0.44720
gfz2013vfzp   1.09090
gfz2013vjjc   0.56050
gfz2013wjmm   0.31670
gfz2013xsdt   0.17170
gfz2013xyzb  -0.49520
gfz2013yctg   0.14080
gfz2013yhpk  -1.34820
gfz2013yqkv  -0.10450
gfz2013yyhc   0.06610
gfz2014adoj  -0.59720
gfz2014afmx   0.42690
gfz2014algk  -0.16630
gfz2014amsb  -0.45590
gfz2014ande   0.09430
gfz2014arpf  -0.87810
gfz2014bagd   0.13990
gfz2014bwue   0.23600
gfz2014chdv  -0.61340
gfz2014cmwb  -0.17310
gfz2014czqi   0.56760
gfz2014czua  -0.08020
gfz2014dhxt   0.05950
gfz2014disp  -0.18470
gfz2014ehsf   0.41550
gfz2014ekcr   0.16960
gfz2014ekdt   0.17020
gfz2014enhi   0.89970
gfz2014femz  -0.91910
gfz2014fgvi   0.31550
gfz2014fgvr   0.57250
gfz2014fgvz   0.55900
gfz2014fhdw  -0.00000
gfz2014fhla  -0.70340
gfz2014fhrq   0.18420
gfz2014fimn  -2.99230
gfz2014fjzd  -0.58600
gfz2014fkmr  -0.07200
gfz2014frdz  -0.42990
gfz2014frel  -0.37470
gfz2014frez   0.69070
gfz2014frgm  -0.55580
gfz2014ftka  -0.10560
gfz2014ftpw  -0.15170
gfz2014ftrk   1.29400
gfz2014furx  -0.06960
gfz2014fusc   0.28650
gfz2014fusj   0.32050
gfz2014fuub  -0.51430
gfz2014fval   0.56860
gfz2014fvrg  -0.35130
gfz2014gbcz  -0.49460
gfz2014gbdq   1.19790
gfz2014gkgf  -0.88440
gfz2014gkhp   0.51600
gfz2014gkhy   0.86460
gfz2014gkjl   0.08160
gfz2014gkob  -0.08630
gfz2014gkpj  -0.13240
gfz2014gkqf   0.78040
gfz2014gkqu  -0.06350
gfz2014gksj  -1.72070
gfz2014gktq  -0.14950
gfz2014glcu   0.12010
gfz2014glcy  -0.07760
gfz2014gmge  -1.24900
gfz2014gmhp   0.07040
gfz2014gmhr  -1.20550
gfz2014gmip   0.93210
gfz2014gmku   0.58610
gfz2014gmlz  -1.22600
gfz2014gmnb   0.00860
gfz2014gmnw   0.14770
gfz2014gmrj   0.93690
gfz2014gmzl   0.15000
gfz2014gndq  -1.44000
gfz2014gnfd  -0.00000
gfz2014gngg   0.35970
gfz2014gnnt   0.46570
gfz2014gsqs   0.84120
gfz2014gull   0.94150
gfz2014gulp   0.47980
gfz2014gxxo  -0.67160
gfz2014hagb   1.37010
gfz2014hbjm  -2.13360
gfz2014hbqb   0.11210
gfz2014hfhl   0.18020
gfz2014hgqo   0.36100
gfz2014hocg   0.64520
gfz2014hphw  -0.11590
gfz2014hqxs  -0.75320
gfz2014hscz  -1.24210
gfz2014huaj  -0.52360
gfz2014icqt   0.06700
gfz2014ifzj  -0.11270
gfz2014imnn   0.20770
gfz2014inbj   0.19520
gfz2014irci   0.30870
gfz2014isff  -1.04530
gfz2014issk  -1.04080
gfz2014itkw   0.19410
gfz2014itpj  -0.65230
gfz2014iwnf  -0.93570
gfz2014jass   0.21710
gfz2014jatq  -0.44230
gfz2014jcjt  -2.68770
gfz2014jggm   0.74150
gfz2014jjln  -0.39830
gfz2014jnyv   0.01260
gfz2014jpep   0.28860
gfz2014kbuk  -0.70390
gfz2014khlk   1.75620
gfz2014kitm  -0.25400
gfz2014kndc   0.31830
gfz2014knks   0.08420
gfz2014kssw  -2.67260
gfz2014kwrg   0.00000
gfz2014ldhu   0.10620
gfz2014lgqn  -0.27460
gfz2014macx  -0.02220
gfz2014madw  -0.47620
gfz2014mxkr  -0.86850
gfz2014nnxd  -1.19840
gfz2014nowp  -0.20670
gfz2014npeo   0.80340
gfz2014nphm   0.22260
gfz2014nqfm   0.30320
gfz2014nrie   0.14230
gfz2014oxcc   0.03120
gfz2014pvch   0.08130
gfz2014pzni  -0.36400
gfz2014qlxd   0.04810
gfz2014qngj  -0.18900
gfz2014qqhm  -0.62950
gfz2014rdsn  -0.85240
gfz2014riel  -0.25270
gfz2014ssvz  -0.79090
gfz2014szzf  -0.65590
gfz2014tqdo  -0.21500
gfz2014tqsf  -0.24450
gfz2014ubwn  -0.23530
gfz2014xjri  -0.13140
gfz2014yhhm   0.54400
gfz2015atxv  -0.84390
gfz2015berb  -0.17300
gfz2015gckd  -0.28500
gfz2015gjbr  -0.07770
gfz2015gkwa   0.68120
gfz2015hgbk  -0.25070
gfz2015iwqk  -0.95180
gfz2015jmlu  -0.41970
gfz2015jpap   3.89840
gfz2015jwgl  -0.33890
gfz2015jxbx  -5.97730
gfz2015kfsu  -0.16300
gfz2015kkth  -0.03240
gfz2015kphk   0.12550
gfz2015kquq  -3.68170
gfz2015ksni  -0.10260
gfz2015kxxs   0.47560
gfz2015lfma   0.05210
gfz2015lhjy   0.51390
gfz2015lytv  -1.51330
gfz2015mddr  -0.82610
gfz2015mpte  -0.40270
gfz2015nuxz  -1.04340
gfz2015nwug   0.41020
gfz2015ocdz   0.03070
gfz2015okmq   0.41270
gfz2015orkl  -1.05520
gfz2015oyfl  -0.21820
gfz2015poni  -0.21220
gfz2015qnho  -0.00680
gfz2015sdeo  -4.20220
gfz2015sevh   0.06570
gfz2015sfdd   0.47820
gfz2015sfdl   0.59360
gfz2015sfdy  -0.04240
gfz2015sfeo   0.28710
gfz2015sfga   0.62100
gfz2015sfhz  -0.56600
gfz2015sfiq   1.46700
gfz2015sfkh  -0.04820
gfz2015sfmd   0.63790
gfz2015sfnb  -0.18760
gfz2015sfno  -0.26870
gfz2015sfnv  -0.29070
gfz2015sfoc  -0.07980
gfz2015sfom  -0.22020
gfz2015sfpj  -0.67500
gfz2015sfqo  -0.61900
gfz2015sfqr   1.23890
gfz2015sfrc   1.08470
gfz2015sfwf  -0.50740
gfz2015sgad  -0.20880
gfz2015sgyd   0.78300
gfz2015shhu   0.02850
gfz2015shjn   0.21190
gfz2015shjo  -0.02050
gfz2015shsz  -0.56400
gfz2015siem  -0.22410
gfz2015sitn   0.14890
gfz2015sjbx   0.46000
gfz2015sjgk   0.66980
gfz2015sjne   0.94080
gfz2015sjoj   0.15630
gfz2015sjvu   0.11480
gfz2015skxu  -0.23040
gfz2015sldx   0.08080
gfz2015sljs   2.00850
gfz2015smym  -0.77850
gfz2015snwh   0.62680
gfz2015snyd   0.28380
gfz2015soat   0.11140
gfz2015soxc  -0.20590
gfz2015stfy   0.00000
gfz2015susq  -0.32950
gfz2015svwm   0.20440
gfz2015szcb   0.10300
gfz2015taml   0.03460
