# Nsamples: 1095  MAD:  0.862  mean: -0.161  variance:  2.339
gfz2010aban   0.74300
gfz2010aerk  -0.02190
gfz2010ahla   0.15800
gfz2010ahqi  -4.00750
gfz2010aphp  -0.76990
gfz2010bgth   0.93400
gfz2010bhhq   1.94760
gfz2010bifb  -0.46300
gfz2010bjjx  -0.99310
gfz2010bjsl   1.32830
gfz2010bkob  -0.40900
gfz2010bkos  -0.48170
gfz2010boxo  -1.72960
gfz2010bpda   0.16860
gfz2010bxxs  -1.43750
gfz2010caft  -0.97440
gfz2010chnv   0.40760
gfz2010cind  -0.33120
gfz2010civi   0.94220
gfz2010cjmx  -0.01100
gfz2010cjqh   1.94460
gfz2010cjrf   0.55460
gfz2010ckeu  -0.34340
gfz2010cqwl  -0.34250
gfz2010cres   0.15570
gfz2010ctuw  -1.95950
gfz2010czps  -0.55150
gfz2010ddzo  -0.58370
gfz2010dejx   0.58250
gfz2010dfru   0.01740
gfz2010diqn   0.53630
gfz2010dlgc  -0.16670
gfz2010dtmx   0.27630
gfz2010dumm  -1.18330
gfz2010eaoy   1.17040
gfz2010eapk  -0.42210
gfz2010eapn   0.87510
gfz2010eaqe   2.74810
gfz2010eaqx  -7.97850
gfz2010eaqy  -1.38670
gfz2010earq   0.79430
gfz2010earu   0.48870
gfz2010easf  -1.83580
gfz2010easu  -0.81870
gfz2010eati  -0.41930
gfz2010eaty   1.05750
gfz2010eaul  -2.32010
gfz2010eavd  -2.31460
gfz2010eavs  -0.13350
gfz2010eawb   0.08650
gfz2010eawu  -1.13990
gfz2010eaxa  -0.12730
gfz2010eaxn   0.06370
gfz2010eaya   0.48090
gfz2010eayx  -0.68640
gfz2010eaze  -0.28380
gfz2010eazu  -2.12450
gfz2010ebbx  -1.61800
gfz2010ebby   0.14170
gfz2010ebdl  -5.41170
gfz2010ebfa   1.12730
gfz2010ebfx  -0.07930
gfz2010ebhc  -1.95280
gfz2010ebih   1.30630
gfz2010ebjg   0.13050
gfz2010ebjy   0.82810
gfz2010ebkj   0.14930
gfz2010ebkx   0.69180
gfz2010ebll   0.20220
gfz2010ebpa  -0.16480
gfz2010ebqt  -3.08540
gfz2010ebrm  -0.13880
gfz2010ebsv  -0.01980
gfz2010ebvm  -0.01780
gfz2010ebvv   0.08050
gfz2010ebwp  -0.48070
gfz2010ebxl   1.01180
gfz2010ebze  -0.88330
gfz2010ebzk   0.41340
gfz2010ebzr  -0.35110
gfz2010ecam   0.17780
gfz2010ecbi  -0.88130
gfz2010eccq  -0.26840
gfz2010ecdu   0.19100
gfz2010eced  -0.84480
gfz2010ecft  -0.33770
gfz2010ecfx  -1.39070
gfz2010ecfy  -0.33100
gfz2010ecgh   9.50980
gfz2010echt   0.57380
gfz2010echy   0.80260
gfz2010ecka  -0.02960
gfz2010ecls  -0.94340
gfz2010ecml   0.09650
gfz2010ecnm  -0.25680
gfz2010ecns  -0.09090
gfz2010ecpg   0.12510
gfz2010ecps   0.81160
gfz2010ecro  -11.37770
gfz2010ecsp  -0.44620
gfz2010ectq   0.81670
gfz2010ecua   0.41830
gfz2010ecuv  -0.18040
gfz2010ecvt   0.46450
gfz2010ecyr  -0.15110
gfz2010edad   0.67100
gfz2010edat  -0.98880
gfz2010eday  -0.36510
gfz2010edbz  -1.04590
gfz2010edcp   0.53310
gfz2010edde   0.72320
gfz2010edhr   0.25640
gfz2010edhv   0.29120
gfz2010edji  -0.18020
gfz2010edkp   0.64680
gfz2010edoq   0.59250
gfz2010edpb   0.36700
gfz2010edqh  -0.36200
gfz2010edvf  -0.14060
gfz2010edyi  -1.37420
gfz2010edzb  -0.15960
gfz2010eedu  -0.37870
gfz2010eedz   0.00000
gfz2010eefo  -0.77520
gfz2010eeia   0.18200
gfz2010eeij  -2.30540
gfz2010eekg   0.96540
gfz2010eekq  -1.02790
gfz2010eell   2.63970
gfz2010eeng  -1.44710
gfz2010eeqy   0.75260
gfz2010eern   1.22790
gfz2010eesf   1.07380
gfz2010eevu   0.46340
gfz2010eexz  -0.49140
gfz2010eeyh  -0.14060
gfz2010efak   0.85780
gfz2010efbh  -0.46760
gfz2010efkc  -0.06660
gfz2010efnf  -0.17220
gfz2010efsq   0.58930
gfz2010efxf  -1.75610
gfz2010eghq  -0.21590
gfz2010egld  -0.63420
gfz2010egln   0.05390
gfz2010egmp   0.08960
gfz2010egqh   0.48580
gfz2010egsw  -0.23920
gfz2010egyy  -0.21870
gfz2010ehaj   1.09640
gfz2010eher   0.08680
gfz2010ehft  -0.55310
gfz2010ehnm   0.31190
gfz2010ehrq   0.51230
gfz2010ehsy  -0.35630
gfz2010ehvj   0.36910
gfz2010ehwg   0.35380
gfz2010ehxz   1.11920
gfz2010eimf   0.04120
gfz2010eioi  -1.79080
gfz2010eiqi  -1.45770
gfz2010eisx   0.38310
gfz2010eixj   1.01310
gfz2010ejae   0.24250
gfz2010ejco  -0.01980
gfz2010ejjg  -0.11750
gfz2010ejju   2.20920
gfz2010ejka  -0.36360
gfz2010ekaw  -0.76430
gfz2010ekoe  -1.65710
gfz2010ekrv   0.01170
gfz2010ekyc  -2.31980
gfz2010elhv  -0.89200
gfz2010eljf  -1.87540
gfz2010elpu   0.17290
gfz2010elsw  -0.10890
gfz2010eltf   1.27020
gfz2010elvp  -0.51560
gfz2010elxi  -1.11570
gfz2010elyo   1.19100
gfz2010elzf  -0.34180
gfz2010elzl  -0.34860
gfz2010emoz  -0.65460
gfz2010emyz  -8.44070
gfz2010encm   0.25370
gfz2010engw  -0.41360
gfz2010enpa   2.61060
gfz2010ensu   0.35810
gfz2010eoao   8.73550
gfz2010eohh  -1.64900
gfz2010eomb  -3.48540
gfz2010epbe  -2.10140
gfz2010epud  -1.23210
gfz2010epxj   0.52810
gfz2010epzk  -0.91650
gfz2010eqjg  -2.19170
gfz2010eqmu  -1.26370
gfz2010eqse  -0.09260
gfz2010erda  -1.38700
gfz2010erfy  -1.23280
gfz2010erig  -0.60250
gfz2010erkn   1.10640
gfz2010ermi  -1.06720
gfz2010erna   0.20230
gfz2010erom   0.56260
gfz2010erum  -0.71820
gfz2010eruy  -0.36370
gfz2010erwn  -2.70820
gfz2010erxb   0.31680
gfz2010eryg  -0.41960
gfz2010esmg  -0.83480
gfz2010esou   0.21610
gfz2010eted  -1.71400
gfz2010etfw  -0.19680
gfz2010euae   0.14550
gfz2010euan  -0.07330
gfz2010euii  -1.75790
gfz2010eujm   0.52820
gfz2010eutw  -0.16400
gfz2010euvl  -0.30980
gfz2010euwb  -2.08440
gfz2010euxe   0.44330
gfz2010evco  -4.08380
gfz2010evgf   0.22100
gfz2010evjv   1.42940
gfz2010evkd   0.39020
gfz2010ewbc   0.19970
gfz2010ewpq   0.42080
gfz2010ewvc  -0.91940
gfz2010ewyu  -0.96740
gfz2010excp   1.15870
gfz2010exdd   1.61910
gfz2010exdl   0.67410
gfz2010exed   0.65040
gfz2010exel  -0.92120
gfz2010exfb  -0.19710
gfz2010exgb  -0.59460
gfz2010exhd   0.12130
gfz2010exjw   0.02860
gfz2010exlm  -0.72190
gfz2010exmc   0.27290
gfz2010exno   0.05510
gfz2010exou  -0.25810
gfz2010exqu   0.07710
gfz2010exsg  -0.22620
gfz2010exts  -1.56810
gfz2010exyp   0.03650
gfz2010eyaz  -0.73220
gfz2010eybj  -0.81560
gfz2010eyhh  -0.12890
gfz2010eyiv   0.12190
gfz2010eymr  -1.19740
gfz2010eyqe  -0.42300
gfz2010eyvq   0.18720
gfz2010eyxe  -0.37270
gfz2010ezuj  -8.38730
gfz2010ezvg  -0.94680
gfz2010ezvt  -1.52210
gfz2010ezwz  -4.91660
gfz2010faeu  -0.61340
gfz2010falm   0.13000
gfz2010fauz  -0.82140
gfz2010faxg  -1.03350
gfz2010fbeu  -0.24130
gfz2010fbpi   1.46630
gfz2010fcax   0.41630
gfz2010fcdw   0.22640
gfz2010fciw   0.53970
gfz2010fcnn   1.03370
gfz2010fcxy   1.48290
gfz2010fcyj  -1.52150
gfz2010fczt  -1.95990
gfz2010fdxr  -1.95320
gfz2010fedq  -1.44380
gfz2010fefr  -0.25200
gfz2010fexw   4.91470
gfz2010ffhq   0.59290
gfz2010ffjb   0.11210
gfz2010ffui  -0.87540
gfz2010fhbl   0.74160
gfz2010figq  -0.54720
gfz2010fihj   1.02140
gfz2010fika   0.41490
gfz2010fisf   0.13870
gfz2010fixr  -1.28390
gfz2010fjal  -0.36750
gfz2010fjas   0.00000
gfz2010fjmu  -1.91430
gfz2010fjni   0.80690
gfz2010fkhd   0.69120
gfz2010fkia   0.71590
gfz2010fknh  -0.36590
gfz2010fkvg   0.00000
gfz2010flha  -0.79660
gfz2010flkj  -0.76280
gfz2010floi   0.24030
gfz2010flrt   0.13830
gfz2010flxi  -0.19820
gfz2010fmhb  -0.97150
gfz2010fmip   0.87770
gfz2010fmpy  -0.02180
gfz2010fmwb  -0.35800
gfz2010fneu  -0.51570
gfz2010fnrk   2.22300
gfz2010fobc  -0.25500
gfz2010fona  -7.54450
gfz2010fpmv   0.26110
gfz2010fpqy  -0.25380
gfz2010fqdu   0.35200
gfz2010fser  -0.10650
gfz2010fsmy  -0.08850
gfz2010fsth  -0.20430
gfz2010ftsx   2.16020
gfz2010fupn  -0.38390
gfz2010fuuy   0.74850
gfz2010fuwa  -0.49910
gfz2010fvuc   0.19200
gfz2010fwkk   0.01960
gfz2010fwny  -0.27390
gfz2010fwpv  -0.01980
gfz2010fwzd   0.71000
gfz2010fyed   0.16330
gfz2010fyen  -0.54380
gfz2010fync  -0.10590
gfz2010fzoi   0.44620
gfz2010fzyt   1.14010
gfz2010gcdn   0.35380
gfz2010gceb  -0.15650
gfz2010gcrl  -2.36830
gfz2010gcrp   0.21650
gfz2010gdch   3.73270
gfz2010gdld  -0.42610
gfz2010ghyk  -0.21030
gfz2010ginm   0.23590
gfz2010gjia  -1.19000
gfz2010gjvo  -0.11500
gfz2010glqr  -0.47580
gfz2010glxl  -0.13660
gfz2010gmib  -0.14570
gfz2010govu   1.27370
gfz2010grss   0.72710
gfz2010grxb  -0.22410
gfz2010gslu  -0.51460
gfz2010gtqs   0.31310
gfz2010gtzt   0.45520
gfz2010gvya  -2.40910
gfz2010gwmp  -0.10550
gfz2010gymo  -9.72610
gfz2010gyqp  -3.09800
gfz2010gzxr  -2.71060
gfz2010hakh   0.51830
gfz2010hbka  -0.05770
gfz2010hcio  -0.94980
gfz2010hevz  -1.33400
gfz2010hgld   0.27730
gfz2010hhls   0.46210
gfz2010hjoc  -0.41790
gfz2010hllj  -0.14780
gfz2010hndk  -2.30110
gfz2010hnnf  -0.27930
gfz2010hnpi  -0.18110
gfz2010hnzr  -0.96600
gfz2010homc  -3.42930
gfz2010hptz  -0.37840
gfz2010hrkr   0.45940
gfz2010htdq   1.16850
gfz2010hufk   0.00300
gfz2010hxgv   0.63930
gfz2010hxhe   0.87710
gfz2010hykt  -0.14330
gfz2010hzar  -0.29020
gfz2010iauj   0.04230
gfz2010ibiy  -0.70670
gfz2010icqq   0.07050
gfz2010iefy  -0.07730
gfz2010ihrq  -0.32260
gfz2010iibf  -0.26490
gfz2010iimu  -0.06860
gfz2010ijtk   0.39710
gfz2010imfv   0.97880
gfz2010iobp   0.81070
gfz2010iphd   0.19760
gfz2010iqep   0.39310
gfz2010iqfm  -2.67090
gfz2010iqnm   0.71810
gfz2010iqus  -2.66810
gfz2010irqr   0.45610
gfz2010irvf   0.42730
gfz2010isrp   0.05270
gfz2010itpb  -0.48670
gfz2010iull  -0.14540
gfz2010ixyc  -1.06240
gfz2010jhie  -0.54500
gfz2010jitt  -0.03850
gfz2010jlhj   0.38560
gfz2010jpss   0.51490
gfz2010jpyj   0.82230
gfz2010jsuh   3.59230
gfz2010jsuo  -0.25400
gfz2010jucj  -0.34180
gfz2010jwpy   0.20950
gfz2010jxbm  -0.16720
gfz2010jygz   2.88080
gfz2010jzku   0.68910
gfz2010kcoo  -0.59250
gfz2010kdyc   0.16730
gfz2010kgws  -0.75170
gfz2010kihf  -1.61150
gfz2010kjmp   0.27070
gfz2010kmgg  -0.43510
gfz2010kown  -0.01810
gfz2010kraw   1.60100
gfz2010kyen   2.66080
gfz2010kyvj   0.35740
gfz2010lcoq  -0.43830
gfz2010lfju   0.83440
gfz2010liqs  -0.47210
gfz2010lkcf   0.38800
gfz2010lopz   0.45510
gfz2010lwuq  -2.84200
gfz2010lyfk   0.48870
gfz2010mant   1.06630
gfz2010mbje   0.11740
gfz2010mcrx   0.54800
gfz2010mdpq   0.03850
gfz2010mlkz  -0.37090
gfz2010mpuy  -0.65310
gfz2010ncrl   0.18110
gfz2010ndxl  -0.48520
gfz2010nfsj  -0.70790
gfz2010nrew  -0.26200
gfz2010nrjo   0.35960
gfz2010nsck   0.05010
gfz2010nsdf  -1.25530
gfz2010nsfx  -0.59270
gfz2010ntuo  -0.80350
gfz2010nxsy   0.00000
gfz2010nxum   1.47880
gfz2010ocxq   0.75510
gfz2010odpb   2.31900
gfz2010oedn  -1.44230
gfz2010okdm   0.08860
gfz2010oluw   1.63640
gfz2010onma  -2.07150
gfz2010osjs  -1.14330
gfz2010osqo  -0.03210
gfz2010otbn  -0.07630
gfz2010oyqy   1.58430
gfz2010pfyu   0.50790
gfz2010phvg   0.87570
gfz2010plbg  -1.33480
gfz2010pmqd   0.03670
gfz2010pqck  -1.32860
gfz2010pxgh  -3.72400
gfz2010pxls  -0.31800
gfz2010qbng   0.15700
gfz2010qpum   1.03660
gfz2010qpvi  -1.70400
gfz2010qttw  -0.56730
gfz2010qwwx   0.39270
gfz2010rkfp  -0.01980
gfz2010rlbv   0.08800
gfz2010rqwj  -0.36840
gfz2010rywq  -0.24850
gfz2010rzrr  -3.73860
gfz2010sfee  -0.85490
gfz2010sfla  -0.09100
gfz2010sgzk  -0.33140
gfz2010skqo  -0.87140
gfz2010skve  -1.31530
gfz2010srdb  -0.65830
gfz2010suww  -0.21710
gfz2010svtn  -0.75270
gfz2010svve   1.62700
gfz2010swcy   0.48070
gfz2010sxfq   0.62930
gfz2010sxwt  -3.04100
gfz2010sysw  -0.15590
gfz2010szde  -5.87990
gfz2010szim  -0.41380
gfz2010tlfm   0.22710
gfz2010truw  -1.40060
gfz2010txjs  -0.18220
gfz2010tzzk   0.05610
gfz2010uept   0.16060
gfz2010upfb   1.50150
gfz2010upiw   1.13860
gfz2010urlq   1.01640
gfz2010usho   0.22740
gfz2010ustq  -0.74810
gfz2010utcg   0.54730
gfz2010utmc  -0.04880
gfz2010utvp   0.17940
gfz2010uvhf   0.50790
gfz2010uyhb   3.11440
gfz2010uzon   0.11650
gfz2010vbmd   0.35940
gfz2010veri   0.71920
gfz2010vhuj  -0.52440
gfz2010vppc   0.56030
gfz2010vtdg   0.16090
gfz2010vxvs   2.46130
gfz2010vzpr   1.71530
gfz2010vzzz  -1.51100
gfz2010wnty  -0.52820
gfz2010wofs   1.48980
gfz2010wrxx   0.99620
gfz2010xbdv  -11.51160
gfz2010xbgs  -1.07780
gfz2010xcdh  -1.63440
gfz2010xden   0.51780
gfz2010xgzw  -0.50000
gfz2010xjck  -0.33400
gfz2010xjsj  -0.64650
gfz2010xmpr   0.66090
gfz2010xnxk   0.97800
gfz2010xxzn  -1.22440
gfz2010yfsv   0.12670
gfz2010yjev  -1.21940
gfz2010ymfy   0.35690
gfz2010ymur   1.61050
gfz2010yosr   1.59140
gfz2010yoyx   1.95540
gfz2010yqqv   0.09850
gfz2010zdpo   0.66390
gfz2011aatr  -3.89440
gfz2011adjs  -0.08480
gfz2011adlj  -0.45450
gfz2011adne  -1.21680
gfz2011adpw  -0.79010
gfz2011adqk   1.31600
gfz2011aeay   1.22290
gfz2011ahfw  -2.22730
gfz2011aldv  -0.72670
gfz2011alip  -1.47770
gfz2011alsa  -2.00840
gfz2011alwf   0.92540
gfz2011anur   2.82400
gfz2011aosc  -0.03120
gfz2011aqxf  -1.32250
gfz2011asru  -12.86060
gfz2011aupi   0.12970
gfz2011blsi   1.75010
gfz2011bswz  -0.96850
gfz2011coxh  -1.80570
gfz2011crdy   1.37300
gfz2011csju   0.94950
gfz2011ctbn   0.42580
gfz2011cvfg   0.31140
gfz2011cwgn  -1.01490
gfz2011cykd   0.77400
gfz2011cylz   1.12910
gfz2011cynl   0.85270
gfz2011cyre   0.97690
gfz2011cyuk   0.63880
gfz2011czwj  -0.39710
gfz2011dddh  -1.10510
gfz2011deaf   0.16340
gfz2011deja  -0.72350
gfz2011dkyi  -0.42190
gfz2011dllz  -4.93060
gfz2011dlyx   0.33610
gfz2011dpaa   0.00000
gfz2011dpmx   2.13420
gfz2011dpqx  -0.67510
gfz2011dtpy  -0.98590
gfz2011duyr   0.79330
gfz2011eayc  -0.57050
gfz2011eazf   0.08730
gfz2011ecaj  -0.08890
gfz2011ecsc   0.07700
gfz2011edmm   0.55870
gfz2011efgv  -0.88500
gfz2011ehzq  -0.00000
gfz2011eiis  -1.31400
gfz2011ejlp  -0.42700
gfz2011ekpr  -0.00000
gfz2011eltw   0.73720
gfz2011enva   0.69340
gfz2011eocc   0.29980
gfz2011etje  -1.51130
gfz2011fgvr  -1.68090
gfz2011fhag   0.36990
gfz2011fhbm   3.50440
gfz2011fhur  -0.03440
gfz2011fkbn   2.28990
gfz2011flgj   0.93590
gfz2011flhp  -0.54830
gfz2011fnsw  -2.29670
gfz2011gbmx  -0.18060
gfz2011gcwb  -0.67240
gfz2011gdgh  -0.39830
gfz2011ggvf  -0.97670
gfz2011ghky  -0.52050
gfz2011gjlx   0.32330
gfz2011gkey   0.86960
gfz2011gkzt   1.44200
gfz2011hebt   0.02870
gfz2011hfkj  -0.19820
gfz2011hlqw  -2.72740
gfz2011hlsa  -2.82970
gfz2011hlth  -1.24320
gfz2011hpgx   0.28200
gfz2011hpqp  -0.47400
gfz2011hrhe  -0.10430
gfz2011hrhu   0.76420
gfz2011hryk  -0.03250
gfz2011hsfj   1.70530
gfz2011hvbu  -0.12310
gfz2011ieie  -1.06630
gfz2011iwte   1.37620
gfz2011izqa  -0.10500
gfz2011izto   1.10430
gfz2011jbbc   0.10020
gfz2011jdsj   1.98090
gfz2011jghb  -0.47320
gfz2011jmbn  -0.72290
gfz2011jnmi  -0.61700
gfz2011jplh  -3.52240
gfz2011jtlg   0.17360
gfz2011juid   0.33000
gfz2011jxpl   0.87750
gfz2011knbi  -2.30080
gfz2011knoo   0.16190
gfz2011kqwo   0.49610
gfz2011kqyg  -0.27080
gfz2011ksiu   1.88060
gfz2011kwhq   1.30300
gfz2011kwld   0.15410
gfz2011kwlq  -0.31200
gfz2011kwni  -0.06060
gfz2011kwqc  -0.53260
gfz2011kxzp  -0.15840
gfz2011lcxq  -1.29040
gfz2011lczg   0.31380
gfz2011lggq   0.46240
gfz2011lgsg   0.48310
gfz2011lhls   0.46410
gfz2011lvjr   0.68900
gfz2011lzwj  -0.08770
gfz2011mdie  -2.62160
gfz2011mepc  -0.20530
gfz2011mjom   1.01360
gfz2011mllx   1.72970
gfz2011mlvw   0.89810
gfz2011mpme   0.59920
gfz2011mprq  -1.05100
gfz2011myia  -0.70160
gfz2011nauw   0.09020
gfz2011necz  -0.51860
gfz2011nmnq  -0.61670
gfz2011nmqj  -0.58420
gfz2011noud   1.64160
gfz2011nowp   1.08900
gfz2011nqpd   1.54840
gfz2011nrwc  -0.92940
gfz2011nsex   0.37510
gfz2011ntkh   0.34780
gfz2011nudm  -0.88500
gfz2011ogqk  -0.80180
gfz2011ohcy  -2.33560
gfz2011oiqe   0.53130
gfz2011oiwk   1.02870
gfz2011olkk  -0.49460
gfz2011oolr  -0.12330
gfz2011orgn   0.08840
gfz2011ornx  -0.84270
gfz2011owvz  -2.00140
gfz2011ozsl   0.20060
gfz2011pccd  -0.88840
gfz2011pdpt  -0.52990
gfz2011pdst  -0.28120
gfz2011phms  -0.27180
gfz2011pntf  -1.30960
gfz2011ptus  -0.85990
gfz2011qvae   0.26990
gfz2011qyms  -0.74600
gfz2011rabm  -0.56650
gfz2011rdby   2.80970
gfz2011rewa  -2.41840
gfz2011rgwp   0.36900
gfz2011rnut   0.65470
gfz2011rqui  -2.10040
gfz2011rsrh   0.56460
gfz2011runa   1.57070
gfz2011rznl  -0.80640
gfz2011sagt  -0.89690
gfz2011sawg  -0.08740
gfz2011shqm  -0.00000
gfz2011stal   0.04740
gfz2011sthv  -0.49680
gfz2011tbas  -0.39170
gfz2011tcij  -0.90810
gfz2011tivu   0.88210
gfz2011tjrf   0.05600
gfz2011tjue   0.82810
gfz2011tkfp  -0.74460
gfz2011tkog  -2.23770
gfz2011toub  -2.81260
gfz2011tpbl  -0.52170
gfz2011tpfr   0.12380
gfz2011tuea   0.39950
gfz2011twov  -0.34970
gfz2011udsq   0.45170
gfz2011ueni   0.73230
gfz2011ugzz   1.03080
gfz2011ujze  -0.67630
gfz2011ukmp  -0.07520
gfz2011unkx  -0.64770
gfz2011uphh  -0.36020
gfz2011urxy   0.60180
gfz2011urzu  -0.01280
gfz2011uzqv   1.43440
gfz2011vclt  -3.29080
gfz2011vhfi  -1.67860
gfz2011vkun   0.30120
gfz2011vldk   0.00000
gfz2011vnza  -1.32530
gfz2011vqrj   0.21720
gfz2011vrhg  -2.68680
gfz2011vxns   0.03280
gfz2011vxod  -2.97410
gfz2011vxxg   2.54300
gfz2011wfja  -0.18480
gfz2011wijj   1.32940
gfz2011wjkf  -0.20060
gfz2011wjul   0.37910
gfz2011wwjs   0.06690
gfz2011wxfs  -0.93890
gfz2011wxoj  -0.77170
gfz2011wxtk  -1.98460
gfz2011wype  -0.61470
gfz2011xaan  -0.69820
gfz2011xcpv  -0.08940
gfz2011xesx   0.78440
gfz2011xqru   2.19790
gfz2011xyxj  -0.14980
gfz2011yfdx  -0.98930
gfz2011ytnu   0.33460
gfz2011yybo  -0.49590
gfz2011yzwq   0.35440
gfz2011zjap   0.01540
gfz2011zklv  -0.73690
gfz2011zlfg   1.45080
gfz2011zqhh  -2.16150
gfz2012ablh   0.12510
gfz2012ajtq  -0.05700
gfz2012attr   1.14630
gfz2012bfah   0.27670
gfz2012bpkx  -0.07400
gfz2012bpnl   0.14320
gfz2012bpwl  -0.35400
gfz2012bqeb   0.22680
gfz2012brhv   0.56940
gfz2012byad   1.68570
gfz2012cevz  -0.48610
gfz2012cgvr  -0.26450
gfz2012ckxi  -0.45430
gfz2012cmfy  -2.24290
gfz2012covm   0.72260
gfz2012cqnl  -3.73500
gfz2012cxdn  -0.61610
gfz2012czlw  -0.77070
gfz2012ddma   0.89970
gfz2012dimn   1.07570
gfz2012djwi  -1.33060
gfz2012dyyh   0.70690
gfz2012ekda  -0.44640
gfz2012ekzf  -2.58400
gfz2012elce   1.06690
gfz2012emjg   1.05230
gfz2012enno  -2.87260
gfz2012eskt  -0.14250
gfz2012ewgo   1.05410
gfz2012ezvr  -0.61830
gfz2012fbfo  -1.12000
gfz2012fhnh  -0.96310
gfz2012fivh  -0.03730
gfz2012foeo  -0.09970
gfz2012fwfo   0.02040
gfz2012fzfa   0.76800
gfz2012fzsq  -0.68460
gfz2012gcgn   0.08240
gfz2012gkvr  -1.68180
gfz2012glss   0.80460
gfz2012gukw  -0.65120
gfz2012gwmu   0.08640
gfz2012gwqb  -1.96390
gfz2012hdbm  -0.08470
gfz2012hnul  -1.00760
gfz2012hogg  -1.41620
gfz2012hsex  -0.42640
gfz2012hwmz   0.19190
gfz2012hwyo   0.22960
gfz2012hzbe   2.11580
gfz2012ihdl   0.35790
gfz2012iivw  -0.13740
gfz2012ilvn   0.21590
gfz2012imay   0.28930
gfz2012imbd   1.92700
gfz2012jgvj  -4.07980
gfz2012jjzc   2.72270
gfz2012jlox   0.31500
gfz2012jpeh  -0.16810
gfz2012jpgs   1.14370
gfz2012jqvn   0.21240
gfz2012jshk   0.39110
gfz2012jted  -0.61690
gfz2012jupx  -0.95690
gfz2012jwhu  -0.01400
gfz2012jxiy   0.14670
gfz2012kbzj  -0.83350
gfz2012kdmb  -1.28320
gfz2012keor  -0.84710
gfz2012kkup  -2.54130
gfz2012klba  -0.26270
gfz2012klhx  -2.25340
gfz2012kuct  -3.50250
gfz2012kudo  -3.83410
gfz2012kvzv  -2.53740
gfz2012kwgo   0.55650
gfz2012lczo  -0.98350
gfz2012ldgs   0.43970
gfz2012ldxg   0.94200
gfz2012ledy   0.38140
gfz2012lltr   0.65760
gfz2012llug   1.03640
gfz2012lrsv  -0.14360
gfz2012lsni  -0.31630
gfz2012lxkv   0.13030
gfz2012lzmr   0.69980
gfz2012maxy   0.01440
gfz2012mcze   0.09430
gfz2012mdmy   0.53440
gfz2012mkpn   0.07720
gfz2012mlyf  -0.04850
gfz2012mofm   5.65580
gfz2012mpvy  -0.18970
gfz2012mtiu  -0.48130
gfz2012mupa   0.73210
gfz2012mwij   1.13090
gfz2012myqa   1.48060
gfz2012naqz   0.75950
gfz2012nbtn   0.82450
gfz2012nedn   0.89430
gfz2012ngic  -0.12750
gfz2012njha  -0.38570
gfz2012nkdf  -0.51340
gfz2012nojx   0.73100
gfz2012nqnk   0.13860
gfz2012nsbz  -0.46080
gfz2012ntzv  -1.87290
gfz2012nutf  -1.52130
gfz2012nxog   1.98460
gfz2012nxyt   0.18490
gfz2012oazn   0.71530
gfz2012obgw  -1.16820
gfz2012obnq  -0.58180
gfz2012oedb  -1.52220
gfz2012ofpe  -0.71850
gfz2012omvo  -1.87100
gfz2012ostk   0.77680
gfz2012ovqs   1.39060
gfz2012oycg   0.96570
gfz2012pkel  -0.28880
gfz2012plbw   0.75450
gfz2012plea  -0.69370
gfz2012pofl   1.36110
gfz2012pqlt  -2.91770
gfz2012pqmk   0.69800
gfz2012pqmu  -2.12770
gfz2012pspd   0.27900
gfz2012pygp   1.05520
gfz2012qjhs  -1.33650
gfz2012qouy  -0.54920
gfz2012qqxg   3.78200
gfz2012qtgs   0.47510
gfz2012quso  -1.22220
gfz2012qxcy  -0.17380
gfz2012rats  -1.86160
gfz2012rboy  -0.70090
gfz2012rcbq   1.51880
gfz2012rcds   0.18940
gfz2012rcnj   0.02370
gfz2012repv  -1.23900
gfz2012rjsd  -0.18280
gfz2012rknn   0.26480
gfz2012ronz   0.15160
gfz2012royy  -0.05850
gfz2012rqlg   1.32690
gfz2012rtqi  -1.00910
gfz2012rubi   1.23350
gfz2012ruks   0.43160
gfz2012rwko   0.28760
gfz2012rwov   0.09230
gfz2012rwql   2.26470
gfz2012rypu   0.08440
gfz2012sfer   0.55950
gfz2012shtg  -0.11430
gfz2012sjea  -0.06050
gfz2012snhi   0.44030
gfz2012spbj  -0.42370
gfz2012sphd   0.70160
gfz2012ssyn   0.14790
gfz2012syvl   1.09830
gfz2012tazz   0.68890
gfz2012tbbp  -0.66710
gfz2012teic  -0.20950
gfz2012thfx  -1.17830
gfz2012tpzx  -0.96700
gfz2012ttoa  -1.46750
gfz2012tyig   1.26160
gfz2012tzcc   1.60590
gfz2012tzgb   4.54720
gfz2012uafg  -1.49810
gfz2012uciv   0.58410
gfz2012ueqo   1.21990
gfz2012ufew   0.71330
gfz2012ulpd   0.26430
gfz2012uqzp   0.88880
gfz2012usba  -0.78470
gfz2012uvqf  -1.01910
gfz2012uxnz   0.41630
gfz2012uyxb   0.66530
gfz2012uzom  -2.00370
gfz2012vceo  -0.15860
gfz2012vdbt  -0.97670
gfz2012viab   0.41720
gfz2012vjgl   2.25560
gfz2012vmeh   0.73320
gfz2012vnbk  -0.20010
gfz2012vntz   1.09870
gfz2012vwvd   0.80520
gfz2012vxvr   0.83060
gfz2012wajj   0.16250
gfz2012wdyx   0.85360
gfz2012wecd  -3.90210
gfz2012whku  -0.15930
gfz2012wizz   0.94190
gfz2012wklq  -1.22290
gfz2012wmkd  -0.54510
gfz2012wmsg  -1.29730
gfz2012wpeq  -0.32450
gfz2012wqnc  -0.56960
gfz2012wrir   0.18600
gfz2012wtkh   1.05240
gfz2012wtkr  -0.35260
gfz2012wubh   0.94240
gfz2012wvfl   0.02570
gfz2012wxer   1.07850
gfz2012wxkg  -0.16240
gfz2012wxlg  -0.61550
gfz2012wxnt   0.51630
gfz2012wxnu   0.01900
gfz2012wybs   0.35060
gfz2012wypz  -3.96570
gfz2012xbjq   1.28310
gfz2012xdna   0.34370
gfz2012xjyv   1.40050
gfz2012xkkv   0.64570
gfz2012xvwn   0.12150
gfz2012xwqa  -0.88780
gfz2012xyqp   0.17020
gfz2012xyua   0.95970
gfz2012yldu   1.75160
gfz2012yoie   0.93780
gfz2012yqjj   0.55790
gfz2012zmbp  -1.33740
gfz2012zmln  -1.24930
gfz2012zsqk   0.61970
gfz2013acag   0.88120
gfz2013apmm  -1.26340
gfz2013azzr  -0.14080
gfz2013btjm  -0.06370
gfz2013ccnr  -0.53080
gfz2013cnve   3.39600
gfz2013dqls   0.45010
gfz2013drpk   1.12680
gfz2013drxz  -2.33950
gfz2013dvye  -0.42820
gfz2013dvyh   1.00350
gfz2013gxsu   1.19440
gfz2013igmx   1.94150
gfz2013nttq   0.17350
gfz2013oqsc  -6.03110
gfz2013poxj   2.16940
gfz2013wrgw  -2.54570
gfz2013xyzb  -2.84560
gfz2015plal  -0.05470
gfz2015poni   0.12040
gfz2015puah  -0.41720
gfz2015puqp  -0.10640
gfz2015qafb  -0.91320
gfz2015qbme  -0.79950
gfz2015qiit   1.69480
gfz2015qisx   2.40240
gfz2015qnho   0.68440
gfz2015qnlv   0.43150
gfz2015qnto  -0.62310
gfz2015qprd  -0.04920
gfz2015qpvd  -0.31410
gfz2015quzo   0.26510
gfz2015qvxu   1.15940
gfz2015rddx   0.27580
gfz2015rgov  -0.40530
gfz2015rgrg   0.02100
gfz2015rgst  -1.23300
gfz2015rkbq  -0.28850
gfz2015rkrg  -0.85650
gfz2015rkzg  -7.19210
gfz2015rnis   0.85060
gfz2015roac   0.17270
gfz2015rpzn   0.46360
gfz2015rwsb  -0.22090
gfz2015rxmg   0.12300
gfz2015saet   3.57050
gfz2015sdeo   1.96260
gfz2015sdfy   2.31590
gfz2015seuf   0.52960
gfz2015sevh   2.19770
gfz2015sfdd   0.72320
gfz2015sfks   0.77010
gfz2015sfln  -1.85340
gfz2015sfqo   0.14460
gfz2015sftu   1.10650
gfz2015sfwf   0.89800
gfz2015sgmm   1.23980
gfz2015shel   0.55760
gfz2015shlp  -0.62680
gfz2015shov   0.54400
gfz2015shwt   0.37380
gfz2015sicf  -0.00000
gfz2015sicu   0.34920
gfz2015siem   0.15540
gfz2015siof  -0.09550
gfz2015sist   0.24290
gfz2015sitn   0.31950
gfz2015siyy   0.40590
gfz2015sjbx  -0.08310
gfz2015sjeq   0.18210
gfz2015sjgk   0.15610
gfz2015sjjb  -0.53280
gfz2015sjne  -1.45180
gfz2015sjvu  -0.15030
gfz2015skab  -0.46540
gfz2015skgj  -0.33670
gfz2015sklu  -2.24030
gfz2015skpv  -0.02710
gfz2015sldx  -0.15050
gfz2015slfn   0.20720
gfz2015sljs   0.50100
gfz2015slun  -0.37570
gfz2015smgj   0.82640
gfz2015smym   0.15200
gfz2015snhn   0.38440
gfz2015snmr  -0.43180
gfz2015snsf  -0.37640
gfz2015snwh   1.23220
gfz2015snyd   0.64360
gfz2015soat   0.42340
gfz2015sowu   1.96740
gfz2015soxc   0.57360
gfz2015sozw  -0.01720
gfz2015spal   0.25000
gfz2015spxh   0.04680
gfz2015sqbg  -0.59820
gfz2015sqmy  -0.29030
gfz2015sqwv  -0.48440
gfz2015sqyh  -0.62410
gfz2015srat  -0.70660
gfz2015srgf   0.11570
gfz2015srxe   0.45460
gfz2015srxm   0.97490
gfz2015ssaf  -0.76040
gfz2015ssoe   0.08910
gfz2015stas   1.18380
gfz2015stso   0.96170
gfz2015subg  -0.90010
gfz2015subx   0.65560
gfz2015sunp  -0.28970
gfz2015svjy  -1.01740
gfz2015svwm   0.38310
gfz2015swgn  -0.29160
gfz2015sxgd  -0.37460
gfz2015sxxu   0.45430
gfz2015sydc   0.34380
gfz2015szcb  -2.85180
gfz2015szfe  -0.30170
gfz2015sztx   1.56350
gfz2015taml  -1.44530
gfz2015tbje   0.42200
gfz2015tbxe   0.14100
gfz2015tcem   0.07500
gfz2015tdbb  -0.10750
gfz2015tdcu  -0.52700
