# Nsamples: 892  MAD:  0.509  mean:  0.086  variance:  0.642
gfz2010aerk   0.18430
gfz2010ahqi   0.00000
gfz2010awfi   1.11900
gfz2010bfzs   0.28960
gfz2010bgth  -0.45560
gfz2010bhhq  -0.45370
gfz2010bjeb  -0.21610
gfz2010bjsl  -1.49600
gfz2010bowy  -0.31920
gfz2010boxo   0.52350
gfz2010bpda   0.18350
gfz2010bxxs   0.59370
gfz2010cdbt   1.64100
gfz2010chnv   0.57210
gfz2010cjqh  -0.41190
gfz2010cjrf   0.32010
gfz2010ckeu   0.03280
gfz2010ckzm   1.72260
gfz2010cnwc   0.70590
gfz2010cqwl   0.15070
gfz2010ctuw   0.58370
gfz2010czps   0.32010
gfz2010dfru   0.03370
gfz2010dlgc   0.10200
gfz2010eaoy  -0.02550
gfz2010ebeh   0.23760
gfz2010ebfx  -0.16730
gfz2010ebgj   0.04790
gfz2010ebhc   1.02100
gfz2010ebqt  -0.46650
gfz2010ebwp  -0.07830
gfz2010edqh   0.41010
gfz2010edyi  -0.42500
gfz2010eedz   0.05260
gfz2010eell  -0.01940
gfz2010eexz  -0.59450
gfz2010efak  -1.17800
gfz2010efbh   1.24840
gfz2010efbi   0.39990
gfz2010efkc  -0.87660
gfz2010efls  -0.15210
gfz2010efnf   0.24720
gfz2010efsq   0.21030
gfz2010efwo  -0.60740
gfz2010efxf  -0.39970
gfz2010eghq   0.43030
gfz2010egld   2.60210
gfz2010ehrq  -0.62180
gfz2010ehsy   0.18570
gfz2010ehxz  -1.53390
gfz2010epzk  -3.08760
gfz2010erxk   0.33790
gfz2010eryg   0.24130
gfz2010fdxr  -0.27140
gfz2010fedq  -0.07640
gfz2010fefr   1.42710
gfz2010ffhq  -0.22880
gfz2010ffjb   0.12130
gfz2010ffui   6.50290
gfz2010figq  -0.91400
gfz2010fika  -0.91680
gfz2010fixr   0.26210
gfz2010fjal   0.39220
gfz2010fjas  -1.72860
gfz2010fkhd  -0.46080
gfz2010fkia   0.38280
gfz2010fknh   0.40030
gfz2010fkvg   0.22030
gfz2010flha   0.08540
gfz2010flrt  -0.41650
gfz2010flxi   0.32040
gfz2010fmhb   1.67460
gfz2010fneu   0.65340
gfz2010fnrk  -0.04380
gfz2010fona  -0.79960
gfz2010fpqy   0.32510
gfz2010fqdu  -0.32350
gfz2010fser   0.74040
gfz2010fupn  -0.07200
gfz2010fuuy  -0.41860
gfz2010fuwa  -0.22890
gfz2010fwzd  -0.08260
gfz2010fyed  -0.93480
gfz2010fyen  -1.05800
gfz2010fync   0.44940
gfz2010fzoi  -0.62150
gfz2010gcrp  -1.32570
gfz2010gdld   0.17290
gfz2010glxl  -0.62130
gfz2010grjd   1.43670
gfz2010gzxr  -0.26840
gfz2010hakh   5.29160
gfz2010hevz   0.22280
gfz2010hgld   0.35390
gfz2010hhls  -0.61720
gfz2010hlmq  -0.23340
gfz2010hmhm   0.07000
gfz2010homc   0.33770
gfz2010hptz   0.57990
gfz2010hrkr  -0.10830
gfz2010hrpr  -1.67550
gfz2010hufk  -0.37330
gfz2010icqq  -1.58500
gfz2010iibf  -0.00000
gfz2010imfv   0.34840
gfz2010iobp   1.25960
gfz2010iphd  -1.26490
gfz2010ipsg   0.44520
gfz2010iqnm   0.41960
gfz2010iqus   1.08090
gfz2010irqr  -0.24480
gfz2010irvf  -0.30750
gfz2010ited  -0.30880
gfz2010izzj   0.67950
gfz2010jucj   0.19200
gfz2010jygz   0.39960
gfz2010kihf   1.13440
gfz2010liqs   0.78330
gfz2010lkcf   0.08830
gfz2010lyfk  -1.08140
gfz2010mcrx   0.15170
gfz2010mdpq   0.33000
gfz2010mipi   0.36580
gfz2010mpuy  -0.63470
gfz2010ncrl  -0.45370
gfz2010nfsj  -2.17770
gfz2010nqwf  -0.64070
gfz2010nqwo   0.23400
gfz2010nrjo   0.91430
gfz2010nsck  -0.19260
gfz2010odpb  -0.07320
gfz2010oedn  -0.13510
gfz2010onma  -0.26760
gfz2010osqo  -0.01630
gfz2010oyqy  -0.94550
gfz2010pexf   0.15760
gfz2010pfyu   0.04690
gfz2010pxgh  -1.19480
gfz2010qpum  -0.17730
gfz2010qpvi  -0.08150
gfz2010qwwx  -0.21630
gfz2010rhas  -0.50910
gfz2010rkfp   0.02230
gfz2010rlbv   2.61300
gfz2010rqwj  -1.39620
gfz2010rxjw   0.32400
gfz2010rywq  -0.49210
gfz2010rzrr   0.78730
gfz2010sfee  -0.24080
gfz2010skqo   0.27090
gfz2010skve   0.42830
gfz2010srdb   0.27780
gfz2010svtn  -0.37550
gfz2010swcy   0.02160
gfz2010szim   0.93820
gfz2010tcrl   0.48570
gfz2010upfb   0.61170
gfz2010upiw  -0.32680
gfz2010urlq   1.00330
gfz2010usho  -0.54890
gfz2010ustq  -0.01110
gfz2010utcg   0.19820
gfz2010utmc  -1.35140
gfz2010wxqa   1.99990
gfz2010xbdv   1.26700
gfz2010xbgs   1.47750
gfz2010xden   0.16650
gfz2010xgzw   0.58830
gfz2010xjsj   0.32760
gfz2010xnxk  -0.38630
gfz2010xxzn   2.31440
gfz2010yjev   0.34970
gfz2010ymfy  -0.30630
gfz2010ymur   0.03320
gfz2010yosr  -0.46070
gfz2011alip  -0.10560
gfz2011alsa   0.59590
gfz2011anur   0.05170
gfz2011aosc  -0.08840
gfz2011aqxf   0.37200
gfz2011asru   0.70960
gfz2011bgrp   0.34020
gfz2011bhha  -0.88680
gfz2011blsi   0.46040
gfz2011bpkd  -0.36690
gfz2011ccpw  -0.01920
gfz2011cfae  -0.44690
gfz2011cndo  -0.67870
gfz2011crdy   0.87680
gfz2011csju  -0.26260
gfz2011ctbn   0.38100
gfz2011cvcg  -0.19650
gfz2011cvfg   0.62950
gfz2011cwgn   0.06210
gfz2011cykd  -0.11550
gfz2011cynl  -1.52240
gfz2011cyre  -0.29220
gfz2011cyuk   0.89020
gfz2011dbev   0.43220
gfz2011dbig   0.46550
gfz2011dbon   0.02090
gfz2011dcqb   2.24210
gfz2011dcqf   1.67170
gfz2011dddh   7.33150
gfz2011deaf  -0.29260
gfz2011dkyi   0.56650
gfz2011dlyx  -0.52850
gfz2011dmat  -0.84140
gfz2011dpqx   1.13020
gfz2011eayc  -0.06120
gfz2011eazf  -0.23860
gfz2011ecaj  -0.41770
gfz2011edmm  -1.36930
gfz2011ehzq  -0.50760
gfz2011eltw  -0.23100
gfz2011etje   1.28180
gfz2011fgvr   0.24360
gfz2011fhag   0.65970
gfz2011fhbm  -0.60230
gfz2011fhur  -0.41930
gfz2011fkbn  -0.21180
gfz2011flgj  -0.38360
gfz2011flhp   1.60690
gfz2011fnsw  -0.41210
gfz2011gbmx  -0.09500
gfz2011gcwb   0.18350
gfz2011gdgh   0.91420
gfz2011ggvf   1.60720
gfz2011ghky  -0.42910
gfz2011gkzt   0.18890
gfz2011gzbr   1.08810
gfz2011haid   0.30630
gfz2011hbex  -0.16910
gfz2011hbqk  -0.18730
gfz2011hebt   0.32420
gfz2011hlqw  -0.45930
gfz2011hlsa  -0.22850
gfz2011hlth  -0.07050
gfz2011hpgx   0.50330
gfz2011hpqp   0.31200
gfz2011hvbu   1.04140
gfz2011ieie   0.77100
gfz2011iwte   1.23890
gfz2011izqa  -0.14600
gfz2011jdsj   0.39760
gfz2011jplh  -0.02220
gfz2011jtlg   0.68020
gfz2011jxpl   0.23700
gfz2011knbi  -0.23730
gfz2011knoo  -0.19640
gfz2011kqwo  -0.45810
gfz2011kqyg  -0.04790
gfz2011kwjx  -2.39900
gfz2011kxzp   0.59770
gfz2011lcxq   0.90700
gfz2011lczg  -0.89700
gfz2011lgsg  -0.25870
gfz2011lhls  -0.53750
gfz2011mdie  -0.29690
gfz2011mjom   0.28970
gfz2011mllx  -0.04170
gfz2011mpme   0.39620
gfz2011mprq  -0.45730
gfz2011nkaz   1.00290
gfz2011nmnq  -0.76660
gfz2011nqpd  -0.48940
gfz2011nrwc  -0.67500
gfz2011nrwv  -0.68020
gfz2011nsex   0.34920
gfz2011ntkh  -0.68890
gfz2011nudm  -0.72800
gfz2011ohcy  -0.25410
gfz2011oiqe   0.16520
gfz2011oiwk   0.53040
gfz2011olkk   0.01290
gfz2011orgn   0.07220
gfz2011ornx  -0.88110
gfz2011owvz  -0.06770
gfz2011pccd  -0.70620
gfz2011qigx   0.40880
gfz2011qvae  -0.18870
gfz2011qyms  -0.02290
gfz2011rewa  -0.22740
gfz2011rgwp  -0.31020
gfz2012attr  -0.31140
gfz2012bfah  -0.34870
gfz2012cxdn  -0.19390
gfz2012deri   0.57120
gfz2012dyyh   0.16840
gfz2012ekda  -0.44110
gfz2012ekzf   0.95590
gfz2012emjg  -0.12130
gfz2012enno   0.47670
gfz2012ewgo  -0.18190
gfz2012fbfo  -0.67850
gfz2012foeo  -0.22940
gfz2012fwfo  -0.62520
gfz2012fzfa   0.16790
gfz2012gkvr  -0.05990
gfz2012glss  -0.41030
gfz2012gocc   1.47000
gfz2012gomm   0.01510
gfz2012hnul  -0.15670
gfz2012hnuw   0.11450
gfz2012ihdl  -0.24810
gfz2012ilvn  -0.33580
gfz2012imay   0.39250
gfz2012imbd  -0.37150
gfz2012intn  -0.05680
gfz2012jgvj  -0.62750
gfz2012jjzc   0.85910
gfz2012jlox   0.97740
gfz2012jpgs  -0.11460
gfz2012jshk  -0.58130
gfz2012jupx  -0.38470
gfz2012kbzj  -0.05240
gfz2012kdmb  -0.13590
gfz2012keor  -0.53830
gfz2012kkcp  -0.24300
gfz2012kkup   0.02680
gfz2012klba  -0.12800
gfz2012klhx   0.19360
gfz2012kuct   0.13590
gfz2012kudo   0.00430
gfz2012kwgo   2.20760
gfz2012lczo   0.21170
gfz2012ldxg  -0.11680
gfz2012ldzj  -0.14190
gfz2012llug   0.68020
gfz2012lpvn  -0.74770
gfz2012lrol   3.47170
gfz2012lsni  -0.32620
gfz2012lxkv   3.83120
gfz2012minr  -0.24700
gfz2012mupa  -0.30980
gfz2012mvwr   0.10060
gfz2012mwij  -0.04590
gfz2012naqz   0.38810
gfz2012nedn  -1.77010
gfz2012nkdf   0.30500
gfz2012nojx   1.38840
gfz2012nxog   0.32730
gfz2012oazn   0.30910
gfz2012obgw   0.15050
gfz2012omvo  -0.41010
gfz2012pkel   0.81450
gfz2012pqmu   2.26260
gfz2012qjhs   0.33470
gfz2012qqxg   1.01810
gfz2012quso   0.40150
gfz2012rats  -0.69600
gfz2012repv  -0.76010
gfz2012ronz   1.47960
gfz2012royy   0.39870
gfz2012rqlg   0.32590
gfz2012rwov   0.71490
gfz2012sphd   0.59890
gfz2012sqmv  -0.32990
gfz2012sqvi  -0.66260
gfz2012syvl  -0.20300
gfz2012tazz   0.15130
gfz2012tbbp  -0.04830
gfz2012teic  -0.37790
gfz2012ttoa   0.07170
gfz2012uqzp   0.22180
gfz2012uvqf   0.56720
gfz2012uyie  -0.50670
gfz2012uzom  -0.85050
gfz2012vpza   1.17490
gfz2012vrgb   0.02140
gfz2012vrua   0.12990
gfz2012vsev  -0.42890
gfz2012vxvr  -0.12210
gfz2012wdyx  -0.56200
gfz2012wklq  -0.71070
gfz2012wmkd   0.37010
gfz2012wubh  -0.41050
gfz2012wxlg   0.02110
gfz2012wybs   1.61970
gfz2012wypz   0.24320
gfz2012xbjq  -0.62640
gfz2012xyua  -0.21600
gfz2012yoie  -0.33410
gfz2012yqjj  -0.49330
gfz2012yxxu  -0.70950
gfz2012yzod  -0.13660
gfz2012zemz  -0.76790
gfz2012zfag   0.21060
gfz2012zitl  -0.62100
gfz2012zjpv   0.34090
gfz2012zjre  -0.51700
gfz2012zmln   0.02380
gfz2013aahq  -0.62150
gfz2013akgj   0.30040
gfz2013aqaw   0.06560
gfz2013bdpu  -0.12520
gfz2013bobq   0.57290
gfz2013bokp   0.05030
gfz2013bouj  -1.47000
gfz2013btjm   2.01220
gfz2013cvqg  -0.25380
gfz2013cwpn  -0.32590
gfz2013cwps  -0.41210
gfz2013dddp  -0.41600
gfz2013dkly  -0.64420
gfz2013dnnx   0.07160
gfz2013dofo  -0.77120
gfz2013dojq   0.00220
gfz2013drpk  -0.27680
gfz2013drxz  -0.12220
gfz2013dspt  -0.35410
gfz2013dsrk   0.41580
gfz2013dvyh   1.37010
gfz2013egni  -0.43530
gfz2013egpu  -0.85660
gfz2013esnh  -0.30700
gfz2013fdwq   0.49200
gfz2013fiud   0.38940
gfz2013fkcl   0.47460
gfz2013fkii  -0.07940
gfz2013flox  -0.24380
gfz2013fwxa   0.37940
gfz2013fygc   0.18070
gfz2013gbcn  -0.55950
gfz2013gcfx   0.28530
gfz2013gdgf   0.22000
gfz2013gdnq  -0.03040
gfz2013goux  -1.06190
gfz2013gvet   0.29910
gfz2013hfmp   0.00000
gfz2013hisv  -0.16100
gfz2013hkja  -0.16560
gfz2013huwr   0.13680
gfz2013ifpq  -0.17420
gfz2013ikgo  -0.18790
gfz2013ippu   0.87930
gfz2013iunn   0.30700
gfz2013iyqz  -0.01360
gfz2013jesk  -1.13420
gfz2013jgij  -0.85570
gfz2013jgip   0.01440
gfz2013jkut   0.84230
gfz2013jusj   1.45280
gfz2013jwvc  -1.52030
gfz2013kccc   1.08930
gfz2013kdeo   0.27530
gfz2013khli  -0.59210
gfz2013kvtk  -0.74010
gfz2013kweg  -0.62820
gfz2013ldpc  -0.28420
gfz2013ldqb  -0.16300
gfz2013lixa  -0.17560
gfz2013lmqe  -0.04140
gfz2013lxyn  -0.15240
gfz2013lyko   0.34690
gfz2013mmlw   0.10330
gfz2013mqmv   0.52170
gfz2013mwbh   1.10210
gfz2013nabl  -0.52920
gfz2013ncjp  -0.63460
gfz2013ndin  -0.15640
gfz2013nkgj   0.30110
gfz2013nknw   0.41490
gfz2013nqgw  -0.10130
gfz2013nuvi   1.29240
gfz2013nwdi   0.03600
gfz2013ogde   0.22330
gfz2013oifr   0.64310
gfz2013ozku  -0.02740
gfz2013ozrf   0.13230
gfz2013ozrp  -0.32190
gfz2013pfbx   0.08430
gfz2013pfeb  -1.12610
gfz2013ppqq  -0.15630
gfz2013puag   0.10820
gfz2013pxsj  -0.13560
gfz2013qali   0.57480
gfz2013qmer   0.36820
gfz2013qqrr  -0.03200
gfz2013qwbv  -0.44440
gfz2013qzdq   0.17700
gfz2013rwfe   0.80710
gfz2013sdus  -0.02340
gfz2013sebq   0.50880
gfz2013sfto  -0.66850
gfz2013shzy  -0.10310
gfz2013skkm  -0.13860
gfz2013suln  -0.31050
gfz2013suvn   0.39240
gfz2013svci   0.16270
gfz2013tcxc  -0.66620
gfz2013tcxq   0.51760
gfz2013toea  -0.15950
gfz2013tusd  -0.03750
gfz2013tvmw   0.16310
gfz2013tyas   0.39660
gfz2013uauo  -0.03220
gfz2013vjjc  -0.21690
gfz2013vsxi   0.57620
gfz2013yaig  -0.72680
gfz2013yctg  -0.36390
gfz2014bdfd  -0.28010
gfz2014bfng  -0.29240
gfz2014bhvd   0.51170
gfz2014bldx  -0.28430
gfz2014bwue   0.32560
gfz2014bzxy   0.13240
gfz2014caop   0.15370
gfz2014chdv   0.06390
gfz2014claq  -0.54090
gfz2014clnq   0.20110
gfz2014cmwb  -0.00000
gfz2014crpy  -0.16690
gfz2014ctot  -0.02210
gfz2014cvkm  -0.67810
gfz2014cvxx  -0.06090
gfz2014cybg   0.46230
gfz2014czno   0.41100
gfz2014czqi  -0.15140
gfz2014czua  -0.16340
gfz2014dffd  -0.08530
gfz2014dhxt   0.22680
gfz2014disp  -0.16290
gfz2014duqn   0.33430
gfz2014ebmc   0.35630
gfz2014edfx  -0.03780
gfz2014eght   0.32120
gfz2014ehsf   0.03370
gfz2014ekcr  -0.28420
gfz2014emzb  -1.13680
gfz2014enhi   0.02830
gfz2014etqa  -0.03420
gfz2014exxa  -0.32710
gfz2014fgvi   0.37520
gfz2014fimn   0.66350
gfz2014fjpb  -0.40870
gfz2014fjzd  -0.73320
gfz2014fjzw  -0.55440
gfz2014fkmr   0.06360
gfz2014fnyg   0.26630
gfz2014fqpz  -0.23180
gfz2014frdz   0.56390
gfz2014frez   0.02390
gfz2014frwh   0.21660
gfz2014fsuh  -0.02950
gfz2014fszc  -0.01600
gfz2014ftka   0.19710
gfz2014ftrk  -2.67670
gfz2014furx  -0.08730
gfz2014fusc   0.34240
gfz2014fusj   0.17530
gfz2014fuub   0.07210
gfz2014fvaa  -0.04380
gfz2014fval   1.19990
gfz2014fvgh  -0.15470
gfz2014fvjl  -0.13380
gfz2014fvrg   0.18920
gfz2014gbcz  -0.05820
gfz2014gbdq   2.70790
gfz2014ghpe   0.05560
gfz2014gkgf   0.74150
gfz2014gkgl  -2.43860
gfz2014gkgs   0.53020
gfz2014gkhp   0.97350
gfz2014gkhy   0.06430
gfz2014gkjl   0.29440
gfz2014gkjt   0.04900
gfz2014gkjy  -0.77140
gfz2014gkob  -0.09180
gfz2014gkpj  -0.14300
gfz2014gkqf   0.82770
gfz2014gkqu  -0.32930
gfz2014gksu  -0.27340
gfz2014gktq   0.45550
gfz2014gkxm   0.37070
gfz2014glcu   0.12740
gfz2014glcy  -0.13980
gfz2014glgo  -1.95760
gfz2014gltx   0.25850
gfz2014gmge  -0.14010
gfz2014gmhr  -1.53370
gfz2014gmic   0.24920
gfz2014gmip   1.67260
gfz2014gmjo   0.81100
gfz2014gmku   0.83830
gfz2014gmnb   0.56620
gfz2014gmnw   0.67990
gfz2014gmuk   0.31430
gfz2014gmzl  -0.23150
gfz2014gndq   0.67720
gfz2014gnfd   0.07200
gfz2014gnmx  -0.81690
gfz2014gnom  -0.28960
gfz2014gnqt  -0.14000
gfz2014goba   0.44100
gfz2014gogv   0.06060
gfz2014goqw  -0.02350
gfz2014gori   0.64470
gfz2014gpce   0.43010
gfz2014gpuk   0.49560
gfz2014gpya   0.10740
gfz2014gqbj   0.78990
gfz2014gqer   1.96770
gfz2014gqve   0.53760
gfz2014grfp   0.03730
gfz2014grho  -0.50280
gfz2014gsqs   1.15640
gfz2014gtwz  -0.35280
gfz2014gufl   0.53820
gfz2014gull  -0.10370
gfz2014gulp  -0.35860
gfz2014gumd   0.77360
gfz2014gutm  -0.04240
gfz2014gvhw   0.82090
gfz2014gvqj  -1.34380
gfz2014gvrd  -1.21920
gfz2014gwab   1.41530
gfz2014gwqj   0.12180
gfz2014gxag  -0.50030
gfz2014gxkh   0.20170
gfz2014gxxh   0.30290
gfz2014gxxo   0.25290
gfz2014gyxd   0.07550
gfz2014gzrm  -0.43790
gfz2014gzue   0.74680
gfz2014haey   0.50770
gfz2014hcmj  -0.07970
gfz2014hetr   0.33790
gfz2014heum   2.63110
gfz2014heyq  -0.34220
gfz2014hfhl   0.31740
gfz2014hgqo   0.83900
gfz2014hhwx  -0.34980
gfz2014hjgh   0.04840
gfz2014hjgr   0.20360
gfz2014hjij   0.42540
gfz2014hmrs  -0.28840
gfz2014hmzg  -0.12220
gfz2014hocg   0.39200
gfz2014hphw   1.29990
gfz2014hqxs  -0.20800
gfz2014hrft   0.27850
gfz2014hriu  -0.08830
gfz2014hscz   0.02590
gfz2014huaj   0.51730
gfz2014hyvq   0.12160
gfz2014hzfw   0.69820
gfz2014ieam  -0.39190
gfz2014ifue  -0.81760
gfz2014ikun  -0.06880
gfz2014imnn   0.55130
gfz2014inbj  -0.09650
gfz2014iobd  -0.17250
gfz2014isff   0.14380
gfz2014issk   0.37390
gfz2014isys   0.13200
gfz2014itbe  -1.48050
gfz2014itkw  -0.03810
gfz2014jggm   0.15860
gfz2014jjhc   0.51340
gfz2014jjln   0.90940
gfz2014jmnk   0.52680
gfz2014jnyv   0.34760
gfz2014jpep   0.29820
gfz2014jpxs  -0.10110
gfz2014jwmh  -0.32750
gfz2014kbuk   0.37120
gfz2014khan  -0.22600
gfz2014khlk   0.21100
gfz2014kitm   0.42590
gfz2014kjzb   0.09230
gfz2014kndc  -0.27170
gfz2014knks  -0.17840
gfz2014knxs  -0.35200
gfz2014kwrg   0.51320
gfz2014kytf  -0.50680
gfz2014lddn   0.51860
gfz2014ldhu  -0.12950
gfz2014lefs   0.10710
gfz2014lkyf   0.06590
gfz2014lnqy   0.05270
gfz2014lpim   1.33110
gfz2014lrzx   0.46470
gfz2014lwom  -1.04540
gfz2014lxnc   0.25690
gfz2014lyhk   0.80350
gfz2014lyhp   0.32030
gfz2014macx   0.64730
gfz2014mden   0.36330
gfz2014mhgg  -0.45220
gfz2014mtum   0.45880
gfz2014mwnj  -2.92570
gfz2014ndue  -0.12320
gfz2014ngnd  -0.47250
gfz2014ngsk   0.90090
gfz2014niqj  -1.05260
gfz2014npeo   0.29410
gfz2014nphm   0.53540
gfz2014nqfm   0.51670
gfz2014nrie   1.42250
gfz2014nvdi   1.39870
gfz2014odgv  -0.28360
gfz2014oinz   0.14060
gfz2014oryw  -0.27760
gfz2014oxcc   0.29760
gfz2014oyly  -0.15150
gfz2014pkll   0.50060
gfz2014ppzf   0.46670
gfz2014pvch   0.16990
gfz2014pzni   0.45590
gfz2014qbzi  -0.15260
gfz2014qfzq   0.24530
gfz2014qlxd   0.14030
gfz2014qngj  -0.49540
gfz2014qqhm   0.49550
gfz2014rbsl   0.04030
gfz2014rdsn  -0.35490
gfz2014rfeb  -0.11970
gfz2014riel  -0.22000
gfz2014rkwl   0.23780
gfz2014rnrn   0.39160
gfz2014royq  -0.42860
gfz2014ryfb   0.21310
gfz2014ssmv   0.69960
gfz2014ssvz  -0.64560
gfz2014szzf  -1.11360
gfz2014tabg   0.21620
gfz2014tovs   0.08430
gfz2014tqdo   0.05380
gfz2014tqly   0.10430
gfz2014tzsd  -4.33830
gfz2014ubwn   0.25400
gfz2014udgg  -0.07510
gfz2014uuuf   0.67150
gfz2014uyrq   0.01620
gfz2014vcev  -1.38830
gfz2014veit  -0.95850
gfz2014vhld  -0.32300
gfz2014vhms   0.78200
gfz2014vjoz  -0.17990
gfz2014watn   0.03920
gfz2014wqcp   0.44640
gfz2014wwib   0.06490
gfz2014xhkc  -0.07880
gfz2014xjri   0.67500
gfz2014xqqd   0.01380
gfz2014yhhm  -0.03570
gfz2014yrug   0.09270
gfz2014yula   0.45150
gfz2014zkys   0.15780
gfz2014zlgp   0.73020
gfz2015aqav   0.08090
gfz2015aqbq   0.01250
gfz2015aruz   0.35280
gfz2015berb  -0.00000
gfz2015bfjm  -0.16300
gfz2015bkbj   0.08210
gfz2015bphe  -0.22330
gfz2015bsnl  -0.22830
gfz2015chhn   0.34990
gfz2015chqn   0.83330
gfz2015cxxk   0.22800
gfz2015cyjd  -0.22310
gfz2015czfv   0.51660
gfz2015dizn   0.99280
gfz2015djts  -0.08390
gfz2015dvbn  -0.07190
gfz2015eeyq  -0.02020
gfz2015egxq  -0.40730
gfz2015ehpz  -0.03490
gfz2015eiky  -0.45500
gfz2015emtg  -0.27280
gfz2015etai  -0.05380
gfz2015fjhk   0.82460
gfz2015fkgt  -0.36330
gfz2015fkic  -0.00920
gfz2015fkjs  -0.17840
gfz2015flis   0.03390
gfz2015fsjj   0.31590
gfz2015fxdi  -0.06000
gfz2015gckd   0.36160
gfz2015igsy   0.06610
gfz2015ijmh   1.15530
gfz2015ixyy  -0.30790
gfz2015kxxs   0.37390
gfz2015lfma  -0.22240
gfz2015lhjy   0.58760
gfz2015lytv   0.36750
gfz2015lzad   1.52620
gfz2015mddr   0.12320
gfz2015mfpy   0.18950
gfz2015mpte   0.53090
gfz2015nuxz   0.71760
gfz2015nwug  -2.88840
gfz2015ocdz  -0.05300
gfz2015okmq  -0.54270
gfz2015opjp  -1.07280
gfz2015orkl  -0.07250
gfz2015oumn   0.01780
gfz2015oyfl   1.11660
gfz2015pdri  -0.87420
gfz2015plal   0.17330
gfz2015poni  -0.29630
gfz2015qiit  -0.17170
gfz2015qnho  -0.16010
gfz2015qnto   0.17380
gfz2015quzo   0.21510
gfz2015qvxu   0.41330
gfz2015rddx   0.85520
gfz2015rkzg   0.50950
gfz2015rpzn   2.94160
gfz2015sfdd   0.71340
gfz2015sfdl  -0.10150
gfz2015sfdv   0.31270
gfz2015sfdy  -0.55230
gfz2015sfeo   0.57610
gfz2015sffn   0.26640
gfz2015sfga   0.66880
gfz2015sfhz   0.27470
gfz2015sfiq  -0.65020
gfz2015sfjf  -0.17540
gfz2015sfkz  -0.55520
gfz2015sflf  -1.10770
gfz2015sfln   0.83900
gfz2015sfmd   0.91820
gfz2015sfnb  -0.34910
gfz2015sfno   0.24660
gfz2015sfnv  -0.16920
gfz2015sfoc  -0.44760
gfz2015sfom  -0.33820
gfz2015sfoq   0.80670
gfz2015sfpj  -0.95700
gfz2015sfqo   0.48880
gfz2015sfqr  -0.37790
gfz2015sfrc  -0.24750
gfz2015sfte   0.36040
gfz2015sfwf  -0.20330
gfz2015sfzm   0.12510
gfz2015sgad  -0.32690
gfz2015sgmm  -0.52030
gfz2015sgmr   0.47210
gfz2015sgyd   1.15750
gfz2015shel   0.09700
gfz2015shhg   0.28620
gfz2015shhu  -0.35290
gfz2015shjn  -0.25360
gfz2015shov  -1.14900
gfz2015shrg   0.54250
gfz2015shsz  -0.63320
gfz2015sitn   1.05530
gfz2015siyy   0.42490
gfz2015sjbx   0.16440
gfz2015sjgk   0.84810
gfz2015sjjb  -0.07540
gfz2015sjne   0.54980
gfz2015sjoj   0.37430
gfz2015sjvu   0.38910
gfz2015sjwi   0.11240
gfz2015skab   0.60360
gfz2015skgj  -0.01250
gfz2015skia   0.11160
gfz2015skpv  -0.46640
gfz2015skuk   1.16710
gfz2015skxu  -0.14580
gfz2015sldx   0.85660
gfz2015sljs   0.69510
gfz2015slun  -0.08710
gfz2015smym  -0.30980
gfz2015snmg   2.07920
gfz2015snmr   0.76320
gfz2015snsf   0.19800
gfz2015snwh   0.31990
gfz2015snyd   0.44530
gfz2015soat  -0.04630
gfz2015soxc   0.65750
gfz2015sqmy   0.53520
gfz2015srat   0.24970
gfz2015stcv   0.12700
gfz2015stfy  -0.50210
gfz2015subz  -0.07360
gfz2015svwm   1.17400
gfz2015sxgd  -0.79490
gfz2015sxmh   0.90900
gfz2015sxxu   0.46270
gfz2015sydc  -0.20690
gfz2015szcb  -0.25850
gfz2015szfe  -0.11550
gfz2015sztx  -0.28350
gfz2015taml  -0.08160
gfz2015tbdn  -0.14190
gfz2015tcem  -0.51810
gfz2015tdcu   0.21970
