# Nsamples: 1112  MAD:  0.501  mean:  0.012  variance:  0.666
gfz2010aban  -2.57660
gfz2010aerk   0.24150
gfz2010ahqi   0.27850
gfz2010aykj   0.01980
gfz2010bfzs   0.35140
gfz2010bgth  -0.55070
gfz2010bhhq  -0.26510
gfz2010bifb  -1.08840
gfz2010bjeb   0.38170
gfz2010bjjx  -2.75480
gfz2010bkob  -0.20540
gfz2010bkos  -0.44500
gfz2010bowy  -0.09400
gfz2010boxo  -0.87910
gfz2010bxxs  -0.09300
gfz2010caft  -0.24700
gfz2010cbkg   0.31080
gfz2010ckzm  -1.27540
gfz2010cqwl   0.57470
gfz2010ctuw   0.10000
gfz2010dlgc   0.45400
gfz2010eaoy  -0.09380
gfz2010eapk   0.02830
gfz2010eapn   1.11290
gfz2010eaqe   0.90420
gfz2010eaqx  -0.31920
gfz2010eaqy   0.89910
gfz2010earq   0.75640
gfz2010earu  -0.95380
gfz2010easf   1.06230
gfz2010eask  -0.70650
gfz2010easo  -0.28050
gfz2010easu  -0.60640
gfz2010eato   0.71930
gfz2010eatt  -0.60280
gfz2010eaty  -0.34790
gfz2010eaul  -0.70540
gfz2010eavp  -0.53480
gfz2010eavs   1.48650
gfz2010eawb   0.45820
gfz2010eawu  -6.83350
gfz2010eaxa   0.27750
gfz2010eaxn  -0.51550
gfz2010eayd   0.96440
gfz2010eayp   0.19300
gfz2010eaze   0.05540
gfz2010eazu  -1.15290
gfz2010ebbd  -0.36800
gfz2010ebbx  -2.12490
gfz2010ebdl   0.00000
gfz2010ebeh  -0.49710
gfz2010ebek  -0.71480
gfz2010ebfa  -0.07980
gfz2010ebgj   0.56720
gfz2010ebhc   0.51420
gfz2010ebih   0.91580
gfz2010ebin  -1.04000
gfz2010ebiv   0.31460
gfz2010ebjy  -0.08110
gfz2010ebkj  -0.49140
gfz2010ebla   0.21240
gfz2010ebll   0.00000
gfz2010ebmb   0.12650
gfz2010ebmi  -0.93590
gfz2010ebnn   0.46810
gfz2010ebpa   0.46250
gfz2010ebqz  -0.83380
gfz2010ebrm   0.61120
gfz2010ebsv   0.78570
gfz2010ebtk   1.12800
gfz2010ebvm   0.57720
gfz2010ebvv  -0.14410
gfz2010ebwp  -0.03340
gfz2010ebxl  -0.25110
gfz2010ebze  -0.92330
gfz2010ebzk   0.55580
gfz2010ebzr   0.23640
gfz2010ecay  -0.02240
gfz2010ecbi  -0.12430
gfz2010eccq   1.00620
gfz2010eced  -0.05890
gfz2010ecfx  -0.06020
gfz2010ecfy  -0.56130
gfz2010ecgh   0.09890
gfz2010echt   0.19840
gfz2010echy  -0.14050
gfz2010ecsp   0.53600
gfz2010ecua   0.38260
gfz2010ecuv   0.71220
gfz2010ecvt  -0.34690
gfz2010edat   0.18350
gfz2010eday  -0.15120
gfz2010edbz   0.12170
gfz2010edcp   3.16670
gfz2010edim   0.45770
gfz2010edkp  -0.04280
gfz2010edqd   0.71370
gfz2010edqh   0.07570
gfz2010edsk   0.52990
gfz2010edsn   1.10490
gfz2010edsy   0.38650
gfz2010edun   0.15220
gfz2010edvf   0.31050
gfz2010edyi  -4.77700
gfz2010edzb  -0.20230
gfz2010eedu  -0.42780
gfz2010eefh  -0.02280
gfz2010eefo  -1.44260
gfz2010eegn  -0.40770
gfz2010eeia  -0.26580
gfz2010eeij   0.31800
gfz2010eekg   1.20330
gfz2010eekq   0.50410
gfz2010eeng  -0.61900
gfz2010eerh   0.60140
gfz2010eern   0.08510
gfz2010eesf   0.25910
gfz2010eevu   0.03710
gfz2010eexz  -4.09920
gfz2010eeyh   0.24260
gfz2010efbh   0.28870
gfz2010efbi   0.00000
gfz2010efsq  -0.82050
gfz2010efwo   0.44000
gfz2010efxf  -0.17480
gfz2010egap   0.23660
gfz2010eghq   0.34540
gfz2010egld   0.73590
gfz2010egln  -0.01760
gfz2010egmp   0.17350
gfz2010egyy   0.23970
gfz2010ehaj   1.27870
gfz2010ehft  -0.30140
gfz2010ehnl  -0.69060
gfz2010ehnm   0.29410
gfz2010ehrq  -1.95900
gfz2010ehsy  -0.36180
gfz2010ehvj   0.15620
gfz2010ehwg   0.89930
gfz2010ehxz   0.65530
gfz2010eioi  -0.71630
gfz2010eisx  -1.34790
gfz2010eixj   1.48440
gfz2010ejae   0.61180
gfz2010ejjg   0.23570
gfz2010ejju  -2.31010
gfz2010ejka  -0.28410
gfz2010ejma  -0.85200
gfz2010ejxf   0.40510
gfz2010ekaw  -0.80410
gfz2010ekoe   0.22780
gfz2010ekrv   0.40100
gfz2010ekyc  -0.28350
gfz2010elhv   0.11230
gfz2010elin  -0.08630
gfz2010eljf  -0.71600
gfz2010elpu  -0.03990
gfz2010eltf  -0.11390
gfz2010elvp   0.86690
gfz2010elxi  -0.85920
gfz2010elyc  -1.37490
gfz2010elyo   0.54580
gfz2010elzf  -0.03100
gfz2010elzl   0.08590
gfz2010emyz   0.14250
gfz2010encm  -0.86250
gfz2010enpa   2.55360
gfz2010enzl   0.31550
gfz2010eoao   0.86950
gfz2010epbe   1.02510
gfz2010epxj  -0.29700
gfz2010eqjg  -0.31420
gfz2010eqmu  -3.73400
gfz2010erfy   0.45540
gfz2010erkn  -0.13030
gfz2010erna  -0.49700
gfz2010erom   0.19770
gfz2010erum   0.84210
gfz2010eruy  -0.34920
gfz2010erwn  -0.51640
gfz2010erxb   0.00580
gfz2010eryg  -0.19100
gfz2010esid  -0.03310
gfz2010eted   0.13420
gfz2010eujm  -0.03510
gfz2010eutw   0.30110
gfz2010euvl   0.21960
gfz2010euwb  -0.77930
gfz2010euxe  -0.11020
gfz2010evco  -1.21040
gfz2010evgf   0.11880
gfz2010evjv   1.34990
gfz2010evkd   0.36290
gfz2010ewpq   0.30550
gfz2010ewvc   0.28190
gfz2010ewyu   0.71220
gfz2010excp  -0.82120
gfz2010exdd  -0.28380
gfz2010exel   0.37740
gfz2010exfb   1.11230
gfz2010exgb   0.50880
gfz2010exhd   0.10990
gfz2010exhw  -0.17080
gfz2010exjw   0.08190
gfz2010exlm  -0.16460
gfz2010exmc  -0.13140
gfz2010exno   0.25930
gfz2010exou  -1.62150
gfz2010exqu  -0.18360
gfz2010exsg   0.50230
gfz2010exts  -0.89520
gfz2010exyp  -0.38850
gfz2010eyaz  -1.17610
gfz2010eyhh  -0.08600
gfz2010eyiv  -2.59670
gfz2010eyvq   0.43140
gfz2010ezvt   0.29450
gfz2010ezxd   0.86210
gfz2010faeu  -0.70790
gfz2010falm   0.26620
gfz2010fauz  -0.20770
gfz2010fbeu  -0.00000
gfz2010fbpi   3.07410
gfz2010fcax  -0.08750
gfz2010fcdw   0.61800
gfz2010fciw  -0.34300
gfz2010fcnn   0.61470
gfz2010fcnt   0.16380
gfz2010fcxy   0.34730
gfz2010fcyj   0.36430
gfz2010fczt   0.03270
gfz2010fdab  -1.06140
gfz2010fedq  -0.92150
gfz2010fefr   0.08760
gfz2010fexw   1.66720
gfz2010ffhq  -0.16280
gfz2010ffjb   1.03470
gfz2010ffui   1.30880
gfz2010figq  -0.50050
gfz2010fihj   1.95150
gfz2010fika   0.04080
gfz2010fixr  -1.02990
gfz2010fjal   0.68690
gfz2010fjni   2.56580
gfz2010fknh   0.08920
gfz2010fkvg   4.81600
gfz2010flha   0.45420
gfz2010flkj  -2.30440
gfz2010flrt  -0.02020
gfz2010flxi  -0.12830
gfz2010fmhb  -0.82120
gfz2010fmwb  -1.18620
gfz2010fneu  -0.20900
gfz2010fnrk   0.17730
gfz2010fpmv   0.10250
gfz2010fpqy   0.05530
gfz2010fqdu   0.17230
gfz2010fqtj   1.11720
gfz2010fser  -0.00000
gfz2010ftlm  -0.18910
gfz2010fupn  -0.20520
gfz2010fuuy  -0.23590
gfz2010fwkk   0.43170
gfz2010fwny  -0.31450
gfz2010fwpv  -0.27100
gfz2010fyen  -0.24210
gfz2010fync   0.57130
gfz2010fzoi   1.25170
gfz2010gcdn  -0.47950
gfz2010gcrl  -0.18330
gfz2010gcrp  -0.37850
gfz2010geru  -0.96110
gfz2010ginm   0.34890
gfz2010gjia   0.30840
gfz2010glqr  -0.15660
gfz2010glxl   0.33960
gfz2010gslu   0.43660
gfz2010gymo   0.74080
gfz2010gyqp  -0.02350
gfz2010gzxr  -0.31330
gfz2010hcio  -0.02470
gfz2010hgld   0.40360
gfz2010hjoc   0.11620
gfz2010hllj   2.44790
gfz2010hlmq   0.48510
gfz2010hmhm   0.39340
gfz2010hndk   0.06550
gfz2010hnnf  -0.12540
gfz2010hnpi   0.10030
gfz2010hnzr  -0.37210
gfz2010homc   0.46200
gfz2010hptz  -0.65740
gfz2010hxbs  -0.18610
gfz2010hxgv   0.03130
gfz2010hzar  -0.29840
gfz2010ibiy  -0.27560
gfz2010iciq   0.83320
gfz2010icqq  -0.22430
gfz2010iibf  -0.32080
gfz2010iimu   0.07720
gfz2010imfv   0.18730
gfz2010imsh   0.71160
gfz2010iobp   0.37310
gfz2010iphd   0.74000
gfz2010ipsg   0.33910
gfz2010iqep   0.08170
gfz2010iqfm  -0.99540
gfz2010iqnm   0.03180
gfz2010irvf  -0.12500
gfz2010itpb   0.36880
gfz2010iull   0.19700
gfz2010jagd  -0.05920
gfz2010jant   2.63710
gfz2010jatq  -0.34960
gfz2010jhie   0.22670
gfz2010jipf  -0.93730
gfz2010jkxj   0.01700
gfz2010jlhj   1.95400
gfz2010jpyj  -0.54000
gfz2010jssh  -0.44440
gfz2010jsuh  -0.54840
gfz2010jsuo   0.02120
gfz2010jxbm  -0.18720
gfz2010jygz  -0.58740
gfz2010jzku   0.53110
gfz2010kcoo   0.74870
gfz2010kdyc   0.58460
gfz2010kihf  -1.44870
gfz2010kmgg  -1.31380
gfz2010kyvj  -0.14100
gfz2010kzml  -3.01380
gfz2010lcoq  -0.18990
gfz2010lkcf   1.31000
gfz2010lopz  -0.38550
gfz2010lrlk  -0.78910
gfz2010lyfk   0.38400
gfz2010mdpq   0.20630
gfz2010mlkz   0.11590
gfz2010mpuy  -0.18320
gfz2010ncrl   0.61060
gfz2010nfsj  -0.36870
gfz2010nqwf   0.05380
gfz2010nqwo  -0.98300
gfz2010nrjo   0.32410
gfz2010nsck   0.05230
gfz2010nsdf  -5.58750
gfz2010ntuo  -0.10080
gfz2010nxsy  -0.03440
gfz2010nxum   0.50020
gfz2010odpb   0.48740
gfz2010oedn   0.32500
gfz2010onma  -0.26800
gfz2010osjs  -0.12360
gfz2010pfyu   0.29720
gfz2010plbg  -0.00000
gfz2010pxgh  -1.45900
gfz2010suww  -0.57260
gfz2010svtn  -0.19000
gfz2010svve  -0.28360
gfz2010swcy  -0.15580
gfz2010sxwt   0.17750
gfz2010sysw   0.18240
gfz2010tcrl  -0.58720
gfz2010tlfm  -0.34010
gfz2010truw  -0.06800
gfz2010txjs   0.25340
gfz2010upfb   0.84030
gfz2010usho   0.36500
gfz2010ustq   1.11860
gfz2010utcg   0.10690
gfz2010utmc   0.04980
gfz2010uvhf   0.51670
gfz2010uyhb  -0.10430
gfz2010vbmd   0.27940
gfz2010vhuj  -0.09610
gfz2010vtdg  -0.50660
gfz2010wioh   0.03460
gfz2010wnty   0.11770
gfz2010wofs   0.39700
gfz2010wrxx  -0.78250
gfz2010wxqa   0.22410
gfz2010xgzw   0.04940
gfz2010xjck  -1.51970
gfz2010xjsj   0.34440
gfz2010xnxk  -0.14340
gfz2010yjev  -0.71470
gfz2010ymfy  -0.00000
gfz2010yosr   0.07900
gfz2010yqwx  -1.57980
gfz2011aatr   0.47780
gfz2011adjs  -1.05870
gfz2011aeay   0.03840
gfz2011ahfw   0.51720
gfz2011alip   0.13300
gfz2011alsa  -0.00000
gfz2011anur   0.59630
gfz2011aosc  -0.43840
gfz2011aqxf   0.03560
gfz2011aupi   0.93710
gfz2011bgrp   0.06560
gfz2011bhha  -0.20710
gfz2011blsi  -0.88460
gfz2011cndo  -0.68640
gfz2011csju  -1.35780
gfz2011cykd   0.53150
gfz2011cynl   1.65290
gfz2011cyre  -0.98800
gfz2011cyuk  -1.50620
gfz2011czwj   0.16440
gfz2011dbev   0.22010
gfz2011dbig  -0.33510
gfz2011dbon  -0.38980
gfz2011dbwt  -0.48680
gfz2011dcqb   1.32390
gfz2011dcqf   0.80900
gfz2011dddh  -0.99070
gfz2011dkyi  -0.02080
gfz2011dlyx  -0.32560
gfz2011dmat   1.36070
gfz2011dpqx  -0.52500
gfz2011duyr   0.63520
gfz2011ecaj   0.72460
gfz2011eebc   0.44080
gfz2011ehzq   0.27490
gfz2011eltw   0.50560
gfz2011enva   0.08290
gfz2011etje  -0.21210
gfz2011fgvr  -0.49360
gfz2011fhag   0.34120
gfz2011fhbm  -0.01940
gfz2011fhur  -0.03780
gfz2011fkbn  -0.14640
gfz2011flgj  -0.43800
gfz2011fnsw  -0.12750
gfz2011gbmx   0.66510
gfz2011gcwb  -0.28310
gfz2011gdgh   0.39210
gfz2011ggvf   0.46090
gfz2011gkzt  -0.08100
gfz2011gzbr   0.53660
gfz2011haid  -0.59620
gfz2011hbex  -0.04130
gfz2011hebt  -0.17520
gfz2011hfkj  -0.04510
gfz2011hlqw   0.05650
gfz2011hlsa  -0.13740
gfz2011hlth   0.19930
gfz2011hpgx  -0.72710
gfz2011hpqp  -0.42590
gfz2011hrhu  -0.53090
gfz2011hryk   0.41030
gfz2011hsfj  -0.88280
gfz2011hvbu  -0.32570
gfz2011ieie  -0.61290
gfz2011iwte   0.76660
gfz2011ixai   0.08210
gfz2011izqa  -0.14800
gfz2011izto  -0.21960
gfz2011jghb  -0.37130
gfz2011jmbn   0.18960
gfz2011jnmi   0.75830
gfz2011jplh   0.11090
gfz2011jtlg   0.39380
gfz2011juid   0.20490
gfz2011jxpl   0.79630
gfz2011knoo   0.55920
gfz2011kqwo  -1.20940
gfz2011kqyg  -0.05250
gfz2011kwid  -0.12110
gfz2011kwjx  -0.25080
gfz2011kwrf   0.50390
gfz2011kwsz  -0.64940
gfz2011kxzp   0.67990
gfz2011lcxq   0.48240
gfz2011lczg   0.66210
gfz2011lgsg   0.89490
gfz2011lhls   0.47940
gfz2011lvjr   1.26290
gfz2011lzwj   0.19900
gfz2011mdie   0.35730
gfz2011mepc  -0.53250
gfz2011mllx   0.24510
gfz2011myia   0.35630
gfz2011nauw   0.79080
gfz2011noud   0.46050
gfz2011nrwc   0.36820
gfz2011nudm  -0.59930
gfz2011ogqk  -0.60740
gfz2011ohcy   0.58030
gfz2011olkk   0.95660
gfz2011oolr   0.55810
gfz2011orgn  -0.13980
gfz2011ornx   0.70180
gfz2011owvz   1.16840
gfz2011pccd   0.77910
gfz2011phms  -0.48010
gfz2011ptus   0.08810
gfz2011qvae   0.21210
gfz2011qyms   1.16640
gfz2011rabm   1.07770
gfz2011rewa  -0.31210
gfz2011rgwp   0.00590
gfz2011rqui   0.34550
gfz2011rsrh   0.49810
gfz2011sagt   0.08850
gfz2011shqm   0.19730
gfz2011stal   0.80130
gfz2011tbas  -0.11140
gfz2011tcij   0.04860
gfz2011tjue   0.16660
gfz2011tkfp   0.58330
gfz2011tkog   0.04450
gfz2011toub  -0.46680
gfz2011tpfr   0.11950
gfz2011tsfd   0.82450
gfz2011udsq   2.06790
gfz2011ugzz   0.52480
gfz2011ujze   0.34490
gfz2011uphh   0.05440
gfz2011urxy   0.59890
gfz2011urzu   0.25100
gfz2011uzqv  -0.40180
gfz2011vhfi   0.41260
gfz2011vnza   0.06480
gfz2011vqnr   1.69130
gfz2011vrhg  -0.70500
gfz2011vxns  -0.72680
gfz2011wcic  -0.66420
gfz2011wfja   0.41770
gfz2011wijj   0.10820
gfz2011wjul  -0.25420
gfz2011wtmq   0.76570
gfz2011wwjs  -0.06250
gfz2011wxfs   0.65070
gfz2011wxoj   0.41920
gfz2011wxtk   0.12930
gfz2011xcpv   0.45730
gfz2011xesx   0.06100
gfz2011xqru   2.84790
gfz2011xyxj  -0.11330
gfz2011yfdx  -0.13530
gfz2011ytnu   0.41070
gfz2011yybo   0.30980
gfz2011zklv   0.24340
gfz2011zqhh  -0.86420
gfz2012ablh  -0.85660
gfz2012ajtq   0.59430
gfz2012aqtq   0.14830
gfz2012bfah   0.30430
gfz2012bngd  -0.00000
gfz2012bpkx   0.16750
gfz2012bpnl  -0.06410
gfz2012bpwl  -0.50020
gfz2012bszs   0.41040
gfz2012byad  -0.61100
gfz2012cgvr   0.00000
gfz2012ckxi   0.17000
gfz2012covm  -0.09220
gfz2012cqnl  -0.59930
gfz2012cxdn   0.25450
gfz2012czlw  -0.89610
gfz2012deri   0.02120
gfz2012dimn   0.41330
gfz2012dyyh   0.35180
gfz2012ekda   0.60570
gfz2012ekzf  -0.05880
gfz2012emjg   0.17800
gfz2012enno   0.18220
gfz2012ewgo   0.24820
gfz2012foeo  -0.18390
gfz2012fwfo   0.53420
gfz2012fzfa   0.41980
gfz2012gkvr  -0.11130
gfz2012gocc  -0.84740
gfz2012gukw  -0.77080
gfz2012hdbm   1.04750
gfz2012hnul  -0.37440
gfz2012hogg   0.25590
gfz2012hwmz   0.41460
gfz2012iamr   0.95120
gfz2012iivw   0.56630
gfz2012ilvn   0.57800
gfz2012imay  -1.24290
gfz2012intn   0.49540
gfz2012jjzc   0.20060
gfz2012jlox   0.08540
gfz2012jshk   0.78380
gfz2012jupx   0.36560
gfz2012keor   0.71820
gfz2012kkup  -0.15150
gfz2012klhx  -0.25880
gfz2012kuct   0.45150
gfz2012kudo   0.41350
gfz2012kwgo  -0.15210
gfz2012lczo   0.17680
gfz2012ldxg  -0.43240
gfz2012ldzj  -0.45850
gfz2012lrsv  -0.41390
gfz2012lxkv  -0.23540
gfz2012minr  -0.15840
gfz2012mvwr   0.35510
gfz2012mwij   0.01270
gfz2012naqz   0.27900
gfz2012nedn   0.38210
gfz2012nojx  -1.60580
gfz2012nolo  -0.57440
gfz2012nsbz   0.04290
gfz2012nutf   1.15950
gfz2012nxog  -0.20230
gfz2012oazn  -0.56860
gfz2012oedb   0.00000
gfz2012omvo   0.46070
gfz2012oqmw   0.94590
gfz2012pgcl   0.24230
gfz2012pqlt  -0.82390
gfz2012pqmu  -0.08540
gfz2012priv   0.07120
gfz2012quso  -1.37810
gfz2012rats  -0.13370
gfz2012repv   0.63810
gfz2012royy  -0.50460
gfz2012rqlg   0.35890
gfz2012rwov   0.47300
gfz2012rypu  -0.98850
gfz2012snhi  -1.83950
gfz2012sphd  -0.27850
gfz2012sqmv  -0.01750
gfz2012syvl   0.28120
gfz2012teic   0.30110
gfz2012tmop  -0.45580
gfz2012ttoa  -0.17450
gfz2012tvmv   0.22490
gfz2012uafg  -0.09120
gfz2012uciv  -0.77380
gfz2012uhup   0.18390
gfz2012uvqf  -0.18840
gfz2012uzyj   0.45870
gfz2012vrgb  -0.31920
gfz2012whku   0.50050
gfz2012wizz  -1.05450
gfz2012wklq  -0.13580
gfz2012wmsg  -0.54020
gfz2012wrir  -0.34150
gfz2012wtkr  -0.14540
gfz2012wubh  -0.22830
gfz2012wvfl  -0.68720
gfz2012wxer  -0.25090
gfz2012wxlg  -0.27620
gfz2012wxnu  -0.83030
gfz2012wybs   0.34910
gfz2012wypz   0.80480
gfz2012xbjq   0.17740
gfz2012xslk  -2.16730
gfz2012xvwn   1.20940
gfz2012zemh   0.18450
gfz2012zfag   0.08320
gfz2012zitl   0.22020
gfz2012zjpv   0.15910
gfz2012zmbp   0.17780
gfz2013apmm   0.61890
gfz2013bokp   0.87420
gfz2013bouj  -0.83300
gfz2013btjm  -0.57370
gfz2013cbsm  -0.45930
gfz2013ccnr   0.00000
gfz2013cvqg  -0.14840
gfz2013cwpn   0.93780
gfz2013dddp  -0.41580
gfz2013dkly   0.42400
gfz2013dofo  -0.72140
gfz2013dojq  -0.68840
gfz2013drxz  -0.35040
gfz2013dspt   1.17690
gfz2013dsrk  -1.19480
gfz2013dvyh   0.15580
gfz2013egpu   0.14040
gfz2013ewbo   0.62120
gfz2013fiud   0.56570
gfz2013fwxa   0.32920
gfz2013fygc  -0.13040
gfz2013gdnq  -0.90510
gfz2013gihf   0.33570
gfz2013gjdc  -0.18240
gfz2013gngz  -0.68850
gfz2013gock   0.08330
gfz2013hdnc  -0.28380
gfz2013hxcx   0.00430
gfz2013iayx   0.22310
gfz2013ijsr   0.24060
gfz2013ikgo  -0.62500
gfz2013ilug  -0.21080
gfz2013ippu  -0.04310
gfz2013jesk   0.23390
gfz2013jgij  -0.25910
gfz2013jgip  -0.23080
gfz2013jkut  -0.12330
gfz2013jokw  -0.52740
gfz2013jusj   0.06030
gfz2013jwvc  -0.19790
gfz2013kccc   0.16760
gfz2013kdeo  -0.03490
gfz2013kheb   0.92100
gfz2013khli  -0.95050
gfz2013kilx   1.20920
gfz2013ldos  -3.66420
gfz2013ldpc  -0.06700
gfz2013ldqb  -0.28570
gfz2013lgnl   0.74800
gfz2013lixa  -0.03920
gfz2013lwbk   0.25120
gfz2013lyko   0.42040
gfz2013mmwq   0.07760
gfz2013mqmv   0.41760
gfz2013mwbh   0.05790
gfz2013ncjp  -0.19620
gfz2013ndin   0.78660
gfz2013neuc  -0.85480
gfz2013nixj  -0.33520
gfz2013nkgj  -0.02070
gfz2013nknw   0.79520
gfz2013nmac  -0.04270
gfz2013nqgw   2.35030
gfz2013nwdi  -0.32480
gfz2013oejn   1.01220
gfz2013ogde   0.28850
gfz2013oqsc  -0.15670
gfz2013ozrp   0.02460
gfz2013pcos   0.17790
gfz2013pfeb  -0.15390
gfz2013ppqq  -0.95770
gfz2013pxsj  -0.77120
gfz2013pxya   1.61760
gfz2013qali   0.60830
gfz2013qfmm  -0.31390
gfz2013qmer  -0.06310
gfz2013qnxc  -0.11020
gfz2013qzdq   0.27180
gfz2013reym  -0.05780
gfz2013rsnr  -0.17650
gfz2013sart   1.60840
gfz2013sdus   0.10260
gfz2013sfto   0.00000
gfz2013skkm  -0.11960
gfz2013snbr   0.83100
gfz2013snyf  -0.67430
gfz2013sred  -4.92710
gfz2013suvn   0.75810
gfz2013svci  -0.10790
gfz2013tcbk   0.13240
gfz2013tcxc  -0.53340
gfz2013tcxq  -0.41280
gfz2013tdau  -0.67830
gfz2013tusd   0.44030
gfz2013tvmw   0.14910
gfz2013txij   0.33440
gfz2013txtb   0.00230
gfz2013uauo  -0.21300
gfz2013ufxk  -0.97620
gfz2013ufxm   0.40540
gfz2013uqsp   0.76450
gfz2013uqvu   0.11840
gfz2013vexx  -0.19360
gfz2013vfyw   0.45890
gfz2013vfzp   0.12720
gfz2013vgrk  -0.34750
gfz2013vhzu  -0.11970
gfz2013viul  -0.15070
gfz2013vjjc  -1.33750
gfz2013vzbo  -0.39570
gfz2013waam  -0.48330
gfz2013wjmm  -0.74860
gfz2013wnpr  -0.17990
gfz2013xmul   0.92810
gfz2013xsdt   0.24290
gfz2013xwda  -0.21940
gfz2013xxwv  -0.18600
gfz2013xxxq  -0.10380
gfz2013yaig  -1.40020
gfz2013yctg   0.02840
gfz2013yqkv   0.48910
gfz2014adoj   0.59520
gfz2014afmx   0.15030
gfz2014ande   0.37160
gfz2014bagd   0.41940
gfz2014bezu   0.30780
gfz2014bfng  -0.89040
gfz2014bmta  -0.09060
gfz2014bwue   0.63820
gfz2014bzxy   0.23010
gfz2014chdv  -0.28160
gfz2014claq  -0.85930
gfz2014cmwb  -0.01300
gfz2014cqyo   0.53800
gfz2014cvkm  -1.80500
gfz2014cvxx   0.04980
gfz2014czno   0.08710
gfz2014czqi  -0.02840
gfz2014czua   0.78450
gfz2014dhxt   0.20010
gfz2014disp   0.17200
gfz2014duqn   0.64270
gfz2014ehsf   1.37260
gfz2014ekcr   0.46450
gfz2014ekdn   0.35560
gfz2014enhi   0.35360
gfz2014femz  -0.20330
gfz2014fgvi  -0.06200
gfz2014fgvr   0.63780
gfz2014fhdw   0.29290
gfz2014fhla  -0.40990
gfz2014fhrq   0.15490
gfz2014fhsg   0.66800
gfz2014fhwx   0.87500
gfz2014fimn   0.35850
gfz2014fkmr  -0.82780
gfz2014fnyg  -0.13400
gfz2014gbcz   0.10100
gfz2014gbdq  -2.90790
gfz2014ghpe   0.32590
gfz2014gkgf  -0.80960
gfz2014gkgs   0.41180
gfz2014gkhp  -1.36660
gfz2014gkhy  -0.10960
gfz2014gkjl   0.35740
gfz2014gkjt  -0.88470
gfz2014gkmm  -0.39550
gfz2014gkob   1.43930
gfz2014gkqf   0.23860
gfz2014gkqu  -0.47720
gfz2014gksj   0.55700
gfz2014gksu  -0.19650
gfz2014gktq   0.82030
gfz2014glcu   0.50970
gfz2014gltx   0.04970
gfz2014gmge  -0.72490
gfz2014gmhr  -0.12570
gfz2014gmip   0.10330
gfz2014gmku   0.47650
gfz2014gmnb   0.16900
gfz2014gmnw   0.34250
gfz2014gmor   0.17130
gfz2014gmuk   0.07540
gfz2014gnnt  -0.08350
gfz2014gnsi  -0.26150
gfz2014goba  -0.28020
gfz2014gogv   0.21410
gfz2014goqw   0.38510
gfz2014gori   0.78300
gfz2014gphr   0.16790
gfz2014gpya   0.02500
gfz2014gqer  -1.10280
gfz2014gqve   0.45890
gfz2014gsqs   0.40230
gfz2014gull   0.11890
gfz2014gvrd   0.97480
gfz2014gwab  -1.21080
gfz2014gxxo   0.21440
gfz2014hasj   0.17950
gfz2014hauo   0.93490
gfz2014hbjm   0.64020
gfz2014hbqb  -0.30530
gfz2014hcmj   0.23350
gfz2014hetr   0.18520
gfz2014hfhl   1.20760
gfz2014hgqo  -0.03840
gfz2014hjgh   0.43090
gfz2014hjgr  -0.11470
gfz2014hjij   0.84950
gfz2014hkcf   0.37780
gfz2014hmrs   0.34410
gfz2014hocg   0.26280
gfz2014hqxs   0.40950
gfz2014hrft  -0.39290
gfz2014hriu  -0.41350
gfz2014hzfw  -0.32690
gfz2014hzgn  -0.39080
gfz2014ilwu  -0.88090
gfz2014iobd   0.20360
gfz2014irci  -0.36730
gfz2014itkw   1.44340
gfz2014itpj   0.65020
gfz2014iywt   0.00000
gfz2014jcjt  -0.21600
gfz2014jird  -2.48790
gfz2014jjhc  -0.26990
gfz2014jnxm  -0.06960
gfz2014jnyv   0.08640
gfz2014jomw  -0.04200
gfz2014jpep   0.19890
gfz2014jtfe  -1.04980
gfz2014jwmh   0.59230
gfz2014kbuk  -0.06080
gfz2014khlk  -1.41290
gfz2014kmmt   0.15060
gfz2014kndc  -0.21460
gfz2014knks  -0.40400
gfz2014knxs   0.92830
gfz2014kscf   2.46030
gfz2014kwie   0.27920
gfz2014kyan   0.00000
gfz2014kytf  -0.13500
gfz2014lefs  -0.86840
gfz2014lgqn  -0.13980
gfz2014lrzx  -0.06540
gfz2014lxnc   0.20550
gfz2014lyhk   0.22930
gfz2014lyhp   0.28090
gfz2014macx  -0.07870
gfz2014madw   1.30800
gfz2014moaw  -0.16480
gfz2014mtum  -0.36170
gfz2014mxkr   0.03060
gfz2014nnxd   1.07060
gfz2014nowp  -0.71380
gfz2014npeo  -0.32060
gfz2014nphm   0.11040
gfz2014nqfm  -0.05490
gfz2014nrie  -0.16820
gfz2014ofhm   0.05710
gfz2014oinz   0.26200
gfz2014owxc   0.16400
gfz2014oyly   0.33560
gfz2014pjer  -1.66400
gfz2014pkll  -0.44610
gfz2014ppzf  -0.00000
gfz2014pvch   0.00800
gfz2014qlxd   0.30850
gfz2014qngj  -0.18980
gfz2014qqhm   0.42830
gfz2014raau   0.26400
gfz2014rdsn  -0.49020
gfz2014riel  -0.95350
gfz2014romy  -1.34660
gfz2014rtcu  -3.48660
gfz2014rwos   0.27700
gfz2014sadu   1.05800
gfz2014sjqw   0.75570
gfz2014sptq   0.83980
gfz2014sryn   0.03820
gfz2014ssmv   0.23590
gfz2014ssvz  -0.26090
gfz2014szzf  -3.46300
gfz2014tovs  -0.94870
gfz2014tqdo   0.07790
gfz2014tqly   0.46250
gfz2014tqsf   0.14420
gfz2014tzsd   0.18190
gfz2014uapa   0.05900
gfz2014ubwn   0.46490
gfz2014udgg  -0.25950
gfz2014uohh   0.79830
gfz2014uuuf   2.89470
gfz2014uvji   1.14520
gfz2014uvrk  -0.04270
gfz2014vhld   0.32510
gfz2014vhms  -0.07510
gfz2014vjoz   0.49230
gfz2014waoo  -0.53470
gfz2014watn  -0.43960
gfz2014wjko   0.23580
gfz2014wrkh  -0.47890
gfz2014xbyr   0.86510
gfz2014xjri   0.97360
gfz2014xoji   3.47280
gfz2014xqqd  -0.15380
gfz2014ynhc   0.57430
gfz2014ynzy  -3.48240
gfz2014yppv   0.31510
gfz2014yyiy   0.56860
gfz2015apnk   0.74810
gfz2015arpd   0.04070
gfz2015aruz  -0.26580
gfz2015atxv  -0.68220
gfz2015bdyd   0.54300
gfz2015berb   0.53260
gfz2015bfjm   0.01650
gfz2015bkbj   0.10940
gfz2015bsnl  -1.66390
gfz2015bvsj   0.72530
gfz2015bvxx  -2.43060
gfz2015byfn  -0.11040
gfz2015chhn  -0.09390
gfz2015chqn   0.10920
gfz2015cxhx  -0.28110
gfz2015cxxk   0.15450
gfz2015cyjd   0.61200
gfz2015dizn   0.10310
gfz2015dskr   0.22180
gfz2015ecgq   0.06050
gfz2015egxq   0.69530
gfz2015ehpz  -0.12680
gfz2015eiky   0.30340
gfz2015elgy  -0.33070
gfz2015etai   0.45130
gfz2015fbbk   0.80600
gfz2015fcua   0.36210
gfz2015fdpr  -0.01670
gfz2015fjhk   0.47030
gfz2015fkgt  -0.34620
gfz2015fkuu  -0.37830
gfz2015flis   0.54170
gfz2015fpez  -0.31750
gfz2015fsjj   0.51830
gfz2015fxbv  -1.34260
gfz2015fxdi  -0.17160
gfz2015gckd   0.01410
gfz2015ggjw  -0.04340
gfz2015gkwa   0.38780
gfz2015gmgf   0.39590
gfz2015gnmy   0.67570
gfz2015gzja  -0.55540
gfz2015hgbk   0.20700
gfz2015hlqo  -0.19840
gfz2015hpmk  -0.11360
gfz2015iele   0.51670
gfz2015imty  -0.01750
gfz2015jkdw  -0.00000
gfz2015jwgl  -0.41830
gfz2015jxbx  -0.01890
gfz2015jzcv   0.51550
gfz2015kakw   0.37080
gfz2015kcaa   0.01370
gfz2015kfsu   0.06280
gfz2015kkqb   0.36190
gfz2015kkth   0.49960
gfz2015ksni   0.09790
gfz2015lfud  -0.10020
gfz2015lhjq  -1.01640
gfz2015lhjy   0.70440
gfz2015ltii   0.39350
gfz2015lytv  -0.82280
gfz2015lzad  -0.64190
gfz2015mddr   0.04550
gfz2015mhym   0.60770
gfz2015mpte  -0.77680
gfz2015nerz  -0.23920
gfz2015nuxz   0.51970
gfz2015nwug   0.22310
gfz2015ocdz   0.42890
gfz2015okmq   0.09800
gfz2015oyfl  -0.44920
gfz2015poni  -0.26330
gfz2015puah   0.38200
gfz2015puqp   0.03610
gfz2015qnho  -0.15240
gfz2015qpvd  -0.05900
gfz2015quzo   0.04480
gfz2015rgrg   0.38700
gfz2015rkbq  -0.00000
gfz2015rkrg  -0.62030
gfz2015rkzg   0.14990
gfz2015rxmg   0.39410
gfz2015saet   0.23050
gfz2015sfdd   0.07000
gfz2015sfdy   0.06190
gfz2015sfeo   0.70850
gfz2015sfga  -0.36340
gfz2015sfhz   0.14400
gfz2015sfiq  -1.30590
gfz2015sfko   0.37490
gfz2015sflf   0.05610
gfz2015sfnb   0.27140
gfz2015sfno  -0.22370
gfz2015sfnv   0.14770
gfz2015sfoc   0.37820
gfz2015sfom  -0.04170
gfz2015sfoq   0.64760
gfz2015sfpj  -0.95000
gfz2015sfps   0.33240
gfz2015sfqo   0.15650
gfz2015sfqr   0.39620
gfz2015sftu   0.04650
gfz2015sfuz  -0.20760
gfz2015sfwf   0.16860
gfz2015sgad   0.16960
gfz2015sgna   0.45360
gfz2015sgyd   0.86570
gfz2015shhu   0.17050
gfz2015shjn  -0.02300
gfz2015shlp  -0.35920
gfz2015shrg  -0.23760
gfz2015shsz  -0.23990
gfz2015sist  -0.28480
gfz2015sitn   0.18900
gfz2015sjbx  -0.03550
gfz2015sjfi   0.81890
gfz2015sjgk   0.08500
gfz2015sjjb  -0.58380
gfz2015sjne   0.69280
gfz2015sjoj  -0.00000
gfz2015sjvu   0.25580
gfz2015sjwi  -0.39110
gfz2015skuk  -1.12500
gfz2015skxu   0.07980
gfz2015sldx   0.24480
gfz2015sljs   0.92630
gfz2015smym  -0.37510
gfz2015snsf   0.58210
gfz2015snwh  -0.28010
gfz2015snyd   0.58320
gfz2015soat  -0.11620
gfz2015soxc   0.20820
gfz2015sqmy  -0.15100
gfz2015srat  -0.18300
gfz2015sryk   0.03680
gfz2015sspn   0.37310
gfz2015stfy  -0.55930
gfz2015subz   0.86020
gfz2015svwm   0.19410
gfz2015sxmh  -0.05210
gfz2015szcb  -0.11120
gfz2015taml   1.40510
