# Nsamples: 28  MAD:  0.593  mean: -0.210  variance:  0.556
gfz2014bwue  -0.62240
gfz2014fgvi  -0.40480
gfz2014fhla   0.70440
gfz2014fkmr   1.11030
gfz2014frdz  -0.65920
gfz2014frez   0.01870
gfz2014ftka  -2.39180
gfz2014fval  -0.04950
gfz2014ghpe  -0.58510
gfz2014gkgf  -1.22250
gfz2014gkhy   0.58060
gfz2014gkqf   0.36020
gfz2014gltx   0.05270
gfz2014gmge   0.35820
gfz2014gmnb   0.11460
gfz2014gmnw  -0.34260
gfz2014goba  -0.11740
gfz2014gsqs   0.71440
gfz2014gull   0.65500
gfz2014gxxo   0.21470
gfz2014hasj  -0.42260
gfz2014hgqo  -0.65620
gfz2014itkw  -1.87150
gfz2015cyjd  -0.49040
gfz2015fjhk  -0.34030
gfz2015fsjj  -0.26940
gfz2015mpte  -0.47450
gfz2015sfdd   0.15580
