# Nsamples: 16  MAD:  0.483  mean:  0.210  variance:  0.366
gfz2010iull  -0.01330
gfz2010nmpc  -0.11900
gfz2011aatr   0.42160
gfz2011enva   2.10210
gfz2011lcxq  -0.10970
gfz2011lzwj   0.17800
gfz2011rewa  -0.76800
gfz2011toub   0.43300
gfz2011wxfs  -0.11670
gfz2012jlox  -0.12460
gfz2012kudo   0.55060
gfz2012wypz   0.54170
gfz2013jkut   0.31000
gfz2014bwue   0.25650
gfz2014fgvi  -0.49160
gfz2014gkgf   0.31470
