# Nsamples: 27  MAD:  0.577  mean: -0.093  variance:  1.673
gfz2010iull  -0.84050
gfz2010nmpc  -0.60710
gfz2010usho   0.38310
gfz2011aatr  -0.75120
gfz2011enva   0.34600
gfz2011gkzt   4.60870
gfz2011lcxq  -0.52270
gfz2011lzwj  -0.12910
gfz2011rewa   0.42230
gfz2011toub  -0.36170
gfz2011wxfs  -0.62170
gfz2012jlox  -0.69900
gfz2012kudo  -0.02540
gfz2012ldxg  -0.32190
gfz2012ldzj   0.05500
gfz2012wypz  -0.51340
gfz2013nwdi  -1.41280
gfz2013svci  -0.66340
gfz2014bwue  -0.38250
gfz2014fgvi  -0.94560
gfz2014fhla   2.11060
gfz2014fkmr  -2.32350
gfz2014gkgf  -1.45200
gfz2014gmhr   0.32950
gfz2014gmnb  -0.14750
gfz2015cyjd   2.18970
gfz2015lhjy  -0.23240
