# Nsamples: 36  MAD:  0.980  mean: -0.256  variance:  0.763
gfz2010bxxs  -0.96100
gfz2010cqwl  -0.79600
gfz2010eisx   0.66610
gfz2010ekyc   0.53520
gfz2010eltf  -1.52660
gfz2010elyc   1.98140
gfz2010excp  -1.47030
gfz2010fedq   1.03630
gfz2010ffhq  -0.67170
gfz2010grjd  -0.44280
gfz2011aatr  -0.84020
gfz2011cykd   1.49200
gfz2011enva   0.66660
gfz2011gkzt   0.52460
gfz2011lcxq   0.76810
gfz2011lzwj  -0.44960
gfz2011rewa  -0.52680
gfz2011toub  -0.36440
gfz2011wxfs   0.47120
gfz2012enno  -0.71360
gfz2012kkup  -0.30540
gfz2012kudo  -0.06600
gfz2013ccnr  -0.38870
gfz2013drxz  -0.54340
gfz2013nwdi  -1.32070
gfz2013qmer  -0.59220
gfz2013svci   0.43740
gfz2013vjjc   0.44650
gfz2014fgvi  -0.79530
gfz2014fhla   0.36090
gfz2014ftka  -1.93720
gfz2014gkgf  -1.26550
gfz2014gmhr  -1.31600
gfz2015chhn  -0.56530
gfz2015cyjd  -0.78150
gfz2015fsjj   0.05520
