# Nsamples: 334  MAD:  0.618  mean:  0.500  variance:  1.035
gfz2013cvqg   1.75590
gfz2013dkly  -1.15120
gfz2013dkmz  -1.57360
gfz2013drxz   1.11920
gfz2013egni  -0.57070
gfz2013fkcl   2.92280
gfz2013flox  -0.15130
gfz2013fygc  -0.45420
gfz2013gcfx  -0.20760
gfz2013gngz  -0.27580
gfz2013gock   1.70820
gfz2013gwrd  -2.41710
gfz2013hdnc  -0.40450
gfz2013hmbc   0.94250
gfz2013hxcx   1.40250
gfz2013ijsr   0.17190
gfz2013ikgo   0.08070
gfz2013ilug  -0.21480
gfz2013ippu   0.60430
gfz2013jesk   2.50050
gfz2013jgij  -0.25860
gfz2013jgip   2.27690
gfz2013jkut   1.41700
gfz2013jokw   1.43530
gfz2013jusj  -0.59580
gfz2013jwvc   1.52310
gfz2013kccc   3.52930
gfz2013kdeo   0.12810
gfz2013kqln   2.67660
gfz2013ldos   1.19030
gfz2013ldpc  -0.13850
gfz2013ldqb   0.06650
gfz2013lgnl   0.08790
gfz2013lixa   0.03480
gfz2013lyko   0.51040
gfz2013mmwq   1.18860
gfz2013mqmv   2.05270
gfz2013ncjp   1.63790
gfz2013ndin   0.14530
gfz2013neuc   1.99820
gfz2013nixj  -0.15050
gfz2013nkgj  -0.06180
gfz2013nknw  -0.46680
gfz2013nmac   1.88640
gfz2013nwdi   1.60490
gfz2013oqsc   1.22570
gfz2013pfbx   0.26720
gfz2013phef   0.64920
gfz2013pxsj  -0.03760
gfz2013qali   0.68370
gfz2013qesa   3.77690
gfz2013qmer  -0.04250
gfz2013qnxc   2.31860
gfz2013qzdq   0.61300
gfz2013sdus   2.09470
gfz2013sfto   1.25100
gfz2013svci   1.85310
gfz2013tcbk  -0.30430
gfz2013tcxc   1.57190
gfz2013tcxq   2.41630
gfz2013tdau   3.04070
gfz2013tlaf  -0.52750
gfz2013tpeb   0.21560
gfz2013tusd  -0.41250
gfz2013tvmw  -0.38260
gfz2013twwf  -0.52920
gfz2013txtb   1.43150
gfz2013uqsp   2.34910
gfz2013utsh  -0.12450
gfz2013vexx   1.34400
gfz2013vfyw  -0.54130
gfz2013vfzp   0.41030
gfz2013vjjc  -1.24750
gfz2013vzbo   0.34370
gfz2013waam  -0.61140
gfz2013wjmm   1.03110
gfz2013wkyk   1.46430
gfz2013xizq   0.48580
gfz2013xklb   0.98790
gfz2013xsdt   0.81340
gfz2013xxwv   0.00260
gfz2013xxxq   0.98530
gfz2013yctg  -0.17250
gfz2013ylbx   0.75660
gfz2014bagd   0.08300
gfz2014bmta   0.08190
gfz2014bzxy   0.38080
gfz2014chdv   1.71320
gfz2014cmwb   0.55660
gfz2014cvkm   1.51790
gfz2014cvxx  -0.17100
gfz2014czol  -0.41980
gfz2014czqi  -0.20500
gfz2014czua   0.39620
gfz2014dffd   0.11800
gfz2014disp  -0.09630
gfz2014duqn  -0.49330
gfz2014eght   1.14850
gfz2014ehsf   0.20960
gfz2014ekcr   0.41040
gfz2014ekdn   0.61430
gfz2014ekdt   0.21040
gfz2014enhi   0.22720
gfz2014femz   0.34890
gfz2014fgvi   0.04660
gfz2014fhdw   0.52420
gfz2014fhla   1.52640
gfz2014fhwx  -3.12130
gfz2014fimn   1.47650
gfz2014fkmr  -0.51040
gfz2014fnyg  -0.00000
gfz2014frez   0.55500
gfz2014ftka   0.50580
gfz2014ftoc   0.56580
gfz2014ftpw   0.22970
gfz2014ftrk   0.06800
gfz2014furx  -0.24780
gfz2014fusc   0.61190
gfz2014fval   1.11850
gfz2014gbcz  -3.63550
gfz2014ghpe   0.26670
gfz2014gkgf  -0.51740
gfz2014gksj  -0.62980
gfz2014gksu  -0.07800
gfz2014gktq   0.48950
gfz2014gkxm   0.62900
gfz2014glcu   1.59140
gfz2014glgo  -0.21410
gfz2014gmge   1.07710
gfz2014gmhr  -0.06010
gfz2014gmnb   0.05510
gfz2014gmnw   0.21540
gfz2014gmor   0.30520
gfz2014gmuk   0.00000
gfz2014gogv   0.25900
gfz2014goqw   0.47520
gfz2014gori   0.57810
gfz2014gphr   0.00000
gfz2014gpya  -0.11410
gfz2014gqer  -0.67340
gfz2014gqve   0.51490
gfz2014grgn   2.25590
gfz2014gsqs   0.61410
gfz2014gull   0.95540
gfz2014gvra  -0.20210
gfz2014gvrd   0.34590
gfz2014gwab   0.45930
gfz2014gxxo  -0.30790
gfz2014hbjz   0.82650
gfz2014hbqb  -0.06180
gfz2014hgqo   0.18050
gfz2014hjgh   0.30390
gfz2014hjgr   0.29670
gfz2014hkcf   0.70980
gfz2014hocg   1.79220
gfz2014hqxs  -0.65540
gfz2014huaj   0.40760
gfz2014hzfw   0.43530
gfz2014hzig  -2.02040
gfz2014imnn   0.39720
gfz2014irci  -1.91510
gfz2014itbu  -1.02340
gfz2014iywt   1.83650
gfz2014jcjt   1.30050
gfz2014jjhc   1.41830
gfz2014jjln   0.53750
gfz2014jnyv  -0.13520
gfz2014jpep   0.38310
gfz2014jwmh   0.45090
gfz2014khlk   4.47360
gfz2014kmmt   1.69200
gfz2014kndc   0.32390
gfz2014knks  -0.17050
gfz2014knxs   0.12520
gfz2014kyan   0.82010
gfz2014kytf  -0.18690
gfz2014lbcq  -0.28960
gfz2014lddn   0.07910
gfz2014lgqn   1.40830
gfz2014macx   0.77720
gfz2014myqz  -1.68060
gfz2014ngvt   0.10630
gfz2014npeo  -0.11690
gfz2014nphm   0.29270
gfz2014nqfm   0.00140
gfz2014nyko   1.05960
gfz2014oinz   0.00770
gfz2014oryw   1.56050
gfz2014owxc   0.53420
gfz2014oyly   1.76720
gfz2014pkll   0.17050
gfz2014pvch   0.30050
gfz2014uvji  -0.93680
gfz2014vhld   2.28340
gfz2014waoo  -0.04200
gfz2014watn  -0.19960
gfz2014wjko   0.43780
gfz2014xjri   0.43600
gfz2014xqqd   0.07110
gfz2014yhhm   0.26010
gfz2014yrug   0.15050
gfz2014zplq   0.74700
gfz2015abpw  -0.27980
gfz2015apnk   0.25940
gfz2015aruz  -0.03660
gfz2015berb   2.09100
gfz2015bkbj   0.65910
gfz2015byjd   1.80630
gfz2015chhn   1.70450
gfz2015chqn   0.56060
gfz2015cxxk   2.04820
gfz2015cyjd   2.49920
gfz2015dizn  -0.14390
gfz2015djts  -0.98640
gfz2015dvbn   0.38860
gfz2015egxq   0.87610
gfz2015eiky  -0.09140
gfz2015etai   0.39900
gfz2015fbbk   2.53160
gfz2015fbew   2.09000
gfz2015fcua   1.14540
gfz2015fjhk   0.68840
gfz2015fkgt   1.51430
gfz2015fkuu   1.41970
gfz2015flis   2.23560
gfz2015fsjj   0.70230
gfz2015gckd   0.52230
gfz2015gzja   1.51400
gfz2015hgbk  -0.39800
gfz2015jkdw   0.54560
gfz2015jpap   4.43970
gfz2015jwgl  -0.13210
gfz2015jzcv   0.00000
gfz2015kakw   0.42180
gfz2015kcaa   0.07560
gfz2015kfsu   0.05730
gfz2015kkth   0.79490
gfz2015ksni   0.28910
gfz2015lhjy   0.62910
gfz2015lytv   1.01320
gfz2015lzad   1.42930
gfz2015mddr   0.27590
gfz2015mpte   1.42530
gfz2015nerz   0.00550
gfz2015nqgf   0.29470
gfz2015nuxz   0.75010
gfz2015nwug  -0.05670
gfz2015ocdz   2.24720
gfz2015ofpd   1.78990
gfz2015ofsr   0.11380
gfz2015okmq   0.46300
gfz2015oumn   0.47580
gfz2015oyfl   0.35640
gfz2015poni   0.17810
gfz2015qisx   2.05050
gfz2015qnho   0.12470
gfz2015qpvd   1.94650
gfz2015quzo   1.97320
gfz2015rgov   1.40610
gfz2015rgrg   1.61960
gfz2015rkbq   2.45580
gfz2015rkrg   1.80400
gfz2015rkzg   1.40680
gfz2015rwsb   0.16190
gfz2015saet   2.76180
gfz2015sfdd   0.05310
gfz2015sfdl  -0.34460
gfz2015sfdv   0.44030
gfz2015sfdy   0.04310
gfz2015sfeo  -0.39450
gfz2015sffn   0.30240
gfz2015sfga   0.10130
gfz2015sfho   0.51930
gfz2015sfhz  -0.11570
gfz2015sfiq  -0.66940
gfz2015sfkh  -0.04330
gfz2015sfko   0.58890
gfz2015sfks  -0.25760
gfz2015sfkz   0.18610
gfz2015sflf   0.04310
gfz2015sfnb  -0.13390
gfz2015sfno   0.16120
gfz2015sfnv  -0.10900
gfz2015sfoc   0.23150
gfz2015sfps  -0.02110
gfz2015sfqo   0.21870
gfz2015sfqr  -0.62860
gfz2015sfrc  -0.04240
gfz2015sfrf   0.12320
gfz2015sfsi   0.86500
gfz2015sftu   0.10530
gfz2015sfuz   0.38240
gfz2015sfwf   0.23040
gfz2015sfxn   0.19530
gfz2015sfzm   0.14850
gfz2015sgad   0.30080
gfz2015sgdj   1.02220
gfz2015sgdn   0.43260
gfz2015sghq   0.34280
gfz2015sglg  -0.18460
gfz2015sguf  -0.32940
gfz2015sgyd   0.66030
gfz2015shhu  -0.48330
gfz2015shjn  -0.06610
gfz2015shjo   0.18380
gfz2015shqc   0.21980
gfz2015shrg  -0.72210
gfz2015shsz   0.11660
gfz2015sjfi   0.14680
gfz2015sjgk   0.46010
gfz2015sjjb  -0.03390
gfz2015sjne   0.60530
gfz2015sjoj   0.21730
gfz2015sjpn   0.04810
gfz2015sjtz   0.49440
gfz2015sjvu   0.21640
gfz2015sjwi   1.24310
gfz2015skxu   0.12940
gfz2015sldx   0.17150
gfz2015sljs   2.04760
gfz2015smym  -0.40030
gfz2015snsf  -0.01740
gfz2015snwh   0.00960
gfz2015snyd  -0.00000
gfz2015soat  -0.01390
gfz2015sqmy  -0.04730
gfz2015srat   0.02400
gfz2015sspn  -0.28110
gfz2015stfy   0.84300
gfz2015svwm   0.04800
gfz2015sxxu  -2.93250
gfz2015szcb  -0.07920
gfz2015sztx   0.60450
gfz2015taml   3.29450
