# Nsamples: 71  MAD:  0.603  mean: -0.340  variance:  0.845
gfz2013dofo  -0.66750
gfz2013drxz  -0.89950
gfz2013gdnq   0.19570
gfz2013jesk   0.95560
gfz2013jgij   0.37800
gfz2013jkut  -0.98760
gfz2013jlst  -0.51290
gfz2013ldqb  -0.76750
gfz2013lyko  -0.10990
gfz2013mqmv   1.07210
gfz2013nkgj  -0.45800
gfz2013nwdi   0.06330
gfz2013onjy  -0.33010
gfz2013qmer  -0.51050
gfz2013svci   0.20710
gfz2013vexx  -1.84760
gfz2013vfzp   0.30280
gfz2013wjmm  -1.34410
gfz2013xsdt  -0.46820
gfz2013yctg   0.33340
gfz2014adoj  -1.80400
gfz2014afmx  -0.22080
gfz2014algk  -0.04000
gfz2014bagd  -0.71540
gfz2014bwue  -1.98950
gfz2014czol  -1.36800
gfz2014czqi  -0.61550
gfz2014czua  -0.13490
gfz2014dffd  -1.64850
gfz2014dhxt  -0.24040
gfz2014enhi  -0.57550
gfz2014fhla   0.85730
gfz2014fhrq   0.07670
gfz2014fkmr  -0.36060
gfz2014ftka   1.59700
gfz2014gbcz  -0.83740
gfz2014ghpe   0.26670
gfz2014gkgf   1.00480
gfz2014gkqf  -0.07500
gfz2014gmge   1.08820
gfz2014gmhr   0.75870
gfz2014gmnb  -0.61150
gfz2014goba  -0.30210
gfz2014gqve   0.87210
gfz2014gtlu  -5.08900
gfz2014gull  -0.04810
gfz2014hasj  -1.12450
gfz2014hbqb  -0.39060
gfz2014hkcf  -0.05260
gfz2014hocg  -0.37300
gfz2014lxnc   1.03470
gfz2014lyhk  -0.80830
gfz2014npeo  -1.00830
gfz2014nqfm  -0.47270
gfz2014oinz  -1.24540
gfz2014qlxd  -0.24840
gfz2014ssvz  -0.67910
gfz2014tqdo  -0.13470
gfz2014vhld  -0.30330
gfz2014watn  -0.02120
gfz2015aruz  -0.46640
gfz2015berb  -0.59280
gfz2015chhn  -0.52290
gfz2015cxxk  -0.34960
gfz2015cyjd   0.20280
gfz2015dvbn   0.09910
gfz2015etai  -0.45200
gfz2015fkgt  -1.12320
gfz2015fsjj   0.11170
gfz2015gckd   0.40400
gfz2015kfsu  -0.05800
