# Nsamples: 203  MAD:  0.911  mean: -0.403  variance:  1.256
gfz2010bfzs  -0.82000
gfz2010bifb  -2.50250
gfz2010bjeb  -1.09560
gfz2010bxxs  -1.81870
gfz2010czps   0.34280
gfz2010dejx  -0.16000
gfz2010eaoy   0.49760
gfz2010eapk  -0.23150
gfz2010eapn  -3.43190
gfz2010eaqe  -0.06220
gfz2010eaqy   0.07550
gfz2010earu  -0.62610
gfz2010easf   0.14140
gfz2010eask  -4.38530
gfz2010easo   0.48790
gfz2010eato  -0.11030
gfz2010eatt  -0.32800
gfz2010eaty  -0.03980
gfz2010eaul  -0.04720
gfz2010eavs   1.25880
gfz2010eawb  -0.36240
gfz2010eawu   1.96490
gfz2010eaya   0.62960
gfz2010eaze   0.67390
gfz2010eazu   1.67070
gfz2010ebdl   1.26600
gfz2010ebfa   0.92250
gfz2010ebfx  -0.38940
gfz2010ebhc  -1.02910
gfz2010ebjy   0.34400
gfz2010ebkj  -0.29700
gfz2010ebkx  -0.67170
gfz2010ebla  -0.45320
gfz2010ebll   0.15030
gfz2010ebnn   0.95510
gfz2010ebvm   0.22700
gfz2010ebvv  -0.23420
gfz2010ebwp   0.77270
gfz2010ebzr   0.00630
gfz2010echc   0.47460
gfz2010ecps   1.06530
gfz2010ecro  -1.56370
gfz2010ecua   0.24480
gfz2010eday   0.62120
gfz2010edvf  -0.23460
gfz2010edyi   1.57090
gfz2010eedz  -0.84380
gfz2010eegn  -0.71940
gfz2010eeij  -0.59110
gfz2010eern   0.29310
gfz2010eevu   0.49510
gfz2010efkc  -0.32920
gfz2010egsy   0.66940
gfz2010ehft  -0.77510
gfz2010ehnm  -0.28370
gfz2010eisx   0.10510
gfz2010eixj  -0.24160
gfz2010ejjg   0.63370
gfz2010ekoe   0.40470
gfz2010ekyc  -1.07030
gfz2010elhv   0.73090
gfz2010eltf  -0.07580
gfz2010elyc   0.43740
gfz2010erdi   1.35120
gfz2010erkn  -0.77800
gfz2010erom   1.12400
gfz2010evco  -1.71210
gfz2010evgf   1.06760
gfz2010excp   0.11010
gfz2010exdd   0.11560
gfz2010exdl  -0.96030
gfz2010exel  -0.48330
gfz2010exmc   0.19370
gfz2010exno  -0.53720
gfz2010ezck   0.91030
gfz2010fcax   0.06370
gfz2010ffui  -0.04540
gfz2010figq   0.39140
gfz2010fjal  -0.95300
gfz2010fpqy  -1.41020
gfz2010fync  -1.49150
gfz2010gcrl   2.07010
gfz2010gdld  -0.57320
gfz2010glxl   0.20160
gfz2010grjd  -1.98620
gfz2010hxgv  -0.10570
gfz2010iobp   0.83790
gfz2010iull  -1.62330
gfz2010jxbm  -0.38800
gfz2010nnny  -2.62690
gfz2010nqwo  -0.18650
gfz2010rqwj  -0.50140
gfz2010skve   1.17670
gfz2010txjs  -0.86260
gfz2010upfb  -0.02060
gfz2011aatr  -1.13930
gfz2011adjs   0.02560
gfz2011bhha   0.95460
gfz2011cykd   0.28460
gfz2011dbig   0.61980
gfz2011dcqb  -0.31070
gfz2011dkyi   0.50650
gfz2011dpqx  -2.71340
gfz2011enva  -1.95100
gfz2011gbmx  -0.03270
gfz2011hfkj  -0.14270
gfz2011hlsa  -0.88380
gfz2011hpgx  -0.41270
gfz2011hpqp  -0.07420
gfz2011ieie  -0.46010
gfz2011iwte   0.43580
gfz2011jplh  -0.84820
gfz2011kqwo  -0.35680
gfz2011kxzp  -0.00000
gfz2011lcxq  -1.41140
gfz2011lzwj  -2.43110
gfz2011mdie  -2.16610
gfz2011mjom  -1.83860
gfz2011mpme   0.35170
gfz2011nrwc  -0.92080
gfz2011nudm  -0.41350
gfz2011owvz  -1.35880
gfz2011qvae  -0.63130
gfz2011rewa  -1.34100
gfz2011sagt   1.18030
gfz2011toub  -2.64250
gfz2011uphh  -1.13200
gfz2011urzu  -0.82050
gfz2011vxns  -0.12490
gfz2011wwjs  -0.33710
gfz2011wxfs   0.08670
gfz2011zklv  -2.08000
gfz2012aqgp  -0.32970
gfz2012bpkx  -0.33620
gfz2012enno  -0.92670
gfz2012fwfo  -0.03490
gfz2012fzfa  -0.01690
gfz2012gocc  -0.18990
gfz2012gomm  -2.96380
gfz2012hnul  -0.71150
gfz2012jlox  -2.46840
gfz2012kkup  -1.18590
gfz2012klhx  -1.36410
gfz2012kudo  -0.75540
gfz2012sphd  -2.41070
gfz2012ttoa  -3.79760
gfz2012uafg   0.68330
gfz2012wtkr  -0.09940
gfz2012wvfl  -0.94040
gfz2012wxlg  -0.87450
gfz2012wxnu  -0.93350
gfz2012wypz  -1.04930
gfz2013mqmv  -1.10090
gfz2013nwdi  -1.12120
gfz2013pfbx  -0.70200
gfz2013svci  -0.82730
gfz2013toxf  -1.09790
gfz2013vfzp   1.43790
gfz2013vjjc  -1.91690
gfz2013wjmm  -0.74810
gfz2013xsdt  -2.26570
gfz2013xxxq  -0.28030
gfz2013yqkv  -1.73690
gfz2014afmx  -0.99800
gfz2014ande  -1.06490
gfz2014bwue  -0.13680
gfz2014czua  -0.46600
gfz2014ehsf   0.51400
gfz2014ekcr  -0.02990
gfz2014enhi   1.02090
gfz2014femz  -0.06860
gfz2014fgvi  -0.92980
gfz2014fhla  -0.22650
gfz2014frdz   1.26520
gfz2014ftka  -0.89230
gfz2014furx  -1.89830
gfz2014fusj   3.97530
gfz2014fvgh   0.30120
gfz2014fvrg  -1.35140
gfz2014gbcz   2.52300
gfz2014gkgf  -2.60510
gfz2014gkgs  -1.45300
gfz2014gkhy  -0.40340
gfz2014gkjl  -0.08660
gfz2014gkqf  -0.18160
gfz2014gmge  -0.43430
gfz2014gmhr  -0.36440
gfz2014gmnb  -0.45320
gfz2014gmnw  -0.77990
gfz2014gmuw  -0.97270
gfz2014goba   0.06600
gfz2014gori   0.35920
gfz2014gufl   2.00830
gfz2014gull  -0.98450
gfz2014hasj  -0.40220
gfz2014hgqo  -0.40490
gfz2014hhwx  -2.04430
gfz2014jwmh  -0.56990
gfz2014nrie  -1.19410
gfz2014qngj   0.06760
gfz2014szzf  -0.30140
gfz2015chhn  -1.23010
gfz2015cyjd  -2.08550
