# Nsamples: 7  MAD:  0.100  mean:  0.457  variance:  1.850
gfz2010grjd   0.09420
gfz2010iull  -0.12190
gfz2011aatr  -0.08370
gfz2011enva   3.78160
gfz2011wxfs  -0.15790
gfz2012wypz  -0.09070
gfz2014fgvi  -0.21930
