# Nsamples: 35  MAD:  0.967  mean: -0.259  variance:  0.965
gfz2010iobp   0.03100
gfz2010iqnm   1.75170
gfz2010iull   0.46190
gfz2010jagd  -1.50330
gfz2010nqwo  -0.21440
gfz2010nwef   0.14100
gfz2011jplh  -0.00810
gfz2011kxzp  -0.29340
gfz2012ruks  -2.63180
gfz2012ttoa   0.23320
gfz2012uafg   0.34890
gfz2012uzyj  -1.31780
gfz2012wklq  -0.03190
gfz2012wypz   0.26690
gfz2013akgj  -1.29610
gfz2013ccnr   0.24290
gfz2013dofo  -0.69440
gfz2013drxz  -1.02180
gfz2013ldqb   0.00740
gfz2013mqmv   0.80620
gfz2013nkgj  -0.20080
gfz2013nwdi  -2.24780
gfz2013qfsq   0.62010
gfz2013qmer  -0.42590
gfz2013ugax  -0.50540
gfz2013vjjc  -0.91060
gfz2013wjmm  -2.10240
gfz2013xsdt  -1.30580
gfz2014algk  -0.51240
gfz2014bwue   0.42570
gfz2014jjhc   0.74990
gfz2014jwmh  -0.76400
gfz2015kfsu   0.63080
gfz2015lhjy   1.48400
gfz2015lytv   0.73620
