# Nsamples: 77  MAD:  0.788  mean:  0.603  variance:  1.538
gfz2010bfzs   0.11060
gfz2010czps  -1.01570
gfz2010eaoy   1.15110
gfz2010eapk   1.48970
gfz2010eapn   0.00000
gfz2010eaqe   0.78540
gfz2010earu   0.98790
gfz2010easo   0.19540
gfz2010easu   0.26080
gfz2010eati  -0.08660
gfz2010eato   0.46760
gfz2010eatt   2.07130
gfz2010eavs   0.33150
gfz2010eaxa  -1.23890
gfz2010eazu   1.69320
gfz2010ebnn  -0.18860
gfz2010ebvv   0.93980
gfz2010ecua  -0.15790
gfz2010edyi   1.78030
gfz2010eevu   0.53140
gfz2010egap  -0.51080
gfz2010ehrq   2.01880
gfz2010eisx   3.44570
gfz2010ekyc   2.34600
gfz2010elhv  -0.30540
gfz2010elyc  -3.41350
gfz2010eujm  -0.46550
gfz2010ewpq   0.92160
gfz2010excp  -0.42200
gfz2010exdd   1.40390
gfz2010exhw   0.01740
gfz2010ezck   0.51800
gfz2010ezig  -0.07870
gfz2010fmpy   0.72560
gfz2010fync   0.67850
gfz2010gyqp   1.05340
gfz2010iobp   0.28770
gfz2010iull   0.63490
gfz2010nmpc   2.89840
gfz2010nqwo   1.81980
gfz2010rqwj   0.80540
gfz2010upfb   0.45670
gfz2011aatr   0.14660
gfz2011adjs   0.80920
gfz2011hfkj  -0.06450
gfz2011owvz   2.75490
gfz2011rewa   2.31710
gfz2011vhfi  -1.43720
gfz2011vrhg   1.01670
gfz2012fzfa   0.29600
gfz2012hnul   0.27140
gfz2012uafg   0.81490
gfz2012wklq   0.82050
gfz2012wxlg   0.43800
gfz2013ccnr   0.81780
gfz2013hkja   0.20360
gfz2013vjjc   0.68110
gfz2014algk   2.36920
gfz2014enhi   0.88780
gfz2014fvaa  -4.20960
gfz2014gkgf   3.41920
gfz2014hzhe  -1.50960
gfz2014ilwu   0.33680
gfz2014qngj  -1.03830
gfz2014utac  -0.09460
gfz2015chhn   0.87400
gfz2015cyjd   0.65760
gfz2015lytv   1.10930
gfz2015qnho   0.55520
gfz2015sfdd   0.66000
gfz2015sfdl   1.19120
gfz2015sfdy   0.76540
gfz2015sfeo   1.69860
gfz2015sfhz   1.85530
gfz2015sfnb   1.86460
gfz2015sfno  -0.51120
gfz2015soxc   0.68710
