# Nsamples: 156  MAD:  0.836  mean:  0.166  variance:  1.685
gfz2010bfzs  -1.39310
gfz2010bxxs  -0.01850
gfz2010czps   0.42710
gfz2010eaoy  -2.25540
gfz2010eapk  -0.21180
gfz2010eapn  -0.82220
gfz2010eaqe  -0.44040
gfz2010eaqx  -0.40150
gfz2010eaqy  -1.19600
gfz2010earq   0.36710
gfz2010earu  -1.15880
gfz2010easf  -2.70820
gfz2010easo  -0.06380
gfz2010easu   0.48320
gfz2010eati  -1.17840
gfz2010eato  -0.23340
gfz2010eatt   1.09370
gfz2010eaty  -1.22460
gfz2010eavs  -2.01480
gfz2010eawb   2.32470
gfz2010eaxa  -0.85650
gfz2010eayd   0.10580
gfz2010eazu  -0.65890
gfz2010ebbd  -0.41740
gfz2010ebek  -0.69890
gfz2010ebfa   0.79830
gfz2010ebgj  -2.11680
gfz2010ebih   0.50800
gfz2010ebjy  -0.26080
gfz2010ebkj  -0.09380
gfz2010ebla  -0.78440
gfz2010ebll   2.56890
gfz2010ebmb  -0.50340
gfz2010ebmi   0.42720
gfz2010ebnn  -1.06840
gfz2010ebvm  -5.90290
gfz2010ebvv   0.31970
gfz2010ebzk   0.07740
gfz2010ebzr  -0.08630
gfz2010ecay  -0.72590
gfz2010ecbi   0.64350
gfz2010ecdu  -0.51920
gfz2010echt   0.39030
gfz2010ecsp   0.13110
gfz2010ecua   0.17130
gfz2010ecvt  -1.24000
gfz2010edim  -0.13280
gfz2010edyi   0.44300
gfz2010eeij   0.04670
gfz2010eerh   0.31060
gfz2010eevu   0.27220
gfz2010egap   0.94170
gfz2010ehft   1.29090
gfz2010eisx  -0.86010
gfz2010elhv   0.43080
gfz2010eltf  -0.10450
gfz2010elyc   1.29750
gfz2010epxj   6.59770
gfz2010epzk   0.23240
gfz2010erna   0.96890
gfz2010euae   0.89470
gfz2010euii  -1.67250
gfz2010eujm   0.18620
gfz2010excp  -0.17590
gfz2010exdd  -0.70210
gfz2010exdl   0.61850
gfz2010ezck  -0.35850
gfz2010fcax   0.94300
gfz2010fedq   1.79230
gfz2010ffhq   1.15180
gfz2010fihj   0.53430
gfz2010flha   0.59270
gfz2010fync  -0.23060
gfz2010glxl  -0.28260
gfz2010gyqp   0.02870
gfz2010gzxr   0.53480
gfz2010hxgv   1.22910
gfz2010iobp  -0.46060
gfz2010iull  -0.05990
gfz2010jxbm  -0.78710
gfz2010lruw  -0.29330
gfz2010moyw   0.09770
gfz2010nmpc   1.41490
gfz2010nqwo  -0.68580
gfz2010pewa   0.15200
gfz2010rqwj  -2.07450
gfz2010upfb  -0.42230
gfz2011aatr  -0.10990
gfz2011adjs  -0.91810
gfz2011cvfg  -0.51840
gfz2011cykd  -0.23910
gfz2011cyre   3.29980
gfz2011cyuk   1.15730
gfz2011dbev  -0.21100
gfz2011dbig  -0.72290
gfz2011dbon   0.76570
gfz2011dcqb  -1.23530
gfz2011dpqx   0.67150
gfz2011ecaj  -0.61010
gfz2011hfkj   0.39050
gfz2011kqwo  -0.52280
gfz2011nudm   0.75230
gfz2011rewa  -0.33370
gfz2011vhfi   1.63440
gfz2011wcic   0.25200
gfz2011xyxj   0.89900
gfz2012ajtq   0.08840
gfz2012bfah   1.20750
gfz2012bpkx   0.14310
gfz2012bpwl   1.72060
gfz2012cxdn   0.18820
gfz2012fbfo  -0.99790
gfz2012hnul   0.31460
gfz2012nkdf  -0.24910
gfz2012uhup   0.70760
gfz2012wklq   0.39390
gfz2013ccnr   0.32680
gfz2013dofo   0.75610
gfz2013drxz  -0.21860
gfz2013gcfx  -0.43660
gfz2013ilug  -0.20830
gfz2013jusj  -1.59160
gfz2013svci   1.18970
gfz2013vfzp   3.04000
gfz2013vjjc   3.03390
gfz2013wjmm  -0.45650
gfz2013xsdt   1.66810
gfz2014enhi  -0.46300
gfz2014gbcz   0.71810
gfz2014gkgf   3.07920
gfz2014gmge   5.08740
gfz2014gmhr   1.60720
gfz2014goba   1.71640
gfz2014gpya   0.72200
gfz2014hzfw   1.01270
gfz2014osvz   0.38220
gfz2014qngj  -1.30530
gfz2015chhn   0.30130
gfz2015cyjd   1.83240
gfz2015elgy   0.19140
gfz2015etai  -0.19760
gfz2015fkgt  -0.65700
gfz2015gckd   1.96190
gfz2015lytv  -0.01980
gfz2015qnho   0.13360
gfz2015sfdd  -0.59220
gfz2015sfdl   0.39220
gfz2015sfdy   0.06780
gfz2015sfno  -0.34740
gfz2015sfnv   0.25990
gfz2015smym  -0.35720
gfz2015snwh   0.20010
gfz2015soxc   0.21430
gfz2015svwm  -0.02770
gfz2015szcb   0.18860
gfz2015taml   1.45340
