# Nsamples: 182  MAD:  0.818  mean:  0.155  variance:  1.556
gfz2010bfzs  -0.74800
gfz2010bxxs   0.10870
gfz2010cqwl  -0.24560
gfz2010czps   0.29190
gfz2010eaoy  -3.04300
gfz2010eapk   0.63480
gfz2010eapn  -1.31370
gfz2010eaqe  -0.11650
gfz2010eaqx  -0.36020
gfz2010eaqy  -1.42890
gfz2010earu  -1.20000
gfz2010eask   0.93570
gfz2010easo  -1.25870
gfz2010easu  -0.15010
gfz2010eato  -0.32370
gfz2010eatt   0.60580
gfz2010eaty  -0.98010
gfz2010eavs  -0.58540
gfz2010eawb  -1.84890
gfz2010eaxa  -1.00330
gfz2010eazu  -0.35510
gfz2010ebjy   0.07650
gfz2010ebla   0.40560
gfz2010ebmb  -0.67410
gfz2010ebnn  -0.62780
gfz2010ebvv   0.22530
gfz2010ebwp   0.05970
gfz2010ebzr   0.27030
gfz2010ecam   0.02220
gfz2010ecay   2.66800
gfz2010ecbi  -0.04170
gfz2010ecdu  -0.52030
gfz2010ecua   0.28080
gfz2010edyi   0.04160
gfz2010eeij   0.39980
gfz2010eerh  -1.57510
gfz2010eevu  -0.33380
gfz2010egap  -0.16760
gfz2010egld   0.42900
gfz2010eixj   0.51080
gfz2010ejjg  -0.13880
gfz2010elhv  -0.15040
gfz2010eltf  -1.93350
gfz2010elyc  -1.99370
gfz2010emyz  -0.26960
gfz2010epxj   6.57610
gfz2010eqjg   0.26910
gfz2010erdi  -0.92880
gfz2010erna  -0.21350
gfz2010eryg  -0.17640
gfz2010euae  -0.14960
gfz2010evco   2.01290
gfz2010excp  -0.39370
gfz2010exdd  -0.75460
gfz2010exdl   0.51760
gfz2010exed  -0.06000
gfz2010exhd  -0.18510
gfz2010exno   0.63440
gfz2010ezck  -0.48150
gfz2010ezig   0.56230
gfz2010fcax   0.62770
gfz2010fedq  -0.00400
gfz2010ffhq   0.21070
gfz2010flha   0.49220
gfz2010flxi   0.56530
gfz2010fync   0.11520
gfz2010gcrl  -0.06530
gfz2010glxl  -0.72740
gfz2010gyqp  -0.15900
gfz2010gzxr   0.88170
gfz2010iobp  -1.25320
gfz2010iull  -0.25620
gfz2010jxbm   0.20120
gfz2010lkcf   0.98400
gfz2010moyw   0.00000
gfz2010nmpc   0.70560
gfz2010nqwo  -0.66690
gfz2010nrjo   0.98830
gfz2010nxsy  -0.71880
gfz2010pewa  -0.83700
gfz2010qwwx   0.45710
gfz2010rqwj   1.32170
gfz2010upfb  -0.48090
gfz2010yjev   0.95240
gfz2011aatr  -0.55490
gfz2011adjs  -0.22830
gfz2011cvfg   0.32160
gfz2011cykd  -0.26280
gfz2011cyre   1.39440
gfz2011cyuk   1.35440
gfz2011dcqb  -0.42550
gfz2011enva   4.33210
gfz2011etje   0.63630
gfz2011hfkj   0.55090
gfz2011hlth  -3.20190
gfz2011hpqp   1.57200
gfz2011kqwo  -0.87480
gfz2011kxzp   0.46710
gfz2011lzwj   2.22150
gfz2011mpme   0.84050
gfz2011nudm  -2.38730
gfz2011ohcy   1.14230
gfz2011owvz   0.58330
gfz2011qvae   0.13800
gfz2011rewa   0.58590
gfz2011vhfi   2.22240
gfz2011vxns  -0.39280
gfz2011xyxj   0.49760
gfz2012bfah   0.22540
gfz2012bpkx  -0.07960
gfz2012cxdn   0.06580
gfz2012hnul   0.50570
gfz2012ilvn   0.98900
gfz2012keor   0.56550
gfz2012kkup   1.37480
gfz2012lczo   1.25250
gfz2012uafg  -0.58950
gfz2012wklq  -0.52690
gfz2012wxlg   0.60260
gfz2012zfag  -0.11580
gfz2012zjpv   3.01170
gfz2013ccnr   0.81000
gfz2013dkly   0.80540
gfz2013dofo   0.60980
gfz2013drxz   0.13260
gfz2013gcfx  -0.30800
gfz2013ilug  -0.28650
gfz2013jusj  -0.67830
gfz2013lyko   0.57800
gfz2013svci  -0.22510
gfz2013vfzp   0.50810
gfz2013vjjc  -1.03430
gfz2013wjmm  -0.20410
gfz2013yctg   0.40600
gfz2014enhi  -0.50300
gfz2014femz  -0.94740
gfz2014gbcz   0.37120
gfz2014gkgf   2.53050
gfz2014gmge   3.19520
gfz2014gmhr   2.56260
gfz2014goba   3.36190
gfz2014gpya   0.85020
gfz2014gull  -0.40180
gfz2014hasj   2.79970
gfz2014hzfw   0.73690
gfz2014qngj  -1.67810
gfz2014ssvz   2.56690
gfz2015chhn   0.23760
gfz2015cyjd   1.59740
gfz2015dizn  -0.43890
gfz2015elgy  -0.18200
gfz2015fkgt  -1.25740
gfz2015gjbr  -0.58380
gfz2015kquq  -4.22080
gfz2015lytv   0.86600
gfz2015nuxz   0.43410
gfz2015nwug   1.69050
gfz2015oyfl   0.40940
gfz2015qnho  -0.08710
gfz2015sfdd  -2.26680
gfz2015sfdl  -0.99930
gfz2015sfdy  -1.59730
gfz2015sfeo   1.73010
gfz2015sfhz  -0.10620
gfz2015sfiq   0.70860
gfz2015sfmd   0.57510
gfz2015sfnb   1.92990
gfz2015sfno   0.96050
gfz2015sfnv  -0.20090
gfz2015sfoc  -0.19120
gfz2015sgdn  -0.37820
gfz2015sghq  -0.45490
gfz2015sjgk  -0.48890
gfz2015sjjb  -0.02480
gfz2015sjvu  -0.85030
gfz2015smym  -0.77790
gfz2015snwh   0.61320
gfz2015soxc  -0.12310
gfz2015stfy   0.31470
gfz2015svwm  -0.76920
gfz2015szcb   0.57500
gfz2015taml   2.12800
