# Nsamples: 29  MAD:  0.454  mean: -0.146  variance:  0.637
gfz2010bowy  -0.94340
gfz2010bxxs   0.30960
gfz2010grjd  -1.96960
gfz2010iull  -0.32650
gfz2010nmpc  -0.61720
gfz2011aatr   0.11420
gfz2011enva   0.02150
gfz2011gkzt   1.27920
gfz2011lcxq  -0.12200
gfz2011lzwj  -0.14420
gfz2011rewa  -0.42810
gfz2011toub   0.05860
gfz2011wxfs  -0.40520
gfz2012enno   0.40960
gfz2012jlox  -0.22820
gfz2012kkup   0.28350
gfz2012ldxg   0.13920
gfz2012wypz  -0.08870
gfz2013drxz   0.43000
gfz2013nwdi  -0.53850
gfz2013svci  -0.11430
gfz2014bwue  -2.50260
gfz2014fgvi  -0.89180
gfz2014fhla   0.39470
gfz2014ftka   0.42440
gfz2014gkgf  -0.21640
gfz2014jomw  -0.14410
gfz2015cyjd   1.83590
gfz2015lhjy  -0.25090
