# Nsamples: 47  MAD:  0.472  mean: -0.235  variance:  0.389
gfz2010bxxs  -0.22220
gfz2010ebhc   0.17320
gfz2010grjd  -0.44920
gfz2010iull  -0.50380
gfz2010lluj  -1.11770
gfz2010nmpc  -1.01490
gfz2010usho  -0.12650
gfz2011enva  -0.12240
gfz2011gkzt   0.08680
gfz2011lcxq  -0.38700
gfz2011lzwj  -0.25470
gfz2011rewa   0.71830
gfz2011toub  -0.09980
gfz2011wxfs  -0.42940
gfz2012enno  -0.54970
gfz2012jlox  -0.48610
gfz2012kkup   0.22440
gfz2012kudo  -0.17940
gfz2012ldxg  -0.95900
gfz2012ldzj  -0.44780
gfz2012mvwr   0.66950
gfz2012teic   0.19970
gfz2012ttoa   1.93910
gfz2012wypz   0.13250
gfz2013drxz   0.86780
gfz2013jkut  -0.31040
gfz2013svci  -0.18060
gfz2013uauo  -0.66070
gfz2014afmx  -0.38220
gfz2014ande  -0.95510
gfz2014bwue  -0.34210
gfz2014fgvi  -0.81480
gfz2014fhla  -0.73080
gfz2014fkmr   0.62680
gfz2014gkgf  -1.05230
gfz2014gkqf   0.01130
gfz2014gmnb  -0.17560
gfz2014hasj  -1.28920
gfz2014jpep   1.33690
gfz2014nqfm  -0.41840
gfz2014oinz  -0.71610
gfz2014qqhm   0.09330
gfz2014ssvz  -0.45990
gfz2015cyjd  -0.30460
gfz2015gckd  -0.89290
gfz2015hgbk  -0.63910
gfz2015lhjy  -0.44830
