# Nsamples: 26  MAD:  0.418  mean: -0.213  variance:  0.190
gfz2010grjd  -1.36760
gfz2010iull  -0.49910
gfz2011aatr  -0.33550
gfz2011enva  -0.66620
gfz2011lcxq  -0.01400
gfz2011rewa   0.46040
gfz2011toub  -0.51360
gfz2011wxfs  -0.61560
gfz2012enno  -0.05220
gfz2012kudo   0.18670
gfz2012ldxg   0.00100
gfz2012ldzj  -0.38700
gfz2012vrgb  -0.41220
gfz2012wypz  -0.21380
gfz2014bwue  -0.40410
gfz2014fgvi  -0.89820
gfz2014ftka   0.68530
gfz2014jjhc  -0.12940
gfz2014nqfm  -0.54410
gfz2014qqhm   0.14540
gfz2014ssvz  -0.41800
gfz2014ubwn   0.28130
gfz2015cyjd   0.38510
gfz2015lhjy  -0.09410
gfz2015mpte  -0.09240
gfz2015taml  -0.02270
