# Nsamples: 10  MAD:  1.153  mean:  0.648  variance:  0.765
gfz2010iull   0.65630
gfz2011aatr  -0.99860
gfz2011enva   1.81760
gfz2011lcxq   1.35540
gfz2011toub   0.58700
gfz2012ldxg   1.74350
gfz2012wypz   0.98130
gfz2013nkgj  -0.19980
gfz2014bwue  -0.34280
gfz2014goba   0.88200
