# Nsamples: 69  MAD:  0.829  mean: -0.475  variance:  0.835
gfz2010bpda  -1.49890
gfz2010eaoy  -0.81290
gfz2010eaqe  -2.91200
gfz2010earu  -1.40120
gfz2010ecfx  -0.52440
gfz2010ecua  -1.81630
gfz2010elyc   0.08610
gfz2010excp   0.67120
gfz2010exdd  -1.09800
gfz2010exdl  -0.73800
gfz2010exno  -0.12570
gfz2010grjd  -1.27680
gfz2010iull  -0.15420
gfz2010ncrl  -0.84500
gfz2010nwef  -0.72130
gfz2010rqwj   0.31890
gfz2011aatr   0.17310
gfz2011enva   0.92460
gfz2011hlsa   0.40560
gfz2011lzwj   0.07770
gfz2011mdie   0.25510
gfz2011owvz   0.58510
gfz2011rewa  -0.81500
gfz2011toub  -0.98850
gfz2012fzfa  -3.10500
gfz2012hnul  -1.13990
gfz2012kkup  -0.10040
gfz2012klhx   0.12700
gfz2012kudo  -0.38850
gfz2012ldxg   0.25490
gfz2012uafg   0.74810
gfz2012uaqj  -1.03800
gfz2012wypz  -0.07190
gfz2013drxz  -0.88030
gfz2013jdrx   0.11890
gfz2013kdeo  -0.57170
gfz2013lyko  -0.52790
gfz2013nkgj   0.06360
gfz2013nwdi  -0.80040
gfz2013pxsj  -0.82850
gfz2013vjjc   1.86890
gfz2013ziyr  -2.69490
gfz2014bwue  -0.11620
gfz2014fgvi  -0.91390
gfz2014fhla   1.34830
gfz2014frfl  -1.75830
gfz2014ftka  -0.80420
gfz2014gkgf   0.28390
gfz2014gmhr  -0.87550
gfz2014jjhc  -0.31260
gfz2014nqfm  -0.43010
gfz2014pvch  -0.66120
gfz2014ssvz  -0.36970
gfz2015chhn  -0.54980
gfz2015cyjd  -0.22190
gfz2015fkgt  -2.47420
gfz2015fsjj   0.17200
gfz2015lytv  -0.47530
gfz2015sfdd   0.05950
gfz2015sfdl   0.39470
gfz2015sfdy  -1.13550
gfz2015sfnb  -1.56600
gfz2015sfno   0.69050
gfz2015smym  -0.44050
gfz2015snwh   0.17050
gfz2015soxc   0.16770
gfz2015subx  -0.81300
gfz2015svwm   0.24530
gfz2015sxmh  -1.19850
