# Nsamples: 72  MAD:  0.704  mean: -0.054  variance:  1.073
gfz2013mqmv  -0.51930
gfz2013ncjp   3.31260
gfz2013nkgj   0.55610
gfz2013nwdi  -0.62160
gfz2013ozku  -0.66050
gfz2013pfbx   0.04800
gfz2013svci   0.01090
gfz2013vjjc   2.15870
gfz2013xsdt  -0.43740
gfz2013ypdc  -0.58730
gfz2014afmx   0.82070
gfz2014ande  -0.98510
gfz2014bwue  -0.01990
gfz2014fgvi   0.20850
gfz2014fhla   0.26600
gfz2014fhwx  -2.13360
gfz2014fkmr  -3.04460
gfz2014ftka   0.95080
gfz2014fval   0.71740
gfz2014gkgf   0.27720
gfz2014gkhp   0.79260
gfz2014gkhy   1.08360
gfz2014gkjt   0.21540
gfz2014gkqf   0.45120
gfz2014gkqu   0.65020
gfz2014glcu   0.27810
gfz2014gmge  -2.83840
gfz2014gmhr   1.58560
gfz2014gmnb   0.39170
gfz2014goba  -0.35580
gfz2014gull   1.53040
gfz2014gwab   1.39830
gfz2014gxxo  -0.22060
gfz2014hasj   0.51220
gfz2014hocg   0.03880
gfz2014huaj  -0.33560
gfz2014itkw  -1.34930
gfz2014jjhc  -0.54160
gfz2014jpep  -0.04360
gfz2014lgqn  -0.08140
gfz2014lxnc   0.38320
gfz2014lyhk   0.05890
gfz2014macx   0.42190
gfz2014nqfm   0.37550
gfz2014nrie   0.53460
gfz2014oinz  -0.97780
gfz2014owxc  -0.64530
gfz2014qlxd  -0.81290
gfz2014qqhm  -1.93920
gfz2014ssvz   0.18540
gfz2014ubwn   0.10180
gfz2014vhms  -0.06890
gfz2014vjoz  -0.16620
gfz2015chhn   0.50340
gfz2015cyjd  -0.66850
gfz2015egxq  -1.28620
gfz2015fjhk  -0.77790
gfz2015fsjj  -0.45700
gfz2015jzcv   0.13610
gfz2015kkth  -0.42280
gfz2015kxxs   0.70600
gfz2015lhjy   0.28870
gfz2015mpte  -0.00820
gfz2015qvxu  -1.50690
gfz2015sfdd  -0.16170
gfz2015sfdy   0.00420
gfz2015sfno   0.31780
gfz2015smym  -0.04820
gfz2015snwh   0.86160
gfz2015soat  -2.93560
gfz2015svwm   0.21200
gfz2015taml   0.44060
