# Nsamples: 19  MAD:  0.420  mean:  0.172  variance:  0.335
gfz2010grjd  -1.12360
gfz2010iull  -0.03950
gfz2011aatr   0.16380
gfz2011enva   1.32200
gfz2011hlsa   0.69340
gfz2011lcxq  -0.03670
gfz2011lzwj  -0.02710
gfz2011rewa   1.12580
gfz2011wxfs  -0.20670
gfz2012enno   0.64050
gfz2012jlox  -0.50080
gfz2012kkup   0.40800
gfz2012kudo   0.17530
gfz2012ldxg   0.98580
gfz2012vrgb   0.25190
gfz2012wypz  -0.06840
gfz2013drxz  -0.40680
gfz2013jkut   0.07660
gfz2014gkgf  -0.16310
