# Nsamples: 93  MAD:  0.546  mean:  0.011  variance:  0.610
gfz2010lluj   1.16620
gfz2010nmpc  -0.39510
gfz2010nwef  -0.95370
gfz2010onma   0.27460
gfz2010rqwj   1.33710
gfz2010sfee   0.52650
gfz2010skqo   0.98730
gfz2010usho   0.69430
gfz2011aatr  -0.16080
gfz2011adjs   0.93080
gfz2011alip  -0.04160
gfz2011bgrp  -0.73820
gfz2011cfae   0.92000
gfz2011cykd   1.23130
gfz2011dpqx  -1.65620
gfz2011enva  -0.36730
gfz2011gkzt  -0.36960
gfz2011hlsa  -0.06530
gfz2011jplh   0.19020
gfz2011lcxq   0.02990
gfz2011lzwj   0.22100
gfz2011mdie  -0.12430
gfz2011nqpd  -0.46470
gfz2011toub   0.08880
gfz2011tpfr   4.06240
gfz2011wxfs  -0.07340
gfz2011xyxj  -0.95930
gfz2012enno  -0.50740
gfz2012jlox  -0.06760
gfz2012kkup  -0.54020
gfz2012klhx  -0.33430
gfz2012kuct   0.58360
gfz2012kudo   0.17000
gfz2012ldxg  -0.46180
gfz2012ldzj  -0.27250
gfz2012minr   1.22400
gfz2012oazn  -0.41530
gfz2012teic  -0.60410
gfz2012ttoa  -0.22850
gfz2012uaqj  -0.42780
gfz2012vrgb   0.27250
gfz2012wypz   0.20380
gfz2013ccnr  -0.04720
gfz2013drxz   0.02330
gfz2013vjjc   1.07270
gfz2014afmx  -1.23290
gfz2014ande  -0.54200
gfz2014bwue   0.09900
gfz2014bzxy  -0.85190
gfz2014fgvi   0.66870
gfz2014fhla  -1.57700
gfz2014ftka  -0.28620
gfz2014gkgf  -1.35260
gfz2014gkhp  -1.84290
gfz2014gkqf   0.19700
gfz2014glcu   0.40420
gfz2014gltx   0.14590
gfz2014gmge  -0.30810
gfz2014gmhr  -0.30230
gfz2014gmnb   0.79760
gfz2014gmnw   0.07380
gfz2014goba   0.52870
gfz2014gwab   1.35980
gfz2014gxxh   1.19680
gfz2014hgqo  -0.24410
gfz2014hjgr  -0.03660
gfz2014hqxs   0.81810
gfz2014jjhc   0.50840
gfz2014lgqn   0.22450
gfz2014lxnc   0.32140
gfz2014lyhk  -0.23230
gfz2014nqfm   0.53190
gfz2014nrie   0.31130
gfz2014oinz  -0.24220
gfz2014pvch   0.28560
gfz2014qlxd  -0.14170
gfz2014qqhm  -0.18930
gfz2014ssvz  -0.54460
gfz2014ubwn  -0.98810
gfz2015berb   0.32440
gfz2015cyjd  -0.34730
gfz2015fsjj  -0.07570
gfz2015gckd   0.57900
gfz2015hgbk  -0.39690
gfz2015hpmk  -0.90530
gfz2015lhjy  -0.04250
gfz2015sfdd  -0.45600
gfz2015sfdy  -0.49460
gfz2015sjgk   0.22700
gfz2015snwh   0.28970
gfz2015soxc  -0.73260
gfz2015svwm  -0.40610
gfz2015taml  -0.01980
