# Nsamples: 863  MAD:  0.488  mean:  0.051  variance:  0.680
gfz2010czps  -0.42020
gfz2010ddzo   0.57780
gfz2010dejx   0.37280
gfz2010dfru  -0.14710
gfz2010eaoy  -0.80510
gfz2010eapk  -1.37100
gfz2010eapn   0.94690
gfz2010eaqe   3.43530
gfz2010eaqy   0.26710
gfz2010earu   0.18110
gfz2010easo  -0.78840
gfz2010easu   1.84340
gfz2010eati  -0.21320
gfz2010eato  -0.23760
gfz2010eatt   1.32500
gfz2010eaul  -0.54510
gfz2010eavd  -0.32250
gfz2010eavs   0.97350
gfz2010eawb   1.05490
gfz2010eawu  -1.05620
gfz2010eaxa   0.62710
gfz2010eazu  -3.15400
gfz2010ebbd   0.21340
gfz2010ebby  -1.88090
gfz2010ebek  -0.93230
gfz2010ebfa   0.75030
gfz2010ebhc   0.28570
gfz2010ebin   3.06240
gfz2010ebkj  -0.24330
gfz2010ebla   0.72020
gfz2010ebll  -0.33290
gfz2010ebnn  -0.65120
gfz2010ebpa  -0.76890
gfz2010ebsv  -1.19810
gfz2010ebvm  -0.44410
gfz2010ebvv   0.54620
gfz2010ebxl   0.77850
gfz2010ebzr  -0.48140
gfz2010echc  -0.31990
gfz2010echt  -0.04220
gfz2010echy  -0.24520
gfz2010ecps  -0.57500
gfz2010ecsp   0.67430
gfz2010ecua  -0.44860
gfz2010ecuv  -0.38830
gfz2010ecvt   0.39130
gfz2010edat  -0.53600
gfz2010eday  -0.79600
gfz2010edbz  -0.78520
gfz2010edcp   3.15110
gfz2010edhr   1.35090
gfz2010edhv  -0.12440
gfz2010edim  -0.33830
gfz2010edji  -0.84430
gfz2010edkp   0.42800
gfz2010edvf  -0.28780
gfz2010edyi  -0.85740
gfz2010eedu  -0.13570
gfz2010eefh   0.89610
gfz2010eegn  -0.21530
gfz2010eeij  -0.81320
gfz2010eekq   0.17720
gfz2010eerh   0.27210
gfz2010eern   0.11320
gfz2010eevu   0.43380
gfz2010efsq  -0.82310
gfz2010egap   0.15750
gfz2010eghq   0.30250
gfz2010egld   0.31110
gfz2010egln  -0.00000
gfz2010egmp   0.49060
gfz2010egyy  -0.74670
gfz2010eisx  -1.11610
gfz2010eixj  -1.16490
gfz2010ejjg  -1.67020
gfz2010ejxf  -0.43680
gfz2010ekaw  -0.95880
gfz2010ekoe  -0.52710
gfz2010ekrv   0.00000
gfz2010ekyc   0.16640
gfz2010elhv  -0.58410
gfz2010eltf   0.74580
gfz2010elyc   0.05080
gfz2010elyo   0.27240
gfz2010enzl  -0.10780
gfz2010eohh  -0.81920
gfz2010epxj   1.20660
gfz2010eqjg  -0.33550
gfz2010eqmu   2.13050
gfz2010erkn   0.33620
gfz2010erom  -0.56730
gfz2010eruy  -0.62260
gfz2010erwn  -0.55010
gfz2010eryg   0.04850
gfz2010esid   1.88640
gfz2010esmg   0.59690
gfz2010eujm  -0.38280
gfz2010euxe  -0.27080
gfz2010evco  -0.05570
gfz2010excp  -0.43910
gfz2010exdd  -0.42140
gfz2010exdl  -0.06360
gfz2010exmc  -0.20390
gfz2010exno  -0.06970
gfz2010ezck  -0.64250
gfz2010faeu   2.36450
gfz2010falm  -0.72030
gfz2010fauz   1.91460
gfz2010fczt  -0.61600
gfz2010fedq  -1.48370
gfz2010fefr   0.85310
gfz2010fexw  -0.33080
gfz2010ffhq  -1.06190
gfz2010ffui  -1.50150
gfz2010fika   0.79250
gfz2010flha  -0.04980
gfz2010flrt   1.18120
gfz2010flxi  -0.53370
gfz2010fmwb  -0.87510
gfz2010fpqy   0.57290
gfz2010fqdu  -0.16510
gfz2010fser   0.13570
gfz2010ftlm   0.22620
gfz2010fupn  -0.11910
gfz2010fwlb   0.75220
gfz2010fwpv  -0.58570
gfz2010fync   0.76930
gfz2010gcdn  -1.37110
gfz2010gcrl  -0.43030
gfz2010gdld  -0.24640
gfz2010gjia  -1.32800
gfz2010glqr  -0.81570
gfz2010grjd   0.45660
gfz2010gslu  -0.58550
gfz2010gwmp   0.50750
gfz2010gyqp  -0.03920
gfz2010gzxr   0.08250
gfz2010hcio   0.82180
gfz2010hjoc  -0.38750
gfz2010hlmq   0.43310
gfz2010hlvr   0.15170
gfz2010homc   1.10960
gfz2010hrkr  -0.23070
gfz2010hxbs  -1.33060
gfz2010hxgv  -0.38800
gfz2010ibiy   0.13650
gfz2010iimu  -0.42590
gfz2010imsh  -0.28140
gfz2010iobp   0.02090
gfz2010irvf  -0.00000
gfz2010itpb   0.27880
gfz2010iull   0.02490
gfz2010jwpy   0.11820
gfz2010jxbm  -0.53470
gfz2010jygz   0.42910
gfz2010lepw   1.15820
gfz2010lgwy  -0.30180
gfz2010liqs  -0.59340
gfz2010lkcf  -0.58460
gfz2010mdpq   0.01810
gfz2010mkuu   0.19690
gfz2010mncc   0.42620
gfz2010moyw   0.24260
gfz2010msjj   1.02250
gfz2010mwdq   2.11580
gfz2010mzjr  -0.45010
gfz2010nfsj   0.16680
gfz2010nlkh  -0.30930
gfz2010nmpc  -1.10400
gfz2010nqwf  -0.19520
gfz2010nqwo  -0.37550
gfz2010nubk   0.21310
gfz2010nwef  -0.09060
gfz2010odpb   0.36390
gfz2010oedn  -0.17650
gfz2010onma   0.07810
gfz2010oyqy  -0.22980
gfz2010pbdz  -0.01920
gfz2010pcxi   0.20080
gfz2010pfyu   0.22660
gfz2010pmqd  -1.47960
gfz2010qpvi   0.23600
gfz2010rqwj   0.74270
gfz2010sfee   0.06290
gfz2010skqo   0.00000
gfz2010skve   5.80110
gfz2010svtn   0.03430
gfz2010swcy  -0.00000
gfz2010tcrl   1.35010
gfz2010txjs  -0.63630
gfz2010upfb   0.69100
gfz2010usho   0.18980
gfz2010ustq   1.55430
gfz2010utcg   0.07260
gfz2010utmc   0.45440
gfz2010uyhb   3.39120
gfz2010veri  -0.90740
gfz2010vhuj  -1.07150
gfz2010vtdg  -0.13980
gfz2010vyxd   0.20070
gfz2010vzpr   0.35990
gfz2010wioh  -0.44500
gfz2010wnty  -0.48150
gfz2010wofs  -0.40440
gfz2010xgzw  -0.17350
gfz2010xjck  -0.49090
gfz2010xjsj  -0.20280
gfz2010xnxk  -0.10950
gfz2010yjev   2.60170
gfz2010ymfy   0.33830
gfz2010ymur  -0.27250
gfz2010yosr  -0.08060
gfz2011aatr   0.58660
gfz2011adjs  -0.97040
gfz2011alip   0.18900
gfz2011alsa  -0.51780
gfz2011anur   0.10010
gfz2011aqxf   0.12090
gfz2011blsi   1.97910
gfz2011bpkd  -0.42200
gfz2011bswz   0.88790
gfz2011ccpw   0.11710
gfz2011cfae   0.34300
gfz2011cndo  -0.31750
gfz2011csju  -0.95980
gfz2011cvfg   0.28930
gfz2011cykd  -0.98340
gfz2011cylz   0.10890
gfz2011cynl  -0.33980
gfz2011cyre   0.89460
gfz2011cyuk   0.78750
gfz2011dbev  -0.48300
gfz2011dbig  -0.76860
gfz2011dbon  -0.16690
gfz2011dcqb  -0.38080
gfz2011dcqf   0.50140
gfz2011deaf  -0.15790
gfz2011dmat  -0.11000
gfz2011dpqx   0.05770
gfz2011eayc   0.05070
gfz2011eazf   0.58020
gfz2011ecaj   0.24610
gfz2011edmm   0.49020
gfz2011eebc  -0.32210
gfz2011ehzq  -0.79460
gfz2011eltw  -0.63660
gfz2011enva  -0.24070
gfz2011etje   0.63270
gfz2011fdzv  -0.28060
gfz2011fgvr   1.06600
gfz2011fhbm   0.36530
gfz2011fhur   1.74280
gfz2011flgj  -0.33360
gfz2011fnsw  -0.52700
gfz2011gbmx  -0.19750
gfz2011gkzt  -0.13350
gfz2011haid   7.31240
gfz2011hbex  -0.22620
gfz2011hebt  -0.09450
gfz2011hfkj  -1.46210
gfz2011hlqw   0.27610
gfz2011hlsa   0.14000
gfz2011hlth   0.33580
gfz2011hpqp  -0.96270
gfz2011iwte  -1.85870
gfz2011ixai   0.25010
gfz2011izqa  -0.52030
gfz2011jdsj   0.40170
gfz2011jmbn   0.12370
gfz2011jnmi   0.93470
gfz2011jplh   0.86710
gfz2011knoo   0.46060
gfz2011kqwo   0.07790
gfz2011kwjx   0.47520
gfz2011kxzp  -0.42690
gfz2011lcxq   0.60800
gfz2011lgsg  -0.41100
gfz2011lhls   0.38300
gfz2011lvjr  -0.24840
gfz2011lzwj   0.28700
gfz2011mdie   0.29590
gfz2011mpme   0.00000
gfz2011nrwc   0.49200
gfz2011ntkh   0.69350
gfz2011nudm  -0.93480
gfz2011ogqk  -1.59990
gfz2011ohcy   0.47710
gfz2011oiqe   0.38440
gfz2011oiwk  -0.11920
gfz2011olkk   0.43280
gfz2011orgn  -1.36420
gfz2011ornx  -0.73720
gfz2011owvz   1.03890
gfz2011ozsl  -0.98840
gfz2011phms   5.63670
gfz2011qyms   1.09440
gfz2011rewa   0.03440
gfz2011xyxj   0.29980
gfz2011yybo  -0.76060
gfz2011yzwq   0.28190
gfz2011zklv   0.00000
gfz2011zqhh  -0.00900
gfz2012aqtq  -0.00000
gfz2012attr   0.19440
gfz2012bfah   0.25330
gfz2012bpkx   0.22790
gfz2012bpnl  -0.67010
gfz2012bpwl  -0.78340
gfz2012bszs  -0.13090
gfz2012byad  -0.46080
gfz2012cgvr  -0.11380
gfz2012covm   0.98480
gfz2012cxdn  -0.85580
gfz2012czlw   0.26050
gfz2012dyyh   0.15090
gfz2012ekda   0.35100
gfz2012ekzf  -0.91840
gfz2012emjg   0.18060
gfz2012enno   0.33690
gfz2012ewgo   0.11710
gfz2012foeo   0.52440
gfz2012fzfa   0.21780
gfz2012gkvr   0.44680
gfz2012gwmu  -2.45740
gfz2012hnul  -1.26330
gfz2012hogg   0.20570
gfz2012iivw   0.76230
gfz2012ilvn  -0.64630
gfz2012jlox   0.17950
gfz2012jupx   0.09560
gfz2012kbjb  -2.06940
gfz2012kkup   0.06800
gfz2012klhx   0.66200
gfz2012kuct   0.67950
gfz2012kudo   0.95100
gfz2012kwgo  -0.14580
gfz2012lczo  -0.37100
gfz2012ldxg  -0.15880
gfz2012ldzj  -0.18590
gfz2012lxkv  -0.32100
gfz2012minr  -0.08890
gfz2012mupa  -0.21110
gfz2012mvwr  -0.04980
gfz2012mwij   0.50740
gfz2012myqa   1.13160
gfz2012nsbz  -0.32060
gfz2012nutf  -0.47380
gfz2012nxog  -0.37240
gfz2012oazn   0.20740
gfz2012oedb   0.08960
gfz2012omvo  -0.59040
gfz2012oqmw  -0.34970
gfz2012pgcl  -0.20930
gfz2012pkel   1.01490
gfz2012pqmu   0.01730
gfz2012qjhs  -0.01560
gfz2012rjsd   0.97280
gfz2012royy  -0.39590
gfz2012rwov   0.16780
gfz2012rypu  -0.41100
gfz2012sphd   0.04460
gfz2012syvl   0.00000
gfz2012taou   0.82320
gfz2012tazz   0.43480
gfz2012teic  -0.19240
gfz2012tmop  -0.19900
gfz2012ttoa  -0.00500
gfz2012uafg  -0.41130
gfz2012uaqj   0.65870
gfz2012uciv  -0.22320
gfz2012ulpd  -0.18340
gfz2012uvqf   0.65280
gfz2012uyxb  -0.13340
gfz2012uzom  -0.16790
gfz2012vdbt   0.37240
gfz2012vrgb   0.05810
gfz2012vsev  -0.16000
gfz2012whku  -0.15180
gfz2012wklq   0.01430
gfz2012wmsg  -0.14650
gfz2012wpeq  -0.17050
gfz2012wubh   0.01860
gfz2012wvfl  -0.29620
gfz2012wxlg  -0.38300
gfz2012wybs  -0.07130
gfz2012wypz   1.18350
gfz2012xbjq  -0.20340
gfz2012xcgk  -0.65420
gfz2012xslk   0.89370
gfz2012xvwn  -0.44480
gfz2012zemz   0.06540
gfz2012zfag   0.45510
gfz2012ziml   0.01560
gfz2012zitl   0.39900
gfz2012zjpv  -1.07510
gfz2013aahq  -0.35090
gfz2013aayj   0.06420
gfz2013aqaw   2.58810
gfz2013btjm  -0.75940
gfz2013ccnr   0.40930
gfz2013cdan   0.20920
gfz2013cvqg  -0.41600
gfz2013cwpn  -0.91500
gfz2013dofo  -0.02980
gfz2013drxz   0.12550
gfz2013dvyh   0.18500
gfz2013fiud   0.19410
gfz2013flox   0.07610
gfz2013fwxa   0.27100
gfz2013fygc   0.08440
gfz2013gdnq   0.88600
gfz2013gock   0.05960
gfz2013gvex  -1.97280
gfz2013hxcx   0.00040
gfz2013iayx  -0.40640
gfz2013ikgo   0.07510
gfz2013ilug  -0.13740
gfz2013ippu   0.59870
gfz2013iunn  -0.37330
gfz2013jesk   0.68290
gfz2013jgij  -0.03610
gfz2013jgip  -0.15660
gfz2013jkut   0.03580
gfz2013jokw  -0.13470
gfz2013jusj   1.12210
gfz2013jwvc  -0.51110
gfz2013kccc   0.89160
gfz2013kdeo  -0.06610
gfz2013khli   0.53420
gfz2013kilx  -0.28640
gfz2013ldpc  -0.13240
gfz2013ldqb   0.01980
gfz2013lixa   0.06810
gfz2013lmrs  -0.24510
gfz2013lwbk   0.20360
gfz2013lyko   0.38160
gfz2013mmwq   0.14920
gfz2013mqmv   1.04850
gfz2013mwbh   0.70300
gfz2013mxee  -0.10900
gfz2013ncjp  -0.08820
gfz2013ndin   0.33770
gfz2013nixj  -0.57460
gfz2013nkgj   0.41710
gfz2013nknw  -0.39370
gfz2013nmac  -0.05470
gfz2013nqgw   0.93500
gfz2013nwdi  -0.40620
gfz2013orjg  -0.11950
gfz2013pcos   0.51950
gfz2013pfbx  -0.09670
gfz2013pkbs  -0.33380
gfz2013pxsj  -0.37070
gfz2013qali   0.91600
gfz2013qcck   0.63890
gfz2013qmer  -0.10380
gfz2013qwbv  -0.01560
gfz2013qzdq  -0.03890
gfz2013reym  -0.69890
gfz2013sdus   0.84720
gfz2013sfto   0.94020
gfz2013skkm  -0.04930
gfz2013suvn   0.50880
gfz2013svci   0.00620
gfz2013tusd   0.31180
gfz2013tvmw   0.02140
gfz2013ufxk  -0.01780
gfz2013ufxm   0.97000
gfz2013uqsp   0.20850
gfz2013vexx   0.05720
gfz2013vfyw  -1.05600
gfz2013vfzp   0.64890
gfz2013vgrk  -0.58790
gfz2013viul   0.49170
gfz2013vjjc   0.34330
gfz2013vrmy  -0.02530
gfz2013vthd  -0.73470
gfz2013vvrq  -0.30660
gfz2013vzbo  -0.39150
gfz2013wjmm  -0.65920
gfz2013wkyk   0.50680
gfz2013wmfd  -0.16350
gfz2013wqhq   0.32360
gfz2013xkbh   2.10160
gfz2013xkwt   0.20160
gfz2013xmul   0.34790
gfz2013xsdt   0.72630
gfz2013yctg  -0.33790
gfz2013yhbu   1.26380
gfz2013yhpk   0.19580
gfz2013yqkv   0.39620
gfz2014abgd   0.46650
gfz2014afmx  -0.02090
gfz2014algk  -0.06210
gfz2014ande   0.00000
gfz2014atgw   0.23520
gfz2014bagd  -0.20560
gfz2014bezu   0.27240
gfz2014bfng   0.11670
gfz2014bfqo   0.45680
gfz2014bmta   0.05820
gfz2014bwue   0.95600
gfz2014bzxy  -0.16170
gfz2014capn  -0.09210
gfz2014chdv   0.09930
gfz2014cmwb  -0.30420
gfz2014crpy   0.10730
gfz2014cvxx   0.06060
gfz2014czno  -0.13750
gfz2014czqi   0.01000
gfz2014czua   0.03020
gfz2014dffd   0.09590
gfz2014disp  -0.85800
gfz2014duqn   0.08870
gfz2014eght   1.60450
gfz2014femz  -0.32000
gfz2014fexu   0.70310
gfz2014ffdc   1.06170
gfz2014fgvi  -0.10890
gfz2014fgvr   0.76040
gfz2014fgxt   0.35760
gfz2014fgxz   0.38210
gfz2014fgyo   0.32600
gfz2014fgza   0.12390
gfz2014fhbd   0.54690
gfz2014fhdw   0.18520
gfz2014fhla  -0.47420
gfz2014fhlh  -0.11180
gfz2014fhrq  -0.05170
gfz2014fhwx   0.53910
gfz2014fimn   0.13950
gfz2014fjzd   0.02280
gfz2014fkmr  -0.26880
gfz2014fkmx  -0.66540
gfz2014fknp  -0.24870
gfz2014fles   1.92250
gfz2014fnyg   0.01320
gfz2014frdz   0.06890
gfz2014frel  -0.26550
gfz2014frez   0.12940
gfz2014frgm   0.00000
gfz2014frwh   0.72800
gfz2014fszc  -1.70420
gfz2014ftka  -0.06960
gfz2014ftoc   0.08490
gfz2014ftpw   0.63200
gfz2014ftrk  -0.20790
gfz2014furx   0.58780
gfz2014fusc   0.18240
gfz2014fusj  -0.59260
gfz2014fuub  -0.03230
gfz2014fval   0.56570
gfz2014fvgh   0.27610
gfz2014fvrg   0.21460
gfz2014gbcz  -0.52440
gfz2014gbdq   0.76400
gfz2014geuy   0.51500
gfz2014gezs   3.72780
gfz2014ghpe   0.32700
gfz2014gkgf  -0.27640
gfz2014gkgs   0.28600
gfz2014gkhp  -0.84070
gfz2014gkhy  -0.26390
gfz2014gkjl   0.69130
gfz2014gkjt  -0.14570
gfz2014gklq   0.11420
gfz2014gklv   0.19000
gfz2014gkmm  -0.18880
gfz2014gkob  -0.19940
gfz2014gkok  -0.42370
gfz2014gkpd  -0.33000
gfz2014gkpj   0.29400
gfz2014gkqf   0.50850
gfz2014gkqu  -0.05660
gfz2014gksj   0.70050
gfz2014gksu  -0.22360
gfz2014gktq  -0.06990
gfz2014gkxm  -0.57540
gfz2014glcu  -0.01490
gfz2014glcy  -0.54760
gfz2014glgo   0.82600
gfz2014gltx   0.19160
gfz2014gmge   0.08730
gfz2014gmhr  -0.53900
gfz2014gmnb   0.01950
gfz2014gmnw   0.14740
gfz2014gmuk   0.18260
gfz2014gmzl   0.09610
gfz2014gmzs  -0.32280
gfz2014gnfd   0.52550
gfz2014gnfs  -0.64490
gfz2014gngg   0.30640
gfz2014gnnt   0.43340
gfz2014gnre   0.49420
gfz2014gnxb  -0.04550
gfz2014goba  -0.46790
gfz2014gogv   0.08890
gfz2014goqw  -2.57640
gfz2014gphr  -0.05170
gfz2014gpuk  -0.34570
gfz2014gpya  -0.98120
gfz2014gqbj   0.03390
gfz2014gqer  -0.66020
gfz2014gqqz   0.45270
gfz2014gqve   0.59660
gfz2014grcv   0.35560
gfz2014gsqs   0.75620
gfz2014gull   0.18670
gfz2014gulp  -0.38420
gfz2014gumd   1.57650
gfz2014gutm   0.07790
gfz2014gvhw  -0.26030
gfz2014gvqj   0.07590
gfz2014gvra   0.77020
gfz2014gvrd   0.57510
gfz2014gwab   1.68310
gfz2014gxag   0.14790
gfz2014gxxh  -0.28540
gfz2014gxxo   0.01100
gfz2014gyxd   0.77250
gfz2014haos  -1.08890
gfz2014hasj   0.19090
gfz2014hbjm  -0.18020
gfz2014hbjz   0.41520
gfz2014hbqb  -0.12230
gfz2014hcmj   0.10510
gfz2014hetr   0.00000
gfz2014heum   0.25420
gfz2014hfhl   0.86680
gfz2014hgqo  -0.00440
gfz2014hjgh   0.25270
gfz2014hjgr   0.14100
gfz2014hjij   0.03560
gfz2014hjlx   0.85890
gfz2014hkcf   0.24300
gfz2014hkck  -0.37830
gfz2014hmrs   0.06210
gfz2014hocg   0.59250
gfz2014hqxs   0.54490
gfz2014hscz  -0.67120
gfz2014huaj   0.97140
gfz2014ifue   0.35170
gfz2014ilwu   0.04420
gfz2014imnn   0.08840
gfz2014iobd   0.29040
gfz2014irci   0.57330
gfz2014itab  -0.00410
gfz2014itbe  -0.27780
gfz2014itfc   0.46480
gfz2014itgh  -0.13110
gfz2014itjx   0.06820
gfz2014itkw  -0.07540
gfz2014itpj   0.20560
gfz2014iuhq   0.26250
gfz2014iwnf  -0.84330
gfz2014iwwl  -0.42830
gfz2014ixky   0.32690
gfz2014iywt   0.17450
gfz2014jggm   0.62420
gfz2014jjhc  -0.16680
gfz2014jjln  -0.07330
gfz2014jmnk   0.09650
gfz2014jnyv  -0.13110
gfz2014jomw   0.16480
gfz2014jpep   0.64000
gfz2014jwmh  -0.03340
gfz2014khan  -0.16870
gfz2014khlk  -0.94840
gfz2014kndc   0.15500
gfz2014knks  -0.04650
gfz2014kscf  -3.25830
gfz2014kyan   0.13820
gfz2014lgqn   0.07060
gfz2014lpim  -6.33560
gfz2014lrzx  -0.03390
gfz2014lxnc  -0.31670
gfz2014lxqr  -3.44760
gfz2014lyhk  -0.59730
gfz2014lyhp   0.33660
gfz2014macx  -0.11450
gfz2014madw  -0.24780
gfz2014mcno  -0.00330
gfz2014mcse   0.37330
gfz2014navw   0.39970
gfz2014nowp  -0.55100
gfz2014npeo  -0.42940
gfz2014nphm   0.06350
gfz2014nqfm   0.18440
gfz2014nrie  -0.41830
gfz2014ntdh  -0.45330
gfz2014nyeh  -0.07610
gfz2014nyfb   0.58410
gfz2014nylm  -0.16830
gfz2014odgv  -0.01250
gfz2014oinz  -0.01890
gfz2014orxs  -0.28750
gfz2014oryw   0.27670
gfz2014owxc   0.15950
gfz2014oyly  -0.11040
gfz2014pkll  -0.91320
gfz2014ppzf   0.11480
gfz2014pvch   0.13070
gfz2014qlvc   0.45360
gfz2014qlxd   0.11460
gfz2014qngj  -0.75120
gfz2014qqhm  -0.23790
gfz2014raau  -0.35870
gfz2014rdsn  -0.09940
gfz2014rhwq   0.36190
gfz2014riel  -0.18330
gfz2014romy   0.01780
gfz2014rwos   0.22350
gfz2014sadu   0.99460
gfz2014sryn   0.08530
gfz2014ssmv   0.25550
gfz2014ssvz  -0.04180
gfz2014szzf  -0.27600
gfz2014tabg   0.34460
gfz2014tqdo  -0.03000
gfz2014tqsf  -0.24450
gfz2014tqth   3.89370
gfz2014tzsd   0.23540
gfz2014ubwn   0.11750
gfz2014uohh  -0.12520
gfz2014uvrk  -0.13140
gfz2014vhld   0.76850
gfz2014vhms  -0.75740
gfz2014waoo  -0.47360
gfz2014watn  -0.14460
gfz2014wjko   0.06240
gfz2014wmsc  -0.22340
gfz2014wrkh  -0.86730
gfz2014xbyr   0.76000
gfz2014xoji  -0.81690
gfz2014xqqd  -0.13950
gfz2014yhhm   0.06900
gfz2014ynhc   1.11540
gfz2014yrug  -0.56860
gfz2014zdtl  -0.84780
gfz2014zkys  -0.02680
gfz2014zlgp  -0.46710
gfz2015apnk  -0.04230
gfz2015arpd   0.00310
gfz2015aruz  -0.07100
gfz2015atxv  -0.73020
gfz2015bdyd   0.34380
gfz2015berb   0.85110
gfz2015bkbj   0.56160
gfz2015byjd   0.29060
gfz2015chhn  -0.04830
gfz2015chqn   0.19860
gfz2015cxhx  -0.37930
gfz2015cxxk   0.47750
gfz2015cyjd   0.41970
gfz2015czfv  -0.12360
gfz2015dizn  -0.59770
gfz2015dskr   0.61920
gfz2015dvbn   0.27180
gfz2015egxq   0.42440
gfz2015ehpz   0.02710
gfz2015eiky  -0.34200
gfz2015emtg   0.67830
gfz2015etai  -0.20930
gfz2015fbbk   0.43520
gfz2015fcua   0.79370
gfz2015fdpr   0.37830
gfz2015fkbc   0.30200
gfz2015fkgt  -0.97430
gfz2015fkic  -0.19020
gfz2015flis  -0.48740
gfz2015fsjj   0.37120
gfz2015fwnf   0.38810
gfz2015fxdi  -0.39900
gfz2015gckd   0.69800
gfz2015gjbr   1.34460
gfz2015gkwa  -0.03570
gfz2015gzja   0.13970
gfz2015hgbk   0.21640
gfz2015hhbd   0.04720
gfz2015imty   0.06880
gfz2015ixyy  -0.37210
gfz2015jxbx   0.42480
gfz2015jzcv   0.32400
gfz2015kakw   0.01710
gfz2015kcaa  -0.09320
gfz2015kkth   0.33290
gfz2015ksni  -0.39190
gfz2015lcma  -0.00400
gfz2015lfud   0.14150
gfz2015lhjq  -0.26690
gfz2015lhjy   0.59340
gfz2015lytv   0.02000
gfz2015lzad  -0.36950
gfz2015mddr  -0.00000
gfz2015mpte  -1.02970
gfz2015nuxz   0.69910
gfz2015nwug  -0.91070
gfz2015ocdz  -1.40470
gfz2015okmq   0.06050
gfz2015oyfl  -0.18850
gfz2015pdri   0.49450
gfz2015plal   0.21380
gfz2015poni   0.16530
gfz2015qnho   0.12130
gfz2015qpvd   0.29120
gfz2015quzo  -1.28650
gfz2015rddx   0.15460
gfz2015rkrg   0.11330
gfz2015rkzg   0.20010
gfz2015roac  -0.64670
gfz2015saet   0.70290
gfz2015sevh   0.12330
gfz2015sfdd   0.17650
gfz2015sfdy  -0.46950
gfz2015sfeo   1.42750
gfz2015sfga   0.64500
gfz2015sfhz  -0.32110
gfz2015sfiq   0.27140
gfz2015sfnb   0.31850
gfz2015sfno  -0.26220
gfz2015sfoc   0.34350
gfz2015sfqo   0.00000
gfz2015sfqr   1.19470
gfz2015sfrf  -0.30800
gfz2015sfwf   0.42180
gfz2015sfzm   0.27180
gfz2015sgad  -0.15300
gfz2015sgyd   0.59720
gfz2015shhg   0.00000
gfz2015shhu   0.02180
gfz2015shjn  -0.22670
gfz2015shjo   0.30420
gfz2015shrg  -0.34490
gfz2015shsz  -0.08600
gfz2015sist  -0.25890
gfz2015sitn   0.21120
gfz2015sjbx   0.04520
gfz2015sjfi  -0.19570
gfz2015sjgk  -0.11980
gfz2015sjjb  -2.46510
gfz2015sjne   0.62340
gfz2015sjoj   0.13650
gfz2015sjvu   0.04770
gfz2015sjwi   0.50610
gfz2015sklu  -0.12210
gfz2015skxu  -0.25220
gfz2015sldx   0.12760
gfz2015sljs   1.83050
gfz2015slun  -0.30480
gfz2015smym  -0.77160
gfz2015snmr   0.12570
gfz2015snsf  -0.16500
gfz2015snwh   0.20110
gfz2015snyd  -0.07150
gfz2015soat   0.06120
gfz2015soxc   0.36340
gfz2015srat  -0.10050
gfz2015subg  -1.96320
gfz2015subz   0.03930
gfz2015svwm  -0.20490
gfz2015szcb  -0.07390
gfz2015sztx   0.02130
gfz2015taml   0.57990
