# Nsamples: 1584  MAD:  0.443  mean:  0.009  variance:  0.459
gfz2010aerk  -0.41700
gfz2010ahla   2.63030
gfz2010ahqi   0.22220
gfz2010bfzs   0.07540
gfz2010bgth  -0.56460
gfz2010bhhq  -0.40860
gfz2010bifb  -2.07950
gfz2010bjeb  -0.34430
gfz2010bjsl   0.79070
gfz2010bkob  -0.06740
gfz2010bkos   0.21770
gfz2010bowy  -0.51480
gfz2010boxo  -0.65740
gfz2010bxxs  -0.14450
gfz2010caft  -0.89600
gfz2010cbkg  -0.37230
gfz2010cind   0.09540
gfz2010ckeu  -0.28630
gfz2010ckzm   1.10520
gfz2010cnwc  -0.45680
gfz2010cqwl   0.28980
gfz2010cres  -0.00000
gfz2010czps  -0.23150
gfz2010ddzo   0.24490
gfz2010dejx   0.46730
gfz2010dfru   0.24680
gfz2010diqn   0.19270
gfz2010dlgc   0.71220
gfz2010dumm  -0.26470
gfz2010eaoy  -0.07210
gfz2010eapk   0.36030
gfz2010eapn   1.27990
gfz2010eaqe   1.40210
gfz2010eaqx   0.16950
gfz2010eaqy   0.76520
gfz2010earq  -0.39360
gfz2010earu  -0.48210
gfz2010easf   0.91710
gfz2010eask   2.14750
gfz2010easo  -0.06090
gfz2010easu  -0.37480
gfz2010eati   0.34840
gfz2010eato   0.41660
gfz2010eatt  -2.07870
gfz2010eaty   0.41370
gfz2010eaul   0.23290
gfz2010eavd  -0.65950
gfz2010eavp   0.00470
gfz2010eavs  -0.24760
gfz2010eawb   0.02090
gfz2010eaxa   0.42890
gfz2010eayd   0.52400
gfz2010eayp   0.29640
gfz2010eayx  -0.39180
gfz2010eaze   0.01060
gfz2010eazu  -2.53860
gfz2010ebbd   0.47560
gfz2010ebbx  -1.83180
gfz2010ebby   1.12870
gfz2010ebdl  -0.40150
gfz2010ebeh  -0.39830
gfz2010ebek   0.47690
gfz2010ebfa   0.69400
gfz2010ebfx  -0.39230
gfz2010ebgj   0.25530
gfz2010ebhc   0.31650
gfz2010ebih  -0.22420
gfz2010ebin  -1.85820
gfz2010ebiv   0.28250
gfz2010ebjy   0.02430
gfz2010ebkj  -0.22010
gfz2010ebla   0.07010
gfz2010ebll   0.18380
gfz2010ebmb   0.76940
gfz2010ebmi  -0.27660
gfz2010ebnn  -0.49620
gfz2010ebpa   0.90510
gfz2010ebqt  -0.20860
gfz2010ebqz  -0.91280
gfz2010ebrm   0.23530
gfz2010ebsv   0.39450
gfz2010ebtk   0.33330
gfz2010ebvm   0.19910
gfz2010ebvv   0.31640
gfz2010ebwp  -0.31080
gfz2010ebxl   0.39750
gfz2010ebze  -0.34540
gfz2010ebzk   0.09540
gfz2010ebzr  -0.13510
gfz2010ecam   0.68750
gfz2010ecay  -0.04240
gfz2010ecbi   0.50540
gfz2010eccq   0.42310
gfz2010ecdu  -0.43870
gfz2010eced  -0.73570
gfz2010ecft   0.38570
gfz2010ecfx  -1.39340
gfz2010ecgh  -0.64190
gfz2010echc  -0.25960
gfz2010echt   0.10940
gfz2010echy   0.25020
gfz2010ecls   0.73840
gfz2010ecml   0.71550
gfz2010ecnm  -0.48710
gfz2010ecps  -0.32810
gfz2010ecro  -0.50740
gfz2010ecsp   0.97080
gfz2010ectq   0.96720
gfz2010ecua  -0.34640
gfz2010ecuv   0.40140
gfz2010ecvt   0.53540
gfz2010ecyr  -0.24740
gfz2010edad  -0.34290
gfz2010edat  -0.12370
gfz2010eday  -0.06430
gfz2010edbz   0.50650
gfz2010edcp  -0.07970
gfz2010edde  -0.62220
gfz2010edhr   0.05220
gfz2010edhv   0.98940
gfz2010edim   0.02430
gfz2010edji  -0.32060
gfz2010edkp   0.02080
gfz2010edoq  -0.49900
gfz2010edpb  -0.26110
gfz2010edqd  -0.47220
gfz2010edqh  -0.07570
gfz2010edsk   0.19640
gfz2010edsn   0.10660
gfz2010edsy   0.21980
gfz2010edun  -0.13030
gfz2010edvf  -0.18530
gfz2010edyi  -0.77810
gfz2010edzb   0.68290
gfz2010eedu  -0.38090
gfz2010eefh   0.13090
gfz2010eefo   0.00000
gfz2010eegn   0.10220
gfz2010eeia   0.05000
gfz2010eeij  -0.35650
gfz2010eekg   0.39100
gfz2010eekq  -0.20000
gfz2010eell   1.50170
gfz2010eeng  -0.22000
gfz2010eeqy  -1.84090
gfz2010eerh   0.59020
gfz2010eern   0.06980
gfz2010eesf   0.58550
gfz2010eevu   0.04940
gfz2010eexz  -0.28710
gfz2010eeyh  -0.06070
gfz2010efak   0.05870
gfz2010efbh  -0.10950
gfz2010efbi   0.14510
gfz2010efkc  -0.54190
gfz2010efls   0.31220
gfz2010efnf   0.65320
gfz2010efsq  -0.95190
gfz2010efwo  -0.09260
gfz2010efxf  -0.44600
gfz2010egap  -0.07520
gfz2010eghq   0.00000
gfz2010egld   0.11320
gfz2010egln   0.20230
gfz2010egmp   0.45390
gfz2010egqh   0.26430
gfz2010egsw   0.32320
gfz2010egsy  -0.08850
gfz2010egyy   0.31240
gfz2010ehaj   1.05060
gfz2010eher   0.01980
gfz2010ehft  -0.34040
gfz2010ehnl  -0.58400
gfz2010ehrq   2.98060
gfz2010ehsy   0.02220
gfz2010ehvj   0.13460
gfz2010ehwg  -0.53460
gfz2010ehxz   0.79010
gfz2010eimf  -0.53370
gfz2010eioi   0.09890
gfz2010eisx  -1.12300
gfz2010eixj  -0.40220
gfz2010ejae  -0.15150
gfz2010ejco  -0.40420
gfz2010ejjg   0.10240
gfz2010ejju   1.57410
gfz2010ejka  -1.41300
gfz2010ejma  -0.59530
gfz2010ejxf   0.36330
gfz2010ekaw  -0.50700
gfz2010ekoe   0.26420
gfz2010ekrv   0.04860
gfz2010ekyc  -0.20990
gfz2010elhv   0.17260
gfz2010elin  -0.20670
gfz2010eljf  -0.39880
gfz2010elsw   0.03990
gfz2010eltf   0.14460
gfz2010elvp  -1.33660
gfz2010elxi  -0.02760
gfz2010elyc  -1.31160
gfz2010elyo   0.63190
gfz2010elzf  -0.37500
gfz2010elzl   0.11940
gfz2010emoz  -0.27240
gfz2010emyz   0.02290
gfz2010encm  -0.32620
gfz2010engw  -0.86970
gfz2010enpa   0.24060
gfz2010ensu   0.80330
gfz2010enzl   0.11750
gfz2010eoao   0.78450
gfz2010eohh  -1.22810
gfz2010epbe  -0.40740
gfz2010epxj   0.02390
gfz2010epzk  -0.97950
gfz2010eqcn  -0.10160
gfz2010eqjg  -0.47210
gfz2010eqmu  -3.85280
gfz2010eqse   1.21490
gfz2010eqwl   2.18730
gfz2010erda  -0.74590
gfz2010erdi   0.09280
gfz2010erfy  -0.11370
gfz2010erig   1.11610
gfz2010erkn   0.38540
gfz2010ermi  -1.87420
gfz2010erna  -0.10190
gfz2010erom   0.26900
gfz2010erum  -0.07090
gfz2010eruy  -0.66680
gfz2010erwn  -0.67560
gfz2010erxk   0.55820
gfz2010eryg  -0.22780
gfz2010esid  -0.00000
gfz2010esou   6.28000
gfz2010eted   0.57810
gfz2010euae   0.34130
gfz2010euan  -0.13130
gfz2010eujm  -0.25090
gfz2010eutw  -0.10520
gfz2010euvl  -0.57660
gfz2010euwb  -0.26110
gfz2010euxe  -1.04640
gfz2010evco  -0.20860
gfz2010evgf  -0.38680
gfz2010evjv  -0.06290
gfz2010ewbc   1.20230
gfz2010ewvc   0.33250
gfz2010ewyu  -2.17380
gfz2010excp  -0.36640
gfz2010exdd  -0.22210
gfz2010exdl   0.57580
gfz2010exed   0.43900
gfz2010exel   0.45930
gfz2010exgb   0.23200
gfz2010exhd  -0.17830
gfz2010exhw  -0.21950
gfz2010exjw  -0.30120
gfz2010exlm  -0.11550
gfz2010exmc  -0.26690
gfz2010exno   0.21770
gfz2010exou  -0.37560
gfz2010exqu  -0.21030
gfz2010exsg   0.57360
gfz2010exts   0.04710
gfz2010exyp   0.37970
gfz2010eyaz  -1.05820
gfz2010eybj  -0.72940
gfz2010eyhh   0.40410
gfz2010eyiv  -0.67700
gfz2010eymr  -0.03900
gfz2010eymx  -0.12870
gfz2010eyvq   0.24330
gfz2010ezax  -0.15060
gfz2010ezck   0.17280
gfz2010ezuj  -1.22640
gfz2010ezvg  -0.49770
gfz2010ezvt  -0.23180
gfz2010ezwz  -0.56220
gfz2010faeu  -0.50670
gfz2010falm   0.38800
gfz2010fauz  -0.42250
gfz2010fbeu  -0.00340
gfz2010fbpi   0.38120
gfz2010fcax  -0.35630
gfz2010fcdw   0.24900
gfz2010fcnn   0.12000
gfz2010fcnt  -0.42310
gfz2010fcxy   0.20760
gfz2010fcyj  -0.26630
gfz2010fczt  -0.21360
gfz2010fdab  -0.58540
gfz2010fedq  -1.30250
gfz2010fefr  -1.37310
gfz2010fexw  -0.24900
gfz2010ffhq  -0.04410
gfz2010ffjb   0.38420
gfz2010ffui  -0.49720
gfz2010fhbl   0.52440
gfz2010figq  -0.27860
gfz2010fihj   2.42250
gfz2010fika   0.82570
gfz2010fixr   0.00000
gfz2010fjal  -0.31850
gfz2010fjas  -0.52620
gfz2010fjmu  -0.91230
gfz2010fjni   0.31020
gfz2010fkvg   0.41550
gfz2010flha  -0.62560
gfz2010flkj  -0.61600
gfz2010flrt  -0.17090
gfz2010flxi  -0.34340
gfz2010fmhb  -0.96590
gfz2010fmwb  -1.28200
gfz2010fneu  -0.29150
gfz2010fnrk   1.22150
gfz2010fpmv   0.83620
gfz2010fpqy   0.06100
gfz2010fqdu  -0.53430
gfz2010fser  -0.34070
gfz2010fsmy  -1.01310
gfz2010ftlm   0.04630
gfz2010fupn  -0.18110
gfz2010fuuy   0.12350
gfz2010fvuc   0.79630
gfz2010fwkk   1.15050
gfz2010fwlb   0.21340
gfz2010fwny   0.53090
gfz2010fwpv   0.23830
gfz2010fyen   0.12900
gfz2010fync   0.41600
gfz2010fzoi  -0.14030
gfz2010gcdn   0.30980
gfz2010gceb  -0.53210
gfz2010gcrl  -0.03320
gfz2010gcrp  -0.77100
gfz2010gdld  -0.00000
gfz2010geru  -0.54650
gfz2010gjia   0.00000
gfz2010gjvo   0.05200
gfz2010glqr  -0.04920
gfz2010glxl   0.16340
gfz2010gmib   0.44580
gfz2010grjd   0.11950
gfz2010gslu   0.00000
gfz2010gtqs   0.37150
gfz2010gtzt   0.30270
gfz2010gwmp  -0.26660
gfz2010gymo  -0.16350
gfz2010gyqp   0.03460
gfz2010gzxr   0.10240
gfz2010hakh   1.94510
gfz2010hbka   0.09400
gfz2010hcio  -0.17480
gfz2010hgld   0.02280
gfz2010hllj  -0.41030
gfz2010hlln  -0.39670
gfz2010hlmq  -0.18740
gfz2010hlvr   0.22110
gfz2010hmhm  -0.89540
gfz2010hnnf  -0.75520
gfz2010hnpi  -0.82000
gfz2010hnzr   0.17140
gfz2010homc   0.57500
gfz2010hptz   0.91840
gfz2010hrkr   0.27690
gfz2010htdq   1.20180
gfz2010hxbs   0.60460
gfz2010hxgv  -0.44990
gfz2010hxhe  -0.28800
gfz2010hykt   0.20460
gfz2010hzar  -0.46560
gfz2010ibiy  -0.29680
gfz2010iciq   1.38540
gfz2010iefy  -0.90690
gfz2010iibf   1.03440
gfz2010iimu   0.04070
gfz2010ijtk   0.39490
gfz2010imfv  -0.36780
gfz2010imsh   0.07320
gfz2010iobp  -0.07850
gfz2010iphd   0.47210
gfz2010ipsg   0.26660
gfz2010iqep   0.11350
gfz2010iqfm  -0.36340
gfz2010irqr   0.31460
gfz2010irvf  -0.03740
gfz2010itpb  -0.39300
gfz2010iull   0.04560
gfz2010izzj  -0.08280
gfz2010jagd   0.50810
gfz2010jant   2.04960
gfz2010jatq  -0.06650
gfz2010jhie   0.30830
gfz2010jipf  -0.08660
gfz2010jlhj  -0.73450
gfz2010jpss   0.58360
gfz2010jpyj   0.59270
gfz2010jqxx  -0.22650
gfz2010jssh   0.15720
gfz2010jsuh  -0.98050
gfz2010jsuo   0.12290
gfz2010jxbm   0.00270
gfz2010jygz   0.19260
gfz2010jzku  -0.05980
gfz2010kcoo   0.26920
gfz2010kdyc   0.28640
gfz2010kgws  -1.12900
gfz2010kmgg   0.24850
gfz2010kmsv   0.40540
gfz2010kyvj  -0.32080
gfz2010lczp  -0.03940
gfz2010lepw   0.74980
gfz2010lgwy  -0.42790
gfz2010liqs  -0.22930
gfz2010lkcf  -0.10090
gfz2010lopz  -0.36340
gfz2010lrlk  -0.20510
gfz2010lyfk   0.32140
gfz2010mant   0.90970
gfz2010mdpq  -0.14540
gfz2010mgss   0.19050
gfz2010mhjt   0.27410
gfz2010miil   0.70730
gfz2010miqn   0.09900
gfz2010mkuu   0.17920
gfz2010mlkz  -0.75740
gfz2010mlta  -1.60210
gfz2010mncc  -0.02840
gfz2010mnhm  -0.17160
gfz2010mnsz   0.90560
gfz2010moyw  -0.11810
gfz2010mpuy   0.13000
gfz2010msjj   0.48430
gfz2010muca  -0.07940
gfz2010mwdq  -0.22960
gfz2010mzjr   0.92250
gfz2010ncrl  -0.01990
gfz2010nfsj  -0.15250
gfz2010nlkh  -0.29570
gfz2010nmpc  -1.26690
gfz2010nnny   0.57310
gfz2010nqwf   0.69370
gfz2010nqwo  -0.15400
gfz2010nrjo  -0.10130
gfz2010nsck  -0.02040
gfz2010nsdf   0.16800
gfz2010ntuo   0.18640
gfz2010nubk  -0.16490
gfz2010nwef  -0.35040
gfz2010nxsy  -0.38350
gfz2010nxum  -0.06660
gfz2010nzha  -0.41990
gfz2010nzla  -0.51240
gfz2010ocxq   0.61360
gfz2010odpb   0.52120
gfz2010oedn   0.08770
gfz2010okdm   0.35350
gfz2010oluw  -0.18390
gfz2010onma   0.03430
gfz2010osjs  -0.59730
gfz2010oyqy   0.45300
gfz2010pbdz  -0.15400
gfz2010pcxi  -0.14090
gfz2010pdtk  -0.00470
gfz2010pets   0.53700
gfz2010pewa  -0.30550
gfz2010pewx   0.05210
gfz2010pfyu   0.46280
gfz2010phvg   0.10650
gfz2010plbg  -0.27290
gfz2010pmqd   0.09670
gfz2010pqck  -0.64210
gfz2010pxak   0.08090
gfz2010pxgh   0.90390
gfz2010qjst   0.38150
gfz2010qpcq   0.08640
gfz2010qpum   0.59030
gfz2010qpvi   0.37990
gfz2010rhas   0.39510
gfz2010rkfp   0.06780
gfz2010rqwj  -0.62680
gfz2010rxjw   1.66620
gfz2010rzrr  -1.94140
gfz2010rzsd   0.33520
gfz2010sfee   0.01330
gfz2010sfla  -0.12450
gfz2010sgzk   0.29600
gfz2010skqo  -0.39310
gfz2010skve   1.11620
gfz2010srdb  -0.12920
gfz2010suww  -0.62800
gfz2010svtn  -0.82840
gfz2010swcy  -0.17880
gfz2010sxfq  -0.60010
gfz2010sxwt  -0.19380
gfz2010sysw   0.28840
gfz2010szde  -0.15760
gfz2010szim   0.32160
gfz2010tcbr  -0.06550
gfz2010tcrl  -0.36640
gfz2010titk  -0.01710
gfz2010tlfm  -0.00000
gfz2010truw  -1.00790
gfz2010txjs  -0.25800
gfz2010uept   0.09530
gfz2010upfb  -0.07850
gfz2010urlq   0.01970
gfz2010usho   0.38140
gfz2010ustq   0.33930
gfz2010utcg   0.13560
gfz2010utmc   0.06070
gfz2010utvp   0.46570
gfz2010uvhf   0.08230
gfz2010uyhb  -0.85640
gfz2010veri   0.27230
gfz2010vhuj  -0.24020
gfz2010vtdg  -0.21890
gfz2010vyxd   0.14300
gfz2010vzpr   0.11130
gfz2010wioh  -0.28640
gfz2010wnty   0.39600
gfz2010wntz   1.16020
gfz2010wofs  -0.64280
gfz2010wrxx   0.02380
gfz2010wxqa   1.69180
gfz2010xbdv  -0.06570
gfz2010xbgs  -0.37390
gfz2010xche  -0.16540
gfz2010xcij  -0.70410
gfz2010xden   0.15200
gfz2010xgfc   0.43370
gfz2010xgzw  -0.01330
gfz2010xjck  -0.28100
gfz2010xjsj   0.08470
gfz2010xmpr  -0.03910
gfz2010xnxk   0.20850
gfz2010xxdb   0.38410
gfz2010xxzn   0.45360
gfz2010yjev  -0.99380
gfz2010ymfy   0.08840
gfz2010ymur  -0.74450
gfz2010yosr   0.16890
gfz2010yqqb   0.22850
gfz2010yqwx   0.12800
gfz2011aatr   0.12500
gfz2011adjs  -1.08400
gfz2011adlj   0.31610
gfz2011adpw  -0.51280
gfz2011adqk   0.33460
gfz2011aeay  -0.26470
gfz2011aldv  -0.52050
gfz2011alip   0.33980
gfz2011alsa  -0.90970
gfz2011alwf  -5.74600
gfz2011anur  -0.01210
gfz2011aosc  -0.12060
gfz2011aqxf  -0.65060
gfz2011blsi   1.17560
gfz2011bpkd  -0.18990
gfz2011ccpw   0.57560
gfz2011cfae   0.28910
gfz2011cndo  -0.39800
gfz2011coxh  -0.38340
gfz2011csju  -0.31370
gfz2011cvfg   0.22650
gfz2011cykd  -0.79720
gfz2011cylz   0.62490
gfz2011cynl   0.24480
gfz2011cyre   1.42750
gfz2011cyuk   0.57750
gfz2011czwj  -0.92570
gfz2011dbev   0.21620
gfz2011dbig  -0.02970
gfz2011dbon  -0.15870
gfz2011dbwt   0.13640
gfz2011dcqb   0.23060
gfz2011dcqf  -0.62290
gfz2011dddh  -0.37060
gfz2011deaf  -0.40530
gfz2011dkyi   0.19990
gfz2011dllz  -1.18990
gfz2011dlyx   0.18890
gfz2011dmat   0.23020
gfz2011dndz  -0.41730
gfz2011dpqx  -0.45180
gfz2011duyr  -0.24620
gfz2011ecaj   0.35180
gfz2011ecsc  -1.30430
gfz2011edmm   0.55650
gfz2011eebc   0.32950
gfz2011ehzq   0.18910
gfz2011ejlp  -0.28800
gfz2011eltw  -0.53030
gfz2011enva  -0.32530
gfz2011etje   0.77190
gfz2011fdzv   0.16030
gfz2011fgvr  -0.49570
gfz2011fhag   1.39090
gfz2011fhur  -0.22340
gfz2011flgj  -0.31200
gfz2011fnsw  -0.75110
gfz2011gbmx  -0.00890
gfz2011gcwb  -0.27360
gfz2011gdgh  -0.12880
gfz2011ghky  -0.00000
gfz2011gkey  -0.09940
gfz2011gkzt  -0.24610
gfz2011gzbr  -0.31240
gfz2011haid  -0.98240
gfz2011hbex  -0.23280
gfz2011hbqk  -0.40080
gfz2011hebt  -0.15550
gfz2011hfkj  -0.17310
gfz2011hlqw  -0.37610
gfz2011hlsa  -0.43420
gfz2011hpgx   0.80420
gfz2011hpqp  -0.62890
gfz2011hrhe   0.17220
gfz2011hrhu  -0.79850
gfz2011hryk  -0.33850
gfz2011hsfj  -1.03230
gfz2011hvbu  -0.38290
gfz2011ieie  -0.40220
gfz2011knoo   0.55890
gfz2011kqwo  -0.93650
gfz2011kqyg   0.09590
gfz2011kwid   0.26240
gfz2011kwjx   0.17070
gfz2011kwkw   0.18230
gfz2011kwqc  -0.09120
gfz2011kwrf  -0.28020
gfz2011kwsz   0.15580
gfz2011kxzp   0.24000
gfz2011lcxq   0.47000
gfz2011lczg   0.36940
gfz2011lgsg   0.28360
gfz2011lhls   0.35570
gfz2011lvjr  -0.43090
gfz2011lzwj   0.27070
gfz2011mdie   0.11170
gfz2011mepc  -0.35170
gfz2011mjom   0.37200
gfz2011mllx   0.17980
gfz2011mpme  -0.36410
gfz2011mprq   0.01070
gfz2011myia  -0.50870
gfz2011nauw   0.06610
gfz2011nkaz  -0.31170
gfz2011nmnq   0.07660
gfz2011noud  -0.53250
gfz2011nrwc   0.10000
gfz2011nsex   0.21000
gfz2011ntkh   0.14790
gfz2011nudm  -0.39090
gfz2011ogqk  -1.51170
gfz2011ohcy   0.43360
gfz2011oiqe   0.43220
gfz2011oiwk   0.21480
gfz2011olkk   0.63920
gfz2011orgn   1.81090
gfz2011ornx   0.25210
gfz2011phms  -0.53650
gfz2011pntf  -0.35950
gfz2011qvae  -1.34360
gfz2011qyms   0.04880
gfz2011rabm   0.26620
gfz2011rdby   1.57050
gfz2011rewa  -0.51030
gfz2011rgwp  -0.42880
gfz2011rqui   0.02410
gfz2011rsrh  -0.20740
gfz2011rznl  -0.65650
gfz2011sagt  -0.36110
gfz2011shqm   0.72760
gfz2011stal   0.42010
gfz2011svix   0.42690
gfz2011tbas   0.40650
gfz2011tcij  -1.09360
gfz2011tivu   0.21150
gfz2011tjue  -0.29210
gfz2011tkfp  -0.20880
gfz2011tkog  -0.46770
gfz2011toub  -0.34090
gfz2011tpbl   0.23230
gfz2011tpfr  -0.02230
gfz2011tsfd   1.09070
gfz2011tsnp   4.57230
gfz2011tuea   0.00630
gfz2011udsq  -0.41070
gfz2011uepx   0.86480
gfz2011ugzz   0.26770
gfz2011ujze   0.11930
gfz2011uphh   0.24810
gfz2011urxy  -0.22390
gfz2011urzu  -0.18540
gfz2011uzqv   0.30090
gfz2011vclt   0.18210
gfz2011vhfi   0.26170
gfz2011vnza  -0.08600
gfz2011vrhg  -0.35220
gfz2011vxns  -0.28240
gfz2011wcic   0.32230
gfz2011wfja   0.22960
gfz2011wijj  -0.08340
gfz2011wjul   0.31740
gfz2011wwjs   0.18770
gfz2011wxfs   0.64500
gfz2011wxoj   0.21850
gfz2011wxtk  -0.10280
gfz2011wype   0.60290
gfz2011xcpv   0.35540
gfz2011xesx  -0.01240
gfz2011xqru  -1.16670
gfz2011xyxj  -0.26970
gfz2011yfdx   0.08920
gfz2011yfys  -0.05390
gfz2011yybo   0.42170
gfz2011yzwq  -0.25300
gfz2011zklv  -0.01340
gfz2011zlrd   0.12480
gfz2011zqhh  -0.51870
gfz2012ajtq   0.09340
gfz2012aqgp  -0.64240
gfz2012aqtq   0.19630
gfz2012attr   0.35050
gfz2012bfah  -0.05160
gfz2012bfyn   0.15990
gfz2012bngd   0.62350
gfz2012bpkx   0.18860
gfz2012bpnl   0.28280
gfz2012bpwl  -0.02360
gfz2012bszs   0.21960
gfz2012byad  -0.19140
gfz2012cgvr   0.59150
gfz2012cmfy   0.09510
gfz2012cnod  -0.55240
gfz2012covm   0.15150
gfz2012cqnl  -0.30750
gfz2012cxdn  -0.06390
gfz2012czlw   0.75070
gfz2012deri   0.26920
gfz2012dfhq   0.44350
gfz2012dimn   0.29650
gfz2012dinb  -0.15190
gfz2012dyyh   0.05650
gfz2012ekda  -0.12010
gfz2012ekzf  -0.52020
gfz2012elce  -0.07370
gfz2012emjg  -0.01940
gfz2012enno  -0.05730
gfz2012ewgo   0.11380
gfz2012ewkj  -2.29020
gfz2012fhnh  -0.48560
gfz2012foeo   0.32390
gfz2012fwfo  -0.90590
gfz2012fwob   0.76390
gfz2012fzfa  -0.35930
gfz2012fzsq   0.71140
gfz2012gkvr  -0.01850
gfz2012gocc  -0.52370
gfz2012hdbm   0.40430
gfz2012hnul  -0.30460
gfz2012holl  -0.16270
gfz2012hyaa   0.21490
gfz2012iamr  -0.14540
gfz2012icmv  -1.14140
gfz2012ilvn   0.33850
gfz2012imay  -0.06470
gfz2012jgvj   0.55180
gfz2012jjzc   0.94380
gfz2012jlox  -0.17150
gfz2012jshk  -1.26770
gfz2012jupx   0.07510
gfz2012kdmb   1.04860
gfz2012keor  -0.41990
gfz2012kkup  -0.49440
gfz2012klba   0.02530
gfz2012klhx  -0.19520
gfz2012kuct  -0.15650
gfz2012kudo   0.21400
gfz2012kvzv  -0.52040
gfz2012kwgo  -0.16000
gfz2012lczo  -0.65320
gfz2012ldxg  -0.35960
gfz2012ldzj  -0.28430
gfz2012ljql  -3.40400
gfz2012lltr   0.48710
gfz2012llug   1.38130
gfz2012lrsv  -1.64230
gfz2012lxkv  -0.12410
gfz2012mdmy   0.14160
gfz2012minr  -0.07810
gfz2012mkpn   0.14670
gfz2012mpvy   0.20670
gfz2012mupa  -0.04090
gfz2012mvwr  -0.14870
gfz2012mwij   0.19420
gfz2012myqa   0.06670
gfz2012nedn  -0.76170
gfz2012nojx   0.17200
gfz2012nolo  -0.06700
gfz2012nsbz  -0.39310
gfz2012ntzv   2.82870
gfz2012nutf  -0.24990
gfz2012nxog  -0.27660
gfz2012oazn  -0.25390
gfz2012oedb   0.03540
gfz2012omvo  -0.65430
gfz2012pciw   0.33080
gfz2012peki  -0.76800
gfz2012pgcl   0.28650
gfz2012pkel   0.79770
gfz2012pqlt  -0.41740
gfz2012pqmu  -0.55330
gfz2012qurq   0.08120
gfz2012qxcy  -0.27770
gfz2012rats  -0.26620
gfz2012repv  -1.13790
gfz2012rjsd   0.63680
gfz2012ronz  -0.42440
gfz2012royy   0.19170
gfz2012rwko   0.14270
gfz2012rwov   0.35780
gfz2012rypu  -0.21820
gfz2012sfer  -0.32660
gfz2012snhi  -0.38930
gfz2012spbj  -0.42300
gfz2012sphd   0.08930
gfz2012sqmv   0.01940
gfz2012ssyn  -0.03150
gfz2012syvl   0.02240
gfz2012teic  -0.06260
gfz2012tmop   0.02380
gfz2012tpzx   1.07200
gfz2012ttoa  -0.15110
gfz2012tvmv  -0.26390
gfz2012tyxl  -0.25280
gfz2012uciv  -0.32110
gfz2012ueqo   1.28200
gfz2012ufew   0.22030
gfz2012uhup   0.18830
gfz2012ulpd  -0.01600
gfz2012usba   0.11160
gfz2012uvqf   0.64440
gfz2012uyxb  -0.88650
gfz2012vntz  -0.11560
gfz2012vpza   0.27670
gfz2012vrgb  -0.15280
gfz2012vsev  -0.12160
gfz2012vxvr   0.55090
gfz2012whku  -0.16540
gfz2012wklq   0.04150
gfz2012wmsg   0.21770
gfz2012wpeq  -0.17830
gfz2012wrir  -0.26440
gfz2012wtkh  -0.40560
gfz2012wtkr  -0.33480
gfz2012wubh  -0.11510
gfz2012wvfl   0.00000
gfz2012wxer   0.07450
gfz2012wxnu   0.07170
gfz2012wybs   0.51580
gfz2012wypz   0.83650
gfz2012xbjq   0.05460
gfz2012xcgk   0.22960
gfz2012xeul  -0.41520
gfz2012xjyv   0.03350
gfz2012xmxy  -0.11560
gfz2012xslk   0.15910
gfz2012yfrp  -0.27770
gfz2012zemh   0.26640
gfz2012zemz  -0.00000
gfz2012zfag  -0.11210
gfz2012zitl  -0.89750
gfz2012zjpv  -0.52400
gfz2012zjre  -0.58310
gfz2012zmln  -0.06040
gfz2013aahq  -0.22040
gfz2013aayj  -0.03430
gfz2013aqaw  -1.18740
gfz2013bdke  -0.82430
gfz2013bdpu  -0.55890
gfz2013bnxc   0.23270
gfz2013bokp   0.40210
gfz2013bouj  -0.57010
gfz2013btjm  -0.28630
gfz2013cbsm  -0.42270
gfz2013ccnr   0.02900
gfz2013cdan   0.65140
gfz2013cvqg  -0.02750
gfz2013cwpn  -0.17790
gfz2013dkly  -0.54620
gfz2013dofo  -0.31160
gfz2013dojq  -0.23240
gfz2013drpk   0.26710
gfz2013drxz  -0.64970
gfz2013dsog  -0.97580
gfz2013dspt  -1.42490
gfz2013dsrk  -1.12050
gfz2013dvyh   0.23080
gfz2013egni   0.14290
gfz2013egpu  -0.51240
gfz2013ewbo  -0.25120
gfz2013fiud   0.43450
gfz2013fkcl  -0.48350
gfz2013flox  -0.46390
gfz2013ftso   0.99540
gfz2013fwxa   0.30590
gfz2013fygc  -0.39590
gfz2013gcfx  -0.90790
gfz2013gdgf   0.94460
gfz2013gdnq  -0.05300
gfz2013gjdc  -0.60380
gfz2013gmor   0.37010
gfz2013gngz  -0.27590
gfz2013gnse   0.03540
gfz2013gock  -0.18770
gfz2013hdnc   0.03350
gfz2013hfmp  -0.59070
gfz2013hkja   0.24050
gfz2013huwr   0.37930
gfz2013iayx   0.09050
gfz2013idbb  -0.06080
gfz2013ifpq   0.01990
gfz2013ijsr  -0.01750
gfz2013ikgo   0.09580
gfz2013ilug  -0.11770
gfz2013ippu   0.18490
gfz2013iunn  -0.37280
gfz2013jesk  -0.42160
gfz2013jgij  -0.22280
gfz2013jgip   0.00000
gfz2013jkut   0.13120
gfz2013jokw   0.00000
gfz2013jusj  -0.19620
gfz2013jwvc  -0.20070
gfz2013kccc  -0.47170
gfz2013kdeo  -0.16150
gfz2013kheb  -0.57160
gfz2013kqln  -0.69360
gfz2013krei  -0.00980
gfz2013lajg  -0.69330
gfz2013ldos  -2.12680
gfz2013ldpc  -0.25670
gfz2013ldqb  -0.05940
gfz2013lgnl   0.05980
gfz2013lixa   0.10040
gfz2013lsob   1.66940
gfz2013lyko   0.41480
gfz2013mmwq   0.01960
gfz2013mnei  -1.04050
gfz2013mqik  -0.44030
gfz2013mqmv   0.44500
gfz2013mwbh  -0.28800
gfz2013mxee  -0.27220
gfz2013ncjp  -0.13450
gfz2013ndin  -0.03000
gfz2013neuc   0.03580
gfz2013nixj  -0.37590
gfz2013nkgj  -0.35750
gfz2013nknw   0.43660
gfz2013nmac  -0.32620
gfz2013nqgw   1.94910
gfz2013nuvi  -0.24190
gfz2013nwdi   0.14460
gfz2013oejn   0.18360
gfz2013ogde   0.43990
gfz2013oifr   0.92820
gfz2013oinc   0.49380
gfz2013oqsc  -0.41390
gfz2013orzn  -0.25230
gfz2013ozrp   0.13000
gfz2013pcos   0.57660
gfz2013pfbx   0.25630
gfz2013pfeb  -0.19430
gfz2013pffm  -0.22900
gfz2013pfnf  -0.09730
gfz2013poxj   0.04030
gfz2013pxsj  -0.12660
gfz2013qali   0.13790
gfz2013qesa  -1.71930
gfz2013qmer   0.12150
gfz2013qnxc  -0.02520
gfz2013qzdq   0.27800
gfz2013rait  -0.01940
gfz2013reym  -0.50060
gfz2013roki   0.93000
gfz2013rsnr  -0.68910
gfz2013sart  -0.16960
gfz2013sdus   0.22390
gfz2013sfto  -0.03670
gfz2013shzy  -0.08550
gfz2013sjhg   0.79320
gfz2013skkm  -0.11930
gfz2013snbr  -0.57650
gfz2013suvn   0.57970
gfz2013svci   0.84850
gfz2013tcbk   0.55340
gfz2013tcxq  -0.21840
gfz2013tdau  -0.11510
gfz2013tlaf  -0.62650
gfz2013toxf   0.61570
gfz2013tusd  -0.02660
gfz2013tvmw   0.04410
gfz2013txij  -0.21740
gfz2013txtb  -0.38180
gfz2013tyas  -0.30550
gfz2013uauo   0.17820
gfz2013ufxk  -1.49810
gfz2013ufxm   0.11290
gfz2013uqsp  -0.43260
gfz2013vexx   0.53240
gfz2013vfyw  -0.03870
gfz2013vfzp   0.60300
gfz2013viul  -0.24210
gfz2013vjjc  -1.01810
gfz2013vrmy  -0.05590
gfz2013vvrq   0.13000
gfz2013vzbo  -0.30630
gfz2013waam   0.15520
gfz2013wjmm  -0.73860
gfz2013wkyk  -1.48390
gfz2013wnpr  -0.48920
gfz2013xizq  -0.97910
gfz2013xklb   0.66170
gfz2013xsdt   0.09700
gfz2013xvxf   0.49420
gfz2013xxxq   0.43640
gfz2013yaig   0.74710
gfz2013yctg  -0.45380
gfz2013yhpk  -0.03110
gfz2013ylbx   0.07030
gfz2013yqkv   0.04940
gfz2013yrmc   0.06440
gfz2013yyhc   0.19950
gfz2013zjtw   0.19400
gfz2014aawc  -0.13790
gfz2014adoj  -2.10540
gfz2014afmx   0.07840
gfz2014ajlk   0.17830
gfz2014algk  -0.03700
gfz2014alwz  -0.10620
gfz2014ande  -0.09680
gfz2014atgw  -0.28430
gfz2014bagd  -0.02310
gfz2014bezu   0.16720
gfz2014bfng   0.27300
gfz2014bldx  -0.14150
gfz2014bmta  -0.07280
gfz2014bwue   0.67800
gfz2014bzxy   0.03550
gfz2014chdv   0.29670
gfz2014cmwb   0.14000
gfz2014cqyo   0.78760
gfz2014cvkm  -0.48710
gfz2014cvxx   0.09950
gfz2014czno  -0.44830
gfz2014czol  -1.07620
gfz2014czqi  -0.20450
gfz2014czua   0.09030
gfz2014dffd   0.37470
gfz2014dhxt   0.20420
gfz2014disp  -0.54940
gfz2014duqn   0.03530
gfz2014eght  -1.24550
gfz2014egwu   0.78210
gfz2014ehsf  -0.20960
gfz2014ekcr   0.10070
gfz2014ekdn   0.43540
gfz2014enhi  -0.14770
gfz2014eqpl  -2.39870
gfz2014ettc  -0.02370
gfz2014fcms  -2.23030
gfz2014fedd  -1.23330
gfz2014femz   0.16820
gfz2014fexu  -0.42790
gfz2014fgvi   0.11950
gfz2014fgvr   0.56640
gfz2014fgxt  -0.12350
gfz2014fgxz   0.32120
gfz2014fgyo   0.55270
gfz2014fgza   0.23520
gfz2014fhbd   0.37470
gfz2014fhdw   0.31340
gfz2014fhhp   0.64820
gfz2014fhjd   0.85130
gfz2014fhla  -0.46840
gfz2014fhlh   0.09610
gfz2014fhrq   0.34750
gfz2014fhsg  -0.00000
gfz2014fhwx   0.76010
gfz2014fimn   0.35630
gfz2014fjpb   0.82060
gfz2014fjzd  -0.17970
gfz2014fkmr  -0.56620
gfz2014fkmx  -0.26720
gfz2014fknp  -0.14340
gfz2014flfa   0.16970
gfz2014frdz   0.10950
gfz2014frel  -0.01670
gfz2014frez  -0.00000
gfz2014frwh   0.90670
gfz2014fszc   0.11710
gfz2014ftka   0.06240
gfz2014ftoc  -0.08320
gfz2014ftpw   0.53240
gfz2014ftrk  -0.21740
gfz2014furx   0.63750
gfz2014fusc   0.10030
gfz2014fusj   0.03400
gfz2014fusu   0.48740
gfz2014fuub  -0.50770
gfz2014fuup   1.23810
gfz2014fval   0.77360
gfz2014fvgh   0.46880
gfz2014fvpy   0.43700
gfz2014fvrg   0.35580
gfz2014fwyr   1.09600
gfz2014gbcz  -0.73360
gfz2014gbdq   0.76910
gfz2014geuy  -0.16630
gfz2014gezs   0.44020
gfz2014ghpe   0.21320
gfz2014gkgf  -0.41280
gfz2014gkgs  -0.13800
gfz2014gkhp  -0.65570
gfz2014gkhy  -0.43410
gfz2014gkjl   0.86560
gfz2014gkjt  -0.48250
gfz2014gkjw   0.10190
gfz2014gklq   0.80660
gfz2014gklv  -0.31730
gfz2014gkmm  -0.10580
gfz2014gkob  -0.11390
gfz2014gkok  -0.13730
gfz2014gkpd  -0.77110
gfz2014gkpj  -0.55440
gfz2014gkqf   0.56440
gfz2014gkqu   0.03560
gfz2014gksj  -0.20930
gfz2014gksu  -0.06920
gfz2014gktq  -0.00000
gfz2014gkut   0.37910
gfz2014gkxm   0.05160
gfz2014glcu   0.21520
gfz2014glcy  -0.35380
gfz2014glgo  -0.21950
gfz2014gltx   0.13530
gfz2014glvu  -0.47550
gfz2014gmci   0.44080
gfz2014gmge  -0.51250
gfz2014gmhp   1.81930
gfz2014gmhr  -0.08350
gfz2014gmic  -0.49640
gfz2014gmjo   0.57000
gfz2014gmku   0.83440
gfz2014gmlz   0.40540
gfz2014gmmk  -1.18630
gfz2014gmmt  -2.13260
gfz2014gmnb  -0.23630
gfz2014gmnw  -0.05720
gfz2014gmor  -0.03940
gfz2014gmpy   0.39930
gfz2014gmrj   1.45620
gfz2014gmtb   0.87850
gfz2014gmuk   0.06040
gfz2014gmvr   0.84070
gfz2014gmzl   0.45890
gfz2014gmzs  -0.72450
gfz2014gnfd   0.83410
gfz2014gngg   0.56040
gfz2014gnnt   0.66480
gfz2014gnxb   0.00000
gfz2014goba  -0.29700
gfz2014goei  -0.97840
gfz2014gogv   0.04190
gfz2014gohm  -0.67090
gfz2014goqw   0.34880
gfz2014gori   0.64100
gfz2014gpce   0.44850
gfz2014gphr  -0.11400
gfz2014gpqq  -6.20070
gfz2014gpuk  -0.27590
gfz2014gpvk   0.31360
gfz2014gpya  -0.15310
gfz2014gqbj   0.42320
gfz2014gqer  -0.01490
gfz2014gqiy   0.52830
gfz2014gqqz   0.05230
gfz2014gqve   0.19940
gfz2014gsqs   0.29620
gfz2014gull   0.21870
gfz2014gulp  -0.37900
gfz2014gumd   1.46860
gfz2014gutm  -0.82830
gfz2014gvhw   0.01610
gfz2014gvqj  -0.19360
gfz2014gvra  -0.90690
gfz2014gvrd   0.95700
gfz2014gwab   1.74640
gfz2014gwqj  -0.94890
gfz2014gxkh  -0.24110
gfz2014gxxh  -0.79810
gfz2014gxxo  -0.51960
gfz2014gyxd   0.66100
gfz2014hagb   0.98100
gfz2014hasj   0.03160
gfz2014hauo   0.12980
gfz2014hbjm   0.84460
gfz2014hbjz   0.64790
gfz2014hbqb  -0.10480
gfz2014hcmj   0.27500
gfz2014hfhl   0.53820
gfz2014hgqo   0.14190
gfz2014hjgh   0.34350
gfz2014hjgr   0.21440
gfz2014hjij   0.25770
gfz2014hjlx   0.03920
gfz2014hkcf   0.51470
gfz2014hkck   0.15070
gfz2014hmgf  -0.34910
gfz2014hocg   0.02510
gfz2014hphw   0.70260
gfz2014hqxs   0.35560
gfz2014hrft  -0.22750
gfz2014hrtn   1.06210
gfz2014hscz  -0.73520
gfz2014huaj   0.68690
gfz2014hzdy  -0.68860
gfz2014hzfw   0.39190
gfz2014hzgn   1.05340
gfz2014hzhe   0.37520
gfz2014iani   0.38290
gfz2014iava   0.27360
gfz2014icqt   0.14380
gfz2014ieam  -0.14000
gfz2014ifue   0.46510
gfz2014imnn   0.51920
gfz2014inbj  -0.53240
gfz2014iobd   0.22120
gfz2014irci   0.29270
gfz2014ircq   0.31340
gfz2014issk   0.90490
gfz2014isub  -0.19570
gfz2014itab   0.45950
gfz2014itbe   0.59830
gfz2014itgh   0.00000
gfz2014itjx  -0.10330
gfz2014itkw  -0.11830
gfz2014itpj   0.62410
gfz2014iuhq   0.81110
gfz2014jcjt  -0.37690
gfz2014jcmt   0.79070
gfz2014jjhc   0.12410
gfz2014jjln   0.10080
gfz2014jjqk   0.97240
gfz2014jnxm   0.22380
gfz2014jnyv  -0.09700
gfz2014jomw  -0.10750
gfz2014jpep   0.22940
gfz2014jpgu   0.78290
gfz2014jtfe  -0.17090
gfz2014jwmh   0.55930
gfz2014kbuk   0.20940
gfz2014khan  -0.08340
gfz2014khlk  -0.42480
gfz2014kjzb   0.84480
gfz2014kkhh   0.48580
gfz2014kmmt  -0.21800
gfz2014kndc   0.12970
gfz2014knks   0.05320
gfz2014knxs  -0.45310
gfz2014ksmz   0.52990
gfz2014kwrg   0.57820
gfz2014kyan   0.06360
gfz2014kytf   0.13960
gfz2014kzzm   1.46550
gfz2014lddn  -1.72830
gfz2014lefs   0.74750
gfz2014lgqn   0.33210
gfz2014lkyf   0.49160
gfz2014lnqy   0.15540
gfz2014lpim   1.07140
gfz2014lrzx   0.28840
gfz2014lurd  -0.17800
gfz2014lvgn  -0.19880
gfz2014lxnc   0.07500
gfz2014lxqr   1.46480
gfz2014lyhk   0.02280
gfz2014lyhp   0.52450
gfz2014lynp   0.24980
gfz2014macx   0.02880
gfz2014madw  -0.02790
gfz2014mcno   0.01160
gfz2014mlqw  -0.96530
gfz2014moaw  -0.23890
gfz2014mtum  -0.66640
gfz2014mwor   0.24340
gfz2014mxkr  -0.27180
gfz2014ncub   0.42700
gfz2014nowp  -0.30400
gfz2014npdk  -1.07120
gfz2014npeo  -0.43810
gfz2014nphm   0.01730
gfz2014nqfm   0.03900
gfz2014nrie  -0.13840
gfz2014nyeh   0.78700
gfz2014nyfb   0.82260
gfz2014nyko   0.30950
gfz2014nylm   0.10250
gfz2014odgv   0.30930
gfz2014oinz   0.16620
gfz2014orxs   0.38890
gfz2014oryw   0.36350
gfz2014owxc   0.13000
gfz2014oyly   0.07400
gfz2014pkll  -0.43330
gfz2014ppzf  -0.04620
gfz2014pqqp  -3.40530
gfz2014pvch  -0.03830
gfz2014pzni   0.34280
gfz2014qlxd   0.12080
gfz2014qngj  -0.13480
gfz2014qqhm  -0.15200
gfz2014raau   0.01770
gfz2014rbpx   0.93690
gfz2014rdsn  -0.15350
gfz2014riel  -0.20950
gfz2014rkwl  -0.21770
gfz2014romy   0.12820
gfz2014rtcu  -0.00000
gfz2014sadu   1.06420
gfz2014shid   0.11240
gfz2014sjqw   0.17000
gfz2014sptq  -0.62610
gfz2014ssmv  -0.22520
gfz2014ssvz  -0.23220
gfz2014szzf   0.06720
gfz2014tabg   0.42460
gfz2014tovs   0.02010
gfz2014tqdo  -0.07860
gfz2014tqsf  -0.06030
gfz2014tqth   1.23000
gfz2014tzsd   0.05620
gfz2014uapa   0.03230
gfz2014ubwn   0.50410
gfz2014udgg  -0.51820
gfz2014uohh   0.00820
gfz2014uvji   1.88240
gfz2014uvrk  -0.55130
gfz2014vhld   0.43670
gfz2014vhms   0.09450
gfz2014vjoz   0.56320
gfz2014vpus  -0.14200
gfz2014waoo  -0.88650
gfz2014watn  -0.17440
gfz2014wjko   0.26400
gfz2014wmsc   0.47240
gfz2014wrkh   0.29650
gfz2014wwib   0.43680
gfz2014xaxx   0.14050
gfz2014xbyr   0.39010
gfz2014xjri   0.36640
gfz2014xoji   0.88820
gfz2014xqby   0.20060
gfz2014xqqd   0.00580
gfz2014yhhm   0.41440
gfz2014ynhc  -3.58670
gfz2014ynzy  -0.67320
gfz2014yppv   0.18490
gfz2014yrug   0.57110
gfz2014yula   0.09360
gfz2014zkys  -0.44460
gfz2014zlgp  -0.14660
gfz2014zplq   0.03030
gfz2015abpw   0.00370
gfz2015apnk   0.09620
gfz2015aqav  -0.05450
gfz2015aqbq  -0.96810
gfz2015arpd   0.19760
gfz2015aruz  -0.00000
gfz2015atxv  -0.11310
gfz2015berb   0.51970
gfz2015bfjm  -0.06130
gfz2015bkbj  -0.09070
gfz2015bphe   1.17140
gfz2015bsnl   0.31780
gfz2015bucr  -3.12110
gfz2015bvsj   0.49700
gfz2015byfn   0.38210
gfz2015byjd   0.23630
gfz2015cewd   0.78320
gfz2015chhn   0.07220
gfz2015chqn   0.23570
gfz2015cxhx  -0.04920
gfz2015cxxk   0.41030
gfz2015cyjd   0.72320
gfz2015czfv  -0.34620
gfz2015dizn  -0.15980
gfz2015djts   0.25000
gfz2015drlk   1.31370
gfz2015dskr   0.63410
gfz2015dvbn   0.16500
gfz2015ecgq   0.68350
gfz2015ednc   0.78990
gfz2015eeyq   0.23570
gfz2015egxq   0.19200
gfz2015eiky   0.03260
gfz2015elgy  -0.17070
gfz2015eljz  -0.76260
gfz2015emtg   0.57050
gfz2015etai  -0.17320
gfz2015evpl  -0.02050
gfz2015fbbk  -0.02510
gfz2015fcua   0.42000
gfz2015fdpr   0.79510
gfz2015fjhk   0.49450
gfz2015fkgt   0.11270
gfz2015fkic   0.00000
gfz2015fkjs  -1.03030
gfz2015fkkd   0.28720
gfz2015flis   0.05170
gfz2015fpez   0.13480
gfz2015fsjj   0.46490
gfz2015fvoi   0.42760
gfz2015fxbv   0.14020
gfz2015fxdi  -0.20010
gfz2015gckd   0.14210
gfz2015gjbr   0.92640
gfz2015gkwa   0.59520
gfz2015gmgf   0.25880
gfz2015gnmy  -0.11980
gfz2015gzja  -0.20740
gfz2015hgbk   0.27440
gfz2015hlqo   0.47790
gfz2015hpmk   0.52120
gfz2015iele  -0.18500
gfz2015imty  -0.51000
gfz2015ixyy   0.08070
gfz2015jkdw  -0.01570
gfz2015jmlf   1.07440
gfz2015jmlu  -0.52580
gfz2015jwgl   0.12120
gfz2015jxbx  -0.09530
gfz2015jzcv  -0.59720
gfz2015kakw   0.15660
gfz2015kalm   0.23910
gfz2015kcaa   0.12360
gfz2015kfsu   0.04200
gfz2015kkqb   0.60860
gfz2015kkth   0.00000
gfz2015kphk   0.54370
gfz2015kquq   0.58480
gfz2015ksni  -0.18900
gfz2015kvwz   0.31110
gfz2015lfma   0.68670
gfz2015lhjq   0.99560
gfz2015lhjy   0.64120
gfz2015ltii  -0.14680
gfz2015ltro   0.82120
gfz2015lytv   0.08850
gfz2015lzad   0.00000
gfz2015mddr  -0.14840
gfz2015mhym   2.10920
gfz2015mpte  -0.00340
gfz2015nerz  -0.00000
gfz2015nqgf   0.09600
gfz2015nuxz   0.25700
gfz2015nwug  -0.64640
gfz2015ocdz   0.08940
gfz2015okmq   0.01780
gfz2015okpu   0.56900
gfz2015orkl   0.37680
gfz2015plal   0.11240
gfz2015poni   0.21090
gfz2015qisx   0.63960
gfz2015qnde  -0.99270
gfz2015qnho   0.12090
gfz2015qnto   0.03640
gfz2015qprd   0.17790
gfz2015qpvd  -0.05280
gfz2015quzo  -0.20470
gfz2015rgov   0.64500
gfz2015rgrg   0.36680
gfz2015rkrg  -0.21360
gfz2015rkzg  -0.08700
gfz2015rtnv   0.68280
gfz2015rwsb   0.01960
gfz2015rxmg   0.30560
gfz2015saet   0.52430
gfz2015sdeo  -0.03880
gfz2015sdfy  -0.12530
gfz2015sevh   0.37120
gfz2015sfdd   0.18200
gfz2015sfdl  -0.81830
gfz2015sfdy   0.33790
gfz2015sfeo  -0.25780
gfz2015sffn   0.32070
gfz2015sfga   0.20980
gfz2015sfho   0.77100
gfz2015sfhz  -0.17010
gfz2015sfiq  -0.42510
gfz2015sfkh  -0.34700
gfz2015sfks   0.69320
gfz2015sfkz  -0.10610
gfz2015sflf   0.23550
gfz2015sfnb   0.24560
gfz2015sfno  -0.04720
gfz2015sfnv  -0.14140
gfz2015sfoc  -0.18630
gfz2015sfoq   1.17300
gfz2015sfps  -0.05730
gfz2015sfqo  -1.51810
gfz2015sfqr  -0.34650
gfz2015sfrf   0.05860
gfz2015sfsi   0.52480
gfz2015sfte  -0.13570
gfz2015sftu   0.06540
gfz2015sfuz   0.14860
gfz2015sfwf   0.13870
gfz2015sfxn  -0.16210
gfz2015sfzm  -0.80320
gfz2015sgad   0.29660
gfz2015sgmr   0.44940
gfz2015sgxc   0.07870
gfz2015sgyd   0.84050
gfz2015shaq   0.22500
gfz2015shhg  -2.54560
gfz2015shhu  -0.25660
gfz2015shjn  -0.08640
gfz2015shjo   0.37070
gfz2015shqe  -0.49060
gfz2015shrg   0.04880
gfz2015shsz  -0.50440
gfz2015siky   0.57790
gfz2015sing  -0.13570
gfz2015sist   0.02720
gfz2015sitn   0.25420
gfz2015siyy  -0.43830
gfz2015sjbx   0.66130
gfz2015sjfi   0.22660
gfz2015sjgk  -0.31770
gfz2015sjjb  -0.51370
gfz2015sjne   0.67950
gfz2015sjoj   0.23080
gfz2015sjpn   0.48370
gfz2015sjvu   0.36170
gfz2015sjwi  -0.80280
gfz2015skab   0.00000
gfz2015skgj   0.44800
gfz2015sklu  -0.65820
gfz2015skpv  -0.36830
gfz2015skxu  -0.12880
gfz2015sldx   0.24860
gfz2015sljs   2.40380
gfz2015slun  -0.27710
gfz2015smym  -0.42990
gfz2015snmr  -0.41500
gfz2015snsf   0.25460
gfz2015snwh   0.26320
gfz2015snyd   0.02220
gfz2015soat   0.10980
gfz2015sopc   0.01740
gfz2015sowu   0.86610
gfz2015soxc   0.46170
gfz2015sqmy  -0.11510
gfz2015srat   0.40630
gfz2015stfy   0.61740
gfz2015stso   0.37830
gfz2015subz   0.32290
gfz2015svjy   0.58800
gfz2015svwm   0.33730
gfz2015sxmh  -0.56230
gfz2015sxxu   0.15500
gfz2015szcb   0.04730
gfz2015szfe  -0.56130
gfz2015sztx   0.17770
gfz2015taml   1.34240
gfz2015tbdn   0.08730
gfz2015tbxe   0.56000
gfz2015tdhb   0.16710
gfz2015teje  -0.51890
