# Nsamples: 151  MAD:  0.609  mean: -0.156  variance:  0.552
gfz2010cqwl  -0.09650
gfz2010czps  -0.20760
gfz2010eaoy  -0.42390
gfz2010eaqy   0.23420
gfz2010earu   0.26750
gfz2010eawu  -2.18270
gfz2010ebhc  -0.43000
gfz2010ecua  -0.29770
gfz2010eisx  -1.19190
gfz2010ekyc   0.05050
gfz2010erkn  -0.48860
gfz2010excp  -0.71560
gfz2010exdd   0.22600
gfz2010ezck  -2.15840
gfz2010fedq   0.97660
gfz2010ffhq  -1.43150
gfz2010fqdu   0.57370
gfz2010fync  -0.59990
gfz2010grjd   0.74140
gfz2010iull   0.68050
gfz2010mkuu   0.24240
gfz2010moyw   0.01700
gfz2010nmpc  -0.11050
gfz2010pfyu  -0.76260
gfz2010rkfp   0.03920
gfz2010sfee  -0.42280
gfz2010skqo   0.41380
gfz2010sysw   0.77340
gfz2010usho  -0.17750
gfz2011aatr  -0.26160
gfz2011bgrp   0.05870
gfz2011dpqx  -0.84330
gfz2011gkzt   0.44710
gfz2011hlqw  -0.94360
gfz2011hlsa  -0.65980
gfz2011jplh   0.33900
gfz2011lcxq   1.21000
gfz2011rewa  -0.88950
gfz2011rqui  -0.07350
gfz2011toub   0.19220
gfz2011wxfs   0.86860
gfz2011xyxj  -0.24660
gfz2012bpkx  -1.47460
gfz2012czlw   0.42750
gfz2012deri  -0.67450
gfz2012dyyh  -0.41510
gfz2012emjg   0.43240
gfz2012enno  -0.96610
gfz2012fzfa  -0.24160
gfz2012gomm   0.58710
gfz2012hnul  -0.99770
gfz2012jlox   0.62820
gfz2012jupx  -0.45820
gfz2012kkup  -0.75630
gfz2012klhx  -0.79370
gfz2012kuct  -0.75070
gfz2012kudo  -0.07410
gfz2012ldxg   0.12820
gfz2012ldzj   0.70600
gfz2012minr  -0.55930
gfz2012oazn  -0.16940
gfz2012rqlg  -0.79380
gfz2012teic  -0.07250
gfz2012ttoa  -1.08450
gfz2012tvmv  -0.26180
gfz2012uaqj  -0.36990
gfz2012vrgb  -0.19850
gfz2012wklq  -0.70040
gfz2012wmsg  -0.47990
gfz2013ccnr   0.09760
gfz2013drxz  -0.79400
gfz2013fkii  -0.48470
gfz2013jkut   0.42170
gfz2013kdeo  -0.48810
gfz2014bwue   0.02490
gfz2014bzxy  -0.83530
gfz2014czqi  -0.50180
gfz2014fgvi  -0.06760
gfz2014fhla  -0.43220
gfz2014fimn   0.18300
gfz2014fkmr   0.12680
gfz2014frez  -0.16010
gfz2014ftka  -0.13560
gfz2014ftoc  -2.60940
gfz2014furx   0.07900
gfz2014fusj   0.13530
gfz2014fval   0.92390
gfz2014fvrg  -0.98400
gfz2014gbcz  -2.34140
gfz2014ghpe   0.00000
gfz2014gkgf  -0.54070
gfz2014gkqf   0.68880
gfz2014gmge  -0.48330
gfz2014gmhr  -2.83200
gfz2014gmnb   0.55670
gfz2014gmnw   0.25260
gfz2014goba   0.56320
gfz2014gqer   2.11180
gfz2014gsqs   0.17910
gfz2014gull   0.54330
gfz2014gwab   1.13610
gfz2014hasj   0.16590
gfz2014hjgr  -0.05140
gfz2014hocg  -0.28570
gfz2014hqxs   0.02000
gfz2014jjhc   0.14550
gfz2014jjln   0.78770
gfz2014jpep   0.21860
gfz2014knks  -0.36990
gfz2014lxnc  -0.19360
gfz2014lyhk   0.10260
gfz2014macx   0.19060
gfz2014madw   0.03590
gfz2014ngvt  -0.65460
gfz2014nqfm   0.13930
gfz2014nrie   0.95180
gfz2014oinz  -0.03940
gfz2014pvch   0.20180
gfz2014qlxd   0.35810
gfz2014qqhm   0.57380
gfz2014rdsn   0.84260
gfz2014ssvz  -0.42850
gfz2014ubwn   0.69160
gfz2014vjoz  -0.20630
gfz2014yhhm  -0.16790
gfz2015aruz   0.12300
gfz2015berb   0.02300
gfz2015chhn  -0.44640
gfz2015cxxk  -0.45940
gfz2015cyjd  -0.69090
gfz2015egxq   0.02050
gfz2015fsjj   0.34810
gfz2015gckd   0.74040
gfz2015ggjw  -1.72480
gfz2015kxxs   0.78670
gfz2015lhjy   0.05590
gfz2015lytv  -2.05840
gfz2015mpte   0.57780
gfz2015okmq  -0.09180
gfz2015qnho  -0.39140
gfz2015rddx  -1.42940
gfz2015sfdd   0.06860
gfz2015sfdy   0.29450
gfz2015sfnb   0.88060
gfz2015sfno  -0.75710
gfz2015smym  -0.43470
gfz2015snwh  -0.66460
gfz2015soat  -0.02400
gfz2015soxc   0.17950
gfz2015svwm   0.24100
gfz2015taml   0.62220
