# Nsamples: 51  MAD:  0.851  mean: -0.241  variance:  1.233
gfz2012enno  -0.26720
gfz2012fzfa   0.32350
gfz2012intn   0.24780
gfz2012jlox  -0.09990
gfz2012kkup  -0.66800
gfz2012klhx  -0.78870
gfz2012lczo   1.91380
gfz2012minr  -0.52720
gfz2012ttoa  -1.24550
gfz2012wmkd   1.31310
gfz2012wypz  -0.07410
gfz2013mwbh   1.61410
gfz2013nkgj   0.37700
gfz2013nqgw   0.84770
gfz2013nwdi  -0.57510
gfz2013qmer  -0.27220
gfz2013svci   0.70990
gfz2013vjjc  -2.39620
gfz2013wjmm   0.29760
gfz2014ande  -0.68530
gfz2014atgw  -2.55250
gfz2014fgvi  -0.58710
gfz2014fhla  -1.40930
gfz2014fkmr  -0.10560
gfz2014fnyg  -0.29360
gfz2014ftka   1.06070
gfz2014gkgf  -0.19690
gfz2014gmhr  -0.46360
gfz2014gull  -0.19030
gfz2014gwab   1.14710
gfz2014gxxo  -1.09180
gfz2014hasj  -1.07640
gfz2014hocg  -0.46790
gfz2014jjhc  -0.95580
gfz2014nqfm   0.00800
gfz2014nrie   0.76230
gfz2014oinz  -0.22340
gfz2014qqhm   0.58150
gfz2014rdsn   1.59840
gfz2014ssvz   0.26060
gfz2015cyjd  -0.98620
gfz2015fsjj  -0.03970
gfz2015gckd   1.16360
gfz2015gjbr  -0.77810
gfz2015lhjy   0.03500
gfz2015lytv  -1.89160
gfz2015mpte   0.24650
gfz2015sfno  -1.47920
gfz2015sglg  -4.31190
gfz2015subg   0.45890
gfz2015svwm  -0.56800
