# Nsamples: 145  MAD:  0.964  mean:  0.487  variance:  1.396
gfz2010bjeb   2.17900
gfz2010bowy   2.43760
gfz2010cqwl   1.10010
gfz2010czps   3.45940
gfz2010dlgc   1.70680
gfz2010eaoy   0.25630
gfz2010eapk  -0.13550
gfz2010eaqe  -0.18020
gfz2010eaqx  -0.91680
gfz2010eaqy   0.45600
gfz2010earq  -0.47830
gfz2010earu  -1.57600
gfz2010easf   0.43390
gfz2010easo  -0.12430
gfz2010easu  -0.19120
gfz2010eati   0.59320
gfz2010eaul   1.00580
gfz2010eavd   0.27120
gfz2010eavs   0.93430
gfz2010eawb  -0.18570
gfz2010eawu  -1.26520
gfz2010eaxa   0.08170
gfz2010eaxn  -0.14330
gfz2010eayd   0.58690
gfz2010eayp  -0.72340
gfz2010eaze   0.40010
gfz2010eazu   0.83210
gfz2010ebbd   0.04710
gfz2010ebbx  -0.27760
gfz2010ebby  -1.03480
gfz2010ebdl  -0.75540
gfz2010ebeh   0.16090
gfz2010ebfa  -0.32330
gfz2010ebgj  -0.50970
gfz2010ebhc   2.58000
gfz2010ebih   1.20830
gfz2010ebin   0.37480
gfz2010ebiv  -1.52440
gfz2010ebjg   0.28460
gfz2010ebjy  -0.94480
gfz2010ebkj  -0.45050
gfz2010ebla  -0.53380
gfz2010ebll  -0.12030
gfz2010ebmb  -0.29270
gfz2010ebmi   0.06960
gfz2010ebnn   0.46990
gfz2010ebqt  -1.03260
gfz2010ebrm   0.55940
gfz2010ebsv  -0.34980
gfz2010ebvm  -0.29240
gfz2010ebwp  -0.31690
gfz2010ebxl  -0.08300
gfz2010ebzr   0.15470
gfz2010ecam   0.21900
gfz2010ecay   0.15550
gfz2010ehsy   0.05760
gfz2010eiqi  -1.11580
gfz2010eisx  -2.37120
gfz2010eixj  -0.40720
gfz2010ejjg  -1.28940
gfz2010ekoe   0.22140
gfz2010ekrv  -1.18380
gfz2010ensu  -0.34850
gfz2010eoao  -0.53530
gfz2010eomb   0.78170
gfz2010epbe   3.25220
gfz2010eujm  -1.88420
gfz2010gyqp   2.30030
gfz2010gzxr   1.43980
gfz2010hgld   0.23200
gfz2010hlln   1.57280
gfz2010hlmq   0.30110
gfz2010hnnf   0.21400
gfz2010hnpi   0.22880
gfz2010hptz   0.33290
gfz2010hxgv   0.04260
gfz2010icqq  -0.61250
gfz2010iibf   1.06740
gfz2010iobp   0.30610
gfz2010iqnm   0.22250
gfz2010iull   2.27670
gfz2010jpss  -0.22430
gfz2010jpyj  -0.76310
gfz2010jssh  -0.30620
gfz2010jtal   0.25150
gfz2010jxbm   0.16040
gfz2010kdyc  -0.04660
gfz2010mgss   0.28450
gfz2010mncc  -0.27210
gfz2010moyw   0.12930
gfz2010mpuy   0.22430
gfz2010muca   0.42260
gfz2010mwdq  -0.39850
gfz2010ncrl  -0.32650
gfz2010nfsj   0.57460
gfz2010nmpc   2.20490
gfz2010nqwf   0.01610
gfz2010nqwo   1.00730
gfz2010nrjo  -0.67790
gfz2010nsck   0.55900
gfz2010nwef   2.39280
gfz2010nzha   0.43710
gfz2010pxgh   1.13560
gfz2010qpvi   2.34750
gfz2010rqwj  -0.57760
gfz2010rywq   1.74040
gfz2010srdb  -0.38440
gfz2010svtn   2.08980
gfz2010tcrl   0.30100
gfz2010upfb  -0.75370
gfz2010upiw   0.36840
gfz2010usho   2.18820
gfz2010ustq   2.79670
gfz2010utcg  -0.09040
gfz2010utmc   0.77870
gfz2010veri   1.21400
gfz2010xgzw   0.70170
gfz2010xjsj   0.91520
gfz2010xxzn   1.45340
gfz2010yjev   0.39260
gfz2010yosr   2.32660
gfz2011tbas   0.31400
gfz2011toub   2.34520
gfz2011tpbl   2.05610
gfz2011ueni   2.21220
gfz2011vhfi   2.36780
gfz2011wtmq  -0.26410
gfz2011xyxj   3.25910
gfz2012ajtq   0.98980
gfz2012attr   1.88600
gfz2012bfah   1.91530
gfz2012bpkx   0.06030
gfz2012cxdn   0.11410
gfz2012ekzf   0.91330
gfz2012enno   2.33590
gfz2012hnul   1.36160
gfz2012ilvn   2.47210
gfz2012keor   0.17140
gfz2012kkup   1.75030
gfz2012klhx   2.18040
gfz2012thfx   1.08710
gfz2014czua  -2.29280
gfz2014ffdc   3.73080
gfz2014fgvz  -0.72280
gfz2014ubwn   2.41370
