# Nsamples: 11  MAD:  0.723  mean:  1.218  variance:  2.651
gfz2010eaoy   1.64890
gfz2010earu   1.16730
gfz2010eisx   1.78630
gfz2010eltf   3.97750
gfz2010excp   1.19510
gfz2011adjs   0.73510
gfz2013jusj   1.22270
gfz2013vjjc   2.50780
gfz2014jcjt   0.72710
gfz2015sfdd  -3.11690
gfz2015svwm   1.54700
