# Nsamples: 23  MAD:  1.177  mean:  0.253  variance:  1.227
gfz2010aykj   0.28350
gfz2010bhhq   1.81640
gfz2010eaoy   0.67240
gfz2010elyc  -1.68160
gfz2010excp  -0.41260
gfz2010exdd   1.99620
gfz2010fcyj  -0.46900
gfz2010fdab   0.78320
gfz2010ndxl  -1.88130
gfz2010rqwj  -0.54380
gfz2011kwjx   0.62940
gfz2011rewa   1.20890
gfz2012wklq   0.15100
gfz2012wmkd   1.07200
gfz2012wrir   1.44640
gfz2013pxsj  -1.34380
gfz2013vjjc   2.00550
gfz2014ekcr  -1.10000
gfz2014fhxm  -0.11290
gfz2014hiiz   0.18450
gfz2015lytv  -0.63380
gfz2015sfdd   1.07760
gfz2015sfmd   0.66370
