# Nsamples: 333  MAD:  0.420  mean: -0.041  variance:  0.276
gfz2012sphd   0.29820
gfz2012thfx  -0.06060
gfz2012tvmv  -0.26270
gfz2012tzcc   0.19730
gfz2012uafg   0.31940
gfz2012uaqj  -0.08180
gfz2012uciv   0.01420
gfz2012uhup   0.36390
gfz2012uxnz   0.40060
gfz2012uzom  -0.82750
gfz2012uzyj  -0.85720
gfz2012vdbt   0.96660
gfz2012vrgb  -0.17730
gfz2012wklq   0.13410
gfz2012wmkd   0.12360
gfz2012wmsg  -0.14590
gfz2012wtkh  -0.36440
gfz2012wtkr   0.38720
gfz2012wubh  -0.48520
gfz2012wvfl  -0.42390
gfz2012wxlg   0.04020
gfz2012wypz   0.52320
gfz2012xwqa   1.13500
gfz2012yfrp   0.57210
gfz2012yzod   0.60700
gfz2012zemz  -0.14580
gfz2012zmbp   0.14600
gfz2012zmln  -0.30120
gfz2013aahq  -0.50050
gfz2013adey  -0.17900
gfz2013aeee   0.24140
gfz2013apmm   0.21260
gfz2013bnxc   0.55110
gfz2013bobq  -0.05720
gfz2013btjm  -0.43370
gfz2013ccnr   0.41270
gfz2013cdan  -0.19400
gfz2013cwps  -0.09650
gfz2013enbx   0.16900
gfz2013fiud  -0.34100
gfz2013fkii   0.10660
gfz2013flox  -0.34410
gfz2013fygc   0.02670
gfz2013gbst   0.11890
gfz2013gcfx  -0.58680
gfz2013gdnq  -0.09710
gfz2013gelv   0.87170
gfz2013gngz   0.15330
gfz2013hfmp  -0.06030
gfz2013hmbc   0.17890
gfz2013hzdp   1.55550
gfz2013idbb   0.12910
gfz2013ihcj   0.16480
gfz2013ikgo   0.41140
gfz2013ilug  -0.11640
gfz2013iodt   0.13510
gfz2013iunn   0.00000
gfz2013iyqz   0.12200
gfz2013jdrx   0.12580
gfz2013jgip  -0.00000
gfz2013jjsi  -0.59060
gfz2013jkut   0.32090
gfz2013jlst  -1.51610
gfz2013jusj  -1.12740
gfz2013kvtk  -0.95640
gfz2013kweg   0.28690
gfz2013lajn   0.18310
gfz2013ldos  -0.75580
gfz2013lgnl  -0.26370
gfz2013lgxc  -0.17930
gfz2013lsob   0.36810
gfz2013lwao  -0.22970
gfz2013lwbk   0.65310
gfz2013lxyn   0.45700
gfz2013mvgr   0.25030
gfz2013nknw  -0.10340
gfz2013nlxz  -0.66600
gfz2013nnzf   0.40840
gfz2013nojf  -0.76430
gfz2013nwdi   0.28300
gfz2013oqsc  -0.10730
gfz2013orzn  -0.00000
gfz2013ozqm   0.35580
gfz2013pcos  -0.39670
gfz2013pfbx   0.40160
gfz2013pffm   0.57180
gfz2013puag  -0.04310
gfz2013pupd   0.05540
gfz2013pxsj   0.10400
gfz2013qmer  -0.31080
gfz2013rrza   0.60620
gfz2013saez   0.01510
gfz2013scai   0.57780
gfz2013sdus   0.01100
gfz2013shlq  -0.92250
gfz2013shzy  -0.85810
gfz2013sjhg  -1.34170
gfz2013skkm  -0.37170
gfz2013snbr  -0.12960
gfz2013sred   0.20020
gfz2013svci  -0.17130
gfz2013svqv   0.30280
gfz2013tdkk   0.48660
gfz2013toea  -0.14680
gfz2013tqbb   0.55380
gfz2013tusd  -0.08270
gfz2013tuzv  -0.37130
gfz2013twwf   0.04860
gfz2013txtb  -0.43790
gfz2013tyas  -0.09290
gfz2013ufku  -0.21900
gfz2013ufxm   1.38760
gfz2013uqsp   0.24250
gfz2013vdic  -0.65950
gfz2013vfyw  -0.11090
gfz2013vfzp   0.29240
gfz2013vgev  -0.17310
gfz2013vgpf   0.70510
gfz2013vgrk   0.28500
gfz2013vhnk   0.51800
gfz2013vhzu  -0.49960
gfz2013viul  -0.70190
gfz2013vjfe  -1.35190
gfz2013vjjc  -1.47350
gfz2013vsbl   0.12470
gfz2013vvjh  -0.37000
gfz2013walq  -0.14520
gfz2013wbyr  -1.23280
gfz2013wjmm  -0.57540
gfz2013wqhq  -2.93060
gfz2013wtzl   0.26070
gfz2013wuon   0.55660
gfz2013xmul   0.04550
gfz2013xsdt  -0.04850
gfz2013xtwj   0.79630
gfz2013xvqd   0.75150
gfz2013xwxn   0.90510
gfz2013xwzd   0.24080
gfz2013xxcc   0.76710
gfz2013xxwv  -0.50060
gfz2013xxxq  -0.35180
gfz2013xyzb  -0.03200
gfz2013xzcg  -0.20900
gfz2013yaig  -0.63530
gfz2013yhpk  -0.16310
gfz2013ylbx  -0.48810
gfz2013ypdc   0.19280
gfz2013yyti  -0.07040
gfz2014aawc  -0.10750
gfz2014adoj  -0.20140
gfz2014agyz  -0.43980
gfz2014alwz   0.06790
gfz2014aqbk   0.26770
gfz2014arpf  -0.64190
gfz2014atbl  -0.50430
gfz2014atgw  -0.24770
gfz2014bekc   0.58260
gfz2014bfqo   0.04900
gfz2014bhhv   0.45080
gfz2014bjgt  -0.05250
gfz2014bldx  -0.00230
gfz2014bmfv  -0.06450
gfz2014cbtl  -0.79470
gfz2014cgog  -0.36070
gfz2014cqyo   0.09460
gfz2014cvkm  -0.48370
gfz2014czua  -0.67630
gfz2014dcdy  -0.20610
gfz2014dddc  -1.18660
gfz2014dhxt  -0.11190
gfz2014disp   0.29980
gfz2014ebmc   0.37890
gfz2014ejmt  -0.07660
gfz2014ekdn   0.05440
gfz2014ekdt  -0.13580
gfz2014enhi  -0.16150
gfz2014etqa   0.17830
gfz2014ffdc  -0.75960
gfz2014fgvi   0.30000
gfz2014fgvz   0.24050
gfz2014fhla   0.01730
gfz2014fjzd   0.91360
gfz2014foio  -0.25170
gfz2014frdz  -1.12700
gfz2014frel   0.98650
gfz2014ftoc   0.44600
gfz2014ftpw   0.05230
gfz2014fvaa  -1.11700
gfz2014fxhd  -1.10710
gfz2014hyal  -1.27580
gfz2014hyvq  -0.02750
gfz2014hzdy   0.20230
gfz2014hzfw  -0.12090
gfz2014hzgn  -1.56770
gfz2014hzhe   0.29660
gfz2014icqt  -0.29670
gfz2014ieam   0.07110
gfz2014igur  -0.37360
gfz2014ilwu  -0.08950
gfz2014immt  -0.17420
gfz2014inbj   0.01970
gfz2014iobd   0.00000
gfz2014issk  -0.23790
gfz2014isys  -0.20430
gfz2014itpj   1.27690
gfz2014iwnf  -0.07830
gfz2014nylm  -0.25520
gfz2014qbzi  -0.02780
gfz2014qcxs  -0.19820
gfz2014qdog   0.50070
gfz2014raau  -0.16020
gfz2014rbpx  -0.55680
gfz2014rbsl   0.39430
gfz2014rfeb  -0.32670
gfz2014rghp  -0.24470
gfz2014rils  -0.26320
gfz2014roba  -0.30980
gfz2014ryfb  -0.20760
gfz2014szzf  -0.10070
gfz2014tute  -0.42830
gfz2014uvji  -0.80240
gfz2014uvrk   0.20850
gfz2014wrkh   0.48360
gfz2014yula   0.76830
gfz2015azzp  -0.32460
gfz2015bohx   0.38180
gfz2015byfn   0.32290
gfz2015byjd  -0.77040
gfz2015chhn   0.20460
gfz2015elgy   0.21220
gfz2015eljz   0.59130
gfz2015emin   0.05430
gfz2015enth   0.04800
gfz2015etai   0.00080
gfz2015fcua   0.64380
gfz2015fjhk   0.39120
gfz2015fkgt   0.50520
gfz2015fsjj   0.68440
gfz2015fwkq  -0.12250
gfz2015gkwa  -0.15560
gfz2015guhd  -0.50600
gfz2015gwao   0.35650
gfz2015gzja  -0.95900
gfz2015hepg  -0.18790
gfz2015hgbk   0.38580
gfz2015jmlu  -0.20950
gfz2015kfsu   0.30460
gfz2015kxxs   0.85610
gfz2015lhjy   0.35840
gfz2015lytv  -1.06170
gfz2015mhym  -0.49000
gfz2015ocdz  -0.30240
gfz2015ofsr   0.04310
gfz2015ojut   0.04790
gfz2015opjp  -0.05300
gfz2015pdri   0.11830
gfz2015pgxa  -0.27730
gfz2015pjgr   0.08020
gfz2015poni  -0.11030
gfz2015qisx   0.30680
gfz2015qnho   0.13380
gfz2015qpvd   0.32080
gfz2015sfdd   0.43750
gfz2015sfdl   0.43560
gfz2015sfdv  -0.14400
gfz2015sfeo  -0.17520
gfz2015sfkh  -0.44440
gfz2015sfko  -0.42640
gfz2015sfno  -0.58460
gfz2015sfnv  -0.02870
gfz2015sfoh  -0.10250
gfz2015sfoq  -0.02060
gfz2015sfpj  -0.93850
gfz2015sfps   0.32400
gfz2015sfrc  -0.05330
gfz2015sfrf  -0.05390
gfz2015sfrv  -0.97230
gfz2015sfte   0.18090
gfz2015sftu   0.10030
gfz2015sfuz  -0.33390
gfz2015sfwf  -0.08940
gfz2015sfzm  -0.38560
gfz2015sgdj  -0.14830
gfz2015sgdn   0.05480
gfz2015sgey   0.33580
gfz2015sggc  -0.21410
gfz2015sghq  -0.21400
gfz2015sgie   0.27560
gfz2015sglg  -0.28870
gfz2015sgmm   0.15990
gfz2015sgmr  -0.08700
gfz2015sgoa  -0.55350
gfz2015sgpu  -0.02030
gfz2015sgyd   0.26200
gfz2015shel  -0.00000
gfz2015shhg   0.00260
gfz2015shov   1.40510
gfz2015shqc  -0.46560
gfz2015shsz   0.50030
gfz2015sicu   0.06880
gfz2015siem   0.06920
gfz2015sixs  -0.04420
gfz2015siyy   0.19300
gfz2015sjbx  -0.35910
gfz2015sjoj  -0.16940
gfz2015sjtz  -0.11560
gfz2015sjwi  -0.87030
gfz2015skab   0.67670
gfz2015skhf   0.95850
gfz2015skia   0.27160
gfz2015sklu   0.48830
gfz2015snwh  -0.69980
gfz2015sopc  -0.00230
gfz2015soxc   0.21690
gfz2015spal   0.01840
gfz2015sqmy   0.23760
gfz2015sqvx   0.17870
gfz2015sqwv   0.10200
gfz2015sqyh  -0.31530
gfz2015srat  -0.04460
gfz2015srgf  -0.01870
gfz2015srxe   1.46750
gfz2015srxm  -0.22910
gfz2015ssoe  -0.52650
gfz2015ssrl   0.12440
gfz2015stcv   0.46850
gfz2015stso   0.43750
gfz2015subg  -1.54500
gfz2015supa   0.66110
gfz2015svwm   0.48800
gfz2015sxgd  -0.17300
gfz2015sxmh   0.32700
gfz2015szcb  -0.45290
