# Nsamples: 175  MAD:  0.480  mean: -0.044  variance:  0.513
gfz2012sphd   0.20140
gfz2012svpr   0.41230
gfz2012tvmv  -0.06680
gfz2012uafg   0.23070
gfz2012uaqj  -0.10040
gfz2012uhup   0.53150
gfz2012uxnz   0.11900
gfz2012uzyj  -1.01090
gfz2012vrgb  -0.08830
gfz2012wklq   0.27220
gfz2012wtkr   0.17330
gfz2012wypz   0.49100
gfz2012yzod   0.56360
gfz2012zemz  -0.76120
gfz2013adey  -0.28250
gfz2013apmm  -0.07390
gfz2013bnxc   0.74390
gfz2013bouj  -0.72750
gfz2013ccnr   0.40820
gfz2013fiud   0.00410
gfz2013fkii  -0.63110
gfz2013gbcn  -0.80180
gfz2013gdnq  -0.14070
gfz2013gelv   2.10070
gfz2013hisv  -0.59300
gfz2013hmbc   0.05560
gfz2013idbb   0.42780
gfz2013jdrx   0.19690
gfz2013jgip   0.89610
gfz2013jkut   0.53700
gfz2013jusj   0.39570
gfz2013lgnl   0.35460
gfz2013lwao  -0.94440
gfz2013lxyn   0.66510
gfz2013mvgr  -0.10340
gfz2013nknw  -0.05260
gfz2013nojf  -0.33120
gfz2013pfbx   0.28680
gfz2013puag  -0.30320
gfz2013pupd   0.06450
gfz2013pxsj   0.07160
gfz2013qmer   0.25190
gfz2013saez   0.05430
gfz2013sdus  -0.00030
gfz2013shlq  -0.53810
gfz2013sjhg   0.06590
gfz2013skkm  -0.02420
gfz2013snbr   0.17640
gfz2013snyf  -0.08550
gfz2013svci   0.13680
gfz2013toea  -0.58420
gfz2013tusd   0.12190
gfz2013tuzv  -0.89000
gfz2013txtb  -0.50680
gfz2013umya   0.20670
gfz2013uqsp   0.26490
gfz2013vfyw  -0.11220
gfz2013vfzp  -1.18160
gfz2013vgpf   0.29930
gfz2013vgrk   0.05240
gfz2013vhnk   0.56340
gfz2013viul  -0.55970
gfz2013vjfe   0.19190
gfz2013vjjc  -1.59180
gfz2013vsxi   0.46760
gfz2013wjmm  -0.86750
gfz2013wtzl   0.29410
gfz2013xmul  -0.21050
gfz2013xsdt  -0.14460
gfz2013ylbx  -0.64390
gfz2013ypdc  -0.24200
gfz2013yulx   0.55400
gfz2013yyti   0.20400
gfz2013ziyr  -3.45320
gfz2013zmtb   1.87120
gfz2014aawc  -0.20020
gfz2014arpf  -0.49600
gfz2014atgw   0.08690
gfz2014bldx   0.01380
gfz2014caop  -0.05450
gfz2014cgog  -0.32640
gfz2014cqyo   0.38790
gfz2014cvkm  -0.54660
gfz2014dcdy   0.10980
gfz2014dpzx  -0.08840
gfz2014ekdn  -0.50100
gfz2014ekdt   0.21500
gfz2014fgvi   1.55390
gfz2014fhla   2.77550
gfz2014fjzd  -2.09920
gfz2014foio  -0.42250
gfz2014frdz  -0.54480
gfz2014frel   0.89240
gfz2014fsuh  -2.05830
gfz2014ftoc   0.56190
gfz2014fuub  -1.24200
gfz2014fxhd  -3.47720
gfz2014hzfw  -0.30970
gfz2014ieam   0.00000
gfz2014isys   0.52220
gfz2014nylm  -0.14650
gfz2014okjw   0.67920
gfz2014pjum  -1.10460
gfz2014ppyi  -0.40490
gfz2014qcxs  -0.08220
gfz2014raau  -0.28180
gfz2014rbpx   0.29210
gfz2014rbsl   0.38460
gfz2014rfeb  -0.23570
gfz2014rils   0.03110
gfz2014rkwl   0.02100
gfz2014szzf   0.16320
gfz2014tute   0.27330
gfz2014uvji  -1.01760
gfz2014wrkh   0.24470
gfz2015chhn   0.44920
gfz2015elgy   0.42170
gfz2015emin   0.70540
gfz2015enth  -0.04810
gfz2015etai  -0.20720
gfz2015fjhk   0.35520
gfz2015fsjj   1.03050
gfz2015gwao   0.11420
gfz2015hepg  -0.40460
gfz2015hgbk   1.00920
gfz2015kfsu   0.60730
gfz2015kxxs   0.19290
gfz2015mhym  -0.85600
gfz2015ocdz   0.02170
gfz2015opjp  -0.03800
gfz2015pdri   0.47970
gfz2015pgxa  -0.47310
gfz2015pjgr   0.12400
gfz2015poni  -0.15720
gfz2015sfdd   0.13290
gfz2015sfdh  -0.91680
gfz2015sfdv  -0.32330
gfz2015sfeo   0.04180
gfz2015sfpj  -0.44900
gfz2015sfwf  -0.96760
gfz2015sfzm  -0.23970
gfz2015sgdj  -0.49470
gfz2015sgdn   0.10330
gfz2015sgey   0.56440
gfz2015sghq   0.02370
gfz2015sgie   0.24190
gfz2015sglg  -0.55350
gfz2015sgmr  -0.44960
gfz2015sgoa  -0.61100
gfz2015sgpu  -0.06430
gfz2015sgyd  -0.10680
gfz2015shel   0.26140
gfz2015shhg  -0.43290
gfz2015shrg   0.12870
gfz2015sicu  -0.34200
gfz2015siem   0.03730
gfz2015siyy   0.14700
gfz2015sjbx  -0.38200
gfz2015sjtz   0.59770
gfz2015sjwi  -0.73100
gfz2015skab   0.17690
gfz2015snwh  -0.16400
gfz2015sopc   0.12840
gfz2015soxc   0.12210
gfz2015sqmy  -0.12620
gfz2015sqvx   0.45570
gfz2015srat   0.41010
gfz2015srxe   1.60880
gfz2015ssoe  -0.27070
gfz2015ssrl   0.07080
gfz2015stso   0.06650
gfz2015supa   0.24120
gfz2015svwm   0.20820
gfz2015sxmh   0.49030
gfz2015szcb  -0.58690
