# Nsamples: 45  MAD:  0.516  mean: -0.266  variance:  0.613
gfz2010bxxs  -0.66010
gfz2010cqwl   0.92110
gfz2010ebhc  -0.69780
gfz2010grjd  -0.26510
gfz2010iull  -0.00000
gfz2010nmpc   0.02170
gfz2011aatr   0.01280
gfz2011enva   0.24450
gfz2011hlqw   0.24740
gfz2011hlsa   0.04700
gfz2011lcxq   0.48830
gfz2011lzwj   0.02150
gfz2011rewa   0.34070
gfz2011toub   0.02460
gfz2011wxfs  -0.27390
gfz2012enno   0.14480
gfz2012jlox   0.06960
gfz2012kkup  -0.24200
gfz2012klhx  -0.13200
gfz2012kudo  -0.27990
gfz2012ldxg   0.56930
gfz2012ttoa   1.15110
gfz2012wypz  -0.02430
gfz2013jkut  -1.50670
gfz2013kdeo  -2.01000
gfz2013pfbx  -1.86540
gfz2014ande  -0.86330
gfz2014bwue  -0.01230
gfz2014fgvi  -0.17960
gfz2014fhla   0.42510
gfz2014ftka   0.13130
gfz2014gkgf  -1.64570
gfz2014gkhy  -1.02450
gfz2014gkqf  -0.38600
gfz2014gmge   0.01370
gfz2014gmhr   1.16430
gfz2014gmnb  -0.84800
gfz2014gmnw  -0.91100
gfz2014goba   0.26320
gfz2014hasj  -1.04540
gfz2014jpep  -2.69560
gfz2014nqfm  -0.49110
gfz2014ssvz   0.32380
gfz2015fsjj  -0.41680
gfz2015lhjy  -0.12670
