# Nsamples: 33  MAD:  0.831  mean: -0.113  variance:  1.832
gfz2010nmpc  -0.29090
gfz2011aatr  -0.38620
gfz2011enva  -0.37230
gfz2011gkzt  -3.13370
gfz2011hlsa   0.40650
gfz2011rewa  -0.07950
gfz2011toub  -0.10320
gfz2011wxfs  -0.77130
gfz2012enno  -0.15400
gfz2012jlox  -0.26620
gfz2012kkup  -0.25210
gfz2012ldxg   0.15520
gfz2012ldzj   3.73070
gfz2012teic   2.30150
gfz2012ttoa   1.77690
gfz2012vrgb   0.15490
gfz2012wypz  -0.26500
gfz2013kdeo   0.41500
gfz2013nwdi  -0.10570
gfz2014bwue  -0.69580
gfz2014fgvi  -0.79510
gfz2014fhla   1.10040
gfz2014ftka   0.72790
gfz2014gkgf  -1.68110
gfz2014goba   0.63470
gfz2014ifzj  -1.85660
gfz2014nqfm  -2.25200
gfz2014qqhm  -3.14170
gfz2014ssvz   0.24810
gfz2015cyjd   0.91980
gfz2015lhjy  -0.52360
gfz2015mpte  -0.33060
gfz2015taml   1.13980
