# Nsamples: 552  MAD:  0.516  mean: -0.108  variance:  0.621
gfz2013lyko   0.30580
gfz2013mghe   1.46300
gfz2013mnei   2.42850
gfz2013mqmv  -2.70530
gfz2013mwbh  -0.28410
gfz2013mxee  -0.08130
gfz2013nabl   1.73400
gfz2013ndin   0.28070
gfz2013neuc  -1.24340
gfz2013nfwx   0.30560
gfz2013nixj  -0.09130
gfz2013njnd   0.21970
gfz2013nkgj   0.21610
gfz2013nmac   0.39580
gfz2013nqgw  -1.24660
gfz2013nuvi  -0.48760
gfz2013nvdj  -1.30010
gfz2013nwdi  -0.51730
gfz2013oejn  -0.23650
gfz2013ogde   0.25940
gfz2013oqsc  -0.44020
gfz2013orjg  -0.04600
gfz2013ozrf  -0.67830
gfz2013ozrp  -0.10810
gfz2013pakq   1.78410
gfz2013pfbx  -0.30700
gfz2013pfeb  -0.95200
gfz2013pffm  -0.10050
gfz2013phef  -0.05050
gfz2013pkbs   0.91280
gfz2013puag   0.05540
gfz2013pxsj   0.36310
gfz2013qali   0.36980
gfz2013qesa  -0.87410
gfz2013qidm  -0.97890
gfz2013qmer  -0.28730
gfz2013qnxc   0.36010
gfz2013qzdq  -1.10170
gfz2013rait  -1.06540
gfz2013reav  -1.33250
gfz2013reym   1.08860
gfz2013roki   0.02030
gfz2013rsnr   0.49440
gfz2013toxf  -1.27410
gfz2013tusd  -0.42280
gfz2013tvmw  -0.39590
gfz2013txij  -0.85150
gfz2013ufxk   1.30100
gfz2013uqsp  -0.51390
gfz2013utsh   0.03480
gfz2013uuzn  -0.75550
gfz2013uxej  -0.45640
gfz2013vexx  -0.42010
gfz2013vfyw   0.26370
gfz2013vfzp  -0.89060
gfz2013vgau   1.66480
gfz2013vgev   1.00180
gfz2013vhzu   0.07660
gfz2013viul  -0.99440
gfz2013vjjc  -1.00380
gfz2013vlth  -1.19740
gfz2013vvjh  -0.39270
gfz2013vvrq  -0.19930
gfz2013vzbo  -0.24160
gfz2013waam  -0.14490
gfz2013wjmm  -0.56420
gfz2013wkyk   0.88460
gfz2013wmfd  -2.29430
gfz2013xizq   0.10730
gfz2013xmul  -2.35430
gfz2013xsdt   0.48380
gfz2013xvqd   0.83690
gfz2013xwda  -0.69140
gfz2013xxxq  -2.41450
gfz2013yach  -1.27370
gfz2013yctg  -0.85420
gfz2013yghj   0.88570
gfz2013ylbx  -0.82620
gfz2013ymky  -0.18910
gfz2013yqkv  -0.14010
gfz2013yyhc  -1.89810
gfz2013yyti   0.07590
gfz2013zmoc  -0.69920
gfz2014abgd  -0.17610
gfz2014adoj   0.06420
gfz2014afmx   0.29840
gfz2014agde  -0.16660
gfz2014ajlk   0.15750
gfz2014ajtf  -0.04090
gfz2014algk  -0.68970
gfz2014alwz   0.02340
gfz2014ande  -0.14670
gfz2014ared  -0.48600
gfz2014arpf  -3.05350
gfz2014arqr  -0.41680
gfz2014bagd  -0.57470
gfz2014bbro  -2.24300
gfz2014bezu  -0.16590
gfz2014bfng  -0.15890
gfz2014bhvd  -0.19720
gfz2014bldx   0.26410
gfz2014bmta  -0.26810
gfz2014bwue  -2.41800
gfz2014cbtl   0.89230
gfz2014cgog  -0.87640
gfz2014chdv  -0.64610
gfz2014citw  -0.36480
gfz2014clnq   0.15570
gfz2014cmwb   0.02120
gfz2014ctot  -0.07780
gfz2014cvkm  -1.18820
gfz2014cvxx   0.23270
gfz2014czol   0.54930
gfz2014czqi   0.11150
gfz2014czua   0.12430
gfz2014dddc  -1.22860
gfz2014dffd   0.15790
gfz2014dhxt   0.43600
gfz2014disp   0.13030
gfz2014fnbh   1.10330
gfz2014fnyg  -0.12950
gfz2014foio  -0.39750
gfz2014frdz  -0.38190
gfz2014frez  -0.22370
gfz2014frgm   0.00000
gfz2014frjr   0.39980
gfz2014frwh  -0.02330
gfz2014fsuh   0.42030
gfz2014fszc   0.52610
gfz2014ftgx   0.26200
gfz2014ftka  -0.35300
gfz2014ftrk  -0.81970
gfz2014furx  -1.30780
gfz2014fusc   0.33020
gfz2014fusj   0.02220
gfz2014fuub  -0.42320
gfz2014fuup   1.30380
gfz2014fuzi  -0.31290
gfz2014fval  -0.30140
gfz2014fvdx   0.98690
gfz2014fvgh  -0.18280
gfz2014fvjl   0.28260
gfz2014fvpy   0.21280
gfz2014fvrg  -0.74310
gfz2014fvve   0.29730
gfz2014fwdr   0.15400
gfz2014fwyr   0.28040
gfz2014fxpu   0.47750
gfz2014gbcz  -0.34710
gfz2014gbdq  -2.32460
gfz2014gcza  -0.37030
gfz2014geuy   0.29140
gfz2014gezs   0.03200
gfz2014gfdj  -1.65100
gfz2014gkgf  -0.52610
gfz2014gkhp   1.78120
gfz2014gkjl  -1.04660
gfz2014gkjw  -0.20600
gfz2014gkjy   1.39330
gfz2014gklq  -0.31330
gfz2014gklv  -0.13040
gfz2014gkmm   0.10410
gfz2014gkmw  -1.21420
gfz2014gkob   0.02830
gfz2014gkok   0.12310
gfz2014gkpd   0.01880
gfz2014gkpj   0.10440
gfz2014gkqf  -1.98780
gfz2014gkqu  -1.56830
gfz2014gksu  -0.44650
gfz2014gktn  -1.92880
gfz2014gktq   0.11170
gfz2014gkut   0.03950
gfz2014gkvk  -0.61150
gfz2014gkxm  -0.64920
gfz2014glcu  -0.10720
gfz2014glcy   0.74560
gfz2014glov   0.09290
gfz2014glsh   0.24270
gfz2014gltx  -0.07190
gfz2014glvn  -0.73640
gfz2014glvu   0.88360
gfz2014gmci   0.23660
gfz2014gmge  -0.51360
gfz2014gmhp  -0.68430
gfz2014gmhr  -1.05930
gfz2014gmip  -0.29000
gfz2014gmjo   0.18370
gfz2014gmku   0.15840
gfz2014gmlz   0.67500
gfz2014gmmk  -0.25780
gfz2014gmmt   0.80840
gfz2014gmnb  -0.32350
gfz2014gmnw  -0.26290
gfz2014gmpy   0.27680
gfz2014gmtb   0.10830
gfz2014gmuk  -0.28100
gfz2014gmzl  -0.90180
gfz2014gnmp  -0.07220
gfz2014gnre  -0.33130
gfz2014gnxb   0.03390
gfz2014goba  -0.17930
gfz2014goei   0.29660
gfz2014gogv   0.22020
gfz2014gpce   0.54600
gfz2014gutm   1.63410
gfz2014gvhw   1.31750
gfz2014gvqj  -0.74640
gfz2014gvra  -0.82340
gfz2014gvrd  -0.52450
gfz2014gwab  -1.15220
gfz2014gxkh  -0.30970
gfz2014gxqu  -0.66800
gfz2014gxxh   1.05470
gfz2014gxxo  -0.01030
gfz2014gzrm   0.55330
gfz2014hasj   0.39490
gfz2014hauo   1.17010
gfz2014hbjz  -0.27740
gfz2014hbqb  -0.36490
gfz2014heum  -1.21730
gfz2014heyq  -0.34870
gfz2014hfad   0.13220
gfz2014hfhl  -0.10570
gfz2014hgqo   0.11720
gfz2014hhwx   0.92200
gfz2014hifp  -1.50480
gfz2014hiih   0.15370
gfz2014hjgr  -0.46670
gfz2014hjij  -0.12370
gfz2014hjlx   1.02270
gfz2014hkcf  -0.30250
gfz2014hkck   3.80210
gfz2014hmgf   0.13110
gfz2014hmzg  -0.64390
gfz2014hnfm   0.95080
gfz2014hoap  -0.14200
gfz2014hphw   0.16350
gfz2014hppw   0.51660
gfz2014hpqz   0.98940
gfz2014hqxs  -0.23770
gfz2014hqyx   0.02420
gfz2014hrft  -0.22840
gfz2014hrtn   0.12280
gfz2014hscz  -0.44120
gfz2014huaj   0.06860
gfz2014hyvq  -0.43830
gfz2014hzdy  -0.34660
gfz2014hzfw   0.66550
gfz2014hzgn  -0.55490
gfz2014hzhe   1.10450
gfz2014iava   0.81480
gfz2014icqt   0.27560
gfz2014ifue  -0.03640
gfz2014ijvh   0.68610
gfz2014ikbk  -0.05270
gfz2014ikvd  -0.28980
gfz2014ilwu  -0.27820
gfz2014imnn  -0.39590
gfz2014inbj  -3.62570
gfz2014iobd   0.13580
gfz2014iqzj  -0.72370
gfz2014irci  -0.63500
gfz2014ircq  -0.03720
gfz2014isub  -0.36320
gfz2014isys   0.32040
gfz2014itab   0.08410
gfz2014itbe  -0.00560
gfz2014itbu  -0.06810
gfz2014itfc  -0.20020
gfz2014itgh  -0.00000
gfz2014itjx  -1.78340
gfz2014itkw  -1.07430
gfz2014itpj  -0.55750
gfz2014iuhq   0.69940
gfz2014iwnf   0.34730
gfz2014jatq  -0.13370
gfz2014lgqn   0.38240
gfz2014ljbr  -0.69070
gfz2014lkyf  -0.56440
gfz2014lpim  -0.44950
gfz2014lrzx   0.47510
gfz2014lxnc  -0.25960
gfz2014lyhk  -0.32840
gfz2014lyhp   0.22330
gfz2014lzal  -0.08200
gfz2014macx   0.17680
gfz2014mcse   0.96800
gfz2014mhgg  -0.01890
gfz2014mlqw   1.39770
gfz2014moaw  -0.73580
gfz2014mtum   2.20690
gfz2014mwor  -0.36480
gfz2014mxkr  -1.03460
gfz2014ndue  -1.31890
gfz2014niqj   0.08070
gfz2014nkdx   0.39640
gfz2014nnxd   1.98050
gfz2014nowp   0.18390
gfz2014npeo   0.16300
gfz2014nphm   1.06110
gfz2014nrie   0.20400
gfz2014ntdh   0.64970
gfz2014nyeh   1.11040
gfz2014nyfb   1.07490
gfz2014nyko  -1.23590
gfz2014nylm   0.09260
gfz2014odgv  -0.23700
gfz2014oinz   0.25980
gfz2014ojdg  -0.16280
gfz2014oqhw  -0.11420
gfz2014orxs  -0.16280
gfz2014oryw  -2.92900
gfz2014owxc  -0.43890
gfz2014oxcc   0.47350
gfz2014oyly  -1.04810
gfz2014pkll   0.30440
gfz2014ppyi   1.85910
gfz2014ppzf  -0.12430
gfz2014pqrc   0.29470
gfz2014pvch  -0.02090
gfz2014pzni   0.88630
gfz2014qdog   0.46930
gfz2014rghp  -0.19160
gfz2014riel   0.20990
gfz2014rkwl   0.46910
gfz2014rnrn  -2.28130
gfz2014royq  -0.08250
gfz2014sadu   0.79650
gfz2014shid  -0.85420
gfz2014vjoz  -2.32720
gfz2014vqqa  -0.64320
gfz2014waoo   0.37500
gfz2014watn   0.27520
gfz2014wmsc  -0.09190
gfz2014wrkh   0.28460
gfz2014wwib  -1.29590
gfz2014xbyr  -0.16560
gfz2014xjri   0.52070
gfz2014xkdg   0.58160
gfz2014xoji  -0.88080
gfz2014xqby  -0.95990
gfz2014xqqd  -0.19790
gfz2014yhhm  -0.23140
gfz2014ynzy   0.34410
gfz2014yppv  -0.06840
gfz2014yrug   0.49040
gfz2014yula   0.51560
gfz2014zkys  -0.08620
gfz2014zlgp   0.01670
gfz2014zplq   0.18860
gfz2015apnk  -0.07330
gfz2015arpd  -0.17020
gfz2015aruz   0.10240
gfz2015atxv   0.27200
gfz2015azzp  -0.16910
gfz2015bfjm   0.40900
gfz2015bkbj   0.05970
gfz2015bsnl  -0.20820
gfz2015bucr  -2.26170
gfz2015bvsj  -0.11750
gfz2015bvxx   0.42030
gfz2015byfn  -0.02050
gfz2015bzej   0.91650
gfz2015fjhk   0.07920
gfz2015fkgt   0.35380
gfz2015fkic  -0.16390
gfz2015fkjs  -0.60530
gfz2015fkkd  -0.38270
gfz2015fkuu   0.32940
gfz2015fpez   0.30810
gfz2015fsjj  -1.09410
gfz2015fvoi   0.39350
gfz2015fwkq  -0.05200
gfz2015fxbv   0.21300
gfz2015fxdi  -0.13590
gfz2015gckd   0.32090
gfz2015gjbr   0.25000
gfz2015gkwa  -0.37960
gfz2015gmgf  -0.14740
gfz2015gwao  -0.65110
gfz2015gzja  -1.04960
gfz2015hdbn  -0.33670
gfz2015hdcp  -1.77170
gfz2015hepg  -0.21730
gfz2015hgbk   0.22250
gfz2015hpmk  -0.29910
gfz2015hvgs  -0.41980
gfz2015isim   0.46160
gfz2015ixyy  -0.73950
gfz2015jkdw   0.07400
gfz2015jmlu  -1.44310
gfz2015jpap  -0.22970
gfz2015jwgl   0.03450
gfz2015jxjd  -0.13070
gfz2015jzcv  -0.41570
gfz2015kakw  -0.73140
gfz2015kcaa   0.08420
gfz2015kfsu  -0.21410
gfz2015kkqb  -0.26750
gfz2015kkth  -0.06910
gfz2015kphk  -0.11870
gfz2015kquq  -0.26250
gfz2015ksni   0.38750
gfz2015kvwz   0.26890
gfz2015kxxs  -0.58450
gfz2015lcma  -0.39240
gfz2015lcuo  -0.16470
gfz2015lfma  -0.58350
gfz2015lfud  -0.28490
gfz2015lhjy   1.01920
gfz2015ltii   0.42760
gfz2015lytv  -0.67390
gfz2015lzad  -0.63550
gfz2015mbgr   0.73020
gfz2015mddr  -0.27630
gfz2015mfpy   0.81890
gfz2015mhym  -1.42310
gfz2015micz   0.01780
gfz2015mljd   0.14310
gfz2015mpte  -0.06940
gfz2015mvzk   0.88400
gfz2015nerz  -0.36940
gfz2015nqgf   0.27790
gfz2015ntpk   0.00000
gfz2015nuxz  -0.03420
gfz2015nwug  -0.26820
gfz2015ocdz   0.47820
gfz2015ocwr  -0.19600
gfz2015okmq  -0.56170
gfz2015okpu   1.01380
gfz2015orkl  -0.10880
gfz2015oumn   1.30790
gfz2015oyfl  -0.63960
gfz2015pcvt  -0.40650
gfz2015prlr  -0.30330
gfz2015qafb  -1.36350
gfz2015qnde  -0.34080
gfz2015qnho  -0.07470
gfz2015qnlv   0.41450
gfz2015qnto  -0.37120
gfz2015qprd   0.25560
gfz2015qpvd   0.27110
gfz2015quzo  -0.25180
gfz2015qvxu  -1.72830
gfz2015rddx  -0.35310
gfz2015rgrg  -0.48620
gfz2015rkbq  -0.41300
gfz2015rkrg  -0.42000
gfz2015rpzn  -1.10330
gfz2015rwsb  -0.80730
gfz2015rxmg  -0.11340
gfz2015saet   0.22350
gfz2015sdfy   4.33520
gfz2015sevh  -0.61640
gfz2015sfdd   0.09380
gfz2015sfdy   0.31840
gfz2015sfeo   0.92710
gfz2015sffn  -0.08990
gfz2015sfho  -0.11040
gfz2015sfhz  -0.83550
gfz2015sfiq   0.15460
gfz2015sfjf  -0.10990
gfz2015sfkh   0.17270
gfz2015sfks   0.79100
gfz2015sfkz   0.11460
gfz2015sflf  -0.21550
gfz2015sfmd   0.28280
gfz2015sfno  -0.18410
gfz2015sfnv  -0.04410
gfz2015sfoc  -0.13470
gfz2015sfoh   0.48200
gfz2015sfom  -0.20980
gfz2015sfpj  -0.62630
gfz2015sfps  -0.29120
gfz2015sfqo   0.25070
gfz2015sfqr  -0.12980
gfz2015sfrc   1.38350
gfz2015sfrf   0.32780
gfz2015sfrv  -2.07360
gfz2015sfsi  -2.00660
gfz2015sfte   0.53400
gfz2015sftu  -0.48930
gfz2015sfuc   0.18660
gfz2015sfuz   0.12490
gfz2015sfwf   0.28040
gfz2015sfzm   0.43590
gfz2015sgad   0.26270
gfz2015sgdj  -0.34920
gfz2015sgdn   0.06850
gfz2015sggc  -1.41170
gfz2015sghq  -0.41040
gfz2015sglg   0.01880
gfz2015sgmm   0.17440
gfz2015sgmr   0.45850
gfz2015sgpu  -0.12630
gfz2015sguf   0.28810
gfz2015sgyd   0.08680
gfz2015shaq   0.44160
gfz2015shel   0.18480
gfz2015shhg   0.18810
gfz2015shhu  -0.58690
gfz2015shjn   0.16210
gfz2015shqc   0.35390
gfz2015shqe  -0.67130
gfz2015shrg  -0.37680
gfz2015shsz  -0.77380
gfz2015sist   0.92660
gfz2015sitn   0.66080
gfz2015sixi   0.60420
gfz2015sjbx   0.29370
gfz2015sjfi   0.01820
gfz2015sjgk  -0.11170
gfz2015sjjb   0.29960
gfz2015sjne  -0.21430
gfz2015sjoj  -0.10760
gfz2015sjvu   0.18290
gfz2015sjwi   0.10480
gfz2015skgj   0.07260
gfz2015skpv   0.15740
gfz2015skuk   0.29050
gfz2015sldx   0.04660
gfz2015sljs  -0.57170
gfz2015slun  -0.07570
gfz2015smgj  -0.44140
gfz2015smym  -0.11360
gfz2015snwh  -0.93080
gfz2015snyd  -0.10880
gfz2015soat  -0.06880
gfz2015solh   0.29360
gfz2015soxc  -0.37190
gfz2015sozw  -1.09330
gfz2015spal  -0.34030
gfz2015sqmy  -0.31940
gfz2015srat  -0.04570
gfz2015ssoe   0.24910
gfz2015sspn   0.10720
gfz2015stfy   0.76920
gfz2015stso   0.66010
gfz2015subz   0.25890
gfz2015svjy  -0.92150
gfz2015svwm   0.02480
gfz2015swgn   0.79080
gfz2015sxxu   0.23980
gfz2015sydc  -0.06550
gfz2015szcb  -0.71380
gfz2015szfe   0.04210
gfz2015sztx   0.64760
gfz2015taml  -0.68820
gfz2015tdcu   0.24170
gfz2015tdhb   0.56000
gfz2015teje  -0.36620
