# Nsamples: 154  MAD:  0.567  mean: -0.135  variance:  0.536
gfz2013ccnr  -1.34520
gfz2013dofo  -2.08980
gfz2013drxz  -1.47730
gfz2013dsrk   0.34430
gfz2013dvyh   1.55220
gfz2013fiud  -1.55790
gfz2013fygc  -0.40810
gfz2013gngz  -1.01160
gfz2013gock  -0.73440
gfz2013hxcx   0.42130
gfz2013iayx   0.18330
gfz2013jesk  -0.50230
gfz2013jgij   0.08520
gfz2013jgip   0.33200
gfz2013jkut  -0.41240
gfz2013kdeo   0.16700
gfz2013ldqb  -1.02990
gfz2013lyko   1.59070
gfz2013mqmv  -0.02060
gfz2013mwbh   0.10350
gfz2013ncjp  -0.82660
gfz2013nixj   0.38410
gfz2013nkgj   0.12560
gfz2013nwdi  -0.57110
gfz2013ojti   0.55480
gfz2013pfbx   0.09610
gfz2013qali  -0.97000
gfz2013qmer  -0.71380
gfz2013yqkv   0.11380
gfz2014afmx   0.21520
gfz2014ajlk   0.15850
gfz2014algk  -0.31890
gfz2014ande   0.12280
gfz2014azqs  -3.65040
gfz2014bezu  -0.74580
gfz2014bwue  -0.88030
gfz2014bzxy   0.19660
gfz2014cvxx  -0.13420
gfz2014dffd   0.02140
gfz2014ekcr   0.56840
gfz2014fgvi   0.17660
gfz2014fgyo   1.01230
gfz2014fhdw   0.38520
gfz2014fhla  -0.56290
gfz2014fhrq   0.44490
gfz2014fhsg  -1.73120
gfz2014fhwx   0.07780
gfz2014fimn  -1.08090
gfz2014fjzd   0.82700
gfz2014fkmr  -0.42430
gfz2014frdz  -0.00180
gfz2014frez   0.10370
gfz2014frwh   0.52790
gfz2014ftka  -0.21000
gfz2014ftpw   0.69140
gfz2014ftrk  -0.10140
gfz2014furx  -0.34750
gfz2014fusc   0.08290
gfz2014fusj   0.26650
gfz2014fuub  -0.48940
gfz2014fval   0.01780
gfz2014fvgh   0.29340
gfz2014fvrg   0.49960
gfz2014gbcz  -2.01500
gfz2014ghpe   0.29990
gfz2014gkgf  -0.54010
gfz2014gkhp   0.02690
gfz2014gkhy   0.00000
gfz2014gkjl  -0.49070
gfz2014gkjt  -0.60780
gfz2014gkjw  -0.42700
gfz2014gklq   0.38060
gfz2014gklv   0.58820
gfz2014gkmm   0.13830
gfz2014gkob  -0.28710
gfz2014gkok  -0.58030
gfz2014gkpd  -0.79850
gfz2014gkpj  -0.04450
gfz2014gkqf  -0.42650
gfz2014gkqu   0.27140
gfz2014gktq   0.21450
gfz2014gkxm   1.53700
gfz2014glcu   0.06810
gfz2014glcy  -0.48450
gfz2014glgo  -0.72710
gfz2014gltx   0.32080
gfz2014gmci  -0.50800
gfz2014gmge  -0.70320
gfz2014gmhp   0.47660
gfz2014gmhr  -1.58200
gfz2014gmic   0.08920
gfz2014gmip   0.55580
gfz2014gmjo   0.29880
gfz2014gmku   0.21770
gfz2014gmlz   0.34300
gfz2014gmmt  -0.61890
gfz2014gmnb  -0.09820
gfz2014gmnw  -0.03340
gfz2014gmor   0.09190
gfz2014gmpy   0.00000
gfz2014gmuk  -0.00000
gfz2014gmzl   0.46120
gfz2014gnfd   0.04550
gfz2014goba   0.18870
gfz2014goqw   0.29930
gfz2014gpce   1.10300
gfz2014gphr  -0.24140
gfz2014gpuk   0.46570
gfz2014gqbj  -0.53230
gfz2014gqer   1.71970
gfz2014gqiy  -1.93130
gfz2014gqve  -0.02150
gfz2014gsqs   0.13980
gfz2014gull  -0.03870
gfz2014gulp  -0.63010
gfz2014gvrd  -1.19220
gfz2014gwab  -0.56550
gfz2014gxkh   0.31080
gfz2014gxxo  -0.43200
gfz2014hagb   0.19730
gfz2014haos   1.09750
gfz2014hasj   0.13730
gfz2014hbqb   0.00990
gfz2014hcmj  -0.92100
gfz2014hfhl  -0.46670
gfz2014hgqo   0.60770
gfz2014hjgh   0.15910
gfz2014hjgr  -0.10110
gfz2014hjlx   0.26270
gfz2014hkcf   0.03170
gfz2014hocg  -1.49970
gfz2014hqxs   1.17330
gfz2014huaj   0.06130
gfz2014imnn  -0.61070
gfz2014itbe  -0.08380
gfz2014itgh   0.42410
gfz2014itkw  -0.01180
gfz2014itpj  -0.01400
gfz2014jjhc  -0.33980
gfz2014jjln   0.16380
gfz2014jnyv  -1.19460
gfz2014jpep  -0.03320
gfz2014kndc  -0.08230
gfz2014knks  -0.43130
gfz2014lgqn  -0.20390
gfz2014lxnc  -0.04000
gfz2014lyhk   0.82660
gfz2014lyhp   0.35470
gfz2014macx   0.11540
gfz2014nnxd  -0.45200
gfz2014npeo  -1.59240
gfz2014nphm  -0.94260
gfz2014nqfm  -0.08180
gfz2014nrie   0.26710
