# Nsamples: 49  MAD:  1.316  mean: -0.535  variance:  2.350
gfz2010bxxs  -0.90180
gfz2010czps  -0.74840
gfz2010eaoy   0.51010
gfz2010earu  -1.32690
gfz2010eaul  -3.51830
gfz2010ebhc  -0.55370
gfz2010eisx   0.82470
gfz2010eltf  -0.01060
gfz2010elyc   1.14030
gfz2010excp  -1.32720
gfz2010ezxd  -6.99780
gfz2010ffhq   0.79540
gfz2010gtqs  -1.35840
gfz2010hxgv  -0.73900
gfz2010iull  -0.32620
gfz2010nmpc   2.20320
gfz2011hlsa   0.96880
gfz2011rewa  -0.28790
gfz2011wxfs   1.14520
gfz2012kkup   0.89220
gfz2012pciw  -1.18860
gfz2012rwov  -1.18310
gfz2012wypz  -0.43510
gfz2013ccnr  -1.40380
gfz2013jusj  -0.03710
gfz2013ldqb  -2.38730
gfz2013nkgj  -0.28500
gfz2013nwdi   0.71240
gfz2013svci   0.00530
gfz2013vhnk  -1.45360
gfz2013vjjc   0.85820
gfz2014fgvi  -0.38220
gfz2014fhla   0.82170
gfz2014fjzw   0.70110
gfz2014gkgf  -1.11810
gfz2014gmhr   0.16090
gfz2014gmnb   0.19510
gfz2014jbyg  -4.65690
gfz2014ssvz  -0.36050
gfz2015chhn  -0.42300
gfz2015cyjd   0.67640
gfz2015lhjy   0.96820
gfz2015lytv  -0.38160
gfz2015sfdd  -0.37770
gfz2015sjoj  -1.07660
gfz2015snwh  -2.15880
gfz2015soxc  -1.14900
gfz2015svwm   0.07550
gfz2015taml  -1.30790
