# Nsamples: 268  MAD:  0.845  mean: -0.149  variance:  1.111
gfz2010aerk   1.86700
gfz2010ahqi  -1.26260
gfz2010bfzs  -1.46980
gfz2010bhhq  -1.06490
gfz2010bifb  -0.36780
gfz2010bjeb  -1.04360
gfz2010bxxs  -0.86940
gfz2010caft  -2.20500
gfz2010chnv  -2.35400
gfz2010cqwl  -0.54390
gfz2010cres  -1.82190
gfz2010czps  -0.50690
gfz2010dlgc  -0.83330
gfz2010eaoy  -0.13440
gfz2010eapk  -0.34730
gfz2010eapn  -1.58180
gfz2010eaqe   0.61700
gfz2010eaqx  -0.03710
gfz2010eaqy   0.80630
gfz2010earq   0.55100
gfz2010earu  -0.28630
gfz2010easf  -1.10810
gfz2010eask   1.78890
gfz2010easo   0.31590
gfz2010easu   0.82930
gfz2010eato  -0.40120
gfz2010eaul  -0.28860
gfz2010eavs   0.48380
gfz2010eawb   0.71260
gfz2010eawu   0.29140
gfz2010eaxa  -1.14210
gfz2010eaxn   0.65620
gfz2010eaya  -1.14970
gfz2010eaze   1.66850
gfz2010eazu  -1.09260
gfz2010ebbd   0.89370
gfz2010ebby  -0.72200
gfz2010ebfa  -1.61990
gfz2010ebfx   3.25280
gfz2010ebhc  -1.03640
gfz2010ebih   0.38960
gfz2010ebin   1.88450
gfz2010ebiv   0.09970
gfz2010ebkj   0.12470
gfz2010ebla   0.15310
gfz2010ebll   0.62250
gfz2010ebmb   0.20370
gfz2010ebmi   1.49170
gfz2010ebnn   0.61020
gfz2010ebvm  -0.67750
gfz2010ebvv   1.04510
gfz2010ebwp  -1.50970
gfz2010ebxl   0.28910
gfz2010ebzk   1.66740
gfz2010ebzr   0.28860
gfz2010echy  -0.95720
gfz2010ecua  -0.60870
gfz2010ecvt   1.41440
gfz2010edvf  -0.34250
gfz2010edyi   4.68020
gfz2010eefo   2.11940
gfz2010eeij  -0.09150
gfz2010egsy  -0.32350
gfz2010eisx  -0.51660
gfz2010ekaw  -1.37860
gfz2010ekyc   0.04800
gfz2010eltf  -0.84180
gfz2010elyc  -0.61150
gfz2010eqmu   5.29670
gfz2010erkn  -0.72980
gfz2010erom   0.55620
gfz2010excp   0.58290
gfz2010exdd   0.03670
gfz2010exdl   0.11290
gfz2010exgb  -0.37360
gfz2010exno   0.39870
gfz2010exsg   0.07770
gfz2010ezax   0.19580
gfz2010ezck  -0.34440
gfz2010ezwz   1.27870
gfz2010ezxd  -0.41850
gfz2010fedq  -0.35870
gfz2010ffhq  -0.06850
gfz2010ffjb  -1.61240
gfz2010figq   1.89670
gfz2010fika   1.41920
gfz2010fpqy  -0.62610
gfz2010fync  -2.14180
gfz2010gcrl   1.81190
gfz2010gcrp  -1.48620
gfz2010gdld  -0.71320
gfz2010glxl   0.47060
gfz2010grjd   0.05730
gfz2010gyqp  -1.39990
gfz2010hbka  -0.39620
gfz2010hllj  -0.16470
gfz2010hlln  -0.54630
gfz2010hlmq   0.04450
gfz2010hndk   1.79960
gfz2010hnnf  -0.44650
gfz2010homc  -0.08120
gfz2010hptz   2.04650
gfz2010hxgv   0.32680
gfz2010icqq   1.07420
gfz2010iobp  -0.12260
gfz2010iqnm  -1.35860
gfz2010iull  -0.87950
gfz2010kdyc  -1.24530
gfz2010mncc   0.55700
gfz2010moyw   0.62100
gfz2010mpuy  -1.02800
gfz2010nmpc  -0.34370
gfz2010nnny  -1.88740
gfz2010nqwo  -0.02200
gfz2010ntuo  -0.53130
gfz2010ocxq   1.89530
gfz2010pewa  -0.54180
gfz2010pewx  -1.08770
gfz2010sfee  -1.05810
gfz2010sfla   0.25270
gfz2010skqo   1.12300
gfz2010tcrl  -0.50090
gfz2010usho   0.32310
gfz2010xgzw   0.04320
gfz2011adjs   0.17660
gfz2011cndo   0.68330
gfz2011cvfg  -0.59550
gfz2011cykd   0.10880
gfz2011ecaj  -1.12440
gfz2011gkzt  -1.66920
gfz2011hlqw  -0.04290
gfz2011hlsa  -0.99750
gfz2011hpqp   0.97610
gfz2011jplh  -0.29100
gfz2011ntkh   0.30850
gfz2011nudm   0.09190
gfz2011olkk  -0.73960
gfz2011ornx   0.04550
gfz2011owvz  -1.17020
gfz2011rewa  -0.51310
gfz2011rgwp   2.20170
gfz2011sagt   0.08520
gfz2011tkog  -0.76750
gfz2011toub  -0.94200
gfz2011wxfs   1.27220
gfz2011xyxj  -0.35480
gfz2011zklv  -1.18390
gfz2012aqtq   0.02500
gfz2012bpkx  -0.42140
gfz2012bpwl   0.17860
gfz2012byad  -0.21550
gfz2012cxdn  -0.20910
gfz2012dinb  -1.11640
gfz2012enno  -0.28090
gfz2012fzfa  -0.86530
gfz2012hnul  -0.53390
gfz2012jgvj  -0.40140
gfz2012kkup  -1.18100
gfz2012klhx  -0.45340
gfz2012kudo  -0.12320
gfz2012kvzv  -1.52880
gfz2012ldxg  -0.41150
gfz2012lxkv  -0.07390
gfz2012lzmr  -0.87390
gfz2012minr  -0.56980
gfz2012mvwr  -0.56320
gfz2012oazn  -0.40660
gfz2012pqmu  -1.51750
gfz2012rats  -0.15970
gfz2012rqlg  -0.46240
gfz2012rwov  -1.85200
gfz2012sjea   0.36880
gfz2012syvl   0.71830
gfz2012wxlg  -0.10990
gfz2012zjpv   2.54640
gfz2013ccnr  -1.33180
gfz2013jkut  -0.85530
gfz2013kdeo  -1.32740
gfz2013lyko   0.57630
gfz2013pfbx   1.54890
gfz2013qzdq  -1.74080
gfz2013suvn   1.39170
gfz2013svci  -0.72340
gfz2013tcxc  -0.98410
gfz2013tusd  -1.51900
gfz2013vfzp   0.13830
gfz2013vjjc  -0.50350
gfz2013wjmm  -0.62580
gfz2013xmul  -1.23210
gfz2013xsdt  -1.51160
gfz2013xxwv  -0.25290
gfz2014afmx  -0.46010
gfz2014ande  -1.08060
gfz2014bwue   0.73500
gfz2014czua  -0.44130
gfz2014enhi   0.73340
gfz2014fgvi   0.24010
gfz2014fhla   1.88250
gfz2014frel  -0.34190
gfz2014ftka  -0.02920
gfz2014furx   1.54410
gfz2014fusj  -1.56040
gfz2014fval   0.42540
gfz2014fvrg   1.29630
gfz2014gbcz  -0.90030
gfz2014gkgf  -0.38240
gfz2014gkgs  -1.14620
gfz2014gkqf  -0.82670
gfz2014gmge  -1.34320
gfz2014gmhr  -0.12160
gfz2014gmnb   0.33230
gfz2014gmnw   1.71800
gfz2014goba   0.06210
gfz2014gori  -1.43030
gfz2014gpuk   1.07750
gfz2014gull  -1.28550
gfz2014hcmj  -0.62320
gfz2014hfhl  -0.09470
gfz2014hocg  -1.20000
gfz2014inbj  -1.01730
gfz2014jjhc  -0.30160
gfz2014jwmh  -0.44010
gfz2014lnmw   0.61500
gfz2014lxnc  -0.75210
gfz2014lyhk  -0.84220
gfz2014nqfm   1.20170
gfz2014oinz   0.13290
gfz2014pvch  -1.63940
gfz2014qlxd  -0.57880
gfz2014qngj  -1.22930
gfz2014qqhm  -1.24530
gfz2014ryfb  -0.56370
gfz2014ssvz  -0.55680
gfz2015bucr  -0.51430
gfz2015chhn  -0.86800
gfz2015cxxk  -0.69620
gfz2015cyjd  -0.15430
gfz2015dvbn  -0.60750
gfz2015fjhk  -0.77690
gfz2015fkgt  -0.56900
gfz2015fkic   0.50740
gfz2015fsjj  -1.31390
gfz2015gckd  -0.22790
gfz2015jwgl  -0.62220
gfz2015lytv  -0.42900
gfz2015ocdz  -0.70890
gfz2015rddx  -0.60410
gfz2015sfdd  -0.17270
gfz2015sfdv  -0.30570
gfz2015sfdy   0.15040
gfz2015sfeo  -0.83390
gfz2015sfiq   1.84300
gfz2015sfko   0.34070
gfz2015sfnb   0.83540
gfz2015sfno   1.81010
gfz2015sfnv  -0.65720
gfz2015sftu   0.55190
gfz2015sfwf  -0.67830
gfz2015shsz   1.12520
gfz2015sjoj  -0.18240
gfz2015sjvu   0.35440
gfz2015snwh  -0.40000
gfz2015snyd  -0.15090
gfz2015soat  -0.03970
gfz2015soxc  -0.29680
gfz2015svwm   0.02300
gfz2015szcb  -0.64900
gfz2015taml  -1.07010
