# Nsamples: 35  MAD:  0.551  mean: -0.190  variance:  0.488
gfz2010grjd  -2.36200
gfz2010iull  -0.35640
gfz2010nmpc  -0.36800
gfz2011enva  -0.66350
gfz2011hlqw   1.83790
gfz2011hlsa   0.34550
gfz2011lcxq  -0.16710
gfz2011lzwj  -0.33830
gfz2011rewa   0.14750
gfz2011toub  -0.33270
gfz2011wxfs  -0.68390
gfz2012enno   0.21200
gfz2012jlox  -0.39590
gfz2012kkup   0.42040
gfz2012kudo  -0.47370
gfz2012teic   0.10490
gfz2012vrgb   0.28500
gfz2012wypz  -0.50590
gfz2013drxz   0.52340
gfz2013kdeo   0.49280
gfz2013nwdi  -0.98090
gfz2013svci   0.03310
gfz2014bwue  -0.50730
gfz2014fgvi  -0.65590
gfz2014fhla   0.45430
gfz2014ftka  -0.38280
gfz2014gkgf  -0.68220
gfz2014gkqf  -0.92910
gfz2014goba   0.48360
gfz2014gull   0.30290
gfz2014jjhc  -0.24730
gfz2014nqfm  -0.50390
gfz2014qqhm  -0.67010
gfz2014ssvz  -1.02790
gfz2015cyjd   0.93850
