# Nsamples: 71  MAD:  0.468  mean: -0.290  variance:  0.689
gfz2011aatr  -0.38740
gfz2011enva   1.47670
gfz2011gkzt  -0.61230
gfz2011hlsa  -0.00000
gfz2011jplh  -0.22220
gfz2011lcxq   0.33450
gfz2011lzwj   0.02740
gfz2011mdie  -1.10400
gfz2011rewa   0.07010
gfz2011toub  -0.62820
gfz2011wxfs  -0.16730
gfz2012enno  -0.27750
gfz2012jlox  -0.10810
gfz2012kkup  -0.73580
gfz2012klhx  -0.84120
gfz2012kuct  -0.83720
gfz2012kudo  -0.60090
gfz2012ldxg   0.41040
gfz2012ngic  -0.75550
gfz2012nqnk  -0.97650
gfz2012oazn  -0.40110
gfz2012wmsg  -0.67690
gfz2012wypz  -0.18670
gfz2013ccnr  -0.35880
gfz2013drxz  -0.71190
gfz2013jkut  -0.49460
gfz2013kdeo  -0.64500
gfz2013mqmv   0.11900
gfz2013nkgj  -0.53310
gfz2013nwdi  -0.39680
gfz2013pfbx  -0.37590
gfz2013svci  -0.74270
gfz2013ypdc  -0.67880
gfz2014afmx  -0.55230
gfz2014ande  -0.38430
gfz2014bwue  -0.27730
gfz2014fgvi  -1.43300
gfz2014fhla   4.38780
gfz2014frdz  -0.69700
gfz2014ftka   0.55090
gfz2014fval   0.73890
gfz2014gkgf   0.07270
gfz2014gkgs  -2.11110
gfz2014gkqf  -0.33880
gfz2014gmge   0.91810
gfz2014gmhr  -1.18150
gfz2014gmnb  -0.38700
gfz2014gmnw  -0.24560
gfz2014goba  -0.07500
gfz2014gull   0.46450
gfz2014hasj  -0.24730
gfz2014hjgr  -0.24930
gfz2014huaj  -2.01800
gfz2014lxnc   0.81320
gfz2014lyhk  -0.55200
gfz2014macx  -0.49150
gfz2014madw  -0.71940
gfz2014nqfm   0.25720
gfz2014nrie  -0.62310
gfz2014oinz  -0.15340
gfz2014ssvz   0.08280
gfz2015chhn  -0.58000
gfz2015cyjd  -0.41690
gfz2015fjhk  -0.11620
gfz2015fsjj  -0.28290
gfz2015gckd  -0.04100
gfz2015kxxs   0.19750
gfz2015lhjy  -0.06050
gfz2015okmq   0.22550
gfz2015sfdd  -2.06870
gfz2015snwh  -0.97540
