# Nsamples: 59  MAD:  0.694  mean: -0.199  variance:  2.026
gfz2010nmpc  -0.48880
gfz2010oyqy   1.97410
gfz2010rqwj  -0.23040
gfz2011aatr  -0.14560
gfz2011hlsa  -0.02990
gfz2011lcxq  -0.15380
gfz2011lzwj  -0.37880
gfz2011xyxj  -0.09330
gfz2012enno   0.20130
gfz2012jlox  -0.52190
gfz2012kkup   0.23480
gfz2012kudo  -0.31770
gfz2012ldxg   0.10590
gfz2012nxyt   0.92530
gfz2012vrgb  -0.66410
gfz2012wypz  -0.18300
gfz2013ccnr  -0.49250
gfz2013dofo  -1.35310
gfz2013drxz  -0.42140
gfz2013jdrx   6.60890
gfz2013jkut  -0.60940
gfz2013mded  -4.02300
gfz2013nwdi  -0.74240
gfz2013pcos   1.56350
gfz2013svci  -0.79680
gfz2013tlaf  -0.68180
gfz2013vjjc   1.83380
gfz2013xsdt  -0.08590
gfz2013ymxs   0.48620
gfz2014bwue  -0.15770
gfz2014capn   0.82200
gfz2014fgvi  -0.41820
gfz2014fhla   1.78320
gfz2014flfa  -1.16970
gfz2014ftka   0.39340
gfz2014gkgf   0.33570
gfz2014gkpj  -3.00750
gfz2014gmge   0.64330
gfz2014gmhr   1.08930
gfz2014gmnb  -0.09550
gfz2014gmnw  -0.03870
gfz2014gndq  -2.90730
gfz2014goba  -0.42210
gfz2014gpbx   1.26900
gfz2014oinz  -1.28140
gfz2014opqr   0.62870
gfz2014orgz  -1.73510
gfz2014qqhm  -2.87430
gfz2014ssvz   0.10860
gfz2015cyjd  -0.41980
gfz2015fsjj  -0.19490
gfz2015gckd  -0.57080
gfz2015lhjy  -0.17950
gfz2015lytv  -0.71180
gfz2015sfdd  -1.45560
gfz2015snwh  -0.19580
gfz2015svwm  -0.96900
gfz2015szcb  -1.11000
gfz2015taml  -0.42870
