# Nsamples: 21  MAD:  0.672  mean: -0.289  variance:  0.850
gfz2011aatr  -0.59930
gfz2011enva   1.04560
gfz2011lcxq  -0.15590
gfz2011wxfs  -0.14910
gfz2012enno   0.22910
gfz2012jlox  -0.35160
gfz2012kudo  -0.74900
gfz2012ldxg   0.74340
gfz2013jkut  -0.55980
gfz2013nwdi   0.53260
gfz2013svci  -0.72120
gfz2014fgvi  -0.75240
gfz2014ghpe  -2.51610
gfz2014gkgf  -1.97130
gfz2014gmge   1.55600
gfz2014gmhr   0.73910
gfz2014gmnb  -0.18240
gfz2014gmnw  -1.00290
gfz2015cyjd   0.10170
gfz2015fsjj  -0.50280
gfz2015lhjy  -0.81110
