# Nsamples: 27  MAD:  0.653  mean: -0.271  variance:  0.955
gfz2010iull  -0.19720
gfz2010nmpc  -0.22170
gfz2011aatr  -0.22460
gfz2011enva   0.55950
gfz2011hlsa   3.50480
gfz2011lcxq   0.03760
gfz2011lzwj  -0.39730
gfz2011rewa  -0.03450
gfz2011toub   0.07020
gfz2011wxfs  -0.68430
gfz2012jlox  -0.69010
gfz2012kkup   0.27050
gfz2012kudo   0.72270
gfz2012wypz  -0.14950
gfz2013nwdi  -1.07590
gfz2013svci  -0.39520
gfz2014fgvi  -0.66510
gfz2014gkgf  -1.88390
gfz2014gkqf  -0.82440
gfz2014gmhr  -1.27320
gfz2014lgqn  -0.07410
gfz2015cyjd   0.15340
gfz2015fsjj  -0.68350
gfz2015sfdd  -0.46740
gfz2015sfdy  -2.12420
gfz2015snwh  -0.67480
gfz2015svwm   0.10050
