# Nsamples: 53  MAD:  0.492  mean: -0.234  variance:  0.592
gfz2010bjeb  -0.40100
gfz2010bxxs  -0.90320
gfz2010cqwl  -0.17350
gfz2010ebhc  -0.64600
gfz2010fqdu   0.30570
gfz2010fync   1.78890
gfz2010grjd  -0.91190
gfz2010iull  -0.59080
gfz2012jlox  -0.52110
gfz2012kuct  -0.47770
gfz2012kudo  -0.41270
gfz2012ldxg  -1.22720
gfz2012ldzj   1.17560
gfz2012ttoa   0.88800
gfz2012wypz  -0.12830
gfz2013drxz  -0.38550
gfz2013jkut  -0.36640
gfz2013kdeo   0.66620
gfz2013pfbx  -0.73340
gfz2013svci  -0.38750
gfz2013xsdt  -0.51920
gfz2014ande  -0.67980
gfz2014bwue  -0.73340
gfz2014fgvi  -0.74590
gfz2014fhla   0.87670
gfz2014fkmr   0.50180
gfz2014ftka   1.21210
gfz2014gkgf  -1.57880
gfz2014gkqf  -0.76190
gfz2014glcu  -0.24320
gfz2014gmhr   0.95030
gfz2014gmnb   0.38520
gfz2014gull  -0.76430
gfz2014hasj   0.43630
gfz2014hocg  -0.81650
gfz2014itkw  -2.69340
gfz2014lxnc   0.19520
gfz2014lyhk  -0.12010
gfz2014nqfm  -0.60480
gfz2014qlxd  -0.81540
gfz2014qqhm  -0.21890
gfz2014ssvz  -0.32930
gfz2015cyjd  -0.54540
gfz2015fsjj  -0.78910
gfz2015lhjy  -0.12320
gfz2015mpte  -0.27580
gfz2015sfdd  -0.05390
gfz2015sfdy  -0.32030
gfz2015sfno   1.57820
gfz2015smym  -0.47240
gfz2015snwh  -0.28200
gfz2015svwm  -0.14930
gfz2015taml  -0.45990
