# Nsamples: 60  MAD:  0.511  mean: -0.229  variance:  0.711
gfz2010bxxs  -0.00540
gfz2010chnv  -0.58840
gfz2010cqwl   0.33080
gfz2010grjd  -0.65700
gfz2010iull  -0.03020
gfz2010jkxj  -0.56560
gfz2010nmpc  -0.52040
gfz2010nwef   0.12990
gfz2010usho   0.32170
gfz2011cvcg  -0.42490
gfz2011dpqx   0.30370
gfz2011enva  -0.38550
gfz2011gkzt  -1.23600
gfz2011hlsa   0.32280
gfz2011jplh   0.03090
gfz2011lcxq   0.30490
gfz2011lzwj   0.00980
gfz2011mdie   0.27260
gfz2011owvz   0.23280
gfz2011rewa   0.07730
gfz2011toub   0.50610
gfz2011wxfs  -0.05520
gfz2012enno  -0.11630
gfz2012jlox   0.27060
gfz2012kkup  -0.11640
gfz2012klhx   0.22080
gfz2012kudo   0.17270
gfz2012ldxg  -0.89630
gfz2012ldzj  -0.14370
gfz2012wypz   0.40160
gfz2013drxz   0.48080
gfz2013jkut   0.01820
gfz2013ldqb   1.73460
gfz2013nkgj   0.80960
gfz2013nwdi  -0.36690
gfz2013pfbx  -0.74460
gfz2013qmer  -2.20260
gfz2013svci   0.14970
gfz2014ande  -0.85470
gfz2014bwue   0.16400
gfz2014fgvi  -0.31300
gfz2014fhla  -0.05220
gfz2014gkgf  -0.62660
gfz2014gkqf  -2.37420
gfz2014gull  -0.58370
gfz2014hasj  -2.33940
gfz2014lgqn  -0.25740
gfz2014qlxd  -3.03370
gfz2014qqhm  -1.69920
gfz2014ssvz   0.19750
gfz2015cyjd   0.23080
gfz2015fsjj  -0.23520
gfz2015kxxs   1.01860
gfz2015mpte   0.08720
gfz2015sfdd  -1.50870
gfz2015sfdy  -0.86690
gfz2015smym   0.57480
gfz2015snwh  -0.61910
gfz2015svwm   0.26450
gfz2015taml   1.06870
