# Nsamples: 45  MAD:  0.459  mean: -0.228  variance:  0.496
gfz2010eaoy   0.07360
gfz2010ekyc   0.05080
gfz2010ffhq  -0.87660
gfz2010grjd  -0.48500
gfz2010iull  -0.33200
gfz2010nmpc  -0.74960
gfz2010usho   0.43870
gfz2011aatr  -0.12350
gfz2011enva  -0.66360
gfz2011hlqw  -0.69980
gfz2011hlsa  -0.37330
gfz2011jplh   0.01060
gfz2011lcxq   0.34780
gfz2011lzwj  -0.10060
gfz2011mjom  -0.71500
gfz2011rewa  -0.40330
gfz2011toub  -0.13700
gfz2011wxfs  -0.30260
gfz2012fzfa  -0.40510
gfz2012jlox  -0.10370
gfz2012kudo  -0.03940
gfz2012wypz  -0.16350
gfz2013ccnr  -0.55420
gfz2013drxz   0.04600
gfz2013jkut   0.05610
gfz2013nwdi  -0.55070
gfz2013svci   0.00670
gfz2013vjjc   2.75530
gfz2014bwue  -0.50930
gfz2014fgvi  -0.68790
gfz2014ftka  -0.80250
gfz2014gkgf  -0.78440
gfz2014gmhr   0.57510
gfz2014moaw   1.58550
gfz2014ssvz  -0.80820
gfz2015chhn  -0.00000
gfz2015cyjd  -0.33240
gfz2015fsjj  -0.01300
gfz2015lhjy  -0.02100
gfz2015mpte   0.06620
gfz2015sfdd  -0.40180
gfz2015sfdy  -1.96390
gfz2015snwh  -0.52080
gfz2015soxc  -1.56900
gfz2015taml  -0.05950
