# Nsamples: 480  MAD:  0.721  mean: -0.033  variance:  1.133
gfz2011mjom   0.34060
gfz2011mpme   1.05780
gfz2011myia   2.30600
gfz2011nauw  -0.61830
gfz2011necz  -0.36770
gfz2011nmnq  -0.27060
gfz2011noud   0.43940
gfz2011nrwc  -1.35030
gfz2011ntkh   1.05350
gfz2011nudm  -0.03890
gfz2011ogqk  -0.67720
gfz2011ohcy   0.70090
gfz2011oiqe  -0.00910
gfz2011oiwk  -0.16360
gfz2011olkk  -0.88190
gfz2011orgn  -1.11970
gfz2011ornx   0.26640
gfz2011owvz  -0.05840
gfz2011ozsl   0.12850
gfz2011pccd   0.31420
gfz2011pdpt   0.35820
gfz2011phms   0.61160
gfz2011pntf   4.40170
gfz2011ptus   5.48410
gfz2011qigx   0.19050
gfz2011qvae   0.53750
gfz2011qyms   2.77020
gfz2011rabm   0.77630
gfz2011rdby   0.07650
gfz2011rewa  -1.44100
gfz2011rgwp  -0.04090
gfz2011rnut  -0.48630
gfz2011rqui  -0.50450
gfz2011rsrh   0.55420
gfz2011rznl  -0.05850
gfz2011sagt   0.83000
gfz2011shqm  -0.07680
gfz2011stal  -2.54730
gfz2011tbas  -0.66240
gfz2011tcij   0.07800
gfz2011tivu   3.96810
gfz2011tjrf  -0.77770
gfz2011tjue   0.05370
gfz2011tkfp  -0.12560
gfz2011tkog  -0.66160
gfz2011toub  -0.85700
gfz2011tpbl  -0.15970
gfz2011tpfr  -0.07020
gfz2011tsfd   1.74940
gfz2011tsnp  -0.32810
gfz2011ujze  -0.60520
gfz2011ukmp   0.93030
gfz2011uphh  -0.06650
gfz2011vhfi  -0.46710
gfz2011vkun   1.40630
gfz2011vldk   0.28240
gfz2011vnza   0.16230
gfz2011vqrj   0.62710
gfz2011vrhg  -0.31710
gfz2011vxns  -0.36900
gfz2011vxod  -0.22010
gfz2011wcic  -0.08130
gfz2011wjul   0.37620
gfz2011wvzb  -0.28070
gfz2011wxfs  -0.54140
gfz2011wxoj   0.23560
gfz2011wxtk  -1.08170
gfz2011wype   1.23240
gfz2011xaan  -1.41980
gfz2011xcpv   0.01090
gfz2012ajtq   0.40240
gfz2012aqgp   2.77740
gfz2012bfah  -0.23480
gfz2012bfyn   0.00000
gfz2012bpkx  -1.00410
gfz2012bpnl  -0.86900
gfz2012bpwl  -0.89850
gfz2012brhv   0.17260
gfz2012bszs   0.00000
gfz2012cbed   1.10340
gfz2012cgvr  -0.47020
gfz2012ckxi  -1.20410
gfz2012covm  -0.87190
gfz2012cqnl  -1.56850
gfz2012cxdn  -0.46860
gfz2012deri   0.09970
gfz2012dfhq  -0.97750
gfz2012dimn  -0.75790
gfz2012dyyh   0.19960
gfz2012gill   1.09190
gfz2012gkvr   0.34970
gfz2012gocc   0.85870
gfz2012gomm   0.10800
gfz2012gukw  -0.29370
gfz2012gwqb  -0.30260
gfz2012hnul  -2.71750
gfz2012jlox  -0.08880
gfz2012joqe  -0.74070
gfz2012jted   0.00000
gfz2012jupx   1.39820
gfz2012jxiy   0.22120
gfz2012keor  -1.57650
gfz2012kkup  -1.33540
gfz2012klhx  -0.23230
gfz2012kuct  -0.50020
gfz2012kudo  -0.87770
gfz2012kwgo  -0.58580
gfz2012lczo  -0.22970
gfz2012ldxg   0.13090
gfz2012ldzj   0.13070
gfz2012lltr   1.40510
gfz2012llug  -0.55900
gfz2012lrsv  -0.43790
gfz2012lxkv  -0.83700
gfz2012lzmr   0.52460
gfz2012minr  -0.01750
gfz2012mupa  -0.43750
gfz2012mwij   0.32500
gfz2012naqz  -1.20600
gfz2012nedn  -0.16500
gfz2012nkdf  -0.41590
gfz2012nsbz  -0.46100
gfz2012nxyt   0.24160
gfz2012obgw   0.68300
gfz2012oedb  -0.51660
gfz2012omvo   0.42070
gfz2012oycg   0.48610
gfz2012peex  -0.77530
gfz2012peki   0.50860
gfz2012rats  -0.26310
gfz2012rboy  -1.39230
gfz2012repv  -0.27470
gfz2012rknn  -1.03580
gfz2012royy  -0.15960
gfz2012rubi   0.10480
gfz2012ruks  -0.26250
gfz2012rwko  -0.20310
gfz2012rwov  -1.46110
gfz2012rwql   0.48380
gfz2012shtg  -0.19830
gfz2012sphd   0.02150
gfz2012syvl  -0.04240
gfz2012tazz   0.37210
gfz2012tbbp  -0.76390
gfz2012teic   0.26670
gfz2012ttoa  -0.45180
gfz2012uaqj   0.77030
gfz2012uciv  -0.63970
gfz2012uhup  -0.87920
gfz2012uqzp   0.28980
gfz2012usba  -0.34630
gfz2012uvqf   1.05840
gfz2012vceo  -0.13880
gfz2012vmeh  -0.25470
gfz2012vrgb  -0.15680
gfz2012vsev   1.10920
gfz2012wizz   1.06450
gfz2012wklq  -1.55380
gfz2012wmsg  -0.34730
gfz2012wpeq   0.14210
gfz2012wrir   0.54020
gfz2012wtkr  -0.45700
gfz2012wvfl  -0.65370
gfz2012wxlg   0.18880
gfz2012wxnu  -1.00180
gfz2012wypz  -0.52960
gfz2012xbjq  -0.00970
gfz2012xeul   7.74230
gfz2012xjyv   0.07340
gfz2012xmxy  -0.24670
gfz2012yfrp   0.54540
gfz2013feep   3.31330
gfz2013ffko   0.53040
gfz2013fiud  -0.31880
gfz2013fkcl  -1.69280
gfz2013flox  -1.60270
gfz2013fnzr   2.43740
gfz2013fwxa   0.62120
gfz2013gdnq  -0.09750
gfz2013gihf  -0.12680
gfz2013gngz  -0.08320
gfz2013gock  -0.07310
gfz2013gvex  -1.28760
gfz2013gvxh  -1.71230
gfz2013gwrd   0.51670
gfz2013hlbe  -1.18210
gfz2013hsfw   0.35900
gfz2013huwr  -0.34750
gfz2013iayx  -0.00000
gfz2013idbb  -0.27460
gfz2013ifpq  -0.13810
gfz2013inux   0.75480
gfz2013ippu   0.22180
gfz2013iqzq   0.56950
gfz2013iunn  -0.39460
gfz2013jdrx  -0.65010
gfz2013jesk   1.70980
gfz2013jgij   0.89810
gfz2013jgip   0.42160
gfz2013jkut  -1.02010
gfz2013jusj   6.01720
gfz2013kccc   1.82270
gfz2013kdeo   0.05960
gfz2013kwps   1.81750
gfz2013ldqb  -1.04630
gfz2013lgbb  -1.58130
gfz2013lixa   0.17380
gfz2013lwao  -0.62890
gfz2013mghe   0.12660
gfz2013mqik   0.95180
gfz2013mqmv  -0.51970
gfz2013mwbh   0.50390
gfz2013nabl   0.63610
gfz2013ncjp  -0.42650
gfz2013nixj   0.00000
gfz2013nkgj   0.06590
gfz2013nknw   0.28500
gfz2013nnzf   0.53510
gfz2013nqgw   0.34560
gfz2013nwdi  -0.03380
gfz2013oejn  -0.09070
gfz2013ofls   0.49640
gfz2013oqsc   0.24050
gfz2013pfbx   0.41060
gfz2013pfeb   0.19000
gfz2013phef   0.38550
gfz2013pqui  -0.91290
gfz2013puag  -0.25340
gfz2013pxtx  -0.26250
gfz2013qali   0.34440
gfz2013qcck   1.98330
gfz2013qesa  -0.80540
gfz2013qfmm   0.79640
gfz2013qfsq  -0.17020
gfz2013qidm  -1.54730
gfz2013qmer  -0.35070
gfz2013qnxc   0.34110
gfz2013tcxc  -0.43340
gfz2013tcxq  -0.77330
gfz2013tdau  -0.10700
gfz2013toxf  -0.45990
gfz2013uxej  -0.89590
gfz2013vefs  -0.33540
gfz2013vexx  -0.51800
gfz2013vfyw  -0.08410
gfz2013vfzp  -0.38220
gfz2013viul  -0.77690
gfz2013vjfe  -0.56510
gfz2013vjjc  -1.66280
gfz2013vvjh  -0.91960
gfz2013vzbo  -0.38870
gfz2013wjmm  -1.62520
gfz2013wkyk   0.75820
gfz2013wtzl   0.55030
gfz2013wuon   0.35160
gfz2013wwii  -0.97190
gfz2013xizq   1.50150
gfz2013xmul   0.13820
gfz2013xsdt   0.32380
gfz2013xtwj  -0.68880
gfz2013xwda  -0.84490
gfz2013xyzb  -0.88330
gfz2013yach   0.61130
gfz2013yaig  -1.12020
gfz2013ylbx   1.95310
gfz2013ymxs  -0.72660
gfz2013ypdc  -0.64290
gfz2013yqkv   0.00930
gfz2013zmtb  -0.02740
gfz2014abgd   1.25050
gfz2014afmx   0.73990
gfz2014algk  -0.09720
gfz2014alwz   1.79260
gfz2014ande   0.17430
gfz2014ared  -2.31480
gfz2014arpf  -0.56210
gfz2014femz  -1.55080
gfz2014fgvi  -0.40750
gfz2014fgvr  -0.83930
gfz2014fgwt  -1.13170
gfz2014fhdw  -0.22330
gfz2014fhla   0.43080
gfz2014fhlh   0.39070
gfz2014fhrq   0.04370
gfz2014fhsg   0.44330
gfz2014fnyg   0.01180
gfz2014fqpz   0.42290
gfz2014frdz   1.29940
gfz2014frel   0.60630
gfz2014frez  -0.63520
gfz2014ftka  -0.35420
gfz2014ftrk   0.15170
gfz2014furx   0.85120
gfz2014fusj   0.54240
gfz2014fval  -0.30590
gfz2014fvrg   0.00000
gfz2014gbcz  -4.85970
gfz2014gbdq   2.03830
gfz2014ghpe   0.32440
gfz2014gkgf  -1.10420
gfz2014gkhp  -0.09830
gfz2014gkjl  -1.34670
gfz2014gkjt  -0.20310
gfz2014gkjy   0.98010
gfz2014gklq   0.09740
gfz2014gkob   1.26540
gfz2014gkok  -2.38050
gfz2014gkpd  -0.30440
gfz2014gkpj   1.51830
gfz2014gkqf  -1.36250
gfz2014gkqu  -2.00790
gfz2014gksj   0.94570
gfz2014gksu  -0.54220
gfz2014gktq  -0.78180
gfz2014gkut  -0.34890
gfz2014gkxm   0.10660
gfz2014glcu  -0.91780
gfz2014glgo  -0.71840
gfz2014gltx  -0.50080
gfz2014glvn  -1.91060
gfz2014gmci   0.32820
gfz2014gmge  -0.38930
gfz2014gmhp  -1.08630
gfz2014gmhr  -2.00620
gfz2014gmip   0.39970
gfz2014gmjo   0.09660
gfz2014gmku   0.05340
gfz2014gmlz   0.11450
gfz2014gmmt  -0.50120
gfz2014gmnb  -0.17380
gfz2014gmnw  -0.83450
gfz2014gmor  -0.58650
gfz2014gmpy  -0.77920
gfz2014gmrj   0.03400
gfz2014gmuw   0.59690
gfz2014gmvr   0.46580
gfz2014gmzl  -0.22540
gfz2014gmzs   0.22260
gfz2014gnfd  -0.22530
gfz2014gnfs   0.12440
gfz2014gnnt   0.92560
gfz2014gnxb  -0.13340
gfz2014goba  -0.79880
gfz2014goei  -1.27860
gfz2014gogv   0.00620
gfz2014goqw  -0.17000
gfz2014gori  -0.44070
gfz2014gphr  -0.85500
gfz2014gpya  -1.43520
gfz2014gqbj  -0.20900
gfz2014gqed  -0.15510
gfz2014gqer  -0.30570
gfz2014gqjr   1.25050
gfz2014gqve  -0.01180
gfz2014gsgv   1.22510
gfz2014gsqs  -0.90010
gfz2014gtef  -0.56310
gfz2014gtwz   0.62720
gfz2014gufl   0.47610
gfz2014gull   0.03150
gfz2014gumd  -0.58040
gfz2014gutm   1.35210
gfz2014gvhw  -0.57440
gfz2014gvqj   0.42320
gfz2014gvrd  -0.08960
gfz2014gwab  -0.11150
gfz2014gxqu  -1.89960
gfz2014gxvf  -0.74980
gfz2014gxxo  -0.10880
gfz2014gzue  -1.30060
gfz2014hasj  -0.11360
gfz2014hbqb   0.48570
gfz2014hcmj  -0.18080
gfz2014hfhl   0.02140
gfz2014hgqo  -0.50070
gfz2014hhfs  -0.40020
gfz2014hiiz  -0.46110
gfz2014hjgh   0.54470
gfz2014hjgr  -0.41970
gfz2014hkcf  -0.48640
gfz2014hmrs  -1.05410
gfz2014hocg  -0.72110
gfz2014hqxs   0.15010
gfz2014hrft   0.00000
gfz2014hsqo   0.53360
gfz2014huaj  -1.15860
gfz2014hzdy   0.00000
gfz2014hzfw   0.40260
gfz2014hzgn   0.46840
gfz2014hzht  -1.35170
gfz2014iani   0.38350
gfz2014iava  -0.28440
gfz2014ieam  -0.60710
gfz2014ijvh   2.13460
gfz2014imap   0.51700
gfz2014imnn  -0.41060
gfz2014inbj  -1.11300
gfz2014itkw   0.36060
gfz2014iwwl  -0.94200
gfz2014iywt  -0.84100
gfz2014jbyg   0.29440
gfz2014jcjt   1.77930
gfz2014jdoy   0.19860
gfz2014jjhc   0.18440
gfz2014jjln   0.57210
gfz2014jnyv   0.68050
gfz2014jomw   0.08110
gfz2014jpep  -0.07850
gfz2014jwmh  -0.49680
gfz2014kara   1.51660
gfz2014kbwm  -2.14660
gfz2014khlk   0.17470
gfz2014kmmt   0.50350
gfz2014kndc  -0.08840
gfz2014knks  -0.28660
gfz2014knxs   0.12770
gfz2014krlg  -0.32310
gfz2014kwrg   2.22820
gfz2014kyan  -0.28980
gfz2014kytf  -0.27280
gfz2014lbcq  -0.67950
gfz2014lefs   3.00980
gfz2014lgqn  -0.65690
gfz2014lmge  -0.19580
gfz2014lnmw   0.18660
gfz2014lnqy  -0.57570
gfz2014lpim   0.24360
gfz2014lrzx  -0.29940
gfz2014lxnc   1.04400
gfz2014lyhk  -0.85990
gfz2014lyhp   0.37880
gfz2014macx   0.40420
gfz2014madw   0.86580
gfz2014mtum  -1.05500
gfz2014mxkr   0.52680
gfz2014ndue  -0.20560
gfz2014niqj   0.17160
gfz2014nkdx   0.35420
gfz2014nowp  -1.31330
gfz2014npeo   1.70790
gfz2014nphm  -0.62660
gfz2014nqfm   0.70230
gfz2014nrie   0.13640
gfz2014obbs  -0.58350
gfz2015lytv  -1.73850
gfz2015lzad   0.10480
gfz2015mddr   0.17970
gfz2015mfpy  -2.17330
gfz2015mhym   0.26420
gfz2015mvzk   2.51530
gfz2015nuxz  -0.11180
gfz2015ocdz   1.08930
gfz2015okmq   0.10370
gfz2015opjp  -0.72380
gfz2015othd   0.25210
gfz2015oyfl   1.89610
gfz2015pjgr   0.22450
gfz2015poni  -0.18120
gfz2015prlr  -0.51810
gfz2015puah   0.41740
gfz2015puqp  -0.00000
gfz2015qisx   0.24170
gfz2015qnho  -0.59730
gfz2015qnlv  -0.14230
gfz2015qnto  -0.57510
gfz2015sicf  -0.00900
gfz2015siof  -0.03560
gfz2015snwh  -0.47260
gfz2015soxc  -2.46220
gfz2015sqmy  -0.11160
gfz2015srat  -0.21270
gfz2015ssoe   0.55330
gfz2015sspn   0.83090
gfz2015ssrl  -0.60950
gfz2015stfy   1.82810
gfz2015subg  -0.75200
gfz2015subz  -0.63070
gfz2015sudm   0.71240
gfz2015svwm  -1.66550
gfz2015taml   0.45940
