# Nsamples: 111  MAD:  0.461  mean:  0.088  variance:  0.496
gfz2010bjeb   0.06890
gfz2010bxxs  -0.36310
gfz2010cqwl  -0.06300
gfz2010ebhc  -0.49430
gfz2010eruy   1.63380
gfz2010grjd  -0.90850
gfz2010gyqp   0.70920
gfz2010iull   0.38840
gfz2010lluj  -0.41910
gfz2010mkuu   0.14750
gfz2010nmpc   0.02730
gfz2010pbdz   0.15310
gfz2010sysw   1.43810
gfz2010usho   1.18690
gfz2011aatr   0.34600
gfz2011bgrp   0.66860
gfz2011cfae   0.88410
gfz2011dpqx   0.03830
gfz2011enva   0.07940
gfz2011gkzt   0.13680
gfz2011hlqw  -0.35070
gfz2011hlsa  -0.14310
gfz2011hlth  -0.27540
gfz2011jplh  -0.01230
gfz2011lcxq   0.76370
gfz2011lzwj   0.40240
gfz2011rewa   0.05770
gfz2011toub   0.41580
gfz2012jlox   0.48600
gfz2012kkup   0.03130
gfz2012klhx  -0.04880
gfz2012kuct  -1.11080
gfz2012kudo  -0.13680
gfz2012ldxg   0.59810
gfz2012ldzj   0.19570
gfz2012sphd   0.00300
gfz2012teic   0.77730
gfz2012ttoa   0.63350
gfz2012vrgb  -0.23300
gfz2012wypz   0.18880
gfz2013drxz   0.23440
gfz2013ifpq   0.38620
gfz2013jkut   0.41460
gfz2013kdeo  -0.20390
gfz2013nkgj   0.90030
gfz2013nwdi  -0.52910
gfz2013pfbx   0.10190
gfz2013svci   0.43380
gfz2014afmx   0.62000
gfz2014ande   0.43980
gfz2014bwue  -0.65130
gfz2014fgvi   0.55190
gfz2014fhdw   0.27840
gfz2014fhla  -0.94860
gfz2014fhwx  -1.98000
gfz2014fimn  -0.33150
gfz2014fkmr   0.19600
gfz2014frez   0.18340
gfz2014ftka   1.08970
gfz2014ftoc   0.67650
gfz2014fusj   0.45510
gfz2014fval   0.63570
gfz2014gbcz   0.13480
gfz2014gkgf   0.73780
gfz2014gkhy  -0.53860
gfz2014gkjt   0.25330
gfz2014gkqf   0.19210
gfz2014gkqu  -3.52310
gfz2014gktq  -0.46960
gfz2014gltx   0.25360
gfz2014gmge   0.29240
gfz2014gmhr  -0.72490
gfz2014gmnb  -0.00690
gfz2014gmnw  -2.25560
gfz2014goba   0.04100
gfz2014goqw   0.23810
gfz2014gqer   1.78660
gfz2014gull   0.26700
gfz2014gxxo   0.95000
gfz2014hagb   0.22250
gfz2014hasj   0.03580
gfz2014hfhl  -0.65610
gfz2014hjgr   0.52350
gfz2014hocg  -0.12390
gfz2014hqxs   0.59990
gfz2014huaj  -0.40640
gfz2014jjhc   0.07470
gfz2014jpep   0.03790
gfz2014lgqn   0.58080
gfz2014lxnc   0.46000
gfz2014lyhk  -0.38830
gfz2014macx   0.10860
gfz2014nqfm  -0.00000
gfz2014oinz  -0.22890
gfz2014pvch   0.30850
gfz2014qlxd   0.23700
gfz2014qqhm   0.48210
gfz2014rdsn   0.35740
gfz2014ssvz  -0.43180
gfz2014ubwn  -0.96590
gfz2014vjoz   0.17390
gfz2015berb  -0.17610
gfz2015chhn   0.56000
gfz2015cyjd   0.93840
gfz2015fsjj   0.30410
gfz2015hgbk  -1.58420
gfz2015jzcv   0.10240
gfz2015kvwz  -0.26410
gfz2015lhjy   0.44600
gfz2015mpte   0.45590
gfz2015okmq  -0.46890
