# Nsamples: 108  MAD:  0.479  mean: -0.145  variance:  0.455
gfz2010ahqi  -0.27870
gfz2010bjeb  -0.23020
gfz2010cqwl  -0.45290
gfz2010eawb  -0.72240
gfz2010eawu   1.22600
gfz2010ebhc  -0.56980
gfz2010ecua   0.65500
gfz2010ekyc   0.16180
gfz2010erkn  -0.39110
gfz2010fqdu  -0.41690
gfz2010fync   1.76860
gfz2010grjd   0.10080
gfz2010gyqp  -0.16480
gfz2010iull   0.11130
gfz2010mkuu   0.18180
gfz2010nmpc  -0.47330
gfz2010nwef   0.09070
gfz2010sysw   0.31540
gfz2010urlq  -1.09360
gfz2010usho   0.07480
gfz2010ustq  -0.68100
gfz2011aatr   0.15810
gfz2011bgrp  -0.38170
gfz2011csju   0.18330
gfz2011dpqx  -0.16440
gfz2011enva  -0.55230
gfz2011gkzt  -0.92700
gfz2011hlqw  -0.63600
gfz2011hlsa  -0.52000
gfz2011hlth  -0.65420
gfz2011jplh  -0.00000
gfz2011lcxq   0.26980
gfz2011lzwj   0.02600
gfz2011mdie  -0.13740
gfz2011mjom   0.10960
gfz2011owvz   0.24490
gfz2011rewa  -0.27980
gfz2011toub   0.30890
gfz2011wxfs  -0.06320
gfz2011xyxj  -0.04530
gfz2012bfah   0.49630
gfz2012enno  -0.13330
gfz2012hnul   0.28280
gfz2012ilvn  -0.29470
gfz2012jlox  -0.03760
gfz2012kkup  -0.52580
gfz2012klhx  -0.49820
gfz2012kuct  -0.02640
gfz2012kudo  -0.15920
gfz2012ldxg   1.19890
gfz2012ldzj  -0.25010
gfz2012ostk  -1.32100
gfz2012sphd  -1.30430
gfz2012teic   0.75520
gfz2012ttoa   0.52240
gfz2012wypz   0.28000
gfz2013aqaw  -0.22870
gfz2013drxz  -0.41980
gfz2013jkut   0.19930
gfz2013kdeo  -0.19090
gfz2013ldqb   2.58490
gfz2013nkgj  -0.23320
gfz2013nqgw   0.39750
gfz2013nwdi  -0.90500
gfz2013qali  -1.79830
gfz2013svci   0.12600
gfz2013vjjc  -0.09520
gfz2013xsdt  -0.17200
gfz2013ypdc  -0.43220
gfz2014afmx   0.17660
gfz2014ande  -2.56460
gfz2014bwue  -0.46380
gfz2014fgvi  -0.14760
gfz2014fhla  -0.84310
gfz2014frdz  -1.13930
gfz2014ftka  -0.38630
gfz2014gkgf  -0.76570
gfz2014gmhr   1.17540
gfz2014goba   1.25650
gfz2014gull  -0.01020
gfz2014hasj  -0.64780
gfz2014hjgr  -1.37130
gfz2014hocg  -0.06050
gfz2014huaj  -0.67510
gfz2014itkw   0.23570
gfz2014jjhc   0.07900
gfz2014jpep   0.87940
gfz2014lgqn  -0.01030
gfz2014lxnc   0.18670
gfz2014macx  -0.87900
gfz2014npeo   0.10780
gfz2014nqfm  -0.46580
gfz2014oinz  -0.55620
gfz2014qlxd  -0.82960
gfz2014qqhm  -0.08200
gfz2014ssvz  -0.02540
gfz2015berb  -0.43910
gfz2015chhn  -0.10580
gfz2015cyjd   0.40530
gfz2015fsjj  -0.17070
gfz2015qnho  -0.43790
gfz2015sjgk   0.99060
gfz2015sjoj  -0.14530
gfz2015snwh  -1.00790
gfz2015soat  -0.12150
gfz2015svwm   0.07690
gfz2015taml   0.03740
gfz2015tchx  -0.83730
