# Nsamples: 7  MAD:  1.076  mean:  3.759  variance:  2.849
gfz2010eaqy   3.88100
gfz2010ecua   2.11850
gfz2011aatr   3.15500
gfz2011adjs   2.51870
gfz2011hlsa   7.60920
gfz2011rewa   3.95550
gfz2012enno   3.07500
