# Nsamples: 60  MAD:  0.684  mean: -0.350  variance:  0.776
gfz2010bxxs  -0.69140
gfz2010eaoy  -0.84680
gfz2010ebhc   0.16970
gfz2010eisx   0.16010
gfz2010ekyc   0.18290
gfz2010excp  -3.10400
gfz2010fync  -1.03200
gfz2010grjd   0.85990
gfz2010iull  -0.60810
gfz2010nmpc  -0.03490
gfz2011aatr   0.10820
gfz2011ccpw  -2.83160
gfz2011enva  -0.49870
gfz2011gkzt  -0.79280
gfz2011hlsa   0.38660
gfz2011lcxq  -0.87630
gfz2011rewa  -0.34380
gfz2011toub   0.16250
gfz2011wxfs  -0.06120
gfz2012enno  -0.00870
gfz2012hnul   1.03230
gfz2012jlox  -0.45870
gfz2012kkup   0.59020
gfz2012kuct  -0.48440
gfz2012kudo  -0.13480
gfz2012ldxg   0.15010
gfz2012ljql  -0.39800
gfz2012wypz   0.05640
gfz2013ccnr   0.50100
gfz2013jkut  -0.57090
gfz2013nkgj  -0.30980
gfz2013nwdi  -0.84920
gfz2013svci  -0.85640
gfz2013vjjc   1.89650
gfz2014bwue  -0.49820
gfz2014ejmt  -1.57000
gfz2014fgvi  -0.89180
gfz2014fhla  -0.48710
gfz2014fsuh   1.10600
gfz2014ftka  -1.27690
gfz2014ghpe  -1.10590
gfz2014gkgf  -0.13770
gfz2014gmge   0.91760
gfz2014gmhr   1.11780
gfz2014gmnb  -1.34330
gfz2014gmnw  -0.25400
gfz2014gnre   1.56460
gfz2014goba  -0.12940
gfz2014ssvz  -0.38460
gfz2014tqdo  -0.47900
gfz2014ubwn  -0.48770
gfz2015cyjd  -0.38370
gfz2015fsjj  -0.54130
gfz2015gckd  -0.12160
gfz2015lhjy  -0.23180
gfz2015lytv  -0.76670
gfz2015mpte  -0.87680
gfz2015sfdd  -1.07080
gfz2015sfdy  -1.91740
gfz2015svwm  -1.21100
