# Nsamples: 206  MAD:  0.607  mean: -0.024  variance:  0.695
gfz2010ahla   0.59040
gfz2010bowy   0.11860
gfz2010boxo  -0.23170
gfz2010bxxs  -1.52560
gfz2010cdbt  -0.39240
gfz2010ckeu  -0.47400
gfz2010ckzm  -0.05750
gfz2010cqwl  -0.52260
gfz2010ebhc  -0.44980
gfz2010fqdu   1.84220
gfz2010ftlm  -0.29590
gfz2010grjd   0.51810
gfz2010homc   0.94410
gfz2010hxhe   0.25920
gfz2010iciq   0.27990
gfz2010irvf   1.59660
gfz2010iull   0.38300
gfz2010jkxj   0.35310
gfz2010kmsv   0.45380
gfz2010lczp  -0.99310
gfz2010lepw   0.30110
gfz2010lluj   2.55630
gfz2010mkuu  -0.05950
gfz2010nlkh  -0.81600
gfz2010nmpc  -0.74750
gfz2010nnny   1.23220
gfz2010sfee   0.04610
gfz2010usho   0.91320
gfz2010wnty  -1.02930
gfz2010wofs   0.09270
gfz2010ymur  -0.22790
gfz2010yosr   0.72780
gfz2010yqqb  -0.09300
gfz2011aatr  -0.37180
gfz2011enva  -0.02560
gfz2011gkzt  -0.78900
gfz2011hlsa  -0.33890
gfz2011ixai  -0.40940
gfz2011lcxq   0.70530
gfz2011lvjr  -0.37450
gfz2011lzwj  -0.66630
gfz2011mdie  -0.97640
gfz2011mjom  -0.40450
gfz2011nkaz   0.77090
gfz2011npgs  -0.03080
gfz2011nrwc  -0.95090
gfz2011nrwv   0.04680
gfz2011oiqe  -0.03980
gfz2011rewa   0.12090
gfz2011toub  -1.29060
gfz2011vhfi  -1.58550
gfz2011wxfs   0.06400
gfz2012cgvr   0.47700
gfz2012czlw   0.31840
gfz2012dyyh   0.46270
gfz2012enno  -0.09190
gfz2012ewgo   0.37850
gfz2012jlox  -0.04040
gfz2012kbjb  -0.28840
gfz2012kkup  -0.27450
gfz2012kudo  -0.84680
gfz2012ldxg   0.40890
gfz2012llug  -0.23430
gfz2012minr  -0.04160
gfz2012nojx   0.06620
gfz2012nolo  -1.35480
gfz2012nsbz  -0.74900
gfz2012ronz  -0.60670
gfz2012sphd  -0.70260
gfz2012teic  -0.23460
gfz2012ttoa  -1.49700
gfz2012vpza   1.12690
gfz2012vrgb   0.97890
gfz2012wypz  -0.35220
gfz2012zemz  -0.18170
gfz2013dojq   0.20430
gfz2013drxz  -0.86710
gfz2013dsog   0.02200
gfz2013dspt  -2.42360
gfz2013dsrk  -1.01870
gfz2013fcto   0.89480
gfz2013ftso  -0.79920
gfz2013ifpq  -0.25960
gfz2013jkut   0.23260
gfz2013jwvc  -1.01520
gfz2013kdeo  -0.42960
gfz2013kwag   0.15040
gfz2013ldqb   0.07380
gfz2013lsob  -0.36600
gfz2013mqmv  -0.66430
gfz2013ncjp   1.57170
gfz2013nixj   1.27300
gfz2013nuvi  -0.69300
gfz2013nwdi   0.53100
gfz2013pfbx  -0.07300
gfz2013suvn   1.52210
gfz2013svci   0.22440
gfz2013tusd  -0.40630
gfz2013uxej   0.74610
gfz2013vexx  -0.02070
gfz2013ypdc   0.33300
gfz2014afmx   0.74600
gfz2014algk  -0.24410
gfz2014ande  -0.38950
gfz2014bfng   0.09070
gfz2014bwue  -0.72800
gfz2014bzxy   1.40650
gfz2014chdv  -0.18400
gfz2014fgvi  -0.19180
gfz2014fhbd   0.63430
gfz2014fhdw   0.33000
gfz2014fhla   0.66550
gfz2014fhwx  -0.26830
gfz2014fimn   0.40470
gfz2014fkmr   2.85170
gfz2014frdz  -0.00000
gfz2014frez   0.39870
gfz2014frwh  -3.91380
gfz2014ftka  -0.43990
gfz2014furx  -0.34710
gfz2014fval   0.09240
gfz2014fvrg  -0.16560
gfz2014ghpe  -0.23910
gfz2014gkgf  -0.64220
gfz2014gkhp   3.25310
gfz2014gkqf  -0.48930
gfz2014gkqu   0.53890
gfz2014gktq   0.05680
gfz2014glcu   0.12940
gfz2014gltx   0.34090
gfz2014gmge   0.75140
gfz2014gmhr  -1.38770
gfz2014gmip   0.58150
gfz2014gmku   0.06080
gfz2014gmnb   0.55620
gfz2014gmnw   0.12170
gfz2014gmor   0.14340
gfz2014gmuk  -2.49600
gfz2014gmzl  -0.70730
gfz2014goba  -0.04770
gfz2014goqw  -0.20220
gfz2014gqer   2.24060
gfz2014gqve   0.40550
gfz2014gumd  -0.52260
gfz2014gwab   0.16800
gfz2014gwqj   1.92020
gfz2014gxxo   0.90270
gfz2014hasj  -0.34820
gfz2014hbqb  -0.71840
gfz2014hfhl   0.49260
gfz2014hgqo  -0.56510
gfz2014hjgr   0.23660
gfz2014hjij   0.09770
gfz2014hkcf  -0.70940
gfz2014hqxs  -0.12330
gfz2014huaj   0.58410
gfz2014itkw  -0.24390
gfz2014jcmt  -0.22430
gfz2014jjhc  -1.08130
gfz2014jjln   0.22300
gfz2014jpep   0.00330
gfz2014kbuk   0.12530
gfz2014kitm  -1.45710
gfz2014kwrg  -0.58240
gfz2014lgqn   0.20300
gfz2014lnqy  -0.51970
gfz2014lxnc  -0.51630
gfz2014lyhk  -0.99810
gfz2014macx   0.12750
gfz2014ndue  -0.04950
gfz2014niqj  -0.42710
gfz2014nnxd  -0.73030
gfz2014nqfm   0.46820
gfz2014nrie   0.02420
gfz2014oinz   0.81930
gfz2014owxc   0.16700
gfz2014pvch   0.35370
gfz2014qlxd   0.06390
gfz2014qqhm   0.12410
gfz2014rdsn  -0.00000
gfz2014ssvz  -0.94230
gfz2014tqdo  -0.25670
gfz2014ubwn   0.40420
gfz2014vhms   0.04970
gfz2014watn  -0.78990
gfz2014wrkh  -0.10960
gfz2014xjri  -1.70070
gfz2015aruz   0.62710
gfz2015atxv  -0.26290
gfz2015bphe  -0.03680
gfz2015cyjd  -0.65850
gfz2015dvbn  -0.99900
gfz2015fjhk   0.38770
gfz2015fsjj   0.04560
gfz2015gckd  -0.47140
gfz2015jmlf   1.19980
gfz2015jzcv   0.03690
gfz2015kakw   0.02910
gfz2015kquq  -0.02200
gfz2015kxxs   1.53910
gfz2015lhjy   0.06590
gfz2015mbgr   0.46190
gfz2015mpte  -0.03150
gfz2015okmq   0.69840
gfz2015quzo   0.59930
gfz2015taml  -0.08350
