# Nsamples: 11  MAD:  0.867  mean: -0.543  variance:  0.868
gfz2012vrgb   0.07860
gfz2013svci   0.03260
gfz2014bwue  -0.73220
gfz2014fgvi  -0.39250
gfz2014fhla   1.22930
gfz2014ftka  -0.78390
gfz2014ftoc  -1.88880
gfz2014gkgf  -1.37740
gfz2014gmhr  -2.02430
gfz2014nqfm  -0.50600
gfz2014qqhm   0.38770
