# Nsamples: 36  MAD:  0.549  mean: -0.167  variance:  0.484
gfz2011lcxq  -0.31890
gfz2011lzwj  -0.02670
gfz2011rewa   0.69400
gfz2011toub  -0.42550
gfz2011wxfs  -0.57140
gfz2012enno  -0.04980
gfz2012jlox  -0.43060
gfz2012kkup  -0.04260
gfz2012klhx   1.27940
gfz2012kudo  -0.40230
gfz2012ldxg   0.15570
gfz2012ldzj  -0.56240
gfz2012teic   0.96240
gfz2012vrgb   0.29830
gfz2012wypz  -0.11810
gfz2013drxz   0.15870
gfz2013jkut   0.00000
gfz2013kdeo  -0.06900
gfz2013nwdi   0.43570
gfz2013svci   0.01410
gfz2014bwue  -0.69150
gfz2014fgvi  -0.48370
gfz2014ftka  -0.72360
gfz2014ftoc  -0.81820
gfz2014gkgf  -1.52540
gfz2014gkhy  -0.77820
gfz2014gkqf  -0.55180
gfz2014gmvr  -2.16820
gfz2014goba  -0.62110
gfz2014gyxd   1.05020
gfz2014nqfm  -0.30800
gfz2015berb  -0.63210
gfz2015cyjd   1.14060
gfz2015lhjy  -0.57460
gfz2015mpte   0.21330
gfz2015taml   0.48870
