# Nsamples: 44  MAD:  0.453  mean: -0.162  variance:  1.492
gfz2010bxxs  -0.32130
gfz2010ebhc  -0.20560
gfz2010iull  -0.36150
gfz2010nmpc  -0.32790
gfz2010wioh   5.44460
gfz2011aatr  -0.18940
gfz2011enva  -0.70580
gfz2011gkzt   0.06020
gfz2011hlqw   0.23270
gfz2011hlsa   0.34220
gfz2011lzwj  -0.31800
gfz2011rewa   1.17300
gfz2011toub  -0.27710
gfz2011wxfs  -0.47620
gfz2012enno   0.02730
gfz2012jlox  -0.35430
gfz2012kkup   0.03430
gfz2012kudo  -0.36160
gfz2012ldxg   0.10120
gfz2012ldzj  -0.53470
gfz2012teic   0.53700
gfz2012vrgb  -0.15230
gfz2012wypz  -0.17400
gfz2013drxz   1.73510
gfz2013jkut  -0.06010
gfz2013nwdi  -1.11470
gfz2013pfbx  -0.44800
gfz2013svci   0.14500
gfz2014bwue  -0.26770
gfz2014fgvi  -0.70130
gfz2014ftka  -0.44370
gfz2014gkgf  -1.94590
gfz2014gkqf  -1.26850
gfz2014gmvr  -3.98370
gfz2014jjhc   0.08030
gfz2014lxnc  -1.11550
gfz2014nqfm  -0.82130
gfz2014ssvz  -0.27240
gfz2014vjoz  -0.10090
gfz2015berb  -0.48740
gfz2015cyjd   1.86730
gfz2015fsjj  -0.98660
gfz2015lhjy  -0.36250
gfz2015taml   0.21980
