# Nsamples: 41  MAD:  0.521  mean: -0.204  variance:  0.333
gfz2010bxxs  -0.25310
gfz2010ebhc   0.19040
gfz2010grjd  -1.40530
gfz2010nmpc  -0.18090
gfz2011aatr   0.18280
gfz2011enva  -0.50120
gfz2011hlqw   0.18780
gfz2011hlsa   0.09560
gfz2011lcxq  -0.41190
gfz2011lzwj  -0.25600
gfz2011rewa   0.50050
gfz2011toub   0.09840
gfz2011wxfs  -0.33110
gfz2012enno  -0.53600
gfz2012jlox  -0.03530
gfz2012kkup  -0.12780
gfz2012klhx   0.29240
gfz2012ldxg   0.35890
gfz2012vrgb  -0.41190
gfz2012wypz   0.02100
gfz2013jkut   0.12280
gfz2013nwdi  -0.17510
gfz2013svci   0.06070
gfz2014bwue  -0.46840
gfz2014fgvi  -0.61760
gfz2014fhla  -0.50870
gfz2014ftka  -0.64890
gfz2014gkgf  -1.64920
gfz2014gkqf  -0.98910
gfz2014goba  -0.47040
gfz2014hasj  -0.36040
gfz2014jpep  -1.12940
gfz2014lxnc  -0.32710
gfz2014nqfm  -0.65760
gfz2014qlxd  -0.49160
gfz2014qqhm   0.49210
gfz2014ssvz   0.98460
gfz2015cyjd   1.44550
gfz2015fsjj  -0.69990
gfz2015lhjy  -0.31600
gfz2015mpte   0.54910
