# Nsamples: 26  MAD:  0.504  mean: -0.226  variance:  0.638
gfz2012jlox  -0.03440
gfz2012kkup   0.02810
gfz2012klhx   0.33640
gfz2012kudo   0.06810
gfz2012ldxg   0.09510
gfz2012ttoa   0.99850
gfz2012wypz  -0.34320
gfz2013jkut   0.29450
gfz2013nwdi  -0.74030
gfz2013pfbx  -0.64410
gfz2013svci   0.03310
gfz2014ande  -1.13490
gfz2014bwue  -0.23150
gfz2014fgvi  -0.26730
gfz2014ftka   0.65870
gfz2014gkgf  -2.03230
gfz2014gkqf  -0.46030
gfz2014gmhr  -2.73150
gfz2014gmnb   0.06920
gfz2014goba  -0.52020
gfz2014hasj   0.18240
gfz2014nqfm  -0.71300
gfz2014qqhm   0.18960
gfz2014ssvz   0.35590
gfz2015lhjy  -0.27980
gfz2015taml   0.95200
