# Nsamples: 32  MAD:  0.487  mean: -0.216  variance:  0.705
gfz2011wxfs  -0.60700
gfz2012enno  -0.12350
gfz2012jlox  -0.25090
gfz2012kudo  -1.91310
gfz2012ldxg   0.36850
gfz2012vrgb  -0.84280
gfz2012wypz  -0.28480
gfz2013jkut  -0.00860
gfz2013nwdi  -0.49390
gfz2013svci   0.10120
gfz2014bwue  -0.21230
gfz2014fgvi  -0.52670
gfz2014fhla  -0.00960
gfz2014ftka  -0.33200
gfz2014gkgf  -1.82680
gfz2014gkqf  -0.70810
gfz2014gmhr   0.96780
gfz2014gmnb  -0.31710
gfz2014goba   0.07470
gfz2014gull   0.43200
gfz2014hasj   0.68110
gfz2014lgqn   0.36730
gfz2014lyhk   0.28960
gfz2014nqfm  -0.91440
gfz2014qqhm   0.12770
gfz2014ssvz   1.73340
gfz2014ubwn  -0.02000
gfz2015cyjd   0.94500
gfz2015fjhk  -2.74270
gfz2015fsjj  -0.49180
gfz2015lhjy  -0.15130
gfz2015mpte  -0.23770
