# Nsamples: 979  MAD:  0.472  mean:  0.024  variance:  0.417
gfz2010bfzs   0.39330
gfz2010bgth   0.13030
gfz2010bhhq  -0.16160
gfz2010bifb   0.08370
gfz2010bjeb  -0.25380
gfz2010bjsl  -1.32500
gfz2010bkob   0.94610
gfz2010bowy  -0.42610
gfz2010boxo   0.07360
gfz2010bxxs   0.08240
gfz2010caft  -0.56700
gfz2010cind   0.10380
gfz2010cjrf   0.13890
gfz2010cqwl  -0.16910
gfz2010ctuw  -0.55820
gfz2010czps  -0.15410
gfz2010eaoy   0.70660
gfz2010eapk   1.00930
gfz2010eapn  -0.22550
gfz2010eaqe   0.08780
gfz2010eaqx   0.14850
gfz2010eaqy   0.59870
gfz2010earq  -0.71620
gfz2010earu  -1.63920
gfz2010easf   0.76260
gfz2010eask  -0.16050
gfz2010easo   0.20310
gfz2010easu   0.84360
gfz2010eati   0.35760
gfz2010eato  -0.33630
gfz2010eatt   0.22370
gfz2010eaty  -1.08190
gfz2010eaul   0.16550
gfz2010eavd   0.86200
gfz2010eavp  -0.63470
gfz2010eavs  -0.16660
gfz2010eawb   0.17660
gfz2010eawu  -0.12320
gfz2010eayd  -0.02070
gfz2010eayp   0.48070
gfz2010eayx  -0.23910
gfz2010eaze  -0.33910
gfz2010eazu   0.16870
gfz2010ebbd   0.13020
gfz2010ebbx   0.97160
gfz2010ebby   0.02470
gfz2010ebeh   0.01390
gfz2010ebek   0.53810
gfz2010ebfa   0.27190
gfz2010ebfx   0.21010
gfz2010ebgj   0.38590
gfz2010ebhc  -0.73850
gfz2010ebih   0.23660
gfz2010ebin   0.17530
gfz2010ebiv  -0.66630
gfz2010ebjg  -0.11460
gfz2010ebjy   0.05640
gfz2010ebkj   0.24610
gfz2010ebkx  -0.45160
gfz2010ebla  -0.25020
gfz2010ebll  -0.18770
gfz2010ebmb   0.25160
gfz2010ebmi  -0.54500
gfz2010ebnn   0.14040
gfz2010ebqt  -0.36780
gfz2010ebrm   0.06360
gfz2010ebsv  -0.21570
gfz2010ebtk  -0.48780
gfz2010ebvm  -0.42330
gfz2010ebvv   0.17960
gfz2010ebwp   0.00000
gfz2010ebxl   0.22220
gfz2010ebze   0.52870
gfz2010ebzk  -0.35330
gfz2010ebzr   0.05400
gfz2010ecam   0.46520
gfz2010ecay  -1.16870
gfz2010ecbi   0.77680
gfz2010ecdu   0.61850
gfz2010eced  -0.32910
gfz2010ecft   0.27740
gfz2010ecfx  -0.55680
gfz2010ecgh   0.06340
gfz2010echc  -0.23790
gfz2010echt  -0.69010
gfz2010echy  -0.63180
gfz2010ecka  -1.12510
gfz2010ecls   1.05430
gfz2010ecml  -1.10730
gfz2010ecns   0.63180
gfz2010ecpg   0.00000
gfz2010ecps  -0.26040
gfz2010ecsp   0.38300
gfz2010ectq  -0.06220
gfz2010ecua  -0.09920
gfz2010ecuv   0.94240
gfz2010ecvt  -0.07110
gfz2010ecyr  -0.83600
gfz2010edad   1.03470
gfz2010edat   0.95680
gfz2010edbz   0.52480
gfz2010edcp   0.99600
gfz2010edde   0.31020
gfz2010edhr  -0.24060
gfz2010edhv   0.02000
gfz2010edim  -0.23380
gfz2010edji  -0.34280
gfz2010edkp  -0.31270
gfz2010edpb  -0.13940
gfz2010edqd   0.20690
gfz2010edqh   0.10560
gfz2010edsk   0.19430
gfz2010edvf   0.02280
gfz2010edyi   0.02220
gfz2010edzb   0.25050
gfz2010eedu  -0.46580
gfz2010eedz   0.00870
gfz2010eefo   0.20230
gfz2010eeia   0.05410
gfz2010eeij   0.49870
gfz2010eekg   0.15660
gfz2010eekq   0.43030
gfz2010eell   0.23510
gfz2010eeqy  -0.97850
gfz2010eerh  -0.20240
gfz2010eern  -0.24120
gfz2010eesf  -0.15600
gfz2010eevu   0.14030
gfz2010eexz   0.02010
gfz2010eeyh   0.81670
gfz2010efak   0.11760
gfz2010efbi   0.06220
gfz2010efkc  -1.11430
gfz2010efls   0.47050
gfz2010efnf   0.22950
gfz2010efsq   0.41540
gfz2010eghq   1.14100
gfz2010egmp   0.03730
gfz2010egqh  -0.51940
gfz2010egsw  -0.69880
gfz2010egyy   0.73010
gfz2010ehaj  -0.60630
gfz2010ehft  -0.44640
gfz2010ehrq  -1.04340
gfz2010ehsy   0.22770
gfz2010ehxz  -0.23040
gfz2010eimf  -0.88080
gfz2010eiqi   0.11540
gfz2010eisx  -1.09800
gfz2010eixj  -0.15760
gfz2010ejae  -0.37280
gfz2010ejjg   0.00000
gfz2010ejju   0.09200
gfz2010ejka  -0.30980
gfz2010ejma  -0.42120
gfz2010ekaw   0.79230
gfz2010elhv  -0.03920
gfz2010elin  -1.15700
gfz2010elpu  -0.09170
gfz2010elsw  -0.37090
gfz2010eltf  -0.01340
gfz2010elvp  -0.09740
gfz2010elxi   0.79660
gfz2010elyc  -0.05850
gfz2010elyo  -0.97440
gfz2010elzf  -0.14730
gfz2010elzl  -0.52910
gfz2010emoz  -0.42510
gfz2010encm  -0.35350
gfz2010enpa  -0.97380
gfz2010eoao  -0.89470
gfz2010eomb   0.34080
gfz2010epbe   0.07900
gfz2010epud   0.04410
gfz2010epxj   0.13370
gfz2010epzk   0.49300
gfz2010eqcn   0.24660
gfz2010eqjg   0.05040
gfz2010eqmu  -0.84900
gfz2010eqwl  -0.19110
gfz2010erda   0.63320
gfz2010erdi   0.30320
gfz2010erkn  -0.50130
gfz2010erna  -0.11170
gfz2010erom  -0.31710
gfz2010erum  -0.22260
gfz2010eruy  -0.14770
gfz2010erwn  -0.27930
gfz2010erxk   0.38910
gfz2010eryg   0.38800
gfz2010esid   0.40180
gfz2010euae   0.21390
gfz2010euan  -0.05010
gfz2010euii  -0.19340
gfz2010eujm  -0.50320
gfz2010evco   0.32200
gfz2010evgf   0.39650
gfz2010ewbc  -0.93640
gfz2010ewvc   0.65980
gfz2010ewyu  -0.20830
gfz2010excp   0.46120
gfz2010exdd  -1.29820
gfz2010exdl  -0.20500
gfz2010exed  -0.83140
gfz2010exel   0.10600
gfz2010exgb   0.10430
gfz2010exhd  -0.49360
gfz2010exhw  -0.06640
gfz2010exjw  -0.03610
gfz2010exlm   0.65890
gfz2010exmc   0.28140
gfz2010exno   0.04210
gfz2010exou  -0.02050
gfz2010exqu  -0.11970
gfz2010exsg  -0.11690
gfz2010exts   0.27680
gfz2010exyp  -0.29860
gfz2010eyaz   0.66640
gfz2010eybj   2.78330
gfz2010eyhh  -0.41260
gfz2010eymr  -0.33370
gfz2010eymx  -0.66340
gfz2010eyqe   0.51660
gfz2010eyvq   0.40880
gfz2010eyxe  -0.24010
gfz2010ezax   0.04490
gfz2010ezck   0.43950
gfz2010ezjk   0.00000
gfz2010ezvg   0.21550
gfz2010ezvt   0.13630
gfz2010ezwz  -0.03380
gfz2010ezxd  -0.67040
gfz2010falm  -0.06140
gfz2010fauz  -0.24240
gfz2010faxg   0.18160
gfz2010fbeu   0.71510
gfz2010fbpi   0.02170
gfz2010fcax  -0.10680
gfz2010fcnn  -0.11780
gfz2010fcnt  -0.58930
gfz2010fcxy  -4.42940
gfz2010fcyj   0.44640
gfz2010fczt   0.07250
gfz2010fedq   0.12560
gfz2010fefr   0.32290
gfz2010ffhq   0.58500
gfz2010ffjb  -0.08270
gfz2010ffui  -1.74770
gfz2010figq   0.34130
gfz2010fika  -0.79070
gfz2010fixr  -0.10740
gfz2010fjal  -0.31690
gfz2010fjas  -0.01960
gfz2010fkhd  -0.14880
gfz2010fkia   0.19730
gfz2010fknh   0.03290
gfz2010fkvg  -0.09090
gfz2010flha  -0.09950
gfz2010flrt   0.61810
gfz2010flxi  -0.00230
gfz2010fmhb   0.46820
gfz2010fmpy   0.30650
gfz2010fneu  -0.08600
gfz2010fnrk  -0.31090
gfz2010fpqy   0.17190
gfz2010ghyk   0.25720
gfz2010gjia   0.57260
gfz2010gjvo   0.36900
gfz2010glqr  -0.43620
gfz2010glxl  -0.03650
gfz2010grjd   0.57660
gfz2010gslu   0.63600
gfz2010gtzt  -0.45540
gfz2010gvya   0.53320
gfz2010gyqp  -0.23800
gfz2010gzxr  -0.30660
gfz2010jpss   0.61690
gfz2010jpyj  -0.31750
gfz2010jqxx   0.00000
gfz2010jtal   0.11450
gfz2010jucj   0.45250
gfz2010jxbm   0.37500
gfz2010jygz  -0.36680
gfz2010kcoo  -0.34470
gfz2010kdyc  -0.23750
gfz2010kgws  -0.22930
gfz2010kmgg  -0.73140
gfz2010kraw   0.33030
gfz2010liqs   0.70580
gfz2010lkcf   0.16080
gfz2010lluj  -0.25040
gfz2010lopz  -0.25750
gfz2010lruw  -0.15480
gfz2010lyfk  -0.19960
gfz2010mant  -0.47480
gfz2010mcrx   0.17340
gfz2010mdpq  -0.33410
gfz2010mfpt   0.88220
gfz2010mgss  -0.06640
gfz2010miil   0.24220
gfz2010miqn   0.04170
gfz2010mkuu   0.73880
gfz2010mlta  -0.15550
gfz2010mncc   0.18040
gfz2010moyw   0.07320
gfz2010mpuy   0.44800
gfz2010muca  -0.22800
gfz2010ncrl   0.46380
gfz2010nfsj   0.12490
gfz2010nmpc  -0.60900
gfz2010nqwf   0.30480
gfz2010nqwo   1.16300
gfz2010nrjo  -0.04000
gfz2010nsck   0.45300
gfz2010ntuo   0.41590
gfz2010nwef  -0.13020
gfz2010nxsy   0.35200
gfz2010nxum  -0.97160
gfz2010nzha  -0.04390
gfz2010ocxq  -0.73550
gfz2010odpb  -0.69840
gfz2010onma   0.48110
gfz2010osjs   2.09550
gfz2010osqo  -0.45980
gfz2010pbdz  -0.19690
gfz2010pcxi  -0.19480
gfz2010pewa   0.02180
gfz2010pewx  -0.00000
gfz2010pexf   0.21700
gfz2010plbg   0.63270
gfz2010pmqd   0.10620
gfz2010pqck  -0.10850
gfz2010pxgh   1.88960
gfz2010qjst  -0.22410
gfz2010qwwx  -0.49700
gfz2010rhas   1.71860
gfz2010rqwj  -0.06740
gfz2010rywq  -0.16670
gfz2010rzrr   1.22160
gfz2010sfee  -0.27160
gfz2010sfla   0.48460
gfz2010skqo   0.02150
gfz2010skve   0.82600
gfz2010srdb  -0.01620
gfz2010svtn  -0.09700
gfz2010swcy  -0.11830
gfz2010szim   0.19120
gfz2010tcbr  -0.04910
gfz2010tcrl   0.35130
gfz2010tlfm   0.35620
gfz2010txjs  -0.59300
gfz2010tzzk   0.46010
gfz2010upfb   0.07460
gfz2010upiw   0.01950
gfz2010usho   0.17700
gfz2010ustq  -0.02080
gfz2010utcg   0.17340
gfz2010utmc  -0.02800
gfz2010utvp   0.60870
gfz2010vhuj   0.22920
gfz2010vzpr  -0.00000
gfz2010wrxx   0.35040
gfz2010xbdv   0.05880
gfz2010xgzw  -0.62110
gfz2010xjck  -0.33070
gfz2010xjsj  -0.02220
gfz2010yjev  -0.22890
gfz2010yosr  -0.09110
gfz2010yqwx   1.38910
gfz2011aatr   0.54210
gfz2011adjs  -0.81300
gfz2011adlj  -0.53650
gfz2011alsa   0.36490
gfz2011aosc  -0.09670
gfz2011aqxf  -0.47770
gfz2011ccpw   0.05710
gfz2011cfae  -0.42780
gfz2011cndo   0.74970
gfz2011csju  -0.52010
gfz2011cvfg  -0.46760
gfz2011cwgn  -0.07120
gfz2011cykd  -0.07870
gfz2011cylz   0.76600
gfz2011cynl  -0.05260
gfz2011cyre   0.80390
gfz2011cyuk  -0.21340
gfz2011czwj   0.52550
gfz2011dbev   0.20650
gfz2011dbig  -0.09670
gfz2011dbon  -0.10810
gfz2011dbwt   0.01280
gfz2011dcqb   0.22320
gfz2011dcqf   0.28170
gfz2011deaf  -0.53160
gfz2011dkyi   0.48410
gfz2011dlyx  -0.92510
gfz2011dpqx   0.54670
gfz2011ecsc   0.44530
gfz2011edmm  -0.06210
gfz2011ehzq  -0.19160
gfz2011ekpr   0.23880
gfz2011eltw  -0.37550
gfz2011enva  -0.58670
gfz2011etje  -0.00000
gfz2011fgvr  -0.19780
gfz2011fhag  -0.17050
gfz2011fhbm   0.53530
gfz2011fhur  -0.36210
gfz2011fkbn   0.59160
gfz2011flgj  -0.35360
gfz2011fnsw  -0.33300
gfz2011gbmx  -0.09300
gfz2011gcwb  -0.36880
gfz2011gdgh  -0.09820
gfz2011ggvf   0.00000
gfz2011ghky  -1.04280
gfz2011gjlx  -0.17130
gfz2011gkey   0.38490
gfz2011gkzt  -0.67430
gfz2011haid   0.26480
gfz2011hfkj  -0.33680
gfz2011hlqw  -0.33980
gfz2011hlsa  -0.16760
gfz2011hlth  -0.02200
gfz2011hpgx   0.26320
gfz2011hpqp  -0.14840
gfz2011hvbu   0.24830
gfz2011iwte  -0.15580
gfz2011izqa   0.24520
gfz2011jplh  -0.38870
gfz2011jtlg   0.33480
gfz2011knbi   0.46740
gfz2011kqwo   0.69670
gfz2011kqyg   0.74600
gfz2011kwid   0.12990
gfz2011kwjx   0.35890
gfz2011kwkw   0.36250
gfz2011kxzp   0.40000
gfz2011lcxq   1.21710
gfz2011lhls  -0.53220
gfz2011lzwj   0.34030
gfz2011mdie   0.30860
gfz2011mepc  -0.69310
gfz2011mpme   0.65840
gfz2011mprq  -0.55480
gfz2011myia   0.71500
gfz2011nmnq  -0.26720
gfz2011noud   1.00090
gfz2011nqpd  -0.45900
gfz2011nrwv  -0.53640
gfz2011ntkh   0.57840
gfz2011nudm  -0.53470
gfz2011ogqk  -0.77800
gfz2011ohcy   0.27590
gfz2011oiqe   0.22050
gfz2011olkk   0.65130
gfz2011orgn   0.61020
gfz2011ornx   0.13870
gfz2011owvz   0.36080
gfz2011pccd   0.08820
gfz2011phms   0.38820
gfz2011qvae   0.22420
gfz2011rabm   1.18860
gfz2011rewa  -0.18450
gfz2011rqui  -0.34750
gfz2011rsrh  -0.17250
gfz2011sagt   0.14150
gfz2011taps  -0.33780
gfz2011tbas   0.83530
gfz2011tcij   1.37440
gfz2011tjue   4.05390
gfz2011tkfp  -0.83730
gfz2011toub   0.44840
gfz2011tpbl  -0.13340
gfz2011udsq   0.48920
gfz2011ueni  -0.34920
gfz2011uphh  -0.49190
gfz2011urxy  -0.20340
gfz2011urzu   0.89030
gfz2011vhfi   0.02280
gfz2011vnza   0.15930
gfz2011vrhg  -0.13190
gfz2011vxns  -0.34620
gfz2011vxod   0.26680
gfz2011wcic  -0.54890
gfz2011wwjs   0.22670
gfz2011wxoj  -0.60920
gfz2011wxtk  -0.89250
gfz2011wype  -0.32450
gfz2011xaan  -0.08190
gfz2011xcpv   0.14810
gfz2011xesx   0.05690
gfz2011xyxj   0.95390
gfz2011yfdx   0.33470
gfz2011yhwz  -0.32950
gfz2011zklv   0.41440
gfz2011zqhh  -0.46800
gfz2012ajtq   0.50350
gfz2012aqgp  -0.28740
gfz2012attr  -0.56010
gfz2012bfah  -0.06830
gfz2012bpkx   0.13030
gfz2012byad   0.43830
gfz2012covm   0.08200
gfz2012cqnl   1.26280
gfz2012cxdn   0.13190
gfz2012dimn  -1.19390
gfz2012djwi   0.05790
gfz2012ekzf   0.24610
gfz2012elce   0.53880
gfz2012emjg  -0.13320
gfz2012enno   0.70240
gfz2012ezvr  -0.10420
gfz2012fbfo  -0.28240
gfz2012foeo  -0.71530
gfz2012fwfo  -0.27900
gfz2012fzfa   0.40120
gfz2012gocc   1.14750
gfz2012hnul  -0.02990
gfz2012hnuw   0.66710
gfz2012ihdl  -0.31610
gfz2012ilvn  -0.37160
gfz2012imay  -0.43860
gfz2012imbd  -0.40180
gfz2012jgvj  -0.25000
gfz2012jjzc   0.86370
gfz2012jlox   0.67510
gfz2012jpgs  -0.10020
gfz2012jshk  -0.69460
gfz2012jupx   0.53370
gfz2012keor   0.00000
gfz2012kkcp  -0.34200
gfz2012kkup  -0.41410
gfz2012klba   0.10200
gfz2012klhx   0.07330
gfz2012kuct   0.19890
gfz2012kudo  -0.13380
gfz2012kvzv  -0.06540
gfz2012kwgo   0.23900
gfz2012ldxg   0.81510
gfz2012ldzj  -0.74250
gfz2012lxkv   0.72030
gfz2012minr   0.11410
gfz2012mpvy   0.02680
gfz2012mwij   0.61700
gfz2012naqz   0.34090
gfz2012nedn  -1.58810
gfz2012nkdf  -0.43640
gfz2012oazn   0.12560
gfz2012obgw  -0.58550
gfz2012oedb   0.20280
gfz2012pciw  -0.44000
gfz2012pgcl   0.94630
gfz2012pkel  -0.02290
gfz2012pqmu   2.38550
gfz2012quso   0.12310
gfz2012rats  -0.84460
gfz2012rwov   0.56890
gfz2012sphd   0.48080
gfz2012syvl  -0.21530
gfz2012teic  -0.04900
gfz2012thfx   0.05840
gfz2012tmop   0.61430
gfz2012ttoa   0.08770
gfz2012tvmv   0.19760
gfz2012tzcc  -0.32830
gfz2012uafg   1.17600
gfz2012uaqj  -0.35370
gfz2012uciv   0.19680
gfz2012uhup   0.78910
gfz2012ulpd  -0.09030
gfz2012uqzp  -0.29470
gfz2012uvqf   0.05400
gfz2012uzom  -0.29680
gfz2012vrgb   0.06340
gfz2012wdyx  -0.73110
gfz2012wklq  -0.06980
gfz2012wmkd  -0.01880
gfz2012wrir  -0.45220
gfz2012wxlg  -0.21020
gfz2012wxnu  -1.42060
gfz2012wypz  -0.01720
gfz2012xkkv  -0.85250
gfz2012yxxu  -0.20680
gfz2012zemh   1.31160
gfz2012zitl  -0.23890
gfz2012zjpv   0.41470
gfz2012zmln  -0.40210
gfz2013bnxc  -0.00000
gfz2013bokp   0.12160
gfz2013bouj   0.28050
gfz2013ccnr   0.85070
gfz2013cdan   0.55930
gfz2013cwpn  -0.06370
gfz2013cwps  -0.54230
gfz2013dkly  -0.67710
gfz2013dnnx  -0.34840
gfz2013dofo  -0.10440
gfz2013drpk  -0.05760
gfz2013drxz  -0.23780
gfz2013dvyh   0.29370
gfz2013egpu   1.59440
gfz2013fdoo  -0.98130
gfz2013fwxa   0.82960
gfz2013gbcn  -0.82180
gfz2013gcfx  -0.81480
gfz2013gdnq  -0.04290
gfz2013geno  -0.01460
gfz2013gngz  -0.38180
gfz2013goux  -0.78660
gfz2013gvet   0.13560
gfz2013hfmp  -0.01480
gfz2013hisv   0.17710
gfz2013hkja  -1.14590
gfz2013hlbe   0.80750
gfz2013iexo  -0.08200
gfz2013ikgo  -0.06520
gfz2013ippu   1.06050
gfz2013iunn  -0.37830
gfz2013iyqz  -0.27760
gfz2013jesk   3.29890
gfz2013jgij  -0.12450
gfz2013jgip   0.25360
gfz2013jjsi  -0.42850
gfz2013jkut   0.57710
gfz2013jusj  -1.05220
gfz2013jwvc  -0.29640
gfz2013kdeo   0.38150
gfz2013kheb   0.11150
gfz2013kvtk  -0.73930
gfz2013ldpc   0.11150
gfz2013ldqb   1.02330
gfz2013lixa   0.49520
gfz2013lyko   0.18850
gfz2013mqmv   0.87660
gfz2013mwbh   2.59000
gfz2013nabl   0.18040
gfz2013ncjp  -0.67040
gfz2013ndin   0.91110
gfz2013nkgj   0.66560
gfz2013nnzf  -0.44040
gfz2013nqgw  -0.02150
gfz2013nwdi   0.72030
gfz2013ogde  -0.64290
gfz2013oqsc  -0.31230
gfz2013ozrf   0.27700
gfz2013pfeb  -0.73380
gfz2013pxsj   0.02230
gfz2013qali   1.40150
gfz2013qmer  -0.00710
gfz2013qzdq  -0.61620
gfz2013scai   0.58330
gfz2013shzy  -0.15780
gfz2013suvn   0.52170
gfz2013svci   0.07160
gfz2013tcxc   0.09010
gfz2013tcxq   0.26660
gfz2013toea  -0.74600
gfz2013tusd   0.12100
gfz2013tvmw   0.06520
gfz2013txtb  -0.03290
gfz2013tyas   0.36790
gfz2013uauo  -0.15160
gfz2013vfyw   0.25960
gfz2013vfzp   0.34220
gfz2013vgrk   0.18290
gfz2013viul   0.53240
gfz2013vjfe   0.41090
gfz2013vjjc  -0.03020
gfz2013vsbl   0.15640
gfz2013vvjh  -0.72790
gfz2013vvrq   0.97910
gfz2013vzbo  -0.34960
gfz2013wjmm   0.39320
gfz2013xizq  -0.23240
gfz2013xmul   0.05820
gfz2013xsdt   0.39670
gfz2013xvqd   1.06100
gfz2013xvxf   4.58570
gfz2013xxwv  -0.34340
gfz2013xxxq  -0.46760
gfz2013yctg  -0.08420
gfz2013yhpk   0.86550
gfz2013ylbx   1.09880
gfz2013ymxs  -0.27260
gfz2013yqkv   1.89150
gfz2013yyhc   0.20960
gfz2013zmoc  -0.07680
gfz2013zmtb  -0.11790
gfz2014adoj  -0.84030
gfz2014afmx  -0.04420
gfz2014algk  -0.42930
gfz2014alwz  -0.41360
gfz2014ande  -0.40780
gfz2014arpf  -0.50100
gfz2014atgw   0.08920
gfz2014bekc   0.14000
gfz2014bwue   0.11690
gfz2014bzxy  -0.04940
gfz2014cbtl  -0.75600
gfz2014cgog  -0.34470
gfz2014chdv  -0.02180
gfz2014cmwb  -1.19110
gfz2014crpy   0.29360
gfz2014cvkm  -0.38470
gfz2014cvxx  -0.23970
gfz2014cyvm   0.54870
gfz2014czqi   0.08670
gfz2014czua   0.26630
gfz2014dffd   0.17600
gfz2014disp  -0.56270
gfz2014dpzx   0.49100
gfz2014duqn   0.07310
gfz2014ebmc  -0.16850
gfz2014edfx   0.80710
gfz2014eght  -0.08170
gfz2014ehsf  -0.00000
gfz2014ekcr   0.27640
gfz2014ekdt   0.34150
gfz2014enhi   0.24310
gfz2014etqa  -0.64890
gfz2014fedd  -0.68900
gfz2014femz  -0.42950
gfz2014ffdc  -0.75580
gfz2014fgvi  -0.32410
gfz2014fhdw  -1.18610
gfz2014fhla  -0.02570
gfz2014fhwx  -0.09950
gfz2014fimn   0.70420
gfz2014fkmr  -1.27000
gfz2014fnyg  -0.40800
gfz2014frdz  -0.30520
gfz2014frez  -0.13600
gfz2014ftka  -0.64580
gfz2014ftpw  -0.87700
gfz2014furx   0.65820
gfz2014fusj  -0.13680
gfz2014fvaa   0.06330
gfz2014fvjl   0.41210
gfz2014fvrg  -0.09710
gfz2014gbcz   0.45140
gfz2014ghpe  -0.13330
gfz2014gkgf  -0.46980
gfz2014gkgs   0.34760
gfz2014gkhy   0.15330
gfz2014gkjt   0.21250
gfz2014gkqf   0.23810
gfz2014glcu  -0.10450
gfz2014gltx  -0.57760
gfz2014gmge  -0.43390
gfz2014gmhr  -1.49130
gfz2014gmnb   0.25060
gfz2014gmnw   0.29940
gfz2014goba   1.50560
gfz2014gori   0.49170
gfz2014gpya   0.39190
gfz2014gqer   1.76370
gfz2014gull  -0.31780
gfz2014gvrd   0.10250
gfz2014gwab   0.20780
gfz2014gxxo  -0.00400
gfz2014hasj  -0.60500
gfz2014hauo   0.12570
gfz2014hcmj  -0.53930
gfz2014heyq  -0.43070
gfz2014hfhl  -0.20940
gfz2014hgqo   0.24480
gfz2014hocg   0.51060
gfz2014hqxs   0.60390
gfz2014huaj   0.03330
gfz2014hyal  -1.34770
gfz2014hzfw   0.65540
gfz2014ikun   0.22420
gfz2014inbj   0.24800
gfz2014iobd  -0.18380
gfz2014jatq   0.31820
gfz2014jjhc   0.06180
gfz2014jjln   0.86760
gfz2014jlwb   0.62240
gfz2014jnyv  -0.23680
gfz2014jpep   0.09680
gfz2014jwmh  -0.36130
gfz2014kara  -0.21520
gfz2014khan  -0.14150
gfz2014khlk  -0.17370
gfz2014kitm   0.04540
gfz2014knxs   0.16690
gfz2014kyan   0.06950
gfz2014lbxn  -0.25520
gfz2014lddn   0.38950
gfz2014ldhu   0.00000
gfz2014lefs  -0.04910
gfz2014lxnc   0.41510
gfz2014lyhk   1.00710
gfz2014macx   0.38850
gfz2014mden   0.77030
gfz2014mhgg  -0.59840
gfz2014mwor  -0.26840
gfz2014nkdx  -1.01020
gfz2014nowp  -0.11260
gfz2014npdk  -0.19560
gfz2014npeo   0.08610
gfz2014nqfm   0.23780
gfz2014nrie  -0.95040
gfz2014oinz   0.12800
gfz2014osvz   0.59210
gfz2014oxcc  -0.35810
gfz2014pkll   0.14840
gfz2014pvch   0.26710
gfz2014qlxd  -0.13720
gfz2014qngj  -0.44840
gfz2014qqhm   0.70300
gfz2014raau  -0.64700
gfz2014rbsl  -0.08100
gfz2014riel  -0.94240
gfz2014rkwl  -0.02920
gfz2014ryfb  -0.24300
gfz2014sjqw  -0.51290
gfz2014ssmv   0.07440
gfz2014ssvz  -0.70260
gfz2014szzf   0.31390
gfz2014tovs   0.59340
gfz2014tqdo   0.08020
gfz2014tute  -0.31220
gfz2014ubwn  -0.07460
gfz2014uohh  -2.32020
gfz2014uuuf   3.35500
gfz2014uvji  -1.19310
gfz2014uvrk   0.81980
gfz2014vjoz  -0.37740
gfz2014vpus  -1.45630
gfz2014watn   0.10170
gfz2014xbyr  -0.15690
gfz2014yhhm   0.56330
gfz2015aqbq   0.20490
gfz2015aruz   0.11770
gfz2015bavu   0.72410
gfz2015berb  -0.42400
gfz2015bfjm  -1.07540
gfz2015bkbj   0.19010
gfz2015bohx   0.63620
gfz2015bsnl  -0.28310
gfz2015chhn   0.78260
gfz2015cxxk   0.36080
gfz2015cyjd  -0.71580
gfz2015dizn  -0.25380
gfz2015djts   0.00050
gfz2015egxq   0.56810
gfz2015eiky   1.43930
gfz2015elgy   0.15810
gfz2015emtg  -0.05010
gfz2015etai  -0.28220
gfz2015eyqs  -1.29640
gfz2015fcua  -0.18520
gfz2015fkgt   0.71410
gfz2015fkic   0.00000
gfz2015fkkd  -1.95740
gfz2015flis   0.64390
gfz2015fsjj  -0.00000
gfz2015fvoi   0.35920
gfz2015fxbv  -0.45960
gfz2015fxdi   0.07430
gfz2015fyvk   0.09770
gfz2015gckd   0.12740
gfz2015ggjw  -0.41750
gfz2015gjbr  -0.23620
gfz2015gkwa  -0.43840
gfz2015gnmy   0.94030
gfz2015guhd  -0.73460
gfz2015gwao  -0.48740
gfz2015hdcp   0.19420
gfz2015hepg  -0.03690
gfz2015hgbk   0.51160
gfz2015hpmk  -0.32700
gfz2015hvgs  -1.98720
gfz2015igsy   0.28300
gfz2015ixyy  -0.43340
gfz2015jkdw  -2.57620
gfz2015jxjd  -0.12380
gfz2015kkqb  -1.46870
gfz2015kkth  -0.10130
gfz2015ksni   0.26620
gfz2015lcma   0.71260
gfz2015lhjy   0.44120
gfz2015lytv   0.09360
gfz2015lzad  -0.08670
gfz2015mddr   0.08140
gfz2015mpte   0.32850
gfz2015nerz  -0.53910
gfz2015nuxz  -0.03450
gfz2015ocdz   0.54380
gfz2015okmq  -0.13220
gfz2015opjp   0.71920
gfz2015orkl   0.14320
gfz2015oyfl  -0.56910
gfz2015qnho   0.08480
gfz2015qnto  -0.04380
gfz2015rddx  -3.72060
gfz2015rkrg   0.46550
gfz2015rpzn   0.31330
gfz2015sfdd   0.75230
gfz2015sfdh  -1.96350
gfz2015sfdl   0.53290
gfz2015sfdv  -0.00000
gfz2015sfdy  -0.15690
gfz2015sfeo   0.61440
gfz2015sffn  -0.58130
gfz2015sfga   0.08090
gfz2015sfhz  -0.75700
gfz2015sfiq  -0.77090
gfz2015sfmd   1.01970
gfz2015sfnb  -1.65670
gfz2015sfno   0.25720
gfz2015sfnv  -0.04600
gfz2015sfoc  -0.16120
gfz2015sfoh  -0.02080
gfz2015sfom  -0.25500
gfz2015sfoq   1.74210
gfz2015sfpj  -0.64950
gfz2015sfqr  -0.30860
gfz2015sfrc  -0.19710
gfz2015sfte  -0.17790
gfz2015sfwf  -0.00530
gfz2015sfzm   0.29740
gfz2015sglg  -0.16300
gfz2015sgmm  -0.22620
gfz2015sgmr   0.47720
gfz2015sgoa  -0.35950
gfz2015sgpu  -0.21840
gfz2015sguf   0.34480
gfz2015sgyd   1.41130
gfz2015shaq   0.50140
gfz2015shhg  -0.46030
gfz2015shhu  -0.27300
gfz2015shlp   0.14370
gfz2015shrg  -0.28590
gfz2015shsz   1.25540
gfz2015siem  -0.20230
gfz2015siyy   0.55840
gfz2015sjbx  -0.14410
gfz2015sjfi   0.48910
gfz2015sjgk   0.72790
gfz2015sjjb   0.15800
gfz2015sjne  -1.08840
gfz2015sjoj   0.04700
gfz2015sjvu   0.30840
gfz2015sjwi   0.59790
gfz2015skab   0.71770
gfz2015skia  -0.37690
gfz2015skuk  -1.08980
gfz2015skxu  -0.27240
gfz2015sldx   0.41940
gfz2015slun   0.03310
gfz2015smym   0.10880
gfz2015snmr   1.56920
gfz2015snsf   0.23190
gfz2015snwh  -0.33030
gfz2015snyd   0.33740
gfz2015soat  -0.31620
gfz2015solh   0.45790
gfz2015sowu  -0.03010
gfz2015soxc   0.38080
gfz2015spal   0.05440
gfz2015sqmy   0.51640
gfz2015srat   0.30610
gfz2015ssrl   0.52610
gfz2015stcv   0.64920
gfz2015subg  -0.32330
gfz2015supa   0.46290
gfz2015susq   0.60990
gfz2015svwm   1.02150
gfz2015sxgd  -0.31640
gfz2015sxmh   0.15750
gfz2015sxxu  -0.09540
gfz2015szcb  -0.12030
gfz2015taml  -0.08240
gfz2015tbdn  -0.13670
gfz2015tdbb  -0.04190
gfz2015tdcu  -0.01190
