# Nsamples: 8  MAD:  0.959  mean:  0.899  variance:  0.414
gfz2010grjd   1.71880
gfz2010iull   0.28320
gfz2011aatr  -0.04430
gfz2011enva   1.27080
gfz2011wxfs   0.27100
gfz2012kudo   1.57670
gfz2013nwdi   1.46090
gfz2014goba   0.65420
