# Nsamples: 19  MAD:  0.808  mean:  0.331  variance:  0.548
gfz2012kkup   0.54470
gfz2012ttoa   1.64710
gfz2012wypz   0.28090
gfz2013drxz   0.82570
gfz2013nwdi   0.19440
gfz2013svci   0.45070
gfz2013uauo   0.53270
gfz2014bwue  -0.29670
gfz2014fgvi  -0.21230
gfz2014fhla   1.96940
gfz2014ftka   0.85720
gfz2014gkgf  -0.56350
gfz2014gkqf  -0.74200
gfz2014gmnb  -0.79410
gfz2014qqhm   0.49830
gfz2014ubwn  -0.35360
gfz2015cyjd   1.24510
gfz2015lhjy   0.15040
gfz2015mpte   0.05580
