# Nsamples: 17  MAD:  0.524  mean: -0.139  variance:  1.367
gfz2010bxxs  -0.59650
gfz2010grjd  -1.45230
gfz2010iull  -0.12610
gfz2010nmpc  -0.09160
gfz2011aatr  -0.24620
gfz2011enva   1.25540
gfz2011hlsa   2.89120
gfz2011lcxq  -0.14610
gfz2011lzwj  -0.25600
gfz2012jlox  -0.26460
gfz2012kudo   0.22960
gfz2012wypz   0.10700
gfz2013nwdi  -2.68550
gfz2014bwue  -0.58390
gfz2014fgvi  -0.81470
gfz2014gkgf  -0.92030
gfz2015cyjd   1.34050
