# Nsamples: 121  MAD:  0.865  mean:  0.002  variance:  1.040
gfz2010ahqi  -0.71850
gfz2010bxxs  -0.61840
gfz2010cqwl   0.03900
gfz2010eaoy   0.52930
gfz2010eapk  -0.55940
gfz2010eaqe   2.34550
gfz2010eaqy  -0.08360
gfz2010earu  -0.17800
gfz2010easo   0.89270
gfz2010eawu   0.02080
gfz2010ebhc   1.06140
gfz2010ebkj   1.24130
gfz2010ebnn   0.69510
gfz2010ebvv  -0.16030
gfz2010ecua  -0.22750
gfz2010edyi   1.19390
gfz2010egmp  -0.28360
gfz2010ehsy   2.65830
gfz2010eioi   0.14070
gfz2010eisx   0.27480
gfz2010eixj  -1.16400
gfz2010ejjg   0.94380
gfz2010ekaw  -0.36620
gfz2010ekyc  -0.37320
gfz2010elhv   0.41980
gfz2010eltf  -0.67150
gfz2010elyc  -0.70930
gfz2010erkn  -0.32260
gfz2010erom  -1.21120
gfz2010eryg  -0.68230
gfz2010excp   0.98310
gfz2010exdd  -0.65290
gfz2010exdl  -0.81220
gfz2010ezck  -0.11870
gfz2010ezwz   0.13770
gfz2010fedq   1.05100
gfz2010ffhq   0.42790
gfz2010fkhd   1.65890
gfz2010fync   1.88150
gfz2010gcrp  -0.13590
gfz2010gdld  -1.72990
gfz2010iobp  -4.12450
gfz2010iqnm   1.01330
gfz2010ited  -0.36790
gfz2010iull   0.14510
gfz2010mkuu  -0.27750
gfz2010onma  -0.95920
gfz2010rqwj   0.81860
gfz2011aatr   0.44300
gfz2011adjs  -0.15100
gfz2011alip   0.23160
gfz2011lcxq   1.52840
gfz2011lzwj  -0.56630
gfz2011nudm  -1.77080
gfz2011rewa   0.42790
gfz2011vrhg  -2.50940
gfz2011wxfs   0.27440
gfz2011xyxj   0.46200
gfz2012enno   0.40130
gfz2012hnul  -0.16360
gfz2012jgvj   0.33090
gfz2012jlox   0.67610
gfz2012keor   1.11850
gfz2012kkup   1.10060
gfz2012kuct   1.33700
gfz2012kudo   1.05520
gfz2012ostk   1.74440
gfz2012tzcc  -0.60360
gfz2012wklq  -0.73860
gfz2012wypz   0.31970
gfz2012zjpv   2.76610
gfz2013cwpn  -0.55330
gfz2013drxz   0.02570
gfz2013fygc  -1.48110
gfz2013gvex  -0.52100
gfz2013jusj  -0.26690
gfz2013jwvc   1.14010
gfz2013lixa   0.17750
gfz2013qmer  -0.43810
gfz2013svci   0.13950
gfz2013uauo   1.65580
gfz2013vfyw   0.15230
gfz2013vfzp   0.81260
gfz2013vjjc  -1.14810
gfz2014clnq  -0.27160
gfz2014cvxx  -0.13690
gfz2014czqi   0.16320
gfz2014dhxt  -1.32420
gfz2014fgvi   0.86690
gfz2014fhla  -0.58790
gfz2014ftka   0.54750
gfz2014gkgf   0.46190
gfz2014gmhr   0.59450
gfz2014hasj  -0.51460
gfz2014hocg  -1.23270
gfz2014ntdh  -0.53570
gfz2014oinz   0.68240
gfz2014ssvz  -1.18130
gfz2014watn   0.18660
gfz2015chhn   0.09880
gfz2015cyjd  -1.08080
gfz2015fjhk  -1.71780
gfz2015fkgt  -1.78530
gfz2015fsjj  -0.30490
gfz2015gckd   0.55430
gfz2015kfsu  -1.36600
gfz2015lhjy   0.42280
gfz2015lytv   0.53240
gfz2015qnho  -0.51770
gfz2015sfdd   0.15200
gfz2015sfdl   0.10870
gfz2015sfdv   0.35360
gfz2015sfdy   0.18190
gfz2015sfeo   0.24420
gfz2015sfhz  -2.78060
gfz2015sfno   0.22340
gfz2015smym  -0.38750
gfz2015snwh  -0.00000
gfz2015soxc  -0.20410
gfz2015svwm   0.56430
gfz2015taml  -1.21900
