# Nsamples: 1742  MAD:  0.459  mean: -0.029  variance:  0.503
gfz2010aerk   0.22810
gfz2010ahqi  -0.04680
gfz2010aykj  -1.01330
gfz2010bfzs   0.37430
gfz2010bgth   0.08050
gfz2010bhhq  -1.09200
gfz2010bifb  -0.00000
gfz2010bjeb   0.03280
gfz2010bjjx   0.87510
gfz2010bjsl  -3.11280
gfz2010bkob  -0.16760
gfz2010bkos  -0.10860
gfz2010bowy  -0.67530
gfz2010boxo  -1.08760
gfz2010bpda   0.34160
gfz2010bxxs  -0.23810
gfz2010caft   0.06800
gfz2010cbkg   0.34370
gfz2010cdbt   0.68000
gfz2010cind   0.15730
gfz2010civi   0.25110
gfz2010ckeu  -0.10730
gfz2010ckzm  -0.84900
gfz2010cnwc  -0.05750
gfz2010cqwl   0.04110
gfz2010cres   0.38950
gfz2010ctuw  -2.78300
gfz2010czps  -0.08370
gfz2010ddzo  -0.22520
gfz2010dejx  -0.20530
gfz2010dfru   0.17780
gfz2010diqn   0.59950
gfz2010dlgc   0.12500
gfz2010dtmx   0.22050
gfz2010dumm  -0.28470
gfz2010eaoy   0.11080
gfz2010eapk  -0.41990
gfz2010eapn   1.19180
gfz2010eaqe   1.00420
gfz2010eaqx   0.83440
gfz2010eaqy   0.80280
gfz2010earq   0.06000
gfz2010earu  -0.40650
gfz2010easf   0.41500
gfz2010eask  -1.50510
gfz2010easo  -0.04870
gfz2010easu  -0.13570
gfz2010eati  -0.14830
gfz2010eato   0.72310
gfz2010eatt  -0.46040
gfz2010eaty   0.52430
gfz2010eaul  -0.28180
gfz2010eavd   0.87590
gfz2010eavp  -0.19490
gfz2010eavs   0.23330
gfz2010eawb   0.49650
gfz2010eawu  -5.71560
gfz2010eaxa   0.26600
gfz2010eaxn   0.30780
gfz2010eayd   0.10490
gfz2010eayp   0.60740
gfz2010eayx  -0.42770
gfz2010eaze   0.08890
gfz2010eazu  -1.62370
gfz2010ebbd   0.72700
gfz2010ebbx  -1.09760
gfz2010ebby  -0.57490
gfz2010ebdl   0.43380
gfz2010ebeh  -0.17940
gfz2010ebek   0.45690
gfz2010ebfa   0.27040
gfz2010ebfx  -0.20530
gfz2010ebgj   0.10590
gfz2010ebhc   0.48650
gfz2010ebih   0.31370
gfz2010ebin  -1.35270
gfz2010ebiv   0.25870
gfz2010ebjy  -0.03690
gfz2010ebkj  -0.33260
gfz2010ebkx   0.43430
gfz2010ebla   0.04360
gfz2010ebll  -0.20340
gfz2010ebmb   0.41650
gfz2010ebnn   0.27160
gfz2010ebpa  -0.05670
gfz2010ebqt   0.18810
gfz2010ebqz  -0.72160
gfz2010ebrm   0.35630
gfz2010ebsv  -0.69280
gfz2010ebtk   0.55450
gfz2010ebvm   0.58830
gfz2010ebvv  -0.50520
gfz2010ebwp   0.45080
gfz2010ebxl   0.33480
gfz2010ebze  -0.17200
gfz2010ebzk  -0.29540
gfz2010ebzr   0.06580
gfz2010ecam   0.78480
gfz2010ecay  -0.52410
gfz2010ecbi   0.15380
gfz2010eccq   0.53700
gfz2010ecdu  -0.19450
gfz2010eced  -0.37640
gfz2010ecft   0.27760
gfz2010ecfx   0.60700
gfz2010ecfy   0.44840
gfz2010ecgh   0.78310
gfz2010echc   0.00000
gfz2010echt   0.08100
gfz2010echy   0.18140
gfz2010ecka  -0.84480
gfz2010ecls  -1.33340
gfz2010ecml   0.42980
gfz2010ecnm  -0.54730
gfz2010ecns   0.01950
gfz2010ecpg  -1.62640
gfz2010ecps   0.11470
gfz2010ecro  -0.66890
gfz2010ecsp   0.71460
gfz2010ectq   0.96870
gfz2010ecua  -0.19720
gfz2010ecuv  -0.19860
gfz2010ecvt   0.25910
gfz2010ecyr  -0.55880
gfz2010edad   0.29900
gfz2010edat  -0.42070
gfz2010eday   0.17640
gfz2010edbz   0.15770
gfz2010edcp  -0.17890
gfz2010edde  -0.23790
gfz2010edhr   0.19880
gfz2010edhv   0.58240
gfz2010edim  -0.02210
gfz2010edji   0.27330
gfz2010edkp   0.29320
gfz2010edoq   1.19110
gfz2010edpb  -0.07880
gfz2010edqd  -0.46100
gfz2010edqh  -0.41510
gfz2010edsk  -0.07370
gfz2010edsn   0.60580
gfz2010edsy  -0.35870
gfz2010edun  -0.66860
gfz2010edvf  -0.20730
gfz2010edyi  -0.94970
gfz2010edzb   0.24260
gfz2010eedu  -0.69690
gfz2010eedz  -0.08540
gfz2010eefh   0.24070
gfz2010eefo  -0.35130
gfz2010eegn  -0.28780
gfz2010eeia   0.08180
gfz2010eeij  -0.28830
gfz2010eekg   2.66200
gfz2010eekq  -0.20900
gfz2010eell  -0.40550
gfz2010eeng  -0.70540
gfz2010eeqy   0.35860
gfz2010eerh   0.47640
gfz2010eern  -0.00000
gfz2010eesf   0.49810
gfz2010eevu   0.06690
gfz2010eexz  -0.06240
gfz2010eeyh  -0.32780
gfz2010efbh  -0.33760
gfz2010efbi   0.35820
gfz2010efkc  -0.45360
gfz2010efls   0.36860
gfz2010efnf  -0.36550
gfz2010efsq  -0.45670
gfz2010efwo   0.02050
gfz2010efxf  -0.69400
gfz2010egap   0.00000
gfz2010eghq   0.10050
gfz2010egld   0.44740
gfz2010egln   0.14550
gfz2010egmp   0.31930
gfz2010egqh   0.55990
gfz2010egsw  -3.75520
gfz2010egsy   0.87690
gfz2010egyy   0.14300
gfz2010ehaj   0.92740
gfz2010eher   0.26520
gfz2010ehft   0.04600
gfz2010ehnl  -0.57600
gfz2010ehnm   0.00000
gfz2010ehrq  -1.16440
gfz2010ehsy   0.06340
gfz2010ehvj   0.72640
gfz2010ehxz   0.89390
gfz2010eimf   0.63740
gfz2010eioi  -0.36220
gfz2010eiqi  -1.28440
gfz2010eisx  -1.19220
gfz2010eixj   0.65510
gfz2010ejae   0.94500
gfz2010ejco   0.13630
gfz2010ejjg  -0.07310
gfz2010ejju   0.79450
gfz2010ejka   0.59610
gfz2010ejma  -1.52780
gfz2010ejxf   0.21960
gfz2010ekaw  -0.19520
gfz2010ekoe  -0.11820
gfz2010ekrv   1.08890
gfz2010ekyc  -0.04240
gfz2010elhv  -0.05860
gfz2010elin  -0.59010
gfz2010eljf  -0.85850
gfz2010elsw   0.31220
gfz2010eltf   0.21390
gfz2010elxi  -0.61840
gfz2010elyc  -1.29390
gfz2010elzf  -0.09480
gfz2010elzl  -0.05840
gfz2010emoz  -0.55060
gfz2010emyz  -0.32820
gfz2010encm  -0.59700
gfz2010engw  -0.76410
gfz2010enpa  -1.33600
gfz2010ensu   0.70020
gfz2010enzl  -0.07640
gfz2010eoao  -6.21290
gfz2010eohh  -1.60810
gfz2010eomb  -0.23340
gfz2010epbe  -0.07020
gfz2010epud  -0.56050
gfz2010epxj  -0.24850
gfz2010epzk  -0.12300
gfz2010eqcn   0.20970
gfz2010eqjg   0.02220
gfz2010eqmu  -3.57350
gfz2010eqse   0.10660
gfz2010erda  -0.46820
gfz2010erdi   0.69730
gfz2010erfy  -0.76070
gfz2010erig  -0.47910
gfz2010erkn   0.01610
gfz2010erom   0.28120
gfz2010erum  -0.04390
gfz2010eruy  -0.66110
gfz2010erwn  -0.27970
gfz2010erxb   0.95390
gfz2010eryg   0.17830
gfz2010esid  -0.11600
gfz2010esou  -0.14650
gfz2010eted  -0.38650
gfz2010etfw  -0.55300
gfz2010euae   0.40810
gfz2010euan  -0.32920
gfz2010eugj  -1.50680
gfz2010euii   0.23290
gfz2010eujm  -0.03080
gfz2010eutw   0.27220
gfz2010euvl  -0.25790
gfz2010euwb   0.44430
gfz2010euxe  -0.40980
gfz2010evco  -0.86450
gfz2010evgf   0.52880
gfz2010evjv   0.77770
gfz2010evkd   0.19150
gfz2010ewbc   0.50040
gfz2010ewpq  -0.75970
gfz2010ewvc  -0.05230
gfz2010ewyu  -0.23620
gfz2010excp   0.42720
gfz2010exdd   0.11650
gfz2010exed  -0.26370
gfz2010exfb   0.86670
gfz2010exgb   0.19170
gfz2010exhd  -0.03470
gfz2010exhw   0.04340
gfz2010exjw   0.03030
gfz2010exlm   0.36820
gfz2010exmc  -0.26760
gfz2010exno   0.17830
gfz2010exou   0.84330
gfz2010exqu  -0.33880
gfz2010exts   1.18290
gfz2010exyp   0.13020
gfz2010eyaz   0.41760
gfz2010eybj  -0.62180
gfz2010eyhh   0.37330
gfz2010eyiv   0.00000
gfz2010eymr  -0.19450
gfz2010eymx  -0.32350
gfz2010eyqe  -0.19180
gfz2010eyvq   0.46830
gfz2010eyxe   0.18190
gfz2010ezuj  -1.00630
gfz2010ezvg  -0.90530
gfz2010ezvt  -0.49330
gfz2010ezwz   0.01720
gfz2010ezxd   0.35750
gfz2010faeu  -0.38030
gfz2010falm   0.40910
gfz2010fauz  -0.29330
gfz2010fbeu  -0.71560
gfz2010fbpi  -0.24710
gfz2010fbwe  -1.46660
gfz2010fcax  -0.38530
gfz2010fcdw  -0.25340
gfz2010fciw  -0.63040
gfz2010fcnn   0.08310
gfz2010fcnt  -0.35880
gfz2010fcxy   0.17470
gfz2010fcyj  -0.47380
gfz2010fczt  -0.13500
gfz2010fdab  -0.00000
gfz2010fedq  -0.32550
gfz2010fefr  -4.60540
gfz2010fexw   0.02610
gfz2010ffhq   0.07450
gfz2010ffjb   0.79310
gfz2010ffui  -0.35020
gfz2010fhbl   1.32080
gfz2010figq  -0.16520
gfz2010fihj  -1.00130
gfz2010fika   0.18930
gfz2010fisf   0.50200
gfz2010fixr  -0.11560
gfz2010fjal  -0.21490
gfz2010fjas  -0.71770
gfz2010fjmu  -0.25030
gfz2010fjni   0.21920
gfz2010fkhd  -0.14450
gfz2010fkia  -0.09970
gfz2010fknh   0.10750
gfz2010fkvg  -0.51160
gfz2010flha  -0.33810
gfz2010flkj  -0.36050
gfz2010flrt   0.66800
gfz2010flxi  -0.35760
gfz2010fmhb  -0.26080
gfz2010fmpy  -1.60210
gfz2010fmwb  -1.62900
gfz2010fneu  -0.41930
gfz2010fnrk  -4.88680
gfz2010fobc  -0.92420
gfz2010fona  -0.50090
gfz2010fpmv  -0.18810
gfz2010fpqy   0.20820
gfz2010fqdu  -0.41110
gfz2010fqtj   0.30630
gfz2010fser  -0.39430
gfz2010fsmy   2.19120
gfz2010fsth  -0.63440
gfz2010ftlm  -0.05520
gfz2010ftsx   1.13580
gfz2010fupn  -0.48580
gfz2010fuuy   0.19990
gfz2010fuwa   0.51650
gfz2010fwkk   0.95110
gfz2010fwlb  -0.15820
gfz2010fwny   0.22110
gfz2010fwpv   0.77760
gfz2010fyed  -0.05910
gfz2010fyen   0.05850
gfz2010fync   0.72560
gfz2010fzoi   0.85470
gfz2010fzyt   1.48010
gfz2010gcdn   0.74670
gfz2010gceb  -0.66300
gfz2010gcrl  -1.11330
gfz2010gcrp  -0.48180
gfz2010gdch  -1.99110
gfz2010gdld   0.04850
gfz2010geru  -0.63230
gfz2010ginm   0.81080
gfz2010gjia   0.08090
gfz2010gjvo  -0.34400
gfz2010glqr   0.05670
gfz2010glxl   0.16240
gfz2010gmib  -0.66890
gfz2010govu  -0.92570
gfz2010grjd   0.33880
gfz2010grxb   0.31360
gfz2010gslu  -0.02580
gfz2010gtqs   0.13140
gfz2010gymo  -0.29350
gfz2010gzxr  -0.44420
gfz2010hakh   2.31320
gfz2010hbka  -0.21340
gfz2010hcio  -0.06030
gfz2010hevz  -0.11970
gfz2010hgld  -0.38580
gfz2010hjoc   0.29860
gfz2010hlco  -0.16600
gfz2010hllj   0.56960
gfz2010hlln   2.71110
gfz2010hmhm   0.41140
gfz2010hnpi  -0.65800
gfz2010hnzr   0.72580
gfz2010homc  -0.51040
gfz2010hptz   0.90150
gfz2010hrkr   0.42830
gfz2010hrpr  -0.18120
gfz2010htdq   0.78720
gfz2010hufk   0.39920
gfz2010hxbs   0.71750
gfz2010hxgv   0.47540
gfz2010hxhe  -0.20950
gfz2010hzar   0.28840
gfz2010iauj   0.55010
gfz2010ibiy  -0.14310
gfz2010iciq   0.98910
gfz2010icqq   0.33000
gfz2010iefy  -1.56160
gfz2010iibf   0.13860
gfz2010iimu  -0.28050
gfz2010ijtk  -0.20680
gfz2010imfv   1.22020
gfz2010imsh  -0.19790
gfz2010ipsg  -0.30160
gfz2010iqep   0.98900
gfz2010iqfm  -0.87310
gfz2010iqnm  -0.89080
gfz2010iqus   0.24070
gfz2010irqr  -0.04310
gfz2010irvf   0.09930
gfz2010isrp   1.23080
gfz2010itpb  -0.18280
gfz2010iull   0.01630
gfz2010ixyc  -1.27050
gfz2010izzj  -0.23130
gfz2010jagd   0.02000
gfz2010jant  -0.57620
gfz2010jatq  -0.20940
gfz2010jhie  -0.31910
gfz2010jipf   0.42810
gfz2010jitt   0.52970
gfz2010jpss   0.22690
gfz2010jpyj   0.32740
gfz2010jqxx   0.24270
gfz2010jssh   0.38600
gfz2010jsuh  -0.12040
gfz2010jsuo  -0.87490
gfz2010jwpy   0.23020
gfz2010jxbm   0.19760
gfz2010jygz  -0.04770
gfz2010kcoo   0.32180
gfz2010kihf  -1.71890
gfz2010kjmp  -0.87130
gfz2010kown  -2.50450
gfz2010kyvj   0.75910
gfz2010kzml   0.02150
gfz2010lcoq  -0.05900
gfz2010lczp  -2.25000
gfz2010lkcf  -0.73550
gfz2010lopz  -0.22230
gfz2010lrlk  -1.19880
gfz2010lwuq   1.57280
gfz2010lyfk   0.68530
gfz2010mant  -1.25340
gfz2010mdpq  -0.19400
gfz2010mlkz  -0.13940
gfz2010mpuy  -0.60120
gfz2010nfsj   0.45000
gfz2010nnny   0.07340
gfz2010nqwf   0.83310
gfz2010nqwo   0.66810
gfz2010nrew   0.27530
gfz2010nrjo   0.36920
gfz2010nsck   0.22990
gfz2010nsdf  -0.06470
gfz2010nsjs  -0.00210
gfz2010ntuo  -0.16150
gfz2010nxsy   0.19520
gfz2010nxum  -0.05620
gfz2010ocxq   0.72690
gfz2010odpb   0.74900
gfz2010oluw   0.94220
gfz2010onma   0.38090
gfz2010osjs   0.07060
gfz2010otbn  -0.07180
gfz2010pexf  -0.09580
gfz2010pfyu   0.21980
gfz2010plbg  -0.95950
gfz2010pqck  -0.80090
gfz2010pxgh  -0.18750
gfz2010pxls  -0.00000
gfz2010qbng   0.51330
gfz2010qpum  -0.16160
gfz2010qpvi   0.53730
gfz2010qwwx   0.25310
gfz2010rhas   1.50350
gfz2010rkfp   0.00740
gfz2010rlbv  -0.67500
gfz2010rqwj  -1.11100
gfz2010rxjw  -0.06470
gfz2010rywq   0.34440
gfz2010rzrr  -1.37300
gfz2010rzsd  -3.34110
gfz2010sfee  -0.00000
gfz2010sfla  -0.15940
gfz2010skqo  -0.23580
gfz2010skve  -0.65090
gfz2010srdb  -0.24740
gfz2010suww  -0.92970
gfz2010svtn  -0.05150
gfz2010svve  -0.30200
gfz2010swcy  -0.24980
gfz2010sxwt  -0.45040
gfz2010sysw   0.01990
gfz2010szde   0.02170
gfz2010szim   0.37380
gfz2010tcbr   0.09850
gfz2010tcrl  -2.04730
gfz2010titk  -0.14350
gfz2010tlfm   0.61120
gfz2010truw   0.75960
gfz2010txjs   0.09720
gfz2010tzzk   0.19240
gfz2010uept  -0.09940
gfz2010upfb   0.35010
gfz2010upiw   0.03650
gfz2010urlq   0.05890
gfz2010usho   0.24230
gfz2010ustq  -0.91510
gfz2010utcg   0.39410
gfz2010utmc  -0.42140
gfz2010utvp  -0.58830
gfz2010uvhf  -0.00630
gfz2010uyhb  -1.80650
gfz2010uzon  -0.06020
gfz2010vbmd   0.27060
gfz2010vhuj  -0.21250
gfz2010vtdg  -0.29380
gfz2010vxvs   0.51120
gfz2010vzpr   0.49230
gfz2010wioh  -0.39770
gfz2010wnty  -0.27480
gfz2010wntz   1.37430
gfz2010wofs  -0.66340
gfz2010wrxx  -1.08740
gfz2010wxqa  -0.25700
gfz2010xbcr   0.37260
gfz2010xbdv  -0.62640
gfz2010xbgs  -0.36870
gfz2010xcdh   0.10300
gfz2010xche   0.41740
gfz2010xden   0.11460
gfz2010xgzw  -0.20550
gfz2010xjck  -0.33580
gfz2010xjsj   0.20100
gfz2010xmpr   1.29740
gfz2010xnxk   0.06610
gfz2010xxdb   0.45970
gfz2010xxzn  -0.15960
gfz2010yfsv  -0.58330
gfz2010yjev  -0.70000
gfz2010ymfy  -1.31490
gfz2010yosr   0.04880
gfz2010yqqv   0.14270
gfz2010yqwx   0.62590
gfz2011aatr   0.56370
gfz2011adjs  -1.10730
gfz2011adlj   0.84440
gfz2011adne  -0.01750
gfz2011adpw  -0.05340
gfz2011adqk   0.86030
gfz2011aeay   0.64580
gfz2011ahfw  -0.30860
gfz2011aldv  -0.47510
gfz2011alip   0.24980
gfz2011alsa  -0.50470
gfz2011alwf   0.19400
gfz2011anur   0.16220
gfz2011aosc   0.40630
gfz2011aqxf  -0.41480
gfz2011asru  -5.73190
gfz2011aupi  -0.91510
gfz2011bgrp   0.13290
gfz2011bhha  -0.27060
gfz2011blsi  -1.11560
gfz2011bnzn  -1.73770
gfz2011bpkd   0.37820
gfz2011ccpw  -0.06400
gfz2011cfae   0.66910
gfz2011cndo  -0.02810
gfz2011coxh   0.70810
gfz2011csju  -0.04110
gfz2011cvfg   0.07480
gfz2011cwgn  -0.63070
gfz2011cykd  -0.92290
gfz2011cylz   0.44150
gfz2011cynl  -0.07800
gfz2011cyre  -0.16550
gfz2011cyuk   1.01870
gfz2011czwj   1.20520
gfz2011dbev   0.05130
gfz2011dbig   0.06600
gfz2011dbli   0.15710
gfz2011dbon  -0.05170
gfz2011dbwt   1.30140
gfz2011dcqb  -0.47370
gfz2011dcqf   0.01970
gfz2011deaf   2.19840
gfz2011dlyx  -0.20430
gfz2011dmat   0.19110
gfz2011dndz   0.35470
gfz2011dpmx  -0.04180
gfz2011dpqx   0.29210
gfz2011duyr   0.23080
gfz2011eayc   0.10770
gfz2011eazf  -0.31600
gfz2011ecaj   0.47170
gfz2011ecsc   1.18930
gfz2011edmm   0.69740
gfz2011eebc  -0.15090
gfz2011ehzq   0.12860
gfz2011ejlp  -0.11620
gfz2011eltw  -0.40910
gfz2011enva  -0.25210
gfz2011eocc   0.64040
gfz2011etje   0.89100
gfz2011fgvr  -0.48240
gfz2011fhag   0.00000
gfz2011fhbm   0.05110
gfz2011fhur  -0.02340
gfz2011fkbn  -0.08410
gfz2011flgj  -0.31140
gfz2011fnsw  -0.42030
gfz2011gbmx   0.11600
gfz2011gcwb   0.04120
gfz2011gdgh   0.24680
gfz2011ggvf  -0.20840
gfz2011ghky  -0.08100
gfz2011gjlx  -0.13630
gfz2011gkey   0.37720
gfz2011gkzt  -0.57590
gfz2011gzbr  -0.08020
gfz2011haid  -1.16140
gfz2011hbex  -0.11980
gfz2011hebt  -0.52310
gfz2011hfkj  -0.14850
gfz2011hlqw  -0.03330
gfz2011hlsa  -0.20340
gfz2011hlth  -0.13920
gfz2011hpgx   1.29630
gfz2011hpqp  -0.33080
gfz2011hrhe   0.17750
gfz2011hrhu   1.05080
gfz2011hryk   0.06780
gfz2011hsfj   3.18000
gfz2011hvbu  -0.65020
gfz2011icxe   0.33430
gfz2011ieie   0.41450
gfz2011iwte   0.72900
gfz2011ixai   0.12510
gfz2011izqa  -0.30380
gfz2011izto  -0.38190
gfz2011jdsj   0.31050
gfz2011jghb   1.21660
gfz2011jmbn  -0.03910
gfz2011jnmi   0.51180
gfz2011jplh   0.00620
gfz2011jtlg  -0.36540
gfz2011juid   0.18900
gfz2011jxpl  -0.16140
gfz2011knoo   0.00000
gfz2011kqwo  -2.75070
gfz2011kqyg   0.34010
gfz2011kweu  -0.73110
gfz2011kwhq   3.15700
gfz2011kwid   0.97980
gfz2011kwiy  -1.84300
gfz2011kwjx   0.33220
gfz2011kwkw  -0.12310
gfz2011kwld  -0.35510
gfz2011kwlq   0.24780
gfz2011kwni  -0.01990
gfz2011kwqc  -0.26560
gfz2011kwrf  -0.73290
gfz2011kwsz   0.22770
gfz2011kxzp   0.32150
gfz2011lcxq   0.66970
gfz2011lczg   0.21570
gfz2011lgsg   0.39190
gfz2011lhls   0.22310
gfz2011lvjr  -0.57160
gfz2011lzwj   0.50180
gfz2011mdie   0.54400
gfz2011mepc   0.28070
gfz2011mjom   0.32860
gfz2011mllx   0.21590
gfz2011mlvw  -0.12390
gfz2011mpme  -0.25360
gfz2011mprq   0.13940
gfz2011myia   0.08910
gfz2011nauw  -0.03340
gfz2011necz   0.53510
gfz2011nkaz  -0.48290
gfz2011noud  -0.05410
gfz2011npgs   0.01960
gfz2011nqpd   1.12920
gfz2011nrwc  -0.08990
gfz2011nsex  -0.62900
gfz2011ntkh   0.56290
gfz2011ntrv  -0.40360
gfz2011nudm   0.04140
gfz2011ogqk   0.85080
gfz2011ohcy   0.37890
gfz2011oiqe  -0.26820
gfz2011oiwk   0.15690
gfz2011olkk   0.51770
gfz2011oolr  -0.23260
gfz2011orgn  -0.60850
gfz2011ornx   0.29540
gfz2011owvz   0.93130
gfz2011pccd   0.11750
gfz2011pdpt   0.26090
gfz2011pdst  -0.61640
gfz2011phms  -0.45010
gfz2011pntf  -0.24440
gfz2011ptus  -0.43770
gfz2011qvae   0.46460
gfz2011qyms  -0.10930
gfz2011rabm  -0.02160
gfz2011rdby  -4.27000
gfz2011rewa  -0.12960
gfz2011rgwp  -0.94330
gfz2011rqui  -0.47060
gfz2011rsrh   0.51180
gfz2011rznl  -0.03490
gfz2011sagt   0.03770
gfz2011shqm  -0.01950
gfz2011stal  -0.24910
gfz2011svix   0.89990
gfz2011tbas  -0.05230
gfz2011tcij  -0.36720
gfz2011tjrf   1.59080
gfz2011tjue   0.06270
gfz2011tkfp   0.27590
gfz2011tkog  -0.32020
gfz2011tnag   0.28270
gfz2011toub   0.68260
gfz2011tpfr  -0.34780
gfz2011tsfd  -0.31210
gfz2011tsnp   1.20070
gfz2011tuea  -0.70030
gfz2011twov  -1.03140
gfz2011udsq  -0.47880
gfz2011uepx   0.57450
gfz2011ugzz   0.04150
gfz2011ujze   0.16410
gfz2011ukmp  -0.46080
gfz2011uphh   0.29220
gfz2011urxy  -0.23100
gfz2011urzu  -0.41910
gfz2011uzqv   1.09840
gfz2011vclt   0.28170
gfz2011vhfi   0.24260
gfz2011vldk  -0.00000
gfz2011vnza  -0.01360
gfz2011vxns  -0.36610
gfz2011wcic   0.84200
gfz2011wijj  -0.05560
gfz2011wjul  -0.05410
gfz2011wtmq  -0.50200
gfz2011wwjs   0.23030
gfz2011wxfs   0.21670
gfz2011wxoj   0.20830
gfz2011wxtk  -0.53230
gfz2011wype  -0.68430
gfz2011xaan  -0.45860
gfz2011xcpv  -0.00700
gfz2011xesx   0.64010
gfz2011xqru   2.79810
gfz2011xyxj   0.40100
gfz2011yfdx   0.37750
gfz2011yfys   0.34970
gfz2011yhwz  -0.21550
gfz2011ytnu  -0.16940
gfz2011yybo   0.30900
gfz2011zjap  -0.30280
gfz2011zklv   0.04560
gfz2011zlrd  -0.32470
gfz2011zqhh   0.08760
gfz2012ajtq   0.38940
gfz2012aqgp  -0.02720
gfz2012aqtq  -0.16400
gfz2012attr  -0.76580
gfz2012bfah  -0.21980
gfz2012bfyn   0.81470
gfz2012bngd   0.68050
gfz2012bpkx   0.30410
gfz2012bpnl   0.19570
gfz2012bpwl  -0.68440
gfz2012bqeb   0.26820
gfz2012brhv   0.67260
gfz2012bszs  -0.11150
gfz2012byad  -0.41420
gfz2012cgvr   0.56570
gfz2012ckxi   1.35770
gfz2012cmfy  -0.72190
gfz2012cnod  -0.20580
gfz2012covm   0.07600
gfz2012cqnl  -0.39370
gfz2012cxdn   0.31150
gfz2012czlw   0.58630
gfz2012deri  -0.31380
gfz2012dfhq   0.46840
gfz2012dimn   1.05860
gfz2012dinb   0.09530
gfz2012dyyh   0.21060
gfz2012ekda  -0.11910
gfz2012ekzf  -0.55700
gfz2012elce   0.31800
gfz2012emjg   0.54560
gfz2012enno   0.65660
gfz2012eskt  -0.36360
gfz2012ewgo  -0.13740
gfz2012ewkj   1.15370
gfz2012fbfo  -0.97300
gfz2012fivh  -0.96380
gfz2012foeo   0.59630
gfz2012fwfo   1.62450
gfz2012fwtr   1.20730
gfz2012fzfa  -0.43840
gfz2012fzsq   0.29210
gfz2012gill  -0.29370
gfz2012gkvr  -0.43580
gfz2012glss  -1.77590
gfz2012gocc  -0.88930
gfz2012gukw  -1.39630
gfz2012gwqb   0.21170
gfz2012hdbm  -0.12870
gfz2012hnul   0.00000
gfz2012hogg   0.04920
gfz2012hwmz   0.02190
gfz2012iamr  -0.00360
gfz2012icmv  -2.75280
gfz2012ihdl   0.33460
gfz2012iivw  -0.14470
gfz2012ilvn   0.18260
gfz2012imay  -0.01530
gfz2012intn   0.18800
gfz2012iyrb  -0.26920
gfz2012jgvj   0.48830
gfz2012jjzc  -0.09530
gfz2012jlox  -0.20200
gfz2012jpeh   0.38390
gfz2012jpgs   1.28270
gfz2012jqvn   0.03700
gfz2012jshk  -1.47160
gfz2012jupx  -0.06610
gfz2012kbjb  -0.69370
gfz2012kbzj   0.17460
gfz2012keor  -0.56890
gfz2012kkup   0.17960
gfz2012klhx  -0.10740
gfz2012kuct   0.47390
gfz2012kudo   0.19220
gfz2012kvzv  -0.10760
gfz2012kwgo  -0.15190
gfz2012lczo  -0.51750
gfz2012ldxg  -0.00910
gfz2012ldzj  -0.55100
gfz2012ledy   0.87330
gfz2012lltr  -0.13980
gfz2012lpvn   0.75110
gfz2012lrsv  -1.19640
gfz2012lxkv   0.24590
gfz2012minr  -0.16090
gfz2012mkpn   0.92650
gfz2012mlyf  -1.70240
gfz2012mpvy   0.23410
gfz2012mpyl  -0.08400
gfz2012mupa  -0.89900
gfz2012mvwr  -0.10940
gfz2012mwij   0.71630
gfz2012naqz   0.53810
gfz2012nedn  -0.20920
gfz2012ngic  -0.34560
gfz2012nkdf  -1.05840
gfz2012nojx   0.41770
gfz2012nolo  -0.43120
gfz2012nsbz  -0.11680
gfz2012ntzv  -0.59400
gfz2012nutf  -0.80840
gfz2012nxog  -0.06020
gfz2012nxyt  -2.56010
gfz2012oazn   0.06700
gfz2012oedb   0.04230
gfz2012omvo  -0.81340
gfz2012oqmw  -0.43150
gfz2012ovqs   0.21320
gfz2012pciw   0.39250
gfz2012pgcl   0.21240
gfz2012pkel   0.33230
gfz2012pqlt  -1.28990
gfz2012pqmu   0.02010
gfz2012priv  -0.20250
gfz2012qjhs   0.16270
gfz2012qtgs   0.63310
gfz2012qurq   0.53150
gfz2012quso  -0.40100
gfz2012qxcy  -0.03880
gfz2012rats  -0.21290
gfz2012rcnj  -0.38710
gfz2012repv  -1.92830
gfz2012rjsd  -0.12700
gfz2012royy  -0.58800
gfz2012rqlg  -0.08770
gfz2012rwov   0.02340
gfz2012rwql  -0.03430
gfz2012rypu   0.03500
gfz2012sfer   1.21360
gfz2012snhi  -1.45410
gfz2012spbj  -0.35530
gfz2012sphd  -0.09800
gfz2012sqmv  -0.30750
gfz2012ssyn   1.27520
gfz2012syvl   0.40060
gfz2012tazz   0.46890
gfz2012teic  -0.13100
gfz2012thfx   0.06660
gfz2012tmop  -0.09860
gfz2012ttoa   0.23870
gfz2012tvmv   0.54470
gfz2012uafg  -0.15450
gfz2012uciv  -0.08300
gfz2012ueqo   0.14320
gfz2012ufew   0.26740
gfz2012uhup   0.25210
gfz2012ulpd   0.51590
gfz2012uqzp   0.68460
gfz2012usba  -0.06070
gfz2012uvqf  -0.05950
gfz2012uyxb  -0.39990
gfz2012vceo  -0.58700
gfz2012vntz   0.11110
gfz2012vpza  -1.05020
gfz2012vrgb   0.19260
gfz2012vsev  -0.02150
gfz2012vxvr   0.26540
gfz2012whku  -0.27630
gfz2012wklq  -0.30350
gfz2012wmsg  -0.52830
gfz2012wpeq   0.19430
gfz2012wrir   0.14810
gfz2012wtkr   0.10000
gfz2012wubh  -0.32880
gfz2012wvfl  -0.67310
gfz2012wxer   0.09610
gfz2012wxkg   0.30390
gfz2012wxlg  -0.20820
gfz2012wxnu   0.75240
gfz2012wybs  -0.00000
gfz2012wypz   0.69940
gfz2012xbjq  -0.19430
gfz2012xcgk  -0.17020
gfz2012xeul  -2.15450
gfz2012xjyv   0.10520
gfz2012xkkv  -1.96690
gfz2012xslk  -0.95210
gfz2012xvwn  -0.30810
gfz2012xwqa  -0.16080
gfz2012xyua  -1.42790
gfz2012yfrp   0.86020
gfz2012yoie   0.65940
gfz2012yxxu   0.89030
gfz2012zemh  -0.16680
gfz2012zemz  -0.60910
gfz2012zfag   0.72150
gfz2012zitl  -0.13410
gfz2012zjpv  -0.47270
gfz2012zjre   0.23020
gfz2012zklq   0.29330
gfz2012zmbp  -0.79880
gfz2013aahq  -0.11450
gfz2013aayj  -0.30320
gfz2013adey  -0.10780
gfz2013apmm  -0.09600
gfz2013aqaw   2.15820
gfz2013bdke   0.44870
gfz2013bdpu  -0.19860
gfz2013bnxc   1.37980
gfz2013bobq  -0.99950
gfz2013bokp   0.26050
gfz2013bouj   0.30020
gfz2013btjm  -0.54130
gfz2013cbsm   0.44900
gfz2013ccnr   0.14560
gfz2013cdan   0.74560
gfz2013ciaf   0.09580
gfz2013cvqg  -0.24130
gfz2013cwpn   0.63220
gfz2013cwps  -0.31480
gfz2013ddbh  -0.83900
gfz2013dddp   0.39200
gfz2013diuf  -0.30020
gfz2013dkly   0.02010
gfz2013dofo  -0.12430
gfz2013dojq   0.28400
gfz2013dqls   0.24360
gfz2013drpk   0.15950
gfz2013drxz  -0.36450
gfz2013dsog   0.06740
gfz2013dspt  -1.19010
gfz2013dsrk  -1.31350
gfz2013dvyh  -0.10920
gfz2013egni   0.73250
gfz2013egpu  -0.50710
gfz2013ekpm   0.07930
gfz2013enbx  -1.42940
gfz2013erse   0.27140
gfz2013esnh   1.15030
gfz2013ewbo  -0.36170
gfz2013feep   0.13860
gfz2013fiud  -0.03950
gfz2013fkii  -0.21600
gfz2013flox  -0.12530
gfz2013fwxa  -0.06570
gfz2013fygc   0.30280
gfz2013gcfx  -1.52470
gfz2013gdgf   0.27580
gfz2013gdnq   0.49600
gfz2013gihf  -0.08700
gfz2013gmor   0.05570
gfz2013gngz   0.19780
gfz2013gock  -0.17020
gfz2013govy   0.02070
gfz2013gwrd   0.10330
gfz2013gxsu  -0.48220
gfz2013hdnc   0.43520
gfz2013hfmp   0.47200
gfz2013hlbe   0.66300
gfz2013hmbc  -0.36890
gfz2013hsfw  -0.30830
gfz2013huwr   0.08610
gfz2013hxcx  -0.48600
gfz2013iayx  -0.11870
gfz2013ifpq   0.27850
gfz2013igmx   0.32600
gfz2013ijsr   0.15580
gfz2013ikgo  -0.22210
gfz2013ilug   0.25450
gfz2013ippu   0.25530
gfz2013iqzq  -0.40500
gfz2013iunn  -0.71890
gfz2013jesk  -0.33520
gfz2013jgij  -0.28860
gfz2013jgip   0.19210
gfz2013jkut   0.47180
gfz2013jusj  -1.80210
gfz2013jwvc   0.12150
gfz2013kccc  -0.52450
gfz2013kdeo  -0.48370
gfz2013kheb   0.43210
gfz2013khli   0.02010
gfz2013kilx  -0.22730
gfz2013kqln   0.01840
gfz2013krei   0.19780
gfz2013kvtk  -0.25500
gfz2013kwps   0.53340
gfz2013lbiu   0.34480
gfz2013ldos  -0.09520
gfz2013ldpc  -0.37000
gfz2013ldqb  -0.19760
gfz2013lgbb   1.13540
gfz2013lgnl   0.71620
gfz2013lixa  -0.42050
gfz2013lmqe   0.47230
gfz2013lmrs  -0.07910
gfz2013lwbk   0.05930
gfz2013lyko   0.33970
gfz2013mmwq  -0.02780
gfz2013mnei  -0.48760
gfz2013mqik  -0.44670
gfz2013mqmv   0.02950
gfz2013mvgr  -0.36590
gfz2013mwbh  -0.18320
gfz2013mxee  -0.02110
gfz2013ncjp  -0.17480
gfz2013ndin   0.27610
gfz2013neuc   0.37180
gfz2013nixj   0.15370
gfz2013nkgj  -0.19870
gfz2013nknw   0.23670
gfz2013nmac  -0.06240
gfz2013nqgw   0.94910
gfz2013nuor  -0.55470
gfz2013nuvi   0.42250
gfz2013nvdj  -1.40110
gfz2013nwdi   0.47880
gfz2013oejn   0.77060
gfz2013ogde   0.11380
gfz2013oqsc  -0.28590
gfz2013orjg  -0.26370
gfz2013orzn  -0.41810
gfz2013ozrf  -0.27320
gfz2013ozrp  -0.12920
gfz2013pcos   0.37150
gfz2013pfbx   0.32140
gfz2013pfeb   0.22530
gfz2013phef  -0.19140
gfz2013pkbs  -0.27710
gfz2013puag  -0.03910
gfz2013pxsj   0.08110
gfz2013qfmm   0.64990
gfz2013qmer  -0.07490
gfz2013qnxc  -1.06270
gfz2013qzdq  -0.72400
gfz2013rait  -0.36900
gfz2013rdoo  -0.02670
gfz2013reym  -0.71190
gfz2013rsnr  -0.35400
gfz2013rwfe  -1.69350
gfz2013sart  -0.02300
gfz2013sdus  -0.08920
gfz2013sebq   0.84920
gfz2013sfds  -0.08810
gfz2013sfto  -0.50790
gfz2013shzy   0.54350
gfz2013sjhg   0.96860
gfz2013skkm   0.12350
gfz2013snbr  -0.40300
gfz2013stht   0.27840
gfz2013suvn   0.87280
gfz2013svci   0.48290
gfz2013tcbk  -0.06130
gfz2013tcxc   0.09910
gfz2013tcxq   0.21090
gfz2013tdau   0.42790
gfz2013tlaf  -0.26190
gfz2013toxf   0.27120
gfz2013tpeb  -1.10550
gfz2013tusd   0.06540
gfz2013tvmw  -0.14540
gfz2013txev  -0.51430
gfz2013txij  -0.35580
gfz2013txtb  -0.27930
gfz2013tyas  -0.36050
gfz2013uauo  -0.18010
gfz2013ufxk   0.38800
gfz2013ufxm  -0.60040
gfz2013uqsp  -0.80070
gfz2013utsh   0.15510
gfz2013vexx  -0.27340
gfz2013vfyw  -0.12680
gfz2013vfzp  -0.08060
gfz2013vgau   2.74190
gfz2013vgrk  -0.52850
gfz2013vhzu   0.13940
gfz2013viul   0.27270
gfz2013vjjc  -1.15730
gfz2013vrmy  -0.33160
gfz2013vvrq   0.81500
gfz2013vzbo  -0.22420
gfz2013waam   0.73900
gfz2013wjmm  -0.01540
gfz2013wmfd  -0.05470
gfz2013wnpr   0.28840
gfz2013wpga   0.16950
gfz2013wuon  -0.52040
gfz2013xatc  -1.47220
gfz2013xgmp   0.43330
gfz2013xizq   0.42890
gfz2013xklb  -0.58620
gfz2013xkwt   0.35150
gfz2013xmul  -0.19560
gfz2013xpfa  -0.49960
gfz2013xqnn  -0.04380
gfz2013xsdt   0.58250
gfz2013xvxf   0.44800
gfz2013xwda  -0.69060
gfz2013xxwv  -0.58860
gfz2013xxxq  -1.07760
gfz2013xyzb   0.12250
gfz2013yctg  -0.34420
gfz2013yghj  -0.04140
gfz2013yhbu  -1.05500
gfz2013yhpk   0.34320
gfz2013ylbx  -0.08370
gfz2013ymky   0.01720
gfz2013yqkv   0.19340
gfz2013yrmc   1.89600
gfz2013yyhc   0.01270
gfz2013zaxb  -0.19000
gfz2013zjtw   0.48120
gfz2013zmoc  -0.07350
gfz2014aawc   0.31560
gfz2014abgd  -0.33870
gfz2014adoj   0.49300
gfz2014afmx   0.02520
gfz2014ajlk   0.06950
gfz2014algk  -0.02150
gfz2014alwz   1.84620
gfz2014ande   0.30060
gfz2014ared  -0.87850
gfz2014arpf   0.27280
gfz2014atgw  -0.07220
gfz2014azqs   0.22890
gfz2014bagd   0.11700
gfz2014bezu   0.34780
gfz2014bfng  -1.07040
gfz2014bfqo   0.97620
gfz2014bmta  -0.49920
gfz2014bwue   0.32500
gfz2014bzna  -0.26520
gfz2014bzxy   0.36480
gfz2014chdv  -0.30110
gfz2014claq   0.35010
gfz2014cmwb  -0.09340
gfz2014cqyo   0.47650
gfz2014crpy   0.04700
gfz2014ctot   0.00000
gfz2014cvkm  -0.32630
gfz2014cvxx   0.38330
gfz2014czno  -0.08720
gfz2014czol   0.14920
gfz2014czqi   0.05020
gfz2014czua   0.41300
gfz2014dffd   0.22590
gfz2014dhxt   0.54170
gfz2014disp  -0.90980
gfz2014duqn   0.33960
gfz2014edfx   0.84380
gfz2014eght  -0.25230
gfz2014egwu   0.72050
gfz2014ehsf   0.88480
gfz2014ekcr  -0.42300
gfz2014enhi   0.16360
gfz2014eqpl   0.95490
gfz2014ettc   0.11960
gfz2014fcms   0.44710
gfz2014femz   0.14720
gfz2014fexu   1.15090
gfz2014ffdc   0.38720
gfz2014fgvi   0.17170
gfz2014fgxt  -0.00000
gfz2014fgyo  -1.55710
gfz2014fhbd   0.10290
gfz2014fhdw   0.14280
gfz2014fhla  -1.06340
gfz2014fhrq   0.53140
gfz2014fhsg   0.14370
gfz2014fhwx  -1.38810
gfz2014fimn  -0.05200
gfz2014fjpb  -0.85610
gfz2014fkmr  -0.83010
gfz2014flfa  -0.01350
gfz2014fnyg  -0.02630
gfz2014foio  -0.11240
gfz2014frdz   0.53790
gfz2014frel   1.11080
gfz2014frez  -0.39200
gfz2014frwh   0.61390
gfz2014ftka  -0.17400
gfz2014ftpw   0.18600
gfz2014ftrk  -0.24170
gfz2014furx   0.06490
gfz2014fusj  -0.04380
gfz2014fuub  -0.19840
gfz2014fvaa   0.53910
gfz2014fval   0.13750
gfz2014fvgh  -0.05470
gfz2014fvrg   0.17460
gfz2014gbcz  -0.06050
gfz2014gbdq   0.66560
gfz2014ghpe   0.26030
gfz2014gkgf  -0.34340
gfz2014gkgs  -1.23610
gfz2014gkhy   0.25490
gfz2014gkjl  -0.90410
gfz2014gkjt  -0.21340
gfz2014gkmm  -0.09490
gfz2014gkob   0.57220
gfz2014gkqf  -0.43610
gfz2014gkqu   0.52350
gfz2014gksu  -0.31840
gfz2014gktq   0.59370
gfz2014gkxm   1.10800
gfz2014glcu   0.03880
gfz2014glgo  -0.39240
gfz2014gltx  -0.11400
gfz2014gmge  -0.44420
gfz2014gmhr  -0.87370
gfz2014gmip  -0.11850
gfz2014gmku   0.43070
gfz2014gmlz   0.54830
gfz2014gmnb  -0.04800
gfz2014gmnw  -0.02200
gfz2014gmor   0.26250
gfz2014gmpy   0.30490
gfz2014gmrj   0.16090
gfz2014gmuk   0.16500
gfz2014gmzl   1.60200
gfz2014gnfd  -0.14330
gfz2014gnfs  -0.36370
gfz2014gngg   0.36470
gfz2014gnnt   0.23420
gfz2014gnre  -0.52810
gfz2014goba  -0.24990
gfz2014gogv  -0.91560
gfz2014goqw  -0.30250
gfz2014gphr   0.04150
gfz2014gpuk   0.26290
gfz2014gpya  -0.00000
gfz2014gqer   1.17190
gfz2014gqiy   0.53990
gfz2014gqqz   0.00780
gfz2014gqve  -0.16650
gfz2014grcv  -1.51680
gfz2014grgn   0.06850
gfz2014gsqs  -0.67960
gfz2014gtef  -1.96900
gfz2014gtwz  -0.22500
gfz2014gull   0.61990
gfz2014gulp   0.26200
gfz2014gutm  -1.90480
gfz2014gvhw   0.64530
gfz2014gvqj  -1.43070
gfz2014gvra  -0.55450
gfz2014gvrd   0.40530
gfz2014gwab  -0.02530
gfz2014gxkh   0.99070
gfz2014gxxh   0.15960
gfz2014gxxo   0.32070
gfz2014gzrm  -1.05380
gfz2014hagb   0.04180
gfz2014hasj   0.00000
gfz2014hauo   1.26040
gfz2014hbjm  -0.14650
gfz2014hbjz   0.11850
gfz2014hbqb   0.07670
gfz2014hcmj   0.29800
gfz2014hetr   0.04030
gfz2014heum   0.40490
gfz2014hfhl   0.54010
gfz2014hgqo  -0.02330
gfz2014hhwx   0.38230
gfz2014hjgh  -0.25520
gfz2014hjgr  -0.05640
gfz2014hjij  -0.00700
gfz2014hjlx  -0.24050
gfz2014hkcf   0.20530
gfz2014hmrs   0.47270
gfz2014hocg   0.47660
gfz2014hphw  -0.46250
gfz2014hqxs  -0.48390
gfz2014hrft  -0.09350
gfz2014hriu  -0.08930
gfz2014hscz  -0.27310
gfz2014huaj  -0.32300
gfz2014hyvq   0.61480
gfz2014hzdy  -0.29540
gfz2014hzfw  -0.06050
gfz2014hzgn   0.08030
gfz2014hzhe   0.52210
gfz2014iava   0.66220
gfz2014ieam  -0.50410
gfz2014ifzj  -0.06230
gfz2014ilwu  -0.23060
gfz2014imnn   0.04860
gfz2014inbj   0.31330
gfz2014iobd  -0.01360
gfz2014irci   1.14840
gfz2014itbe  -0.00000
gfz2014itgh   0.02810
gfz2014itjx  -0.20920
gfz2014itkw   0.19210
gfz2014itpj   0.11430
gfz2014iuhq   0.21710
gfz2014iwwl   0.39310
gfz2014iywt   0.16480
gfz2014jcjt  -0.41060
gfz2014jfis   0.37370
gfz2014jggm   0.22760
gfz2014jjhc  -0.20100
gfz2014jjln  -0.05680
gfz2014jkxe   0.37330
gfz2014jnxm   0.00000
gfz2014jnyv   0.09400
gfz2014jomw  -0.31430
gfz2014jpep  -0.08930
gfz2014jpxs  -0.03470
gfz2014jwmh   0.44930
gfz2014kara  -0.18260
gfz2014kbuk  -0.13780
gfz2014khlk  -0.49660
gfz2014kmmt   0.25210
gfz2014kndc   0.25990
gfz2014knks  -0.09470
gfz2014knxs   0.64210
gfz2014krlg  -0.72940
gfz2014ksdv   0.15120
gfz2014ksmz   0.67420
gfz2014kyan   0.12120
gfz2014kytf   0.35780
gfz2014lddn  -1.85550
gfz2014lefs  -0.14670
gfz2014lgqn   0.35400
gfz2014lhqn  -1.27630
gfz2014lkyf   0.21400
gfz2014lnqy   0.32010
gfz2014lpim  -0.40210
gfz2014lrzx   0.28890
gfz2014lwom  -0.61440
gfz2014lxnc  -0.06230
gfz2014lyhk   0.39110
gfz2014lzal  -0.57170
gfz2014lzow   0.32460
gfz2014macx   0.24140
gfz2014madw  -0.64100
gfz2014mcno  -0.16750
gfz2014mioi   0.54470
gfz2014moaw  -0.95750
gfz2014mtum   0.02810
gfz2014mwor   0.21780
gfz2014mxkr  -0.87330
gfz2014myqz  -1.31590
gfz2014nhyb  -0.42260
gfz2014nkdx   0.12680
gfz2014nnxd  -0.37010
gfz2014nowp  -0.09910
gfz2014npdk  -0.07100
gfz2014npeo   0.06710
gfz2014nphm   0.42890
gfz2014nqfm  -0.03300
gfz2014nrie  -0.56180
gfz2014ntdh  -0.00000
gfz2014nyko  -0.32730
gfz2014nylm  -0.17300
gfz2014odgv   0.30780
gfz2014ofhm  -1.92260
gfz2014oinz   0.00000
gfz2014oqhw   0.24960
gfz2014orxs   0.45700
gfz2014oryw   0.38560
gfz2014owxc   0.25390
gfz2014oyly   0.10120
gfz2014pkll   0.17650
gfz2014ppzf   0.36680
gfz2014pqqp  -2.23070
gfz2014pqrc   0.03790
gfz2014pvch   0.20510
gfz2014pzml   0.48700
gfz2014qjgp   0.37490
gfz2014qlxd  -0.20230
gfz2014qngj  -0.02450
gfz2014qqhm  -0.58640
gfz2014raau   0.34800
gfz2014rbpx  -1.06430
gfz2014rbsl   0.19740
gfz2014rdsn   0.00170
gfz2014rfeb   0.68870
gfz2014rhwq   0.52300
gfz2014riel   0.12610
gfz2014rkwl   0.09650
gfz2014romy   0.41860
gfz2014rtcu   0.67540
gfz2014rwos   0.05590
gfz2014sadu   0.41580
gfz2014shid   0.40220
gfz2014sjqw  -0.03080
gfz2014sptq  -0.75850
gfz2014sryn   0.08580
gfz2014ssds  -0.06710
gfz2014ssmv   0.01400
gfz2014ssvz  -0.00000
gfz2014szzf   0.22180
gfz2014tabg   0.14010
gfz2014tovs   0.18620
gfz2014tqdo  -0.03940
gfz2014tqly  -0.02000
gfz2014tqsf  -0.24120
gfz2014tzsd  -0.36380
gfz2014uapa   0.21010
gfz2014ubwn   0.56210
gfz2014udgg  -0.03570
gfz2014uohh   0.38120
gfz2014utac   0.06190
gfz2014uuuf   2.99520
gfz2014uvji   0.31080
gfz2014uvrk  -0.06430
gfz2014vcev   0.46760
gfz2014vhld   0.45080
gfz2014vhms  -0.24650
gfz2014vjoz   0.50010
gfz2014vpus   0.25990
gfz2014waoo   0.07540
gfz2014watn  -0.22640
gfz2014wjko  -0.02570
gfz2014wmsc   0.31190
gfz2014wrkh  -0.40560
gfz2014wwib   1.09680
gfz2014xbyr  -0.11950
gfz2014xhwk  -0.00000
gfz2014xjri   0.65770
gfz2014xmnp  -1.82650
gfz2014xoji   0.13290
gfz2014xqby   1.20050
gfz2014xqqd   0.05060
gfz2014yhhm   0.05440
gfz2014yppv   0.24140
gfz2014yyiy  -0.89880
gfz2014zcgo  -0.78880
gfz2014zkys  -0.13490
gfz2014zlgp   0.20220
gfz2014zplq  -0.70320
gfz2015abpw  -0.03090
gfz2015apnk  -0.08760
gfz2015aqbq   0.77920
gfz2015arpd  -0.14530
gfz2015aruz  -0.20370
gfz2015atxv  -0.58150
gfz2015bdyd  -2.82530
gfz2015berb   0.46650
gfz2015bfjm   0.30900
gfz2015bkbj  -0.07070
gfz2015bsnl  -0.06280
gfz2015bucr   0.24520
gfz2015bvsj   0.59810
gfz2015bvxx   0.45890
gfz2015byfn   0.12790
gfz2015byjd  -0.67140
gfz2015chhn   0.74110
gfz2015cxhx  -0.11490
gfz2015cxxk   0.55760
gfz2015cyjd   0.92740
gfz2015czfv   0.03840
gfz2015dadj   1.17480
gfz2015ddhl  -1.11110
gfz2015dizn   0.08340
gfz2015djts   0.46440
gfz2015dskr   0.31270
gfz2015dvbn   0.36990
gfz2015ecgq   0.26120
gfz2015ednc   0.76020
gfz2015eeyq   0.25300
gfz2015egxq  -0.14220
gfz2015ehpz  -0.61110
gfz2015eiky   0.27720
gfz2015elgy  -0.44270
gfz2015eljz   0.26400
gfz2015enth  -0.29770
gfz2015etai   0.21020
gfz2015eyqs  -0.22510
gfz2015fbbk   0.06000
gfz2015fbew   0.27930
gfz2015fcua   0.28700
gfz2015fdpr  -0.78570
gfz2015fjhk   0.20980
gfz2015fkbc   0.32260
gfz2015fkgt   0.24280
gfz2015fkic   0.63480
gfz2015fkkd   0.15250
gfz2015fkuu   0.00000
gfz2015flis   0.54360
gfz2015fpez  -0.30280
gfz2015fsjj   0.58710
gfz2015fvoi  -0.38730
gfz2015fwnf   0.41580
gfz2015fxbv   0.32680
gfz2015fxdi   0.00000
gfz2015fyvk   0.58900
gfz2015gckd   0.24840
gfz2015ggjw   0.07040
gfz2015gkwa   0.24680
gfz2015gmgf   0.07710
gfz2015gnmy  -0.05810
gfz2015gzja  -0.06560
gfz2015hdcp  -0.22650
gfz2015hepg   0.40380
gfz2015hgbk   0.22380
gfz2015hhbd   0.44670
gfz2015hlqo   0.29290
gfz2015hpmk   0.45410
gfz2015hvgs  -0.51210
gfz2015iele   0.62480
gfz2015igsy   0.51190
gfz2015imty   0.06790
gfz2015isim  -0.33560
gfz2015iwqk   0.45000
gfz2015ixyy   0.30570
gfz2015jkdw  -0.12080
gfz2015jmlf   0.85850
gfz2015jmlu   0.01970
gfz2015jpap  -1.51270
gfz2015jwgl   0.06830
gfz2015jxbx   0.20430
gfz2015jzcv  -0.24950
gfz2015kakw   0.35360
gfz2015kalm  -0.18540
gfz2015kcaa   0.26620
gfz2015kfsu   0.16150
gfz2015kkqb   0.16430
gfz2015kkth  -0.19300
gfz2015kphk   0.45110
gfz2015kquq   0.36290
gfz2015ksni   0.03870
gfz2015kvwz  -0.13380
gfz2015lcma   0.41130
gfz2015lcuo   0.17200
gfz2015lfma  -0.20320
gfz2015lfud   0.33260
gfz2015lhjq  -0.16350
gfz2015lhjy   0.76930
gfz2015ltii   0.00000
gfz2015lytv  -1.89250
gfz2015lzad  -0.29730
gfz2015mbgr   0.59750
gfz2015mddr  -0.02970
gfz2015mfpy   0.44370
gfz2015mhym   0.56270
gfz2015mpte  -0.36870
gfz2015nerz   0.11910
gfz2015nqgf   0.46130
gfz2015ntpk   0.25900
gfz2015nuxz  -0.13330
gfz2015nwug  -0.44800
gfz2015ocdz  -0.09550
gfz2015ocwr  -0.27840
gfz2015ofpd  -0.09760
gfz2015okmq   0.14740
gfz2015omab   0.31480
gfz2015orkl   0.27830
gfz2015oyfl   0.40660
gfz2015pcvt  -0.07260
gfz2015pdri   0.35430
gfz2015pjgr   0.05550
gfz2015plal  -0.04410
gfz2015poni   0.00510
gfz2015puah  -1.26970
gfz2015puqp   0.18050
gfz2015qisx  -1.52110
gfz2015qnho   0.11980
gfz2015qnto   0.15990
gfz2015qprd  -0.19650
gfz2015qpvd   0.24130
gfz2015quzo  -0.70310
gfz2015rgov   0.44750
gfz2015rgrg   0.26800
gfz2015rkbq   0.37120
gfz2015rkrg  -0.40810
gfz2015rkzg   0.11990
gfz2015roac   0.32350
gfz2015rpzn  -0.37550
gfz2015rwsb   0.01020
gfz2015rxmg  -0.22310
gfz2015saet   0.62180
gfz2015sevh  -0.18440
gfz2015sfdd   0.10280
gfz2015sfdl   0.23740
gfz2015sfdy  -0.49130
gfz2015sfeo   0.15650
gfz2015sfga   0.32030
gfz2015sfho   0.22080
gfz2015sfhz  -1.46200
gfz2015sfiq   0.33260
gfz2015sfkh  -0.21310
gfz2015sfko   0.06830
gfz2015sfks   0.88790
gfz2015sfkz   0.18300
gfz2015sflf  -0.39820
gfz2015sfnb  -0.72400
gfz2015sfno  -0.36800
gfz2015sfnv  -0.05860
gfz2015sfoc  -0.14020
gfz2015sfoq   0.79540
gfz2015sfps  -0.52270
gfz2015sfqo   0.02280
gfz2015sfqr  -0.00820
gfz2015sfrc  -0.28260
gfz2015sfrf   0.47820
gfz2015sfrv   0.42300
gfz2015sfsi  -1.04280
gfz2015sfte   0.42240
gfz2015sftu   0.60380
gfz2015sfuc   0.15430
gfz2015sfuz   0.95500
gfz2015sfwf   0.36020
gfz2015sfxn   0.25920
gfz2015sfzm   0.47490
gfz2015sgad   0.26920
gfz2015sgna   0.41140
gfz2015sgxc   0.99220
gfz2015sgyd   0.37610
gfz2015shaq   0.37510
gfz2015shhg   0.26390
gfz2015shhu   0.04140
gfz2015shjn  -0.28730
gfz2015shjo  -0.20140
gfz2015shqc   0.62310
gfz2015shqe  -0.25570
gfz2015shrg  -0.32070
gfz2015shsz   0.62270
gfz2015sicf   0.81170
gfz2015siky  -0.49540
gfz2015sing   0.13740
gfz2015sist   0.17400
gfz2015sitn  -0.03500
gfz2015sjbx   0.28800
gfz2015sjeq   0.46760
gfz2015sjfi   0.29530
gfz2015sjgk   0.16480
gfz2015sjjb   0.26050
gfz2015sjne   0.08270
gfz2015sjoj   0.24280
gfz2015sjpn   0.57670
gfz2015sjtz   0.62900
gfz2015sjvu   0.43780
gfz2015sjwi   0.04380
gfz2015skab  -1.83420
gfz2015skgj   0.01550
gfz2015sklu  -0.12790
gfz2015skpv   0.55040
gfz2015skuk   0.31040
gfz2015skxu  -0.03910
gfz2015sldx   0.31990
gfz2015sljs   0.07650
gfz2015slun  -0.32620
gfz2015smym  -0.42390
gfz2015snhn   0.57140
gfz2015snmg  -0.64900
gfz2015snmr  -0.17810
gfz2015snsf  -0.09410
gfz2015snwh  -0.74990
gfz2015snyd   0.00000
gfz2015soat  -0.16130
gfz2015soxc   0.20440
gfz2015sqbg  -0.65010
gfz2015sqmy  -0.26020
gfz2015srat   0.03810
gfz2015sryk  -0.94280
gfz2015ssaf  -0.94030
gfz2015sspn   0.53580
gfz2015stfy   0.45530
gfz2015subz   0.00000
gfz2015svjy  -0.23820
gfz2015svwm  -0.06560
gfz2015sxmh  -0.09820
gfz2015sydc  -0.03160
gfz2015szcb  -0.75110
gfz2015szfe   0.03820
gfz2015sztx   0.40740
gfz2015taml  -0.27270
gfz2015tcem   0.40520
gfz2015tdcu  -0.52760
