# Nsamples: 187  MAD:  0.683  mean: -0.260  variance:  0.872
gfz2010bfzs  -1.00210
gfz2010bxxs  -1.17150
gfz2010caft  -0.52700
gfz2010cbkg  -1.32070
gfz2010cqwl  -0.10090
gfz2010czps  -0.68630
gfz2010eaoy   0.09510
gfz2010eapn   0.73090
gfz2010eaqy   0.69320
gfz2010earu   1.69220
gfz2010ebhc   0.89880
gfz2010ebvv  -2.04470
gfz2010ecua  -0.10820
gfz2010eisx   0.73110
gfz2010ekyc  -0.15720
gfz2010elyc   0.46170
gfz2010evgf  -2.64270
gfz2010excp  -0.52550
gfz2010exdd  -0.30900
gfz2010ftlm   0.04680
gfz2010fync  -0.97990
gfz2010gyqp  -0.26680
gfz2010hjoc  -0.31650
gfz2010homc  -0.12110
gfz2010iobp  -0.33600
gfz2010irvf   1.11430
gfz2010lluj   1.78110
gfz2010mkuu   0.68690
gfz2010nwef  -1.00800
gfz2010onma  -0.79370
gfz2010pcxi  -0.12400
gfz2010pfyu   0.60610
gfz2010rqwj   1.71470
gfz2011aatr  -0.37370
gfz2011adjs   0.70830
gfz2011cykd   2.12170
gfz2011dpqx  -0.62630
gfz2011enva   0.36180
gfz2011gkzt  -0.40050
gfz2011hlqw  -0.24650
gfz2011hlsa  -0.21150
gfz2011jmbn  -1.05630
gfz2011lcxq  -0.48520
gfz2011lzwj  -0.20510
gfz2011mdie  -0.42500
gfz2011ohcy   1.17150
gfz2011rewa  -0.51340
gfz2011rqui  -0.48040
gfz2011toub  -0.28570
gfz2011uphh  -1.01890
gfz2011vhfi  -0.33180
gfz2011vrhg  -0.57610
gfz2011wxfs   0.24760
gfz2011xyxj   0.33630
gfz2012emjg   0.11000
gfz2012enno  -0.47830
gfz2012ewgo   0.22110
gfz2012fzfa  -2.39910
gfz2012hnul  -0.60650
gfz2012ilvn  -0.74340
gfz2012jlox   0.23430
gfz2012jupx   0.70430
gfz2012kkup   0.00860
gfz2012kudo  -0.01900
gfz2012ldxg   1.30550
gfz2012minr  -0.44180
gfz2012nsbz   0.29860
gfz2012oedb  -0.48950
gfz2012sphd  -0.22130
gfz2012syvl   0.93500
gfz2012ttoa   0.31890
gfz2012tvmv  -0.31990
gfz2012uciv  -0.69040
gfz2012vrgb   0.03150
gfz2012wklq  -0.91880
gfz2012wmsg  -0.40440
gfz2013ccnr  -0.11820
gfz2013dofo  -1.01240
gfz2013drxz   0.21380
gfz2013fiud  -0.65390
gfz2013gock  -0.28760
gfz2013jesk   0.33740
gfz2013jgij   0.37230
gfz2013jgip   0.05730
gfz2013kdeo   0.98580
gfz2013ldqb   0.46250
gfz2013mqmv   0.44240
gfz2013mwbh   1.05030
gfz2013ncjp   1.56940
gfz2013nkgj   0.70990
gfz2013nwdi   0.43020
gfz2013pfbx  -0.08520
gfz2013pxsj  -2.20220
gfz2013qali  -0.24790
gfz2013qmer  -0.07130
gfz2013svci   0.22570
gfz2013uxej   0.05850
gfz2013vfzp  -0.27140
gfz2013vjjc  -1.77140
gfz2013vzbo   1.30730
gfz2013xsdt  -0.21070
gfz2013yctg  -0.26160
gfz2013yqkv   0.29980
gfz2014afmx   0.56890
gfz2014algk   0.43920
gfz2014ande   0.63430
gfz2014bwue   0.41410
gfz2014efkk  -1.65540
gfz2014fgvi   0.09950
gfz2014frdz   0.04850
gfz2014ftka  -0.46960
gfz2014fval   0.02470
gfz2014gbcz  -0.62390
gfz2014ghpe   0.34660
gfz2014gkgf  -0.29570
gfz2014gkqf  -0.21270
gfz2014gltx   0.02090
gfz2014gmge   0.02600
gfz2014gmhr  -1.70510
gfz2014gmic   0.39900
gfz2014gmnb   0.50090
gfz2014gmnw   0.00980
gfz2014goba   0.21200
gfz2014gull  -0.41960
gfz2014gulp  -0.04300
gfz2014gwab   0.19970
gfz2014hasj   0.23790
gfz2014hgqo  -0.04050
gfz2014hocg  -0.16180
gfz2014hphw  -0.42160
gfz2014jnyv   0.54180
gfz2014jpep   0.29010
gfz2014kndc  -0.01260
gfz2014lgqn  -2.03650
gfz2014lxnc   0.37520
gfz2014npeo   0.29320
gfz2014nphm  -4.12820
gfz2014nqfm   0.14070
gfz2014nrie   0.10230
gfz2014oinz   0.15130
gfz2014pvch   0.23990
gfz2014qlxd  -0.73760
gfz2014qngj  -3.01040
gfz2014qqhm  -0.12200
gfz2014rdsn   0.10060
gfz2014ssvz  -0.67810
gfz2014tqdo   0.07960
gfz2014watn  -0.45960
gfz2014xqqd  -1.63890
gfz2015aruz  -1.14680
gfz2015berb  -0.31200
gfz2015chhn  -0.51370
gfz2015cxxk   0.08320
gfz2015cyjd   0.35780
gfz2015dvbn   0.21250
gfz2015eiky   0.41040
gfz2015emtg  -0.63330
gfz2015fsjj   0.63770
gfz2015lhjy  -0.03440
gfz2015lytv  -0.19350
gfz2015mpte  -1.54260
gfz2015nuxz  -0.81560
gfz2015okmq  -1.15470
gfz2015oyfl  -3.50730
gfz2015poni  -0.76840
gfz2015qnho  -0.65820
gfz2015rddx  -0.24620
gfz2015sfdd  -0.80580
gfz2015sfdl  -1.01680
gfz2015sfdy  -0.86860
gfz2015sfeo  -3.15080
gfz2015sfhz  -2.99810
gfz2015sfnb  -0.08190
gfz2015sfno  -0.95640
gfz2015sfnv  -3.04370
gfz2015sjgk  -0.27740
gfz2015sjne   0.05730
gfz2015sjoj  -0.20720
gfz2015sjvu  -0.62940
gfz2015skxu  -0.62240
gfz2015sldx   0.24690
gfz2015sljs  -0.29170
gfz2015smym   0.17320
gfz2015snwh  -1.70190
gfz2015soxc  -0.65000
gfz2015svwm  -0.83630
gfz2015taml  -0.99310
