# Nsamples: 590  MAD:  0.503  mean:  0.042  variance:  0.768
gfz2010bifb   0.22770
gfz2010bjeb   0.22840
gfz2010bjjx   0.76000
gfz2010bxxs  -0.75630
gfz2010caft   0.06750
gfz2010cqwl   1.17820
gfz2010ctuw  -0.35420
gfz2010czps   0.66440
gfz2010dlgc  -0.35420
gfz2010eaoy  -1.82790
gfz2010eapk   0.37170
gfz2010eapn  -0.71050
gfz2010eaqe  -1.70840
gfz2010eaqx   0.87840
gfz2010eaqy  -0.34250
gfz2010earq   0.65290
gfz2010earu  -1.49430
gfz2010easf   0.28600
gfz2010eask   0.87180
gfz2010easo  -1.12040
gfz2010easu   0.15450
gfz2010eati  -0.28550
gfz2010eato  -0.82150
gfz2010eatt  -2.67010
gfz2010eaty  -0.58910
gfz2010eaul  -1.62660
gfz2010eavd  -0.52810
gfz2010eavs  -0.13850
gfz2010eawb  -1.63640
gfz2010eaxa  -0.06680
gfz2010eaxn   0.06630
gfz2010eayp   0.67480
gfz2010eazu   0.46370
gfz2010ebbd   0.42290
gfz2010ebbx   2.03900
gfz2010ebby   0.47800
gfz2010ebdl  -1.21260
gfz2010ebek  -0.81600
gfz2010ebfa  -1.31990
gfz2010ebfx   0.25630
gfz2010ebgj   1.73590
gfz2010ebhc  -0.48950
gfz2010ebih   0.63730
gfz2010ebin  -0.02020
gfz2010ebiv  -0.23900
gfz2010ebjy  -0.07160
gfz2010ebkj  -0.40930
gfz2010ebkx   0.33580
gfz2010ebla  -0.52620
gfz2010ebmb   0.19420
gfz2010ebnn   0.06180
gfz2010ebrm   0.55360
gfz2010ebsv  -2.15260
gfz2010ebtk  -0.32190
gfz2010ebvm   1.31770
gfz2010ebvv  -0.18030
gfz2010ebwp   0.23280
gfz2010ebxl   1.11700
gfz2010ebzk   0.57630
gfz2010ebzr   0.89100
gfz2010ecam  -0.30360
gfz2010ecay  -0.23670
gfz2010ecbi   0.73910
gfz2010ecfx   0.56150
gfz2010ecgh  -0.53530
gfz2010echc   0.16870
gfz2010ecsp  -0.33160
gfz2010ecua  -0.58060
gfz2010ecvt  -0.12160
gfz2010edat   1.23260
gfz2010eujm   0.64570
gfz2010evjv  -1.90210
gfz2010evkd   0.29920
gfz2010exdd  -0.55420
gfz2010exdl   0.13170
gfz2010exed  -0.48100
gfz2010exel   2.02700
gfz2010exgb  -0.92280
gfz2010exhd  -0.70030
gfz2010exhw  -0.41800
gfz2010exno   0.07010
gfz2010ezck  -0.28800
gfz2010ezwz  -0.01490
gfz2010ezxd  -0.04500
gfz2010faeu  -0.32890
gfz2010falm   0.35300
gfz2010fauz  -0.04480
gfz2010fcax   0.37830
gfz2010fedq   1.29890
gfz2010ffhq   1.01160
gfz2010fupn   0.29010
gfz2010fuuy  -0.46840
gfz2010fwkk  -0.24330
gfz2010fwpv   0.98710
gfz2010fync  -0.32130
gfz2010fzoi  -0.23990
gfz2010gcrl   0.33050
gfz2010gcrp   0.18320
gfz2010gdld  -0.05210
gfz2010gjia  -0.43920
gfz2010glxl  -0.31570
gfz2010grjd  -0.26690
gfz2010gymo   0.67580
gfz2010gyqp  -0.97570
gfz2010gzxr   0.34710
gfz2010hakh  -1.03070
gfz2010hcio  -0.10160
gfz2010hlco  -0.46750
gfz2010hllj  -0.46510
gfz2010hlln   0.30860
gfz2010hlmq  -0.59830
gfz2010hnnf  -1.13830
gfz2010hxgv  -0.09120
gfz2010iibf   0.33360
gfz2010imfv   1.02750
gfz2010iobp   0.14240
gfz2010iphd   0.28620
gfz2010iqfm  -0.26060
gfz2010iqnm   0.67910
gfz2010irvf  -0.23150
gfz2010isrp   0.01770
gfz2010itpb   0.04310
gfz2010jant  -0.92440
gfz2010jatq   0.71680
gfz2010jhie   1.24290
gfz2010jipf   0.45580
gfz2010jpyj  -0.38040
gfz2010jqxx   0.43750
gfz2010jssh  -0.44620
gfz2010jtal   0.15300
gfz2010jucj   0.47370
gfz2010jxbm  -0.34050
gfz2010kdyc   0.02630
gfz2010liqs   0.22790
gfz2010lkcf  -0.11530
gfz2010lruw   0.17180
gfz2010mdpq   0.55620
gfz2010mgss   0.33720
gfz2010miqn  -0.21860
gfz2010mkuu   0.85430
gfz2010moyw  -0.27020
gfz2010mpuy  -0.47250
gfz2010mwdq   0.88320
gfz2010ncrl  -0.32680
gfz2010nfsj  -0.22030
gfz2010nqwo   0.18250
gfz2010nsck  -1.00990
gfz2010nubk   0.62880
gfz2010nwef   0.00350
gfz2010nxsy  -0.33260
gfz2010nxum  -0.04190
gfz2010ocxq  -0.25900
gfz2010okdm   0.67280
gfz2010onma  -0.04520
gfz2010osjs  -0.51260
gfz2010oyqy  -0.11680
gfz2010pcxi   0.49470
gfz2010pewa  -0.40950
gfz2010pewx  -0.53100
gfz2010pexf   0.28870
gfz2010phvg  -0.82070
gfz2010plbg   0.61940
gfz2010pmqd   0.20000
gfz2010qitd   0.30830
gfz2010qjst   0.56000
gfz2010qpcq   0.60120
gfz2010qpum   0.02530
gfz2010rkfp   0.46820
gfz2010rlbv   3.46760
gfz2010rqwj  -1.79820
gfz2010rxjw  -1.63590
gfz2010sfee  -0.21500
gfz2010sfla   0.02560
gfz2010skqo   0.22750
gfz2010srdb  -0.05750
gfz2010svtn   0.26730
gfz2010swcy   0.21370
gfz2010sxwt   6.69060
gfz2010szde   0.77550
gfz2010tcbr   0.29010
gfz2010tcrl  -1.73330
gfz2010tlfm   1.04970
gfz2010truw  -0.22980
gfz2010upfb  -0.59350
gfz2010upiw  -0.88390
gfz2010usho   0.47710
gfz2010ustq   0.20400
gfz2010utcg   0.09150
gfz2010utmc   0.28260
gfz2010uyhb  -0.63050
gfz2010veri  -0.50560
gfz2011csju   0.02490
gfz2011cvfg  -1.27010
gfz2011cykd   0.35890
gfz2011cynl  -0.21470
gfz2011cyuk   0.57860
gfz2011dbev   0.86770
gfz2011dbig  -0.29050
gfz2011dbon   0.30590
gfz2011dcqb  -1.61430
gfz2011dcqf  -0.14020
gfz2011dpqx   0.59980
gfz2011ecaj  -0.17760
gfz2011fgvr   0.44660
gfz2011flgj  -4.73920
gfz2011fnsw   0.35980
gfz2011gbmx  -0.02440
gfz2011gcwb   1.71380
gfz2011gkzt  -1.47650
gfz2011hbex   0.00000
gfz2011hfkj   0.58490
gfz2011hlqw   0.47130
gfz2011hlsa   0.25570
gfz2011hlth   1.15900
gfz2011hpgx   0.22750
gfz2011hpqp   0.22880
gfz2011iwte  -0.11600
gfz2011jghb   1.70780
gfz2011jplh   0.42930
gfz2011jtlg  -0.66310
gfz2011jxpl  -4.93790
gfz2011knoo  -0.56590
gfz2011kqwo  -0.23380
gfz2011kqyg   0.79540
gfz2011kwjx   1.99800
gfz2011kwkw   0.19470
gfz2011kwqc   0.71410
gfz2011kxzp  -0.15680
gfz2011lcxq   0.21350
gfz2011lzwj   0.72910
gfz2011mdie   0.26340
gfz2011mllx  -0.38170
gfz2011mpme   0.33330
gfz2011mprq   0.19490
gfz2011nmnq  -0.22900
gfz2011noud   0.16640
gfz2011ntkh   0.62530
gfz2011orgn   0.11450
gfz2011ornx  -0.15040
gfz2011owvz   0.18660
gfz2011ozsl  -0.07370
gfz2011pccd   0.42350
gfz2011wcic  -0.22190
gfz2011wxfs   0.54270
gfz2011wxtk  -0.54240
gfz2011xcpv   0.40960
gfz2011xyxj   0.37850
gfz2012cqnl   0.74910
gfz2012cxdn   0.30760
gfz2012fbfo  -0.89620
gfz2012fzfa  -0.25160
gfz2012hnul  -1.03560
gfz2012hnuw   1.62110
gfz2012ilvn   0.02660
gfz2012intn  -0.70990
gfz2012jlox  -0.22500
gfz2012jshk   1.78150
gfz2012jupx  -0.03540
gfz2012keor   2.90400
gfz2012kkup   0.15350
gfz2012klba  -0.25250
gfz2012kuct   0.24740
gfz2012kudo   0.67110
gfz2012kwgo  -0.52130
gfz2012lczo  -0.13980
gfz2012ldzj   0.47740
gfz2012lxkv   0.16830
gfz2012minr  -0.08190
gfz2012mpvy   0.22980
gfz2012mupa  -0.32870
gfz2012mwij   0.16640
gfz2012naqz  -0.67380
gfz2012nedn   0.83860
gfz2012ngic   0.00000
gfz2012ntzv   1.88630
gfz2012nxog  -0.20240
gfz2012oazn  -1.13060
gfz2012obgw   0.22140
gfz2012omvo  -0.54850
gfz2012pciw  -0.13710
gfz2012pgcl  -0.28880
gfz2012pkel   0.82160
gfz2012quso  -1.79170
gfz2012royy  -0.44750
gfz2012rwko   0.44570
gfz2012rwov   0.00280
gfz2012syvl   0.29350
gfz2012thfx  -0.33980
gfz2012ttoa   0.29390
gfz2012tvmv   0.21810
gfz2012tzcc   0.29190
gfz2012uafg  -0.02340
gfz2012uciv  -0.03650
gfz2012uqzp  -0.18620
gfz2012uvqf   0.22040
gfz2012uyxb   0.59230
gfz2012uzom   0.75650
gfz2012vceo  -0.48520
gfz2012vsev   0.21850
gfz2012whku   0.22290
gfz2012wklq  -1.15260
gfz2012wvfl   0.54100
gfz2012wxlg  -0.69330
gfz2012wypz   1.05000
gfz2012xbjq  -0.16440
gfz2012xslk  -0.88130
gfz2012zitl  -0.14310
gfz2013apmm  -0.35100
gfz2013bnxc   0.44590
gfz2013bokp   0.53740
gfz2013ccnr   0.19430
gfz2013cdan   0.02880
gfz2013cvqg   0.41740
gfz2013dofo  -0.12660
gfz2013drxz   0.07660
gfz2013egni  -0.02510
gfz2013egpu   3.81080
gfz2013figy  -0.65470
gfz2013fiud   0.01290
gfz2013fkii   0.05630
gfz2013fwxa   0.79800
gfz2013fygc  -0.10030
gfz2013gdgf   0.88110
gfz2013gdnq   0.27130
gfz2013hbkh  -2.18430
gfz2013hfmp  -0.02560
gfz2013ijsr   0.41710
gfz2013ippu   0.26080
gfz2013iunn   0.85240
gfz2013jesk  -0.24950
gfz2013jgij   0.66130
gfz2013jgip  -0.19810
gfz2013jusj   1.82260
gfz2013kccc   2.83180
gfz2013kdeo   0.73420
gfz2013kheb  -0.27030
gfz2013ldpc  -0.11760
gfz2013ldqb  -0.15630
gfz2013lixa   0.40220
gfz2013lyko   0.22080
gfz2013mwbh  -0.21760
gfz2013ncjp  -0.17730
gfz2013nixj   0.39220
gfz2013nkgj   0.80720
gfz2013nmac  -0.41400
gfz2013nqgw  -0.82810
gfz2013pcos   0.02970
gfz2013pfbx  -0.10650
gfz2013pfeb   0.69760
gfz2013puag   0.03550
gfz2013pxsj   0.19640
gfz2013qmer   0.17990
gfz2013qnxc  -0.04060
gfz2013sfds   0.08190
gfz2013sfto  -0.02090
gfz2013suvn   1.03620
gfz2013svci   0.77900
gfz2013tcxc   0.02040
gfz2013tcxq   0.35380
gfz2013tdau   0.31900
gfz2013tlaf   0.27450
gfz2013tusd   0.64090
gfz2013tvmw  -0.24190
gfz2013twwf   0.68510
gfz2013txtb   0.14580
gfz2013tyas   1.66540
gfz2013uqsp   0.34450
gfz2013uuzn   0.20040
gfz2013vfyw   0.13070
gfz2013vfzp   1.18920
gfz2013vgev  -0.29150
gfz2013viul   0.56230
gfz2013vjjc  -1.43650
gfz2013vvrq   0.35830
gfz2013vzbo   0.71040
gfz2013wjmm  -0.01280
gfz2013wtzl   0.27120
gfz2013xsdt   0.42870
gfz2013xxxq   0.00000
gfz2013yctg  -0.02940
gfz2013yqkv   0.13410
gfz2014adoj   0.73810
gfz2014afmx  -0.29880
gfz2014bagd  -0.27560
gfz2014czqi   0.68220
gfz2014disp  -1.11650
gfz2014ekcr  -1.50210
gfz2014enhi  -1.88610
gfz2014fgvi   0.01680
gfz2014fgza   0.89180
gfz2014fhla  -0.70610
gfz2014fnyg  -5.18940
gfz2014ftka  -0.92550
gfz2014gbcz   0.60650
gfz2014gbdq  -2.45050
gfz2014ghpe   0.84820
gfz2014gkgf  -1.42880
gfz2014gkqf  -0.16150
gfz2014gmge   0.06680
gfz2014gmhr  -1.34080
gfz2014gmnb   0.78720
gfz2014goba   1.30680
gfz2014gpya   0.43170
gfz2014gqve  -0.16190
gfz2014gsqs   0.07500
gfz2014gull   0.37180
gfz2014gwab   0.36460
gfz2014gxxo  -0.05180
gfz2014hasj  -0.17300
gfz2014hauo   0.65780
gfz2014hcmj   0.35120
gfz2014hgqo  -0.22840
gfz2014hjgr   0.09060
gfz2014hmrs  -0.00000
gfz2014hnfm  -1.01250
gfz2014hocg   0.52670
gfz2014hyal  -0.10330
gfz2014hzfw   0.39250
gfz2014iava  -0.11010
gfz2014ikun   0.19340
gfz2014ilwu   0.34240
gfz2014isys   0.19140
gfz2014jjhc   0.20330
gfz2014jlwb   0.16530
gfz2014jnyv   0.08510
gfz2014jpep   0.25160
gfz2014jwmh  -0.45410
gfz2014khlk   0.61890
gfz2014kjjq  -3.92170
gfz2014knxs   0.14520
gfz2014krlg   1.01690
gfz2014kyan   0.43520
gfz2014kzzm  -0.00000
gfz2014ldhu  -0.28740
gfz2014lefs  -0.84470
gfz2014lkyf  -0.03060
gfz2014lnmw   0.49640
gfz2014lpim   0.19820
gfz2014lyhk   0.37890
gfz2014lynp  -1.02170
gfz2014lzow  -0.03310
gfz2014nkdx   0.28520
gfz2014nowp  -0.93820
gfz2014npeo   0.13360
gfz2014nphm   0.31750
gfz2014nqbs   0.99590
gfz2014nqfm   0.42800
gfz2014nylm   0.04470
gfz2014oinz   0.25980
gfz2014oxcc   0.46110
gfz2014pjer   0.05590
gfz2014pkll   0.57610
gfz2014ppzf   0.02370
gfz2014pqqp   1.70830
gfz2014pqrc  -0.43140
gfz2014pvch  -0.46380
gfz2014qlxd   0.85900
gfz2014qngj  -0.56640
gfz2014raau  -0.06050
gfz2014riel   0.12170
gfz2014rkwl   0.03450
gfz2014sptq  -0.22330
gfz2014sryn  -0.10980
gfz2014ssmv  -0.23620
gfz2014ssvz  -0.65200
gfz2014tqdo  -0.03220
gfz2014uvrk  -0.17810
gfz2014watn   0.33050
gfz2015abpw   0.03280
gfz2015aruz  -0.15850
gfz2015berb   0.71680
gfz2015chhn   0.24360
gfz2015cxxk  -0.04160
gfz2015cyjd   0.22120
gfz2015dvbn   0.24050
gfz2015egxq   0.36660
gfz2015fcua  -0.67610
gfz2015fkgt  -0.49030
gfz2015fsjj   0.55180
gfz2015fxdi   0.55890
gfz2015gckd   1.60410
gfz2015gjbr  -0.26360
gfz2015guhd   0.31070
gfz2015hepg   0.61670
gfz2015hgbk   0.74860
gfz2015idho  -2.45030
gfz2015ixyy   0.08860
gfz2015jkdw   0.24770
gfz2015jpap  -2.74090
gfz2015jwgl   0.31920
gfz2015jxbx   0.42430
gfz2015jzcv  -0.15050
gfz2015kkth   0.29690
gfz2015ksni   0.49470
gfz2015lcma  -0.02080
gfz2015lfud   0.08950
gfz2015lhjq   0.77160
gfz2015lhjy   0.41580
gfz2015lytv  -1.01310
gfz2015nerz   1.51630
gfz2015ntpk  -0.18540
gfz2015nuxz   0.12710
gfz2015nwug   0.26340
gfz2015ocdz   0.44390
gfz2015okmq  -0.75640
gfz2015orkl   0.21260
gfz2015oyfl   0.51840
gfz2015poni   0.17910
gfz2015puqp  -0.97260
gfz2015qnho   0.03460
gfz2015qnto   0.02100
gfz2015rkrg   0.68380
gfz2015rpzn   0.39900
gfz2015rxmg   0.64720
gfz2015sfdd   0.30940
gfz2015sfdl  -0.40220
gfz2015sfdv   0.34190
gfz2015sfdy  -0.57820
gfz2015sfeo   0.09170
gfz2015sffn  -0.12170
gfz2015sfga   0.00000
gfz2015sfhz  -2.15500
gfz2015sfiq  -0.98180
gfz2015sfjf   2.34100
gfz2015sfkh  -0.12830
gfz2015sfko   0.31290
gfz2015sfkz   0.03000
gfz2015sflf  -0.22480
gfz2015sfln   1.56940
gfz2015sfmd   2.07870
gfz2015sfno  -0.42210
gfz2015sfnv   0.16680
gfz2015sfoc   0.04390
gfz2015sfoh   0.02090
gfz2015sfpj  -0.23510
gfz2015sfps   0.54310
gfz2015sfqo   0.20120
gfz2015sfqr   0.11640
gfz2015sfte   0.17280
gfz2015sftu  -0.51320
gfz2015sfwf   0.51400
gfz2015sfxn  -0.15560
gfz2015sfzm   0.30840
gfz2015sgad  -0.55690
gfz2015sgmr   0.11800
gfz2015sgyd   0.40200
gfz2015shaq  -0.02280
gfz2015shel   0.50410
gfz2015shhg  -0.14860
gfz2015shhu  -0.06980
gfz2015shjn  -0.08250
gfz2015shrg  -0.15520
gfz2015shsz   1.34100
gfz2015sicf  -0.01420
gfz2015siky   0.11790
gfz2015sist  -0.69400
gfz2015sitn   0.06480
gfz2015siyy   0.22180
gfz2015sjbx   0.00880
gfz2015sjgk  -0.33770
gfz2015sjjb   0.52750
gfz2015sjne   0.61200
gfz2015sjoj  -0.06850
gfz2015sjpn  -0.32500
gfz2015sjvu  -0.09470
gfz2015sjwi  -0.42750
gfz2015skxu  -0.20840
gfz2015sldx   0.27730
gfz2015sljs  -0.08380
gfz2015slun  -0.01470
gfz2015smym  -0.65590
gfz2015snmr  -0.77460
gfz2015snsf   0.12940
gfz2015snwh  -0.95120
gfz2015snyd   0.04580
gfz2015soat   0.23300
gfz2015soxc  -0.03200
gfz2015susq   0.24700
gfz2015svjy   0.12710
gfz2015svwm   0.16330
gfz2015sxmh  -0.85460
gfz2015sxxu  -0.18630
gfz2015szcb  -0.80830
gfz2015szfe  -0.27620
gfz2015szfq  -0.04620
gfz2015sztx   1.07080
gfz2015taml   0.39130
gfz2015tbdn   0.26870
gfz2015tdcu  -0.54400
gfz2015teje   0.14740
