# Nsamples: 449  MAD:  0.508  mean:  0.061  variance:  0.547
gfz2010aerk  -0.78280
gfz2010ahqi   0.29790
gfz2010bifb  -0.45590
gfz2010bjeb  -0.10040
gfz2010bjsl  -1.02810
gfz2010bowy  -0.17720
gfz2010boxo   0.31010
gfz2010bxxs  -0.25590
gfz2010caft  -0.21810
gfz2010cind   0.12110
gfz2010dlgc   0.39670
gfz2010ehsy  -0.27520
gfz2010eiqi   0.56000
gfz2010eisx  -1.26280
gfz2010eixj   0.07300
gfz2010ejae   0.19030
gfz2010ejjg   0.14870
gfz2010eryg   1.22160
gfz2010ezck   0.12780
gfz2010ezjk   0.11000
gfz2010fcax   0.05950
gfz2010fcnt   2.27350
gfz2010fedq   1.07820
gfz2010ffhq   0.14550
gfz2010ffjb  -0.29190
gfz2010figq   0.12070
gfz2010fika  -0.30080
gfz2010fkhd   0.35800
gfz2010fknh   0.05200
gfz2010fmpy   0.57780
gfz2010fpqy   0.18350
gfz2010gcrl   0.42370
gfz2010gcrp  -0.27970
gfz2010glqr   0.51200
gfz2010grjd  -0.23460
gfz2010gzxr   0.20320
gfz2010hbka   0.14860
gfz2010hcio   0.54400
gfz2010hevz   0.76810
gfz2010hlco   0.28720
gfz2010hlmq   0.02360
gfz2010hmhm   0.28630
gfz2010hnnf  -0.50640
gfz2010hptz   0.44190
gfz2010hxgv  -0.08270
gfz2010iobp   0.33890
gfz2010iqnm   0.26710
gfz2010ited   0.21750
gfz2010iull   0.10880
gfz2010izzj   0.15390
gfz2010jatq   0.76910
gfz2010jxbm   0.72150
gfz2010kdyc  -0.27400
gfz2010kihf  -0.16690
gfz2010lluj   1.74440
gfz2010lopz  -3.37900
gfz2010mgss   0.31280
gfz2010mkuu   1.92140
gfz2010mlta   0.08340
gfz2010mncc   0.16670
gfz2010moyw   0.00000
gfz2010ncrl  -0.91820
gfz2010nfsj  -0.41090
gfz2010nqwf   0.15410
gfz2010nqwo   0.88070
gfz2010nsck   1.03460
gfz2010nwef   0.21540
gfz2010nxsy   0.51430
gfz2010nxum  -0.92850
gfz2010ocxq  -0.06430
gfz2010onma   0.36370
gfz2010pcxi  -0.40560
gfz2010pewa   0.26330
gfz2010pewx  -0.83120
gfz2010pexf  -0.04670
gfz2010pmqd  -0.51330
gfz2010pxgh   1.72520
gfz2010qjst  -0.33900
gfz2010rlbv  -0.05430
gfz2010rqwj  -1.06520
gfz2010rxjw   1.21790
gfz2010rywq  -0.05480
gfz2010sfee   0.22740
gfz2010sfla   0.17450
gfz2010skqo   0.29160
gfz2010skve  -0.13170
gfz2010srdb   0.08980
gfz2010svtn  -0.32460
gfz2010swcy   0.19540
gfz2010sxwt   0.77550
gfz2010tcrl  -0.42850
gfz2010tlfm   0.17350
gfz2010upfb   0.42770
gfz2010usho   0.15840
gfz2010ustq  -0.12770
gfz2010utcg  -0.10680
gfz2010utmc   0.17220
gfz2010vhuj   0.09810
gfz2010vzpr  -0.40050
gfz2010wioh  -0.32500
gfz2010wrxx   0.66620
gfz2010wxqa  -0.05040
gfz2010xgzw  -0.27980
gfz2010xjck  -0.85680
gfz2010xjsj  -1.00540
gfz2010xxzn  -3.96520
gfz2010yjev  -0.04920
gfz2010yqwx   0.48530
gfz2011aatr   0.81420
gfz2011adjs  -0.79390
gfz2011ahfw   1.98210
gfz2011alip  -0.22980
gfz2011alsa   0.65950
gfz2011aqxf  -0.50780
gfz2011asru   1.00960
gfz2011bhha  -0.35140
gfz2011blsi  -0.24830
gfz2011ccpw   0.16100
gfz2011cfae  -0.16760
gfz2011csju  -0.22280
gfz2011cvcg  -0.00000
gfz2011cvfg  -1.03020
gfz2011cwgn   0.38810
gfz2011cykd  -0.00000
gfz2011cylz   0.43240
gfz2011cynl   0.13040
gfz2011cyre   0.84190
gfz2011cyuk  -0.28610
gfz2011dbev   0.06890
gfz2011dbig   0.34590
gfz2011dbon  -0.17040
gfz2011dbwt  -0.01960
gfz2011dcqb  -0.10220
gfz2011dkyi   0.91040
gfz2011dlyx  -0.60420
gfz2011dpqx   0.70630
gfz2011duyr   0.08100
gfz2011eayc   0.09960
gfz2011ecaj   0.34960
gfz2011enva   0.38870
gfz2011etje   0.14130
gfz2011fgvr   0.07310
gfz2011fhag   0.05100
gfz2011fhur   0.22660
gfz2011fkbn  -0.65750
gfz2011flgj   4.60680
gfz2011gcwb  -0.17160
gfz2011gdgh  -0.50850
gfz2011haid  -0.13930
gfz2011hbex   2.14650
gfz2011hebt  -0.75730
gfz2011hlqw  -0.29390
gfz2011hlsa  -0.09800
gfz2011hlth   0.12460
gfz2011hpgx   0.24940
gfz2011hpqp   0.23080
gfz2011hvbu   0.13500
gfz2011ieie   2.16240
gfz2011iwte  -1.00340
gfz2011izqa  -0.07330
gfz2011jtlg   0.19860
gfz2011kqwo  -0.32430
gfz2011kqyg  -0.47370
gfz2011kxzp   0.42450
gfz2011lcxq   1.54100
gfz2011mpme   0.84380
gfz2011nqpd  -0.50980
gfz2011ntkh   0.76220
gfz2011nudm  -0.05560
gfz2011ohcy   0.02130
gfz2011olkk   0.53660
gfz2011orgn  -0.89140
gfz2011ornx  -0.00000
gfz2011owvz   0.99310
gfz2011pccd   0.45910
gfz2011qvae  -0.45640
gfz2011qyms   0.36270
gfz2011rgwp  -0.73890
gfz2011rqui  -0.46170
gfz2011sagt  -1.45590
gfz2011shqm   0.81310
gfz2011tbas   0.30050
gfz2011tcij  -0.98100
gfz2011tkog   0.46710
gfz2011tpfr  -0.09390
gfz2011tsfd  -0.46750
gfz2011ugzz   0.28240
gfz2011ujze   0.13540
gfz2011ukmp   0.18300
gfz2011uphh   0.11680
gfz2011vhfi   0.66160
gfz2011vnza  -0.49030
gfz2011vrhg  -0.09680
gfz2011vxns  -0.51880
gfz2011vxxg  -0.13180
gfz2011wcic  -0.25150
gfz2011wjul   0.51550
gfz2011wwjs   0.40830
gfz2011wxfs  -0.62840
gfz2011wxtk  -0.83440
gfz2011xyxj   0.68000
gfz2011yhwz   0.13530
gfz2011zklv  -0.48450
gfz2011zqhh  -0.69930
gfz2012aqgp   0.05890
gfz2012bfah  -0.00920
gfz2012bfyn   0.03250
gfz2012bpkx   0.33390
gfz2012bszs  -0.03280
gfz2012byad   0.33660
gfz2012cxdn   0.17220
gfz2012deri  -0.12910
gfz2012dimn   0.71800
gfz2012ekda  -0.28150
gfz2012emjg   1.08320
gfz2012enno   0.97310
gfz2012ezvr   0.17220
gfz2012fbfo   0.01440
gfz2012fqcg  -1.37150
gfz2012fwfo   1.67600
gfz2012fzfa   0.30090
gfz2012gill  -0.03530
gfz2012glss  -0.99550
gfz2012gocc   0.03540
gfz2012hnul   0.06060
gfz2012hzbe  -0.51700
gfz2012ihdl   0.17230
gfz2012ilvn  -0.49370
gfz2012jgvj  -0.58740
gfz2012jjzc  -0.22430
gfz2012jlox   0.63460
gfz2012jshk  -0.79880
gfz2012jted   0.10290
gfz2012jupx   0.96750
gfz2012keor  -0.27270
gfz2012kkup  -0.10580
gfz2012klhx   0.22660
gfz2012kuct   0.28990
gfz2012kudo   0.18480
gfz2012lczo   0.12050
gfz2012ldxg   1.99530
gfz2012ldzj  -0.63140
gfz2012lpvn  -0.08300
gfz2012lxkv  -2.21830
gfz2012minr   0.02060
gfz2012mwij   0.83770
gfz2012naqz   0.05780
gfz2012nedn  -1.40730
gfz2012oazn   0.44300
gfz2012omvo   0.47510
gfz2012pkel  -0.42190
gfz2012quso   0.05610
gfz2012rats  -0.24590
gfz2012repv  -0.22320
gfz2012rqlg   0.80620
gfz2012rwov   0.47470
gfz2012sphd  -0.03680
gfz2012syvl   0.44640
gfz2012teic   1.04860
gfz2012tmop  -0.54350
gfz2012ttoa   0.20360
gfz2012tvmv   0.06980
gfz2012uafg   0.88080
gfz2012uaqj   0.12690
gfz2012uhup   1.21620
gfz2012ulpd   0.08150
gfz2012uqzp  -0.38600
gfz2012wizz  -0.22500
gfz2012wklq  -0.99410
gfz2012wmkd   0.26600
gfz2012wxlg  -0.61030
gfz2012wxnu  -1.25310
gfz2012wypz   0.54730
gfz2012xbjq   1.96660
gfz2012xjyv  -0.17010
gfz2012yxxu  -0.12830
gfz2012zfag   0.57430
gfz2012zitl  -0.10270
gfz2012zjpv   0.21260
gfz2013aayj   0.37610
gfz2013acag  -1.28660
gfz2013bdpu   0.13070
gfz2013bokp   0.22280
gfz2013ccnr   0.36860
gfz2013cfyy   0.03490
gfz2013ciaf  -0.11070
gfz2013cwpn   0.16660
gfz2013cwps   0.10490
gfz2013dnnx  -0.10550
gfz2013dofo   0.33460
gfz2013drxz   0.08360
gfz2013dvyh  -0.91980
gfz2013egpu   0.82060
gfz2013ekpm   0.07100
gfz2013fkii  -0.03700
gfz2013gdnq   0.13850
gfz2013hisv   0.73060
gfz2013hkja  -0.49020
gfz2013ippu   1.01810
gfz2013iunn   0.17620
gfz2013jesk  -0.70770
gfz2013jgip  -0.54760
gfz2013jusj  -1.42670
gfz2013kheb  -0.20870
gfz2013mqmv  -0.29610
gfz2013mwbh  -0.19320
gfz2013ncjp  -0.37490
gfz2013nqgw  -0.27580
gfz2013pxsj  -0.09750
gfz2013qali   0.87760
gfz2013qfmm  -0.68430
gfz2013qmer   0.25820
gfz2013svci  -0.62530
gfz2013tcxc  -0.12280
gfz2013tcxq   0.57870
gfz2013vfyw  -0.32900
gfz2013vfzp  -0.00000
gfz2013viul   0.62250
gfz2013vjjc  -0.91380
gfz2013wjmm   0.46210
gfz2013wtzl   0.33260
gfz2013xizq  -1.01110
gfz2013xmul   0.57280
gfz2013xsdt  -0.33980
gfz2013xvqd   0.71510
gfz2013xxxq  -1.40970
gfz2013yctg  -0.21470
gfz2013yyhc   0.26740
gfz2014afmx   0.25400
gfz2014algk   1.30860
gfz2014ande   0.05820
gfz2014cvkm  -1.64590
gfz2014dhxt   0.47420
gfz2014enhi  -1.46520
gfz2014etqa  -0.62540
gfz2014gmhr  -1.00200
gfz2014jpep   1.59130
gfz2014jwmh  -0.31740
gfz2014khlk   0.42160
gfz2014knks   0.83560
gfz2014knxs   0.20380
gfz2014kyan   0.24610
gfz2014lddn   0.70740
gfz2014lwom  -0.48130
gfz2014mhgg  -0.22130
gfz2014mtum   0.22700
gfz2014mwor  -0.02350
gfz2014oryw   0.08520
gfz2014oxcc   0.54400
gfz2014oyly  -0.24860
gfz2014pkll   0.54890
gfz2014ppzf  -0.09740
gfz2014pvch   1.01670
gfz2014qlxd   1.24930
gfz2014qngj  -1.42330
gfz2014ubwn   0.47500
gfz2014vcev   0.53760
gfz2014vhld  -2.02380
gfz2014vjoz   0.13310
gfz2014watn   0.37340
gfz2014wqcp   0.59680
gfz2014zlgp  -0.09980
gfz2015aruz   0.24080
gfz2015bavu   0.72020
gfz2015berb   0.13690
gfz2015bfjm  -0.02450
gfz2015bsnl  -0.16000
gfz2015bzej  -1.85960
gfz2015chhn   0.51800
gfz2015cpuo   0.46630
gfz2015dskr   0.21500
gfz2015dvbn   0.18250
gfz2015etai   0.78780
gfz2015fsjj  -0.49300
gfz2015fxbv   0.18610
gfz2015fxdi   0.04560
gfz2015jmlu  -0.19510
gfz2015jxjd   0.23260
gfz2015kkqb   0.36410
gfz2015kkth  -0.36840
gfz2015nwug   0.02170
gfz2015ocdz   0.52700
gfz2015plal  -2.75620
gfz2015sfdd   0.77910
gfz2015sfdh  -0.43820
gfz2015sfdv   0.41090
gfz2015sfdy  -0.05600
gfz2015sfeo   0.54430
gfz2015sffn   0.04960
gfz2015sfga  -0.28300
gfz2015sfhz  -0.84820
gfz2015sfiq  -0.67120
gfz2015sfkz  -0.24070
gfz2015sfmd   1.16620
gfz2015sfnb  -0.20900
gfz2015sfnv  -0.36730
gfz2015sfoc  -0.08950
gfz2015sfoq   0.95770
gfz2015sfpj  -1.20340
gfz2015sfqo  -0.73720
gfz2015sfqr  -0.56530
gfz2015sfrc  -0.72430
gfz2015sftu  -0.13220
gfz2015sfzm   1.46830
gfz2015sgmm  -0.49460
gfz2015sgyd   0.37640
gfz2015shaq   0.32930
gfz2015shel   0.10050
gfz2015shhg   0.54590
gfz2015shhu  -0.31550
gfz2015shjn   0.60300
gfz2015shrg   0.02580
gfz2015shsz   0.74150
gfz2015siky   1.95740
gfz2015siyy   0.04230
gfz2015sjbx  -2.00080
gfz2015sjfi   0.84330
gfz2015sjgk   0.94900
gfz2015sjjb   0.15880
gfz2015sjne   0.08580
gfz2015sjoj   0.33650
gfz2015sjvu   0.08940
gfz2015sjwi   0.49110
gfz2015skab   0.87490
gfz2015skgj   0.23520
gfz2015skia   0.01980
gfz2015skpv   0.02030
gfz2015skxu  -0.30440
gfz2015sldx   0.93110
gfz2015sljs   0.39580
gfz2015slun  -0.10050
gfz2015smym  -0.05780
gfz2015snmr   1.46860
gfz2015snsf   0.19540
gfz2015snwh  -0.59880
gfz2015snyd   0.58960
gfz2015soat  -0.95140
gfz2015soxc   0.34350
gfz2015sqbg  -0.33430
gfz2015srat   0.45650
gfz2015stfy  -0.41320
gfz2015subg   0.09730
gfz2015svwm   0.81430
gfz2015sxmh   0.32130
gfz2015szcb  -0.09330
gfz2015szfe  -0.44760
gfz2015taml  -0.53090
gfz2015tbdn   0.38710
gfz2015tchx   0.39480
