# Nsamples: 104  MAD:  0.815  mean: -0.184  variance:  1.740
gfz2010ahqi   0.06450
gfz2010bxxs  -1.94680
gfz2010czps  -0.12960
gfz2010diqn  -1.93260
gfz2010ekyc  -0.10500
gfz2010erom  -5.76190
gfz2010ewvc   0.46120
gfz2010excp   0.19350
gfz2010exed  -0.22110
gfz2010exel  -4.80370
gfz2010exhw   0.03730
gfz2010exno  -1.57560
gfz2010falm  -1.45870
gfz2010fcax   3.48190
gfz2010fedq  -0.87350
gfz2010ffhq   0.96440
gfz2010fika  -3.04650
gfz2010fync   0.19930
gfz2010gcrl   0.96170
gfz2010moyw   0.34210
gfz2010nmpc  -0.36850
gfz2010nqwo  -0.69470
gfz2010rqwj  -0.34610
gfz2010upfb  -0.57160
gfz2011aatr   0.02220
gfz2011adjs   0.24700
gfz2011cykd   1.13380
gfz2011cynl   0.79760
gfz2011cyre   0.03580
gfz2011cyuk  -1.01970
gfz2011dpqx  -0.01450
gfz2011enva  -0.68140
gfz2011etje   0.27630
gfz2011gkzt   0.11740
gfz2011hlsa   2.12560
gfz2011lcxq   1.02460
gfz2011lzwj   0.11510
gfz2011rewa   0.12420
gfz2011toub   0.20210
gfz2011uphh   0.76760
gfz2011vrhg  -1.76440
gfz2011wxfs   0.93500
gfz2011wxtk  -0.98880
gfz2012bpkx  -0.22590
gfz2012byad   0.73340
gfz2012cxdn  -2.62250
gfz2012dyyh   1.38060
gfz2012ekda   0.43120
gfz2012enno  -0.01500
gfz2012ldxg   0.39990
gfz2012tbbp  -1.81220
gfz2012uafg  -0.30100
gfz2012wklq  -0.01980
gfz2012wypz   0.42860
gfz2013axoj  -0.71940
gfz2013ccnr   0.33310
gfz2013gdnq   1.63170
gfz2013ilug   0.04490
gfz2013jkut  -1.89750
gfz2013jlst  -3.97400
gfz2013ldqb   0.35750
gfz2013lyko   0.48900
gfz2013nkgj  -0.02420
gfz2013nwdi  -0.31920
gfz2013svci   0.67470
gfz2013vjjc   1.36200
gfz2014algk   0.36200
gfz2014bwue   0.54740
gfz2014enhi   0.07160
gfz2014fgvi  -0.53100
gfz2014fhla   0.57700
gfz2014fjyo  -2.60370
gfz2014fnbh  -0.64290
gfz2014ftka  -1.40600
gfz2014ghpe   0.45600
gfz2014gkgf  -0.60490
gfz2014gmge   1.79950
gfz2014gmhr   0.19060
gfz2014gpgd   0.12040
gfz2014gtwz  -3.22560
gfz2014hasj   0.55510
gfz2014hocg  -0.89950
gfz2014ksdv  -0.86150
gfz2014rdsn   1.39560
gfz2014ssvz   0.59100
gfz2015berb   0.41940
gfz2015chhn  -0.04240
gfz2015cyjd   1.02100
gfz2015dizn   0.14570
gfz2015fkgt  -0.75770
gfz2015fsjj   0.49500
gfz2015fyvk   0.64600
gfz2015lytv  -1.26080
gfz2015mpte   0.02000
gfz2015sfdd  -0.93540
gfz2015sfdy   0.68190
gfz2015sfnb   0.62030
gfz2015sfno   1.06170
gfz2015sjvu   0.09530
gfz2015smym   0.14750
gfz2015snwh  -0.85090
gfz2015soxc  -0.23620
gfz2015svwm   0.21520
gfz2015taml   0.78900
