# Nsamples: 627  MAD:  0.603  mean:  0.069  variance:  0.724
gfz2013kilx   0.17300
gfz2013kqln  -0.26260
gfz2013krei  -0.03220
gfz2013kvtk  -0.58060
gfz2013kwag  -0.15800
gfz2013kweg   0.44700
gfz2013lajn  -0.33060
gfz2013lbiu   0.37180
gfz2013ldos   0.27050
gfz2013ldpc   2.17050
gfz2013ldqb  -0.57920
gfz2013lfyb   4.98600
gfz2013lgbb   0.60570
gfz2013lgnl  -1.01270
gfz2013lixa  -0.89980
gfz2013lljw  -0.13110
gfz2013lmdy  -0.20290
gfz2013lmqe  -0.46960
gfz2013lmrs   0.07030
gfz2013lsob  -0.23810
gfz2013lupg   0.07680
gfz2013lwao   0.35140
gfz2013lwbk   0.13490
gfz2013lxyn  -0.51040
gfz2013lyko  -0.08060
gfz2013lznu  -0.12800
gfz2013malg  -0.73410
gfz2013mded  -0.48840
gfz2013mmlw  -0.41040
gfz2013mmwq   0.13350
gfz2013mnei   0.37920
gfz2013mqmv   0.42420
gfz2013mtqd  -1.11950
gfz2013mvgr  -0.09150
gfz2013mwbh  -0.32040
gfz2013mxee  -0.27560
gfz2013mzwe   0.16530
gfz2013nabl   0.04680
gfz2013ncjp   0.05990
gfz2013ndin   0.62300
gfz2013neuc   0.39330
gfz2013nfwx  -0.31330
gfz2013ngnt  -0.81420
gfz2013nhjb  -0.05380
gfz2013nixj   0.31980
gfz2013njnd  -1.53610
gfz2013nkgj  -0.04190
gfz2013nknw   0.33960
gfz2013nppd   0.46140
gfz2013nqgw  -2.72300
gfz2013nskg  -0.36790
gfz2013nuvi  -0.32590
gfz2013nvdj  -2.08710
gfz2013nwdi   2.00740
gfz2013oejn  -0.54300
gfz2013ogde  -0.63960
gfz2013oqsc  -0.08710
gfz2013orjg   0.14260
gfz2013ornz   0.28880
gfz2013orzn  -0.35660
gfz2013ouvt   0.00000
gfz2013ozku   0.23370
gfz2013oznn  -0.17730
gfz2013ozrf   0.04810
gfz2013ozrp   0.69720
gfz2013pakq   2.24830
gfz2013pcos  -0.32780
gfz2013pfbx   0.53420
gfz2013pfeb  -1.81040
gfz2013pffm   0.11090
gfz2013pfnf   1.27120
gfz2013phmp  -0.07470
gfz2013pkbs   0.13640
gfz2013plhp  -0.48570
gfz2013poxj  -0.30990
gfz2013pqui   0.34700
gfz2013pupd   0.51280
gfz2013pxsj   0.26940
gfz2013pxya  -0.39680
gfz2013qidm   0.51320
gfz2013qmer  -0.42680
gfz2013qwbv   0.42190
gfz2013qzdq  -0.77980
gfz2013rdoo  -0.18450
gfz2013reav   0.10420
gfz2013reym  -0.44140
gfz2013rklb  -0.14470
gfz2013roki  -0.03520
gfz2013rqmp  -0.03120
gfz2013rsnr   0.45700
gfz2013rvsm   0.06560
gfz2013rwfe  -1.14230
gfz2013sart  -0.53690
gfz2013sdus   2.39500
gfz2013sebq   0.33540
gfz2013sfto  -0.51190
gfz2013shzy   0.22820
gfz2013skkm   0.36210
gfz2013snbr  -0.15060
gfz2013snyf  -1.45620
gfz2013sqkb  -0.64950
gfz2013sred   0.03760
gfz2013stht   0.26940
gfz2013suln   0.00000
gfz2013suvn   0.72520
gfz2013svci   1.61020
gfz2013sxbw   1.15740
gfz2013tbzy   0.05930
gfz2013tcxc  -0.39370
gfz2013tcxq  -1.75250
gfz2013tdau  -1.44690
gfz2013tdkk   0.11320
gfz2013tect   0.44300
gfz2013toea  -0.18220
gfz2013toxf   0.94300
gfz2013tpeb  -1.54880
gfz2013tusd  -0.67220
gfz2013tvmw  -0.41710
gfz2013txev  -1.05860
gfz2013txij   0.12450
gfz2013uauo   0.89780
gfz2013ufxk   2.11430
gfz2013uhlm  -0.35790
gfz2013upee  -0.58850
gfz2013uqsp   0.71110
gfz2013uthl   0.58230
gfz2013utsh   1.07260
gfz2013uuzn   0.42730
gfz2013uxej   1.34470
gfz2013vcoa   1.73300
gfz2013vdic   0.58620
gfz2013vexx   0.35960
gfz2013vfyw   0.64170
gfz2013vfzp  -0.48600
gfz2013vgau  -0.27910
gfz2013vgpf   1.07210
gfz2013vgrk  -0.10000
gfz2013vhnk  -0.04700
gfz2013vhsb  -0.10710
gfz2013vhzu   0.52750
gfz2013vijl   0.00000
gfz2013viul   0.57660
gfz2013vjjc  -0.05890
gfz2013vlth   0.81770
gfz2013vmro   0.42130
gfz2013vpnf   0.62730
gfz2013vqot   0.76310
gfz2013vrmy  -0.51380
gfz2013vsbl   0.37150
gfz2013vthd   0.07670
gfz2013vvjh  -0.24270
gfz2013vvrq  -0.53730
gfz2013vzbo  -0.34990
gfz2013wbyr   2.44330
gfz2014efkk   0.22960
gfz2014eght  -1.20660
gfz2014ehfp  -1.40170
gfz2014ehsf   0.40740
gfz2014ekcr   0.23760
gfz2014ekdn   1.03170
gfz2014ekdt   0.17360
gfz2014emzb  -1.99000
gfz2014enhi   0.95400
gfz2014eqpl   0.62840
gfz2014etqa   0.11700
gfz2014ettc   0.40070
gfz2014exxa  -0.37400
gfz2014fcms   0.80590
gfz2014fcsy  -0.10250
gfz2014fedd   0.34730
gfz2014femz  -0.01150
gfz2014fexu  -0.09130
gfz2014ffdc  -0.43230
gfz2014fgvi   0.07120
gfz2014fgvz   2.10420
gfz2014fgwt  -0.51940
gfz2014fgxt   0.18040
gfz2014fgyo  -0.10900
gfz2014fhbd   0.03550
gfz2014fhdw   0.43280
gfz2014fhgb   0.20560
gfz2014fhjd  -0.35490
gfz2014fhla  -1.71970
gfz2014fhlh   1.89940
gfz2014fhqk   0.01770
gfz2014fhrq  -0.22030
gfz2014fhsg   0.46800
gfz2014fhwx   0.27010
gfz2014fhxm  -0.43500
gfz2014fhyb   0.15350
gfz2014fimn   0.55460
gfz2014fiuj   0.24760
gfz2014fiwq  -0.31530
gfz2014fjdz   0.25540
gfz2014fjpb  -0.10080
gfz2014fjxd  -0.15420
gfz2014fjyo  -0.05080
gfz2014fjzd  -0.23320
gfz2014fjzw  -1.01600
gfz2014fkmr  -0.05310
gfz2014fkmx   3.00380
gfz2014fknp   0.83510
gfz2014fles  -0.45550
gfz2014flfa   0.05630
gfz2014fnbh   0.33300
gfz2014fnyg   0.54200
gfz2014fqpz  -0.59470
gfz2014frdz  -0.08920
gfz2014frez  -0.19580
gfz2014frfl  -0.39860
gfz2014frgm   0.03230
gfz2014frjr   0.31210
gfz2014frwh  -0.52800
gfz2014fsuh  -0.52590
gfz2014fszc   0.17150
gfz2014ftgx   0.21380
gfz2014ftka  -0.41000
gfz2014ftpw  -0.35100
gfz2014ftrk  -0.51540
gfz2014furx   0.29650
gfz2014fusj   0.37110
gfz2014fusu   0.03540
gfz2014fuub   0.33700
gfz2014fuup  -0.42800
gfz2014fuvk   0.19210
gfz2014fuzi   0.04580
gfz2014fval   0.02920
gfz2014fvdx  -0.26610
gfz2014fvgh   0.19810
gfz2014fvhp   0.75950
gfz2014fvjl   0.13240
gfz2014fvpy   0.37710
gfz2014fvrg  -0.07900
gfz2014fvve  -0.45440
gfz2014fwdr   0.51050
gfz2014fwtt  -0.50800
gfz2014fwyr   0.09190
gfz2014fxpu  -0.15260
gfz2014gbcz   0.08230
gfz2014gbdq   1.86120
gfz2014gbjf   1.28900
gfz2014gcza  -0.11940
gfz2014geuy   0.31700
gfz2014gkgf  -1.03040
gfz2014gkhy   0.33380
gfz2014gkjl  -1.71100
gfz2014gkjt  -0.33730
gfz2014gkjw   0.55390
gfz2014gkln   3.24500
gfz2014gklq  -1.30590
gfz2014gklv  -0.05630
gfz2014gkmm   0.10560
gfz2014gkmw   1.50610
gfz2014gkok  -0.47800
gfz2014gkpd  -0.12970
gfz2014gkpj  -0.10990
gfz2014gkqf  -1.46320
gfz2014gkqu  -1.96900
gfz2014gksj  -0.46420
gfz2014gksu  -0.46840
gfz2014gktn   2.24600
gfz2014gktq   0.08910
gfz2014gkut   0.28800
gfz2014gkvk   0.02140
gfz2014gkxm  -0.84210
gfz2014glcu  -0.45840
gfz2014glfn  -0.51090
gfz2014glgo   0.00000
gfz2014glhs  -0.82220
gfz2014glsh  -1.42930
gfz2014gltx  -0.81080
gfz2014glvn  -0.00000
gfz2014glvu   0.61400
gfz2014glxd  -0.00800
gfz2014glxy   0.92910
gfz2014gmci   0.15910
gfz2014gmes  -0.70370
gfz2014gmge  -1.27120
gfz2014gmhp  -0.07540
gfz2014gmhr  -0.45390
gfz2014gmip  -0.14770
gfz2014gmjo  -0.25600
gfz2014gmku   0.08650
gfz2014gmlz   1.59130
gfz2014gmmk   0.34690
gfz2014gmnw  -1.45690
gfz2014gmor   0.37100
gfz2014gmpy  -0.34560
gfz2014gmtb  -0.61240
gfz2014gmtj   1.17450
gfz2014gmuk   0.00570
gfz2014gmuw  -1.44270
gfz2014gmvr   0.19900
gfz2014gmzl   0.09290
gfz2014gmzs  -0.69400
gfz2014gnfd  -0.94910
gfz2014gnfs  -0.17780
gfz2014gngg  -0.23410
gfz2014gnhk   0.32840
gfz2014gnig  -0.37820
gfz2014gnmp   0.30890
gfz2014gnmx  -0.14180
gfz2014gnno   0.53430
gfz2014gnnt  -0.45890
gfz2014gnom  -1.47310
gfz2014gnoz   1.33980
gfz2014gnqt   0.52040
gfz2014gnre  -0.70970
gfz2014gnvw   1.23080
gfz2014gnwg  -0.66110
gfz2014gnxb  -0.60380
gfz2014goba  -0.32490
gfz2014goei   1.10430
gfz2014gogv  -1.08350
gfz2014gohm  -0.24900
gfz2014gono   0.59560
gfz2014goyx   0.53690
gfz2014gpam   0.12520
gfz2014gpbx   0.09900
gfz2014gpgd  -0.35310
gfz2014gphr   0.12280
gfz2014gpnf   0.73290
gfz2014gpqq   1.57260
gfz2014gpuk   0.70980
gfz2014gpya   0.06510
gfz2014gqbj   0.05840
gfz2014gqco   0.82720
gfz2014gqed  -1.10720
gfz2014gqer   1.79280
gfz2014gqgf   1.73010
gfz2014gqiy   0.10800
gfz2014gqjr  -0.65950
gfz2014gqqz   3.06190
gfz2014gqro   0.44730
gfz2014gqve   0.56730
gfz2014grcv  -0.07410
gfz2014grfp   0.01900
gfz2014grgn  -0.43710
gfz2014grho  -0.11660
gfz2014gsgv   2.67760
gfz2014gsjg   0.27660
gfz2014gsqs  -1.26050
gfz2014gtef   2.71560
gfz2014gtlu   3.05260
gfz2014gtwz  -0.83510
gfz2014gufl   0.43530
gfz2014gull  -1.33550
gfz2014gumd  -1.17850
gfz2014gutm   1.08330
gfz2014gvhw   1.07030
gfz2014gvqj  -0.13710
gfz2014gvra  -0.73190
gfz2014gvrd  -0.24480
gfz2014gwab  -0.39980
gfz2014gwgf   0.04880
gfz2014gwqj  -0.69030
gfz2014gxag   0.78620
gfz2014gxkh   0.10080
gfz2014gxqu   1.01320
gfz2014gxqx  -0.97970
gfz2014gxvf   0.80370
gfz2014gxxh   1.06450
gfz2014gxxo   0.11860
gfz2014gyxd   1.88630
gfz2014gzrm  -0.15890
gfz2014gzue  -0.52450
gfz2014haey  -0.24810
gfz2014hcmj  -0.21460
gfz2014heum  -0.87760
gfz2014heyq   0.53650
gfz2014hfad  -0.66820
gfz2014hfhl  -1.04100
gfz2014hfzf   1.46230
gfz2014hgqo  -0.77520
gfz2014hhfs  -1.13790
gfz2014hhwx   1.14350
gfz2014hifp   0.16610
gfz2014hiih  -0.75880
gfz2014hjgh  -0.21710
gfz2014hjgr   0.06940
gfz2014hjhu   0.68130
gfz2014hjij  -0.78480
gfz2014hjlx  -0.48970
gfz2014hkcf   0.97520
gfz2014hlib   0.42450
gfz2014hmrs   0.56520
gfz2014hmvx   0.16740
gfz2014hmzg  -0.52680
gfz2014hnfm  -0.29630
gfz2014hocg   0.80210
gfz2014hphw   0.41020
gfz2014hqxs  -0.78360
gfz2014hrft   1.54230
gfz2014hriu   0.03940
gfz2014hrtn   0.25400
gfz2014hscz   0.55770
gfz2014hssr  -0.27300
gfz2014huaj   1.30690
gfz2014hugz   0.17580
gfz2014hvdm   0.82430
gfz2014hwwi  -0.03780
gfz2014hyal   0.24900
gfz2014hyvq  -0.58350
gfz2014hzdy   0.29000
gfz2014hzfr  -0.00000
gfz2014hzfw   0.39180
gfz2014hzgn  -0.78210
gfz2014hzht   0.80450
gfz2014hzig  -0.05940
gfz2014hzze   0.26360
gfz2014icqt  -0.31330
gfz2014ieho  -0.46880
gfz2014ifue   0.03760
gfz2014ifzj  -0.85560
gfz2014igsj   0.02980
gfz2014ijvh  -0.46590
gfz2014ikbk  -0.41320
gfz2014ilwu  -0.88900
gfz2014immt  -0.73200
gfz2014imnn   0.56640
gfz2014inbj   0.11660
gfz2014iobd  -0.54990
gfz2014iqzj   1.74600
gfz2014irci   0.08270
gfz2014isdq  -0.58140
gfz2014isff   0.08980
gfz2014isub   0.41960
gfz2014isys   0.61110
gfz2014itab  -0.35830
gfz2014itbe   0.11660
gfz2014itgh   0.36710
gfz2014itkw  -0.35950
gfz2014itpj  -0.35690
gfz2014iuhq  -0.53610
gfz2014jagg   0.03900
gfz2014jass  -1.50190
gfz2014jatq  -0.15510
gfz2014jbyg  -0.34630
gfz2014jcjt   0.53570
gfz2014jcmt  -0.07400
gfz2014jesb   0.35970
gfz2014jggm  -0.71230
gfz2014jhra   0.36760
gfz2014jird   0.55700
gfz2014jjhc   0.71740
gfz2014jjln   0.08530
gfz2014jjqk  -0.59970
gfz2014jomw   0.25570
gfz2014jpep  -1.24110
gfz2014jtfe   1.39100
gfz2014jwmh   0.24250
gfz2014jysj   0.06850
gfz2014kbuk   1.03610
gfz2014kbwm  -0.84660
gfz2014khan   0.61260
gfz2014khlk   2.56460
gfz2014kitm  -0.08640
gfz2014kizt   0.07490
gfz2014kjee   1.12660
gfz2014kjzb  -0.00220
gfz2014kmmt  -0.22880
gfz2014kndc  -1.89950
gfz2014knks  -0.84510
gfz2014knxs   0.90040
gfz2014krlg  -0.66260
gfz2014ksdv   0.90430
gfz2014ksmz   1.39410
gfz2014kwie  -1.23210
gfz2014kwrg   0.35800
gfz2014kwwg  -0.41220
gfz2014kxqf  -0.97940
gfz2014kyan   0.21330
gfz2014kytf   0.56580
gfz2014lbcq  -0.70150
gfz2014lchy  -0.25120
gfz2014ldhu   0.43740
gfz2014lefs  -0.76000
gfz2014lehw   0.33790
gfz2014lgqn   0.78640
gfz2014lhqn  -1.00230
gfz2014ljbr   1.05670
gfz2014lkyf  -0.75440
gfz2014lnmw  -0.87420
gfz2014lnqy  -0.21400
gfz2014lpim   0.39800
gfz2014lrzx   1.08970
gfz2014lwom   0.63310
gfz2014lxnc  -0.07150
gfz2014lyhk   0.10780
gfz2014lyhp  -0.35530
gfz2014lzow  -0.18180
gfz2014macx  -0.20960
gfz2014madw  -0.26160
gfz2014mawp  -0.61260
gfz2014mlqw  -0.01840
gfz2014mmtb   0.54700
gfz2014moaw   3.32510
gfz2014mrbm   3.09990
gfz2014mtum   0.34680
gfz2014mwnj   0.24710
gfz2014mwor  -0.19180
gfz2014mxkr  -1.48400
gfz2014myqz   3.57900
gfz2014nafd   1.06680
gfz2014ncub  -0.36640
gfz2014ndue   0.58640
gfz2014ngsk   0.65300
gfz2014ngvt  -2.89710
gfz2014niqj  -0.33560
gfz2014nnih  -0.27880
gfz2014nnxd   0.71240
gfz2014nowp  -0.04220
gfz2014npdk   0.22890
gfz2014npeo   0.52670
gfz2014nphm   0.95160
gfz2014nqfm  -0.60460
gfz2014nrie  -0.44760
gfz2014ntdh  -0.73120
gfz2014nyfb  -0.47560
gfz2014nyko  -0.02470
gfz2014nylm  -0.00000
gfz2014obbs   0.56800
gfz2014obxm  -0.34410
gfz2014odgv  -0.13480
gfz2014ofhm   0.62200
gfz2014oims   0.37730
gfz2014oinz   0.35950
gfz2014ojdg   0.01810
gfz2014okec  -0.34410
gfz2014okjw  -0.84610
gfz2014omyn   0.92810
gfz2014ooaa  -0.40260
gfz2014oqhw  -0.15110
gfz2014orgz   0.31820
gfz2014orxs   0.35870
gfz2014oryw   0.90300
gfz2014osvx  -0.65200
gfz2014osvz  -0.88340
gfz2014owii   0.04090
gfz2014owur   1.02870
gfz2014owxc   0.28890
gfz2014oxcc   0.74370
gfz2014oyly   0.49370
gfz2014raau  -0.52440
gfz2014rdoz  -0.35020
gfz2014rdsn   0.36470
gfz2014rhju  -0.28930
gfz2014ryfb  -0.77060
gfz2015cewd   0.99890
gfz2015chhn   0.56000
gfz2015chqn  -0.00680
gfz2015cpuo   0.15280
gfz2015cxxk   0.04550
gfz2015cyjd   0.82840
gfz2015czfv   0.93810
gfz2015dadj  -1.31330
gfz2015dizn   0.31000
gfz2015drlk   0.60970
gfz2015dskr   0.34660
gfz2015dtqr   0.07100
gfz2015dvbn   0.04010
gfz2015ednc  -3.14720
gfz2015eeyq   0.21830
gfz2015eezy   0.47550
gfz2015egbk  -0.18980
gfz2015egxq   0.05560
gfz2015ehou  -0.24880
gfz2015ehpz   0.98120
gfz2015eiky  -0.69620
gfz2015elgy   0.90920
gfz2015emcg  -0.31990
gfz2015emin  -0.09280
gfz2015emtg  -0.85110
gfz2015enth  -0.02300
gfz2015esrj  -0.30880
gfz2015etai   0.99940
gfz2015eyqs  -0.79820
gfz2015fbbk   0.26570
gfz2015fbew  -1.46360
gfz2015fcua   0.35640
gfz2015fjhk   0.31860
gfz2015fkbc  -0.16680
gfz2015fkgt  -0.19890
gfz2015fkic   0.18980
gfz2015fkkd   0.47470
gfz2015fkuu   0.41260
gfz2015flis  -0.42690
gfz2015fpez   0.27540
gfz2015fsjj   0.50800
gfz2015fvoi   0.32970
gfz2015fwkq  -0.21870
gfz2015fxbv  -0.57230
gfz2015fxdi  -0.35660
gfz2015fyvk   1.11550
gfz2015gckd   0.06720
gfz2015ggjw   0.68350
gfz2015gjbr   0.16740
gfz2015gkwa  -0.28270
gfz2015gmgf   0.08870
gfz2015guhd  -0.89120
gfz2015gwao  -0.64460
gfz2015gzja  -1.34890
gfz2015hdbn   0.18070
gfz2015hepg  -0.82500
gfz2015hgbk  -0.63300
gfz2015hhbd   2.74200
gfz2015hlfq   0.29280
gfz2015hlqo   1.08780
gfz2015hpmk  -0.24930
gfz2015hwkv   0.08350
gfz2015hwzw   0.01980
gfz2015imty   0.30380
gfz2015jkdw   0.39810
gfz2015jmlf  -0.51220
gfz2015jmlu   0.06020
gfz2015jpap   0.24960
gfz2015jwgl  -0.14590
gfz2015jxjd  -0.46820
gfz2015jzcv  -0.04600
gfz2015kakw   0.86000
gfz2015kalm  -0.18060
gfz2015kcaa   0.10830
gfz2015kfsu  -0.01440
gfz2015kkqb   0.30660
gfz2015kkth   0.37900
gfz2015kphk   0.55140
gfz2015kquq   0.62990
