# Nsamples: 1806  MAD:  0.476  mean: -0.019  variance:  0.504
gfz2010aban   0.28710
gfz2010aerk   0.31250
gfz2010bowy  -0.90830
gfz2010boxo  -1.05480
gfz2010bpda  -0.55660
gfz2010bxxs   0.07050
gfz2010caft   0.11470
gfz2010cbkg  -0.16250
gfz2010chnv  -0.20790
gfz2010cind  -0.05030
gfz2010civi   0.35590
gfz2010ckzm  -0.69290
gfz2010dtmx   0.11640
gfz2010dumm  -0.14550
gfz2010eaoy   0.62890
gfz2010eapk   0.48360
gfz2010eapn   0.49780
gfz2010eaqe   0.37020
gfz2010eaqx   0.07990
gfz2010eaqy   1.17840
gfz2010earq  -0.59090
gfz2010earu  -0.90070
gfz2010easf  -0.36150
gfz2010eask  -0.13150
gfz2010easo   0.52650
gfz2010easu   0.51170
gfz2010eati   0.12150
gfz2010eato   0.37720
gfz2010eatt  -1.76960
gfz2010eaty  -0.15240
gfz2010eaul   0.03050
gfz2010eavs   1.00410
gfz2010eawb   0.83820
gfz2010eawu  -0.86160
gfz2010eaxa   0.68830
gfz2010eaxn  -0.03980
gfz2010eaya   2.35420
gfz2010eayd   0.89720
gfz2010eayp   0.28040
gfz2010eayx  -0.87500
gfz2010eaze  -0.17090
gfz2010eazu   0.27150
gfz2010ebbd  -0.13360
gfz2010ebbx  -0.76300
gfz2010ebby   0.05990
gfz2010ebdl   0.14930
gfz2010ebek   0.60720
gfz2010ebfa   0.36610
gfz2010ebfx   0.95650
gfz2010ebgj   0.38640
gfz2010ebhc   0.77000
gfz2010ebih   0.25200
gfz2010ebin  -1.42810
gfz2010ebiv   0.27210
gfz2010ebjg   0.89010
gfz2010ebjy   0.30900
gfz2010ebkj  -0.31620
gfz2010ebkx  -0.28450
gfz2010ebla  -0.10320
gfz2010ebll   0.80190
gfz2010ebnn   0.01670
gfz2010ebpa   0.22030
gfz2010ebqt  -0.33210
gfz2010ebqz  -0.42060
gfz2010ebrm   0.12980
gfz2010ebsv   1.40290
gfz2010ebtk   0.55280
gfz2010ebvm   0.75300
gfz2010ebvv  -0.08970
gfz2010ebwp   0.32560
gfz2010ebxl   0.06420
gfz2010ebze  -0.32390
gfz2010ebzk  -0.14630
gfz2010ebzr  -0.09760
gfz2010ecam   0.79750
gfz2010ecay  -0.76100
gfz2010ecbi   0.45410
gfz2010eccq   0.46660
gfz2010ecdu   0.36920
gfz2010eced  -0.77570
gfz2010ecft   0.41440
gfz2010ecfx   0.43310
gfz2010ecfy   0.52260
gfz2010ecgh   0.31970
gfz2010echc   0.24180
gfz2010echt   0.09970
gfz2010echy   0.70080
gfz2010ecls   0.79040
gfz2010ecml  -0.42030
gfz2010ecnm  -0.08550
gfz2010ecns   0.11900
gfz2010ecpg   1.33880
gfz2010ecps   0.46110
gfz2010ecro  -1.31680
gfz2010ectq   1.26840
gfz2010ecua  -0.36370
gfz2010ecuv   0.49590
gfz2010ecvt  -0.04500
gfz2010ecyr  -0.06210
gfz2010edad  -2.86700
gfz2010eday  -0.57860
gfz2010edbz   0.90980
gfz2010edcp  -0.65740
gfz2010edde   1.85750
gfz2010edhr  -0.24560
gfz2010edhv   0.63030
gfz2010edim  -0.30450
gfz2010edji   0.72770
gfz2010edkp   0.82480
gfz2010edoq   0.11990
gfz2010edpb   0.11540
gfz2010edqd  -0.60290
gfz2010edqh  -0.33730
gfz2010edsk  -0.27010
gfz2010edsn   0.59280
gfz2010edsy   0.09010
gfz2010edvf  -0.17650
gfz2010edyi  -1.01200
gfz2010edzb  -0.03180
gfz2010eedu  -0.43590
gfz2010eedz  -0.47400
gfz2010eefh   0.46570
gfz2010eefo  -0.45990
gfz2010eegn  -0.87690
gfz2010eeia   0.06350
gfz2010eeij  -0.39600
gfz2010eekg  -0.39630
gfz2010eekq  -0.63280
gfz2010eell   1.56530
gfz2010eeng  -0.47120
gfz2010eeqy  -2.84310
gfz2010eerh   0.00000
gfz2010eern   0.27720
gfz2010eesf   0.11710
gfz2010eevu   0.05800
gfz2010eexz   0.46070
gfz2010eeyh  -0.20510
gfz2010efak  -0.11020
gfz2010efbh  -0.86340
gfz2010efbi  -0.44150
gfz2010efkc  -0.17630
gfz2010efls  -0.24840
gfz2010efnf  -0.94910
gfz2010efsq  -0.65300
gfz2010efwo  -0.46020
gfz2010efxf  -0.35420
gfz2010egap   0.59080
gfz2010eghq   0.01840
gfz2010egld   0.49080
gfz2010egln  -0.11170
gfz2010egmp  -0.06000
gfz2010egqh   0.53760
gfz2010egsw   0.24110
gfz2010egsy  -0.30730
gfz2010egyy   0.56710
gfz2010ehaj  -1.17750
gfz2010ehft   0.25300
gfz2010ehnl   1.94920
gfz2010ehnm  -0.10420
gfz2010ehsy  -0.15650
gfz2010ehvj   0.42590
gfz2010ehxz   1.16560
gfz2010eimf   0.26720
gfz2010eioi   0.17860
gfz2010eisx  -0.27950
gfz2010eixj  -0.96020
gfz2010ejco   0.05090
gfz2010ejjg  -0.19920
gfz2010ejju   0.89900
gfz2010ejka   0.84700
gfz2010ejma   0.59410
gfz2010ejxf  -0.29510
gfz2010ekaw  -0.58060
gfz2010ekoe   0.15140
gfz2010ekrv   0.39390
gfz2010ekyc  -0.08590
gfz2010elhv  -0.15700
gfz2010elin  -0.97480
gfz2010eljf  -1.20000
gfz2010elsw  -0.40680
gfz2010eltf   0.35920
gfz2010elvp   0.02180
gfz2010elxi  -0.48560
gfz2010elyc  -1.05400
gfz2010elyo   0.67390
gfz2010elzf  -0.49400
gfz2010emoz  -0.49050
gfz2010emyz  -0.37980
gfz2010encm  -1.00020
gfz2010engw   6.98350
gfz2010enpa   0.64830
gfz2010ensu   0.70220
gfz2010enzl  -0.45770
gfz2010eoao   0.48090
gfz2010eohh  -0.97230
gfz2010epbe  -0.27040
gfz2010epud  -1.92100
gfz2010epxj  -1.01890
gfz2010eqcn  -0.54720
gfz2010eqjg   0.16870
gfz2010eqmu  -3.55310
gfz2010eqse  -0.04240
gfz2010eqwl  -2.21370
gfz2010erda  -0.35490
gfz2010erdi   0.99250
gfz2010erfy  -1.19110
gfz2010erig  -0.53710
gfz2010erkn   0.21830
gfz2010erna  -0.72740
gfz2010erom   0.18120
gfz2010erum  -0.61140
gfz2010eruy  -0.34400
gfz2010erwn  -0.86890
gfz2010erxb   0.14500
gfz2010erxk   0.50930
gfz2010eryg   0.13530
gfz2010esid   0.18860
gfz2010esmg  -0.46360
gfz2010esou   3.14190
gfz2010eted  -0.55260
gfz2010etfw  -0.23200
gfz2010euae  -0.04070
gfz2010euan   0.78280
gfz2010eujm  -0.41260
gfz2010eutw   0.46690
gfz2010euvl   0.09500
gfz2010euwb   0.74400
gfz2010euxe  -0.15790
gfz2010evco   0.40700
gfz2010evgf  -0.63520
gfz2010evjv  -0.08120
gfz2010evkd   0.84180
gfz2010ewbc  -0.13840
gfz2010ewpq   0.41050
gfz2010ewvc   0.18120
gfz2010ewyu   0.07590
gfz2010excp   0.40400
gfz2010exdd   0.13530
gfz2010exed   0.32330
gfz2010exel   0.15040
gfz2010exfb   0.16370
gfz2010exgb   0.15280
gfz2010exhd  -0.05570
gfz2010exhw  -0.02410
gfz2010exjw   0.34320
gfz2010exlm   0.25930
gfz2010exno   0.38600
gfz2010exou   0.68940
gfz2010exqu  -0.19900
gfz2010exts   0.83850
gfz2010exyp  -0.04350
gfz2010eyaz   0.83930
gfz2010eybj  -0.90580
gfz2010eyhh   0.09140
gfz2010eyiv  -0.03770
gfz2010eymr   0.22980
gfz2010eymx  -0.01340
gfz2010eyqe   0.33760
gfz2010eyvq   0.77920
gfz2010ezck   0.70270
gfz2010ezuj  -0.72380
gfz2010ezvg  -0.29430
gfz2010ezvt   0.17920
gfz2010ezwz  -0.18250
gfz2010ezxd   0.29530
gfz2010faeu  -0.44540
gfz2010falm   1.31530
gfz2010fauz  -0.85970
gfz2010faxg  -2.17670
gfz2010fbeu   0.23810
gfz2010fbpi  -0.66510
gfz2010fbwe  -0.72680
gfz2010fcax  -0.10420
gfz2010fcdw   0.51060
gfz2010fciw   0.34060
gfz2010fcnn   0.23450
gfz2010fcnt  -0.23550
gfz2010fcxy   0.00000
gfz2010fcyj   0.11680
gfz2010fczt   0.09410
gfz2010fdab   0.07090
gfz2010fdxr   2.23490
gfz2010fedq   0.34470
gfz2010fefr   0.04370
gfz2010ffhq   0.54910
gfz2010ffjb  -0.88320
gfz2010ffui  -0.34650
gfz2010fhbl   0.35330
gfz2010figq   0.77190
gfz2010fihj  -0.58420
gfz2010fika   0.45830
gfz2010fisf  -0.71140
gfz2010fixr   0.10460
gfz2010fjal  -0.46710
gfz2010fjas  -0.14450
gfz2010fjmu  -0.56840
gfz2010fjni  -0.28770
gfz2010fkia  -0.65450
gfz2010fkvg  -0.49140
gfz2010flha  -0.25850
gfz2010flkj   0.15060
gfz2010flxi   0.14370
gfz2010fmhb  -0.36120
gfz2010fmpy   5.19040
gfz2010fmwb  -1.74480
gfz2010fneu  -0.37430
gfz2010fnrk   0.53260
gfz2010fona  -0.46440
gfz2010fpmv  -0.45150
gfz2010fpqy   0.03890
gfz2010fqdu  -0.45670
gfz2010fqtj   0.10720
gfz2010fser  -0.67790
gfz2010fsmy  -0.63350
gfz2010ftlm  -1.07680
gfz2010ftsx   3.80150
gfz2010fupn  -0.40840
gfz2010fuuy   0.29080
gfz2010fuwa   0.04750
gfz2010fvuc  -0.63710
gfz2010fwkk   1.53620
gfz2010fwlb  -0.86080
gfz2010fwny  -0.33080
gfz2010fwpv  -0.20290
gfz2010fwzd  -0.00000
gfz2010fyed  -0.89750
gfz2010fyen  -0.16700
gfz2010fync   0.50340
gfz2010fzoi   0.20860
gfz2010fzsg  -0.16530
gfz2010gceb   0.06000
gfz2010gcrl   0.45910
gfz2010gcrp  -0.18870
gfz2010gdch   2.40020
gfz2010gdld   0.00000
gfz2010geru   0.37910
gfz2010ginm  -0.20770
gfz2010gjia  -0.20620
gfz2010gjvo   0.58720
gfz2010glqr  -0.19070
gfz2010glxl  -0.04820
gfz2010gmib  -0.83370
gfz2010govu  -0.82630
gfz2010grjd   0.05410
gfz2010grss  -0.76310
gfz2010grxb  -0.46510
gfz2010gtqs   0.35680
gfz2010gtzt   0.58880
gfz2010gwmp  -1.21130
gfz2010gyqp   0.05460
gfz2010gzxr  -0.21150
gfz2010hakh   1.83090
gfz2010hbka   0.57000
gfz2010hcio  -0.55560
gfz2010hevz  -0.62430
gfz2010hgld  -0.24510
gfz2010hjoc  -0.03850
gfz2010hllj   0.98820
gfz2010hlmq  -0.41180
gfz2010hlvr  -0.36710
gfz2010hmhm  -0.94270
gfz2010hndk  -0.51300
gfz2010hnnf  -0.26570
gfz2010hnpi   0.26140
gfz2010hnzr  -0.23710
gfz2010homc  -1.06120
gfz2010hptz   0.67750
gfz2010hrkr   0.51200
gfz2010hrpr   0.33040
gfz2010htdq  -1.19530
gfz2010hufk   0.42690
gfz2010hxbs   0.87220
gfz2010hxgv   0.48030
gfz2010hxhe   0.57730
gfz2010hykt   1.06030
gfz2010ibiy   0.22670
gfz2010icqq  -0.32930
gfz2010iefy   0.25470
gfz2010iibf   0.31250
gfz2010iimu  -0.97800
gfz2010ijtk  -0.18450
gfz2010imfv   0.02600
gfz2010imsh  -0.65020
gfz2010iphd  -0.23940
gfz2010ipsg  -0.56320
gfz2010iqep   1.03350
gfz2010iqfm  -1.06340
gfz2010iqus  -0.67130
gfz2010irqr   0.26320
gfz2010irvf  -0.23990
gfz2010ited  -1.00140
gfz2010itpb  -0.13310
gfz2010iull   0.01310
gfz2010ixyc   0.04290
gfz2010izzj   0.43990
gfz2010jagd   0.73410
gfz2010jatq  -0.06160
gfz2010jhie  -0.29620
gfz2010jipf  -0.41400
gfz2010jitt   1.55420
gfz2010jkxj  -1.39020
gfz2010jlhj  -0.11340
gfz2010jpss  -0.02060
gfz2010jpyj  -0.11350
gfz2010jqxx  -0.24370
gfz2010jssh   0.24760
gfz2010jsuh   4.82040
gfz2010jsuo  -0.77550
gfz2010jtal  -0.26970
gfz2010jwpy  -0.24420
gfz2010jygz  -0.15160
gfz2010jzku  -1.11110
gfz2010kcoo   0.03940
gfz2010kdyc   0.15310
gfz2010kgws  -0.25830
gfz2010kihf  -0.91920
gfz2010kjmp  -0.09080
gfz2010liqs   0.22180
gfz2010lkcf  -0.22130
gfz2010lluj  -1.15040
gfz2010lrlk  -0.80910
gfz2010lyfk  -0.16050
gfz2010mant  -0.46200
gfz2010mbje   0.81260
gfz2010mcrx   0.30310
gfz2010mdpq   0.05740
gfz2010mfpt  -0.63770
gfz2010mgss  -0.27850
gfz2010mhjt   0.16310
gfz2010miqn   0.16450
gfz2010mkuu   0.02740
gfz2010nlkh  -0.39380
gfz2010nmpc  -0.85070
gfz2010nnny  -0.04030
gfz2010nqwf   0.37460
gfz2010nqwo   0.78390
gfz2010nrew   0.36190
gfz2010nrjo  -0.25730
gfz2010nsck   0.25120
gfz2010nsdf  -0.25810
gfz2010nsfx  -0.55990
gfz2010nsjs   0.09490
gfz2010ntuo  -0.11650
gfz2010nubk  -0.53950
gfz2010nwef  -0.18350
gfz2010nxsy   0.26300
gfz2010nxum   0.35620
gfz2010nzha   5.45280
gfz2010ocxq   0.04760
gfz2010odpb   0.40730
gfz2010oedn  -0.39070
gfz2010okdm  -0.06480
gfz2010oluw   0.55960
gfz2010omla   0.13760
gfz2010onma  -0.00330
gfz2010pxak  -0.72000
gfz2010pxgh  -0.40820
gfz2010pxls   0.60830
gfz2010qitd   0.56520
gfz2010qjst  -0.14200
gfz2010qpcq  -0.17740
gfz2010qpvi   0.76930
gfz2010qwwx  -0.40760
gfz2010rhas  -3.86370
gfz2010rkfp  -0.79590
gfz2010rlbv  -0.91430
gfz2010rqwj  -0.24620
gfz2010rywq  -1.13210
gfz2010rzrr  -1.13540
gfz2010rzsd  -2.38570
gfz2010sfee  -0.11660
gfz2010sfla  -0.73680
gfz2010sgzk  -0.29570
gfz2010skqo  -0.51980
gfz2010skve  -0.53530
gfz2010srdb  -0.46030
gfz2010svtn  -0.62500
gfz2010svve   1.10120
gfz2010swcy  -0.33910
gfz2010sxfq  -0.32640
gfz2010sxwt  -0.76810
gfz2010szde  -0.42170
gfz2010szim   0.42560
gfz2010tcbr  -0.34810
gfz2010tlfm   0.22090
gfz2010truw   0.21640
gfz2010tzzk  -0.37370
gfz2010uouo   0.21380
gfz2010upfb  -0.09040
gfz2010upiw   1.12260
gfz2010urlq  -0.19990
gfz2010usho  -0.05220
gfz2010ustq   0.23530
gfz2010utcg   0.38140
gfz2010utmc  -0.28620
gfz2010utvp  -0.13410
gfz2010uvhf  -0.14680
gfz2010uyhb   2.18780
gfz2010uzon   0.16270
gfz2010vbmd   0.73440
gfz2010veri  -0.70620
gfz2010vhuj  -0.52500
gfz2010vppc  -0.55170
gfz2010vtdg  -0.23940
gfz2010vzpr  -0.30200
gfz2010vzzz   0.81620
gfz2010wofs  -0.45150
gfz2010wrxx  -0.70730
gfz2010wxqa  -0.46560
gfz2010xbdv  -0.81770
gfz2010xbgs   0.01550
gfz2010xcdh  -0.21710
gfz2010xcij   0.10740
gfz2010xden   0.31300
gfz2010xgfc   1.39550
gfz2010xgzw  -0.24430
gfz2010xjck  -0.22580
gfz2010xjsj  -0.04110
gfz2010xmpr   1.02290
gfz2010xnxk  -0.21630
gfz2010xxzn  -0.35180
gfz2010yjev  -0.70390
gfz2010ymfy  -0.29170
gfz2010yosr   0.15270
gfz2010yqqv  -0.20430
gfz2010yqwx  -3.01050
gfz2011aatr   0.46670
gfz2011adjs  -1.25820
gfz2011adlj   0.64370
gfz2011adqk   0.11720
gfz2011ahfw  -0.54080
gfz2011aldv   0.29590
gfz2011alip  -0.19520
gfz2011alsa  -0.68570
gfz2011aosc   0.23850
gfz2011aqxf  -0.32890
gfz2011asru  -0.37180
gfz2011aupi  -1.18250
gfz2011bgrp   0.07910
gfz2011bhha   0.00000
gfz2011blsi  -1.04640
gfz2011dtpy   0.18820
gfz2011duyr  -0.05310
gfz2011eayc   0.19060
gfz2011eazf  -0.09220
gfz2011ecaj   0.18480
gfz2011ecsc   0.38740
gfz2011edmm   1.15120
gfz2011eebc   0.81490
gfz2011enva   0.00440
gfz2011eocc   0.63830
gfz2011etje   0.74950
gfz2011fgvr  -0.82790
gfz2011fhag  -0.41390
gfz2011fhbm  -0.58880
gfz2011fhur  -0.16360
gfz2011fkbn   0.07920
gfz2011flgj   0.22370
gfz2011fnsw   0.10240
gfz2011gbmx   0.33150
gfz2011gcwb  -0.07520
gfz2011gdgh  -0.50760
gfz2011ggvf  -0.45860
gfz2011ghky  -0.46750
gfz2011gkey  -0.74770
gfz2011gkzt  -0.44930
gfz2011gzbr  -0.68660
gfz2011haid  -0.18820
gfz2011hbex  -0.27160
gfz2011hebt  -0.51240
gfz2011hfkj  -0.04050
gfz2011hlqw  -0.33540
gfz2011hlsa  -0.47820
gfz2011hlth  -0.61360
gfz2011hpgx   0.07930
gfz2011hpqp  -0.35830
gfz2011hrhe  -0.01910
gfz2011hryk  -0.08370
gfz2011hvbu  -0.61220
gfz2011icxe   0.00000
gfz2011ieie   0.61440
gfz2011iwte   0.42570
gfz2011ixai  -1.11970
gfz2011izqa  -0.59360
gfz2011izto  -0.20250
gfz2011jdsj  -0.33420
gfz2011jghb  -0.62970
gfz2011jmbn   0.47610
gfz2011jnmi   0.45960
gfz2011jplh  -0.24790
gfz2011jtlg  -0.55050
gfz2011jxpl  -0.32230
gfz2011kwid   0.63830
gfz2011kwjx   0.05900
gfz2011kwkw  -0.53280
gfz2011kwni  -1.48280
gfz2011kwnu  -0.93030
gfz2011kwqc  -0.20720
gfz2011kwrf  -0.77560
gfz2011kwsz  -0.73290
gfz2011kxzp   0.64310
gfz2011lcxq   0.24170
gfz2011lczg   0.15430
gfz2011lggq  -0.48490
gfz2011lgsg  -0.07000
gfz2011lhls   0.13970
gfz2011lvjr  -1.00440
gfz2011lzwj   0.45940
gfz2011mdie   0.33270
gfz2011mepc  -0.58270
gfz2011mllx   0.14670
gfz2011mlvw   0.42690
gfz2011mpme  -0.67220
gfz2011mprq  -0.20030
gfz2011myia  -0.37280
gfz2011nauw  -0.36170
gfz2011necz   0.21750
gfz2011noud  -1.35760
gfz2011nqpd   0.75540
gfz2011nrwc  -0.63510
gfz2011nrwv  -0.44360
gfz2011ntkh   0.33820
gfz2011ntrv  -0.07870
gfz2011nudm  -0.17700
gfz2011ogqk  -1.55400
gfz2011ohcy   0.32670
gfz2011oiqe   0.03830
gfz2011oiwk   0.31190
gfz2011olkk   0.68600
gfz2011oolr  -0.50750
gfz2011orgn   0.52320
gfz2011ornx   0.10490
gfz2011owvz  -0.06620
gfz2011ozsl   0.34590
gfz2011pccd   0.00000
gfz2011pdpt  -0.04020
gfz2011pdst   0.35040
gfz2011phms  -0.51290
gfz2011pntf  -0.31630
gfz2011ptus  -0.48410
gfz2011qigx  -0.46820
gfz2011qvae  -0.48630
gfz2011qyms  -0.35810
gfz2011rabm   0.09770
gfz2011rewa  -0.29880
gfz2011rgwp   0.27880
gfz2011rnut  -0.19390
gfz2011rqui  -0.16990
gfz2011rsrh   0.20130
gfz2011sagt   0.33220
gfz2011shqm  -0.04500
gfz2011tbas   0.47370
gfz2011tcij   0.11480
gfz2011tivu  -0.84920
gfz2011tjrf  -0.39830
gfz2011tjue  -0.50230
gfz2011tkfp   0.38240
gfz2011tkog  -0.36470
gfz2011tnag  -0.38450
gfz2011toub   0.36320
gfz2011tpbl  -0.22930
gfz2011tpfr  -0.73200
gfz2011tsfd  -1.03560
gfz2011tsnp  -1.62460
gfz2011tuea   0.77470
gfz2011twov   0.31090
gfz2011udsq  -0.99020
gfz2011ueni  -0.02850
gfz2011uepx   0.66840
gfz2011ugzz  -0.43300
gfz2011ujze  -0.01950
gfz2011ukmp  -0.04200
gfz2011uphh  -0.34000
gfz2011urxy  -0.28000
gfz2011urzu  -0.27180
gfz2011vclt  -0.57010
gfz2011vhfi   0.24070
gfz2011vnza   0.06230
gfz2011vxns  -0.03210
gfz2011vxxg   0.51600
gfz2011wcic  -0.79470
gfz2011wfja  -0.22000
gfz2011wjkf  -0.42260
gfz2011wjul  -0.18040
gfz2011wvzb   0.03410
gfz2011wwjs  -0.13630
gfz2011wxfs  -0.26970
gfz2011wxoj  -1.30070
gfz2011wxtk  -0.03720
gfz2011wype   0.28400
gfz2011xaan  -0.20690
gfz2011xcpv   0.11920
gfz2011xesx  -0.04190
gfz2011xqru   2.78340
gfz2011xyxj  -0.12870
gfz2011yfdx   0.18520
gfz2011yfys  -0.71180
gfz2011yhwz   0.16770
gfz2011ytnu  -0.17170
gfz2011yybo  -0.18310
gfz2011yzwq   0.02070
gfz2011zjap   0.42680
gfz2011zklv  -0.00000
gfz2011zqhh  -0.10900
gfz2012ajtq  -0.08820
gfz2012aqgp  -0.05440
gfz2012aqtq   0.77780
gfz2012bfah  -0.10100
gfz2012bfyn   0.56470
gfz2012bngd   0.55950
gfz2012bpkx   0.45410
gfz2012bpnl  -0.01990
gfz2012bpwl  -0.18380
gfz2012bqeb  -0.33310
gfz2012brhv  -0.30070
gfz2012bszs  -0.46840
gfz2012byad  -0.64250
gfz2012cevz  -0.03340
gfz2012cgvr   1.12680
gfz2012cmfy  -0.32410
gfz2012cnod  -0.74190
gfz2012covm   0.26810
gfz2012cqnl  -0.56800
gfz2012cxdn  -0.14760
gfz2012czlw  -1.05100
gfz2012ddma  -0.01100
gfz2012deri  -0.35210
gfz2012dfhq  -0.43180
gfz2012dimn   0.34590
gfz2012dinb  -0.05010
gfz2012djwi  -0.43970
gfz2012dyyh  -0.05150
gfz2012ekda  -0.00000
gfz2012ekzf  -0.29440
gfz2012elce  -0.27170
gfz2012emjg   0.25520
gfz2012enno   0.22400
gfz2012eskt  -0.59250
gfz2012ewgo  -0.00650
gfz2012fbfo  -0.43360
gfz2012fhnh  -0.62530
gfz2012fivh   0.42210
gfz2012foeo   0.43680
gfz2012fqcg   0.24820
gfz2012fwfo  -0.25170
gfz2012fwtr  -1.53610
gfz2012fzfa   0.02860
gfz2012gkvr  -0.23610
gfz2012glss   0.71670
gfz2012gnvh  -0.13120
gfz2012gocc  -0.80440
gfz2012gomm  -0.57060
gfz2012gukw   1.42200
gfz2012gwmu   0.44480
gfz2012gwqb  -0.12240
gfz2012hdbm  -0.72260
gfz2012hnul  -0.20760
gfz2012hnuw   0.10270
gfz2012hogg   0.48350
gfz2012hwmz  -0.04040
gfz2012hwyo   0.65800
gfz2012ihdl   0.24880
gfz2012iivw  -0.17370
gfz2012ilvn  -0.02090
gfz2012imay  -0.15930
gfz2012imbd   0.79600
gfz2012intn   0.74790
gfz2012jgvj  -0.46980
gfz2012jjzc  -0.39440
gfz2012jlox   0.20770
gfz2012jqvn   0.18710
gfz2012jshk   0.35280
gfz2012jupx  -0.17930
gfz2012kbjb   1.17630
gfz2012kbzj   0.06770
gfz2012kdmb   0.31200
gfz2012keor  -0.29330
gfz2012kkup  -0.20890
gfz2012klba   0.17590
gfz2012klhx  -0.35000
gfz2012kuct  -0.89370
gfz2012kudo  -1.03270
gfz2012kvzv  -0.48610
gfz2012kwgo   0.03760
gfz2012lczo  -0.62650
gfz2012ldgs  -0.15100
gfz2012ldxg  -0.06870
gfz2012ldzj  -0.55760
gfz2012ledy   0.12850
gfz2012ljql   1.38260
gfz2012llug  -0.87080
gfz2012lpvn  -0.92960
gfz2012lrsv  -0.47420
gfz2012lxkv   0.47960
gfz2012lzmr   0.05930
gfz2012mdmy  -0.17550
gfz2012minr  -0.21400
gfz2012mupa  -0.03080
gfz2012mvwr  -0.05560
gfz2012mwij   0.36180
gfz2012myqa   0.42380
gfz2012naqz  -0.92340
gfz2012nbtn   0.01910
gfz2012nedn  -0.34370
gfz2012ngic  -0.11100
gfz2012njha  -0.50900
gfz2012nkdf  -0.84540
gfz2012nqnk   0.71310
gfz2012ntzv  -1.69790
gfz2012nutf  -0.34480
gfz2012nxyt   0.37510
gfz2012oazn  -0.16800
gfz2012obgw  -0.51060
gfz2012oedb  -0.04300
gfz2012omvo   0.71300
gfz2012oqmw  -0.08850
gfz2012ostk  -0.39440
gfz2012ovqs   0.06140
gfz2012pciw  -0.00000
gfz2012peex  -1.09320
gfz2012pgcl   0.39410
gfz2012pkel  -0.12370
gfz2012pqmu   0.57040
gfz2012priv  -0.73750
gfz2012qqqp  -0.15430
gfz2012qqxg   0.03530
gfz2012qurq  -0.20120
gfz2012qxcy  -0.26820
gfz2012rats  -0.38060
gfz2012rcnj  -0.15690
gfz2012repv   0.26800
gfz2012rjsd  -0.54260
gfz2012royy  -0.43300
gfz2012rqlg   3.68910
gfz2012ruks   1.00470
gfz2012rwko  -1.05040
gfz2012rwov  -0.26440
gfz2012rypu   0.10370
gfz2012sjea   1.49570
gfz2012snhi  -0.32990
gfz2012spbj  -0.49360
gfz2012sphd   0.43910
gfz2012sqmv  -0.16190
gfz2012ssyn  -0.53240
gfz2012svpr  -0.88740
gfz2012syvl   0.12420
gfz2012taou  -0.11880
gfz2012tazz   0.33990
gfz2012teic   0.30550
gfz2012thfx  -0.44740
gfz2012tmop  -0.22790
gfz2012ttoa  -0.00910
gfz2012tvmv   0.37600
gfz2012tzcc   0.24800
gfz2012tzgb  -0.59180
gfz2012uafg   0.84420
gfz2012uaqj  -0.60120
gfz2012uciv  -0.09210
gfz2012ueqo  -0.27580
gfz2012ufew  -0.03630
gfz2012uhup   0.18670
gfz2012ulpd  -0.37030
gfz2012uqzp  -0.13940
gfz2012usba  -0.08010
gfz2012uvqf   0.55430
gfz2012uyxb   0.48150
gfz2012uzom   0.69390
gfz2012uzyj   0.15270
gfz2012vdbt  -0.13570
gfz2012vpza  -0.63870
gfz2012vrgb  -0.04180
gfz2012vrua  -0.30540
gfz2012wdyx  -0.61240
gfz2012wecd   1.54370
gfz2012whku  -0.26660
gfz2012wklq  -0.14310
gfz2012wmkd   0.01550
gfz2012wmsg  -0.76300
gfz2012wpeq  -0.36160
gfz2012wrir  -0.03610
gfz2012wtkr   0.28340
gfz2012wubh  -0.43150
gfz2012wvfl   0.14020
gfz2012wxer   0.30530
gfz2012wxlg  -0.16010
gfz2012wxnu  -0.47550
gfz2012wybs  -0.56390
gfz2012wypz  -0.21970
gfz2012xbjq  -0.33860
gfz2012xeul   4.55930
gfz2012xgqm   0.01900
gfz2012xjyv  -0.52350
gfz2012xkkv  -1.81190
gfz2012xslk  -0.05660
gfz2012yfrp   0.62070
gfz2012yoie   0.13660
gfz2012yqjj  -0.69420
gfz2012yxxu  -0.94590
gfz2012yzod  -0.09090
gfz2012zemh  -0.47180
gfz2012zemz  -0.18080
gfz2012zfag   0.35590
gfz2012zitl  -0.55570
gfz2012zjpv   0.02570
gfz2012zklq  -0.67270
gfz2012zmbp  -0.74410
gfz2012zmln   0.60070
gfz2013aahq   0.39560
gfz2013aayj  -0.79730
gfz2013acag   0.58290
gfz2013adey   0.24350
gfz2013apmm   0.05300
gfz2013aqaw  -1.08100
gfz2013bdpu  -0.26320
gfz2013bokp   0.10610
gfz2013bouj   3.65830
gfz2013btjm  -0.17430
gfz2013cbsm   0.05270
gfz2013ccnr   0.08870
gfz2013cdan   0.43550
gfz2013ciaf  -0.14270
gfz2013cvqg   0.31190
gfz2013cwpn   0.14120
gfz2013cwps  -0.01850
gfz2013ddbh  -0.73500
gfz2013dkly  -0.24040
gfz2013dkmz   0.14620
gfz2013dkym   0.24550
gfz2013dofo  -0.20850
gfz2013dojq   0.01960
gfz2013drpk  -0.32920
gfz2013drxz  -0.61330
gfz2013dspt   1.66830
gfz2013dsrk  -0.48710
gfz2013dvyh  -0.41100
gfz2013egpu   0.84330
gfz2013ekpm   0.00000
gfz2013ewbo  -0.72660
gfz2013fdoo   0.06320
gfz2013feep   1.01320
gfz2013figy   1.01910
gfz2013fiud  -0.46800
gfz2013fkcl  -0.77670
gfz2013fkii   0.89050
gfz2013fwxa  -1.07870
gfz2013fxge   0.37180
gfz2013fygc  -0.04280
gfz2013gbst  -0.03020
gfz2013gcfx  -1.48320
gfz2013gdgf  -0.22850
gfz2013gdnq   0.06090
gfz2013gelv  -1.01690
gfz2013gihf  -0.15280
gfz2013glcr  -0.03710
gfz2013gmor  -0.12430
gfz2013gngz  -0.09930
gfz2013gnse  -0.44580
gfz2013gock  -0.17010
gfz2013goux   0.29980
gfz2013gvdb  -0.37740
gfz2013gvex   0.53170
gfz2013gwrd   0.02560
gfz2013gxsu   0.10230
gfz2013hbkq  -0.33980
gfz2013hdnc   0.97580
gfz2013hfmp   0.32280
gfz2013hkja   0.56200
gfz2013hklr  -1.54360
gfz2013hpfq   0.43250
gfz2013hxcx  -0.53370
gfz2013iayx  -0.21160
gfz2013idbb  -0.02210
gfz2013ifpq  -0.50090
gfz2013ihcj   0.14110
gfz2013ijsr  -0.08740
gfz2013ikgo  -0.10160
gfz2013ilug   0.40660
gfz2013inux  -1.57510
gfz2013ippu   0.10550
gfz2013jesk   0.02130
gfz2013jgij  -0.32990
gfz2013jgip   0.15660
gfz2013jkut   0.63840
gfz2013json   1.22620
gfz2013jusj   0.33940
gfz2013jwvc   4.12070
gfz2013kccc   0.38550
gfz2013kdeo  -0.62750
gfz2013kheb  -0.22260
gfz2013khli  -0.36590
gfz2013kilx  -0.46060
gfz2013kqln   0.32140
gfz2013krei  -0.46400
gfz2013kvtk  -0.06580
gfz2013kwps  -0.23700
gfz2013lajg   0.81660
gfz2013lajn   0.55670
gfz2013lbiu   0.84750
gfz2013ldos  -0.16040
gfz2013ldpc  -0.30280
gfz2013ldqb  -0.40520
gfz2013lgnl   0.03820
gfz2013lixa  -0.25160
gfz2013lljw   0.30230
gfz2013lmdy  -0.32460
gfz2013lmqe  -0.20880
gfz2013lmrs  -0.05740
gfz2013lsob   0.14510
gfz2013lwbk  -0.46480
gfz2013lyko   0.15310
gfz2013malg  -0.18720
gfz2013mded  -0.22480
gfz2013mmwq  -0.62190
gfz2013mnei   1.03990
gfz2013mnju  -0.43460
gfz2013mqmv  -0.98770
gfz2013mtqd   0.80750
gfz2013mvgr   0.40650
gfz2013mwbh  -0.29320
gfz2013mxee  -0.16800
gfz2013nabl  -0.21790
gfz2013ncjp  -0.06410
gfz2013ndin  -0.00000
gfz2013neuc   0.02050
gfz2013ngnt   0.19170
gfz2013nixj  -0.15400
gfz2013nkgj   0.11960
gfz2013nknw   0.23660
gfz2013nmac   0.51350
gfz2013nnzf   0.26790
gfz2013nppd   0.27270
gfz2013nqgw  -0.83740
gfz2013nuor  -0.05060
gfz2013nuvi   0.71610
gfz2013nvdj  -1.70870
gfz2013nwdi  -0.04550
gfz2013oejn  -0.17790
gfz2013ogde  -0.07350
gfz2013ojti   0.20420
gfz2013oqsc  -0.27550
gfz2013orzn  -1.45160
gfz2013ozqm   0.53850
gfz2013ozrf  -0.33680
gfz2013ozrp  -0.24580
gfz2013pcos   0.02600
gfz2013pfbx   0.43980
gfz2013pfeb  -1.04550
gfz2013pffm  -0.22540
gfz2013phef  -0.21400
gfz2013pkbs  -0.46870
gfz2013pqui  -0.32620
gfz2013puag  -0.59120
gfz2013pxsj   0.26450
gfz2013qali  -0.10770
gfz2013qmer  -0.05360
gfz2013qnxc   0.14550
gfz2013qzdq  -0.55980
gfz2013rait  -0.81990
gfz2013reym  -0.21520
gfz2013roki   0.14380
gfz2013rsnr  -0.14980
gfz2013rvsm   0.00000
gfz2013rwfe  -0.87450
gfz2013ryxm   0.31720
gfz2013sart  -0.56240
gfz2013sdus  -0.28320
gfz2013sfto  -0.83920
gfz2013shlq  -0.38100
gfz2013shzy   0.12590
gfz2013skkm   0.50540
gfz2013snbr   1.62640
gfz2013snyf  -0.40370
gfz2013sred   0.22020
gfz2013suvn   0.84350
gfz2013svci  -0.59880
gfz2013tcbk  -0.77800
gfz2013tcxc  -0.13180
gfz2013tcxq  -0.00000
gfz2013tdau  -0.70210
gfz2013tdkk  -0.14340
gfz2013tjlx  -0.69260
gfz2013tlaf   0.09370
gfz2013toea   0.14900
gfz2013toxf  -0.43750
gfz2013tpeb  -0.30980
gfz2013tusd  -0.21110
gfz2013tvmw  -0.25910
gfz2013txev  -0.39830
gfz2013txij  -0.82660
gfz2013txtb  -0.01720
gfz2013tyas  -0.71700
gfz2013uauo   0.43000
gfz2013ufxm  -0.85500
gfz2013ugax  -0.48050
gfz2013uqsp   0.09960
gfz2013uqvu  -0.98850
gfz2013uuzn  -0.33250
gfz2013uysr   0.27280
gfz2013vexx   0.00780
gfz2013vfyw  -0.01690
gfz2013vfzp  -0.22940
gfz2013vgau  -0.83050
gfz2013vgrk  -0.17100
gfz2013vhzu   0.22440
gfz2013viul  -0.27860
gfz2013vjfe   0.43360
gfz2013vjjc  -0.71800
gfz2013vmro   0.79110
gfz2013vnfj  -0.34530
gfz2013vqot  -0.10900
gfz2013vrmy  -0.53110
gfz2013vsbl  -0.23920
gfz2013vthd  -1.37790
gfz2013vvjh  -0.01680
gfz2013vvrq   0.46150
gfz2013vzbo  -0.29150
gfz2013wjmm   0.20730
gfz2013wkyk  -1.98430
gfz2013woze   0.95350
gfz2013wtzl   1.05600
gfz2013wuon  -0.44530
gfz2013xgmp   0.05590
gfz2013xizq  -1.26860
gfz2013xkwt   0.34930
gfz2013xmul   0.05790
gfz2013xpfa   0.28610
gfz2013xsdt   0.50900
gfz2013xvqd   0.87300
gfz2013xvxf   0.44110
gfz2013xwda  -0.16000
gfz2013xxwv   0.01860
gfz2013xxxq   0.01470
gfz2013xyzb   0.54130
gfz2013xzcg  -0.36240
gfz2013yaig  -0.18330
gfz2013yctg  -0.54940
gfz2013yghj  -0.29100
gfz2013yhbu   0.76690
gfz2013yhpk   0.09910
gfz2013yixl   0.45700
gfz2013ylbx   2.10180
gfz2013ymky  -0.83860
gfz2013yqkv   0.08810
gfz2013yyhc  -0.22390
gfz2013ziyr   1.03890
gfz2013zmoc   0.25620
gfz2013zmtb   0.36760
gfz2014abgd   0.06550
gfz2014adoj   0.46480
gfz2014afmx   0.13870
gfz2014afyp   0.02870
gfz2014algk  -0.25270
gfz2014amsb  -0.10760
gfz2014ande  -0.13440
gfz2014aqbk   0.50400
gfz2014arpf  -0.65620
gfz2014arqr  -0.18280
gfz2014atbl  -0.05260
gfz2014atgw  -0.07720
gfz2014azqs   0.13760
gfz2014bagd   0.10620
gfz2014bekc  -0.37230
gfz2014bezu   0.25850
gfz2014bfqo  -0.03740
gfz2014bjgt   0.10630
gfz2014bldx  -0.10600
gfz2014bmdh  -0.11230
gfz2014bmta  -0.55420
gfz2014bwue  -0.16790
gfz2014bzxy  -0.09950
gfz2014caop   0.07750
gfz2014capn  -0.03530
gfz2014cbtl  -2.30070
gfz2014cgog  -0.63740
gfz2014chdv  -1.63770
gfz2014claq   0.07860
gfz2014cmwb   0.40160
gfz2014cqyo   0.01910
gfz2014ctot  -0.22120
gfz2014cvkm  -1.08620
gfz2014cvxx   0.11900
gfz2014czno   0.64310
gfz2014czol   0.34500
gfz2014czqi   0.17380
gfz2014czua   0.26940
gfz2014dddc   0.88000
gfz2014dhxt   0.37550
gfz2014disp  -0.79520
gfz2014dlri   0.18870
gfz2014duqn   0.28410
gfz2014ebmc   0.23840
gfz2014edfx   0.60500
gfz2014ehsf  -0.25660
gfz2014ejmt  -0.21400
gfz2014ekcr  -0.13870
gfz2014ekdn   0.82060
gfz2014ekdt   0.45130
gfz2014emrg  -0.40660
gfz2014emzb   0.03720
gfz2014enhi   0.77720
gfz2014eqpl  -0.16230
gfz2014etqa   0.52100
gfz2014ettc   0.26520
gfz2014exxa   0.02730
gfz2014fcms   0.55730
gfz2014femz   0.14070
gfz2014ffdc   0.63530
gfz2014fgvi  -0.15020
gfz2014fgvr   0.12090
gfz2014fgxt   0.05510
gfz2014fgyo   0.10720
gfz2014fhbd   0.20730
gfz2014fhdw   0.29990
gfz2014fhla  -0.75200
gfz2014fhlh   0.46650
gfz2014fhrq   0.21690
gfz2014fhwx   0.43650
gfz2014fimn   0.33850
gfz2014fjpb  -0.22870
gfz2014fjzd   0.34520
gfz2014fkmr  -0.41900
gfz2014fknp  -0.26750
gfz2014flfa   0.20490
gfz2014fnyg   0.36520
gfz2014foio  -0.13670
gfz2014fqpz  -0.33150
gfz2014frdz  -0.55660
gfz2014frel   0.21150
gfz2014frez  -0.21950
gfz2014frgm   0.36040
gfz2014frjr  -1.21140
gfz2014frwh   0.26590
gfz2014fsuh  -0.07720
gfz2014fszc   0.05890
gfz2014ftgx  -0.03860
gfz2014ftka  -0.58440
gfz2014ftpw  -0.55800
gfz2014ftrk  -0.73790
gfz2014furx   0.07620
gfz2014fusc  -0.24360
gfz2014fusj  -0.08120
gfz2014fusu   0.11390
gfz2014fuub  -0.97340
gfz2014fvaa   0.05940
gfz2014fval  -0.40130
gfz2014fvgh  -0.15980
gfz2014fvjl  -0.12090
gfz2014fvpy  -0.01060
gfz2014fvrg  -0.35070
gfz2014fxpu  -0.91990
gfz2014gbcz  -0.12660
gfz2014gbdq   0.88800
gfz2014geuy   0.37620
gfz2014ghpe   0.30740
gfz2014gkgf  -0.96980
gfz2014gkgs   1.72750
gfz2014gkhp  -0.68000
gfz2014gkjl   0.38770
gfz2014gklq  -0.01460
gfz2014gklv  -0.04310
gfz2014gkmm   0.19080
gfz2014gkob  -0.47030
gfz2014gkok   0.05360
gfz2014gkpd   0.44790
gfz2014gkpj   1.11320
gfz2014gkqf  -0.43870
gfz2014gkqu  -0.10700
gfz2014gksj   0.15850
gfz2014gksu   0.15210
gfz2014gktn   2.70740
gfz2014gktq  -0.50710
gfz2014gkut   0.95660
gfz2014gkxm  -0.77530
gfz2014glcu   0.03630
gfz2014glcy  -0.35110
gfz2014glgo   1.41360
gfz2014glov  -0.14680
gfz2014gltx   0.01470
gfz2014gmci  -0.21970
gfz2014gmes   0.26590
gfz2014gmge  -1.92460
gfz2014gmhp  -0.84550
gfz2014gmhr  -1.43190
gfz2014gmip  -0.12500
gfz2014gmjo  -0.17780
gfz2014gmku   0.12790
gfz2014gmlz   0.02120
gfz2014gmmk   0.46680
gfz2014gmmt   0.70370
gfz2014gmnb  -0.53250
gfz2014gmnw   0.04870
gfz2014gmor   0.00720
gfz2014gmpy   0.00520
gfz2014gmrj   0.21150
gfz2014gmtb  -0.55340
gfz2014gmuk   0.03120
gfz2014gmvr   0.22630
gfz2014gmzl  -0.28590
gfz2014gndq   0.11410
gfz2014gnfd   0.28650
gfz2014gnfs  -0.50900
gfz2014gngg  -0.30370
gfz2014gnmp  -0.02250
gfz2014gnnt   0.42370
gfz2014gnqt   3.70030
gfz2014gnxb  -0.27150
gfz2014goba  -0.33710
gfz2014gogv  -0.11020
gfz2014gori  -0.33070
gfz2014gpbx  -0.80130
gfz2014gpce   0.06640
gfz2014gphr   0.43960
gfz2014gpuk  -0.52250
gfz2014gpya   0.19470
gfz2014gqbj   0.19890
gfz2014gqed  -0.14810
gfz2014gqer   0.88030
gfz2014gqiy  -0.12200
gfz2014gqve  -0.12120
gfz2014grcv   0.46420
gfz2014grgn  -0.46740
gfz2014grho   0.86010
gfz2014gsqs  -0.42890
gfz2014gtlu   0.54240
gfz2014gull   0.36700
gfz2014gulp  -0.21190
gfz2014gumd   0.64060
gfz2014gutm   1.63660
gfz2014gvhw   0.68580
gfz2014gvqj   0.25360
gfz2014gvra   0.29600
gfz2014gvrd  -0.27150
gfz2014gwab  -0.69540
gfz2014gwgf  -0.32870
gfz2014gxkh  -0.14670
gfz2014gxxo   0.48140
gfz2014gyxd  -0.66590
gfz2014haos   0.13690
gfz2014hasj  -0.23000
gfz2014hauo   0.37360
gfz2014hbjz  -0.09690
gfz2014hbqb  -0.01570
gfz2014hcmj  -0.17110
gfz2014hetr  -1.16890
gfz2014heum  -0.49060
gfz2014heyq   0.49540
gfz2014hfad   3.87020
gfz2014hfhl  -0.31530
gfz2014hgqo  -0.05280
gfz2014hiiz  -0.09090
gfz2014hjgr  -0.01240
gfz2014hkcf   0.63330
gfz2014hmrs   0.60510
gfz2014hocg   0.18220
gfz2014hphw  -0.76590
gfz2014hpqz  -0.77370
gfz2014hqxs  -0.37020
gfz2014hrft  -0.33190
gfz2014hriu  -0.19560
gfz2014hrtn   0.45880
gfz2014hscz   0.09430
gfz2014huaj   0.72270
gfz2014hwwi  -0.70030
gfz2014hyal   0.50850
gfz2014hymr   0.35470
gfz2014hzfw  -0.37520
gfz2014hzgn   0.11750
gfz2014hzhe  -0.77210
gfz2014hzig   0.41020
gfz2014iava   0.11240
gfz2014icqt   0.58130
gfz2014ieho   0.26940
gfz2014ifue   0.03530
gfz2014ifzj   0.33550
gfz2014igur   1.56520
gfz2014ijvh  -0.22270
gfz2014ikbk   0.01770
gfz2014ilwu  -0.45500
gfz2014imnn   0.15130
gfz2014inbj   0.05170
gfz2014iobd   0.31470
gfz2014iqzj  -0.03790
gfz2014irci  -1.53840
gfz2014isdq   0.33790
gfz2014issk   0.50240
gfz2014itab  -0.04740
gfz2014itbe   0.02110
gfz2014itbu   0.85720
gfz2014itgh  -0.08810
gfz2014itjx  -0.07970
gfz2014itpj  -0.16250
gfz2014iuhq  -0.93620
gfz2014iwnf   0.03230
gfz2014iwwl   0.06320
gfz2014iywt   0.20830
gfz2014jatq   0.01960
gfz2014jcjt  -0.37860
gfz2014jcmt  -0.03040
gfz2014jfis   0.13020
gfz2014jggm   0.52290
gfz2014jhra   5.04500
gfz2014jird   0.84170
gfz2014jjhc  -0.20810
gfz2014jjln  -0.21810
gfz2014jjqk  -0.68770
gfz2014jkxe   0.39750
gfz2014jnxm   0.71520
gfz2014jnyv   0.04560
gfz2014jomw  -0.05600
gfz2014jpep  -0.13120
gfz2014jpxs  -0.05200
gfz2014jwmh   0.23810
gfz2014kara  -0.26490
gfz2014kbuk   0.00000
gfz2014khlk  -0.69490
gfz2014kitm   0.36870
gfz2014kizt  -0.51520
gfz2014kjee   0.10620
gfz2014kjzb   0.37420
gfz2014kmmt  -0.27890
gfz2014kndc  -0.03090
gfz2014knks  -0.04810
gfz2014knxs   0.23540
gfz2014ksdv   0.54640
gfz2014kwrg   0.29080
gfz2014kyan   0.29430
gfz2014kytf   0.61930
gfz2014lbxn   1.20780
gfz2014lchy  -0.11350
gfz2014lddn  -0.66030
gfz2014lefs  -0.18840
gfz2014lgqn   0.23950
gfz2014ljbr   0.04210
gfz2014lkyf   0.03300
gfz2014lmge  -0.08050
gfz2014lnmw   0.39490
gfz2014lpim  -0.45260
gfz2014lrzx   0.02920
gfz2014lxnc  -0.20970
gfz2014lxqr   0.07100
gfz2014lyhk  -0.46840
gfz2014lyhp   0.33170
gfz2014lynp  -0.12550
gfz2014lzow  -0.24490
gfz2014macx  -0.15480
gfz2014madw  -0.50910
gfz2014mcno   0.07620
gfz2014mcse   0.43380
gfz2014mhgg   0.19000
gfz2014mioi   0.52300
gfz2014mlrr  -0.41970
gfz2014moaw  -0.73410
gfz2014mogb   0.15800
gfz2014mtum  -0.02110
gfz2014mwor  -0.08530
gfz2014ncub   0.01850
gfz2014ngnd  -0.03870
gfz2014nhyb  -0.14570
gfz2014nkdx  -0.11540
gfz2014nnih   0.76840
gfz2014nnxd  -1.63440
gfz2014nowp   0.22490
gfz2014npdk  -0.30820
gfz2014npeo   0.55270
gfz2014nphm   0.28240
gfz2014nqfm  -0.16860
gfz2014nrie  -0.56420
gfz2014ntdh  -1.03630
gfz2014nvdi   0.52460
gfz2014nyeh   0.46250
gfz2014nyfb  -0.09840
gfz2014nyko  -1.20730
gfz2014nylm  -0.35720
gfz2014odgv  -0.13400
gfz2014oinz   0.10170
gfz2014okjw  -0.04170
gfz2014omyn  -0.34890
gfz2014ooaa  -0.05530
gfz2014oqhw   0.06480
gfz2014orxs   0.23090
gfz2014osvx  -0.68110
gfz2014owxc  -0.71400
gfz2014oxcc   0.53480
gfz2014oyly   0.04180
gfz2014pjer   0.18180
gfz2014pjum   0.58950
gfz2014pkll   0.25970
gfz2014ppyi   0.42780
gfz2014ppzf   0.33140
gfz2014pqqp   2.48140
gfz2014pvch   0.10550
gfz2014pzml   0.43610
gfz2014qdog   0.23380
gfz2014qjfl   0.44310
gfz2014qlvc  -0.26690
gfz2014qlxd   0.10280
gfz2014qngj  -0.19210
gfz2014tovs   0.02080
gfz2014tqdo   0.11980
gfz2014tqsf  -0.19810
gfz2014tqth  -0.77680
gfz2014tzsd  -0.15950
gfz2014ubwn   0.33410
gfz2014udgg   0.30260
gfz2014uohh  -0.18170
gfz2014utac   0.00000
gfz2014uuuf  -1.22320
gfz2014uvji  -0.07460
gfz2014uvrk  -1.57410
gfz2014uxyg   0.00000
gfz2014uyrq   0.34050
gfz2014vcev   0.20630
gfz2014vhld  -0.44110
gfz2014vhms   0.31740
gfz2014vhuy  -0.05610
gfz2014vjoz  -0.20490
gfz2014vpus  -3.28580
gfz2014waoo   0.22990
gfz2014watn  -0.08670
gfz2014wjko  -2.15440
gfz2014wmsc   0.45920
gfz2014wqcp  -0.12560
gfz2014wrkh  -1.48910
gfz2014wwib  -1.01420
gfz2014xaxx  -1.06410
gfz2014xbyr   0.08290
gfz2014xhwk   0.11450
gfz2014xjri  -0.42490
gfz2014xoji   0.28890
gfz2014xqqd  -0.37410
gfz2014yhhm  -0.21660
gfz2014ynzy  -1.35130
gfz2014yppv   0.28640
gfz2014yrug   0.61560
gfz2014yula  -0.02540
gfz2014zcgo   0.16620
gfz2014zkys   0.21340
gfz2014zlgp   0.25960
gfz2014zplq   0.18750
gfz2015abpw   0.38450
gfz2015alzx   0.52450
gfz2015apnk  -0.17150
gfz2015aqav   0.27790
gfz2015aqbq   0.38010
gfz2015arpd   0.07390
gfz2015aruz  -0.16310
gfz2015azzp   0.32520
gfz2015berb  -0.37170
gfz2015bfjm   0.14320
gfz2015bkbj   0.23930
gfz2015bphe   0.57120
gfz2015bsnl   0.28950
gfz2015byfn   0.24780
gfz2015byjd   0.06410
gfz2015cewd   0.59230
gfz2015chhn   0.67310
gfz2015chqn  -0.23200
gfz2015cxhx   0.25470
gfz2015cxrc   0.24710
gfz2015cxxk   0.43940
gfz2015cyjd   0.87220
gfz2015ddhl   0.35730
gfz2015dizn   0.16080
gfz2015djts   0.30830
gfz2015dskr   0.33470
gfz2015dvbn  -0.09770
gfz2015ecgq   0.14700
gfz2015ednc  -0.31810
gfz2015eeyq   0.22310
gfz2015eezy  -2.25020
gfz2015egxq  -0.25620
gfz2015ehpz   0.02060
gfz2015eiky   0.09390
gfz2015elgy  -0.03880
gfz2015eljz   0.53270
gfz2015etai   0.26430
gfz2015evpl   0.25320
gfz2015eyqs  -0.99440
gfz2015fbbk  -0.82370
gfz2015fcua  -0.23310
gfz2015fdpr  -0.23010
gfz2015fjhk   0.09120
gfz2015fkbc   0.32780
gfz2015fkgt   0.08640
gfz2015fkic   0.15200
gfz2015fkkd   0.79280
gfz2015fkuu   0.12330
gfz2015flis   0.45230
gfz2015fpez  -0.00000
gfz2015fsjj   0.35630
gfz2015fvoi  -0.15850
gfz2015fwkq   0.48710
gfz2015fwnf   0.60280
gfz2015fxbv  -0.04200
gfz2015fxdi   0.06350
gfz2015fyvk   0.69990
gfz2015gckd   0.53460
gfz2015ggjw  -0.47040
gfz2015gjbr   0.18320
gfz2015gkwa   0.09640
gfz2015gmgf   0.06400
gfz2015gnmy  -0.24290
gfz2015guhd   0.13720
gfz2015gwao  -0.34640
gfz2015gzja  -0.02130
gfz2015hdbn  -0.30020
gfz2015hdcp  -0.13470
gfz2015hgbk   0.29640
gfz2015hlqo   0.27610
gfz2015hpmk   0.20580
gfz2015hvgs   0.60330
gfz2015iele   0.20930
gfz2015igsy  -0.12840
gfz2015imty   0.06690
gfz2015imyp   0.40490
gfz2015iwqk  -0.01900
gfz2015ixyy   0.36010
gfz2015jmlu   0.21840
gfz2015jpap  -1.45040
gfz2015jwgl   0.02010
gfz2015jxbx  -0.05680
gfz2015jxjd   0.00240
gfz2015kakw  -0.03910
gfz2015kalm   0.15520
gfz2015kcaa   0.30490
gfz2015kfsu  -0.35340
gfz2015kkqb   0.15210
gfz2015kkth  -0.21710
gfz2015kphk   0.30200
gfz2015kquq   0.15440
gfz2015ksni   0.20110
gfz2015kvwz  -0.23230
gfz2015kxxs   0.62710
gfz2015lcma   0.46990
gfz2015lcuo  -1.03350
gfz2015lfma   0.16040
gfz2015lfud   0.22430
gfz2015lhjq  -0.95440
gfz2015lhjy   0.91500
gfz2015ltii   0.23820
gfz2015lytv  -1.28890
gfz2015lzad  -0.85050
gfz2015mbgr   0.00000
gfz2015mddr   0.01240
gfz2015mfpy   0.44670
gfz2015mhym  -1.21660
gfz2015micz   0.56120
gfz2015mpte  -0.87520
gfz2015nbdc  -0.07650
gfz2015nerz  -0.23090
gfz2015nqgf   0.28860
gfz2015ntpk   0.10180
gfz2015nuxz   0.05820
gfz2015nwug  -0.38180
gfz2015ocdz   0.33250
gfz2015ofpd  -0.10720
gfz2015ofsr   0.19270
gfz2015ojut   0.22130
gfz2015okmq   0.15290
gfz2015okpu   0.36070
gfz2015omab   0.06420
gfz2015orkl   0.08860
gfz2015othd   0.47750
gfz2015oyfl   0.17410
gfz2015pcvt   0.21160
gfz2015pdri   0.14410
gfz2015pjgr  -0.19550
gfz2015plal  -0.05290
gfz2015poni   0.15300
gfz2015puqp  -0.55460
gfz2015qafb   0.14340
gfz2015qisx   0.51520
gfz2015qnde   0.15600
gfz2015qnho   0.06890
gfz2015qnlv   0.30870
gfz2015qnto  -0.30560
gfz2015qols   0.05270
gfz2015qprd   0.37390
gfz2015qpvd   0.01330
gfz2015quzo  -0.49090
gfz2015rddx  -0.27670
gfz2015rgov   0.02240
gfz2015rgrg  -0.32990
gfz2015rkbq  -0.11310
gfz2015rkrg  -0.28180
gfz2015rkzg  -0.10170
gfz2015rpzn  -0.61550
gfz2015rwsb   0.06120
gfz2015saet   0.52300
gfz2015sdeo   0.15730
gfz2015sevh  -0.68810
gfz2015sfdd   0.38270
gfz2015sfdl   0.75170
gfz2015sfdv  -0.23160
gfz2015sfdy  -1.04040
gfz2015sfeo   0.46880
gfz2015sffn  -0.18450
gfz2015sfga  -0.25820
gfz2015sfhz  -1.39030
gfz2015sfiq  -0.95390
gfz2015sfjf   0.19750
gfz2015sfkh  -0.02120
gfz2015sfko  -0.65070
gfz2015sfks   0.14700
gfz2015sfkz  -0.15120
gfz2015sflf   0.05930
gfz2015sfmd   0.20220
gfz2015sfnb  -0.47070
gfz2015sfno  -0.37450
gfz2015sfnv   0.34380
gfz2015sfoc  -0.26480
gfz2015sfom  -0.39600
gfz2015sfoq   0.47740
gfz2015sfpj   0.02310
gfz2015sfps   0.65310
gfz2015sfqo  -0.22730
gfz2015sfqr  -0.42280
gfz2015sfrc   0.07990
gfz2015sfrf   0.02040
gfz2015sfrv   0.36890
gfz2015sfsi   1.39950
gfz2015sftu   0.31990
gfz2015sfuc   0.16190
gfz2015sfuz  -0.26710
gfz2015sfwf   0.52190
gfz2015sfxn  -0.42660
gfz2015sfzm   0.40570
gfz2015sgad  -0.02380
gfz2015sgmr  -0.12770
gfz2015sgna  -0.20870
gfz2015sgxc   0.83450
gfz2015sgyd   0.49020
gfz2015shaq   0.36170
gfz2015shel   0.40340
gfz2015shhg   0.51500
gfz2015shhu  -0.26560
gfz2015shjn  -0.17950
gfz2015shjo   0.06930
gfz2015shqc  -0.00740
gfz2015shrg  -0.48680
gfz2015shsz  -0.45890
gfz2015shwt  -0.67500
gfz2015sicf  -0.04640
gfz2015siem  -0.01670
gfz2015siky   0.53080
gfz2015sing  -0.15510
gfz2015sist   0.84740
gfz2015sitn   0.00000
gfz2015sixs  -0.26560
gfz2015siyy   0.32700
gfz2015sjbx   0.05860
gfz2015sjeq   0.75460
gfz2015sjfi  -0.04270
gfz2015sjgk  -0.02190
gfz2015sjjb   0.32440
gfz2015sjne  -0.01160
gfz2015sjoj   0.34900
gfz2015sjpn   0.22220
gfz2015sjtz   0.23650
gfz2015sjvu   0.67240
gfz2015sjwi  -0.64530
gfz2015skab   0.91930
gfz2015skgj  -0.25660
gfz2015sklu  -0.16410
gfz2015skpv  -0.11140
gfz2015skuk   0.11120
gfz2015skxu  -0.08110
gfz2015sldx   0.12930
gfz2015sljs  -0.86850
gfz2015slun  -0.06090
gfz2015smym  -0.67460
gfz2015snhn   0.11490
gfz2015snmg   0.28760
gfz2015snmr  -0.17610
gfz2015snsf   0.04900
gfz2015snwh  -0.42810
gfz2015snyd   0.12250
gfz2015soat   0.06380
gfz2015solh   0.39130
gfz2015sopc   0.18400
gfz2015sowu   0.88580
gfz2015soxc   0.11750
gfz2015sozw   0.03780
gfz2015sqbg   0.02050
gfz2015sqmy   0.02050
gfz2015sqyh  -0.41570
gfz2015srat   0.39870
gfz2015ssoe   0.70200
gfz2015ssrl   0.49850
gfz2015stfy   0.47720
gfz2015stso  -0.46410
gfz2015subg   0.29130
gfz2015subz   0.34380
gfz2015susq   0.39910
gfz2015svjy  -0.18790
gfz2015svwm   0.34430
gfz2015sxmh   0.88210
gfz2015szcb  -0.36150
gfz2015szfe   0.18770
gfz2015szfq   0.19570
gfz2015sztx   0.64030
gfz2015taml   0.08090
gfz2015tbdn  -0.31500
gfz2015tcem   0.64940
gfz2015tdbb   0.02020
gfz2015tdcu   0.13500
