# Nsamples: 32  MAD:  1.241  mean:  0.297  variance:  0.897
gfz2010czps   0.10920
gfz2010eaoy   1.45460
gfz2010earu   0.80860
gfz2010edad  -0.82910
gfz2010ekyc   1.51020
gfz2010elyc  -0.05830
gfz2010exdd   0.71230
gfz2010exdl  -1.78550
gfz2010exel  -0.51720
gfz2010grjd   0.53950
gfz2013ldos   0.06940
gfz2013nkgj   0.42150
gfz2013qmer   0.90560
gfz2013svci  -0.92370
gfz2013vjjc   1.27140
gfz2014cvkm  -0.07880
gfz2014fhla   1.76750
gfz2014gbcz  -0.33870
gfz2014oinz   1.33090
gfz2014watn   1.27040
gfz2015chhn   0.20010
gfz2015cyjd   0.90570
gfz2015fkgt   0.83940
gfz2015fsjj   1.15710
gfz2015gckd   1.75810
gfz2015lhjy   1.27390
gfz2015lytv  -0.88050
gfz2015sfdd  -0.46500
gfz2015sfiq  -1.14730
gfz2015sfno  -0.89070
gfz2015snwh  -0.82970
gfz2015svwm  -0.06620
