# Nsamples: 7  MAD:  0.922  mean:  0.083  variance:  0.996
gfz2010iull  -0.50520
gfz2011aatr  -1.00750
gfz2011enva   1.72940
gfz2011lcxq   1.44470
gfz2011lzwj  -0.79090
gfz2011rewa  -0.16890
gfz2011wxfs  -0.12380
