# Nsamples: 203  MAD:  0.796  mean: -0.297  variance:  1.174
gfz2010bfzs  -1.45530
gfz2010bifb  -1.86870
gfz2010bjeb  -1.06300
gfz2010bxxs  -2.03640
gfz2010czps  -0.07450
gfz2010dejx  -0.05430
gfz2010eaoy   0.48800
gfz2010eapk  -0.23150
gfz2010eapn  -3.43190
gfz2010eaqe  -0.06220
gfz2010eaqy   0.07550
gfz2010earu  -0.62610
gfz2010easf   0.14140
gfz2010eask  -4.38530
gfz2010easo   0.48790
gfz2010eato  -0.11030
gfz2010eatt  -0.32800
gfz2010eaty  -0.03980
gfz2010eaul  -0.04720
gfz2010eavs   1.25880
gfz2010eawb  -0.36240
gfz2010eawu   1.96490
gfz2010eaya   0.62960
gfz2010eaze   0.67390
gfz2010eazu   1.67070
gfz2010ebdl   1.26600
gfz2010ebfa   1.01670
gfz2010ebfx   0.17930
gfz2010ebhc  -0.75580
gfz2010ebjy   0.34400
gfz2010ebkj  -0.29700
gfz2010ebkx  -0.67170
gfz2010ebla  -0.45320
gfz2010ebll   0.12360
gfz2010ebnn   0.95510
gfz2010ebvm   0.22700
gfz2010ebvv  -0.23420
gfz2010ebwp   0.77270
gfz2010ebzr   0.00630
gfz2010echc   0.47460
gfz2010ecps   1.06530
gfz2010ecro  -1.56370
gfz2010ecua   0.24480
gfz2010eday   0.62120
gfz2010edvf  -0.23460
gfz2010edyi   1.57090
gfz2010eedz  -0.84380
gfz2010eegn  -0.71940
gfz2010eeij  -0.59110
gfz2010eern   0.29310
gfz2010eevu   0.49510
gfz2010efkc  -0.32920
gfz2010egsy   0.66940
gfz2010ehft  -0.77510
gfz2010ehnm  -0.28370
gfz2010eisx   0.21780
gfz2010eixj  -0.35450
gfz2010ejjg   0.74460
gfz2010ekoe   0.41960
gfz2010ekyc  -0.92620
gfz2010elhv   0.73580
gfz2010eltf   0.09130
gfz2010elyc   0.63040
gfz2010erdi   0.48800
gfz2010erkn  -0.54670
gfz2010erom   0.83630
gfz2010evco  -1.15510
gfz2010evgf   1.16750
gfz2010excp   0.06120
gfz2010exdd   0.11190
gfz2010exdl  -0.72000
gfz2010exel  -0.41670
gfz2010exmc   0.33690
gfz2010exno  -0.43190
gfz2010ezck   0.73370
gfz2010fcax   0.16570
gfz2010ffui  -0.14440
gfz2010figq   0.43000
gfz2010fjal  -0.40420
gfz2010fpqy  -1.28720
gfz2010fync  -1.60300
gfz2010gcrl   2.58340
gfz2010gdld  -0.33660
gfz2010glxl   0.19720
gfz2010grjd  -1.73880
gfz2010hxgv  -0.02070
gfz2010iobp   0.11480
gfz2010iull  -1.52140
gfz2010jxbm   0.10290
gfz2010nnny  -2.50930
gfz2010nqwo  -0.12660
gfz2010rqwj  -0.45060
gfz2010skve   1.51860
gfz2010txjs  -0.85050
gfz2010upfb  -0.31340
gfz2011aatr  -1.04800
gfz2011adjs   0.21970
gfz2011bhha   0.64900
gfz2011cykd   0.44480
gfz2011dbig   0.78590
gfz2011dcqb  -0.21210
gfz2011dkyi   0.67120
gfz2011dpqx  -2.27550
gfz2011enva  -1.50660
gfz2011gbmx   0.09330
gfz2011hfkj  -0.06440
gfz2011hlsa  -0.68590
gfz2011hpgx   0.18760
gfz2011hpqp   0.13400
gfz2011ieie   0.62960
gfz2011iwte   0.84330
gfz2011jplh  -0.74500
gfz2011kqwo  -0.50600
gfz2011kxzp   0.20050
gfz2011lcxq  -1.39260
gfz2011lzwj  -1.99830
gfz2011mdie  -2.28680
gfz2011mjom  -1.60210
gfz2011mpme   0.93110
gfz2011nrwc  -0.57570
gfz2011nudm  -0.34900
gfz2011owvz  -1.59160
gfz2011qvae  -0.52180
gfz2011rewa  -0.92900
gfz2011sagt   0.49840
gfz2011toub  -2.10520
gfz2011uphh  -1.21390
gfz2011urzu  -0.44450
gfz2011vxns  -0.06740
gfz2011wwjs  -0.33740
gfz2011wxfs   0.01390
gfz2011zklv  -2.09520
gfz2012aqgp  -0.16630
gfz2012bpkx  -0.37460
gfz2012enno  -0.61520
gfz2012fwfo  -0.13150
gfz2012fzfa  -0.36920
gfz2012gocc   0.00000
gfz2012gomm  -2.57830
gfz2012hnul  -0.39260
gfz2012jlox  -2.18370
gfz2012kkup  -0.67820
gfz2012klhx  -0.78080
gfz2012kudo  -0.70410
gfz2012sphd  -2.10350
gfz2012ttoa  -3.48020
gfz2012uafg   0.71280
gfz2012wtkr   0.06150
gfz2012wvfl  -1.11360
gfz2012wxlg  -0.88980
gfz2012wxnu  -0.89960
gfz2012wypz  -1.08630
gfz2013mqmv  -0.79990
gfz2013nwdi  -0.84900
gfz2013pfbx  -0.07710
gfz2013svci  -0.71830
gfz2013toxf  -0.88700
gfz2013vfzp   1.30350
gfz2013vjjc  -1.86010
gfz2013wjmm  -0.48650
gfz2013xsdt  -2.27860
gfz2013xxxq  -0.38420
gfz2013yqkv  -1.97320
gfz2014afmx  -0.32900
gfz2014ande  -0.36880
gfz2014bwue  -0.22990
gfz2014czua  -0.24380
gfz2014ehsf   0.52980
gfz2014ekcr  -0.02990
gfz2014enhi   1.03990
gfz2014femz  -0.18360
gfz2014fgvi  -0.27970
gfz2014fhla  -0.06000
gfz2014frdz   1.52700
gfz2014ftka  -0.97750
gfz2014furx  -1.37200
gfz2014fusj   4.42760
gfz2014fvgh   0.74380
gfz2014fvrg  -0.91590
gfz2014gbcz   2.28490
gfz2014gkgf  -2.41340
gfz2014gkgs  -1.09650
gfz2014gkhy  -0.40340
gfz2014gkjl   0.06030
gfz2014gkqf  -0.66170
gfz2014gmge   0.02660
gfz2014gmhr  -0.35660
gfz2014gmnb  -0.19320
gfz2014gmnw  -0.24040
gfz2014gmuw  -0.11830
gfz2014goba   0.47220
gfz2014gori  -0.53670
gfz2014gufl   2.91720
gfz2014gull  -0.81350
gfz2014hasj  -0.20370
gfz2014hgqo  -0.16490
gfz2014hhwx  -1.17850
gfz2014jwmh  -0.65600
gfz2014nrie  -1.23490
gfz2014qngj  -0.24830
gfz2014szzf  -0.29340
gfz2015chhn  -1.33200
gfz2015cyjd  -1.73070
