# Nsamples: 84  MAD:  0.924  mean: -0.312  variance:  1.371
gfz2010eaoy  -0.45540
gfz2010eapk  -0.75480
gfz2010eapn   0.36140
gfz2010eaqx  -0.01820
gfz2010eaqy   1.28510
gfz2010earu   0.42980
gfz2010eask  -1.59940
gfz2010easo  -0.38280
gfz2010easu   0.71120
gfz2010eato  -0.81750
gfz2010eaul  -0.23950
gfz2010eavs  -0.41110
gfz2010eawb   2.22640
gfz2010eawu  -1.39650
gfz2010eaxa  -0.58140
gfz2010eazu   1.59850
gfz2010ebhc  -0.69870
gfz2010ebin  -0.49350
gfz2010ebkj   0.66100
gfz2010ebnn  -1.04720
gfz2010ebvm   0.21740
gfz2010ebzr  -0.64890
gfz2010ecua  -0.59070
gfz2010ekyc  -0.43640
gfz2010elyc  -1.52050
gfz2010excp  -0.40740
gfz2010exdd   1.01220
gfz2010exdl  -0.61900
gfz2010exno  -0.89050
gfz2010exsg   1.02610
gfz2010ezck  -0.97700
gfz2010fedq   1.61420
gfz2010ffhq  -0.70160
gfz2010fync  -0.35450
gfz2010homc   1.32940
gfz2010iobp  -0.40310
gfz2010iull   0.06640
gfz2010moyw   0.04220
gfz2010nqwo  -0.60210
gfz2010rqwj   0.64070
gfz2010upfb  -3.96190
gfz2010utcg   0.18190
gfz2011aatr  -1.18930
gfz2011adjs  -1.24750
gfz2011cykd  -2.88510
gfz2011dcqb   1.40810
gfz2011dpqx  -1.09380
gfz2011enva   3.17270
gfz2011gkzt  -0.92480
gfz2011hlsa  -0.38290
gfz2011jplh   0.07460
gfz2011kqwo   2.42810
gfz2011kxzp  -0.33990
gfz2011lzwj  -0.26020
gfz2011mdie  -1.09580
gfz2011nudm  -1.61550
gfz2011rewa  -1.14480
gfz2011tkfp  -0.05900
gfz2012bpkx  -0.52770
gfz2012fzfa  -0.88410
gfz2012gwqb  -2.33000
gfz2012jlox  -1.37760
gfz2012ldxg  -1.42420
gfz2012wklq  -2.04480
gfz2012wypz  -1.66930
gfz2013ccnr  -0.51480
gfz2013drxz  -1.66800
gfz2013nwdi   0.06840
gfz2013pfeb  -1.44470
gfz2013qmer  -1.31100
gfz2013svci   0.80950
gfz2014fgvi  -0.34510
gfz2014fhla   1.59270
gfz2014gkgf   2.17040
gfz2014gmhr  -0.12160
gfz2014gmip  -1.43500
gfz2014ssvz  -0.30810
gfz2015berb  -0.47240
gfz2015chhn  -1.18480
gfz2015cyjd   0.00320
gfz2015fkgt   1.34550
gfz2015fsjj   0.04910
gfz2015gckd   0.19960
gfz2015lhjy  -0.64850
