# Nsamples: 137  MAD:  0.922  mean:  0.180  variance:  1.934
gfz2010bxxs   0.23470
gfz2010czps   0.03410
gfz2010eaoy  -0.62040
gfz2010eaqe  -0.16690
gfz2010eaqx   0.31740
gfz2010eaqy  -1.16200
gfz2010earu  -0.10490
gfz2010easo   0.39410
gfz2010easu  -0.25910
gfz2010eati   0.15340
gfz2010eato  -0.08930
gfz2010eatt  -0.31640
gfz2010eaty  -0.50160
gfz2010eavs  -0.33010
gfz2010eawb   0.29590
gfz2010eaxa  -1.09450
gfz2010eaxn   2.41200
gfz2010eaze   1.84230
gfz2010eazu   0.01540
gfz2010ebjy  -0.07810
gfz2010ebkj   0.60650
gfz2010ebla  -0.46820
gfz2010ebmb   0.04450
gfz2010ebnn   1.92170
gfz2010ebvv  -0.21140
gfz2010ebzr  -0.89570
gfz2010ecay  -0.18640
gfz2010ecbi   0.30840
gfz2010ecft  -2.12070
gfz2010ecsp   0.39160
gfz2010ecua   0.54580
gfz2010edyi   0.44140
gfz2010eeij   1.27700
gfz2010eerh   0.42250
gfz2010eevu  -0.34740
gfz2010egap  -1.02810
gfz2010eisx  -7.61080
gfz2010ejjg   0.69930
gfz2010elhv   0.13610
gfz2010eltf  -0.74510
gfz2010elyc   1.88920
gfz2010eujm   0.78920
gfz2010euvl   0.53340
gfz2010evco  -0.14090
gfz2010ewvc  -0.50470
gfz2010excp  -0.13570
gfz2010exdd   0.15170
gfz2010exdl  -0.27160
gfz2010exhw   1.87580
gfz2010exno  -0.29290
gfz2010ezck  -0.22590
gfz2010fedq  -0.06150
gfz2010ffhq   0.96870
gfz2010flha   0.08220
gfz2010fpqy   0.26960
gfz2010fync   0.38080
gfz2010glxl   0.20650
gfz2010gyqp   0.99990
gfz2010hxgv   2.67670
gfz2010iobp  -0.92050
gfz2010iull   0.52890
gfz2010jxbm  -0.07800
gfz2010moyw  -0.05030
gfz2010nmpc   0.88350
gfz2010nqwo  -1.73890
gfz2010qjst  -0.58710
gfz2010rqwj  -2.16600
gfz2010tcrl  -0.77050
gfz2010upfb  -0.24230
gfz2010yjev   1.52800
gfz2011aatr  -0.41050
gfz2011adjs   1.31230
gfz2011cvfg  -0.87130
gfz2011cykd   1.47950
gfz2011cyuk   0.76920
gfz2011dbev   0.32110
gfz2011dcqb   0.53470
gfz2011hfkj  -0.05420
gfz2011kqwo  -0.64080
gfz2011lzwj   1.46820
gfz2011nudm   0.95940
gfz2011ohcy   3.29770
gfz2011qvae   0.03570
gfz2011rewa   1.10280
gfz2011rqui   1.41200
gfz2011vrhg   1.82670
gfz2012bfah   0.08950
gfz2012cxdn  -0.91250
gfz2012fzfa   0.10780
gfz2012hnul  -0.63080
gfz2012kkup   0.97820
gfz2012pkel   1.37420
gfz2012wklq   0.50490
gfz2012wvfl   0.77590
gfz2012wxlg  -0.23860
gfz2013ccnr   0.84680
gfz2013cwpn  -2.64160
gfz2013feep  -0.29410
gfz2013ilug  -0.01710
gfz2013nwdi   0.29880
gfz2013vjjc   1.38640
gfz2013wjmm   0.00700
gfz2013xsdt  -0.26290
gfz2014czqi   2.49460
gfz2014enhi  -0.72920
gfz2014furx  -6.96070
gfz2014gbcz   0.47410
gfz2014gkgf   1.69570
gfz2014gmge   2.23740
gfz2014gmhr  -1.51240
gfz2014goba   0.30470
gfz2014hjlx   0.76400
gfz2014qngj  -0.98180
gfz2014qqhm   1.89490
gfz2014ssvz   1.50420
gfz2014watn   1.72940
gfz2015aruz   2.54520
gfz2015chhn   1.06290
gfz2015cyjd   1.56180
gfz2015fkgt   1.72660
gfz2015fsjj  -0.28510
gfz2015gckd   2.82470
gfz2015gjbr   0.33270
gfz2015lhjy   1.85600
gfz2015lytv  -0.73380
gfz2015qnho   0.79100
gfz2015sfdd   0.29310
gfz2015sfdl  -0.10930
gfz2015sfdy  -0.23150
gfz2015sfhz  -1.43020
gfz2015sfiq  -1.66820
gfz2015sfno  -0.70630
gfz2015sfqr  -1.68490
gfz2015sgpu   0.95470
gfz2015snwh   0.31180
gfz2015soxc   0.38190
gfz2015svwm   0.28240
