# Nsamples: 77  MAD:  0.807  mean:  0.565  variance:  1.373
gfz2010bfzs   0.42630
gfz2010czps  -0.97450
gfz2010eaoy   1.14970
gfz2010eapk   1.48970
gfz2010eapn   0.00000
gfz2010eaqe   0.78540
gfz2010earu   0.98790
gfz2010easo   0.19540
gfz2010easu   0.26080
gfz2010eati  -0.08660
gfz2010eato   0.46760
gfz2010eatt   2.07130
gfz2010eavs   0.33150
gfz2010eaxa  -1.23890
gfz2010eazu   1.69320
gfz2010ebnn  -0.18860
gfz2010ebvv   0.93980
gfz2010ecua  -0.15790
gfz2010edyi   1.78030
gfz2010eevu   0.53140
gfz2010egap  -0.51080
gfz2010ehrq   2.01880
gfz2010eisx   2.88670
gfz2010ekyc   2.10920
gfz2010elhv  -0.31240
gfz2010elyc  -3.43280
gfz2010eujm  -0.60310
gfz2010ewpq   0.59450
gfz2010excp  -0.32820
gfz2010exdd   1.44740
gfz2010exhw   0.19590
gfz2010ezck   0.63490
gfz2010ezig  -0.26410
gfz2010fmpy   0.64770
gfz2010fync   0.64890
gfz2010gyqp   1.22010
gfz2010iobp   0.71690
gfz2010iull   0.29370
gfz2010nmpc   2.57550
gfz2010nqwo   1.74740
gfz2010rqwj   0.85500
gfz2010upfb   0.58660
gfz2011aatr   0.04250
gfz2011adjs   0.71150
gfz2011hfkj  -0.32650
gfz2011owvz   2.93820
gfz2011rewa   2.19130
gfz2011vhfi  -1.43060
gfz2011vrhg   0.88390
gfz2012fzfa   0.12210
gfz2012hnul   0.09010
gfz2012uafg   0.92450
gfz2012wklq   0.69710
gfz2012wxlg   0.42420
gfz2013ccnr   1.13630
gfz2013hkja   0.12750
gfz2013vjjc   1.12310
gfz2014algk   1.98620
gfz2014enhi   0.90790
gfz2014fvaa  -4.15490
gfz2014gkgf   2.08980
gfz2014hzhe  -1.58980
gfz2014ilwu   0.07400
gfz2014qngj  -0.75810
gfz2014utac   0.33840
gfz2015chhn   1.19300
gfz2015cyjd   0.82120
gfz2015lytv   1.06370
gfz2015qnho   0.36100
gfz2015sfdd   0.78210
gfz2015sfdl   1.19120
gfz2015sfdy   0.76310
gfz2015sfeo   1.69860
gfz2015sfhz   0.75150
gfz2015sfnb   1.86460
gfz2015sfno  -0.52440
gfz2015soxc   0.77100
