# Nsamples: 47  MAD:  0.430  mean: -0.203  variance:  0.411
gfz2010bxxs  -0.56810
gfz2010ebhc   0.29160
gfz2010grjd  -0.73280
gfz2010iull  -0.44120
gfz2010lluj  -1.00670
gfz2010nmpc  -0.75310
gfz2010usho  -0.02730
gfz2011enva  -0.11440
gfz2011gkzt  -0.60410
gfz2011lcxq  -0.34930
gfz2011lzwj  -0.13650
gfz2011rewa   0.82180
gfz2011toub   0.03380
gfz2011wxfs  -0.52330
gfz2012enno  -0.48050
gfz2012jlox  -0.45430
gfz2012kkup   0.21560
gfz2012kudo  -0.18990
gfz2012ldxg  -0.79890
gfz2012ldzj  -0.42400
gfz2012mvwr   0.84820
gfz2012teic   0.18440
gfz2012ttoa   2.05880
gfz2012wypz   0.10570
gfz2013drxz   0.90340
gfz2013jkut  -0.19870
gfz2013svci  -0.08520
gfz2013uauo  -0.57750
gfz2014afmx  -0.03770
gfz2014ande  -0.55650
gfz2014bwue  -0.37500
gfz2014fgvi  -0.55340
gfz2014fhla  -0.76630
gfz2014fkmr   0.69300
gfz2014gkgf  -1.37770
gfz2014gkqf  -0.59290
gfz2014gmnb  -0.19180
gfz2014hasj  -1.34190
gfz2014jpep   1.41470
gfz2014nqfm  -0.35310
gfz2014oinz  -0.63100
gfz2014qqhm   0.08600
gfz2014ssvz  -0.44960
gfz2015cyjd   0.05710
gfz2015gckd  -0.70920
gfz2015hgbk  -0.48130
gfz2015lhjy  -0.38340
