# Nsamples: 8  MAD:  0.411  mean:  0.127  variance:  0.398
gfz2010iull   0.22490
gfz2011enva   1.18780
gfz2011lcxq   0.09800
gfz2011wxfs   0.04010
gfz2012wypz   0.31420
gfz2013nkgj  -1.17050
gfz2013nwdi   0.56300
gfz2014bwue  -0.24160
