# Nsamples: 72  MAD:  0.642  mean: -0.014  variance:  1.000
gfz2013mqmv  -0.62780
gfz2013ncjp   3.33130
gfz2013nkgj   0.70290
gfz2013nwdi  -0.45060
gfz2013ozku  -0.52190
gfz2013pfbx   0.44630
gfz2013svci   0.10600
gfz2013vjjc   2.38690
gfz2013xsdt  -0.58800
gfz2013ypdc  -0.50850
gfz2014afmx   1.18270
gfz2014ande  -0.57500
gfz2014bwue  -0.05410
gfz2014fgvi   0.48500
gfz2014fhla   0.23800
gfz2014fhwx  -1.94070
gfz2014fkmr  -2.96680
gfz2014ftka   0.51090
gfz2014fval   0.16200
gfz2014gkgf  -0.02890
gfz2014gkhp   0.66970
gfz2014gkhy   1.08360
gfz2014gkjt   0.33970
gfz2014gkqf  -0.14580
gfz2014gkqu   1.26530
gfz2014glcu   0.83580
gfz2014gmge  -2.69870
gfz2014gmhr   1.16680
gfz2014gmnb   0.38420
gfz2014goba  -0.19560
gfz2014gull   1.42560
gfz2014gwab   0.45200
gfz2014gxxo   0.07580
gfz2014hasj   0.46660
gfz2014hocg   0.03900
gfz2014huaj  -0.19230
gfz2014itkw  -1.23760
gfz2014jjhc  -0.54740
gfz2014jpep   0.04590
gfz2014lgqn  -0.04550
gfz2014lxnc   0.52570
gfz2014lyhk   0.27540
gfz2014macx   0.56820
gfz2014nqfm   0.45150
gfz2014nrie   0.21470
gfz2014oinz  -0.88440
gfz2014owxc  -0.44870
gfz2014qlxd  -0.77160
gfz2014qqhm  -1.94020
gfz2014ssvz   0.19710
gfz2014ubwn   0.02840
gfz2014vhms   0.00000
gfz2014vjoz  -0.05580
gfz2015chhn   0.55030
gfz2015cyjd  -0.30510
gfz2015egxq  -1.21420
gfz2015fjhk  -0.47890
gfz2015fsjj  -0.30900
gfz2015jzcv   0.52730
gfz2015kkth  -0.13220
gfz2015kxxs   1.04420
gfz2015lhjy   0.35880
gfz2015mpte  -0.08300
gfz2015qvxu  -1.33690
gfz2015sfdd  -0.12890
gfz2015sfdy   0.00190
gfz2015sfno   0.30450
gfz2015smym  -0.04820
gfz2015snwh   0.23700
gfz2015soat  -2.98140
gfz2015svwm   0.18580
gfz2015taml   0.15980
