# Nsamples: 19  MAD:  0.602  mean:  0.177  variance:  0.422
gfz2010grjd  -1.37800
gfz2010iull   0.01470
gfz2011aatr   0.10800
gfz2011enva   1.34410
gfz2011hlsa   0.68260
gfz2011lcxq  -0.00000
gfz2011lzwj   0.09810
gfz2011rewa   1.23490
gfz2011wxfs  -0.29790
gfz2012enno   0.71730
gfz2012jlox  -0.45800
gfz2012kkup   0.42810
gfz2012kudo   0.16660
gfz2012ldxg   1.17540
gfz2012vrgb   0.25810
gfz2012wypz  -0.09740
gfz2013drxz  -0.36550
gfz2013jkut   0.20700
gfz2014gkgf  -0.48380
