# Nsamples: 14  MAD:  0.386  mean:  0.512  variance:  0.381
gfz2010iull  -0.12730
gfz2010nmpc   1.67360
gfz2011aatr   0.50690
gfz2011enva   0.70390
gfz2011lcxq   0.67170
gfz2011toub   0.75150
gfz2011wxfs   0.36220
gfz2012jlox   0.26810
gfz2012kkup   1.19530
gfz2012kudo   0.73510
gfz2012ldxg  -0.59420
gfz2012wypz   0.88290
gfz2014gkgf  -0.67400
gfz2014ssvz   0.81310
