# Nsamples: 1875  MAD:  0.456  mean: -0.020  variance:  0.452
gfz2010aerk   0.09990
gfz2010ahqi  -0.00170
gfz2010aykj  -1.29980
gfz2010bfzs   0.29070
gfz2010bgth  -0.07150
gfz2010bhhq  -1.12320
gfz2010bifb  -0.56730
gfz2010bjeb  -0.21760
gfz2010bjjx   0.49830
gfz2010bjsl  -2.32210
gfz2010bkob   0.11140
gfz2010bkos   0.35500
gfz2010bowy  -0.21370
gfz2010boxo  -1.98760
gfz2010bxxs  -0.06630
gfz2010caft  -0.13520
gfz2010cbkg  -0.16140
gfz2010cdbt  -0.11410
gfz2010civi   0.74260
gfz2010ckeu   0.16140
gfz2010ckzm   0.08500
gfz2010cnwc   0.50600
gfz2010cqwl  -0.34870
gfz2010ctuw  -0.36570
gfz2010czps  -0.36600
gfz2010ddzo  -0.32480
gfz2010dejx   0.11440
gfz2010dfru   0.32670
gfz2010diqn   0.30360
gfz2010dumm  -0.12830
gfz2010eaoy   0.58150
gfz2010eapk   0.09770
gfz2010eapn  -0.37180
gfz2010eaqe  -0.38520
gfz2010eaqx   0.36130
gfz2010eaqy   1.39120
gfz2010earq   0.65940
gfz2010earu  -0.73550
gfz2010easf  -0.32070
gfz2010eask   0.09440
gfz2010easo   0.31920
gfz2010easu   0.15070
gfz2010eati   0.37440
gfz2010eato   0.08060
gfz2010eatt  -2.00100
gfz2010eaty   0.64090
gfz2010eaul   0.52110
gfz2010eavd   0.78170
gfz2010eavp  -0.70210
gfz2010eavs   0.56700
gfz2010eawb   0.60210
gfz2010eawu  -4.29820
gfz2010eaxa   0.12590
gfz2010eayd   0.58170
gfz2010eayp   0.12190
gfz2010eayx  -0.20660
gfz2010eaze  -0.03000
gfz2010eazu  -1.53730
gfz2010ebbd   0.03080
gfz2010ebbx   0.90180
gfz2010ebdl   0.17580
gfz2010ebeh   0.87080
gfz2010ebek   0.48610
gfz2010ebfa   0.45110
gfz2010ebfx   0.11200
gfz2010ebgj   0.50700
gfz2010ebhc   0.49990
gfz2010ebin  -1.20800
gfz2010ebiv   0.47580
gfz2010ebjg   0.63400
gfz2010ebjy   0.38180
gfz2010ebkj  -0.31120
gfz2010ebkx   0.13760
gfz2010ebla   0.05640
gfz2010ebll   0.10920
gfz2010ebmb  -0.03210
gfz2010ebmi   0.15720
gfz2010ebnn  -0.19270
gfz2010ebpa  -0.36470
gfz2010ebqt   0.83880
gfz2010ebqz  -0.80020
gfz2010ebrm   0.30250
gfz2010ebsv   1.79560
gfz2010ebtk   0.21630
gfz2010ebvm   0.94930
gfz2010ebvv   0.08610
gfz2010ebwp   0.50660
gfz2010ebxl   0.48950
gfz2010ebze  -0.30600
gfz2010ebzk  -0.02150
gfz2010ebzr   0.02400
gfz2010ecam   0.95280
gfz2010ecay  -0.11970
gfz2010ecbi   0.48990
gfz2010eccq   0.15030
gfz2010ecdu  -0.06480
gfz2010eced   0.07030
gfz2010ecft   0.24200
gfz2010ecfx   0.24320
gfz2010ecfy   0.32910
gfz2010ecgh   0.45200
gfz2010echc   0.27430
gfz2010echt  -0.20570
gfz2010echy   0.20580
gfz2010ecka  -0.92690
gfz2010ecls   0.28250
gfz2010ecml  -0.23640
gfz2010ecnm  -0.31530
gfz2010ecns   0.57150
gfz2010ecpg  -0.23790
gfz2010ecps   0.20450
gfz2010ecro  -0.99280
gfz2010ecsp   1.48050
gfz2010ectq   0.88900
gfz2010ecua  -0.15380
gfz2010ecuv   0.11650
gfz2010ecvt   0.14350
gfz2010ecyr  -0.32880
gfz2010edad  -0.19490
gfz2010edat  -0.24810
gfz2010eday  -0.21510
gfz2010edbz   0.54730
gfz2010edcp  -0.14360
gfz2010edde   0.86390
gfz2010edhr  -0.15850
gfz2010edhv   0.35380
gfz2010edim   0.34050
gfz2010edji   0.16950
gfz2010edkp  -0.06860
gfz2010edoq   0.34820
gfz2010edpb   0.36160
gfz2010edqd  -0.57340
gfz2010edqh  -0.36900
gfz2010edsk  -0.19430
gfz2010edsn   1.74420
gfz2010edsy  -0.72110
gfz2010edvf  -0.00000
gfz2010edyi  -0.65680
gfz2010edzb  -0.07550
gfz2010eedu  -0.25000
gfz2010eedz   1.05870
gfz2010eefh   0.21070
gfz2010eefo  -0.50440
gfz2010eegn  -0.41130
gfz2010eeia   0.57500
gfz2010eeij  -0.33920
gfz2010eekg   0.86340
gfz2010eekq  -0.41690
gfz2010eell   0.79820
gfz2010eeng   0.67680
gfz2010eeqy  -1.93880
gfz2010eerh   0.45730
gfz2010eern   0.21300
gfz2010eesf   0.55680
gfz2010eevu   0.12250
gfz2010eexz   0.21440
gfz2010eeyh   0.11110
gfz2010efak   0.67490
gfz2010efbh  -0.68810
gfz2010efbi  -0.44680
gfz2010efkc   0.03660
gfz2010efls  -0.32740
gfz2010efnf  -0.52610
gfz2010efsq  -0.88590
gfz2010efwo   0.11500
gfz2010efxf  -1.17440
gfz2010egap   0.26190
gfz2010eghq  -0.06390
gfz2010egld   0.16730
gfz2010egln   0.05130
gfz2010egmp   0.11840
gfz2010egqh   0.29920
gfz2010egsw   0.27750
gfz2010egsy   0.30050
gfz2010egyy   0.23670
gfz2010ehaj  -1.31600
gfz2010eher   0.11570
gfz2010ehft  -0.03750
gfz2010ehrq  -0.17480
gfz2010ehsy  -0.65860
gfz2010ehvj   0.18230
gfz2010ehxz   1.14770
gfz2010eimf   0.79160
gfz2010eioi   0.23640
gfz2010eisx  -0.36610
gfz2010eixj  -0.67680
gfz2010ejae  -0.32160
gfz2010ejco   0.03300
gfz2010ejjg  -0.05870
gfz2010ejju   0.44270
gfz2010ejka  -0.00120
gfz2010ejma   0.42800
gfz2010ejxf  -0.12160
gfz2010ekaw   0.05050
gfz2010ekoe   0.16090
gfz2010ekrv  -0.16230
gfz2010ekyc  -0.42040
gfz2010elhv  -0.09540
gfz2010elin  -0.54630
gfz2010eljf  -1.25630
gfz2010elsw   0.26350
gfz2010eltf   0.55180
gfz2010elvp  -0.07790
gfz2010elxi  -0.40650
gfz2010elyc  -1.18990
gfz2010elyo  -0.29150
gfz2010elzf  -0.29790
gfz2010elzl   0.72730
gfz2010emoz  -1.00670
gfz2010emyz  -0.04340
gfz2010encm  -0.87050
gfz2010engw   2.78270
gfz2010enpa  -4.10720
gfz2010ensu   0.42350
gfz2010enzl  -0.19230
gfz2010eoao  -4.55370
gfz2010eohh  -1.28180
gfz2010eomb  -0.25350
gfz2010epbe  -0.19740
gfz2010epud  -1.20790
gfz2010epxj  -0.42990
gfz2010epzk   0.60660
gfz2010eqcn  -0.12380
gfz2010eqjg   0.21910
gfz2010eqmu  -3.46540
gfz2010eqse  -0.18350
gfz2010eqwl  -1.16260
gfz2010erda   0.01610
gfz2010erdi   0.58650
gfz2010erfy  -0.81560
gfz2010erig  -0.51910
gfz2010erkn   0.36820
gfz2010erna  -0.55210
gfz2010erom  -0.04550
gfz2010erum  -0.50860
gfz2010eruy  -1.19840
gfz2010erwn  -0.75330
gfz2010erxk   0.20850
gfz2010eryg   0.32440
gfz2010esid   0.15300
gfz2010esmg   0.52710
gfz2010esou  -0.90120
gfz2010eted  -0.67640
gfz2010etfw  -0.45470
gfz2010euae   0.29680
gfz2010euan   0.58760
gfz2010euii   0.59480
gfz2010eujm   0.23320
gfz2010eutw   0.51180
gfz2010euvl  -0.32860
gfz2010euwb   1.14760
gfz2010euxe  -0.07710
gfz2010evco   0.75970
gfz2010evgf   0.03900
gfz2010evjv   0.96920
gfz2010evkd   0.69180
gfz2010ewbc   0.08240
gfz2010ewpq   0.85220
gfz2010ewvc   0.09810
gfz2010ewyu   0.28210
gfz2010excp   0.18190
gfz2010exdd   0.13660
gfz2010exdl   0.32500
gfz2010exed   0.41500
gfz2010exel   0.52960
gfz2010exfb   0.45140
gfz2010exgb   0.16120
gfz2010exhd  -0.05690
gfz2010exhw  -0.21300
gfz2010exjw   0.43870
gfz2010exlm   0.28200
gfz2010exmc  -0.14480
gfz2010exno   0.24310
gfz2010exou   0.25790
gfz2010exqu  -0.15690
gfz2010exts   0.72640
gfz2010exyp  -0.10150
gfz2010eyaz  -0.09890
gfz2010eybj  -0.74110
gfz2010eyhh   0.05760
gfz2010eyiv   0.21790
gfz2010eymr   0.68100
gfz2010eymx  -0.46550
gfz2010eyvq   0.66670
gfz2010eyxe   0.60520
gfz2010ezax   0.03720
gfz2010ezck   0.29650
gfz2010ezig   1.04410
gfz2010ezjk   1.18870
gfz2010ezuj  -0.09760
gfz2010ezvg  -0.16740
gfz2010ezvt  -0.82790
gfz2010ezwz   0.00580
gfz2010ezxd   0.38050
gfz2010faeu  -0.52510
gfz2010falm   0.32560
gfz2010fauz  -0.90700
gfz2010faxg  -1.56420
gfz2010fbeu  -0.97810
gfz2010fbpi  -0.78550
gfz2010fcax  -0.45750
gfz2010fcdw  -0.29960
gfz2010fciw   0.01950
gfz2010fcnt  -0.48910
gfz2010fcxy   0.18260
gfz2010fcyj   0.76220
gfz2010fczt   0.19790
gfz2010fdab   1.70850
gfz2010fedq   0.50670
gfz2010fefr  -3.40330
gfz2010fexw   0.02140
gfz2010ffhq   0.63660
gfz2010ffjb  -0.61540
gfz2010ffui  -0.80560
gfz2010fhbl   0.89620
gfz2010figq   0.63020
gfz2010fihj  -0.74510
gfz2010fika   0.53320
gfz2010fisf   0.15600
gfz2010fixr   0.09830
gfz2010fjas   0.15980
gfz2010fjmu  -0.29150
gfz2010fjni  -0.40260
gfz2010fkia  -0.73180
gfz2010fknh  -0.09310
gfz2010fkvg  -0.42510
gfz2010flha  -0.16770
gfz2010flkj   0.51390
gfz2010floi  -0.58120
gfz2010flxi  -0.10730
gfz2010fmhb  -0.40380
gfz2010fmip  -0.13130
gfz2010fmpy  -2.07590
gfz2010fmwb  -1.36440
gfz2010fneu  -0.40890
gfz2010fnrk  -4.44750
gfz2010fona   0.41700
gfz2010fpmv  -0.54300
gfz2010fpqy   0.30710
gfz2010fqdu  -0.37670
gfz2010fser  -0.35760
gfz2010fsmy  -1.13400
gfz2010fsth   0.34060
gfz2010ftlm  -0.03860
gfz2010fupn  -0.26520
gfz2010fuuy   0.43060
gfz2010fuwa   0.17030
gfz2010fvuc  -0.12790
gfz2010fwny  -0.11800
gfz2010fwpv   0.46640
gfz2010fyed  -0.67480
gfz2010fyen  -0.07860
gfz2010fync   0.25480
gfz2010fzoi   0.44170
gfz2010fzsg   0.31040
gfz2010fzyt   2.71500
gfz2010gcdn   0.14130
gfz2010gceb   0.97050
gfz2010gcrl   0.42730
gfz2010gcrp   0.05730
gfz2010gdch  -3.44410
gfz2010gdld   0.02080
gfz2010geru   0.89910
gfz2010ginm  -0.73450
gfz2010gjia  -0.26860
gfz2010gjvo   0.66550
gfz2010glqr   0.02910
gfz2010glxl   0.49160
gfz2010gmib  -1.11200
gfz2010govu  -0.93830
gfz2010grjd   0.12280
gfz2010grxb  -0.56150
gfz2010gslu  -0.24960
gfz2010gtqs   0.20310
gfz2010gtzt   0.46590
gfz2010gvya  -0.51510
gfz2010gymo  -0.42440
gfz2010gyqp  -0.04080
gfz2010gzxr  -0.46310
gfz2010hakh   2.57590
gfz2010hbka   0.26110
gfz2010hcio  -0.48320
gfz2010hjoc   0.14880
gfz2010hlco  -0.25550
gfz2010hllj   1.11590
gfz2010hlln  -0.47980
gfz2010hlmq   0.20930
gfz2010hlvr   0.53420
gfz2010hmhm   0.22590
gfz2010hnnf  -0.57620
gfz2010hnpi   0.60100
gfz2010hnzr   0.94600
gfz2010homc  -0.95990
gfz2010hptz   0.36520
gfz2010hrkr  -0.07950
gfz2010hrpr   0.26150
gfz2010htdq  -1.36250
gfz2010hxbs   0.80470
gfz2010hxgv   0.79120
gfz2010hxhe   0.33290
gfz2010hykt   0.98760
gfz2010hzar   0.33430
gfz2010iauj   0.25830
gfz2010ibiy   0.03600
gfz2010iciq   0.84850
gfz2010iefy   0.50220
gfz2010ihrq  -0.11710
gfz2010iibf   0.46340
gfz2010iimu  -0.27100
gfz2010ijtk   0.06830
gfz2010imfv   0.32760
gfz2010imsh  -0.32080
gfz2010iobp   0.22830
gfz2010iphd  -0.38210
gfz2010ipsg  -0.28620
gfz2010iqep   1.05250
gfz2010iqfm  -0.30860
gfz2010iqus   0.34910
gfz2010irqr  -0.38900
gfz2010irvf  -0.16900
gfz2010isrp   0.09380
gfz2010itpb   0.42760
gfz2010iull   0.21700
gfz2010ixyc   1.83790
gfz2010izzj   0.45220
gfz2010jagd   0.66710
gfz2010jant  -1.37930
gfz2010jatq  -0.07860
gfz2010jhie  -0.41130
gfz2010jipf   0.34140
gfz2010jkxj  -1.23280
gfz2010jlhj   0.70800
gfz2010jpss   0.78570
gfz2010jpyj   0.68000
gfz2010jqxx   0.03670
gfz2010jssh   0.42950
gfz2010jsuh  -0.90690
gfz2010jsuo  -0.62200
gfz2010jtal  -0.43570
gfz2010jwpy   0.06000
gfz2010jxbm   0.16980
gfz2010jygz  -0.05460
gfz2010jzku  -0.97470
gfz2010kcoo   0.17350
gfz2010kdyc  -0.08220
gfz2010kgws  -0.07780
gfz2010kihf  -1.65510
gfz2010kjmp  -0.23470
gfz2010kmgg   0.49180
gfz2010kmsv  -0.47140
gfz2010kown  -1.99190
gfz2010kyvj   1.31490
gfz2010lcoq   0.18330
gfz2010lczp  -2.01450
gfz2010lepw   0.60630
gfz2010lgwy   0.04470
gfz2010liqs   0.33880
gfz2010lkcf  -0.20110
gfz2010lopz   0.47120
gfz2010lrlk  -0.48940
gfz2010lwuq   1.71570
gfz2010lyfk   0.33120
gfz2010mant   0.13650
gfz2010mbje   0.67970
gfz2010mcrx   0.64540
gfz2010mdpq  -0.89190
gfz2010mfpt   0.86180
gfz2010mgss  -0.36560
gfz2010mhjt  -0.09610
gfz2010miqn   0.20490
gfz2010mkuu   0.00770
gfz2010mlkz   0.04110
gfz2010mlta  -1.59970
gfz2010mncc  -0.50310
gfz2010mnhm   0.34740
gfz2010mnsz   0.02080
gfz2010moyw  -0.06790
gfz2010mpuy   0.20850
gfz2010msjj   0.89550
gfz2010mtab  -0.69880
gfz2010muca  -0.15320
gfz2010mwdq  -0.52430
gfz2010mzjr  -0.37750
gfz2010ncrl   0.39200
gfz2010nfsj   0.50160
gfz2010nlkh  -0.32040
gfz2010nmpc  -1.36360
gfz2010nnny  -0.19530
gfz2010nqwf   0.45410
gfz2010nqwo   0.34090
gfz2010nrew   0.40500
gfz2010nrjo   0.09370
gfz2010nsck   0.33600
gfz2010nsdf   0.32900
gfz2010nsjs   0.05540
gfz2010ntuo   0.03510
gfz2010nubk  -0.37110
gfz2010nwef  -0.12080
gfz2010nxsy   0.52320
gfz2010nxum   0.06410
gfz2010nzha  -2.96720
gfz2010nzla  -0.43920
gfz2010ocxq   0.74520
gfz2010odpb   0.63450
gfz2010oedn  -0.33820
gfz2010okdm   0.13660
gfz2010oluw   0.59010
gfz2010onma   0.12070
gfz2010osjs  -0.20810
gfz2010otbn  -0.09570
gfz2010oyqy   1.64640
gfz2010pbdz  -0.53610
gfz2010pcxi  -0.22280
gfz2010pdtk  -0.54150
gfz2010pets   0.35730
gfz2010pewa   0.27270
gfz2010pewx   0.10300
gfz2010pexf   0.41850
gfz2010pfyu   0.08700
gfz2010phvg  -0.29730
gfz2010plbg  -0.13380
gfz2010pmqd   0.04490
gfz2010pqck   0.42290
gfz2010pxak   0.09370
gfz2010pxgh   0.56210
gfz2010pxls  -0.08120
gfz2010qjst   0.45010
gfz2010qpcq   0.51260
gfz2010qpum   0.59450
gfz2010qpvi   0.51730
gfz2010qwwx   1.72590
gfz2010rhas  -3.28620
gfz2010rkfp  -0.56310
gfz2010rlbv  -0.79310
gfz2010rqwj  -0.50400
gfz2010rywq  -0.83040
gfz2010rzrr  -0.90980
gfz2010rzsd  -1.26410
gfz2010sfee  -0.15850
gfz2010sfla  -1.12480
gfz2010sgzk   0.70220
gfz2010skqo  -0.31070
gfz2010skve  -0.65750
gfz2010srdb  -0.37490
gfz2010suww  -0.36240
gfz2010svtn  -0.21510
gfz2010svve   0.90290
gfz2010swcy   0.09030
gfz2010sxwt  -0.41670
gfz2010sysw  -0.54030
gfz2010szde  -0.46440
gfz2010szim   0.47310
gfz2010tcbr  -0.32160
gfz2010tcrl  -0.04240
gfz2010titk  -1.15360
gfz2010tlfm   0.44220
gfz2010truw   0.13960
gfz2010txjs   0.00000
gfz2010uept  -0.18160
gfz2010upfb  -0.05350
gfz2010upiw   0.80280
gfz2010urlq  -0.31620
gfz2010usho   0.38510
gfz2010ustq   0.03630
gfz2010utcg   0.36170
gfz2010utmc  -0.19150
gfz2010utvp  -0.28690
gfz2010uyhb  -0.26720
gfz2010uzon   0.33820
gfz2010veri  -0.24930
gfz2010vhuj   0.21720
gfz2010vtdg  -0.06550
gfz2010vyxd  -0.28840
gfz2010vzpr  -0.23790
gfz2010wioh   0.02800
gfz2010wnty  -0.09310
gfz2010wntz   0.72330
gfz2010wofs  -1.03860
gfz2010wrxx  -1.48680
gfz2010wxqa  -0.54380
gfz2010xbdv  -0.71580
gfz2010xbgs   0.15020
gfz2010xche  -0.25750
gfz2010xden   0.25060
gfz2010xgfc   0.67530
gfz2010xgzw  -0.08390
gfz2010xjck  -0.06760
gfz2010xjsj   0.21340
gfz2010xmpr   1.44510
gfz2010xnxk  -0.50690
gfz2010xxdb  -0.26870
gfz2010xxzn  -6.18170
gfz2010yfsv   0.18350
gfz2010yjev  -0.90960
gfz2010ymfy  -0.47610
gfz2010ymur  -0.55210
gfz2010yosr  -0.03450
gfz2010yqqv  -0.30100
gfz2010yqwx  -3.39060
gfz2011aatr   0.48530
gfz2011adjs  -0.67320
gfz2011adlj   0.93510
gfz2011adpw   0.28550
gfz2011adqk   0.71810
gfz2011aeay   0.28570
gfz2011aldv  -0.32150
gfz2011alip  -0.09190
gfz2011alsa  -0.92220
gfz2011alwf   0.34660
gfz2011aosc   0.24220
gfz2011aqxf  -0.21020
gfz2011blsi  -1.61760
gfz2011bnzn   0.87960
gfz2011bpkd  -0.06030
gfz2011ccpw   0.34060
gfz2011cfae  -0.99540
gfz2011cndo  -0.21990
gfz2011coxh  -0.03890
gfz2011csju  -0.28180
gfz2011cvfg  -0.69920
gfz2011cwgn   0.40640
gfz2011cykd  -0.30100
gfz2011cylz   0.83050
gfz2011cynl  -0.35720
gfz2011cyre   0.67070
gfz2011cyuk  -0.53550
gfz2011czwj   0.78690
gfz2011dbev   0.47860
gfz2011dbig   0.31910
gfz2011dbli   0.81650
gfz2011dbon   0.14040
gfz2011dbwt   0.14810
gfz2011dcqb  -1.81960
gfz2011dcqf   0.10890
gfz2011deaf  -0.17130
gfz2011dkyi   0.24930
gfz2011dlyx   0.07870
gfz2011dndz  -0.45190
gfz2011dpqx   0.37720
gfz2011dtpy   0.30160
gfz2011duyr  -0.41830
gfz2011eayc   0.03570
gfz2011eazf  -0.21340
gfz2011ecaj   0.85520
gfz2011ecsc  -0.18640
gfz2011edmm   0.81120
gfz2011eebc  -0.15050
gfz2011ehzq   0.33310
gfz2011eiis   1.31090
gfz2011eltw  -0.07630
gfz2011enva  -0.26730
gfz2011eocc   0.39620
gfz2011etje   0.46020
gfz2011fdzv   0.11760
gfz2011fgvr  -0.63330
gfz2011fhag  -0.29640
gfz2011fhbm  -0.17250
gfz2011fhur  -0.20220
gfz2011fkbn   0.06220
gfz2011flgj   0.08770
gfz2011fnsw  -0.19070
gfz2011gbmx   0.08580
gfz2011gcwb  -0.05010
gfz2011gdgh  -0.35550
gfz2011ggvf  -0.49710
gfz2011ghky  -0.54170
gfz2011gkey  -0.69170
gfz2011gkzt  -0.99110
gfz2011gzbr  -0.40300
gfz2011haid  -1.06340
gfz2011hbex  -0.18930
gfz2011hebt  -0.23940
gfz2011hfkj   0.10590
gfz2011hlqw  -0.14090
gfz2011hlsa  -0.40610
gfz2011hlth  -0.44330
gfz2011hpgx   0.63160
gfz2011hpqp  -0.13640
gfz2011hrhu   0.81070
gfz2011hryk   0.25540
gfz2011hsfj  -0.34410
gfz2011hvbu  -0.62420
gfz2011ieie   0.76510
gfz2011knoo  -0.17930
gfz2011kqwo   0.95490
gfz2011kqyg   0.85330
gfz2011ksiu   2.86130
gfz2011kweu   0.48270
gfz2011kwhq   2.05760
gfz2011kwid  -0.04720
gfz2011kwiy  -1.42880
gfz2011kwjx   0.22920
gfz2011kwkw   0.16460
gfz2011kwld  -0.03720
gfz2011kwlq   0.41470
gfz2011kwni   0.50920
gfz2011kwqc  -0.53090
gfz2011kwrf   1.97840
gfz2011kwsz   0.06710
gfz2011kxzp   0.14870
gfz2011lcxq   0.36020
gfz2011lggq  -0.07610
gfz2011lgsg  -0.27870
gfz2011lhls   0.11380
gfz2011lvjr  -0.71300
gfz2011lzwj   0.55200
gfz2011mdie   0.48720
gfz2011mepc   0.11470
gfz2011mjom   1.02020
gfz2011mpme  -0.46440
gfz2011mprq  -0.25630
gfz2011myia   0.17940
gfz2011necz   0.34020
gfz2011nmnq  -0.00000
gfz2011noud  -1.80890
gfz2011npgs   1.12850
gfz2011nrwc  -0.51820
gfz2011nsex  -0.53160
gfz2011ntkh   0.47470
gfz2011ntrv   0.75170
gfz2011nudm  -0.07970
gfz2011ogqk  -0.82750
gfz2011ohcy   0.42560
gfz2011oiqe   0.28770
gfz2011oiwk  -0.17290
gfz2011olkk   0.50120
gfz2011orgn   0.51410
gfz2011ornx   0.32840
gfz2011owvz   0.17020
gfz2011pccd   0.46330
gfz2011pdpt  -0.68440
gfz2011pdst  -0.53910
gfz2011phms  -0.40480
gfz2011pntf  -0.30730
gfz2011ptus  -0.47470
gfz2011qigx  -0.46070
gfz2011qvae  -0.32380
gfz2011qyms  -0.21550
gfz2011rabm  -1.10900
gfz2011rewa  -0.19410
gfz2011rgwp  -0.48780
gfz2011rqui  -0.36310
gfz2011rsrh   0.31690
gfz2011rznl  -0.25380
gfz2011sagt   0.31590
gfz2011shqm   0.32170
gfz2011svix   0.34020
gfz2011tbas   0.22050
gfz2011tcij   0.79610
gfz2011tjrf  -0.69740
gfz2011tjue   0.49670
gfz2011tkfp  -0.83230
gfz2011tkog  -0.34720
gfz2011tnag   0.08960
gfz2011toub   0.45200
gfz2011tpfr  -0.02050
gfz2011tsfd   4.99010
gfz2011tsnp  -2.06030
gfz2011twov  -0.05980
gfz2011udsq  -0.86510
gfz2011uepx  -0.05850
gfz2011ugzz  -0.43230
gfz2011ujze  -0.18640
gfz2011ukmp  -0.95630
gfz2011uphh  -0.22830
gfz2011urxy  -0.32060
gfz2011urzu   0.09750
gfz2011uzqv   0.30550
gfz2011vhfi   0.29440
gfz2011vnza   0.24010
gfz2011vxns  -0.17850
gfz2011wcic   0.24020
gfz2011wfja   0.00000
gfz2011wijj   0.46510
gfz2011wjkf  -0.26360
gfz2011wjul  -0.11120
gfz2011wvzb   0.41580
gfz2011wwjs   0.03290
gfz2011wxfs  -0.18060
gfz2011wxoj  -1.24780
gfz2011wxtk  -0.25470
gfz2011wype  -0.39850
gfz2011xaan  -0.36430
gfz2011xcpv   0.02050
gfz2011xesx   0.00000
gfz2011xqru  -1.36670
gfz2011xyxj   0.25250
gfz2011yfdx   0.61200
gfz2011yhwz  -0.23300
gfz2011ytnu   0.32060
gfz2011zjap   0.22480
gfz2011zklv  -0.53850
gfz2011zlrd  -0.13010
gfz2011zqhh  -0.20010
gfz2012ajtq   0.52000
gfz2012aqgp  -0.25750
gfz2012attr  -0.06690
gfz2012bfah  -0.04780
gfz2012bfyn   1.18770
gfz2012bngd   0.52390
gfz2012bpkx   0.54510
gfz2012bpnl   0.25850
gfz2012bpwl  -0.07360
gfz2012bqeb  -0.20330
gfz2012brhv   0.64680
gfz2012bszs  -0.38270
gfz2012byad  -0.35900
gfz2012cevz  -0.30850
gfz2012cgvr   0.49770
gfz2012ckxi   1.41190
gfz2012cmfy  -0.37560
gfz2012cnod  -0.28010
gfz2012covm  -0.03970
gfz2012cqnl   0.03340
gfz2012cqtc  -0.65910
gfz2012cxdn   0.44680
gfz2012czlw   0.34140
gfz2012dfhq   0.15430
gfz2012dimn   1.05730
gfz2012dinb   0.06540
gfz2012djwi  -0.41640
gfz2012dyyh  -0.09690
gfz2012ekda  -0.09880
gfz2012ekzf  -0.30560
gfz2012elce  -0.18920
gfz2012emjg   0.54370
gfz2012enno   0.41020
gfz2012eskt  -0.01610
gfz2012ewgo  -0.24750
gfz2012fbfo  -1.13410
gfz2012fhnh  -0.50310
gfz2012fivh   0.86730
gfz2012foeo   0.22280
gfz2012fqcg   0.12280
gfz2012fwfo   0.01930
gfz2012fwtr  -0.58010
gfz2012fzfa  -0.05250
gfz2012fzsq  -0.02770
gfz2012gkvr   0.22490
gfz2012glss   0.83810
gfz2012gocc  -0.95680
gfz2012gomm   0.11540
gfz2012gukw  -0.86760
gfz2012hdbm   0.37830
gfz2012hnul  -0.22810
gfz2012hnuw  -0.00000
gfz2012holl  -0.17210
gfz2012hwmz  -0.44920
gfz2012hyaa  -0.51770
gfz2012hzbe  -0.24960
gfz2012iamr   1.76550
gfz2012icmv  -1.36310
gfz2012ihdl  -0.16680
gfz2012iivw  -0.09180
gfz2012ilvn  -0.24640
gfz2012imay  -0.35140
gfz2012jgvj   0.59050
gfz2012jjzc  -0.30150
gfz2012jlox   0.30880
gfz2012jqvn   0.37670
gfz2012jshk  -0.87550
gfz2012jupx  -0.18540
gfz2012kbjb   1.21220
gfz2012kbzj  -0.32680
gfz2012kdmb   0.21880
gfz2012keor  -0.41030
gfz2012kkup  -0.01090
gfz2012klba  -0.18660
gfz2012klhx  -0.15810
gfz2012kuct  -0.50400
gfz2012kudo  -0.61120
gfz2012kvzv  -0.25780
gfz2012kwgo  -0.08580
gfz2012lczo  -0.39060
gfz2012ldgs   0.39770
gfz2012ldxg  -0.08030
gfz2012ldzj  -0.15060
gfz2012ledy   0.92090
gfz2012lltr   0.87910
gfz2012llug  -0.86980
gfz2012lrsv  -0.82240
gfz2012lxkv   0.49670
gfz2012minr  -0.40570
gfz2012mkpn  -0.19430
gfz2012mlyf  -0.78330
gfz2012mofm   0.22580
gfz2012mpvy  -0.15670
gfz2012mpyl  -0.44740
gfz2012mvwr  -0.15320
gfz2012mwij   0.15640
gfz2012myqa   0.72650
gfz2012naqz  -0.02110
gfz2012nbtn  -0.51280
gfz2012nedn  -0.59250
gfz2012ngic  -0.22440
gfz2012njha  -0.04690
gfz2012nkdf  -0.83850
gfz2012nojx   0.24650
gfz2012nqnk   0.22820
gfz2012nsbz  -0.55680
gfz2012ntzv  -1.21460
gfz2012nutf  -0.29620
gfz2012nxog   0.43650
gfz2012nxyt  -0.12570
gfz2012oazn   0.21150
gfz2012obgw  -0.58410
gfz2012oedb  -0.08940
gfz2012omvo  -0.15150
gfz2012oqmw   0.17000
gfz2012ostk  -0.24840
gfz2012pciw  -0.40420
gfz2012peex  -0.29860
gfz2012pgcl   0.28330
gfz2012pkel  -0.20860
gfz2012plea  -0.22670
gfz2012pqmu  -1.00100
gfz2012prlt   0.96940
gfz2012qxcy  -0.58770
gfz2012rats   0.24610
gfz2012rcnj   0.14830
gfz2012repv  -0.51060
gfz2012rjsd  -0.05770
gfz2012ronz  -0.51350
gfz2012royy   1.17040
gfz2012rwko   0.00340
gfz2012rwov  -0.23570
gfz2012rwql  -0.23020
gfz2012rypu   0.11190
gfz2012snhi  -1.67590
gfz2012spbj  -0.11080
gfz2012sphd   0.39190
gfz2012sqvi  -0.66420
gfz2012syvl   0.14840
gfz2012tazz   0.30520
gfz2012teic  -0.58780
gfz2012thfx  -0.26450
gfz2012tmop  -0.00000
gfz2012tpzx  -0.50570
gfz2012ttoa   0.15840
gfz2012tvmv   0.46330
gfz2012tzcc   0.33580
gfz2012uafg   0.15570
gfz2012uaqj  -0.54860
gfz2012uciv  -0.06090
gfz2012ueqo  -0.17930
gfz2012ufew   0.92100
gfz2012uhup   0.21730
gfz2012usba  -0.49890
gfz2012uvqf   0.60520
gfz2012uyxb   0.52170
gfz2012uzom  -0.16480
gfz2012uzyj  -1.63730
gfz2012vpza  -0.45330
gfz2012vrgb   0.14120
gfz2012wklq  -0.06830
gfz2012wmkd   0.31060
gfz2012wmsg  -0.74350
gfz2012wrir   0.18110
gfz2012wtkh  -1.07860
gfz2012wtkr   0.17200
gfz2012wvfl   0.70010
gfz2012wxer   0.48700
gfz2012wxlg  -0.24590
gfz2012wxnu   0.48570
gfz2012wybs  -0.32680
gfz2012wypz   0.24740
gfz2012xbjq   0.36780
gfz2012xgqm   0.10900
gfz2012xjyv  -0.41080
gfz2012xkkv  -1.71150
gfz2012xmxy  -0.27980
gfz2012xslk  -0.68930
gfz2012xwqa  -0.14430
gfz2012xyqp   1.60040
gfz2012yfrp   0.65430
gfz2012yxxu   0.25190
gfz2012yzod  -0.09750
gfz2012zemh  -0.15570
gfz2012zemz  -0.56190
gfz2012zfag  -0.10060
gfz2012zitl   0.21550
gfz2012zjpv  -0.20160
gfz2012zjre   0.18960
gfz2012zklq  -0.65910
gfz2012zmbp  -0.70920
gfz2012zmln   0.30030
gfz2013aayj  -0.74980
gfz2013acag   0.99730
gfz2013adey   0.16110
gfz2013aqaw   0.21850
gfz2013bdpu   0.01830
gfz2013bnxc   0.14190
gfz2013bokp   0.10750
gfz2013bouj  -0.49060
gfz2013bzzm   0.16990
gfz2013cbsm   0.07400
gfz2013ccnr   0.10980
gfz2013cdan   0.49170
gfz2013ciaf  -0.20470
gfz2013cvqg   0.07140
gfz2013cwpn   0.10100
gfz2013cwps  -0.28360
gfz2013dkly  -0.31700
gfz2013dofo  -0.06320
gfz2013dojq  -0.35830
gfz2013drxz  -0.44920
gfz2013dsog  -0.51910
gfz2013dspt  -2.87070
gfz2013dsrk  -1.10320
gfz2013dujm  -0.13800
gfz2013dvyh  -0.27970
gfz2013egni   0.37380
gfz2013egpu  -0.22660
gfz2013ekpm  -0.06580
gfz2013enbx  -0.61480
gfz2013ewbo   0.37970
gfz2013fdoo   0.16780
gfz2013feep  -0.16920
gfz2013figy   0.90790
gfz2013fiud  -0.11370
gfz2013fkcl   0.29560
gfz2013fkii   0.34460
gfz2013flox   0.09740
gfz2013ftso   0.05040
gfz2013fygc  -0.55330
gfz2013gbst  -0.35620
gfz2013gcfx  -1.44540
gfz2013gdgf  -0.07180
gfz2013gdnq  -0.34320
gfz2013gelv  -0.76350
gfz2013gmor  -0.23310
gfz2013gngz  -0.01600
gfz2013gock  -0.25890
gfz2013goux   0.23510
gfz2013gvdb  -0.01830
gfz2013gvex   0.47700
gfz2013gwrd   0.34170
gfz2013gxsu  -0.63680
gfz2013hbkq   0.17860
gfz2013hdnc   0.60280
gfz2013hfmp   0.17140
gfz2013hkja   0.48950
gfz2013hklr  -2.26990
gfz2013hmbc   0.46330
gfz2013hsfw   0.25140
gfz2013huwr  -0.27530
gfz2013hxcx  -0.14830
gfz2013iayx  -0.05480
gfz2013ifpq  -0.23290
gfz2013ijsr   0.02340
gfz2013ikgo   0.04270
gfz2013ilug   0.46950
gfz2013inux  -0.01830
gfz2013ippu  -0.16850
gfz2013iqzq  -0.20400
gfz2013iunn  -0.40100
gfz2013jesk   0.18620
gfz2013jgij  -0.51510
gfz2013jgip   0.62910
gfz2013jkut   0.67430
gfz2013json  -0.16170
gfz2013jusj  -1.34060
gfz2013jwvc   0.45460
gfz2013kccc  -0.59280
gfz2013kdeo  -0.51900
gfz2013kheb   0.04550
gfz2013khli  -0.33830
gfz2013kilx   0.06750
gfz2013kqln  -0.75530
gfz2013krei   0.13770
gfz2013kvtk   0.10570
gfz2013lajn  -0.23250
gfz2013lbiu   0.70840
gfz2013ldos  -0.61740
gfz2013ldpc  -0.04960
gfz2013ldqb  -0.48010
gfz2013lgnl   0.58440
gfz2013lixa  -0.71150
gfz2013lmqe  -0.13880
gfz2013lsob   0.56880
gfz2013lwbk  -0.56170
gfz2013lxyn   0.23230
gfz2013lyko   0.21830
gfz2013malg   0.18330
gfz2013mmwq  -0.52590
gfz2013mnei  -0.87200
gfz2013mnju   0.07180
gfz2013mqik  -0.61770
gfz2013mqmv  -0.49870
gfz2013mwbh  -0.48540
gfz2013mxee   0.40470
gfz2013ncjp  -0.29440
gfz2013ndin   0.32730
gfz2013neuc   0.24700
gfz2013ngnt   0.58210
gfz2013nixj  -0.10990
gfz2013nkgj  -0.34130
gfz2013nmac   0.14950
gfz2013nojf   0.92160
gfz2013nqgw  -0.52140
gfz2013nuvi  -0.21320
gfz2013nvdj  -1.23000
gfz2013nwdi   0.35470
gfz2013ogde   0.27500
gfz2013onjy  -0.47360
gfz2013oqsc  -0.19870
gfz2013orzn   0.30310
gfz2013ozku   0.52220
gfz2013ozqm   0.65260
gfz2013ozrf  -0.44580
gfz2013pcos   0.03590
gfz2013pfbx   0.42690
gfz2013pfeb  -0.74370
gfz2013pfnf   0.83740
gfz2013phef  -0.16410
gfz2013pkbs  -0.22490
gfz2013plhp  -0.24510
gfz2013poxj   0.96000
gfz2013puag  -0.02690
gfz2013pxsj   0.22970
gfz2013qali  -0.23400
gfz2013qesa   0.40190
gfz2013qfmm   1.08030
gfz2013qmer   0.11520
gfz2013qnxc  -1.45390
gfz2013qzdq  -0.61510
gfz2013rait  -0.63340
gfz2013rdoo  -0.34770
gfz2013roki   1.09260
gfz2013rsnr  -0.47150
gfz2013rwfe  -0.53380
gfz2013sart  -0.06900
gfz2013sdus   0.52500
gfz2013sfto  -0.43560
gfz2013shzy   0.03710
gfz2013sjhg   0.06720
gfz2013skkm  -0.36170
gfz2013snbr  -0.31570
gfz2013snyf  -0.30410
gfz2013stht   0.41980
gfz2013suvn   0.83740
gfz2013svci   0.76570
gfz2013tcbk  -0.29660
gfz2013tcxc  -0.16300
gfz2013tcxq   0.02480
gfz2013tdau  -0.37240
gfz2013thtc   1.99830
gfz2013tlaf  -0.08210
gfz2013toxf   0.17510
gfz2013tqbb   0.17880
gfz2013tusd  -0.16140
gfz2013tvmw  -0.22230
gfz2013txev  -0.23910
gfz2013txij   0.18980
gfz2013txtb  -0.22250
gfz2013tyas  -0.45080
gfz2013uauo   3.02790
gfz2013ufxk  -1.11390
gfz2013uqsp  -0.24440
gfz2013utsh   0.20800
gfz2013vexx   0.38020
gfz2013vfyw   0.16850
gfz2013vfzp  -0.50570
gfz2013vgau  -1.28290
gfz2013vhzu   0.16850
gfz2013viul  -0.48560
gfz2013vjjc  -0.98170
gfz2013vrmy  -0.52210
gfz2013vsbl   0.23940
gfz2013vvrq   0.18400
gfz2013vzbo   0.39520
gfz2013waam   0.20540
gfz2013wjmm   0.17310
gfz2013wkyk  -1.73700
gfz2013wmfd  -0.18860
gfz2013wnpr   0.20190
gfz2013wpga   0.29960
gfz2013xgmp  -0.18930
gfz2013xizq   0.18960
gfz2013xmul  -0.91630
gfz2013xpfa   0.11800
gfz2013xsdt   0.42990
gfz2013xvqd   0.81100
gfz2013xvxf   0.38090
gfz2013xwda   0.01600
gfz2013xxwv  -0.07870
gfz2013xxxq  -0.88550
gfz2013xyzb   0.17430
gfz2013yaig  -0.22210
gfz2013yctg  -0.21610
gfz2013yhbu   0.14750
gfz2013yhpk   0.49170
gfz2013ylbx   1.91020
gfz2013ymky  -1.39140
gfz2013ypdc  -0.34810
gfz2013yqkv   0.09230
gfz2013yyhc  -0.19070
gfz2013zjel   0.76660
gfz2014abgd   0.19860
gfz2014adoj   0.43030
gfz2014afmx   0.26500
gfz2014ajlk  -0.29600
gfz2014algk  -0.06900
gfz2014ande  -0.24410
gfz2014arpf  -0.14300
gfz2014arqr  -0.38980
gfz2014atgw  -0.11810
gfz2014azqs  -0.25110
gfz2014bagd   0.07900
gfz2014bdfd   1.19200
gfz2014bezu   0.09970
gfz2014bfng   0.49600
gfz2014bhvd   0.11380
gfz2014bldx  -0.36590
gfz2014bmta  -0.59510
gfz2014bwue  -0.20760
gfz2014bzxy  -0.27500
gfz2014caop   0.19830
gfz2014cgog   0.73120
gfz2014chdv  -0.13030
gfz2014claq  -0.25810
gfz2014cmwb   0.40750
gfz2014cqyo  -0.18660
gfz2014cvkm  -0.37390
gfz2014cvxx   0.11490
gfz2014czol   0.13760
gfz2014czqi  -0.52190
gfz2014czua   0.42270
gfz2014dddc   0.45210
gfz2014dffd   0.43350
gfz2014dhxt   0.37700
gfz2014disp  -0.65530
gfz2014duqn   0.06930
gfz2014ebmc   0.33810
gfz2014edfx   0.96300
gfz2014efkk   0.97800
gfz2014eght  -0.10270
gfz2014ehsf  -0.09100
gfz2014ejmt  -0.08010
gfz2014ekcr  -0.22220
gfz2014ekdn   0.42070
gfz2014ekdt   0.16470
gfz2014enhi   0.52970
gfz2014etqa  -0.11320
gfz2014ettc   0.22490
gfz2014exxa  -0.26560
gfz2014fcms   0.50450
gfz2014femz   0.09410
gfz2014fexu   0.06280
gfz2014ffdc  -0.39100
gfz2014fgvi  -0.29360
gfz2014fgvr   0.13530
gfz2014fgvz   0.05360
gfz2014fgxt  -0.62620
gfz2014fgxz   0.11330
gfz2014fgyo   0.14140
gfz2014fgza  -0.67160
gfz2014fhbd   0.25170
gfz2014fhdw   0.09670
gfz2014fhjd   0.59690
gfz2014fhla  -0.57150
gfz2014fhlh   0.14230
gfz2014fhrq   0.43700
gfz2014fhsg   0.08210
gfz2014fhwx   0.45500
gfz2014fimn  -0.01620
gfz2014fiuj   0.06780
gfz2014fjpb   0.35090
gfz2014fjzd   0.51130
gfz2014fkmr  -0.26300
gfz2014fkmx   0.30010
gfz2014fknp   0.10140
gfz2014foio  -0.14960
gfz2014frdz  -0.03090
gfz2014frel   0.85930
gfz2014frez  -0.34180
gfz2014frgm   0.03660
gfz2014frwh   0.10040
gfz2014ftka  -0.45940
gfz2014ftno  -2.10360
gfz2014ftoc   0.15210
gfz2014ftpw   0.66050
gfz2014ftrk  -0.13770
gfz2014furx   0.57950
gfz2014fusc   0.13390
gfz2014fusj  -0.01060
gfz2014fuub  -0.76180
gfz2014fuup  -0.52390
gfz2014fvaa   0.27700
gfz2014fval  -0.03960
gfz2014fvgh  -0.16470
gfz2014fvjl   0.31330
gfz2014fvpy   0.12870
gfz2014fvrg   0.12030
gfz2014fwdr  -1.80540
gfz2014fwyr   1.06640
gfz2014fxhd  -0.60390
gfz2014gbcz  -0.07650
gfz2014gbdq   1.01500
gfz2014geuy  -0.19630
gfz2014gezs  -0.25470
gfz2014ghpe   0.07050
gfz2014gkgf  -0.77900
gfz2014gkhy  -1.08380
gfz2014gkjl  -0.25700
gfz2014gkjt  -0.44300
gfz2014gkjw   0.73450
gfz2014gklq   0.21800
gfz2014gklv   0.57740
gfz2014gkmm   0.25610
gfz2014gkob  -0.66840
gfz2014gkok   0.21340
gfz2014gkpd   0.54450
gfz2014gkpj   0.79900
gfz2014gkqf  -0.32240
gfz2014gkqu  -1.29840
gfz2014gksj   0.20670
gfz2014gksu   0.45000
gfz2014gktq   0.50180
gfz2014gkxm   0.74190
gfz2014glcu   0.07840
gfz2014glcy  -0.37730
gfz2014glgo  -0.90900
gfz2014gltx  -0.12720
gfz2014glvn   1.88330
gfz2014glvu   1.59700
gfz2014glxy  -0.47460
gfz2014gmci  -0.34530
gfz2014gmge  -0.66160
gfz2014gmhp   0.65260
gfz2014gmhr   1.45630
gfz2014gmip   0.11940
gfz2014gmjo  -0.00000
gfz2014gmku  -0.28920
gfz2014gmlz   0.71220
gfz2014gmmk   0.34180
gfz2014gmmt   1.02590
gfz2014gmnb  -0.11720
gfz2014gmnw  -0.06220
gfz2014gmor  -0.06680
gfz2014gmpy   0.22040
gfz2014gmrj   0.30350
gfz2014gmtb   0.03670
gfz2014gmuk  -0.30690
gfz2014gmvr   0.34550
gfz2014gmzl  -0.92140
gfz2014gnfd   0.14250
gfz2014gnfs  -0.26420
gfz2014gngg  -0.40820
gfz2014gnno   0.07250
gfz2014gnnt   0.06590
gfz2014gnre  -0.46790
gfz2014gnsi   0.73930
gfz2014goba  -0.73090
gfz2014goei   0.22570
gfz2014gohm   0.30560
gfz2014goqw   0.24170
gfz2014gpce   0.51960
gfz2014gphr  -0.06720
gfz2014gpuk  -0.04680
gfz2014gpvk  -0.57930
gfz2014gpya   0.34540
gfz2014gqbj   0.30570
gfz2014gqer   1.89060
gfz2014gqiy   0.05670
gfz2014gqve  -0.11190
gfz2014grho  -0.53590
gfz2014gsqs  -0.59720
gfz2014gufl  -1.60680
gfz2014gull   0.56470
gfz2014gulp   0.14450
gfz2014gumd   1.22450
gfz2014gvhw   1.07710
gfz2014gvqj  -0.41880
gfz2014gvra   0.57850
gfz2014gvrd   0.33730
gfz2014gwab  -0.61190
gfz2014gwgf  -0.17880
gfz2014gxkh   0.91800
gfz2014gxxo   0.03370
gfz2014gyxd   0.12840
gfz2014gzrm  -0.42560
gfz2014hagb  -0.04880
gfz2014hasj   0.12860
gfz2014hauo   1.23330
gfz2014hbjm   0.71650
gfz2014hbjz   0.12370
gfz2014hbqb  -0.15790
gfz2014hcmj  -0.21830
gfz2014hfhl   0.17330
gfz2014hfzf  -0.14910
gfz2014hgqo  -1.20410
gfz2014hhwx   0.26060
gfz2014hifp  -1.81430
gfz2014hjgh  -0.16050
gfz2014hjgo   0.26330
gfz2014hjgr   0.01880
gfz2014hjij   0.08180
gfz2014hjlx  -0.72100
gfz2014hkcf   0.27810
gfz2014hkck   0.07420
gfz2014hmgf   0.82020
gfz2014hmrs   0.22940
gfz2014hoap  -0.35630
gfz2014hocg   0.20160
gfz2014hphw  -0.20870
gfz2014hqxs  -1.26580
gfz2014hqyx   0.14710
gfz2014hrft  -0.19320
gfz2014hrtn   0.22680
gfz2014hscz  -0.00910
gfz2014huaj   0.46700
gfz2014hyvq  -0.00000
gfz2014hzdy  -0.20010
gfz2014hzfw   0.13150
gfz2014hzgn  -0.32600
gfz2014hzhe   0.17450
gfz2014iani  -0.07220
gfz2014iava  -0.74070
gfz2014icqt   0.52950
gfz2014ifue   0.12100
gfz2014ijvh  -0.18560
gfz2014imnn  -0.06740
gfz2014inbj   0.26840
gfz2014irci   0.32710
gfz2014ircq   0.58880
gfz2014isub   0.36350
gfz2014isys  -0.31000
gfz2014itab   0.04090
gfz2014itbe  -0.13650
gfz2014itgh  -0.18560
gfz2014itjx   0.26850
gfz2014itkw  -0.39510
gfz2014itpj  -0.00110
gfz2014iuhq   0.56920
gfz2014iwwl   0.13250
gfz2014ixga  -0.21500
gfz2014iywt   0.08640
gfz2014jatq  -0.03850
gfz2014jcjt  -0.78060
gfz2014jird   0.56990
gfz2014jjhc   0.36030
gfz2014jjln   0.12530
gfz2014jjqk  -0.76420
gfz2014jkxe   0.71570
gfz2014jnxm   0.08700
gfz2014jnyv  -0.17610
gfz2014jomw  -0.19300
gfz2014jpep  -0.03750
gfz2014jpgu   0.06430
gfz2014jtfe  -0.60790
gfz2014jwmh   0.39720
gfz2014kara  -0.41330
gfz2014kbuk  -0.02090
gfz2014khan   0.11750
gfz2014khlk   0.04600
gfz2014kitm   0.07390
gfz2014kjjq   1.17300
gfz2014kjzb  -0.00000
gfz2014kkhh   0.26730
gfz2014kmmt  -0.29040
gfz2014kndc   0.06990
gfz2014knks  -0.01220
gfz2014knxs   0.11340
gfz2014kscf   0.13780
gfz2014ksdv  -0.05240
gfz2014kwrg   0.30330
gfz2014kyan   0.23020
gfz2014kytf  -0.72920
gfz2014kzzm   1.01580
gfz2014lddn  -1.30720
gfz2014lefs   0.19470
gfz2014lgqn   0.44530
gfz2014lhqn  -0.06780
gfz2014lkyf   0.19730
gfz2014lmge  -0.12730
gfz2014lpim  -0.43270
gfz2014lrzx  -0.12960
gfz2014lxnc   0.00610
gfz2014lxqr   0.16710
gfz2014lyhk   0.08930
gfz2014lyhp   0.05130
gfz2014lynp   0.08350
gfz2014lzal  -0.47380
gfz2014lzow   0.11590
gfz2014macx   0.02530
gfz2014madw  -0.35500
gfz2014mcno   0.18560
gfz2014mhgg  -0.72020
gfz2014mioi   0.59890
gfz2014mlrr  -0.29740
gfz2014moaw  -1.32870
gfz2014mtum  -0.15970
gfz2014mwor   0.10390
gfz2014mxkr  -0.53380
gfz2014myqz  -0.90120
gfz2014ngsk  -0.09610
gfz2014niqj   0.85620
gfz2014nkdx   0.35200
gfz2014nnxd  -0.44450
gfz2014nowp   0.18340
gfz2014npdk  -0.42020
gfz2014npeo   0.26630
gfz2014nphm   0.25040
gfz2014nqfm  -0.20720
gfz2014nrie   0.05010
gfz2014ntdh   0.09830
gfz2014nyeh  -0.07420
gfz2014nyfb  -0.89660
gfz2014nyko  -1.17180
gfz2014nylm  -0.30200
gfz2014odgv   0.21880
gfz2014oinz   0.17860
gfz2014oqhw   0.23300
gfz2014orxs   0.28120
gfz2014oryw  -0.36900
gfz2014osvz   0.57410
gfz2014owxc   0.39630
gfz2014oyly  -0.32830
gfz2014pjer   0.25630
gfz2014pkll   0.41800
gfz2014ppyi   0.02360
gfz2014ppzf   0.24220
gfz2014pqqp   2.56310
gfz2014pqrc   0.68880
gfz2014pvch  -0.00560
gfz2014pzml  -1.84660
gfz2014pzni  -0.16820
gfz2014qdog   0.12940
gfz2014qlxd   0.15560
gfz2014qngj   0.21200
gfz2014qqhm  -0.20830
gfz2014raau  -0.99360
gfz2014rbsl   0.19570
gfz2014rdsn   0.29450
gfz2014rghp  -0.47660
gfz2014rhwq   0.31150
gfz2014riel  -0.20220
gfz2014rkwl   0.38730
gfz2014romy   0.24920
gfz2014rtcu  -0.44900
gfz2014sadu   0.34850
gfz2014sjqw   0.09660
gfz2014sryn  -0.66340
gfz2014ssmv   0.23370
gfz2014ssvz  -0.09340
gfz2014szzf   0.44630
gfz2014tfgn  -1.41590
gfz2014tovs   0.16360
gfz2014tqdo  -0.01230
gfz2014tqsf  -0.21610
gfz2014tqth  -0.61810
gfz2014tzsd  -0.26980
gfz2014ubwn   0.70240
gfz2014udgg   0.14510
gfz2014uohh  -1.37300
gfz2014utac   0.12850
gfz2014uuuf  -0.72090
gfz2014uvji  -0.89620
gfz2014uvrk   0.22190
gfz2014uxyg  -0.10360
gfz2014vcev   0.34200
gfz2014veit  -0.18790
gfz2014vhld  -0.15730
gfz2014vhms   0.24420
gfz2014vjoz   0.02510
gfz2014vpus   0.19990
gfz2014vqqa  -0.77770
gfz2014waoo   0.04310
gfz2014watn  -0.06580
gfz2014wjko  -0.17240
gfz2014wmsc   0.42780
gfz2014wqcp   0.34560
gfz2014wrkh   0.28260
gfz2014wwib  -0.90780
gfz2014xbyr   0.37940
gfz2014xhkc  -0.19300
gfz2014xhwk  -0.08210
gfz2014xjri  -0.20050
gfz2014xoji  -0.17320
gfz2014xqby  -0.16080
gfz2014xqqd  -0.13440
gfz2014yhhm  -0.00860
gfz2014yula   0.17420
gfz2014zcgo  -0.55080
gfz2014zkys   0.41720
gfz2014zlgp  -0.05490
gfz2015abpw   0.59200
gfz2015alzx   0.25880
gfz2015apnk   0.29430
gfz2015aqav  -0.35750
gfz2015aqbq  -0.34040
gfz2015arpd  -0.23730
gfz2015aruz  -0.14810
gfz2015atxv  -0.47510
gfz2015aush  -1.30760
gfz2015azzp   0.22870
gfz2015berb   0.04250
gfz2015bfjm   0.38460
gfz2015bkbj   0.08840
gfz2015bsnl  -0.55740
gfz2015bucr  -0.45240
gfz2015bvsj   0.76730
gfz2015bvxx  -2.63850
gfz2015byfn   0.47060
gfz2015byjd  -0.34640
gfz2015chhn   0.84940
gfz2015chqn   0.12140
gfz2015cxhx  -0.34820
gfz2015cxrc  -0.41770
gfz2015cxxk   0.40300
gfz2015cyjd   0.62840
gfz2015dadj   2.43680
gfz2015ddhl  -0.30810
gfz2015dizn   0.09180
gfz2015djts   0.47340
gfz2015dskr   0.06860
gfz2015dvbn  -0.17560
gfz2015ecgq   0.14810
gfz2015ednc   0.63270
gfz2015eeyq   0.37660
gfz2015eezy   0.63670
gfz2015egxq  -0.22100
gfz2015ehou   0.33260
gfz2015eiky   0.07760
gfz2015elgy   0.13860
gfz2015eljz   0.28680
gfz2015emin   1.77010
gfz2015emtg   0.07610
gfz2015enth  -0.39620
gfz2015etai   0.08220
gfz2015evpl  -0.00000
gfz2015eyqs  -0.25950
gfz2015fbbk  -0.85350
gfz2015fbew  -1.11630
gfz2015fcua  -0.08340
gfz2015fjhk   0.50320
gfz2015fkgt   0.22600
gfz2015fkic   0.61670
gfz2015fkjs  -0.93560
gfz2015fkkd  -0.02020
gfz2015fkuu   0.22580
gfz2015flis  -0.33990
gfz2015fpez   0.02710
gfz2015fsjj   0.29760
gfz2015fvoi   0.10970
gfz2015fxbv  -0.07860
gfz2015fxdi  -0.00140
gfz2015fyvk   0.74570
gfz2015gckd   0.31170
gfz2015ggjw   0.01830
gfz2015gjbr  -0.10580
gfz2015gkwa  -0.51090
gfz2015gnmy   0.00000
gfz2015guhd   0.33340
gfz2015gzja   0.52290
gfz2015hdbn  -0.22420
gfz2015hdcp   0.25500
gfz2015hepg  -0.06360
gfz2015hgbk   0.06490
gfz2015hlqo   0.06590
gfz2015hpmk   0.27200
gfz2015hvgs   0.59250
gfz2015iele  -0.06190
gfz2015igsy   0.18410
gfz2015imty   0.09490
gfz2015imyp  -0.26580
gfz2015iwqk   0.30120
gfz2015ixyy   0.72890
gfz2015jkdw   0.01880
gfz2015jmlf   1.12490
gfz2015jmlu   0.43860
gfz2015jpap  -1.34830
gfz2015jwgl   0.10420
gfz2015jxbx  -0.18160
gfz2015jxjd   0.14900
gfz2015jzcv   0.36790
gfz2015kakw   0.03250
gfz2015kalm   0.11210
gfz2015kcaa  -0.13600
gfz2015kfsu  -0.50220
gfz2015kkqb   0.10530
gfz2015kkth  -0.18300
gfz2015kphk   0.36590
gfz2015kquq   0.27480
gfz2015ksni   0.17590
gfz2015kvwz  -0.03610
gfz2015kxxs   0.41460
gfz2015lcma   0.50540
gfz2015lcuo  -0.01800
gfz2015lfma   0.22060
gfz2015lfos   0.22300
gfz2015lfud   0.22040
gfz2015lhjq  -0.03750
gfz2015lhjy   0.57730
gfz2015ltii  -0.67350
gfz2015ltro  -0.83620
gfz2015lytv  -0.64770
gfz2015lzad  -0.80150
gfz2015mbgr   0.43510
gfz2015mfpy   0.35950
gfz2015mhym  -0.69870
gfz2015micz   0.30600
gfz2015mpte  -0.03060
gfz2015nerz  -0.05940
gfz2015nqgf   0.43470
gfz2015ntpk   0.18750
gfz2015nuxz  -0.09400
gfz2015nwug  -0.08370
gfz2015ocdz   0.08200
gfz2015ocwr   0.07950
gfz2015ofpd  -0.72680
gfz2015ofsr   0.11790
gfz2015okmq  -0.09420
gfz2015okpu   0.63380
gfz2015omab  -0.03720
gfz2015orkl   0.17430
gfz2015othd   0.01920
gfz2015oyfl   0.42210
gfz2015pcvt   0.00000
gfz2015pgxa  -0.44540
gfz2015poni   0.21510
gfz2015puah   0.72770
gfz2015puqp  -0.45900
gfz2015qisx  -1.24840
gfz2015qnho   0.08830
gfz2015qnto   0.32330
gfz2015qprd   0.44100
gfz2015quzo   0.06650
gfz2015rgov  -0.67160
gfz2015rgrg   0.30520
gfz2015rkbq   0.08480
gfz2015rkrg  -0.06280
gfz2015rkzg   0.23610
gfz2015rpzn  -0.35890
gfz2015rtnv   0.09810
gfz2015rxmg   0.03420
gfz2015saet   1.03140
gfz2015sdeo   0.22810
gfz2015sevh   0.13710
gfz2015sfdd   0.21570
gfz2015sfdl   0.19120
gfz2015sfdv  -0.45410
gfz2015sfdy  -0.96780
gfz2015sfeo   0.45930
gfz2015sffn  -0.16560
gfz2015sfga   0.02600
gfz2015sfho   0.30570
gfz2015sfhz  -1.02520
gfz2015sfiq  -1.14900
gfz2015sfjf  -0.28060
gfz2015sfkh  -0.05110
gfz2015sfko  -0.51240
gfz2015sfks   0.01870
gfz2015sfkz   0.14560
gfz2015sflf   0.20900
gfz2015sfmd   0.87870
gfz2015sfnb   0.03720
gfz2015sfno  -0.64380
gfz2015sfnv   0.43780
gfz2015sfoc  -0.02180
gfz2015sfoh   0.10960
gfz2015sfoq   0.24890
gfz2015sfpj   0.15610
gfz2015sfps   0.72450
gfz2015sfqo  -0.06460
gfz2015sfqr  -0.24900
gfz2015sfrc  -0.57140
gfz2015sfrf  -0.35850
gfz2015sfrv   0.84410
gfz2015sfsi   0.21380
gfz2015sfte   0.05500
gfz2015sftu   0.28970
gfz2015sfuc   0.07250
gfz2015sfuz  -0.32280
gfz2015sfwf   0.33170
gfz2015sfxn  -0.11690
gfz2015sfzm   0.06620
gfz2015sgad   0.11580
gfz2015sgmm   0.12060
gfz2015sgmr   0.18670
gfz2015sgna   0.10360
gfz2015sgxc   0.90930
gfz2015sgyd   0.58790
gfz2015shaq   0.29100
gfz2015shel  -0.07240
gfz2015shhg   0.44700
gfz2015shhu  -0.05020
gfz2015shjn  -0.14050
gfz2015shjo   0.00170
gfz2015shlp   0.05020
gfz2015shqc   0.49590
gfz2015shqe  -0.72430
gfz2015shrg   1.92620
gfz2015shsz   1.27050
gfz2015shwt  -0.24670
gfz2015sicf   0.00840
gfz2015sicu   0.35930
gfz2015siem   0.20350
gfz2015siky  -0.20650
gfz2015sing   0.08220
gfz2015siof  -0.30700
gfz2015sist   0.18320
gfz2015sitn  -0.21150
gfz2015sixi  -0.54440
gfz2015sixs  -0.18490
gfz2015siyy   0.53730
gfz2015sjbx   0.05980
gfz2015sjfi  -0.02720
gfz2015sjgk  -0.28980
gfz2015sjjb   0.13080
gfz2015sjne  -0.45130
gfz2015sjoj   0.44380
gfz2015sjpn   0.43100
gfz2015sjtz   0.32710
gfz2015sjvu   0.44180
gfz2015sjwi  -0.62370
gfz2015skab   0.38970
gfz2015skgj  -0.25410
gfz2015skhf   0.71100
gfz2015sklu   0.11780
gfz2015skpv  -1.33490
gfz2015skuk   0.11360
gfz2015skxu  -0.00380
gfz2015sldx   0.29350
gfz2015slfn  -0.39250
gfz2015sljs  -0.93470
gfz2015slun  -0.05370
gfz2015smgj   0.59770
gfz2015smym  -0.45270
gfz2015snhn   0.23450
gfz2015snmg   0.60010
gfz2015snmr   0.18670
gfz2015snsf   0.07180
gfz2015snwh  -0.64750
gfz2015snyd   0.10140
gfz2015soat   0.12580
gfz2015sopc   0.05420
gfz2015sowu   0.37750
gfz2015soxc   0.03430
gfz2015sozw   0.85800
gfz2015sqbg  -0.27180
gfz2015sqmy  -0.33310
gfz2015sqvx   0.55970
gfz2015sqwv  -0.11030
gfz2015srat   0.26900
gfz2015srgf   0.48520
gfz2015sspn   0.08660
gfz2015ssrl   0.62890
gfz2015stas  -0.19320
gfz2015stfy   0.58980
gfz2015stso   0.31760
gfz2015subg  -0.13920
gfz2015sudm   0.19390
gfz2015sunp   0.17850
gfz2015supa   0.58560
gfz2015susq   0.34760
gfz2015svjy  -0.51820
gfz2015svwm   0.41180
gfz2015sxgd   0.14670
gfz2015sxmh   0.14500
gfz2015sxxu   0.58320
gfz2015sydc   0.02740
gfz2015szcb  -0.50210
gfz2015szfe  -0.16070
gfz2015szfq  -0.09560
gfz2015sztx  -0.07500
gfz2015taml  -0.25050
gfz2015tbdn   0.10020
gfz2015tbje   0.17900
gfz2015tcem   0.28260
gfz2015tdbb   0.16350
gfz2015tdcu  -0.00000
gfz2015tdhb  -0.17130
gfz2015teje   0.02090
