# Nsamples: 1253  MAD:  0.429  mean:  0.010  variance:  0.454
gfz2010czps  -0.27280
gfz2010ddzo   1.28540
gfz2010dfru   0.09810
gfz2010dlgc   0.35240
gfz2010ebgj  -0.14980
gfz2010ebhc   0.73970
gfz2010ebiv   0.45600
gfz2010ebjy   0.06210
gfz2010ebll   0.12290
gfz2010ebmb   0.22030
gfz2010ebmi  -0.39610
gfz2010ebqt   0.34320
gfz2010ebvm  -0.03190
gfz2010ebvv   0.25190
gfz2010ebwp  -0.07570
gfz2010ebxl   0.26380
gfz2010ebze  -0.78330
gfz2010ebzk  -0.11910
gfz2010ebzr  -0.15390
gfz2010ecam   0.34790
gfz2010ecay  -0.84590
gfz2010ecbi   0.35210
gfz2010eccq   0.38570
gfz2010ecdu  -0.21020
gfz2010eced  -0.06850
gfz2010ecft  -0.05850
gfz2010ecfx  -1.23630
gfz2010ecgh   0.75000
gfz2010echc  -0.03530
gfz2010echt   0.07500
gfz2010echy   0.12160
gfz2010ecka   1.61750
gfz2010ecls  -1.75530
gfz2010ecml   0.13860
gfz2010ecns   0.15540
gfz2010ecpg   0.63940
gfz2010ecps  -0.13930
gfz2010ecro  -2.43740
gfz2010ecsp  -0.39580
gfz2010ectq   0.17800
gfz2010ecua  -0.27430
gfz2010ecuv  -0.08360
gfz2010ecvt  -0.02080
gfz2010ecyr   0.02170
gfz2010edbz   0.04370
gfz2010edcp  -0.79330
gfz2010edde  -0.42680
gfz2010edhr   0.00000
gfz2010edhv   0.33750
gfz2010edim   0.10660
gfz2010edji   0.74400
gfz2010edkp   0.83880
gfz2010edoq   0.22100
gfz2010edpb  -0.62750
gfz2010edqd  -0.47890
gfz2010edqh  -0.50310
gfz2010edsk   0.02240
gfz2010edsn  -0.22480
gfz2010edun  -0.48610
gfz2010edvf  -0.18030
gfz2010edyi  -0.93910
gfz2010edzb   0.39330
gfz2010eexz  -0.29500
gfz2010eeyh  -0.46150
gfz2010efak   1.05340
gfz2010efbi  -0.80350
gfz2010efkc   0.91600
gfz2010efls  -0.53580
gfz2010efnf  -0.51860
gfz2010efsq  -0.86240
gfz2010eher  -0.56360
gfz2010ehft  -0.07350
gfz2010ehnl  -0.52510
gfz2010ehsy   0.13640
gfz2010ehvj   0.13610
gfz2010ehwg  -5.56960
gfz2010ehxz   0.40810
gfz2010eimf  -0.06270
gfz2010eioi  -0.38680
gfz2010eisx  -1.07550
gfz2010eixj  -0.73210
gfz2010ejae  -0.45960
gfz2010ejco   0.66000
gfz2010ejjg  -0.31130
gfz2010ejka  -0.09970
gfz2010ejma   0.68930
gfz2010ejxf  -0.04250
gfz2010ekoe  -0.04210
gfz2010ekrv   0.24100
gfz2010ekyc  -0.26310
gfz2010elhv   0.10310
gfz2010elin  -0.71010
gfz2010eljf  -1.37640
gfz2010elpu   0.30410
gfz2010elsw  -0.42270
gfz2010eltf   0.24060
gfz2010elvp  -0.58900
gfz2010elxi  -0.82090
gfz2010elyc  -1.25150
gfz2010elyo   0.33510
gfz2010elzf   1.34430
gfz2010elzl  -0.52620
gfz2010emoz  -0.04410
gfz2010emyz  -0.24840
gfz2010encm   5.93810
gfz2010eohh  -1.94340
gfz2010epbe  -0.41470
gfz2010epxj  -0.60110
gfz2010epzk  -0.20690
gfz2010eqjg   0.09120
gfz2010eqmu  -3.76300
gfz2010eqse   0.14890
gfz2010eqwl   2.25620
gfz2010erda  -0.07300
gfz2010erdi   0.58490
gfz2010erfy  -0.85940
gfz2010erig  -0.31990
gfz2010erkn   0.04730
gfz2010ermi  -2.68530
gfz2010erna  -0.21260
gfz2010erom   0.12840
gfz2010erum  -0.33100
gfz2010eruy  -1.04540
gfz2010erwn  -0.42040
gfz2010erxk   0.32610
gfz2010eryg  -0.04100
gfz2010esid  -0.46910
gfz2010esmg   0.11730
gfz2010esou  -1.73940
gfz2010euan   0.45650
gfz2010euii  -0.80830
gfz2010eujm  -0.34540
gfz2010eutw   0.13620
gfz2010euvl   0.03640
gfz2010euwb  -0.76550
gfz2010euxe  -0.21230
gfz2010ewbc   0.43570
gfz2010exhd  -0.06790
gfz2010exhw  -0.02460
gfz2010exjw   0.97690
gfz2010exlm   0.37560
gfz2010exmc  -0.18170
gfz2010exno   0.37970
gfz2010exou   0.06750
gfz2010exqu  -0.19130
gfz2010exts   0.03910
gfz2010exyp  -0.00000
gfz2010eyaz   0.86320
gfz2010ezax   0.04300
gfz2010ezck   0.01940
gfz2010ezig  -0.01880
gfz2010ezuj  -0.25510
gfz2010ezvg  -0.67060
gfz2010ezvt  -0.40810
gfz2010ezwz   0.13930
gfz2010ezxd   0.23350
gfz2010faeu  -0.39830
gfz2010fauz  -1.00780
gfz2010faxg  -0.80680
gfz2010fbeu  -1.02340
gfz2010fbpi  -0.16680
gfz2010fcax  -0.25920
gfz2010fcdw   0.06380
gfz2010fciw  -0.16920
gfz2010fcnn   0.31220
gfz2010fcnt  -0.08280
gfz2010fcxy   0.34250
gfz2010fcyj  -0.65630
gfz2010fczt  -0.23350
gfz2010fdab   0.20550
gfz2010fexw  -0.25730
gfz2010ffhq   0.29620
gfz2010ffjb  -0.47270
gfz2010ftlm  -0.20920
gfz2010fyen  -0.24430
gfz2010fync   0.57640
gfz2010fzoi  -0.12100
gfz2010fzyt   1.12780
gfz2010gcdn   0.44530
gfz2010gcrl   0.46840
gfz2010gcrp   0.18710
gfz2010gdch   0.88150
gfz2010gdld   0.03830
gfz2010geru  -0.56500
gfz2010ginm  -0.29250
gfz2010gjvo   0.32110
gfz2010grjd   0.06600
gfz2010gslu   0.05090
gfz2010gwmp   1.12190
gfz2010gymo  -0.44060
gfz2010gyqp   0.03830
gfz2010gzxr  -0.70700
gfz2010hbka   0.58460
gfz2010hcio  -0.61110
gfz2010hevz   0.02010
gfz2010hgld   0.14970
gfz2010hhls  -0.14360
gfz2010hjoc  -0.21190
gfz2010hlco  -0.42850
gfz2010hllj   1.53430
gfz2010hlln   0.39370
gfz2010hlmq  -0.69960
gfz2010hlvr  -0.32380
gfz2010hmhm  -0.08140
gfz2010hndk  -0.67330
gfz2010hnnf  -0.06340
gfz2010hnpi   1.10130
gfz2010hnzr  -0.09260
gfz2010homc   0.35860
gfz2010hptz   0.66230
gfz2010hrkr   0.06350
gfz2010hrpr  -0.05980
gfz2010htdq  -0.53020
gfz2010hxbs   0.46780
gfz2010hxgv  -0.04650
gfz2010hzar   0.12870
gfz2010ibiy  -0.21050
gfz2010iciq   1.23650
gfz2010icqq  -0.75300
gfz2010iefy  -0.08680
gfz2010iibf  -0.11710
gfz2010iimu  -0.14270
gfz2010ijtk   0.22960
gfz2010imfv  -0.02050
gfz2010imsh  -0.12630
gfz2010iobp  -0.10590
gfz2010iphd  -0.26070
gfz2010ipsg  -0.44850
gfz2010iqep   1.22980
gfz2010iqfm   0.04360
gfz2010iqus   1.44050
gfz2010irvf  -0.32250
gfz2010iull  -0.09490
gfz2010ixyc   0.60410
gfz2010izzj   0.28100
gfz2010jagd  -0.26690
gfz2010jatq  -0.04690
gfz2010jhie   0.02070
gfz2010jipf   0.15380
gfz2010jitt   0.87540
gfz2010jkxj  -0.50810
gfz2010jpss   0.38870
gfz2010jpyj   0.32020
gfz2010jqxx   0.24610
gfz2010jssh   0.55820
gfz2010jsuh   0.57150
gfz2010jsuo  -0.84260
gfz2010jtal   1.61860
gfz2010jwpy   0.58570
gfz2010jxbm   0.30150
gfz2010jygz   0.13380
gfz2010jzku   0.17350
gfz2010kcoo   0.34300
gfz2010kdyc   0.03420
gfz2010kgws  -0.58050
gfz2010kihf  -1.10800
gfz2010kmgg   0.49560
gfz2010kmsv   0.18580
gfz2010kown  -1.64030
gfz2010kyen  -0.59550
gfz2010kzml  -1.72810
gfz2010lcoq  -0.06920
gfz2010lczp  -1.20310
gfz2010lepw  -0.09690
gfz2010lfju   0.82430
gfz2010lgwy   0.47640
gfz2010liqs  -0.13280
gfz2010lkcf  -0.33960
gfz2010lopz   0.42730
gfz2010lrlk  -0.74020
gfz2010lyfk  -0.22760
gfz2010mant   1.37410
gfz2010mbje   0.52770
gfz2010mdpq   0.25680
gfz2010mfpt  -0.06810
gfz2010mgss  -0.20850
gfz2010mhjt  -0.40920
gfz2010miil   0.04610
gfz2010miqn   0.72170
gfz2010mkuu   0.03420
gfz2010mlkz  -0.42920
gfz2010mlta  -1.95900
gfz2010mncc  -0.30040
gfz2010mnhm  -0.31190
gfz2010mnsz   1.15580
gfz2010moyw  -0.23250
gfz2010mpuy   0.52220
gfz2010msjj  -0.20370
gfz2010mtab  -0.63660
gfz2010muca   0.02510
gfz2010mwdq  -0.46090
gfz2010mzjr   0.17690
gfz2010ncrl  -0.09830
gfz2010nfsj   0.70120
gfz2010nlkh   0.03640
gfz2010nmpc  -1.50000
gfz2010nnny   0.21880
gfz2010nqwf   0.24080
gfz2010nqwo   0.07850
gfz2010nrew   0.27610
gfz2010nrjo   0.11090
gfz2010nsck   0.17000
gfz2010nsdf   1.36650
gfz2010nsjs   0.19120
gfz2010ntuo   0.04860
gfz2010nubk  -0.73700
gfz2010nwef  -0.55780
gfz2010nxsy   0.63590
gfz2010nxum   0.04470
gfz2010nzha  -0.19620
gfz2010nzla  -0.21520
gfz2010ocxq   0.91050
gfz2010odpb   0.46350
gfz2010oedn  -0.35350
gfz2010okdm  -0.34890
gfz2010oluw   0.46920
gfz2010omla   0.29950
gfz2010onma   0.00470
gfz2010osjs   0.82840
gfz2010pbdz  -0.40230
gfz2010pcxi  -0.22050
gfz2010pdtk  -0.41480
gfz2010pewa   0.41750
gfz2010pewx   0.12030
gfz2010pexf   0.02010
gfz2010pfyu   0.07400
gfz2010phvg  -0.58260
gfz2010plbg   0.19020
gfz2010pmqd   0.12560
gfz2010pqck  -0.73890
gfz2010pxak   0.70580
gfz2010pxgh   0.26390
gfz2010qjst  -0.06050
gfz2010qpcq  -0.11510
gfz2010qpum   0.22530
gfz2010qpvi   0.53790
gfz2010qwwx  -0.25360
gfz2010rhas   0.43330
gfz2010rkfp  -0.59420
gfz2010rlbv  -0.17550
gfz2010rqwj  -0.13740
gfz2010rzrr  -0.56370
gfz2010rzsd  -2.29140
gfz2010sfee  -0.22390
gfz2010sfla  -0.58150
gfz2010sgzk  -0.29550
gfz2010skqo  -0.47980
gfz2010skve  -0.58860
gfz2010srdb  -0.34030
gfz2010suww  -0.72930
gfz2010svtn  -0.29210
gfz2010swcy  -0.36560
gfz2010sxwt  -0.70730
gfz2010szde  -0.15290
gfz2010szim   0.66480
gfz2010tcbr  -0.00280
gfz2010tcrl   0.02220
gfz2010titk   0.72530
gfz2010tlfm   0.41450
gfz2010truw  -0.33200
gfz2010txjs   0.23120
gfz2010uept  -0.15070
gfz2010upfb  -0.30340
gfz2010upiw   1.04970
gfz2010urlq  -0.27410
gfz2010usho   0.12240
gfz2010ustq  -0.07220
gfz2010utcg   0.24510
gfz2010utmc  -0.11770
gfz2010utvp  -0.02520
gfz2010uyhb   1.11320
gfz2010veri   0.46990
gfz2010vhuj  -0.11040
gfz2010vppc   0.76100
gfz2010vtdg  -0.62010
gfz2010vyxd  -0.21810
gfz2010vzpr   0.39090
gfz2010wioh   0.52980
gfz2010wnty   0.33390
gfz2010wntz  -0.28210
gfz2010wofs  -1.19630
gfz2010wrxx  -1.24050
gfz2010xgfc   1.20730
gfz2010xgzw  -0.66690
gfz2010xmpr   0.88520
gfz2010xnxk  -0.18120
gfz2010xxdb   0.12060
gfz2010xxzn  -0.08710
gfz2010yjev   1.07180
gfz2010ymfy  -0.11880
gfz2010ymur   0.04890
gfz2010yosr  -0.30900
gfz2010yqwx   1.27290
gfz2011aosc   0.15790
gfz2011ccpw   0.21950
gfz2011cndo   0.00000
gfz2011ctbn  -1.78070
gfz2011cykd  -0.49690
gfz2011cylz   0.26580
gfz2011cynl  -0.11120
gfz2011cyre   0.13880
gfz2011dbwt   0.60770
gfz2011deaf   0.00000
gfz2011dllz  -0.19110
gfz2011dndz   0.40660
gfz2011dpaa  -0.04320
gfz2011dpmx   0.54410
gfz2011dpqx   0.47400
gfz2011eayc  -0.16650
gfz2011eazf  -0.24590
gfz2011edmm   0.82810
gfz2011ehzq   0.27420
gfz2011ejlp  -0.10240
gfz2011enva  -0.58000
gfz2011eocc   0.68770
gfz2011etje   0.78120
gfz2011fdzv   0.20640
gfz2011fgvr  -0.25020
gfz2011fhag  -0.04760
gfz2011gbmx  -0.01150
gfz2011gcwb  -0.20360
gfz2011ggvf   0.93170
gfz2011gkey   0.23760
gfz2011gkzt  -0.37870
gfz2011gzbr  -0.17830
gfz2011haid  -1.13710
gfz2011hbex  -0.36900
gfz2011hebt  -0.75550
gfz2011hfkj   0.24470
gfz2011hlqw  -0.01530
gfz2011hlsa  -0.36120
gfz2011hlth  -0.16980
gfz2011hpgx  -0.29520
gfz2011hpqp  -0.34590
gfz2011hrhe   0.31480
gfz2011hrhu   0.81760
gfz2011hvbu  -0.44700
gfz2011ieie   0.28340
gfz2011iwte   0.70360
gfz2011ixai  -0.09790
gfz2011izqa  -0.29460
gfz2011izto   1.51870
gfz2011jdsj   0.46290
gfz2011jghb   0.90450
gfz2011jmbn  -0.41140
gfz2011jnmi   0.86860
gfz2011jplh   0.35920
gfz2011jtlg   0.80080
gfz2011juid   0.29110
gfz2011jxpl   0.21770
gfz2011knoo   0.00800
gfz2011kqwo  -0.95420
gfz2011kqyg   0.57970
gfz2011kwhq   2.21070
gfz2011kwid  -0.60070
gfz2011kwiy  -1.28870
gfz2011kwjx  -0.57690
gfz2011kwkw  -0.13540
gfz2011kwld   0.38250
gfz2011kwlq   0.73160
gfz2011kwni   0.33050
gfz2011kwqc  -0.61510
gfz2011kwsz  -0.04630
gfz2011kxzp   0.18080
gfz2011lcxq   0.20650
gfz2011lczg   0.06990
gfz2011lgsg  -0.07800
gfz2011lhls  -0.29290
gfz2011lvjr  -0.53080
gfz2011lzwj   0.25510
gfz2011mdie  -0.15450
gfz2011mepc  -0.32910
gfz2011mjom   0.01880
gfz2011mllx   0.13120
gfz2011mpme  -0.17680
gfz2011mprq  -0.10070
gfz2011myia   0.00000
gfz2011nauw   1.62170
gfz2011nmnq   0.21140
gfz2011noud  -0.37730
gfz2011nrwc  -0.44770
gfz2011nrwv   1.77970
gfz2011ntkh   0.26010
gfz2011nudm  -0.06550
gfz2011ogqk  -0.29860
gfz2011ohcy   0.35230
gfz2011oiqe  -0.54310
gfz2011oiwk   0.64150
gfz2011olkk   0.40160
gfz2011oolr   0.89000
gfz2011orgn  -0.26340
gfz2011ornx   0.26320
gfz2011pccd   0.39830
gfz2011phms  -0.34160
gfz2011pntf  -0.25340
gfz2011ptus  -0.19460
gfz2011qigx  -0.40820
gfz2011qvae  -0.48410
gfz2011qyms  -0.10810
gfz2011rabm   2.06740
gfz2011rdby   0.41220
gfz2011rewa  -0.14800
gfz2011rgwp  -0.34470
gfz2011rqui  -0.35860
gfz2011rsrh   0.45680
gfz2011rznl  -1.02430
gfz2011sagt  -0.79740
gfz2011shqm   0.00000
gfz2011stal   0.62200
gfz2011svix   0.96790
gfz2011taps  -1.12490
gfz2011tbas   0.33270
gfz2011tcij   0.42970
gfz2011tivu  -0.43660
gfz2011tjue  -0.01470
gfz2011tkfp   0.14510
gfz2011tkog  -0.35620
gfz2011toub   0.61390
gfz2011tpbl   0.31750
gfz2011tpfr  -0.21840
gfz2011tsfd   1.10840
gfz2011tsnp   0.64930
gfz2011tuea   0.17170
gfz2011twov  -0.29830
gfz2011uepx   0.75410
gfz2011ugzz  -0.31830
gfz2011ujze   0.20800
gfz2011ukmp  -0.18810
gfz2011uphh   0.42910
gfz2011urxy  -0.61530
gfz2011urzu  -0.45190
gfz2011vclt  -0.09150
gfz2011vhfi   0.17020
gfz2011vxns  -0.24720
gfz2011wfja   0.07550
gfz2011wijj  -0.20430
gfz2011wjkf   1.84830
gfz2011wjul   0.03380
gfz2011wxfs   0.54290
gfz2011wxoj   0.11860
gfz2011wxtk  -0.27480
gfz2011xesx   0.06920
gfz2011yhwz  -0.28290
gfz2012attr  -0.08460
gfz2012bpnl   0.17740
gfz2012bqeb   0.16430
gfz2012cnod   0.53310
gfz2012cxdn   0.32660
gfz2012czlw   0.48730
gfz2012deri   1.17490
gfz2012dfhq  -0.12780
gfz2012emjg   0.34160
gfz2012eskt   0.63620
gfz2012ewgo  -0.18470
gfz2012fhnh   0.23620
gfz2012foeo   0.11110
gfz2012fqcg  -0.18600
gfz2012fwfo  -0.89540
gfz2012fwtr   2.95370
gfz2012fzfa  -0.30070
gfz2012fzsq  -0.17000
gfz2012gkvr  -0.23760
gfz2012gocc  -0.35220
gfz2012gukw   0.92740
gfz2012hdbm  -0.04950
gfz2012hnul  -0.50680
gfz2012hogg   0.07090
gfz2012holl  -0.48240
gfz2012hwmz  -0.13030
gfz2012iamr   0.46970
gfz2012icmv  -0.76390
gfz2012ihdl  -0.35750
gfz2012iivw   0.08840
gfz2012ilvn  -0.13370
gfz2012imay  -0.34790
gfz2012iyrb   1.25970
gfz2012jgvj   0.48330
gfz2012jjzc  -0.02100
gfz2012jlox  -0.50610
gfz2012jqvn  -0.05900
gfz2012jshk   0.31550
gfz2012jupx  -0.18830
gfz2012kbjb   0.38530
gfz2012kbzj  -0.24360
gfz2012kdmb   0.88240
gfz2012keor  -0.42320
gfz2012kkup   0.13590
gfz2012klba  -0.09450
gfz2012klhx  -0.03800
gfz2012kuct   0.49940
gfz2012kudo   0.32660
gfz2012kvzv  -0.29100
gfz2012kwgo  -0.17120
gfz2012lczo  -0.51430
gfz2012ldxg   0.33550
gfz2012ldzj  -0.48070
gfz2012lpvn   0.68360
gfz2012lrsv  -0.90300
gfz2012lsni   1.33450
gfz2012lxkv   0.26010
gfz2012mdmy   0.05440
gfz2012minr  -0.37020
gfz2012mkpn   0.92650
gfz2012mlyf  -0.53090
gfz2012mpvy   0.46740
gfz2012mpyl  -0.36170
gfz2012mupa   0.12800
gfz2012mvwr  -0.09980
gfz2012mwij   0.24440
gfz2012myqa  -0.26990
gfz2012naqz   0.06140
gfz2012nedn  -0.06120
gfz2012ngic  -0.16150
gfz2012njha  -0.07110
gfz2012nkdf  -0.88480
gfz2012nolo  -0.36130
gfz2012nqnk   1.61700
gfz2012nsbz  -0.11880
gfz2012ntzv  -0.60480
gfz2012nutf  -1.00250
gfz2012nxog  -0.17660
gfz2012nxyt   0.27290
gfz2012oazn   0.16940
gfz2012obgw  -0.47810
gfz2012oedb   0.07480
gfz2012omvo  -1.34680
gfz2012oqmw  -0.61660
gfz2012ovqs   0.12630
gfz2012pciw   0.36860
gfz2012pgcl   0.33880
gfz2012pkel  -0.22950
gfz2012plbw  -0.09490
gfz2012plea   1.16300
gfz2012pqlt  -0.77660
gfz2012pqmu   0.04520
gfz2012qurq  -0.34320
gfz2012qxcy  -0.11820
gfz2012rats   0.34160
gfz2012rcnj  -0.20820
gfz2012snhi   0.18800
gfz2012spbj  -0.08460
gfz2012sphd   0.05060
gfz2012sqmv  -0.60490
gfz2012ssyn   0.13790
gfz2012syvl   0.30860
gfz2012tazz   0.03610
gfz2012teic  -0.53590
gfz2012thfx  -1.50750
gfz2012tmop  -0.39780
gfz2012ttoa  -0.03560
gfz2012tvmv   0.13760
gfz2012uciv  -0.37770
gfz2012ufew  -0.03800
gfz2012uhup   0.34460
gfz2012usba  -0.50900
gfz2012uyxb  -0.15450
gfz2012uzyj  -0.42610
gfz2012vceo   4.82200
gfz2012vjgl   0.47740
gfz2012vntz   0.30500
gfz2012vrgb   0.00030
gfz2012vrua  -0.17430
gfz2012vsev  -0.96980
gfz2012vxvr  -0.00000
gfz2012whku  -0.48230
gfz2012wklq  -0.55400
gfz2012wmsg  -0.42440
gfz2012wpeq  -0.47970
gfz2012wrir  -0.22400
gfz2012wtkh  -0.14870
gfz2012wtkr   0.28730
gfz2012wubh   0.02220
gfz2012wvfl   1.30470
gfz2012wxer   0.79250
gfz2012wxkg   0.33220
gfz2012wxlg  -0.17510
gfz2012wybs   0.11330
gfz2012wypz   0.97790
gfz2012xbjq  -0.48630
gfz2012xeul   3.74840
gfz2012xjyv   0.01140
gfz2012xslk   0.17920
gfz2012xwqa  -0.37310
gfz2012zemh   0.21300
gfz2012zfag  -0.04230
gfz2012zjpv  -0.30410
gfz2012zjre   0.06060
gfz2013apmm   1.18690
gfz2013bnxc  -0.14920
gfz2013cdan   1.25680
gfz2013ciaf   0.47110
gfz2013cnve   0.89370
gfz2013cwpn   0.27300
gfz2013dsrk  -1.36170
gfz2013ewbo   0.98240
gfz2013fiud  -0.26140
gfz2013gcfx  -1.18680
gfz2013gdnq   0.07030
gfz2013gjdc   0.32640
gfz2013gngz  -0.14110
gfz2013gock  -0.01720
gfz2013gvex  -2.60590
gfz2013hfmp   0.02860
gfz2013ijsr   0.24000
gfz2013ikgo   0.26440
gfz2013ilug  -0.08230
gfz2013iunn   0.29740
gfz2013jesk  -0.09850
gfz2013jgij  -0.22430
gfz2013jgip   0.46490
gfz2013jkut   0.56710
gfz2013jusj   0.97210
gfz2013jwvc  -0.44350
gfz2013jxoi  -0.30640
gfz2013kccc  -0.10750
gfz2013kdeo  -0.52290
gfz2013kheb   0.77390
gfz2013ldpc  -0.08030
gfz2013ldqb   0.04440
gfz2013lgnl   0.32870
gfz2013lixa   0.05340
gfz2013lyko   0.55640
gfz2013mmlw   0.03080
gfz2013mmwq   0.02540
gfz2013mnei  -0.08240
gfz2013mqik   0.06420
gfz2013mqmv   0.42160
gfz2013mwbh   0.66130
gfz2013ncjp   0.07190
gfz2013neuc  -0.22130
gfz2013nixj  -0.05920
gfz2013nkgj  -0.12670
gfz2013nknw  -0.15670
gfz2013nmac   0.10920
gfz2013nnzf  -0.19380
gfz2013nppd   0.07280
gfz2013nqgw   1.50060
gfz2013nuvi  -0.21650
gfz2013nwdi  -0.47830
gfz2013ogde   0.24900
gfz2013oifr   0.52910
gfz2013oilg   0.37950
gfz2013oinc  -0.28880
gfz2013ojti   0.87780
gfz2013oqsc  -0.49280
gfz2013orjg   0.33130
gfz2013orzn   1.77310
gfz2013ozrf   1.10590
gfz2013ozrp   1.36320
gfz2013pcos   0.16430
gfz2013pfbx   0.33230
gfz2013pfeb  -0.11440
gfz2013phef  -0.09930
gfz2013pkbs   1.00400
gfz2013puag   0.37320
gfz2013pxsj   0.18300
gfz2013qali  -0.27250
gfz2013qmer   0.15050
gfz2013qnxc  -0.93250
gfz2013qzdq  -0.72990
gfz2013rait  -0.45320
gfz2013rdoo  -0.25420
gfz2013reym  -0.77560
gfz2013roki   0.29200
gfz2013rsnr  -0.56190
gfz2013rwfe  -0.78020
gfz2013sart   0.30930
gfz2013sdus  -0.01950
gfz2013sebq   1.32050
gfz2013sfto  -0.25780
gfz2013shzy  -0.07380
gfz2013skkm  -0.08400
gfz2013xmul  -0.07030
gfz2013xpfa  -1.67470
gfz2013xqnn  -0.36810
gfz2013ylbx   0.30710
gfz2013yyhc   0.49260
gfz2014adoj  -0.00000
gfz2014afmx   0.20010
gfz2014amsb   0.35660
gfz2014atgw  -0.18580
gfz2014bezu  -0.03100
gfz2014bmdh  -0.19210
gfz2014cvkm  -0.49750
gfz2014dffd   0.16470
gfz2014duqn   0.09460
gfz2014egwu   0.46920
gfz2014ehsf  -0.32040
gfz2014fcms   0.06600
gfz2014femz   0.30830
gfz2014fexu   0.61290
gfz2014ffdc   0.69350
gfz2014fgvi  -0.03180
gfz2014fgvr  -0.22630
gfz2014fgwt   2.81880
gfz2014fgxt  -0.01660
gfz2014fgxz   0.06250
gfz2014fgyo   0.22960
gfz2014fgza  -1.28590
gfz2014fhbd  -0.07220
gfz2014fhdw   0.00000
gfz2014fhhp  -0.07160
gfz2014fhjd  -0.05990
gfz2014fhrq   0.30260
gfz2014fhsg  -0.68200
gfz2014fhwx   0.51860
gfz2014fkmr  -0.39390
gfz2014fkmx  -0.57620
gfz2014fknp   0.04670
gfz2014fnyg  -0.18440
gfz2014foio  -0.26080
gfz2014frez   0.01330
gfz2014frwh  -0.05410
gfz2014ftka  -0.09910
gfz2014ftno  -0.10210
gfz2014ftoc   0.28510
gfz2014ftpw   0.42830
gfz2014ftrk  -0.27100
gfz2014fusc  -0.63450
gfz2014fusj  -0.10340
gfz2014fuub  -0.77630
gfz2014fuup  -2.34620
gfz2014fvaa   0.44240
gfz2014fval   0.10780
gfz2014fvgh   0.17810
gfz2014fvjl  -0.49590
gfz2014fvpy  -1.23420
gfz2014fvrg  -0.07450
gfz2014fwyr  -0.55090
gfz2014fxhd  -0.65920
gfz2014geuy   0.12230
gfz2014gezs  -0.25660
gfz2014gkgf  -0.81650
gfz2014gkgs   0.70770
gfz2014gkhy   0.16660
gfz2014gkjl   0.61510
gfz2014gkjt  -0.44280
gfz2014gkjw  -1.53330
gfz2014gkok  -0.56510
gfz2014glcu  -0.02190
gfz2014glcy  -0.07590
gfz2014glov  -0.40600
gfz2014glsh   0.25220
gfz2014gltx  -0.11450
gfz2014glvn  -0.75960
gfz2014glvu   1.20180
gfz2014glxy  -0.04410
gfz2014gmci   0.07910
gfz2014gmhr  -1.50340
gfz2014gmzl   0.34560
gfz2014gmzs   0.58740
gfz2014gnig  -0.94050
gfz2014gnnt   0.32970
gfz2014gnre   1.09500
gfz2014gnvw   1.29640
gfz2014gnwg   2.09810
gfz2014gnxb   0.23300
gfz2014goba  -0.36730
gfz2014gphr  -0.35480
gfz2014gpya  -0.05620
gfz2014grcv  -0.42190
gfz2014grgn  -0.07410
gfz2014grho  -0.68610
gfz2014gsqs  -0.05990
gfz2014gutm   1.30050
gfz2014gvhw  -0.37260
gfz2014gwgf  -0.12200
gfz2014gxkh  -0.50100
gfz2014gxxh  -0.05720
gfz2014gxxo   0.43240
gfz2014gyxd  -0.49640
gfz2014hagb  -0.35640
gfz2014hasj   0.01670
gfz2014hauo   1.12560
gfz2014hbqb  -0.24420
gfz2014hcmj   0.24180
gfz2014hcns   0.24300
gfz2014hfhl  -0.43530
gfz2014hjgh  -0.21090
gfz2014hjgr  -0.03740
gfz2014hjij   0.01700
gfz2014hjlx  -0.23510
gfz2014hkcf   0.25700
gfz2014hkck   0.06860
gfz2014hoap  -0.99050
gfz2014hocg   0.45980
gfz2014hphw   0.03640
gfz2014hqxs  -0.40390
gfz2014hrft  -0.01530
gfz2014hriu  -0.45990
gfz2014hrtn   0.58150
gfz2014hscz   0.74560
gfz2014huaj   0.91900
gfz2014hyal   0.65670
gfz2014hymr  -0.17310
gfz2014iani  -0.17360
gfz2014icqt   0.33310
gfz2014ifue  -0.71830
gfz2014imnn  -0.15950
gfz2014inbj   0.38830
gfz2014irci   0.36250
gfz2014issk  -0.51270
gfz2014isys   0.37810
gfz2014itab   0.13600
gfz2014itbe   0.10080
gfz2014itgh   0.19380
gfz2014itjx   0.04600
gfz2014itkw  -0.06750
gfz2014itpj  -0.25720
gfz2014iuhq   0.20030
gfz2014iwnf   0.67560
gfz2014ixga  -1.44490
gfz2014iywt   0.08690
gfz2014jagg  -0.67680
gfz2014jatq  -0.23630
gfz2014jcjt   0.42710
gfz2014jfis  -0.03070
gfz2014jjhc  -0.32720
gfz2014jkxe   0.27580
gfz2014jmnk  -0.19750
gfz2014jnxm  -0.07890
gfz2014jnyv  -0.06210
gfz2014jomw  -0.30540
gfz2014jpep  -0.04070
gfz2014jpxs   0.78450
gfz2014jwmh   0.34530
gfz2014kara  -0.36470
gfz2014kbuk   0.05260
gfz2014khan   0.06640
gfz2014khlk  -0.32210
gfz2014kjzb  -1.68480
gfz2014kkhh   0.91800
gfz2014kmmt   0.19120
gfz2014kndc   0.10480
gfz2014knks  -0.01670
gfz2014knxs   0.11680
gfz2014ksdv  -0.15170
gfz2014ksmz   0.18310
gfz2014kwrg   0.43100
gfz2014kyan   0.06360
gfz2014kytf  -0.00860
gfz2014kzzm   0.94300
gfz2014lddn  -1.05810
gfz2014lefs  -0.06160
gfz2014lehw  -0.21140
gfz2014lgqn   0.18940
gfz2014lhqn  -0.33190
gfz2014lkyf   0.14270
gfz2014lmge   0.03880
gfz2014lnqy   0.48940
gfz2014lpim  -0.65330
gfz2014lrzx  -0.09560
gfz2014lurd  -1.41800
gfz2014lxnc  -0.51460
gfz2014lyhk   0.46250
gfz2014lyhp   0.54290
gfz2014lynp   0.14150
gfz2014lzow   0.57900
gfz2014macx  -0.01810
gfz2014madw  -0.33690
gfz2014mcno  -0.15140
gfz2014mcse  -0.01460
gfz2014moaw  -0.36980
gfz2014mtum   0.07680
gfz2014mwor   0.21830
gfz2014mxkr  -1.09740
gfz2014navw  -0.05150
gfz2014nhyb   0.88080
gfz2014nkdx   0.47910
gfz2014nnxd  -0.63550
gfz2014nowp  -0.21560
gfz2014npdk  -0.39370
gfz2014npeo  -0.12580
gfz2014nphm   0.15460
gfz2014nqfm  -0.16530
gfz2014nrie  -0.20090
gfz2014ntdh  -0.12750
gfz2014nyeh   0.28030
gfz2014nyfb  -1.17210
gfz2014nylm  -0.07360
gfz2014odgv   0.44090
gfz2014oinz   0.00290
gfz2014omyn   1.06510
gfz2014oqhw   0.10890
gfz2014orxs   0.14950
gfz2014oryw   0.35450
gfz2014osvx   0.03000
gfz2014osvz   0.18170
gfz2014owxc  -0.54160
gfz2014oyly   0.20570
gfz2014pkll   0.09500
gfz2014ppzf   0.08400
gfz2014pqrc   0.24900
gfz2014pvch  -0.01510
gfz2014pzml   0.33050
gfz2014pzni  -0.16560
gfz2014qlvc   0.21900
gfz2014qlxd  -0.22160
gfz2014qngj   0.11850
gfz2014qqhm  -0.22220
gfz2014raau   0.02110
gfz2014rdsn  -0.31230
gfz2014rfeb   0.21600
gfz2014rghp  -0.67180
gfz2014riel  -0.04320
gfz2014rils  -0.37940
gfz2014romy  -0.33100
gfz2014rtcu   1.08020
gfz2014ryfb  -0.10850
gfz2014sadu   0.31300
gfz2014shid   0.08070
gfz2014sjqw   0.04160
gfz2014sptq  -0.41700
gfz2014sryn  -0.09270
gfz2014ssds  -0.04770
gfz2014ssmv  -0.27960
gfz2014ssvz  -0.15530
gfz2014szzf   0.28940
gfz2014tabg   0.16900
gfz2014tovs  -0.01060
gfz2014tqdo  -0.04610
gfz2014tqly   0.11820
gfz2014tqsf  -0.20660
gfz2014tzsd  -0.10100
gfz2014ubwn   0.72220
gfz2014uohh   0.18410
gfz2014utac  -0.46720
gfz2014uvji   0.05540
gfz2014uvrk  -0.12540
gfz2014uxyg  -0.87170
gfz2014uyrq  -0.30550
gfz2014vcev  -0.07580
gfz2014vhld   0.62060
gfz2014vhms   0.41610
gfz2014vjoz   0.68340
gfz2014vpus   0.09800
gfz2014vqqa   2.43750
gfz2014waoo  -0.45640
gfz2014watn  -0.13080
gfz2014wqcp   0.37490
gfz2014wrkh   0.03270
gfz2014wwib   0.10860
gfz2014xjri  -0.45800
gfz2014xoji  -0.08750
gfz2014xqby  -0.54490
gfz2014ynhc   0.47980
gfz2015aqbq   0.13800
gfz2015arpd  -0.08390
gfz2015aruz  -0.21330
gfz2015atxv  -0.53060
gfz2015berb   0.77180
gfz2015bkbj  -0.09220
gfz2015bphe   2.02060
gfz2015byfn   0.21180
gfz2015byjd  -0.16690
gfz2015evpl   0.23720
gfz2015eyqs   0.65310
gfz2015fbbk  -0.31590
gfz2015fbew  -0.44410
gfz2015fcua   0.04380
gfz2015fdpr   0.02110
gfz2015fjhk   0.55230
gfz2015fkbc  -0.18230
gfz2015fkgt   0.39910
gfz2015fkic   0.11720
gfz2015fkkd   0.01120
gfz2015fpez   0.09510
gfz2015fsjj   0.18480
gfz2015fwnf   0.28370
gfz2015fxbv   0.75500
gfz2015fxdi  -0.19290
gfz2015fyvk   0.57650
gfz2015gckd   0.07600
gfz2015ggjw   0.33300
gfz2015gjbr   0.23380
gfz2015hdbn  -4.08480
gfz2015hdcp   0.21160
gfz2015hgbk   0.25610
gfz2015hhbd  -0.92380
gfz2015hlqo   0.37760
gfz2015hpmk   0.17030
gfz2015hvgs   0.49880
gfz2015igsy   0.55440
gfz2015imty   0.23160
gfz2015imyp  -0.70870
gfz2015isim  -0.59610
gfz2015ixyy   0.26280
gfz2015jmlf   0.60330
gfz2015jmlu   0.28690
gfz2015jpap  -1.14120
gfz2015jwgl  -0.15210
gfz2015jxbx  -0.32750
gfz2015jzcv  -0.13420
gfz2015kakw  -0.26420
gfz2015kalm  -0.04880
gfz2015kcaa   0.04160
gfz2015kkth   0.10300
gfz2015kphk   0.42490
gfz2015kquq  -0.06450
gfz2015ksni   0.01110
gfz2015kvwz   0.12690
gfz2015lcma   0.92680
gfz2015lfma   0.29820
gfz2015lfud   0.12360
gfz2015lhjq  -0.21620
gfz2015lhjy   0.21600
gfz2015ltii  -0.03400
gfz2015ltro   0.67220
gfz2015lytv  -0.80720
gfz2015lzad  -0.36440
gfz2015mddr   0.00000
gfz2015mfpy   0.38430
gfz2015mhym   3.25570
gfz2015mpte   0.13170
gfz2015nerz   0.17060
gfz2015nqgf   0.51210
gfz2015ntpk  -0.26960
gfz2015nuxz  -0.00000
gfz2015nwug  -0.29790
gfz2015ocdz   0.21480
gfz2015ofpd   0.09460
gfz2015okmq  -0.30660
gfz2015okpu   1.03740
gfz2015orkl   0.22600
gfz2015othd   0.63500
gfz2015oyfl   0.42740
gfz2015pcvt   0.03210
gfz2015pdri   0.83940
gfz2015plal   0.05350
gfz2015poni   0.10360
gfz2015puah   0.06490
gfz2015puqp   0.23410
gfz2015qafb   0.15890
gfz2015qiit   0.01930
gfz2015qnho   0.04680
gfz2015qnlv   0.16250
gfz2015qnto   0.00000
gfz2015qols  -0.03020
gfz2015qprd   0.02050
gfz2015qpvd  -0.33370
gfz2015quzo  -1.45670
gfz2015rgov   0.52160
gfz2015rgrg   0.12050
gfz2015rkbq  -0.03220
gfz2015rkrg  -0.14190
gfz2015rkzg   0.07570
gfz2015roac  -0.01850
gfz2015rwsb  -0.72490
gfz2015rxmg  -0.42110
gfz2015saet   0.06260
gfz2015sdfy   0.33080
gfz2015seuf  -0.27000
gfz2015sfdd   0.29010
gfz2015sfdl   0.15220
gfz2015sfdv  -0.05540
gfz2015sfdy  -0.11040
gfz2015sfeo   0.61830
gfz2015sffn  -0.14780
gfz2015sfga  -0.20250
gfz2015sfhz  -1.38800
gfz2015sfiq  -1.37360
gfz2015sfkh  -0.07160
gfz2015sfko  -0.11570
gfz2015sfks   0.09830
gfz2015sfkz  -0.05230
gfz2015sflf   0.10990
gfz2015sfmd   1.58430
gfz2015sfno  -0.87870
gfz2015sfoc  -0.32500
gfz2015sfoh  -0.11410
gfz2015sfoq   0.20230
gfz2015sfpj  -0.56910
gfz2015sfps  -0.08250
gfz2015sfqo  -0.10960
gfz2015sfqr  -0.78480
gfz2015sfrc  -0.60450
gfz2015sfrf   0.36510
gfz2015sfsi   0.59590
gfz2015sfte   0.34510
gfz2015sftu  -0.12350
gfz2015sfuc   0.00000
gfz2015sfuz   0.58500
gfz2015sfwf   0.57230
gfz2015sfxn  -0.06730
gfz2015sfzm   0.08980
gfz2015sgad  -0.16000
gfz2015sgmm  -0.21160
gfz2015sgmr   0.06270
gfz2015sgxc   0.86210
gfz2015sgyd   0.53570
gfz2015shaq   0.31970
gfz2015shhg   0.47200
gfz2015shhu   0.14820
gfz2015shjn  -0.35530
gfz2015shjo   0.00850
gfz2015shlp  -0.09080
gfz2015shqe  -0.28760
gfz2015shrg   0.08930
gfz2015shsz   0.61450
gfz2015sicf  -0.26060
gfz2015siem   0.43160
gfz2015siky   0.03770
gfz2015sing   0.19520
gfz2015siof  -0.22720
gfz2015sist  -0.81880
gfz2015sitn   0.07760
gfz2015sixi   0.22170
gfz2015siyy  -0.03860
gfz2015sjbx  -0.60270
gfz2015sjeq   1.59210
gfz2015sjfi   0.00000
gfz2015sjgk  -0.42640
gfz2015sjjb   0.22140
gfz2015sjne  -0.71750
gfz2015sjoj   0.14370
gfz2015sjpn  -0.15240
gfz2015sjvu   0.30890
gfz2015sjwi  -0.50590
gfz2015skab   0.00000
gfz2015skgj   0.13570
gfz2015skhf  -2.36490
gfz2015sklu   0.08380
gfz2015skpv   0.09560
gfz2015skuk  -0.05960
gfz2015skxu  -0.27460
gfz2015sldx   0.28460
gfz2015slfn   0.00000
gfz2015sljs  -0.54680
gfz2015slun  -0.18600
gfz2015smgj   0.37020
gfz2015smym  -0.34360
gfz2015snhn   0.56870
gfz2015snmg   0.20220
gfz2015snmr  -0.25950
gfz2015snsf  -0.23960
gfz2015snwh  -0.76520
gfz2015snyd  -0.15360
gfz2015soat   0.11270
gfz2015sopc   0.03920
gfz2015soxc  -0.12050
gfz2015sqbg   0.07430
gfz2015sqmy   0.30190
gfz2015sqvx   1.06820
gfz2015srat   0.26610
gfz2015ssrl   0.26230
gfz2015stfy   0.54930
gfz2015stso   0.18500
gfz2015subz  -0.02170
gfz2015supa  -0.08870
gfz2015susq   0.40790
gfz2015svjy  -0.14770
gfz2015svwm   0.30830
gfz2015swgn   0.01950
