# Nsamples: 1408  MAD:  0.431  mean:  0.004  variance:  0.441
gfz2010aban   0.27960
gfz2010aerk   0.19020
gfz2010ahqi   0.19820
gfz2010aykj  -0.00000
gfz2010bfzs   0.26900
gfz2010bgth   0.05500
gfz2010bhhq  -1.08390
gfz2010bifb  -0.89750
gfz2010bjeb   0.19300
gfz2010bjsl  -1.05570
gfz2010bkob  -0.33680
gfz2010bkos  -0.35430
gfz2010bowy  -0.35650
gfz2010boxo  -0.44750
gfz2010bxxs  -0.53340
gfz2010caft  -0.27610
gfz2010cbkg  -0.16330
gfz2010cdbt   0.88230
gfz2010civi   0.00000
gfz2010ckzm  -0.07030
gfz2010cqwl   0.24210
gfz2010ctuw  -0.22840
gfz2010czps  -0.38620
gfz2010dejx   0.52140
gfz2010dfru   0.08540
gfz2010diqn   1.00170
gfz2010dlgc   0.16050
gfz2010dumm  -0.03330
gfz2010eaoy  -0.07140
gfz2010eapk   0.68070
gfz2010eapn  -0.20150
gfz2010eaqe   0.72850
gfz2010eaqx   0.34310
gfz2010eaqy  -1.27730
gfz2010earq  -0.22710
gfz2010earu  -0.28480
gfz2010easf   0.37710
gfz2010eask   0.25370
gfz2010easo  -0.04920
gfz2010easu   0.25640
gfz2010eati  -0.56140
gfz2010eato   0.57040
gfz2010eatt   0.91400
gfz2010eaty   0.76740
gfz2010eaul   0.28270
gfz2010eavd  -0.78840
gfz2010eavp  -0.70920
gfz2010eavs   0.04510
gfz2010eawb   0.36750
gfz2010eawu  -6.21250
gfz2010eaxa   0.47760
gfz2010eayd   0.64380
gfz2010eayp   0.40330
gfz2010eayx  -0.50890
gfz2010eaze   0.35450
gfz2010eazu  -1.92730
gfz2010ebbd   0.05930
gfz2010ebbx  -1.05780
gfz2010ebby   0.10310
gfz2010ebdl  -0.92230
gfz2010ebeh   0.52910
gfz2010ebek   0.48730
gfz2010ebfa  -0.08040
gfz2010ebfx  -0.43300
gfz2010ebgj  -0.28580
gfz2010ebhc   0.22490
gfz2010ebih  -0.36410
gfz2010ebin  -0.09060
gfz2010ebiv   0.24930
gfz2010ebjy   0.37860
gfz2010ebkj  -0.70650
gfz2010ebkx   0.57170
gfz2010ebla   0.16520
gfz2010ebll  -0.03700
gfz2010ebmb   0.31300
gfz2010ebmi  -0.81550
gfz2010ebnn   0.02540
gfz2010ebpa  -2.29170
gfz2010ebqz  -0.21840
gfz2010ebrm   0.54240
gfz2010ebsv   1.25420
gfz2010ebtk  -0.27480
gfz2010ebvm   0.62690
gfz2010ebvv  -0.60740
gfz2010ebwp  -0.01200
gfz2010ebxl   0.80640
gfz2010ebze   0.10690
gfz2010ebzk   0.16190
gfz2010ebzr   0.28260
gfz2010ecam   0.71790
gfz2010ecay  -0.53680
gfz2010ecbi   0.28190
gfz2010eccq   0.35440
gfz2010eced  -0.52480
gfz2010ecfx   0.07660
gfz2010ecfy  -0.35550
gfz2010ecgh   0.48140
gfz2010echc   0.34260
gfz2010echt  -0.04250
gfz2010echy   0.23770
gfz2010ecls  -0.42840
gfz2010ecml   0.92610
gfz2010ecnm  -0.44730
gfz2010ecns  -0.30150
gfz2010ecps   0.10550
gfz2010ecro  -0.82950
gfz2010ecsp  -0.21180
gfz2010ectq  -0.73240
gfz2010ecua  -0.19140
gfz2010ecuv   0.12380
gfz2010ecvt   0.24820
gfz2010ecyr  -0.11500
gfz2010edad   3.03090
gfz2010edat  -0.19880
gfz2010eday  -1.18100
gfz2010edbz  -0.89880
gfz2010edcp  -1.14440
gfz2010edhr   0.26060
gfz2010edim   0.31080
gfz2010edji  -0.11300
gfz2010edkp  -1.43830
gfz2010edpb  -2.12770
gfz2010edqd   0.86820
gfz2010edqh   0.20440
gfz2010edsk  -0.08640
gfz2010edsn   0.76240
gfz2010edun  -1.15880
gfz2010edvf  -0.04260
gfz2010edyi  -1.10080
gfz2010eedu  -0.39610
gfz2010eefh  -0.00000
gfz2010eefo   1.05320
gfz2010eegn   0.17470
gfz2010eeij  -0.03390
gfz2010eeng  -1.01650
gfz2010eerh   0.35510
gfz2010eern   0.23260
gfz2010eesf   0.04140
gfz2010eevu  -0.04080
gfz2010eexz  -1.29280
gfz2010eeyh   0.52600
gfz2010efbh  -0.02180
gfz2010efkc  -0.64490
gfz2010efsq  -0.81980
gfz2010efwo   0.60910
gfz2010efxf  -0.27890
gfz2010egap   0.45700
gfz2010eghq   0.01500
gfz2010egld  -0.27690
gfz2010egln  -0.11790
gfz2010egmp   0.63470
gfz2010egqh   0.16910
gfz2010egsy   0.23420
gfz2010egyy   0.57300
gfz2010ehaj   1.53290
gfz2010ehft  -0.24970
gfz2010ehvj  -0.06660
gfz2010ehwg  -0.31440
gfz2010ehxz   0.55220
gfz2010eimf  -0.37380
gfz2010eioi  -0.30370
gfz2010eisx  -1.02250
gfz2010ejjg   0.36940
gfz2010ejka   0.17560
gfz2010ejma  -0.78320
gfz2010ejxf  -0.65270
gfz2010ekaw  -0.57670
gfz2010ekoe   0.39590
gfz2010ekyc  -0.07400
gfz2010elhv   0.05750
gfz2010elin  -0.36100
gfz2010eljf  -0.47730
gfz2010elpu  -0.10340
gfz2010eltf   0.25000
gfz2010elxi  -0.44150
gfz2010elyc  -1.11060
gfz2010elyo   1.40370
gfz2010elzf  -0.82020
gfz2010elzl  -0.45640
gfz2010emoz   0.59420
gfz2010emyz  -0.21590
gfz2010encm   2.61440
gfz2010enpa   1.78290
gfz2010ensu  -0.02110
gfz2010enzl  -0.04390
gfz2010eoao   1.17520
gfz2010eohh  -1.10270
gfz2010epbe   0.14600
gfz2010epxj   0.14040
gfz2010epzk  -0.20750
gfz2010eqcn   0.26700
gfz2010eqjg  -0.16130
gfz2010eqmu  -2.51390
gfz2010eqwl  -1.23290
gfz2010erdi   0.22580
gfz2010erfy  -0.31740
gfz2010erig  -0.25190
gfz2010erkn   0.65800
gfz2010ermi   1.61720
gfz2010erna   0.86790
gfz2010erom   0.02720
gfz2010erum  -0.07170
gfz2010eruy  -0.56510
gfz2010erwn  -0.31140
gfz2010erxb   0.82650
gfz2010erxk   0.49580
gfz2010eryg   0.26820
gfz2010esid   0.37640
gfz2010esmg  -0.29520
gfz2010eted  -0.16060
gfz2010euae   0.66920
gfz2010euan   0.56510
gfz2010eujm   0.23010
gfz2010eutw  -0.70850
gfz2010euvl  -0.08130
gfz2010euwb  -0.67780
gfz2010euxe  -0.01330
gfz2010evco  -0.26730
gfz2010evgf   0.32610
gfz2010evjv   0.24640
gfz2010evkd  -0.09090
gfz2010ewbc   1.10820
gfz2010ewvc   0.19920
gfz2010excp  -0.00940
gfz2010exdd  -0.18630
gfz2010exdl   0.46240
gfz2010exed  -0.37990
gfz2010exel   0.20740
gfz2010exfb   0.23170
gfz2010exgb   0.53140
gfz2010exhd   0.34190
gfz2010exhw  -0.25200
gfz2010exlm   0.02020
gfz2010exmc   0.05700
gfz2010exno   0.28180
gfz2010exsg   0.58390
gfz2010exyp  -0.32320
gfz2010eybj   0.57070
gfz2010eyhh   0.42210
gfz2010eyiv   1.12470
gfz2010eymr   0.01950
gfz2010eyvq   0.52090
gfz2010ezax  -0.15710
gfz2010ezck  -0.00000
gfz2010ezjk  -2.70470
gfz2010ezuj  -0.39690
gfz2010ezvg  -0.63920
gfz2010ezwz   0.17720
gfz2010ezxd  -0.10040
gfz2010faeu  -0.27760
gfz2010falm   0.59120
gfz2010fauz  -0.35030
gfz2010fbeu   0.31400
gfz2010fcax  -0.40600
gfz2010fcdw   0.27440
gfz2010fciw  -0.62400
gfz2010fcnn  -0.22230
gfz2010fcnt  -0.05170
gfz2010fcxy   0.69810
gfz2010fcyj   0.61760
gfz2010fczt   0.08320
gfz2010fdab  -0.84260
gfz2010fedq  -0.04910
gfz2010fefr   0.14420
gfz2010fexw  -0.16260
gfz2010ffhq  -0.27380
gfz2010ffjb   0.89110
gfz2010ffui  -0.52580
gfz2010figq   0.10490
gfz2010fihj   0.44260
gfz2010fika   0.93370
gfz2010fixr   0.10480
gfz2010fjal  -0.08740
gfz2010fjmu   1.09180
gfz2010fknh   0.05790
gfz2010fkvg   0.19890
gfz2010flha  -0.18490
gfz2010flrt   0.29680
gfz2010flxi  -0.20590
gfz2010fmwb   1.68620
gfz2010fneu  -0.12770
gfz2010fnrk   0.52430
gfz2010fpmv   0.05400
gfz2010fpqy   0.35600
gfz2010fqdu  -0.28170
gfz2010fqtj   1.07380
gfz2010fser  -0.25320
gfz2010ftlm  -0.41990
gfz2010fupn   0.15790
gfz2010fwny  -0.45520
gfz2010fwpv   0.12070
gfz2010fyed   1.68640
gfz2010fyen  -0.40080
gfz2010fync   0.20900
gfz2010fzoi   1.74430
gfz2010gcdn   0.72530
gfz2010gcrl   0.02030
gfz2010gcrp  -0.18550
gfz2010gdld  -0.12480
gfz2010gjia   0.13580
gfz2010gjvo  -0.40150
gfz2010glqr  -0.00500
gfz2010glxl  -0.00000
gfz2010grjd  -0.13730
gfz2010gslu  -0.38660
gfz2010gtqs   0.38190
gfz2010gwmp   0.63250
gfz2010gymo   0.03640
gfz2010gyqp   0.03120
gfz2010gzxr  -0.64760
gfz2010hbka  -0.35550
gfz2010hcio  -0.09740
gfz2010hgld   0.05310
gfz2010hjoc  -0.23330
gfz2010hlln  -0.12020
gfz2010hlmq   0.09730
gfz2010hlvr   0.04010
gfz2010hmhm  -0.10830
gfz2010hndk  -0.89500
gfz2010hnnf  -0.34940
gfz2010hnpi   0.17630
gfz2010homc   0.42720
gfz2010hptz  -0.02070
gfz2010hrpr  -0.16750
gfz2010hxbs   0.56180
gfz2010hxgv  -0.10790
gfz2010hxhe   0.43960
gfz2010hykt  -1.06730
gfz2010ibiy  -0.22620
gfz2010iciq  -0.33910
gfz2010iimu   0.20680
gfz2010ijtk   0.75610
gfz2010imfv  -0.16760
gfz2010imsh  -0.10300
gfz2010iobp   0.00790
gfz2010iphd   0.41240
gfz2010ipsg  -0.38780
gfz2010iqep  -0.69800
gfz2010iqfm  -0.34710
gfz2010iqnm   0.97550
gfz2010irqr   0.54020
gfz2010irvf   0.04420
gfz2010itpb  -0.84640
gfz2010iull   0.07390
gfz2010jagd  -0.38950
gfz2010jatq   2.21250
gfz2010jhie  -0.22410
gfz2010jipf  -0.66140
gfz2010jkxj  -0.77590
gfz2010jlhj   0.45770
gfz2010jpyj   0.04030
gfz2010jqxx  -0.32120
gfz2010jssh  -0.16040
gfz2010jsuh   0.96980
gfz2010jsuo  -0.29390
gfz2010jwpy   0.75150
gfz2010jxbm   0.20760
gfz2010jygz   0.15860
gfz2010kcoo   0.27310
gfz2010kdyc  -0.12550
gfz2010kihf   2.47570
gfz2010kjmp   0.66650
gfz2010kown  -0.37820
gfz2010kyvj   0.30540
gfz2010kzml   0.80200
gfz2010lcoq  -0.19630
gfz2010lczp   2.22070
gfz2010lepw   0.44870
gfz2010lgwy   0.40700
gfz2010liqs  -0.09900
gfz2010lkcf  -0.84400
gfz2010lopz  -0.07830
gfz2010lrlk  -1.08390
gfz2010lyfk  -0.18790
gfz2010mant  -0.23180
gfz2010mdpq   0.21600
gfz2010mhjt   0.00850
gfz2010miil  -0.41440
gfz2010miqn   0.19760
gfz2010mkuu   0.22220
gfz2010mlkz   0.33800
gfz2010mlta  -0.10390
gfz2010mncc   0.60390
gfz2010mnhm  -0.12320
gfz2010mnsz   1.41350
gfz2010moyw  -0.46340
gfz2010msjj  -0.04030
gfz2010mtab  -0.26110
gfz2010muca  -0.20950
gfz2010mwdq   0.13660
gfz2010ncrl  -0.12760
gfz2010nfsj   0.10500
gfz2010nmpc  -2.66130
gfz2010nnny   0.30290
gfz2010nqwf   0.34010
gfz2010nqwo  -0.49990
gfz2010nrew   0.45220
gfz2010nrjo  -0.44810
gfz2010nsck   0.66060
gfz2010nsdf   0.05290
gfz2010nsjs   0.14240
gfz2010ntuo  -0.26740
gfz2010nubk  -0.35760
gfz2010nwef  -0.21900
gfz2010nxsy  -0.00000
gfz2010nxum   0.42830
gfz2010nzla  -0.60220
gfz2010ocxq   0.86960
gfz2010odpb   0.72520
gfz2010oedn   0.04250
gfz2010okdm   0.45000
gfz2010oluw  -0.05720
gfz2010omla   0.30390
gfz2010onma   0.00650
gfz2010osjs  -0.34140
gfz2010pbdz  -0.00000
gfz2010pcxi  -0.27670
gfz2010pdtk   0.18350
gfz2010pewx  -0.66710
gfz2010pexf  -0.22970
gfz2010pfyu   0.84430
gfz2010phvg   0.08220
gfz2010plbg  -0.20950
gfz2010pmqd   0.91030
gfz2010pqck   0.87420
gfz2010pxak   0.58470
gfz2010pxgh  -0.30720
gfz2010qjst   0.13980
gfz2010qpcq   0.00000
gfz2010qpum   0.47380
gfz2010qpvi   0.49500
gfz2010qwwx   1.32640
gfz2010rhas   1.91900
gfz2010rkfp  -0.05150
gfz2010rqwj  -0.17070
gfz2010rxjw   3.12910
gfz2010rzsd   1.65530
gfz2010sfee   0.02900
gfz2010sgzk   0.18890
gfz2010skqo  -0.11900
gfz2010skve  -0.66520
gfz2010srdb  -0.11240
gfz2010suww   1.52610
gfz2010svtn  -0.33980
gfz2010svve  -0.55190
gfz2010swcy  -0.20890
gfz2010sxfq  -0.51820
gfz2010sxwt  -0.06480
gfz2010sysw  -0.78510
gfz2010szde  -0.29320
gfz2010szim  -0.74060
gfz2010tcbr   0.40330
gfz2010tcrl  -0.30470
gfz2010tlfm   0.04100
gfz2010truw  -0.06970
gfz2010txjs  -0.66270
gfz2010uept   0.26800
gfz2010upfb  -0.02780
gfz2010usho   0.18530
gfz2010ustq   0.35140
gfz2010utcg   0.13260
gfz2010utmc   0.14730
gfz2010uvhf   0.52780
gfz2010uyhb   0.30000
gfz2010veri   1.84850
gfz2010vhuj   0.18780
gfz2010vtdg  -0.44680
gfz2010vyxd   0.11210
gfz2010yjev  -0.79190
gfz2010ymfy  -0.11580
gfz2010ymur   0.07580
gfz2010yosr  -0.02180
gfz2011aatr   0.67710
gfz2011adjs  -1.04920
gfz2011aeay   0.10440
gfz2011aldv  -0.06210
gfz2011alip   0.23360
gfz2011alsa  -0.05250
gfz2011anur   0.20430
gfz2011aqxf  -0.31550
gfz2011blsi   1.08580
gfz2011bpkd   0.29420
gfz2011ccpw  -0.61080
gfz2011cfae   0.96010
gfz2011cndo   0.17230
gfz2011coxh   0.18200
gfz2011csju  -0.74660
gfz2011cvfg   1.91740
gfz2011cykd  -1.14110
gfz2011cynl  -0.90510
gfz2011cyre   0.06270
gfz2011cyuk   0.59580
gfz2011dbev   0.07230
gfz2011dbig  -0.17510
gfz2011dbon   0.29300
gfz2011dcqb   0.48760
gfz2011dcqf   0.40620
gfz2011dddh  -0.06490
gfz2011deaf   0.99630
gfz2011dkyi  -0.20770
gfz2011dlyx   0.57540
gfz2011dmat   0.12910
gfz2011dpqx   0.39840
gfz2011duyr   0.52080
gfz2011eayc  -0.04170
gfz2011eazf  -0.06260
gfz2011ecaj   0.87380
gfz2011edmm   0.10080
gfz2011eebc  -0.70010
gfz2011ehzq   0.20980
gfz2011eltw  -0.50150
gfz2011enva   0.14370
gfz2011etje   0.54680
gfz2011fdzv  -0.29700
gfz2011fgvr  -0.43680
gfz2011fhag  -0.15070
gfz2011fhbm   0.24610
gfz2011fhur  -0.04970
gfz2011fkbn  -0.02760
gfz2011flgj  -0.24950
gfz2011fnsw  -0.01820
gfz2011gbmx  -0.07690
gfz2011gcwb   0.55020
gfz2011gkey   1.78650
gfz2011gkzt  -0.29200
gfz2011gzbr  -0.31560
gfz2011haid  -0.00000
gfz2011hbex  -0.33210
gfz2011hebt  -0.29670
gfz2011hfkj  -0.44560
gfz2011hlqw   0.14600
gfz2011hlsa  -0.01710
gfz2011hlth  -0.03910
gfz2011hpgx   0.10710
gfz2011hpqp   0.11990
gfz2011hryk   0.10130
gfz2011hsfj  -0.78250
gfz2011hvbu  -0.10230
gfz2011ieie   0.62420
gfz2011knoo   0.52710
gfz2011kqwo   1.96470
gfz2011kqyg  -1.51890
gfz2011kwid   1.16200
gfz2011kwjx  -0.15020
gfz2011kwkw  -0.67690
gfz2011kwqc  -0.99660
gfz2011kwsz   0.03840
gfz2011kxzp   0.28020
gfz2011lcxq   0.34130
gfz2011lczg  -0.07670
gfz2011lgsg  -0.40080
gfz2011lhls   0.26780
gfz2011lvjr  -0.23330
gfz2011lzwj   0.60960
gfz2011mdie   0.75990
gfz2011mepc  -0.31310
gfz2011mjom   0.49740
gfz2011mllx   0.29080
gfz2011mlvw  -0.07310
gfz2011mpme   0.02640
gfz2011mprq   0.01300
gfz2011myia  -0.12180
gfz2011nauw   0.27620
gfz2011nmnq   0.08780
gfz2011noud   0.97800
gfz2011nrwc   0.23000
gfz2011nsex  -0.06840
gfz2011ntkh   0.79420
gfz2011nudm  -0.11040
gfz2011ogqk   0.15070
gfz2011ohcy   0.49400
gfz2011oiqe   0.22620
gfz2011oiwk   0.10440
gfz2011olkk   0.63030
gfz2011oolr  -0.42850
gfz2011orgn  -0.52470
gfz2011ornx   0.42750
gfz2011owvz  -4.71030
gfz2011pccd   0.47980
gfz2011pdpt  -0.31510
gfz2011phms  -0.25180
gfz2011pntf   1.53310
gfz2011ptus  -0.17900
gfz2011qigx  -0.17350
gfz2011qvae  -0.17570
gfz2011qyms   0.19400
gfz2011rabm   0.76180
gfz2011rewa   0.01890
gfz2011rgwp  -0.09770
gfz2011rqui  -0.09630
gfz2011rsrh   0.26170
gfz2011sagt   0.11110
gfz2011shqm  -0.10830
gfz2011tbas   0.79190
gfz2011tcij   0.10550
gfz2011tjue  -0.15120
gfz2011tkfp  -0.47400
gfz2011tkog  -0.13810
gfz2011toub   0.67670
gfz2011tpfr  -0.18270
gfz2011tsfd  -0.39910
gfz2011tsnp   0.94270
gfz2011tuea   0.03810
gfz2011twov   0.12310
gfz2011uepx  -0.46990
gfz2011ugzz  -0.09260
gfz2011ujze  -0.05900
gfz2011uphh   0.61600
gfz2011urxy   0.25370
gfz2011urzu  -0.30460
gfz2011uzqv   0.30710
gfz2011vhfi   0.18950
gfz2011vldk  -0.43970
gfz2011vnza  -0.02650
gfz2011vxns  -0.17410
gfz2011wcic  -0.35610
gfz2011wfja   0.07530
gfz2011wijj  -0.27450
gfz2011wjul  -0.03060
gfz2011wwjs   0.35200
gfz2011wxfs   0.60350
gfz2011wxoj  -0.09180
gfz2011wxtk  -0.00540
gfz2011wype   0.32260
gfz2011xaan  -0.80960
gfz2011xcpv  -0.02390
gfz2011xqru   2.85070
gfz2011xyxj  -0.04390
gfz2011yfdx   0.12370
gfz2011yfys   0.10300
gfz2011ytnu   0.01510
gfz2011yybo   0.21480
gfz2011yzwq  -1.04750
gfz2011zklv  -0.84450
gfz2011zqhh   0.41360
gfz2012ajtq   0.34530
gfz2012aqgp  -0.21020
gfz2012aqtq   0.02060
gfz2012bfah  -0.69880
gfz2012bfyn   0.42470
gfz2012bngd   0.95440
gfz2012bpkx   0.39180
gfz2012bpnl   0.25520
gfz2012bpwl   0.00710
gfz2012bszs   0.01520
gfz2012byad  -0.52120
gfz2012cgvr  -0.09670
gfz2012cmfy  -0.33670
gfz2012cqnl  -0.11890
gfz2012cxdn   0.50830
gfz2012czlw  -0.08560
gfz2012deri   0.00000
gfz2012dyyh  -0.00000
gfz2012ekda   0.18800
gfz2012ekzf  -0.00000
gfz2012elce   1.50410
gfz2012emjg   0.44570
gfz2012enno   0.63280
gfz2012eskt  -0.17680
gfz2012ewgo   0.09330
gfz2012fbfo  -0.58160
gfz2012foeo   0.36640
gfz2012fwfo   2.84020
gfz2012fzfa  -0.29490
gfz2012fzsq  -0.18140
gfz2012gkvr  -0.27820
gfz2012gocc   0.31030
gfz2012hdbm   0.29960
gfz2012hnul  -0.17800
gfz2012hogg  -0.40900
gfz2012hyaa   0.22520
gfz2012ilvn  -0.11530
gfz2012imay  -0.45950
gfz2012jgvj  -0.06150
gfz2012jjzc  -0.13470
gfz2012jlox   0.20730
gfz2012jqvn  -0.39070
gfz2012jshk   2.16740
gfz2012jupx  -0.19390
gfz2012keor  -0.55530
gfz2012kkup   0.18360
gfz2012klhx   0.00000
gfz2012kuct   0.48790
gfz2012kudo   0.31060
gfz2012kvzv  -0.79140
gfz2012kwgo  -0.14310
gfz2012lczo  -0.61840
gfz2012ldxg  -0.23030
gfz2012ldzj  -0.13080
gfz2012lpvn   1.46080
gfz2012lrol   1.08900
gfz2012lrsv   2.50960
gfz2012lxkv  -0.16060
gfz2012maxy  -0.17220
gfz2012minr  -0.20620
gfz2012mpyl  -0.08740
gfz2012mupa  -0.10590
gfz2012mvwr  -0.54920
gfz2012mwij   0.60600
gfz2012myqa   1.14650
gfz2012naqz  -0.28780
gfz2012nedn  -0.60800
gfz2012ngic  -0.12330
gfz2012nkdf  -1.28150
gfz2012nojx  -1.99480
gfz2012nolo  -1.24350
gfz2012nsbz  -0.68450
gfz2012nutf  -0.22880
gfz2012nxog   1.94490
gfz2012nxyt  -0.45460
gfz2012oazn  -0.10750
gfz2012oedb  -0.05400
gfz2012omvo  -0.51920
gfz2012oqmw  -0.08520
gfz2012pgcl   0.30220
gfz2012pkel   0.01440
gfz2012pqmu  -0.14500
gfz2012qjhs   0.02560
gfz2012qxcy  -0.02920
gfz2012rats   0.09080
gfz2012repv  -0.71010
gfz2012rjsd  -0.31850
gfz2012royy  -0.42680
gfz2012rwko  -0.21510
gfz2012rwov  -0.20750
gfz2012rypu   0.02000
gfz2012sfer   1.33250
gfz2012spbj   0.12350
gfz2012sphd  -0.10990
gfz2012sqmv  -0.28650
gfz2012syvl   0.24100
gfz2012teic   0.22920
gfz2012tmop  -0.42100
gfz2012ttoa   0.16930
gfz2012tvmv   0.30930
gfz2012uciv  -0.22690
gfz2012uhup   0.61280
gfz2012ulpd   0.05920
gfz2012uvqf   0.79460
gfz2012uyxb  -0.89950
gfz2012uzyj  -1.75740
gfz2012vntz   0.25890
gfz2012vrgb   0.06350
gfz2012vxvr   0.40840
gfz2012whku  -0.03180
gfz2012wklq  -0.07370
gfz2012wmsg  -0.44740
gfz2012wpeq   0.14740
gfz2012wtkr  -0.71210
gfz2012wubh   0.26670
gfz2012wvfl  -0.77650
gfz2012wxer   0.17280
gfz2012wxlg  -0.01390
gfz2012wybs   0.00820
gfz2012wypz   0.82300
gfz2012xbjq  -0.43260
gfz2012xcgk  -0.40430
gfz2012xjyv   0.04520
gfz2012xslk  -1.29900
gfz2012xvwn  -0.27170
gfz2012xwqa   0.16460
gfz2012xyua   0.11620
gfz2012zemz  -0.59940
gfz2012zfag  -0.37460
gfz2012zitl  -0.31190
gfz2012zjpv  -0.37370
gfz2012zklq   0.86940
gfz2012zmbp   0.99260
gfz2012zmln  -0.69940
gfz2013aahq  -0.31320
gfz2013aayj  -0.21200
gfz2013aqaw   0.23560
gfz2013bdpu  -0.04750
gfz2013bokp   0.50870
gfz2013btjm  -0.33110
gfz2013cbsm  -0.46660
gfz2013ccnr  -0.21930
gfz2013cdan   0.62060
gfz2013cvqg  -0.32100
gfz2013cwpn   0.46620
gfz2013cwps  -0.46000
gfz2013dkly   0.28250
gfz2013dofo  -0.09160
gfz2013dojq  -0.42810
gfz2013dqls  -0.04420
gfz2013drpk   0.12390
gfz2013drxz  -0.28240
gfz2013dspt  -0.33780
gfz2013dsrk  -1.23150
gfz2013dvyh  -0.04890
gfz2013egpu  -0.41570
gfz2013enbx  -1.75490
gfz2013erse  -0.45920
gfz2013ewbo  -0.29330
gfz2013fiud  -0.24880
gfz2013fwxa  -0.14510
gfz2013fygc   0.05470
gfz2013gcfx  -1.49720
gfz2013gdgf  -0.08470
gfz2013gdnq   0.02170
gfz2013gihf   0.77710
gfz2013gjdc   0.47300
gfz2013gmor   0.29020
gfz2013gngz   0.41700
gfz2013gock  -0.15940
gfz2013govy  -0.34110
gfz2013gxsu  -0.17820
gfz2013hdnc  -0.13340
gfz2013hfmp   0.48550
gfz2013hmbc  -0.36720
gfz2013huwr   0.84880
gfz2013hxcx  -0.35930
gfz2013iapa  -0.92810
gfz2013iayx  -0.13940
gfz2013ifpq   0.22490
gfz2013igmx   0.18130
gfz2013ijsr   0.02520
gfz2013ikgo  -0.18790
gfz2013ilug  -0.49430
gfz2013ippu   0.04850
gfz2013jesk  -0.45660
gfz2013jgij  -0.42050
gfz2013jgip   0.38050
gfz2013jkut   0.79280
gfz2013jusj  -2.22860
gfz2013jwvc  -0.16890
gfz2013kccc  -0.34140
gfz2013kdeo  -0.36720
gfz2013kheb   0.03740
gfz2013khli   0.46270
gfz2013ldos   0.33970
gfz2013ldpc  -0.31880
gfz2013ldqb  -0.11350
gfz2013lgnl   0.26260
gfz2013lixa  -0.09280
gfz2013lmqe   0.55640
gfz2013lwbk  -0.18650
gfz2013lyko   0.37650
gfz2013mmwq   0.04590
gfz2013mqmv   0.06300
gfz2013mwbh   0.02630
gfz2013mxee   0.12520
gfz2013ncjp  -0.25070
gfz2013ndin   0.23770
gfz2013neuc   1.02090
gfz2013nixj  -0.04190
gfz2013nkgj  -0.22290
gfz2013nknw   0.25910
gfz2013nmac  -0.04640
gfz2013nqgw   1.00110
gfz2013nuvi  -0.05790
gfz2013nvdj  -1.10790
gfz2013nwdi  -0.79170
gfz2013oejn   0.62060
gfz2013ogde  -0.50090
gfz2013oqsc  -0.73000
gfz2013ozrp  -0.08640
gfz2013pcos   0.00000
gfz2013pfbx   0.45370
gfz2013phef  -0.04340
gfz2013pkbs   0.77450
gfz2013puag  -0.76460
gfz2013pxsj  -0.03150
gfz2013qali   0.26060
gfz2013qcck  -2.57270
gfz2013qfmm  -0.01790
gfz2013qmer  -0.14680
gfz2013qnxc   0.06170
gfz2013qzdq  -0.96220
gfz2013rait  -0.51340
gfz2013reym  -0.50000
gfz2013rsnr  -0.53480
gfz2013rwfe  -1.19140
gfz2013sart  -0.06540
gfz2013sdus   0.25070
gfz2013sfto  -0.13410
gfz2013shzy  -0.00000
gfz2013skkm   0.03590
gfz2013snbr  -0.19280
gfz2013stht   0.63630
gfz2013suvn   0.95740
gfz2013svci  -0.23950
gfz2013tcbk  -0.34340
gfz2013tcxc   0.11680
gfz2013tcxq  -0.57450
gfz2013tdau   0.39480
gfz2013tlaf  -0.64060
gfz2013toea  -2.11410
gfz2013toxf   0.48230
gfz2013tusd  -0.00100
gfz2013tvmw  -0.11440
gfz2013txij  -0.22220
gfz2013txtb  -0.18660
gfz2013tyas   0.08410
gfz2013uauo  -0.02160
gfz2013ufxk  -1.61460
gfz2013ufxm   0.25560
gfz2013ugax   1.09060
gfz2013uqsp   0.23410
gfz2013uqvu   0.30460
gfz2013vexx  -0.38550
gfz2013vfyw  -0.02850
gfz2013vfzp   0.42960
gfz2013vgau  -0.58080
gfz2013vgrk  -0.04250
gfz2013viul   0.00830
gfz2013vjjc  -1.13810
gfz2013vrmy   0.17340
gfz2013vvrq  -0.00000
gfz2013vzbo  -0.29970
gfz2013wjmm  -0.07850
gfz2013wmfd  -0.16440
gfz2013wnpr  -0.58080
gfz2013xkwt   0.19590
gfz2013xmul   0.20370
gfz2013xsdt   0.30170
gfz2013xvxf  -0.06860
gfz2013xwda  -0.18830
gfz2013xxwv  -0.24410
gfz2013xxxq  -1.15960
gfz2013xyzb   0.14500
gfz2013yctg  -0.28000
gfz2013yghj   0.17070
gfz2013yhbu  -1.72490
gfz2013yhpk   0.04910
gfz2013yqkv  -0.09220
gfz2013yyhc   0.21960
gfz2013zmoc  -0.41450
gfz2014adoj   0.49570
gfz2014afmx  -0.74060
gfz2014algk  -0.05210
gfz2014ande   0.37750
gfz2014arqr  -0.48370
gfz2014atgw   0.08270
gfz2014bagd   0.18160
gfz2014bezu   0.05240
gfz2014bfng   0.00000
gfz2014bmdh   0.34880
gfz2014bmta  -0.29020
gfz2014bwue   0.39290
gfz2014bzxy   0.09960
gfz2014capn   0.10380
gfz2014chdv  -0.46960
gfz2014claq   0.01870
gfz2014cmwb   0.17870
gfz2014cqyo  -0.49380
gfz2014crpy   0.04720
gfz2014cvxx   0.11750
gfz2014czno   0.71640
gfz2014czol   0.40520
gfz2014czqi  -0.17060
gfz2014czua  -0.28240
gfz2014dffd   0.38360
gfz2014dhxt   0.08930
gfz2014disp  -0.95810
gfz2014duqn   0.28830
gfz2014eght  -1.16300
gfz2014egwu  -1.02090
gfz2014ehsf  -0.01550
gfz2014ekcr   0.34780
gfz2014ekdn   0.05780
gfz2014enhi   0.11610
gfz2014eqpl   0.37550
gfz2014ettc   0.21880
gfz2014fcms  -0.08820
gfz2014fedd   0.39160
gfz2014femz  -0.01140
gfz2014fgvi   0.04900
gfz2014fhbd   0.37050
gfz2014fhdw   0.14570
gfz2014fhla  -0.74340
gfz2014fhrq   0.00130
gfz2014fhsg   0.04400
gfz2014fhwx  -0.85890
gfz2014fimn   0.15710
gfz2014fkmr  -0.24880
gfz2014frdz   0.55720
gfz2014frez  -0.43360
gfz2014frgm  -4.43970
gfz2014frwh   0.72700
gfz2014ftka   0.01340
gfz2014ftoc  -0.69570
gfz2014ftpw  -0.14660
gfz2014ftrk   0.20810
gfz2014furx   0.20220
gfz2014fusj   0.38210
gfz2014fuub  -0.10350
gfz2014fval   0.06070
gfz2014fvgh   0.53250
gfz2014fvrg   0.22320
gfz2014gbcz  -0.14150
gfz2014gbdq   0.73330
gfz2014geuy  -0.09330
gfz2014ghpe   0.55670
gfz2014gkgf  -0.69990
gfz2014gkgs  -0.53390
gfz2014gkhp   3.31630
gfz2014gkhy   0.25050
gfz2014gkjl  -0.50220
gfz2014gkjt  -0.16170
gfz2014gkmm   0.62220
gfz2014gkob   0.53370
gfz2014gkqf  -0.37560
gfz2014gkqu   0.74060
gfz2014gksu  -0.05980
gfz2014gktq   0.64340
gfz2014gkut  -0.94470
gfz2014gkxm   1.20450
gfz2014glcu   0.07620
gfz2014glgo  -1.12710
gfz2014gltx   0.36650
gfz2014gmge  -0.48800
gfz2014gmhr  -0.58200
gfz2014gmip  -0.12040
gfz2014gmjo   0.44250
gfz2014gmku  -0.42850
gfz2014gmlz   0.67780
gfz2014gmnb   0.05060
gfz2014gmnw   0.19110
gfz2014gmor  -0.25420
gfz2014gmpy  -0.42020
gfz2014gmrj   0.80960
gfz2014gmuk   0.04290
gfz2014gmvr  -0.01110
gfz2014gnfd   0.00000
gfz2014gnfs  -0.83270
gfz2014gngg   0.46730
gfz2014gnnt   0.27070
gfz2014gnqt  -1.85200
gfz2014gnre  -0.26830
gfz2014gnxb   0.30740
gfz2014goba  -0.18940
gfz2014gogv  -0.14690
gfz2014goqw   0.35410
gfz2014gphr   0.39150
gfz2014gpuk  -0.36820
gfz2014gpya   0.10890
gfz2014gqbj  -0.36430
gfz2014gqer   0.95070
gfz2014gqiy   0.26690
gfz2014gqqz  -1.36680
gfz2014gqve   0.09410
gfz2014grcv   0.78080
gfz2014gsqs  -0.67780
gfz2014gull  -0.47550
gfz2014gvqj   0.07470
gfz2014gvra  -0.16640
gfz2014gvrd  -0.00000
gfz2014gwab  -0.02100
gfz2014gxxh   0.54980
gfz2014gxxo   0.17080
gfz2014gyxd   0.29390
gfz2014hasj   0.16780
gfz2014hauo   0.73560
gfz2014hbjm   0.17090
gfz2014hbjz   0.16850
gfz2014hbqb  -0.10490
gfz2014hcmj   0.32930
gfz2014hetr   0.17040
gfz2014heum   0.09290
gfz2014hfhl   0.18370
gfz2014hgqo   1.46600
gfz2014hjgh   0.44880
gfz2014hjgr  -0.10780
gfz2014hjij  -0.46380
gfz2014hkcf   0.13180
gfz2014hmrs   0.48510
gfz2014hocg   0.51470
gfz2014hphw  -0.17210
gfz2014hppw  -0.54650
gfz2014hpqz  -0.90710
gfz2014hqxs   0.24960
gfz2014hrft  -0.18490
gfz2014hriu   0.33920
gfz2014hyvq  -1.64560
gfz2014hzfw  -0.33810
gfz2014hzgn   0.95890
gfz2014hzhe   0.54670
gfz2014iani   0.07810
gfz2014icqt  -2.47560
gfz2014ifzj   0.03940
gfz2014imnn   0.22690
gfz2014iobd   0.28580
gfz2014irci   0.41090
gfz2014itbe   0.47160
gfz2014itgh   0.11750
gfz2014itjx  -0.28500
gfz2014itkw   0.15850
gfz2014itpj   0.17220
gfz2014iywt  -0.46850
gfz2014jcjt   0.04970
gfz2014jfis   0.47440
gfz2014jjhc   0.00740
gfz2014jjln   0.32690
gfz2014jnyv  -0.00000
gfz2014jomw  -0.60700
gfz2014jpep  -0.06150
gfz2014jwmh   0.30790
gfz2014kbuk  -0.84940
gfz2014khan   0.29280
gfz2014khlk  -0.64390
gfz2014kmmt   0.27640
gfz2014kndc   0.08590
gfz2014knks  -0.02660
gfz2014knxs   0.52610
gfz2014ksmz   0.75520
gfz2014kyan  -0.08290
gfz2014kytf   0.41150
gfz2014kzzm  -0.74680
gfz2014lddn  -1.30330
gfz2014ldhu  -0.19270
gfz2014lefs  -0.68140
gfz2014lgqn  -0.09290
gfz2014ljbr  -0.13250
gfz2014lkyf   0.53380
gfz2014lrzx   0.13880
gfz2014lxnc  -0.02240
gfz2014lyhk   0.52590
gfz2014lynp  -0.54450
gfz2014macx   0.24810
gfz2014madw   0.15880
gfz2014moaw  -0.00000
gfz2014mogb   0.86460
gfz2014mtum   0.32670
gfz2014mxkr  -0.70530
gfz2014nkdx  -0.46690
gfz2014nnxd  -1.08520
gfz2014nowp   0.03100
gfz2014npeo  -0.04800
gfz2014nphm   0.28480
gfz2014nqfm  -0.08530
gfz2014nrie  -0.45170
gfz2014nyeh  -1.35220
gfz2014nyko   0.00000
gfz2014odgv   0.64590
gfz2014oinz   0.04410
gfz2014omyn   0.34690
gfz2014oryw   0.52630
gfz2014owxc   0.00000
gfz2014oyly  -0.18640
gfz2014pkll   0.02130
gfz2014ppzf  -0.00000
gfz2014pvch   0.33250
gfz2014pzml   0.29900
gfz2014pzni   0.32070
gfz2014qlvc   0.43010
gfz2014qlxd  -0.10360
gfz2014qngj  -0.01980
gfz2014qqhm  -0.91330
gfz2014raau   0.30420
gfz2014rdsn  -0.58360
gfz2014riel   0.12670
gfz2014rkwl   0.64840
gfz2014romy   0.40010
gfz2014rtcu  -0.22360
gfz2014rwos  -0.18110
gfz2014ryfb  -0.03500
gfz2014sadu   0.18410
gfz2014sjqw   0.04510
gfz2014sptq   0.62040
gfz2014sryn   0.00000
gfz2014ssmv  -0.02150
gfz2014ssvz  -0.27890
gfz2014szzf   0.17370
gfz2014tabg   0.22990
gfz2014tfgn  -1.59810
gfz2014tovs   0.03700
gfz2014tqdo   0.14880
gfz2014tqsf  -0.21510
gfz2014tzsd   0.45640
gfz2014ubwn  -0.15180
gfz2014udgg   0.00000
gfz2014uohh   0.38860
gfz2014utac   0.09630
gfz2014uuuf  -1.89680
gfz2014uvji  -0.20730
gfz2014uvrk   0.87790
gfz2014vcev   0.33870
gfz2014vhld   0.57220
gfz2014vjoz   0.58660
gfz2014vpus  -0.63610
gfz2014waoo  -0.00000
gfz2014watn  -0.09580
gfz2014wjko   0.00060
gfz2014wmsc   0.01540
gfz2014wrkh  -0.96090
gfz2014wwib   0.13100
gfz2014xbyr   0.16850
gfz2014xhkc  -0.00000
gfz2014xjri  -0.50930
gfz2014xmnp   2.25010
gfz2014xoji   0.17790
gfz2014xqqd  -0.15290
gfz2014yhhm  -0.10560
gfz2014ynhc   0.66660
gfz2014yppv   0.31810
gfz2014yrug   0.11330
gfz2014yyiy  -0.49080
gfz2014zkys  -0.26330
gfz2014zlgp  -0.15960
gfz2015abpw  -1.85500
gfz2015apnk  -0.10250
gfz2015arpd  -0.36330
gfz2015aruz  -0.17290
gfz2015atxv  -0.89240
gfz2015bdyd   0.12050
gfz2015berb   0.71970
gfz2015bfjm  -0.38690
gfz2015bkbj   0.12530
gfz2015bphe  -1.54330
gfz2015bucr   0.60660
gfz2015bvsj  -1.89260
gfz2015byfn  -2.25490
gfz2015byjd   0.35920
gfz2015chhn   0.26050
gfz2015chqn  -0.07400
gfz2015cxhx  -0.13020
gfz2015cxxk   0.29810
gfz2015cyjd   0.77970
gfz2015czfv  -0.47570
gfz2015dizn   0.09630
gfz2015djts   0.11760
gfz2015dskr   0.22850
gfz2015dvbn   0.14930
gfz2015ecgq   0.22410
gfz2015eeyq   0.36110
gfz2015eezy   1.73130
gfz2015egxq  -0.34130
gfz2015eiky   0.17680
gfz2015elgy  -0.22940
gfz2015emtg   0.23350
gfz2015etai  -0.05350
gfz2015fbbk  -0.03460
gfz2015fbew   0.11320
gfz2015fcua  -0.61080
gfz2015fdpr   0.22460
gfz2015fjhk   0.40940
gfz2015fkgt   0.28000
gfz2015fkic   0.81130
gfz2015fkuu  -0.71750
gfz2015flis   0.04220
gfz2015fpez  -0.68020
gfz2015fsjj   0.51750
gfz2015fvoi   0.37590
gfz2015fwkq   0.34050
gfz2015fxdi   0.10750
gfz2015fyvk   0.45420
gfz2015gckd   0.17030
gfz2015ggjw   0.52990
gfz2015gkwa   0.17630
gfz2015gmgf  -0.38410
gfz2015gnmy  -0.24400
gfz2015gzja   0.01840
gfz2015hgbk   0.12760
gfz2015hlqo   0.53860
gfz2015hpmk   0.33330
gfz2015hslo   0.28660
gfz2015iele   0.58840
gfz2015imty   0.03120
gfz2015iwqk   0.36460
gfz2015ixyy   0.65820
gfz2015jkdw   0.09190
gfz2015jpap  -1.53230
gfz2015jwgl  -0.14600
gfz2015jxbx  -0.32790
gfz2015jzcv   0.27320
gfz2015kakw   0.18940
gfz2015kalm   0.22000
gfz2015kcaa   0.32190
gfz2015kfsu   0.05470
gfz2015kkqb   0.35850
gfz2015kkth   0.13630
gfz2015kphk  -2.68210
gfz2015kquq   0.37920
gfz2015ksni   0.30680
gfz2015kvwz   0.62600
gfz2015lcma   0.41680
gfz2015lfma  -0.02170
gfz2015lfud  -0.10970
gfz2015lhjq   0.04260
gfz2015lhjy   0.80040
gfz2015ltii   0.11190
gfz2015lytv  -1.48740
gfz2015lzad  -0.13900
gfz2015mddr   0.06840
gfz2015mfpy   0.32190
gfz2015mpte  -0.85790
gfz2015nerz   0.02470
gfz2015nqgf   0.63880
gfz2015nuxz  -0.58380
gfz2015nwug  -0.11870
gfz2015ocdz   0.16760
gfz2015ofpd   0.24120
gfz2015okmq   0.15900
gfz2015okpu  -0.00000
gfz2015orkl   0.10600
gfz2015oyfl   0.23460
gfz2015pcvt  -0.01660
gfz2015pdri   0.34360
gfz2015pjgr   0.15370
gfz2015plal   0.13340
gfz2015poni   0.26730
gfz2015qnho   0.06880
gfz2015qnto   0.28580
gfz2015qprd   0.51650
gfz2015quzo  -0.71420
gfz2015rgov   0.63820
gfz2015rgrg   0.53300
gfz2015rkbq  -1.33390
gfz2015rkrg   0.45900
gfz2015rkzg   0.19040
gfz2015rpzn  -0.17890
gfz2015rwsb  -0.01980
gfz2015rxmg  -0.49750
gfz2015saet   0.62540
gfz2015sfdd  -0.04340
gfz2015sfdl   0.04380
gfz2015sfdy   0.11740
gfz2015sfeo   0.59740
gfz2015sfga   0.09460
gfz2015sfho   0.63700
gfz2015sfhz  -1.32810
gfz2015sfiq   0.62160
gfz2015sfjf  -0.23690
gfz2015sfkh   0.19250
gfz2015sfko   0.07840
gfz2015sfks   0.19090
gfz2015sfkz   0.33340
gfz2015sflf   0.36330
gfz2015sfnb  -0.69360
gfz2015sfno  -0.29350
gfz2015sfnv  -0.18300
gfz2015sfoc   0.38820
gfz2015sfoq  -0.39870
gfz2015sfpj  -0.29620
gfz2015sfps   0.17160
gfz2015sfqo  -0.05800
gfz2015sfqr   0.10640
gfz2015sfrf  -0.12030
gfz2015sfsi   1.22720
gfz2015sftu   0.44540
gfz2015sfuz   0.54980
gfz2015sfwf   0.17230
gfz2015sfxn   0.30120
gfz2015sfzm  -0.41710
gfz2015sgad   0.19150
gfz2015sgmm   0.26760
gfz2015sgmr   0.55540
gfz2015sgna   0.30390
gfz2015sgyd   0.40960
gfz2015shaq   0.00000
gfz2015shel   0.06440
gfz2015shhg   0.32290
gfz2015shhu  -0.19180
gfz2015shjn  -0.23580
gfz2015shjo  -0.13560
gfz2015shqc   0.72190
gfz2015shqe  -0.50110
gfz2015shrg  -0.32110
gfz2015shsz   0.00000
gfz2015sicf  -0.50720
gfz2015siky   0.62160
gfz2015sing  -0.23960
gfz2015sist   0.32350
gfz2015sitn   0.17610
gfz2015siyy  -0.19840
gfz2015sjbx  -0.05140
gfz2015sjeq  -0.47760
gfz2015sjfi   0.00410
gfz2015sjgk  -0.12740
gfz2015sjjb  -1.24550
gfz2015sjne   0.34490
gfz2015sjoj   0.16850
gfz2015sjpn  -0.06330
gfz2015sjtz   0.06560
gfz2015sjvu   0.25790
gfz2015sjwi   0.09400
gfz2015sklu  -0.66840
gfz2015skpv  -1.05620
gfz2015skuk   0.45660
gfz2015skxu   0.05890
gfz2015sldx   0.13130
gfz2015sljs  -0.49290
gfz2015slun  -0.10460
gfz2015smym  -0.36760
gfz2015snhn  -0.77190
gfz2015snmr  -0.23410
gfz2015snsf  -0.23210
gfz2015snwh  -0.49900
gfz2015snyd  -0.17640
gfz2015soat  -0.04740
gfz2015sopc  -0.08910
gfz2015soxc  -0.42390
gfz2015sqbg  -0.25700
gfz2015sqmy   0.13330
gfz2015srat  -0.06600
gfz2015sspn   0.61160
gfz2015stfy   0.98870
gfz2015stso   0.07930
gfz2015svjy   0.53040
gfz2015svwm   0.32660
gfz2015sxxu   0.52690
gfz2015sydc   0.50990
gfz2015szcb  -0.63150
gfz2015szfe   0.17900
gfz2015sztx   0.50690
gfz2015taml   0.65490
gfz2015tdcu  -0.78340
