# Nsamples: 35  MAD:  0.485  mean: -0.215  variance:  0.852
gfz2010excp  -0.67520
gfz2010exdd   0.65780
gfz2010iull   0.14160
gfz2010nmpc   0.69900
gfz2011aatr   0.17290
gfz2011dcqb  -2.92380
gfz2011lzwj  -0.19620
gfz2011olkk  -3.54470
gfz2011toub   0.17170
gfz2012enno   0.16560
gfz2012jlox   0.21130
gfz2012kkup   0.27340
gfz2012kudo   0.53920
gfz2012ttoa  -1.17050
gfz2012uaqj  -0.11810
gfz2012wypz   0.08120
gfz2013ccnr  -0.12930
gfz2013drxz   0.22840
gfz2013jkut   0.68770
gfz2013nwdi  -0.27240
gfz2013svci   0.24820
gfz2014gkgf  -0.25250
gfz2014gmhr  -0.49860
gfz2014hgqo  -1.36200
gfz2014jcmt  -1.03090
gfz2014kwie   1.00200
gfz2014ssvz   0.97610
gfz2015fsjj   0.33630
gfz2015lhjy   0.13790
gfz2015lytv  -0.07900
gfz2015sfdd  -0.37110
gfz2015sfdy  -0.48790
gfz2015snwh  -0.74180
gfz2015soxc  -0.23070
gfz2015svwm  -0.17570
