# Nsamples: 51  MAD:  0.779  mean: -0.248  variance:  1.165
gfz2012enno  -0.18410
gfz2012fzfa   0.10730
gfz2012intn   0.23830
gfz2012jlox  -0.03270
gfz2012kkup  -0.67150
gfz2012klhx  -0.70980
gfz2012lczo   1.72950
gfz2012minr  -0.53380
gfz2012ttoa  -1.11290
gfz2012wmkd   1.29890
gfz2012wypz  -0.08990
gfz2013mwbh   1.61070
gfz2013nkgj   0.55620
gfz2013nqgw   0.86200
gfz2013nwdi  -0.38040
gfz2013qmer  -0.29950
gfz2013svci   0.79480
gfz2013vjjc  -2.16740
gfz2013wjmm   0.38070
gfz2014ande  -0.23020
gfz2014atgw  -2.51370
gfz2014fgvi  -0.24910
gfz2014fhla  -1.41490
gfz2014fkmr   0.00660
gfz2014fnyg  -0.48330
gfz2014ftka   0.66840
gfz2014gkgf  -0.43730
gfz2014gmhr  -0.86240
gfz2014gull  -0.27370
gfz2014gwab   0.21320
gfz2014gxxo  -0.76960
gfz2014hasj  -1.10910
gfz2014hocg  -0.46770
gfz2014jjhc  -0.93540
gfz2014nqfm   0.12920
gfz2014nrie   0.41720
gfz2014oinz  -0.10540
gfz2014qqhm   0.58740
gfz2014rdsn   1.51720
gfz2014ssvz   0.28020
gfz2015cyjd  -0.60980
gfz2015fsjj   0.15360
gfz2015gckd   1.37870
gfz2015gjbr  -1.27740
gfz2015lhjy   0.14130
gfz2015lytv  -1.93900
gfz2015mpte   0.17880
gfz2015sfno  -1.49250
gfz2015sglg  -4.40220
gfz2015subg   0.45890
gfz2015svwm  -0.59730
