# Nsamples: 31  MAD:  0.796  mean: -0.252  variance:  1.078
gfz2010eaoy  -1.30220
gfz2010elyc   0.50930
gfz2010excp  -2.50120
gfz2010exdd   0.93230
gfz2010ffhq  -1.09560
gfz2010iull   0.31750
gfz2011aatr  -0.57230
gfz2011rewa  -0.45340
gfz2011toub   0.39120
gfz2011wxfs   0.72950
gfz2012enno  -0.28140
gfz2012jlox   0.28950
gfz2012kkup   0.74160
gfz2012wypz  -0.07490
gfz2013ccnr   0.14930
gfz2013nwdi   0.46120
gfz2013rdoo  -2.98570
gfz2013svci   1.16790
gfz2014fgvi   0.00730
gfz2014fhla   1.83780
gfz2014ftka  -0.02750
gfz2014gkgf  -0.30960
gfz2014gmhr   0.28340
gfz2014heyq  -1.80360
gfz2015fsjj   0.44100
gfz2015lhjy   0.10400
gfz2015lytv  -1.61870
gfz2015sfdd  -1.17830
gfz2015snwh  -0.99310
gfz2015soxc  -0.67620
gfz2015svwm  -0.29000
